 0x0000000e (SONAME)                     Library soname: [libETC1.so]
  
Symbol   contains 25 entries:
Num:   Type Bind Vis Ndx Name
0:   NOTYPE LOCAL DEFAULT UND
1:   FUNC GLOBAL DEFAULT UND __cxa_finalize@LIBC (2)
2:   FUNC GLOBAL DEFAULT UND __stack_chk_fail@LIBC (2)
3:   OBJECT GLOBAL DEFAULT UND __stack_chk_guard@LIBC (2)
4:   FUNC GLOBAL DEFAULT UND memcmp@LIBC (2)
5:   FUNC GLOBAL DEFAULT UND memcpy@LIBC (2)
6:   FUNC GLOBAL DEFAULT UND memset@LIBC (2)
7:   FUNC GLOBAL DEFAULT 13 etc1_pkm_get_height
8:   FUNC GLOBAL DEFAULT 13 __aeabi_memclr
9:   FUNC GLOBAL DEFAULT 13 __aeabi_memclr4
10:   FUNC GLOBAL DEFAULT 13 __aeabi_memclr8
11:   FUNC GLOBAL DEFAULT 13 etc1_encode_block
12:   FUNC GLOBAL DEFAULT 13 etc1_encode_image
13:   FUNC GLOBAL DEFAULT 13 etc1_get_encoded_data_siz
14:   FUNC GLOBAL DEFAULT 13 etc1_pkm_format_header
15:   FUNC GLOBAL DEFAULT 13 __aeabi_memcpy
16:   FUNC GLOBAL DEFAULT 13 etc1_decode_block
17:   FUNC GLOBAL DEFAULT 13 etc1_decode_image
18:   FUNC GLOBAL DEFAULT 13 etc1_pkm_get_width
19:   FUNC GLOBAL DEFAULT 13 etc1_pkm_is_valid
20:   FUNC GLOBAL DEFAULT 13 __aeabi_memcpy4
21:   FUNC GLOBAL DEFAULT 13 __aeabi_memcpy8
22:   FUNC GLOBAL DEFAULT 13 __aeabi_memset
23:   FUNC GLOBAL DEFAULT 13 __aeabi_memset4
24:   FUNC GLOBAL DEFAULT 13 __aeabi_memset8
