 0x0000000e (SONAME)                     Library soname: [libbinder.so]
  
Symbol   contains 1476 entries:
Num:   Type Bind Vis Ndx Name
0:   NOTYPE LOCAL DEFAULT UND
1:   FUNC GLOBAL DEFAULT UND __cxa_atexit@LIBC (2)
2:   FUNC GLOBAL DEFAULT UND __cxa_finalize@LIBC (2)
3:   FUNC GLOBAL DEFAULT UND _ZN7android10VectorImpl13
4:   FUNC GLOBAL DEFAULT UND _ZN7android10VectorImpl3a
5:   FUNC GLOBAL DEFAULT UND _ZN7android10VectorImplC2
6:   FUNC GLOBAL DEFAULT UND _ZN7android10VectorImplD2
7:   FUNC GLOBAL DEFAULT UND _ZN7android21report_syspr
8:   FUNC GLOBAL DEFAULT UND _ZN7android7RefBase10onFi
9:   FUNC GLOBAL DEFAULT UND _ZN7android7RefBase12weak
10:   FUNC GLOBAL DEFAULT UND _ZN7android7RefBase12weak
11:   FUNC GLOBAL DEFAULT UND _ZN7android7RefBase13onLa
12:   FUNC GLOBAL DEFAULT UND _ZN7android7RefBase15onLa
13:   FUNC GLOBAL DEFAULT UND _ZN7android7RefBase20exte
14:   FUNC GLOBAL DEFAULT UND _ZN7android7RefBase20onIn
15:   FUNC GLOBAL DEFAULT UND _ZN7android7RefBaseC2Ev
16:   FUNC GLOBAL DEFAULT UND _ZN7android7RefBaseD2Ev
17:   FUNC GLOBAL DEFAULT UND _ZN7android8String16C1ERK
18:   FUNC GLOBAL DEFAULT UND _ZN7android8String16C1Ev
19:   FUNC GLOBAL DEFAULT UND _ZN7android8String16D1Ev
20:   FUNC GLOBAL DEFAULT UND _ZNK7android7RefBase10cre
21:   FUNC GLOBAL DEFAULT UND _ZNK7android7RefBase9decS
22:   FUNC GLOBAL DEFAULT UND _ZNK7android7RefBase9incS
23:   FUNC GLOBAL DEFAULT UND _ZdlPv
24:   FUNC GLOBAL DEFAULT UND _Znwj
25:   FUNC GLOBAL DEFAULT UND __android_log_print@LIBLOG (3)
26:   FUNC GLOBAL DEFAULT UND __cxa_guard_acquire
27:   FUNC GLOBAL DEFAULT UND __cxa_guard_release
28:   FUNC GLOBAL DEFAULT UND __cxa_pure_virtual
29:   FUNC GLOBAL DEFAULT UND __stack_chk_fail@LIBC (2)
30:   OBJECT GLOBAL DEFAULT UND __stack_chk_guard@LIBC (2)
31:   FUNC GLOBAL DEFAULT UND abort@LIBC (2)
32:   FUNC GLOBAL DEFAULT UND pthread_mutex_destroy@LIBC (2)
33:   FUNC GLOBAL DEFAULT UND pthread_mutex_init@LIBC (2)
34:   FUNC GLOBAL DEFAULT UND pthread_mutex_lock@LIBC (2)
35:   FUNC GLOBAL DEFAULT UND pthread_mutex_unlock@LIBC (2)
36:   FUNC GLOBAL DEFAULT UND _ZN7android10VectorImpl11
37:   FUNC GLOBAL DEFAULT UND _ZN7android10VectorImpl13
38:   FUNC GLOBAL DEFAULT UND _ZN7android10VectorImpl5c
39:   FUNC GLOBAL DEFAULT UND _ZN7android10VectorImpl8i
40:   FUNC GLOBAL DEFAULT UND _ZN7android16SortedVector
41:   FUNC GLOBAL DEFAULT UND _ZN7android16SortedVector
42:   FUNC GLOBAL DEFAULT UND _ZN7android16SortedVector
43:   FUNC GLOBAL DEFAULT UND _ZN7android16SortedVector
44:   FUNC GLOBAL DEFAULT UND _ZN7android7RefBase12weak
45:   FUNC GLOBAL DEFAULT UND _ZN7android8String165setT
46:   FUNC GLOBAL DEFAULT UND _ZNK7android16SortedVecto
47:   FUNC GLOBAL DEFAULT UND _ZNK7android7RefBase11get
48:   FUNC GLOBAL DEFAULT UND _ZNK7android8String164siz
49:   FUNC GLOBAL DEFAULT UND _ZNSt3__112__next_primeEj
50:   FUNC GLOBAL DEFAULT UND __android_log_assert@LIBLOG (3)
51:   FUNC GLOBAL DEFAULT UND getuid@LIBC (2)
52:   FUNC GLOBAL DEFAULT UND _ZN7android10VectorImpl16
53:   FUNC GLOBAL DEFAULT UND _ZN7android14sp_report_ra
54:   FUNC GLOBAL DEFAULT UND _ZN7android7RefBase10rena
55:   FUNC GLOBAL DEFAULT UND _ZN7android7RefBase11rena
56:   FUNC GLOBAL DEFAULT UND free@LIBC (2)
57:   FUNC GLOBAL DEFAULT UND realloc@LIBC (2)
58:   FUNC GLOBAL DEFAULT UND strlen@LIBC (2)
59:   FUNC GLOBAL DEFAULT UND thread_store_get
60:   FUNC GLOBAL DEFAULT UND thread_store_set
61:   FUNC GLOBAL DEFAULT UND __vsprintf_chk@LIBC (2)
62:   FUNC GLOBAL DEFAULT UND printf@LIBC (2)
63:   FUNC GLOBAL DEFAULT UND _ZN7android8String16C1EPK
64:   FUNC GLOBAL DEFAULT UND __android_log_error_write@LIBLOG_M (4)
65:   FUNC GLOBAL DEFAULT UND __errno@LIBC (2)
66:   FUNC GLOBAL DEFAULT UND close@LIBC (2)
67:   FUNC GLOBAL DEFAULT UND fcntl@LIBC (2)
68:   FUNC GLOBAL DEFAULT UND mmap@LIBC (2)
69:   FUNC GLOBAL DEFAULT UND munmap@LIBC (2)
70:   FUNC GLOBAL DEFAULT UND strerror@LIBC (2)
71:   FUNC GLOBAL DEFAULT UND strzcmp16
72:   FUNC GLOBAL DEFAULT UND _ZN7android10VectorImpl4p
73:   FUNC GLOBAL DEFAULT UND _ZN7android12uptimeMillis
74:   FUNC GLOBAL DEFAULT UND _ZN7android18IPCThreadSta
75:   FUNC GLOBAL DEFAULT UND _ZN7android18IPCThreadSta
76:   FUNC GLOBAL DEFAULT UND _ZN7android18IPCThreadSta
77:   FUNC GLOBAL DEFAULT UND _ZN7android18IPCThreadSta
78:   NOTYPE WEAK DEFAULT UND _ZN7android9CallStack11de
79:   NOTYPE WEAK DEFAULT UND _ZN7android9CallStack16lo
80:   NOTYPE WEAK DEFAULT UND _ZN7android9CallStack18ge
81:   FUNC GLOBAL DEFAULT UND getpid@LIBC (2)
82:   FUNC GLOBAL DEFAULT UND ioctl@LIBC (2)
83:   FUNC GLOBAL DEFAULT UND pthread_cond_broadcast@LIBC (2)
84:   FUNC GLOBAL DEFAULT UND pthread_cond_wait@LIBC (2)
85:   FUNC GLOBAL DEFAULT UND pthread_getspecific@LIBC (2)
86:   FUNC GLOBAL DEFAULT UND pthread_key_create@LIBC (2)
87:   FUNC GLOBAL DEFAULT UND pthread_key_delete@LIBC (2)
88:   FUNC GLOBAL DEFAULT UND pthread_setspecific@LIBC (2)
89:   FUNC GLOBAL DEFAULT UND _ZN7android7String8C1ERKN
90:   FUNC GLOBAL DEFAULT UND _ZN7android7String8D1Ev
91:   FUNC GLOBAL DEFAULT UND property_get
92:   FUNC GLOBAL DEFAULT UND sleep@LIBC (2)
93:   FUNC GLOBAL DEFAULT UND strcmp@LIBC (2)
94:   FUNC GLOBAL DEFAULT UND usleep@LIBC (2)
95:   FUNC GLOBAL DEFAULT UND _ZN7android7String86appen
96:   FUNC GLOBAL DEFAULT UND _ZN7android7String8C1Ev
97:   FUNC GLOBAL DEFAULT UND __vsnprintf_chk@LIBC (2)
98:   FUNC GLOBAL DEFAULT UND getpagesize@LIBC (2)
99:   FUNC GLOBAL DEFAULT UND madvise@LIBC (2)
100:   FUNC GLOBAL DEFAULT UND __open_2@LIBC (2)
101:   FUNC GLOBAL DEFAULT UND ashmem_create_region
102:   FUNC GLOBAL DEFAULT UND ashmem_set_prot_region
103:   FUNC GLOBAL DEFAULT UND fstat@LIBC (2)
104:   FUNC GLOBAL DEFAULT UND _ZN7android7String85setTo
105:   FUNC GLOBAL DEFAULT UND _ZN7android7String85setTo
106:   FUNC GLOBAL DEFAULT UND _ZN7android7String8C1EPKc
107:   FUNC GLOBAL DEFAULT UND _ZN7android7String8C1ERKS
108:   FUNC GLOBAL DEFAULT UND _ZN7android8String165setT
109:   FUNC GLOBAL DEFAULT UND _ZN7android8String16C1EPK
110:   FUNC GLOBAL DEFAULT UND _ZN7android8String16C1ERK
111:   FUNC GLOBAL DEFAULT UND _ZNK7android7String86leng
112:   FUNC GLOBAL DEFAULT UND _ZNKSt3__120__vector_base
113:   FUNC GLOBAL DEFAULT UND _ZNKSt3__121__basic_strin
114:   FUNC GLOBAL DEFAULT UND _ZNKSt3__16locale9use_fac
115:   FUNC GLOBAL DEFAULT UND _ZNKSt3__18ios_base6getlo
116:   FUNC GLOBAL DEFAULT UND _ZNSt3__112basic_stringIc
117:   FUNC GLOBAL DEFAULT UND _ZNSt3__112basic_stringIc
118:   FUNC GLOBAL DEFAULT UND _ZNSt3__112basic_stringIc
119:   FUNC GLOBAL DEFAULT UND _ZNSt3__113basic_istreamI
120:   FUNC GLOBAL DEFAULT UND _ZNSt3__113basic_istreamI
121:   FUNC GLOBAL DEFAULT UND _ZNSt3__113basic_ostreamI
122:   FUNC GLOBAL DEFAULT UND _ZNSt3__113basic_ostreamI
123:   FUNC GLOBAL DEFAULT UND _ZNSt3__113basic_ostreamI
124:   FUNC GLOBAL DEFAULT UND _ZNSt3__113basic_ostreamI
125:   FUNC GLOBAL DEFAULT UND _ZNSt3__113basic_ostreamI
126:   FUNC GLOBAL DEFAULT UND _ZNSt3__113basic_ostreamI
127:   FUNC GLOBAL DEFAULT UND _ZNSt3__113basic_ostreamI
128:   FUNC GLOBAL DEFAULT UND _ZNSt3__114basic_iostream
129:   FUNC GLOBAL DEFAULT UND _ZNSt3__114basic_iostream
130:   FUNC GLOBAL DEFAULT UND _ZNSt3__114basic_iostream
131:   FUNC GLOBAL DEFAULT UND _ZNSt3__115basic_streambu
132:   FUNC GLOBAL DEFAULT UND _ZNSt3__115basic_streambu
133:   FUNC GLOBAL DEFAULT UND _ZNSt3__115basic_streambu
134:   FUNC GLOBAL DEFAULT UND _ZNSt3__115basic_streambu
135:   FUNC GLOBAL DEFAULT UND _ZNSt3__115basic_streambu
136:   FUNC GLOBAL DEFAULT UND _ZNSt3__115basic_streambu
137:   FUNC GLOBAL DEFAULT UND _ZNSt3__115basic_streambu
138:   FUNC GLOBAL DEFAULT UND _ZNSt3__115basic_streambu
139:   FUNC GLOBAL DEFAULT UND _ZNSt3__115basic_streambu
140:   OBJECT GLOBAL DEFAULT UND _ZNSt3__15ctypeIcE2idE
141:   FUNC GLOBAL DEFAULT UND _ZNSt3__16localeD1Ev
142:   FUNC GLOBAL DEFAULT UND _ZNSt3__18ios_base4initEP
143:   FUNC GLOBAL DEFAULT UND _ZNSt3__18ios_base5clearE
144:   FUNC GLOBAL DEFAULT UND _ZNSt3__19basic_iosIcNS_1
145:   OBJECT GLOBAL DEFAULT UND _ZSt7nothrow
146:   FUNC GLOBAL DEFAULT UND _ZThn8_NSt3__114basic_ios
147:   FUNC GLOBAL DEFAULT UND _ZThn8_NSt3__114basic_ios
148:   FUNC GLOBAL DEFAULT UND _ZTv0_n12_NSt3__113basic_
149:   FUNC GLOBAL DEFAULT UND _ZTv0_n12_NSt3__113basic_
150:   FUNC GLOBAL DEFAULT UND _ZTv0_n12_NSt3__113basic_
151:   FUNC GLOBAL DEFAULT UND _ZTv0_n12_NSt3__113basic_
152:   FUNC GLOBAL DEFAULT UND _ZTv0_n12_NSt3__114basic_
153:   FUNC GLOBAL DEFAULT UND _ZTv0_n12_NSt3__114basic_
154:   FUNC GLOBAL DEFAULT UND _ZdaPv
155:   FUNC GLOBAL DEFAULT UND _ZnajRKSt9nothrow_t
156:   FUNC GLOBAL DEFAULT UND _ZnwjRKSt9nothrow_t
157:   FUNC GLOBAL DEFAULT UND __write_chk@LIBC_N (5)
158:   FUNC WEAK DEFAULT UND android_fdsan_close_with_@LIBC_Q (6)
159:   FUNC WEAK DEFAULT UND android_fdsan_create_owne@LIBC_Q (6)
160:   FUNC WEAK DEFAULT UND android_fdsan_exchange_ow@LIBC_Q (6)
161:   FUNC GLOBAL DEFAULT UND ashmem_get_size_region
162:   FUNC GLOBAL DEFAULT UND ashmem_valid
163:   FUNC GLOBAL DEFAULT UND calloc@LIBC (2)
164:   FUNC GLOBAL DEFAULT UND getrlimit@LIBC (2)
165:   FUNC GLOBAL DEFAULT UND malloc@LIBC (2)
166:   FUNC GLOBAL DEFAULT UND memchr@LIBC (2)
167:   FUNC GLOBAL DEFAULT UND memcmp@LIBC (2)
168:   FUNC GLOBAL DEFAULT UND native_handle_close
169:   FUNC GLOBAL DEFAULT UND native_handle_create
170:   FUNC GLOBAL DEFAULT UND native_handle_delete
171:   FUNC GLOBAL DEFAULT UND utf16_to_utf8
172:   FUNC GLOBAL DEFAULT UND utf16_to_utf8_length
173:   FUNC GLOBAL DEFAULT UND utf8_to_utf16
174:   FUNC GLOBAL DEFAULT UND utf8_to_utf16_length
175:   FUNC GLOBAL DEFAULT UND _ZN7android6Thread10ready
176:   FUNC GLOBAL DEFAULT UND _ZN7android6Thread11reque
177:   FUNC GLOBAL DEFAULT UND _ZN7android6Thread3runEPK
178:   FUNC GLOBAL DEFAULT UND _ZN7android6ThreadC2Eb
179:   FUNC GLOBAL DEFAULT UND _ZN7android6ThreadD0Ev
180:   FUNC GLOBAL DEFAULT UND _ZN7android6ThreadD1Ev
181:   FUNC GLOBAL DEFAULT UND _ZN7android6ThreadD2Ev
182:   FUNC GLOBAL DEFAULT UND _ZN7android7RefBase12weak
183:   FUNC GLOBAL DEFAULT UND _ZN7android7String812appe
184:   FUNC GLOBAL DEFAULT UND _ZN7android7String85clear
185:   FUNC GLOBAL DEFAULT UND _ZNK7android7RefBase14for
186:   FUNC GLOBAL DEFAULT UND _ZTv0_n12_N7android6Threa
187:   FUNC GLOBAL DEFAULT UND _ZTv0_n12_N7android6Threa
188:   FUNC GLOBAL DEFAULT UND access@LIBC (2)
189:   FUNC GLOBAL DEFAULT UND androidSetThreadName
190:   FUNC GLOBAL DEFAULT UND sysconf@LIBC (2)
191:   FUNC GLOBAL DEFAULT UND writev@LIBC (2)
192:   FUNC GLOBAL DEFAULT UND _ZN7android7String86appen
193:   FUNC GLOBAL DEFAULT UND _ZNSt3__19to_stringEi
194:   FUNC GLOBAL DEFAULT UND _ZNSt3__112basic_stringIc
195:   FUNC GLOBAL DEFAULT UND _ZNSt3__112basic_stringIc
196:   FUNC WEAK DEFAULT UND android_set_abort_message@LIBC (2)
197:   FUNC GLOBAL DEFAULT UND write@LIBC (2)
198:   FUNC GLOBAL DEFAULT UND memcpy@LIBC (2)
199:   FUNC GLOBAL DEFAULT UND memmove@LIBC (2)
200:   FUNC GLOBAL DEFAULT UND memset@LIBC (2)
201:   OBJECT WEAK DEFAULT 18 _ZTVN7android12SortedVect
202:   FUNC GLOBAL DEFAULT 14 _ZThn4_N7android12BnMemor
203:   FUNC GLOBAL DEFAULT 14 _ZThn4_N7android8BnMemory
204:   FUNC GLOBAL DEFAULT 14 _ZNK7android6Parcel14read
205:   FUNC GLOBAL DEFAULT 14 _ZNK7android6Parcel8readC
206:   FUNC WEAK DEFAULT 14 _ZNSt3__16__treeINS_12__v
207:   FUNC WEAK DEFAULT 14 _ZNSt3__16__treeINS_12__v
208:   FUNC GLOBAL DEFAULT 14 _ZN7android14IPCThreadSta
209:   FUNC GLOBAL DEFAULT 14 _ZTv0_n12_N7android14Memo
210:   FUNC GLOBAL DEFAULT 14 _ZN7android6Parcel12pushA
211:   OBJECT WEAK DEFAULT 18 _ZTVN7android6VectorIiEE
212:   FUNC GLOBAL DEFAULT 14 _ZN7android8BpBinder11lin
213:   FUNC WEAK DEFAULT 14 _ZNK7android12SortedVecto
214:   OBJECT GLOBAL DEFAULT 18 _ZTCN7android16BnResultRe
215:   OBJECT WEAK DEFAULT 18 _ZTCN7android15BpShellCal
216:   FUNC WEAK DEFAULT 14 _ZNK7android6Parcel21unsa
217:   FUNC GLOBAL DEFAULT 14 _ZN7android6binder5Valuea
218:   FUNC GLOBAL DEFAULT 14 _ZThn4_N7android8BnMemory
219:   FUNC WEAK DEFAULT 14 _ZNK7android6VectorIiE7do
220:   OBJECT GLOBAL DEFAULT 18 _ZTVN7android10Allocation
221:   FUNC GLOBAL DEFAULT 14 _ZN7android6binder5ValueC
222:   OBJECT GLOBAL DEFAULT 18 _ZTTN7android12BnMemoryHe
223:   FUNC GLOBAL DEFAULT 14 _ZThn4_N7android8BpMemory
224:   FUNC WEAK DEFAULT 14 _ZNSt3__16vectorINS_10uni
225:   FUNC WEAK DEFAULT 14 _ZNKSt3__16__treeINS_12__
226:   FUNC GLOBAL DEFAULT 14 _ZN7android10MemoryBaseD2
227:   FUNC GLOBAL DEFAULT 14 _ZNK7android14MemoryHeapB
228:   FUNC GLOBAL DEFAULT 14 _ZN7android6binder5ValueC
229:   FUNC GLOBAL DEFAULT 14 _ZNK7android14IPCThreadSt
230:   FUNC GLOBAL DEFAULT 14 _ZNK7android6Parcel12read
231:   FUNC GLOBAL DEFAULT 14 __aeabi_memset
232:   FUNC GLOBAL DEFAULT 14 _ZN7android6binder5ValueC
233:   FUNC WEAK DEFAULT 14 _ZNSt3__16vectorIN7androi
234:   FUNC GLOBAL DEFAULT 14 _ZN7android6binder5Value1
235:   FUNC GLOBAL DEFAULT 14 _ZN7android6Parcel13write
236:   FUNC GLOBAL DEFAULT 14 _ZNK7android7IBinder13che
237:   FUNC WEAK DEFAULT 14 _ZNSt3__112__hash_tableIN
238:   FUNC WEAK DEFAULT 14 _ZNK7android12SortedVecto
239:   FUNC WEAK DEFAULT 14 _ZNK7android6Parcel23read
240:   FUNC GLOBAL DEFAULT 14 _ZN7android12ProcessState
241:   FUNC GLOBAL DEFAULT 14 _ZN7android6binder5Value6
242:   FUNC GLOBAL DEFAULT 14 _ZN7android8BnMemoryD0Ev
243:   FUNC GLOBAL DEFAULT 14 _ZNK7android2os17Persista
244:   FUNC GLOBAL DEFAULT 14 _ZNK7android7IMemory22get
245:   OBJECT WEAK DEFAULT 18 _ZTVN7android6binder5Valu
246:   FUNC GLOBAL DEFAULT 14 _ZTv0_n16_N7android9BpRef
247:   FUNC GLOBAL DEFAULT 14 _ZN7android8BpBinder20set
248:   FUNC GLOBAL DEFAULT 14 _ZNK7android6Parcel7ipcDa
249:   OBJECT GLOBAL DEFAULT 18 _ZTCN7android10Allocation
250:   FUNC WEAK DEFAULT 14 _ZNSt3__16__treeINS_12__v
251:   FUNC WEAK DEFAULT 14 _ZNSt3__112__hash_tableIN
252:   FUNC GLOBAL DEFAULT 14 _ZNK7android6Parcel8readB
253:   OBJECT GLOBAL DEFAULT 18 _ZTCN7android8BpMemoryE4_
254:   FUNC WEAK DEFAULT 14 _ZNSt3__16__treeINS_12__v
255:   FUNC GLOBAL DEFAULT 14 _ZN7android8BpBinder13Obj
256:   FUNC GLOBAL DEFAULT 14 _ZN7android6Parcel11setDa
257:   FUNC WEAK DEFAULT 14 _ZNSt3__124__put_characte
258:   FUNC GLOBAL DEFAULT 14 _ZN7android6Parcel10appen
259:   OBJECT GLOBAL DEFAULT 23 _ZN7android15IResultRecei
260:   OBJECT WEAK DEFAULT 18 _ZTCN7android16BpResultRe
261:   FUNC GLOBAL DEFAULT 14 _ZTv0_n12_N7android15ISer
262:   OBJECT WEAK DEFAULT 18 _ZTVN7android15BpShellCal
263:   OBJECT WEAK DEFAULT 18 _ZTVN7android12SortedVect
264:   FUNC GLOBAL DEFAULT 14 _ZN7android11IMemoryHeap1
265:   FUNC GLOBAL DEFAULT 14 _ZN7android8BpMemoryC2ERK
266:   FUNC WEAK DEFAULT 14 _ZN7android6Parcel12write
267:   FUNC GLOBAL DEFAULT 14 _ZN7android6Parcel17write
268:   FUNC WEAK DEFAULT 14 _ZNSt3__16__treeINS_12__v
269:   FUNC WEAK DEFAULT 14 _ZNSt3__16__treeINS_12__v
270:   FUNC GLOBAL DEFAULT 14 _ZN7android10IInterface8a
271:   OBJECT GLOBAL DEFAULT 18 _ZTCN7android8BnMemoryE4_
272:   FUNC WEAK DEFAULT 14 _ZNSt3__113__vector_baseI
273:   FUNC GLOBAL DEFAULT 14 _ZN7android2os17Persistab
274:   FUNC GLOBAL DEFAULT 14 _ZNK7android2os17Persista
275:   FUNC WEAK DEFAULT 14 _ZNSt3__16__treeINS_12__v
276:   FUNC WEAK DEFAULT 14 _ZNK7android6VectorINS_12
277:   OBJECT GLOBAL DEFAULT 23 _ZN7android7IMemory10desc
278:   OBJECT GLOBAL DEFAULT 18 _ZTVN7android8BpMemoryE
279:   FUNC WEAK DEFAULT 14 _ZNSt3__16__treeINS_12__v
280:   FUNC GLOBAL DEFAULT 14 _ZTv0_n12_N7android12BnMe
281:   FUNC WEAK DEFAULT 14 _ZNSt3__115basic_stringbu
282:   OBJECT GLOBAL DEFAULT 18 _ZTVN7android9BpRefBaseE
283:   FUNC GLOBAL DEFAULT 14 _ZThn4_N7android12BpMemor
284:   FUNC WEAK DEFAULT 14 _ZNK7android6VectorIPNS_7
285:   OBJECT GLOBAL DEFAULT 23 _ZN7android26gDefaultServ
286:   FUNC GLOBAL DEFAULT 14 _ZNK7android6Parcel18hasF
287:   FUNC GLOBAL DEFAULT 14 _ZN7android12ProcessState
288:   OBJECT GLOBAL DEFAULT 18 _ZTTN7android12BpMemoryHe
289:   FUNC GLOBAL DEFAULT 14 _ZN7android14IPCThreadSta
290:   FUNC WEAK DEFAULT 14 _ZNSt3__16vectorIxNS_9all
291:   FUNC GLOBAL DEFAULT 14 _ZNK7android6binder5Value
292:   FUNC GLOBAL DEFAULT 14 _ZN7android14IPCThreadSta
293:   FUNC GLOBAL DEFAULT 14 _ZN7android6Parcel15resto
294:   FUNC WEAK DEFAULT 14 _ZNKSt3__16__treeINS_12__
295:   FUNC WEAK DEFAULT 14 _ZNSt3__16__treeINS_12__v
296:   FUNC WEAK DEFAULT 14 _ZNSt3__16__treeINS_12__v
297:   FUNC GLOBAL DEFAULT 14 _ZN7android7IMemory14setD
298:   FUNC GLOBAL DEFAULT 14 _ZN7android15IServiceMana
299:   FUNC GLOBAL DEFAULT 14 _ZN7android2os17Persistab
300:   FUNC GLOBAL DEFAULT 14 _ZN7android9HeapCache9fre
301:   FUNC GLOBAL DEFAULT 14 _ZNK7android6Parcel15ipcO
302:   FUNC WEAK DEFAULT 14 _ZNK7android6VectorIPNS_7
303:   FUNC GLOBAL DEFAULT 14 _ZN7android10MemoryBaseC2
304:   FUNC WEAK DEFAULT 14 _ZNSt3__16__treeINS_12__v
305:   FUNC GLOBAL DEFAULT 14 _ZNK7android6Parcel18read
306:   FUNC WEAK DEFAULT 14 _ZNSt3__16__treeINS_12__v
307:   FUNC WEAK DEFAULT 14 _ZNSt3__16__treeINS_12__v
308:   FUNC GLOBAL DEFAULT 14 _ZN7android11IMemoryHeapD
309:   FUNC GLOBAL DEFAULT 14 _ZN7android15IServiceMana
310:   OBJECT WEAK DEFAULT 18 _ZTCN7android15BpShellCal
311:   FUNC GLOBAL DEFAULT 14 _ZNK7android6Parcel9readV
312:   FUNC WEAK DEFAULT 14 _ZNK7android6VectorINS_12
313:   FUNC GLOBAL DEFAULT 14 _ZN7android8BpBinder12sen
314:   FUNC GLOBAL DEFAULT 14 _ZN7android6Parcel19write
315:   FUNC WEAK DEFAULT 14 _ZNSt3__16__treeIN7androi
316:   FUNC WEAK DEFAULT 14 _ZNSt3__16__treeINS_12__v
317:   FUNC WEAK DEFAULT 14 _ZNK7android6VectorINS_2s
318:   FUNC GLOBAL DEFAULT 14 _ZN7android12ProcessState
319:   FUNC WEAK DEFAULT 14 _ZNSt3__16__treeINS_12__v
320:   FUNC GLOBAL DEFAULT 14 _ZN7android7IBinder19quer
321:   FUNC GLOBAL DEFAULT 14 _ZTv0_n12_N7android10IInt
322:   FUNC GLOBAL DEFAULT 14 _ZN7android7IMemoryD1Ev
323:   FUNC GLOBAL DEFAULT 14 _ZN7android14IPCThreadSta
324:   OBJECT GLOBAL DEFAULT 18 _ZTCN7android14MemoryHeap
325:   FUNC GLOBAL DEFAULT 14 _ZNK7android8BpBinder22ge
326:   FUNC WEAK DEFAULT 14 _ZNSt3__112__hash_tableIN
327:   FUNC GLOBAL DEFAULT 14 _ZN7android12BpMemoryHeap
328:   OBJECT GLOBAL DEFAULT 18 _ZTCN7android8BnMemoryE4_
329:   FUNC GLOBAL DEFAULT 14 _ZN7android14IPCThreadSta
330:   OBJECT WEAK DEFAULT 18 _ZTCN7android15BpShellCal
331:   FUNC GLOBAL DEFAULT 14 _ZN7android14IShellCallba
332:   OBJECT GLOBAL DEFAULT 18 _ZTCN7android11IMemoryHea
333:   OBJECT GLOBAL DEFAULT 23 _ZN7android14IShellCallba
334:   FUNC GLOBAL DEFAULT 14 _ZN7android10AllocationD1
335:   FUNC GLOBAL DEFAULT 14 _ZNK7android6Parcel29read
336:   FUNC WEAK DEFAULT 14 _ZNSt3__16__treeINS_12__v
337:   OBJECT GLOBAL DEFAULT 16 kDefaultDriver
338:   OBJECT GLOBAL DEFAULT 23 _ZN7android8BpBinder18sCo
339:   OBJECT GLOBAL DEFAULT 18 _ZN7android4aoutE
340:   FUNC GLOBAL DEFAULT 14 _ZN7android10IInterface8a
341:   FUNC GLOBAL DEFAULT 14 _ZN7android14IPCThreadSta
342:   FUNC GLOBAL DEFAULT 14 _ZN7android6Parcel23write
343:   FUNC WEAK DEFAULT 14 _ZNSt3__16__treeINS_12__v
344:   FUNC WEAK DEFAULT 14 _ZNSt3__16__treeINS_12__v
345:   OBJECT GLOBAL DEFAULT 18 _ZTTN7android9HeapCacheE
346:   OBJECT GLOBAL DEFAULT 18 _ZTVN7android12ProcessSta
347:   FUNC GLOBAL DEFAULT 14 _ZNK7android8BpBinder13is
348:   FUNC GLOBAL DEFAULT 14 _ZTv0_n12_N7android7BBind
349:   FUNC WEAK DEFAULT 14 _ZNSt3__16__treeINS_12__v
350:   FUNC GLOBAL DEFAULT 14 _ZTv0_n12_N7android9BpRef
351:   FUNC GLOBAL DEFAULT 14 _ZN7android6Parcel19getGl
352:   FUNC WEAK DEFAULT 14 _ZNSt3__16__treeINS_12__v
353:   OBJECT WEAK DEFAULT 23 _ZZ17internal_type_ptrINS
354:   FUNC GLOBAL DEFAULT 14 _ZN7android7HexDumpC1EPKv
355:   FUNC WEAK DEFAULT 14 _ZNK7android6Parcel21unsa
356:   FUNC GLOBAL DEFAULT 14 _ZN7android6binder5Valuea
357:   FUNC GLOBAL DEFAULT 14 _ZN7android14IPCThreadSta
358:   FUNC GLOBAL DEFAULT 14 _ZN7android22SimpleBestFi
359:   FUNC GLOBAL DEFAULT 14 _ZN7android2os20ParcelFil
360:   FUNC WEAK DEFAULT 14 _ZNKSt3__16__treeINS_12__
361:   FUNC GLOBAL DEFAULT 14 _ZN7android6binder6Status
362:   FUNC GLOBAL DEFAULT 14 _ZN7android6ParcelC1Ev
363:   FUNC GLOBAL DEFAULT 14 _ZN7android14IPCThreadSta
364:   FUNC GLOBAL DEFAULT 14 _ZN7android14IPCThreadSta
365:   OBJECT GLOBAL DEFAULT 18 _ZTCN7android10MemoryBase
366:   FUNC GLOBAL DEFAULT 14 _ZNK7android22SimpleBestF
367:   FUNC GLOBAL DEFAULT 14 _ZN7android2os17Persistab
368:   FUNC GLOBAL DEFAULT 14 _ZN7android8BpBinder13Obj
369:   FUNC GLOBAL DEFAULT 14 _ZN7android6Parcel15write
370:   FUNC GLOBAL DEFAULT 14 _ZNK7android6Parcel10read
371:   FUNC GLOBAL DEFAULT 14 _ZNK7android6Parcel10read
372:   FUNC WEAK DEFAULT 14 _ZNSt3__16vectorIN7androi
373:   OBJECT WEAK DEFAULT 18 _ZTVN7android13LogTextOut
374:   FUNC GLOBAL DEFAULT 14 _ZN7android7IBinderD1Ev
375:   FUNC WEAK DEFAULT 14 _ZNSt3__16vectorIxNS_9all
376:   FUNC GLOBAL DEFAULT 14 _ZN7android6ParcelD1Ev
377:   FUNC GLOBAL DEFAULT 14 _ZN7android9HeapCache8get
378:   FUNC GLOBAL DEFAULT 14 _ZN7android6Parcel31write
379:   FUNC WEAK DEFAULT 14 _ZNSt3__16vectorINS_12bas
380:   FUNC GLOBAL DEFAULT 14 _ZNK7android7BBinder13isB
381:   OBJECT GLOBAL DEFAULT 18 _ZTTN7android10IInterface
382:   FUNC WEAK DEFAULT 14 _ZNK7android12SortedVecto
383:   OBJECT GLOBAL DEFAULT 18 _ZTCN7android16BnResultRe
384:   FUNC GLOBAL DEFAULT 14 _ZNK7android22SimpleBestF
385:   FUNC GLOBAL DEFAULT 14 _ZN7android6binderlsERNSt
386:   FUNC WEAK DEFAULT 14 _ZNK7android12SortedVecto
387:   FUNC WEAK DEFAULT 14 _ZNK7android6Parcel21unsa
388:   OBJECT GLOBAL DEFAULT 18 _ZTVN7android14IShellCall
389:   FUNC WEAK DEFAULT 14 _ZNK7android6Parcel23read
390:   FUNC GLOBAL DEFAULT 14 _ZNK7android6Parcel30read
391:   FUNC WEAK DEFAULT 14 _ZNKSt3__16__treeINS_12__
392:   OBJECT WEAK DEFAULT 18 _ZTTN7android10PoolThread
393:   FUNC GLOBAL DEFAULT 14 _ZN7android6binder5ValueC
394:   OBJECT WEAK DEFAULT 18 _ZTVN7android6binder5Valu
395:   FUNC WEAK DEFAULT 14 _ZNK7android6VectorINS_8B
396:   FUNC GLOBAL DEFAULT 14 _ZN7android12MemoryDealer
397:   FUNC GLOBAL DEFAULT 14 _ZN7android6binder6Status
398:   FUNC GLOBAL DEFAULT 14 _ZN7android7HexDumpC2EPKv
399:   FUNC GLOBAL DEFAULT 14 _ZNK7android6binder5Value
400:   FUNC GLOBAL DEFAULT 14 _ZNK7android14IPCThreadSt
401:   FUNC GLOBAL DEFAULT 14 _ZN7android6binder5Value1
402:   FUNC GLOBAL DEFAULT 14 _ZNK7android15IResultRece
403:   FUNC GLOBAL DEFAULT 14 _ZN7android14release_obje
404:   FUNC GLOBAL DEFAULT 14 _ZN7android6Parcel13write
405:   FUNC GLOBAL DEFAULT 14 _ZNK7android6binder6Statu
406:   FUNC GLOBAL DEFAULT 14 __aeabi_memset4
407:   OBJECT GLOBAL DEFAULT 23 _ZN7android15IServiceMana
408:   FUNC GLOBAL DEFAULT 14 _ZN7android10MemoryBaseD0
409:   FUNC WEAK DEFAULT 14 _ZNK7android6Parcel21unsa
410:   FUNC GLOBAL DEFAULT 14 _ZN7android12ProcessState
411:   FUNC GLOBAL DEFAULT 14 _ZNK7android6binder5Value
412:   FUNC GLOBAL DEFAULT 14 _ZNK7android6Parcel8allow
413:   FUNC GLOBAL DEFAULT 14 _ZN7android12ProcessState
414:   FUNC WEAK DEFAULT 14 _ZNSt3__114__copy_aligned
415:   FUNC GLOBAL DEFAULT 14 _ZN7android10IInterfaceD1
416:   FUNC GLOBAL DEFAULT 14 _ZN7android9HeapCacheC2Ev
417:   FUNC GLOBAL DEFAULT 14 _ZN7android6Parcel15write
418:   FUNC GLOBAL DEFAULT 14 _ZN7android6Parcel35write
419:   FUNC WEAK DEFAULT 14 _ZNSt3__16__treeINS_12__v
420:   FUNC GLOBAL DEFAULT 14 __aeabi_memset8
421:   OBJECT GLOBAL DEFAULT 18 _ZTCN7android8BpMemoryE0_
422:   FUNC GLOBAL DEFAULT 14 _ZN7android22SimpleBestFi
423:   FUNC GLOBAL DEFAULT 14 _ZNK7android6Parcel14read
424:   FUNC GLOBAL DEFAULT 14 _ZNK7android6binder5Value
425:   FUNC WEAK DEFAULT 14 _ZNK7android6VectorINS_2s
426:   FUNC GLOBAL DEFAULT 14 _ZN7android6Parcel13write
427:   FUNC GLOBAL DEFAULT 14 _ZNK7android6Parcel17getO
428:   FUNC GLOBAL DEFAULT 14 _ZNK7android2os17Persista
429:   OBJECT WEAK DEFAULT 18 _ZTVN7android6binder5Valu
430:   FUNC GLOBAL DEFAULT 14 _ZN7android7BBinder13unli
431:   FUNC WEAK DEFAULT 14 _ZNK7android6VectorINS_8B
432:   FUNC GLOBAL DEFAULT 14 _ZN7android9HeapCacheD2Ev
433:   OBJECT GLOBAL DEFAULT 18 _ZTCN7android12BnMemoryHe
434:   FUNC GLOBAL DEFAULT 14 _ZN7android14IShellCallba
435:   FUNC GLOBAL DEFAULT 14 _ZNK7android6Parcel15read
436:   FUNC WEAK DEFAULT 14 _ZNKSt3__16__treeINS_12__
437:   OBJECT GLOBAL DEFAULT 18 _ZN7android4alogE
438:   OBJECT WEAK DEFAULT 18 _ZTVN7android12FdTextOutp
439:   FUNC GLOBAL DEFAULT 14 _ZN7android7BBinder4dumpE
440:   FUNC WEAK DEFAULT 14 _ZNSt3__114__copy_aligned
441:   FUNC WEAK DEFAULT 14 _ZNKSt3__16__treeINS_12__
442:   FUNC GLOBAL DEFAULT 14 _ZNK7android6binder5Value
443:   FUNC GLOBAL DEFAULT 14 _ZNK7android14IPCThreadSt
444:   FUNC GLOBAL DEFAULT 14 _ZN7android14MemoryHeapBa
445:   FUNC GLOBAL DEFAULT 14 _ZN7android6Parcel15write
446:   FUNC WEAK DEFAULT 14 _ZNK7android6Parcel21unsa
447:   OBJECT WEAK DEFAULT 23 _ZZ17internal_type_ptrIiE
448:   FUNC GLOBAL DEFAULT 14 _ZN7android12BnMemoryHeap
449:   FUNC GLOBAL DEFAULT 14 _ZNK7android6Parcel4readE
450:   FUNC WEAK DEFAULT 14 _ZNSt3__16vectorIdNS_9all
451:   FUNC GLOBAL DEFAULT 14 _ZNK7android6Parcel12read
452:   OBJECT GLOBAL DEFAULT 23 _ZN7android8BpBinder12sTr
453:   FUNC GLOBAL DEFAULT 14 _ZNK7android6Parcel12data
454:   OBJECT GLOBAL DEFAULT 18 _ZTCN7android14MemoryHeap
455:   FUNC GLOBAL DEFAULT 14 _ZN7android12ProcessState
456:   FUNC WEAK DEFAULT 14 _ZNK7android6VectorINS_8S
457:   FUNC GLOBAL DEFAULT 14 _ZN7android14MemoryHeapBa
458:   FUNC GLOBAL DEFAULT 14 _ZNK7android6Parcel16read
459:   FUNC WEAK DEFAULT 14 _ZNK7android6Parcel23read
460:   FUNC WEAK DEFAULT 14 _ZNSt3__16vectorIiNS_9all
461:   FUNC GLOBAL DEFAULT 14 __aeabi_memcpy4
462:   FUNC GLOBAL DEFAULT 14 _ZNK7android6Parcel14read
463:   FUNC GLOBAL DEFAULT 14 _ZN7android14IPCThreadSta
464:   FUNC WEAK DEFAULT 14 _ZNK7android6VectorIPNS_7
465:   FUNC WEAK DEFAULT 14 _ZNK7android6VectorIPNS_7
466:   FUNC WEAK DEFAULT 14 _ZNSt3__16__treeINS_12__v
467:   OBJECT GLOBAL DEFAULT 18 _ZTVN7android2os17Persist
468:   FUNC WEAK DEFAULT 14 _ZNK7android6VectorINS_8B
469:   FUNC GLOBAL DEFAULT 14 _ZN7android19setTheContex
470:   FUNC GLOBAL DEFAULT 14 _ZN7android14acquire_obje
471:   FUNC GLOBAL DEFAULT 14 _ZNK7android6Parcel16vali
472:   OBJECT WEAK DEFAULT 18 _ZTCNSt3__118basic_string
473:   FUNC GLOBAL DEFAULT 14 _ZN7android18BufferedText
474:   FUNC GLOBAL DEFAULT 14 _ZN7android6Parcel5writeE
475:   FUNC GLOBAL DEFAULT 14 __aeabi_memcpy8
476:   OBJECT GLOBAL DEFAULT 18 _ZTTN7android8BnMemoryE
477:   OBJECT GLOBAL DEFAULT 18 _ZTTN7android15IResultRec
478:   OBJECT GLOBAL DEFAULT 18 _ZTCN7android9HeapCacheE0
479:   FUNC GLOBAL DEFAULT 14 _ZTv0_n24_N7android8BpBin
480:   FUNC GLOBAL DEFAULT 14 _ZN7android12BnMemoryHeap
481:   FUNC GLOBAL DEFAULT 14 _ZNK7android12BpMemoryHea
482:   FUNC GLOBAL DEFAULT 14 _ZTv0_n12_N7android8BnMem
483:   OBJECT WEAK DEFAULT 18 _ZTVN7android16BpResultRe
484:   FUNC GLOBAL DEFAULT 14 _ZNK7android6Parcel16enfo
485:   FUNC WEAK DEFAULT 14 _ZNK7android6VectorIiE12d
486:   FUNC GLOBAL DEFAULT 14 _ZN7android6binder5Valuea
487:   FUNC GLOBAL DEFAULT 14 _ZNK7android6binder5Value
488:   OBJECT GLOBAL DEFAULT 18 _ZTCN7android12BnMemoryHe
489:   FUNC WEAK DEFAULT 14 _ZNSt3__16__treeINS_12__v
490:   FUNC GLOBAL DEFAULT 14 _ZN7android22SimpleBestFi
491:   OBJECT GLOBAL DEFAULT 18 _ZTCN7android14MemoryHeap
492:   FUNC WEAK DEFAULT 14 _ZN7androidlsIA8_cEERNS_1
493:   FUNC GLOBAL DEFAULT 14 _ZN7android18BufferedText
494:   FUNC WEAK DEFAULT 14 _ZN7android6Parcel12write
495:   FUNC WEAK DEFAULT 14 _ZNSt3__16__treeINS_12__v
496:   FUNC WEAK DEFAULT 14 _ZNSt3__16__treeINS_12__v
497:   FUNC GLOBAL DEFAULT 14 _ZN7android6binder5Value9
498:   FUNC GLOBAL DEFAULT 14 _ZNK7android6binder5Value
499:   FUNC GLOBAL DEFAULT 14 _ZTv0_n12_N7android8BpMem
500:   FUNC WEAK DEFAULT 14 _ZNSt3__16__treeINS_12__v
501:   FUNC WEAK DEFAULT 14 _ZNSt3__16__treeINS_12__v
502:   FUNC WEAK DEFAULT 14 _ZNK7android6VectorIiE16d
503:   OBJECT WEAK DEFAULT 23 _ZZ17internal_type_ptrINS
504:   FUNC WEAK DEFAULT 14 _ZNK7android6VectorINS_2s
505:   FUNC GLOBAL DEFAULT 14 _ZNK7android7IMemory4size
506:   FUNC GLOBAL DEFAULT 14 _ZN7android15IServiceMana
507:   FUNC GLOBAL DEFAULT 14 _ZNK7android6Parcel11read
508:   FUNC GLOBAL DEFAULT 14 _ZN7android2os17Persistab
509:   FUNC WEAK DEFAULT 14 _ZNSt3__16__treeINS_12__v
510:   OBJECT WEAK DEFAULT 18 _ZTVN7android6binder5Valu
511:   OBJECT WEAK DEFAULT 23 _ZZ17internal_type_ptrIN7
512:   FUNC GLOBAL DEFAULT 14 _ZNK7android6Parcel14read
513:   FUNC GLOBAL DEFAULT 14 _ZN7android12ProcessState
514:   FUNC WEAK DEFAULT 14 _ZNK7android6VectorINS_2s
515:   FUNC GLOBAL DEFAULT 14 _ZNK7android6Parcel9readF
516:   OBJECT WEAK DEFAULT 18 _ZTVNSt3__118basic_string
517:   OBJECT WEAK DEFAULT 18 _ZTVN7android6binder5Valu
518:   FUNC WEAK DEFAULT 14 _ZN7android11BnInterfaceI
519:   FUNC GLOBAL DEFAULT 14 _ZNK7android22SimpleBestF
520:   FUNC GLOBAL DEFAULT 14 _ZN7android6binder5Value4
521:   OBJECT WEAK DEFAULT 23 _ZZ17internal_type_ptrIhE
522:   OBJECT GLOBAL DEFAULT 18 _ZTVN7android7IMemoryE
523:   FUNC GLOBAL DEFAULT 14 _ZTv0_n12_N7android12BpMe
524:   FUNC GLOBAL DEFAULT 14 _ZNK7android2os17Persista
525:   FUNC GLOBAL DEFAULT 14 _ZN7android6binder5ValueC
526:   FUNC GLOBAL DEFAULT 14 __aeabi_memmove4
527:   FUNC GLOBAL DEFAULT 14 _ZN7android18BufferedText
528:   OBJECT GLOBAL DEFAULT 18 _ZTVN7android11IMemoryHea
529:   FUNC GLOBAL DEFAULT 14 _ZN7android6binder5ValueC
530:   OBJECT GLOBAL DEFAULT 18 _ZTCN7android10Allocation
531:   FUNC GLOBAL DEFAULT 14 _ZN7android6Parcel15write
532:   OBJECT WEAK DEFAULT 18 _ZTTNSt3__118basic_string
533:   FUNC GLOBAL DEFAULT 14 _ZNK7android6Parcel12data
534:   FUNC WEAK DEFAULT 14 _ZN7androidlsIPvEERNS_10T
535:   FUNC GLOBAL DEFAULT 14 _ZN7android6binder5ValueC
536:   FUNC GLOBAL DEFAULT 14 _ZN7android7IBinder11loca
537:   OBJECT WEAK DEFAULT 18 _ZTVN7android18BufferedTe
538:   FUNC WEAK DEFAULT 14 _ZNSt3__16__treeINS_12__v
539:   FUNC GLOBAL DEFAULT 14 __aeabi_memmove8
540:   FUNC GLOBAL DEFAULT 14 _ZN7android14IPCThreadSta
541:   FUNC GLOBAL DEFAULT 14 _ZNK7android12BpMemoryHea
542:   FUNC GLOBAL DEFAULT 14 _ZN7android6binder5Valuea
543:   FUNC GLOBAL DEFAULT 14 _ZNK7android11IMemoryHeap
544:   FUNC GLOBAL DEFAULT 14 _ZN7android22SimpleBestFi
545:   FUNC WEAK DEFAULT 14 _ZN7androidlsIA2_cEERNS_1
546:   OBJECT WEAK DEFAULT 18 _ZTCNSt3__118basic_string
547:   FUNC WEAK DEFAULT 14 _ZNSt3__16__treeINS_12__v
548:   FUNC GLOBAL DEFAULT 14 _ZN7android6binder5ValueC
549:   FUNC GLOBAL DEFAULT 14 _ZN7android6binder5Valuea
550:   OBJECT GLOBAL DEFAULT 23 _ZN7android8BpBinder14sLi
551:   FUNC WEAK DEFAULT 14 _ZNK7android6Parcel21unsa
552:   FUNC GLOBAL DEFAULT 14 _ZNK7android2os17Persista
553:   FUNC GLOBAL DEFAULT 14 _ZN7android14IPCThreadSta
554:   FUNC GLOBAL DEFAULT 14 _ZTv0_n12_N7android8BpBin
555:   FUNC WEAK DEFAULT 14 _ZNSt3__16__treeINS_12__v
556:   FUNC GLOBAL DEFAULT 14 _ZN7android6binder5ValueC
557:   FUNC GLOBAL DEFAULT 14 _ZN7android6binder5Valuea
558:   FUNC GLOBAL DEFAULT 14 _ZThn4_N7android16BnResul
559:   FUNC GLOBAL DEFAULT 14 _ZN7android7BBinder8trans
560:   FUNC GLOBAL DEFAULT 14 _ZN7android7IMemory14getD
561:   FUNC WEAK DEFAULT 14 _ZNK7android6VectorIPNS_7
562:   FUNC GLOBAL DEFAULT 14 _ZN7android12ProcessState
563:   FUNC GLOBAL DEFAULT 14 _ZN7android6binder5Valuea
564:   FUNC WEAK DEFAULT 14 _ZNSt3__16__treeINS_12__v
565:   OBJECT GLOBAL DEFAULT 23 _ZN7android7IMemory12defa
566:   FUNC GLOBAL DEFAULT 14 _ZN7android9HeapCache10du
567:   FUNC GLOBAL DEFAULT 14 _ZThn4_N7android10MemoryB
568:   FUNC GLOBAL DEFAULT 14 _ZN7android10AllocationC2
569:   FUNC GLOBAL DEFAULT 14 _ZN7android6Parcel16write
570:   FUNC GLOBAL DEFAULT 14 _ZN7android6binder5ValueC
571:   FUNC WEAK DEFAULT 14 _ZNSt3__16vectorIN7androi
572:   FUNC GLOBAL DEFAULT 14 _ZN7android6binder6Status
573:   FUNC GLOBAL DEFAULT 14 _ZNK7android12BpMemoryHea
574:   FUNC GLOBAL DEFAULT 14 _ZN7android6Parcel15write
575:   OBJECT WEAK DEFAULT 18 _ZTCNSt3__118basic_string
576:   FUNC GLOBAL DEFAULT 14 _ZNK7android2os17Persista
577:   FUNC WEAK DEFAULT 14 _ZNSt3__16__treeINS_12__v
578:   FUNC WEAK DEFAULT 14 _ZNSt3__16__treeIN7androi
579:   OBJECT WEAK DEFAULT 18 _ZTVN7android12SortedVect
580:   FUNC GLOBAL DEFAULT 14 _ZN7android6binder5Valuea
581:   FUNC GLOBAL DEFAULT 14 _ZN7android8BpBinder13get
582:   FUNC GLOBAL DEFAULT 14 _ZN7android12BpMemoryHeap
583:   FUNC GLOBAL DEFAULT 14 _ZN7android6binder5ValueD
584:   FUNC WEAK DEFAULT 14 _ZNSt3__16__treeINS_12__v
585:   FUNC WEAK DEFAULT 14 _ZNSt3__16__treeINS_12__v
586:   FUNC GLOBAL DEFAULT 14 _ZN7android6binder5Value1
587:   FUNC GLOBAL DEFAULT 14 _ZNK7android6Parcel12obje
588:   FUNC GLOBAL DEFAULT 14 _ZN7android12ProcessState
589:   OBJECT GLOBAL DEFAULT 18 _ZTVN7android12MemoryDeal
590:   FUNC GLOBAL DEFAULT 14 _ZN7android6Parcel11write
591:   FUNC GLOBAL DEFAULT 14 _ZNK7android6Parcel24read
592:   OBJECT GLOBAL DEFAULT 18 _ZTCN7android16BnResultRe
593:   FUNC GLOBAL DEFAULT 14 _ZTv0_n12_N7android15IRes
594:   FUNC GLOBAL DEFAULT 14 _ZN7android6Parcel14acqui
595:   FUNC GLOBAL DEFAULT 14 _ZN7android14IPCThreadSta
596:   FUNC WEAK DEFAULT 14 _ZNSt3__16vectorIhNS_9all
597:   FUNC GLOBAL DEFAULT 14 _ZN7android14IPCThreadSta
598:   FUNC GLOBAL DEFAULT 14 _ZNK7android6Parcel11read
599:   FUNC GLOBAL DEFAULT 14 _ZNK7android2os17Persista
600:   FUNC GLOBAL DEFAULT 14 _ZN7android8BpMemoryD2Ev
601:   FUNC GLOBAL DEFAULT 14 _ZN7android6Parcel14relea
602:   FUNC GLOBAL DEFAULT 14 _ZN7android6binder6Status
603:   OBJECT WEAK DEFAULT 18 _ZTVN7android6binder5Valu
604:   FUNC WEAK DEFAULT 14 _ZNK7android6VectorIPNS_7
605:   FUNC GLOBAL DEFAULT 14 _ZTv0_n12_N7android14IShe
606:   FUNC GLOBAL DEFAULT 14 _ZN7android6Parcel17write
607:   FUNC GLOBAL DEFAULT 14 _ZNK7android6Parcel12read
608:   FUNC GLOBAL DEFAULT 14 _ZN7android10TextOutputD1
609:   FUNC GLOBAL DEFAULT 14 _ZN7android7BBinderC1Ev
610:   FUNC WEAK DEFAULT 14 _ZN7android2spINS_9HeapCa
611:   FUNC GLOBAL DEFAULT 14 _ZN7android6binder5Valuea
612:   FUNC GLOBAL DEFAULT 14 _ZNK7android2os17Persista
613:   FUNC GLOBAL DEFAULT 14 _ZN7android6binder5ValueC
614:   FUNC WEAK DEFAULT 14 _ZNSt3__115__equal_aligne
615:   FUNC GLOBAL DEFAULT 14 _ZN7android8BpBinder29set
616:   FUNC GLOBAL DEFAULT 14 _ZN7android18BufferedText
617:   FUNC GLOBAL DEFAULT 14 _ZNK7android14IPCThreadSt
618:   FUNC WEAK DEFAULT 14 _ZN7android6Parcel12write
619:   FUNC GLOBAL DEFAULT 14 _ZNK7android6binder5Value
620:   FUNC GLOBAL DEFAULT 14 _ZN7android7BBinderD1Ev
621:   FUNC WEAK DEFAULT 14 _ZNSt3__112__hash_tableIN
622:   FUNC GLOBAL DEFAULT 14 _ZN7android9HeapCacheD0Ev
623:   FUNC WEAK DEFAULT 14 _ZNK7android6VectorIPNS_7
624:   FUNC GLOBAL DEFAULT 14 _ZNK7android14MemoryHeapB
625:   OBJECT GLOBAL DEFAULT 23 _ZN7android15IServiceMana
626:   FUNC GLOBAL DEFAULT 14 _ZThn4_N7android10Allocat
627:   FUNC GLOBAL DEFAULT 14 _ZN7android6Parcel4BlobC1
628:   OBJECT GLOBAL DEFAULT 18 _ZTVN7android2os20ParcelF
629:   FUNC WEAK DEFAULT 14 _ZNSt3__16vectorIxNS_9all
630:   FUNC GLOBAL DEFAULT 14 _ZNK7android6binder5Value
631:   FUNC GLOBAL DEFAULT 14 _ZNK7android12BpMemoryHea
632:   FUNC GLOBAL DEFAULT 14 _ZTv0_n12_N7android11IMem
633:   FUNC WEAK DEFAULT 14 _ZNSt3__16__treeINS_12__v
634:   FUNC WEAK DEFAULT 14 _ZNSt3__16__treeINS_12__v
635:   FUNC WEAK DEFAULT 14 _ZNSt3__16__treeINS_12__v
636:   FUNC GLOBAL DEFAULT 14 _ZN7android6binder5Valuea
637:   FUNC GLOBAL DEFAULT 14 _ZN7android15IResultRecei
638:   FUNC GLOBAL DEFAULT 14 _ZN7android22SimpleBestFi
639:   FUNC GLOBAL DEFAULT 14 _ZNK7android6Parcel10read
640:   FUNC WEAK DEFAULT 14 _ZNK7android12SortedVecto
641:   FUNC WEAK DEFAULT 14 _ZNK7android6VectorINS_12
642:   FUNC GLOBAL DEFAULT 14 _ZN7android6binder5Valuea
643:   FUNC WEAK DEFAULT 14 _ZN7android2spINS_7BBinde
644:   OBJECT GLOBAL DEFAULT 18 _ZTCN7android16BnResultRe
645:   FUNC GLOBAL DEFAULT 14 _ZN7android6Parcel4BlobD1
646:   FUNC WEAK DEFAULT 14 _ZNSt3__16__treeINS_12__v
647:   OBJECT WEAK DEFAULT 23 _ZZ17internal_type_ptrIN7
648:   FUNC GLOBAL DEFAULT 14 _ZN7android14IPCThreadSta
649:   FUNC WEAK DEFAULT 14 _ZNK7android6Parcel23read
650:   FUNC WEAK DEFAULT 14 _ZNSt3__116__copy_unalign
651:   OBJECT GLOBAL DEFAULT 18 _ZTCN7android12BpMemoryHe
652:   OBJECT GLOBAL DEFAULT 18 _ZTCN7android10Allocation
653:   FUNC WEAK DEFAULT 14 _ZNSt3__16__treeINS_12__v
654:   FUNC GLOBAL DEFAULT 14 _ZN7android8BpBinderD2Ev
655:   FUNC GLOBAL DEFAULT 14 _ZNK7android6Parcel17read
656:   FUNC GLOBAL DEFAULT 14 _ZN7android6Parcel12write
657:   FUNC GLOBAL DEFAULT 14 _ZN7android6binder5Valuea
658:   FUNC WEAK DEFAULT 14 _ZNK7android6Parcel23read
659:   OBJECT WEAK DEFAULT 18 _ZTVN7android6binder5Valu
660:   FUNC GLOBAL DEFAULT 14 _ZN7android9BpRefBaseD2Ev
661:   FUNC WEAK DEFAULT 14 _ZN7androidlsIPcEERNS_10T
662:   FUNC GLOBAL DEFAULT 14 _ZNK7android6Parcel11read
663:   FUNC GLOBAL DEFAULT 14 _ZN7android6Parcel17write
664:   FUNC WEAK DEFAULT 14 _ZNSt3__16__treeINS_12__v
665:   FUNC GLOBAL DEFAULT 14 _ZN7android12ProcessState
666:   FUNC GLOBAL DEFAULT 14 _ZTv0_n12_N7android12Proc
667:   OBJECT GLOBAL DEFAULT 18 _ZTCN7android10Allocation
668:   FUNC GLOBAL DEFAULT 14 _ZN7android2os17Persistab
669:   FUNC WEAK DEFAULT 14 _ZNSt3__116__copy_unalign
670:   FUNC WEAK DEFAULT 14 _ZNK7android6VectorINS_12
671:   FUNC WEAK DEFAULT 14 _ZNK7android12SortedVecto
672:   FUNC GLOBAL DEFAULT 14 _ZNK7android7IMemory7poin
673:   FUNC GLOBAL DEFAULT 14 _ZN7android14IPCThreadSta
674:   FUNC WEAK DEFAULT 14 _ZNSt3__113__fill_n_trueI
675:   FUNC GLOBAL DEFAULT 14 _ZNK7android2os17Persista
676:   FUNC WEAK DEFAULT 14 _ZNSt3__16__treeINS_12__v
677:   FUNC GLOBAL DEFAULT 14 _ZNK7android6binder5Value
678:   FUNC GLOBAL DEFAULT 14 _ZTv0_n20_N7android9BpRef
679:   FUNC GLOBAL DEFAULT 14 _ZNK7android6binder5Value
680:   FUNC GLOBAL DEFAULT 14 _ZN7android14IPCThreadSta
681:   FUNC GLOBAL DEFAULT 14 _ZTv0_n20_N7android8BpBin
682:   OBJECT GLOBAL DEFAULT 18 _ZTCN7android14MemoryHeap
683:   FUNC GLOBAL DEFAULT 14 _ZN7android6binder5ValueC
684:   FUNC GLOBAL DEFAULT 14 _ZN7android14IPCThreadSta
685:   FUNC GLOBAL DEFAULT 14 _ZNK7android6Parcel14read
686:   FUNC WEAK DEFAULT 14 _ZNSt3__16__treeINS_12__v
687:   FUNC GLOBAL DEFAULT 14 _ZN7android8BpBinder13Obj
688:   OBJECT GLOBAL DEFAULT 18 _ZTCN7android7BBinderE0_N
689:   FUNC GLOBAL DEFAULT 14 __aeabi_memcpy
690:   FUNC WEAK DEFAULT 14 _ZNKSt3__115basic_stringb
691:   FUNC WEAK DEFAULT 14 _ZNSt3__16__treeINS_12__v
692:   FUNC GLOBAL DEFAULT 14 _ZN7android6Parcel17write
693:   FUNC WEAK DEFAULT 14 _ZNK7android12SortedVecto
694:   OBJECT WEAK DEFAULT 18 _ZTTN7android16BpServiceM
695:   FUNC GLOBAL DEFAULT 14 _ZN7android6Parcel11finis
696:   FUNC GLOBAL DEFAULT 14 _ZN7android6Parcel12write
697:   FUNC GLOBAL DEFAULT 14 _ZN7android6binder5Value1
698:   FUNC GLOBAL DEFAULT 14 _ZNK7android7BBinder10fin
699:   FUNC WEAK DEFAULT 14 _ZNSt3__16__treeINS_12__v
700:   FUNC WEAK DEFAULT 14 _ZNSt3__16__treeINS_12__v
701:   FUNC GLOBAL DEFAULT 14 _ZN7android8BpBinder13Obj
702:   FUNC GLOBAL DEFAULT 14 _ZNK7android6Parcel11read
703:   FUNC GLOBAL DEFAULT 14 _ZTv0_n36_NK7android14Mem
704:   FUNC GLOBAL DEFAULT 14 _ZN7android6Parcel10write
705:   FUNC GLOBAL DEFAULT 14 _ZN7android6binder6Status
706:   FUNC GLOBAL DEFAULT 14 _ZNK7android6binder5Value
707:   FUNC GLOBAL DEFAULT 14 _ZNK7android6Parcel9readI
708:   FUNC WEAK DEFAULT 14 _ZNSt3__16__treeINS_12__v
709:   FUNC WEAK DEFAULT 14 _ZNK7android6VectorINS_12
710:   FUNC GLOBAL DEFAULT 14 _ZN7android14IShellCallba
711:   FUNC GLOBAL DEFAULT 14 _ZNK7android6Parcel14read
712:   FUNC GLOBAL DEFAULT 14 _ZN7android6binder6Status
713:   FUNC GLOBAL DEFAULT 14 _ZN7android7BBinder12atta
714:   OBJECT WEAK DEFAULT 18 _ZTCN7android16BpResultRe
715:   FUNC WEAK DEFAULT 14 _ZNSt3__16__treeINS_12__v
716:   FUNC WEAK DEFAULT 14 _ZNK7android6VectorINS_12
717:   FUNC GLOBAL DEFAULT 14 _ZN7android9BpRefBase20on
718:   FUNC GLOBAL DEFAULT 14 _ZNK7android6Parcel17read
719:   FUNC GLOBAL DEFAULT 14 _ZN7android12ProcessState
720:   FUNC GLOBAL DEFAULT 14 _ZN7android6binder5Value1
721:   FUNC GLOBAL DEFAULT 14 _ZN7android6binder5Value5
722:   FUNC GLOBAL DEFAULT 14 _ZNK7android6binder5Value
723:   FUNC GLOBAL DEFAULT 14 _ZNK7android12BpMemoryHea
724:   FUNC GLOBAL DEFAULT 14 _ZN7android14IShellCallba
725:   FUNC GLOBAL DEFAULT 14 _ZTv0_n16_N7android14Memo
726:   FUNC GLOBAL DEFAULT 14 _ZN7android6Parcel8writeM
727:   FUNC WEAK DEFAULT 14 _ZNSt3__16vectorIDsNS_9al
728:   FUNC GLOBAL DEFAULT 14 _ZNK7android12ProcessStat
729:   FUNC GLOBAL DEFAULT 14 _ZNK7android6binder5Value
730:   FUNC GLOBAL DEFAULT 14 _ZNK7android6Parcel18read
731:   FUNC GLOBAL DEFAULT 14 _ZTv0_n12_N7android9HeapC
732:   FUNC GLOBAL DEFAULT 14 _ZNK7android6Parcel15read
733:   FUNC GLOBAL DEFAULT 14 _ZNK7android6Parcel15read
734:   FUNC GLOBAL DEFAULT 14 _ZN7android14IPCThreadSta
735:   OBJECT WEAK DEFAULT 18 _ZTTN7android15BpShellCal
736:   FUNC GLOBAL DEFAULT 14 _ZThn4_N7android12BnMemor
737:   FUNC GLOBAL DEFAULT 14 _ZN7android6Parcel4Blob7r
738:   FUNC GLOBAL DEFAULT 14 _ZN7android6binder5ValueC
739:   OBJECT GLOBAL DEFAULT 18 _ZTCN7android8BnMemoryE0_
740:   OBJECT GLOBAL DEFAULT 18 _ZTTN7android16BnResultRe
741:   FUNC GLOBAL DEFAULT 14 _ZTv0_n12_N7android14Memo
742:   FUNC WEAK DEFAULT 14 _ZNSt3__115basic_stringbu
743:   FUNC GLOBAL DEFAULT 14 _ZNK7android22SimpleBestF
744:   FUNC GLOBAL DEFAULT 14 _ZN7android7BBinder16setR
745:   OBJECT GLOBAL DEFAULT 18 _ZTCN7android8BpBinderE0_
746:   FUNC GLOBAL DEFAULT 14 _ZN7android14flatten_bind
747:   FUNC WEAK DEFAULT 14 _ZNSt3__16__treeINS_12__v
748:   FUNC GLOBAL DEFAULT 14 _ZN7android12MemoryDealer
749:   FUNC GLOBAL DEFAULT 14 _ZN7android12ProcessState
750:   OBJECT GLOBAL DEFAULT 18 _ZTVN7android7BBinderE
751:   FUNC GLOBAL DEFAULT 14 _ZThn4_N7android8BpMemory
752:   OBJECT GLOBAL DEFAULT 18 _ZTCN7android15BnShellCal
753:   FUNC GLOBAL DEFAULT 14 _ZN7android6Parcel15write
754:   FUNC WEAK DEFAULT 14 _ZNSt3__16vectorIyNS_9all
755:   FUNC WEAK DEFAULT 14 _ZNKSt3__16__treeINS_12__
756:   FUNC GLOBAL DEFAULT 14 _ZN7android15IServiceMana
757:   FUNC GLOBAL DEFAULT 14 _ZNK7android12MemoryDeale
758:   FUNC GLOBAL DEFAULT 14 _ZNK7android6Parcel10read
759:   FUNC GLOBAL DEFAULT 14 _ZN7android12ProcessState
760:   FUNC GLOBAL DEFAULT 14 _ZN7android6binder5ValueC
761:   FUNC GLOBAL DEFAULT 14 _ZN7android12ProcessState
762:   OBJECT GLOBAL DEFAULT 18 _ZTVN7android15BnShellCal
763:   OBJECT GLOBAL DEFAULT 18 _ZTCN7android12BnMemoryHe
764:   OBJECT GLOBAL DEFAULT 18 _ZTCN7android12BpMemoryHe
765:   FUNC GLOBAL DEFAULT 14 _ZN7android14IShellCallba
766:   FUNC GLOBAL DEFAULT 14 _ZN7android14IPCThreadSta
767:   OBJECT GLOBAL DEFAULT 18 _ZTCN7android15BnShellCal
768:   FUNC GLOBAL DEFAULT 14 _ZNK7android2os17Persista
769:   FUNC WEAK DEFAULT 14 _ZNKSt3__16__treeINS_12__
770:   FUNC GLOBAL DEFAULT 14 _ZN7android8BnMemoryD1Ev
771:   FUNC GLOBAL DEFAULT 14 _ZN7android14IPCThreadSta
772:   FUNC GLOBAL DEFAULT 14 _ZN7android6Parcel27repla
773:   FUNC GLOBAL DEFAULT 14 _ZN7android8BpBinder14rep
774:   FUNC GLOBAL DEFAULT 14 _ZNK7android12BpMemoryHea
775:   FUNC GLOBAL DEFAULT 14 _ZNK7android6Parcel8readB
776:   FUNC GLOBAL DEFAULT 14 _ZN7android2os20ParcelFil
777:   FUNC GLOBAL DEFAULT 14 _ZN7android6binder5Value7
778:   FUNC WEAK DEFAULT 14 _ZNK7android12SortedVecto
779:   FUNC GLOBAL DEFAULT 14 _ZN7android6Parcel17write
780:   FUNC WEAK DEFAULT 14 _ZNSt3__16vectorIbNS_9all
781:   OBJECT WEAK DEFAULT 18 _ZTVN7android6binder5Valu
782:   FUNC WEAK DEFAULT 14 _ZNK7android6VectorINS_8B
783:   FUNC GLOBAL DEFAULT 14 _ZTv0_n12_N7android7IMemo
784:   FUNC GLOBAL DEFAULT 14 _ZN7android6Parcel25write
785:   FUNC GLOBAL DEFAULT 14 _ZN7android8BpMemoryD0Ev
786:   FUNC GLOBAL DEFAULT 14 _ZNK7android7BBinder22get
787:   FUNC GLOBAL DEFAULT 14 _ZN7android8BpBinder12det
788:   FUNC GLOBAL DEFAULT 14 _ZN7android14IPCThreadSta
789:   FUNC GLOBAL DEFAULT 14 _ZN7android12ProcessState
790:   FUNC GLOBAL DEFAULT 14 _ZNK7android2os20ParcelFi
791:   OBJECT GLOBAL DEFAULT 18 _ZTTN7android9BpRefBaseE
792:   OBJECT GLOBAL DEFAULT 18 _ZTCN7android8BpMemoryE0_
793:   FUNC GLOBAL DEFAULT 14 _ZN7android16BnResultRece
794:   OBJECT GLOBAL DEFAULT 18 _ZTCN7android10MemoryBase
795:   FUNC WEAK DEFAULT 14 _ZNSt3__16__treeINS_12__v
796:   FUNC GLOBAL DEFAULT 14 _ZN7android7BBinder11loca
797:   OBJECT GLOBAL DEFAULT 23 _ZN7android11IMemoryHeap1
798:   OBJECT GLOBAL DEFAULT 18 _ZTVN7android12BnMemoryHe
799:   FUNC WEAK DEFAULT 14 _ZNK7android6VectorIPNS_7
800:   FUNC WEAK DEFAULT 14 _ZN7androidlsIA9_cEERNS_1
801:   FUNC GLOBAL DEFAULT 14 _ZN7android12ProcessState
802:   FUNC GLOBAL DEFAULT 14 _ZN7android8BpBinder10pin
803:   FUNC GLOBAL DEFAULT 14 _ZNK7android12BpMemoryHea
804:   FUNC GLOBAL DEFAULT 14 _ZN7android6Parcel20close
805:   FUNC GLOBAL DEFAULT 14 _ZNK7android6Parcel10ipcO
806:   FUNC GLOBAL DEFAULT 14 _ZNK7android6Parcel9dataA
807:   FUNC GLOBAL DEFAULT 14 _ZN7android6Parcel8growDa
808:   FUNC WEAK DEFAULT 14 _ZN7androidlsIA5_cEERNS_1
809:   FUNC GLOBAL DEFAULT 14 _ZNK7android2os17Persista
810:   OBJECT WEAK DEFAULT 23 _ZZ17internal_type_ptrINS
811:   OBJECT GLOBAL DEFAULT 18 _ZTTN7android7BBinderE
812:   OBJECT GLOBAL DEFAULT 18 _ZTCN7android10MemoryBase
813:   FUNC GLOBAL DEFAULT 14 stringForIndent
814:   FUNC GLOBAL DEFAULT 14 _ZN7android12MemoryDealer
815:   OBJECT GLOBAL DEFAULT 12 _ZN7android22SimpleBestFi
816:   FUNC GLOBAL DEFAULT 14 _ZN7android14flatten_bind
817:   FUNC WEAK DEFAULT 14 _ZNSt3__16__treeINS_12__v
818:   FUNC GLOBAL DEFAULT 14 _ZN7android6binder5Valuea
819:   OBJECT GLOBAL DEFAULT 18 _ZTCN7android10MemoryBase
820:   FUNC WEAK DEFAULT 14 _ZNSt3__113__tree_removeI
821:   OBJECT WEAK DEFAULT 18 _ZTVN7android6VectorINS_1
822:   FUNC GLOBAL DEFAULT 14 _ZN7android6binder6Status
823:   FUNC GLOBAL DEFAULT 14 _ZN7android14IPCThreadSta
824:   OBJECT GLOBAL DEFAULT 18 _ZTCN7android12BpMemoryHe
825:   FUNC GLOBAL DEFAULT 14 _ZThn4_N7android12BpMemor
826:   FUNC GLOBAL DEFAULT 14 _ZTv0_n28_NK7android14Mem
827:   FUNC GLOBAL DEFAULT 14 _ZTvn4_n16_N7android14Mem
828:   FUNC WEAK DEFAULT 14 _ZNSt3__115basic_stringbu
829:   FUNC WEAK DEFAULT 14 _ZNK7android12SortedVecto
830:   FUNC GLOBAL DEFAULT 14 _ZN7android18BufferedText
831:   FUNC GLOBAL DEFAULT 14 _ZN7android15BnShellCallb
832:   FUNC GLOBAL DEFAULT 14 _ZN7android6Parcel16write
833:   FUNC WEAK DEFAULT 14 _ZNK7android6Parcel21unsa
834:   FUNC WEAK DEFAULT 14 _ZNK7android6Parcel23read
835:   FUNC WEAK DEFAULT 14 _ZNSt3__16__treeINS_12__v
836:   FUNC WEAK DEFAULT 14 _ZNSt3__16__treeINS_12__v
837:   FUNC WEAK DEFAULT 14 _ZNK7android6VectorIPNS_7
838:   FUNC GLOBAL DEFAULT 14 _ZN7android6Parcel13write
839:   FUNC GLOBAL DEFAULT 14 _ZTv0_n12_N7android7IBind
840:   OBJECT GLOBAL DEFAULT 18 _ZTVN7android10IInterface
841:   FUNC GLOBAL DEFAULT 14 _ZN7android11IMemoryHeap1
842:   FUNC GLOBAL DEFAULT 14 _ZN7android11IMemoryHeapC
843:   OBJECT GLOBAL DEFAULT 18 _ZTVN7android8BnMemoryE
844:   FUNC GLOBAL DEFAULT 14 _ZNK7android6Parcel17read
845:   FUNC WEAK DEFAULT 14 _ZN7android2spINS_12Proce
846:   FUNC GLOBAL DEFAULT 14 _ZNK7android6binder5Value
847:   FUNC GLOBAL DEFAULT 14 _ZN7android8BpBinderD0Ev
848:   FUNC GLOBAL DEFAULT 14 _ZN7android14IPCThreadSta
849:   FUNC GLOBAL DEFAULT 14 _ZNK7android12MemoryDeale
850:   FUNC GLOBAL DEFAULT 14 _ZN7android16unflatten_bi
851:   FUNC WEAK DEFAULT 14 _ZNSt3__114__fill_n_false
852:   FUNC GLOBAL DEFAULT 14 _ZNK7android6binder5Value
853:   FUNC GLOBAL DEFAULT 14 _ZN7android9BpRefBaseD0Ev
854:   FUNC GLOBAL DEFAULT 14 _ZN7android8BpBinder16set
855:   OBJECT GLOBAL DEFAULT 18 _ZTVN7android15IServiceMa
856:   OBJECT WEAK DEFAULT 18 _ZTCN7android15BpShellCal
857:   FUNC WEAK DEFAULT 14 _ZNSt3__16vectorIN7androi
858:   OBJECT WEAK DEFAULT 18 _ZTVN7android10PoolThread
859:   FUNC GLOBAL DEFAULT 14 _ZN7android8BpBinder8tran
860:   FUNC GLOBAL DEFAULT 14 _ZN7android11IMemoryHeapD
861:   FUNC GLOBAL DEFAULT 14 _ZN7android7IMemoryC2Ev
862:   FUNC GLOBAL DEFAULT 14 _ZTv0_n12_N7android10Memo
863:   FUNC WEAK DEFAULT 14 _ZNSt3__16__treeINS_12__v
864:   FUNC GLOBAL DEFAULT 14 _ZN7android6binder5Valuea
865:   FUNC GLOBAL DEFAULT 14 _ZNK7android6Parcel9readI
866:   FUNC GLOBAL DEFAULT 14 _ZN7android8BpBinder4dump
867:   FUNC WEAK DEFAULT 14 _ZNK7android6Parcel21unsa
868:   FUNC GLOBAL DEFAULT 14 _ZNK7android6Parcel22read
869:   FUNC WEAK DEFAULT 14 _ZN7androidlsIA3_cEERNS_1
870:   FUNC WEAK DEFAULT 14 _ZNSt3__16__treeINS_12__v
871:   FUNC GLOBAL DEFAULT 14 _ZNK7android6binder5Value
872:   OBJECT WEAK DEFAULT 18 _ZTVN7android6binder5Valu
873:   FUNC GLOBAL DEFAULT 14 _ZTv0_n12_N7android10IInt
874:   FUNC GLOBAL DEFAULT 14 _ZN7android7IMemoryD2Ev
875:   FUNC GLOBAL DEFAULT 14 _ZTv0_n16_N7android8BpBin
876:   FUNC WEAK DEFAULT 14 _ZNK7android6VectorIPNS_7
877:   FUNC GLOBAL DEFAULT 14 _ZN7android10AllocationD2
878:   FUNC GLOBAL DEFAULT 14 _ZNK7android2os17Persista
879:   FUNC GLOBAL DEFAULT 14 _ZN7android15IResultRecei
880:   FUNC WEAK DEFAULT 14 _ZNSt3__16__treeINS_12__v
881:   OBJECT GLOBAL DEFAULT 18 _ZN7android4aerrE
882:   OBJECT GLOBAL DEFAULT 18 _ZTCN7android7IMemoryE0_N
883:   OBJECT GLOBAL DEFAULT 23 _ZN7android14IShellCallba
884:   FUNC GLOBAL DEFAULT 14 _ZN7android6Parcel25write
885:   FUNC GLOBAL DEFAULT 14 _ZNK7android6binder5Value
886:   FUNC WEAK DEFAULT 14 _ZNSt3__16__treeINS_12__v
887:   OBJECT GLOBAL DEFAULT 18 _ZTVN7android12BpMemoryHe
888:   FUNC GLOBAL DEFAULT 14 _ZNK7android6binder6Statu
889:   FUNC GLOBAL DEFAULT 14 _ZNK7android6binder5Value
890:   OBJECT WEAK DEFAULT 23 _ZZ17internal_type_ptrIbE
891:   FUNC GLOBAL DEFAULT 14 _ZN7android14IPCThreadSta
892:   OBJECT GLOBAL DEFAULT 18 _ZTVN7android14MemoryHeap
893:   FUNC GLOBAL DEFAULT 14 _ZN7android6Parcel14write
894:   FUNC GLOBAL DEFAULT 14 _ZN7android6Parcel5writeE
895:   FUNC GLOBAL DEFAULT 14 _ZN7android14MemoryHeapBa
896:   FUNC GLOBAL DEFAULT 14 _ZN7android2os20ParcelFil
897:   FUNC GLOBAL DEFAULT 14 _ZN7android6binder6Status
898:   FUNC GLOBAL DEFAULT 14 _ZTv0_n12_N7android9BpRef
899:   FUNC GLOBAL DEFAULT 14 _ZNK7android6Parcel15read
900:   FUNC WEAK DEFAULT 14 _ZNK7android6Parcel21unsa
901:   FUNC GLOBAL DEFAULT 14 _ZN7android6Parcel19ipcSe
902:   FUNC GLOBAL DEFAULT 14 _ZNK7android2os17Persista
903:   FUNC GLOBAL DEFAULT 14 _ZN7android7IBinderC2Ev
904:   FUNC GLOBAL DEFAULT 14 _ZN7android8BpMemoryC1ERK
905:   FUNC WEAK DEFAULT 14 _ZN7android11BnInterfaceI
906:   OBJECT WEAK DEFAULT 18 _ZTCN7android16BpServiceM
907:   FUNC GLOBAL DEFAULT 14 _ZN7android22SimpleBestFi
908:   FUNC WEAK DEFAULT 14 _ZNSt3__16vectorIdNS_9all
909:   FUNC GLOBAL DEFAULT 14 _ZN7android2os20ParcelFil
910:   FUNC GLOBAL DEFAULT 14 _ZN7android6binder5ValueC
911:   FUNC GLOBAL DEFAULT 14 _ZN7android8BpBinder13unl
912:   FUNC GLOBAL DEFAULT 14 _ZN7android6ParcelC2Ev
913:   FUNC WEAK DEFAULT 14 _ZNK7android6Parcel21unsa
914:   OBJECT WEAK DEFAULT 18 _ZTCN7android16BpResultRe
915:   OBJECT GLOBAL DEFAULT 18 _ZTCN7android15IServiceMa
916:   FUNC GLOBAL DEFAULT 14 _ZN7android14IShellCallba
917:   FUNC GLOBAL DEFAULT 14 _ZN7android7IBinderD2Ev
918:   FUNC GLOBAL DEFAULT 14 printHexData
919:   FUNC GLOBAL DEFAULT 14 _ZN7android12ProcessState
920:   FUNC GLOBAL DEFAULT 14 _ZTv0_n12_N7android10Allo
921:   FUNC WEAK DEFAULT 14 _ZNSt3__16__treeINS_12__v
922:   FUNC GLOBAL DEFAULT 14 _ZNK7android14IPCThreadSt
923:   OBJECT GLOBAL DEFAULT 18 _ZTCN7android10MemoryBase
924:   OBJECT GLOBAL DEFAULT 18 _ZTTN7android10MemoryBase
925:   FUNC GLOBAL DEFAULT 14 _ZN7android6ParcelD2Ev
926:   FUNC WEAK DEFAULT 14 _ZNSt3__16vectorIiNS_9all
927:   FUNC GLOBAL DEFAULT 14 _ZN7android18BufferedText
928:   FUNC GLOBAL DEFAULT 14 _ZThn4_N7android8BnMemory
929:   FUNC GLOBAL DEFAULT 14 _ZNK7android12MemoryDeale
930:   FUNC GLOBAL DEFAULT 14 _ZN7android6Parcel4Blob4i
931:   FUNC GLOBAL DEFAULT 14 _ZN7android6Parcel9writeB
932:   FUNC GLOBAL DEFAULT 14 _ZN7androidlsERNS_10TextO
933:   FUNC GLOBAL DEFAULT 14 _ZNK7android18BufferedTex
934:   FUNC GLOBAL DEFAULT 14 _ZN7android12ProcessState
935:   FUNC WEAK DEFAULT 14 _ZNSt3__16vectorIbNS_9all
936:   FUNC GLOBAL DEFAULT 14 _ZN7android12MemoryDealer
937:   FUNC WEAK DEFAULT 14 _ZNK7android6Parcel23read
938:   FUNC WEAK DEFAULT 14 _ZNSt3__16__treeINS_12__v
939:   FUNC WEAK DEFAULT 14 _ZNSt3__16__treeINS_12__v
940:   FUNC GLOBAL DEFAULT 14 _ZN7android8BpBinder17dis
941:   FUNC WEAK DEFAULT 14 _ZNK7android12SortedVecto
942:   FUNC GLOBAL DEFAULT 14 _ZN7android12ProcessState
943:   FUNC GLOBAL DEFAULT 14 _ZN7android14IPCThreadSta
944:   FUNC GLOBAL DEFAULT 14 _ZNK7android6Parcel8readB
945:   FUNC GLOBAL DEFAULT 14 _ZN7android2os17Persistab
946:   FUNC WEAK DEFAULT 14 _ZNK7android6VectorIPNS_7
947:   FUNC GLOBAL DEFAULT 14 _ZN7android2os17Persistab
948:   FUNC WEAK DEFAULT 14 _ZNKSt3__16__treeINS_12__
949:   FUNC WEAK DEFAULT 14 _ZNSt3__16__treeINS_12__v
950:   FUNC GLOBAL DEFAULT 14 _ZN7android6binder5ValueC
951:   FUNC WEAK DEFAULT 14 _ZNK7android6VectorINS_8S
952:   FUNC GLOBAL DEFAULT 14 _ZN7android10IInterfaceC2
953:   FUNC GLOBAL DEFAULT 14 _ZN7android10MemoryBaseD1
954:   FUNC GLOBAL DEFAULT 14 _ZTv0_n44_NK7android14Mem
955:   FUNC GLOBAL DEFAULT 14 _ZNK7android6Parcel14read
956:   FUNC WEAK DEFAULT 14 _ZNSt3__16__treeINS_12__v
957:   FUNC WEAK DEFAULT 14 _ZNSt3__16__treeINS_12__v
958:   FUNC WEAK DEFAULT 14 _ZNK7android12SortedVecto
959:   FUNC GLOBAL DEFAULT 14 _ZNK7android6Parcel14chec
960:   OBJECT WEAK DEFAULT 18 _ZTVN7android6VectorINS_8
961:   FUNC GLOBAL DEFAULT 14 _ZN7android6Parcel10write
962:   FUNC GLOBAL DEFAULT 14 _ZN7android6Parcel8setErr
963:   FUNC GLOBAL DEFAULT 14 _ZN7android6Parcel16write
964:   FUNC WEAK DEFAULT 14 _ZNK7android6VectorINS_8S
965:   FUNC GLOBAL DEFAULT 14 _ZNK7android8BpBinder13Ob
966:   FUNC WEAK DEFAULT 14 _ZNK7android6VectorINS_2s
967:   FUNC GLOBAL DEFAULT 14 _ZN7android10IInterfaceD2
968:   OBJECT GLOBAL DEFAULT 23 _ZN7android15IResultRecei
969:   OBJECT WEAK DEFAULT 23 _ZZ17internal_type_ptrIaE
970:   FUNC GLOBAL DEFAULT 14 _ZN7android12BpMemoryHeap
971:   FUNC GLOBAL DEFAULT 14 _ZN7android22SimpleBestFi
972:   FUNC GLOBAL DEFAULT 14 _ZNK7android6Parcel5print
973:   FUNC WEAK DEFAULT 14 _ZNK7android6VectorIiE10d
974:   FUNC GLOBAL DEFAULT 14 _ZN7android6binder6Status
975:   FUNC GLOBAL DEFAULT 14 _ZN7android6Parcel16write
976:   FUNC GLOBAL DEFAULT 14 _ZN7android6Parcel18getGl
977:   FUNC GLOBAL DEFAULT 14 _ZNK7android6Parcel7objec
978:   OBJECT WEAK DEFAULT 18 _ZTVN7android6binder5Valu
979:   FUNC GLOBAL DEFAULT 14 _ZNK7android6Parcel9readI
980:   FUNC GLOBAL DEFAULT 14 _ZNK7android6Parcel9readI
981:   FUNC GLOBAL DEFAULT 14 _ZNK7android2os17Persista
982:   FUNC GLOBAL DEFAULT 14 _ZN7android8BpBinder10onF
983:   FUNC GLOBAL DEFAULT 14 _ZNK7android8BpBinder10fi
984:   FUNC GLOBAL DEFAULT 14 _ZN7android18BufferedText
985:   FUNC GLOBAL DEFAULT 14 _ZN7android6Parcel14freeD
986:   FUNC GLOBAL DEFAULT 14 _ZN7android6Parcel22write
987:   FUNC GLOBAL DEFAULT 14 _ZN7android14MemoryHeapBa
988:   FUNC WEAK DEFAULT 14 _ZNK7android12SortedVecto
989:   FUNC GLOBAL DEFAULT 14 _ZN7android14IPCThreadSta
990:   OBJECT WEAK DEFAULT 18 _ZTCN7android16BpResultRe
991:   FUNC GLOBAL DEFAULT 14 _ZNK7android6Parcel10read
992:   FUNC GLOBAL DEFAULT 14 getBinderKernelReferences
993:   OBJECT GLOBAL DEFAULT 18 _ZTCN7android8BnMemoryE0_
994:   FUNC GLOBAL DEFAULT 14 _ZN7android14IPCThreadSta
995:   OBJECT WEAK DEFAULT 18 _ZTVN7android6VectorIPNS_
996:   FUNC GLOBAL DEFAULT 14 _ZN7android14MemoryHeapBa
997:   FUNC WEAK DEFAULT 14 _ZNSt3__16__treeINS_12__v
998:   FUNC GLOBAL DEFAULT 14 _ZTv0_n12_N7android15ISer
999:   FUNC WEAK DEFAULT 14 _ZNSt3__16__treeINS_12__v
1000:   FUNC WEAK DEFAULT 14 _ZNSt3__16__treeINS_12__v
1001:   FUNC GLOBAL DEFAULT 14 _ZN7android6binder5Value1
1002:   OBJECT WEAK DEFAULT 18 _ZTVN7android6VectorINS_2
1003:   FUNC GLOBAL DEFAULT 14 _ZNK7android14IPCThreadSt
1004:   OBJECT GLOBAL DEFAULT 18 _ZTCN7android15BnShellCal
1005:   FUNC GLOBAL DEFAULT 14 _ZN7android14MemoryHeapBa
1006:   FUNC WEAK DEFAULT 14 _ZNK7android12SortedVecto
1007:   FUNC GLOBAL DEFAULT 14 _ZN7android9BpRefBaseC2ER
1008:   FUNC WEAK DEFAULT 14 _ZNK7android12SortedVecto
1009:   FUNC GLOBAL DEFAULT 14 _ZNK7android14IPCThreadSt
1010:   FUNC GLOBAL DEFAULT 14 _ZNK7android14MemoryHeapB
1011:   FUNC GLOBAL DEFAULT 14 _ZN7android6Parcel15write
1012:   FUNC GLOBAL DEFAULT 14 _ZNK7android6Parcel29read
1013:   OBJECT WEAK DEFAULT 23 _ZZ17internal_type_ptrINS
1014:   FUNC GLOBAL DEFAULT 14 _ZN7android12BnMemoryHeap
1015:   FUNC GLOBAL DEFAULT 14 _ZN7android15IResultRecei
1016:   FUNC GLOBAL DEFAULT 14 _ZN7android6Parcel16write
1017:   FUNC GLOBAL DEFAULT 14 _ZN7android6Parcel12write
1018:   FUNC GLOBAL DEFAULT 14 _ZN7android6Parcel19write
1019:   FUNC GLOBAL DEFAULT 14 _ZNK7android6binder5Value
1020:   FUNC GLOBAL DEFAULT 14 _ZTv0_n12_N7android12BnMe
1021:   FUNC GLOBAL DEFAULT 14 _ZN7android6Parcel24readC
1022:   FUNC WEAK DEFAULT 14 _ZNKSt3__16__treeINS_12__
1023:   FUNC GLOBAL DEFAULT 14 _ZN7android6Parcel19write
1024:   FUNC GLOBAL DEFAULT 14 _ZN7android12BnMemoryHeap
1025:   FUNC GLOBAL DEFAULT 14 _ZNK7android6Parcel8readB
1026:   OBJECT GLOBAL DEFAULT 18 _ZTCN7android12BnMemoryHe
1027:   FUNC WEAK DEFAULT 14 _ZNK7android6VectorIPNS_7
1028:   OBJECT WEAK DEFAULT 18 _ZTCN7android16BpServiceM
1029:   OBJECT GLOBAL DEFAULT 18 _ZTTN7android10Allocation
1030:   FUNC GLOBAL DEFAULT 14 _ZN7android6Parcel23write
1031:   FUNC GLOBAL DEFAULT 14 _ZN7android2os17Persistab
1032:   OBJECT GLOBAL DEFAULT 18 _ZTTN7android12ProcessSta
1033:   FUNC GLOBAL DEFAULT 14 _ZNK7android14IShellCallb
1034:   FUNC GLOBAL DEFAULT 14 _ZN7android6binder5Value6
1035:   FUNC GLOBAL DEFAULT 14 _ZN7android6binder5Value9
1036:   FUNC GLOBAL DEFAULT 14 _ZNK7android6Parcel15setD
1037:   FUNC GLOBAL DEFAULT 14 _ZNK7android6Parcel8dataS
1038:   FUNC GLOBAL DEFAULT 14 _ZN7android14MemoryHeapBa
1039:   FUNC GLOBAL DEFAULT 14 _ZN7android18BufferedText
1040:   FUNC GLOBAL DEFAULT 14 _ZNK7android7IMemory11fas
1041:   FUNC GLOBAL DEFAULT 14 _ZN7android6Parcel31write
1042:   FUNC WEAK DEFAULT 14 _ZNSt3__16__treeINS_12__v
1043:   FUNC GLOBAL DEFAULT 14 _ZNK7android8BpMemory9get
1044:   FUNC GLOBAL DEFAULT 14 _ZTv0_n12_N7android8BpMem
1045:   FUNC GLOBAL DEFAULT 14 _ZN7android6Parcel13conti
1046:   FUNC GLOBAL DEFAULT 14 _ZN7android6Parcel8freeDa
1047:   FUNC GLOBAL DEFAULT 14 _ZNK7android2os17Persista
1048:   FUNC GLOBAL DEFAULT 14 _ZN7android14IPCThreadSta
1049:   FUNC GLOBAL DEFAULT 14 _ZN7android11IMemoryHeapD
1050:   FUNC GLOBAL DEFAULT 14 _ZN7android15IServiceMana
1051:   FUNC GLOBAL DEFAULT 14 _ZN7android9BpRefBaseC1ER
1052:   FUNC WEAK DEFAULT 14 _ZNK7android6VectorINS_8S
1053:   FUNC GLOBAL DEFAULT 14 _ZN7android6Parcel10write
1054:   OBJECT GLOBAL DEFAULT 18 _ZTVN7android8BpBinderE
1055:   FUNC GLOBAL DEFAULT 14 _ZN7android6binder6Status
1056:   OBJECT WEAK DEFAULT 23 _ZZ17internal_type_ptrINS
1057:   FUNC GLOBAL DEFAULT 14 _ZN7android7IMemoryD0Ev
1058:   FUNC WEAK DEFAULT 14 _ZNK7android12SortedVecto
1059:   FUNC GLOBAL DEFAULT 14 _ZN7android9BpRefBase10on
1060:   FUNC GLOBAL DEFAULT 14 _ZTv0_n12_N7android12BpMe
1061:   FUNC GLOBAL DEFAULT 14 _ZN7android6Parcel12write
1062:   FUNC GLOBAL DEFAULT 14 _ZNK7android6Parcel24read
1063:   FUNC GLOBAL DEFAULT 14 _ZN7android6Parcel10write
1064:   FUNC WEAK DEFAULT 14 _ZNSt3__16vectorIaNS_9all
1065:   FUNC GLOBAL DEFAULT 14 _ZNK7android7IMemory6offs
1066:   FUNC WEAK DEFAULT 14 _ZNK7android6VectorIPNS_7
1067:   FUNC WEAK DEFAULT 14 _ZNK7android6VectorIPNS_7
1068:   FUNC GLOBAL DEFAULT 14 _ZN7android10AllocationD0
1069:   FUNC WEAK DEFAULT 14 _ZN7androidlsIjEERNS_10Te
1070:   FUNC WEAK DEFAULT 14 _ZNSt3__16vectorIfNS_9all
1071:   FUNC GLOBAL DEFAULT 14 _ZN7android6binder6Status
1072:   FUNC GLOBAL DEFAULT 14 _ZN7android22SimpleBestFi
1073:   FUNC WEAK DEFAULT 14 _ZN7android6Parcel12write
1074:   FUNC GLOBAL DEFAULT 14 _ZN7android8BpBinder16ena
1075:   FUNC GLOBAL DEFAULT 14 _ZN7android6Parcel4Blob5c
1076:   FUNC GLOBAL DEFAULT 14 _ZNK7android2os17Persista
1077:   FUNC WEAK DEFAULT 14 _ZN7android6Parcel12write
1078:   FUNC GLOBAL DEFAULT 14 _ZTv0_n12_N7android7BBind
1079:   FUNC GLOBAL DEFAULT 14 _ZN7android6Parcel15write
1080:   FUNC GLOBAL DEFAULT 14 _ZN7android6Parcel28write
1081:   OBJECT GLOBAL DEFAULT 18 _ZTCN7android8BnMemoryE0_
1082:   OBJECT GLOBAL DEFAULT 18 _ZTCN7android14MemoryHeap
1083:   FUNC GLOBAL DEFAULT 14 _ZN7android6Parcel15write
1084:   FUNC GLOBAL DEFAULT 14 _ZN7android2os20ParcelFil
1085:   OBJECT WEAK DEFAULT 18 _ZTVN7android6binder5Valu
1086:   FUNC GLOBAL DEFAULT 14 _ZTv0_n12_N7android8BpBin
1087:   FUNC WEAK DEFAULT 14 _ZNSt3__16vectorINS_10uni
1088:   FUNC WEAK DEFAULT 14 _ZNSt3__16__treeINS_12__v
1089:   FUNC GLOBAL DEFAULT 14 _ZN7android6binder5ValueC
1090:   OBJECT GLOBAL DEFAULT 18 _ZTTN7android14MemoryHeap
1091:   FUNC GLOBAL DEFAULT 14 _ZN7android6Parcel17write
1092:   FUNC WEAK DEFAULT 14 _ZNK7android6VectorINS_8S
1093:   FUNC GLOBAL DEFAULT 14 _ZNK7android14MemoryHeapB
1094:   FUNC GLOBAL DEFAULT 14 __aeabi_memmove
1095:   OBJECT GLOBAL DEFAULT 18 _ZTVN7android9HeapCacheE
1096:   FUNC GLOBAL DEFAULT 14 _ZThn4_N7android10MemoryB
1097:   FUNC WEAK DEFAULT 14 _ZNSt3__16vectorIbNS_9all
1098:   FUNC GLOBAL DEFAULT 14 _ZN7android6binder5ValueC
1099:   FUNC GLOBAL DEFAULT 14 _ZN7android6binder5ValueC
1100:   FUNC GLOBAL DEFAULT 14 _ZN7android7IBinderD0Ev
1101:   OBJECT GLOBAL DEFAULT 23 _ZN7android11IMemoryHeap1
1102:   OBJECT WEAK DEFAULT 18 _ZTVN7android6VectorIPNS_
1103:   FUNC GLOBAL DEFAULT 14 _ZN7android6Parcel16write
1104:   FUNC GLOBAL DEFAULT 14 _ZNK7android6binder5Value
1105:   FUNC GLOBAL DEFAULT 14 _ZN7android12BpMemoryHeap
1106:   FUNC GLOBAL DEFAULT 14 _ZNK7android6Parcel4readE
1107:   FUNC GLOBAL DEFAULT 14 _ZNK7android6Parcel15read
1108:   OBJECT WEAK DEFAULT 18 _ZTCN7android10PoolThread
1109:   FUNC GLOBAL DEFAULT 14 _ZN7android6binder5ValueC
1110:   FUNC GLOBAL DEFAULT 14 _ZN7android6binder5ValueD
1111:   OBJECT WEAK DEFAULT 18 _ZTTN7android16BpResultRe
1112:   FUNC GLOBAL DEFAULT 14 _ZN7android6Parcel9initSt
1113:   OBJECT WEAK DEFAULT 18 _ZTVNSt3__115basic_string
1114:   FUNC GLOBAL DEFAULT 14 _ZNK7android2os17Persista
1115:   FUNC WEAK DEFAULT 14 _ZNSt3__16__treeINS_12__v
1116:   FUNC GLOBAL DEFAULT 14 _ZN7android6binder6Status
1117:   FUNC WEAK DEFAULT 14 _ZNSt3__16__treeINS_12__v
1118:   FUNC GLOBAL DEFAULT 14 _ZN7android6Parcel11write
1119:   FUNC GLOBAL DEFAULT 14 _ZN7android8BnMemory10onT
1120:   FUNC GLOBAL DEFAULT 14 _ZTv0_n12_N7android15IRes
1121:   FUNC GLOBAL DEFAULT 14 _ZN7android12MemoryDealer
1122:   FUNC GLOBAL DEFAULT 14 _ZNK7android6Parcel15read
1123:   FUNC GLOBAL DEFAULT 14 _ZN7android10TextOutputC2
1124:   FUNC GLOBAL DEFAULT 14 _ZN7android9HeapCache10bi
1125:   FUNC GLOBAL DEFAULT 14 _ZNK7android15IServiceMan
1126:   FUNC GLOBAL DEFAULT 14 _ZN7android10MemoryBaseC1
1127:   FUNC GLOBAL DEFAULT 14 _ZNK7android6Parcel11read
1128:   FUNC GLOBAL DEFAULT 14 _ZN7android6binder5ValueC
1129:   OBJECT WEAK DEFAULT 18 _ZTVN7android6VectorINS_8
1130:   FUNC GLOBAL DEFAULT 14 _ZNK7android2os17Persista
1131:   FUNC GLOBAL DEFAULT 14 _ZN7android10TextOutputD2
1132:   FUNC GLOBAL DEFAULT 14 _ZTv0_n12_N7android14IShe
1133:   FUNC GLOBAL DEFAULT 14 _ZNK7android6Parcel9readF
1134:   FUNC GLOBAL DEFAULT 14 _ZN7android12ProcessState
1135:   FUNC GLOBAL DEFAULT 14 _ZN7android7BBinderC2Ev
1136:   FUNC WEAK DEFAULT 14 _ZNSt3__16__treeINS_12__v
1137:   FUNC GLOBAL DEFAULT 14 _ZN7android10IInterfaceD0
1138:   FUNC GLOBAL DEFAULT 14 _ZN7android9HeapCacheC1Ev
1139:   FUNC GLOBAL DEFAULT 14 _ZN7android14IPCThreadSta
1140:   OBJECT GLOBAL DEFAULT 18 _ZTCN7android15BnShellCal
1141:   FUNC GLOBAL DEFAULT 14 _ZN7android14acquire_obje
1142:   FUNC GLOBAL DEFAULT 14 _ZN7android6Parcel7setDat
1143:   FUNC WEAK DEFAULT 14 _ZNK7android6VectorIiE15d
1144:   FUNC GLOBAL DEFAULT 14 _ZN7android6binder5ValueC
1145:   FUNC GLOBAL DEFAULT 14 _ZNK7android6binder5Value
1146:   FUNC GLOBAL DEFAULT 14 _ZN7android15IServiceMana
1147:   FUNC WEAK DEFAULT 14 _ZNSt3__16vectorIdNS_9all
1148:   FUNC GLOBAL DEFAULT 14 _ZN7android6binder5ValueC
1149:   FUNC GLOBAL DEFAULT 14 _ZN7android7BBinderD2Ev
1150:   FUNC GLOBAL DEFAULT 14 _ZN7android7IBinder12shel
1151:   FUNC GLOBAL DEFAULT 14 _ZN7android6Parcel9writeB
1152:   FUNC GLOBAL DEFAULT 14 _ZN7android2os17Persistab
1153:   OBJECT WEAK DEFAULT 18 _ZTVN7android6binder5Valu
1154:   FUNC GLOBAL DEFAULT 14 _ZTv0_n24_N7android9BpRef
1155:   FUNC GLOBAL DEFAULT 14 _ZN7android9HeapCacheD1Ev
1156:   FUNC GLOBAL DEFAULT 14 _ZN7android14IPCThreadSta
1157:   FUNC GLOBAL DEFAULT 14 _ZNK7android6Parcel4dataE
1158:   FUNC GLOBAL DEFAULT 14 _ZN7android15IResultRecei
1159:   FUNC GLOBAL DEFAULT 14 _ZN7android6Parcel9writeB
1160:   FUNC WEAK DEFAULT 14 _ZNSt3__16__treeINS_12__v
1161:   FUNC GLOBAL DEFAULT 14 _ZN7android12ProcessState
1162:   FUNC GLOBAL DEFAULT 14 _ZThn4_N7android10Allocat
1163:   FUNC GLOBAL DEFAULT 14 _ZN7android6Parcel11write
1164:   FUNC GLOBAL DEFAULT 14 _ZN7android6Parcel4BlobC2
1165:   FUNC GLOBAL DEFAULT 14 _ZNK7android2os17Persista
1166:   FUNC GLOBAL DEFAULT 14 _ZTv0_n12_N7android11IMem
1167:   FUNC WEAK DEFAULT 14 _ZNSt3__16__treeINS_12__v
1168:   FUNC WEAK DEFAULT 14 _ZNK7android12SortedVecto
1169:   OBJECT GLOBAL DEFAULT 18 _ZTTN7android7IMemoryE
1170:   FUNC GLOBAL DEFAULT 14 _ZN7android15IResultRecei
1171:   FUNC WEAK DEFAULT 14 _ZN7androidlsIA4_cEERNS_1
1172:   FUNC GLOBAL DEFAULT 14 printTypeCode
1173:   FUNC GLOBAL DEFAULT 14 _ZN7android7IMemory11asIn
1174:   FUNC GLOBAL DEFAULT 14 _ZN7android6Parcel4BlobD2
1175:   FUNC GLOBAL DEFAULT 14 __aeabi_memclr4
1176:   FUNC WEAK DEFAULT 14 _ZNK7android12SortedVecto
1177:   OBJECT GLOBAL DEFAULT 18 _ZTTN7android8BpMemoryE
1178:   FUNC WEAK DEFAULT 14 _ZNK7android6VectorIPNS_7
1179:   FUNC GLOBAL DEFAULT 14 _ZN7android14MemoryHeapBa
1180:   FUNC GLOBAL DEFAULT 14 _ZNK7android14MemoryHeapB
1181:   FUNC WEAK DEFAULT 14 _ZNSt3__16__treeINS_12__v
1182:   FUNC WEAK DEFAULT 14 _ZNK7android12SortedVecto
1183:   FUNC WEAK DEFAULT 14 _ZNK7android6Parcel23read
1184:   FUNC GLOBAL DEFAULT 14 _ZN7android8BpBinder13Obj
1185:   FUNC GLOBAL DEFAULT 14 _ZN7android14IPCThreadSta
1186:   FUNC GLOBAL DEFAULT 14 _ZNK7android6Parcel19read
1187:   FUNC GLOBAL DEFAULT 14 _ZN7android11IMemoryHeap1
1188:   FUNC GLOBAL DEFAULT 14 _ZThn4_N7android12BnMemor
1189:   FUNC GLOBAL DEFAULT 14 _ZN7android14IPCThreadSta
1190:   FUNC GLOBAL DEFAULT 14 _ZN7android12MemoryDealer
1191:   FUNC GLOBAL DEFAULT 14 _ZN7android14MemoryHeapBa
1192:   FUNC GLOBAL DEFAULT 14 __aeabi_memclr8
1193:   FUNC WEAK DEFAULT 14 _ZNSt3__16__treeINS_12__v
1194:   FUNC WEAK DEFAULT 14 _ZNK7android12SortedVecto
1195:   FUNC GLOBAL DEFAULT 14 _ZTv0_n12_N7android12Proc
1196:   OBJECT GLOBAL DEFAULT 18 _ZTCN7android10Allocation
1197:   FUNC WEAK DEFAULT 14 _ZNSt3__16__treeINS_12__v
1198:   FUNC WEAK DEFAULT 14 _ZNSt3__16__treeINS_12__v
1199:   OBJECT GLOBAL DEFAULT 18 _ZTCN7android12BnMemoryHe
1200:   FUNC GLOBAL DEFAULT 14 _ZN7android14IPCThreadSta
1201:   FUNC GLOBAL DEFAULT 14 _ZTv0_n40_NK7android14Mem
1202:   FUNC GLOBAL DEFAULT 14 _ZN7android6Parcel16write
1203:   FUNC GLOBAL DEFAULT 14 _ZN7android6binder6Status
1204:   FUNC GLOBAL DEFAULT 14 _ZNK7android6Parcel16read
1205:   FUNC WEAK DEFAULT 14 _ZN7android2spINS_15IServ
1206:   FUNC GLOBAL DEFAULT 14 _ZN7android7BBinder10ping
1207:   FUNC WEAK DEFAULT 14 _ZNSt3__112__hash_tableIN
1208:   FUNC GLOBAL DEFAULT 14 _ZN7android12BnMemoryHeap
1209:   FUNC GLOBAL DEFAULT 14 _ZTv0_n12_N7android8BnMem
1210:   FUNC GLOBAL DEFAULT 14 _ZNK7android6Parcel10read
1211:   FUNC GLOBAL DEFAULT 14 _ZN7android12ProcessState
1212:   OBJECT GLOBAL DEFAULT 18 _ZTCN7android14MemoryHeap
1213:   FUNC WEAK DEFAULT 14 _ZNSt3__16__treeINS_12__v
1214:   FUNC WEAK DEFAULT 14 _ZNSt3__16__treeINS_12__v
1215:   FUNC GLOBAL DEFAULT 14 _ZN7android14IPCThreadSta
1216:   FUNC GLOBAL DEFAULT 14 _ZThn4_N7android15BnShell
1217:   FUNC GLOBAL DEFAULT 14 _ZN7android6Parcel16write
1218:   FUNC GLOBAL DEFAULT 14 _ZNK7android6Parcel14read
1219:   FUNC GLOBAL DEFAULT 14 _ZNK7android6binder5Value
1220:   FUNC GLOBAL DEFAULT 14 _ZN7android8BpBinder13Obj
1221:   FUNC GLOBAL DEFAULT 14 _ZN7android6Parcel11write
1222:   OBJECT WEAK DEFAULT 18 _ZTCN7android16BpServiceM
1223:   OBJECT GLOBAL DEFAULT 18 _ZTTN7android15BnShellCal
1224:   FUNC GLOBAL DEFAULT 14 _ZNK7android6Parcel8readB
1225:   FUNC GLOBAL DEFAULT 14 _ZN7android18BufferedText
1226:   FUNC GLOBAL DEFAULT 14 _ZNK7android2os17Persista
1227:   FUNC WEAK DEFAULT 14 _ZNSt3__16__treeINS_12__v
1228:   FUNC GLOBAL DEFAULT 14 _ZNK7android6binder5Value
1229:   OBJECT WEAK DEFAULT 18 _ZTVN7android6binder5Valu
1230:   FUNC GLOBAL DEFAULT 14 _ZN7android8BpBinder13Obj
1231:   FUNC WEAK DEFAULT 14 _ZNK7android12SortedVecto
1232:   FUNC WEAK DEFAULT 14 _ZNK7android6VectorIPNS_7
1233:   FUNC GLOBAL DEFAULT 14 _ZN7android12MemoryDealer
1234:   FUNC GLOBAL DEFAULT 14 _ZN7android14MemoryHeapBa
1235:   FUNC GLOBAL DEFAULT 14 _ZN7androidlsERNS_10TextO
1236:   FUNC WEAK DEFAULT 14 _ZNSt3__16__treeINS_12__v
1237:   FUNC GLOBAL DEFAULT 14 _ZN7android6binder6Status
1238:   OBJECT GLOBAL DEFAULT 18 _ZTVN7android6binder5Valu
1239:   FUNC GLOBAL DEFAULT 14 _ZNK7android6Parcel11ipcD
1240:   FUNC GLOBAL DEFAULT 14 _ZN7android14MemoryHeapBa
1241:   FUNC WEAK DEFAULT 14 _ZNSt3__127__tree_balance
1242:   FUNC WEAK DEFAULT 14 _ZNSt3__16__treeIN7androi
1243:   FUNC WEAK DEFAULT 14 _ZNSt3__16__treeINS_12__v
1244:   OBJECT GLOBAL DEFAULT 23 _ZN7android13gProcessMute
1245:   FUNC WEAK DEFAULT 14 _ZNSt3__16vectorIhNS_9all
1246:   FUNC GLOBAL DEFAULT 14 _ZN7android7BBinder10onTr
1247:   OBJECT GLOBAL DEFAULT 18 _ZTCN7android14IShellCall
1248:   FUNC GLOBAL DEFAULT 14 _ZNK7android6Parcel15read
1249:   OBJECT WEAK DEFAULT 18 _ZTVN7android6binder5Valu
1250:   FUNC GLOBAL DEFAULT 14 _ZNK7android6Parcel22read
1251:   FUNC GLOBAL DEFAULT 14 _ZN7android6Parcel6remove
1252:   FUNC GLOBAL DEFAULT 14 _ZNK7android6Parcel24read
1253:   FUNC GLOBAL DEFAULT 14 _ZN7android12ProcessState
1254:   OBJECT WEAK DEFAULT 23 _ZZ17internal_type_ptrINS
1255:   FUNC GLOBAL DEFAULT 14 _ZTv0_n12_N7android9HeapC
1256:   FUNC GLOBAL DEFAULT 14 _ZN7android14IPCThreadSta
1257:   FUNC GLOBAL DEFAULT 14 _ZN7android16unflatten_bi
1258:   FUNC GLOBAL DEFAULT 14 _ZN7android6Parcel15write
1259:   FUNC GLOBAL DEFAULT 14 _ZNK7android6Parcel18read
1260:   FUNC WEAK DEFAULT 14 _ZNSt3__16__treeINS_12__v
1261:   FUNC GLOBAL DEFAULT 14 _ZN7android14IPCThreadSta
1262:   FUNC GLOBAL DEFAULT 14 _ZN7android12MemoryDealer
1263:   FUNC GLOBAL DEFAULT 14 _ZNK7android14MemoryHeapB
1264:   FUNC WEAK DEFAULT 14 _ZNSt3__115basic_stringbu
1265:   FUNC WEAK DEFAULT 14 _ZNSt3__16__treeINS_12__v
1266:   FUNC GLOBAL DEFAULT 14 _ZNK7android6binder5Value
1267:   OBJECT WEAK DEFAULT 23 _ZZ17internal_type_ptrINS
1268:   FUNC GLOBAL DEFAULT 14 _ZN7android14IPCThreadSta
1269:   FUNC GLOBAL DEFAULT 14 _ZN7android9HeapCache9fin
1270:   FUNC GLOBAL DEFAULT 14 _ZN7android14IPCThreadSta
1271:   FUNC GLOBAL DEFAULT 14 _ZN7android6binder5ValueC
1272:   OBJECT GLOBAL DEFAULT 18 _ZTVN7android15IResultRec
1273:   OBJECT GLOBAL DEFAULT 23 _ZN7android20gSystemBootC
1274:   OBJECT GLOBAL DEFAULT 18 _ZTTN7android14IShellCall
1275:   FUNC WEAK DEFAULT 14 _ZNSt3__16__treeINS_12__v
1276:   FUNC GLOBAL DEFAULT 14 _ZN7android7BBinder15isRe
1277:   OBJECT GLOBAL DEFAULT 18 _ZTVN7android18BufferedTe
1278:   FUNC GLOBAL DEFAULT 14 _ZNK7android6Parcel30read
1279:   FUNC GLOBAL DEFAULT 14 _ZN7android2os17Persistab
1280:   OBJECT GLOBAL DEFAULT 23 _ZN7android8BpBinder26sBi
1281:   FUNC GLOBAL DEFAULT 14 _ZN7android6Parcel15setDa
1282:   FUNC GLOBAL DEFAULT 14 _ZNK7android6binder5Value
1283:   OBJECT GLOBAL DEFAULT 18 _ZTVN7android7IBinderE
1284:   OBJECT GLOBAL DEFAULT 18 _ZTCN7android15BnShellCal
1285:   FUNC GLOBAL DEFAULT 14 _ZNK7android22SimpleBestF
1286:   FUNC GLOBAL DEFAULT 14 _ZNK7android6Parcel16read
1287:   FUNC GLOBAL DEFAULT 14 _ZN7android6binder5ValueC
1288:   FUNC GLOBAL DEFAULT 14 _ZN7android8BnMemoryC2Ev
1289:   OBJECT GLOBAL DEFAULT 23 _ZN7android18the_context_
1290:   FUNC WEAK DEFAULT 14 _ZNSt3__16vectorIN7androi
1291:   FUNC GLOBAL DEFAULT 14 _ZN7android7BBinder12deta
1292:   FUNC WEAK DEFAULT 14 _ZNK7android6VectorINS_8B
1293:   FUNC GLOBAL DEFAULT 14 _ZN7android14MemoryHeapBa
1294:   FUNC GLOBAL DEFAULT 14 _ZN7android6binder5ValueC
1295:   FUNC GLOBAL DEFAULT 14 _ZN7android12BpMemoryHeap
1296:   FUNC WEAK DEFAULT 14 _ZNK7android6VectorIPNS_7
1297:   FUNC GLOBAL DEFAULT 14 _ZN7android6binder5ValueD
1298:   OBJECT WEAK DEFAULT 23 _ZZ17internal_type_ptrINS
1299:   FUNC GLOBAL DEFAULT 14 _ZN7android8BnMemoryD2Ev
1300:   OBJECT GLOBAL DEFAULT 18 _ZTTN7android15IServiceMa
1301:   FUNC WEAK DEFAULT 14 _ZNSt3__16__treeINS_12__v
1302:   FUNC WEAK DEFAULT 14 _ZNSt3__16__treeINS_12__v
1303:   FUNC GLOBAL DEFAULT 14 _ZN7android6Parcel26write
1304:   FUNC GLOBAL DEFAULT 14 _ZNK7android6Parcel10scan
1305:   FUNC WEAK DEFAULT 14 _ZNSt3__16vectorINS_10uni
1306:   FUNC GLOBAL DEFAULT 14 _ZN7android2os17Persistab
1307:   FUNC GLOBAL DEFAULT 14 _ZNK7android2os17Persista
1308:   FUNC GLOBAL DEFAULT 14 _ZN7android7IBinder12remo
1309:   OBJECT WEAK DEFAULT 18 _ZTCN7android16BpServiceM
1310:   OBJECT WEAK DEFAULT 18 _ZTVN7android16BpServiceM
1311:   FUNC GLOBAL DEFAULT 14 _ZNK7android10MemoryBase9
1312:   FUNC WEAK DEFAULT 14 _ZNK7android6VectorINS_8S
1313:   FUNC GLOBAL DEFAULT 14 _ZN7android8BpBinderC1Eii
1314:   FUNC WEAK DEFAULT 14 _ZNSt3__16__treeINS_12__v
1315:   FUNC WEAK DEFAULT 14 _ZNSt3__16__treeINS_12__v
1316:   FUNC GLOBAL DEFAULT 14 _ZTv0_n12_N7android7IMemo
1317:   OBJECT GLOBAL DEFAULT 18 _ZTCN7android16BnResultRe
1318:   FUNC GLOBAL DEFAULT 14 _ZN7android10AllocationC1
1319:   FUNC GLOBAL DEFAULT 14 _ZN7android12ProcessState
1320:   FUNC GLOBAL DEFAULT 14 _ZN7android6binder6Status
1321:   FUNC GLOBAL DEFAULT 14 _ZN7android6binder5Value7
1322:   FUNC GLOBAL DEFAULT 14 _ZN7android8BpMemoryD1Ev
1323:   FUNC GLOBAL DEFAULT 14 _ZN7android6Parcel9writeC
1324:   FUNC GLOBAL DEFAULT 14 _ZNK7android6binder5Value
1325:   FUNC GLOBAL DEFAULT 14 _ZN7android8BpBinder19get
1326:   FUNC GLOBAL DEFAULT 14 _ZN7android8BpBinderC2Eii
1327:   FUNC WEAK DEFAULT 14 _ZNSt3__16__treeINS_12__v
1328:   FUNC GLOBAL DEFAULT 14 _ZN7android10TextOutputD0
1329:   OBJECT GLOBAL DEFAULT 23 _ZN7android12gTextBuffers
1330:   FUNC GLOBAL DEFAULT 14 _ZN7android14MemoryHeapBa
1331:   FUNC GLOBAL DEFAULT 14 _ZNK7android6Parcel37upda
1332:   FUNC WEAK DEFAULT 14 _ZNSt3__16__treeINS_12__v
1333:   OBJECT WEAK DEFAULT 23 _ZZ17internal_type_ptrIxE
1334:   FUNC GLOBAL DEFAULT 14 _ZN7android8BpBinder12rem
1335:   FUNC GLOBAL DEFAULT 14 _ZN7android6binder6Status
1336:   FUNC GLOBAL DEFAULT 14 _ZN7android6binder5ValueC
1337:   FUNC GLOBAL DEFAULT 14 _ZN7android15IResultRecei
1338:   FUNC GLOBAL DEFAULT 14 _ZNK7android6Parcel16read
1339:   FUNC GLOBAL DEFAULT 14 _ZNK7android6binder5Value
1340:   FUNC GLOBAL DEFAULT 14 _ZN7android7BBinderD0Ev
1341:   FUNC GLOBAL DEFAULT 14 _ZN7android14IPCThreadSta
1342:   FUNC GLOBAL DEFAULT 14 _ZNK7android6Parcel16read
1343:   FUNC WEAK DEFAULT 14 _ZNK7android6Parcel21unsa
1344:   OBJECT GLOBAL DEFAULT 18 _ZTVN7android10TextOutput
1345:   FUNC GLOBAL DEFAULT 14 _ZNK7android6Parcel16read
1346:   OBJECT GLOBAL DEFAULT 18 _ZTTN7android7IBinderE
1347:   FUNC WEAK DEFAULT 14 _ZNK7android6VectorINS_2s
1348:   FUNC WEAK DEFAULT 14 _ZNK7android12SortedVecto
1349:   OBJECT GLOBAL DEFAULT 18 _ZTTN7android11IMemoryHea
1350:   OBJECT GLOBAL DEFAULT 18 _ZTCN7android10MemoryBase
1351:   FUNC GLOBAL DEFAULT 14 _ZN7android6Parcel15write
1352:   FUNC WEAK DEFAULT 14 _ZNK7android6VectorINS_8B
1353:   FUNC GLOBAL DEFAULT 14 _ZN7android6Parcel16write
1354:   FUNC GLOBAL DEFAULT 14 _ZNK7android6binder5Value
1355:   FUNC GLOBAL DEFAULT 14 _ZNK7android6binder5Value
1356:   OBJECT GLOBAL DEFAULT 18 _ZTTN7android8BpBinderE
1357:   FUNC GLOBAL DEFAULT 14 _ZNK7android6Parcel11read
1358:   FUNC WEAK DEFAULT 14 _ZNK7android6Parcel23read
1359:   FUNC WEAK DEFAULT 14 _ZNSt3__16__treeINS_12__v
1360:   FUNC WEAK DEFAULT 14 _ZNK7android6VectorIiE8do
1361:   OBJECT GLOBAL DEFAULT 16 _ZN7android8BpBinder30sBi
1362:   FUNC GLOBAL DEFAULT 14 _ZN7android14IPCThreadSta
1363:   FUNC GLOBAL DEFAULT 14 _ZN7android14IPCThreadSta
1364:   FUNC GLOBAL DEFAULT 14 _ZN7android15IResultRecei
1365:   OBJECT GLOBAL DEFAULT 18 _ZTVN7android16BnResultRe
1366:   FUNC GLOBAL DEFAULT 14 _ZN7android15IServiceMana
1367:   FUNC GLOBAL DEFAULT 14 _ZTvn4_n16_N7android14Mem
1368:   FUNC GLOBAL DEFAULT 14 _ZNK7android6Parcel16read
1369:   FUNC GLOBAL DEFAULT 14 _ZN7android2os20ParcelFil
1370:   FUNC WEAK DEFAULT 14 _ZNSt3__16__treeINS_12__v
1371:   FUNC GLOBAL DEFAULT 14 _ZN7android8BpBinder15onL
1372:   FUNC GLOBAL DEFAULT 14 _ZNK7android6Parcel10read
1373:   FUNC GLOBAL DEFAULT 14 _ZNK7android2os17Persista
1374:   FUNC WEAK DEFAULT 14 _ZNSt3__16__treeINS_12__v
1375:   FUNC GLOBAL DEFAULT 14 _ZNK7android6binder5Value
1376:   OBJECT GLOBAL DEFAULT 18 _ZTCN7android8BpMemoryE0_
1377:   OBJECT GLOBAL DEFAULT 18 _ZTVN7android10MemoryBase
1378:   FUNC GLOBAL DEFAULT 14 _ZNK7android6Parcel14read
1379:   FUNC WEAK DEFAULT 14 _ZNSt3__16vectorIbNS_9all
1380:   FUNC GLOBAL DEFAULT 14 _ZNK7android2os17Persista
1381:   FUNC WEAK DEFAULT 14 _ZNSt3__16__treeINS_12__v
1382:   FUNC GLOBAL DEFAULT 14 _ZN7android6binder5Value1
1383:   FUNC GLOBAL DEFAULT 14 _ZTv0_n12_N7android7IBind
1384:   FUNC GLOBAL DEFAULT 14 _ZN7android6Parcel28write
1385:   FUNC GLOBAL DEFAULT 14 _ZNK7android6Parcel30read
1386:   FUNC GLOBAL DEFAULT 14 _ZN7android8BpBinderD1Ev
1387:   FUNC GLOBAL DEFAULT 14 _ZN7android6Parcel19write
1388:   FUNC GLOBAL DEFAULT 14 _ZNK7android2os17Persista
1389:   FUNC WEAK DEFAULT 14 _ZNKSt3__16__treeINS_12__
1390:   FUNC GLOBAL DEFAULT 14 _ZN7android6binder5Value1
1391:   FUNC GLOBAL DEFAULT 14 _ZN7android9BpRefBaseD1Ev
1392:   FUNC GLOBAL DEFAULT 14 _ZN7android6Parcel28write
1393:   FUNC WEAK DEFAULT 14 _ZNSt3__16vectorIbNS_9all
1394:   FUNC WEAK DEFAULT 14 _ZNSt3__16__treeINS_12__v
1395:   FUNC GLOBAL DEFAULT 14 _ZNK7android6binder5Value
1396:   FUNC GLOBAL DEFAULT 14 _ZN7android8BpBinder6crea
1397:   FUNC WEAK DEFAULT 14 _ZN7android11BnInterfaceI
1398:   FUNC GLOBAL DEFAULT 14 _ZTv0_n12_N7android10Memo
1399:   OBJECT GLOBAL DEFAULT 18 _ZTCN7android10Allocation
1400:   FUNC GLOBAL DEFAULT 14 _ZN7android2os17Persistab
1401:   FUNC WEAK DEFAULT 14 _ZNSt3__16__treeINS_12__v
1402:   FUNC GLOBAL DEFAULT 14 _ZN7android7BBinder11link
1403:   OBJECT WEAK DEFAULT 18 _ZTVN7android6VectorIPNS_
1404:   FUNC WEAK DEFAULT 14 _ZNSt3__16__treeINS_12__v
1405:   FUNC WEAK DEFAULT 14 _ZNSt3__16__treeINS_12__v
1406:   FUNC GLOBAL DEFAULT 14 _ZN7android6binder5ValueC
1407:   FUNC GLOBAL DEFAULT 14 _ZN7android7BBinder17getO
1408:   OBJECT GLOBAL DEFAULT 18 _ZTCN7android12BpMemoryHe
1409:   OBJECT GLOBAL DEFAULT 18 _ZTCN7android15IResultRec
1410:   FUNC GLOBAL DEFAULT 14 _ZNK7android6Parcel7readM
1411:   FUNC GLOBAL DEFAULT 14 __aeabi_memclr
1412:   FUNC WEAK DEFAULT 14 _ZNSt3__16__treeINS_12__v
1413:   FUNC GLOBAL DEFAULT 14 _ZN7android6binder5ValueC
1414:   OBJECT GLOBAL DEFAULT 23 _ZN7android8BpBinder15sNu
1415:   FUNC WEAK DEFAULT 14 _ZNK7android6VectorIPNS_7
1416:   FUNC GLOBAL DEFAULT 14 _ZNK7android8BpBinder18is
1417:   FUNC GLOBAL DEFAULT 14 _ZN7android9HeapCache9fre
1418:   FUNC GLOBAL DEFAULT 14 _ZN7android14IPCThreadSta
1419:   FUNC GLOBAL DEFAULT 14 _ZN7android6binder5ValueC
1420:   FUNC GLOBAL DEFAULT 14 _ZN7android18BufferedText
1421:   OBJECT GLOBAL DEFAULT 23 _ZN7android22gDefaultServ
1422:   FUNC GLOBAL DEFAULT 14 _ZNK7android6binder5Value
1423:   FUNC GLOBAL DEFAULT 14 _ZNK7android2os17Persista
1424:   OBJECT WEAK DEFAULT 23 _ZZ17internal_type_ptrIdE
1425:   FUNC GLOBAL DEFAULT 14 _ZNK7android6Parcel14read
1426:   FUNC GLOBAL DEFAULT 14 _ZNK7android6Parcel17getB
1427:   FUNC WEAK DEFAULT 14 _ZNSt3__16__treeINS_12__v
1428:   FUNC GLOBAL DEFAULT 14 _ZNK7android14IPCThreadSt
1429:   FUNC GLOBAL DEFAULT 14 _ZN7android21defaultServi
1430:   FUNC WEAK DEFAULT 14 _ZNSt3__16__treeINS_12__v
1431:   FUNC WEAK DEFAULT 14 _ZNSt3__16__treeINS_12__v
1432:   FUNC GLOBAL DEFAULT 14 _ZN7android9BpRefBase15on
1433:   FUNC GLOBAL DEFAULT 14 _ZN7android6Parcel11compa
1434:   FUNC GLOBAL DEFAULT 14 _ZN7android2os17Persistab
1435:   FUNC WEAK DEFAULT 14 _ZNSt3__16__treeINS_12__v
1436:   FUNC GLOBAL DEFAULT 14 _ZN7android14IPCThreadSta
1437:   FUNC WEAK DEFAULT 14 _ZN7android6Parcel12write
1438:   FUNC GLOBAL DEFAULT 14 _ZNK7android6Parcel8readC
1439:   FUNC WEAK DEFAULT 14 _ZNSt3__16__treeINS_12__v
1440:   FUNC GLOBAL DEFAULT 14 _ZN7android6binder5ValueC
1441:   FUNC GLOBAL DEFAULT 14 _ZN7android14MemoryHeapBa
1442:   FUNC GLOBAL DEFAULT 14 _ZNK7android6Parcel10read
1443:   FUNC GLOBAL DEFAULT 14 _ZN7android2os20ParcelFil
1444:   FUNC GLOBAL DEFAULT 14 _ZN7android2os17Persistab
1445:   FUNC GLOBAL DEFAULT 14 _ZN7android6binder5Valuea
1446:   FUNC GLOBAL DEFAULT 14 _ZNK7android6binder5Value
1447:   FUNC GLOBAL DEFAULT 14 _ZN7android8BpBinder12att
1448:   FUNC GLOBAL DEFAULT 14 _ZN7android14IPCThreadSta
1449:   FUNC GLOBAL DEFAULT 14 _ZN7android6Parcel12resta
1450:   OBJECT GLOBAL DEFAULT 23 _ZN7android8BpBinder13sTr
1451:   FUNC GLOBAL DEFAULT 14 _ZN7android8BpBinder20onI
1452:   FUNC GLOBAL DEFAULT 14 _ZNK7android6Parcel10erro
1453:   FUNC WEAK DEFAULT 14 _ZNSt3__16vectorIN7androi
1454:   FUNC WEAK DEFAULT 14 _ZNSt3__16__treeINS_12__v
1455:   FUNC GLOBAL DEFAULT 14 _ZN7android6binder6Status
1456:   FUNC WEAK DEFAULT 14 _ZN7androidlsIyEERNS_10Te
1457:   FUNC GLOBAL DEFAULT 14 _ZN7android2os20ParcelFil
1458:   FUNC WEAK DEFAULT 14 _ZNSt3__16vectorIiNS_9all
1459:   FUNC GLOBAL DEFAULT 14 _ZN7android14IPCThreadSta
1460:   FUNC WEAK DEFAULT 14 _ZN7android11BnInterfaceI
1461:   OBJECT GLOBAL DEFAULT 18 _ZTCN7android10Allocation
1462:   FUNC GLOBAL DEFAULT 14 _ZN7android12ProcessState
1463:   FUNC GLOBAL DEFAULT 14 _ZN7android6binder5Value2
1464:   FUNC GLOBAL DEFAULT 14 _ZN7android14IShellCallba
1465:   FUNC GLOBAL DEFAULT 14 _ZTv0_n16_N7android14Memo
1466:   OBJECT GLOBAL DEFAULT 23 _ZN7android8gProcessE
1467:   OBJECT GLOBAL DEFAULT 16 _ZN7android8BpBinder29sBi
1468:   FUNC GLOBAL DEFAULT 14 _ZTv0_n12_N7android10Allo
1469:   FUNC GLOBAL DEFAULT 14 _ZTv0_n32_NK7android14Mem
1470:   FUNC GLOBAL DEFAULT 14 _ZN7android6binder5ValueC
1471:   FUNC WEAK DEFAULT 14 _ZNK7android6Parcel21unsa
1472:   FUNC GLOBAL DEFAULT 14 _ZNK7android2os17Persista
1473:   FUNC GLOBAL DEFAULT 14 _ZN7android6Parcel16write
1474:   FUNC GLOBAL DEFAULT 14 _ZNK7android6Parcel10read
1475:   FUNC WEAK DEFAULT 14 _ZNK7android6Parcel23read
