 0x0000000e (SONAME)                     Library soname: [libnetutils.so]
  
Symbol   contains 105 entries:
Num:   Type Bind Vis Ndx Name
0:   NOTYPE LOCAL DEFAULT UND
1:   FUNC GLOBAL DEFAULT UND __cxa_finalize@LIBC (2)
2:   FUNC GLOBAL DEFAULT UND __android_log_print@LIBLOG (3)
3:   FUNC GLOBAL DEFAULT UND __errno@LIBC (2)
4:   FUNC GLOBAL DEFAULT UND __memcpy_chk@LIBC (2)
5:   FUNC GLOBAL DEFAULT UND __poll_chk@LIBC (2)
6:   FUNC GLOBAL DEFAULT UND __stack_chk_fail@LIBC (2)
7:   OBJECT GLOBAL DEFAULT UND __stack_chk_guard@LIBC (2)
8:   FUNC GLOBAL DEFAULT UND __strcpy_chk@LIBC (2)
9:   FUNC GLOBAL DEFAULT UND __vsnprintf_chk@LIBC (2)
10:   FUNC GLOBAL DEFAULT UND clock_gettime@LIBC (2)
11:   FUNC GLOBAL DEFAULT UND close@LIBC (2)
12:   FUNC GLOBAL DEFAULT UND inet_ntoa@LIBC (2)
13:   FUNC GLOBAL DEFAULT UND memcmp@LIBC (2)
14:   FUNC GLOBAL DEFAULT UND strerror@LIBC (2)
15:   FUNC GLOBAL DEFAULT UND __recvfrom_chk@LIBC (2)
16:   FUNC GLOBAL DEFAULT UND __sendto_chk@LIBC_O (4)
17:   FUNC GLOBAL DEFAULT UND fclose@LIBC (2)
18:   FUNC GLOBAL DEFAULT UND fopen@LIBC (2)
19:   FUNC GLOBAL DEFAULT UND freeaddrinfo@LIBC (2)
20:   FUNC GLOBAL DEFAULT UND fscanf@LIBC (2)
21:   FUNC GLOBAL DEFAULT UND getaddrinfo@LIBC (2)
22:   FUNC GLOBAL DEFAULT UND getpid@LIBC (2)
23:   FUNC GLOBAL DEFAULT UND if_nametoindex@LIBC (2)
24:   FUNC GLOBAL DEFAULT UND ioctl@LIBC (2)
25:   FUNC GLOBAL DEFAULT UND property_set
26:   FUNC GLOBAL DEFAULT UND pthread_mutex_lock@LIBC (2)
27:   FUNC GLOBAL DEFAULT UND pthread_mutex_unlock@LIBC (2)
28:   FUNC GLOBAL DEFAULT UND socket@LIBC (2)
29:   FUNC GLOBAL DEFAULT UND strcmp@LIBC (2)
30:   FUNC GLOBAL DEFAULT UND strncpy@LIBC (2)
31:   FUNC GLOBAL DEFAULT UND __read_chk@LIBC (2)
32:   FUNC GLOBAL DEFAULT UND bind@LIBC (2)
33:   FUNC GLOBAL DEFAULT UND sendmsg@LIBC (2)
34:   FUNC GLOBAL DEFAULT UND memcpy@LIBC (2)
35:   FUNC GLOBAL DEFAULT UND memset@LIBC (2)
36:   FUNC GLOBAL DEFAULT 14 decode_dhcp_msg
37:   FUNC GLOBAL DEFAULT 14 open_raw_socket
38:   FUNC GLOBAL DEFAULT 14 __aeabi_memcpy
39:   FUNC GLOBAL DEFAULT 14 ifc_down
40:   FUNC GLOBAL DEFAULT 14 __aeabi_memclr8
41:   FUNC GLOBAL DEFAULT 14 ip_checksum
42:   FUNC GLOBAL DEFAULT 14 ipv6_pseudo_header_checks
43:   FUNC GLOBAL DEFAULT 14 ifc_disable
44:   FUNC GLOBAL DEFAULT 14 ifc_get_addr
45:   FUNC GLOBAL DEFAULT 14 __udivsi3
46:   FUNC GLOBAL DEFAULT 14 ip_checksum_finish
47:   FUNC GLOBAL DEFAULT 14 send_packet
48:   FUNC GLOBAL DEFAULT 14 __aeabi_uidivmod
49:   FUNC GLOBAL DEFAULT 14 ipv4_pseudo_header_checks
50:   FUNC GLOBAL DEFAULT 14 ifc_set_mask
51:   FUNC GLOBAL DEFAULT 14 prefixLengthToIpv4Netmask
52:   FUNC GLOBAL DEFAULT 14 __aeabi_uldivmod
53:   FUNC GLOBAL DEFAULT 14 get_dhcp_info
54:   FUNC GLOBAL DEFAULT 14 ifc_configure
55:   FUNC GLOBAL DEFAULT 14 init_dhcp_discover_msg
56:   FUNC GLOBAL DEFAULT 14 ifc_set_prefixLength
57:   FUNC GLOBAL DEFAULT 14 string_to_ip
58:   FUNC GLOBAL DEFAULT 14 receive_packet
59:   FUNC GLOBAL DEFAULT 14 __udivmodsi4
60:   FUNC GLOBAL DEFAULT 14 __aeabi_memset
61:   FUNC GLOBAL DEFAULT 14 __aeabi_memset4
62:   FUNC GLOBAL DEFAULT 14 fatal
63:   FUNC GLOBAL DEFAULT 14 ifc_set_addr
64:   FUNC GLOBAL DEFAULT 14 ifc_clear_ipv4_addresses
65:   FUNC GLOBAL DEFAULT 14 ifc_remove_default_route
66:   FUNC GLOBAL DEFAULT 14 ifc_set_hwaddr
67:   FUNC GLOBAL DEFAULT 14 dhcp_lasterror
68:   FUNC GLOBAL DEFAULT 14 init_dhcp_request_msg
69:   FUNC GLOBAL DEFAULT 14 ifc_act_on_address
70:   FUNC GLOBAL DEFAULT 14 ifc_close
71:   FUNC GLOBAL DEFAULT 14 __aeabi_uidiv
72:   FUNC GLOBAL DEFAULT 14 __udivmoddi4
73:   FUNC GLOBAL DEFAULT 14 printerr
74:   FUNC GLOBAL DEFAULT 14 ifc_init6
75:   FUNC GLOBAL DEFAULT 14 get_msecs
76:   FUNC GLOBAL DEFAULT 14 ifc_clear_addresses
77:   FUNC GLOBAL DEFAULT 14 __aeabi_memset8
78:   FUNC GLOBAL DEFAULT 14 dump_dhcp_info
79:   FUNC GLOBAL DEFAULT 14 ifc_up
80:   FUNC GLOBAL DEFAULT 14 ifc_act_on_ipv4_route
81:   FUNC GLOBAL DEFAULT 14 ifc_create_default_route
82:   FUNC GLOBAL DEFAULT 14 __aeabi_memcpy4
83:   FUNC GLOBAL DEFAULT 14 dhcp_init_ifc
84:   FUNC GLOBAL DEFAULT 14 ipv4NetmaskToPrefixLength
85:   FUNC GLOBAL DEFAULT 14 ifc_del_address
86:   FUNC GLOBAL DEFAULT 14 do_dhcp
87:   FUNC GLOBAL DEFAULT 14 ipaddr
88:   FUNC GLOBAL DEFAULT 14 ifc_clear_ipv6_addresses
89:   FUNC GLOBAL DEFAULT 14 ip_checksum_adjust
90:   FUNC GLOBAL DEFAULT 14 ip_checksum_fold
91:   OBJECT GLOBAL DEFAULT 22 last_good_info
92:   FUNC GLOBAL DEFAULT 14 ifc_close6
93:   FUNC GLOBAL DEFAULT 14 __aeabi_memclr4
94:   FUNC GLOBAL DEFAULT 14 ip_checksum_add
95:   FUNC GLOBAL DEFAULT 14 dump_dhcp_msg
96:   FUNC GLOBAL DEFAULT 14 ifc_get_hwaddr
97:   FUNC GLOBAL DEFAULT 14 ifc_get_ifindex
98:   FUNC GLOBAL DEFAULT 14 __aeabi_memclr
99:   FUNC GLOBAL DEFAULT 14 ifc_init
100:   FUNC GLOBAL DEFAULT 14 ifc_reset_connections
101:   FUNC GLOBAL DEFAULT 14 __aeabi_memcpy8
102:   FUNC GLOBAL DEFAULT 14 ifc_get_info
103:   FUNC GLOBAL DEFAULT 14 ifc_add_address
104:   FUNC GLOBAL DEFAULT 14 ifc_enable
