 0x0000000e (SONAME)                     Library soname: [android.hardware.sensors@1.0.so]
  
Symbol   contains 276 entries:
Num:   Type Bind Vis Ndx Name
0:   NOTYPE LOCAL DEFAULT UND
1:   FUNC GLOBAL DEFAULT UND __cxa_finalize@LIBC (2)
2:   FUNC GLOBAL DEFAULT UND _ZN7android14sp_report_ra
3:   FUNC GLOBAL DEFAULT UND _ZN7android21report_syspr
4:   OBJECT GLOBAL DEFAULT UND _ZN7android4hidl4base4V1_
5:   FUNC GLOBAL DEFAULT UND _ZN7android4hidl4base4V1_
6:   FUNC GLOBAL DEFAULT UND _ZN7android4hidl4base4V1_
7:   FUNC GLOBAL DEFAULT UND _ZN7android4hidl4base4V1_
8:   FUNC GLOBAL DEFAULT UND _ZN7android4hidl4base4V1_
9:   FUNC GLOBAL DEFAULT UND _ZN7android4hidl4base4V1_
10:   FUNC GLOBAL DEFAULT UND _ZN7android4hidl4base4V1_
11:   FUNC GLOBAL DEFAULT UND _ZN7android4hidl4base4V1_
12:   FUNC GLOBAL DEFAULT UND _ZN7android4hidl4base4V1_
13:   FUNC GLOBAL DEFAULT UND _ZN7android4hidl4base4V1_
14:   FUNC GLOBAL DEFAULT UND _ZN7android4hidl4base4V1_
15:   FUNC GLOBAL DEFAULT UND _ZN7android4hidl4base4V1_
16:   FUNC GLOBAL DEFAULT UND _ZN7android4hidl4base4V1_
17:   FUNC GLOBAL DEFAULT UND _ZN7android4hidl4base4V1_
18:   FUNC GLOBAL DEFAULT UND _ZN7android4hidl4base4V1_
19:   FUNC GLOBAL DEFAULT UND _ZN7android4hidl4base4V1_
20:   FUNC GLOBAL DEFAULT UND _ZN7android4hidl4base4V1_
21:   FUNC GLOBAL DEFAULT UND _ZN7android4hidl4base4V1_
22:   FUNC GLOBAL DEFAULT UND _ZN7android4hidl4base4V1_
23:   FUNC GLOBAL DEFAULT UND _ZN7android4hidl4base4V1_
24:   FUNC GLOBAL DEFAULT UND _ZN7android4hidl4base4V1_
25:   FUNC GLOBAL DEFAULT UND _ZN7android4hidl4base4V1_
26:   FUNC GLOBAL DEFAULT UND _ZN7android4hidl4base4V1_
27:   FUNC GLOBAL DEFAULT UND _ZN7android4hidl4base4V1_
28:   FUNC GLOBAL DEFAULT UND _ZN7android7RefBase10onFi
29:   FUNC GLOBAL DEFAULT UND _ZN7android7RefBase12weak
30:   FUNC GLOBAL DEFAULT UND _ZN7android7RefBase13onLa
31:   FUNC GLOBAL DEFAULT UND _ZN7android7RefBase15onLa
32:   FUNC GLOBAL DEFAULT UND _ZN7android7RefBase20onIn
33:   FUNC GLOBAL DEFAULT UND _ZN7android7RefBaseC2Ev
34:   FUNC GLOBAL DEFAULT UND _ZN7android7RefBaseD2Ev
35:   FUNC GLOBAL DEFAULT UND _ZN7android8hardware10IIn
36:   FUNC GLOBAL DEFAULT UND _ZN7android8hardware10IIn
37:   FUNC GLOBAL DEFAULT UND _ZN7android8hardware10IIn
38:   FUNC GLOBAL DEFAULT UND _ZN7android8hardware10IIn
39:   FUNC GLOBAL DEFAULT UND _ZN7android8hardware10IIn
40:   FUNC GLOBAL DEFAULT UND _ZN7android8hardware11BpH
41:   FUNC GLOBAL DEFAULT UND _ZN7android8hardware11BpH
42:   FUNC GLOBAL DEFAULT UND _ZN7android8hardware11BpH
43:   FUNC GLOBAL DEFAULT UND _ZN7android8hardware11BpH
44:   FUNC GLOBAL DEFAULT UND _ZN7android8hardware11BpH
45:   FUNC GLOBAL DEFAULT UND _ZN7android8hardware11BpH
46:   FUNC GLOBAL DEFAULT UND _ZN7android8hardware11BpH
47:   FUNC GLOBAL DEFAULT UND _ZN7android8hardware11hid
48:   FUNC GLOBAL DEFAULT UND _ZN7android8hardware11hid
49:   FUNC GLOBAL DEFAULT UND _ZN7android8hardware11hid
50:   FUNC GLOBAL DEFAULT UND _ZN7android8hardware11hid
51:   FUNC GLOBAL DEFAULT UND _ZN7android8hardware11hid
52:   FUNC GLOBAL DEFAULT UND _ZN7android8hardware12Pro
53:   FUNC GLOBAL DEFAULT UND _ZN7android8hardware12Pro
54:   FUNC GLOBAL DEFAULT UND _ZN7android8hardware13wri
55:   FUNC GLOBAL DEFAULT UND _ZN7android8hardware14rea
56:   FUNC GLOBAL DEFAULT UND _ZN7android8hardware21def
57:   FUNC GLOBAL DEFAULT UND _ZN7android8hardware23get
58:   FUNC GLOBAL DEFAULT UND _ZN7android8hardware27hid
59:   FUNC GLOBAL DEFAULT UND _ZN7android8hardware27hid
60:   FUNC GLOBAL DEFAULT UND _ZN7android8hardware6Parc
61:   FUNC GLOBAL DEFAULT UND _ZN7android8hardware6Parc
62:   FUNC GLOBAL DEFAULT UND _ZN7android8hardware6Parc
63:   FUNC GLOBAL DEFAULT UND _ZN7android8hardware6Parc
64:   FUNC GLOBAL DEFAULT UND _ZN7android8hardware6Parc
65:   FUNC GLOBAL DEFAULT UND _ZN7android8hardware6Parc
66:   FUNC GLOBAL DEFAULT UND _ZN7android8hardware6Parc
67:   FUNC GLOBAL DEFAULT UND _ZN7android8hardware6Parc
68:   FUNC GLOBAL DEFAULT UND _ZN7android8hardware6Stat
69:   FUNC GLOBAL DEFAULT UND _ZN7android8hardware6Stat
70:   FUNC GLOBAL DEFAULT UND _ZN7android8hardware6Stat
71:   FUNC GLOBAL DEFAULT UND _ZN7android8hardware6Stat
72:   FUNC GLOBAL DEFAULT UND _ZN7android8hardware7IBin
73:   FUNC GLOBAL DEFAULT UND _ZN7android8hardware7IBin
74:   FUNC GLOBAL DEFAULT UND _ZN7android8hardware7IBin
75:   FUNC GLOBAL DEFAULT UND _ZN7android8hardware7IBin
76:   FUNC GLOBAL DEFAULT UND _ZN7android8hardware7deta
77:   FUNC GLOBAL DEFAULT UND _ZN7android8hardware7deta
78:   FUNC GLOBAL DEFAULT UND _ZN7android8hardware7deta
79:   FUNC GLOBAL DEFAULT UND _ZN7android8hardware7deta
80:   FUNC GLOBAL DEFAULT UND _ZN7android8hardware7deta
81:   FUNC GLOBAL DEFAULT UND _ZN7android8hardware7deta
82:   FUNC GLOBAL DEFAULT UND _ZN7android8hardware7deta
83:   OBJECT GLOBAL DEFAULT UND _ZN7android8hardware7deta
84:   OBJECT GLOBAL DEFAULT UND _ZN7android8hardware7deta
85:   FUNC GLOBAL DEFAULT UND _ZN7android8hardware7deta
86:   FUNC GLOBAL DEFAULT UND _ZN7android8hardware7deta
87:   FUNC GLOBAL DEFAULT UND _ZN7android8hardware7deta
88:   FUNC GLOBAL DEFAULT UND _ZN7android8hardware7deta
89:   FUNC GLOBAL DEFAULT UND _ZN7android8hardware7deta
90:   FUNC GLOBAL DEFAULT UND _ZN7android8hardware7deta
91:   FUNC GLOBAL DEFAULT UND _ZN7android8hardware7deta
92:   FUNC GLOBAL DEFAULT UND _ZN7android8hardware7deta
93:   FUNC GLOBAL DEFAULT UND _ZN7android8hardware7deta
94:   OBJECT GLOBAL DEFAULT UND _ZN7android8hardware7deta
95:   FUNC GLOBAL DEFAULT UND _ZN7android8hardware9BHwB
96:   FUNC GLOBAL DEFAULT UND _ZN7android8hardware9BHwB
97:   FUNC GLOBAL DEFAULT UND _ZN7android8hardware9BHwB
98:   FUNC GLOBAL DEFAULT UND _ZN7android8hardware9BHwB
99:   FUNC GLOBAL DEFAULT UND _ZN7android8hardware9BHwB
100:   FUNC GLOBAL DEFAULT UND _ZN7android8hardware9BHwB
101:   FUNC GLOBAL DEFAULT UND _ZN7android8hardware9BHwB
102:   FUNC GLOBAL DEFAULT UND _ZN7android8hardware9BHwB
103:   FUNC GLOBAL DEFAULT UND _ZN7android8hardware9BHwB
104:   FUNC GLOBAL DEFAULT UND _ZN7android8hardware9BHwB
105:   FUNC GLOBAL DEFAULT UND _ZNK7android7RefBase10cre
106:   FUNC GLOBAL DEFAULT UND _ZNK7android7RefBase11get
107:   FUNC GLOBAL DEFAULT UND _ZNK7android7RefBase9decS
108:   FUNC GLOBAL DEFAULT UND _ZNK7android7RefBase9incS
109:   FUNC GLOBAL DEFAULT UND _ZNK7android8hardware6Par
110:   FUNC GLOBAL DEFAULT UND _ZNK7android8hardware6Par
111:   FUNC GLOBAL DEFAULT UND _ZNK7android8hardware6Par
112:   FUNC GLOBAL DEFAULT UND _ZNK7android8hardware6Par
113:   FUNC GLOBAL DEFAULT UND _ZNK7android8hardware6Par
114:   FUNC GLOBAL DEFAULT UND _ZNK7android8hardware6Par
115:   FUNC GLOBAL DEFAULT UND _ZNK7android8hardware7IBi
116:   FUNC GLOBAL DEFAULT UND _ZNK7android8hardware7det
117:   FUNC GLOBAL DEFAULT UND _ZNK7android8hardware9BHw
118:   FUNC GLOBAL DEFAULT UND _ZNKSt3__120__vector_base
119:   FUNC GLOBAL DEFAULT UND _ZNKSt3__121__basic_strin
120:   FUNC GLOBAL DEFAULT UND _ZNSt3__112basic_stringIc
121:   FUNC GLOBAL DEFAULT UND _ZNSt3__15mutex4lockEv
122:   FUNC GLOBAL DEFAULT UND _ZNSt3__15mutex6unlockEv
123:   FUNC GLOBAL DEFAULT UND _ZNSt3__15mutexD1Ev
124:   FUNC GLOBAL DEFAULT UND _ZTv0_n12_N7android4hidl4
125:   FUNC GLOBAL DEFAULT UND _ZTv0_n12_N7android4hidl4
126:   FUNC GLOBAL DEFAULT UND _ZTv0_n12_N7android8hardw
127:   FUNC GLOBAL DEFAULT UND _ZTv0_n12_N7android8hardw
128:   FUNC GLOBAL DEFAULT UND _ZTv0_n12_N7android8hardw
129:   FUNC GLOBAL DEFAULT UND _ZTv0_n12_N7android8hardw
130:   FUNC GLOBAL DEFAULT UND _ZTv0_n12_N7android8hardw
131:   FUNC GLOBAL DEFAULT UND _ZTv0_n12_N7android8hardw
132:   FUNC GLOBAL DEFAULT UND _ZTv0_n12_N7android8hardw
133:   FUNC GLOBAL DEFAULT UND _ZTv0_n12_N7android8hardw
134:   FUNC GLOBAL DEFAULT UND _ZTv0_n16_N7android8hardw
135:   FUNC GLOBAL DEFAULT UND _ZTv0_n20_N7android8hardw
136:   FUNC GLOBAL DEFAULT UND _ZTv0_n24_N7android8hardw
137:   FUNC GLOBAL DEFAULT UND _ZdaPv
138:   FUNC GLOBAL DEFAULT UND _ZdlPv
139:   FUNC GLOBAL DEFAULT UND _Znaj
140:   FUNC GLOBAL DEFAULT UND _Znwj
141:   FUNC GLOBAL DEFAULT UND __android_log_assert@LIBLOG (3)
142:   FUNC GLOBAL DEFAULT UND __cxa_pure_virtual
143:   FUNC GLOBAL DEFAULT UND __stack_chk_fail@LIBC (2)
144:   OBJECT GLOBAL DEFAULT UND __stack_chk_guard@LIBC (2)
145:   FUNC GLOBAL DEFAULT UND abort@LIBC (2)
146:   FUNC GLOBAL DEFAULT UND atrace_begin_body
147:   OBJECT GLOBAL DEFAULT UND atrace_enabled_tags
148:   FUNC GLOBAL DEFAULT UND atrace_end_body
149:   OBJECT GLOBAL DEFAULT UND atrace_is_ready
150:   FUNC GLOBAL DEFAULT UND atrace_setup
151:   FUNC GLOBAL DEFAULT UND memcmp@LIBC (2)
152:   FUNC GLOBAL DEFAULT UND strlen@LIBC (2)
153:   FUNC GLOBAL DEFAULT UND _ZN7android8hardware21wri
154:   FUNC GLOBAL DEFAULT UND _ZN7android8hardware21wri
155:   FUNC GLOBAL DEFAULT UND _ZN7android8hardware22rea
156:   FUNC GLOBAL DEFAULT UND _ZN7android8hardware22rea
157:   FUNC GLOBAL DEFAULT UND memcpy@LIBC (2)
158:   FUNC GLOBAL DEFAULT UND memset@LIBC (2)
159:   FUNC GLOBAL DEFAULT 14 _ZN7android8hardware7sens
160:   FUNC GLOBAL DEFAULT 14 _ZN7android8hardware7sens
161:   FUNC GLOBAL DEFAULT 14 _ZN7android8hardware7sens
162:   FUNC GLOBAL DEFAULT 14 _ZN7android8hardware7sens
163:   FUNC GLOBAL DEFAULT 14 _ZN7android8hardware7sens
164:   OBJECT GLOBAL DEFAULT 18 _ZTCN7android8hardware7se
165:   FUNC GLOBAL DEFAULT 14 _ZTv0_n12_N7android8hardw
166:   FUNC GLOBAL DEFAULT 14 __aeabi_memset4
167:   FUNC GLOBAL DEFAULT 14 _ZN7android8hardware7sens
168:   FUNC GLOBAL DEFAULT 14 _ZN7android8hardware7sens
169:   FUNC GLOBAL DEFAULT 14 _ZN7android8hardware7sens
170:   FUNC GLOBAL DEFAULT 14 _ZN7android8hardware7sens
171:   FUNC GLOBAL DEFAULT 14 _ZN7android8hardware7sens
172:   FUNC WEAK DEFAULT 14 _ZN7android8hardware7deta
173:   FUNC GLOBAL DEFAULT 14 _ZN7android8hardware7sens
174:   OBJECT GLOBAL DEFAULT 18 _ZTCN7android8hardware7se
175:   OBJECT GLOBAL DEFAULT 18 _ZTCN7android8hardware7se
176:   FUNC GLOBAL DEFAULT 14 _ZN7android8hardware7sens
177:   OBJECT GLOBAL DEFAULT 18 _ZTVN7android8hardware7se
178:   FUNC GLOBAL DEFAULT 14 _ZN7android8hardware7sens
179:   FUNC GLOBAL DEFAULT 14 __aeabi_memset8
180:   FUNC GLOBAL DEFAULT 14 _ZN7android8hardware7sens
181:   FUNC GLOBAL DEFAULT 14 _ZN7android8hardware7sens
182:   FUNC GLOBAL DEFAULT 14 _ZN7android8hardware7sens
183:   FUNC GLOBAL DEFAULT 14 _ZThn20_N7android8hardwar
184:   FUNC GLOBAL DEFAULT 14 _ZN7android8hardware7sens
185:   FUNC GLOBAL DEFAULT 14 _ZN7android8hardware7sens
186:   FUNC GLOBAL DEFAULT 14 _ZN7android8hardware7sens
187:   FUNC GLOBAL DEFAULT 14 _ZN7android8hardware7sens
188:   FUNC WEAK DEFAULT 14 _ZNSt3__16__treeINS_12__v
189:   OBJECT WEAK DEFAULT 18 _ZTCN7android8hardware7se
190:   OBJECT GLOBAL DEFAULT 18 _ZTTN7android8hardware7se
191:   FUNC WEAK DEFAULT 14 _ZNSt3__16vectorINS_8func
192:   FUNC GLOBAL DEFAULT 14 _ZN7android8hardware7sens
193:   FUNC GLOBAL DEFAULT 14 _ZN7android8hardware7sens
194:   FUNC GLOBAL DEFAULT 14 _ZN7android8hardware7sens
195:   FUNC GLOBAL DEFAULT 14 _ZN7android8hardware7sens
196:   FUNC GLOBAL DEFAULT 14 _ZN7android8hardware7sens
197:   FUNC GLOBAL DEFAULT 14 _ZN7android8hardware7sens
198:   FUNC GLOBAL DEFAULT 14 __aeabi_memclr4
199:   FUNC GLOBAL DEFAULT 14 _ZN7android8hardware7sens
200:   FUNC GLOBAL DEFAULT 14 _ZN7android8hardware7sens
201:   OBJECT GLOBAL DEFAULT 18 _ZTCN7android8hardware7se
202:   FUNC GLOBAL DEFAULT 14 _ZN7android8hardware7sens
203:   FUNC GLOBAL DEFAULT 14 _ZN7android8hardware7sens
204:   FUNC GLOBAL DEFAULT 14 _ZN7android8hardware7sens
205:   FUNC WEAK DEFAULT 14 _ZNSt3__113__tree_removeI
206:   FUNC GLOBAL DEFAULT 14 _ZN7android8hardware7sens
207:   FUNC GLOBAL DEFAULT 14 _ZN7android8hardware7sens
208:   FUNC WEAK DEFAULT 14 _ZNSt3__16vectorIN7androi
209:   OBJECT GLOBAL DEFAULT 18 _ZTCN7android8hardware7se
210:   FUNC GLOBAL DEFAULT 14 _ZN7android8hardware7sens
211:   FUNC GLOBAL DEFAULT 14 _ZN7android8hardware7sens
212:   OBJECT GLOBAL DEFAULT 18 _ZTVN7android8hardware7se
213:   FUNC GLOBAL DEFAULT 14 __aeabi_memclr8
214:   FUNC GLOBAL DEFAULT 14 _ZN7android8hardware7sens
215:   FUNC GLOBAL DEFAULT 14 _ZN7android8hardware7sens
216:   FUNC GLOBAL DEFAULT 14 _ZN7android8hardware7sens
217:   FUNC GLOBAL DEFAULT 14 _ZTv0_n12_N7android8hardw
218:   FUNC GLOBAL DEFAULT 14 __aeabi_memcpy4
219:   FUNC GLOBAL DEFAULT 14 _ZN7android8hardware7sens
220:   FUNC GLOBAL DEFAULT 14 _ZN7android8hardware7sens
221:   FUNC GLOBAL DEFAULT 14 _ZN7android8hardware7sens
222:   FUNC GLOBAL DEFAULT 14 _ZN7android8hardware7sens
223:   FUNC GLOBAL DEFAULT 14 _ZN7android8hardware7sens
224:   OBJECT GLOBAL DEFAULT 18 _ZTCN7android8hardware7se
225:   FUNC WEAK DEFAULT 14 _ZN7android8hardware7deta
226:   FUNC GLOBAL DEFAULT 14 _ZN7android8hardware7sens
227:   FUNC GLOBAL DEFAULT 14 _ZN7android8hardware7sens
228:   FUNC WEAK DEFAULT 14 _ZNSt3__16__treeINS_12__v
229:   FUNC WEAK DEFAULT 14 _ZNSt3__16__treeINS_12__v
230:   FUNC GLOBAL DEFAULT 14 __aeabi_memcpy
231:   FUNC GLOBAL DEFAULT 14 _ZN7android8hardware7sens
232:   FUNC GLOBAL DEFAULT 14 _ZN7android8hardware7sens
233:   FUNC GLOBAL DEFAULT 14 _ZN7android8hardware7sens
234:   FUNC GLOBAL DEFAULT 14 _ZN7android8hardware7sens
235:   OBJECT GLOBAL DEFAULT 16 _ZN7android8hardware7sens
236:   FUNC WEAK DEFAULT 14 _ZNSt3__127__tree_balance
237:   FUNC GLOBAL DEFAULT 14 __aeabi_memcpy8
238:   FUNC GLOBAL DEFAULT 14 _ZN7android8hardware7sens
239:   FUNC WEAK DEFAULT 14 _ZNSt3__16vectorIPvNS_9al
240:   OBJECT GLOBAL DEFAULT 18 _ZTTN7android8hardware7se
241:   FUNC GLOBAL DEFAULT 14 _ZN7android8hardware7sens
242:   FUNC GLOBAL DEFAULT 14 _ZN7android8hardware7sens
243:   FUNC GLOBAL DEFAULT 14 _ZN7android8hardware7sens
244:   FUNC WEAK DEFAULT 14 _ZNSt3__16__treeINS_12__v
245:   OBJECT WEAK DEFAULT 18 _ZTVN7android8hardware7se
246:   FUNC GLOBAL DEFAULT 14 __aeabi_memset
247:   FUNC GLOBAL DEFAULT 14 _ZN7android8hardware7sens
248:   FUNC GLOBAL DEFAULT 14 _ZN7android8hardware7sens
249:   FUNC GLOBAL DEFAULT 14 _ZN7android8hardware7sens
250:   OBJECT GLOBAL DEFAULT 18 _ZTVN7android8hardware7se
251:   FUNC GLOBAL DEFAULT 14 _ZN7android8hardware7sens
252:   FUNC GLOBAL DEFAULT 14 _ZN7android8hardware7sens
253:   FUNC GLOBAL DEFAULT 14 _ZN7android8hardware7sens
254:   FUNC GLOBAL DEFAULT 14 _ZThn20_N7android8hardwar
255:   FUNC GLOBAL DEFAULT 14 __aeabi_memclr
256:   FUNC GLOBAL DEFAULT 14 _ZN7android8hardware7sens
257:   FUNC GLOBAL DEFAULT 14 _ZN7android8hardware7sens
258:   FUNC GLOBAL DEFAULT 14 _ZN7android8hardware7sens
259:   FUNC GLOBAL DEFAULT 14 _ZN7android8hardware7sens
260:   FUNC GLOBAL DEFAULT 14 _ZN7android8hardware7sens
261:   FUNC GLOBAL DEFAULT 14 _ZN7android8hardware7sens
262:   FUNC WEAK DEFAULT 14 _ZNSt3__16__treeINS_12__v
263:   FUNC GLOBAL DEFAULT 14 _ZN7android8hardware7sens
264:   FUNC GLOBAL DEFAULT 14 _ZN7android8hardware7sens
265:   FUNC GLOBAL DEFAULT 14 _ZN7android8hardware7sens
266:   OBJECT GLOBAL DEFAULT 18 _ZTCN7android8hardware7se
267:   OBJECT GLOBAL DEFAULT 18 _ZTCN7android8hardware7se
268:   FUNC GLOBAL DEFAULT 14 _ZN7android8hardware7sens
269:   OBJECT GLOBAL DEFAULT 18 _ZTCN7android8hardware7se
270:   FUNC WEAK DEFAULT 14 _ZNSt3__16__treeINS_12__v
271:   FUNC GLOBAL DEFAULT 14 _ZN7android8hardware7sens
272:   FUNC GLOBAL DEFAULT 14 _ZN7android8hardware7sens
273:   FUNC GLOBAL DEFAULT 14 _ZN7android8hardware7sens
274:   FUNC GLOBAL DEFAULT 14 _ZN7android8hardware7sens
275:   OBJECT GLOBAL DEFAULT 18 _ZTTN7android8hardware7se
