 0x0000000e (SONAME)                     Library soname: [libnetd_client.so]
  
Symbol   contains 75 entries:
Num:   Type Bind Vis Ndx Name
0:   NOTYPE LOCAL DEFAULT UND
1:   FUNC GLOBAL DEFAULT UND __cxa_finalize@LIBC (2)
2:   FUNC GLOBAL DEFAULT UND __errno@LIBC (2)
3:   FUNC GLOBAL DEFAULT UND __recvfrom_chk@LIBC (2)
4:   FUNC GLOBAL DEFAULT UND __stack_chk_fail@LIBC (2)
5:   OBJECT GLOBAL DEFAULT UND __stack_chk_guard@LIBC (2)
6:   FUNC GLOBAL DEFAULT UND close@LIBC (2)
7:   FUNC GLOBAL DEFAULT UND connect@LIBC (2)
8:   FUNC GLOBAL DEFAULT UND getenv@LIBC (2)
9:   FUNC GLOBAL DEFAULT UND geteuid@LIBC (2)
10:   FUNC GLOBAL DEFAULT UND sendmsg@LIBC (2)
11:   FUNC GLOBAL DEFAULT UND socket@LIBC (2)
12:   FUNC GLOBAL DEFAULT UND _ZNKSt3__121__basic_strin
13:   FUNC GLOBAL DEFAULT UND _ZNSt3__112basic_stringIc
14:   FUNC GLOBAL DEFAULT UND _ZNSt3__112basic_stringIc
15:   FUNC GLOBAL DEFAULT UND _ZNSt3__112basic_stringIc
16:   FUNC GLOBAL DEFAULT UND _ZNSt3__112basic_stringIc
17:   FUNC GLOBAL DEFAULT UND _ZNSt3__16chrono12steady_
18:   FUNC GLOBAL DEFAULT UND _ZNSt3__19to_stringEj
19:   FUNC GLOBAL DEFAULT UND _ZdlPv
20:   FUNC GLOBAL DEFAULT UND _Znwj
21:   FUNC GLOBAL DEFAULT UND __b64_ntop@LIBC (2)
22:   FUNC GLOBAL DEFAULT UND __read_chk@LIBC (2)
23:   FUNC WEAK DEFAULT UND android_fdsan_close_with_@LIBC_Q (3)
24:   FUNC WEAK DEFAULT UND android_fdsan_create_owne@LIBC_Q (3)
25:   FUNC WEAK DEFAULT UND android_fdsan_exchange_ow@LIBC_Q (3)
26:   FUNC GLOBAL DEFAULT UND getsockopt@LIBC (2)
27:   FUNC GLOBAL DEFAULT UND isspace@LIBC (2)
28:   FUNC GLOBAL DEFAULT UND lroundf@LIBC (4)
29:   FUNC GLOBAL DEFAULT UND read@LIBC (2)
30:   FUNC GLOBAL DEFAULT UND res_mkquery@LIBC (2)
31:   FUNC GLOBAL DEFAULT UND setsockopt@LIBC (2)
32:   FUNC GLOBAL DEFAULT UND shutdown@LIBC (2)
33:   FUNC GLOBAL DEFAULT UND strcmp@LIBC (2)
34:   FUNC GLOBAL DEFAULT UND strtoll@LIBC (2)
35:   FUNC GLOBAL DEFAULT UND write@LIBC (2)
36:   FUNC GLOBAL DEFAULT UND memset@LIBC (2)
37:   FUNC GLOBAL DEFAULT 13 queryUserAccess
38:   FUNC GLOBAL DEFAULT 13 __aeabi_memclr8
39:   FUNC GLOBAL DEFAULT 13 netdClientInitNetIdForRes
40:   FUNC GLOBAL DEFAULT 13 resNetworkQuery
41:   FUNC GLOBAL DEFAULT 13 tagSocket
42:   FUNC GLOBAL DEFAULT 13 __aeabi_memset
43:   FUNC GLOBAL DEFAULT 13 _ZN12FwmarkClientC1Ev
44:   FUNC GLOBAL DEFAULT 13 _ZN12FwmarkClientC2Ev
45:   FUNC GLOBAL DEFAULT 13 _ZN12FwmarkClientD1Ev
46:   FUNC GLOBAL DEFAULT 13 _ZN12FwmarkClientD2Ev
47:   FUNC GLOBAL DEFAULT 13 netdClientInitSocket
48:   FUNC GLOBAL DEFAULT 13 protectFromVpn
49:   FUNC GLOBAL DEFAULT 13 setCounterSet
50:   FUNC GLOBAL DEFAULT 13 setNetworkForResolv
51:   FUNC GLOBAL DEFAULT 13 __floatdisf
52:   FUNC GLOBAL DEFAULT 13 _ZN12FwmarkClient15should
53:   FUNC GLOBAL DEFAULT 13 __aeabi_l2f
54:   FUNC GLOBAL DEFAULT 13 resNetworkCancel
55:   FUNC GLOBAL DEFAULT 13 setNetworkForSocket
56:   FUNC GLOBAL DEFAULT 13 __aeabi_memset8
57:   FUNC GLOBAL DEFAULT 13 _ZN12FwmarkClient4sendEP1
58:   FUNC GLOBAL DEFAULT 13 __aeabi_memclr
59:   FUNC GLOBAL DEFAULT 13 getNetworkForProcess
60:   FUNC GLOBAL DEFAULT 13 resNetworkSend
61:   FUNC GLOBAL DEFAULT 13 untagSocket
62:   FUNC GLOBAL DEFAULT 13 __aeabi_memclr4
63:   OBJECT WEAK DEFAULT 17 _ZTVN7android9netdutils9S
64:   FUNC GLOBAL DEFAULT 13 deleteTagData
65:   FUNC GLOBAL DEFAULT 13 getNetworkForDns
66:   FUNC GLOBAL DEFAULT 13 netdClientInitConnect
67:   FUNC GLOBAL DEFAULT 13 setNetworkForProcess
68:   FUNC GLOBAL DEFAULT 13 _Z24getNetworkForDnsInter
69:   FUNC GLOBAL DEFAULT 13 getNetworkForSocket
70:   FUNC GLOBAL DEFAULT 13 netdClientInitAccept4
71:   FUNC GLOBAL DEFAULT 13 netdClientInitDnsOpenProx
72:   FUNC GLOBAL DEFAULT 13 resNetworkResult
73:   FUNC GLOBAL DEFAULT 13 setNetworkForUser
74:   FUNC GLOBAL DEFAULT 13 __aeabi_memset4
