 0x000000000000000e (SONAME)             Library soname: [libinputflinger_base.so]
  
Symbol   contains 109 entries:
Num:   Type Bind Vis Ndx Name
0:   NOTYPE LOCAL DEFAULT UND
1:   FUNC GLOBAL DEFAULT UND __cxa_finalize@LIBC (2)
2:   FUNC GLOBAL DEFAULT UND _ZN7android13PointerCoord
3:   FUNC GLOBAL DEFAULT UND _ZN7android17PointerPrope
4:   FUNC GLOBAL DEFAULT UND _ZN7android7RefBase10onFi
5:   FUNC GLOBAL DEFAULT UND _ZN7android7RefBase13onLa
6:   FUNC GLOBAL DEFAULT UND _ZN7android7RefBase15onLa
7:   FUNC GLOBAL DEFAULT UND _ZN7android7RefBase20onIn
8:   FUNC GLOBAL DEFAULT UND _ZN7android7RefBaseC2Ev
9:   FUNC GLOBAL DEFAULT UND _ZN7android7RefBaseD2Ev
10:   FUNC GLOBAL DEFAULT UND _ZNK7android13PointerCoor
11:   FUNC GLOBAL DEFAULT UND _ZNK7android15TouchVideoF
12:   FUNC GLOBAL DEFAULT UND _ZNK7android17PointerProp
13:   FUNC GLOBAL DEFAULT UND _ZNK7android7RefBase9decS
14:   FUNC GLOBAL DEFAULT UND _ZNK7android7RefBase9incS
15:   FUNC GLOBAL DEFAULT UND _ZNKSt3__120__vector_base
16:   FUNC GLOBAL DEFAULT UND _ZdlPv
17:   FUNC GLOBAL DEFAULT UND _Znwm
18:   FUNC GLOBAL DEFAULT UND __cxa_pure_virtual
19:   FUNC GLOBAL DEFAULT UND __stack_chk_fail@LIBC (2)
20:   FUNC GLOBAL DEFAULT UND abort@LIBC (2)
21:   FUNC GLOBAL DEFAULT UND memcpy@LIBC (2)
22:   FUNC GLOBAL DEFAULT UND _ZN7android4base12StringP
23:   FUNC GLOBAL DEFAULT UND _ZN7android6Thread10ready
24:   FUNC GLOBAL DEFAULT UND _ZN7android6Thread11reque
25:   FUNC GLOBAL DEFAULT UND _ZN7android6Thread3runEPK
26:   FUNC GLOBAL DEFAULT UND _ZN7android6ThreadC2Eb
27:   FUNC GLOBAL DEFAULT UND _ZN7android6ThreadD0Ev
28:   FUNC GLOBAL DEFAULT UND _ZN7android6ThreadD1Ev
29:   FUNC GLOBAL DEFAULT UND _ZN7android6ThreadD2Ev
30:   FUNC GLOBAL DEFAULT UND _ZNSt3__112basic_stringIc
31:   FUNC GLOBAL DEFAULT UND _ZNSt3__112basic_stringIc
32:   FUNC GLOBAL DEFAULT UND _ZNSt3__112basic_stringIc
33:   FUNC GLOBAL DEFAULT UND _ZTv0_n24_N7android6Threa
34:   FUNC GLOBAL DEFAULT UND _ZTv0_n24_N7android6Threa
35:   FUNC GLOBAL DEFAULT UND __android_log_print@LIBLOG (3)
36:   FUNC GLOBAL DEFAULT UND memcmp@LIBC (2)
37:   FUNC GLOBAL DEFAULT 14 _ZN7android19QueuedInputL
38:   FUNC GLOBAL DEFAULT 14 _ZN7android13NotifyKeyArg
39:   FUNC GLOBAL DEFAULT 14 _ZNK7android13NotifyKeyAr
40:   FUNC GLOBAL DEFAULT 14 _ZNK7android16NotifyMotio
41:   FUNC GLOBAL DEFAULT 14 _ZN7android17InputReaderT
42:   FUNC GLOBAL DEFAULT 14 _ZN7android13NotifyKeyArg
43:   FUNC GLOBAL DEFAULT 14 _ZN7android16NotifySwitch
44:   FUNC GLOBAL DEFAULT 14 _ZN7android21NotifyDevice
45:   OBJECT GLOBAL DEFAULT 18 _ZTVN7android16NotifyMoti
46:   FUNC GLOBAL DEFAULT 14 _ZNK7android24InputReader
47:   FUNC GLOBAL DEFAULT 14 _ZN7android16NotifyMotion
48:   FUNC GLOBAL DEFAULT 14 _ZN7android16NotifySwitch
49:   FUNC GLOBAL DEFAULT 14 _ZNK7android30NotifyConfi
50:   OBJECT GLOBAL DEFAULT 18 _ZTVN7android21NotifyDevi
51:   FUNC GLOBAL DEFAULT 14 _ZNK7android25TouchAffine
52:   FUNC GLOBAL DEFAULT 14 _ZN7android16NotifyMotion
53:   FUNC GLOBAL DEFAULT 14 _ZN7android21NotifyDevice
54:   FUNC GLOBAL DEFAULT 14 _ZNK7android13NotifyKeyAr
55:   FUNC GLOBAL DEFAULT 14 _ZTv0_n24_N7android17Inpu
56:   FUNC GLOBAL DEFAULT 14 _ZN7android19QueuedInputL
57:   FUNC GLOBAL DEFAULT 14 _ZN7android17InputReaderT
58:   FUNC GLOBAL DEFAULT 14 _ZN7android30NotifyConfig
59:   OBJECT GLOBAL DEFAULT 18 _ZTVN7android13NotifyKeyA
60:   FUNC WEAK DEFAULT 14 _ZNSt3__16vectorIN7androi
61:   FUNC GLOBAL DEFAULT 14 _ZN7android19QueuedInputL
62:   FUNC GLOBAL DEFAULT 14 _ZNK7android16NotifySwitc
63:   FUNC GLOBAL DEFAULT 14 _ZTv0_n24_N7android19Queu
64:   FUNC GLOBAL DEFAULT 14 _ZN7android17InputReaderT
65:   FUNC GLOBAL DEFAULT 14 _ZN7android24InputReaderC
66:   FUNC GLOBAL DEFAULT 14 _ZNK7android24InputReader
67:   FUNC GLOBAL DEFAULT 14 _ZN7android19QueuedInputL
68:   FUNC GLOBAL DEFAULT 14 _ZN7android30NotifyConfig
69:   FUNC GLOBAL DEFAULT 14 _ZNK7android21NotifyDevic
70:   OBJECT GLOBAL DEFAULT 18 _ZTVN7android19QueuedInpu
71:   OBJECT GLOBAL DEFAULT 18 _ZTTN7android17InputReade
72:   FUNC WEAK DEFAULT 14 _ZNSt3__16vectorIN7androi
73:   FUNC GLOBAL DEFAULT 14 _ZN7android13NotifyKeyArg
74:   FUNC GLOBAL DEFAULT 14 _ZN7android17InputReaderT
75:   FUNC GLOBAL DEFAULT 14 _ZN7android17InputReaderT
76:   FUNC GLOBAL DEFAULT 14 _ZNK7android24InputReader
77:   OBJECT GLOBAL DEFAULT 18 _ZTVN7android17InputReade
78:   FUNC GLOBAL DEFAULT 14 _ZN7android16NotifySwitch
79:   FUNC GLOBAL DEFAULT 14 _ZN7android21NotifyDevice
80:   FUNC WEAK DEFAULT 14 _ZNSt3__16vectorIPN7andro
81:   FUNC GLOBAL DEFAULT 14 _ZNK7android24InputReader
82:   FUNC GLOBAL DEFAULT 14 _ZN7android16NotifySwitch
83:   FUNC GLOBAL DEFAULT 14 _ZNK7android16NotifyMotio
84:   FUNC GLOBAL DEFAULT 14 _ZNK7android30NotifyConfi
85:   OBJECT GLOBAL DEFAULT 18 _ZTVN7android16NotifySwit
86:   FUNC GLOBAL DEFAULT 14 _ZN7android16NotifyMotion
87:   FUNC GLOBAL DEFAULT 14 _ZN7android21NotifyDevice
88:   FUNC GLOBAL DEFAULT 14 _ZNK7android21NotifyDevic
89:   FUNC GLOBAL DEFAULT 14 _ZTv0_n24_N7android17Inpu
90:   FUNC GLOBAL DEFAULT 14 _ZN7android19QueuedInputL
91:   OBJECT GLOBAL DEFAULT 18 _ZTCN7android19QueuedInpu
92:   FUNC GLOBAL DEFAULT 14 _ZN7android17InputReaderT
93:   FUNC GLOBAL DEFAULT 14 _ZN7android13NotifyKeyArg
94:   FUNC GLOBAL DEFAULT 14 _ZN7android19QueuedInputL
95:   FUNC GLOBAL DEFAULT 14 _ZN7android19QueuedInputL
96:   FUNC GLOBAL DEFAULT 14 _ZN7android30NotifyConfig
97:   FUNC GLOBAL DEFAULT 14 _ZNK7android16NotifySwitc
98:   OBJECT GLOBAL DEFAULT 18 _ZTCN7android17InputReade
99:   FUNC GLOBAL DEFAULT 14 _ZN7android16NotifyMotion
100:   FUNC GLOBAL DEFAULT 14 _ZN7android19QueuedInputL
101:   FUNC GLOBAL DEFAULT 14 _ZN7android19QueuedInputL
102:   FUNC GLOBAL DEFAULT 14 _ZN7android19QueuedInputL
103:   OBJECT GLOBAL DEFAULT 18 _ZTTN7android19QueuedInpu
104:   OBJECT GLOBAL DEFAULT 18 _ZTVN7android30NotifyConf
105:   FUNC GLOBAL DEFAULT 14 _ZTv0_n24_N7android19Queu
106:   FUNC GLOBAL DEFAULT 14 _ZN7android19QueuedInputL
107:   FUNC GLOBAL DEFAULT 14 _ZN7android30NotifyConfig
108:   FUNC GLOBAL DEFAULT 14 _ZNK7android24InputReader
