 0x0000000e (SONAME)                     Library soname: [android.hardware.radio.config@1.1.so]
  
Symbol   contains 452 entries:
Num:   Type Bind Vis Ndx Name
0:   NOTYPE LOCAL DEFAULT UND
1:   FUNC GLOBAL DEFAULT UND __cxa_finalize@LIBC (2)
2:   FUNC GLOBAL DEFAULT UND _ZN7android14sp_report_ra
3:   FUNC GLOBAL DEFAULT UND _ZN7android21report_syspr
4:   OBJECT GLOBAL DEFAULT UND _ZN7android4hidl4base4V1_
5:   FUNC GLOBAL DEFAULT UND _ZN7android4hidl4base4V1_
6:   FUNC GLOBAL DEFAULT UND _ZN7android4hidl4base4V1_
7:   FUNC GLOBAL DEFAULT UND _ZN7android4hidl4base4V1_
8:   FUNC GLOBAL DEFAULT UND _ZN7android4hidl4base4V1_
9:   FUNC GLOBAL DEFAULT UND _ZN7android4hidl4base4V1_
10:   FUNC GLOBAL DEFAULT UND _ZN7android4hidl4base4V1_
11:   FUNC GLOBAL DEFAULT UND _ZN7android4hidl4base4V1_
12:   FUNC GLOBAL DEFAULT UND _ZN7android4hidl4base4V1_
13:   FUNC GLOBAL DEFAULT UND _ZN7android4hidl4base4V1_
14:   FUNC GLOBAL DEFAULT UND _ZN7android4hidl4base4V1_
15:   FUNC GLOBAL DEFAULT UND _ZN7android4hidl4base4V1_
16:   FUNC GLOBAL DEFAULT UND _ZN7android4hidl4base4V1_
17:   FUNC GLOBAL DEFAULT UND _ZN7android4hidl4base4V1_
18:   FUNC GLOBAL DEFAULT UND _ZN7android4hidl4base4V1_
19:   FUNC GLOBAL DEFAULT UND _ZN7android4hidl4base4V1_
20:   FUNC GLOBAL DEFAULT UND _ZN7android4hidl4base4V1_
21:   FUNC GLOBAL DEFAULT UND _ZN7android4hidl4base4V1_
22:   FUNC GLOBAL DEFAULT UND _ZN7android4hidl4base4V1_
23:   FUNC GLOBAL DEFAULT UND _ZN7android4hidl4base4V1_
24:   FUNC GLOBAL DEFAULT UND _ZN7android4hidl4base4V1_
25:   FUNC GLOBAL DEFAULT UND _ZN7android4hidl4base4V1_
26:   FUNC GLOBAL DEFAULT UND _ZN7android4hidl4base4V1_
27:   FUNC GLOBAL DEFAULT UND _ZN7android4hidl4base4V1_
28:   FUNC GLOBAL DEFAULT UND _ZN7android7RefBase10onFi
29:   FUNC GLOBAL DEFAULT UND _ZN7android7RefBase12weak
30:   FUNC GLOBAL DEFAULT UND _ZN7android7RefBase13onLa
31:   FUNC GLOBAL DEFAULT UND _ZN7android7RefBase15onLa
32:   FUNC GLOBAL DEFAULT UND _ZN7android7RefBase20onIn
33:   FUNC GLOBAL DEFAULT UND _ZN7android7RefBaseC2Ev
34:   FUNC GLOBAL DEFAULT UND _ZN7android7RefBaseD2Ev
35:   FUNC GLOBAL DEFAULT UND _ZN7android8hardware10IIn
36:   FUNC GLOBAL DEFAULT UND _ZN7android8hardware10IIn
37:   FUNC GLOBAL DEFAULT UND _ZN7android8hardware10IIn
38:   FUNC GLOBAL DEFAULT UND _ZN7android8hardware10IIn
39:   FUNC GLOBAL DEFAULT UND _ZN7android8hardware10IIn
40:   FUNC GLOBAL DEFAULT UND _ZN7android8hardware11BpH
41:   FUNC GLOBAL DEFAULT UND _ZN7android8hardware11BpH
42:   FUNC GLOBAL DEFAULT UND _ZN7android8hardware11BpH
43:   FUNC GLOBAL DEFAULT UND _ZN7android8hardware11BpH
44:   FUNC GLOBAL DEFAULT UND _ZN7android8hardware11BpH
45:   FUNC GLOBAL DEFAULT UND _ZN7android8hardware11BpH
46:   FUNC GLOBAL DEFAULT UND _ZN7android8hardware11BpH
47:   FUNC GLOBAL DEFAULT UND _ZN7android8hardware11hid
48:   FUNC GLOBAL DEFAULT UND _ZN7android8hardware11hid
49:   FUNC GLOBAL DEFAULT UND _ZN7android8hardware11hid
50:   FUNC GLOBAL DEFAULT UND _ZN7android8hardware11hid
51:   FUNC GLOBAL DEFAULT UND _ZN7android8hardware11hid
52:   FUNC GLOBAL DEFAULT UND _ZN7android8hardware12Pro
53:   FUNC GLOBAL DEFAULT UND _ZN7android8hardware12Pro
54:   FUNC GLOBAL DEFAULT UND _ZN7android8hardware13wri
55:   FUNC GLOBAL DEFAULT UND _ZN7android8hardware21def
56:   FUNC GLOBAL DEFAULT UND _ZN7android8hardware23get
57:   FUNC GLOBAL DEFAULT UND _ZN7android8hardware27hid
58:   FUNC GLOBAL DEFAULT UND _ZN7android8hardware27hid
59:   OBJECT GLOBAL DEFAULT UND _ZN7android8hardware5radi
60:   FUNC GLOBAL DEFAULT UND _ZN7android8hardware5radi
61:   FUNC GLOBAL DEFAULT UND _ZN7android8hardware5radi
62:   FUNC GLOBAL DEFAULT UND _ZN7android8hardware5radi
63:   FUNC GLOBAL DEFAULT UND _ZN7android8hardware5radi
64:   FUNC GLOBAL DEFAULT UND _ZN7android8hardware5radi
65:   FUNC GLOBAL DEFAULT UND _ZN7android8hardware5radi
66:   FUNC GLOBAL DEFAULT UND _ZN7android8hardware5radi
67:   FUNC GLOBAL DEFAULT UND _ZN7android8hardware5radi
68:   FUNC GLOBAL DEFAULT UND _ZN7android8hardware5radi
69:   FUNC GLOBAL DEFAULT UND _ZN7android8hardware5radi
70:   FUNC GLOBAL DEFAULT UND _ZN7android8hardware5radi
71:   FUNC GLOBAL DEFAULT UND _ZN7android8hardware5radi
72:   FUNC GLOBAL DEFAULT UND _ZN7android8hardware5radi
73:   FUNC GLOBAL DEFAULT UND _ZN7android8hardware5radi
74:   FUNC GLOBAL DEFAULT UND _ZN7android8hardware5radi
75:   FUNC GLOBAL DEFAULT UND _ZN7android8hardware5radi
76:   FUNC GLOBAL DEFAULT UND _ZN7android8hardware6Parc
77:   FUNC GLOBAL DEFAULT UND _ZN7android8hardware6Parc
78:   FUNC GLOBAL DEFAULT UND _ZN7android8hardware6Parc
79:   FUNC GLOBAL DEFAULT UND _ZN7android8hardware6Parc
80:   FUNC GLOBAL DEFAULT UND _ZN7android8hardware6Parc
81:   FUNC GLOBAL DEFAULT UND _ZN7android8hardware6Parc
82:   FUNC GLOBAL DEFAULT UND _ZN7android8hardware6Stat
83:   FUNC GLOBAL DEFAULT UND _ZN7android8hardware6Stat
84:   FUNC GLOBAL DEFAULT UND _ZN7android8hardware6Stat
85:   FUNC GLOBAL DEFAULT UND _ZN7android8hardware6Stat
86:   FUNC GLOBAL DEFAULT UND _ZN7android8hardware7IBin
87:   FUNC GLOBAL DEFAULT UND _ZN7android8hardware7IBin
88:   FUNC GLOBAL DEFAULT UND _ZN7android8hardware7IBin
89:   FUNC GLOBAL DEFAULT UND _ZN7android8hardware7IBin
90:   FUNC GLOBAL DEFAULT UND _ZN7android8hardware7deta
91:   FUNC GLOBAL DEFAULT UND _ZN7android8hardware7deta
92:   FUNC GLOBAL DEFAULT UND _ZN7android8hardware7deta
93:   FUNC GLOBAL DEFAULT UND _ZN7android8hardware7deta
94:   FUNC GLOBAL DEFAULT UND _ZN7android8hardware7deta
95:   FUNC GLOBAL DEFAULT UND _ZN7android8hardware7deta
96:   FUNC GLOBAL DEFAULT UND _ZN7android8hardware7deta
97:   OBJECT GLOBAL DEFAULT UND _ZN7android8hardware7deta
98:   OBJECT GLOBAL DEFAULT UND _ZN7android8hardware7deta
99:   FUNC GLOBAL DEFAULT UND _ZN7android8hardware7deta
100:   FUNC GLOBAL DEFAULT UND _ZN7android8hardware7deta
101:   FUNC GLOBAL DEFAULT UND _ZN7android8hardware7deta
102:   FUNC GLOBAL DEFAULT UND _ZN7android8hardware7deta
103:   FUNC GLOBAL DEFAULT UND _ZN7android8hardware7deta
104:   FUNC GLOBAL DEFAULT UND _ZN7android8hardware7deta
105:   FUNC GLOBAL DEFAULT UND _ZN7android8hardware7deta
106:   FUNC GLOBAL DEFAULT UND _ZN7android8hardware7deta
107:   FUNC GLOBAL DEFAULT UND _ZN7android8hardware7deta
108:   FUNC GLOBAL DEFAULT UND _ZN7android8hardware7deta
109:   OBJECT GLOBAL DEFAULT UND _ZN7android8hardware7deta
110:   FUNC GLOBAL DEFAULT UND _ZN7android8hardware9BHwB
111:   FUNC GLOBAL DEFAULT UND _ZN7android8hardware9BHwB
112:   FUNC GLOBAL DEFAULT UND _ZN7android8hardware9BHwB
113:   FUNC GLOBAL DEFAULT UND _ZN7android8hardware9BHwB
114:   FUNC GLOBAL DEFAULT UND _ZN7android8hardware9BHwB
115:   FUNC GLOBAL DEFAULT UND _ZN7android8hardware9BHwB
116:   FUNC GLOBAL DEFAULT UND _ZN7android8hardware9BHwB
117:   FUNC GLOBAL DEFAULT UND _ZN7android8hardware9BHwB
118:   FUNC GLOBAL DEFAULT UND _ZN7android8hardware9BHwB
119:   FUNC GLOBAL DEFAULT UND _ZN7android8hardware9BHwB
120:   FUNC GLOBAL DEFAULT UND _ZNK7android7RefBase10cre
121:   FUNC GLOBAL DEFAULT UND _ZNK7android7RefBase11get
122:   FUNC GLOBAL DEFAULT UND _ZNK7android7RefBase9decS
123:   FUNC GLOBAL DEFAULT UND _ZNK7android7RefBase9incS
124:   FUNC GLOBAL DEFAULT UND _ZNK7android8hardware6Par
125:   FUNC GLOBAL DEFAULT UND _ZNK7android8hardware6Par
126:   FUNC GLOBAL DEFAULT UND _ZNK7android8hardware6Par
127:   FUNC GLOBAL DEFAULT UND _ZNK7android8hardware6Par
128:   FUNC GLOBAL DEFAULT UND _ZNK7android8hardware7IBi
129:   FUNC GLOBAL DEFAULT UND _ZNK7android8hardware7det
130:   FUNC GLOBAL DEFAULT UND _ZNK7android8hardware9BHw
131:   FUNC GLOBAL DEFAULT UND _ZNKSt3__120__vector_base
132:   FUNC GLOBAL DEFAULT UND _ZNKSt3__121__basic_strin
133:   FUNC GLOBAL DEFAULT UND _ZNSt3__112basic_stringIc
134:   FUNC GLOBAL DEFAULT UND _ZNSt3__15mutex4lockEv
135:   FUNC GLOBAL DEFAULT UND _ZNSt3__15mutex6unlockEv
136:   FUNC GLOBAL DEFAULT UND _ZNSt3__15mutexD1Ev
137:   FUNC GLOBAL DEFAULT UND _ZTv0_n12_N7android4hidl4
138:   FUNC GLOBAL DEFAULT UND _ZTv0_n12_N7android4hidl4
139:   FUNC GLOBAL DEFAULT UND _ZTv0_n12_N7android8hardw
140:   FUNC GLOBAL DEFAULT UND _ZTv0_n12_N7android8hardw
141:   FUNC GLOBAL DEFAULT UND _ZTv0_n12_N7android8hardw
142:   FUNC GLOBAL DEFAULT UND _ZTv0_n12_N7android8hardw
143:   FUNC GLOBAL DEFAULT UND _ZTv0_n12_N7android8hardw
144:   FUNC GLOBAL DEFAULT UND _ZTv0_n12_N7android8hardw
145:   FUNC GLOBAL DEFAULT UND _ZTv0_n12_N7android8hardw
146:   FUNC GLOBAL DEFAULT UND _ZTv0_n12_N7android8hardw
147:   FUNC GLOBAL DEFAULT UND _ZTv0_n16_N7android8hardw
148:   FUNC GLOBAL DEFAULT UND _ZTv0_n20_N7android8hardw
149:   FUNC GLOBAL DEFAULT UND _ZTv0_n24_N7android8hardw
150:   FUNC GLOBAL DEFAULT UND _ZdaPv
151:   FUNC GLOBAL DEFAULT UND _ZdlPv
152:   FUNC GLOBAL DEFAULT UND _Znaj
153:   FUNC GLOBAL DEFAULT UND _Znwj
154:   FUNC GLOBAL DEFAULT UND __cxa_pure_virtual
155:   FUNC GLOBAL DEFAULT UND __stack_chk_fail@LIBC (2)
156:   OBJECT GLOBAL DEFAULT UND __stack_chk_guard@LIBC (2)
157:   FUNC GLOBAL DEFAULT UND abort@LIBC (2)
158:   FUNC GLOBAL DEFAULT UND atrace_begin_body
159:   OBJECT GLOBAL DEFAULT UND atrace_enabled_tags
160:   FUNC GLOBAL DEFAULT UND atrace_end_body
161:   OBJECT GLOBAL DEFAULT UND atrace_is_ready
162:   FUNC GLOBAL DEFAULT UND atrace_setup
163:   FUNC GLOBAL DEFAULT UND memcmp@LIBC (2)
164:   FUNC GLOBAL DEFAULT UND strlen@LIBC (2)
165:   OBJECT GLOBAL DEFAULT UND _ZN7android8hardware5radi
166:   FUNC GLOBAL DEFAULT UND _ZN7android8hardware5radi
167:   FUNC GLOBAL DEFAULT UND _ZN7android8hardware5radi
168:   FUNC GLOBAL DEFAULT UND _ZN7android8hardware5radi
169:   FUNC GLOBAL DEFAULT UND _ZN7android8hardware5radi
170:   FUNC GLOBAL DEFAULT UND _ZN7android8hardware5radi
171:   FUNC GLOBAL DEFAULT UND _ZN7android8hardware5radi
172:   FUNC GLOBAL DEFAULT UND _ZN7android8hardware5radi
173:   FUNC GLOBAL DEFAULT UND _ZN7android8hardware5radi
174:   FUNC GLOBAL DEFAULT UND _ZN7android8hardware5radi
175:   FUNC GLOBAL DEFAULT UND _ZN7android8hardware5radi
176:   FUNC GLOBAL DEFAULT UND _ZN7android8hardware5radi
177:   FUNC GLOBAL DEFAULT UND _ZN7android8hardware5radi
178:   OBJECT GLOBAL DEFAULT UND _ZN7android8hardware5radi
179:   FUNC GLOBAL DEFAULT UND _ZN7android8hardware5radi
180:   FUNC GLOBAL DEFAULT UND _ZN7android8hardware5radi
181:   FUNC GLOBAL DEFAULT UND _ZN7android8hardware5radi
182:   FUNC GLOBAL DEFAULT UND _ZN7android8hardware5radi
183:   FUNC GLOBAL DEFAULT UND _ZN7android8hardware5radi
184:   FUNC GLOBAL DEFAULT UND _ZN7android8hardware5radi
185:   FUNC GLOBAL DEFAULT UND _ZN7android8hardware5radi
186:   FUNC GLOBAL DEFAULT UND _ZN7android8hardware5radi
187:   FUNC GLOBAL DEFAULT UND _ZN7android8hardware5radi
188:   FUNC GLOBAL DEFAULT UND _ZN7android8hardware5radi
189:   FUNC GLOBAL DEFAULT UND _ZN7android8hardware5radi
190:   FUNC GLOBAL DEFAULT UND _ZN7android8hardware5radi
191:   FUNC GLOBAL DEFAULT UND _ZN7android8hardware5radi
192:   FUNC GLOBAL DEFAULT UND _ZN7android8hardware5radi
193:   FUNC GLOBAL DEFAULT UND _ZN7android8hardware6Parc
194:   FUNC GLOBAL DEFAULT UND _ZNK7android8hardware6Par
195:   FUNC GLOBAL DEFAULT UND memcpy@LIBC (2)
196:   FUNC GLOBAL DEFAULT UND memset@LIBC (2)
197:   FUNC GLOBAL DEFAULT 14 _ZN7android8hardware5radi
198:   FUNC GLOBAL DEFAULT 14 _ZN7android8hardware5radi
199:   FUNC GLOBAL DEFAULT 14 _ZN7android8hardware5radi
200:   FUNC GLOBAL DEFAULT 14 _ZN7android8hardware5radi
201:   FUNC GLOBAL DEFAULT 14 _ZN7android8hardware5radi
202:   FUNC GLOBAL DEFAULT 14 _ZN7android8hardware5radi
203:   FUNC WEAK DEFAULT 14 _ZNSt3__16vectorIPvNS_9al
204:   FUNC GLOBAL DEFAULT 14 _ZN7android8hardware5radi
205:   FUNC GLOBAL DEFAULT 14 _ZN7android8hardware5radi
206:   FUNC GLOBAL DEFAULT 14 _ZN7android8hardware5radi
207:   OBJECT GLOBAL DEFAULT 18 _ZTVN7android8hardware5ra
208:   FUNC GLOBAL DEFAULT 14 _ZN7android8hardware5radi
209:   FUNC GLOBAL DEFAULT 14 _ZN7android8hardware5radi
210:   FUNC GLOBAL DEFAULT 14 _ZN7android8hardware5radi
211:   FUNC GLOBAL DEFAULT 14 _ZN7android8hardware5radi
212:   FUNC WEAK DEFAULT 14 _ZN7android8hardware7deta
213:   FUNC GLOBAL DEFAULT 14 _ZN7android8hardware5radi
214:   FUNC GLOBAL DEFAULT 14 _ZN7android8hardware5radi
215:   FUNC GLOBAL DEFAULT 14 _ZN7android8hardware5radi
216:   FUNC GLOBAL DEFAULT 14 _ZN7android8hardware5radi
217:   FUNC GLOBAL DEFAULT 14 _ZTv0_n12_N7android8hardw
218:   FUNC GLOBAL DEFAULT 14 _ZN7android8hardware5radi
219:   FUNC GLOBAL DEFAULT 14 _ZN7android8hardware5radi
220:   FUNC GLOBAL DEFAULT 14 _ZTv0_n12_N7android8hardw
221:   FUNC GLOBAL DEFAULT 14 _ZN7android8hardware5radi
222:   FUNC WEAK DEFAULT 14 _ZNSt3__16vectorIN7androi
223:   FUNC GLOBAL DEFAULT 14 _ZN7android8hardware5radi
224:   FUNC GLOBAL DEFAULT 14 _ZN7android8hardware5radi
225:   FUNC GLOBAL DEFAULT 14 _ZN7android8hardware5radi
226:   FUNC GLOBAL DEFAULT 14 _ZN7android8hardware5radi
227:   FUNC GLOBAL DEFAULT 14 _ZN7android8hardware5radi
228:   FUNC GLOBAL DEFAULT 14 _ZN7android8hardware5radi
229:   FUNC GLOBAL DEFAULT 14 _ZN7android8hardware5radi
230:   FUNC WEAK DEFAULT 14 _ZN7android8hardware7deta
231:   FUNC GLOBAL DEFAULT 14 _ZN7android8hardware5radi
232:   OBJECT GLOBAL DEFAULT 18 _ZTCN7android8hardware5ra
233:   FUNC GLOBAL DEFAULT 14 _ZN7android8hardware5radi
234:   FUNC GLOBAL DEFAULT 14 _ZN7android8hardware5radi
235:   FUNC GLOBAL DEFAULT 14 _ZN7android8hardware5radi
236:   FUNC GLOBAL DEFAULT 14 _ZN7android8hardware5radi
237:   FUNC WEAK DEFAULT 14 _ZN7android8hardware7deta
238:   FUNC GLOBAL DEFAULT 14 _ZN7android8hardware5radi
239:   FUNC GLOBAL DEFAULT 14 _ZN7android8hardware5radi
240:   OBJECT GLOBAL DEFAULT 18 _ZTCN7android8hardware5ra
241:   OBJECT GLOBAL DEFAULT 18 _ZTCN7android8hardware5ra
242:   FUNC GLOBAL DEFAULT 14 _ZN7android8hardware5radi
243:   OBJECT WEAK DEFAULT 18 _ZTVN7android8hardware5ra
244:   FUNC GLOBAL DEFAULT 14 _ZN7android8hardware5radi
245:   OBJECT WEAK DEFAULT 18 _ZTVN7android8hardware5ra
246:   FUNC GLOBAL DEFAULT 14 _ZN7android8hardware5radi
247:   FUNC GLOBAL DEFAULT 14 _ZThn20_N7android8hardwar
248:   OBJECT GLOBAL DEFAULT 18 _ZTCN7android8hardware5ra
249:   OBJECT GLOBAL DEFAULT 18 _ZTCN7android8hardware5ra
250:   OBJECT GLOBAL DEFAULT 18 _ZTVN7android8hardware5ra
251:   FUNC GLOBAL DEFAULT 14 _ZN7android8hardware5radi
252:   FUNC GLOBAL DEFAULT 14 _ZN7android8hardware5radi
253:   OBJECT GLOBAL DEFAULT 18 _ZTTN7android8hardware5ra
254:   FUNC GLOBAL DEFAULT 14 _ZN7android8hardware5radi
255:   FUNC GLOBAL DEFAULT 14 _ZN7android8hardware5radi
256:   OBJECT GLOBAL DEFAULT 18 _ZTCN7android8hardware5ra
257:   FUNC WEAK DEFAULT 14 _ZN7android8hardware7deta
258:   FUNC GLOBAL DEFAULT 14 _ZN7android8hardware5radi
259:   OBJECT GLOBAL DEFAULT 18 _ZTCN7android8hardware5ra
260:   FUNC GLOBAL DEFAULT 14 _ZN7android8hardware5radi
261:   OBJECT GLOBAL DEFAULT 18 _ZTCN7android8hardware5ra
262:   FUNC GLOBAL DEFAULT 14 _ZN7android8hardware5radi
263:   FUNC GLOBAL DEFAULT 14 _ZN7android8hardware5radi
264:   FUNC GLOBAL DEFAULT 14 _ZN7android8hardware5radi
265:   FUNC GLOBAL DEFAULT 14 _ZN7android8hardware5radi
266:   FUNC GLOBAL DEFAULT 14 _ZN7android8hardware5radi
267:   FUNC GLOBAL DEFAULT 14 _ZN7android8hardware5radi
268:   OBJECT GLOBAL DEFAULT 18 _ZTTN7android8hardware5ra
269:   OBJECT GLOBAL DEFAULT 16 _ZN7android8hardware5radi
270:   FUNC GLOBAL DEFAULT 14 _ZN7android8hardware5radi
271:   OBJECT WEAK DEFAULT 18 _ZTCN7android8hardware5ra
272:   FUNC GLOBAL DEFAULT 14 _ZN7android8hardware5radi
273:   FUNC GLOBAL DEFAULT 14 _ZN7android8hardware5radi
274:   FUNC GLOBAL DEFAULT 14 _ZN7android8hardware5radi
275:   OBJECT GLOBAL DEFAULT 18 _ZTCN7android8hardware5ra
276:   OBJECT WEAK DEFAULT 18 _ZTCN7android8hardware5ra
277:   OBJECT GLOBAL DEFAULT 18 _ZTVN7android8hardware5ra
278:   OBJECT GLOBAL DEFAULT 18 _ZTVN7android8hardware5ra
279:   FUNC GLOBAL DEFAULT 14 _ZN7android8hardware5radi
280:   OBJECT GLOBAL DEFAULT 18 _ZTTN7android8hardware5ra
281:   OBJECT GLOBAL DEFAULT 18 _ZTTN7android8hardware5ra
282:   FUNC GLOBAL DEFAULT 14 _ZN7android8hardware5radi
283:   OBJECT GLOBAL DEFAULT 18 _ZTCN7android8hardware5ra
284:   OBJECT GLOBAL DEFAULT 18 _ZTTN7android8hardware5ra
285:   FUNC GLOBAL DEFAULT 14 _ZN7android8hardware5radi
286:   FUNC GLOBAL DEFAULT 14 _ZN7android8hardware5radi
287:   FUNC GLOBAL DEFAULT 14 _ZN7android8hardware5radi
288:   FUNC WEAK DEFAULT 14 _ZN7android8hardware7deta
289:   FUNC WEAK DEFAULT 14 _ZNSt3__16__treeINS_12__v
290:   FUNC GLOBAL DEFAULT 14 _ZN7android8hardware5radi
291:   FUNC GLOBAL DEFAULT 14 _ZN7android8hardware5radi
292:   FUNC GLOBAL DEFAULT 14 _ZN7android8hardware5radi
293:   FUNC GLOBAL DEFAULT 14 _ZN7android8hardware5radi
294:   OBJECT WEAK DEFAULT 18 _ZTCN7android8hardware5ra
295:   FUNC GLOBAL DEFAULT 14 _ZN7android8hardware5radi
296:   FUNC WEAK DEFAULT 14 _ZNSt3__16__treeINS_12__v
297:   FUNC GLOBAL DEFAULT 14 _ZN7android8hardware5radi
298:   FUNC GLOBAL DEFAULT 14 _ZN7android8hardware5radi
299:   FUNC GLOBAL DEFAULT 14 _ZN7android8hardware5radi
300:   FUNC GLOBAL DEFAULT 14 _ZN7android8hardware5radi
301:   FUNC GLOBAL DEFAULT 14 _ZN7android8hardware5radi
302:   FUNC WEAK DEFAULT 14 _ZNSt3__16__treeINS_12__v
303:   FUNC WEAK DEFAULT 14 _ZNSt3__16__treeINS_12__v
304:   FUNC GLOBAL DEFAULT 14 _ZThn20_N7android8hardwar
305:   OBJECT GLOBAL DEFAULT 18 _ZTCN7android8hardware5ra
306:   OBJECT WEAK DEFAULT 18 _ZTVN7android8hardware5ra
307:   OBJECT GLOBAL DEFAULT 18 _ZTCN7android8hardware5ra
308:   OBJECT GLOBAL DEFAULT 18 _ZTVN7android8hardware5ra
309:   FUNC GLOBAL DEFAULT 14 _ZTv0_n12_N7android8hardw
310:   FUNC GLOBAL DEFAULT 14 _ZN7android8hardware5radi
311:   FUNC WEAK DEFAULT 14 _ZN7android8hardware7deta
312:   FUNC GLOBAL DEFAULT 14 _ZThn20_N7android8hardwar
313:   FUNC GLOBAL DEFAULT 14 _ZN7android8hardware5radi
314:   FUNC GLOBAL DEFAULT 14 _ZN7android8hardware5radi
315:   OBJECT GLOBAL DEFAULT 18 _ZTTN7android8hardware5ra
316:   FUNC GLOBAL DEFAULT 14 _ZN7android8hardware5radi
317:   FUNC WEAK DEFAULT 14 _ZNSt3__113__tree_removeI
318:   FUNC GLOBAL DEFAULT 14 _ZN7android8hardware5radi
319:   FUNC GLOBAL DEFAULT 14 _ZN7android8hardware5radi
320:   OBJECT GLOBAL DEFAULT 18 _ZTCN7android8hardware5ra
321:   FUNC GLOBAL DEFAULT 14 _ZN7android8hardware5radi
322:   OBJECT GLOBAL DEFAULT 18 _ZTCN7android8hardware5ra
323:   OBJECT GLOBAL DEFAULT 18 _ZTVN7android8hardware5ra
324:   FUNC GLOBAL DEFAULT 14 _ZN7android8hardware5radi
325:   FUNC GLOBAL DEFAULT 14 _ZN7android8hardware5radi
326:   OBJECT GLOBAL DEFAULT 18 _ZTCN7android8hardware5ra
327:   OBJECT GLOBAL DEFAULT 16 _ZN7android8hardware5radi
328:   FUNC GLOBAL DEFAULT 14 _ZN7android8hardware5radi
329:   FUNC GLOBAL DEFAULT 14 _ZN7android8hardware5radi
330:   OBJECT GLOBAL DEFAULT 18 _ZTCN7android8hardware5ra
331:   FUNC GLOBAL DEFAULT 14 _ZThn20_N7android8hardwar
332:   FUNC GLOBAL DEFAULT 14 _ZN7android8hardware5radi
333:   FUNC GLOBAL DEFAULT 14 _ZN7android8hardware5radi
334:   FUNC GLOBAL DEFAULT 14 _ZN7android8hardware5radi
335:   FUNC GLOBAL DEFAULT 14 _ZN7android8hardware5radi
336:   FUNC WEAK DEFAULT 14 _ZNSt3__127__tree_balance
337:   FUNC GLOBAL DEFAULT 14 _ZN7android8hardware5radi
338:   FUNC GLOBAL DEFAULT 14 __aeabi_memset
339:   FUNC GLOBAL DEFAULT 14 _ZN7android8hardware5radi
340:   FUNC GLOBAL DEFAULT 14 _ZN7android8hardware5radi
341:   FUNC GLOBAL DEFAULT 14 _ZN7android8hardware5radi
342:   FUNC GLOBAL DEFAULT 14 _ZN7android8hardware5radi
343:   OBJECT GLOBAL DEFAULT 18 _ZTCN7android8hardware5ra
344:   FUNC GLOBAL DEFAULT 14 _ZN7android8hardware5radi
345:   FUNC GLOBAL DEFAULT 14 _ZN7android8hardware5radi
346:   OBJECT GLOBAL DEFAULT 18 _ZTCN7android8hardware5ra
347:   OBJECT GLOBAL DEFAULT 18 _ZTCN7android8hardware5ra
348:   FUNC GLOBAL DEFAULT 14 __aeabi_memcpy4
349:   FUNC GLOBAL DEFAULT 14 _ZN7android8hardware5radi
350:   FUNC WEAK DEFAULT 14 _ZNSt3__16vectorINS_8func
351:   FUNC GLOBAL DEFAULT 14 _ZN7android8hardware5radi
352:   FUNC GLOBAL DEFAULT 14 _ZN7android8hardware5radi
353:   FUNC GLOBAL DEFAULT 14 _ZN7android8hardware5radi
354:   FUNC WEAK DEFAULT 14 _ZN7android8hardware7deta
355:   FUNC GLOBAL DEFAULT 14 _ZN7android8hardware5radi
356:   OBJECT GLOBAL DEFAULT 18 _ZTTN7android8hardware5ra
357:   FUNC GLOBAL DEFAULT 14 _ZN7android8hardware5radi
358:   OBJECT GLOBAL DEFAULT 18 _ZTCN7android8hardware5ra
359:   FUNC GLOBAL DEFAULT 14 _ZN7android8hardware5radi
360:   FUNC GLOBAL DEFAULT 14 _ZN7android8hardware5radi
361:   FUNC GLOBAL DEFAULT 14 __aeabi_memclr
362:   FUNC GLOBAL DEFAULT 14 _ZN7android8hardware5radi
363:   OBJECT GLOBAL DEFAULT 18 _ZTCN7android8hardware5ra
364:   FUNC GLOBAL DEFAULT 14 _ZN7android8hardware5radi
365:   OBJECT GLOBAL DEFAULT 18 _ZTCN7android8hardware5ra
366:   FUNC GLOBAL DEFAULT 14 __aeabi_memcpy8
367:   FUNC GLOBAL DEFAULT 14 _ZN7android8hardware5radi
368:   FUNC GLOBAL DEFAULT 14 _ZN7android8hardware5radi
369:   FUNC GLOBAL DEFAULT 14 _ZN7android8hardware5radi
370:   OBJECT GLOBAL DEFAULT 18 _ZTCN7android8hardware5ra
371:   OBJECT GLOBAL DEFAULT 18 _ZTCN7android8hardware5ra
372:   FUNC GLOBAL DEFAULT 14 __aeabi_memset4
373:   FUNC GLOBAL DEFAULT 14 _ZN7android8hardware5radi
374:   FUNC GLOBAL DEFAULT 14 _ZN7android8hardware5radi
375:   FUNC GLOBAL DEFAULT 14 _ZN7android8hardware5radi
376:   FUNC GLOBAL DEFAULT 14 _ZN7android8hardware5radi
377:   FUNC GLOBAL DEFAULT 14 _ZN7android8hardware5radi
378:   OBJECT GLOBAL DEFAULT 18 _ZTTN7android8hardware5ra
379:   FUNC GLOBAL DEFAULT 14 _ZN7android8hardware5radi
380:   FUNC GLOBAL DEFAULT 14 _ZN7android8hardware5radi
381:   FUNC WEAK DEFAULT 14 _ZN7android8hardware7deta
382:   OBJECT GLOBAL DEFAULT 18 _ZTCN7android8hardware5ra
383:   FUNC GLOBAL DEFAULT 14 _ZN7android8hardware5radi
384:   FUNC GLOBAL DEFAULT 14 _ZN7android8hardware5radi
385:   FUNC WEAK DEFAULT 14 _ZN7android8hardware7deta
386:   FUNC GLOBAL DEFAULT 14 _ZTv0_n12_N7android8hardw
387:   FUNC GLOBAL DEFAULT 14 _ZN7android8hardware5radi
388:   FUNC GLOBAL DEFAULT 14 _ZN7android8hardware5radi
389:   FUNC GLOBAL DEFAULT 14 _ZN7android8hardware5radi
390:   FUNC GLOBAL DEFAULT 14 _ZN7android8hardware5radi
391:   FUNC GLOBAL DEFAULT 14 _ZN7android8hardware5radi
392:   FUNC GLOBAL DEFAULT 14 __aeabi_memset8
393:   FUNC GLOBAL DEFAULT 14 _ZTv0_n12_N7android8hardw
394:   FUNC GLOBAL DEFAULT 14 _ZThn20_N7android8hardwar
395:   FUNC GLOBAL DEFAULT 14 _ZTv0_n12_N7android8hardw
396:   FUNC WEAK DEFAULT 14 _ZNSt3__16__treeINS_12__v
397:   FUNC GLOBAL DEFAULT 14 __aeabi_memclr4
398:   FUNC GLOBAL DEFAULT 14 _ZN7android8hardware5radi
399:   FUNC GLOBAL DEFAULT 14 _ZN7android8hardware5radi
400:   FUNC GLOBAL DEFAULT 14 _ZN7android8hardware5radi
401:   FUNC GLOBAL DEFAULT 14 _ZN7android8hardware5radi
402:   FUNC GLOBAL DEFAULT 14 _ZN7android8hardware5radi
403:   FUNC GLOBAL DEFAULT 14 _ZN7android8hardware5radi
404:   OBJECT GLOBAL DEFAULT 16 _ZN7android8hardware5radi
405:   OBJECT GLOBAL DEFAULT 18 _ZTCN7android8hardware5ra
406:   FUNC WEAK DEFAULT 14 _ZNSt3__16__treeINS_12__v
407:   FUNC GLOBAL DEFAULT 14 _ZN7android8hardware5radi
408:   OBJECT GLOBAL DEFAULT 18 _ZTTN7android8hardware5ra
409:   FUNC GLOBAL DEFAULT 14 _ZN7android8hardware5radi
410:   FUNC GLOBAL DEFAULT 14 _ZN7android8hardware5radi
411:   FUNC GLOBAL DEFAULT 14 _ZN7android8hardware5radi
412:   OBJECT GLOBAL DEFAULT 18 _ZTVN7android8hardware5ra
413:   FUNC GLOBAL DEFAULT 14 _ZThn20_N7android8hardwar
414:   FUNC GLOBAL DEFAULT 14 _ZN7android8hardware5radi
415:   FUNC GLOBAL DEFAULT 14 __aeabi_memcpy
416:   FUNC WEAK DEFAULT 14 _ZN7android8hardware7deta
417:   OBJECT GLOBAL DEFAULT 18 _ZTCN7android8hardware5ra
418:   FUNC GLOBAL DEFAULT 14 __aeabi_memclr8
419:   FUNC GLOBAL DEFAULT 14 _ZN7android8hardware5radi
420:   FUNC GLOBAL DEFAULT 14 _ZN7android8hardware5radi
421:   OBJECT GLOBAL DEFAULT 18 _ZTCN7android8hardware5ra
422:   FUNC GLOBAL DEFAULT 14 _ZN7android8hardware5radi
423:   OBJECT GLOBAL DEFAULT 18 _ZTCN7android8hardware5ra
424:   FUNC GLOBAL DEFAULT 14 _ZN7android8hardware5radi
425:   FUNC GLOBAL DEFAULT 14 _ZN7android8hardware5radi
426:   FUNC GLOBAL DEFAULT 14 _ZN7android8hardware5radi
427:   OBJECT GLOBAL DEFAULT 18 _ZTCN7android8hardware5ra
428:   FUNC GLOBAL DEFAULT 14 _ZN7android8hardware5radi
429:   FUNC GLOBAL DEFAULT 14 _ZN7android8hardware5radi
430:   FUNC GLOBAL DEFAULT 14 _ZN7android8hardware5radi
431:   OBJECT GLOBAL DEFAULT 18 _ZTCN7android8hardware5ra
432:   FUNC GLOBAL DEFAULT 14 _ZN7android8hardware5radi
433:   FUNC GLOBAL DEFAULT 14 _ZN7android8hardware5radi
434:   FUNC GLOBAL DEFAULT 14 _ZN7android8hardware5radi
435:   FUNC GLOBAL DEFAULT 14 _ZN7android8hardware5radi
436:   FUNC GLOBAL DEFAULT 14 _ZN7android8hardware5radi
437:   OBJECT GLOBAL DEFAULT 18 _ZTVN7android8hardware5ra
438:   FUNC GLOBAL DEFAULT 14 _ZN7android8hardware5radi
439:   FUNC GLOBAL DEFAULT 14 _ZN7android8hardware5radi
440:   FUNC GLOBAL DEFAULT 14 _ZN7android8hardware5radi
441:   OBJECT GLOBAL DEFAULT 18 _ZTCN7android8hardware5ra
442:   OBJECT GLOBAL DEFAULT 18 _ZTVN7android8hardware5ra
443:   FUNC GLOBAL DEFAULT 14 _ZN7android8hardware5radi
444:   OBJECT GLOBAL DEFAULT 18 _ZTCN7android8hardware5ra
445:   FUNC GLOBAL DEFAULT 14 _ZN7android8hardware5radi
446:   FUNC GLOBAL DEFAULT 14 _ZN7android8hardware5radi
447:   FUNC GLOBAL DEFAULT 14 _ZN7android8hardware5radi
448:   FUNC GLOBAL DEFAULT 14 _ZN7android8hardware5radi
449:   FUNC GLOBAL DEFAULT 14 _ZN7android8hardware5radi
450:   FUNC GLOBAL DEFAULT 14 _ZN7android8hardware5radi
451:   FUNC WEAK DEFAULT 14 _ZN7android8hardware7deta
