 0x000000000000000e (SONAME)             Library soname: [libbufferhubqueue.so]
  
Symbol   contains 229 entries:
Num:   Type Bind Vis Ndx Name
0:   NOTYPE LOCAL DEFAULT UND
1:   FUNC GLOBAL DEFAULT UND __cxa_finalize@LIBC (2)
2:   FUNC GLOBAL DEFAULT UND _ZN7android3pdx11ErrorSta
3:   FUNC GLOBAL DEFAULT UND _ZN7android3pdx11Transact
4:   FUNC GLOBAL DEFAULT UND _ZN7android3pdx11Transact
5:   FUNC GLOBAL DEFAULT UND _ZN7android3pdx11Transact
6:   FUNC GLOBAL DEFAULT UND _ZN7android3pdx11Transact
7:   FUNC GLOBAL DEFAULT UND _ZN7android3pdx3uds13Clie
8:   FUNC GLOBAL DEFAULT UND _ZN7android3pdx3uds20Clie
9:   FUNC GLOBAL DEFAULT UND _ZN7android3pdx6Client5Cl
10:   FUNC GLOBAL DEFAULT UND _ZN7android3pdx6Client9On
11:   FUNC GLOBAL DEFAULT UND _ZN7android3pdx6ClientC2E
12:   FUNC GLOBAL DEFAULT UND _ZN7android3pdx6ClientC2E
13:   FUNC GLOBAL DEFAULT UND _ZNK7android3pdx6Client13
14:   FUNC GLOBAL DEFAULT UND _ZNK7android3pdx6Client8e
15:   FUNC GLOBAL DEFAULT UND _ZNKSt3__119__shared_weak
16:   FUNC GLOBAL DEFAULT UND _ZNKSt3__120__vector_base
17:   FUNC GLOBAL DEFAULT UND _ZNSt3__119__shared_weak_
18:   FUNC GLOBAL DEFAULT UND _ZNSt3__119__shared_weak_
19:   OBJECT GLOBAL DEFAULT UND _ZTVN7android3pdx6ClientE
20:   FUNC GLOBAL DEFAULT UND _ZdaPv
21:   FUNC GLOBAL DEFAULT UND _ZdlPv
22:   FUNC GLOBAL DEFAULT UND _Znwm
23:   FUNC GLOBAL DEFAULT UND __android_log_assert@LIBLOG (3)
24:   FUNC GLOBAL DEFAULT UND __android_log_print@LIBLOG (3)
25:   FUNC GLOBAL DEFAULT UND __cxa_thread_atexit
26:   FUNC GLOBAL DEFAULT UND __errno@LIBC (2)
27:   FUNC GLOBAL DEFAULT UND __stack_chk_fail@LIBC (2)
28:   FUNC GLOBAL DEFAULT UND __vsnprintf_chk@LIBC (2)
29:   FUNC GLOBAL DEFAULT UND abort@LIBC (2)
30:   FUNC WEAK DEFAULT UND android_fdsan_close_with_@LIBC_Q (4)
31:   FUNC WEAK DEFAULT UND android_fdsan_create_owne@LIBC_Q (4)
32:   FUNC WEAK DEFAULT UND android_fdsan_exchange_ow@LIBC_Q (4)
33:   FUNC GLOBAL DEFAULT UND atrace_begin_body
34:   OBJECT GLOBAL DEFAULT UND atrace_enabled_tags
35:   FUNC GLOBAL DEFAULT UND atrace_end_body
36:   OBJECT GLOBAL DEFAULT UND atrace_is_ready
37:   FUNC GLOBAL DEFAULT UND atrace_setup
38:   FUNC GLOBAL DEFAULT UND close@LIBC (2)
39:   FUNC GLOBAL DEFAULT UND epoll_create1@LIBC (2)
40:   FUNC GLOBAL DEFAULT UND epoll_ctl@LIBC (2)
41:   FUNC GLOBAL DEFAULT UND epoll_wait@LIBC (2)
42:   FUNC GLOBAL DEFAULT UND memcpy@LIBC (2)
43:   FUNC GLOBAL DEFAULT UND memmove@LIBC (2)
44:   FUNC GLOBAL DEFAULT UND memset@LIBC (2)
45:   FUNC GLOBAL DEFAULT UND strerror@LIBC (2)
46:   FUNC GLOBAL DEFAULT UND _ZN7android6Parcel11write
47:   FUNC GLOBAL DEFAULT UND _ZNK7android6Parcel10read
48:   OBJECT GLOBAL DEFAULT UND _ZTVN7android3pdx3uds17Ch
49:   FUNC GLOBAL DEFAULT UND dup@LIBC (2)
50:   FUNC GLOBAL DEFAULT UND _ZN7android3pdx6Client11S
51:   FUNC GLOBAL DEFAULT UND _ZN7android13GraphicBuffe
52:   FUNC GLOBAL DEFAULT UND _ZN7android13GraphicBuffe
53:   FUNC GLOBAL DEFAULT UND _ZN7android13GraphicBuffe
54:   FUNC GLOBAL DEFAULT UND _ZN7android13GraphicBuffe
55:   FUNC GLOBAL DEFAULT UND _ZN7android13GraphicBuffe
56:   FUNC GLOBAL DEFAULT UND _ZN7android14sp_report_ra
57:   FUNC GLOBAL DEFAULT UND _ZNK7android13GraphicBuff
58:   FUNC GLOBAL DEFAULT UND _ZNK7android7RefBase9decS
59:   FUNC GLOBAL DEFAULT UND _ZNK7android7RefBase9incS
60:   FUNC GLOBAL DEFAULT UND native_handle_close
61:   FUNC GLOBAL DEFAULT UND native_handle_create
62:   FUNC GLOBAL DEFAULT UND native_handle_delete
63:   FUNC GLOBAL DEFAULT UND free@LIBC (2)
64:   FUNC GLOBAL DEFAULT UND malloc@LIBC (2)
65:   FUNC GLOBAL DEFAULT UND pthread_getspecific@LIBC (2)
66:   FUNC GLOBAL DEFAULT UND pthread_key_create@LIBC (2)
67:   FUNC GLOBAL DEFAULT UND pthread_key_delete@LIBC (2)
68:   FUNC GLOBAL DEFAULT UND pthread_mutex_lock@LIBC (2)
69:   FUNC GLOBAL DEFAULT UND pthread_mutex_unlock@LIBC (2)
70:   FUNC GLOBAL DEFAULT UND pthread_once@LIBC (2)
71:   FUNC GLOBAL DEFAULT UND pthread_setspecific@LIBC (2)
72:   FUNC GLOBAL DEFAULT UND realloc@LIBC (2)
73:   FUNC GLOBAL DEFAULT 14 _ZN7android3dvr13Consumer
74:   FUNC GLOBAL DEFAULT 14 _ZN7android3dvr14BufferHu
75:   OBJECT GLOBAL DEFAULT 18 _ZTVN7android3dvr13Consum
76:   FUNC GLOBAL DEFAULT 14 _ZN7android3dvr14Consumer
77:   FUNC GLOBAL DEFAULT 14 _ZN7android3dvr13Consumer
78:   FUNC GLOBAL DEFAULT 14 _ZN7android3dvr14BufferHu
79:   FUNC GLOBAL DEFAULT 14 _ZN7android3dvr14Consumer
80:   FUNC GLOBAL DEFAULT 14 _ZN7android3dvr14Producer
81:   OBJECT WEAK DEFAULT 18 _ZTVNSt3__120__shared_ptr
82:   OBJECT WEAK DEFAULT 11 __emutls_t._ZN7android3pd
83:   FUNC GLOBAL DEFAULT 14 _ZN7android3dvr13BufferHu
84:   FUNC GLOBAL DEFAULT 14 _ZN7android3dvr9IonBuffer
85:   FUNC GLOBAL DEFAULT 14 _ZN7android3dvr9IonBuffer
86:   FUNC GLOBAL DEFAULT 14 _ZN7android3dvr13Producer
87:   OBJECT WEAK DEFAULT 18 _ZTVN7android3pdx3rpc13Cl
88:   OBJECT WEAK DEFAULT 16 __emutls_v._ZGVZN7android
89:   FUNC GLOBAL DEFAULT 14 _ZN7android3dvr13Producer
90:   FUNC WEAK DEFAULT 14 _ZNSt3__16vectorImNS_9all
91:   OBJECT WEAK DEFAULT 11 _ZN7android3dvr12BufferHu
92:   FUNC GLOBAL DEFAULT 14 _ZN7android3dvr13Producer
93:   FUNC GLOBAL DEFAULT 14 _ZN7android3dvr14Producer
94:   FUNC GLOBAL DEFAULT 14 _ZN7android3dvr13BufferHu
95:   FUNC GLOBAL DEFAULT 14 _ZN7android3dvr9IonBuffer
96:   FUNC GLOBAL DEFAULT 14 _ZN7android3dvr14BufferHu
97:   FUNC GLOBAL DEFAULT 14 _ZN7android3dvr13BufferHu
98:   FUNC GLOBAL DEFAULT 14 _ZN7android3dvr9IonBuffer
99:   FUNC GLOBAL DEFAULT 14 _ZN7android3dvr13Consumer
100:   FUNC GLOBAL DEFAULT 14 __emutls_get_address
101:   FUNC GLOBAL DEFAULT 14 _ZN7android3dvr14Consumer
102:   FUNC GLOBAL DEFAULT 14 _ZN7android3dvr14Producer
103:   FUNC GLOBAL DEFAULT 14 _ZN7android3dvr13Consumer
104:   FUNC WEAK DEFAULT 14 _ZNSt3__120__shared_ptr_p
105:   FUNC WEAK DEFAULT 14 _ZN7android3dvr24BufferHu
106:   FUNC GLOBAL DEFAULT 14 _ZN7android3dvr13BufferHu
107:   FUNC GLOBAL DEFAULT 14 _ZN7android3dvr13BufferHu
108:   FUNC GLOBAL DEFAULT 14 _ZN7android3dvr14Producer
109:   FUNC GLOBAL DEFAULT 14 _ZN7android3dvr14Producer
110:   FUNC GLOBAL DEFAULT 14 _ZN7android3dvr14BufferHu
111:   FUNC GLOBAL DEFAULT 14 _ZN7android3dvr14BufferHu
112:   FUNC WEAK DEFAULT 14 _ZNSt3__111__sift_downIRN
113:   OBJECT GLOBAL DEFAULT 18 _ZTVN7android3dvr13Produc
114:   FUNC GLOBAL DEFAULT 14 _ZN7android3dvr9IonBuffer
115:   FUNC GLOBAL DEFAULT 14 _ZN7android3dvr14Producer
116:   FUNC GLOBAL DEFAULT 14 _ZN7android3dvr13Consumer
117:   FUNC GLOBAL DEFAULT 14 _ZN7android3dvr14BufferHu
118:   FUNC GLOBAL DEFAULT 14 _ZN7android3dvr14BufferHu
119:   OBJECT WEAK DEFAULT 16 __emutls_v._ZZN7android3p
120:   FUNC GLOBAL DEFAULT 14 _ZN7android3dvr9IonBuffer
121:   FUNC GLOBAL DEFAULT 14 _ZN7android3dvr14BufferHu
122:   OBJECT WEAK DEFAULT 16 __emutls_v._ZN7android3pd
123:   FUNC GLOBAL DEFAULT 14 _ZN7android3dvr14Producer
124:   FUNC GLOBAL DEFAULT 14 _ZN7android3dvr14Producer
125:   FUNC WEAK DEFAULT 14 _ZN7android3dvr24BufferHu
126:   FUNC GLOBAL DEFAULT 14 _ZN7android3dvr14Consumer
127:   FUNC GLOBAL DEFAULT 14 _ZN7android3dvr13Producer
128:   FUNC GLOBAL DEFAULT 14 _ZN7android3dvr14BufferHu
129:   OBJECT WEAK DEFAULT 18 _ZTVNSt3__120__shared_ptr
130:   FUNC GLOBAL DEFAULT 14 _ZN7android3dvr14Producer
131:   FUNC WEAK DEFAULT 14 _ZNSt3__120__shared_ptr_p
132:   OBJECT WEAK DEFAULT 18 _ZTVN7android3pdx10Client
133:   FUNC GLOBAL DEFAULT 14 _ZN7android3dvr9IonBuffer
134:   FUNC GLOBAL DEFAULT 14 _ZN7android3dvr14BufferHu
135:   FUNC WEAK DEFAULT 14 _ZNSt3__120__shared_ptr_p
136:   FUNC WEAK DEFAULT 14 _ZNSt3__19__sift_upIRN7an
137:   OBJECT WEAK DEFAULT 16 __emutls_v._ZN7android3pd
138:   FUNC WEAK DEFAULT 14 _ZNSt3__16vectorIhN7andro
139:   FUNC GLOBAL DEFAULT 14 _ZN7android3dvr13Producer
140:   FUNC GLOBAL DEFAULT 14 _ZN7android3dvr13Producer
141:   FUNC GLOBAL DEFAULT 14 _ZN7android3dvr14BufferHu
142:   FUNC GLOBAL DEFAULT 14 _ZN7android3dvr9IonBuffer
143:   FUNC GLOBAL DEFAULT 14 _ZN7android3dvr13Consumer
144:   FUNC GLOBAL DEFAULT 14 _ZN7android3dvr13Consumer
145:   FUNC GLOBAL DEFAULT 14 _ZN7android3dvr13BufferHu
146:   FUNC GLOBAL DEFAULT 14 _ZN7android3dvr9IonBuffer
147:   FUNC GLOBAL DEFAULT 14 _ZN7android3dvr13Producer
148:   FUNC GLOBAL DEFAULT 14 _ZN7android3dvr14BufferHu
149:   FUNC WEAK DEFAULT 14 _ZNSt3__16vectorIiNS_9all
150:   OBJECT GLOBAL DEFAULT 18 _ZTVN7android3dvr13Buffer
151:   OBJECT WEAK DEFAULT 18 _ZTVN7android3dvr14Consum
152:   FUNC GLOBAL DEFAULT 14 _ZN7android3dvr9IonBuffer
153:   FUNC WEAK DEFAULT 14 _ZN7android3dvr24BufferHu
154:   FUNC GLOBAL DEFAULT 14 _ZN7android3dvr14Consumer
155:   FUNC GLOBAL DEFAULT 14 _ZN7android3dvr14BufferHu
156:   FUNC GLOBAL DEFAULT 14 _ZN7android3dvr14BufferHu
157:   OBJECT WEAK DEFAULT 11 __emutls_t._ZN7android3pd
158:   FUNC WEAK DEFAULT 14 _ZN7android3dvr24BufferHu
159:   FUNC GLOBAL DEFAULT 14 _ZN7android3dvr13BufferHu
160:   FUNC GLOBAL DEFAULT 14 _ZN7android3dvr14Producer
161:   FUNC GLOBAL DEFAULT 14 _ZN7android3dvr13Producer
162:   FUNC GLOBAL DEFAULT 14 _ZN7android3dvr14BufferHu
163:   OBJECT WEAK DEFAULT 16 __emutls_v._ZGVZN7android
164:   FUNC GLOBAL DEFAULT 14 _ZN7android3dvr14Consumer
165:   FUNC GLOBAL DEFAULT 14 _ZN7android3dvr9IonBuffer
166:   FUNC GLOBAL DEFAULT 14 _ZN7android3dvr14Consumer
167:   FUNC GLOBAL DEFAULT 14 _ZN7android3dvr13BufferHu
168:   FUNC GLOBAL DEFAULT 14 _ZN7android3dvr9IonBuffer
169:   FUNC GLOBAL DEFAULT 14 _ZN7android3dvr9IonBuffer
170:   FUNC GLOBAL DEFAULT 14 _ZN7android3dvr9IonBuffer
171:   FUNC GLOBAL DEFAULT 14 _ZN7android3dvr14Producer
172:   FUNC GLOBAL DEFAULT 14 _ZN7android3dvr14Producer
173:   OBJECT WEAK DEFAULT 18 _ZTVN7android3pdx10Client
174:   FUNC GLOBAL DEFAULT 14 _ZN7android3dvr14BufferHu
175:   FUNC GLOBAL DEFAULT 14 _ZN7android3dvr14Consumer
176:   FUNC WEAK DEFAULT 14 _ZNK7android3dvr24BufferH
177:   FUNC WEAK DEFAULT 14 _ZNSt3__120__shared_ptr_p
178:   FUNC WEAK DEFAULT 14 _ZN7android3dvr24BufferHu
179:   FUNC GLOBAL DEFAULT 14 _ZN7android3dvr13Producer
180:   FUNC GLOBAL DEFAULT 14 _ZN7android3dvr13Producer
181:   FUNC WEAK DEFAULT 14 _ZNSt3__16vectorIN7androi
182:   OBJECT WEAK DEFAULT 18 _ZTVN7android3dvr24Buffer
183:   FUNC WEAK DEFAULT 14 _ZN7android3dvr24BufferHu
184:   FUNC GLOBAL DEFAULT 14 _ZN7android3dvr13BufferHu
185:   FUNC GLOBAL DEFAULT 14 _ZN7android3dvr14Consumer
186:   FUNC GLOBAL DEFAULT 14 _ZN7android3dvr14Consumer
187:   FUNC GLOBAL DEFAULT 14 _ZN7android3dvr9IonBuffer
188:   FUNC GLOBAL DEFAULT 14 _ZN7android3dvr9IonBuffer
189:   FUNC GLOBAL DEFAULT 14 _ZN7android3dvr13Consumer
190:   FUNC GLOBAL DEFAULT 14 _ZN7android3dvr14BufferHu
191:   FUNC GLOBAL DEFAULT 14 _ZN7android3dvr13BufferHu
192:   FUNC GLOBAL DEFAULT 14 _ZN7android3dvr14Producer
193:   OBJECT WEAK DEFAULT 18 _ZTVN7android3dvr14Produc
194:   FUNC GLOBAL DEFAULT 14 _ZN7android3dvr9IonBuffer
195:   OBJECT WEAK DEFAULT 16 __emutls_v._ZZN7android3p
196:   FUNC GLOBAL DEFAULT 14 _ZN7android3dvr14Consumer
197:   FUNC GLOBAL DEFAULT 14 _ZN7android3dvr14Consumer
198:   OBJECT GLOBAL DEFAULT 18 _ZTVN7android3dvr14Buffer
199:   FUNC WEAK DEFAULT 14 _ZNK7android3dvr24BufferH
200:   FUNC GLOBAL DEFAULT 14 _ZN7android3dvr9IonBuffer
201:   FUNC GLOBAL DEFAULT 14 _ZN7android3dvr14BufferHu
202:   FUNC GLOBAL DEFAULT 14 _ZN7android3dvr14BufferHu
203:   FUNC WEAK DEFAULT 14 _ZN7android3dvr24BufferHu
204:   FUNC WEAK DEFAULT 14 _ZNK7android3dvr24BufferH
205:   OBJECT WEAK DEFAULT 18 _ZTVN7android3pdx3rpc13Cl
206:   FUNC GLOBAL DEFAULT 14 _ZN7android3dvr13BufferHu
207:   FUNC GLOBAL DEFAULT 14 _ZN7android3dvr13Producer
208:   FUNC GLOBAL DEFAULT 14 _ZN7android3dvr13BufferHu
209:   FUNC GLOBAL DEFAULT 14 _ZN7android3dvr14Consumer
210:   FUNC GLOBAL DEFAULT 14 _ZN7android3dvr9IonBuffer
211:   OBJECT WEAK DEFAULT 18 _ZTVN7android3dvr24Buffer
212:   FUNC GLOBAL DEFAULT 14 _ZN7android3dvr14Producer
213:   FUNC GLOBAL DEFAULT 14 _ZN7android3dvr13Producer
214:   FUNC GLOBAL DEFAULT 14 _ZN7android3dvr13Producer
215:   FUNC GLOBAL DEFAULT 14 _ZN7android3dvr14BufferHu
216:   FUNC GLOBAL DEFAULT 14 _ZN7android3dvr14BufferHu
217:   FUNC WEAK DEFAULT 14 _ZN7android3dvr24BufferHu
218:   FUNC GLOBAL DEFAULT 14 _ZNK7android3dvr13BufferH
219:   FUNC GLOBAL DEFAULT 14 _ZN7android3dvr9IonBuffer
220:   OBJECT WEAK DEFAULT 18 _ZTVN7android3pdx10Client
221:   FUNC WEAK DEFAULT 14 _ZN7android3dvr24BufferHu
222:   FUNC GLOBAL DEFAULT 14 _ZN7android3dvr13BufferHu
223:   FUNC WEAK DEFAULT 14 _ZNK7android3dvr24BufferH
224:   FUNC GLOBAL DEFAULT 14 _ZN7android3dvr9IonBuffer
225:   FUNC GLOBAL DEFAULT 14 _ZN7android3dvr9IonBuffer
226:   FUNC GLOBAL DEFAULT 14 _ZN7android3dvr14Producer
227:   FUNC WEAK DEFAULT 14 _ZN7android3dvr24BufferHu
228:   FUNC GLOBAL DEFAULT 14 _ZN7android3dvr14Producer
