 0x000000000000000e (SONAME)             Library soname: [android.hardware.vibrator@1.3.so]
  
Symbol   contains 300 entries:
Num:   Type Bind Vis Ndx Name
0:   NOTYPE LOCAL DEFAULT UND
1:   FUNC GLOBAL DEFAULT UND __cxa_finalize@LIBC (2)
2:   FUNC GLOBAL DEFAULT UND _ZN7android14sp_report_ra
3:   FUNC GLOBAL DEFAULT UND _ZN7android21report_syspr
4:   OBJECT GLOBAL DEFAULT UND _ZN7android4hidl4base4V1_
5:   FUNC GLOBAL DEFAULT UND _ZN7android4hidl4base4V1_
6:   FUNC GLOBAL DEFAULT UND _ZN7android4hidl4base4V1_
7:   FUNC GLOBAL DEFAULT UND _ZN7android4hidl4base4V1_
8:   FUNC GLOBAL DEFAULT UND _ZN7android4hidl4base4V1_
9:   FUNC GLOBAL DEFAULT UND _ZN7android4hidl4base4V1_
10:   FUNC GLOBAL DEFAULT UND _ZN7android4hidl4base4V1_
11:   FUNC GLOBAL DEFAULT UND _ZN7android4hidl4base4V1_
12:   FUNC GLOBAL DEFAULT UND _ZN7android4hidl4base4V1_
13:   FUNC GLOBAL DEFAULT UND _ZN7android4hidl4base4V1_
14:   FUNC GLOBAL DEFAULT UND _ZN7android4hidl4base4V1_
15:   FUNC GLOBAL DEFAULT UND _ZN7android4hidl4base4V1_
16:   FUNC GLOBAL DEFAULT UND _ZN7android4hidl4base4V1_
17:   FUNC GLOBAL DEFAULT UND _ZN7android4hidl4base4V1_
18:   FUNC GLOBAL DEFAULT UND _ZN7android4hidl4base4V1_
19:   FUNC GLOBAL DEFAULT UND _ZN7android4hidl4base4V1_
20:   FUNC GLOBAL DEFAULT UND _ZN7android4hidl4base4V1_
21:   FUNC GLOBAL DEFAULT UND _ZN7android4hidl4base4V1_
22:   FUNC GLOBAL DEFAULT UND _ZN7android4hidl4base4V1_
23:   FUNC GLOBAL DEFAULT UND _ZN7android4hidl4base4V1_
24:   FUNC GLOBAL DEFAULT UND _ZN7android4hidl4base4V1_
25:   FUNC GLOBAL DEFAULT UND _ZN7android4hidl4base4V1_
26:   FUNC GLOBAL DEFAULT UND _ZN7android4hidl4base4V1_
27:   FUNC GLOBAL DEFAULT UND _ZN7android4hidl4base4V1_
28:   FUNC GLOBAL DEFAULT UND _ZN7android7RefBase10onFi
29:   FUNC GLOBAL DEFAULT UND _ZN7android7RefBase12weak
30:   FUNC GLOBAL DEFAULT UND _ZN7android7RefBase13onLa
31:   FUNC GLOBAL DEFAULT UND _ZN7android7RefBase15onLa
32:   FUNC GLOBAL DEFAULT UND _ZN7android7RefBase20onIn
33:   FUNC GLOBAL DEFAULT UND _ZN7android7RefBaseC2Ev
34:   FUNC GLOBAL DEFAULT UND _ZN7android7RefBaseD2Ev
35:   FUNC GLOBAL DEFAULT UND _ZN7android8hardware10IIn
36:   FUNC GLOBAL DEFAULT UND _ZN7android8hardware10IIn
37:   FUNC GLOBAL DEFAULT UND _ZN7android8hardware10IIn
38:   FUNC GLOBAL DEFAULT UND _ZN7android8hardware10IIn
39:   FUNC GLOBAL DEFAULT UND _ZN7android8hardware10IIn
40:   FUNC GLOBAL DEFAULT UND _ZN7android8hardware11BpH
41:   FUNC GLOBAL DEFAULT UND _ZN7android8hardware11BpH
42:   FUNC GLOBAL DEFAULT UND _ZN7android8hardware11BpH
43:   FUNC GLOBAL DEFAULT UND _ZN7android8hardware11BpH
44:   FUNC GLOBAL DEFAULT UND _ZN7android8hardware11BpH
45:   FUNC GLOBAL DEFAULT UND _ZN7android8hardware11BpH
46:   FUNC GLOBAL DEFAULT UND _ZN7android8hardware11BpH
47:   FUNC GLOBAL DEFAULT UND _ZN7android8hardware11hid
48:   FUNC GLOBAL DEFAULT UND _ZN7android8hardware11hid
49:   FUNC GLOBAL DEFAULT UND _ZN7android8hardware11hid
50:   FUNC GLOBAL DEFAULT UND _ZN7android8hardware11hid
51:   FUNC GLOBAL DEFAULT UND _ZN7android8hardware11hid
52:   FUNC GLOBAL DEFAULT UND _ZN7android8hardware12Pro
53:   FUNC GLOBAL DEFAULT UND _ZN7android8hardware12Pro
54:   FUNC GLOBAL DEFAULT UND _ZN7android8hardware13wri
55:   FUNC GLOBAL DEFAULT UND _ZN7android8hardware14rea
56:   FUNC GLOBAL DEFAULT UND _ZN7android8hardware21def
57:   FUNC GLOBAL DEFAULT UND _ZN7android8hardware23get
58:   FUNC GLOBAL DEFAULT UND _ZN7android8hardware27hid
59:   FUNC GLOBAL DEFAULT UND _ZN7android8hardware27hid
60:   FUNC GLOBAL DEFAULT UND _ZN7android8hardware6Parc
61:   FUNC GLOBAL DEFAULT UND _ZN7android8hardware6Parc
62:   FUNC GLOBAL DEFAULT UND _ZN7android8hardware6Parc
63:   FUNC GLOBAL DEFAULT UND _ZN7android8hardware6Parc
64:   FUNC GLOBAL DEFAULT UND _ZN7android8hardware6Parc
65:   FUNC GLOBAL DEFAULT UND _ZN7android8hardware6Parc
66:   FUNC GLOBAL DEFAULT UND _ZN7android8hardware6Stat
67:   FUNC GLOBAL DEFAULT UND _ZN7android8hardware6Stat
68:   FUNC GLOBAL DEFAULT UND _ZN7android8hardware6Stat
69:   FUNC GLOBAL DEFAULT UND _ZN7android8hardware6Stat
70:   FUNC GLOBAL DEFAULT UND _ZN7android8hardware7IBin
71:   FUNC GLOBAL DEFAULT UND _ZN7android8hardware7IBin
72:   FUNC GLOBAL DEFAULT UND _ZN7android8hardware7IBin
73:   FUNC GLOBAL DEFAULT UND _ZN7android8hardware7IBin
74:   FUNC GLOBAL DEFAULT UND _ZN7android8hardware7deta
75:   FUNC GLOBAL DEFAULT UND _ZN7android8hardware7deta
76:   FUNC GLOBAL DEFAULT UND _ZN7android8hardware7deta
77:   FUNC GLOBAL DEFAULT UND _ZN7android8hardware7deta
78:   FUNC GLOBAL DEFAULT UND _ZN7android8hardware7deta
79:   FUNC GLOBAL DEFAULT UND _ZN7android8hardware7deta
80:   FUNC GLOBAL DEFAULT UND _ZN7android8hardware7deta
81:   OBJECT GLOBAL DEFAULT UND _ZN7android8hardware7deta
82:   FUNC GLOBAL DEFAULT UND _ZN7android8hardware7deta
83:   OBJECT GLOBAL DEFAULT UND _ZN7android8hardware7deta
84:   FUNC GLOBAL DEFAULT UND _ZN7android8hardware7deta
85:   FUNC GLOBAL DEFAULT UND _ZN7android8hardware7deta
86:   FUNC GLOBAL DEFAULT UND _ZN7android8hardware7deta
87:   FUNC GLOBAL DEFAULT UND _ZN7android8hardware7deta
88:   FUNC GLOBAL DEFAULT UND _ZN7android8hardware7deta
89:   FUNC GLOBAL DEFAULT UND _ZN7android8hardware7deta
90:   FUNC GLOBAL DEFAULT UND _ZN7android8hardware7deta
91:   FUNC GLOBAL DEFAULT UND _ZN7android8hardware7deta
92:   FUNC GLOBAL DEFAULT UND _ZN7android8hardware7deta
93:   OBJECT GLOBAL DEFAULT UND _ZN7android8hardware7deta
94:   FUNC GLOBAL DEFAULT UND _ZN7android8hardware8vibr
95:   FUNC GLOBAL DEFAULT UND _ZN7android8hardware8vibr
96:   FUNC GLOBAL DEFAULT UND _ZN7android8hardware8vibr
97:   FUNC GLOBAL DEFAULT UND _ZN7android8hardware8vibr
98:   FUNC GLOBAL DEFAULT UND _ZN7android8hardware8vibr
99:   FUNC GLOBAL DEFAULT UND _ZN7android8hardware8vibr
100:   FUNC GLOBAL DEFAULT UND _ZN7android8hardware8vibr
101:   FUNC GLOBAL DEFAULT UND _ZN7android8hardware8vibr
102:   FUNC GLOBAL DEFAULT UND _ZN7android8hardware8vibr
103:   FUNC GLOBAL DEFAULT UND _ZN7android8hardware8vibr
104:   OBJECT GLOBAL DEFAULT UND _ZN7android8hardware8vibr
105:   FUNC GLOBAL DEFAULT UND _ZN7android8hardware8vibr
106:   FUNC GLOBAL DEFAULT UND _ZN7android8hardware8vibr
107:   FUNC GLOBAL DEFAULT UND _ZN7android8hardware8vibr
108:   FUNC GLOBAL DEFAULT UND _ZN7android8hardware8vibr
109:   FUNC GLOBAL DEFAULT UND _ZN7android8hardware8vibr
110:   FUNC GLOBAL DEFAULT UND _ZN7android8hardware8vibr
111:   FUNC GLOBAL DEFAULT UND _ZN7android8hardware8vibr
112:   FUNC GLOBAL DEFAULT UND _ZN7android8hardware8vibr
113:   FUNC GLOBAL DEFAULT UND _ZN7android8hardware8vibr
114:   FUNC GLOBAL DEFAULT UND _ZN7android8hardware8vibr
115:   FUNC GLOBAL DEFAULT UND _ZN7android8hardware8vibr
116:   FUNC GLOBAL DEFAULT UND _ZN7android8hardware8vibr
117:   OBJECT GLOBAL DEFAULT UND _ZN7android8hardware8vibr
118:   FUNC GLOBAL DEFAULT UND _ZN7android8hardware8vibr
119:   FUNC GLOBAL DEFAULT UND _ZN7android8hardware8vibr
120:   FUNC GLOBAL DEFAULT UND _ZN7android8hardware8vibr
121:   FUNC GLOBAL DEFAULT UND _ZN7android8hardware8vibr
122:   FUNC GLOBAL DEFAULT UND _ZN7android8hardware8vibr
123:   FUNC GLOBAL DEFAULT UND _ZN7android8hardware8vibr
124:   FUNC GLOBAL DEFAULT UND _ZN7android8hardware8vibr
125:   FUNC GLOBAL DEFAULT UND _ZN7android8hardware8vibr
126:   FUNC GLOBAL DEFAULT UND _ZN7android8hardware8vibr
127:   FUNC GLOBAL DEFAULT UND _ZN7android8hardware8vibr
128:   FUNC GLOBAL DEFAULT UND _ZN7android8hardware8vibr
129:   FUNC GLOBAL DEFAULT UND _ZN7android8hardware8vibr
130:   OBJECT GLOBAL DEFAULT UND _ZN7android8hardware8vibr
131:   FUNC GLOBAL DEFAULT UND _ZN7android8hardware8vibr
132:   FUNC GLOBAL DEFAULT UND _ZN7android8hardware8vibr
133:   FUNC GLOBAL DEFAULT UND _ZN7android8hardware8vibr
134:   FUNC GLOBAL DEFAULT UND _ZN7android8hardware8vibr
135:   FUNC GLOBAL DEFAULT UND _ZN7android8hardware8vibr
136:   FUNC GLOBAL DEFAULT UND _ZN7android8hardware8vibr
137:   FUNC GLOBAL DEFAULT UND _ZN7android8hardware8vibr
138:   FUNC GLOBAL DEFAULT UND _ZN7android8hardware8vibr
139:   FUNC GLOBAL DEFAULT UND _ZN7android8hardware8vibr
140:   FUNC GLOBAL DEFAULT UND _ZN7android8hardware8vibr
141:   FUNC GLOBAL DEFAULT UND _ZN7android8hardware9BHwB
142:   FUNC GLOBAL DEFAULT UND _ZN7android8hardware9BHwB
143:   FUNC GLOBAL DEFAULT UND _ZN7android8hardware9BHwB
144:   FUNC GLOBAL DEFAULT UND _ZN7android8hardware9BHwB
145:   FUNC GLOBAL DEFAULT UND _ZN7android8hardware9BHwB
146:   FUNC GLOBAL DEFAULT UND _ZN7android8hardware9BHwB
147:   FUNC GLOBAL DEFAULT UND _ZN7android8hardware9BHwB
148:   FUNC GLOBAL DEFAULT UND _ZN7android8hardware9BHwB
149:   FUNC GLOBAL DEFAULT UND _ZN7android8hardware9BHwB
150:   FUNC GLOBAL DEFAULT UND _ZN7android8hardware9BHwB
151:   FUNC GLOBAL DEFAULT UND _ZNK7android7RefBase10cre
152:   FUNC GLOBAL DEFAULT UND _ZNK7android7RefBase11get
153:   FUNC GLOBAL DEFAULT UND _ZNK7android7RefBase9decS
154:   FUNC GLOBAL DEFAULT UND _ZNK7android7RefBase9incS
155:   FUNC GLOBAL DEFAULT UND _ZNK7android8hardware6Par
156:   FUNC GLOBAL DEFAULT UND _ZNK7android8hardware6Par
157:   FUNC GLOBAL DEFAULT UND _ZNK7android8hardware6Par
158:   FUNC GLOBAL DEFAULT UND _ZNK7android8hardware6Par
159:   FUNC GLOBAL DEFAULT UND _ZNK7android8hardware7IBi
160:   FUNC GLOBAL DEFAULT UND _ZNK7android8hardware7det
161:   FUNC GLOBAL DEFAULT UND _ZNK7android8hardware9BHw
162:   FUNC GLOBAL DEFAULT UND _ZNKSt3__120__vector_base
163:   FUNC GLOBAL DEFAULT UND _ZNKSt3__121__basic_strin
164:   FUNC GLOBAL DEFAULT UND _ZNSt3__112basic_stringIc
165:   FUNC GLOBAL DEFAULT UND _ZNSt3__15mutex4lockEv
166:   FUNC GLOBAL DEFAULT UND _ZNSt3__15mutex6unlockEv
167:   FUNC GLOBAL DEFAULT UND _ZNSt3__15mutexD1Ev
168:   FUNC GLOBAL DEFAULT UND _ZTv0_n24_N7android4hidl4
169:   FUNC GLOBAL DEFAULT UND _ZTv0_n24_N7android4hidl4
170:   FUNC GLOBAL DEFAULT UND _ZTv0_n24_N7android8hardw
171:   FUNC GLOBAL DEFAULT UND _ZTv0_n24_N7android8hardw
172:   FUNC GLOBAL DEFAULT UND _ZTv0_n24_N7android8hardw
173:   FUNC GLOBAL DEFAULT UND _ZTv0_n24_N7android8hardw
174:   FUNC GLOBAL DEFAULT UND _ZTv0_n24_N7android8hardw
175:   FUNC GLOBAL DEFAULT UND _ZTv0_n24_N7android8hardw
176:   FUNC GLOBAL DEFAULT UND _ZTv0_n24_N7android8hardw
177:   FUNC GLOBAL DEFAULT UND _ZTv0_n24_N7android8hardw
178:   FUNC GLOBAL DEFAULT UND _ZTv0_n32_N7android8hardw
179:   FUNC GLOBAL DEFAULT UND _ZTv0_n40_N7android8hardw
180:   FUNC GLOBAL DEFAULT UND _ZTv0_n48_N7android8hardw
181:   FUNC GLOBAL DEFAULT UND _ZdaPv
182:   FUNC GLOBAL DEFAULT UND _ZdlPv
183:   FUNC GLOBAL DEFAULT UND _Znam
184:   FUNC GLOBAL DEFAULT UND _Znwm
185:   FUNC GLOBAL DEFAULT UND __android_log_assert@LIBLOG (3)
186:   FUNC GLOBAL DEFAULT UND __cxa_pure_virtual
187:   FUNC GLOBAL DEFAULT UND __stack_chk_fail@LIBC (2)
188:   FUNC GLOBAL DEFAULT UND abort@LIBC (2)
189:   FUNC GLOBAL DEFAULT UND atrace_begin_body
190:   OBJECT GLOBAL DEFAULT UND atrace_enabled_tags
191:   FUNC GLOBAL DEFAULT UND atrace_end_body
192:   OBJECT GLOBAL DEFAULT UND atrace_is_ready
193:   FUNC GLOBAL DEFAULT UND atrace_setup
194:   FUNC GLOBAL DEFAULT UND memcmp@LIBC (2)
195:   FUNC GLOBAL DEFAULT UND memcpy@LIBC (2)
196:   FUNC GLOBAL DEFAULT UND memset@LIBC (2)
197:   FUNC GLOBAL DEFAULT UND strlen@LIBC (2)
198:   FUNC GLOBAL DEFAULT 14 _ZN7android8hardware8vibr
199:   FUNC WEAK DEFAULT 14 _ZNSt3__16__treeINS_12__v
200:   OBJECT GLOBAL DEFAULT 18 _ZTCN7android8hardware8vi
201:   OBJECT GLOBAL DEFAULT 18 _ZTCN7android8hardware8vi
202:   FUNC WEAK DEFAULT 14 _ZN7android8hardware7deta
203:   FUNC GLOBAL DEFAULT 14 _ZN7android8hardware8vibr
204:   FUNC GLOBAL DEFAULT 14 _ZN7android8hardware8vibr
205:   FUNC GLOBAL DEFAULT 14 _ZN7android8hardware8vibr
206:   FUNC GLOBAL DEFAULT 14 _ZN7android8hardware8vibr
207:   FUNC GLOBAL DEFAULT 14 _ZN7android8hardware8vibr
208:   OBJECT GLOBAL DEFAULT 18 _ZTCN7android8hardware8vi
209:   FUNC GLOBAL DEFAULT 14 _ZTv0_n24_N7android8hardw
210:   FUNC GLOBAL DEFAULT 14 _ZN7android8hardware8vibr
211:   OBJECT GLOBAL DEFAULT 16 _ZN7android8hardware8vibr
212:   FUNC WEAK DEFAULT 14 _ZNSt3__127__tree_balance
213:   FUNC WEAK DEFAULT 14 _ZNSt3__16__treeINS_12__v
214:   OBJECT GLOBAL DEFAULT 18 _ZTCN7android8hardware8vi
215:   FUNC GLOBAL DEFAULT 14 _ZN7android8hardware8vibr
216:   FUNC GLOBAL DEFAULT 14 _ZN7android8hardware8vibr
217:   FUNC GLOBAL DEFAULT 14 _ZN7android8hardware8vibr
218:   FUNC GLOBAL DEFAULT 14 _ZN7android8hardware8vibr
219:   OBJECT GLOBAL DEFAULT 18 _ZTCN7android8hardware8vi
220:   FUNC GLOBAL DEFAULT 14 _ZN7android8hardware8vibr
221:   OBJECT GLOBAL DEFAULT 18 _ZTCN7android8hardware8vi
222:   FUNC GLOBAL DEFAULT 14 _ZN7android8hardware8vibr
223:   FUNC GLOBAL DEFAULT 14 _ZN7android8hardware8vibr
224:   FUNC GLOBAL DEFAULT 14 _ZN7android8hardware8vibr
225:   FUNC GLOBAL DEFAULT 14 _ZN7android8hardware8vibr
226:   FUNC GLOBAL DEFAULT 14 _ZN7android8hardware8vibr
227:   FUNC GLOBAL DEFAULT 14 _ZN7android8hardware8vibr
228:   OBJECT WEAK DEFAULT 18 _ZTCN7android8hardware8vi
229:   OBJECT GLOBAL DEFAULT 18 _ZTTN7android8hardware8vi
230:   FUNC WEAK DEFAULT 14 _ZNSt3__16__treeINS_12__v
231:   FUNC GLOBAL DEFAULT 14 _ZN7android8hardware8vibr
232:   FUNC WEAK DEFAULT 14 _ZNSt3__16vectorINS_8func
233:   OBJECT GLOBAL DEFAULT 18 _ZTCN7android8hardware8vi
234:   OBJECT GLOBAL DEFAULT 18 _ZTCN7android8hardware8vi
235:   FUNC GLOBAL DEFAULT 14 _ZN7android8hardware8vibr
236:   FUNC GLOBAL DEFAULT 14 _ZN7android8hardware8vibr
237:   FUNC GLOBAL DEFAULT 14 _ZN7android8hardware8vibr
238:   FUNC GLOBAL DEFAULT 14 _ZN7android8hardware8vibr
239:   FUNC WEAK DEFAULT 14 _ZN7android8hardware7deta
240:   FUNC WEAK DEFAULT 14 _ZNSt3__16__treeINS_12__v
241:   FUNC GLOBAL DEFAULT 14 _ZThn32_N7android8hardwar
242:   FUNC GLOBAL DEFAULT 14 _ZN7android8hardware8vibr
243:   FUNC GLOBAL DEFAULT 14 _ZN7android8hardware8vibr
244:   FUNC WEAK DEFAULT 14 _ZNSt3__16__treeINS_12__v
245:   FUNC WEAK DEFAULT 14 _ZN7android8hardware7deta
246:   FUNC GLOBAL DEFAULT 14 _ZN7android8hardware8vibr
247:   FUNC GLOBAL DEFAULT 14 _ZN7android8hardware8vibr
248:   FUNC GLOBAL DEFAULT 14 _ZN7android8hardware8vibr
249:   FUNC GLOBAL DEFAULT 14 _ZN7android8hardware8vibr
250:   FUNC WEAK DEFAULT 14 _ZNSt3__113__tree_removeI
251:   OBJECT GLOBAL DEFAULT 18 _ZTCN7android8hardware8vi
252:   OBJECT GLOBAL DEFAULT 18 _ZTCN7android8hardware8vi
253:   FUNC GLOBAL DEFAULT 14 _ZTv0_n24_N7android8hardw
254:   FUNC GLOBAL DEFAULT 14 _ZN7android8hardware8vibr
255:   OBJECT GLOBAL DEFAULT 18 _ZTCN7android8hardware8vi
256:   OBJECT GLOBAL DEFAULT 18 _ZTTN7android8hardware8vi
257:   FUNC GLOBAL DEFAULT 14 _ZN7android8hardware8vibr
258:   FUNC GLOBAL DEFAULT 14 _ZN7android8hardware8vibr
259:   FUNC GLOBAL DEFAULT 14 _ZN7android8hardware8vibr
260:   FUNC GLOBAL DEFAULT 14 _ZN7android8hardware8vibr
261:   FUNC GLOBAL DEFAULT 14 _ZN7android8hardware8vibr
262:   FUNC GLOBAL DEFAULT 14 _ZN7android8hardware8vibr
263:   FUNC GLOBAL DEFAULT 14 _ZN7android8hardware8vibr
264:   FUNC GLOBAL DEFAULT 14 _ZN7android8hardware8vibr
265:   FUNC WEAK DEFAULT 14 _ZNSt3__16__treeINS_12__v
266:   OBJECT GLOBAL DEFAULT 18 _ZTCN7android8hardware8vi
267:   OBJECT GLOBAL DEFAULT 18 _ZTCN7android8hardware8vi
268:   FUNC GLOBAL DEFAULT 14 _ZN7android8hardware8vibr
269:   FUNC GLOBAL DEFAULT 14 _ZN7android8hardware8vibr
270:   FUNC GLOBAL DEFAULT 14 _ZN7android8hardware8vibr
271:   OBJECT GLOBAL DEFAULT 18 _ZTVN7android8hardware8vi
272:   FUNC GLOBAL DEFAULT 14 _ZN7android8hardware8vibr
273:   FUNC GLOBAL DEFAULT 14 _ZN7android8hardware8vibr
274:   FUNC WEAK DEFAULT 14 _ZNSt3__16vectorIPvNS_9al
275:   FUNC GLOBAL DEFAULT 14 _ZN7android8hardware8vibr
276:   FUNC GLOBAL DEFAULT 14 _ZN7android8hardware8vibr
277:   FUNC GLOBAL DEFAULT 14 _ZN7android8hardware8vibr
278:   FUNC GLOBAL DEFAULT 14 _ZN7android8hardware8vibr
279:   OBJECT GLOBAL DEFAULT 18 _ZTCN7android8hardware8vi
280:   OBJECT GLOBAL DEFAULT 18 _ZTVN7android8hardware8vi
281:   FUNC WEAK DEFAULT 14 _ZN7android8hardware7deta
282:   FUNC GLOBAL DEFAULT 14 _ZN7android8hardware8vibr
283:   FUNC GLOBAL DEFAULT 14 _ZN7android8hardware8vibr
284:   FUNC GLOBAL DEFAULT 14 _ZN7android8hardware8vibr
285:   FUNC WEAK DEFAULT 14 _ZNSt3__16vectorIN7androi
286:   OBJECT GLOBAL DEFAULT 18 _ZTCN7android8hardware8vi
287:   FUNC GLOBAL DEFAULT 14 _ZN7android8hardware8vibr
288:   FUNC GLOBAL DEFAULT 14 _ZN7android8hardware8vibr
289:   OBJECT GLOBAL DEFAULT 18 _ZTVN7android8hardware8vi
290:   FUNC GLOBAL DEFAULT 14 _ZN7android8hardware8vibr
291:   FUNC GLOBAL DEFAULT 14 _ZN7android8hardware8vibr
292:   FUNC WEAK DEFAULT 14 _ZN7android8hardware7deta
293:   FUNC GLOBAL DEFAULT 14 _ZN7android8hardware8vibr
294:   FUNC GLOBAL DEFAULT 14 _ZN7android8hardware8vibr
295:   FUNC GLOBAL DEFAULT 14 _ZN7android8hardware8vibr
296:   FUNC GLOBAL DEFAULT 14 _ZN7android8hardware8vibr
297:   OBJECT GLOBAL DEFAULT 18 _ZTTN7android8hardware8vi
298:   OBJECT WEAK DEFAULT 18 _ZTVN7android8hardware8vi
299:   FUNC GLOBAL DEFAULT 14 _ZThn32_N7android8hardwar
