 0x000000000000000e (SONAME)             Library soname: [android.hardware.input.common@1.0.so]
  
Symbol   contains 11 entries:
Num:   Type Bind Vis Ndx Name
0:   NOTYPE LOCAL DEFAULT UND
1:   FUNC GLOBAL DEFAULT UND __cxa_finalize@LIBC (2)
2:   FUNC GLOBAL DEFAULT UND _ZN7android8hardware6Parc
3:   FUNC GLOBAL DEFAULT UND _ZNK7android8hardware6Par
4:   FUNC GLOBAL DEFAULT UND __stack_chk_fail@LIBC (2)
5:   FUNC GLOBAL DEFAULT 12 _ZN7android8hardware5inpu
6:   FUNC GLOBAL DEFAULT 12 _ZN7android8hardware5inpu
7:   FUNC GLOBAL DEFAULT 12 _ZN7android8hardware5inpu
8:   FUNC GLOBAL DEFAULT 12 _ZN7android8hardware5inpu
9:   FUNC GLOBAL DEFAULT 12 _ZN7android8hardware5inpu
10:   FUNC GLOBAL DEFAULT 12 _ZN7android8hardware5inpu
