 0x0000000e (SONAME)                     Library soname: [liblog.so]
  
Symbol   contains 40 entries:
Num:   Type Bind Vis Ndx Name
0:   NOTYPE LOCAL DEFAULT UND
1:   FUNC GLOBAL DEFAULT 8 android_name_to_log_id@@LIBLOG
2:   FUNC GLOBAL DEFAULT 8 __android_log_assert@@LIBLOG
3:   FUNC GLOBAL DEFAULT 8 __android_log_write@@LIBLOG
4:   FUNC GLOBAL DEFAULT 8 create_android_logger@@LIBLOG_M
5:   FUNC GLOBAL DEFAULT 8 __android_log_buf_print@@LIBLOG
6:   FUNC GLOBAL DEFAULT 8 android_log_destroy@@LIBLOG_M
7:   FUNC GLOBAL DEFAULT 8 android_log_write_list_be@@LIBLOG_M
8:   FUNC GLOBAL DEFAULT 8 android_log_write_list_en@@LIBLOG_M
9:   FUNC GLOBAL DEFAULT 8 android_logger_get_log_si@@LIBLOG_L
10:   FUNC GLOBAL DEFAULT 8 android_logger_get_prune_@@LIBLOG_M
11:   FUNC GLOBAL DEFAULT 8 android_logger_open@@LIBLOG_L
12:   FUNC GLOBAL DEFAULT 8 __android_log_is_debuggab@@LIBLOG_O
13:   FUNC GLOBAL DEFAULT 8 __android_log_is_loggable@@LIBLOG_O
14:   FUNC GLOBAL DEFAULT 8 android_log_write_string8@@LIBLOG_M
15:   FUNC GLOBAL DEFAULT 8 android_logger_get_log_ve@@LIBLOG_L
16:   FUNC GLOBAL DEFAULT 8 __android_log_vprint@@LIBLOG
17:   FUNC GLOBAL DEFAULT 8 android_log_write_string8@@LIBLOG_M
18:   FUNC GLOBAL DEFAULT 8 android_logger_get_statis@@LIBLOG_M
19:   FUNC GLOBAL DEFAULT 8 __android_log_buf_write@@LIBLOG
20:   FUNC GLOBAL DEFAULT 8 android_log_parser_reset@@LIBLOG_Q
21:   FUNC GLOBAL DEFAULT 8 android_logger_clear@@LIBLOG_L
22:   FUNC GLOBAL DEFAULT 8 android_logger_get_id@@LIBLOG_L
23:   FUNC GLOBAL DEFAULT 8 android_logger_get_log_re@@LIBLOG_L
24:   FUNC GLOBAL DEFAULT 8 android_logger_list_alloc@@LIBLOG_L
25:   FUNC GLOBAL DEFAULT 8 android_logger_list_alloc@@LIBLOG_L
26:   FUNC GLOBAL DEFAULT 8 android_logger_list_free@@LIBLOG_L
27:   FUNC GLOBAL DEFAULT 8 android_logger_list_open@@LIBLOG_L
28:   FUNC GLOBAL DEFAULT 8 android_logger_set_prune_@@LIBLOG_M
29:   FUNC GLOBAL DEFAULT 8 __android_log_is_loggable@@LIBLOG_M
30:   FUNC GLOBAL DEFAULT 8 android_log_write_int32@@LIBLOG_M
31:   FUNC GLOBAL DEFAULT 8 android_logger_set_log_si@@LIBLOG_L
32:   FUNC GLOBAL DEFAULT 8 __android_log_print@@LIBLOG
33:   FUNC GLOBAL DEFAULT 8 android_log_id_to_name@@LIBLOG
34:   FUNC GLOBAL DEFAULT 8 android_log_reset@@LIBLOG_Q
35:   FUNC GLOBAL DEFAULT 8 android_log_write_float32@@LIBLOG_M
36:   FUNC GLOBAL DEFAULT 8 android_log_write_list@@LIBLOG_M
37:   FUNC GLOBAL DEFAULT 8 android_logger_list_read@@LIBLOG_L
38:   FUNC GLOBAL DEFAULT 8 __android_log_error_write@@LIBLOG_M
39:   FUNC GLOBAL DEFAULT 8 android_log_write_int64@@LIBLOG_M
