 0x000000000000000e (SONAME)             Library soname: [android.hardware.contexthub@1.0.so]
  
Symbol   contains 348 entries:
Num:   Type Bind Vis Ndx Name
0:   NOTYPE LOCAL DEFAULT UND
1:   FUNC GLOBAL DEFAULT UND __cxa_finalize@LIBC (2)
2:   FUNC GLOBAL DEFAULT UND _ZN7android14sp_report_ra
3:   FUNC GLOBAL DEFAULT UND _ZN7android21report_syspr
4:   OBJECT GLOBAL DEFAULT UND _ZN7android4hidl4base4V1_
5:   FUNC GLOBAL DEFAULT UND _ZN7android4hidl4base4V1_
6:   FUNC GLOBAL DEFAULT UND _ZN7android4hidl4base4V1_
7:   FUNC GLOBAL DEFAULT UND _ZN7android4hidl4base4V1_
8:   FUNC GLOBAL DEFAULT UND _ZN7android4hidl4base4V1_
9:   FUNC GLOBAL DEFAULT UND _ZN7android4hidl4base4V1_
10:   FUNC GLOBAL DEFAULT UND _ZN7android4hidl4base4V1_
11:   FUNC GLOBAL DEFAULT UND _ZN7android4hidl4base4V1_
12:   FUNC GLOBAL DEFAULT UND _ZN7android4hidl4base4V1_
13:   FUNC GLOBAL DEFAULT UND _ZN7android4hidl4base4V1_
14:   FUNC GLOBAL DEFAULT UND _ZN7android4hidl4base4V1_
15:   FUNC GLOBAL DEFAULT UND _ZN7android4hidl4base4V1_
16:   FUNC GLOBAL DEFAULT UND _ZN7android4hidl4base4V1_
17:   FUNC GLOBAL DEFAULT UND _ZN7android4hidl4base4V1_
18:   FUNC GLOBAL DEFAULT UND _ZN7android4hidl4base4V1_
19:   FUNC GLOBAL DEFAULT UND _ZN7android4hidl4base4V1_
20:   FUNC GLOBAL DEFAULT UND _ZN7android4hidl4base4V1_
21:   FUNC GLOBAL DEFAULT UND _ZN7android4hidl4base4V1_
22:   FUNC GLOBAL DEFAULT UND _ZN7android4hidl4base4V1_
23:   FUNC GLOBAL DEFAULT UND _ZN7android4hidl4base4V1_
24:   FUNC GLOBAL DEFAULT UND _ZN7android4hidl4base4V1_
25:   FUNC GLOBAL DEFAULT UND _ZN7android4hidl4base4V1_
26:   FUNC GLOBAL DEFAULT UND _ZN7android4hidl4base4V1_
27:   FUNC GLOBAL DEFAULT UND _ZN7android4hidl4base4V1_
28:   FUNC GLOBAL DEFAULT UND _ZN7android7RefBase10onFi
29:   FUNC GLOBAL DEFAULT UND _ZN7android7RefBase12weak
30:   FUNC GLOBAL DEFAULT UND _ZN7android7RefBase13onLa
31:   FUNC GLOBAL DEFAULT UND _ZN7android7RefBase15onLa
32:   FUNC GLOBAL DEFAULT UND _ZN7android7RefBase20onIn
33:   FUNC GLOBAL DEFAULT UND _ZN7android7RefBaseC2Ev
34:   FUNC GLOBAL DEFAULT UND _ZN7android7RefBaseD2Ev
35:   FUNC GLOBAL DEFAULT UND _ZN7android8hardware10IIn
36:   FUNC GLOBAL DEFAULT UND _ZN7android8hardware10IIn
37:   FUNC GLOBAL DEFAULT UND _ZN7android8hardware10IIn
38:   FUNC GLOBAL DEFAULT UND _ZN7android8hardware10IIn
39:   FUNC GLOBAL DEFAULT UND _ZN7android8hardware10IIn
40:   FUNC GLOBAL DEFAULT UND _ZN7android8hardware11BpH
41:   FUNC GLOBAL DEFAULT UND _ZN7android8hardware11BpH
42:   FUNC GLOBAL DEFAULT UND _ZN7android8hardware11BpH
43:   FUNC GLOBAL DEFAULT UND _ZN7android8hardware11BpH
44:   FUNC GLOBAL DEFAULT UND _ZN7android8hardware11BpH
45:   FUNC GLOBAL DEFAULT UND _ZN7android8hardware11BpH
46:   FUNC GLOBAL DEFAULT UND _ZN7android8hardware11BpH
47:   FUNC GLOBAL DEFAULT UND _ZN7android8hardware11hid
48:   FUNC GLOBAL DEFAULT UND _ZN7android8hardware11hid
49:   FUNC GLOBAL DEFAULT UND _ZN7android8hardware11hid
50:   FUNC GLOBAL DEFAULT UND _ZN7android8hardware11hid
51:   FUNC GLOBAL DEFAULT UND _ZN7android8hardware11hid
52:   FUNC GLOBAL DEFAULT UND _ZN7android8hardware12Pro
53:   FUNC GLOBAL DEFAULT UND _ZN7android8hardware12Pro
54:   FUNC GLOBAL DEFAULT UND _ZN7android8hardware13wri
55:   FUNC GLOBAL DEFAULT UND _ZN7android8hardware14rea
56:   FUNC GLOBAL DEFAULT UND _ZN7android8hardware21def
57:   FUNC GLOBAL DEFAULT UND _ZN7android8hardware23get
58:   FUNC GLOBAL DEFAULT UND _ZN7android8hardware27hid
59:   FUNC GLOBAL DEFAULT UND _ZN7android8hardware27hid
60:   FUNC GLOBAL DEFAULT UND _ZN7android8hardware6Parc
61:   FUNC GLOBAL DEFAULT UND _ZN7android8hardware6Parc
62:   FUNC GLOBAL DEFAULT UND _ZN7android8hardware6Parc
63:   FUNC GLOBAL DEFAULT UND _ZN7android8hardware6Parc
64:   FUNC GLOBAL DEFAULT UND _ZN7android8hardware6Parc
65:   FUNC GLOBAL DEFAULT UND _ZN7android8hardware6Parc
66:   FUNC GLOBAL DEFAULT UND _ZN7android8hardware6Parc
67:   FUNC GLOBAL DEFAULT UND _ZN7android8hardware6Parc
68:   FUNC GLOBAL DEFAULT UND _ZN7android8hardware6Stat
69:   FUNC GLOBAL DEFAULT UND _ZN7android8hardware6Stat
70:   FUNC GLOBAL DEFAULT UND _ZN7android8hardware6Stat
71:   FUNC GLOBAL DEFAULT UND _ZN7android8hardware6Stat
72:   FUNC GLOBAL DEFAULT UND _ZN7android8hardware7IBin
73:   FUNC GLOBAL DEFAULT UND _ZN7android8hardware7IBin
74:   FUNC GLOBAL DEFAULT UND _ZN7android8hardware7IBin
75:   FUNC GLOBAL DEFAULT UND _ZN7android8hardware7IBin
76:   FUNC GLOBAL DEFAULT UND _ZN7android8hardware7deta
77:   FUNC GLOBAL DEFAULT UND _ZN7android8hardware7deta
78:   FUNC GLOBAL DEFAULT UND _ZN7android8hardware7deta
79:   FUNC GLOBAL DEFAULT UND _ZN7android8hardware7deta
80:   FUNC GLOBAL DEFAULT UND _ZN7android8hardware7deta
81:   FUNC GLOBAL DEFAULT UND _ZN7android8hardware7deta
82:   FUNC GLOBAL DEFAULT UND _ZN7android8hardware7deta
83:   OBJECT GLOBAL DEFAULT UND _ZN7android8hardware7deta
84:   FUNC GLOBAL DEFAULT UND _ZN7android8hardware7deta
85:   OBJECT GLOBAL DEFAULT UND _ZN7android8hardware7deta
86:   FUNC GLOBAL DEFAULT UND _ZN7android8hardware7deta
87:   FUNC GLOBAL DEFAULT UND _ZN7android8hardware7deta
88:   FUNC GLOBAL DEFAULT UND _ZN7android8hardware7deta
89:   FUNC GLOBAL DEFAULT UND _ZN7android8hardware7deta
90:   FUNC GLOBAL DEFAULT UND _ZN7android8hardware7deta
91:   FUNC GLOBAL DEFAULT UND _ZN7android8hardware7deta
92:   FUNC GLOBAL DEFAULT UND _ZN7android8hardware7deta
93:   FUNC GLOBAL DEFAULT UND _ZN7android8hardware7deta
94:   FUNC GLOBAL DEFAULT UND _ZN7android8hardware7deta
95:   FUNC GLOBAL DEFAULT UND _ZN7android8hardware7deta
96:   OBJECT GLOBAL DEFAULT UND _ZN7android8hardware7deta
97:   FUNC GLOBAL DEFAULT UND _ZN7android8hardware9BHwB
98:   FUNC GLOBAL DEFAULT UND _ZN7android8hardware9BHwB
99:   FUNC GLOBAL DEFAULT UND _ZN7android8hardware9BHwB
100:   FUNC GLOBAL DEFAULT UND _ZN7android8hardware9BHwB
101:   FUNC GLOBAL DEFAULT UND _ZN7android8hardware9BHwB
102:   FUNC GLOBAL DEFAULT UND _ZN7android8hardware9BHwB
103:   FUNC GLOBAL DEFAULT UND _ZN7android8hardware9BHwB
104:   FUNC GLOBAL DEFAULT UND _ZN7android8hardware9BHwB
105:   FUNC GLOBAL DEFAULT UND _ZN7android8hardware9BHwB
106:   FUNC GLOBAL DEFAULT UND _ZN7android8hardware9BHwB
107:   FUNC GLOBAL DEFAULT UND _ZNK7android7RefBase10cre
108:   FUNC GLOBAL DEFAULT UND _ZNK7android7RefBase11get
109:   FUNC GLOBAL DEFAULT UND _ZNK7android7RefBase9decS
110:   FUNC GLOBAL DEFAULT UND _ZNK7android7RefBase9incS
111:   FUNC GLOBAL DEFAULT UND _ZNK7android8hardware6Par
112:   FUNC GLOBAL DEFAULT UND _ZNK7android8hardware6Par
113:   FUNC GLOBAL DEFAULT UND _ZNK7android8hardware6Par
114:   FUNC GLOBAL DEFAULT UND _ZNK7android8hardware6Par
115:   FUNC GLOBAL DEFAULT UND _ZNK7android8hardware6Par
116:   FUNC GLOBAL DEFAULT UND _ZNK7android8hardware6Par
117:   FUNC GLOBAL DEFAULT UND _ZNK7android8hardware7IBi
118:   FUNC GLOBAL DEFAULT UND _ZNK7android8hardware7det
119:   FUNC GLOBAL DEFAULT UND _ZNK7android8hardware9BHw
120:   FUNC GLOBAL DEFAULT UND _ZNKSt3__120__vector_base
121:   FUNC GLOBAL DEFAULT UND _ZNKSt3__121__basic_strin
122:   FUNC GLOBAL DEFAULT UND _ZNSt3__112basic_stringIc
123:   FUNC GLOBAL DEFAULT UND _ZNSt3__15mutex4lockEv
124:   FUNC GLOBAL DEFAULT UND _ZNSt3__15mutex6unlockEv
125:   FUNC GLOBAL DEFAULT UND _ZNSt3__15mutexD1Ev
126:   FUNC GLOBAL DEFAULT UND _ZTv0_n24_N7android4hidl4
127:   FUNC GLOBAL DEFAULT UND _ZTv0_n24_N7android4hidl4
128:   FUNC GLOBAL DEFAULT UND _ZTv0_n24_N7android8hardw
129:   FUNC GLOBAL DEFAULT UND _ZTv0_n24_N7android8hardw
130:   FUNC GLOBAL DEFAULT UND _ZTv0_n24_N7android8hardw
131:   FUNC GLOBAL DEFAULT UND _ZTv0_n24_N7android8hardw
132:   FUNC GLOBAL DEFAULT UND _ZTv0_n24_N7android8hardw
133:   FUNC GLOBAL DEFAULT UND _ZTv0_n24_N7android8hardw
134:   FUNC GLOBAL DEFAULT UND _ZTv0_n24_N7android8hardw
135:   FUNC GLOBAL DEFAULT UND _ZTv0_n24_N7android8hardw
136:   FUNC GLOBAL DEFAULT UND _ZTv0_n32_N7android8hardw
137:   FUNC GLOBAL DEFAULT UND _ZTv0_n40_N7android8hardw
138:   FUNC GLOBAL DEFAULT UND _ZTv0_n48_N7android8hardw
139:   FUNC GLOBAL DEFAULT UND _ZdaPv
140:   FUNC GLOBAL DEFAULT UND _ZdlPv
141:   FUNC GLOBAL DEFAULT UND _Znam
142:   FUNC GLOBAL DEFAULT UND _Znwm
143:   FUNC GLOBAL DEFAULT UND __android_log_assert@LIBLOG (3)
144:   FUNC GLOBAL DEFAULT UND __cxa_pure_virtual
145:   FUNC GLOBAL DEFAULT UND __stack_chk_fail@LIBC (2)
146:   FUNC GLOBAL DEFAULT UND abort@LIBC (2)
147:   FUNC GLOBAL DEFAULT UND atrace_begin_body
148:   OBJECT GLOBAL DEFAULT UND atrace_enabled_tags
149:   FUNC GLOBAL DEFAULT UND atrace_end_body
150:   OBJECT GLOBAL DEFAULT UND atrace_is_ready
151:   FUNC GLOBAL DEFAULT UND atrace_setup
152:   FUNC GLOBAL DEFAULT UND memcmp@LIBC (2)
153:   FUNC GLOBAL DEFAULT UND memcpy@LIBC (2)
154:   FUNC GLOBAL DEFAULT UND memset@LIBC (2)
155:   FUNC GLOBAL DEFAULT UND strlen@LIBC (2)
156:   FUNC GLOBAL DEFAULT UND _ZN7android8hardware6Parc
157:   FUNC GLOBAL DEFAULT UND _ZNK7android8hardware6Par
158:   FUNC GLOBAL DEFAULT UND _ZN7android8hardware21wri
159:   FUNC GLOBAL DEFAULT UND _ZN7android8hardware22rea
160:   FUNC GLOBAL DEFAULT 14 _ZN7android8hardware10con
161:   FUNC GLOBAL DEFAULT 14 _ZN7android8hardware10con
162:   FUNC GLOBAL DEFAULT 14 _ZN7android8hardware10con
163:   FUNC GLOBAL DEFAULT 14 _ZN7android8hardware10con
164:   FUNC WEAK DEFAULT 14 _ZNSt3__127__tree_balance
165:   FUNC WEAK DEFAULT 14 _ZNSt3__16__treeINS_12__v
166:   OBJECT WEAK DEFAULT 18 _ZTVN7android8hardware10c
167:   OBJECT GLOBAL DEFAULT 18 _ZTVN7android8hardware10c
168:   FUNC GLOBAL DEFAULT 14 _ZN7android8hardware10con
169:   FUNC GLOBAL DEFAULT 14 _ZN7android8hardware10con
170:   FUNC GLOBAL DEFAULT 14 _ZN7android8hardware10con
171:   FUNC GLOBAL DEFAULT 14 _ZN7android8hardware10con
172:   FUNC GLOBAL DEFAULT 14 _ZN7android8hardware10con
173:   FUNC WEAK DEFAULT 14 _ZNSt3__16vectorIN7androi
174:   OBJECT GLOBAL DEFAULT 18 _ZTTN7android8hardware10c
175:   FUNC GLOBAL DEFAULT 14 _ZTv0_n24_N7android8hardw
176:   FUNC GLOBAL DEFAULT 14 _ZN7android8hardware10con
177:   FUNC GLOBAL DEFAULT 14 _ZN7android8hardware10con
178:   OBJECT GLOBAL DEFAULT 18 _ZTVN7android8hardware10c
179:   FUNC GLOBAL DEFAULT 14 _ZN7android8hardware10con
180:   FUNC GLOBAL DEFAULT 14 _ZN7android8hardware10con
181:   FUNC GLOBAL DEFAULT 14 _ZN7android8hardware10con
182:   FUNC GLOBAL DEFAULT 14 _ZN7android8hardware10con
183:   FUNC GLOBAL DEFAULT 14 _ZN7android8hardware10con
184:   FUNC WEAK DEFAULT 14 _ZNSt3__16__treeINS_12__v
185:   OBJECT GLOBAL DEFAULT 18 _ZTCN7android8hardware10c
186:   FUNC GLOBAL DEFAULT 14 _ZN7android8hardware10con
187:   FUNC GLOBAL DEFAULT 14 _ZN7android8hardware10con
188:   FUNC GLOBAL DEFAULT 14 _ZN7android8hardware10con
189:   FUNC GLOBAL DEFAULT 14 _ZN7android8hardware10con
190:   FUNC WEAK DEFAULT 14 _ZN7android8hardware7deta
191:   FUNC WEAK DEFAULT 14 _ZNSt3__16__treeINS_12__v
192:   FUNC GLOBAL DEFAULT 14 _ZN7android8hardware10con
193:   OBJECT GLOBAL DEFAULT 18 _ZTCN7android8hardware10c
194:   FUNC GLOBAL DEFAULT 14 _ZN7android8hardware10con
195:   FUNC GLOBAL DEFAULT 14 _ZN7android8hardware10con
196:   OBJECT GLOBAL DEFAULT 18 _ZTCN7android8hardware10c
197:   FUNC GLOBAL DEFAULT 14 _ZN7android8hardware10con
198:   OBJECT GLOBAL DEFAULT 16 _ZN7android8hardware10con
199:   FUNC GLOBAL DEFAULT 14 _ZN7android8hardware10con
200:   FUNC GLOBAL DEFAULT 14 _ZN7android8hardware10con
201:   FUNC GLOBAL DEFAULT 14 _ZN7android8hardware10con
202:   FUNC GLOBAL DEFAULT 14 _ZN7android8hardware10con
203:   FUNC GLOBAL DEFAULT 14 _ZN7android8hardware10con
204:   FUNC GLOBAL DEFAULT 14 _ZTv0_n24_N7android8hardw
205:   FUNC GLOBAL DEFAULT 14 _ZN7android8hardware10con
206:   OBJECT GLOBAL DEFAULT 18 _ZTCN7android8hardware10c
207:   FUNC GLOBAL DEFAULT 14 _ZN7android8hardware10con
208:   OBJECT GLOBAL DEFAULT 18 _ZTCN7android8hardware10c
209:   OBJECT WEAK DEFAULT 18 _ZTVN7android8hardware10c
210:   OBJECT GLOBAL DEFAULT 18 _ZTVN7android8hardware10c
211:   FUNC GLOBAL DEFAULT 14 _ZN7android8hardware10con
212:   FUNC GLOBAL DEFAULT 14 _ZN7android8hardware10con
213:   FUNC GLOBAL DEFAULT 14 _ZN7android8hardware10con
214:   FUNC GLOBAL DEFAULT 14 _ZN7android8hardware10con
215:   FUNC WEAK DEFAULT 14 _ZNSt3__113__tree_removeI
216:   FUNC GLOBAL DEFAULT 14 _ZN7android8hardware10con
217:   FUNC GLOBAL DEFAULT 14 _ZN7android8hardware10con
218:   OBJECT GLOBAL DEFAULT 18 _ZTTN7android8hardware10c
219:   FUNC GLOBAL DEFAULT 14 _ZN7android8hardware10con
220:   FUNC GLOBAL DEFAULT 14 _ZN7android8hardware10con
221:   FUNC GLOBAL DEFAULT 14 _ZN7android8hardware10con
222:   OBJECT GLOBAL DEFAULT 18 _ZTVN7android8hardware10c
223:   FUNC GLOBAL DEFAULT 14 _ZN7android8hardware10con
224:   FUNC GLOBAL DEFAULT 14 _ZN7android8hardware10con
225:   FUNC GLOBAL DEFAULT 14 _ZN7android8hardware10con
226:   FUNC GLOBAL DEFAULT 14 _ZN7android8hardware10con
227:   FUNC GLOBAL DEFAULT 14 _ZN7android8hardware10con
228:   OBJECT GLOBAL DEFAULT 18 _ZTCN7android8hardware10c
229:   FUNC GLOBAL DEFAULT 14 _ZN7android8hardware10con
230:   OBJECT GLOBAL DEFAULT 18 _ZTCN7android8hardware10c
231:   FUNC WEAK DEFAULT 14 _ZN7android8hardware7deta
232:   FUNC GLOBAL DEFAULT 14 _ZN7android8hardware10con
233:   FUNC GLOBAL DEFAULT 14 _ZN7android8hardware10con
234:   FUNC GLOBAL DEFAULT 14 _ZN7android8hardware10con
235:   FUNC WEAK DEFAULT 14 _ZN7android8hardware7deta
236:   FUNC GLOBAL DEFAULT 14 _ZN7android8hardware10con
237:   FUNC GLOBAL DEFAULT 14 _ZN7android8hardware10con
238:   FUNC GLOBAL DEFAULT 14 _ZN7android8hardware10con
239:   FUNC GLOBAL DEFAULT 14 _ZN7android8hardware10con
240:   FUNC GLOBAL DEFAULT 14 _ZN7android8hardware10con
241:   FUNC GLOBAL DEFAULT 14 _ZN7android8hardware10con
242:   FUNC GLOBAL DEFAULT 14 _ZN7android8hardware10con
243:   FUNC GLOBAL DEFAULT 14 _ZN7android8hardware10con
244:   FUNC GLOBAL DEFAULT 14 _ZN7android8hardware10con
245:   FUNC GLOBAL DEFAULT 14 _ZThn32_N7android8hardwar
246:   FUNC GLOBAL DEFAULT 14 _ZN7android8hardware10con
247:   FUNC GLOBAL DEFAULT 14 _ZN7android8hardware10con
248:   FUNC GLOBAL DEFAULT 14 _ZN7android8hardware10con
249:   FUNC GLOBAL DEFAULT 14 _ZN7android8hardware10con
250:   FUNC GLOBAL DEFAULT 14 _ZN7android8hardware10con
251:   FUNC GLOBAL DEFAULT 14 _ZN7android8hardware10con
252:   FUNC GLOBAL DEFAULT 14 _ZN7android8hardware10con
253:   FUNC GLOBAL DEFAULT 14 _ZN7android8hardware10con
254:   FUNC GLOBAL DEFAULT 14 _ZN7android8hardware10con
255:   FUNC GLOBAL DEFAULT 14 _ZN7android8hardware10con
256:   OBJECT GLOBAL DEFAULT 16 _ZN7android8hardware10con
257:   OBJECT GLOBAL DEFAULT 18 _ZTCN7android8hardware10c
258:   FUNC GLOBAL DEFAULT 14 _ZN7android8hardware10con
259:   FUNC GLOBAL DEFAULT 14 _ZN7android8hardware10con
260:   OBJECT GLOBAL DEFAULT 18 _ZTCN7android8hardware10c
261:   OBJECT GLOBAL DEFAULT 18 _ZTVN7android8hardware10c
262:   OBJECT GLOBAL DEFAULT 18 _ZTCN7android8hardware10c
263:   FUNC GLOBAL DEFAULT 14 _ZN7android8hardware10con
264:   FUNC GLOBAL DEFAULT 14 _ZN7android8hardware10con
265:   FUNC GLOBAL DEFAULT 14 _ZN7android8hardware10con
266:   OBJECT GLOBAL DEFAULT 18 _ZTTN7android8hardware10c
267:   FUNC GLOBAL DEFAULT 14 _ZN7android8hardware10con
268:   FUNC GLOBAL DEFAULT 14 _ZN7android8hardware10con
269:   FUNC GLOBAL DEFAULT 14 _ZN7android8hardware10con
270:   OBJECT WEAK DEFAULT 18 _ZTCN7android8hardware10c
271:   OBJECT GLOBAL DEFAULT 18 _ZTCN7android8hardware10c
272:   FUNC GLOBAL DEFAULT 14 _ZN7android8hardware10con
273:   FUNC WEAK DEFAULT 14 _ZN7android8hardware10fro
274:   FUNC GLOBAL DEFAULT 14 _ZN7android8hardware10con
275:   FUNC GLOBAL DEFAULT 14 _ZN7android8hardware10con
276:   FUNC GLOBAL DEFAULT 14 _ZN7android8hardware10con
277:   FUNC GLOBAL DEFAULT 14 _ZN7android8hardware10con
278:   FUNC GLOBAL DEFAULT 14 _ZN7android8hardware10con
279:   OBJECT GLOBAL DEFAULT 18 _ZTCN7android8hardware10c
280:   FUNC GLOBAL DEFAULT 14 _ZN7android8hardware10con
281:   FUNC GLOBAL DEFAULT 14 _ZN7android8hardware10con
282:   FUNC WEAK DEFAULT 14 _ZNSt3__16vectorINS_8func
283:   FUNC GLOBAL DEFAULT 14 _ZN7android8hardware10con
284:   FUNC GLOBAL DEFAULT 14 _ZThn32_N7android8hardwar
285:   FUNC GLOBAL DEFAULT 14 _ZN7android8hardware10con
286:   FUNC GLOBAL DEFAULT 14 _ZN7android8hardware10con
287:   FUNC GLOBAL DEFAULT 14 _ZN7android8hardware10con
288:   FUNC GLOBAL DEFAULT 14 _ZN7android8hardware10con
289:   FUNC GLOBAL DEFAULT 14 _ZN7android8hardware10con
290:   FUNC GLOBAL DEFAULT 14 _ZN7android8hardware10con
291:   FUNC GLOBAL DEFAULT 14 _ZN7android8hardware10con
292:   FUNC GLOBAL DEFAULT 14 _ZTv0_n24_N7android8hardw
293:   FUNC GLOBAL DEFAULT 14 _ZN7android8hardware10con
294:   FUNC GLOBAL DEFAULT 14 _ZN7android8hardware10con
295:   FUNC GLOBAL DEFAULT 14 _ZN7android8hardware10con
296:   FUNC GLOBAL DEFAULT 14 _ZN7android8hardware10con
297:   OBJECT GLOBAL DEFAULT 18 _ZTVN7android8hardware10c
298:   FUNC GLOBAL DEFAULT 14 _ZN7android8hardware10con
299:   FUNC GLOBAL DEFAULT 14 _ZN7android8hardware10con
300:   FUNC GLOBAL DEFAULT 14 _ZN7android8hardware10con
301:   FUNC GLOBAL DEFAULT 14 _ZN7android8hardware10con
302:   FUNC GLOBAL DEFAULT 14 _ZN7android8hardware10con
303:   FUNC GLOBAL DEFAULT 14 _ZN7android8hardware10con
304:   FUNC GLOBAL DEFAULT 14 _ZN7android8hardware10con
305:   OBJECT GLOBAL DEFAULT 18 _ZTCN7android8hardware10c
306:   OBJECT GLOBAL DEFAULT 18 _ZTCN7android8hardware10c
307:   FUNC WEAK DEFAULT 14 _ZNSt3__16__treeINS_12__v
308:   FUNC GLOBAL DEFAULT 14 _ZThn32_N7android8hardwar
309:   FUNC GLOBAL DEFAULT 14 _ZN7android8hardware10con
310:   OBJECT GLOBAL DEFAULT 18 _ZTTN7android8hardware10c
311:   FUNC GLOBAL DEFAULT 14 _ZN7android8hardware10con
312:   FUNC GLOBAL DEFAULT 14 _ZN7android8hardware10con
313:   FUNC GLOBAL DEFAULT 14 _ZN7android8hardware10con
314:   FUNC GLOBAL DEFAULT 14 _ZN7android8hardware10con
315:   FUNC GLOBAL DEFAULT 14 _ZN7android8hardware10con
316:   OBJECT GLOBAL DEFAULT 18 _ZTTN7android8hardware10c
317:   FUNC GLOBAL DEFAULT 14 _ZN7android8hardware10con
318:   FUNC GLOBAL DEFAULT 14 _ZN7android8hardware10con
319:   FUNC GLOBAL DEFAULT 14 _ZN7android8hardware10con
320:   OBJECT GLOBAL DEFAULT 18 _ZTCN7android8hardware10c
321:   FUNC GLOBAL DEFAULT 14 _ZN7android8hardware10con
322:   FUNC WEAK DEFAULT 14 _ZNSt3__16vectorIPvNS_9al
323:   OBJECT WEAK DEFAULT 18 _ZTCN7android8hardware10c
324:   OBJECT GLOBAL DEFAULT 18 _ZTCN7android8hardware10c
325:   FUNC GLOBAL DEFAULT 14 _ZTv0_n24_N7android8hardw
326:   FUNC GLOBAL DEFAULT 14 _ZN7android8hardware10con
327:   FUNC GLOBAL DEFAULT 14 _ZN7android8hardware10con
328:   OBJECT GLOBAL DEFAULT 18 _ZTTN7android8hardware10c
329:   FUNC GLOBAL DEFAULT 14 _ZN7android8hardware10con
330:   FUNC WEAK DEFAULT 14 _ZN7android8hardware7deta
331:   FUNC WEAK DEFAULT 14 _ZNSt3__16__treeINS_12__v
332:   FUNC GLOBAL DEFAULT 14 _ZN7android8hardware10con
333:   FUNC GLOBAL DEFAULT 14 _ZN7android8hardware10con
334:   FUNC WEAK DEFAULT 14 _ZNSt3__16__treeINS_12__v
335:   FUNC GLOBAL DEFAULT 14 _ZN7android8hardware10con
336:   FUNC GLOBAL DEFAULT 14 _ZN7android8hardware10con
337:   FUNC GLOBAL DEFAULT 14 _ZN7android8hardware10con
338:   FUNC GLOBAL DEFAULT 14 _ZN7android8hardware10con
339:   FUNC WEAK DEFAULT 14 _ZN7android8hardware7deta
340:   OBJECT GLOBAL DEFAULT 18 _ZTCN7android8hardware10c
341:   OBJECT GLOBAL DEFAULT 18 _ZTCN7android8hardware10c
342:   FUNC GLOBAL DEFAULT 14 _ZN7android8hardware10con
343:   FUNC GLOBAL DEFAULT 14 _ZN7android8hardware10con
344:   FUNC GLOBAL DEFAULT 14 _ZThn32_N7android8hardwar
345:   FUNC GLOBAL DEFAULT 14 _ZN7android8hardware10con
346:   FUNC GLOBAL DEFAULT 14 _ZN7android8hardware10con
347:   FUNC GLOBAL DEFAULT 14 _ZN7android8hardware10con
