 0x0000000e (SONAME)                     Library soname: [android.hidl.token@1.0-utils.so]
  
Symbol   contains 38 entries:
Num:   Type Bind Vis Ndx Name
0:   NOTYPE LOCAL DEFAULT UND
1:   FUNC GLOBAL DEFAULT UND __cxa_atexit@LIBC (2)
2:   FUNC GLOBAL DEFAULT UND __cxa_finalize@LIBC (2)
3:   FUNC GLOBAL DEFAULT UND _ZN7android14sp_report_ra
4:   FUNC GLOBAL DEFAULT UND _ZN7android4hidl5token4V1
5:   FUNC GLOBAL DEFAULT UND _ZN7android7RefBase10onFi
6:   FUNC GLOBAL DEFAULT UND _ZN7android7RefBase13onLa
7:   FUNC GLOBAL DEFAULT UND _ZN7android7RefBase15onLa
8:   FUNC GLOBAL DEFAULT UND _ZN7android7RefBase20onIn
9:   FUNC GLOBAL DEFAULT UND _ZN7android7RefBaseC2Ev
10:   FUNC GLOBAL DEFAULT UND _ZN7android7RefBaseD2Ev
11:   FUNC GLOBAL DEFAULT UND _ZN7android8hardware7deta
12:   FUNC GLOBAL DEFAULT UND _ZN7android8hardware7deta
13:   FUNC GLOBAL DEFAULT UND _ZNK7android7RefBase9decS
14:   FUNC GLOBAL DEFAULT UND _ZNK7android7RefBase9incS
15:   FUNC GLOBAL DEFAULT UND _ZNK7android8hardware6Sta
16:   FUNC GLOBAL DEFAULT UND _ZNK7android8hardware7det
17:   FUNC GLOBAL DEFAULT UND _ZNSt3__15mutex4lockEv
18:   FUNC GLOBAL DEFAULT UND _ZNSt3__15mutex6unlockEv
19:   FUNC GLOBAL DEFAULT UND _ZNSt3__15mutexD1Ev
20:   FUNC GLOBAL DEFAULT UND _ZdaPv
21:   FUNC GLOBAL DEFAULT UND _ZdlPv
22:   FUNC GLOBAL DEFAULT UND _Znaj
23:   FUNC GLOBAL DEFAULT UND _Znwj
24:   FUNC GLOBAL DEFAULT UND __android_log_print@LIBLOG (3)
25:   FUNC GLOBAL DEFAULT UND __stack_chk_fail@LIBC (2)
26:   OBJECT GLOBAL DEFAULT UND __stack_chk_guard@LIBC (2)
27:   FUNC GLOBAL DEFAULT UND memset@LIBC (2)
28:   FUNC GLOBAL DEFAULT 13 _ZN7android14createHalTok
29:   FUNC GLOBAL DEFAULT 13 __aeabi_memclr
30:   FUNC GLOBAL DEFAULT 13 __aeabi_memclr4
31:   FUNC GLOBAL DEFAULT 13 __aeabi_memclr8
32:   FUNC GLOBAL DEFAULT 13 _ZN7android14deleteHalTok
33:   FUNC GLOBAL DEFAULT 13 _ZN7android20retrieveHalI
34:   FUNC WEAK DEFAULT 13 _ZN7android2spINS_4hidl5t
35:   FUNC GLOBAL DEFAULT 13 __aeabi_memset
36:   FUNC GLOBAL DEFAULT 13 __aeabi_memset4
37:   FUNC GLOBAL DEFAULT 13 __aeabi_memset8
