 0x0000000e (SONAME)                     Library soname: [android.hardware.graphics.composer@2.3.so]
  
Symbol   contains 541 entries:
Num:   Type Bind Vis Ndx Name
0:   NOTYPE LOCAL DEFAULT UND
1:   FUNC GLOBAL DEFAULT UND __cxa_finalize@LIBC (2)
2:   FUNC GLOBAL DEFAULT UND _ZN7android14sp_report_ra
3:   FUNC GLOBAL DEFAULT UND _ZN7android21report_syspr
4:   OBJECT GLOBAL DEFAULT UND _ZN7android4hidl4base4V1_
5:   FUNC GLOBAL DEFAULT UND _ZN7android4hidl4base4V1_
6:   FUNC GLOBAL DEFAULT UND _ZN7android4hidl4base4V1_
7:   FUNC GLOBAL DEFAULT UND _ZN7android4hidl4base4V1_
8:   FUNC GLOBAL DEFAULT UND _ZN7android4hidl4base4V1_
9:   FUNC GLOBAL DEFAULT UND _ZN7android4hidl4base4V1_
10:   FUNC GLOBAL DEFAULT UND _ZN7android4hidl4base4V1_
11:   FUNC GLOBAL DEFAULT UND _ZN7android4hidl4base4V1_
12:   FUNC GLOBAL DEFAULT UND _ZN7android4hidl4base4V1_
13:   FUNC GLOBAL DEFAULT UND _ZN7android4hidl4base4V1_
14:   FUNC GLOBAL DEFAULT UND _ZN7android4hidl4base4V1_
15:   FUNC GLOBAL DEFAULT UND _ZN7android4hidl4base4V1_
16:   FUNC GLOBAL DEFAULT UND _ZN7android4hidl4base4V1_
17:   FUNC GLOBAL DEFAULT UND _ZN7android4hidl4base4V1_
18:   FUNC GLOBAL DEFAULT UND _ZN7android4hidl4base4V1_
19:   FUNC GLOBAL DEFAULT UND _ZN7android4hidl4base4V1_
20:   FUNC GLOBAL DEFAULT UND _ZN7android4hidl4base4V1_
21:   FUNC GLOBAL DEFAULT UND _ZN7android4hidl4base4V1_
22:   FUNC GLOBAL DEFAULT UND _ZN7android4hidl4base4V1_
23:   FUNC GLOBAL DEFAULT UND _ZN7android4hidl4base4V1_
24:   FUNC GLOBAL DEFAULT UND _ZN7android4hidl4base4V1_
25:   FUNC GLOBAL DEFAULT UND _ZN7android4hidl4base4V1_
26:   FUNC GLOBAL DEFAULT UND _ZN7android4hidl4base4V1_
27:   FUNC GLOBAL DEFAULT UND _ZN7android4hidl4base4V1_
28:   FUNC GLOBAL DEFAULT UND _ZN7android7RefBase10onFi
29:   FUNC GLOBAL DEFAULT UND _ZN7android7RefBase12weak
30:   FUNC GLOBAL DEFAULT UND _ZN7android7RefBase13onLa
31:   FUNC GLOBAL DEFAULT UND _ZN7android7RefBase15onLa
32:   FUNC GLOBAL DEFAULT UND _ZN7android7RefBase20onIn
33:   FUNC GLOBAL DEFAULT UND _ZN7android7RefBaseC2Ev
34:   FUNC GLOBAL DEFAULT UND _ZN7android7RefBaseD2Ev
35:   FUNC GLOBAL DEFAULT UND _ZN7android8hardware10IIn
36:   FUNC GLOBAL DEFAULT UND _ZN7android8hardware10IIn
37:   FUNC GLOBAL DEFAULT UND _ZN7android8hardware10IIn
38:   FUNC GLOBAL DEFAULT UND _ZN7android8hardware10IIn
39:   FUNC GLOBAL DEFAULT UND _ZN7android8hardware10IIn
40:   FUNC GLOBAL DEFAULT UND _ZN7android8hardware11BpH
41:   FUNC GLOBAL DEFAULT UND _ZN7android8hardware11BpH
42:   FUNC GLOBAL DEFAULT UND _ZN7android8hardware11BpH
43:   FUNC GLOBAL DEFAULT UND _ZN7android8hardware11BpH
44:   FUNC GLOBAL DEFAULT UND _ZN7android8hardware11BpH
45:   FUNC GLOBAL DEFAULT UND _ZN7android8hardware11BpH
46:   FUNC GLOBAL DEFAULT UND _ZN7android8hardware11BpH
47:   FUNC GLOBAL DEFAULT UND _ZN7android8hardware11hid
48:   FUNC GLOBAL DEFAULT UND _ZN7android8hardware11hid
49:   FUNC GLOBAL DEFAULT UND _ZN7android8hardware11hid
50:   FUNC GLOBAL DEFAULT UND _ZN7android8hardware11hid
51:   FUNC GLOBAL DEFAULT UND _ZN7android8hardware11hid
52:   FUNC GLOBAL DEFAULT UND _ZN7android8hardware12Pro
53:   FUNC GLOBAL DEFAULT UND _ZN7android8hardware12Pro
54:   FUNC GLOBAL DEFAULT UND _ZN7android8hardware13wri
55:   FUNC GLOBAL DEFAULT UND _ZN7android8hardware14rea
56:   FUNC GLOBAL DEFAULT UND _ZN7android8hardware21def
57:   FUNC GLOBAL DEFAULT UND _ZN7android8hardware23get
58:   FUNC GLOBAL DEFAULT UND _ZN7android8hardware27hid
59:   FUNC GLOBAL DEFAULT UND _ZN7android8hardware27hid
60:   FUNC GLOBAL DEFAULT UND _ZN7android8hardware6Parc
61:   FUNC GLOBAL DEFAULT UND _ZN7android8hardware6Parc
62:   FUNC GLOBAL DEFAULT UND _ZN7android8hardware6Parc
63:   FUNC GLOBAL DEFAULT UND _ZN7android8hardware6Parc
64:   FUNC GLOBAL DEFAULT UND _ZN7android8hardware6Parc
65:   FUNC GLOBAL DEFAULT UND _ZN7android8hardware6Stat
66:   FUNC GLOBAL DEFAULT UND _ZN7android8hardware6Stat
67:   FUNC GLOBAL DEFAULT UND _ZN7android8hardware6Stat
68:   FUNC GLOBAL DEFAULT UND _ZN7android8hardware6Stat
69:   FUNC GLOBAL DEFAULT UND _ZN7android8hardware7IBin
70:   FUNC GLOBAL DEFAULT UND _ZN7android8hardware7IBin
71:   FUNC GLOBAL DEFAULT UND _ZN7android8hardware7IBin
72:   FUNC GLOBAL DEFAULT UND _ZN7android8hardware7IBin
73:   FUNC GLOBAL DEFAULT UND _ZN7android8hardware7deta
74:   FUNC GLOBAL DEFAULT UND _ZN7android8hardware7deta
75:   FUNC GLOBAL DEFAULT UND _ZN7android8hardware7deta
76:   FUNC GLOBAL DEFAULT UND _ZN7android8hardware7deta
77:   FUNC GLOBAL DEFAULT UND _ZN7android8hardware7deta
78:   FUNC GLOBAL DEFAULT UND _ZN7android8hardware7deta
79:   FUNC GLOBAL DEFAULT UND _ZN7android8hardware7deta
80:   OBJECT GLOBAL DEFAULT UND _ZN7android8hardware7deta
81:   OBJECT GLOBAL DEFAULT UND _ZN7android8hardware7deta
82:   FUNC GLOBAL DEFAULT UND _ZN7android8hardware7deta
83:   FUNC GLOBAL DEFAULT UND _ZN7android8hardware7deta
84:   FUNC GLOBAL DEFAULT UND _ZN7android8hardware7deta
85:   FUNC GLOBAL DEFAULT UND _ZN7android8hardware7deta
86:   FUNC GLOBAL DEFAULT UND _ZN7android8hardware7deta
87:   FUNC GLOBAL DEFAULT UND _ZN7android8hardware7deta
88:   FUNC GLOBAL DEFAULT UND _ZN7android8hardware7deta
89:   FUNC GLOBAL DEFAULT UND _ZN7android8hardware7deta
90:   FUNC GLOBAL DEFAULT UND _ZN7android8hardware7deta
91:   FUNC GLOBAL DEFAULT UND _ZN7android8hardware7deta
92:   OBJECT GLOBAL DEFAULT UND _ZN7android8hardware7deta
93:   FUNC GLOBAL DEFAULT UND _ZN7android8hardware8grap
94:   FUNC GLOBAL DEFAULT UND _ZN7android8hardware8grap
95:   FUNC GLOBAL DEFAULT UND _ZN7android8hardware8grap
96:   FUNC GLOBAL DEFAULT UND _ZN7android8hardware8grap
97:   FUNC GLOBAL DEFAULT UND _ZN7android8hardware8grap
98:   FUNC GLOBAL DEFAULT UND _ZN7android8hardware8grap
99:   OBJECT GLOBAL DEFAULT UND _ZN7android8hardware8grap
100:   FUNC GLOBAL DEFAULT UND _ZN7android8hardware8grap
101:   FUNC GLOBAL DEFAULT UND _ZN7android8hardware8grap
102:   FUNC GLOBAL DEFAULT UND _ZN7android8hardware8grap
103:   FUNC GLOBAL DEFAULT UND _ZN7android8hardware8grap
104:   FUNC GLOBAL DEFAULT UND _ZN7android8hardware8grap
105:   FUNC GLOBAL DEFAULT UND _ZN7android8hardware8grap
106:   FUNC GLOBAL DEFAULT UND _ZN7android8hardware8grap
107:   FUNC GLOBAL DEFAULT UND _ZN7android8hardware8grap
108:   FUNC GLOBAL DEFAULT UND _ZN7android8hardware8grap
109:   FUNC GLOBAL DEFAULT UND _ZN7android8hardware8grap
110:   OBJECT GLOBAL DEFAULT UND _ZN7android8hardware8grap
111:   FUNC GLOBAL DEFAULT UND _ZN7android8hardware8grap
112:   FUNC GLOBAL DEFAULT UND _ZN7android8hardware8grap
113:   FUNC GLOBAL DEFAULT UND _ZN7android8hardware8grap
114:   FUNC GLOBAL DEFAULT UND _ZN7android8hardware8grap
115:   FUNC GLOBAL DEFAULT UND _ZN7android8hardware8grap
116:   FUNC GLOBAL DEFAULT UND _ZN7android8hardware8grap
117:   FUNC GLOBAL DEFAULT UND _ZN7android8hardware8grap
118:   FUNC GLOBAL DEFAULT UND _ZN7android8hardware8grap
119:   FUNC GLOBAL DEFAULT UND _ZN7android8hardware8grap
120:   FUNC GLOBAL DEFAULT UND _ZN7android8hardware8grap
121:   FUNC GLOBAL DEFAULT UND _ZN7android8hardware9BHwB
122:   FUNC GLOBAL DEFAULT UND _ZN7android8hardware9BHwB
123:   FUNC GLOBAL DEFAULT UND _ZN7android8hardware9BHwB
124:   FUNC GLOBAL DEFAULT UND _ZN7android8hardware9BHwB
125:   FUNC GLOBAL DEFAULT UND _ZN7android8hardware9BHwB
126:   FUNC GLOBAL DEFAULT UND _ZN7android8hardware9BHwB
127:   FUNC GLOBAL DEFAULT UND _ZN7android8hardware9BHwB
128:   FUNC GLOBAL DEFAULT UND _ZN7android8hardware9BHwB
129:   FUNC GLOBAL DEFAULT UND _ZN7android8hardware9BHwB
130:   FUNC GLOBAL DEFAULT UND _ZN7android8hardware9BHwB
131:   FUNC GLOBAL DEFAULT UND _ZNK7android7RefBase10cre
132:   FUNC GLOBAL DEFAULT UND _ZNK7android7RefBase11get
133:   FUNC GLOBAL DEFAULT UND _ZNK7android7RefBase9decS
134:   FUNC GLOBAL DEFAULT UND _ZNK7android7RefBase9incS
135:   FUNC GLOBAL DEFAULT UND _ZNK7android8hardware6Par
136:   FUNC GLOBAL DEFAULT UND _ZNK7android8hardware6Par
137:   FUNC GLOBAL DEFAULT UND _ZNK7android8hardware6Par
138:   FUNC GLOBAL DEFAULT UND _ZNK7android8hardware7IBi
139:   FUNC GLOBAL DEFAULT UND _ZNK7android8hardware7det
140:   FUNC GLOBAL DEFAULT UND _ZNK7android8hardware9BHw
141:   FUNC GLOBAL DEFAULT UND _ZNKSt3__120__vector_base
142:   FUNC GLOBAL DEFAULT UND _ZNKSt3__121__basic_strin
143:   FUNC GLOBAL DEFAULT UND _ZNSt3__112basic_stringIc
144:   FUNC GLOBAL DEFAULT UND _ZNSt3__112basic_stringIc
145:   FUNC GLOBAL DEFAULT UND _ZNSt3__15mutex4lockEv
146:   FUNC GLOBAL DEFAULT UND _ZNSt3__15mutex6unlockEv
147:   FUNC GLOBAL DEFAULT UND _ZNSt3__15mutexD1Ev
148:   FUNC GLOBAL DEFAULT UND _ZTv0_n12_N7android4hidl4
149:   FUNC GLOBAL DEFAULT UND _ZTv0_n12_N7android4hidl4
150:   FUNC GLOBAL DEFAULT UND _ZTv0_n12_N7android8hardw
151:   FUNC GLOBAL DEFAULT UND _ZTv0_n12_N7android8hardw
152:   FUNC GLOBAL DEFAULT UND _ZTv0_n12_N7android8hardw
153:   FUNC GLOBAL DEFAULT UND _ZTv0_n12_N7android8hardw
154:   FUNC GLOBAL DEFAULT UND _ZTv0_n12_N7android8hardw
155:   FUNC GLOBAL DEFAULT UND _ZTv0_n12_N7android8hardw
156:   FUNC GLOBAL DEFAULT UND _ZTv0_n12_N7android8hardw
157:   FUNC GLOBAL DEFAULT UND _ZTv0_n12_N7android8hardw
158:   FUNC GLOBAL DEFAULT UND _ZTv0_n16_N7android8hardw
159:   FUNC GLOBAL DEFAULT UND _ZTv0_n20_N7android8hardw
160:   FUNC GLOBAL DEFAULT UND _ZTv0_n24_N7android8hardw
161:   FUNC GLOBAL DEFAULT UND _ZdaPv
162:   FUNC GLOBAL DEFAULT UND _ZdlPv
163:   FUNC GLOBAL DEFAULT UND _Znaj
164:   FUNC GLOBAL DEFAULT UND _Znwj
165:   FUNC GLOBAL DEFAULT UND __android_log_assert@LIBLOG (3)
166:   FUNC GLOBAL DEFAULT UND __cxa_pure_virtual
167:   FUNC GLOBAL DEFAULT UND __stack_chk_fail@LIBC (2)
168:   OBJECT GLOBAL DEFAULT UND __stack_chk_guard@LIBC (2)
169:   FUNC GLOBAL DEFAULT UND abort@LIBC (2)
170:   FUNC GLOBAL DEFAULT UND atrace_begin_body
171:   OBJECT GLOBAL DEFAULT UND atrace_enabled_tags
172:   FUNC GLOBAL DEFAULT UND atrace_end_body
173:   OBJECT GLOBAL DEFAULT UND atrace_is_ready
174:   FUNC GLOBAL DEFAULT UND atrace_setup
175:   FUNC GLOBAL DEFAULT UND memcmp@LIBC (2)
176:   FUNC GLOBAL DEFAULT UND strlen@LIBC (2)
177:   FUNC GLOBAL DEFAULT UND _ZN7android8hardware21wri
178:   FUNC GLOBAL DEFAULT UND _ZN7android8hardware22rea
179:   FUNC GLOBAL DEFAULT UND _ZN7android8hardware6Parc
180:   FUNC GLOBAL DEFAULT UND _ZN7android8hardware6Parc
181:   FUNC GLOBAL DEFAULT UND _ZN7android8hardware6Parc
182:   FUNC GLOBAL DEFAULT UND _ZN7android8hardware6Parc
183:   FUNC GLOBAL DEFAULT UND _ZN7android8hardware6Parc
184:   FUNC GLOBAL DEFAULT UND _ZN7android8hardware6Parc
185:   FUNC GLOBAL DEFAULT UND _ZN7android8hardware6Parc
186:   OBJECT GLOBAL DEFAULT UND _ZN7android8hardware8grap
187:   FUNC GLOBAL DEFAULT UND _ZN7android8hardware8grap
188:   FUNC GLOBAL DEFAULT UND _ZN7android8hardware8grap
189:   FUNC GLOBAL DEFAULT UND _ZN7android8hardware8grap
190:   FUNC GLOBAL DEFAULT UND _ZN7android8hardware8grap
191:   FUNC GLOBAL DEFAULT UND _ZN7android8hardware8grap
192:   FUNC GLOBAL DEFAULT UND _ZN7android8hardware8grap
193:   FUNC GLOBAL DEFAULT UND _ZN7android8hardware8grap
194:   FUNC GLOBAL DEFAULT UND _ZN7android8hardware8grap
195:   FUNC GLOBAL DEFAULT UND _ZN7android8hardware8grap
196:   FUNC GLOBAL DEFAULT UND _ZN7android8hardware8grap
197:   FUNC GLOBAL DEFAULT UND _ZN7android8hardware8grap
198:   FUNC GLOBAL DEFAULT UND _ZN7android8hardware8grap
199:   FUNC GLOBAL DEFAULT UND _ZN7android8hardware8grap
200:   FUNC GLOBAL DEFAULT UND _ZN7android8hardware8grap
201:   FUNC GLOBAL DEFAULT UND _ZN7android8hardware8grap
202:   FUNC GLOBAL DEFAULT UND _ZN7android8hardware8grap
203:   FUNC GLOBAL DEFAULT UND _ZN7android8hardware8grap
204:   FUNC GLOBAL DEFAULT UND _ZN7android8hardware8grap
205:   FUNC GLOBAL DEFAULT UND _ZN7android8hardware8grap
206:   FUNC GLOBAL DEFAULT UND _ZN7android8hardware8grap
207:   FUNC GLOBAL DEFAULT UND _ZN7android8hardware8grap
208:   FUNC GLOBAL DEFAULT UND _ZN7android8hardware8grap
209:   FUNC GLOBAL DEFAULT UND _ZN7android8hardware8grap
210:   FUNC GLOBAL DEFAULT UND _ZN7android8hardware8grap
211:   FUNC GLOBAL DEFAULT UND _ZN7android8hardware8grap
212:   FUNC GLOBAL DEFAULT UND _ZN7android8hardware8grap
213:   FUNC GLOBAL DEFAULT UND _ZN7android8hardware8grap
214:   FUNC GLOBAL DEFAULT UND _ZN7android8hardware8grap
215:   FUNC GLOBAL DEFAULT UND _ZN7android8hardware8grap
216:   FUNC GLOBAL DEFAULT UND _ZN7android8hardware8grap
217:   FUNC GLOBAL DEFAULT UND _ZN7android8hardware8grap
218:   FUNC GLOBAL DEFAULT UND _ZN7android8hardware8grap
219:   FUNC GLOBAL DEFAULT UND _ZN7android8hardware8grap
220:   FUNC GLOBAL DEFAULT UND _ZN7android8hardware8grap
221:   FUNC GLOBAL DEFAULT UND _ZN7android8hardware8grap
222:   FUNC GLOBAL DEFAULT UND _ZN7android8hardware8grap
223:   FUNC GLOBAL DEFAULT UND _ZN7android8hardware8grap
224:   FUNC GLOBAL DEFAULT UND _ZN7android8hardware8grap
225:   FUNC GLOBAL DEFAULT UND _ZN7android8hardware8grap
226:   FUNC GLOBAL DEFAULT UND _ZN7android8hardware8grap
227:   FUNC GLOBAL DEFAULT UND _ZN7android8hardware8grap
228:   FUNC GLOBAL DEFAULT UND _ZN7android8hardware8grap
229:   FUNC GLOBAL DEFAULT UND _ZN7android8hardware8grap
230:   FUNC GLOBAL DEFAULT UND _ZN7android8hardware8grap
231:   FUNC GLOBAL DEFAULT UND _ZN7android8hardware8grap
232:   FUNC GLOBAL DEFAULT UND _ZN7android8hardware8grap
233:   FUNC GLOBAL DEFAULT UND _ZN7android8hardware8grap
234:   FUNC GLOBAL DEFAULT UND _ZN7android8hardware8grap
235:   FUNC GLOBAL DEFAULT UND _ZN7android8hardware8grap
236:   FUNC GLOBAL DEFAULT UND _ZN7android8hardware8grap
237:   FUNC GLOBAL DEFAULT UND _ZN7android8hardware8grap
238:   FUNC GLOBAL DEFAULT UND _ZN7android8hardware8grap
239:   FUNC GLOBAL DEFAULT UND _ZN7android8hardware8grap
240:   FUNC GLOBAL DEFAULT UND _ZN7android8hardware8grap
241:   FUNC GLOBAL DEFAULT UND _ZN7android8hardware8grap
242:   FUNC GLOBAL DEFAULT UND _ZN7android8hardware8grap
243:   OBJECT GLOBAL DEFAULT UND _ZN7android8hardware8grap
244:   FUNC GLOBAL DEFAULT UND _ZN7android8hardware8grap
245:   FUNC GLOBAL DEFAULT UND _ZN7android8hardware8grap
246:   FUNC GLOBAL DEFAULT UND _ZN7android8hardware8grap
247:   FUNC GLOBAL DEFAULT UND _ZN7android8hardware8grap
248:   FUNC GLOBAL DEFAULT UND _ZN7android8hardware8grap
249:   FUNC GLOBAL DEFAULT UND _ZN7android8hardware8grap
250:   FUNC GLOBAL DEFAULT UND _ZN7android8hardware8grap
251:   FUNC GLOBAL DEFAULT UND _ZN7android8hardware8grap
252:   FUNC GLOBAL DEFAULT UND _ZN7android8hardware8grap
253:   FUNC GLOBAL DEFAULT UND _ZN7android8hardware8grap
254:   FUNC GLOBAL DEFAULT UND _ZN7android8hardware8grap
255:   FUNC GLOBAL DEFAULT UND _ZN7android8hardware8grap
256:   FUNC GLOBAL DEFAULT UND _ZN7android8hardware8grap
257:   FUNC GLOBAL DEFAULT UND _ZN7android8hardware8grap
258:   FUNC GLOBAL DEFAULT UND _ZN7android8hardware8grap
259:   FUNC GLOBAL DEFAULT UND _ZN7android8hardware8grap
260:   FUNC GLOBAL DEFAULT UND _ZN7android8hardware8grap
261:   FUNC GLOBAL DEFAULT UND _ZN7android8hardware8grap
262:   FUNC GLOBAL DEFAULT UND _ZN7android8hardware8grap
263:   FUNC GLOBAL DEFAULT UND _ZN7android8hardware8grap
264:   FUNC GLOBAL DEFAULT UND _ZN7android8hardware8grap
265:   FUNC GLOBAL DEFAULT UND _ZN7android8hardware8grap
266:   FUNC GLOBAL DEFAULT UND _ZN7android8hardware8grap
267:   FUNC GLOBAL DEFAULT UND _ZN7android8hardware8grap
268:   FUNC GLOBAL DEFAULT UND _ZN7android8hardware8grap
269:   FUNC GLOBAL DEFAULT UND _ZN7android8hardware8grap
270:   FUNC GLOBAL DEFAULT UND _ZN7android8hardware8grap
271:   FUNC GLOBAL DEFAULT UND _ZN7android8hardware8grap
272:   FUNC GLOBAL DEFAULT UND _ZN7android8hardware8grap
273:   FUNC GLOBAL DEFAULT UND _ZN7android8hardware8grap
274:   FUNC GLOBAL DEFAULT UND _ZN7android8hardware8grap
275:   FUNC GLOBAL DEFAULT UND _ZN7android8hardware8grap
276:   FUNC GLOBAL DEFAULT UND _ZN7android8hardware8grap
277:   FUNC GLOBAL DEFAULT UND _ZN7android8hardware8grap
278:   FUNC GLOBAL DEFAULT UND _ZNK7android8hardware6Par
279:   FUNC GLOBAL DEFAULT UND _ZNK7android8hardware6Par
280:   FUNC GLOBAL DEFAULT UND _ZNK7android8hardware6Par
281:   FUNC GLOBAL DEFAULT UND _ZNK7android8hardware6Par
282:   FUNC GLOBAL DEFAULT UND _ZNK7android8hardware6Par
283:   FUNC GLOBAL DEFAULT UND _ZNK7android8hardware6Par
284:   FUNC GLOBAL DEFAULT UND _ZNK7android8hardware6Par
285:   FUNC GLOBAL DEFAULT UND memcpy@LIBC (2)
286:   FUNC GLOBAL DEFAULT UND memset@LIBC (2)
287:   FUNC GLOBAL DEFAULT 14 _ZN7android8hardware8grap
288:   OBJECT GLOBAL DEFAULT 18 _ZTCN7android8hardware8gr
289:   FUNC GLOBAL DEFAULT 14 _ZN7android8hardware8grap
290:   FUNC GLOBAL DEFAULT 14 _ZN7android8hardware8grap
291:   FUNC WEAK DEFAULT 14 _ZNSt3__16vectorIPvNS_9al
292:   OBJECT GLOBAL DEFAULT 18 _ZTCN7android8hardware8gr
293:   FUNC GLOBAL DEFAULT 14 _ZThn20_N7android8hardwar
294:   FUNC GLOBAL DEFAULT 14 _ZN7android8hardware8grap
295:   FUNC GLOBAL DEFAULT 14 _ZN7android8hardware8grap
296:   FUNC GLOBAL DEFAULT 14 _ZN7android8hardware8grap
297:   FUNC GLOBAL DEFAULT 14 _ZN7android8hardware8grap
298:   FUNC WEAK DEFAULT 14 _ZN7android8hardware7deta
299:   OBJECT GLOBAL DEFAULT 18 _ZTTN7android8hardware8gr
300:   FUNC GLOBAL DEFAULT 14 _ZTv0_n12_N7android8hardw
301:   FUNC GLOBAL DEFAULT 14 _ZN7android8hardware8grap
302:   FUNC GLOBAL DEFAULT 14 _ZN7android8hardware8grap
303:   FUNC GLOBAL DEFAULT 14 _ZN7android8hardware8grap
304:   FUNC WEAK DEFAULT 14 _ZNSt3__16vectorIN7androi
305:   FUNC GLOBAL DEFAULT 14 _ZN7android8hardware8grap
306:   FUNC GLOBAL DEFAULT 14 _ZN7android8hardware8grap
307:   FUNC GLOBAL DEFAULT 14 _ZN7android8hardware8grap
308:   FUNC GLOBAL DEFAULT 14 _ZN7android8hardware8grap
309:   FUNC GLOBAL DEFAULT 14 _ZN7android8hardware8grap
310:   FUNC GLOBAL DEFAULT 14 _ZN7android8hardware8grap
311:   OBJECT GLOBAL DEFAULT 18 _ZTCN7android8hardware8gr
312:   FUNC GLOBAL DEFAULT 14 _ZThn20_N7android8hardwar
313:   FUNC GLOBAL DEFAULT 14 _ZN7android8hardware8grap
314:   FUNC GLOBAL DEFAULT 14 _ZN7android8hardware8grap
315:   OBJECT GLOBAL DEFAULT 18 _ZTCN7android8hardware8gr
316:   OBJECT GLOBAL DEFAULT 18 _ZTVN7android8hardware8gr
317:   OBJECT GLOBAL DEFAULT 18 _ZTCN7android8hardware8gr
318:   FUNC GLOBAL DEFAULT 14 _ZN7android8hardware8grap
319:   FUNC GLOBAL DEFAULT 14 _ZN7android8hardware8grap
320:   FUNC GLOBAL DEFAULT 14 _ZN7android8hardware8grap
321:   FUNC GLOBAL DEFAULT 14 _ZN7android8hardware8grap
322:   FUNC GLOBAL DEFAULT 14 _ZN7android8hardware8grap
323:   FUNC GLOBAL DEFAULT 14 _ZN7android8hardware8grap
324:   FUNC WEAK DEFAULT 14 _ZN7android8hardware7deta
325:   OBJECT GLOBAL DEFAULT 18 _ZTTN7android8hardware8gr
326:   FUNC GLOBAL DEFAULT 14 _ZN7android8hardware8grap
327:   FUNC GLOBAL DEFAULT 14 _ZN7android8hardware8grap
328:   FUNC GLOBAL DEFAULT 14 _ZN7android8hardware8grap
329:   FUNC GLOBAL DEFAULT 14 _ZN7android8hardware8grap
330:   FUNC GLOBAL DEFAULT 14 _ZN7android8hardware8grap
331:   OBJECT GLOBAL DEFAULT 18 _ZTVN7android8hardware8gr
332:   FUNC GLOBAL DEFAULT 14 _ZN7android8hardware8grap
333:   FUNC GLOBAL DEFAULT 14 _ZN7android8hardware8grap
334:   FUNC GLOBAL DEFAULT 14 _ZN7android8hardware8grap
335:   FUNC GLOBAL DEFAULT 14 _ZN7android8hardware8grap
336:   FUNC GLOBAL DEFAULT 14 _ZN7android8hardware8grap
337:   FUNC GLOBAL DEFAULT 14 _ZN7android8hardware8grap
338:   FUNC GLOBAL DEFAULT 14 _ZN7android8hardware8grap
339:   FUNC GLOBAL DEFAULT 14 _ZN7android8hardware8grap
340:   FUNC GLOBAL DEFAULT 14 _ZN7android8hardware8grap
341:   FUNC GLOBAL DEFAULT 14 _ZN7android8hardware8grap
342:   FUNC GLOBAL DEFAULT 14 _ZN7android8hardware8grap
343:   FUNC GLOBAL DEFAULT 14 _ZN7android8hardware8grap
344:   FUNC GLOBAL DEFAULT 14 _ZN7android8hardware8grap
345:   FUNC GLOBAL DEFAULT 14 _ZN7android8hardware8grap
346:   FUNC GLOBAL DEFAULT 14 _ZN7android8hardware8grap
347:   FUNC WEAK DEFAULT 14 _ZN7android8hardware7deta
348:   FUNC GLOBAL DEFAULT 14 _ZN7android8hardware8grap
349:   FUNC GLOBAL DEFAULT 14 _ZN7android8hardware8grap
350:   OBJECT GLOBAL DEFAULT 18 _ZTCN7android8hardware8gr
351:   FUNC GLOBAL DEFAULT 14 _ZN7android8hardware8grap
352:   FUNC GLOBAL DEFAULT 14 _ZN7android8hardware8grap
353:   OBJECT GLOBAL DEFAULT 16 _ZN7android8hardware8grap
354:   FUNC GLOBAL DEFAULT 14 _ZN7android8hardware8grap
355:   FUNC GLOBAL DEFAULT 14 _ZN7android8hardware8grap
356:   FUNC GLOBAL DEFAULT 14 _ZN7android8hardware8grap
357:   OBJECT GLOBAL DEFAULT 18 _ZTCN7android8hardware8gr
358:   FUNC GLOBAL DEFAULT 14 _ZN7android8hardware8grap
359:   FUNC WEAK DEFAULT 14 _ZN7android8hardware7deta
360:   FUNC GLOBAL DEFAULT 14 _ZN7android8hardware8grap
361:   OBJECT GLOBAL DEFAULT 18 _ZTCN7android8hardware8gr
362:   FUNC GLOBAL DEFAULT 14 _ZTv0_n12_N7android8hardw
363:   FUNC GLOBAL DEFAULT 14 _ZN7android8hardware8grap
364:   OBJECT GLOBAL DEFAULT 18 _ZTCN7android8hardware8gr
365:   FUNC GLOBAL DEFAULT 14 _ZN7android8hardware8grap
366:   FUNC GLOBAL DEFAULT 14 _ZN7android8hardware8grap
367:   FUNC GLOBAL DEFAULT 14 _ZN7android8hardware8grap
368:   FUNC GLOBAL DEFAULT 14 _ZN7android8hardware8grap
369:   FUNC GLOBAL DEFAULT 14 _ZN7android8hardware8grap
370:   FUNC GLOBAL DEFAULT 14 _ZN7android8hardware8grap
371:   FUNC GLOBAL DEFAULT 14 _ZN7android8hardware8grap
372:   FUNC GLOBAL DEFAULT 14 _ZN7android8hardware8grap
373:   FUNC GLOBAL DEFAULT 14 _ZN7android8hardware8grap
374:   OBJECT GLOBAL DEFAULT 18 _ZTCN7android8hardware8gr
375:   FUNC GLOBAL DEFAULT 14 _ZN7android8hardware8grap
376:   FUNC GLOBAL DEFAULT 14 _ZN7android8hardware8grap
377:   FUNC GLOBAL DEFAULT 14 _ZN7android8hardware8grap
378:   FUNC GLOBAL DEFAULT 14 _ZN7android8hardware8grap
379:   FUNC GLOBAL DEFAULT 14 _ZN7android8hardware8grap
380:   FUNC GLOBAL DEFAULT 14 _ZN7android8hardware8grap
381:   FUNC GLOBAL DEFAULT 14 _ZThn20_N7android8hardwar
382:   FUNC GLOBAL DEFAULT 14 _ZN7android8hardware8grap
383:   FUNC WEAK DEFAULT 14 _ZNSt3__16__treeINS_12__v
384:   FUNC GLOBAL DEFAULT 14 _ZN7android8hardware8grap
385:   FUNC GLOBAL DEFAULT 14 _ZN7android8hardware8grap
386:   FUNC GLOBAL DEFAULT 14 _ZN7android8hardware8grap
387:   OBJECT WEAK DEFAULT 18 _ZTVN7android8hardware8gr
388:   FUNC GLOBAL DEFAULT 14 _ZN7android8hardware8grap
389:   FUNC WEAK DEFAULT 14 _ZNSt3__16__treeINS_12__v
390:   FUNC GLOBAL DEFAULT 14 _ZN7android8hardware8grap
391:   FUNC GLOBAL DEFAULT 14 _ZN7android8hardware8grap
392:   FUNC GLOBAL DEFAULT 14 _ZN7android8hardware8grap
393:   FUNC GLOBAL DEFAULT 14 _ZN7android8hardware8grap
394:   OBJECT GLOBAL DEFAULT 18 _ZTCN7android8hardware8gr
395:   OBJECT GLOBAL DEFAULT 18 _ZTCN7android8hardware8gr
396:   FUNC GLOBAL DEFAULT 14 _ZN7android8hardware8grap
397:   FUNC GLOBAL DEFAULT 14 _ZN7android8hardware8grap
398:   FUNC GLOBAL DEFAULT 14 _ZN7android8hardware8grap
399:   OBJECT GLOBAL DEFAULT 18 _ZTCN7android8hardware8gr
400:   FUNC WEAK DEFAULT 14 _ZNSt3__16__treeINS_12__v
401:   FUNC WEAK DEFAULT 14 _ZNSt3__16__treeINS_12__v
402:   FUNC GLOBAL DEFAULT 14 _ZN7android8hardware8grap
403:   FUNC GLOBAL DEFAULT 14 _ZN7android8hardware8grap
404:   FUNC GLOBAL DEFAULT 14 _ZN7android8hardware8grap
405:   FUNC GLOBAL DEFAULT 14 _ZN7android8hardware8grap
406:   OBJECT GLOBAL DEFAULT 18 _ZTTN7android8hardware8gr
407:   FUNC GLOBAL DEFAULT 14 _ZN7android8hardware8grap
408:   FUNC WEAK DEFAULT 14 _ZNSt3__113__tree_removeI
409:   OBJECT GLOBAL DEFAULT 18 _ZTVN7android8hardware8gr
410:   FUNC GLOBAL DEFAULT 14 _ZN7android8hardware8grap
411:   FUNC GLOBAL DEFAULT 14 _ZN7android8hardware8grap
412:   FUNC GLOBAL DEFAULT 14 _ZN7android8hardware8grap
413:   OBJECT GLOBAL DEFAULT 18 _ZTTN7android8hardware8gr
414:   FUNC WEAK DEFAULT 14 _ZN7android8hardware10fro
415:   FUNC WEAK DEFAULT 14 _ZN7android8hardware7deta
416:   FUNC GLOBAL DEFAULT 14 _ZN7android8hardware8grap
417:   FUNC GLOBAL DEFAULT 14 _ZN7android8hardware8grap
418:   FUNC GLOBAL DEFAULT 14 _ZN7android8hardware8grap
419:   FUNC GLOBAL DEFAULT 14 _ZN7android8hardware8grap
420:   OBJECT WEAK DEFAULT 18 _ZTCN7android8hardware8gr
421:   OBJECT GLOBAL DEFAULT 18 _ZTCN7android8hardware8gr
422:   FUNC GLOBAL DEFAULT 14 _ZN7android8hardware8grap
423:   FUNC GLOBAL DEFAULT 14 _ZN7android8hardware8grap
424:   FUNC GLOBAL DEFAULT 14 _ZN7android8hardware8grap
425:   FUNC GLOBAL DEFAULT 14 _ZN7android8hardware8grap
426:   FUNC WEAK DEFAULT 14 _ZNSt3__127__tree_balance
427:   FUNC GLOBAL DEFAULT 14 _ZN7android8hardware8grap
428:   FUNC GLOBAL DEFAULT 14 __aeabi_memset
429:   FUNC GLOBAL DEFAULT 14 _ZN7android8hardware8grap
430:   FUNC GLOBAL DEFAULT 14 _ZN7android8hardware8grap
431:   FUNC GLOBAL DEFAULT 14 _ZN7android8hardware8grap
432:   FUNC GLOBAL DEFAULT 14 _ZN7android8hardware8grap
433:   FUNC WEAK DEFAULT 14 _ZN7android8hardware7deta
434:   FUNC GLOBAL DEFAULT 14 _ZN7android8hardware8grap
435:   FUNC GLOBAL DEFAULT 14 _ZTv0_n12_N7android8hardw
436:   FUNC GLOBAL DEFAULT 14 __aeabi_memcpy4
437:   FUNC WEAK DEFAULT 14 _ZNSt3__16vectorINS_8func
438:   OBJECT WEAK DEFAULT 18 _ZTVN7android8hardware8gr
439:   FUNC GLOBAL DEFAULT 14 _ZN7android8hardware8grap
440:   FUNC GLOBAL DEFAULT 14 _ZN7android8hardware8grap
441:   FUNC GLOBAL DEFAULT 14 _ZN7android8hardware8grap
442:   FUNC GLOBAL DEFAULT 14 _ZN7android8hardware8grap
443:   FUNC GLOBAL DEFAULT 14 _ZN7android8hardware8grap
444:   FUNC GLOBAL DEFAULT 14 _ZN7android8hardware8grap
445:   OBJECT GLOBAL DEFAULT 18 _ZTCN7android8hardware8gr
446:   FUNC GLOBAL DEFAULT 14 __aeabi_memclr
447:   FUNC GLOBAL DEFAULT 14 _ZN7android8hardware8grap
448:   FUNC GLOBAL DEFAULT 14 _ZN7android8hardware8grap
449:   FUNC GLOBAL DEFAULT 14 _ZN7android8hardware8grap
450:   FUNC GLOBAL DEFAULT 14 _ZN7android8hardware8grap
451:   FUNC GLOBAL DEFAULT 14 _ZN7android8hardware8grap
452:   FUNC GLOBAL DEFAULT 14 _ZN7android8hardware8grap
453:   FUNC GLOBAL DEFAULT 14 _ZN7android8hardware8grap
454:   FUNC GLOBAL DEFAULT 14 __aeabi_memcpy8
455:   FUNC WEAK DEFAULT 14 _ZN7android8hardware7deta
456:   FUNC WEAK DEFAULT 14 _ZN7android8hardware7deta
457:   OBJECT GLOBAL DEFAULT 16 _ZN7android8hardware8grap
458:   FUNC GLOBAL DEFAULT 14 _ZN7android8hardware8grap
459:   FUNC GLOBAL DEFAULT 14 _ZN7android8hardware8grap
460:   OBJECT GLOBAL DEFAULT 18 _ZTCN7android8hardware8gr
461:   FUNC GLOBAL DEFAULT 14 _ZN7android8hardware8grap
462:   FUNC GLOBAL DEFAULT 14 _ZN7android8hardware8grap
463:   FUNC GLOBAL DEFAULT 14 __aeabi_memset4
464:   OBJECT GLOBAL DEFAULT 18 _ZTTN7android8hardware8gr
465:   FUNC GLOBAL DEFAULT 14 _ZN7android8hardware8grap
466:   OBJECT GLOBAL DEFAULT 18 _ZTCN7android8hardware8gr
467:   FUNC GLOBAL DEFAULT 14 _ZN7android8hardware8grap
468:   OBJECT GLOBAL DEFAULT 18 _ZTCN7android8hardware8gr
469:   OBJECT GLOBAL DEFAULT 18 _ZTCN7android8hardware8gr
470:   FUNC GLOBAL DEFAULT 14 _ZThn20_N7android8hardwar
471:   FUNC GLOBAL DEFAULT 14 _ZN7android8hardware8grap
472:   FUNC GLOBAL DEFAULT 14 _ZN7android8hardware8grap
473:   FUNC GLOBAL DEFAULT 14 _ZN7android8hardware8grap
474:   FUNC GLOBAL DEFAULT 14 _ZN7android8hardware8grap
475:   FUNC GLOBAL DEFAULT 14 _ZTv0_n12_N7android8hardw
476:   FUNC GLOBAL DEFAULT 14 _ZN7android8hardware8grap
477:   FUNC GLOBAL DEFAULT 14 __aeabi_memset8
478:   FUNC GLOBAL DEFAULT 14 _ZN7android8hardware8grap
479:   FUNC WEAK DEFAULT 14 _ZNSt3__16__treeINS_12__v
480:   FUNC GLOBAL DEFAULT 14 _ZN7android8hardware8grap
481:   FUNC GLOBAL DEFAULT 14 __aeabi_memclr4
482:   FUNC GLOBAL DEFAULT 14 _ZN7android8hardware8grap
483:   FUNC GLOBAL DEFAULT 14 _ZN7android8hardware8grap
484:   FUNC GLOBAL DEFAULT 14 _ZN7android8hardware8grap
485:   FUNC GLOBAL DEFAULT 14 _ZN7android8hardware8grap
486:   OBJECT GLOBAL DEFAULT 18 _ZTCN7android8hardware8gr
487:   FUNC GLOBAL DEFAULT 14 _ZN7android8hardware8grap
488:   FUNC WEAK DEFAULT 14 _ZNSt3__16__treeINS_12__v
489:   FUNC GLOBAL DEFAULT 14 _ZN7android8hardware8grap
490:   FUNC GLOBAL DEFAULT 14 _ZN7android8hardware8grap
491:   OBJECT GLOBAL DEFAULT 18 _ZTVN7android8hardware8gr
492:   FUNC GLOBAL DEFAULT 14 _ZN7android8hardware8grap
493:   FUNC GLOBAL DEFAULT 14 _ZN7android8hardware8grap
494:   OBJECT GLOBAL DEFAULT 18 _ZTCN7android8hardware8gr
495:   FUNC GLOBAL DEFAULT 14 _ZN7android8hardware8grap
496:   FUNC GLOBAL DEFAULT 14 _ZN7android8hardware8grap
497:   FUNC GLOBAL DEFAULT 14 __aeabi_memcpy
498:   FUNC WEAK DEFAULT 14 _ZN7android8hardware7deta
499:   FUNC GLOBAL DEFAULT 14 _ZN7android8hardware8grap
500:   FUNC GLOBAL DEFAULT 14 _ZN7android8hardware8grap
501:   OBJECT GLOBAL DEFAULT 18 _ZTVN7android8hardware8gr
502:   FUNC GLOBAL DEFAULT 14 __aeabi_memclr8
503:   FUNC WEAK DEFAULT 14 _ZN7android8hardware7deta
504:   FUNC GLOBAL DEFAULT 14 _ZN7android8hardware8grap
505:   FUNC WEAK DEFAULT 14 _ZN7android8hardware7deta
506:   FUNC GLOBAL DEFAULT 14 _ZN7android8hardware8grap
507:   FUNC GLOBAL DEFAULT 14 _ZN7android8hardware8grap
508:   FUNC GLOBAL DEFAULT 14 _ZN7android8hardware8grap
509:   FUNC GLOBAL DEFAULT 14 _ZN7android8hardware8grap
510:   OBJECT GLOBAL DEFAULT 18 _ZTCN7android8hardware8gr
511:   OBJECT GLOBAL DEFAULT 18 _ZTCN7android8hardware8gr
512:   FUNC GLOBAL DEFAULT 14 _ZN7android8hardware8grap
513:   OBJECT GLOBAL DEFAULT 18 _ZTCN7android8hardware8gr
514:   FUNC GLOBAL DEFAULT 14 _ZN7android8hardware8grap
515:   FUNC GLOBAL DEFAULT 14 _ZN7android8hardware8grap
516:   FUNC GLOBAL DEFAULT 14 _ZN7android8hardware8grap
517:   FUNC GLOBAL DEFAULT 14 _ZN7android8hardware8grap
518:   FUNC GLOBAL DEFAULT 14 _ZN7android8hardware8grap
519:   FUNC GLOBAL DEFAULT 14 _ZN7android8hardware8grap
520:   FUNC GLOBAL DEFAULT 14 _ZN7android8hardware8grap
521:   OBJECT GLOBAL DEFAULT 18 _ZTTN7android8hardware8gr
522:   FUNC GLOBAL DEFAULT 14 _ZN7android8hardware8grap
523:   FUNC GLOBAL DEFAULT 14 _ZN7android8hardware8grap
524:   FUNC GLOBAL DEFAULT 14 _ZN7android8hardware8grap
525:   OBJECT GLOBAL DEFAULT 18 _ZTCN7android8hardware8gr
526:   FUNC GLOBAL DEFAULT 14 _ZN7android8hardware8grap
527:   FUNC GLOBAL DEFAULT 14 _ZN7android8hardware8grap
528:   OBJECT WEAK DEFAULT 18 _ZTCN7android8hardware8gr
529:   OBJECT GLOBAL DEFAULT 18 _ZTVN7android8hardware8gr
530:   FUNC GLOBAL DEFAULT 14 _ZN7android8hardware8grap
531:   FUNC GLOBAL DEFAULT 14 _ZN7android8hardware8grap
532:   FUNC GLOBAL DEFAULT 14 _ZN7android8hardware8grap
533:   FUNC GLOBAL DEFAULT 14 _ZN7android8hardware8grap
534:   FUNC GLOBAL DEFAULT 14 _ZN7android8hardware8grap
535:   FUNC GLOBAL DEFAULT 14 _ZN7android8hardware8grap
536:   FUNC GLOBAL DEFAULT 14 _ZN7android8hardware8grap
537:   OBJECT GLOBAL DEFAULT 18 _ZTCN7android8hardware8gr
538:   FUNC GLOBAL DEFAULT 14 _ZN7android8hardware8grap
539:   FUNC GLOBAL DEFAULT 14 _ZN7android8hardware8grap
540:   FUNC GLOBAL DEFAULT 14 _ZN7android8hardware8grap
