 0x000000000000000e (SONAME)             Library soname: [android.hardware.power@1.1.so]
  
Symbol   contains 266 entries:
Num:   Type Bind Vis Ndx Name
0:   NOTYPE LOCAL DEFAULT UND
1:   FUNC GLOBAL DEFAULT UND __cxa_finalize@LIBC (2)
2:   FUNC GLOBAL DEFAULT UND _ZN7android14sp_report_ra
3:   FUNC GLOBAL DEFAULT UND _ZN7android21report_syspr
4:   OBJECT GLOBAL DEFAULT UND _ZN7android4hidl4base4V1_
5:   FUNC GLOBAL DEFAULT UND _ZN7android4hidl4base4V1_
6:   FUNC GLOBAL DEFAULT UND _ZN7android4hidl4base4V1_
7:   FUNC GLOBAL DEFAULT UND _ZN7android4hidl4base4V1_
8:   FUNC GLOBAL DEFAULT UND _ZN7android4hidl4base4V1_
9:   FUNC GLOBAL DEFAULT UND _ZN7android4hidl4base4V1_
10:   FUNC GLOBAL DEFAULT UND _ZN7android4hidl4base4V1_
11:   FUNC GLOBAL DEFAULT UND _ZN7android4hidl4base4V1_
12:   FUNC GLOBAL DEFAULT UND _ZN7android4hidl4base4V1_
13:   FUNC GLOBAL DEFAULT UND _ZN7android4hidl4base4V1_
14:   FUNC GLOBAL DEFAULT UND _ZN7android4hidl4base4V1_
15:   FUNC GLOBAL DEFAULT UND _ZN7android4hidl4base4V1_
16:   FUNC GLOBAL DEFAULT UND _ZN7android4hidl4base4V1_
17:   FUNC GLOBAL DEFAULT UND _ZN7android4hidl4base4V1_
18:   FUNC GLOBAL DEFAULT UND _ZN7android4hidl4base4V1_
19:   FUNC GLOBAL DEFAULT UND _ZN7android4hidl4base4V1_
20:   FUNC GLOBAL DEFAULT UND _ZN7android4hidl4base4V1_
21:   FUNC GLOBAL DEFAULT UND _ZN7android4hidl4base4V1_
22:   FUNC GLOBAL DEFAULT UND _ZN7android4hidl4base4V1_
23:   FUNC GLOBAL DEFAULT UND _ZN7android4hidl4base4V1_
24:   FUNC GLOBAL DEFAULT UND _ZN7android4hidl4base4V1_
25:   FUNC GLOBAL DEFAULT UND _ZN7android4hidl4base4V1_
26:   FUNC GLOBAL DEFAULT UND _ZN7android4hidl4base4V1_
27:   FUNC GLOBAL DEFAULT UND _ZN7android4hidl4base4V1_
28:   FUNC GLOBAL DEFAULT UND _ZN7android7RefBase10onFi
29:   FUNC GLOBAL DEFAULT UND _ZN7android7RefBase12weak
30:   FUNC GLOBAL DEFAULT UND _ZN7android7RefBase13onLa
31:   FUNC GLOBAL DEFAULT UND _ZN7android7RefBase15onLa
32:   FUNC GLOBAL DEFAULT UND _ZN7android7RefBase20onIn
33:   FUNC GLOBAL DEFAULT UND _ZN7android7RefBaseC2Ev
34:   FUNC GLOBAL DEFAULT UND _ZN7android7RefBaseD2Ev
35:   FUNC GLOBAL DEFAULT UND _ZN7android8hardware10IIn
36:   FUNC GLOBAL DEFAULT UND _ZN7android8hardware10IIn
37:   FUNC GLOBAL DEFAULT UND _ZN7android8hardware10IIn
38:   FUNC GLOBAL DEFAULT UND _ZN7android8hardware10IIn
39:   FUNC GLOBAL DEFAULT UND _ZN7android8hardware10IIn
40:   FUNC GLOBAL DEFAULT UND _ZN7android8hardware11BpH
41:   FUNC GLOBAL DEFAULT UND _ZN7android8hardware11BpH
42:   FUNC GLOBAL DEFAULT UND _ZN7android8hardware11BpH
43:   FUNC GLOBAL DEFAULT UND _ZN7android8hardware11BpH
44:   FUNC GLOBAL DEFAULT UND _ZN7android8hardware11BpH
45:   FUNC GLOBAL DEFAULT UND _ZN7android8hardware11BpH
46:   FUNC GLOBAL DEFAULT UND _ZN7android8hardware11BpH
47:   FUNC GLOBAL DEFAULT UND _ZN7android8hardware11hid
48:   FUNC GLOBAL DEFAULT UND _ZN7android8hardware11hid
49:   FUNC GLOBAL DEFAULT UND _ZN7android8hardware11hid
50:   FUNC GLOBAL DEFAULT UND _ZN7android8hardware11hid
51:   FUNC GLOBAL DEFAULT UND _ZN7android8hardware11hid
52:   FUNC GLOBAL DEFAULT UND _ZN7android8hardware12Pro
53:   FUNC GLOBAL DEFAULT UND _ZN7android8hardware12Pro
54:   FUNC GLOBAL DEFAULT UND _ZN7android8hardware13wri
55:   FUNC GLOBAL DEFAULT UND _ZN7android8hardware14rea
56:   FUNC GLOBAL DEFAULT UND _ZN7android8hardware21def
57:   FUNC GLOBAL DEFAULT UND _ZN7android8hardware23get
58:   FUNC GLOBAL DEFAULT UND _ZN7android8hardware27hid
59:   FUNC GLOBAL DEFAULT UND _ZN7android8hardware27hid
60:   OBJECT GLOBAL DEFAULT UND _ZN7android8hardware5powe
61:   FUNC GLOBAL DEFAULT UND _ZN7android8hardware5powe
62:   FUNC GLOBAL DEFAULT UND _ZN7android8hardware5powe
63:   FUNC GLOBAL DEFAULT UND _ZN7android8hardware5powe
64:   FUNC GLOBAL DEFAULT UND _ZN7android8hardware5powe
65:   FUNC GLOBAL DEFAULT UND _ZN7android8hardware5powe
66:   FUNC GLOBAL DEFAULT UND _ZN7android8hardware5powe
67:   FUNC GLOBAL DEFAULT UND _ZN7android8hardware5powe
68:   FUNC GLOBAL DEFAULT UND _ZN7android8hardware5powe
69:   FUNC GLOBAL DEFAULT UND _ZN7android8hardware5powe
70:   FUNC GLOBAL DEFAULT UND _ZN7android8hardware5powe
71:   FUNC GLOBAL DEFAULT UND _ZN7android8hardware5powe
72:   FUNC GLOBAL DEFAULT UND _ZN7android8hardware5powe
73:   FUNC GLOBAL DEFAULT UND _ZN7android8hardware5powe
74:   FUNC GLOBAL DEFAULT UND _ZN7android8hardware5powe
75:   FUNC GLOBAL DEFAULT UND _ZN7android8hardware5powe
76:   FUNC GLOBAL DEFAULT UND _ZN7android8hardware5powe
77:   FUNC GLOBAL DEFAULT UND _ZN7android8hardware5powe
78:   FUNC GLOBAL DEFAULT UND _ZN7android8hardware5powe
79:   FUNC GLOBAL DEFAULT UND _ZN7android8hardware6Parc
80:   FUNC GLOBAL DEFAULT UND _ZN7android8hardware6Parc
81:   FUNC GLOBAL DEFAULT UND _ZN7android8hardware6Parc
82:   FUNC GLOBAL DEFAULT UND _ZN7android8hardware6Parc
83:   FUNC GLOBAL DEFAULT UND _ZN7android8hardware6Parc
84:   FUNC GLOBAL DEFAULT UND _ZN7android8hardware6Parc
85:   FUNC GLOBAL DEFAULT UND _ZN7android8hardware6Parc
86:   FUNC GLOBAL DEFAULT UND _ZN7android8hardware6Stat
87:   FUNC GLOBAL DEFAULT UND _ZN7android8hardware6Stat
88:   FUNC GLOBAL DEFAULT UND _ZN7android8hardware6Stat
89:   FUNC GLOBAL DEFAULT UND _ZN7android8hardware6Stat
90:   FUNC GLOBAL DEFAULT UND _ZN7android8hardware7IBin
91:   FUNC GLOBAL DEFAULT UND _ZN7android8hardware7IBin
92:   FUNC GLOBAL DEFAULT UND _ZN7android8hardware7IBin
93:   FUNC GLOBAL DEFAULT UND _ZN7android8hardware7IBin
94:   FUNC GLOBAL DEFAULT UND _ZN7android8hardware7deta
95:   FUNC GLOBAL DEFAULT UND _ZN7android8hardware7deta
96:   FUNC GLOBAL DEFAULT UND _ZN7android8hardware7deta
97:   FUNC GLOBAL DEFAULT UND _ZN7android8hardware7deta
98:   FUNC GLOBAL DEFAULT UND _ZN7android8hardware7deta
99:   FUNC GLOBAL DEFAULT UND _ZN7android8hardware7deta
100:   FUNC GLOBAL DEFAULT UND _ZN7android8hardware7deta
101:   OBJECT GLOBAL DEFAULT UND _ZN7android8hardware7deta
102:   FUNC GLOBAL DEFAULT UND _ZN7android8hardware7deta
103:   OBJECT GLOBAL DEFAULT UND _ZN7android8hardware7deta
104:   FUNC GLOBAL DEFAULT UND _ZN7android8hardware7deta
105:   FUNC GLOBAL DEFAULT UND _ZN7android8hardware7deta
106:   FUNC GLOBAL DEFAULT UND _ZN7android8hardware7deta
107:   FUNC GLOBAL DEFAULT UND _ZN7android8hardware7deta
108:   FUNC GLOBAL DEFAULT UND _ZN7android8hardware7deta
109:   FUNC GLOBAL DEFAULT UND _ZN7android8hardware7deta
110:   FUNC GLOBAL DEFAULT UND _ZN7android8hardware7deta
111:   FUNC GLOBAL DEFAULT UND _ZN7android8hardware7deta
112:   FUNC GLOBAL DEFAULT UND _ZN7android8hardware7deta
113:   OBJECT GLOBAL DEFAULT UND _ZN7android8hardware7deta
114:   FUNC GLOBAL DEFAULT UND _ZN7android8hardware9BHwB
115:   FUNC GLOBAL DEFAULT UND _ZN7android8hardware9BHwB
116:   FUNC GLOBAL DEFAULT UND _ZN7android8hardware9BHwB
117:   FUNC GLOBAL DEFAULT UND _ZN7android8hardware9BHwB
118:   FUNC GLOBAL DEFAULT UND _ZN7android8hardware9BHwB
119:   FUNC GLOBAL DEFAULT UND _ZN7android8hardware9BHwB
120:   FUNC GLOBAL DEFAULT UND _ZN7android8hardware9BHwB
121:   FUNC GLOBAL DEFAULT UND _ZN7android8hardware9BHwB
122:   FUNC GLOBAL DEFAULT UND _ZN7android8hardware9BHwB
123:   FUNC GLOBAL DEFAULT UND _ZN7android8hardware9BHwB
124:   FUNC GLOBAL DEFAULT UND _ZNK7android7RefBase10cre
125:   FUNC GLOBAL DEFAULT UND _ZNK7android7RefBase11get
126:   FUNC GLOBAL DEFAULT UND _ZNK7android7RefBase9decS
127:   FUNC GLOBAL DEFAULT UND _ZNK7android7RefBase9incS
128:   FUNC GLOBAL DEFAULT UND _ZNK7android8hardware6Par
129:   FUNC GLOBAL DEFAULT UND _ZNK7android8hardware6Par
130:   FUNC GLOBAL DEFAULT UND _ZNK7android8hardware6Par
131:   FUNC GLOBAL DEFAULT UND _ZNK7android8hardware6Par
132:   FUNC GLOBAL DEFAULT UND _ZNK7android8hardware6Par
133:   FUNC GLOBAL DEFAULT UND _ZNK7android8hardware7IBi
134:   FUNC GLOBAL DEFAULT UND _ZNK7android8hardware7det
135:   FUNC GLOBAL DEFAULT UND _ZNK7android8hardware9BHw
136:   FUNC GLOBAL DEFAULT UND _ZNKSt3__120__vector_base
137:   FUNC GLOBAL DEFAULT UND _ZNKSt3__121__basic_strin
138:   FUNC GLOBAL DEFAULT UND _ZNSt3__112basic_stringIc
139:   FUNC GLOBAL DEFAULT UND _ZNSt3__15mutex4lockEv
140:   FUNC GLOBAL DEFAULT UND _ZNSt3__15mutex6unlockEv
141:   FUNC GLOBAL DEFAULT UND _ZNSt3__15mutexD1Ev
142:   FUNC GLOBAL DEFAULT UND _ZTv0_n24_N7android4hidl4
143:   FUNC GLOBAL DEFAULT UND _ZTv0_n24_N7android4hidl4
144:   FUNC GLOBAL DEFAULT UND _ZTv0_n24_N7android8hardw
145:   FUNC GLOBAL DEFAULT UND _ZTv0_n24_N7android8hardw
146:   FUNC GLOBAL DEFAULT UND _ZTv0_n24_N7android8hardw
147:   FUNC GLOBAL DEFAULT UND _ZTv0_n24_N7android8hardw
148:   FUNC GLOBAL DEFAULT UND _ZTv0_n24_N7android8hardw
149:   FUNC GLOBAL DEFAULT UND _ZTv0_n24_N7android8hardw
150:   FUNC GLOBAL DEFAULT UND _ZTv0_n24_N7android8hardw
151:   FUNC GLOBAL DEFAULT UND _ZTv0_n24_N7android8hardw
152:   FUNC GLOBAL DEFAULT UND _ZTv0_n32_N7android8hardw
153:   FUNC GLOBAL DEFAULT UND _ZTv0_n40_N7android8hardw
154:   FUNC GLOBAL DEFAULT UND _ZTv0_n48_N7android8hardw
155:   FUNC GLOBAL DEFAULT UND _ZdaPv
156:   FUNC GLOBAL DEFAULT UND _ZdlPv
157:   FUNC GLOBAL DEFAULT UND _Znam
158:   FUNC GLOBAL DEFAULT UND _Znwm
159:   FUNC GLOBAL DEFAULT UND __android_log_assert@LIBLOG (3)
160:   FUNC GLOBAL DEFAULT UND __cxa_pure_virtual
161:   FUNC GLOBAL DEFAULT UND __stack_chk_fail@LIBC (2)
162:   FUNC GLOBAL DEFAULT UND abort@LIBC (2)
163:   FUNC GLOBAL DEFAULT UND atrace_begin_body
164:   OBJECT GLOBAL DEFAULT UND atrace_enabled_tags
165:   FUNC GLOBAL DEFAULT UND atrace_end_body
166:   OBJECT GLOBAL DEFAULT UND atrace_is_ready
167:   FUNC GLOBAL DEFAULT UND atrace_setup
168:   FUNC GLOBAL DEFAULT UND memcmp@LIBC (2)
169:   FUNC GLOBAL DEFAULT UND memcpy@LIBC (2)
170:   FUNC GLOBAL DEFAULT UND memset@LIBC (2)
171:   FUNC GLOBAL DEFAULT UND strlen@LIBC (2)
172:   FUNC GLOBAL DEFAULT UND _ZN7android8hardware21wri
173:   FUNC GLOBAL DEFAULT UND _ZN7android8hardware22rea
174:   FUNC GLOBAL DEFAULT 14 _ZN7android8hardware5powe
175:   FUNC GLOBAL DEFAULT 14 _ZN7android8hardware5powe
176:   FUNC GLOBAL DEFAULT 14 _ZN7android8hardware5powe
177:   OBJECT GLOBAL DEFAULT 18 _ZTVN7android8hardware5po
178:   OBJECT WEAK DEFAULT 18 _ZTVN7android8hardware5po
179:   FUNC GLOBAL DEFAULT 14 _ZN7android8hardware5powe
180:   FUNC GLOBAL DEFAULT 14 _ZN7android8hardware5powe
181:   FUNC GLOBAL DEFAULT 14 _ZN7android8hardware5powe
182:   FUNC WEAK DEFAULT 14 _ZN7android8hardware7deta
183:   OBJECT GLOBAL DEFAULT 18 _ZTCN7android8hardware5po
184:   FUNC GLOBAL DEFAULT 14 _ZN7android8hardware5powe
185:   FUNC GLOBAL DEFAULT 14 _ZN7android8hardware5powe
186:   FUNC GLOBAL DEFAULT 14 _ZN7android8hardware5powe
187:   FUNC GLOBAL DEFAULT 14 _ZN7android8hardware5powe
188:   FUNC GLOBAL DEFAULT 14 _ZN7android8hardware5powe
189:   OBJECT GLOBAL DEFAULT 18 _ZTCN7android8hardware5po
190:   FUNC GLOBAL DEFAULT 14 _ZN7android8hardware5powe
191:   FUNC WEAK DEFAULT 14 _ZNSt3__16__treeINS_12__v
192:   FUNC GLOBAL DEFAULT 14 _ZN7android8hardware5powe
193:   FUNC GLOBAL DEFAULT 14 _ZN7android8hardware5powe
194:   FUNC GLOBAL DEFAULT 14 _ZN7android8hardware5powe
195:   FUNC WEAK DEFAULT 14 _ZN7android8hardware7deta
196:   FUNC WEAK DEFAULT 14 _ZNSt3__16__treeINS_12__v
197:   FUNC WEAK DEFAULT 14 _ZNSt3__16vectorINS_8func
198:   OBJECT GLOBAL DEFAULT 18 _ZTVN7android8hardware5po
199:   FUNC GLOBAL DEFAULT 14 _ZN7android8hardware5powe
200:   FUNC GLOBAL DEFAULT 14 _ZN7android8hardware5powe
201:   FUNC GLOBAL DEFAULT 14 _ZN7android8hardware5powe
202:   FUNC GLOBAL DEFAULT 14 _ZN7android8hardware5powe
203:   FUNC GLOBAL DEFAULT 14 _ZN7android8hardware5powe
204:   FUNC GLOBAL DEFAULT 14 _ZThn32_N7android8hardwar
205:   FUNC GLOBAL DEFAULT 14 _ZTv0_n24_N7android8hardw
206:   OBJECT WEAK DEFAULT 18 _ZTCN7android8hardware5po
207:   OBJECT GLOBAL DEFAULT 18 _ZTCN7android8hardware5po
208:   OBJECT GLOBAL DEFAULT 18 _ZTTN7android8hardware5po
209:   FUNC WEAK DEFAULT 14 _ZNSt3__16__treeINS_12__v
210:   OBJECT GLOBAL DEFAULT 18 _ZTCN7android8hardware5po
211:   FUNC GLOBAL DEFAULT 14 _ZN7android8hardware5powe
212:   FUNC GLOBAL DEFAULT 14 _ZN7android8hardware5powe
213:   FUNC WEAK DEFAULT 14 _ZNSt3__16__treeINS_12__v
214:   OBJECT GLOBAL DEFAULT 18 _ZTCN7android8hardware5po
215:   FUNC GLOBAL DEFAULT 14 _ZN7android8hardware5powe
216:   FUNC GLOBAL DEFAULT 14 _ZN7android8hardware5powe
217:   FUNC GLOBAL DEFAULT 14 _ZN7android8hardware5powe
218:   FUNC GLOBAL DEFAULT 14 _ZN7android8hardware5powe
219:   FUNC GLOBAL DEFAULT 14 _ZN7android8hardware5powe
220:   FUNC WEAK DEFAULT 14 _ZNSt3__16__treeINS_12__v
221:   OBJECT GLOBAL DEFAULT 18 _ZTCN7android8hardware5po
222:   FUNC GLOBAL DEFAULT 14 _ZN7android8hardware5powe
223:   FUNC GLOBAL DEFAULT 14 _ZN7android8hardware5powe
224:   FUNC GLOBAL DEFAULT 14 _ZN7android8hardware5powe
225:   FUNC GLOBAL DEFAULT 14 _ZN7android8hardware5powe
226:   OBJECT GLOBAL DEFAULT 16 _ZN7android8hardware5powe
227:   FUNC GLOBAL DEFAULT 14 _ZN7android8hardware5powe
228:   FUNC WEAK DEFAULT 14 _ZNSt3__16__treeINS_12__v
229:   OBJECT GLOBAL DEFAULT 18 _ZTCN7android8hardware5po
230:   FUNC GLOBAL DEFAULT 14 _ZN7android8hardware5powe
231:   FUNC GLOBAL DEFAULT 14 _ZN7android8hardware5powe
232:   FUNC GLOBAL DEFAULT 14 _ZN7android8hardware5powe
233:   OBJECT GLOBAL DEFAULT 18 _ZTCN7android8hardware5po
234:   FUNC GLOBAL DEFAULT 14 _ZThn32_N7android8hardwar
235:   FUNC GLOBAL DEFAULT 14 _ZTv0_n24_N7android8hardw
236:   FUNC GLOBAL DEFAULT 14 _ZN7android8hardware5powe
237:   FUNC GLOBAL DEFAULT 14 _ZN7android8hardware5powe
238:   FUNC WEAK DEFAULT 14 _ZNSt3__16vectorIPvNS_9al
239:   OBJECT GLOBAL DEFAULT 18 _ZTCN7android8hardware5po
240:   OBJECT GLOBAL DEFAULT 18 _ZTCN7android8hardware5po
241:   OBJECT GLOBAL DEFAULT 18 _ZTVN7android8hardware5po
242:   FUNC GLOBAL DEFAULT 14 _ZN7android8hardware5powe
243:   FUNC GLOBAL DEFAULT 14 _ZN7android8hardware5powe
244:   FUNC GLOBAL DEFAULT 14 _ZN7android8hardware5powe
245:   FUNC GLOBAL DEFAULT 14 _ZN7android8hardware5powe
246:   FUNC GLOBAL DEFAULT 14 _ZN7android8hardware5powe
247:   FUNC GLOBAL DEFAULT 14 _ZN7android8hardware5powe
248:   FUNC GLOBAL DEFAULT 14 _ZN7android8hardware5powe
249:   FUNC GLOBAL DEFAULT 14 _ZN7android8hardware5powe
250:   FUNC WEAK DEFAULT 14 _ZN7android8hardware7deta
251:   FUNC WEAK DEFAULT 14 _ZNSt3__113__tree_removeI
252:   FUNC GLOBAL DEFAULT 14 _ZN7android8hardware5powe
253:   FUNC WEAK DEFAULT 14 _ZNSt3__127__tree_balance
254:   OBJECT GLOBAL DEFAULT 18 _ZTCN7android8hardware5po
255:   FUNC GLOBAL DEFAULT 14 _ZN7android8hardware5powe
256:   FUNC GLOBAL DEFAULT 14 _ZN7android8hardware5powe
257:   FUNC GLOBAL DEFAULT 14 _ZN7android8hardware5powe
258:   FUNC GLOBAL DEFAULT 14 _ZN7android8hardware5powe
259:   OBJECT GLOBAL DEFAULT 18 _ZTTN7android8hardware5po
260:   OBJECT GLOBAL DEFAULT 18 _ZTTN7android8hardware5po
261:   FUNC GLOBAL DEFAULT 14 _ZN7android8hardware5powe
262:   FUNC GLOBAL DEFAULT 14 _ZN7android8hardware5powe
263:   FUNC GLOBAL DEFAULT 14 _ZN7android8hardware5powe
264:   FUNC GLOBAL DEFAULT 14 _ZN7android8hardware5powe
265:   FUNC WEAK DEFAULT 14 _ZNSt3__16vectorIN7androi
