 0x000000000000000e (SONAME)             Library soname: [android.hardware.camera.common@1.0.so]
  
Symbol   contains 13 entries:
Num:   Type Bind Vis Ndx Name
0:   NOTYPE LOCAL DEFAULT UND
1:   FUNC GLOBAL DEFAULT UND __cxa_finalize@LIBC (2)
2:   FUNC GLOBAL DEFAULT UND _ZN7android8hardware21wri
3:   FUNC GLOBAL DEFAULT UND _ZN7android8hardware22rea
4:   FUNC GLOBAL DEFAULT UND _ZN7android8hardware6Parc
5:   FUNC GLOBAL DEFAULT UND _ZNK7android8hardware6Par
6:   FUNC GLOBAL DEFAULT UND __stack_chk_fail@LIBC (2)
7:   FUNC GLOBAL DEFAULT 12 _ZN7android8hardware6came
8:   FUNC GLOBAL DEFAULT 12 _ZN7android8hardware6came
9:   FUNC GLOBAL DEFAULT 12 _ZN7android8hardware6came
10:   FUNC GLOBAL DEFAULT 12 _ZN7android8hardware6came
11:   FUNC GLOBAL DEFAULT 12 _ZN7android8hardware6came
12:   FUNC GLOBAL DEFAULT 12 _ZN7android8hardware6came
