 0x000000000000000e (SONAME)             Library soname: [android.hardware.configstore@1.1.so]
  
Symbol   contains 275 entries:
Num:   Type Bind Vis Ndx Name
0:   NOTYPE LOCAL DEFAULT UND
1:   FUNC GLOBAL DEFAULT UND __cxa_finalize@LIBC (2)
2:   FUNC GLOBAL DEFAULT UND _ZN7android14sp_report_ra
3:   FUNC GLOBAL DEFAULT UND _ZN7android21report_syspr
4:   OBJECT GLOBAL DEFAULT UND _ZN7android4hidl4base4V1_
5:   FUNC GLOBAL DEFAULT UND _ZN7android4hidl4base4V1_
6:   FUNC GLOBAL DEFAULT UND _ZN7android4hidl4base4V1_
7:   FUNC GLOBAL DEFAULT UND _ZN7android4hidl4base4V1_
8:   FUNC GLOBAL DEFAULT UND _ZN7android4hidl4base4V1_
9:   FUNC GLOBAL DEFAULT UND _ZN7android4hidl4base4V1_
10:   FUNC GLOBAL DEFAULT UND _ZN7android4hidl4base4V1_
11:   FUNC GLOBAL DEFAULT UND _ZN7android4hidl4base4V1_
12:   FUNC GLOBAL DEFAULT UND _ZN7android4hidl4base4V1_
13:   FUNC GLOBAL DEFAULT UND _ZN7android4hidl4base4V1_
14:   FUNC GLOBAL DEFAULT UND _ZN7android4hidl4base4V1_
15:   FUNC GLOBAL DEFAULT UND _ZN7android4hidl4base4V1_
16:   FUNC GLOBAL DEFAULT UND _ZN7android4hidl4base4V1_
17:   FUNC GLOBAL DEFAULT UND _ZN7android4hidl4base4V1_
18:   FUNC GLOBAL DEFAULT UND _ZN7android4hidl4base4V1_
19:   FUNC GLOBAL DEFAULT UND _ZN7android4hidl4base4V1_
20:   FUNC GLOBAL DEFAULT UND _ZN7android4hidl4base4V1_
21:   FUNC GLOBAL DEFAULT UND _ZN7android4hidl4base4V1_
22:   FUNC GLOBAL DEFAULT UND _ZN7android4hidl4base4V1_
23:   FUNC GLOBAL DEFAULT UND _ZN7android4hidl4base4V1_
24:   FUNC GLOBAL DEFAULT UND _ZN7android4hidl4base4V1_
25:   FUNC GLOBAL DEFAULT UND _ZN7android4hidl4base4V1_
26:   FUNC GLOBAL DEFAULT UND _ZN7android4hidl4base4V1_
27:   FUNC GLOBAL DEFAULT UND _ZN7android4hidl4base4V1_
28:   FUNC GLOBAL DEFAULT UND _ZN7android7RefBase10onFi
29:   FUNC GLOBAL DEFAULT UND _ZN7android7RefBase12weak
30:   FUNC GLOBAL DEFAULT UND _ZN7android7RefBase13onLa
31:   FUNC GLOBAL DEFAULT UND _ZN7android7RefBase15onLa
32:   FUNC GLOBAL DEFAULT UND _ZN7android7RefBase20onIn
33:   FUNC GLOBAL DEFAULT UND _ZN7android7RefBaseC2Ev
34:   FUNC GLOBAL DEFAULT UND _ZN7android7RefBaseD2Ev
35:   FUNC GLOBAL DEFAULT UND _ZN7android8hardware10IIn
36:   FUNC GLOBAL DEFAULT UND _ZN7android8hardware10IIn
37:   FUNC GLOBAL DEFAULT UND _ZN7android8hardware10IIn
38:   FUNC GLOBAL DEFAULT UND _ZN7android8hardware10IIn
39:   FUNC GLOBAL DEFAULT UND _ZN7android8hardware10IIn
40:   FUNC GLOBAL DEFAULT UND _ZN7android8hardware11BpH
41:   FUNC GLOBAL DEFAULT UND _ZN7android8hardware11BpH
42:   FUNC GLOBAL DEFAULT UND _ZN7android8hardware11BpH
43:   FUNC GLOBAL DEFAULT UND _ZN7android8hardware11BpH
44:   FUNC GLOBAL DEFAULT UND _ZN7android8hardware11BpH
45:   FUNC GLOBAL DEFAULT UND _ZN7android8hardware11BpH
46:   FUNC GLOBAL DEFAULT UND _ZN7android8hardware11BpH
47:   OBJECT GLOBAL DEFAULT UND _ZN7android8hardware11con
48:   FUNC GLOBAL DEFAULT UND _ZN7android8hardware11con
49:   FUNC GLOBAL DEFAULT UND _ZN7android8hardware11con
50:   FUNC GLOBAL DEFAULT UND _ZN7android8hardware11con
51:   FUNC GLOBAL DEFAULT UND _ZN7android8hardware11con
52:   FUNC GLOBAL DEFAULT UND _ZN7android8hardware11con
53:   FUNC GLOBAL DEFAULT UND _ZN7android8hardware11con
54:   FUNC GLOBAL DEFAULT UND _ZN7android8hardware11con
55:   FUNC GLOBAL DEFAULT UND _ZN7android8hardware11con
56:   FUNC GLOBAL DEFAULT UND _ZN7android8hardware11con
57:   FUNC GLOBAL DEFAULT UND _ZN7android8hardware11con
58:   FUNC GLOBAL DEFAULT UND _ZN7android8hardware11con
59:   FUNC GLOBAL DEFAULT UND _ZN7android8hardware11con
60:   FUNC GLOBAL DEFAULT UND _ZN7android8hardware11con
61:   FUNC GLOBAL DEFAULT UND _ZN7android8hardware11con
62:   FUNC GLOBAL DEFAULT UND _ZN7android8hardware11con
63:   FUNC GLOBAL DEFAULT UND _ZN7android8hardware11con
64:   FUNC GLOBAL DEFAULT UND _ZN7android8hardware11con
65:   FUNC GLOBAL DEFAULT UND _ZN7android8hardware11con
66:   FUNC GLOBAL DEFAULT UND _ZN7android8hardware11con
67:   FUNC GLOBAL DEFAULT UND _ZN7android8hardware11con
68:   FUNC GLOBAL DEFAULT UND _ZN7android8hardware11con
69:   FUNC GLOBAL DEFAULT UND _ZN7android8hardware11con
70:   FUNC GLOBAL DEFAULT UND _ZN7android8hardware11con
71:   FUNC GLOBAL DEFAULT UND _ZN7android8hardware11con
72:   FUNC GLOBAL DEFAULT UND _ZN7android8hardware11con
73:   FUNC GLOBAL DEFAULT UND _ZN7android8hardware11con
74:   FUNC GLOBAL DEFAULT UND _ZN7android8hardware11con
75:   FUNC GLOBAL DEFAULT UND _ZN7android8hardware11con
76:   FUNC GLOBAL DEFAULT UND _ZN7android8hardware11con
77:   FUNC GLOBAL DEFAULT UND _ZN7android8hardware11con
78:   FUNC GLOBAL DEFAULT UND _ZN7android8hardware11con
79:   FUNC GLOBAL DEFAULT UND _ZN7android8hardware11con
80:   FUNC GLOBAL DEFAULT UND _ZN7android8hardware11con
81:   FUNC GLOBAL DEFAULT UND _ZN7android8hardware11con
82:   FUNC GLOBAL DEFAULT UND _ZN7android8hardware11hid
83:   FUNC GLOBAL DEFAULT UND _ZN7android8hardware11hid
84:   FUNC GLOBAL DEFAULT UND _ZN7android8hardware11hid
85:   FUNC GLOBAL DEFAULT UND _ZN7android8hardware11hid
86:   FUNC GLOBAL DEFAULT UND _ZN7android8hardware11hid
87:   FUNC GLOBAL DEFAULT UND _ZN7android8hardware12Pro
88:   FUNC GLOBAL DEFAULT UND _ZN7android8hardware12Pro
89:   FUNC GLOBAL DEFAULT UND _ZN7android8hardware13wri
90:   FUNC GLOBAL DEFAULT UND _ZN7android8hardware14rea
91:   FUNC GLOBAL DEFAULT UND _ZN7android8hardware21def
92:   FUNC GLOBAL DEFAULT UND _ZN7android8hardware23get
93:   FUNC GLOBAL DEFAULT UND _ZN7android8hardware27hid
94:   FUNC GLOBAL DEFAULT UND _ZN7android8hardware27hid
95:   FUNC GLOBAL DEFAULT UND _ZN7android8hardware6Parc
96:   FUNC GLOBAL DEFAULT UND _ZN7android8hardware6Parc
97:   FUNC GLOBAL DEFAULT UND _ZN7android8hardware6Parc
98:   FUNC GLOBAL DEFAULT UND _ZN7android8hardware6Parc
99:   FUNC GLOBAL DEFAULT UND _ZN7android8hardware6Stat
100:   FUNC GLOBAL DEFAULT UND _ZN7android8hardware6Stat
101:   FUNC GLOBAL DEFAULT UND _ZN7android8hardware6Stat
102:   FUNC GLOBAL DEFAULT UND _ZN7android8hardware6Stat
103:   FUNC GLOBAL DEFAULT UND _ZN7android8hardware7IBin
104:   FUNC GLOBAL DEFAULT UND _ZN7android8hardware7IBin
105:   FUNC GLOBAL DEFAULT UND _ZN7android8hardware7IBin
106:   FUNC GLOBAL DEFAULT UND _ZN7android8hardware7IBin
107:   FUNC GLOBAL DEFAULT UND _ZN7android8hardware7deta
108:   FUNC GLOBAL DEFAULT UND _ZN7android8hardware7deta
109:   FUNC GLOBAL DEFAULT UND _ZN7android8hardware7deta
110:   FUNC GLOBAL DEFAULT UND _ZN7android8hardware7deta
111:   FUNC GLOBAL DEFAULT UND _ZN7android8hardware7deta
112:   FUNC GLOBAL DEFAULT UND _ZN7android8hardware7deta
113:   FUNC GLOBAL DEFAULT UND _ZN7android8hardware7deta
114:   OBJECT GLOBAL DEFAULT UND _ZN7android8hardware7deta
115:   FUNC GLOBAL DEFAULT UND _ZN7android8hardware7deta
116:   OBJECT GLOBAL DEFAULT UND _ZN7android8hardware7deta
117:   FUNC GLOBAL DEFAULT UND _ZN7android8hardware7deta
118:   FUNC GLOBAL DEFAULT UND _ZN7android8hardware7deta
119:   FUNC GLOBAL DEFAULT UND _ZN7android8hardware7deta
120:   FUNC GLOBAL DEFAULT UND _ZN7android8hardware7deta
121:   FUNC GLOBAL DEFAULT UND _ZN7android8hardware7deta
122:   FUNC GLOBAL DEFAULT UND _ZN7android8hardware7deta
123:   FUNC GLOBAL DEFAULT UND _ZN7android8hardware7deta
124:   FUNC GLOBAL DEFAULT UND _ZN7android8hardware7deta
125:   FUNC GLOBAL DEFAULT UND _ZN7android8hardware7deta
126:   OBJECT GLOBAL DEFAULT UND _ZN7android8hardware7deta
127:   FUNC GLOBAL DEFAULT UND _ZN7android8hardware9BHwB
128:   FUNC GLOBAL DEFAULT UND _ZN7android8hardware9BHwB
129:   FUNC GLOBAL DEFAULT UND _ZN7android8hardware9BHwB
130:   FUNC GLOBAL DEFAULT UND _ZN7android8hardware9BHwB
131:   FUNC GLOBAL DEFAULT UND _ZN7android8hardware9BHwB
132:   FUNC GLOBAL DEFAULT UND _ZN7android8hardware9BHwB
133:   FUNC GLOBAL DEFAULT UND _ZN7android8hardware9BHwB
134:   FUNC GLOBAL DEFAULT UND _ZN7android8hardware9BHwB
135:   FUNC GLOBAL DEFAULT UND _ZN7android8hardware9BHwB
136:   FUNC GLOBAL DEFAULT UND _ZN7android8hardware9BHwB
137:   FUNC GLOBAL DEFAULT UND _ZNK7android7RefBase10cre
138:   FUNC GLOBAL DEFAULT UND _ZNK7android7RefBase11get
139:   FUNC GLOBAL DEFAULT UND _ZNK7android7RefBase9decS
140:   FUNC GLOBAL DEFAULT UND _ZNK7android7RefBase9incS
141:   FUNC GLOBAL DEFAULT UND _ZNK7android8hardware6Par
142:   FUNC GLOBAL DEFAULT UND _ZNK7android8hardware6Par
143:   FUNC GLOBAL DEFAULT UND _ZNK7android8hardware7IBi
144:   FUNC GLOBAL DEFAULT UND _ZNK7android8hardware7det
145:   FUNC GLOBAL DEFAULT UND _ZNK7android8hardware9BHw
146:   FUNC GLOBAL DEFAULT UND _ZNKSt3__120__vector_base
147:   FUNC GLOBAL DEFAULT UND _ZNKSt3__121__basic_strin
148:   FUNC GLOBAL DEFAULT UND _ZNSt3__112basic_stringIc
149:   FUNC GLOBAL DEFAULT UND _ZNSt3__15mutex4lockEv
150:   FUNC GLOBAL DEFAULT UND _ZNSt3__15mutex6unlockEv
151:   FUNC GLOBAL DEFAULT UND _ZNSt3__15mutexD1Ev
152:   FUNC GLOBAL DEFAULT UND _ZTv0_n24_N7android4hidl4
153:   FUNC GLOBAL DEFAULT UND _ZTv0_n24_N7android4hidl4
154:   FUNC GLOBAL DEFAULT UND _ZTv0_n24_N7android8hardw
155:   FUNC GLOBAL DEFAULT UND _ZTv0_n24_N7android8hardw
156:   FUNC GLOBAL DEFAULT UND _ZTv0_n24_N7android8hardw
157:   FUNC GLOBAL DEFAULT UND _ZTv0_n24_N7android8hardw
158:   FUNC GLOBAL DEFAULT UND _ZTv0_n24_N7android8hardw
159:   FUNC GLOBAL DEFAULT UND _ZTv0_n24_N7android8hardw
160:   FUNC GLOBAL DEFAULT UND _ZTv0_n24_N7android8hardw
161:   FUNC GLOBAL DEFAULT UND _ZTv0_n24_N7android8hardw
162:   FUNC GLOBAL DEFAULT UND _ZTv0_n32_N7android8hardw
163:   FUNC GLOBAL DEFAULT UND _ZTv0_n40_N7android8hardw
164:   FUNC GLOBAL DEFAULT UND _ZTv0_n48_N7android8hardw
165:   FUNC GLOBAL DEFAULT UND _ZdaPv
166:   FUNC GLOBAL DEFAULT UND _ZdlPv
167:   FUNC GLOBAL DEFAULT UND _Znam
168:   FUNC GLOBAL DEFAULT UND _Znwm
169:   FUNC GLOBAL DEFAULT UND __android_log_assert@LIBLOG (3)
170:   FUNC GLOBAL DEFAULT UND __cxa_pure_virtual
171:   FUNC GLOBAL DEFAULT UND __stack_chk_fail@LIBC (2)
172:   FUNC GLOBAL DEFAULT UND abort@LIBC (2)
173:   FUNC GLOBAL DEFAULT UND atrace_begin_body
174:   OBJECT GLOBAL DEFAULT UND atrace_enabled_tags
175:   FUNC GLOBAL DEFAULT UND atrace_end_body
176:   OBJECT GLOBAL DEFAULT UND atrace_is_ready
177:   FUNC GLOBAL DEFAULT UND atrace_setup
178:   FUNC GLOBAL DEFAULT UND memcmp@LIBC (2)
179:   FUNC GLOBAL DEFAULT UND memcpy@LIBC (2)
180:   FUNC GLOBAL DEFAULT UND memset@LIBC (2)
181:   FUNC GLOBAL DEFAULT UND strlen@LIBC (2)
182:   FUNC GLOBAL DEFAULT 14 _ZN7android8hardware11con
183:   FUNC GLOBAL DEFAULT 14 _ZN7android8hardware11con
184:   FUNC GLOBAL DEFAULT 14 _ZN7android8hardware11con
185:   FUNC GLOBAL DEFAULT 14 _ZN7android8hardware11con
186:   FUNC WEAK DEFAULT 14 _ZN7android8hardware7deta
187:   OBJECT GLOBAL DEFAULT 18 _ZTCN7android8hardware11c
188:   FUNC GLOBAL DEFAULT 14 _ZTv0_n24_N7android8hardw
189:   FUNC GLOBAL DEFAULT 14 _ZN7android8hardware11con
190:   OBJECT GLOBAL DEFAULT 18 _ZTTN7android8hardware11c
191:   FUNC GLOBAL DEFAULT 14 _ZThn32_N7android8hardwar
192:   FUNC GLOBAL DEFAULT 14 _ZN7android8hardware11con
193:   FUNC GLOBAL DEFAULT 14 _ZN7android8hardware11con
194:   FUNC GLOBAL DEFAULT 14 _ZN7android8hardware11con
195:   OBJECT WEAK DEFAULT 18 _ZTCN7android8hardware11c
196:   OBJECT GLOBAL DEFAULT 18 _ZTVN7android8hardware11c
197:   FUNC GLOBAL DEFAULT 14 _ZN7android8hardware11con
198:   FUNC GLOBAL DEFAULT 14 _ZN7android8hardware11con
199:   FUNC GLOBAL DEFAULT 14 _ZN7android8hardware11con
200:   FUNC GLOBAL DEFAULT 14 _ZN7android8hardware11con
201:   FUNC GLOBAL DEFAULT 14 _ZN7android8hardware11con
202:   FUNC GLOBAL DEFAULT 14 _ZN7android8hardware11con
203:   FUNC GLOBAL DEFAULT 14 _ZN7android8hardware11con
204:   FUNC GLOBAL DEFAULT 14 _ZN7android8hardware11con
205:   FUNC GLOBAL DEFAULT 14 _ZN7android8hardware11con
206:   FUNC WEAK DEFAULT 14 _ZNSt3__16__treeINS_12__v
207:   OBJECT GLOBAL DEFAULT 18 _ZTCN7android8hardware11c
208:   FUNC GLOBAL DEFAULT 14 _ZN7android8hardware11con
209:   FUNC GLOBAL DEFAULT 14 _ZN7android8hardware11con
210:   FUNC GLOBAL DEFAULT 14 _ZN7android8hardware11con
211:   FUNC WEAK DEFAULT 14 _ZNSt3__16__treeINS_12__v
212:   FUNC WEAK DEFAULT 14 _ZNSt3__16vectorINS_8func
213:   FUNC GLOBAL DEFAULT 14 _ZN7android8hardware11con
214:   FUNC GLOBAL DEFAULT 14 _ZN7android8hardware11con
215:   FUNC GLOBAL DEFAULT 14 _ZN7android8hardware11con
216:   FUNC GLOBAL DEFAULT 14 _ZN7android8hardware11con
217:   FUNC GLOBAL DEFAULT 14 _ZN7android8hardware11con
218:   FUNC WEAK DEFAULT 14 _ZN7android8hardware7deta
219:   FUNC WEAK DEFAULT 14 _ZNSt3__16__treeINS_12__v
220:   OBJECT GLOBAL DEFAULT 18 _ZTCN7android8hardware11c
221:   FUNC GLOBAL DEFAULT 14 _ZN7android8hardware11con
222:   FUNC WEAK DEFAULT 14 _ZNSt3__16__treeINS_12__v
223:   OBJECT GLOBAL DEFAULT 18 _ZTTN7android8hardware11c
224:   FUNC GLOBAL DEFAULT 14 _ZThn32_N7android8hardwar
225:   FUNC GLOBAL DEFAULT 14 _ZN7android8hardware11con
226:   FUNC GLOBAL DEFAULT 14 _ZN7android8hardware11con
227:   FUNC GLOBAL DEFAULT 14 _ZN7android8hardware11con
228:   FUNC WEAK DEFAULT 14 _ZNSt3__16__treeINS_12__v
229:   OBJECT WEAK DEFAULT 18 _ZTVN7android8hardware11c
230:   FUNC GLOBAL DEFAULT 14 _ZN7android8hardware11con
231:   FUNC GLOBAL DEFAULT 14 _ZN7android8hardware11con
232:   OBJECT GLOBAL DEFAULT 18 _ZTCN7android8hardware11c
233:   OBJECT GLOBAL DEFAULT 18 _ZTCN7android8hardware11c
234:   FUNC GLOBAL DEFAULT 14 _ZN7android8hardware11con
235:   FUNC GLOBAL DEFAULT 14 _ZN7android8hardware11con
236:   FUNC GLOBAL DEFAULT 14 _ZN7android8hardware11con
237:   FUNC WEAK DEFAULT 14 _ZNSt3__16__treeINS_12__v
238:   OBJECT GLOBAL DEFAULT 16 _ZN7android8hardware11con
239:   FUNC GLOBAL DEFAULT 14 _ZN7android8hardware11con
240:   FUNC GLOBAL DEFAULT 14 _ZN7android8hardware11con
241:   FUNC GLOBAL DEFAULT 14 _ZN7android8hardware11con
242:   FUNC GLOBAL DEFAULT 14 _ZN7android8hardware11con
243:   FUNC WEAK DEFAULT 14 _ZNSt3__16vectorIPvNS_9al
244:   FUNC GLOBAL DEFAULT 14 _ZTv0_n24_N7android8hardw
245:   FUNC GLOBAL DEFAULT 14 _ZN7android8hardware11con
246:   FUNC GLOBAL DEFAULT 14 _ZN7android8hardware11con
247:   OBJECT GLOBAL DEFAULT 18 _ZTTN7android8hardware11c
248:   FUNC GLOBAL DEFAULT 14 _ZN7android8hardware11con
249:   OBJECT GLOBAL DEFAULT 18 _ZTCN7android8hardware11c
250:   OBJECT GLOBAL DEFAULT 18 _ZTCN7android8hardware11c
251:   FUNC GLOBAL DEFAULT 14 _ZN7android8hardware11con
252:   FUNC GLOBAL DEFAULT 14 _ZN7android8hardware11con
253:   FUNC WEAK DEFAULT 14 _ZNSt3__113__tree_removeI
254:   OBJECT GLOBAL DEFAULT 18 _ZTVN7android8hardware11c
255:   FUNC GLOBAL DEFAULT 14 _ZN7android8hardware11con
256:   FUNC GLOBAL DEFAULT 14 _ZN7android8hardware11con
257:   FUNC WEAK DEFAULT 14 _ZN7android8hardware7deta
258:   FUNC WEAK DEFAULT 14 _ZNSt3__127__tree_balance
259:   OBJECT GLOBAL DEFAULT 18 _ZTCN7android8hardware11c
260:   OBJECT GLOBAL DEFAULT 18 _ZTCN7android8hardware11c
261:   FUNC GLOBAL DEFAULT 14 _ZN7android8hardware11con
262:   FUNC GLOBAL DEFAULT 14 _ZN7android8hardware11con
263:   FUNC GLOBAL DEFAULT 14 _ZN7android8hardware11con
264:   FUNC GLOBAL DEFAULT 14 _ZN7android8hardware11con
265:   OBJECT GLOBAL DEFAULT 18 _ZTCN7android8hardware11c
266:   OBJECT GLOBAL DEFAULT 18 _ZTVN7android8hardware11c
267:   FUNC GLOBAL DEFAULT 14 _ZN7android8hardware11con
268:   FUNC GLOBAL DEFAULT 14 _ZN7android8hardware11con
269:   FUNC WEAK DEFAULT 14 _ZNSt3__16vectorIN7androi
270:   OBJECT GLOBAL DEFAULT 18 _ZTCN7android8hardware11c
271:   FUNC GLOBAL DEFAULT 14 _ZN7android8hardware11con
272:   FUNC GLOBAL DEFAULT 14 _ZN7android8hardware11con
273:   FUNC GLOBAL DEFAULT 14 _ZN7android8hardware11con
274:   FUNC GLOBAL DEFAULT 14 _ZN7android8hardware11con
