 0x000000000000000e (SONAME)             Library soname: [libschedulerservicehidl.so]
  
Symbol   contains 39 entries:
Num:   Type Bind Vis Ndx Name
0:   NOTYPE LOCAL DEFAULT UND
1:   FUNC GLOBAL DEFAULT UND __cxa_finalize@LIBC (2)
2:   FUNC GLOBAL DEFAULT UND _ZN7android10frameworks16
3:   FUNC GLOBAL DEFAULT UND _ZN7android10frameworks16
4:   FUNC GLOBAL DEFAULT UND _ZN7android10frameworks16
5:   FUNC GLOBAL DEFAULT UND _ZN7android10frameworks16
6:   FUNC GLOBAL DEFAULT UND _ZN7android10frameworks16
7:   FUNC GLOBAL DEFAULT UND _ZN7android10frameworks16
8:   FUNC GLOBAL DEFAULT UND _ZN7android10frameworks16
9:   FUNC GLOBAL DEFAULT UND _ZN7android10frameworks16
10:   FUNC GLOBAL DEFAULT UND _ZN7android10frameworks16
11:   FUNC GLOBAL DEFAULT UND _ZN7android10frameworks16
12:   FUNC GLOBAL DEFAULT UND _ZN7android15requestPrior
13:   FUNC GLOBAL DEFAULT UND _ZN7android4hidl4base4V1_
14:   FUNC GLOBAL DEFAULT UND _ZN7android4hidl4base4V1_
15:   FUNC GLOBAL DEFAULT UND _ZN7android4hidl4base4V1_
16:   FUNC GLOBAL DEFAULT UND _ZN7android4hidl4base4V1_
17:   FUNC GLOBAL DEFAULT UND _ZN7android4hidl4base4V1_
18:   FUNC GLOBAL DEFAULT UND _ZN7android4hidl4base4V1_
19:   FUNC GLOBAL DEFAULT UND _ZN7android4hidl4base4V1_
20:   FUNC GLOBAL DEFAULT UND _ZN7android4hidl4base4V1_
21:   FUNC GLOBAL DEFAULT UND _ZN7android4hidl4base4V1_
22:   FUNC GLOBAL DEFAULT UND _ZN7android4hidl4base4V1_
23:   FUNC GLOBAL DEFAULT UND _ZN7android7RefBase10onFi
24:   FUNC GLOBAL DEFAULT UND _ZN7android7RefBase13onLa
25:   FUNC GLOBAL DEFAULT UND _ZN7android7RefBase15onLa
26:   FUNC GLOBAL DEFAULT UND _ZN7android7RefBase20onIn
27:   FUNC GLOBAL DEFAULT UND _ZN7android7RefBaseD2Ev
28:   FUNC GLOBAL DEFAULT UND _ZN7android8hardware14IPC
29:   FUNC GLOBAL DEFAULT UND _ZNK7android8hardware14IP
30:   FUNC GLOBAL DEFAULT UND _ZdlPv
31:   FUNC GLOBAL DEFAULT UND __cxa_pure_virtual
32:   FUNC GLOBAL DEFAULT 13 _ZN7android10frameworks16
33:   FUNC GLOBAL DEFAULT 13 _ZN7android10frameworks16
34:   FUNC GLOBAL DEFAULT 13 _ZN7android10frameworks16
35:   OBJECT GLOBAL DEFAULT 17 _ZTCN7android10frameworks
36:   OBJECT GLOBAL DEFAULT 17 _ZTCN7android10frameworks
37:   OBJECT GLOBAL DEFAULT 17 _ZTTN7android10frameworks
38:   OBJECT GLOBAL DEFAULT 17 _ZTVN7android10frameworks
