 0x0000000e (SONAME)                     Library soname: [libui.so]
  
Symbol   contains 558 entries:
Num:   Type Bind Vis Ndx Name
0:   NOTYPE LOCAL DEFAULT UND
1:   FUNC GLOBAL DEFAULT UND __cxa_atexit@LIBC (2)
2:   FUNC GLOBAL DEFAULT UND __cxa_finalize@LIBC (2)
3:   FUNC GLOBAL DEFAULT UND _ZNKSt3__121__basic_strin
4:   FUNC GLOBAL DEFAULT UND _ZNSt3__112basic_stringIc
5:   FUNC GLOBAL DEFAULT UND _ZdlPv
6:   FUNC GLOBAL DEFAULT UND _Znaj
7:   FUNC GLOBAL DEFAULT UND _Znwj
8:   FUNC GLOBAL DEFAULT UND __stack_chk_fail@LIBC (2)
9:   OBJECT GLOBAL DEFAULT UND __stack_chk_guard@LIBC (2)
10:   FUNC GLOBAL DEFAULT UND abort@LIBC (2)
11:   FUNC GLOBAL DEFAULT UND powf@LIBC (3)
12:   FUNC GLOBAL DEFAULT UND strlen@LIBC (2)
13:   FUNC GLOBAL DEFAULT UND _ZN7android4base12StringP
14:   FUNC GLOBAL DEFAULT UND __android_log_print@LIBLOG (4)
15:   FUNC GLOBAL DEFAULT UND __errno@LIBC (2)
16:   FUNC WEAK DEFAULT UND android_fdsan_close_with_@LIBC_Q (5)
17:   FUNC WEAK DEFAULT UND android_fdsan_create_owne@LIBC_Q (5)
18:   FUNC WEAK DEFAULT UND android_fdsan_exchange_ow@LIBC_Q (5)
19:   FUNC GLOBAL DEFAULT UND atrace_begin_body
20:   OBJECT GLOBAL DEFAULT UND atrace_enabled_tags
21:   FUNC GLOBAL DEFAULT UND atrace_end_body
22:   OBJECT GLOBAL DEFAULT UND atrace_is_ready
23:   FUNC GLOBAL DEFAULT UND atrace_setup
24:   FUNC GLOBAL DEFAULT UND close@LIBC (2)
25:   FUNC GLOBAL DEFAULT UND dup@LIBC (2)
26:   FUNC GLOBAL DEFAULT UND strerror@LIBC (2)
27:   FUNC GLOBAL DEFAULT UND sync_file_info@LIBSYNC (6)
28:   FUNC GLOBAL DEFAULT UND sync_file_info_free@LIBSYNC (6)
29:   FUNC GLOBAL DEFAULT UND sync_merge@LIBSYNC (6)
30:   FUNC GLOBAL DEFAULT UND sync_wait@LIBSYNC (6)
31:   FUNC GLOBAL DEFAULT UND _ZN7android14sp_report_ra
32:   FUNC GLOBAL DEFAULT UND _ZNKSt3__119__shared_weak
33:   FUNC GLOBAL DEFAULT UND _ZNKSt3__120__vector_base
34:   FUNC GLOBAL DEFAULT UND _ZNSt3__112__next_primeEj
35:   FUNC GLOBAL DEFAULT UND _ZNSt3__119__shared_weak_
36:   FUNC GLOBAL DEFAULT UND _ZNSt3__119__shared_weak_
37:   FUNC GLOBAL DEFAULT UND _ZNSt3__119__shared_weak_
38:   FUNC GLOBAL DEFAULT UND _ZNSt3__15mutex4lockEv
39:   FUNC GLOBAL DEFAULT UND _ZNSt3__15mutex6unlockEv
40:   FUNC GLOBAL DEFAULT UND _ZNSt3__15mutexD1Ev
41:   FUNC GLOBAL DEFAULT UND _ZN7android10VectorImpl13
42:   FUNC GLOBAL DEFAULT UND _ZN7android10VectorImpl6r
43:   FUNC GLOBAL DEFAULT UND __cxa_pure_virtual
44:   FUNC GLOBAL DEFAULT UND _ZN7android8hardware11hid
45:   FUNC GLOBAL DEFAULT UND _ZN7android8hardware11hid
46:   FUNC GLOBAL DEFAULT UND _ZN7android8hardware11hid
47:   FUNC GLOBAL DEFAULT UND _ZN7android8hardware14IPC
48:   FUNC GLOBAL DEFAULT UND _ZN7android8hardware14IPC
49:   FUNC GLOBAL DEFAULT UND _ZN7android8hardware7deta
50:   FUNC GLOBAL DEFAULT UND _ZN7android8hardware7deta
51:   FUNC GLOBAL DEFAULT UND _ZN7android8hardware7deta
52:   OBJECT GLOBAL DEFAULT UND _ZN7android8hardware8grap
53:   FUNC GLOBAL DEFAULT UND _ZN7android8hardware8grap
54:   FUNC GLOBAL DEFAULT UND _ZN7android8hardware8grap
55:   FUNC GLOBAL DEFAULT UND _ZN7android8hardware8grap
56:   FUNC GLOBAL DEFAULT UND _ZNK7android7RefBase9decS
57:   FUNC GLOBAL DEFAULT UND _ZNK7android7RefBase9incS
58:   FUNC GLOBAL DEFAULT UND _ZNK7android8hardware11hi
59:   FUNC GLOBAL DEFAULT UND _ZNK7android8hardware11hi
60:   FUNC GLOBAL DEFAULT UND _ZNK7android8hardware7det
61:   FUNC GLOBAL DEFAULT UND _ZNSt3__112basic_stringIc
62:   FUNC GLOBAL DEFAULT UND _ZdaPv
63:   FUNC GLOBAL DEFAULT UND __android_log_assert@LIBLOG (4)
64:   FUNC GLOBAL DEFAULT UND native_handle_init
65:   OBJECT GLOBAL DEFAULT UND _ZN7android8hardware8grap
66:   FUNC GLOBAL DEFAULT UND _ZN7android8hardware8grap
67:   FUNC GLOBAL DEFAULT UND _ZN7android8hardware8grap
68:   FUNC GLOBAL DEFAULT UND _ZN7android7RefBase10onFi
69:   FUNC GLOBAL DEFAULT UND _ZN7android7RefBase13onLa
70:   FUNC GLOBAL DEFAULT UND _ZN7android7RefBase15onLa
71:   FUNC GLOBAL DEFAULT UND _ZN7android7RefBase20onIn
72:   FUNC GLOBAL DEFAULT UND _ZN7android7RefBaseC2Ev
73:   FUNC GLOBAL DEFAULT UND _ZN7android7RefBaseD2Ev
74:   FUNC GLOBAL DEFAULT UND __android_log_error_write@LIBLOG_M (7)
75:   FUNC GLOBAL DEFAULT UND getpid@LIBC (2)
76:   FUNC GLOBAL DEFAULT UND native_handle_close
77:   FUNC GLOBAL DEFAULT UND native_handle_create
78:   FUNC GLOBAL DEFAULT UND native_handle_delete
79:   FUNC GLOBAL DEFAULT UND pthread_mutex_lock@LIBC (2)
80:   FUNC GLOBAL DEFAULT UND pthread_mutex_unlock@LIBC (2)
81:   FUNC GLOBAL DEFAULT UND _ZN7android10VectorImpl13
82:   FUNC GLOBAL DEFAULT UND _ZN7android16SortedVector
83:   FUNC GLOBAL DEFAULT UND _ZN7android16SortedVector
84:   FUNC GLOBAL DEFAULT UND _ZN7android16SortedVector
85:   FUNC GLOBAL DEFAULT UND _ZN7android16SortedVector
86:   FUNC GLOBAL DEFAULT UND _ZN7android4base13StringA
87:   FUNC GLOBAL DEFAULT UND _ZNSt3__112basic_stringIc
88:   FUNC GLOBAL DEFAULT UND _ZNSt3__112basic_stringIc
89:   FUNC GLOBAL DEFAULT UND pthread_mutex_destroy@LIBC (2)
90:   FUNC GLOBAL DEFAULT UND pthread_mutex_init@LIBC (2)
91:   FUNC GLOBAL DEFAULT UND _ZN7android8hardware11hid
92:   FUNC GLOBAL DEFAULT UND _ZN7android10VectorImpl12
93:   FUNC GLOBAL DEFAULT UND _ZN7android10VectorImpl3a
94:   FUNC GLOBAL DEFAULT UND _ZN7android10VectorImpl5c
95:   FUNC GLOBAL DEFAULT UND _ZN7android10VectorImpl8i
96:   FUNC GLOBAL DEFAULT UND _ZN7android10VectorImplC2
97:   FUNC GLOBAL DEFAULT UND _ZN7android10VectorImplC2
98:   FUNC GLOBAL DEFAULT UND _ZN7android10VectorImplD2
99:   FUNC GLOBAL DEFAULT UND _ZN7android10VectorImplaS
100:   FUNC WEAK DEFAULT UND android_set_abort_message@LIBC (2)
101:   FUNC GLOBAL DEFAULT UND write@LIBC (2)
102:   FUNC GLOBAL DEFAULT UND memcpy@LIBC (2)
103:   FUNC GLOBAL DEFAULT UND memmove@LIBC (2)
104:   FUNC GLOBAL DEFAULT UND memset@LIBC (2)
105:   FUNC GLOBAL DEFAULT 14 _ZNK7android14Gralloc2Map
106:   FUNC GLOBAL DEFAULT 14 _ZN7android15HdrCapabilit
107:   FUNC GLOBAL DEFAULT 14 _ZN7android10ColorSpace18
108:   FUNC GLOBAL DEFAULT 14 _Z14decodeTransfer19andro
109:   FUNC WEAK DEFAULT 14 _ZNSt3__120__shared_ptr_e
110:   FUNC GLOBAL DEFAULT 14 _ZN7android13GraphicBuffe
111:   FUNC GLOBAL DEFAULT 14 _ZN7android22GraphicBuffe
112:   FUNC WEAK DEFAULT 14 _ZN7android9SingletonINS_
113:   FUNC GLOBAL DEFAULT 14 _ZN7android6Region12subtr
114:   FUNC GLOBAL DEFAULT 14 _ZNK7android2ui9Transform
115:   FUNC GLOBAL DEFAULT 14 _ZN7android9FenceTimeC1ER
116:   OBJECT GLOBAL DEFAULT 18 _ZTVN7android16GrallocAll
117:   FUNC GLOBAL DEFAULT 14 _ZNK7android14Gralloc2Map
118:   FUNC GLOBAL DEFAULT 14 _ZN7android19GraphicBuffe
119:   FUNC GLOBAL DEFAULT 14 _ZN7android10ColorSpace5D
120:   FUNC GLOBAL DEFAULT 14 __aeabi_memcpy
121:   FUNC GLOBAL DEFAULT 14 _ZNK7android17Gralloc2All
122:   FUNC GLOBAL DEFAULT 14 _ZNK7android13GraphicBuff
123:   FUNC GLOBAL DEFAULT 14 _ZN7android15HdrCapabilit
124:   FUNC GLOBAL DEFAULT 14 _ZNK7android6Region9opera
125:   FUNC WEAK DEFAULT 14 _ZNSt3__110__function6__f
126:   FUNC GLOBAL DEFAULT 14 _ZNK7android9FenceTime7is
127:   FUNC WEAK DEFAULT 14 _ZNSt3__112__hash_tableIN
128:   FUNC GLOBAL DEFAULT 14 _ZNK7android14Gralloc3Map
129:   OBJECT GLOBAL DEFAULT 23 _ZN7android9SingletonINS_
130:   FUNC WEAK DEFAULT 14 _ZNK7android6VectorINS_4R
131:   FUNC WEAK DEFAULT 14 _ZNSt3__16vectorINS_4pair
132:   FUNC GLOBAL DEFAULT 14 _Z16dataspaceDetails19and
133:   FUNC GLOBAL DEFAULT 14 _ZN7android5FenceC2Ei
134:   FUNC GLOBAL DEFAULT 14 _ZN7android9FenceTimeC2EO
135:   FUNC GLOBAL DEFAULT 14 _ZN7android14Gralloc2Mapp
136:   FUNC GLOBAL DEFAULT 14 _ZN7android13GraphicBuffe
137:   FUNC WEAK DEFAULT 14 _ZN7android9SingletonINS_
138:   FUNC WEAK DEFAULT 14 _ZNSt3__110__function6__f
139:   FUNC GLOBAL DEFAULT 14 _ZNK7android6Region5merge
140:   OBJECT GLOBAL DEFAULT 13 _ZN7android2ui4Size7INVAL
141:   FUNC GLOBAL DEFAULT 14 _ZN7android2ui9TransformC
142:   FUNC GLOBAL DEFAULT 14 _ZN7android5FenceC1ENS_4b
143:   OBJECT WEAK DEFAULT 18 _ZTVNSt3__120__shared_ptr
144:   FUNC GLOBAL DEFAULT 14 _ZNK7android14Gralloc2Map
145:   FUNC GLOBAL DEFAULT 14 _ZN7android19GraphicBuffe
146:   FUNC GLOBAL DEFAULT 14 _ZNK7android6Region9opera
147:   FUNC GLOBAL DEFAULT 14 _ZN7android5FenceC2ENS_4b
148:   FUNC GLOBAL DEFAULT 14 _ZNK7android5Fence7flatte
149:   FUNC GLOBAL DEFAULT 14 _ZNK7android17Gralloc2All
150:   FUNC GLOBAL DEFAULT 14 _ZN7android6Region7andSel
151:   FUNC GLOBAL DEFAULT 14 _ZN7android6Region9unflat
152:   FUNC GLOBAL DEFAULT 14 _ZNK7android2ui9Transform
153:   FUNC WEAK DEFAULT 14 _ZNSt3__110__function6__f
154:   FUNC GLOBAL DEFAULT 14 _ZN7android17Gralloc2Allo
155:   FUNC GLOBAL DEFAULT 14 _ZN7android22GraphicBuffe
156:   FUNC GLOBAL DEFAULT 14 _ZN7android2ui9TransformC
157:   FUNC GLOBAL DEFAULT 14 _ZNK7android2ui9Transform
158:   FUNC WEAK DEFAULT 14 _ZNSt3__110__function6__f
159:   FUNC GLOBAL DEFAULT 14 _ZN7android15HdrCapabilit
160:   FUNC GLOBAL DEFAULT 14 _ZNK7android6Region8conta
161:   FUNC GLOBAL DEFAULT 14 _ZN7android2ui9Transform8
162:   FUNC GLOBAL DEFAULT 14 _ZNK7android2ui9Transform
163:   FUNC GLOBAL DEFAULT 14 _ZN7android9FenceTime20ap
164:   FUNC GLOBAL DEFAULT 14 _ZN7android6Region10raste
165:   FUNC GLOBAL DEFAULT 14 _ZN7android9FenceTime8Sna
166:   FUNC GLOBAL DEFAULT 14 _ZNK7android2ui9Transform
167:   FUNC GLOBAL DEFAULT 14 __aeabi_memmove4
168:   FUNC WEAK DEFAULT 14 _ZNKSt3__110__function6__
169:   FUNC GLOBAL DEFAULT 14 _ZNK7android14Gralloc2Map
170:   FUNC WEAK DEFAULT 14 _ZNSt3__110__function6__f
171:   FUNC GLOBAL DEFAULT 14 _ZN7android9FenceTimeC1EO
172:   FUNC GLOBAL DEFAULT 14 _ZN7android13GraphicBuffe
173:   FUNC GLOBAL DEFAULT 14 _ZN7android10ColorSpace9c
174:   FUNC GLOBAL DEFAULT 14 _Z11decodeRange19android_
175:   FUNC GLOBAL DEFAULT 14 _ZN7android10ColorSpaceC2
176:   FUNC GLOBAL DEFAULT 14 _ZN7android5Fence9unflatt
177:   OBJECT GLOBAL DEFAULT 23 _ZN7android9FenceTime8NO_
178:   FUNC GLOBAL DEFAULT 14 _ZN7android17Gralloc3Allo
179:   FUNC GLOBAL DEFAULT 14 _ZNK7android17Gralloc3All
180:   FUNC GLOBAL DEFAULT 14 _ZN7android13GraphicBuffe
181:   FUNC GLOBAL DEFAULT 14 __aeabi_memmove8
182:   FUNC WEAK DEFAULT 14 _ZNKSt3__110__function6__
183:   FUNC WEAK DEFAULT 14 _ZNSt3__16vectorINS_8weak
184:   FUNC GLOBAL DEFAULT 14 _ZN7android13GraphicBuffe
185:   OBJECT GLOBAL DEFAULT 23 _ZN7android9SingletonINS_
186:   FUNC GLOBAL DEFAULT 14 _ZN7android6Region10raste
187:   FUNC GLOBAL DEFAULT 14 _ZN7android6Region14makeB
188:   FUNC GLOBAL DEFAULT 14 _ZN7android2ui9Transform5
189:   FUNC GLOBAL DEFAULT 14 _ZN7android9FenceTimeC1Ex
190:   FUNC GLOBAL DEFAULT 14 _ZN7android13GrallocMappe
191:   FUNC GLOBAL DEFAULT 14 _ZNK7android6Region9inter
192:   FUNC GLOBAL DEFAULT 14 _ZN7android2ui9TransformC
193:   FUNC GLOBAL DEFAULT 14 _ZN7android2ui9TransformC
194:   FUNC WEAK DEFAULT 14 _ZNKSt3__110__function6__
195:   FUNC GLOBAL DEFAULT 14 _ZN7android9FenceTimeC2ER
196:   FUNC GLOBAL DEFAULT 14 _ZNK7android4Rect9interse
197:   FUNC GLOBAL DEFAULT 14 _ZNK7android4Rect9transfo
198:   FUNC GLOBAL DEFAULT 14 _ZN7android2ui9Transforma
199:   FUNC GLOBAL DEFAULT 14 _ZN7android10ColorSpace11
200:   FUNC WEAK DEFAULT 14 _ZNKSt3__110__function6__
201:   OBJECT WEAK DEFAULT 18 _ZTVNSt3__110__function6_
202:   FUNC GLOBAL DEFAULT 14 _ZN7android14Gralloc3Mapp
203:   FUNC GLOBAL DEFAULT 14 _ZN7android10ColorSpace6A
204:   OBJECT GLOBAL DEFAULT 23 _ZN7android22GraphicBuffe
205:   FUNC WEAK DEFAULT 14 _ZNK7android12SortedVecto
206:   FUNC GLOBAL DEFAULT 14 _ZN7android6Region17boole
207:   FUNC GLOBAL DEFAULT 14 _ZN7android6Region6orSelf
208:   FUNC GLOBAL DEFAULT 14 _ZN7android2ui9TransformD
209:   FUNC GLOBAL DEFAULT 14 _ZNK7android2ui9Transform
210:   FUNC WEAK DEFAULT 14 _ZNSt3__110__function6__f
211:   FUNC GLOBAL DEFAULT 14 _ZNK7android14Gralloc3Map
212:   FUNC GLOBAL DEFAULT 14 _ZNK7android13GraphicBuff
213:   FUNC GLOBAL DEFAULT 14 _ZN7android16GrallocAlloc
214:   FUNC GLOBAL DEFAULT 14 _ZNK7android14Gralloc3Map
215:   OBJECT GLOBAL DEFAULT 13 _ZN7android4Rect12INVALID
216:   FUNC GLOBAL DEFAULT 14 _ZN7android6Region7andSel
217:   FUNC GLOBAL DEFAULT 14 _ZNK7android6Region5merge
218:   FUNC GLOBAL DEFAULT 14 _ZNK7android10FrameStats1
219:   FUNC GLOBAL DEFAULT 14 _ZNK7android14Gralloc2Map
220:   FUNC GLOBAL DEFAULT 14 _ZNK7android6Region8subtr
221:   FUNC GLOBAL DEFAULT 14 _ZN7android10ColorSpace9D
222:   FUNC WEAK DEFAULT 14 _ZNKSt3__110__function6__
223:   FUNC GLOBAL DEFAULT 14 _ZN7android13GraphicBuffe
224:   FUNC GLOBAL DEFAULT 14 _ZN7android22GraphicBuffe
225:   FUNC WEAK DEFAULT 14 _ZNK7android12SortedVecto
226:   FUNC GLOBAL DEFAULT 14 _ZN7android19GraphicBuffe
227:   FUNC GLOBAL DEFAULT 14 _ZN7android17Gralloc2Allo
228:   FUNC WEAK DEFAULT 14 _ZN7android9SingletonINS_
229:   FUNC WEAK DEFAULT 14 _ZNK7android12SortedVecto
230:   FUNC WEAK DEFAULT 14 _ZNSt3__110__function6__f
231:   FUNC GLOBAL DEFAULT 14 _ZN7android9FenceTime8Sna
232:   FUNC GLOBAL DEFAULT 14 _ZNK7android14Gralloc2Map
233:   FUNC GLOBAL DEFAULT 14 _ZN7android6Region9scaleS
234:   FUNC GLOBAL DEFAULT 14 _ZN7android19ColorSpaceCo
235:   FUNC WEAK DEFAULT 14 _ZNSt3__110__function6__f
236:   FUNC GLOBAL DEFAULT 14 _ZN7android5Fence11waitFo
237:   FUNC GLOBAL DEFAULT 14 _ZNK7android9FenceTime8Sn
238:   FUNC GLOBAL DEFAULT 14 _ZN7android13GraphicBuffe
239:   FUNC GLOBAL DEFAULT 14 _ZNK7android2ui9Transform
240:   FUNC WEAK DEFAULT 14 _ZNSt3__110__function6__f
241:   FUNC WEAK DEFAULT 14 _ZN7android9SingletonINS_
242:   FUNC GLOBAL DEFAULT 14 _ZNK7android5Fence16getFl
243:   FUNC WEAK DEFAULT 14 _ZNSt3__114__split_buffer
244:   OBJECT WEAK DEFAULT 18 _ZTVNSt3__110__function6_
245:   FUNC GLOBAL DEFAULT 14 _ZNK7android17Gralloc2All
246:   FUNC WEAK DEFAULT 14 _ZN7android9SingletonINS_
247:   FUNC GLOBAL DEFAULT 14 _ZN7android26mapPublicFor
248:   FUNC GLOBAL DEFAULT 14 _ZN7android6Region6orSelf
249:   FUNC GLOBAL DEFAULT 14 _ZN7android6Region3setEii
250:   FUNC GLOBAL DEFAULT 14 _ZN7android6RegionC1Ev
251:   FUNC GLOBAL DEFAULT 14 _ZN7android17Gralloc3Allo
252:   FUNC GLOBAL DEFAULT 14 _ZN7android9FenceTime13si
253:   FUNC GLOBAL DEFAULT 14 _ZN7android13GraphicBuffe
254:   FUNC GLOBAL DEFAULT 14 _ZN7android19GraphicBuffe
255:   FUNC WEAK DEFAULT 14 _ZN7android9SingletonINS_
256:   FUNC GLOBAL DEFAULT 14 _ZN7android6Region12subtr
257:   FUNC GLOBAL DEFAULT 14 _ZN7android13bytesPerPixe
258:   FUNC WEAK DEFAULT 14 _ZN7android9SingletonINS_
259:   FUNC GLOBAL DEFAULT 14 _ZNK7android4Rect6reduceE
260:   FUNC GLOBAL DEFAULT 14 _ZN7android6RegionD1Ev
261:   FUNC GLOBAL DEFAULT 14 _ZNK7android6Region4dumpE
262:   OBJECT GLOBAL DEFAULT 13 _ZN7android2ui4Size5EMPTY
263:   FUNC GLOBAL DEFAULT 14 _ZN7android10ColorSpace4N
264:   FUNC GLOBAL DEFAULT 14 _Z17decodePixelFormati
265:   FUNC GLOBAL DEFAULT 14 _ZN7android10ColorSpace8A
266:   FUNC GLOBAL DEFAULT 14 _ZN7android9FenceTimeC1ER
267:   FUNC GLOBAL DEFAULT 14 _ZNK7android9FenceTime8Sn
268:   FUNC GLOBAL DEFAULT 14 _ZN7android4Rect5insetEii
269:   FUNC GLOBAL DEFAULT 14 _ZNK7android4RectplERKNS_
270:   FUNC GLOBAL DEFAULT 14 _ZN7android10ColorSpace4s
271:   FUNC GLOBAL DEFAULT 14 _ZN7android19FenceToFence
272:   FUNC GLOBAL DEFAULT 14 _ZN7android9FenceTime8Sna
273:   FUNC GLOBAL DEFAULT 14 _ZNK7android9FenceTime19g
274:   FUNC GLOBAL DEFAULT 14 _ZN7android13GraphicBuffe
275:   FUNC WEAK DEFAULT 14 _ZN7android9SingletonINS_
276:   FUNC GLOBAL DEFAULT 14 _ZN7android4Rect8offsetTo
277:   FUNC GLOBAL DEFAULT 14 _ZN7android10ColorSpace12
278:   FUNC GLOBAL DEFAULT 14 _ZN7android5Fence5mergeER
279:   FUNC GLOBAL DEFAULT 14 _ZNK7android14Gralloc2Map
280:   FUNC GLOBAL DEFAULT 14 _ZN7android6Region8valida
281:   FUNC GLOBAL DEFAULT 14 _ZN7android10ColorSpaceC1
282:   FUNC GLOBAL DEFAULT 14 _ZN7android10ColorSpaceC1
283:   FUNC WEAK DEFAULT 14 _ZNSt3__110__function6__f
284:   FUNC GLOBAL DEFAULT 14 _ZN7android19FenceToFence
285:   FUNC GLOBAL DEFAULT 14 _ZN7android4Rect11makeInv
286:   FUNC GLOBAL DEFAULT 14 _ZN7android6Region10raste
287:   FUNC GLOBAL DEFAULT 14 _ZN7android15HdrCapabilit
288:   FUNC WEAK DEFAULT 14 _ZNSt3__114__split_buffer
289:   FUNC GLOBAL DEFAULT 14 _ZN7android6Region7xorSel
290:   FUNC GLOBAL DEFAULT 14 _ZN7android5FenceC1Ei
291:   FUNC GLOBAL DEFAULT 14 _ZNK7android5Fence10getFd
292:   FUNC GLOBAL DEFAULT 14 _ZN7android14Gralloc2Mapp
293:   FUNC GLOBAL DEFAULT 14 _ZNK7android22GraphicBuff
294:   FUNC GLOBAL DEFAULT 14 _ZN7android6RegionaSERKS0
295:   FUNC GLOBAL DEFAULT 14 _ZN7android10ColorSpace4A
296:   FUNC GLOBAL DEFAULT 14 _ZN7android10ColorSpaceC1
297:   FUNC WEAK DEFAULT 14 _ZNSt3__110__function6__f
298:   FUNC GLOBAL DEFAULT 14 _ZN7android13GraphicBuffe
299:   FUNC WEAK DEFAULT 14 _ZNSt3__16vectorIN7androi
300:   FUNC GLOBAL DEFAULT 14 _ZN7android6RegionC1ERKNS
301:   FUNC GLOBAL DEFAULT 14 _ZNK7android6Region14merg
302:   FUNC GLOBAL DEFAULT 14 _ZNK7android2ui9Transform
303:   FUNC GLOBAL DEFAULT 14 _ZNK7android17Gralloc3All
304:   FUNC GLOBAL DEFAULT 14 __aeabi_memset4
305:   OBJECT WEAK DEFAULT 18 _ZTVNSt3__110__function6_
306:   FUNC GLOBAL DEFAULT 14 _ZNK7android14Gralloc3Map
307:   FUNC GLOBAL DEFAULT 14 _ZN7android6Region9transl
308:   FUNC GLOBAL DEFAULT 14 _ZNK7android6Region8subtr
309:   FUNC GLOBAL DEFAULT 14 _ZNK7android2ui9Transform
310:   FUNC GLOBAL DEFAULT 14 _ZNK7android5Fence13getSi
311:   FUNC GLOBAL DEFAULT 14 _Z20decodeColorTransform2
312:   FUNC GLOBAL DEFAULT 14 _ZN7android6RegionC1ERKS0
313:   FUNC GLOBAL DEFAULT 14 _ZNK7android6Region16getF
314:   FUNC GLOBAL DEFAULT 14 _ZN7android13GraphicBuffe
315:   FUNC GLOBAL DEFAULT 14 __aeabi_memset8
316:   FUNC WEAK DEFAULT 14 _ZNKSt3__110__function6__
317:   FUNC GLOBAL DEFAULT 14 __aeabi_memcpy4
318:   FUNC GLOBAL DEFAULT 14 _ZN7android13GraphicBuffe
319:   FUNC GLOBAL DEFAULT 14 _ZN7android13GraphicBuffe
320:   FUNC GLOBAL DEFAULT 14 _ZN7android2ui9Transform3
321:   FUNC GLOBAL DEFAULT 14 _ZN7android10ColorSpaceC1
322:   FUNC WEAK DEFAULT 14 _ZNKSt3__110__function6__
323:   FUNC GLOBAL DEFAULT 14 _ZN7android13GraphicBuffe
324:   FUNC GLOBAL DEFAULT 14 _ZN7android13GraphicBuffe
325:   FUNC GLOBAL DEFAULT 14 _ZNK7android15HdrCapabili
326:   FUNC WEAK DEFAULT 14 _ZNKSt3__110__function6__
327:   FUNC WEAK DEFAULT 14 _ZNSt3__112__hash_tableIN
328:   FUNC WEAK DEFAULT 14 _ZNSt3__112__hash_tableIN
329:   FUNC GLOBAL DEFAULT 14 _ZN7android19ColorSpaceCo
330:   FUNC GLOBAL DEFAULT 14 _Z15decodeColorModeN7andr
331:   FUNC GLOBAL DEFAULT 14 _Z9to_stringRKN7android4R
332:   FUNC GLOBAL DEFAULT 14 _ZNK7android17Gralloc3All
333:   FUNC WEAK DEFAULT 14 _ZNK7android6VectorINS_4R
334:   FUNC GLOBAL DEFAULT 14 __aeabi_memcpy8
335:   FUNC GLOBAL DEFAULT 14 _ZN7android13GrallocMappe
336:   FUNC WEAK DEFAULT 14 _ZNK7android12SortedVecto
337:   FUNC WEAK DEFAULT 14 _ZNSt3__110__function6__f
338:   FUNC GLOBAL DEFAULT 14 _ZN7android13GraphicBuffe
339:   FUNC GLOBAL DEFAULT 14 _ZN7android6Region13opera
340:   FUNC GLOBAL DEFAULT 14 _ZN7android6Region7xorSel
341:   FUNC WEAK DEFAULT 14 _ZNSt3__112__hash_tableIN
342:   FUNC GLOBAL DEFAULT 14 _ZN7android14Gralloc3Mapp
343:   FUNC GLOBAL DEFAULT 14 _ZN7android13GraphicBuffe
344:   FUNC GLOBAL DEFAULT 14 _ZN7android6Region25creat
345:   FUNC GLOBAL DEFAULT 14 _ZN7android6RegionC2ERKS0
346:   FUNC WEAK DEFAULT 14 _ZNSt3__110__function6__f
347:   FUNC GLOBAL DEFAULT 14 _ZN7android6Region9transl
348:   FUNC GLOBAL DEFAULT 14 android_convertGralloc0To
349:   FUNC WEAK DEFAULT 14 _ZNSt3__110__function6__f
350:   OBJECT WEAK DEFAULT 18 _ZTVNSt3__110__function6_
351:   FUNC GLOBAL DEFAULT 14 _ZN7android19FenceToFence
352:   FUNC WEAK DEFAULT 14 _ZNSt3__120__shared_ptr_p
353:   OBJECT GLOBAL DEFAULT 18 _ZTVN7android14Gralloc2Ma
354:   FUNC GLOBAL DEFAULT 14 _ZN7android19GraphicBuffe
355:   FUNC GLOBAL DEFAULT 14 _ZN7android19GraphicBuffe
356:   FUNC GLOBAL DEFAULT 14 _ZN7android10ColorSpaceC2
357:   FUNC WEAK DEFAULT 14 _ZNKSt3__110__function6__
358:   OBJECT GLOBAL DEFAULT 23 _ZN7android22GraphicBuffe
359:   FUNC GLOBAL DEFAULT 14 _ZNK7android6Region5merge
360:   FUNC WEAK DEFAULT 14 _ZNK7android6VectorINS_4R
361:   FUNC WEAK DEFAULT 14 _ZNKSt3__110__function6__
362:   FUNC WEAK DEFAULT 14 _ZNSt3__110__function6__f
363:   FUNC GLOBAL DEFAULT 14 _ZN7android16GrallocAlloc
364:   FUNC GLOBAL DEFAULT 14 _ZNK7android14Gralloc3Map
365:   FUNC GLOBAL DEFAULT 14 _ZN7android13GraphicBuffe
366:   FUNC GLOBAL DEFAULT 14 _ZN7android6Region17boole
367:   FUNC GLOBAL DEFAULT 14 _ZNK7android6Region14merg
368:   FUNC GLOBAL DEFAULT 14 _ZNK7android6Region8getAr
369:   FUNC GLOBAL DEFAULT 14 _ZN7android5Fence4waitEi
370:   FUNC GLOBAL DEFAULT 14 _ZN7android9FenceTimeC2ER
371:   OBJECT GLOBAL DEFAULT 13 _ZN7android4Rect10EMPTY_R
372:   FUNC WEAK DEFAULT 14 _ZNSt3__110__function6__f
373:   FUNC WEAK DEFAULT 14 _ZNSt3__112__hash_tableIN
374:   FUNC GLOBAL DEFAULT 14 _ZNK7android14Gralloc3Map
375:   FUNC GLOBAL DEFAULT 14 _ZN7android13GraphicBuffe
376:   FUNC GLOBAL DEFAULT 14 _ZN7android19GraphicBuffe
377:   FUNC GLOBAL DEFAULT 14 _ZN7android19GraphicBuffe
378:   FUNC GLOBAL DEFAULT 14 _ZN7android22GraphicBuffe
379:   FUNC GLOBAL DEFAULT 14 _ZN7android6Region3setEjj
380:   OBJECT GLOBAL DEFAULT 18 _ZTVN7android6Region10ras
381:   FUNC WEAK DEFAULT 14 _ZNKSt3__110__function6__
382:   FUNC WEAK DEFAULT 14 _ZNSt3__110shared_ptrIN7a
383:   FUNC WEAK DEFAULT 14 _ZNSt3__112__hash_tableIN
384:   FUNC WEAK DEFAULT 14 _ZN7android9SingletonINS_
385:   FUNC GLOBAL DEFAULT 14 _ZNK7android4RectmiERKNS_
386:   FUNC GLOBAL DEFAULT 14 _ZN7android9FenceTime8Sna
387:   FUNC GLOBAL DEFAULT 14 _ZNK7android14Gralloc2Map
388:   FUNC GLOBAL DEFAULT 14 _ZN7android13GraphicBuffe
389:   FUNC GLOBAL DEFAULT 14 _ZN7android13GraphicBuffe
390:   FUNC GLOBAL DEFAULT 14 _ZN7android13GraphicBuffe
391:   FUNC GLOBAL DEFAULT 14 _ZN7android13GraphicBuffe
392:   FUNC GLOBAL DEFAULT 14 _ZN7android13GraphicBuffe
393:   FUNC GLOBAL DEFAULT 14 _ZN7android22GraphicBuffe
394:   FUNC GLOBAL DEFAULT 14 _ZN7android19GraphicBuffe
395:   OBJECT WEAK DEFAULT 18 _ZTVN7android6VectorINS_4
396:   FUNC GLOBAL DEFAULT 14 _ZN7android10ColorSpace10
397:   OBJECT WEAK DEFAULT 18 _ZTVNSt3__110__function6_
398:   FUNC WEAK DEFAULT 14 _ZNSt3__15dequeINS_8weak_
399:   OBJECT GLOBAL DEFAULT 18 _ZTVN7android13GrallocMap
400:   FUNC WEAK DEFAULT 14 _ZN7android9SingletonINS_
401:   FUNC GLOBAL DEFAULT 14 _ZNK7android6Region7flatt
402:   FUNC GLOBAL DEFAULT 14 _ZNK7android6Region8subtr
403:   FUNC GLOBAL DEFAULT 14 _ZNK7android6Region9trans
404:   FUNC GLOBAL DEFAULT 14 _Z18decodeRenderIntentN7a
405:   FUNC GLOBAL DEFAULT 14 _ZN7android14Gralloc2Mapp
406:   FUNC GLOBAL DEFAULT 14 _ZN7android19GraphicBuffe
407:   FUNC GLOBAL DEFAULT 14 _ZN7android10ColorSpaceC2
408:   FUNC GLOBAL DEFAULT 14 _Z14decodeStandard19andro
409:   FUNC GLOBAL DEFAULT 14 _ZNK7android10FrameStats1
410:   FUNC GLOBAL DEFAULT 14 _ZNK7android14Gralloc2Map
411:   FUNC GLOBAL DEFAULT 14 _ZNK7android15HdrCapabili
412:   FUNC GLOBAL DEFAULT 14 _ZNK7android2ui9Transform
413:   FUNC GLOBAL DEFAULT 14 _ZN7android10ColorSpaceC2
414:   FUNC GLOBAL DEFAULT 14 _ZN7android9FenceTime8Sna
415:   FUNC GLOBAL DEFAULT 14 __aeabi_memmove
416:   FUNC GLOBAL DEFAULT 14 _ZN7android13GraphicBuffe
417:   FUNC GLOBAL DEFAULT 14 _ZNK7android4RectltERKS0_
418:   FUNC WEAK DEFAULT 14 _ZNKSt3__110__function6__
419:   FUNC GLOBAL DEFAULT 14 _ZN7android19GraphicBuffe
420:   FUNC GLOBAL DEFAULT 14 _ZNK7android6Region3endEv
421:   FUNC GLOBAL DEFAULT 14 _ZN7android13GraphicBuffe
422:   FUNC GLOBAL DEFAULT 14 _ZNK7android2ui9Transform
423:   FUNC WEAK DEFAULT 14 _ZNSt3__110__function6__f
424:   FUNC WEAK DEFAULT 14 _ZNSt3__110__function6__f
425:   OBJECT GLOBAL DEFAULT 18 _ZTVN7android17Gralloc2Al
426:   FUNC GLOBAL DEFAULT 14 _ZN7android6Region12subtr
427:   FUNC GLOBAL DEFAULT 14 _ZN7android6RegionC2ERKNS
428:   FUNC GLOBAL DEFAULT 14 _ZN7android2ui9TransformC
429:   FUNC GLOBAL DEFAULT 14 _ZNK7android2ui9Transform
430:   FUNC GLOBAL DEFAULT 14 _ZN7android10ColorSpace5B
431:   FUNC GLOBAL DEFAULT 14 _ZNK7android14Gralloc2Map
432:   FUNC GLOBAL DEFAULT 14 _ZNK7android6Region5begin
433:   FUNC GLOBAL DEFAULT 14 _ZN7android13FenceTimelin
434:   FUNC GLOBAL DEFAULT 14 _ZN7android13GraphicBuffe
435:   FUNC WEAK DEFAULT 14 _ZN7android9SingletonINS_
436:   FUNC WEAK DEFAULT 14 _ZNSt3__110__function6__f
437:   FUNC WEAK DEFAULT 14 _ZNSt3__114__split_buffer
438:   FUNC GLOBAL DEFAULT 14 _ZNK7android10FrameStats7
439:   FUNC GLOBAL DEFAULT 14 _ZNK7android14Gralloc3Map
440:   FUNC GLOBAL DEFAULT 14 _ZN7android13GraphicBuffe
441:   FUNC GLOBAL DEFAULT 14 _ZN7android13GraphicBuffe
442:   FUNC GLOBAL DEFAULT 14 _ZN7android19GraphicBuffe
443:   OBJECT GLOBAL DEFAULT 18 _ZTVN7android13GraphicBuf
444:   FUNC GLOBAL DEFAULT 14 _ZN7android9FenceTime13ge
445:   FUNC GLOBAL DEFAULT 14 _ZN7android19GraphicBuffe
446:   FUNC GLOBAL DEFAULT 14 _ZNK7android13GraphicBuff
447:   FUNC GLOBAL DEFAULT 14 _ZN7android6Region13opera
448:   FUNC GLOBAL DEFAULT 14 _ZNK7android6Region14merg
449:   OBJECT GLOBAL DEFAULT 23 _ZN7android5Fence8NO_FENC
450:   FUNC GLOBAL DEFAULT 14 _ZN7android13FenceTimelin
451:   FUNC WEAK DEFAULT 14 _ZNK7android12SortedVecto
452:   FUNC GLOBAL DEFAULT 14 _ZN7android6Region10raste
453:   FUNC WEAK DEFAULT 14 _ZNK7android6VectorINS_4R
454:   FUNC GLOBAL DEFAULT 14 _ZN7android13GraphicBuffe
455:   FUNC GLOBAL DEFAULT 14 _ZNK7android6Region4dumpE
456:   OBJECT WEAK DEFAULT 18 _ZTVNSt3__110__function6_
457:   FUNC GLOBAL DEFAULT 14 _ZN7android6Region16addRe
458:   FUNC GLOBAL DEFAULT 14 _ZN7android6Region17boole
459:   FUNC WEAK DEFAULT 14 _ZNK7android6VectorINS_4R
460:   FUNC GLOBAL DEFAULT 14 _ZN7android20appendUiConf
461:   OBJECT GLOBAL DEFAULT 18 _ZTVN7android14Gralloc3Ma
462:   FUNC GLOBAL DEFAULT 14 _ZNK7android13GraphicBuff
463:   OBJECT WEAK DEFAULT 18 _ZTVN7android12SortedVect
464:   FUNC GLOBAL DEFAULT 14 _ZN7android2ui9Transform3
465:   FUNC GLOBAL DEFAULT 14 _ZNK7android2ui9Transform
466:   OBJECT GLOBAL DEFAULT 23 _ZN7android6Region14INVAL
467:   FUNC GLOBAL DEFAULT 14 _ZNK7android6Region8conta
468:   FUNC GLOBAL DEFAULT 14 __aeabi_memclr
469:   FUNC GLOBAL DEFAULT 14 _ZN7android9FenceTimeC2Ex
470:   FUNC GLOBAL DEFAULT 14 _ZN7android19GraphicBuffe
471:   FUNC GLOBAL DEFAULT 14 _ZN7android2ui9TransformC
472:   FUNC WEAK DEFAULT 14 _ZN7android2spINS_5FenceE
473:   FUNC GLOBAL DEFAULT 14 _ZN7android22GraphicBuffe
474:   FUNC GLOBAL DEFAULT 14 _ZNK7android6Region9inter
475:   FUNC GLOBAL DEFAULT 14 _ZNK7android2ui9Transform
476:   OBJECT GLOBAL DEFAULT 23 _ZN7android9SingletonINS_
477:   FUNC WEAK DEFAULT 14 _ZNK7android12SortedVecto
478:   FUNC WEAK DEFAULT 14 _ZNKSt3__110__function6__
479:   FUNC WEAK DEFAULT 14 _ZNSt3__110__function6__f
480:   OBJECT GLOBAL DEFAULT 18 _ZTVN7android17Gralloc3Al
481:   FUNC GLOBAL DEFAULT 14 _ZN7android12bitsPerPixel
482:   FUNC GLOBAL DEFAULT 14 _ZN7android2ui9TransformD
483:   FUNC GLOBAL DEFAULT 14 _ZNK7android9FenceTime8Sn
484:   FUNC GLOBAL DEFAULT 14 _ZNK7android14Gralloc2Map
485:   FUNC GLOBAL DEFAULT 14 _ZN7android35mapHalFormat
486:   FUNC GLOBAL DEFAULT 14 _ZN7android6Region13trans
487:   FUNC GLOBAL DEFAULT 14 _ZN7android6Region6orSelf
488:   FUNC GLOBAL DEFAULT 14 _ZN7android10ColorSpaceC2
489:   FUNC GLOBAL DEFAULT 14 _ZN7android10FrameStats9u
490:   FUNC GLOBAL DEFAULT 14 _ZNK7android14Gralloc3Map
491:   FUNC GLOBAL DEFAULT 14 _ZNK7android13GraphicBuff
492:   FUNC GLOBAL DEFAULT 14 _ZN7android6Region17boole
493:   FUNC GLOBAL DEFAULT 14 _ZN7android13GraphicBuffe
494:   FUNC WEAK DEFAULT 14 _ZNK7android12SortedVecto
495:   FUNC GLOBAL DEFAULT 14 _ZN7android4Rect8offsetBy
496:   FUNC GLOBAL DEFAULT 14 _ZN7android10ColorSpace6B
497:   OBJECT WEAK DEFAULT 18 _ZTVNSt3__110__function6_
498:   FUNC WEAK DEFAULT 14 _ZNSt3__15dequeINS_8weak_
499:   FUNC GLOBAL DEFAULT 14 _ZN7android16GrallocAlloc
500:   FUNC GLOBAL DEFAULT 14 _ZNK7android14Gralloc3Map
501:   FUNC WEAK DEFAULT 14 _ZNSt3__110__function6__f
502:   FUNC WEAK DEFAULT 14 _ZNSt3__15dequeINS_8weak_
503:   FUNC GLOBAL DEFAULT 14 _ZNK7android2ui9Transform
504:   FUNC GLOBAL DEFAULT 14 _ZN7android15HdrCapabilit
505:   FUNC GLOBAL DEFAULT 14 _ZNK7android6Region16isTr
506:   FUNC GLOBAL DEFAULT 14 _ZN7android10ColorSpaceC1
507:   FUNC GLOBAL DEFAULT 14 __aeabi_memclr4
508:   FUNC GLOBAL DEFAULT 14 _ZN7android13GrallocMappe
509:   FUNC GLOBAL DEFAULT 14 _ZN7android13GraphicBuffe
510:   FUNC GLOBAL DEFAULT 14 _ZN7android13GraphicBuffe
511:   FUNC GLOBAL DEFAULT 14 _ZNK7android13GraphicBuff
512:   FUNC GLOBAL DEFAULT 14 _ZN7android6Region7andSel
513:   FUNC WEAK DEFAULT 14 _ZNSt3__120__shared_ptr_e
514:   FUNC GLOBAL DEFAULT 14 _ZN7android15HdrCapabilit
515:   FUNC GLOBAL DEFAULT 14 _ZN7android10ColorSpaceC1
516:   FUNC GLOBAL DEFAULT 14 _ZNK7android5Fence3dupEv
517:   FUNC GLOBAL DEFAULT 14 _ZN7android6Region10raste
518:   FUNC GLOBAL DEFAULT 14 _ZN7android6Region3setERK
519:   FUNC GLOBAL DEFAULT 14 _ZN7android6Region7xorSel
520:   FUNC GLOBAL DEFAULT 14 _ZN7android10ColorSpaceC2
521:   FUNC GLOBAL DEFAULT 14 _ZNK7android14Gralloc3Map
522:   OBJECT GLOBAL DEFAULT 23 _ZN7android9SingletonINS_
523:   FUNC GLOBAL DEFAULT 14 _ZNK7android2ui9Transform
524:   FUNC GLOBAL DEFAULT 14 _ZNK7android2ui9Transform
525:   FUNC GLOBAL DEFAULT 14 _ZNK7android22GraphicBuff
526:   FUNC GLOBAL DEFAULT 14 _ZN7android6Region13opera
527:   FUNC GLOBAL DEFAULT 14 _ZNK7android2ui9Transform
528:   FUNC GLOBAL DEFAULT 14 _ZNK7android2ui9Transform
529:   FUNC GLOBAL DEFAULT 14 __aeabi_memclr8
530:   FUNC GLOBAL DEFAULT 14 _ZN7android14Gralloc3Mapp
531:   FUNC GLOBAL DEFAULT 14 _ZN7android6Region5clearE
532:   FUNC WEAK DEFAULT 14 _ZNK7android6VectorINS_4R
533:   FUNC WEAK DEFAULT 14 _ZNKSt3__110__function6__
534:   FUNC GLOBAL DEFAULT 14 _ZNK7android14Gralloc3Map
535:   FUNC GLOBAL DEFAULT 14 _ZN7android13GraphicBuffe
536:   FUNC GLOBAL DEFAULT 14 _ZNK7android13GraphicBuff
537:   FUNC GLOBAL DEFAULT 14 android_convertGralloc1To
538:   FUNC GLOBAL DEFAULT 14 _ZN7android6RegionC2Ev
539:   OBJECT WEAK DEFAULT 18 _ZTVNSt3__120__shared_ptr
540:   FUNC GLOBAL DEFAULT 14 _ZNK7android2ui9Transform
541:   FUNC WEAK DEFAULT 14 _ZN7android2spINS_5FenceE
542:   FUNC GLOBAL DEFAULT 14 _ZNK7android9FenceTime11g
543:   FUNC WEAK DEFAULT 14 _ZNSt3__114__split_buffer
544:   FUNC WEAK DEFAULT 14 _ZNSt3__120__shared_ptr_p
545:   FUNC GLOBAL DEFAULT 14 _ZN7android13GraphicBuffe
546:   FUNC GLOBAL DEFAULT 14 _ZNK7android6Region9inter
547:   FUNC GLOBAL DEFAULT 14 _ZNK7android6Region9opera
548:   FUNC GLOBAL DEFAULT 14 _ZN7android2ui9Transform3
549:   FUNC GLOBAL DEFAULT 14 __aeabi_memset
550:   FUNC GLOBAL DEFAULT 14 _ZN7android13GraphicBuffe
551:   FUNC GLOBAL DEFAULT 14 _ZN7android22GraphicBuffe
552:   FUNC WEAK DEFAULT 14 _ZN7android9SingletonINS_
553:   FUNC GLOBAL DEFAULT 14 _ZN7android6RegionD2Ev
554:   FUNC GLOBAL DEFAULT 14 _ZNK7android2ui9Transform
555:   FUNC GLOBAL DEFAULT 14 _ZN7android5Fence5mergeEP
556:   FUNC GLOBAL DEFAULT 14 _ZN7android29mapPublicFor
557:   FUNC GLOBAL DEFAULT 14 _ZN7android2ui9Transform6
