 0x0000000e (SONAME)                     Library soname: [android.hardware.media.omx@1.0.so]
  
Symbol   contains 731 entries:
Num:   Type Bind Vis Ndx Name
0:   NOTYPE LOCAL DEFAULT UND
1:   FUNC GLOBAL DEFAULT UND __cxa_finalize@LIBC (2)
2:   FUNC GLOBAL DEFAULT UND _ZN7android14sp_report_ra
3:   FUNC GLOBAL DEFAULT UND _ZN7android21report_syspr
4:   OBJECT GLOBAL DEFAULT UND _ZN7android4hidl4base4V1_
5:   FUNC GLOBAL DEFAULT UND _ZN7android4hidl4base4V1_
6:   FUNC GLOBAL DEFAULT UND _ZN7android4hidl4base4V1_
7:   FUNC GLOBAL DEFAULT UND _ZN7android4hidl4base4V1_
8:   FUNC GLOBAL DEFAULT UND _ZN7android4hidl4base4V1_
9:   FUNC GLOBAL DEFAULT UND _ZN7android4hidl4base4V1_
10:   FUNC GLOBAL DEFAULT UND _ZN7android4hidl4base4V1_
11:   FUNC GLOBAL DEFAULT UND _ZN7android4hidl4base4V1_
12:   FUNC GLOBAL DEFAULT UND _ZN7android4hidl4base4V1_
13:   FUNC GLOBAL DEFAULT UND _ZN7android4hidl4base4V1_
14:   FUNC GLOBAL DEFAULT UND _ZN7android4hidl4base4V1_
15:   FUNC GLOBAL DEFAULT UND _ZN7android4hidl4base4V1_
16:   FUNC GLOBAL DEFAULT UND _ZN7android4hidl4base4V1_
17:   FUNC GLOBAL DEFAULT UND _ZN7android4hidl4base4V1_
18:   FUNC GLOBAL DEFAULT UND _ZN7android4hidl4base4V1_
19:   FUNC GLOBAL DEFAULT UND _ZN7android4hidl4base4V1_
20:   FUNC GLOBAL DEFAULT UND _ZN7android4hidl4base4V1_
21:   FUNC GLOBAL DEFAULT UND _ZN7android4hidl4base4V1_
22:   FUNC GLOBAL DEFAULT UND _ZN7android4hidl4base4V1_
23:   FUNC GLOBAL DEFAULT UND _ZN7android4hidl4base4V1_
24:   FUNC GLOBAL DEFAULT UND _ZN7android4hidl4base4V1_
25:   FUNC GLOBAL DEFAULT UND _ZN7android4hidl4base4V1_
26:   FUNC GLOBAL DEFAULT UND _ZN7android4hidl4base4V1_
27:   FUNC GLOBAL DEFAULT UND _ZN7android4hidl4base4V1_
28:   FUNC GLOBAL DEFAULT UND _ZN7android7RefBase10onFi
29:   FUNC GLOBAL DEFAULT UND _ZN7android7RefBase12weak
30:   FUNC GLOBAL DEFAULT UND _ZN7android7RefBase13onLa
31:   FUNC GLOBAL DEFAULT UND _ZN7android7RefBase15onLa
32:   FUNC GLOBAL DEFAULT UND _ZN7android7RefBase20onIn
33:   FUNC GLOBAL DEFAULT UND _ZN7android7RefBaseC2Ev
34:   FUNC GLOBAL DEFAULT UND _ZN7android7RefBaseD2Ev
35:   FUNC GLOBAL DEFAULT UND _ZN7android8hardware10IIn
36:   FUNC GLOBAL DEFAULT UND _ZN7android8hardware10IIn
37:   FUNC GLOBAL DEFAULT UND _ZN7android8hardware10IIn
38:   FUNC GLOBAL DEFAULT UND _ZN7android8hardware10IIn
39:   FUNC GLOBAL DEFAULT UND _ZN7android8hardware10IIn
40:   FUNC GLOBAL DEFAULT UND _ZN7android8hardware11BpH
41:   FUNC GLOBAL DEFAULT UND _ZN7android8hardware11BpH
42:   FUNC GLOBAL DEFAULT UND _ZN7android8hardware11BpH
43:   FUNC GLOBAL DEFAULT UND _ZN7android8hardware11BpH
44:   FUNC GLOBAL DEFAULT UND _ZN7android8hardware11BpH
45:   FUNC GLOBAL DEFAULT UND _ZN7android8hardware11BpH
46:   FUNC GLOBAL DEFAULT UND _ZN7android8hardware11BpH
47:   FUNC GLOBAL DEFAULT UND _ZN7android8hardware11hid
48:   FUNC GLOBAL DEFAULT UND _ZN7android8hardware11hid
49:   FUNC GLOBAL DEFAULT UND _ZN7android8hardware11hid
50:   FUNC GLOBAL DEFAULT UND _ZN7android8hardware11hid
51:   FUNC GLOBAL DEFAULT UND _ZN7android8hardware11hid
52:   FUNC GLOBAL DEFAULT UND _ZN7android8hardware12Pro
53:   FUNC GLOBAL DEFAULT UND _ZN7android8hardware12Pro
54:   FUNC GLOBAL DEFAULT UND _ZN7android8hardware13wri
55:   FUNC GLOBAL DEFAULT UND _ZN7android8hardware14rea
56:   FUNC GLOBAL DEFAULT UND _ZN7android8hardware21def
57:   FUNC GLOBAL DEFAULT UND _ZN7android8hardware23get
58:   FUNC GLOBAL DEFAULT UND _ZN7android8hardware27hid
59:   FUNC GLOBAL DEFAULT UND _ZN7android8hardware27hid
60:   FUNC GLOBAL DEFAULT UND _ZN7android8hardware6Parc
61:   FUNC GLOBAL DEFAULT UND _ZN7android8hardware6Parc
62:   FUNC GLOBAL DEFAULT UND _ZN7android8hardware6Parc
63:   FUNC GLOBAL DEFAULT UND _ZN7android8hardware6Parc
64:   FUNC GLOBAL DEFAULT UND _ZN7android8hardware6Parc
65:   FUNC GLOBAL DEFAULT UND _ZN7android8hardware6Parc
66:   FUNC GLOBAL DEFAULT UND _ZN7android8hardware6Parc
67:   FUNC GLOBAL DEFAULT UND _ZN7android8hardware6Parc
68:   FUNC GLOBAL DEFAULT UND _ZN7android8hardware6Parc
69:   FUNC GLOBAL DEFAULT UND _ZN7android8hardware6Parc
70:   FUNC GLOBAL DEFAULT UND _ZN7android8hardware6Stat
71:   FUNC GLOBAL DEFAULT UND _ZN7android8hardware6Stat
72:   FUNC GLOBAL DEFAULT UND _ZN7android8hardware6Stat
73:   FUNC GLOBAL DEFAULT UND _ZN7android8hardware6Stat
74:   FUNC GLOBAL DEFAULT UND _ZN7android8hardware7IBin
75:   FUNC GLOBAL DEFAULT UND _ZN7android8hardware7IBin
76:   FUNC GLOBAL DEFAULT UND _ZN7android8hardware7IBin
77:   FUNC GLOBAL DEFAULT UND _ZN7android8hardware7IBin
78:   FUNC GLOBAL DEFAULT UND _ZN7android8hardware7deta
79:   FUNC GLOBAL DEFAULT UND _ZN7android8hardware7deta
80:   FUNC GLOBAL DEFAULT UND _ZN7android8hardware7deta
81:   FUNC GLOBAL DEFAULT UND _ZN7android8hardware7deta
82:   FUNC GLOBAL DEFAULT UND _ZN7android8hardware7deta
83:   FUNC GLOBAL DEFAULT UND _ZN7android8hardware7deta
84:   FUNC GLOBAL DEFAULT UND _ZN7android8hardware7deta
85:   OBJECT GLOBAL DEFAULT UND _ZN7android8hardware7deta
86:   OBJECT GLOBAL DEFAULT UND _ZN7android8hardware7deta
87:   FUNC GLOBAL DEFAULT UND _ZN7android8hardware7deta
88:   FUNC GLOBAL DEFAULT UND _ZN7android8hardware7deta
89:   FUNC GLOBAL DEFAULT UND _ZN7android8hardware7deta
90:   FUNC GLOBAL DEFAULT UND _ZN7android8hardware7deta
91:   FUNC GLOBAL DEFAULT UND _ZN7android8hardware7deta
92:   FUNC GLOBAL DEFAULT UND _ZN7android8hardware7deta
93:   FUNC GLOBAL DEFAULT UND _ZN7android8hardware7deta
94:   FUNC GLOBAL DEFAULT UND _ZN7android8hardware7deta
95:   FUNC GLOBAL DEFAULT UND _ZN7android8hardware7deta
96:   FUNC GLOBAL DEFAULT UND _ZN7android8hardware7deta
97:   OBJECT GLOBAL DEFAULT UND _ZN7android8hardware7deta
98:   FUNC GLOBAL DEFAULT UND _ZN7android8hardware9BHwB
99:   FUNC GLOBAL DEFAULT UND _ZN7android8hardware9BHwB
100:   FUNC GLOBAL DEFAULT UND _ZN7android8hardware9BHwB
101:   FUNC GLOBAL DEFAULT UND _ZN7android8hardware9BHwB
102:   FUNC GLOBAL DEFAULT UND _ZN7android8hardware9BHwB
103:   FUNC GLOBAL DEFAULT UND _ZN7android8hardware9BHwB
104:   FUNC GLOBAL DEFAULT UND _ZN7android8hardware9BHwB
105:   FUNC GLOBAL DEFAULT UND _ZN7android8hardware9BHwB
106:   FUNC GLOBAL DEFAULT UND _ZN7android8hardware9BHwB
107:   FUNC GLOBAL DEFAULT UND _ZN7android8hardware9BHwB
108:   FUNC GLOBAL DEFAULT UND _ZNK7android7RefBase10cre
109:   FUNC GLOBAL DEFAULT UND _ZNK7android7RefBase11get
110:   FUNC GLOBAL DEFAULT UND _ZNK7android7RefBase9decS
111:   FUNC GLOBAL DEFAULT UND _ZNK7android7RefBase9incS
112:   FUNC GLOBAL DEFAULT UND _ZNK7android8hardware6Par
113:   FUNC GLOBAL DEFAULT UND _ZNK7android8hardware6Par
114:   FUNC GLOBAL DEFAULT UND _ZNK7android8hardware6Par
115:   FUNC GLOBAL DEFAULT UND _ZNK7android8hardware6Par
116:   FUNC GLOBAL DEFAULT UND _ZNK7android8hardware6Par
117:   FUNC GLOBAL DEFAULT UND _ZNK7android8hardware6Par
118:   FUNC GLOBAL DEFAULT UND _ZNK7android8hardware6Par
119:   FUNC GLOBAL DEFAULT UND _ZNK7android8hardware6Par
120:   FUNC GLOBAL DEFAULT UND _ZNK7android8hardware7IBi
121:   FUNC GLOBAL DEFAULT UND _ZNK7android8hardware7det
122:   FUNC GLOBAL DEFAULT UND _ZNK7android8hardware9BHw
123:   FUNC GLOBAL DEFAULT UND _ZNKSt3__120__vector_base
124:   FUNC GLOBAL DEFAULT UND _ZNKSt3__121__basic_strin
125:   FUNC GLOBAL DEFAULT UND _ZNSt3__112basic_stringIc
126:   FUNC GLOBAL DEFAULT UND _ZNSt3__15mutex4lockEv
127:   FUNC GLOBAL DEFAULT UND _ZNSt3__15mutex6unlockEv
128:   FUNC GLOBAL DEFAULT UND _ZNSt3__15mutexD1Ev
129:   FUNC GLOBAL DEFAULT UND _ZTv0_n12_N7android4hidl4
130:   FUNC GLOBAL DEFAULT UND _ZTv0_n12_N7android4hidl4
131:   FUNC GLOBAL DEFAULT UND _ZTv0_n12_N7android8hardw
132:   FUNC GLOBAL DEFAULT UND _ZTv0_n12_N7android8hardw
133:   FUNC GLOBAL DEFAULT UND _ZTv0_n12_N7android8hardw
134:   FUNC GLOBAL DEFAULT UND _ZTv0_n12_N7android8hardw
135:   FUNC GLOBAL DEFAULT UND _ZTv0_n12_N7android8hardw
136:   FUNC GLOBAL DEFAULT UND _ZTv0_n12_N7android8hardw
137:   FUNC GLOBAL DEFAULT UND _ZTv0_n12_N7android8hardw
138:   FUNC GLOBAL DEFAULT UND _ZTv0_n12_N7android8hardw
139:   FUNC GLOBAL DEFAULT UND _ZTv0_n16_N7android8hardw
140:   FUNC GLOBAL DEFAULT UND _ZTv0_n20_N7android8hardw
141:   FUNC GLOBAL DEFAULT UND _ZTv0_n24_N7android8hardw
142:   FUNC GLOBAL DEFAULT UND _ZdaPv
143:   FUNC GLOBAL DEFAULT UND _ZdlPv
144:   FUNC GLOBAL DEFAULT UND _Znaj
145:   FUNC GLOBAL DEFAULT UND _Znwj
146:   FUNC GLOBAL DEFAULT UND __android_log_assert@LIBLOG (3)
147:   FUNC GLOBAL DEFAULT UND __cxa_pure_virtual
148:   FUNC GLOBAL DEFAULT UND __stack_chk_fail@LIBC (2)
149:   OBJECT GLOBAL DEFAULT UND __stack_chk_guard@LIBC (2)
150:   FUNC GLOBAL DEFAULT UND abort@LIBC (2)
151:   FUNC GLOBAL DEFAULT UND atrace_begin_body
152:   OBJECT GLOBAL DEFAULT UND atrace_enabled_tags
153:   FUNC GLOBAL DEFAULT UND atrace_end_body
154:   OBJECT GLOBAL DEFAULT UND atrace_is_ready
155:   FUNC GLOBAL DEFAULT UND atrace_setup
156:   FUNC GLOBAL DEFAULT UND memcmp@LIBC (2)
157:   FUNC GLOBAL DEFAULT UND strlen@LIBC (2)
158:   FUNC GLOBAL DEFAULT UND _ZN7android8hardware21wri
159:   FUNC GLOBAL DEFAULT UND _ZN7android8hardware22rea
160:   FUNC GLOBAL DEFAULT UND _ZN7android8hardware6Parc
161:   OBJECT GLOBAL DEFAULT UND _ZN7android8hardware8grap
162:   FUNC GLOBAL DEFAULT UND _ZN7android8hardware8grap
163:   FUNC GLOBAL DEFAULT UND _ZNK7android8hardware6Par
164:   FUNC GLOBAL DEFAULT UND _ZNSt3__112basic_stringIc
165:   FUNC GLOBAL DEFAULT UND _ZN7android8hardware11hid
166:   FUNC GLOBAL DEFAULT UND _ZN7android8hardware11hid
167:   FUNC GLOBAL DEFAULT UND _ZN7android8hardware11hid
168:   FUNC GLOBAL DEFAULT UND _ZN7android8hardware11hid
169:   FUNC GLOBAL DEFAULT UND _ZN7android8hardware6Parc
170:   FUNC GLOBAL DEFAULT UND _ZN7android8hardware6Parc
171:   FUNC GLOBAL DEFAULT UND _ZNK7android8hardware11hi
172:   FUNC GLOBAL DEFAULT UND _ZNK7android8hardware6Par
173:   FUNC GLOBAL DEFAULT UND _ZNK7android8hardware6Par
174:   FUNC GLOBAL DEFAULT UND _ZN7android8hardware6Parc
175:   FUNC GLOBAL DEFAULT UND _ZNK7android8hardware6Par
176:   FUNC GLOBAL DEFAULT UND _ZN7android8hardware11hid
177:   FUNC GLOBAL DEFAULT UND _ZN7android8hardware21wri
178:   FUNC GLOBAL DEFAULT UND _ZN7android8hardware21wri
179:   FUNC GLOBAL DEFAULT UND _ZN7android8hardware22rea
180:   FUNC GLOBAL DEFAULT UND _ZN7android8hardware22rea
181:   FUNC GLOBAL DEFAULT UND memcpy@LIBC (2)
182:   FUNC GLOBAL DEFAULT UND memset@LIBC (2)
183:   OBJECT GLOBAL DEFAULT 18 _ZTCN7android8hardware5me
184:   FUNC GLOBAL DEFAULT 14 _ZTv0_n12_N7android8hardw
185:   FUNC GLOBAL DEFAULT 14 _ZN7android8hardware5medi
186:   FUNC WEAK DEFAULT 14 _ZN7android8hardware7deta
187:   OBJECT GLOBAL DEFAULT 18 _ZTCN7android8hardware5me
188:   FUNC GLOBAL DEFAULT 14 _ZThn20_N7android8hardwar
189:   FUNC GLOBAL DEFAULT 14 _ZN7android8hardware5medi
190:   FUNC GLOBAL DEFAULT 14 _ZN7android8hardware5medi
191:   FUNC GLOBAL DEFAULT 14 _ZN7android8hardware5medi
192:   OBJECT GLOBAL DEFAULT 18 _ZTCN7android8hardware5me
193:   FUNC GLOBAL DEFAULT 14 _ZN7android8hardware5medi
194:   FUNC GLOBAL DEFAULT 14 _ZN7android8hardware5medi
195:   FUNC GLOBAL DEFAULT 14 _ZN7android8hardware5medi
196:   FUNC GLOBAL DEFAULT 14 _ZN7android8hardware5medi
197:   FUNC GLOBAL DEFAULT 14 _ZN7android8hardware5medi
198:   FUNC GLOBAL DEFAULT 14 _ZN7android8hardware5medi
199:   FUNC GLOBAL DEFAULT 14 _ZTv0_n12_N7android8hardw
200:   FUNC GLOBAL DEFAULT 14 _ZN7android8hardware5medi
201:   FUNC GLOBAL DEFAULT 14 _ZN7android8hardware5medi
202:   OBJECT GLOBAL DEFAULT 18 _ZTCN7android8hardware5me
203:   OBJECT GLOBAL DEFAULT 18 _ZTVN7android8hardware5me
204:   FUNC GLOBAL DEFAULT 14 _ZN7android8hardware5medi
205:   FUNC GLOBAL DEFAULT 14 _ZN7android8hardware5medi
206:   FUNC GLOBAL DEFAULT 14 _ZN7android8hardware5medi
207:   FUNC GLOBAL DEFAULT 14 _ZN7android8hardware5medi
208:   OBJECT GLOBAL DEFAULT 18 _ZTCN7android8hardware5me
209:   FUNC GLOBAL DEFAULT 14 _ZN7android8hardware5medi
210:   FUNC GLOBAL DEFAULT 14 _ZN7android8hardware5medi
211:   FUNC GLOBAL DEFAULT 14 _ZN7android8hardware5medi
212:   FUNC GLOBAL DEFAULT 14 _ZN7android8hardware5medi
213:   FUNC GLOBAL DEFAULT 14 _ZN7android8hardware5medi
214:   FUNC GLOBAL DEFAULT 14 _ZN7android8hardware5medi
215:   FUNC WEAK DEFAULT 14 _ZNSt3__127__tree_balance
216:   FUNC GLOBAL DEFAULT 14 _ZN7android8hardware5medi
217:   OBJECT WEAK DEFAULT 18 _ZTCN7android8hardware5me
218:   OBJECT GLOBAL DEFAULT 18 _ZTVN7android8hardware5me
219:   OBJECT GLOBAL DEFAULT 18 _ZTCN7android8hardware5me
220:   FUNC GLOBAL DEFAULT 14 _ZN7android8hardware5medi
221:   FUNC GLOBAL DEFAULT 14 _ZN7android8hardware5medi
222:   FUNC GLOBAL DEFAULT 14 _ZN7android8hardware5medi
223:   FUNC GLOBAL DEFAULT 14 _ZN7android8hardware5medi
224:   FUNC GLOBAL DEFAULT 14 __aeabi_memclr
225:   FUNC GLOBAL DEFAULT 14 _ZN7android8hardware5medi
226:   FUNC GLOBAL DEFAULT 14 _ZN7android8hardware5medi
227:   OBJECT GLOBAL DEFAULT 18 _ZTCN7android8hardware5me
228:   FUNC GLOBAL DEFAULT 14 _ZTv0_n12_N7android8hardw
229:   FUNC GLOBAL DEFAULT 14 _ZTv0_n12_N7android8hardw
230:   FUNC GLOBAL DEFAULT 14 _ZN7android8hardware5medi
231:   FUNC GLOBAL DEFAULT 14 __aeabi_memcpy
232:   FUNC GLOBAL DEFAULT 14 _ZN7android8hardware5medi
233:   FUNC GLOBAL DEFAULT 14 _ZN7android8hardware5medi
234:   FUNC GLOBAL DEFAULT 14 _ZN7android8hardware5medi
235:   FUNC GLOBAL DEFAULT 14 _ZN7android8hardware5medi
236:   FUNC GLOBAL DEFAULT 14 _ZN7android8hardware5medi
237:   FUNC GLOBAL DEFAULT 14 _ZN7android8hardware5medi
238:   OBJECT WEAK DEFAULT 18 _ZTVN7android8hardware5me
239:   FUNC GLOBAL DEFAULT 14 _ZN7android8hardware5medi
240:   FUNC WEAK DEFAULT 14 _ZNSt3__16__treeINS_12__v
241:   FUNC GLOBAL DEFAULT 14 _ZN7android8hardware5medi
242:   OBJECT WEAK DEFAULT 18 _ZTCN7android8hardware5me
243:   FUNC GLOBAL DEFAULT 14 _ZN7android8hardware5medi
244:   FUNC WEAK DEFAULT 14 _ZN7android8hardware10fro
245:   FUNC GLOBAL DEFAULT 14 _ZN7android8hardware5medi
246:   FUNC GLOBAL DEFAULT 14 _ZN7android8hardware5medi
247:   FUNC GLOBAL DEFAULT 14 _ZN7android8hardware5medi
248:   FUNC GLOBAL DEFAULT 14 _ZN7android8hardware5medi
249:   FUNC GLOBAL DEFAULT 14 _ZN7android8hardware5medi
250:   OBJECT GLOBAL DEFAULT 18 _ZTTN7android8hardware5me
251:   OBJECT GLOBAL DEFAULT 16 _ZN7android8hardware5medi
252:   OBJECT GLOBAL DEFAULT 18 _ZTCN7android8hardware5me
253:   OBJECT GLOBAL DEFAULT 18 _ZTTN7android8hardware5me
254:   FUNC GLOBAL DEFAULT 14 _ZN7android8hardware5medi
255:   FUNC GLOBAL DEFAULT 14 _ZN7android8hardware5medi
256:   FUNC GLOBAL DEFAULT 14 _ZN7android8hardware5medi
257:   OBJECT GLOBAL DEFAULT 18 _ZTTN7android8hardware5me
258:   FUNC GLOBAL DEFAULT 14 _ZN7android8hardware5medi
259:   OBJECT GLOBAL DEFAULT 18 _ZTCN7android8hardware5me
260:   FUNC GLOBAL DEFAULT 14 _ZN7android8hardware5medi
261:   FUNC GLOBAL DEFAULT 14 _ZTv0_n12_N7android8hardw
262:   FUNC WEAK DEFAULT 14 _ZNSt3__16vectorIPvNS_9al
263:   FUNC GLOBAL DEFAULT 14 _ZN7android8hardware5medi
264:   FUNC GLOBAL DEFAULT 14 _ZN7android8hardware5medi
265:   FUNC GLOBAL DEFAULT 14 _ZN7android8hardware5medi
266:   OBJECT GLOBAL DEFAULT 18 _ZTVN7android8hardware5me
267:   FUNC GLOBAL DEFAULT 14 _ZN7android8hardware5medi
268:   FUNC GLOBAL DEFAULT 14 _ZN7android8hardware5medi
269:   FUNC GLOBAL DEFAULT 14 _ZN7android8hardware5medi
270:   FUNC GLOBAL DEFAULT 14 _ZN7android8hardware5medi
271:   OBJECT GLOBAL DEFAULT 18 _ZTCN7android8hardware5me
272:   FUNC GLOBAL DEFAULT 14 _ZN7android8hardware5medi
273:   FUNC GLOBAL DEFAULT 14 _ZN7android8hardware5medi
274:   OBJECT GLOBAL DEFAULT 16 _ZN7android8hardware5medi
275:   OBJECT GLOBAL DEFAULT 18 _ZTTN7android8hardware5me
276:   FUNC WEAK DEFAULT 14 _ZN7android8hardware7deta
277:   FUNC GLOBAL DEFAULT 14 _ZN7android8hardware5medi
278:   OBJECT GLOBAL DEFAULT 18 _ZTVN7android8hardware5me
279:   FUNC GLOBAL DEFAULT 14 _ZN7android8hardware5medi
280:   FUNC GLOBAL DEFAULT 14 _ZThn20_N7android8hardwar
281:   OBJECT GLOBAL DEFAULT 18 _ZTTN7android8hardware5me
282:   OBJECT GLOBAL DEFAULT 18 _ZTVN7android8hardware5me
283:   FUNC GLOBAL DEFAULT 14 _ZN7android8hardware5medi
284:   FUNC WEAK DEFAULT 14 _ZN7android8hardware7deta
285:   FUNC GLOBAL DEFAULT 14 _ZN7android8hardware5medi
286:   FUNC GLOBAL DEFAULT 14 _ZN7android8hardware5medi
287:   FUNC GLOBAL DEFAULT 14 _ZN7android8hardware5medi
288:   FUNC GLOBAL DEFAULT 14 _ZN7android8hardware5medi
289:   FUNC GLOBAL DEFAULT 14 _ZN7android8hardware5medi
290:   FUNC GLOBAL DEFAULT 14 _ZN7android8hardware5medi
291:   FUNC GLOBAL DEFAULT 14 _ZN7android8hardware5medi
292:   FUNC GLOBAL DEFAULT 14 _ZN7android8hardware5medi
293:   FUNC GLOBAL DEFAULT 14 _ZN7android8hardware5medi
294:   FUNC WEAK DEFAULT 14 _ZN7android8hardware7deta
295:   OBJECT GLOBAL DEFAULT 18 _ZTTN7android8hardware5me
296:   OBJECT GLOBAL DEFAULT 18 _ZTCN7android8hardware5me
297:   FUNC GLOBAL DEFAULT 14 _ZN7android8hardware5medi
298:   FUNC WEAK DEFAULT 14 _ZNSt3__16__treeINS_12__v
299:   FUNC WEAK DEFAULT 14 _ZNSt3__16vectorINS_8func
300:   FUNC GLOBAL DEFAULT 14 _ZN7android8hardware5medi
301:   FUNC GLOBAL DEFAULT 14 _ZN7android8hardware5medi
302:   FUNC GLOBAL DEFAULT 14 _ZN7android8hardware5medi
303:   OBJECT GLOBAL DEFAULT 18 _ZTVN7android8hardware5me
304:   FUNC GLOBAL DEFAULT 14 _ZN7android8hardware5medi
305:   FUNC GLOBAL DEFAULT 14 _ZN7android8hardware5medi
306:   OBJECT GLOBAL DEFAULT 18 _ZTCN7android8hardware5me
307:   FUNC GLOBAL DEFAULT 14 _ZN7android8hardware5medi
308:   FUNC GLOBAL DEFAULT 14 _ZN7android8hardware5medi
309:   FUNC GLOBAL DEFAULT 14 _ZN7android8hardware5medi
310:   OBJECT WEAK DEFAULT 18 _ZTVN7android8hardware5me
311:   FUNC GLOBAL DEFAULT 14 _ZN7android8hardware5medi
312:   FUNC GLOBAL DEFAULT 14 _ZN7android8hardware5medi
313:   FUNC GLOBAL DEFAULT 14 _ZN7android8hardware5medi
314:   FUNC GLOBAL DEFAULT 14 _ZN7android8hardware5medi
315:   FUNC GLOBAL DEFAULT 14 _ZThn20_N7android8hardwar
316:   FUNC WEAK DEFAULT 14 _ZN7android8hardware7deta
317:   FUNC GLOBAL DEFAULT 14 _ZN7android8hardware5medi
318:   OBJECT GLOBAL DEFAULT 18 _ZTCN7android8hardware5me
319:   FUNC GLOBAL DEFAULT 14 _ZN7android8hardware5medi
320:   OBJECT WEAK DEFAULT 18 _ZTCN7android8hardware5me
321:   OBJECT GLOBAL DEFAULT 18 _ZTCN7android8hardware5me
322:   FUNC GLOBAL DEFAULT 14 _ZN7android8hardware5medi
323:   FUNC GLOBAL DEFAULT 14 _ZN7android8hardware5medi
324:   FUNC GLOBAL DEFAULT 14 _ZN7android8hardware5medi
325:   FUNC GLOBAL DEFAULT 14 _ZN7android8hardware5medi
326:   FUNC GLOBAL DEFAULT 14 _ZN7android8hardware5medi
327:   FUNC GLOBAL DEFAULT 14 _ZN7android8hardware5medi
328:   FUNC GLOBAL DEFAULT 14 _ZN7android8hardware5medi
329:   FUNC GLOBAL DEFAULT 14 _ZN7android8hardware5medi
330:   FUNC GLOBAL DEFAULT 14 _ZN7android8hardware5medi
331:   FUNC GLOBAL DEFAULT 14 _ZN7android8hardware5medi
332:   FUNC GLOBAL DEFAULT 14 _ZN7android8hardware5medi
333:   FUNC GLOBAL DEFAULT 14 _ZN7android8hardware5medi
334:   OBJECT GLOBAL DEFAULT 18 _ZTCN7android8hardware5me
335:   FUNC GLOBAL DEFAULT 14 _ZN7android8hardware5medi
336:   OBJECT WEAK DEFAULT 18 _ZTCN7android8hardware5me
337:   FUNC GLOBAL DEFAULT 14 _ZN7android8hardware5medi
338:   OBJECT GLOBAL DEFAULT 18 _ZTTN7android8hardware5me
339:   FUNC GLOBAL DEFAULT 14 _ZN7android8hardware5medi
340:   FUNC GLOBAL DEFAULT 14 _ZN7android8hardware5medi
341:   FUNC GLOBAL DEFAULT 14 _ZN7android8hardware5medi
342:   FUNC GLOBAL DEFAULT 14 _ZN7android8hardware5medi
343:   OBJECT GLOBAL DEFAULT 18 _ZTCN7android8hardware5me
344:   OBJECT GLOBAL DEFAULT 18 _ZTCN7android8hardware5me
345:   FUNC GLOBAL DEFAULT 14 _ZN7android8hardware5medi
346:   FUNC GLOBAL DEFAULT 14 _ZN7android8hardware5medi
347:   FUNC GLOBAL DEFAULT 14 _ZThn20_N7android8hardwar
348:   FUNC GLOBAL DEFAULT 14 _ZN7android8hardware5medi
349:   FUNC GLOBAL DEFAULT 14 _ZN7android8hardware5medi
350:   FUNC GLOBAL DEFAULT 14 _ZTv0_n12_N7android8hardw
351:   FUNC GLOBAL DEFAULT 14 _ZN7android8hardware5medi
352:   FUNC GLOBAL DEFAULT 14 __aeabi_memcpy4
353:   FUNC GLOBAL DEFAULT 14 _ZN7android8hardware5medi
354:   FUNC GLOBAL DEFAULT 14 _ZN7android8hardware5medi
355:   FUNC GLOBAL DEFAULT 14 _ZN7android8hardware5medi
356:   OBJECT GLOBAL DEFAULT 18 _ZTVN7android8hardware5me
357:   OBJECT GLOBAL DEFAULT 18 _ZTCN7android8hardware5me
358:   FUNC WEAK DEFAULT 14 _ZN7android8hardware10fro
359:   OBJECT GLOBAL DEFAULT 18 _ZTVN7android8hardware5me
360:   FUNC GLOBAL DEFAULT 14 _ZN7android8hardware5medi
361:   FUNC GLOBAL DEFAULT 14 _ZN7android8hardware5medi
362:   FUNC GLOBAL DEFAULT 14 _ZN7android8hardware5medi
363:   FUNC GLOBAL DEFAULT 14 _ZN7android8hardware5medi
364:   FUNC GLOBAL DEFAULT 14 _ZN7android8hardware5medi
365:   FUNC GLOBAL DEFAULT 14 _ZN7android8hardware5medi
366:   FUNC GLOBAL DEFAULT 14 _ZN7android8hardware5medi
367:   FUNC GLOBAL DEFAULT 14 _ZN7android8hardware5medi
368:   FUNC GLOBAL DEFAULT 14 _ZN7android8hardware5medi
369:   FUNC GLOBAL DEFAULT 14 _ZN7android8hardware5medi
370:   OBJECT WEAK DEFAULT 18 _ZTCN7android8hardware5me
371:   FUNC GLOBAL DEFAULT 14 _ZN7android8hardware5medi
372:   FUNC GLOBAL DEFAULT 14 _ZN7android8hardware5medi
373:   FUNC GLOBAL DEFAULT 14 __aeabi_memcpy8
374:   FUNC WEAK DEFAULT 14 _ZN7android8hardware7deta
375:   OBJECT GLOBAL DEFAULT 18 _ZTCN7android8hardware5me
376:   FUNC GLOBAL DEFAULT 14 _ZN7android8hardware5medi
377:   FUNC GLOBAL DEFAULT 14 _ZN7android8hardware5medi
378:   FUNC GLOBAL DEFAULT 14 _ZN7android8hardware5medi
379:   FUNC WEAK DEFAULT 14 _ZN7android8hardware7deta
380:   FUNC GLOBAL DEFAULT 14 _ZN7android8hardware5medi
381:   FUNC GLOBAL DEFAULT 14 _ZN7android8hardware5medi
382:   FUNC GLOBAL DEFAULT 14 _ZN7android8hardware5medi
383:   OBJECT GLOBAL DEFAULT 18 _ZTCN7android8hardware5me
384:   FUNC GLOBAL DEFAULT 14 _ZN7android8hardware5medi
385:   FUNC GLOBAL DEFAULT 14 _ZThn20_N7android8hardwar
386:   FUNC GLOBAL DEFAULT 14 _ZN7android8hardware5medi
387:   FUNC GLOBAL DEFAULT 14 _ZN7android8hardware5medi
388:   FUNC GLOBAL DEFAULT 14 _ZTv0_n12_N7android8hardw
389:   FUNC GLOBAL DEFAULT 14 _ZN7android8hardware5medi
390:   OBJECT GLOBAL DEFAULT 18 _ZTVN7android8hardware5me
391:   FUNC GLOBAL DEFAULT 14 _ZN7android8hardware5medi
392:   FUNC GLOBAL DEFAULT 14 _ZN7android8hardware5medi
393:   OBJECT GLOBAL DEFAULT 18 _ZTCN7android8hardware5me
394:   OBJECT GLOBAL DEFAULT 18 _ZTVN7android8hardware5me
395:   FUNC GLOBAL DEFAULT 14 _ZN7android8hardware5medi
396:   FUNC GLOBAL DEFAULT 14 _ZN7android8hardware5medi
397:   FUNC GLOBAL DEFAULT 14 _ZN7android8hardware5medi
398:   FUNC GLOBAL DEFAULT 14 _ZThn20_N7android8hardwar
399:   FUNC GLOBAL DEFAULT 14 _ZN7android8hardware5medi
400:   FUNC GLOBAL DEFAULT 14 _ZN7android8hardware5medi
401:   FUNC GLOBAL DEFAULT 14 _ZN7android8hardware5medi
402:   FUNC GLOBAL DEFAULT 14 _ZN7android8hardware5medi
403:   FUNC GLOBAL DEFAULT 14 _ZN7android8hardware5medi
404:   FUNC GLOBAL DEFAULT 14 _ZN7android8hardware5medi
405:   FUNC GLOBAL DEFAULT 14 _ZN7android8hardware5medi
406:   FUNC GLOBAL DEFAULT 14 _ZN7android8hardware5medi
407:   FUNC GLOBAL DEFAULT 14 _ZN7android8hardware5medi
408:   FUNC GLOBAL DEFAULT 14 _ZN7android8hardware5medi
409:   OBJECT GLOBAL DEFAULT 18 _ZTTN7android8hardware5me
410:   FUNC GLOBAL DEFAULT 14 _ZN7android8hardware5medi
411:   FUNC GLOBAL DEFAULT 14 _ZN7android8hardware5medi
412:   FUNC GLOBAL DEFAULT 14 _ZN7android8hardware5medi
413:   FUNC GLOBAL DEFAULT 14 _ZN7android8hardware5medi
414:   FUNC GLOBAL DEFAULT 14 _ZN7android8hardware5medi
415:   OBJECT GLOBAL DEFAULT 18 _ZTCN7android8hardware5me
416:   FUNC GLOBAL DEFAULT 14 _ZN7android8hardware5medi
417:   OBJECT WEAK DEFAULT 18 _ZTVN7android8hardware5me
418:   FUNC GLOBAL DEFAULT 14 _ZN7android8hardware5medi
419:   FUNC GLOBAL DEFAULT 14 _ZN7android8hardware5medi
420:   FUNC WEAK DEFAULT 14 _ZN7android8hardware7deta
421:   FUNC GLOBAL DEFAULT 14 _ZN7android8hardware5medi
422:   FUNC GLOBAL DEFAULT 14 _ZN7android8hardware5medi
423:   FUNC GLOBAL DEFAULT 14 _ZN7android8hardware5medi
424:   FUNC GLOBAL DEFAULT 14 _ZN7android8hardware5medi
425:   FUNC GLOBAL DEFAULT 14 _ZN7android8hardware5medi
426:   FUNC GLOBAL DEFAULT 14 _ZThn20_N7android8hardwar
427:   FUNC GLOBAL DEFAULT 14 _ZN7android8hardware5medi
428:   OBJECT GLOBAL DEFAULT 18 _ZTCN7android8hardware5me
429:   OBJECT GLOBAL DEFAULT 18 _ZTCN7android8hardware5me
430:   FUNC GLOBAL DEFAULT 14 _ZN7android8hardware5medi
431:   FUNC WEAK DEFAULT 14 _ZNSt3__16__treeINS_12__v
432:   FUNC GLOBAL DEFAULT 14 _ZN7android8hardware5medi
433:   FUNC GLOBAL DEFAULT 14 _ZN7android8hardware5medi
434:   FUNC GLOBAL DEFAULT 14 _ZN7android8hardware5medi
435:   FUNC GLOBAL DEFAULT 14 _ZN7android8hardware5medi
436:   FUNC GLOBAL DEFAULT 14 _ZN7android8hardware5medi
437:   FUNC GLOBAL DEFAULT 14 _ZN7android8hardware5medi
438:   FUNC GLOBAL DEFAULT 14 _ZN7android8hardware5medi
439:   FUNC GLOBAL DEFAULT 14 _ZN7android8hardware5medi
440:   OBJECT GLOBAL DEFAULT 18 _ZTTN7android8hardware5me
441:   FUNC GLOBAL DEFAULT 14 _ZN7android8hardware5medi
442:   FUNC GLOBAL DEFAULT 14 _ZN7android8hardware5medi
443:   FUNC GLOBAL DEFAULT 14 _ZN7android8hardware5medi
444:   FUNC GLOBAL DEFAULT 14 _ZN7android8hardware5medi
445:   OBJECT GLOBAL DEFAULT 18 _ZTCN7android8hardware5me
446:   FUNC GLOBAL DEFAULT 14 _ZN7android8hardware5medi
447:   FUNC GLOBAL DEFAULT 14 _ZN7android8hardware5medi
448:   FUNC GLOBAL DEFAULT 14 _ZN7android8hardware5medi
449:   FUNC GLOBAL DEFAULT 14 _ZN7android8hardware5medi
450:   OBJECT GLOBAL DEFAULT 18 _ZTCN7android8hardware5me
451:   FUNC GLOBAL DEFAULT 14 _ZN7android8hardware5medi
452:   OBJECT GLOBAL DEFAULT 18 _ZTVN7android8hardware5me
453:   FUNC GLOBAL DEFAULT 14 _ZN7android8hardware5medi
454:   FUNC WEAK DEFAULT 14 _ZNSt3__16__treeINS_12__v
455:   FUNC GLOBAL DEFAULT 14 _ZN7android8hardware5medi
456:   FUNC GLOBAL DEFAULT 14 _ZN7android8hardware5medi
457:   FUNC GLOBAL DEFAULT 14 _ZN7android8hardware5medi
458:   FUNC GLOBAL DEFAULT 14 _ZN7android8hardware5medi
459:   FUNC GLOBAL DEFAULT 14 _ZN7android8hardware5medi
460:   FUNC GLOBAL DEFAULT 14 _ZN7android8hardware5medi
461:   FUNC GLOBAL DEFAULT 14 _ZN7android8hardware5medi
462:   FUNC GLOBAL DEFAULT 14 _ZN7android8hardware5medi
463:   OBJECT GLOBAL DEFAULT 18 _ZTCN7android8hardware5me
464:   FUNC GLOBAL DEFAULT 14 _ZN7android8hardware5medi
465:   FUNC GLOBAL DEFAULT 14 _ZN7android8hardware5medi
466:   FUNC GLOBAL DEFAULT 14 _ZN7android8hardware5medi
467:   FUNC GLOBAL DEFAULT 14 _ZN7android8hardware5medi
468:   FUNC GLOBAL DEFAULT 14 _ZN7android8hardware5medi
469:   OBJECT GLOBAL DEFAULT 18 _ZTCN7android8hardware5me
470:   FUNC GLOBAL DEFAULT 14 _ZN7android8hardware5medi
471:   OBJECT GLOBAL DEFAULT 18 _ZTCN7android8hardware5me
472:   FUNC GLOBAL DEFAULT 14 _ZN7android8hardware5medi
473:   FUNC GLOBAL DEFAULT 14 _ZN7android8hardware5medi
474:   FUNC GLOBAL DEFAULT 14 _ZN7android8hardware5medi
475:   FUNC GLOBAL DEFAULT 14 _ZN7android8hardware5medi
476:   OBJECT GLOBAL DEFAULT 18 _ZTCN7android8hardware5me
477:   OBJECT GLOBAL DEFAULT 18 _ZTTN7android8hardware5me
478:   FUNC GLOBAL DEFAULT 14 _ZN7android8hardware5medi
479:   FUNC GLOBAL DEFAULT 14 _ZN7android8hardware5medi
480:   FUNC GLOBAL DEFAULT 14 _ZN7android8hardware5medi
481:   FUNC GLOBAL DEFAULT 14 _ZN7android8hardware5medi
482:   FUNC WEAK DEFAULT 14 _ZN7android8hardware7deta
483:   OBJECT GLOBAL DEFAULT 18 _ZTCN7android8hardware5me
484:   FUNC GLOBAL DEFAULT 14 _ZN7android8hardware5medi
485:   FUNC GLOBAL DEFAULT 14 _ZTv0_n12_N7android8hardw
486:   FUNC GLOBAL DEFAULT 14 _ZN7android8hardware5medi
487:   OBJECT GLOBAL DEFAULT 18 _ZTCN7android8hardware5me
488:   FUNC GLOBAL DEFAULT 14 _ZN7android8hardware5medi
489:   FUNC WEAK DEFAULT 14 _ZN7android8hardware7deta
490:   FUNC GLOBAL DEFAULT 14 _ZN7android8hardware5medi
491:   FUNC GLOBAL DEFAULT 14 _ZN7android8hardware5medi
492:   FUNC GLOBAL DEFAULT 14 _ZN7android8hardware5medi
493:   FUNC GLOBAL DEFAULT 14 _ZN7android8hardware5medi
494:   OBJECT WEAK DEFAULT 18 _ZTVN7android8hardware5me
495:   FUNC GLOBAL DEFAULT 14 _ZN7android8hardware5medi
496:   FUNC GLOBAL DEFAULT 14 _ZN7android8hardware5medi
497:   FUNC GLOBAL DEFAULT 14 _ZN7android8hardware5medi
498:   OBJECT GLOBAL DEFAULT 16 _ZN7android8hardware5medi
499:   FUNC GLOBAL DEFAULT 14 _ZN7android8hardware5medi
500:   FUNC GLOBAL DEFAULT 14 _ZN7android8hardware5medi
501:   FUNC GLOBAL DEFAULT 14 _ZN7android8hardware5medi
502:   FUNC GLOBAL DEFAULT 14 _ZN7android8hardware5medi
503:   FUNC GLOBAL DEFAULT 14 _ZN7android8hardware5medi
504:   FUNC GLOBAL DEFAULT 14 _ZN7android8hardware5medi
505:   FUNC GLOBAL DEFAULT 14 _ZN7android8hardware5medi
506:   FUNC WEAK DEFAULT 14 _ZN7android8hardware10fro
507:   OBJECT GLOBAL DEFAULT 18 _ZTCN7android8hardware5me
508:   FUNC GLOBAL DEFAULT 14 _ZN7android8hardware5medi
509:   FUNC GLOBAL DEFAULT 14 _ZN7android8hardware5medi
510:   FUNC GLOBAL DEFAULT 14 _ZN7android8hardware5medi
511:   FUNC GLOBAL DEFAULT 14 _ZN7android8hardware5medi
512:   FUNC GLOBAL DEFAULT 14 _ZN7android8hardware5medi
513:   FUNC GLOBAL DEFAULT 14 _ZN7android8hardware5medi
514:   FUNC GLOBAL DEFAULT 14 _ZN7android8hardware5medi
515:   FUNC GLOBAL DEFAULT 14 _ZN7android8hardware5medi
516:   OBJECT GLOBAL DEFAULT 18 _ZTCN7android8hardware5me
517:   FUNC GLOBAL DEFAULT 14 _ZN7android8hardware5medi
518:   FUNC GLOBAL DEFAULT 14 _ZN7android8hardware5medi
519:   FUNC GLOBAL DEFAULT 14 _ZTv0_n12_N7android8hardw
520:   FUNC GLOBAL DEFAULT 14 _ZN7android8hardware5medi
521:   FUNC GLOBAL DEFAULT 14 _ZN7android8hardware5medi
522:   FUNC GLOBAL DEFAULT 14 _ZN7android8hardware5medi
523:   FUNC GLOBAL DEFAULT 14 _ZN7android8hardware5medi
524:   FUNC GLOBAL DEFAULT 14 _ZN7android8hardware5medi
525:   FUNC GLOBAL DEFAULT 14 _ZN7android8hardware5medi
526:   FUNC GLOBAL DEFAULT 14 _ZN7android8hardware5medi
527:   FUNC WEAK DEFAULT 14 _ZNSt3__16vectorIN7androi
528:   OBJECT GLOBAL DEFAULT 18 _ZTVN7android8hardware5me
529:   OBJECT GLOBAL DEFAULT 18 _ZTVN7android8hardware5me
530:   FUNC GLOBAL DEFAULT 14 _ZN7android8hardware5medi
531:   FUNC GLOBAL DEFAULT 14 _ZN7android8hardware5medi
532:   FUNC GLOBAL DEFAULT 14 _ZN7android8hardware5medi
533:   FUNC GLOBAL DEFAULT 14 _ZN7android8hardware5medi
534:   OBJECT GLOBAL DEFAULT 18 _ZTCN7android8hardware5me
535:   FUNC GLOBAL DEFAULT 14 _ZN7android8hardware5medi
536:   FUNC WEAK DEFAULT 14 _ZN7android8hardware7deta
537:   FUNC GLOBAL DEFAULT 14 _ZN7android8hardware5medi
538:   FUNC GLOBAL DEFAULT 14 _ZN7android8hardware5medi
539:   FUNC GLOBAL DEFAULT 14 _ZN7android8hardware5medi
540:   FUNC GLOBAL DEFAULT 14 _ZN7android8hardware5medi
541:   OBJECT GLOBAL DEFAULT 18 _ZTCN7android8hardware5me
542:   FUNC GLOBAL DEFAULT 14 _ZN7android8hardware5medi
543:   FUNC GLOBAL DEFAULT 14 __aeabi_memset
544:   FUNC GLOBAL DEFAULT 14 _ZN7android8hardware5medi
545:   FUNC GLOBAL DEFAULT 14 _ZN7android8hardware5medi
546:   FUNC GLOBAL DEFAULT 14 _ZN7android8hardware5medi
547:   FUNC GLOBAL DEFAULT 14 _ZN7android8hardware5medi
548:   FUNC GLOBAL DEFAULT 14 _ZN7android8hardware5medi
549:   OBJECT WEAK DEFAULT 18 _ZTCN7android8hardware5me
550:   FUNC GLOBAL DEFAULT 14 _ZN7android8hardware5medi
551:   FUNC GLOBAL DEFAULT 14 _ZN7android8hardware5medi
552:   FUNC GLOBAL DEFAULT 14 _ZN7android8hardware5medi
553:   FUNC GLOBAL DEFAULT 14 _ZN7android8hardware5medi
554:   FUNC GLOBAL DEFAULT 14 _ZN7android8hardware5medi
555:   FUNC GLOBAL DEFAULT 14 _ZN7android8hardware5medi
556:   FUNC GLOBAL DEFAULT 14 _ZN7android8hardware5medi
557:   FUNC GLOBAL DEFAULT 14 _ZN7android8hardware5medi
558:   FUNC WEAK DEFAULT 14 _ZN7android8hardware7deta
559:   OBJECT GLOBAL DEFAULT 18 _ZTTN7android8hardware5me
560:   OBJECT GLOBAL DEFAULT 18 _ZTCN7android8hardware5me
561:   OBJECT GLOBAL DEFAULT 18 _ZTVN7android8hardware5me
562:   FUNC GLOBAL DEFAULT 14 _ZN7android8hardware5medi
563:   FUNC GLOBAL DEFAULT 14 _ZN7android8hardware5medi
564:   FUNC GLOBAL DEFAULT 14 _ZN7android8hardware5medi
565:   FUNC GLOBAL DEFAULT 14 _ZN7android8hardware5medi
566:   FUNC GLOBAL DEFAULT 14 _ZN7android8hardware5medi
567:   OBJECT GLOBAL DEFAULT 18 _ZTCN7android8hardware5me
568:   OBJECT GLOBAL DEFAULT 18 _ZTCN7android8hardware5me
569:   FUNC GLOBAL DEFAULT 14 _ZN7android8hardware5medi
570:   FUNC GLOBAL DEFAULT 14 _ZN7android8hardware5medi
571:   FUNC GLOBAL DEFAULT 14 _ZN7android8hardware5medi
572:   FUNC GLOBAL DEFAULT 14 _ZN7android8hardware5medi
573:   FUNC GLOBAL DEFAULT 14 _ZN7android8hardware5medi
574:   FUNC GLOBAL DEFAULT 14 _ZN7android8hardware5medi
575:   OBJECT GLOBAL DEFAULT 18 _ZTVN7android8hardware5me
576:   FUNC WEAK DEFAULT 14 _ZN7android8hardware7deta
577:   FUNC GLOBAL DEFAULT 14 _ZN7android8hardware5medi
578:   FUNC GLOBAL DEFAULT 14 _ZN7android8hardware5medi
579:   OBJECT GLOBAL DEFAULT 18 _ZTCN7android8hardware5me
580:   OBJECT GLOBAL DEFAULT 18 _ZTTN7android8hardware5me
581:   FUNC GLOBAL DEFAULT 14 __aeabi_memset4
582:   OBJECT GLOBAL DEFAULT 18 _ZTCN7android8hardware5me
583:   FUNC GLOBAL DEFAULT 14 _ZN7android8hardware5medi
584:   FUNC GLOBAL DEFAULT 14 _ZN7android8hardware5medi
585:   FUNC GLOBAL DEFAULT 14 _ZN7android8hardware5medi
586:   FUNC GLOBAL DEFAULT 14 _ZN7android8hardware5medi
587:   FUNC WEAK DEFAULT 14 _ZN7android8hardware7deta
588:   FUNC GLOBAL DEFAULT 14 _ZN7android8hardware5medi
589:   FUNC GLOBAL DEFAULT 14 _ZN7android8hardware5medi
590:   FUNC GLOBAL DEFAULT 14 _ZN7android8hardware5medi
591:   FUNC GLOBAL DEFAULT 14 _ZN7android8hardware5medi
592:   OBJECT GLOBAL DEFAULT 18 _ZTVN7android8hardware5me
593:   FUNC GLOBAL DEFAULT 14 _ZN7android8hardware5medi
594:   FUNC GLOBAL DEFAULT 14 _ZN7android8hardware5medi
595:   OBJECT GLOBAL DEFAULT 18 _ZTCN7android8hardware5me
596:   FUNC GLOBAL DEFAULT 14 _ZN7android8hardware5medi
597:   FUNC GLOBAL DEFAULT 14 _ZN7android8hardware5medi
598:   FUNC WEAK DEFAULT 14 _ZN7android8hardware7deta
599:   FUNC GLOBAL DEFAULT 14 __aeabi_memset8
600:   FUNC GLOBAL DEFAULT 14 _ZN7android8hardware5medi
601:   OBJECT GLOBAL DEFAULT 18 _ZTCN7android8hardware5me
602:   OBJECT GLOBAL DEFAULT 18 _ZTCN7android8hardware5me
603:   FUNC GLOBAL DEFAULT 14 _ZN7android8hardware5medi
604:   FUNC GLOBAL DEFAULT 14 _ZN7android8hardware5medi
605:   OBJECT GLOBAL DEFAULT 16 _ZN7android8hardware5medi
606:   FUNC GLOBAL DEFAULT 14 _ZN7android8hardware5medi
607:   OBJECT GLOBAL DEFAULT 18 _ZTCN7android8hardware5me
608:   FUNC GLOBAL DEFAULT 14 _ZN7android8hardware5medi
609:   FUNC GLOBAL DEFAULT 14 _ZN7android8hardware5medi
610:   FUNC GLOBAL DEFAULT 14 _ZN7android8hardware5medi
611:   FUNC GLOBAL DEFAULT 14 _ZN7android8hardware5medi
612:   OBJECT GLOBAL DEFAULT 18 _ZTTN7android8hardware5me
613:   FUNC GLOBAL DEFAULT 14 _ZN7android8hardware5medi
614:   FUNC GLOBAL DEFAULT 14 _ZThn20_N7android8hardwar
615:   FUNC GLOBAL DEFAULT 14 _ZN7android8hardware5medi
616:   FUNC GLOBAL DEFAULT 14 _ZN7android8hardware5medi
617:   OBJECT WEAK DEFAULT 18 _ZTVN7android8hardware5me
618:   FUNC WEAK DEFAULT 14 _ZN7android8hardware10fro
619:   FUNC GLOBAL DEFAULT 14 _ZN7android8hardware5medi
620:   OBJECT GLOBAL DEFAULT 16 _ZN7android8hardware5medi
621:   FUNC GLOBAL DEFAULT 14 _ZN7android8hardware5medi
622:   FUNC GLOBAL DEFAULT 14 _ZN7android8hardware5medi
623:   FUNC GLOBAL DEFAULT 14 _ZN7android8hardware5medi
624:   FUNC WEAK DEFAULT 14 _ZN7android8hardware10fro
625:   FUNC GLOBAL DEFAULT 14 _ZN7android8hardware5medi
626:   FUNC GLOBAL DEFAULT 14 _ZN7android8hardware5medi
627:   FUNC GLOBAL DEFAULT 14 _ZN7android8hardware5medi
628:   FUNC GLOBAL DEFAULT 14 _ZN7android8hardware5medi
629:   FUNC GLOBAL DEFAULT 14 _ZN7android8hardware5medi
630:   FUNC GLOBAL DEFAULT 14 _ZN7android8hardware5medi
631:   FUNC GLOBAL DEFAULT 14 _ZN7android8hardware5medi
632:   FUNC GLOBAL DEFAULT 14 _ZN7android8hardware5medi
633:   FUNC GLOBAL DEFAULT 14 _ZN7android8hardware5medi
634:   FUNC GLOBAL DEFAULT 14 _ZN7android8hardware5medi
635:   FUNC GLOBAL DEFAULT 14 _ZN7android8hardware5medi
636:   FUNC GLOBAL DEFAULT 14 _ZN7android8hardware5medi
637:   OBJECT GLOBAL DEFAULT 18 _ZTCN7android8hardware5me
638:   FUNC GLOBAL DEFAULT 14 _ZN7android8hardware5medi
639:   OBJECT GLOBAL DEFAULT 16 _ZN7android8hardware5medi
640:   FUNC GLOBAL DEFAULT 14 _ZThn20_N7android8hardwar
641:   FUNC GLOBAL DEFAULT 14 _ZN7android8hardware5medi
642:   FUNC GLOBAL DEFAULT 14 _ZN7android8hardware5medi
643:   FUNC GLOBAL DEFAULT 14 _ZN7android8hardware5medi
644:   FUNC GLOBAL DEFAULT 14 _ZN7android8hardware5medi
645:   FUNC GLOBAL DEFAULT 14 _ZN7android8hardware5medi
646:   FUNC GLOBAL DEFAULT 14 __aeabi_memclr4
647:   FUNC GLOBAL DEFAULT 14 _ZN7android8hardware5medi
648:   FUNC WEAK DEFAULT 14 _ZN7android8hardware10fro
649:   FUNC GLOBAL DEFAULT 14 _ZN7android8hardware5medi
650:   OBJECT GLOBAL DEFAULT 18 _ZTTN7android8hardware5me
651:   FUNC WEAK DEFAULT 14 _ZNSt3__16__treeINS_12__v
652:   FUNC GLOBAL DEFAULT 14 _ZTv0_n12_N7android8hardw
653:   FUNC GLOBAL DEFAULT 14 _ZN7android8hardware5medi
654:   FUNC GLOBAL DEFAULT 14 _ZThn20_N7android8hardwar
655:   FUNC GLOBAL DEFAULT 14 _ZN7android8hardware5medi
656:   OBJECT GLOBAL DEFAULT 18 _ZTCN7android8hardware5me
657:   OBJECT GLOBAL DEFAULT 18 _ZTCN7android8hardware5me
658:   FUNC WEAK DEFAULT 14 _ZNSt3__16__treeINS_12__v
659:   FUNC GLOBAL DEFAULT 14 _ZN7android8hardware5medi
660:   FUNC GLOBAL DEFAULT 14 _ZN7android8hardware5medi
661:   FUNC GLOBAL DEFAULT 14 __aeabi_memclr8
662:   FUNC GLOBAL DEFAULT 14 _ZN7android8hardware5medi
663:   FUNC GLOBAL DEFAULT 14 _ZN7android8hardware5medi
664:   FUNC GLOBAL DEFAULT 14 _ZN7android8hardware5medi
665:   FUNC GLOBAL DEFAULT 14 _ZN7android8hardware5medi
666:   FUNC GLOBAL DEFAULT 14 _ZN7android8hardware5medi
667:   FUNC GLOBAL DEFAULT 14 _ZN7android8hardware5medi
668:   FUNC GLOBAL DEFAULT 14 _ZN7android8hardware5medi
669:   OBJECT GLOBAL DEFAULT 18 _ZTCN7android8hardware5me
670:   FUNC WEAK DEFAULT 14 _ZN7android8hardware7deta
671:   FUNC GLOBAL DEFAULT 14 _ZN7android8hardware5medi
672:   FUNC GLOBAL DEFAULT 14 _ZN7android8hardware5medi
673:   FUNC GLOBAL DEFAULT 14 _ZN7android8hardware5medi
674:   FUNC GLOBAL DEFAULT 14 _ZN7android8hardware5medi
675:   FUNC GLOBAL DEFAULT 14 _ZTv0_n12_N7android8hardw
676:   OBJECT GLOBAL DEFAULT 18 _ZTCN7android8hardware5me
677:   FUNC GLOBAL DEFAULT 14 _ZN7android8hardware5medi
678:   FUNC GLOBAL DEFAULT 14 _ZThn20_N7android8hardwar
679:   OBJECT GLOBAL DEFAULT 18 _ZTTN7android8hardware5me
680:   FUNC GLOBAL DEFAULT 14 _ZN7android8hardware5medi
681:   FUNC GLOBAL DEFAULT 14 _ZN7android8hardware5medi
682:   FUNC GLOBAL DEFAULT 14 _ZN7android8hardware5medi
683:   OBJECT GLOBAL DEFAULT 18 _ZTTN7android8hardware5me
684:   FUNC GLOBAL DEFAULT 14 _ZN7android8hardware5medi
685:   FUNC GLOBAL DEFAULT 14 _ZN7android8hardware5medi
686:   FUNC GLOBAL DEFAULT 14 _ZN7android8hardware5medi
687:   OBJECT GLOBAL DEFAULT 18 _ZTTN7android8hardware5me
688:   FUNC GLOBAL DEFAULT 14 _ZN7android8hardware5medi
689:   FUNC GLOBAL DEFAULT 14 _ZN7android8hardware5medi
690:   FUNC GLOBAL DEFAULT 14 _ZN7android8hardware5medi
691:   FUNC GLOBAL DEFAULT 14 _ZN7android8hardware5medi
692:   OBJECT GLOBAL DEFAULT 18 _ZTCN7android8hardware5me
693:   FUNC GLOBAL DEFAULT 14 _ZN7android8hardware5medi
694:   OBJECT GLOBAL DEFAULT 18 _ZTVN7android8hardware5me
695:   FUNC GLOBAL DEFAULT 14 _ZN7android8hardware5medi
696:   FUNC GLOBAL DEFAULT 14 _ZN7android8hardware5medi
697:   FUNC WEAK DEFAULT 14 _ZN7android8hardware7deta
698:   OBJECT GLOBAL DEFAULT 18 _ZTTN7android8hardware5me
699:   FUNC GLOBAL DEFAULT 14 _ZN7android8hardware5medi
700:   FUNC GLOBAL DEFAULT 14 _ZN7android8hardware5medi
701:   FUNC GLOBAL DEFAULT 14 _ZN7android8hardware5medi
702:   FUNC GLOBAL DEFAULT 14 _ZN7android8hardware5medi
703:   FUNC GLOBAL DEFAULT 14 _ZN7android8hardware5medi
704:   FUNC GLOBAL DEFAULT 14 _ZN7android8hardware5medi
705:   FUNC WEAK DEFAULT 14 _ZNSt3__113__tree_removeI
706:   OBJECT GLOBAL DEFAULT 18 _ZTVN7android8hardware5me
707:   FUNC GLOBAL DEFAULT 14 _ZN7android8hardware5medi
708:   FUNC GLOBAL DEFAULT 14 _ZN7android8hardware5medi
709:   FUNC GLOBAL DEFAULT 14 _ZN7android8hardware5medi
710:   FUNC GLOBAL DEFAULT 14 _ZN7android8hardware5medi
711:   FUNC GLOBAL DEFAULT 14 _ZN7android8hardware5medi
712:   FUNC GLOBAL DEFAULT 14 _ZN7android8hardware5medi
713:   FUNC GLOBAL DEFAULT 14 _ZN7android8hardware5medi
714:   FUNC GLOBAL DEFAULT 14 _ZN7android8hardware5medi
715:   FUNC GLOBAL DEFAULT 14 _ZTv0_n12_N7android8hardw
716:   FUNC GLOBAL DEFAULT 14 _ZThn20_N7android8hardwar
717:   FUNC GLOBAL DEFAULT 14 _ZN7android8hardware5medi
718:   FUNC GLOBAL DEFAULT 14 _ZN7android8hardware5medi
719:   FUNC GLOBAL DEFAULT 14 _ZN7android8hardware5medi
720:   OBJECT WEAK DEFAULT 18 _ZTVN7android8hardware5me
721:   FUNC GLOBAL DEFAULT 14 _ZN7android8hardware5medi
722:   OBJECT GLOBAL DEFAULT 18 _ZTCN7android8hardware5me
723:   OBJECT GLOBAL DEFAULT 18 _ZTCN7android8hardware5me
724:   FUNC GLOBAL DEFAULT 14 _ZN7android8hardware5medi
725:   OBJECT GLOBAL DEFAULT 18 _ZTCN7android8hardware5me
726:   FUNC GLOBAL DEFAULT 14 _ZN7android8hardware5medi
727:   FUNC GLOBAL DEFAULT 14 _ZN7android8hardware5medi
728:   FUNC WEAK DEFAULT 14 _ZN7android8hardware7deta
729:   FUNC GLOBAL DEFAULT 14 _ZN7android8hardware5medi
730:   FUNC GLOBAL DEFAULT 14 _ZN7android8hardware5medi
