 0x000000000000000e (SONAME)             Library soname: [libaudiohal@2.0.so]
  
Symbol   contains 500 entries:
Num:   Type Bind Vis Ndx Name
0:   NOTYPE LOCAL DEFAULT UND
1:   FUNC GLOBAL DEFAULT UND __cxa_finalize@LIBC (2)
2:   FUNC GLOBAL DEFAULT UND __android_log_print@LIBLOG (3)
3:   FUNC GLOBAL DEFAULT UND strerror@LIBC (2)
4:   FUNC GLOBAL DEFAULT UND _ZdlPv
5:   FUNC GLOBAL DEFAULT UND __cfi_slowpath@LIBC_OMR1 (4)
6:   FUNC GLOBAL DEFAULT UND _ZN7android7String85setTo
7:   FUNC GLOBAL DEFAULT UND free@LIBC (2)
8:   FUNC GLOBAL DEFAULT UND _ZN7android7String85clear
9:   FUNC GLOBAL DEFAULT UND _Znwm
10:   FUNC GLOBAL DEFAULT UND _ZN7android7RefBase10onFi
11:   FUNC GLOBAL DEFAULT UND _ZN7android7RefBase15onLa
12:   FUNC GLOBAL DEFAULT UND _ZN7android7RefBase20onIn
13:   FUNC GLOBAL DEFAULT UND _ZN7android7RefBase13onLa
14:   FUNC GLOBAL DEFAULT UND _ZN7android7RefBaseC2Ev
15:   FUNC GLOBAL DEFAULT UND _ZN7android7RefBaseD2Ev
16:   FUNC GLOBAL DEFAULT UND _ZNK7android7RefBase9incS
17:   FUNC GLOBAL DEFAULT UND _ZNK7android7RefBase9decS
18:   FUNC GLOBAL DEFAULT UND _ZN7android14sp_report_ra
19:   FUNC GLOBAL DEFAULT UND strcmp@LIBC (2)
20:   FUNC GLOBAL DEFAULT UND hw_get_module_by_class
21:   FUNC GLOBAL DEFAULT UND __android_log_assert@LIBLOG (3)
22:   FUNC GLOBAL DEFAULT UND _ZN7android14AudioParamet
23:   FUNC GLOBAL DEFAULT UND _ZN7android7String8C1EPKc
24:   FUNC GLOBAL DEFAULT UND _ZN7android7String8D1Ev
25:   FUNC GLOBAL DEFAULT UND _ZN7android14AudioParamet
26:   FUNC GLOBAL DEFAULT UND __cxa_pure_virtual
27:   FUNC GLOBAL DEFAULT UND property_get
28:   FUNC GLOBAL DEFAULT UND power_log_create
29:   FUNC GLOBAL DEFAULT UND power_log_destroy
30:   FUNC GLOBAL DEFAULT UND power_log_dump
31:   FUNC GLOBAL DEFAULT UND _ZN7android7String8C1Ev
32:   FUNC GLOBAL DEFAULT UND _ZN7android16SortedVector
33:   FUNC GLOBAL DEFAULT UND _ZN7android10VectorImpl13
34:   FUNC GLOBAL DEFAULT UND _ZN7android16SortedVector
35:   FUNC GLOBAL DEFAULT UND _ZN7android7String8C1ERKS
36:   FUNC GLOBAL DEFAULT UND _ZNK7android14AudioParame
37:   FUNC GLOBAL DEFAULT UND power_log_log
38:   FUNC GLOBAL DEFAULT UND clock_gettime@LIBC (2)
39:   FUNC GLOBAL DEFAULT UND _ZN7android7RefBase12weak
40:   FUNC GLOBAL DEFAULT UND _ZN7android7RefBase12weak
41:   FUNC GLOBAL DEFAULT UND _ZNK7android7RefBase10cre
42:   FUNC GLOBAL DEFAULT UND _ZN7android7RefBase12weak
43:   FUNC GLOBAL DEFAULT UND memcmp@LIBC (2)
44:   OBJECT GLOBAL DEFAULT UND _ZN7android14AudioParamet
45:   OBJECT GLOBAL DEFAULT UND _ZN7android14AudioParamet
46:   OBJECT GLOBAL DEFAULT UND _ZTVN7android14AudioParam
47:   FUNC GLOBAL DEFAULT UND _ZN7android14AudioParamet
48:   FUNC GLOBAL DEFAULT UND _ZNK7android14AudioParame
49:   FUNC GLOBAL DEFAULT UND _ZNK7android14AudioParame
50:   FUNC GLOBAL DEFAULT UND _ZNK7android14AudioParame
51:   FUNC GLOBAL DEFAULT UND _ZN7android14AudioParamet
52:   FUNC GLOBAL DEFAULT UND _ZN7android8hardware11hid
53:   FUNC GLOBAL DEFAULT UND _ZNK7android8hardware11hi
54:   FUNC GLOBAL DEFAULT UND _ZN7android7String85setTo
55:   FUNC GLOBAL DEFAULT UND _ZN7android8hardware7deta
56:   FUNC GLOBAL DEFAULT UND _Znam
57:   FUNC GLOBAL DEFAULT UND _ZN7android8hardware11hid
58:   FUNC GLOBAL DEFAULT UND _ZN7android8hardware11hid
59:   FUNC GLOBAL DEFAULT UND _ZN7android8hardware11hid
60:   FUNC GLOBAL DEFAULT UND _ZdaPv
61:   OBJECT GLOBAL DEFAULT UND _ZN7android14AudioParamet
62:   OBJECT GLOBAL DEFAULT UND _ZN7android14AudioParamet
63:   OBJECT GLOBAL DEFAULT UND _ZN7android14AudioParamet
64:   FUNC GLOBAL DEFAULT UND _ZN7android8hardware5audi
65:   FUNC GLOBAL DEFAULT UND _ZN7android8hardware14IPC
66:   FUNC GLOBAL DEFAULT UND _ZN7android8hardware14IPC
67:   FUNC GLOBAL DEFAULT UND _ZN7android8hardware7deta
68:   FUNC GLOBAL DEFAULT UND _ZN7android8hardware5audi
69:   FUNC GLOBAL DEFAULT UND _ZN7android8hardware5audi
70:   FUNC GLOBAL DEFAULT UND _ZN7android8hardware5audi
71:   FUNC GLOBAL DEFAULT UND _ZN7android8hardware5audi
72:   FUNC GLOBAL DEFAULT UND native_handle_create
73:   FUNC GLOBAL DEFAULT UND _ZN7android8hardware11hid
74:   FUNC GLOBAL DEFAULT UND _ZN7android8hardware11hid
75:   FUNC GLOBAL DEFAULT UND native_handle_delete
76:   FUNC GLOBAL DEFAULT UND _ZNK7android8hardware6Sta
77:   FUNC GLOBAL DEFAULT UND _ZNK7android8hardware7det
78:   FUNC GLOBAL DEFAULT UND strnlen@LIBC (2)
79:   FUNC GLOBAL DEFAULT UND sscanf@LIBC (2)
80:   FUNC GLOBAL DEFAULT UND _ZN7android8hardware5audi
81:   FUNC GLOBAL DEFAULT UND _ZN7android8hardware5audi
82:   FUNC GLOBAL DEFAULT UND _ZN7android8hardware5audi
83:   FUNC GLOBAL DEFAULT UND exit@LIBC (2)
84:   FUNC GLOBAL DEFAULT UND _ZN7android15HalDeathHand
85:   FUNC GLOBAL DEFAULT UND abort@LIBC (2)
86:   FUNC GLOBAL DEFAULT UND _ZNKSt3__120__vector_base
87:   FUNC GLOBAL DEFAULT UND _ZN7android8hardware9mapM
88:   FUNC GLOBAL DEFAULT UND _ZN7android8hardware11hid
89:   FUNC GLOBAL DEFAULT UND _ZN7android4hidl9allocato
90:   FUNC GLOBAL DEFAULT UND _ZNKSt3__121__basic_strin
91:   FUNC GLOBAL DEFAULT UND strlen@LIBC (2)
92:   FUNC GLOBAL DEFAULT UND _ZN7android8hardware11hid
93:   FUNC GLOBAL DEFAULT UND _ZN7android8hardware9Even
94:   FUNC GLOBAL DEFAULT UND _ZN7android8hardware5audi
95:   FUNC GLOBAL DEFAULT UND _ZN7android8hardware9Even
96:   FUNC GLOBAL DEFAULT UND _ZN7android8hardware9Even
97:   FUNC GLOBAL DEFAULT UND _ZN7android8hardware7deta
98:   FUNC GLOBAL DEFAULT UND munmap@LIBC (2)
99:   FUNC GLOBAL DEFAULT UND native_handle_close
100:   FUNC GLOBAL DEFAULT UND _ZN7android8hardware9Even
101:   FUNC GLOBAL DEFAULT UND _ZnwmRKSt9nothrow_t
102:   FUNC GLOBAL DEFAULT UND dup@LIBC (2)
103:   FUNC GLOBAL DEFAULT UND _ZN7android8hardware7deta
104:   FUNC GLOBAL DEFAULT UND mmap@LIBC (2)
105:   OBJECT GLOBAL DEFAULT UND _ZSt7nothrow
106:   FUNC GLOBAL DEFAULT UND _ZN7android8hardware5audi
107:   FUNC GLOBAL DEFAULT UND _ZN7android8hardware5audi
108:   FUNC GLOBAL DEFAULT UND _ZN7android15requestPrior
109:   FUNC GLOBAL DEFAULT UND gettid@LIBC (2)
110:   FUNC GLOBAL DEFAULT UND _ZNSt3__19to_stringEi
111:   FUNC GLOBAL DEFAULT UND _ZN7android8hardware11hid
112:   FUNC GLOBAL DEFAULT UND _ZN7android8hardware5audi
113:   FUNC GLOBAL DEFAULT UND _ZN7android8hardware5audi
114:   FUNC GLOBAL DEFAULT UND _ZN7android8hardware5audi
115:   FUNC GLOBAL DEFAULT UND _ZN7android8hardware5audi
116:   FUNC GLOBAL DEFAULT UND _ZN7android8hardware5audi
117:   FUNC GLOBAL DEFAULT UND _ZN7android8hardware5audi
118:   FUNC GLOBAL DEFAULT UND _ZN7android8hardware5audi
119:   FUNC GLOBAL DEFAULT UND _ZN7android8hardware5audi
120:   FUNC GLOBAL DEFAULT UND _ZN7android8hardware5audi
121:   FUNC GLOBAL DEFAULT UND _ZN7android8hardware5audi
122:   FUNC GLOBAL DEFAULT UND _ZNK7android8hardware11hi
123:   FUNC GLOBAL DEFAULT UND _ZN7android8hardware11hid
124:   FUNC GLOBAL DEFAULT UND memset@LIBC (2)
125:   FUNC GLOBAL DEFAULT UND memcpy@LIBC (2)
126:   FUNC GLOBAL DEFAULT UND memmove@LIBC (2)
127:   FUNC GLOBAL DEFAULT UND __stack_chk_fail@LIBC (2)
128:   OBJECT GLOBAL DEFAULT 18 _ZTCN7android4V2_017Strea
129:   FUNC GLOBAL DEFAULT 14 _ZN7android4V2_014DeviceH
130:   FUNC GLOBAL DEFAULT 14 _ZN7android4V2_013StreamH
131:   FUNC GLOBAL DEFAULT 14 _ZN7android4V2_014DeviceH
132:   FUNC GLOBAL DEFAULT 14 _ZN7android4V2_016StreamI
133:   FUNC GLOBAL DEFAULT 14 _ZN7android4V2_013DeviceH
134:   FUNC GLOBAL DEFAULT 14 _ZN7android4V2_016StreamO
135:   FUNC GLOBAL DEFAULT 14 _ZTv0_n40_N7android4V2_01
136:   FUNC GLOBAL DEFAULT 14 _ZN7android4V2_013DeviceH
137:   FUNC GLOBAL DEFAULT 14 _ZN7android4V2_016StreamO
138:   FUNC GLOBAL DEFAULT 14 _ZN7android4V2_016StreamO
139:   FUNC GLOBAL DEFAULT 14 _ZN7android4V2_014DeviceH
140:   FUNC GLOBAL DEFAULT 14 _ZN7android4V2_023Devices
141:   FUNC GLOBAL DEFAULT 14 _ZN7android4V2_014StreamH
142:   FUNC GLOBAL DEFAULT 14 _ZN7android4V2_017StreamO
143:   FUNC GLOBAL DEFAULT 14 _ZN7android4V2_016StreamI
144:   FUNC GLOBAL DEFAULT 14 _ZN7android6effect4V2_013
145:   FUNC GLOBAL DEFAULT 14 _ZN7android6effect4V2_013
146:   FUNC GLOBAL DEFAULT 14 _ZTv0_n104_N7android4V2_0
147:   FUNC WEAK DEFAULT 14 _ZNK7android12SortedVecto
148:   FUNC GLOBAL DEFAULT 14 _ZN7android4V2_013DeviceH
149:   FUNC GLOBAL DEFAULT 14 _ZN7android4V2_021Devices
150:   FUNC GLOBAL DEFAULT 14 _ZN7android4V2_017StreamO
151:   FUNC GLOBAL DEFAULT 14 _ZN7android4V2_017StreamO
152:   FUNC WEAK DEFAULT 14 _ZNK7android12SortedVecto
153:   FUNC GLOBAL DEFAULT 14 _ZN7android6effect4V2_021
154:   FUNC GLOBAL DEFAULT 14 _ZN7android4V2_013StreamH
155:   FUNC GLOBAL DEFAULT 14 _ZN7android4V2_014DeviceH
156:   FUNC GLOBAL DEFAULT 14 _ZN7android4V2_013DeviceH
157:   OBJECT GLOBAL DEFAULT 18 _ZTCN7android4V2_016Strea
158:   FUNC GLOBAL DEFAULT 14 _ZN7android4V2_014DeviceH
159:   FUNC GLOBAL DEFAULT 14 _ZN7android4V2_014StreamH
160:   FUNC GLOBAL DEFAULT 14 _ZN7android6effect4V2_019
161:   FUNC GLOBAL DEFAULT 14 _ZN7android6effect4V2_023
162:   FUNC GLOBAL DEFAULT 14 _ZN7android4V2_014DeviceH
163:   FUNC GLOBAL DEFAULT 14 _ZN7android4V2_023Devices
164:   OBJECT GLOBAL DEFAULT 18 _ZTCN7android4V2_016Strea
165:   OBJECT GLOBAL DEFAULT 18 _ZTCN7android4V2_016Strea
166:   FUNC GLOBAL DEFAULT 14 _ZN7android6effect4V2_019
167:   OBJECT GLOBAL DEFAULT 18 _ZTCN7android4V2_016Strea
168:   FUNC GLOBAL DEFAULT 14 _ZN7android4V2_013DeviceH
169:   FUNC GLOBAL DEFAULT 14 _ZN7android6effect4V2_019
170:   FUNC GLOBAL DEFAULT 14 _ZN7android4V2_014DeviceH
171:   FUNC GLOBAL DEFAULT 14 _ZN7android4V2_013DeviceH
172:   FUNC GLOBAL DEFAULT 14 _ZThn8_N7android4V2_015St
173:   FUNC GLOBAL DEFAULT 14 _ZThn8_N7android4V2_017St
174:   FUNC GLOBAL DEFAULT 14 _ZNK7android6effect4V2_01
175:   OBJECT GLOBAL DEFAULT 18 _ZTVN7android6effect4V2_0
176:   FUNC GLOBAL DEFAULT 14 _ZTv0_n88_N7android4V2_01
177:   FUNC GLOBAL DEFAULT 14 _ZN7android4V2_017StreamO
178:   FUNC GLOBAL DEFAULT 14 _ZN7android6effect4V2_021
179:   FUNC GLOBAL DEFAULT 14 _ZN7android4V2_020Convers
180:   FUNC GLOBAL DEFAULT 14 _ZN7android4V2_015StreamI
181:   FUNC GLOBAL DEFAULT 14 _ZTv0_n48_N7android4V2_01
182:   OBJECT GLOBAL DEFAULT 18 _ZTCN7android4V2_013Strea
183:   FUNC GLOBAL DEFAULT 14 _ZTv0_n24_N7android4V2_01
184:   FUNC GLOBAL DEFAULT 14 _ZTv0_n88_N7android4V2_01
185:   FUNC GLOBAL DEFAULT 14 _ZN7android4V2_014DeviceH
186:   OBJECT GLOBAL DEFAULT 18 _ZTVN7android4V2_016Strea
187:   FUNC GLOBAL DEFAULT 14 _ZN7android6effect4V2_019
188:   FUNC GLOBAL DEFAULT 14 _ZN7android6effect4V2_019
189:   FUNC GLOBAL DEFAULT 14 _ZTv0_n24_N7android4V2_01
190:   FUNC GLOBAL DEFAULT 14 _ZN7android4V2_016StreamO
191:   FUNC GLOBAL DEFAULT 14 _ZN7android4V2_015StreamI
192:   FUNC GLOBAL DEFAULT 14 _ZN7android4V2_014DeviceH
193:   FUNC GLOBAL DEFAULT 14 _ZN7android4V2_017StreamO
194:   OBJECT GLOBAL DEFAULT 18 _ZTCN7android4V2_014Strea
195:   FUNC GLOBAL DEFAULT 14 _ZN7android4V2_016StreamO
196:   FUNC GLOBAL DEFAULT 14 _ZN7android6effect4V2_013
197:   FUNC GLOBAL DEFAULT 14 _ZN7android4V2_016StreamI
198:   FUNC GLOBAL DEFAULT 14 _ZN7android4V2_017StreamO
199:   FUNC GLOBAL DEFAULT 14 _ZN7android4V2_013StreamH
200:   FUNC GLOBAL DEFAULT 14 _ZN7android4V2_016StreamO
201:   FUNC GLOBAL DEFAULT 14 _ZN7android4V2_016StreamO
202:   FUNC GLOBAL DEFAULT 14 _ZN7android4V2_016StreamO
203:   FUNC GLOBAL DEFAULT 14 _ZN7android4V2_014DeviceH
204:   FUNC GLOBAL DEFAULT 14 _ZTv0_n24_N7android4V2_01
205:   FUNC GLOBAL DEFAULT 14 _ZTv0_n32_N7android4V2_01
206:   OBJECT GLOBAL DEFAULT 18 _ZTCN7android4V2_015Strea
207:   FUNC GLOBAL DEFAULT 14 _ZN7android4V2_014DeviceH
208:   FUNC GLOBAL DEFAULT 14 _ZN7android4V2_014DeviceH
209:   FUNC GLOBAL DEFAULT 14 _ZN7android4V2_016StreamI
210:   FUNC GLOBAL DEFAULT 14 _ZN7android4V2_016StreamI
211:   FUNC GLOBAL DEFAULT 14 _ZN7android4V2_013DeviceH
212:   FUNC GLOBAL DEFAULT 14 _ZN7android4V2_014DeviceH
213:   FUNC GLOBAL DEFAULT 14 _ZTv0_n104_N7android4V2_0
214:   FUNC GLOBAL DEFAULT 14 _ZTv0_n168_N7android4V2_0
215:   FUNC GLOBAL DEFAULT 14 _ZTv0_n64_N7android4V2_01
216:   FUNC GLOBAL DEFAULT 14 _ZN7android4V2_015StreamI
217:   FUNC GLOBAL DEFAULT 14 _ZTv0_n88_N7android4V2_01
218:   FUNC GLOBAL DEFAULT 14 _ZN7android4V2_013DeviceH
219:   FUNC GLOBAL DEFAULT 14 _ZN7android4V2_013StreamH
220:   FUNC GLOBAL DEFAULT 14 _ZTv0_n168_N7android4V2_0
221:   FUNC GLOBAL DEFAULT 14 _ZN7android4V2_017StreamO
222:   FUNC WEAK DEFAULT 14 _ZNK7android12SortedVecto
223:   FUNC GLOBAL DEFAULT 14 _ZN7android6effect4V2_013
224:   FUNC GLOBAL DEFAULT 14 _ZN7android4V2_013StreamH
225:   FUNC GLOBAL DEFAULT 14 _ZN7android4V2_016StreamO
226:   FUNC GLOBAL DEFAULT 14 _ZN7android4V2_015StreamI
227:   FUNC GLOBAL DEFAULT 14 _ZN7android4V2_017StreamO
228:   FUNC GLOBAL DEFAULT 14 _ZN7android6effect4V2_019
229:   FUNC GLOBAL DEFAULT 14 _ZN7android6effect4V2_013
230:   OBJECT GLOBAL DEFAULT 18 _ZTCN7android4V2_015Strea
231:   FUNC GLOBAL DEFAULT 14 _ZN7android4V2_014StreamH
232:   OBJECT GLOBAL DEFAULT 18 _ZTCN7android4V2_017Strea
233:   OBJECT GLOBAL DEFAULT 18 _ZTVN7android6effect4V2_0
234:   FUNC GLOBAL DEFAULT 14 _ZTv0_n112_N7android4V2_0
235:   FUNC GLOBAL DEFAULT 14 _ZN7android4V2_016StreamO
236:   FUNC GLOBAL DEFAULT 14 _ZN7android4V2_015StreamI
237:   FUNC GLOBAL DEFAULT 14 _ZN7android4V2_014DeviceH
238:   FUNC GLOBAL DEFAULT 14 _ZN7android4V2_013DeviceH
239:   FUNC GLOBAL DEFAULT 14 _ZN7android4V2_013StreamH
240:   FUNC GLOBAL DEFAULT 14 _ZN7android4V2_017StreamO
241:   FUNC GLOBAL DEFAULT 14 _ZN7android4V2_013DeviceH
242:   FUNC GLOBAL DEFAULT 14 _ZN7android4V2_013StreamH
243:   FUNC GLOBAL DEFAULT 14 _ZN7android4V2_022Devices
244:   FUNC GLOBAL DEFAULT 14 _ZN7android4V2_014StreamH
245:   FUNC GLOBAL DEFAULT 14 _ZN7android4V2_016StreamI
246:   FUNC WEAK DEFAULT 14 _ZNK7android12SortedVecto
247:   FUNC GLOBAL DEFAULT 14 _ZN7android4V2_013DeviceH
248:   FUNC GLOBAL DEFAULT 14 _ZN7android6effect4V2_019
249:   FUNC GLOBAL DEFAULT 14 _ZN7android4V2_013StreamH
250:   FUNC GLOBAL DEFAULT 14 _ZN7android4V2_016StreamO
251:   FUNC GLOBAL DEFAULT 14 _ZN7android4V2_014StreamH
252:   FUNC GLOBAL DEFAULT 14 _ZN7android4V2_014StreamH
253:   FUNC GLOBAL DEFAULT 14 _ZTv0_n80_N7android4V2_01
254:   FUNC GLOBAL DEFAULT 14 _ZTv0_n168_N7android4V2_0
255:   FUNC GLOBAL DEFAULT 14 _ZN7android4V2_021Devices
256:   FUNC GLOBAL DEFAULT 14 _ZTv0_n168_N7android4V2_0
257:   FUNC GLOBAL DEFAULT 14 _ZThn8_N7android4V2_016St
258:   FUNC GLOBAL DEFAULT 14 _ZN7android4V2_013DeviceH
259:   FUNC GLOBAL DEFAULT 14 _ZN7android4V2_013DeviceH
260:   FUNC GLOBAL DEFAULT 14 _ZTv0_n128_N7android4V2_0
261:   FUNC GLOBAL DEFAULT 14 _ZN7android4V2_013DeviceH
262:   FUNC GLOBAL DEFAULT 14 _ZTv0_n40_N7android4V2_01
263:   FUNC GLOBAL DEFAULT 14 _ZN7android4V2_021Devices
264:   FUNC GLOBAL DEFAULT 14 _ZThn8_N7android4V2_016St
265:   FUNC GLOBAL DEFAULT 14 _ZN7android4V2_016StreamO
266:   FUNC GLOBAL DEFAULT 14 _ZTv0_n32_N7android4V2_01
267:   FUNC GLOBAL DEFAULT 14 _ZThn8_N7android4V2_016St
268:   FUNC GLOBAL DEFAULT 14 _ZN7android4V2_013DeviceH
269:   OBJECT GLOBAL DEFAULT 18 _ZTVN7android4V2_013Devic
270:   FUNC GLOBAL DEFAULT 14 _ZN7android4V2_013StreamH
271:   FUNC GLOBAL DEFAULT 14 _ZN7android4V2_017StreamO
272:   FUNC GLOBAL DEFAULT 14 _ZN7android4V2_013DeviceH
273:   FUNC GLOBAL DEFAULT 14 _ZN7android4V2_016StreamO
274:   OBJECT GLOBAL DEFAULT 18 _ZTTN7android4V2_016Strea
275:   FUNC GLOBAL DEFAULT 14 _ZTv0_n120_N7android4V2_0
276:   FUNC GLOBAL DEFAULT 14 _ZN7android4V2_016StreamI
277:   FUNC GLOBAL DEFAULT 14 _ZN7android4V2_016StreamI
278:   FUNC GLOBAL DEFAULT 14 _ZN7android4V2_015StreamI
279:   FUNC GLOBAL DEFAULT 14 _ZTv0_n24_N7android4V2_01
280:   FUNC GLOBAL DEFAULT 14 _ZN7android4V2_017StreamO
281:   FUNC GLOBAL DEFAULT 14 _ZThn8_N7android4V2_016St
282:   FUNC GLOBAL DEFAULT 14 _ZThn8_N7android4V2_016St
283:   OBJECT GLOBAL DEFAULT 18 _ZTVN7android4V2_015Strea
284:   FUNC GLOBAL DEFAULT 14 _ZN7android6effect4V2_019
285:   FUNC GLOBAL DEFAULT 14 _ZN7android4V2_014DeviceH
286:   FUNC GLOBAL DEFAULT 14 _ZN7android4V2_013DeviceH
287:   OBJECT GLOBAL DEFAULT 18 _ZTVN7android4V2_013Strea
288:   OBJECT GLOBAL DEFAULT 18 _ZTTN7android4V2_014Strea
289:   FUNC GLOBAL DEFAULT 14 _ZN7android6effect4V2_013
290:   FUNC GLOBAL DEFAULT 14 _ZN7android4V2_023createD
291:   FUNC GLOBAL DEFAULT 14 _ZN7android4V2_016StreamI
292:   FUNC GLOBAL DEFAULT 14 _ZN7android4V2_016StreamI
293:   OBJECT GLOBAL DEFAULT 18 _ZTCN7android4V2_017Strea
294:   FUNC GLOBAL DEFAULT 14 _ZN7android6effect4V2_019
295:   FUNC GLOBAL DEFAULT 14 _ZN7android4V2_016StreamO
296:   FUNC GLOBAL DEFAULT 14 _ZN7android4V2_020Convers
297:   FUNC GLOBAL DEFAULT 14 _ZN7android4V2_013StreamH
298:   FUNC GLOBAL DEFAULT 14 _ZN7android4V2_016StreamO
299:   FUNC GLOBAL DEFAULT 14 _ZTv0_n24_N7android4V2_01
300:   FUNC GLOBAL DEFAULT 14 _ZN7android4V2_014DeviceH
301:   FUNC GLOBAL DEFAULT 14 _ZN7android4V2_014DeviceH
302:   FUNC GLOBAL DEFAULT 14 _ZN7android6effect4V2_019
303:   FUNC GLOBAL DEFAULT 14 _ZN7android4V2_017StreamO
304:   FUNC GLOBAL DEFAULT 14 _ZN7android4V2_016StreamI
305:   FUNC GLOBAL DEFAULT 14 _ZN7android4V2_016StreamO
306:   FUNC GLOBAL DEFAULT 14 _ZN7android4V2_015StreamI
307:   FUNC GLOBAL DEFAULT 14 _ZTv0_n72_N7android4V2_01
308:   FUNC GLOBAL DEFAULT 14 _ZThn8_N7android4V2_017St
309:   OBJECT GLOBAL DEFAULT 18 _ZTVN7android4V2_017Strea
310:   FUNC GLOBAL DEFAULT 14 _ZN7android4V2_020Convers
311:   FUNC GLOBAL DEFAULT 14 _ZN7android6effect4V2_013
312:   FUNC GLOBAL DEFAULT 14 _ZN7android6effect4V2_013
313:   FUNC GLOBAL DEFAULT 14 _ZTv0_n72_N7android4V2_01
314:   FUNC GLOBAL DEFAULT 14 _ZN7android4V2_013StreamH
315:   FUNC GLOBAL DEFAULT 14 _ZTv0_n88_N7android4V2_01
316:   FUNC GLOBAL DEFAULT 14 _ZN7android4V2_020Convers
317:   FUNC GLOBAL DEFAULT 14 _ZN7android6effect4V2_013
318:   FUNC GLOBAL DEFAULT 14 _ZN7android6effect4V2_013
319:   FUNC GLOBAL DEFAULT 14 _ZN7android4V2_017StreamO
320:   FUNC GLOBAL DEFAULT 14 _ZN7android4V2_016StreamI
321:   FUNC GLOBAL DEFAULT 14 _ZN7android6effect4V2_013
322:   FUNC GLOBAL DEFAULT 14 _ZN7android4V2_013StreamH
323:   FUNC GLOBAL DEFAULT 14 _ZN7android4V2_014DeviceH
324:   FUNC GLOBAL DEFAULT 14 _ZTv0_n168_N7android4V2_0
325:   FUNC GLOBAL DEFAULT 14 _ZN7android4V2_017StreamO
326:   FUNC GLOBAL DEFAULT 14 _ZN7android6effect4V2_013
327:   FUNC GLOBAL DEFAULT 14 _ZN7android6effect4V2_021
328:   FUNC GLOBAL DEFAULT 14 _ZTv0_n64_N7android4V2_01
329:   FUNC GLOBAL DEFAULT 14 _ZN7android4V2_014StreamH
330:   FUNC GLOBAL DEFAULT 14 _ZN7android4V2_017StreamO
331:   FUNC GLOBAL DEFAULT 14 _ZN7android4V2_017StreamO
332:   FUNC GLOBAL DEFAULT 14 _ZN7android4V2_017StreamO
333:   FUNC GLOBAL DEFAULT 14 _ZTv0_n136_N7android4V2_0
334:   FUNC GLOBAL DEFAULT 14 _ZTv0_n56_N7android4V2_01
335:   FUNC GLOBAL DEFAULT 14 _ZTv0_n168_N7android4V2_0
336:   FUNC GLOBAL DEFAULT 14 _ZTv0_n24_N7android4V2_01
337:   FUNC GLOBAL DEFAULT 14 _ZN7android4V2_013StreamH
338:   FUNC GLOBAL DEFAULT 14 _ZN7android4V2_016StreamO
339:   FUNC GLOBAL DEFAULT 14 _ZN7android4V2_015StreamI
340:   FUNC GLOBAL DEFAULT 14 _ZTv0_n168_N7android4V2_0
341:   FUNC GLOBAL DEFAULT 14 _ZN7android4V2_016StreamI
342:   FUNC GLOBAL DEFAULT 14 _ZN7android6effect4V2_019
343:   FUNC GLOBAL DEFAULT 14 _ZN7android6effect4V2_019
344:   FUNC GLOBAL DEFAULT 14 _ZN7android4V2_013StreamH
345:   OBJECT GLOBAL DEFAULT 18 _ZTCN7android4V2_015Strea
346:   FUNC GLOBAL DEFAULT 14 _ZN7android6effect4V2_013
347:   FUNC GLOBAL DEFAULT 14 _ZN7android4V2_013DeviceH
348:   FUNC GLOBAL DEFAULT 14 _ZN7android6effect4V2_021
349:   FUNC GLOBAL DEFAULT 14 _ZTv0_n120_N7android4V2_0
350:   FUNC GLOBAL DEFAULT 14 _ZTv0_n24_N7android4V2_01
351:   FUNC GLOBAL DEFAULT 14 _ZTv0_n160_N7android4V2_0
352:   FUNC GLOBAL DEFAULT 14 _ZN7android4V2_016StreamI
353:   FUNC GLOBAL DEFAULT 14 _ZN7android4V2_013DeviceH
354:   FUNC GLOBAL DEFAULT 14 _ZN7android6effect4V2_013
355:   FUNC GLOBAL DEFAULT 14 _ZN7android6effect4V2_013
356:   FUNC GLOBAL DEFAULT 14 _ZTv0_n96_N7android4V2_01
357:   OBJECT WEAK DEFAULT 18 _ZTVN7android12SortedVect
358:   OBJECT GLOBAL DEFAULT 18 _ZTVN7android4V2_021Devic
359:   FUNC GLOBAL DEFAULT 14 _ZN7android4V2_016StreamO
360:   FUNC GLOBAL DEFAULT 14 _ZN7android4V2_014DeviceH
361:   FUNC GLOBAL DEFAULT 14 _ZN7android4V2_014StreamH
362:   FUNC GLOBAL DEFAULT 14 _ZTv0_n168_N7android4V2_0
363:   FUNC GLOBAL DEFAULT 14 _ZN7android4V2_015StreamI
364:   FUNC GLOBAL DEFAULT 14 _ZN7android4V2_014DeviceH
365:   FUNC GLOBAL DEFAULT 14 _ZTv0_n168_N7android4V2_0
366:   OBJECT GLOBAL DEFAULT 18 _ZTCN7android4V2_016Strea
367:   FUNC GLOBAL DEFAULT 14 _ZN7android4V2_013DeviceH
368:   FUNC GLOBAL DEFAULT 14 _ZN7android4V2_016StreamO
369:   FUNC GLOBAL DEFAULT 14 _ZTv0_n168_N7android4V2_0
370:   FUNC GLOBAL DEFAULT 14 _ZN7android4V2_017StreamO
371:   OBJECT GLOBAL DEFAULT 18 _ZTTN7android4V2_017Strea
372:   FUNC GLOBAL DEFAULT 14 _ZN7android6effect4V2_019
373:   FUNC GLOBAL DEFAULT 14 _ZN7android6effect4V2_013
374:   FUNC GLOBAL DEFAULT 14 _ZN7android4V2_013StreamH
375:   FUNC GLOBAL DEFAULT 14 _ZTv0_n80_N7android4V2_01
376:   FUNC GLOBAL DEFAULT 14 _ZThn8_N7android4V2_016St
377:   FUNC GLOBAL DEFAULT 14 _ZN7android4V2_017StreamO
378:   FUNC GLOBAL DEFAULT 14 _ZN7android6effect4V2_021
379:   FUNC GLOBAL DEFAULT 14 _ZTv0_n56_N7android4V2_01
380:   FUNC GLOBAL DEFAULT 14 _ZThn8_N7android4V2_017St
381:   FUNC GLOBAL DEFAULT 14 _ZN7android4V2_020Convers
382:   FUNC GLOBAL DEFAULT 14 _ZTv0_n160_N7android4V2_0
383:   FUNC GLOBAL DEFAULT 14 _ZN7android4V2_016StreamI
384:   FUNC GLOBAL DEFAULT 14 _ZThn8_N7android4V2_016St
385:   FUNC GLOBAL DEFAULT 14 _ZTv0_n24_N7android4V2_01
386:   FUNC GLOBAL DEFAULT 14 _ZThn8_N7android4V2_016St
387:   FUNC GLOBAL DEFAULT 14 _ZN7android4V2_013DeviceH
388:   FUNC GLOBAL DEFAULT 14 _ZTv0_n96_N7android4V2_01
389:   FUNC GLOBAL DEFAULT 14 _ZN7android4V2_016StreamI
390:   FUNC GLOBAL DEFAULT 14 _ZN7android6effect4V2_019
391:   FUNC GLOBAL DEFAULT 14 _ZN7android4V2_014StreamH
392:   FUNC GLOBAL DEFAULT 14 _ZTv0_n128_N7android4V2_0
393:   FUNC GLOBAL DEFAULT 14 _ZN7android6effect4V2_021
394:   FUNC GLOBAL DEFAULT 14 _ZN7android4V2_015StreamI
395:   FUNC GLOBAL DEFAULT 14 _ZN7android4V2_015StreamI
396:   FUNC GLOBAL DEFAULT 14 _ZN7android4V2_013StreamH
397:   FUNC GLOBAL DEFAULT 14 _ZTv0_n48_N7android4V2_01
398:   FUNC GLOBAL DEFAULT 14 _ZTv0_n136_N7android4V2_0
399:   FUNC GLOBAL DEFAULT 14 _ZThn8_N7android4V2_017St
400:   FUNC GLOBAL DEFAULT 14 _ZTv0_n152_N7android4V2_0
401:   FUNC WEAK DEFAULT 14 _ZNK7android12SortedVecto
402:   FUNC GLOBAL DEFAULT 14 _ZN7android4V2_013StreamH
403:   FUNC GLOBAL DEFAULT 14 _ZN7android4V2_013StreamH
404:   FUNC GLOBAL DEFAULT 14 _ZN7android4V2_014DeviceH
405:   FUNC GLOBAL DEFAULT 14 _ZN7android4V2_020Convers
406:   FUNC GLOBAL DEFAULT 14 _ZN7android6effect4V2_021
407:   OBJECT GLOBAL DEFAULT 18 _ZTVN7android4V2_016Strea
408:   OBJECT GLOBAL DEFAULT 18 _ZTTN7android4V2_013Strea
409:   FUNC GLOBAL DEFAULT 14 _ZN7android6effect4V2_019
410:   FUNC GLOBAL DEFAULT 14 _ZN7android6effect4V2_013
411:   FUNC GLOBAL DEFAULT 14 _ZN7android4V2_017StreamO
412:   OBJECT GLOBAL DEFAULT 18 _ZTTN7android4V2_016Strea
413:   FUNC GLOBAL DEFAULT 14 _ZN7android4V2_016StreamO
414:   OBJECT GLOBAL DEFAULT 18 _ZTCN7android4V2_016Strea
415:   FUNC GLOBAL DEFAULT 14 _ZN7android4V2_014DeviceH
416:   FUNC GLOBAL DEFAULT 14 _ZN7android4V2_014DeviceH
417:   OBJECT GLOBAL DEFAULT 18 _ZTVN7android4V2_023Devic
418:   FUNC GLOBAL DEFAULT 14 _ZThn8_N7android4V2_017St
419:   FUNC GLOBAL DEFAULT 14 _ZN7android6effect4V2_013
420:   FUNC GLOBAL DEFAULT 14 _ZTv0_n136_N7android4V2_0
421:   OBJECT GLOBAL DEFAULT 18 _ZTTN7android4V2_015Strea
422:   FUNC GLOBAL DEFAULT 14 _ZN7android4V2_014DeviceH
423:   FUNC GLOBAL DEFAULT 14 _ZN7android4V2_017StreamO
424:   FUNC GLOBAL DEFAULT 14 _ZN7android4V2_013DeviceH
425:   FUNC GLOBAL DEFAULT 14 _ZN7android4V2_013DeviceH
426:   FUNC GLOBAL DEFAULT 14 _ZN7android4V2_016StreamO
427:   FUNC GLOBAL DEFAULT 14 _ZN7android4V2_023Devices
428:   FUNC GLOBAL DEFAULT 14 _ZN7android4V2_014StreamH
429:   FUNC GLOBAL DEFAULT 14 _ZN7android4V2_014StreamH
430:   FUNC GLOBAL DEFAULT 14 _ZN7android4V2_014StreamH
431:   FUNC GLOBAL DEFAULT 14 _ZN7android4V2_017StreamO
432:   FUNC GLOBAL DEFAULT 14 _ZN7android6effect4V2_021
433:   FUNC GLOBAL DEFAULT 14 _ZN7android4V2_015StreamI
434:   FUNC GLOBAL DEFAULT 14 _ZTv0_n152_N7android4V2_0
435:   FUNC GLOBAL DEFAULT 14 _ZN7android6effect4V2_021
436:   FUNC GLOBAL DEFAULT 14 _ZN7android6effect4V2_021
437:   FUNC GLOBAL DEFAULT 14 _ZThn8_N7android4V2_015St
438:   FUNC GLOBAL DEFAULT 14 _ZTv0_n112_N7android4V2_0
439:   FUNC GLOBAL DEFAULT 14 _ZN7android4V2_014StreamH
440:   FUNC GLOBAL DEFAULT 14 _ZN7android4V2_017StreamO
441:   FUNC GLOBAL DEFAULT 14 _ZN7android6effect4V2_013
442:   FUNC GLOBAL DEFAULT 14 _ZN7android4V2_013StreamH
443:   FUNC GLOBAL DEFAULT 14 _ZN7android4V2_017StreamO
444:   FUNC GLOBAL DEFAULT 14 _ZTv0_n144_N7android4V2_0
445:   FUNC GLOBAL DEFAULT 14 _ZN7android6effect4V2_019
446:   FUNC GLOBAL DEFAULT 14 _ZTv0_n24_N7android4V2_01
447:   FUNC GLOBAL DEFAULT 14 _ZN7android4V2_015StreamI
448:   FUNC GLOBAL DEFAULT 14 _ZTv0_n168_N7android4V2_0
449:   FUNC GLOBAL DEFAULT 14 _ZN7android6effect4V2_013
450:   FUNC GLOBAL DEFAULT 14 _ZTv0_n152_N7android4V2_0
451:   FUNC GLOBAL DEFAULT 14 _ZN7android4V2_016StreamO
452:   FUNC GLOBAL DEFAULT 14 _ZN7android4V2_013StreamH
453:   FUNC GLOBAL DEFAULT 14 _ZN7android4V2_016StreamO
454:   FUNC GLOBAL DEFAULT 14 _ZN7android4V2_014DeviceH
455:   OBJECT GLOBAL DEFAULT 18 _ZTVN7android6effect4V2_0
456:   FUNC GLOBAL DEFAULT 14 _ZN7android4V2_014DeviceH
457:   FUNC GLOBAL DEFAULT 14 _ZTv0_n24_N7android4V2_01
458:   FUNC GLOBAL DEFAULT 14 _ZN7android4V2_014StreamH
459:   FUNC GLOBAL DEFAULT 14 _ZN7android4V2_017StreamO
460:   FUNC GLOBAL DEFAULT 14 _ZN7android4V2_013DeviceH
461:   FUNC GLOBAL DEFAULT 14 _ZTv0_n24_N7android4V2_01
462:   FUNC GLOBAL DEFAULT 14 _ZN7android4V2_016StreamO
463:   FUNC GLOBAL DEFAULT 14 _ZN7android4V2_014StreamH
464:   FUNC GLOBAL DEFAULT 14 _ZN7android6effect4V2_013
465:   FUNC GLOBAL DEFAULT 14 _ZN7android4V2_016StreamO
466:   FUNC GLOBAL DEFAULT 14 _ZN7android4V2_014DeviceH
467:   FUNC GLOBAL DEFAULT 14 _ZN7android6effect4V2_013
468:   FUNC GLOBAL DEFAULT 14 _ZN7android6effect4V2_013
469:   FUNC GLOBAL DEFAULT 14 _ZN7android4V2_014DeviceH
470:   FUNC GLOBAL DEFAULT 14 _ZN7android4V2_013StreamH
471:   FUNC GLOBAL DEFAULT 14 _ZN7android4V2_016StreamO
472:   FUNC GLOBAL DEFAULT 14 _ZN7android4V2_014DeviceH
473:   FUNC GLOBAL DEFAULT 14 _ZN7android4V2_017StreamO
474:   FUNC GLOBAL DEFAULT 14 _ZThn8_N7android4V2_017St
475:   FUNC GLOBAL DEFAULT 14 _ZTv0_n24_N7android4V2_01
476:   OBJECT GLOBAL DEFAULT 18 _ZTVN7android4V2_014Strea
477:   FUNC GLOBAL DEFAULT 14 _ZTv0_n168_N7android4V2_0
478:   FUNC GLOBAL DEFAULT 14 _ZN7android4V2_016StreamI
479:   FUNC GLOBAL DEFAULT 14 _ZN7android4V2_020Convers
480:   FUNC GLOBAL DEFAULT 14 _ZTv0_n144_N7android4V2_0
481:   FUNC GLOBAL DEFAULT 14 _ZTv0_n128_N7android4V2_0
482:   OBJECT GLOBAL DEFAULT 18 _ZTVN7android4V2_022Devic
483:   FUNC GLOBAL DEFAULT 14 _ZN7android4V2_014StreamH
484:   FUNC GLOBAL DEFAULT 14 _ZTv0_n144_N7android4V2_0
485:   FUNC GLOBAL DEFAULT 14 _ZN7android4V2_013DeviceH
486:   FUNC GLOBAL DEFAULT 14 _ZN7android4V2_013DeviceH
487:   FUNC GLOBAL DEFAULT 14 _ZN7android4V2_013DeviceH
488:   FUNC GLOBAL DEFAULT 14 _ZN7android6effect4V2_013
489:   FUNC GLOBAL DEFAULT 14 _ZN7android4V2_015StreamI
490:   FUNC GLOBAL DEFAULT 14 __cfi_check
491:   FUNC GLOBAL DEFAULT 14 _ZN7android4V2_015StreamI
492:   OBJECT GLOBAL DEFAULT 18 _ZTVN7android4V2_014Devic
493:   FUNC GLOBAL DEFAULT 14 _ZN7android4V2_016StreamI
494:   FUNC WEAK DEFAULT 14 _ZNK7android12SortedVecto
495:   FUNC WEAK DEFAULT 14 _ZNK7android12SortedVecto
496:   FUNC GLOBAL DEFAULT 14 _ZN7android6effect4V2_019
497:   FUNC GLOBAL DEFAULT 14 _ZN7android6effect4V2_013
498:   FUNC GLOBAL DEFAULT 14 _ZN7android4V2_013StreamH
499:   FUNC GLOBAL DEFAULT 14 _ZN7android4V2_015StreamI
