 0x000000000000000e (SONAME)             Library soname: [libinputreader.so]
  
Symbol   contains 703 entries:
Num:   Type Bind Vis Ndx Name
0:   NOTYPE LOCAL DEFAULT UND
1:   FUNC GLOBAL DEFAULT UND __cxa_finalize@LIBC (2)
2:   FUNC GLOBAL DEFAULT UND SHA1_Final
3:   FUNC GLOBAL DEFAULT UND SHA1_Init
4:   FUNC GLOBAL DEFAULT UND SHA1_Update
5:   FUNC GLOBAL DEFAULT UND _ZN7android10VectorImpl13
6:   FUNC GLOBAL DEFAULT UND _ZN7android11PropertyMap4
7:   FUNC GLOBAL DEFAULT UND _ZN7android11PropertyMap5
8:   FUNC GLOBAL DEFAULT UND _ZN7android11PropertyMapD
9:   FUNC GLOBAL DEFAULT UND _ZN7android13VirtualKeyMa
10:   FUNC GLOBAL DEFAULT UND _ZN7android13VirtualKeyMa
11:   FUNC GLOBAL DEFAULT UND _ZN7android14sp_report_ra
12:   FUNC GLOBAL DEFAULT UND _ZN7android15KeyCharacter
13:   FUNC GLOBAL DEFAULT UND _ZN7android16SortedVector
14:   FUNC GLOBAL DEFAULT UND _ZN7android16SortedVector
15:   FUNC GLOBAL DEFAULT UND _ZN7android16SortedVector
16:   FUNC GLOBAL DEFAULT UND _ZN7android16SortedVector
17:   FUNC GLOBAL DEFAULT UND _ZN7android16SortedVector
18:   FUNC GLOBAL DEFAULT UND _ZN7android25isEligibleBu
19:   FUNC GLOBAL DEFAULT UND _ZN7android4base12StringP
20:   FUNC GLOBAL DEFAULT UND _ZN7android53getInputDevi
21:   FUNC GLOBAL DEFAULT UND _ZN7android6KeyMap4loadER
22:   FUNC GLOBAL DEFAULT UND _ZN7android6KeyMapC1Ev
23:   FUNC GLOBAL DEFAULT UND _ZN7android6KeyMapD1Ev
24:   FUNC GLOBAL DEFAULT UND _ZN7android7RefBase10onFi
25:   FUNC GLOBAL DEFAULT UND _ZN7android7RefBase13onLa
26:   FUNC GLOBAL DEFAULT UND _ZN7android7RefBase15onLa
27:   FUNC GLOBAL DEFAULT UND _ZN7android7RefBase20onIn
28:   FUNC GLOBAL DEFAULT UND _ZN7android7RefBaseC2Ev
29:   FUNC GLOBAL DEFAULT UND _ZN7android7RefBaseD2Ev
30:   FUNC GLOBAL DEFAULT UND _ZN7android7String8C1EPKc
31:   FUNC GLOBAL DEFAULT UND _ZN7android7String8C1Ev
32:   FUNC GLOBAL DEFAULT UND _ZN7android7String8D1Ev
33:   FUNC GLOBAL DEFAULT UND _ZNK7android11PropertyMap
34:   FUNC GLOBAL DEFAULT UND _ZNK7android11PropertyMap
35:   FUNC GLOBAL DEFAULT UND _ZNK7android12KeyLayoutMa
36:   FUNC GLOBAL DEFAULT UND _ZNK7android12KeyLayoutMa
37:   FUNC GLOBAL DEFAULT UND _ZNK7android12KeyLayoutMa
38:   FUNC GLOBAL DEFAULT UND _ZNK7android12KeyLayoutMa
39:   FUNC GLOBAL DEFAULT UND _ZNK7android15KeyCharacte
40:   FUNC GLOBAL DEFAULT UND _ZNK7android15KeyCharacte
41:   FUNC GLOBAL DEFAULT UND _ZNK7android16SortedVecto
42:   FUNC GLOBAL DEFAULT UND _ZNK7android21InputDevice
43:   FUNC GLOBAL DEFAULT UND _ZNK7android7RefBase9decS
44:   FUNC GLOBAL DEFAULT UND _ZNK7android7RefBase9incS
45:   FUNC GLOBAL DEFAULT UND _ZNKSt3__112basic_stringI
46:   FUNC GLOBAL DEFAULT UND _ZNKSt3__120__vector_base
47:   FUNC GLOBAL DEFAULT UND _ZNKSt3__121__basic_strin
48:   FUNC GLOBAL DEFAULT UND _ZNSt3__112basic_stringIc
49:   FUNC GLOBAL DEFAULT UND _ZNSt3__112basic_stringIc
50:   FUNC GLOBAL DEFAULT UND _ZNSt3__112basic_stringIc
51:   FUNC GLOBAL DEFAULT UND _ZNSt3__112basic_stringIc
52:   FUNC GLOBAL DEFAULT UND _ZNSt3__112basic_stringIc
53:   FUNC GLOBAL DEFAULT UND _ZNSt3__112basic_stringIc
54:   FUNC GLOBAL DEFAULT UND _ZdlPv
55:   FUNC GLOBAL DEFAULT UND _Znwm
56:   FUNC GLOBAL DEFAULT UND __android_log_assert@LIBLOG (3)
57:   FUNC GLOBAL DEFAULT UND __android_log_print@LIBLOG (3)
58:   FUNC GLOBAL DEFAULT UND __cxa_pure_virtual
59:   FUNC GLOBAL DEFAULT UND __errno@LIBC (2)
60:   FUNC GLOBAL DEFAULT UND __open_2@LIBC (2)
61:   FUNC GLOBAL DEFAULT UND __read_chk@LIBC (2)
62:   FUNC GLOBAL DEFAULT UND __stack_chk_fail@LIBC (2)
63:   FUNC GLOBAL DEFAULT UND __strcpy_chk@LIBC (2)
64:   FUNC GLOBAL DEFAULT UND __strlen_chk@LIBC (2)
65:   FUNC GLOBAL DEFAULT UND __write_chk@LIBC_N (4)
66:   FUNC GLOBAL DEFAULT UND abort@LIBC (2)
67:   FUNC GLOBAL DEFAULT UND access@LIBC (2)
68:   FUNC GLOBAL DEFAULT UND acquire_wake_lock
69:   FUNC GLOBAL DEFAULT UND close@LIBC (2)
70:   FUNC GLOBAL DEFAULT UND closedir@LIBC (2)
71:   FUNC GLOBAL DEFAULT UND epoll_create1@LIBC (2)
72:   FUNC GLOBAL DEFAULT UND epoll_ctl@LIBC (2)
73:   FUNC GLOBAL DEFAULT UND epoll_wait@LIBC (2)
74:   FUNC GLOBAL DEFAULT UND fcntl@LIBC (2)
75:   FUNC GLOBAL DEFAULT UND inotify_add_watch@LIBC (2)
76:   FUNC GLOBAL DEFAULT UND inotify_init@LIBC (2)
77:   FUNC GLOBAL DEFAULT UND ioctl@LIBC (2)
78:   FUNC GLOBAL DEFAULT UND memcmp@LIBC (2)
79:   FUNC GLOBAL DEFAULT UND memcpy@LIBC (2)
80:   FUNC GLOBAL DEFAULT UND memmove@LIBC (2)
81:   FUNC GLOBAL DEFAULT UND opendir@LIBC (2)
82:   FUNC GLOBAL DEFAULT UND pipe@LIBC (2)
83:   FUNC GLOBAL DEFAULT UND property_get_bool
84:   FUNC GLOBAL DEFAULT UND pthread_mutex_destroy@LIBC (2)
85:   FUNC GLOBAL DEFAULT UND pthread_mutex_init@LIBC (2)
86:   FUNC GLOBAL DEFAULT UND pthread_mutex_lock@LIBC (2)
87:   FUNC GLOBAL DEFAULT UND pthread_mutex_unlock@LIBC (2)
88:   FUNC GLOBAL DEFAULT UND read@LIBC (2)
89:   FUNC GLOBAL DEFAULT UND readdir@LIBC (2)
90:   FUNC GLOBAL DEFAULT UND release_wake_lock
91:   FUNC GLOBAL DEFAULT UND sscanf@LIBC (2)
92:   FUNC GLOBAL DEFAULT UND strcmp@LIBC (2)
93:   FUNC GLOBAL DEFAULT UND strcpy@LIBC (2)
94:   FUNC GLOBAL DEFAULT UND strerror@LIBC (2)
95:   FUNC GLOBAL DEFAULT UND strlen@LIBC (2)
96:   FUNC GLOBAL DEFAULT UND strncmp@LIBC (2)
97:   FUNC GLOBAL DEFAULT UND systemTime
98:   FUNC GLOBAL DEFAULT UND uname@LIBC (2)
99:   FUNC GLOBAL DEFAULT UND usleep@LIBC (2)
100:   FUNC GLOBAL DEFAULT UND _ZN7android10VectorImpl13
101:   FUNC GLOBAL DEFAULT UND _ZN7android10VectorImpl16
102:   FUNC GLOBAL DEFAULT UND _ZN7android11PropertyMapC
103:   FUNC GLOBAL DEFAULT UND _ZN7android13NotifyKeyArg
104:   FUNC GLOBAL DEFAULT UND _ZN7android13PointerCoord
105:   FUNC GLOBAL DEFAULT UND _ZN7android13PointerCoord
106:   FUNC GLOBAL DEFAULT UND _ZN7android15InputDeviceI
107:   FUNC GLOBAL DEFAULT UND _ZN7android15InputDeviceI
108:   FUNC GLOBAL DEFAULT UND _ZN7android15InputDeviceI
109:   FUNC GLOBAL DEFAULT UND _ZN7android15InputDeviceI
110:   FUNC GLOBAL DEFAULT UND _ZN7android15InputDeviceI
111:   FUNC GLOBAL DEFAULT UND _ZN7android15InputDeviceI
112:   FUNC GLOBAL DEFAULT UND _ZN7android15InputDeviceI
113:   FUNC GLOBAL DEFAULT UND _ZN7android15TouchVideoFr
114:   FUNC GLOBAL DEFAULT UND _ZN7android15VelocityCont
115:   FUNC GLOBAL DEFAULT UND _ZN7android15VelocityCont
116:   FUNC GLOBAL DEFAULT UND _ZN7android15VelocityCont
117:   FUNC GLOBAL DEFAULT UND _ZN7android15VelocityCont
118:   FUNC GLOBAL DEFAULT UND _ZN7android15VelocityTrac
119:   FUNC GLOBAL DEFAULT UND _ZN7android15VelocityTrac
120:   FUNC GLOBAL DEFAULT UND _ZN7android15VelocityTrac
121:   FUNC GLOBAL DEFAULT UND _ZN7android15VelocityTrac
122:   FUNC GLOBAL DEFAULT UND _ZN7android15updateMetaSt
123:   FUNC GLOBAL DEFAULT UND _ZN7android16NotifyMotion
124:   FUNC GLOBAL DEFAULT UND _ZN7android16NotifySwitch
125:   FUNC GLOBAL DEFAULT UND _ZN7android17PointerPrope
126:   FUNC GLOBAL DEFAULT UND _ZN7android19QueuedInputL
127:   FUNC GLOBAL DEFAULT UND _ZN7android19QueuedInputL
128:   FUNC GLOBAL DEFAULT UND _ZN7android21NotifyDevice
129:   FUNC GLOBAL DEFAULT UND _ZN7android30NotifyConfig
130:   FUNC GLOBAL DEFAULT UND _ZN7android4util11stats_w
131:   FUNC GLOBAL DEFAULT UND _ZNK7android11PropertyMap
132:   FUNC GLOBAL DEFAULT UND _ZNK7android11PropertyMap
133:   FUNC GLOBAL DEFAULT UND _ZNK7android13PointerCoor
134:   FUNC GLOBAL DEFAULT UND _ZNK7android13PointerCoor
135:   FUNC GLOBAL DEFAULT UND _ZNK7android15VelocityTra
136:   FUNC GLOBAL DEFAULT UND _ZNK7android17PointerProp
137:   FUNC GLOBAL DEFAULT UND _ZNK7android24InputReader
138:   FUNC GLOBAL DEFAULT UND _ZNK7android24InputReader
139:   FUNC GLOBAL DEFAULT UND _ZNK7android24InputReader
140:   FUNC GLOBAL DEFAULT UND _ZNK7android24InputReader
141:   FUNC GLOBAL DEFAULT UND _ZNK7android25TouchAffine
142:   FUNC GLOBAL DEFAULT UND _ZNSt3__112__next_primeEm
143:   OBJECT GLOBAL DEFAULT UND _ZTVN7android16NotifyMoti
144:   FUNC GLOBAL DEFAULT UND _ZdaPv
145:   FUNC GLOBAL DEFAULT UND _Znam
146:   FUNC GLOBAL DEFAULT UND __vsnprintf_chk@LIBC (2)
147:   FUNC GLOBAL DEFAULT UND acosf@LIBC (5)
148:   FUNC GLOBAL DEFAULT UND atan2f@LIBC (5)
149:   FUNC GLOBAL DEFAULT UND hypotf@LIBC (5)
150:   FUNC GLOBAL DEFAULT UND memset@LIBC (2)
151:   FUNC GLOBAL DEFAULT UND pthread_cond_broadcast@LIBC (2)
152:   FUNC GLOBAL DEFAULT UND pthread_cond_destroy@LIBC (2)
153:   FUNC GLOBAL DEFAULT UND pthread_cond_init@LIBC (2)
154:   FUNC GLOBAL DEFAULT UND pthread_cond_wait@LIBC (2)
155:   FUNC GLOBAL DEFAULT UND pthread_condattr_destroy@LIBC (2)
156:   FUNC GLOBAL DEFAULT UND pthread_condattr_init@LIBC (2)
157:   FUNC GLOBAL DEFAULT UND pthread_condattr_setclock@LIBC (2)
158:   FUNC GLOBAL DEFAULT UND sincosf@LIBC (5)
159:   FUNC GLOBAL DEFAULT UND strncpy@LIBC (2)
160:   FUNC GLOBAL DEFAULT UND toMillisecondTimeoutDelay
161:   FUNC GLOBAL DEFAULT UND _ZN7android15TouchVideoFr
162:   FUNC WEAK DEFAULT UND android_fdsan_close_with_@LIBC_Q (6)
163:   FUNC WEAK DEFAULT UND android_fdsan_create_owne@LIBC_Q (6)
164:   FUNC WEAK DEFAULT UND android_fdsan_exchange_ow@LIBC_Q (6)
165:   FUNC GLOBAL DEFAULT UND mmap@LIBC (2)
166:   FUNC GLOBAL DEFAULT UND munmap@LIBC (2)
167:   FUNC GLOBAL DEFAULT 14 _ZN7android11InputReader7
168:   FUNC GLOBAL DEFAULT 14 _ZN7android16TouchInputMa
169:   FUNC GLOBAL DEFAULT 14 _ZN7android19JoystickInpu
170:   FUNC GLOBAL DEFAULT 14 _ZN7android19VibratorInpu
171:   FUNC WEAK DEFAULT 14 _ZNSt3__16vectorIN7androi
172:   FUNC GLOBAL DEFAULT 14 _ZN7android16TouchInputMa
173:   FUNC GLOBAL DEFAULT 14 _ZN7android19JoystickInpu
174:   FUNC GLOBAL DEFAULT 14 _ZN7android23CursorMotion
175:   FUNC WEAK DEFAULT 14 _ZNSt3__16vectorIN7androi
176:   FUNC GLOBAL DEFAULT 14 _ZN7android14RawPointerAx
177:   FUNC GLOBAL DEFAULT 14 _ZN7android19JoystickInpu
178:   FUNC GLOBAL DEFAULT 14 _ZN7android19KeyboardInpu
179:   OBJECT GLOBAL DEFAULT 18 _ZTVN7android17CursorInpu
180:   FUNC GLOBAL DEFAULT 14 _ZTv0_n24_N7android11Inpu
181:   FUNC GLOBAL DEFAULT 14 _ZN7android11InputReader1
182:   FUNC GLOBAL DEFAULT 14 _ZN7android16TouchInputMa
183:   FUNC GLOBAL DEFAULT 14 _ZN7android16TouchInputMa
184:   FUNC GLOBAL DEFAULT 14 _ZN7android19KeyboardInpu
185:   FUNC GLOBAL DEFAULT 14 _ZN7android19KeyboardInpu
186:   FUNC GLOBAL DEFAULT 14 _ZN7android19KeyboardInpu
187:   FUNC GLOBAL DEFAULT 14 _ZN7android19KeyboardInpu
188:   FUNC WEAK DEFAULT 14 _ZNSt3__16vectorIN7androi
189:   FUNC GLOBAL DEFAULT 14 _ZN7android11InputMapper1
190:   FUNC GLOBAL DEFAULT 14 _ZN7android11InputMapper1
191:   FUNC GLOBAL DEFAULT 14 _ZN7android11InputReader1
192:   FUNC GLOBAL DEFAULT 14 _ZN7android8EventHub12ena
193:   OBJECT GLOBAL DEFAULT 18 _ZTCN7android11InputReade
194:   FUNC GLOBAL DEFAULT 14 _ZN7android8EventHub29get
195:   FUNC GLOBAL DEFAULT 14 _ZN7android16TouchInputMa
196:   FUNC GLOBAL DEFAULT 14 _ZN7android19JoystickInpu
197:   FUNC GLOBAL DEFAULT 14 _ZN7android8EventHub18set
198:   FUNC GLOBAL DEFAULT 14 _ZNK7android8EventHub6map
199:   FUNC GLOBAL DEFAULT 14 _ZN7android11InputDevice9
200:   FUNC GLOBAL DEFAULT 14 _ZN7android11InputMapper2
201:   FUNC GLOBAL DEFAULT 14 _ZN7android16TouchInputMa
202:   FUNC GLOBAL DEFAULT 14 _ZN7android16TouchInputMa
203:   FUNC GLOBAL DEFAULT 14 _ZNK7android22TouchButton
204:   FUNC GLOBAL DEFAULT 14 _ZN7android8EventHub16rea
205:   FUNC GLOBAL DEFAULT 14 _ZN7android8EventHub21unr
206:   FUNC GLOBAL DEFAULT 14 _ZN7android16TouchInputMa
207:   FUNC GLOBAL DEFAULT 14 _ZN7android27MultiTouchMo
208:   FUNC WEAK DEFAULT 14 _ZNSt3__112__hash_tableIN
209:   FUNC GLOBAL DEFAULT 14 _ZTv0_n24_N7android8Event
210:   FUNC GLOBAL DEFAULT 14 _ZN7android11InputDevice1
211:   FUNC GLOBAL DEFAULT 14 _ZN7android11InputReader1
212:   FUNC GLOBAL DEFAULT 14 _ZN7android11InputReaderD
213:   FUNC GLOBAL DEFAULT 14 _ZN7android21MultiTouchIn
214:   FUNC GLOBAL DEFAULT 14 _ZN7android23CursorScroll
215:   FUNC WEAK DEFAULT 14 _ZNK7android12SortedVecto
216:   FUNC WEAK DEFAULT 14 _ZNSt3__16vectorINS_10uni
217:   FUNC GLOBAL DEFAULT 14 _ZN7android19KeyboardInpu
218:   FUNC GLOBAL DEFAULT 14 _ZN7android19VibratorInpu
219:   FUNC WEAK DEFAULT 14 _ZNK7android12SortedVecto
220:   FUNC GLOBAL DEFAULT 14 _ZN7android16TouchVideoDe
221:   FUNC GLOBAL DEFAULT 14 _ZN7android11InputMapper1
222:   FUNC GLOBAL DEFAULT 14 _ZN7android14RawPointerDa
223:   FUNC GLOBAL DEFAULT 14 _ZN7android16TouchInputMa
224:   FUNC GLOBAL DEFAULT 14 _ZN7android8EventHub23loa
225:   FUNC GLOBAL DEFAULT 14 _ZN7android16TouchInputMa
226:   FUNC GLOBAL DEFAULT 14 _ZN7android8EventHub28reg
227:   FUNC GLOBAL DEFAULT 14 _ZN7android11InputReader3
228:   FUNC GLOBAL DEFAULT 14 _ZN7android16TouchInputMa
229:   FUNC GLOBAL DEFAULT 14 _ZN7android16TouchInputMa
230:   FUNC GLOBAL DEFAULT 14 _ZN7android16TouchInputMa
231:   FUNC GLOBAL DEFAULT 14 _ZN7android17SwitchInputM
232:   FUNC GLOBAL DEFAULT 14 _ZN7android27MultiTouchMo
233:   FUNC GLOBAL DEFAULT 14 _ZN7android16TouchInputMa
234:   FUNC GLOBAL DEFAULT 14 _ZN7android17SwitchInputM
235:   FUNC GLOBAL DEFAULT 14 _ZN7android16TouchInputMa
236:   FUNC GLOBAL DEFAULT 14 _ZN7android19KeyboardInpu
237:   FUNC GLOBAL DEFAULT 14 _ZN7android8EventHub4wake
238:   FUNC GLOBAL DEFAULT 14 _ZN7android11InputDevice1
239:   OBJECT GLOBAL DEFAULT 18 _ZTVN7android11InputReade
240:   FUNC GLOBAL DEFAULT 14 _ZNK7android16TouchVideoD
241:   FUNC GLOBAL DEFAULT 14 _ZN7android25ExternalStyl
242:   FUNC GLOBAL DEFAULT 14 _ZN7android8EventHub23loa
243:   FUNC GLOBAL DEFAULT 14 _ZN7android14RawPointerAx
244:   FUNC GLOBAL DEFAULT 14 _ZN7android19KeyboardInpu
245:   FUNC GLOBAL DEFAULT 14 _ZTv0_n24_N7android11Inpu
246:   FUNC GLOBAL DEFAULT 14 _ZN7android16TouchVideoDe
247:   FUNC GLOBAL DEFAULT 14 _ZN7android11InputDevice1
248:   FUNC GLOBAL DEFAULT 14 _ZN7android19KeyboardInpu
249:   FUNC GLOBAL DEFAULT 14 _ZN7android19KeyboardInpu
250:   FUNC GLOBAL DEFAULT 14 _ZN7android8EventHub6Devi
251:   FUNC GLOBAL DEFAULT 14 _ZN7android11InputMapper7
252:   FUNC GLOBAL DEFAULT 14 _ZN7android16TouchInputMa
253:   OBJECT WEAK DEFAULT 18 _ZTVN7android12SortedVect
254:   FUNC GLOBAL DEFAULT 14 _ZNK7android8EventHub25ge
255:   FUNC GLOBAL DEFAULT 14 _ZN7android8EventHub9getE
256:   FUNC GLOBAL DEFAULT 14 _ZNK7android8EventHub7map
257:   FUNC GLOBAL DEFAULT 14 _ZN7android17SwitchInputM
258:   FUNC GLOBAL DEFAULT 14 _ZN7android19VibratorInpu
259:   FUNC GLOBAL DEFAULT 14 _ZN7android28SingleTouchM
260:   FUNC WEAK DEFAULT 14 _ZNSt3__16vectorIsNS_9all
261:   FUNC GLOBAL DEFAULT 14 _ZN7android14RawPointerAx
262:   FUNC GLOBAL DEFAULT 14 _ZN7android19JoystickInpu
263:   FUNC GLOBAL DEFAULT 14 _ZN7android21MultiTouchIn
264:   FUNC GLOBAL DEFAULT 14 _ZN7android28SingleTouchM
265:   FUNC GLOBAL DEFAULT 14 _ZN7android11InputReader2
266:   FUNC GLOBAL DEFAULT 14 _ZN7android23CursorMotion
267:   FUNC GLOBAL DEFAULT 14 _ZN7android27MultiTouchMo
268:   FUNC GLOBAL DEFAULT 14 _ZN7android11InputDevice1
269:   FUNC GLOBAL DEFAULT 14 _ZN7android11InputReaderD
270:   FUNC GLOBAL DEFAULT 14 _ZN7android17CursorInputM
271:   FUNC GLOBAL DEFAULT 14 _ZN7android19VibratorInpu
272:   FUNC GLOBAL DEFAULT 14 _ZN7android23CursorButton
273:   OBJECT GLOBAL DEFAULT 18 _ZTVN7android11InputMappe
274:   FUNC GLOBAL DEFAULT 14 _ZN7android8EventHub11con
275:   FUNC GLOBAL DEFAULT 14 _ZN7android11InputDeviceC
276:   FUNC GLOBAL DEFAULT 14 _ZN7android11InputReader7
277:   FUNC GLOBAL DEFAULT 14 _ZN7android19JoystickInpu
278:   FUNC GLOBAL DEFAULT 14 _ZN7android22SingleTouchI
279:   FUNC GLOBAL DEFAULT 14 _ZN7android25ExternalStyl
280:   FUNC GLOBAL DEFAULT 14 _ZNK7android8EventHub16ha
281:   FUNC GLOBAL DEFAULT 14 _ZN7android11InputReader3
282:   FUNC GLOBAL DEFAULT 14 _ZN7android14RawPointerDa
283:   FUNC GLOBAL DEFAULT 14 _ZN7android27MultiTouchMo
284:   FUNC GLOBAL DEFAULT 14 _ZN7android8EventHub21clo
285:   FUNC GLOBAL DEFAULT 14 _ZNK7android8EventHub16ge
286:   FUNC GLOBAL DEFAULT 14 _ZN7android17CookedPointe
287:   FUNC GLOBAL DEFAULT 14 _ZN7android19KeyboardInpu
288:   FUNC GLOBAL DEFAULT 14 _ZN7android22TouchButtonA
289:   OBJECT WEAK DEFAULT 18 _ZTVN7android12SortedVect
290:   FUNC GLOBAL DEFAULT 14 _ZN7android8EventHub29rel
291:   FUNC GLOBAL DEFAULT 14 _ZN7android25ExternalStyl
292:   FUNC GLOBAL DEFAULT 14 _ZNK7android22TouchButton
293:   FUNC GLOBAL DEFAULT 14 _ZN7android16TouchInputMa
294:   FUNC GLOBAL DEFAULT 14 _ZN7android16TouchInputMa
295:   FUNC GLOBAL DEFAULT 14 _ZN7android19KeyboardInpu
296:   FUNC GLOBAL DEFAULT 14 _ZN7android8EventHub25set
297:   FUNC GLOBAL DEFAULT 14 _ZN7android11InputDevice7
298:   FUNC GLOBAL DEFAULT 14 _ZN7android16TouchInputMa
299:   FUNC GLOBAL DEFAULT 14 _ZN7android16TouchInputMa
300:   FUNC GLOBAL DEFAULT 14 _ZN7android17CursorInputM
301:   FUNC GLOBAL DEFAULT 14 _ZN7android22SingleTouchI
302:   FUNC WEAK DEFAULT 14 _ZNSt3__112__hash_tableIN
303:   FUNC GLOBAL DEFAULT 14 _ZN7android8EventHubC1Ev
304:   FUNC WEAK DEFAULT 14 _ZNK7android12SortedVecto
305:   FUNC GLOBAL DEFAULT 14 _ZN7android11InputDevice9
306:   FUNC GLOBAL DEFAULT 14 _ZN7android11InputReader1
307:   FUNC WEAK DEFAULT 14 _ZNK7android12SortedVecto
308:   FUNC GLOBAL DEFAULT 14 _ZN7android8EventHub22ass
309:   FUNC GLOBAL DEFAULT 14 _ZN7android11InputReader7
310:   FUNC GLOBAL DEFAULT 14 _ZN7android17CursorInputM
311:   FUNC GLOBAL DEFAULT 14 _ZN7android19JoystickInpu
312:   FUNC GLOBAL DEFAULT 14 _ZN7android19KeyboardInpu
313:   FUNC GLOBAL DEFAULT 14 _ZN7android19VibratorInpu
314:   FUNC GLOBAL DEFAULT 14 _ZN7android21MultiTouchIn
315:   OBJECT GLOBAL DEFAULT 18 _ZTVN7android11InputReade
316:   FUNC GLOBAL DEFAULT 14 _ZN7android8EventHub24set
317:   FUNC GLOBAL DEFAULT 14 _ZN7android11InputMapper2
318:   FUNC GLOBAL DEFAULT 14 _ZN7android16TouchInputMa
319:   FUNC GLOBAL DEFAULT 14 _ZN7android23CursorButton
320:   FUNC GLOBAL DEFAULT 14 _ZNK7android22TouchButton
321:   FUNC GLOBAL DEFAULT 14 _ZN7android16TouchInputMa
322:   FUNC GLOBAL DEFAULT 14 _ZN7android16TouchInputMa
323:   FUNC GLOBAL DEFAULT 14 _ZN7android19KeyboardInpu
324:   FUNC GLOBAL DEFAULT 14 _ZN7android23CursorButton
325:   FUNC GLOBAL DEFAULT 14 _ZNK7android8EventHub6has
326:   FUNC GLOBAL DEFAULT 14 _ZN7android11InputReader2
327:   FUNC GLOBAL DEFAULT 14 _ZN7android25ExternalStyl
328:   OBJECT GLOBAL DEFAULT 18 _ZTVN7android22SingleTouc
329:   FUNC GLOBAL DEFAULT 14 _ZN7android22SingleTouchI
330:   FUNC WEAK DEFAULT 14 _ZNK7android12SortedVecto
331:   FUNC GLOBAL DEFAULT 14 _ZN7android28SingleTouchM
332:   FUNC WEAK DEFAULT 14 _ZNK7android12SortedVecto
333:   FUNC GLOBAL DEFAULT 14 _ZN7android8EventHub28clo
334:   FUNC GLOBAL DEFAULT 14 _ZN7android8EventHubD0Ev
335:   FUNC GLOBAL DEFAULT 14 _ZNK7android8EventHub24ge
336:   FUNC GLOBAL DEFAULT 14 _ZNK7android8EventHub6map
337:   FUNC GLOBAL DEFAULT 14 _ZN7android11InputDevice1
338:   FUNC WEAK DEFAULT 14 _ZNK7android12SortedVecto
339:   OBJECT GLOBAL DEFAULT 18 _ZTVN7android25ExternalSt
340:   FUNC GLOBAL DEFAULT 14 _ZN7android16TouchVideoDe
341:   FUNC GLOBAL DEFAULT 14 _ZN7android8EventHub7vibr
342:   FUNC GLOBAL DEFAULT 14 _ZN7android11InputReader2
343:   FUNC GLOBAL DEFAULT 14 _ZN7android16TouchInputMa
344:   FUNC GLOBAL DEFAULT 14 _ZN7android16TouchInputMa
345:   FUNC GLOBAL DEFAULT 14 _ZN7android17CursorInputM
346:   FUNC GLOBAL DEFAULT 14 _ZN7android21MultiTouchIn
347:   FUNC GLOBAL DEFAULT 14 _ZN7android21MultiTouchIn
348:   FUNC GLOBAL DEFAULT 14 _ZN7android23CursorButton
349:   FUNC GLOBAL DEFAULT 14 _ZN7android24RotaryEncode
350:   FUNC GLOBAL DEFAULT 14 _ZNK7android21MultiTouchI
351:   FUNC WEAK DEFAULT 14 _ZNSt3__112__hash_tableIN
352:   FUNC GLOBAL DEFAULT 14 _ZN7android11InputReader4
353:   FUNC GLOBAL DEFAULT 14 _ZN7android16TouchInputMa
354:   FUNC GLOBAL DEFAULT 14 _ZN7android19KeyboardInpu
355:   FUNC GLOBAL DEFAULT 14 _ZN7android23CursorMotion
356:   FUNC WEAK DEFAULT 14 _ZNSt3__16vectorIN7androi
357:   FUNC GLOBAL DEFAULT 14 _ZN7android8EventHub18sca
358:   FUNC GLOBAL DEFAULT 14 _ZN7android8EventHub20req
359:   FUNC GLOBAL DEFAULT 14 _ZN7android11InputDevice2
360:   FUNC GLOBAL DEFAULT 14 _ZN7android11InputMapper1
361:   FUNC GLOBAL DEFAULT 14 _ZN7android11InputReader2
362:   FUNC GLOBAL DEFAULT 14 _ZN7android17SwitchInputM
363:   FUNC GLOBAL DEFAULT 14 _ZN7android27MultiTouchMo
364:   FUNC WEAK DEFAULT 14 _ZNK7android12SortedVecto
365:   FUNC GLOBAL DEFAULT 14 _ZN7android16TouchInputMa
366:   FUNC GLOBAL DEFAULT 14 _ZN7android16TouchInputMa
367:   FUNC GLOBAL DEFAULT 14 _ZN7android19JoystickInpu
368:   FUNC GLOBAL DEFAULT 14 _ZN7android23CursorScroll
369:   FUNC GLOBAL DEFAULT 14 _ZN7android8EventHub18dev
370:   FUNC GLOBAL DEFAULT 14 _ZN7android8EventHub21ope
371:   FUNC GLOBAL DEFAULT 14 _ZN7android11InputReader2
372:   FUNC GLOBAL DEFAULT 14 _ZN7android17CookedPointe
373:   FUNC GLOBAL DEFAULT 14 _ZN7android19JoystickInpu
374:   FUNC GLOBAL DEFAULT 14 _ZN7android19KeyboardInpu
375:   FUNC GLOBAL DEFAULT 14 _ZN7android22SingleTouchI
376:   FUNC GLOBAL DEFAULT 14 _ZN7android8EventHub22isE
377:   FUNC GLOBAL DEFAULT 14 _ZN7android11InputDeviceD
378:   FUNC GLOBAL DEFAULT 14 _ZN7android11InputReader1
379:   FUNC GLOBAL DEFAULT 14 _ZN7android8EventHub13dis
380:   FUNC GLOBAL DEFAULT 14 _ZNK7android8EventHub19ge
381:   FUNC GLOBAL DEFAULT 14 _ZN7android11InputMapper1
382:   FUNC GLOBAL DEFAULT 14 _ZN7android11InputMapper2
383:   FUNC GLOBAL DEFAULT 14 _ZN7android19VibratorInpu
384:   FUNC WEAK DEFAULT 14 _ZNK7android12SortedVecto
385:   FUNC WEAK DEFAULT 14 _ZNK7android12SortedVecto
386:   FUNC GLOBAL DEFAULT 14 _ZNK7android8EventHub15ha
387:   FUNC GLOBAL DEFAULT 14 _ZNK7android8EventHub21ma
388:   FUNC GLOBAL DEFAULT 14 _ZN7android11InputDevice2
389:   FUNC GLOBAL DEFAULT 14 _ZN7android11InputReader1
390:   FUNC GLOBAL DEFAULT 14 _ZN7android19KeyboardInpu
391:   FUNC GLOBAL DEFAULT 14 _ZN7android22SingleTouchI
392:   FUNC GLOBAL DEFAULT 14 _ZN7android22TouchButtonA
393:   FUNC GLOBAL DEFAULT 14 _ZN7android22TouchButtonA
394:   FUNC GLOBAL DEFAULT 14 _ZN7android8EventHubC2Ev
395:   FUNC GLOBAL DEFAULT 14 _ZN7android16TouchInputMa
396:   FUNC GLOBAL DEFAULT 14 _ZN7android22SingleTouchI
397:   FUNC GLOBAL DEFAULT 14 _ZN7android11InputDevice1
398:   FUNC GLOBAL DEFAULT 14 _ZN7android11InputReader1
399:   FUNC GLOBAL DEFAULT 14 _ZN7android19JoystickInpu
400:   FUNC GLOBAL DEFAULT 14 _ZN7android19VibratorInpu
401:   FUNC GLOBAL DEFAULT 14 _ZN7android24RotaryEncode
402:   FUNC GLOBAL DEFAULT 14 _ZNK7android27MultiTouchM
403:   FUNC WEAK DEFAULT 14 _ZNSt3__16vectorIPN7andro
404:   FUNC WEAK DEFAULT 14 _ZNK7android12SortedVecto
405:   FUNC GLOBAL DEFAULT 14 _ZNK7android8EventHub11ha
406:   FUNC GLOBAL DEFAULT 14 _ZN7android16TouchInputMa
407:   FUNC GLOBAL DEFAULT 14 _ZN7android16TouchInputMa
408:   FUNC GLOBAL DEFAULT 14 _ZN7android17CursorInputM
409:   FUNC GLOBAL DEFAULT 14 _ZN7android27MultiTouchMo
410:   FUNC GLOBAL DEFAULT 14 _ZN7android16TouchInputMa
411:   FUNC GLOBAL DEFAULT 14 _ZN7android16TouchInputMa
412:   FUNC GLOBAL DEFAULT 14 _ZN7android19KeyboardInpu
413:   FUNC GLOBAL DEFAULT 14 _ZN7android8EventHub16ope
414:   FUNC GLOBAL DEFAULT 14 _ZN7android11InputReader1
415:   FUNC GLOBAL DEFAULT 14 _ZN7android17SwitchInputM
416:   FUNC GLOBAL DEFAULT 14 _ZN7android21MultiTouchIn
417:   FUNC GLOBAL DEFAULT 14 _ZN7android22SingleTouchI
418:   FUNC GLOBAL DEFAULT 14 _ZN7android22TouchButtonA
419:   FUNC GLOBAL DEFAULT 14 _ZN7android23CursorScroll
420:   FUNC GLOBAL DEFAULT 14 _ZN7android23CursorScroll
421:   FUNC GLOBAL DEFAULT 14 _ZNK7android23CursorButto
422:   FUNC GLOBAL DEFAULT 14 _ZN7android8EventHub11set
423:   FUNC GLOBAL DEFAULT 14 _ZN7android11InputDevice1
424:   FUNC GLOBAL DEFAULT 14 _ZN7android16TouchInputMa
425:   FUNC GLOBAL DEFAULT 14 _ZN7android17SwitchInputM
426:   FUNC GLOBAL DEFAULT 14 _ZN7android16TouchInputMa
427:   FUNC GLOBAL DEFAULT 14 _ZN7android8EventHub17sca
428:   OBJECT WEAK DEFAULT 18 _ZTVN7android12SortedVect
429:   FUNC GLOBAL DEFAULT 14 _ZN7android16TouchInputMa
430:   FUNC GLOBAL DEFAULT 14 _ZN7android16TouchInputMa
431:   FUNC WEAK DEFAULT 14 _ZNK7android12SortedVecto
432:   FUNC GLOBAL DEFAULT 14 _ZN7android8EventHubD1Ev
433:   FUNC GLOBAL DEFAULT 14 _ZN7android11InputReader1
434:   FUNC GLOBAL DEFAULT 14 _ZN7android11InputReaderC
435:   FUNC GLOBAL DEFAULT 14 _ZN7android17CursorInputM
436:   FUNC GLOBAL DEFAULT 14 _ZN7android11InputMapperC
437:   FUNC GLOBAL DEFAULT 14 _ZN7android17CursorInputM
438:   FUNC GLOBAL DEFAULT 14 _ZN7android24RotaryEncode
439:   FUNC GLOBAL DEFAULT 14 _ZN7android8EventHub23clo
440:   FUNC WEAK DEFAULT 14 _ZNK7android12SortedVecto
441:   FUNC GLOBAL DEFAULT 14 _ZNK7android8EventHub27ge
442:   FUNC GLOBAL DEFAULT 14 _ZN7android19KeyboardInpu
443:   OBJECT GLOBAL DEFAULT 18 _ZTVN7android19VibratorIn
444:   FUNC GLOBAL DEFAULT 14 _ZN7android27MultiTouchMo
445:   FUNC WEAK DEFAULT 14 _ZNK7android12SortedVecto
446:   FUNC WEAK DEFAULT 14 _ZNK7android12SortedVecto
447:   FUNC WEAK DEFAULT 14 _ZNSt3__16vectorINS_10uni
448:   FUNC GLOBAL DEFAULT 14 _ZN7android23CursorScroll
449:   FUNC GLOBAL DEFAULT 14 _ZN7android24RotaryEncode
450:   FUNC GLOBAL DEFAULT 14 _ZN7android8EventHub33reg
451:   FUNC GLOBAL DEFAULT 14 _ZN7android11InputReaderC
452:   FUNC GLOBAL DEFAULT 14 _ZN7android16TouchInputMa
453:   FUNC GLOBAL DEFAULT 14 _ZN7android19VibratorInpu
454:   FUNC GLOBAL DEFAULT 14 _ZN7android22SingleTouchI
455:   FUNC GLOBAL DEFAULT 14 _ZN7android28SingleTouchM
456:   FUNC GLOBAL DEFAULT 14 _ZN7android11InputDeviceD
457:   FUNC GLOBAL DEFAULT 14 _ZN7android19KeyboardInpu
458:   FUNC WEAK DEFAULT 14 _ZNK7android12SortedVecto
459:   OBJECT GLOBAL DEFAULT 18 _ZTVN7android19JoystickIn
460:   FUNC GLOBAL DEFAULT 14 _ZNK7android8EventHub16ge
461:   FUNC GLOBAL DEFAULT 14 _ZN7android11InputMapper1
462:   FUNC GLOBAL DEFAULT 14 _ZN7android16TouchInputMa
463:   FUNC GLOBAL DEFAULT 14 _ZN7android17CursorInputM
464:   FUNC GLOBAL DEFAULT 14 _ZN7android22TouchButtonA
465:   FUNC WEAK DEFAULT 14 _ZNSt3__16vectorIN7androi
466:   FUNC GLOBAL DEFAULT 14 _ZN7android11InputMapper1
467:   FUNC GLOBAL DEFAULT 14 _ZN7android17CursorInputM
468:   FUNC GLOBAL DEFAULT 14 _ZN7android11InputReader1
469:   FUNC GLOBAL DEFAULT 14 _ZN7android11InputReader2
470:   FUNC GLOBAL DEFAULT 14 _ZN7android16TouchInputMa
471:   FUNC GLOBAL DEFAULT 14 _ZN7android19VibratorInpu
472:   FUNC WEAK DEFAULT 14 _ZNK7android12SortedVecto
473:   FUNC GLOBAL DEFAULT 14 _ZN7android16TouchVideoDe
474:   FUNC GLOBAL DEFAULT 14 _ZN7android11InputMapper1
475:   FUNC GLOBAL DEFAULT 14 _ZN7android19VibratorInpu
476:   FUNC GLOBAL DEFAULT 14 _ZN7android27MultiTouchMo
477:   FUNC WEAK DEFAULT 14 _ZNK7android12SortedVecto
478:   FUNC GLOBAL DEFAULT 14 _ZN7android11InputMapper1
479:   FUNC GLOBAL DEFAULT 14 _ZN7android19KeyboardInpu
480:   FUNC GLOBAL DEFAULT 14 _ZN7android21MultiTouchIn
481:   FUNC GLOBAL DEFAULT 14 _ZN7android11InputReader1
482:   FUNC GLOBAL DEFAULT 14 _ZN7android17CursorInputM
483:   FUNC GLOBAL DEFAULT 14 _ZN7android19KeyboardInpu
484:   FUNC GLOBAL DEFAULT 14 _ZNK7android8EventHub15ge
485:   FUNC GLOBAL DEFAULT 14 _ZN7android17SwitchInputM
486:   FUNC GLOBAL DEFAULT 14 _ZN7android19KeyboardInpu
487:   FUNC GLOBAL DEFAULT 14 _ZN7android22TouchButtonA
488:   FUNC GLOBAL DEFAULT 14 _ZN7android27MultiTouchMo
489:   FUNC GLOBAL DEFAULT 14 _ZN7android8EventHub7moni
490:   FUNC GLOBAL DEFAULT 14 _ZNK7android8EventHub16ha
491:   FUNC GLOBAL DEFAULT 14 _ZN7android14RawPointerDa
492:   FUNC GLOBAL DEFAULT 14 _ZN7android17CookedPointe
493:   FUNC GLOBAL DEFAULT 14 _ZN7android8EventHubD2Ev
494:   FUNC GLOBAL DEFAULT 14 _ZN7android11InputMapperD
495:   OBJECT GLOBAL DEFAULT 18 _ZTTN7android11InputReade
496:   FUNC GLOBAL DEFAULT 14 _ZN7android11InputMapper1
497:   FUNC GLOBAL DEFAULT 14 _ZN7android11InputReader1
498:   FUNC GLOBAL DEFAULT 14 _ZN7android24RotaryEncode
499:   FUNC WEAK DEFAULT 14 _ZNSt3__16vectorIN7androi
500:   FUNC GLOBAL DEFAULT 14 _ZN7android11InputDevice1
501:   FUNC GLOBAL DEFAULT 14 _ZN7android11InputReader1
502:   FUNC GLOBAL DEFAULT 14 _ZN7android16TouchInputMa
503:   FUNC GLOBAL DEFAULT 14 _ZN7android8EventHub17set
504:   FUNC WEAK DEFAULT 14 _ZNK7android12SortedVecto
505:   FUNC GLOBAL DEFAULT 14 _ZN7android11InputMapper4
506:   FUNC GLOBAL DEFAULT 14 _ZN7android11InputReader1
507:   FUNC GLOBAL DEFAULT 14 _ZN7android16TouchInputMa
508:   FUNC GLOBAL DEFAULT 14 _ZN7android23CursorScroll
509:   FUNC GLOBAL DEFAULT 14 _ZN7android24RotaryEncode
510:   FUNC GLOBAL DEFAULT 14 _ZN7android8EventHub17clo
511:   FUNC GLOBAL DEFAULT 14 _ZN7android19VibratorInpu
512:   FUNC GLOBAL DEFAULT 14 _ZN7android22SingleTouchI
513:   FUNC GLOBAL DEFAULT 14 _ZN7android27MultiTouchMo
514:   FUNC GLOBAL DEFAULT 14 _ZN7android17CursorInputM
515:   FUNC GLOBAL DEFAULT 14 _ZNK7android8EventHub16ge
516:   OBJECT GLOBAL DEFAULT 18 _ZTVN7android19KeyboardIn
517:   FUNC GLOBAL DEFAULT 14 _ZN7android8EventHub13can
518:   FUNC GLOBAL DEFAULT 14 _ZN7android16TouchInputMa
519:   FUNC GLOBAL DEFAULT 14 _ZN7android19KeyboardInpu
520:   FUNC GLOBAL DEFAULT 14 _ZN7android19KeyboardInpu
521:   FUNC GLOBAL DEFAULT 14 _ZN7android11InputReader3
522:   FUNC GLOBAL DEFAULT 14 _ZN7android19JoystickInpu
523:   FUNC GLOBAL DEFAULT 14 _ZN7android8EventHub15add
524:   FUNC GLOBAL DEFAULT 14 _ZN7android23CursorMotion
525:   FUNC WEAK DEFAULT 14 _ZNK7android12SortedVecto
526:   FUNC GLOBAL DEFAULT 14 _ZN7android16TouchInputMa
527:   FUNC GLOBAL DEFAULT 14 _ZN7android19VibratorInpu
528:   FUNC GLOBAL DEFAULT 14 _ZN7android19VibratorInpu
529:   OBJECT GLOBAL DEFAULT 18 _ZTVN7android24RotaryEnco
530:   FUNC GLOBAL DEFAULT 14 _ZN7android8EventHub18reg
531:   OBJECT GLOBAL DEFAULT 18 _ZTTN7android8EventHubE
532:   FUNC GLOBAL DEFAULT 14 _ZN7android16TouchInputMa
533:   FUNC GLOBAL DEFAULT 14 _ZN7android16TouchInputMa
534:   FUNC GLOBAL DEFAULT 14 _ZN7android16TouchInputMa
535:   FUNC GLOBAL DEFAULT 14 _ZN7android17CursorInputM
536:   FUNC GLOBAL DEFAULT 14 _ZN7android8EventHub16loa
537:   OBJECT GLOBAL DEFAULT 18 _ZTCN7android8EventHubE0_
538:   FUNC GLOBAL DEFAULT 14 _ZN7android11InputMapper1
539:   FUNC GLOBAL DEFAULT 14 _ZN7android11InputReader1
540:   FUNC GLOBAL DEFAULT 14 _ZN7android11InputReader1
541:   FUNC GLOBAL DEFAULT 14 _ZN7android17SwitchInputM
542:   FUNC GLOBAL DEFAULT 14 _ZN7android19JoystickInpu
543:   FUNC GLOBAL DEFAULT 14 _ZN7android21MultiTouchIn
544:   FUNC GLOBAL DEFAULT 14 _ZN7android24RotaryEncode
545:   FUNC GLOBAL DEFAULT 14 _ZN7android8EventHub13sca
546:   FUNC WEAK DEFAULT 14 _ZNK7android12SortedVecto
547:   FUNC GLOBAL DEFAULT 14 _ZN7android16TouchInputMa
548:   FUNC GLOBAL DEFAULT 14 _ZN7android17CursorInputM
549:   FUNC GLOBAL DEFAULT 14 _ZN7android17SwitchInputM
550:   FUNC GLOBAL DEFAULT 14 _ZNK7android22TouchButton
551:   FUNC GLOBAL DEFAULT 14 _ZN7android16TouchVideoDe
552:   FUNC GLOBAL DEFAULT 14 _ZN7android17CookedPointe
553:   FUNC GLOBAL DEFAULT 14 _ZN7android23CursorScroll
554:   FUNC GLOBAL DEFAULT 14 _ZN7android11InputMapperD
555:   FUNC GLOBAL DEFAULT 14 _ZN7android24RotaryEncode
556:   FUNC GLOBAL DEFAULT 14 _ZN7android8EventHub6Devi
557:   FUNC GLOBAL DEFAULT 14 _ZN7android16TouchInputMa
558:   FUNC GLOBAL DEFAULT 14 _ZN7android16TouchInputMa
559:   FUNC GLOBAL DEFAULT 14 _ZN7android11InputReader1
560:   FUNC GLOBAL DEFAULT 14 _ZN7android11InputReader1
561:   FUNC GLOBAL DEFAULT 14 _ZN7android17CursorInputM
562:   FUNC GLOBAL DEFAULT 14 _ZN7android19KeyboardInpu
563:   OBJECT GLOBAL DEFAULT 18 _ZTVN7android17SwitchInpu
564:   FUNC GLOBAL DEFAULT 14 _ZN7android17createInputR
565:   FUNC GLOBAL DEFAULT 14 _ZN7android16TouchVideoDe
566:   FUNC GLOBAL DEFAULT 14 _ZN7android8EventHub31unr
567:   FUNC GLOBAL DEFAULT 14 _ZN7android8EventHub6Devi
568:   FUNC GLOBAL DEFAULT 14 _ZN7android28SingleTouchM
569:   FUNC GLOBAL DEFAULT 14 _ZN7android11InputReader1
570:   FUNC GLOBAL DEFAULT 14 _ZN7android19JoystickInpu
571:   FUNC GLOBAL DEFAULT 14 _ZN7android19JoystickInpu
572:   FUNC GLOBAL DEFAULT 14 _ZN7android27MultiTouchMo
573:   FUNC GLOBAL DEFAULT 14 _ZN7android16TouchVideoDe
574:   FUNC GLOBAL DEFAULT 14 _ZN7android11InputReader1
575:   OBJECT GLOBAL DEFAULT 18 _ZTVN7android21MultiTouch
576:   FUNC GLOBAL DEFAULT 14 _ZN7android11InputDevice7
577:   FUNC GLOBAL DEFAULT 14 _ZN7android19JoystickInpu
578:   FUNC WEAK DEFAULT 14 _ZNK7android12SortedVecto
579:   FUNC WEAK DEFAULT 14 _ZNSt3__16vectorIN7androi
580:   FUNC GLOBAL DEFAULT 14 _ZN7android8EventHub27cre
581:   FUNC WEAK DEFAULT 14 _ZNSt3__16vectorIN7androi
582:   FUNC GLOBAL DEFAULT 14 _ZN7android11InputDevice1
583:   FUNC GLOBAL DEFAULT 14 _ZN7android11InputDevice1
584:   FUNC GLOBAL DEFAULT 14 _ZN7android11InputReader2
585:   FUNC GLOBAL DEFAULT 14 _ZN7android23CursorButton
586:   FUNC GLOBAL DEFAULT 14 _ZN7android23CursorMotion
587:   FUNC GLOBAL DEFAULT 14 _ZN7android16TouchVideoDe
588:   FUNC GLOBAL DEFAULT 14 _ZN7android11InputReader2
589:   FUNC GLOBAL DEFAULT 14 _ZN7android16TouchInputMa
590:   FUNC GLOBAL DEFAULT 14 _ZN7android16TouchInputMa
591:   FUNC WEAK DEFAULT 14 _ZNK7android12SortedVecto
592:   FUNC WEAK DEFAULT 14 _ZNK7android12SortedVecto
593:   FUNC GLOBAL DEFAULT 14 _ZN7android16TouchInputMa
594:   FUNC GLOBAL DEFAULT 14 _ZN7android16TouchInputMa
595:   FUNC GLOBAL DEFAULT 14 _ZNK7android8EventHub21ge
596:   FUNC GLOBAL DEFAULT 14 _ZN7android16TouchInputMa
597:   FUNC GLOBAL DEFAULT 14 _ZN7android16TouchInputMa
598:   FUNC GLOBAL DEFAULT 14 _ZN7android8EventHub14get
599:   FUNC GLOBAL DEFAULT 14 _ZNK7android16TouchInputM
600:   OBJECT WEAK DEFAULT 18 _ZTVN7android12SortedVect
601:   FUNC GLOBAL DEFAULT 14 _ZN7android17SwitchInputM
602:   FUNC GLOBAL DEFAULT 14 _ZN7android19JoystickInpu
603:   FUNC GLOBAL DEFAULT 14 _ZN7android14RawPointerDa
604:   FUNC GLOBAL DEFAULT 14 _ZN7android16TouchInputMa
605:   FUNC GLOBAL DEFAULT 14 _ZN7android16TouchInputMa
606:   OBJECT GLOBAL DEFAULT 18 _ZTVN7android8EventHubE
607:   FUNC GLOBAL DEFAULT 14 _ZN7android11InputMapperD
608:   FUNC WEAK DEFAULT 14 _ZNK7android12SortedVecto
609:   FUNC WEAK DEFAULT 14 _ZNK7android12SortedVecto
610:   FUNC GLOBAL DEFAULT 14 _ZN7android8EventHub6Devi
611:   FUNC GLOBAL DEFAULT 14 _ZNK7android8EventHub18ge
612:   FUNC GLOBAL DEFAULT 14 _ZN7android16TouchInputMa
613:   FUNC GLOBAL DEFAULT 14 _ZN7android11InputReader2
614:   FUNC GLOBAL DEFAULT 14 _ZN7android16TouchInputMa
615:   FUNC WEAK DEFAULT 14 _ZNK7android12SortedVecto
616:   FUNC WEAK DEFAULT 14 _ZNSt3__16vectorIN7androi
617:   FUNC WEAK DEFAULT 14 _ZNSt3__16vectorIN7androi
618:   FUNC GLOBAL DEFAULT 14 _ZN7android8EventHub6Devi
619:   FUNC GLOBAL DEFAULT 14 _ZN7android11InputDevice1
620:   FUNC GLOBAL DEFAULT 14 _ZN7android11InputDevice5
621:   FUNC GLOBAL DEFAULT 14 _ZN7android24RotaryEncode
622:   FUNC GLOBAL DEFAULT 14 _ZN7android11InputDevice1
623:   FUNC GLOBAL DEFAULT 14 _ZN7android11InputReader2
624:   FUNC GLOBAL DEFAULT 14 _ZN7android16TouchInputMa
625:   FUNC GLOBAL DEFAULT 14 _ZN7android19JoystickInpu
626:   FUNC GLOBAL DEFAULT 14 _ZNK7android22SingleTouch
627:   FUNC GLOBAL DEFAULT 14 _ZN7android16TouchInputMa
628:   FUNC GLOBAL DEFAULT 14 _ZN7android24RotaryEncode
629:   OBJECT GLOBAL DEFAULT 18 _ZTVN7android16TouchInput
630:   FUNC GLOBAL DEFAULT 14 _ZNK7android8EventHub19ge
631:   FUNC GLOBAL DEFAULT 14 _ZN7android11InputReader2
632:   OBJECT GLOBAL DEFAULT 11 _ZN7android8EventHub16EPO
633:   FUNC GLOBAL DEFAULT 14 _ZNK7android8EventHub15ge
634:   FUNC GLOBAL DEFAULT 14 _ZNK7android8EventHub19ge
635:   FUNC GLOBAL DEFAULT 14 _ZN7android16TouchInputMa
636:   FUNC GLOBAL DEFAULT 14 _ZN7android19KeyboardInpu
637:   FUNC GLOBAL DEFAULT 14 _ZN7android25ExternalStyl
638:   FUNC GLOBAL DEFAULT 14 _ZNK7android8EventHub20ge
639:   FUNC GLOBAL DEFAULT 14 _ZN7android19JoystickInpu
640:   FUNC GLOBAL DEFAULT 14 _ZN7android19JoystickInpu
641:   FUNC GLOBAL DEFAULT 14 _ZN7android25ExternalStyl
642:   FUNC GLOBAL DEFAULT 14 _ZN7android8EventHub36unr
643:   FUNC GLOBAL DEFAULT 14 _ZNK7android8EventHub14ge
644:   FUNC GLOBAL DEFAULT 14 _ZN7android11InputDevice4
645:   FUNC GLOBAL DEFAULT 14 _ZN7android11InputDevice9
646:   FUNC GLOBAL DEFAULT 14 _ZN7android24RotaryEncode
647:   FUNC GLOBAL DEFAULT 14 _ZN7android8EventHub4dump
648:   FUNC WEAK DEFAULT 14 _ZNSt3__16vectorINS_12bas
649:   FUNC GLOBAL DEFAULT 14 _ZN7android16TouchInputMa
650:   FUNC GLOBAL DEFAULT 14 _ZN7android17CursorInputM
651:   FUNC GLOBAL DEFAULT 14 _ZN7android25ExternalStyl
652:   FUNC GLOBAL DEFAULT 14 _ZN7android8EventHub6Devi
653:   FUNC GLOBAL DEFAULT 14 _ZN7android11InputReader1
654:   FUNC WEAK DEFAULT 14 _ZNK7android12SortedVecto
655:   FUNC GLOBAL DEFAULT 14 _ZN7android11InputReader1
656:   FUNC GLOBAL DEFAULT 14 _ZN7android11InputReader1
657:   FUNC GLOBAL DEFAULT 14 _ZN7android19KeyboardInpu
658:   FUNC GLOBAL DEFAULT 14 _ZN7android23CursorMotion
659:   FUNC GLOBAL DEFAULT 14 _ZN7android25ExternalStyl
660:   FUNC GLOBAL DEFAULT 14 _ZNK7android22TouchButton
661:   FUNC GLOBAL DEFAULT 14 _ZN7android11InputDevice2
662:   FUNC GLOBAL DEFAULT 14 _ZN7android11InputReader1
663:   FUNC GLOBAL DEFAULT 14 _ZN7android11InputReader2
664:   FUNC GLOBAL DEFAULT 14 _ZN7android16TouchInputMa
665:   FUNC WEAK DEFAULT 14 _ZNKSt3__112__hash_tableI
666:   FUNC GLOBAL DEFAULT 14 _ZN7android15getAbsAxisUs
667:   FUNC GLOBAL DEFAULT 14 _ZTv0_n24_N7android8Event
668:   FUNC GLOBAL DEFAULT 14 _ZN7android11InputMapper1
669:   FUNC GLOBAL DEFAULT 14 _ZN7android11InputReader1
670:   FUNC GLOBAL DEFAULT 14 _ZN7android11InputReaderD
671:   FUNC GLOBAL DEFAULT 14 _ZN7android16TouchVideoDe
672:   FUNC GLOBAL DEFAULT 14 _ZN7android19JoystickInpu
673:   FUNC GLOBAL DEFAULT 14 _ZN7android19KeyboardInpu
674:   FUNC GLOBAL DEFAULT 14 _ZN7android19VibratorInpu
675:   FUNC GLOBAL DEFAULT 14 _ZN7android25ExternalStyl
676:   FUNC GLOBAL DEFAULT 14 _ZN7android8EventHub15isD
677:   FUNC GLOBAL DEFAULT 14 _ZN7android8EventHub6Devi
678:   FUNC GLOBAL DEFAULT 14 _ZN7android11InputDeviceC
679:   FUNC GLOBAL DEFAULT 14 _ZN7android11InputMapper5
680:   FUNC GLOBAL DEFAULT 14 _ZN7android11InputReader1
681:   FUNC GLOBAL DEFAULT 14 _ZN7android11InputReader2
682:   FUNC GLOBAL DEFAULT 14 _ZN7android11InputReader2
683:   FUNC GLOBAL DEFAULT 14 _ZN7android16TouchInputMa
684:   FUNC GLOBAL DEFAULT 14 _ZN7android17CursorInputM
685:   FUNC GLOBAL DEFAULT 14 _ZN7android17CursorInputM
686:   FUNC GLOBAL DEFAULT 14 _ZNK7android16TouchInputM
687:   FUNC GLOBAL DEFAULT 14 _ZN7android11InputMapper9
688:   FUNC GLOBAL DEFAULT 14 _ZN7android16TouchInputMa
689:   FUNC GLOBAL DEFAULT 14 _ZN7android21MultiTouchIn
690:   FUNC GLOBAL DEFAULT 14 _ZNK7android14RawPointerD
691:   FUNC GLOBAL DEFAULT 14 _ZN7android11InputReader2
692:   FUNC GLOBAL DEFAULT 14 _ZN7android16TouchInputMa
693:   FUNC GLOBAL DEFAULT 14 _ZN7android24RotaryEncode
694:   FUNC GLOBAL DEFAULT 14 _ZN7android27MultiTouchMo
695:   FUNC GLOBAL DEFAULT 14 _ZN7android11InputReader1
696:   FUNC GLOBAL DEFAULT 14 _ZN7android17SwitchInputM
697:   FUNC GLOBAL DEFAULT 14 _ZN7android19JoystickInpu
698:   FUNC GLOBAL DEFAULT 14 _ZN7android8EventHub6Devi
699:   FUNC GLOBAL DEFAULT 14 _ZN7android11InputDevice1
700:   FUNC GLOBAL DEFAULT 14 _ZN7android11InputDevice8
701:   FUNC GLOBAL DEFAULT 14 _ZN7android11InputMapper1
702:   FUNC GLOBAL DEFAULT 14 _ZN7android11InputReader8
