 0x0000000e (SONAME)                     Library soname: [libart-dexlayout.so]
  
Symbol   contains 357 entries:
Num:   Type Bind Vis Ndx Name
0:   NOTYPE LOCAL DEFAULT UND
1:   FUNC GLOBAL DEFAULT UND __cxa_atexit@LIBC (2)
2:   FUNC GLOBAL DEFAULT UND __cxa_finalize@LIBC (2)
3:   FUNC GLOBAL DEFAULT UND _ZN7android4base10LogMess
4:   FUNC GLOBAL DEFAULT UND _ZN7android4base10LogMess
5:   FUNC GLOBAL DEFAULT UND _ZN7android4base10LogMess
6:   FUNC GLOBAL DEFAULT UND _ZNSt3__113basic_ostreamI
7:   FUNC GLOBAL DEFAULT UND _ZN3art18CompactOffsetTab
8:   FUNC GLOBAL DEFAULT UND _ZN3art8NanoTimeEv
9:   FUNC GLOBAL DEFAULT UND _ZN3art18CompactOffsetTab
10:   FUNC GLOBAL DEFAULT UND _ZNK3art18CompactOffsetTa
11:   FUNC GLOBAL DEFAULT UND _ZN7android4base21GetMini
12:   FUNC GLOBAL DEFAULT UND _ZNSt3__113basic_ostreamI
13:   FUNC GLOBAL DEFAULT UND _ZN3art14CompactDexFile10
14:   FUNC GLOBAL DEFAULT UND _ZN3art14CompactDexFile19
15:   FUNC GLOBAL DEFAULT UND _ZN3art22CountModifiedUtf
16:   FUNC GLOBAL DEFAULT UND _ZN7android4base12StringP
17:   FUNC GLOBAL DEFAULT UND _ZN3art14CompactDexFile17
18:   FUNC GLOBAL DEFAULT UND _Znwj
19:   FUNC GLOBAL DEFAULT UND _ZdlPv
20:   FUNC GLOBAL DEFAULT UND _ZNKSt3__120__vector_base
21:   FUNC GLOBAL DEFAULT UND abort@LIBC (2)
22:   FUNC GLOBAL DEFAULT UND __errno@LIBC (2)
23:   FUNC GLOBAL DEFAULT UND _ZNK3art11Instruction39Co
24:   FUNC GLOBAL DEFAULT UND _ZNK3art11Instruction28Si
25:   FUNC GLOBAL DEFAULT UND strlen@LIBC (2)
26:   FUNC GLOBAL DEFAULT UND _ZNSt3__113basic_ostreamI
27:   FUNC GLOBAL DEFAULT UND _ZNSt3__113basic_ostreamI
28:   FUNC GLOBAL DEFAULT UND _ZNKSt3__18ios_base6getlo
29:   FUNC GLOBAL DEFAULT UND _ZNSt3__16localeD1Ev
30:   FUNC GLOBAL DEFAULT UND _ZNKSt3__16locale9use_fac
31:   FUNC GLOBAL DEFAULT UND _ZNSt3__18ios_base5clearE
32:   FUNC GLOBAL DEFAULT UND _ZNSt3__112__next_primeEj
33:   OBJECT GLOBAL DEFAULT UND _ZN3art13gLogVerbosityE
34:   OBJECT GLOBAL DEFAULT UND _ZN3art11Instruction23kIn
35:   OBJECT GLOBAL DEFAULT UND _ZNSt3__15ctypeIcE2idE
36:   FUNC GLOBAL DEFAULT UND fputs@LIBC (2)
37:   FUNC GLOBAL DEFAULT UND fputc@LIBC (2)
38:   FUNC GLOBAL DEFAULT UND fprintf@LIBC (2)
39:   FUNC GLOBAL DEFAULT UND _ZN3art15DescriptorToDotE
40:   FUNC GLOBAL DEFAULT UND strdup@LIBC (2)
41:   FUNC GLOBAL DEFAULT UND malloc@LIBC (2)
42:   FUNC GLOBAL DEFAULT UND free@LIBC (2)
43:   FUNC GLOBAL DEFAULT UND strcmp@LIBC (2)
44:   FUNC GLOBAL DEFAULT UND _ZNK3art22ProfileCompilat
45:   FUNC GLOBAL DEFAULT UND _ZNK3art22ProfileCompilat
46:   FUNC GLOBAL DEFAULT UND _ZNKSt3__112basic_stringI
47:   FUNC GLOBAL DEFAULT UND _ZN3art2OS15CreateEmptyFi
48:   FUNC GLOBAL DEFAULT UND _ZN9unix_file6FdFile10Wri
49:   FUNC GLOBAL DEFAULT UND _ZN9unix_file6FdFile5Eras
50:   FUNC GLOBAL DEFAULT UND _ZN9unix_file6FdFile17Flu
51:   FUNC GLOBAL DEFAULT UND _ZNK3art13DexFileLoader19
52:   FUNC GLOBAL DEFAULT UND _ZNK3art16ArtDexFileLoade
53:   FUNC GLOBAL DEFAULT UND putc@LIBC (2)
54:   FUNC GLOBAL DEFAULT UND _Znaj
55:   FUNC GLOBAL DEFAULT UND exit@LIBC (2)
56:   FUNC GLOBAL DEFAULT UND __vsnprintf_chk@LIBC (2)
57:   FUNC GLOBAL DEFAULT UND toupper@LIBC (2)
58:   FUNC GLOBAL DEFAULT UND _ZNSt3__114basic_iostream
59:   FUNC GLOBAL DEFAULT UND _ZNSt3__114basic_iostream
60:   FUNC GLOBAL DEFAULT UND _ZThn8_NSt3__114basic_ios
61:   FUNC GLOBAL DEFAULT UND _ZThn8_NSt3__114basic_ios
62:   FUNC GLOBAL DEFAULT UND _ZTv0_n12_NSt3__114basic_
63:   FUNC GLOBAL DEFAULT UND _ZTv0_n12_NSt3__114basic_
64:   FUNC GLOBAL DEFAULT UND _ZNSt3__113basic_istreamI
65:   FUNC GLOBAL DEFAULT UND _ZNSt3__113basic_istreamI
66:   FUNC GLOBAL DEFAULT UND _ZTv0_n12_NSt3__113basic_
67:   FUNC GLOBAL DEFAULT UND _ZTv0_n12_NSt3__113basic_
68:   FUNC GLOBAL DEFAULT UND _ZNSt3__113basic_ostreamI
69:   FUNC GLOBAL DEFAULT UND _ZNSt3__113basic_ostreamI
70:   FUNC GLOBAL DEFAULT UND _ZTv0_n12_NSt3__113basic_
71:   FUNC GLOBAL DEFAULT UND _ZTv0_n12_NSt3__113basic_
72:   FUNC GLOBAL DEFAULT UND _ZNSt3__18ios_base4initEP
73:   FUNC GLOBAL DEFAULT UND _ZNSt3__115basic_streambu
74:   FUNC GLOBAL DEFAULT UND _ZNSt3__115basic_streambu
75:   FUNC GLOBAL DEFAULT UND _ZNSt3__115basic_streambu
76:   FUNC GLOBAL DEFAULT UND _ZNSt3__115basic_streambu
77:   FUNC GLOBAL DEFAULT UND _ZNSt3__115basic_streambu
78:   FUNC GLOBAL DEFAULT UND _ZNSt3__115basic_streambu
79:   FUNC GLOBAL DEFAULT UND _ZNSt3__115basic_streambu
80:   FUNC GLOBAL DEFAULT UND _ZNSt3__115basic_streambu
81:   FUNC GLOBAL DEFAULT UND _ZNSt3__115basic_streambu
82:   FUNC GLOBAL DEFAULT UND _ZNSt3__112basic_stringIc
83:   FUNC GLOBAL DEFAULT UND _ZNSt3__112basic_stringIc
84:   FUNC GLOBAL DEFAULT UND _ZNKSt3__121__basic_strin
85:   FUNC GLOBAL DEFAULT UND _ZNSt3__19basic_iosIcNS_1
86:   FUNC GLOBAL DEFAULT UND _ZNSt3__114basic_iostream
87:   FUNC GLOBAL DEFAULT UND strrchr@LIBC (2)
88:   FUNC GLOBAL DEFAULT UND __strchr_chk@LIBC (2)
89:   FUNC GLOBAL DEFAULT UND _ZNSt3__112basic_stringIc
90:   FUNC GLOBAL DEFAULT UND memcmp@LIBC (2)
91:   FUNC GLOBAL DEFAULT UND _ZNSt3__112basic_stringIc
92:   FUNC GLOBAL DEFAULT UND _ZdaPv
93:   FUNC GLOBAL DEFAULT UND _ZNSt3__113basic_ostreamI
94:   FUNC GLOBAL DEFAULT UND _ZnwjRKSt9nothrow_t
95:   FUNC GLOBAL DEFAULT UND _ZNSt3__112basic_stringIc
96:   FUNC GLOBAL DEFAULT UND _ZNSt3__112basic_stringIc
97:   FUNC GLOBAL DEFAULT UND fwrite@LIBC (2)
98:   OBJECT GLOBAL DEFAULT UND _ZN3art11Instruction17kIn
99:   OBJECT GLOBAL DEFAULT UND _ZTVN3art16ArtDexFileLoad
100:   OBJECT GLOBAL DEFAULT UND _ZSt7nothrow
101:   FUNC GLOBAL DEFAULT UND _ZNSt3__112basic_stringIc
102:   FUNC GLOBAL DEFAULT UND _ZN3art20CatchHandlerIter
103:   FUNC GLOBAL DEFAULT UND _ZN3art20CatchHandlerIter
104:   FUNC GLOBAL DEFAULT UND _ZNSt3__113basic_ostreamI
105:   FUNC GLOBAL DEFAULT UND _ZNSt3__112basic_stringIc
106:   FUNC GLOBAL DEFAULT UND fopen@LIBC (2)
107:   FUNC GLOBAL DEFAULT UND _ZNSt3__19to_stringEj
108:   FUNC GLOBAL DEFAULT UND _ZNSt3__112basic_stringIc
109:   FUNC GLOBAL DEFAULT UND fclose@LIBC (2)
110:   OBJECT GLOBAL DEFAULT UND stdout@LIBC (2)
111:   FUNC GLOBAL DEFAULT UND _ZN3art14CompactDexFile12
112:   FUNC GLOBAL DEFAULT UND _ZN3art15StandardDexFile1
113:   FUNC GLOBAL DEFAULT UND _ZN3art15StandardDexFile1
114:   FUNC GLOBAL DEFAULT UND _ZN3art7DexFile17Calculat
115:   FUNC GLOBAL DEFAULT UND __aeabi_memcpy
116:   FUNC GLOBAL DEFAULT UND __aeabi_memcpy8
117:   FUNC GLOBAL DEFAULT UND __aeabi_memclr
118:   FUNC GLOBAL DEFAULT UND __aeabi_memclr4
119:   FUNC GLOBAL DEFAULT UND __aeabi_memclr8
120:   FUNC GLOBAL DEFAULT UND __aeabi_memset
121:   FUNC GLOBAL DEFAULT UND __aeabi_uldivmod
122:   OBJECT GLOBAL DEFAULT UND __stack_chk_guard@LIBC (2)
123:   FUNC GLOBAL DEFAULT UND __stack_chk_fail@LIBC (2)
124:   FUNC GLOBAL PROTECTED 14 _ZN3art9DexLayout20DumpCl
125:   FUNC GLOBAL PROTECTED 14 _ZN3art18VerifyEncodedVal
126:   FUNC GLOBAL PROTECTED 14 _ZN3art16CompactDexWriter
127:   OBJECT WEAK PROTECTED 18 _ZTVN3art6dex_ir16Collect
128:   OBJECT WEAK PROTECTED 18 _ZTVN3art6dex_ir18Hiddena
129:   FUNC GLOBAL PROTECTED 14 _ZN3art9DexWriterC2EPNS_9
130:   FUNC GLOBAL PROTECTED 14 _ZN3art6dex_ir11BuilderMa
131:   OBJECT WEAK PROTECTED 18 _ZTVN3art6dex_ir8CodeItem
132:   FUNC GLOBAL PROTECTED 14 _ZN3art9DexWriter13WriteC
133:   FUNC WEAK PROTECTED 14 _ZNSt3__113__fill_n_trueI
134:   OBJECT WEAK PROTECTED 18 _ZTVN3art6dex_ir16Collect
135:   OBJECT WEAK PROTECTED 18 _ZTVN3art6dex_ir13Collect
136:   OBJECT WEAK PROTECTED 18 _ZTVN3art6dex_ir13Collect
137:   FUNC GLOBAL PROTECTED 14 _ZN3art9DexLayout12DumpCl
138:   FUNC GLOBAL PROTECTED 14 _ZN3art6dex_ir11BuilderMa
139:   OBJECT WEAK PROTECTED 18 _ZTVN3art6dex_ir23Indexed
140:   FUNC GLOBAL PROTECTED 14 _ZN3art9DexWriter19WriteE
141:   FUNC GLOBAL PROTECTED 14 _ZN3art16CompactDexWriter
142:   FUNC GLOBAL PROTECTED 14 _ZNK3art16CompactDexWrite
143:   FUNC GLOBAL PROTECTED 14 _ZN3art9DexLayout13DumpIn
144:   FUNC GLOBAL PROTECTED 14 _ZN3art6dex_ir11BuilderMa
145:   FUNC GLOBAL PROTECTED 14 _ZN3art6dex_ir11BuilderMa
146:   FUNC GLOBAL PROTECTED 14 _ZN3art15VerifyClassDataE
147:   OBJECT WEAK DEFAULT 18 _ZTVNSt3__115basic_string
148:   OBJECT WEAK PROTECTED 18 _ZTVN3art6dex_ir23Indexed
149:   OBJECT WEAK PROTECTED 18 _ZTVN3art6dex_ir23Indexed
150:   OBJECT WEAK PROTECTED 18 _ZTVN3art6dex_ir10StringD
151:   FUNC GLOBAL PROTECTED 14 _ZN3art9DexWriter18WriteM
152:   OBJECT WEAK PROTECTED 18 _ZTVN3art6dex_ir16Collect
153:   FUNC GLOBAL PROTECTED 14 _ZN3art12VerifyFieldsEPNS
154:   FUNC GLOBAL PROTECTED 14 _ZN3art9DexWriterC1EPNS_9
155:   OBJECT WEAK PROTECTED 18 _ZTVN3art6dex_ir8StringId
156:   FUNC GLOBAL PROTECTED 14 _ZN3art16CompactDexWriter
157:   FUNC GLOBAL PROTECTED 14 _ZN3art16CompactDexWriter
158:   FUNC GLOBAL PROTECTED 14 _ZN3art9DexLayout16Layout
159:   OBJECT WEAK PROTECTED 18 _ZTVN3art6dex_ir16Collect
160:   OBJECT WEAK PROTECTED 18 _ZTVN3art6dex_ir16Collect
161:   OBJECT WEAK PROTECTED 18 _ZTVN3art6dex_ir10CallSit
162:   FUNC GLOBAL PROTECTED 14 _ZN3art9DexWriter17WriteE
163:   FUNC GLOBAL PROTECTED 14 _ZN3art9DexWriter13Proces
164:   FUNC GLOBAL PROTECTED 14 _ZN3art9DexWriter13WriteF
165:   OBJECT WEAK PROTECTED 18 _ZTVN3art12DexContainer13
166:   FUNC GLOBAL PROTECTED 14 _ZN3art16CompactDexWriter
167:   OBJECT GLOBAL PROTECTED 18 _ZTVN3art16CompactDexWrit
168:   FUNC GLOBAL PROTECTED 14 _ZN3art9DexLayout16Layout
169:   FUNC GLOBAL PROTECTED 14 _ZN3art9DexWriter14WriteS
170:   FUNC GLOBAL PROTECTED 14 _ZN3art9DexWriter14WriteC
171:   FUNC GLOBAL PROTECTED 14 _ZN3art6dex_ir11BuilderMa
172:   OBJECT WEAK PROTECTED 18 _ZTVN3art6dex_ir23Indexed
173:   FUNC GLOBAL PROTECTED 14 _ZN3art9DexLayout27Layout
174:   FUNC GLOBAL PROTECTED 14 _ZN3art6dex_ir11BuilderMa
175:   FUNC GLOBAL PROTECTED 14 _ZN3art14VerifyHandlersEP
176:   FUNC GLOBAL PROTECTED 14 _ZN3art9DexWriter5WriteEP
177:   FUNC GLOBAL PROTECTED 14 _ZNK3art9DexWriter18Creat
178:   FUNC GLOBAL PROTECTED 14 _ZN3art16CompactDexWriter
179:   FUNC GLOBAL PROTECTED 14 _ZN3art16CompactDexWriter
180:   FUNC GLOBAL PROTECTED 14 _ZN3art6dex_ir11BuilderMa
181:   FUNC GLOBAL PROTECTED 14 _ZN3art6dex_ir11BuilderMa
182:   FUNC GLOBAL PROTECTED 14 _ZN3art9DexWriter14WriteM
183:   FUNC GLOBAL PROTECTED 14 _ZN3art6dex_ir11BuilderMa
184:   OBJECT WEAK PROTECTED 18 _ZTVN3art6dex_ir16Collect
185:   FUNC GLOBAL PROTECTED 14 _ZN3art15VerifyClassDefsE
186:   FUNC GLOBAL PROTECTED 14 _ZN3art9DexWriter23WriteE
187:   FUNC GLOBAL PROTECTED 14 _ZN3art9DexWriter18WriteE
188:   FUNC GLOBAL PROTECTED 14 _ZN3art9DexLayout11DumpCa
189:   OBJECT WEAK PROTECTED 18 _ZTVN3art6dex_ir16Collect
190:   OBJECT WEAK PROTECTED 18 _ZTVN3art6dex_ir23Indexed
191:   FUNC GLOBAL PROTECTED 14 _ZN3art9DexWriter13WriteP
192:   FUNC GLOBAL PROTECTED 14 _ZN3art6dex_ir24GetSorted
193:   OBJECT WEAK PROTECTED 18 _ZTVN3art6dex_ir13Collect
194:   OBJECT WEAK PROTECTED 18 _ZTVN3art6dex_ir7FieldIdE
195:   FUNC GLOBAL PROTECTED 14 _ZN3art8VerifyIdEPNS_6dex
196:   FUNC GLOBAL PROTECTED 14 _ZN3art14VerifyClassDefEP
197:   FUNC GLOBAL PROTECTED 14 _ZN3art9DexWriter15WriteS
198:   OBJECT WEAK DEFAULT 18 _ZTCNSt3__118basic_string
199:   OBJECT WEAK PROTECTED 18 _ZTVN3art6dex_ir23Indexed
200:   OBJECT WEAK PROTECTED 18 _ZTVN3art6dex_ir16Collect
201:   OBJECT WEAK PROTECTED 18 _ZTVN3art6dex_ir24Annotat
202:   FUNC WEAK PROTECTED 14 _ZNSt3__16vectorIbNS_9all
203:   FUNC GLOBAL PROTECTED 14 _ZN3art6dex_ir12DexIrBuil
204:   OBJECT WEAK PROTECTED 18 _ZTVN3art6dex_ir23Indexed
205:   OBJECT WEAK PROTECTED 18 _ZTVN3art6dex_ir23Indexed
206:   OBJECT WEAK PROTECTED 18 _ZTVN3art6dex_ir13Collect
207:   FUNC GLOBAL PROTECTED 14 _ZN3art9DexWriter14WriteT
208:   FUNC GLOBAL PROTECTED 14 _ZN3art9DexLayout21DumpEn
209:   FUNC GLOBAL PROTECTED 14 _ZN3art9DexLayout13DumpBy
210:   FUNC GLOBAL PROTECTED 14 _ZN3art9DexLayout11Proces
211:   OBJECT WEAK DEFAULT 18 _ZTCNSt3__118basic_string
212:   FUNC GLOBAL PROTECTED 14 _ZN3art6dex_ir11BuilderMa
213:   OBJECT WEAK PROTECTED 18 _ZTVN3art6dex_ir13Collect
214:   OBJECT WEAK PROTECTED 18 _ZTVN3art6dex_ir13Collect
215:   FUNC GLOBAL PROTECTED 14 _ZN3art9DexLayout10DumpSF
216:   FUNC GLOBAL PROTECTED 14 _ZN3art9DexLayout10DumpIF
217:   FUNC GLOBAL PROTECTED 14 _ZN3art8VerifyIdEPNS_6dex
218:   FUNC GLOBAL PROTECTED 14 _ZN3art23VerifyMethodAnno
219:   FUNC GLOBAL PROTECTED 14 _ZN3art16CompactDexWriter
220:   FUNC GLOBAL PROTECTED 14 _ZN3art16CompactDexWriter
221:   FUNC GLOBAL PROTECTED 14 _ZN3art6dex_ir11BuilderMa
222:   FUNC GLOBAL PROTECTED 14 _ZN3art23VerifyEncodedAnn
223:   FUNC GLOBAL PROTECTED 14 _ZNK3art16CompactDexWrite
224:   FUNC GLOBAL PROTECTED 14 _ZN3art16CompactDexWriter
225:   FUNC GLOBAL PROTECTED 14 _ZN3art6dex_ir11BuilderMa
226:   OBJECT WEAK PROTECTED 18 _ZTVN3art6dex_ir23Indexed
227:   FUNC GLOBAL PROTECTED 14 _ZN3art9DexWriter15WriteC
228:   FUNC GLOBAL PROTECTED 14 _ZN3art6dex_ir11BuilderMa
229:   OBJECT WEAK PROTECTED 18 _ZTVN3art6dex_ir16Encoded
230:   OBJECT WEAK PROTECTED 18 _ZTVN3art6dex_ir16MethodH
231:   FUNC GLOBAL PROTECTED 14 _ZN3art9DexLayout13Output
232:   OBJECT WEAK PROTECTED 18 _ZTVN3art6dex_ir23Indexed
233:   OBJECT WEAK PROTECTED 18 _ZTVN3art6dex_ir16Collect
234:   FUNC GLOBAL PROTECTED 14 _ZN3art26VerifyParameterA
235:   OBJECT WEAK PROTECTED 18 _ZTVN3art9DexWriter9Conta
236:   FUNC GLOBAL PROTECTED 14 _ZN3art9DexWriter27WriteA
237:   FUNC GLOBAL PROTECTED 14 _ZN3art6dex_ir11BuilderMa
238:   OBJECT WEAK PROTECTED 18 _ZTVN3art6dex_ir16Collect
239:   OBJECT WEAK PROTECTED 18 _ZTVN3art6dex_ir23Indexed
240:   FUNC GLOBAL PROTECTED 14 _ZN3art18VerifyEncodedArr
241:   OBJECT WEAK PROTECTED 18 _ZTVN3art6dex_ir13DebugIn
242:   FUNC GLOBAL PROTECTED 14 _ZN3art9DexWriter22WriteE
243:   FUNC GLOBAL PROTECTED 14 _ZN3art16CompactDexWriter
244:   FUNC GLOBAL PROTECTED 14 _ZN3art9DexLayout10DumpMe
245:   FUNC GLOBAL PROTECTED 14 _ZN3art16CompactDexWriter
246:   OBJECT WEAK PROTECTED 18 _ZTVN3art6dex_ir23Indexed
247:   OBJECT WEAK PROTECTED 18 _ZTVN3art6dex_ir7ProtoIdE
248:   FUNC GLOBAL PROTECTED 14 _ZN3art26VerifyAnnotation
249:   FUNC GLOBAL PROTECTED 14 _ZN3art19VerifyOutputDexF
250:   FUNC GLOBAL PROTECTED 14 _ZN3art6dex_ir11BuilderMa
251:   OBJECT WEAK PROTECTED 18 _ZTVN3art6dex_ir13Collect
252:   OBJECT WEAK PROTECTED 18 _ZTVN3art6dex_ir7TryItemE
253:   FUNC GLOBAL PROTECTED 14 _ZN3art16CompactDexWriter
254:   FUNC GLOBAL PROTECTED 14 _ZN3art16CompactDexWriter
255:   OBJECT WEAK PROTECTED 18 _ZTVN3art6dex_ir23Indexed
256:   OBJECT WEAK PROTECTED 18 _ZTVN3art6dex_ir13Collect
257:   OBJECT WEAK PROTECTED 18 _ZTVN3art6dex_ir17Annotat
258:   FUNC GLOBAL PROTECTED 14 _ZN3art12MapItemQueue13Ad
259:   FUNC WEAK PROTECTED 14 _ZNSt3__114__fill_n_false
260:   FUNC GLOBAL PROTECTED 14 _ZN3art6dex_ir11BuilderMa
261:   OBJECT WEAK PROTECTED 18 _ZTVN3art6dex_ir16Collect
262:   OBJECT WEAK PROTECTED 18 _ZTVN3art6dex_ir16Collect
263:   OBJECT WEAK PROTECTED 18 _ZTVN3art6dex_ir23Indexed
264:   FUNC GLOBAL PROTECTED 14 _ZN3art19VerifyAnnotation
265:   FUNC GLOBAL PROTECTED 14 _ZNK3art9DexWriter13GetHe
266:   FUNC GLOBAL PROTECTED 14 _ZN3art9DexLayout21DumpAn
267:   FUNC GLOBAL PROTECTED 14 _ZN3art9DexLayout8DumpCod
268:   FUNC GLOBAL PROTECTED 14 _ZN3art6dex_ir11BuilderMa
269:   OBJECT WEAK PROTECTED 18 _ZTVN3art6dex_ir20Annotat
270:   OBJECT WEAK PROTECTED 13 _ZN3art9DexWriter21kDataS
271:   FUNC GLOBAL PROTECTED 14 _ZNK3art16CompactDexWrite
272:   OBJECT WEAK PROTECTED 18 _ZTVN3art6dex_ir10MethodI
273:   FUNC GLOBAL PROTECTED 14 _ZN3art8VerifyIdEPNS_6dex
274:   OBJECT WEAK DEFAULT 18 _ZTVNSt3__118basic_string
275:   OBJECT WEAK PROTECTED 18 _ZTVN3art6dex_ir16Collect
276:   OBJECT WEAK PROTECTED 18 _ZTVN3art6dex_ir16Collect
277:   FUNC GLOBAL PROTECTED 14 _ZN3art9DexWriter13WriteM
278:   OBJECT WEAK PROTECTED 18 _ZTVN3art16CompactDexWrit
279:   FUNC GLOBAL PROTECTED 14 _ZN3art9DexLayout14DumpFi
280:   FUNC GLOBAL PROTECTED 14 _ZN3art6dex_ir11BuilderMa
281:   OBJECT WEAK PROTECTED 18 _ZTVN3art6dex_ir13Collect
282:   FUNC GLOBAL PROTECTED 14 _ZN3art16VerifyAnnotation
283:   FUNC GLOBAL PROTECTED 14 _ZN3art9DexWriter18WriteD
284:   FUNC GLOBAL PROTECTED 14 _ZN3art9DexWriter19WriteA
285:   FUNC GLOBAL PROTECTED 14 _ZN3art9DexLayout15Layout
286:   FUNC GLOBAL PROTECTED 14 _ZN3art24ShowDexSectionSt
287:   FUNC GLOBAL PROTECTED 14 _ZN3art6dex_ir11BuilderMa
288:   OBJECT WEAK PROTECTED 18 _ZTVN3art6dex_ir8TypeList
289:   OBJECT GLOBAL PROTECTED 18 _ZTVN3art9DexWriterE
290:   FUNC GLOBAL PROTECTED 14 _ZNK3art16CompactDexWrite
291:   FUNC GLOBAL PROTECTED 14 _ZN3art9DexWriter19WriteD
292:   FUNC GLOBAL PROTECTED 14 _ZN3art9DexWriter16WriteS
293:   FUNC GLOBAL PROTECTED 14 _ZN3art6dex_ir11BuilderMa
294:   OBJECT WEAK PROTECTED 18 _ZTVN3art6dex_ir6HeaderE
295:   OBJECT WEAK PROTECTED 18 _ZTVN3art6dex_ir4ItemE
296:   FUNC GLOBAL PROTECTED 14 _ZN3art22VerifyFieldAnnot
297:   FUNC GLOBAL PROTECTED 14 _ZN3art9DexWriter16WriteA
298:   OBJECT WEAK PROTECTED 18 _ZTVN3art6dex_ir16Collect
299:   OBJECT WEAK PROTECTED 18 _ZTVN3art6dex_ir23Indexed
300:   OBJECT WEAK PROTECTED 18 _ZTVN3art6dex_ir9ClassDat
301:   FUNC GLOBAL PROTECTED 14 _ZN3art9DexLayout9DumpCla
302:   FUNC WEAK PROTECTED 14 _ZNSt3__127__tree_balance
303:   OBJECT WEAK PROTECTED 18 _ZTVN3art6dex_ir16Collect
304:   FUNC GLOBAL PROTECTED 14 _ZN3art9DexWriter12WriteT
305:   OBJECT WEAK PROTECTED 18 _ZTVN3art6dex_ir23Indexed
306:   OBJECT WEAK PROTECTED 18 _ZTVN3art6dex_ir6TypeIdE
307:   FUNC GLOBAL PROTECTED 14 _ZN3art8VerifyIdEPNS_6dex
308:   FUNC GLOBAL PROTECTED 14 _ZN3art16CompactDexWriter
309:   FUNC GLOBAL PROTECTED 14 _ZN3art9DexWriter16WriteC
310:   FUNC GLOBAL PROTECTED 14 _ZN3art9DexWriter24Genera
311:   FUNC WEAK PROTECTED 14 _ZNSt3__16vectorIhNS_9all
312:   FUNC GLOBAL PROTECTED 14 _ZN3art6dex_ir11BuilderMa
313:   FUNC GLOBAL PROTECTED 14 _ZN3art6dex_ir11BuilderMa
314:   FUNC GLOBAL PROTECTED 14 _ZN3art6dex_ir11BuilderMa
315:   OBJECT WEAK PROTECTED 18 _ZTVN3art6dex_ir16Collect
316:   FUNC GLOBAL PROTECTED 14 _ZN3art14VerifyTypeListEP
317:   FUNC GLOBAL PROTECTED 14 _ZN3art9DexWriter17WriteE
318:   FUNC GLOBAL PROTECTED 14 _ZN3art9DexLayout11DumpDe
319:   FUNC GLOBAL PROTECTED 14 _ZN3art9DexWriter6OutputE
320:   OBJECT WEAK PROTECTED 18 _ZTVNSt3__110__function6_
321:   FUNC GLOBAL PROTECTED 14 _ZN3art9DexWriter22WriteA
322:   FUNC GLOBAL PROTECTED 14 _ZN3art9DexWriter32WriteC
323:   OBJECT WEAK PROTECTED 18 _ZTVN3art6dex_ir8ClassDef
324:   FUNC GLOBAL PROTECTED 14 _ZN3art15VerifyDebugInfoE
325:   FUNC GLOBAL PROTECTED 14 _ZN3art9DexWriter13Proces
326:   FUNC GLOBAL PROTECTED 14 _ZN3art9DexLayout15DumpIn
327:   OBJECT WEAK PROTECTED 18 _ZTVN3art6dex_ir8MethodId
328:   FUNC GLOBAL PROTECTED 14 _ZN3art13VerifyHandlerEPK
329:   FUNC GLOBAL PROTECTED 14 _ZN3art16CompactDexWriter
330:   FUNC GLOBAL PROTECTED 14 _ZN3art16CompactDexWriter
331:   FUNC GLOBAL PROTECTED 14 _ZN3art9DexLayout14Proces
332:   FUNC GLOBAL PROTECTED 14 _ZN3art6dex_ir11BuilderMa
333:   OBJECT WEAK PROTECTED 18 _ZTVN3art6dex_ir14Annotat
334:   FUNC GLOBAL PROTECTED 14 _ZN3art26VerifyAnnotation
335:   FUNC GLOBAL PROTECTED 14 _ZN3art16CompactDexWriter
336:   FUNC GLOBAL PROTECTED 14 _ZN3art16CompactDexWriter
337:   FUNC GLOBAL PROTECTED 14 _ZN3art9DexLayout16DumpEn
338:   OBJECT WEAK DEFAULT 18 _ZTCNSt3__118basic_string
339:   OBJECT WEAK PROTECTED 18 _ZTVN3art6dex_ir16Collect
340:   OBJECT WEAK PROTECTED 18 _ZTVN3art6dex_ir9FieldIte
341:   FUNC GLOBAL PROTECTED 14 _ZN3art10VerifyCodeEPNS_6
342:   FUNC GLOBAL PROTECTED 14 _ZN3art9DexWriter14WriteC
343:   FUNC GLOBAL PROTECTED 14 _ZN3art9DexWriter23WriteH
344:   FUNC GLOBAL PROTECTED 14 _ZN3art8VerifyIdEPNS_6dex
345:   FUNC GLOBAL PROTECTED 14 _ZN3art13VerifyMethodsEPN
346:   FUNC GLOBAL PROTECTED 14 _ZN3art11VerifyTriesEPNSt
347:   FUNC WEAK PROTECTED 14 _ZNSt3__124__put_characte
348:   FUNC GLOBAL PROTECTED 14 _ZN3art18VisualizeDexLayo
349:   FUNC WEAK PROTECTED 14 _ZNKSt3__115basic_stringb
350:   FUNC GLOBAL PROTECTED 14 _ZN3art6dex_ir11BuilderMa
351:   FUNC GLOBAL PROTECTED 14 _ZN3art6dex_ir11BuilderMa
352:   FUNC GLOBAL PROTECTED 14 _ZN3art6dex_ir11BuilderMa
353:   OBJECT WEAK PROTECTED 18 _ZTVN3art6dex_ir16Collect
354:   FUNC GLOBAL PROTECTED 14 _ZN3art23VerifyAnnotation
355:   FUNC GLOBAL PROTECTED 14 _ZN3art9DexWriter18WriteE
356:   FUNC GLOBAL PROTECTED 14 _ZN3art9DexWriter11WriteH
