 0x000000000000000e (SONAME)             Library soname: [libstagefright_omx.so]
  
Symbol   contains 642 entries:
Num:   Type Bind Vis Ndx Name
0:   NOTYPE LOCAL DEFAULT UND
1:   FUNC GLOBAL DEFAULT UND __cxa_finalize@LIBC (2)
2:   FUNC GLOBAL DEFAULT UND getpid@LIBC (2)
3:   FUNC GLOBAL DEFAULT UND __android_log_print@LIBLOG (3)
4:   FUNC GLOBAL DEFAULT UND close@LIBC (2)
5:   FUNC GLOBAL DEFAULT UND __cfi_slowpath@LIBC_OMR1 (4)
6:   FUNC GLOBAL DEFAULT UND _ZdlPv
7:   FUNC GLOBAL DEFAULT UND android_load_sphal_librar@LIBVNDKSUPPORT (5)
8:   FUNC GLOBAL DEFAULT UND dlsym@LIBC (6)
9:   FUNC GLOBAL DEFAULT UND android_unload_sphal_libr@LIBVNDKSUPPORT (5)
10:   FUNC GLOBAL DEFAULT UND _ZN7android7String8C1EPKc
11:   FUNC GLOBAL DEFAULT UND _ZN7android7String8D1Ev
12:   FUNC GLOBAL DEFAULT UND __android_log_assert@LIBLOG (3)
13:   FUNC GLOBAL DEFAULT UND pthread_mutex_init@LIBC (2)
14:   FUNC GLOBAL DEFAULT UND __vsnprintf_chk@LIBC (2)
15:   FUNC GLOBAL DEFAULT UND __open_2@LIBC (2)
16:   FUNC GLOBAL DEFAULT UND __strlcpy_chk@LIBC (2)
17:   FUNC GLOBAL DEFAULT UND read@LIBC (2)
18:   FUNC GLOBAL DEFAULT UND _ZN7android10VectorImpl13
19:   FUNC GLOBAL DEFAULT UND _ZN7android16SortedVector
20:   FUNC GLOBAL DEFAULT UND _ZN7android7String8C1Ev
21:   FUNC GLOBAL DEFAULT UND _ZN7android7String8C1ERKS
22:   FUNC GLOBAL DEFAULT UND strcmp@LIBC (2)
23:   FUNC GLOBAL DEFAULT UND pthread_mutex_destroy@LIBC (2)
24:   FUNC GLOBAL DEFAULT UND pthread_mutex_lock@LIBC (2)
25:   FUNC GLOBAL DEFAULT UND pthread_mutex_unlock@LIBC (2)
26:   FUNC GLOBAL DEFAULT UND _ZNK7android7String86leng
27:   FUNC GLOBAL DEFAULT UND _Znam
28:   FUNC GLOBAL DEFAULT UND _ZN7android16SortedVector
29:   FUNC GLOBAL DEFAULT UND _ZdaPv
30:   FUNC GLOBAL DEFAULT UND _Znwm
31:   FUNC GLOBAL DEFAULT UND _ZNK7android16SortedVecto
32:   FUNC GLOBAL DEFAULT UND _ZN7android16SortedVector
33:   FUNC GLOBAL DEFAULT UND _ZN7android10VectorImpl5c
34:   FUNC GLOBAL DEFAULT UND _ZN7android10VectorImpl13
35:   FUNC GLOBAL DEFAULT UND _ZNK7android6Parcel9readI
36:   FUNC GLOBAL DEFAULT UND dup@LIBC (2)
37:   FUNC GLOBAL DEFAULT UND _ZNK7android6Parcel18read
38:   FUNC GLOBAL DEFAULT UND _ZN7android7RefBaseC2Ev
39:   FUNC GLOBAL DEFAULT UND _ZN7android6Thread4joinEv
40:   FUNC GLOBAL DEFAULT UND _ZN7android7AStringC1EPKc
41:   FUNC GLOBAL DEFAULT UND _ZN7android7AString6appen
42:   FUNC GLOBAL DEFAULT UND _ZN7android7AString6appen
43:   FUNC GLOBAL DEFAULT UND _ZNK7android7AString5c_st
44:   FUNC GLOBAL DEFAULT UND _ZN7android7RefBaseD2Ev
45:   FUNC GLOBAL DEFAULT UND _ZN7android6ADebug12GetDe
46:   FUNC GLOBAL DEFAULT UND _ZN7android6ADebug25GetDe
47:   FUNC GLOBAL DEFAULT UND _ZNK7android7AString8ends
48:   FUNC GLOBAL DEFAULT UND _ZN7android7AStringD1Ev
49:   FUNC GLOBAL DEFAULT UND free@LIBC (2)
50:   FUNC GLOBAL DEFAULT UND usleep@LIBC (2)
51:   FUNC GLOBAL DEFAULT UND __android_log_error_write@LIBLOG_M (7)
52:   FUNC GLOBAL DEFAULT UND property_get_bool
53:   FUNC GLOBAL DEFAULT UND _ZN7android8hardware9mapM
54:   FUNC GLOBAL DEFAULT UND _ZNK7android7IMemory7poin
55:   FUNC GLOBAL DEFAULT UND _ZNK7android7IMemory4size
56:   FUNC GLOBAL DEFAULT UND _ZN7android8hardware7deta
57:   FUNC GLOBAL DEFAULT UND _ZnamRKSt9nothrow_t
58:   FUNC GLOBAL DEFAULT UND _ZN7android7AString6appen
59:   FUNC GLOBAL DEFAULT UND _ZNK7android13GraphicBuff
60:   FUNC GLOBAL DEFAULT UND _ZN7android12NativeHandle
61:   FUNC GLOBAL DEFAULT UND _ZN7android5FenceC1Ei
62:   FUNC GLOBAL DEFAULT UND _ZN7android5Fence4waitEi
63:   FUNC GLOBAL DEFAULT UND _ZN7android10ColorUtils20
64:   FUNC GLOBAL DEFAULT UND _ZN7android10ColorUtils20
65:   FUNC GLOBAL DEFAULT UND _ZN7android10ColorUtils37
66:   FUNC GLOBAL DEFAULT UND _ZN7android10ColorUtils9p
67:   FUNC GLOBAL DEFAULT UND _ZN7android6ThreadD1Ev
68:   FUNC GLOBAL DEFAULT UND _ZN7android6ThreadD0Ev
69:   FUNC GLOBAL DEFAULT UND _ZN7android6Thread3runEPK
70:   FUNC GLOBAL DEFAULT UND _ZN7android6Thread11reque
71:   FUNC GLOBAL DEFAULT UND _ZN7android6Thread10ready
72:   FUNC GLOBAL DEFAULT UND __cxa_pure_virtual
73:   FUNC GLOBAL DEFAULT UND _ZTv0_n24_N7android6Threa
74:   FUNC GLOBAL DEFAULT UND _ZTv0_n24_N7android6Threa
75:   FUNC GLOBAL DEFAULT UND _ZN7android7RefBase10onFi
76:   FUNC GLOBAL DEFAULT UND _ZN7android7RefBase15onLa
77:   FUNC GLOBAL DEFAULT UND _ZN7android7RefBase20onIn
78:   FUNC GLOBAL DEFAULT UND _ZN7android7RefBase13onLa
79:   FUNC GLOBAL DEFAULT UND _ZNK7android8IOMXNode13ge
80:   FUNC GLOBAL DEFAULT UND _ZN7android9BnOMXNode10on
81:   FUNC GLOBAL DEFAULT UND _ZNK7android7BBinder13isB
82:   FUNC GLOBAL DEFAULT UND _ZN7android7BBinder10ping
83:   FUNC GLOBAL DEFAULT UND _ZN7android7BBinder4dumpE
84:   FUNC GLOBAL DEFAULT UND _ZN7android7BBinder8trans
85:   FUNC GLOBAL DEFAULT UND _ZN7android7BBinder11link
86:   FUNC GLOBAL DEFAULT UND _ZN7android7BBinder13unli
87:   FUNC GLOBAL DEFAULT UND _ZNK7android7IBinder13che
88:   FUNC GLOBAL DEFAULT UND _ZN7android7BBinder12atta
89:   FUNC GLOBAL DEFAULT UND _ZNK7android7BBinder10fin
90:   FUNC GLOBAL DEFAULT UND _ZN7android7BBinder12deta
91:   FUNC GLOBAL DEFAULT UND _ZN7android7BBinder11loca
92:   FUNC GLOBAL DEFAULT UND _ZN7android7IBinder12remo
93:   FUNC GLOBAL DEFAULT UND _ZThn8_N7android9BnOMXNod
94:   FUNC GLOBAL DEFAULT UND _ZN7android7BBinder10onTr
95:   FUNC GLOBAL DEFAULT UND _ZN7android8IOMXNodeD1Ev
96:   FUNC GLOBAL DEFAULT UND _ZN7android8IOMXNodeD0Ev
97:   FUNC GLOBAL DEFAULT UND _ZNK7android8IOMXNode22ge
98:   FUNC GLOBAL DEFAULT UND _ZTv0_n24_N7android8IOMXN
99:   FUNC GLOBAL DEFAULT UND _ZTv0_n24_N7android8IOMXN
100:   FUNC GLOBAL DEFAULT UND _ZN7android10IInterfaceD1
101:   FUNC GLOBAL DEFAULT UND _ZN7android10IInterfaceD0
102:   FUNC GLOBAL DEFAULT UND _ZTv0_n24_N7android10IInt
103:   FUNC GLOBAL DEFAULT UND _ZTv0_n24_N7android10IInt
104:   FUNC GLOBAL DEFAULT UND _ZN7android7IBinder19quer
105:   FUNC GLOBAL DEFAULT UND _ZNK7android7BBinder22get
106:   FUNC GLOBAL DEFAULT UND _ZN7android7BBinderD1Ev
107:   FUNC GLOBAL DEFAULT UND _ZN7android7BBinderD0Ev
108:   FUNC GLOBAL DEFAULT UND _ZTv0_n24_N7android7BBind
109:   FUNC GLOBAL DEFAULT UND _ZTv0_n24_N7android7BBind
110:   FUNC GLOBAL DEFAULT UND _ZN7android7IBinder11loca
111:   FUNC GLOBAL DEFAULT UND _ZN7android7IBinderD1Ev
112:   FUNC GLOBAL DEFAULT UND _ZN7android7IBinderD0Ev
113:   FUNC GLOBAL DEFAULT UND _ZTv0_n24_N7android7IBind
114:   FUNC GLOBAL DEFAULT UND _ZTv0_n24_N7android7IBind
115:   FUNC GLOBAL DEFAULT UND pthread_condattr_init@LIBC (2)
116:   FUNC GLOBAL DEFAULT UND pthread_condattr_setclock@LIBC (2)
117:   FUNC GLOBAL DEFAULT UND pthread_cond_init@LIBC (2)
118:   FUNC GLOBAL DEFAULT UND pthread_condattr_destroy@LIBC (2)
119:   FUNC GLOBAL DEFAULT UND _ZN7android6ThreadC2Eb
120:   FUNC GLOBAL DEFAULT UND pthread_cond_signal@LIBC (2)
121:   FUNC GLOBAL DEFAULT UND pthread_cond_destroy@LIBC (2)
122:   FUNC GLOBAL DEFAULT UND pthread_cond_wait@LIBC (2)
123:   FUNC GLOBAL DEFAULT UND _ZN7android8IOMXNodeC2Ev
124:   FUNC GLOBAL DEFAULT UND _ZN7android7BBinderC2Ev
125:   FUNC GLOBAL DEFAULT UND _ZN7android7BBinderD2Ev
126:   FUNC GLOBAL DEFAULT UND _ZN7android8IOMXNodeD2Ev
127:   FUNC GLOBAL DEFAULT UND _ZNK7android7RefBase9incS
128:   FUNC GLOBAL DEFAULT UND _ZNK7android7RefBase9decS
129:   FUNC GLOBAL DEFAULT UND _ZN7android7ABufferC1EPvm
130:   FUNC GLOBAL DEFAULT UND _ZN7android7ABuffer8setRa
131:   FUNC GLOBAL DEFAULT UND _ZN7android14sp_report_ra
132:   FUNC GLOBAL DEFAULT UND _ZN7android12NativeHandle
133:   FUNC GLOBAL DEFAULT UND _ZN7android6Parcel10write
134:   FUNC GLOBAL DEFAULT UND _ZN7android6Parcel19write
135:   FUNC GLOBAL DEFAULT UND _ZN7android6ThreadD2Ev
136:   FUNC GLOBAL DEFAULT UND _ZNK7android8hardware7det
137:   FUNC GLOBAL DEFAULT UND _ZN7android10VectorImplC2
138:   FUNC GLOBAL DEFAULT UND _ZN7android10VectorImplD2
139:   FUNC GLOBAL DEFAULT UND _ZN7android16SortedVector
140:   FUNC GLOBAL DEFAULT UND __errno@LIBC (2)
141:   FUNC WEAK DEFAULT UND android_fdsan_close_with_@LIBC_Q (8)
142:   FUNC WEAK DEFAULT UND android_fdsan_create_owne@LIBC_Q (8)
143:   FUNC GLOBAL DEFAULT UND _ZN7android10VectorImpl4p
144:   FUNC GLOBAL DEFAULT UND strzcmp16
145:   FUNC GLOBAL DEFAULT UND _ZNK7android8String164siz
146:   OBJECT GLOBAL DEFAULT UND _ZSt7nothrow
147:   OBJECT GLOBAL DEFAULT UND _ZN7android8IOMXNode10des
148:   FUNC GLOBAL DEFAULT UND __cxa_guard_acquire
149:   FUNC GLOBAL DEFAULT UND __cxa_guard_release
150:   FUNC GLOBAL DEFAULT UND strcasecmp@LIBC (2)
151:   FUNC GLOBAL DEFAULT UND strncpy@LIBC (2)
152:   OBJECT GLOBAL DEFAULT UND _ZN7android25MEDIA_MIMETY
153:   OBJECT GLOBAL DEFAULT UND _ZN7android33MEDIA_MIMETY
154:   OBJECT GLOBAL DEFAULT UND _ZN7android34MEDIA_MIMETY
155:   OBJECT GLOBAL DEFAULT UND _ZN7android27MEDIA_MIMETY
156:   OBJECT GLOBAL DEFAULT UND _ZN7android27MEDIA_MIMETY
157:   OBJECT GLOBAL DEFAULT UND _ZN7android24MEDIA_MIMETY
158:   OBJECT GLOBAL DEFAULT UND _ZN7android27MEDIA_MIMETY
159:   OBJECT GLOBAL DEFAULT UND _ZN7android25MEDIA_MIMETY
160:   OBJECT GLOBAL DEFAULT UND _ZN7android30MEDIA_MIMETY
161:   OBJECT GLOBAL DEFAULT UND _ZN7android30MEDIA_MIMETY
162:   OBJECT GLOBAL DEFAULT UND _ZN7android24MEDIA_MIMETY
163:   OBJECT GLOBAL DEFAULT UND _ZN7android25MEDIA_MIMETY
164:   OBJECT GLOBAL DEFAULT UND _ZN7android26MEDIA_MIMETY
165:   OBJECT GLOBAL DEFAULT UND _ZN7android25MEDIA_MIMETY
166:   OBJECT GLOBAL DEFAULT UND _ZN7android24MEDIA_MIMETY
167:   OBJECT GLOBAL DEFAULT UND _ZN7android24MEDIA_MIMETY
168:   OBJECT GLOBAL DEFAULT UND _ZN7android24MEDIA_MIMETY
169:   OBJECT GLOBAL DEFAULT UND _ZN7android24MEDIA_MIMETY
170:   OBJECT GLOBAL DEFAULT UND _ZN7android33MEDIA_MIMETY
171:   OBJECT GLOBAL DEFAULT UND _ZN7android25MEDIA_MIMETY
172:   OBJECT GLOBAL DEFAULT UND _ZN7android26MEDIA_MIMETY
173:   OBJECT GLOBAL DEFAULT UND _ZN7android26MEDIA_MIMETY
174:   OBJECT GLOBAL DEFAULT UND _ZN7android24MEDIA_MIMETY
175:   OBJECT GLOBAL DEFAULT UND _ZN7android25MEDIA_MIMETY
176:   OBJECT GLOBAL DEFAULT UND _ZN7android29MEDIA_MIMETY
177:   OBJECT GLOBAL DEFAULT UND _ZN7android24MEDIA_MIMETY
178:   OBJECT GLOBAL DEFAULT UND _ZN7android33MEDIA_MIMETY
179:   FUNC GLOBAL DEFAULT UND _ZN7android19GraphicBuffe
180:   FUNC GLOBAL DEFAULT UND _ZN7android19GraphicBuffe
181:   FUNC GLOBAL DEFAULT UND _ZN7android19GraphicBuffe
182:   FUNC GLOBAL DEFAULT UND _ZN7android19GraphicBuffe
183:   FUNC GLOBAL DEFAULT UND _ZN7android20MediaCodecsX
184:   FUNC GLOBAL DEFAULT UND _ZN7android20MediaCodecsX
185:   FUNC GLOBAL DEFAULT UND _ZN7android20MediaCodecsX
186:   FUNC GLOBAL DEFAULT UND _ZN7android20MediaCodecsX
187:   FUNC GLOBAL DEFAULT UND _ZNK7android8hardware11hi
188:   FUNC GLOBAL DEFAULT UND _ZN7android4base21GetMini
189:   FUNC GLOBAL DEFAULT UND _ZN7android4base10LogMess
190:   FUNC GLOBAL DEFAULT UND _ZN7android4base10LogMess
191:   FUNC GLOBAL DEFAULT UND _ZNSt3__113basic_ostreamI
192:   FUNC GLOBAL DEFAULT UND _ZN7android4base10LogMess
193:   FUNC GLOBAL DEFAULT UND _ZNK7android20MediaCodecs
194:   FUNC GLOBAL DEFAULT UND strerror@LIBC (2)
195:   FUNC GLOBAL DEFAULT UND _ZNSt3__113basic_ostreamI
196:   FUNC GLOBAL DEFAULT UND _ZNK7android19GraphicBuff
197:   FUNC GLOBAL DEFAULT UND _ZN7android8hardware5medi
198:   FUNC GLOBAL DEFAULT UND _ZN7android8hardware5medi
199:   FUNC GLOBAL DEFAULT UND _ZN7android8hardware5medi
200:   FUNC GLOBAL DEFAULT UND _ZN7android8hardware5medi
201:   FUNC GLOBAL DEFAULT UND _ZN7android8hardware5medi
202:   FUNC GLOBAL DEFAULT UND _ZN7android8hardware5medi
203:   FUNC GLOBAL DEFAULT UND _ZN7android8hardware5medi
204:   FUNC GLOBAL DEFAULT UND _ZN7android8hardware5medi
205:   FUNC GLOBAL DEFAULT UND _ZN7android8hardware5medi
206:   FUNC GLOBAL DEFAULT UND _ZN7android8hardware5medi
207:   FUNC GLOBAL DEFAULT UND _ZN7android4hidl4base4V1_
208:   FUNC GLOBAL DEFAULT UND _ZN7android4hidl4base4V1_
209:   FUNC GLOBAL DEFAULT UND _ZN7android4hidl4base4V1_
210:   FUNC GLOBAL DEFAULT UND _ZN7android4hidl4base4V1_
211:   FUNC GLOBAL DEFAULT UND _ZN7android4hidl4base4V1_
212:   FUNC GLOBAL DEFAULT UND _ZN7android4hidl4base4V1_
213:   FUNC GLOBAL DEFAULT UND _ZN7android4hidl4base4V1_
214:   FUNC GLOBAL DEFAULT UND _ZN7android4hidl4base4V1_
215:   FUNC GLOBAL DEFAULT UND _ZN7android4hidl4base4V1_
216:   FUNC GLOBAL DEFAULT UND _ZN7android4hidl4base4V1_
217:   FUNC GLOBAL DEFAULT UND abort@LIBC (2)
218:   FUNC GLOBAL DEFAULT UND _ZNSt3__112basic_stringIc
219:   FUNC GLOBAL DEFAULT UND _ZN7android7String85setTo
220:   FUNC GLOBAL DEFAULT UND _ZN7android8hardware11hid
221:   FUNC GLOBAL DEFAULT UND _ZN7android8hardware7deta
222:   FUNC GLOBAL DEFAULT UND _ZN7android8hardware11hid
223:   FUNC GLOBAL DEFAULT UND _ZN7android8hardware11hid
224:   FUNC GLOBAL DEFAULT UND _ZN7android8hardware11hid
225:   FUNC GLOBAL DEFAULT UND _ZN7android19GraphicBuffe
226:   FUNC GLOBAL DEFAULT UND _ZN7android19GraphicBuffe
227:   FUNC GLOBAL DEFAULT UND _ZNKSt3__121__basic_strin
228:   FUNC GLOBAL DEFAULT UND strlen@LIBC (2)
229:   FUNC GLOBAL DEFAULT UND _ZNSt3__113basic_ostreamI
230:   FUNC GLOBAL DEFAULT UND _ZNSt3__113basic_ostreamI
231:   FUNC GLOBAL DEFAULT UND _ZNKSt3__18ios_base6getlo
232:   FUNC GLOBAL DEFAULT UND _ZNSt3__16localeD1Ev
233:   FUNC GLOBAL DEFAULT UND _ZNKSt3__16locale9use_fac
234:   FUNC GLOBAL DEFAULT UND _ZNSt3__18ios_base5clearE
235:   FUNC GLOBAL DEFAULT UND memcmp@LIBC (2)
236:   FUNC GLOBAL DEFAULT UND _ZNKSt3__112basic_stringI
237:   FUNC GLOBAL DEFAULT UND _ZNK7android7RefBase10cre
238:   FUNC GLOBAL DEFAULT UND _ZN7android7RefBase12weak
239:   FUNC GLOBAL DEFAULT UND _ZN7android10VectorImpl16
240:   FUNC GLOBAL DEFAULT UND _ZN7android7RefBase12weak
241:   FUNC GLOBAL DEFAULT UND _ZN7android7RefBase12weak
242:   OBJECT GLOBAL DEFAULT UND _ZNSt3__15ctypeIcE2idE
243:   FUNC GLOBAL DEFAULT UND _ZNK7android20MediaCodecs
244:   FUNC GLOBAL DEFAULT UND _ZNK7android20MediaCodecs
245:   FUNC GLOBAL DEFAULT UND _ZN7android8hardware11hid
246:   FUNC GLOBAL DEFAULT UND _ZNK7android20MediaCodecs
247:   FUNC GLOBAL DEFAULT UND strncasecmp@LIBC (2)
248:   FUNC GLOBAL DEFAULT UND _ZNK7android20MediaCodecs
249:   FUNC GLOBAL DEFAULT UND _ZN7android8hardware5medi
250:   FUNC GLOBAL DEFAULT UND _ZN7android8hardware5medi
251:   FUNC GLOBAL DEFAULT UND _ZN7android8hardware5medi
252:   FUNC GLOBAL DEFAULT UND _ZN7android8hardware5medi
253:   FUNC GLOBAL DEFAULT UND _ZN7android8hardware5medi
254:   FUNC GLOBAL DEFAULT UND _ZN7android8hardware5medi
255:   FUNC GLOBAL DEFAULT UND _ZN7android8hardware5medi
256:   FUNC GLOBAL DEFAULT UND _ZN7android8hardware5medi
257:   FUNC GLOBAL DEFAULT UND _ZN7android8hardware5medi
258:   FUNC GLOBAL DEFAULT UND _ZN7android8hardware5medi
259:   FUNC GLOBAL DEFAULT UND _ZN7android8hardware11hid
260:   FUNC GLOBAL DEFAULT UND _ZN7android8hardware5medi
261:   FUNC GLOBAL DEFAULT UND _ZN7android19GraphicBuffe
262:   FUNC GLOBAL DEFAULT UND _ZN7android19GraphicBuffe
263:   FUNC GLOBAL DEFAULT UND _ZN7android19GraphicBuffe
264:   FUNC GLOBAL DEFAULT UND _ZN7android19GraphicBuffe
265:   FUNC GLOBAL DEFAULT UND _ZN7android19GraphicBuffe
266:   FUNC GLOBAL DEFAULT UND _ZN7android19GraphicBuffe
267:   FUNC GLOBAL DEFAULT UND _ZN7android19GraphicBuffe
268:   FUNC GLOBAL DEFAULT UND _ZN7android19GraphicBuffe
269:   FUNC GLOBAL DEFAULT UND _ZN7android19GraphicBuffe
270:   FUNC GLOBAL DEFAULT UND _ZN7android19GraphicBuffe
271:   FUNC GLOBAL DEFAULT UND _ZN7android8hardware5medi
272:   FUNC GLOBAL DEFAULT UND _ZN7android8hardware5medi
273:   FUNC GLOBAL DEFAULT UND _ZN7android8hardware5medi
274:   FUNC GLOBAL DEFAULT UND _ZN7android8hardware5medi
275:   FUNC GLOBAL DEFAULT UND _ZN7android8hardware5medi
276:   FUNC GLOBAL DEFAULT UND _ZN7android8hardware5medi
277:   FUNC GLOBAL DEFAULT UND _ZN7android8hardware5medi
278:   FUNC GLOBAL DEFAULT UND _ZN7android8hardware5medi
279:   FUNC GLOBAL DEFAULT UND _ZN7android8hardware5medi
280:   FUNC GLOBAL DEFAULT UND _ZN7android8hardware5medi
281:   FUNC GLOBAL DEFAULT UND _ZN7android8hardware5medi
282:   FUNC GLOBAL DEFAULT UND _ZN7android8hardware5medi
283:   FUNC GLOBAL DEFAULT UND _ZN7android8hardware5medi
284:   FUNC GLOBAL DEFAULT UND _ZN7android8hardware5medi
285:   FUNC GLOBAL DEFAULT UND _ZN7android8hardware5medi
286:   FUNC GLOBAL DEFAULT UND _ZN7android8hardware5medi
287:   FUNC GLOBAL DEFAULT UND _ZN7android8hardware5medi
288:   FUNC GLOBAL DEFAULT UND _ZN7android8hardware5medi
289:   FUNC GLOBAL DEFAULT UND _ZN7android8hardware5medi
290:   FUNC GLOBAL DEFAULT UND _ZN7android8hardware5medi
291:   FUNC GLOBAL DEFAULT UND _ZN7android19GraphicBuffe
292:   FUNC GLOBAL DEFAULT UND _ZN7android19GraphicBuffe
293:   FUNC GLOBAL DEFAULT UND _ZNK7android8hardware11hi
294:   FUNC GLOBAL DEFAULT UND _ZN7android8hardware7deta
295:   FUNC GLOBAL DEFAULT UND _ZN7android8hardware11hid
296:   FUNC GLOBAL DEFAULT UND _ZN7android8hardware11hid
297:   FUNC GLOBAL DEFAULT UND native_handle_close
298:   FUNC GLOBAL DEFAULT UND native_handle_delete
299:   FUNC GLOBAL DEFAULT UND _ZN7android8hardware11hid
300:   FUNC GLOBAL DEFAULT UND _ZN7android8hardware11hid
301:   FUNC GLOBAL DEFAULT UND native_handle_create
302:   FUNC GLOBAL DEFAULT UND _ZN7android8hardware11hid
303:   FUNC GLOBAL DEFAULT UND _ZN7android8hardware11hid
304:   FUNC GLOBAL DEFAULT UND _ZN7android9OMXBufferC1Ev
305:   FUNC GLOBAL DEFAULT UND _ZN7android9OMXBufferD1Ev
306:   FUNC GLOBAL DEFAULT UND _ZN7android8hardware5medi
307:   FUNC GLOBAL DEFAULT UND _ZN7android8hardware5medi
308:   FUNC GLOBAL DEFAULT UND _ZN7android8hardware5medi
309:   FUNC GLOBAL DEFAULT UND _ZN7android8hardware5medi
310:   FUNC GLOBAL DEFAULT UND _ZN7android8hardware5medi
311:   FUNC GLOBAL DEFAULT UND _ZN7android8hardware5medi
312:   FUNC GLOBAL DEFAULT UND _ZN7android8hardware5medi
313:   FUNC GLOBAL DEFAULT UND _ZN7android8hardware5medi
314:   FUNC GLOBAL DEFAULT UND _ZN7android8hardware5medi
315:   FUNC GLOBAL DEFAULT UND _ZN7android8hardware5medi
316:   FUNC GLOBAL DEFAULT UND _ZN7android8hardware11hid
317:   FUNC GLOBAL DEFAULT UND _ZN7android9OMXBufferaSEO
318:   FUNC GLOBAL DEFAULT UND _ZN7android9OMXBufferC1Ej
319:   FUNC GLOBAL DEFAULT UND _ZN7android9OMXBufferC1ER
320:   FUNC GLOBAL DEFAULT UND _ZNK7android8hardware11hi
321:   FUNC GLOBAL DEFAULT UND _ZN7android9OMXBufferC1ER
322:   FUNC GLOBAL DEFAULT UND _ZN7android13GraphicBuffe
323:   FUNC GLOBAL DEFAULT UND native_handle_clone
324:   FUNC GLOBAL DEFAULT UND _ZN7android9OMXBufferC1ER
325:   FUNC GLOBAL DEFAULT UND _ZNK7android8hardware11hi
326:   FUNC GLOBAL DEFAULT UND _ZN7android13GraphicBuffe
327:   FUNC GLOBAL DEFAULT UND _ZN7android13BnOMXObserve
328:   FUNC GLOBAL DEFAULT UND _ZThn8_N7android13BnOMXOb
329:   FUNC GLOBAL DEFAULT UND _ZN7android12IOMXObserver
330:   FUNC GLOBAL DEFAULT UND _ZN7android12IOMXObserver
331:   FUNC GLOBAL DEFAULT UND _ZNK7android12IOMXObserve
332:   FUNC GLOBAL DEFAULT UND _ZTv0_n24_N7android12IOMX
333:   FUNC GLOBAL DEFAULT UND _ZTv0_n24_N7android12IOMX
334:   FUNC GLOBAL DEFAULT UND _ZN7android8hardware5medi
335:   FUNC GLOBAL DEFAULT UND _ZN7android8hardware5medi
336:   FUNC GLOBAL DEFAULT UND _ZN7android8hardware5medi
337:   FUNC GLOBAL DEFAULT UND _ZN7android8hardware5medi
338:   FUNC GLOBAL DEFAULT UND _ZN7android8hardware5medi
339:   FUNC GLOBAL DEFAULT UND _ZN7android8hardware5medi
340:   FUNC GLOBAL DEFAULT UND _ZN7android8hardware5medi
341:   FUNC GLOBAL DEFAULT UND _ZN7android8hardware5medi
342:   FUNC GLOBAL DEFAULT UND _ZN7android8hardware5medi
343:   FUNC GLOBAL DEFAULT UND _ZN7android8hardware5medi
344:   FUNC GLOBAL DEFAULT UND _ZN7android12IOMXObserver
345:   FUNC GLOBAL DEFAULT UND _ZN7android12IOMXObserver
346:   FUNC GLOBAL DEFAULT UND _ZNKSt3__120__vector_base
347:   OBJECT GLOBAL DEFAULT UND _ZN7android12IOMXObserver
348:   FUNC GLOBAL DEFAULT UND _ZN7android6binder6Status
349:   FUNC GLOBAL DEFAULT UND _ZN7android17BnOMXBufferS
350:   FUNC GLOBAL DEFAULT UND _ZThn8_N7android17BnOMXBu
351:   FUNC GLOBAL DEFAULT UND _ZN7android16IOMXBufferSo
352:   FUNC GLOBAL DEFAULT UND _ZN7android16IOMXBufferSo
353:   FUNC GLOBAL DEFAULT UND _ZNK7android16IOMXBufferS
354:   FUNC GLOBAL DEFAULT UND _ZTv0_n24_N7android16IOMX
355:   FUNC GLOBAL DEFAULT UND _ZTv0_n24_N7android16IOMX
356:   FUNC GLOBAL DEFAULT UND _ZN7android16IOMXBufferSo
357:   FUNC GLOBAL DEFAULT UND _ZNK7android8hardware6Sta
358:   FUNC GLOBAL DEFAULT UND _ZN7android16IOMXBufferSo
359:   OBJECT GLOBAL DEFAULT UND _ZN7android16IOMXBufferSo
360:   FUNC WEAK DEFAULT UND android_set_abort_message@LIBC (2)
361:   FUNC GLOBAL DEFAULT UND write@LIBC (2)
362:   FUNC GLOBAL DEFAULT UND memset@LIBC (2)
363:   FUNC GLOBAL DEFAULT UND strcpy@LIBC (2)
364:   FUNC GLOBAL DEFAULT UND memcpy@LIBC (2)
365:   FUNC GLOBAL DEFAULT UND memmove@LIBC (2)
366:   FUNC GLOBAL DEFAULT UND __stack_chk_fail@LIBC (2)
367:   OBJECT GLOBAL DEFAULT 18 _ZTCN7android15OMXNodeIns
368:   FUNC GLOBAL DEFAULT 14 _ZN7android8hardware5medi
369:   FUNC GLOBAL DEFAULT 14 _ZN7android8hardware5medi
370:   FUNC GLOBAL DEFAULT 14 _ZN7android8hardware5medi
371:   OBJECT GLOBAL DEFAULT 18 _ZTCN7android8hardware5me
372:   FUNC GLOBAL DEFAULT 14 _ZN7android8hardware5medi
373:   FUNC GLOBAL DEFAULT 14 _ZN7android15OMXNodeInsta
374:   FUNC GLOBAL DEFAULT 14 _ZN7android15OMXNodeInsta
375:   FUNC GLOBAL DEFAULT 14 _ZN7android15OMXNodeInsta
376:   FUNC GLOBAL DEFAULT 14 _ZN7android8hardware5medi
377:   FUNC GLOBAL DEFAULT 14 _ZN7android8hardware5medi
378:   FUNC GLOBAL DEFAULT 14 _ZN7android8hardware5medi
379:   FUNC GLOBAL DEFAULT 14 _ZN7android8hardware5medi
380:   OBJECT GLOBAL DEFAULT 18 _ZTCN7android8hardware5me
381:   OBJECT GLOBAL DEFAULT 18 _ZTVN7android8hardware5me
382:   FUNC GLOBAL DEFAULT 14 _ZN7android15OMXNodeInsta
383:   FUNC GLOBAL DEFAULT 14 _ZN7android15OMXNodeInsta
384:   FUNC GLOBAL DEFAULT 14 _ZN7android26DescribeColo
385:   FUNC GLOBAL DEFAULT 14 _ZN7android8hardware5medi
386:   FUNC GLOBAL DEFAULT 14 _ZN7android8hardware5medi
387:   FUNC GLOBAL DEFAULT 14 _ZN7android8hardware5medi
388:   OBJECT GLOBAL DEFAULT 18 _ZTCN7android8hardware5me
389:   FUNC GLOBAL DEFAULT 14 _ZN7android15OMXNodeInsta
390:   FUNC GLOBAL DEFAULT 14 _ZN7android18StatusFromOM
391:   FUNC GLOBAL DEFAULT 14 _ZN7android15OMXNodeInsta
392:   FUNC GLOBAL DEFAULT 14 _ZN7android15OMXNodeInsta
393:   FUNC GLOBAL DEFAULT 14 _ZN7android15OMXNodeInsta
394:   FUNC GLOBAL DEFAULT 14 _ZN7android19DescribeColo
395:   FUNC GLOBAL DEFAULT 14 _ZN7android8hardware5medi
396:   OBJECT GLOBAL DEFAULT 18 _ZTVN7android15OMXNodeIns
397:   FUNC GLOBAL DEFAULT 14 _ZN7android22OmxGraphicBu
398:   FUNC GLOBAL DEFAULT 14 _ZN7android8hardware5medi
399:   FUNC GLOBAL DEFAULT 14 _ZN7android8hardware5medi
400:   FUNC GLOBAL DEFAULT 14 _ZN7android15OMXNodeInsta
401:   FUNC GLOBAL DEFAULT 14 _ZN7android16GetComponent
402:   FUNC GLOBAL DEFAULT 14 _ZN7android22OmxGraphicBu
403:   FUNC GLOBAL DEFAULT 14 _ZN7android8hardware5medi
404:   FUNC GLOBAL DEFAULT 14 _ZN7android8hardware5medi
405:   OBJECT GLOBAL DEFAULT 18 _ZTTN7android15OMXNodeIns
406:   OBJECT GLOBAL DEFAULT 18 _ZTCN7android15OMXNodeIns
407:   FUNC GLOBAL DEFAULT 14 _ZN7android8hardware5medi
408:   FUNC WEAK DEFAULT 14 _ZNSt3__127__tree_balance
409:   FUNC GLOBAL DEFAULT 14 _ZN7android25DescribeColo
410:   FUNC GLOBAL DEFAULT 14 _ZN7android8hardware5medi
411:   FUNC GLOBAL DEFAULT 14 _ZN7android8hardware5medi
412:   FUNC GLOBAL DEFAULT 14 _ZN7android8hardware5medi
413:   FUNC WEAK DEFAULT 14 _ZN7android11BnInterfaceI
414:   OBJECT GLOBAL DEFAULT 18 _ZTTN7android8hardware5me
415:   FUNC GLOBAL DEFAULT 14 _ZN7android9OMXMaster15ad
416:   FUNC GLOBAL DEFAULT 14 _ZN7android9OMXMaster12cl
417:   FUNC GLOBAL DEFAULT 14 _ZN7android9OMXMasterC1Ev
418:   FUNC GLOBAL DEFAULT 14 _ZN7android15OMXNodeInsta
419:   FUNC GLOBAL DEFAULT 14 _ZN7android15OMXNodeInsta
420:   FUNC GLOBAL DEFAULT 14 _ZN7android15OMXNodeInsta
421:   FUNC GLOBAL DEFAULT 14 _ZN7android8hardware5medi
422:   FUNC GLOBAL DEFAULT 14 _ZN7android8hardware5medi
423:   OBJECT GLOBAL DEFAULT 18 _ZTCN7android8hardware5me
424:   OBJECT GLOBAL DEFAULT 18 _ZTCN7android8hardware5me
425:   FUNC GLOBAL DEFAULT 14 _ZN7android8hardware5medi
426:   OBJECT GLOBAL DEFAULT 18 _ZTCN7android8hardware5me
427:   FUNC GLOBAL DEFAULT 14 _ZN7android9OMXMasterC2Ev
428:   FUNC GLOBAL DEFAULT 14 _ZN7android15OMXNodeInsta
429:   OBJECT GLOBAL DEFAULT 18 _ZTVN7android15OMXNodeIns
430:   FUNC GLOBAL DEFAULT 14 _ZN7android9OMXMaster19ge
431:   FUNC GLOBAL DEFAULT 14 _ZN7android8hardware5medi
432:   FUNC GLOBAL DEFAULT 14 _ZN7android22OmxGraphicBu
433:   OBJECT GLOBAL DEFAULT 18 _ZTCN7android8hardware5me
434:   OBJECT GLOBAL DEFAULT 18 _ZTTN7android8hardware5me
435:   OBJECT GLOBAL DEFAULT 18 _ZTTN7android8hardware5me
436:   FUNC GLOBAL DEFAULT 14 _ZN7android15OMXNodeInsta
437:   FUNC GLOBAL DEFAULT 14 _ZN7android15OMXNodeInsta
438:   FUNC GLOBAL DEFAULT 14 _ZN7android8hardware5medi
439:   FUNC GLOBAL DEFAULT 14 _ZN7android15OMXNodeInsta
440:   FUNC GLOBAL DEFAULT 14 _ZN7android15OMXNodeInsta
441:   FUNC GLOBAL DEFAULT 14 _ZN7android21IsFlexibleCo
442:   FUNC WEAK DEFAULT 14 _ZNSt3__124__put_characte
443:   FUNC GLOBAL DEFAULT 14 _ZN7android8hardware5medi
444:   FUNC GLOBAL DEFAULT 14 _ZN7android8hardware5medi
445:   OBJECT GLOBAL DEFAULT 18 _ZTCN7android8hardware5me
446:   FUNC GLOBAL DEFAULT 14 _ZN7android8hardware5medi
447:   FUNC WEAK DEFAULT 14 _ZN7android11BnInterfaceI
448:   FUNC GLOBAL DEFAULT 14 _ZN7android15OMXNodeInsta
449:   FUNC GLOBAL DEFAULT 14 _ZN7android15OMXNodeInsta
450:   FUNC GLOBAL DEFAULT 14 _ZN7android8hardware5medi
451:   FUNC GLOBAL DEFAULT 14 _ZN7android15OMXNodeInsta
452:   FUNC GLOBAL DEFAULT 14 _ZN7android15OMXNodeInsta
453:   FUNC GLOBAL DEFAULT 14 _ZN7android8hardware5medi
454:   OBJECT GLOBAL DEFAULT 18 _ZTCN7android8hardware5me
455:   FUNC GLOBAL DEFAULT 14 _ZN7android8hardware5medi
456:   FUNC GLOBAL DEFAULT 14 _ZN7android15OMXNodeInsta
457:   FUNC GLOBAL DEFAULT 14 _ZN7android26DescribeDefa
458:   FUNC GLOBAL DEFAULT 14 _ZN7android8hardware5medi
459:   FUNC GLOBAL DEFAULT 14 _ZN7android8hardware5medi
460:   OBJECT GLOBAL DEFAULT 18 _ZTCN7android8hardware5me
461:   OBJECT GLOBAL DEFAULT 18 _ZTCN7android15OMXNodeIns
462:   OBJECT GLOBAL DEFAULT 18 _ZTTN7android8hardware5me
463:   FUNC GLOBAL DEFAULT 14 _ZN7android8hardware5medi
464:   FUNC GLOBAL DEFAULT 14 _ZN7android15OMXNodeInsta
465:   OBJECT WEAK DEFAULT 18 _ZTVN7android18OMXFencePa
466:   OBJECT GLOBAL DEFAULT 18 _ZTCN7android15OMXNodeIns
467:   FUNC GLOBAL DEFAULT 14 _ZN7android8hardware5medi
468:   FUNC GLOBAL DEFAULT 14 _ZN7android8hardware5medi
469:   FUNC GLOBAL DEFAULT 14 _ZN7android9OMXMaster19en
470:   FUNC GLOBAL DEFAULT 14 __cfi_check
471:   FUNC GLOBAL DEFAULT 14 _ZN7android15OMXNodeInsta
472:   FUNC GLOBAL DEFAULT 14 _ZN7android8hardware5medi
473:   FUNC GLOBAL DEFAULT 14 _ZN7android8hardware5medi
474:   FUNC GLOBAL DEFAULT 14 _ZN7android15OMXNodeInsta
475:   OBJECT GLOBAL DEFAULT 18 _ZTTN7android8hardware5me
476:   FUNC GLOBAL DEFAULT 14 _ZN7android8hardware5medi
477:   FUNC GLOBAL DEFAULT 14 _ZN7android8hardware5medi
478:   FUNC GLOBAL DEFAULT 14 _ZN7android15OMXNodeInsta
479:   FUNC GLOBAL DEFAULT 14 _ZN7android16SetComponent
480:   FUNC GLOBAL DEFAULT 14 _ZN7android8hardware5medi
481:   FUNC GLOBAL DEFAULT 14 _ZN7android8hardware5medi
482:   FUNC GLOBAL DEFAULT 14 _ZN7android8hardware5medi
483:   FUNC GLOBAL DEFAULT 14 _ZN7android8hardware5medi
484:   OBJECT GLOBAL DEFAULT 18 _ZTVN7android8hardware5me
485:   OBJECT GLOBAL DEFAULT 18 _ZTCN7android8hardware5me
486:   FUNC GLOBAL DEFAULT 14 _ZN7android9OMXMaster24de
487:   FUNC GLOBAL DEFAULT 14 _ZN7android15OMXNodeInsta
488:   FUNC GLOBAL DEFAULT 14 _ZN7android8hardware5medi
489:   OBJECT GLOBAL DEFAULT 18 _ZTCN7android8hardware5me
490:   OBJECT GLOBAL DEFAULT 18 _ZTCN7android8hardware5me
491:   FUNC GLOBAL DEFAULT 14 _ZN7android15OMXNodeInsta
492:   OBJECT GLOBAL DEFAULT 18 _ZTCN7android8hardware5me
493:   FUNC GLOBAL DEFAULT 14 _ZN7android15OMXNodeInsta
494:   OBJECT GLOBAL DEFAULT 18 _ZTTN7android8hardware5me
495:   FUNC GLOBAL DEFAULT 14 _ZN7android8hardware5medi
496:   OBJECT GLOBAL DEFAULT 18 _ZTCN7android8hardware5me
497:   OBJECT GLOBAL DEFAULT 18 _ZTCN7android8hardware5me
498:   OBJECT GLOBAL DEFAULT 16 _ZN7android15OMXNodeInsta
499:   FUNC GLOBAL DEFAULT 14 _ZN7android8hardware5medi
500:   FUNC GLOBAL DEFAULT 14 _ZN7android8hardware5medi
501:   FUNC GLOBAL DEFAULT 14 _ZN7android15OMXNodeInsta
502:   FUNC GLOBAL DEFAULT 14 _ZN7android15OMXNodeInsta
503:   OBJECT GLOBAL DEFAULT 18 _ZTVN7android8hardware5me
504:   FUNC GLOBAL DEFAULT 14 _ZN7android8hardware5medi
505:   FUNC GLOBAL DEFAULT 14 _ZN7android15OMXNodeInsta
506:   OBJECT GLOBAL DEFAULT 18 _ZTVN7android8hardware5me
507:   OBJECT GLOBAL DEFAULT 18 _ZTCN7android8hardware5me
508:   FUNC GLOBAL DEFAULT 14 _ZN7android15OMXNodeInsta
509:   FUNC GLOBAL DEFAULT 14 _ZN7android8hardware5medi
510:   FUNC GLOBAL DEFAULT 14 _ZN7android8hardware5medi
511:   FUNC GLOBAL DEFAULT 14 _ZN7android15OMXNodeInsta
512:   FUNC GLOBAL DEFAULT 14 _ZN7android15OMXNodeInsta
513:   FUNC GLOBAL DEFAULT 14 _ZTv0_n24_N7android8hardw
514:   OBJECT GLOBAL DEFAULT 18 _ZTTN7android8hardware5me
515:   FUNC GLOBAL DEFAULT 14 _ZN7android8hardware5medi
516:   FUNC GLOBAL DEFAULT 14 _ZTv0_n24_N7android15OMXN
517:   FUNC GLOBAL DEFAULT 14 _ZTv0_n24_N7android8hardw
518:   FUNC GLOBAL DEFAULT 14 _ZN7android8hardware5medi
519:   FUNC GLOBAL DEFAULT 14 _ZN7android15OMXNodeInsta
520:   FUNC GLOBAL DEFAULT 14 _ZTv0_n24_N7android15OMXN
521:   FUNC GLOBAL DEFAULT 14 _ZN7android15OMXNodeInsta
522:   FUNC GLOBAL DEFAULT 14 _ZN7android8hardware5medi
523:   OBJECT GLOBAL DEFAULT 18 _ZTVN7android8hardware5me
524:   FUNC GLOBAL DEFAULT 14 _ZN7android8hardware5medi
525:   FUNC GLOBAL DEFAULT 14 _ZN7android8hardware5medi
526:   OBJECT GLOBAL DEFAULT 18 _ZTCN7android8hardware5me
527:   OBJECT GLOBAL DEFAULT 18 _ZTCN7android8hardware5me
528:   FUNC GLOBAL DEFAULT 14 _ZN7android8hardware5medi
529:   FUNC GLOBAL DEFAULT 14 _ZN7android8hardware5medi
530:   FUNC GLOBAL DEFAULT 14 _ZN7android9OMXMasterD0Ev
531:   FUNC GLOBAL DEFAULT 14 _ZN7android15OMXNodeInsta
532:   FUNC GLOBAL DEFAULT 14 _ZN7android15OMXNodeInsta
533:   FUNC GLOBAL DEFAULT 14 _ZN7android15OMXNodeInsta
534:   OBJECT GLOBAL DEFAULT 18 _ZTTN7android15OMXNodeIns
535:   OBJECT GLOBAL DEFAULT 18 _ZTCN7android15OMXNodeIns
536:   OBJECT GLOBAL DEFAULT 18 _ZTCN7android8hardware5me
537:   FUNC GLOBAL DEFAULT 14 _ZN7android8hardware5medi
538:   FUNC GLOBAL DEFAULT 14 _ZN7android9OMXMaster9add
539:   FUNC GLOBAL DEFAULT 14 _ZN7android9OMXMasterD1Ev
540:   FUNC GLOBAL DEFAULT 14 _ZN7android15OMXNodeInsta
541:   FUNC GLOBAL DEFAULT 14 _ZN7android9OMXMasterD2Ev
542:   FUNC GLOBAL DEFAULT 14 _ZN7android15OMXNodeInsta
543:   FUNC GLOBAL DEFAULT 14 _ZN7android15OMXNodeInsta
544:   FUNC GLOBAL DEFAULT 14 _ZN7android15OMXNodeInsta
545:   FUNC GLOBAL DEFAULT 14 _ZN7android15OMXNodeInsta
546:   OBJECT GLOBAL DEFAULT 18 _ZTVN7android15OMXNodeIns
547:   FUNC GLOBAL DEFAULT 14 _ZN7android15OMXNodeInsta
548:   FUNC GLOBAL DEFAULT 14 _ZN7android15OMXNodeInsta
549:   FUNC GLOBAL DEFAULT 14 _ZN7android15OMXNodeInsta
550:   FUNC GLOBAL DEFAULT 14 _ZN7android15OMXNodeInsta
551:   FUNC GLOBAL DEFAULT 14 _ZN7android8hardware5medi
552:   FUNC GLOBAL DEFAULT 14 _ZN7android8hardware5medi
553:   FUNC GLOBAL DEFAULT 14 _ZThn8_N7android15OMXNode
554:   FUNC GLOBAL DEFAULT 14 _ZN7android15OMXNodeInsta
555:   FUNC GLOBAL DEFAULT 14 _ZTv0_n24_N7android8hardw
556:   FUNC GLOBAL DEFAULT 14 _ZThn8_N7android15OMXNode
557:   FUNC GLOBAL DEFAULT 14 _ZN7android15OMXNodeInsta
558:   FUNC GLOBAL DEFAULT 14 _ZTv0_n24_N7android8hardw
559:   FUNC GLOBAL DEFAULT 14 _ZThn8_N7android8hardware
560:   FUNC GLOBAL DEFAULT 14 _ZN7android8hardware5medi
561:   FUNC GLOBAL DEFAULT 14 _ZN7android15OMXNodeInsta
562:   FUNC GLOBAL DEFAULT 14 _ZThn8_N7android8hardware
563:   FUNC GLOBAL DEFAULT 14 _ZThn8_N7android8hardware
564:   FUNC GLOBAL DEFAULT 14 HIDL_FETCH_IOmx
565:   OBJECT GLOBAL DEFAULT 18 _ZTCN7android8hardware5me
566:   FUNC GLOBAL DEFAULT 14 _ZN7android8hardware5medi
567:   FUNC GLOBAL DEFAULT 14 _ZN7android8hardware5medi
568:   FUNC GLOBAL DEFAULT 14 _ZN7android8hardware5medi
569:   FUNC GLOBAL DEFAULT 14 _ZN7android8hardware5medi
570:   OBJECT GLOBAL DEFAULT 18 _ZTVN7android8hardware5me
571:   FUNC GLOBAL DEFAULT 14 _ZN7android9OMXMaster17ad
572:   FUNC GLOBAL DEFAULT 14 _ZN7android15OMXNodeInsta
573:   FUNC GLOBAL DEFAULT 14 _ZN7android8hardware5medi
574:   OBJECT GLOBAL DEFAULT 18 _ZTCN7android8hardware5me
575:   FUNC GLOBAL DEFAULT 14 _ZN7android15OMXNodeInsta
576:   FUNC GLOBAL DEFAULT 14 _ZN7android8hardware5medi
577:   FUNC GLOBAL DEFAULT 14 _ZN7android8hardware5medi
578:   OBJECT GLOBAL DEFAULT 18 _ZTTN7android8hardware5me
579:   OBJECT GLOBAL DEFAULT 18 _ZTCN7android8hardware5me
580:   FUNC GLOBAL DEFAULT 14 _ZN7android8hardware5medi
581:   FUNC GLOBAL DEFAULT 14 _ZN7android15OMXNodeInsta
582:   FUNC GLOBAL DEFAULT 14 _ZN7android15OMXNodeInsta
583:   FUNC GLOBAL DEFAULT 14 _ZN7android8hardware5medi
584:   FUNC GLOBAL DEFAULT 14 _ZN7android8hardware5medi
585:   OBJECT GLOBAL DEFAULT 18 _ZTTN7android8hardware5me
586:   FUNC GLOBAL DEFAULT 14 _ZN7android15OMXNodeInsta
587:   FUNC GLOBAL DEFAULT 14 _ZN7android15OMXNodeInsta
588:   FUNC GLOBAL DEFAULT 14 _ZN7android8hardware5medi
589:   OBJECT GLOBAL DEFAULT 18 _ZTCN7android8hardware5me
590:   OBJECT GLOBAL DEFAULT 18 _ZTVN7android8hardware5me
591:   OBJECT GLOBAL DEFAULT 18 _ZTCN7android8hardware5me
592:   FUNC GLOBAL DEFAULT 14 _ZN7android15OMXNodeInsta
593:   OBJECT GLOBAL DEFAULT 18 _ZTCN7android8hardware5me
594:   FUNC GLOBAL DEFAULT 14 _ZN7android8hardware5medi
595:   FUNC GLOBAL DEFAULT 14 _ZN7android8hardware5medi
596:   FUNC GLOBAL DEFAULT 14 _ZN7android8hardware5medi
597:   FUNC GLOBAL DEFAULT 14 _ZN7android9OMXMaster9add
598:   FUNC WEAK DEFAULT 14 _ZN7android11BnInterfaceI
599:   FUNC GLOBAL DEFAULT 14 _ZN7android8hardware5medi
600:   FUNC GLOBAL DEFAULT 14 _ZN7android15OMXNodeInsta
601:   FUNC GLOBAL DEFAULT 14 _ZN7android8hardware5medi
602:   OBJECT GLOBAL DEFAULT 18 _ZTVN7android9OMXMasterE
603:   FUNC GLOBAL DEFAULT 14 _ZN7android15OMXNodeInsta
604:   FUNC GLOBAL DEFAULT 14 _ZN7android22OmxGraphicBu
605:   FUNC GLOBAL DEFAULT 14 _ZN7android8hardware5medi
606:   OBJECT GLOBAL DEFAULT 18 _ZTCN7android8hardware5me
607:   FUNC GLOBAL DEFAULT 14 _ZN7android15OMXNodeInsta
608:   OBJECT GLOBAL DEFAULT 18 _ZTCN7android15OMXNodeIns
609:   FUNC GLOBAL DEFAULT 14 _ZN7android15OMXNodeInsta
610:   FUNC GLOBAL DEFAULT 14 _ZN7android25DescribeColo
611:   OBJECT GLOBAL DEFAULT 18 _ZTCN7android8hardware5me
612:   FUNC GLOBAL DEFAULT 14 _ZN7android9OMXMaster21ma
613:   FUNC GLOBAL DEFAULT 14 _ZN7android8hardware5medi
614:   OBJECT GLOBAL DEFAULT 18 _ZTVN7android8hardware5me
615:   OBJECT GLOBAL DEFAULT 18 _ZTVN7android8hardware5me
616:   FUNC GLOBAL DEFAULT 14 _ZN7android15OMXNodeInsta
617:   FUNC GLOBAL DEFAULT 14 _ZN7android8hardware5medi
618:   FUNC GLOBAL DEFAULT 14 _ZN7android8hardware5medi
619:   FUNC GLOBAL DEFAULT 14 _ZN7android8hardware5medi
620:   FUNC GLOBAL DEFAULT 14 _ZN7android15OMXNodeInsta
621:   FUNC GLOBAL DEFAULT 14 _ZN7android11MediaImage21
622:   FUNC GLOBAL DEFAULT 14 _ZN7android8hardware5medi
623:   FUNC GLOBAL DEFAULT 14 _ZN7android15OMXNodeInsta
624:   FUNC GLOBAL DEFAULT 14 _ZN7android8hardware5medi
625:   FUNC GLOBAL DEFAULT 14 _ZN7android15OMXNodeInsta
626:   FUNC GLOBAL DEFAULT 14 _ZN7android8hardware5medi
627:   FUNC GLOBAL DEFAULT 14 _ZN7android15OMXNodeInsta
628:   FUNC GLOBAL DEFAULT 14 _ZN7android15OMXNodeInsta
629:   OBJECT GLOBAL DEFAULT 18 _ZTCN7android15OMXNodeIns
630:   FUNC GLOBAL DEFAULT 14 _ZN7android8hardware5medi
631:   FUNC GLOBAL DEFAULT 14 _ZN7android8hardware5medi
632:   FUNC GLOBAL DEFAULT 14 _ZN7android8hardware5medi
633:   OBJECT GLOBAL DEFAULT 18 _ZTCN7android8hardware5me
634:   FUNC GLOBAL DEFAULT 14 _ZN7android8hardware5medi
635:   FUNC GLOBAL DEFAULT 14 _ZN7android8hardware5medi
636:   FUNC GLOBAL DEFAULT 14 _ZN7android15OMXNodeInsta
637:   FUNC GLOBAL DEFAULT 14 _ZN7android15OMXNodeInsta
638:   FUNC GLOBAL DEFAULT 14 _ZN7android15OMXNodeInsta
639:   FUNC GLOBAL DEFAULT 14 _ZN7android8hardware5medi
640:   OBJECT GLOBAL DEFAULT 18 _ZTCN7android8hardware5me
641:   OBJECT GLOBAL DEFAULT 18 _ZTCN7android8hardware5me
