 0x000000000000000e (SONAME)             Library soname: [libhardware_legacy.so]
  
Symbol   contains 65 entries:
Num:   Type Bind Vis Ndx Name
0:   NOTYPE LOCAL DEFAULT UND
1:   FUNC GLOBAL DEFAULT UND __cxa_finalize@LIBC (2)
2:   FUNC GLOBAL DEFAULT UND _ZN7android14sp_report_ra
3:   FUNC GLOBAL DEFAULT UND _ZN7android4base10LogMess
4:   FUNC GLOBAL DEFAULT UND _ZN7android4base10LogMess
5:   FUNC GLOBAL DEFAULT UND _ZN7android4base10LogMess
6:   FUNC GLOBAL DEFAULT UND _ZN7android4base21GetMini
7:   FUNC GLOBAL DEFAULT UND _ZN7android6system7suspen
8:   FUNC GLOBAL DEFAULT UND _ZN7android8hardware11hid
9:   FUNC GLOBAL DEFAULT UND _ZN7android8hardware11hid
10:   FUNC GLOBAL DEFAULT UND _ZN7android8hardware7deta
11:   FUNC GLOBAL DEFAULT UND _ZNK7android7RefBase9decS
12:   FUNC GLOBAL DEFAULT UND _ZNK7android7RefBase9incS
13:   FUNC GLOBAL DEFAULT UND _ZNK7android8hardware6Sta
14:   FUNC GLOBAL DEFAULT UND _ZNK7android8hardware7det
15:   FUNC GLOBAL DEFAULT UND _ZNKSt3__121__basic_strin
16:   FUNC GLOBAL DEFAULT UND _ZNKSt3__16locale9use_fac
17:   FUNC GLOBAL DEFAULT UND _ZNKSt3__18ios_base6getlo
18:   FUNC GLOBAL DEFAULT UND _ZNSt3__112__next_primeEm
19:   FUNC GLOBAL DEFAULT UND _ZNSt3__113basic_ostreamI
20:   FUNC GLOBAL DEFAULT UND _ZNSt3__113basic_ostreamI
21:   OBJECT GLOBAL DEFAULT UND _ZNSt3__15ctypeIcE2idE
22:   FUNC GLOBAL DEFAULT UND _ZNSt3__15mutex4lockEv
23:   FUNC GLOBAL DEFAULT UND _ZNSt3__15mutex6unlockEv
24:   FUNC GLOBAL DEFAULT UND _ZNSt3__16localeD1Ev
25:   FUNC GLOBAL DEFAULT UND _ZNSt3__18ios_base5clearE
26:   FUNC GLOBAL DEFAULT UND _ZdlPv
27:   FUNC GLOBAL DEFAULT UND _Znwm
28:   FUNC GLOBAL DEFAULT UND __cxa_guard_acquire
29:   FUNC GLOBAL DEFAULT UND __cxa_guard_release
30:   FUNC GLOBAL DEFAULT UND __errno@LIBC (2)
31:   FUNC GLOBAL DEFAULT UND __stack_chk_fail@LIBC (2)
32:   FUNC GLOBAL DEFAULT UND abort@LIBC (2)
33:   FUNC GLOBAL DEFAULT UND atrace_begin_body
34:   OBJECT GLOBAL DEFAULT UND atrace_enabled_tags
35:   FUNC GLOBAL DEFAULT UND atrace_end_body
36:   OBJECT GLOBAL DEFAULT UND atrace_is_ready
37:   FUNC GLOBAL DEFAULT UND atrace_setup
38:   FUNC GLOBAL DEFAULT UND memcmp@LIBC (2)
39:   FUNC GLOBAL DEFAULT UND memcpy@LIBC (2)
40:   FUNC GLOBAL DEFAULT UND memset@LIBC (2)
41:   FUNC GLOBAL DEFAULT UND strlen@LIBC (2)
42:   FUNC GLOBAL DEFAULT UND __poll_chk@LIBC (2)
43:   FUNC GLOBAL DEFAULT UND bind@LIBC (2)
44:   FUNC GLOBAL DEFAULT UND close@LIBC (2)
45:   FUNC GLOBAL DEFAULT UND getpid@LIBC (2)
46:   FUNC GLOBAL DEFAULT UND malloc@LIBC (2)
47:   FUNC GLOBAL DEFAULT UND pthread_mutex_lock@LIBC (2)
48:   FUNC GLOBAL DEFAULT UND pthread_mutex_unlock@LIBC (2)
49:   FUNC GLOBAL DEFAULT UND recvfrom@LIBC (2)
50:   FUNC GLOBAL DEFAULT UND setsockopt@LIBC (2)
51:   FUNC GLOBAL DEFAULT UND socket@LIBC (2)
52:   FUNC WEAK DEFAULT 14 _ZNSt3__112__hash_tableIN
53:   FUNC WEAK DEFAULT 14 _ZNSt3__112__hash_tableIN
54:   FUNC WEAK DEFAULT 14 _ZNSt3__124__put_characte
55:   FUNC GLOBAL DEFAULT 14 release_wake_lock
56:   FUNC GLOBAL DEFAULT 14 uevent_remove_native_hand
57:   FUNC WEAK DEFAULT 14 _ZNSt3__112__hash_tableIN
58:   FUNC GLOBAL DEFAULT 14 acquire_wake_lock
59:   OBJECT GLOBAL DEFAULT 21 uevent_handler_list
60:   FUNC GLOBAL DEFAULT 14 uevent_init
61:   FUNC GLOBAL DEFAULT 14 uevent_next_event
62:   FUNC GLOBAL DEFAULT 14 uevent_add_native_handler
63:   FUNC GLOBAL DEFAULT 14 uevent_get_fd
64:   OBJECT GLOBAL DEFAULT 21 uevent_handler_list_lock
