 0x000000000000000e (SONAME)             Library soname: [libc.so]
  
Symbol   contains 1371 entries:
Num:   Type Bind Vis Ndx Name
0:   NOTYPE LOCAL DEFAULT UND
1:   FUNC GLOBAL DEFAULT UND dlerror@LIBC (10)
2:   FUNC GLOBAL DEFAULT UND dlopen@LIBC (10)
3:   FUNC GLOBAL DEFAULT UND dlsym@LIBC (10)
4:   FUNC GLOBAL DEFAULT UND android_dlopen_ext@LIBC (10)
5:   FUNC GLOBAL DEFAULT UND dlclose@LIBC (10)
6:   FUNC GLOBAL DEFAULT UND __loader_shared_globals
7:   FUNC GLOBAL DEFAULT UND android_get_application_t@LIBC_N (11)
8:   FUNC WEAK DEFAULT UND __loader_add_thread_local
9:   FUNC WEAK DEFAULT UND __loader_remove_thread_lo
10:   FUNC WEAK DEFAULT UND __loader_android_get_expo
11:   FUNC GLOBAL DEFAULT 14 __isinf@@LIBC
12:   FUNC GLOBAL DEFAULT 14 getnetbyname@@LIBC
13:   FUNC GLOBAL DEFAULT 14 hdestroy_r@@LIBC_P
14:   FUNC GLOBAL DEFAULT 14 wmemchr@@LIBC
15:   FUNC GLOBAL DEFAULT 14 bsearch@@LIBC
16:   FUNC GLOBAL DEFAULT 14 splice@@LIBC
17:   FUNC GLOBAL DEFAULT 14 ftello64@@LIBC_N
18:   FUNC GLOBAL DEFAULT 14 __isinff@@LIBC
19:   FUNC GLOBAL DEFAULT 14 inotify_init@@LIBC
20:   FUNC WEAK DEFAULT 14 android_getaddrinfofornet@@LIBC_Q
21:   FUNC GLOBAL DEFAULT 14 android_gethostbynameforn@@LIBC_PRIVATE
22:   FUNC GLOBAL DEFAULT 14 fnmatch@@LIBC
23:   FUNC GLOBAL DEFAULT 14 pthread_mutex_lock@@LIBC
24:   FUNC GLOBAL DEFAULT 14 sched_getcpu@@LIBC
25:   FUNC GLOBAL DEFAULT 14 pthread_mutexattr_destroy@@LIBC
26:   FUNC GLOBAL DEFAULT 14 sigwaitinfo64@@LIBC_P
27:   FUNC GLOBAL DEFAULT 14 ether_ntoa_r@@LIBC
28:   FUNC GLOBAL DEFAULT 14 posix_spawn_file_actions_@@LIBC_P
29:   FUNC GLOBAL DEFAULT 14 cfsetispeed@@LIBC
30:   FUNC GLOBAL DEFAULT 14 __res_nsend@@LIBC
31:   FUNC GLOBAL DEFAULT 14 vswprintf@@LIBC
32:   FUNC GLOBAL DEFAULT 14 sched_getparam@@LIBC
33:   FUNC GLOBAL DEFAULT 14 rewinddir@@LIBC
34:   FUNC GLOBAL DEFAULT 14 __strncpy_chk2@@LIBC
35:   FUNC GLOBAL DEFAULT 14 pthread_cond_signal@@LIBC
36:   FUNC GLOBAL DEFAULT 14 wcstoull@@LIBC
37:   FUNC WEAK DEFAULT 14 freeaddrinfo@@LIBC
38:   FUNC GLOBAL DEFAULT 14 android_net_res_stats_get@@LIBC_PLATFORM
39:   FUNC GLOBAL DEFAULT 14 wcscmp@@LIBC
40:   FUNC GLOBAL DEFAULT 14 alarm@@LIBC
41:   FUNC GLOBAL DEFAULT 14 clock_adjtime@@LIBC_N
42:   FUNC GLOBAL DEFAULT 14 sem_close@@LIBC
43:   FUNC GLOBAL DEFAULT 14 pthread_cond_timedwait@@LIBC
44:   FUNC GLOBAL DEFAULT 14 __dn_comp@@LIBC
45:   FUNC GLOBAL DEFAULT 14 tempnam@@LIBC
46:   FUNC GLOBAL DEFAULT 14 strftime@@LIBC
47:   FUNC GLOBAL DEFAULT 14 timelocal@@LIBC
48:   FUNC GLOBAL DEFAULT 14 pthread_rwlockattr_setpsh@@LIBC
49:   FUNC GLOBAL DEFAULT 14 __memchr_chk@@LIBC
50:   FUNC WEAK DEFAULT 14 pthread_create@@LIBC
51:   FUNC GLOBAL DEFAULT 14 __isinfl@@LIBC
52:   FUNC GLOBAL DEFAULT 14 getprotoent@@LIBC_P
53:   FUNC GLOBAL DEFAULT 14 sigsuspend64@@LIBC_P
54:   FUNC GLOBAL DEFAULT 14 __p_class@@LIBC
55:   FUNC GLOBAL DEFAULT 14 _resolv_set_nameservers_f@@LIBC
56:   FUNC GLOBAL DEFAULT 14 strlen@@LIBC
57:   FUNC GLOBAL DEFAULT 14 wcsrtombs@@LIBC
58:   FUNC GLOBAL DEFAULT 14 inet_aton@@LIBC
59:   FUNC GLOBAL DEFAULT 14 sendto@@LIBC
60:   FUNC GLOBAL DEFAULT 14 nsdispatch@@LIBC
61:   OBJECT GLOBAL DEFAULT 23 optarg@@LIBC
62:   FUNC GLOBAL DEFAULT 14 errx@@LIBC
63:   FUNC GLOBAL DEFAULT 14 setpriority@@LIBC
64:   FUNC GLOBAL DEFAULT 14 psignal@@LIBC
65:   FUNC WEAK DEFAULT 14 pthread_attr_setstacksize@@LIBC
66:   FUNC GLOBAL DEFAULT 14 putwchar@@LIBC
67:   FUNC GLOBAL DEFAULT 14 __p_cdnname@@LIBC
68:   FUNC GLOBAL DEFAULT 14 __stack_chk_fail@@LIBC
69:   FUNC GLOBAL DEFAULT 14 isalnum_l@@LIBC
70:   FUNC GLOBAL DEFAULT 14 getprotobyname@@LIBC
71:   FUNC GLOBAL DEFAULT 14 symlinkat@@LIBC
72:   FUNC GLOBAL DEFAULT 14 msgsnd@@LIBC_O
73:   FUNC GLOBAL DEFAULT 14 fts_children@@LIBC
74:   FUNC GLOBAL DEFAULT 14 strncasecmp_l@@LIBC
75:   FUNC GLOBAL DEFAULT 14 fputc@@LIBC
76:   FUNC GLOBAL DEFAULT 14 towlower@@LIBC
77:   OBJECT GLOBAL DEFAULT 23 __realloc_hook@@LIBC_P
78:   FUNC GLOBAL DEFAULT 14 __libc_current_sigrtmax@@LIBC
79:   FUNC GLOBAL DEFAULT 14 __pwrite64_chk@@LIBC_N
80:   FUNC GLOBAL DEFAULT 14 inet_makeaddr@@LIBC
81:   FUNC GLOBAL DEFAULT 14 strptime@@LIBC
82:   FUNC GLOBAL DEFAULT 14 isnormal@@LIBC
83:   FUNC WEAK DEFAULT 14 __system_property_update@@LIBC_PLATFORM
84:   FUNC GLOBAL DEFAULT 14 inet_ntoa@@LIBC
85:   OBJECT GLOBAL DEFAULT 23 __malloc_hook@@LIBC_P
86:   FUNC GLOBAL DEFAULT 14 mallinfo@@LIBC
87:   FUNC GLOBAL DEFAULT 14 mblen@@LIBC_O
88:   FUNC GLOBAL DEFAULT 14 sem_timedwait_monotonic_n@@LIBC_P
89:   FUNC GLOBAL DEFAULT 14 wcsncasecmp_l@@LIBC
90:   FUNC GLOBAL DEFAULT 14 iswspace_l@@LIBC
91:   FUNC GLOBAL DEFAULT 14 truncate@@LIBC
92:   FUNC GLOBAL DEFAULT 14 write@@LIBC
93:   FUNC GLOBAL DEFAULT 14 nftw@@LIBC
94:   FUNC GLOBAL DEFAULT 14 _getlong@@LIBC
95:   FUNC GLOBAL DEFAULT 14 lsetxattr@@LIBC
96:   FUNC WEAK DEFAULT 14 android_fdsan_create_owne@@LIBC_Q
97:   FUNC GLOBAL DEFAULT 14 wcslen@@LIBC
98:   FUNC GLOBAL DEFAULT 14 getgrouplist@@LIBC
99:   FUNC GLOBAL DEFAULT 14 fstatvfs@@LIBC
100:   OBJECT GLOBAL DEFAULT 18 sys_siglist@@LIBC
101:   FUNC GLOBAL DEFAULT 14 wait4@@LIBC
102:   FUNC GLOBAL DEFAULT 14 __res_send@@LIBC
103:   FUNC GLOBAL DEFAULT 14 __res_nameinquery@@LIBC
104:   FUNC GLOBAL DEFAULT 14 drand48@@LIBC
105:   FUNC GLOBAL DEFAULT 14 htonl@@LIBC
106:   FUNC WEAK DEFAULT 14 siglongjmp@@LIBC
107:   FUNC GLOBAL DEFAULT 14 catopen@@LIBC_O
108:   FUNC GLOBAL DEFAULT 14 setresgid@@LIBC
109:   FUNC GLOBAL DEFAULT 14 stat64@@LIBC
110:   FUNC WEAK DEFAULT 14 __system_property_area_in@@LIBC_PLATFORM
111:   FUNC GLOBAL DEFAULT 14 waitid@@LIBC
112:   FUNC GLOBAL DEFAULT 14 __ppoll_chk@@LIBC
113:   FUNC GLOBAL DEFAULT 14 sigprocmask@@LIBC
114:   FUNC GLOBAL DEFAULT 14 seekdir@@LIBC
115:   FUNC GLOBAL DEFAULT 14 tcgetsid@@LIBC
116:   FUNC GLOBAL DEFAULT 14 __res_nmkquery@@LIBC
117:   FUNC GLOBAL DEFAULT 14 getservent@@LIBC
118:   FUNC GLOBAL DEFAULT 14 __p_query@@LIBC
119:   FUNC WEAK DEFAULT 14 __system_property_find_nt@@LIBC
120:   FUNC GLOBAL DEFAULT 14 unsetenv@@LIBC
121:   FUNC GLOBAL DEFAULT 14 isprint@@LIBC
122:   FUNC GLOBAL DEFAULT 14 setpgrp@@LIBC
123:   FUNC GLOBAL DEFAULT 14 fstatfs64@@LIBC
124:   FUNC GLOBAL DEFAULT 14 __res_randomid@@LIBC_Q
125:   FUNC GLOBAL DEFAULT 14 __pread64_chk@@LIBC
126:   FUNC GLOBAL DEFAULT 14 lfind@@LIBC
127:   FUNC GLOBAL DEFAULT 14 getegid@@LIBC
128:   FUNC GLOBAL DEFAULT 14 pselect64@@LIBC_P
129:   FUNC WEAK DEFAULT 14 fork@@LIBC
130:   FUNC GLOBAL DEFAULT 14 vfwprintf@@LIBC
131:   FUNC GLOBAL DEFAULT 14 pthread_mutexattr_gettype@@LIBC
132:   FUNC GLOBAL DEFAULT 14 killpg@@LIBC
133:   FUNC GLOBAL DEFAULT 14 ftw64@@LIBC
134:   FUNC GLOBAL DEFAULT 14 posix_spawnattr_destroy@@LIBC_P
135:   FUNC GLOBAL DEFAULT 14 __res_nquerydomain@@LIBC
136:   FUNC GLOBAL DEFAULT 14 fseeko64@@LIBC_N
137:   FUNC WEAK DEFAULT 14 pthread_attr_destroy@@LIBC
138:   FUNC GLOBAL DEFAULT 14 htons@@LIBC
139:   FUNC GLOBAL DEFAULT 14 malloc_usable_size@@LIBC
140:   FUNC GLOBAL DEFAULT 14 uselocale@@LIBC
141:   FUNC GLOBAL DEFAULT 14 sigtimedwait64@@LIBC_P
142:   FUNC GLOBAL DEFAULT 14 swab@@LIBC_P
143:   FUNC GLOBAL DEFAULT 14 shmat@@LIBC_O
144:   FUNC GLOBAL DEFAULT 14 futimes@@LIBC_O
145:   FUNC GLOBAL DEFAULT 14 towupper_l@@LIBC
146:   FUNC GLOBAL DEFAULT 14 __p_cdname@@LIBC
147:   FUNC GLOBAL DEFAULT 14 pwrite64@@LIBC
148:   FUNC GLOBAL DEFAULT 14 fputs@@LIBC
149:   FUNC GLOBAL DEFAULT 14 getresgid@@LIBC
150:   FUNC GLOBAL DEFAULT 14 pathconf@@LIBC
151:   FUNC GLOBAL DEFAULT 14 readlinkat@@LIBC
152:   FUNC GLOBAL DEFAULT 14 strtoll_l@@LIBC
153:   FUNC GLOBAL DEFAULT 14 strsignal@@LIBC
154:   FUNC GLOBAL DEFAULT 14 vsyslog@@LIBC
155:   FUNC GLOBAL DEFAULT 14 iswctype_l@@LIBC
156:   FUNC GLOBAL DEFAULT 14 wcsncat@@LIBC
157:   FUNC GLOBAL DEFAULT 14 utmpname@@LIBC
158:   FUNC GLOBAL DEFAULT 14 inet_nsap_addr@@LIBC
159:   FUNC GLOBAL DEFAULT 14 raise@@LIBC
160:   FUNC GLOBAL DEFAULT 14 sigaddset@@LIBC
161:   FUNC GLOBAL DEFAULT 14 iswalnum@@LIBC
162:   FUNC GLOBAL DEFAULT 14 inet_ntop@@LIBC
163:   FUNC GLOBAL DEFAULT 14 srand48@@LIBC
164:   FUNC GLOBAL DEFAULT 14 warn@@LIBC
165:   FUNC GLOBAL DEFAULT 14 fsetpos@@LIBC
166:   FUNC GLOBAL DEFAULT 14 __flbf@@LIBC
167:   FUNC WEAK DEFAULT 14 pthread_gettid_np@@LIBC
168:   FUNC GLOBAL DEFAULT 14 posix_spawnattr_getsigdef@@LIBC_P
169:   FUNC GLOBAL DEFAULT 14 posix_spawnattr_setsigdef@@LIBC_P
170:   FUNC GLOBAL DEFAULT 14 __strchr_chk@@LIBC
171:   FUNC GLOBAL DEFAULT 14 tfind@@LIBC
172:   FUNC GLOBAL DEFAULT 14 toupper_l@@LIBC
173:   FUNC GLOBAL DEFAULT 14 wcsftime@@LIBC
174:   FUNC GLOBAL DEFAULT 14 __readlinkat_chk@@LIBC
175:   FUNC GLOBAL DEFAULT 14 mkdir@@LIBC
176:   FUNC GLOBAL DEFAULT 14 isspace_l@@LIBC
177:   FUNC GLOBAL DEFAULT 14 ppoll@@LIBC
178:   FUNC GLOBAL DEFAULT 14 tdelete@@LIBC
179:   FUNC GLOBAL DEFAULT 14 getgrent@@LIBC_O
180:   FUNC GLOBAL DEFAULT 14 ns_format_ttl@@LIBC
181:   FUNC GLOBAL DEFAULT 14 mbtowc@@LIBC
182:   FUNC GLOBAL DEFAULT 14 wctomb@@LIBC
183:   FUNC GLOBAL DEFAULT 14 pthread_getcpuclockid@@LIBC
184:   FUNC GLOBAL DEFAULT 14 ns_name_ntol@@LIBC
185:   FUNC GLOBAL DEFAULT 14 pthread_cond_broadcast@@LIBC
186:   FUNC GLOBAL DEFAULT 14 wcscspn@@LIBC
187:   FUNC GLOBAL DEFAULT 14 fdatasync@@LIBC
188:   FUNC GLOBAL DEFAULT 14 ispunct@@LIBC
189:   FUNC GLOBAL DEFAULT 14 memmem@@LIBC
190:   FUNC GLOBAL DEFAULT 14 posix_spawnattr_setsigmas@@LIBC_P
191:   FUNC GLOBAL DEFAULT 14 endservent@@LIBC
192:   FUNC GLOBAL DEFAULT 14 herror@@LIBC
193:   FUNC GLOBAL DEFAULT 14 __pwrite_chk@@LIBC_N
194:   FUNC GLOBAL DEFAULT 14 sendmmsg@@LIBC
195:   FUNC GLOBAL DEFAULT 14 time@@LIBC
196:   FUNC WEAK DEFAULT 14 __system_property_wait@@LIBC_O
197:   FUNC GLOBAL DEFAULT 14 fmemopen@@LIBC
198:   FUNC WEAK DEFAULT 14 pthread_getattr_np@@LIBC
199:   OBJECT GLOBAL DEFAULT 16 stderr@@LIBC
200:   FUNC GLOBAL DEFAULT 14 accept4@@LIBC
201:   FUNC GLOBAL DEFAULT 14 alphasort64@@LIBC
202:   FUNC GLOBAL DEFAULT 14 setgrent@@LIBC_O
203:   FUNC GLOBAL DEFAULT 14 posix_spawn_file_actions_@@LIBC_P
204:   FUNC GLOBAL DEFAULT 14 semctl@@LIBC_O
205:   FUNC GLOBAL DEFAULT 14 __FD_SET_chk@@LIBC
206:   FUNC GLOBAL DEFAULT 14 ns_name_ntop@@LIBC
207:   FUNC GLOBAL DEFAULT 14 swscanf@@LIBC
208:   FUNC GLOBAL DEFAULT 14 tcgetattr@@LIBC
209:   FUNC GLOBAL DEFAULT 14 globfree@@LIBC_P
210:   FUNC GLOBAL DEFAULT 14 setprotoent@@LIBC_P
211:   FUNC GLOBAL DEFAULT 14 shmctl@@LIBC_O
212:   FUNC GLOBAL DEFAULT 14 iswprint_l@@LIBC
213:   FUNC GLOBAL DEFAULT 14 __res_nquery@@LIBC
214:   OBJECT GLOBAL DEFAULT 16 _ctype_@@LIBC
215:   FUNC GLOBAL DEFAULT 14 clearenv@@LIBC
216:   FUNC GLOBAL DEFAULT 14 sigemptyset64@@LIBC_P
217:   FUNC GLOBAL DEFAULT 14 posix_spawn_file_actions_@@LIBC_P
218:   FUNC GLOBAL DEFAULT 14 ns_put16@@LIBC
219:   FUNC GLOBAL DEFAULT 14 sched_yield@@LIBC
220:   FUNC GLOBAL DEFAULT 14 getpid@@LIBC
221:   FUNC GLOBAL DEFAULT 14 isinf@@LIBC
222:   FUNC GLOBAL DEFAULT 14 ns_get32@@LIBC
223:   FUNC GLOBAL DEFAULT 14 ether_aton@@LIBC
224:   FUNC GLOBAL DEFAULT 14 fstat@@LIBC
225:   FUNC GLOBAL DEFAULT 14 __p_rcode@@LIBC
226:   FUNC GLOBAL DEFAULT 14 setitimer@@LIBC
227:   FUNC GLOBAL DEFAULT 14 imaxdiv@@LIBC
228:   FUNC GLOBAL DEFAULT 14 fgetpos64@@LIBC_N
229:   FUNC GLOBAL DEFAULT 14 ftello@@LIBC
230:   FUNC GLOBAL DEFAULT 14 syscall@@LIBC
231:   FUNC GLOBAL DEFAULT 14 brk@@LIBC
232:   FUNC GLOBAL DEFAULT 14 iswlower_l@@LIBC
233:   FUNC GLOBAL DEFAULT 14 psiginfo@@LIBC
234:   FUNC GLOBAL DEFAULT 14 __errno@@LIBC
235:   FUNC GLOBAL DEFAULT 14 malloc@@LIBC
236:   FUNC GLOBAL DEFAULT 14 strrchr@@LIBC
237:   FUNC GLOBAL DEFAULT 14 strchrnul@@LIBC_N
238:   FUNC GLOBAL DEFAULT 14 stpncpy@@LIBC
239:   FUNC GLOBAL DEFAULT 14 getuid@@LIBC
240:   FUNC GLOBAL DEFAULT 14 getgrgid_r@@LIBC_N
241:   FUNC GLOBAL DEFAULT 14 getchar@@LIBC
242:   FUNC GLOBAL DEFAULT 14 strncpy@@LIBC
243:   FUNC GLOBAL DEFAULT 14 posix_spawnp@@LIBC_P
244:   FUNC GLOBAL DEFAULT 14 statvfs@@LIBC
245:   FUNC GLOBAL DEFAULT 14 epoll_create@@LIBC
246:   FUNC GLOBAL DEFAULT 14 __p_fqnname@@LIBC
247:   FUNC GLOBAL DEFAULT 14 twalk@@LIBC
248:   OBJECT GLOBAL DEFAULT 23 __free_hook@@LIBC_P
249:   FUNC GLOBAL DEFAULT 14 lstat@@LIBC
250:   FUNC GLOBAL DEFAULT 14 setsid@@LIBC
251:   FUNC GLOBAL DEFAULT 14 sysconf@@LIBC
252:   FUNC GLOBAL DEFAULT 14 sem_getvalue@@LIBC
253:   FUNC GLOBAL DEFAULT 14 iswgraph@@LIBC
254:   FUNC GLOBAL DEFAULT 14 wcswidth@@LIBC
255:   FUNC GLOBAL DEFAULT 14 strftime_l@@LIBC
256:   FUNC GLOBAL DEFAULT 14 ether_ntoa@@LIBC
257:   FUNC WEAK DEFAULT 14 __system_property_get@@LIBC
258:   FUNC GLOBAL DEFAULT 14 if_nametoindex@@LIBC
259:   FUNC GLOBAL DEFAULT 14 sigwait64@@LIBC_P
260:   FUNC GLOBAL DEFAULT 14 getitimer@@LIBC
261:   FUNC GLOBAL DEFAULT 14 fopen64@@LIBC_N
262:   FUNC GLOBAL DEFAULT 14 __gnu_basename@@LIBC
263:   FUNC GLOBAL DEFAULT 14 flockfile@@LIBC
264:   FUNC GLOBAL DEFAULT 14 getpwnam@@LIBC
265:   FUNC GLOBAL DEFAULT 14 utimes@@LIBC
266:   FUNC GLOBAL DEFAULT 14 __putshort@@LIBC
267:   FUNC GLOBAL DEFAULT 14 execve@@LIBC
268:   FUNC GLOBAL DEFAULT 14 grantpt@@LIBC
269:   FUNC GLOBAL DEFAULT 14 setpgid@@LIBC
270:   FUNC GLOBAL DEFAULT 14 ns_msg_getflag@@LIBC
271:   FUNC GLOBAL DEFAULT 14 initgroups@@LIBC
272:   FUNC GLOBAL DEFAULT 14 sigaction@@LIBC
273:   FUNC GLOBAL DEFAULT 14 opendir@@LIBC
274:   FUNC GLOBAL DEFAULT 14 tcflush@@LIBC
275:   FUNC GLOBAL DEFAULT 14 wcslcpy@@LIBC
276:   FUNC GLOBAL DEFAULT 14 unlinkat@@LIBC
277:   FUNC GLOBAL DEFAULT 14 scandir64@@LIBC
278:   FUNC GLOBAL DEFAULT 14 mktemp@@LIBC
279:   FUNC GLOBAL DEFAULT 14 times@@LIBC
280:   FUNC GLOBAL DEFAULT 14 asctime@@LIBC
281:   FUNC GLOBAL DEFAULT 14 pthread_rwlock_tryrdlock@@LIBC
282:   FUNC GLOBAL DEFAULT 14 getxattr@@LIBC
283:   FUNC GLOBAL DEFAULT 14 ns_name_uncompress@@LIBC
284:   FUNC GLOBAL DEFAULT 14 isprint_l@@LIBC
285:   FUNC GLOBAL DEFAULT 14 siginterrupt@@LIBC
286:   FUNC GLOBAL DEFAULT 14 hcreate@@LIBC_P
287:   FUNC GLOBAL DEFAULT 14 snprintf@@LIBC
288:   FUNC WEAK DEFAULT 14 __cxa_thread_atexit_impl@@LIBC
289:   FUNC GLOBAL DEFAULT 14 get_nprocs_conf@@LIBC
290:   OBJECT WEAK DEFAULT 23 environ@@LIBC
291:   FUNC GLOBAL DEFAULT 14 ftw@@LIBC
292:   FUNC GLOBAL DEFAULT 14 lrand48@@LIBC
293:   FUNC GLOBAL DEFAULT 14 vasprintf@@LIBC
294:   FUNC GLOBAL DEFAULT 14 lremovexattr@@LIBC
295:   FUNC GLOBAL DEFAULT 14 gettimeofday@@LIBC
296:   FUNC GLOBAL DEFAULT 14 sscanf@@LIBC
297:   FUNC WEAK DEFAULT 14 __system_properties_init@@LIBC_Q
298:   FUNC GLOBAL DEFAULT 14 pthread_rwlock_destroy@@LIBC
299:   FUNC GLOBAL DEFAULT 14 memcpy@@LIBC
300:   FUNC GLOBAL DEFAULT 14 pthread_mutex_destroy@@LIBC
301:   FUNC GLOBAL DEFAULT 14 _getshort@@LIBC
302:   FUNC GLOBAL DEFAULT 14 ldiv@@LIBC
303:   FUNC GLOBAL DEFAULT 14 vmsplice@@LIBC
304:   FUNC GLOBAL DEFAULT 14 accept@@LIBC
305:   FUNC GLOBAL DEFAULT 14 islower_l@@LIBC
306:   FUNC GLOBAL DEFAULT 14 posix_spawnattr_setsigmas@@LIBC_P
307:   FUNC GLOBAL DEFAULT 14 fdopen@@LIBC
308:   FUNC GLOBAL DEFAULT 14 fflush_unlocked@@LIBC_P
309:   FUNC GLOBAL DEFAULT 14 vsprintf@@LIBC
310:   FUNC GLOBAL DEFAULT 14 faccessat@@LIBC
311:   FUNC GLOBAL DEFAULT 14 dirfd@@LIBC
312:   FUNC GLOBAL DEFAULT 14 rand@@LIBC
313:   FUNC WEAK DEFAULT 14 pthread_exit@@LIBC
314:   FUNC GLOBAL DEFAULT 14 pthread_atfork@@LIBC
315:   FUNC GLOBAL DEFAULT 14 execle@@LIBC
316:   FUNC GLOBAL DEFAULT 14 mremap@@LIBC
317:   FUNC GLOBAL DEFAULT 14 swapoff@@LIBC
318:   FUNC GLOBAL DEFAULT 14 pthread_rwlock_wrlock@@LIBC
319:   FUNC GLOBAL DEFAULT 14 execvp@@LIBC
320:   FUNC WEAK DEFAULT 14 pthread_attr_setdetachsta@@LIBC
321:   FUNC GLOBAL DEFAULT 14 statfs64@@LIBC
322:   FUNC GLOBAL DEFAULT 14 ns_name_skip@@LIBC
323:   FUNC WEAK DEFAULT 14 pthread_attr_getscope@@LIBC
324:   FUNC GLOBAL DEFAULT 14 sigfillset64@@LIBC_P
325:   FUNC GLOBAL DEFAULT 14 isblank@@LIBC
326:   FUNC GLOBAL DEFAULT 14 select@@LIBC
327:   FUNC GLOBAL DEFAULT 14 gethostbyname2@@LIBC
328:   FUNC GLOBAL DEFAULT 14 __FD_ISSET_chk@@LIBC
329:   FUNC GLOBAL DEFAULT 14 iswalpha@@LIBC
330:   OBJECT GLOBAL DEFAULT 18 sys_signame@@LIBC
331:   FUNC GLOBAL DEFAULT 14 __b64_ntop@@LIBC
332:   FUNC GLOBAL DEFAULT 14 personality@@LIBC
333:   FUNC GLOBAL DEFAULT 14 posix_madvise@@LIBC
334:   FUNC GLOBAL DEFAULT 14 symlink@@LIBC
335:   FUNC GLOBAL DEFAULT 14 android_gethostbyaddrforn@@LIBC_PRIVATE
336:   FUNC GLOBAL DEFAULT 14 getprotobynumber@@LIBC
337:   FUNC GLOBAL DEFAULT 14 capset@@LIBC
338:   FUNC GLOBAL DEFAULT 14 strtoul@@LIBC
339:   FUNC GLOBAL DEFAULT 14 fprintf@@LIBC
340:   FUNC GLOBAL DEFAULT 14 duplocale@@LIBC
341:   FUNC GLOBAL DEFAULT 14 posix_spawnattr_getschedp@@LIBC_P
342:   FUNC GLOBAL DEFAULT 14 posix_spawnattr_setschedp@@LIBC_P
343:   FUNC GLOBAL DEFAULT 14 realpath@@LIBC
344:   FUNC GLOBAL DEFAULT 14 android_fdsan_get_tag_val@@LIBC_Q
345:   FUNC GLOBAL DEFAULT 14 strtod_l@@LIBC_O
346:   FUNC GLOBAL DEFAULT 14 endutent@@LIBC
347:   FUNC GLOBAL DEFAULT 14 verr@@LIBC
348:   OBJECT GLOBAL DEFAULT 23 timezone@@LIBC
349:   FUNC GLOBAL DEFAULT 14 fclose@@LIBC
350:   FUNC GLOBAL DEFAULT 14 sigwait@@LIBC
351:   FUNC GLOBAL DEFAULT 14 getservbyname@@LIBC
352:   FUNC GLOBAL DEFAULT 14 execlp@@LIBC
353:   FUNC GLOBAL DEFAULT 14 __fp_query@@LIBC
354:   FUNC GLOBAL DEFAULT 14 hcreate_r@@LIBC_P
355:   FUNC GLOBAL DEFAULT 14 memmove@@LIBC
356:   FUNC GLOBAL DEFAULT 14 strtouq@@LIBC
357:   FUNC GLOBAL DEFAULT 14 getpagesize@@LIBC
358:   FUNC GLOBAL DEFAULT 14 isupper@@LIBC
359:   FUNC GLOBAL DEFAULT 14 open64@@LIBC
360:   FUNC GLOBAL DEFAULT 14 posix_spawnattr_setschedp@@LIBC_P
361:   FUNC GLOBAL DEFAULT 14 fts_set@@LIBC
362:   FUNC GLOBAL DEFAULT 14 wait@@LIBC
363:   FUNC GLOBAL DEFAULT 14 mprotect@@LIBC
364:   OBJECT GLOBAL DEFAULT 23 error_print_progname@@LIBC
365:   FUNC GLOBAL DEFAULT 14 getpwuid_r@@LIBC
366:   FUNC GLOBAL DEFAULT 14 nl_langinfo_l@@LIBC_O
367:   FUNC GLOBAL DEFAULT 14 setlogmask@@LIBC
368:   FUNC GLOBAL DEFAULT 14 wcpcpy@@LIBC
369:   FUNC GLOBAL DEFAULT 14 tzset@@LIBC
370:   FUNC GLOBAL DEFAULT 14 __fwritable@@LIBC
371:   FUNC GLOBAL DEFAULT 14 pthread_rwlockattr_getpsh@@LIBC
372:   FUNC GLOBAL DEFAULT 14 iconv@@LIBC_P
373:   FUNC GLOBAL DEFAULT 14 wcsncmp@@LIBC
374:   FUNC GLOBAL DEFAULT 14 pthread_sigqueue@@LIBC_Q
375:   FUNC GLOBAL DEFAULT 14 vwprintf@@LIBC
376:   FUNC GLOBAL DEFAULT 14 pthread_rwlock_init@@LIBC
377:   FUNC GLOBAL DEFAULT 14 pthread_spin_trylock@@LIBC_N
378:   FUNC GLOBAL DEFAULT 14 pthread_sigmask@@LIBC
379:   FUNC GLOBAL DEFAULT 14 __hostalias@@LIBC
380:   OBJECT GLOBAL DEFAULT 16 optind@@LIBC
381:   FUNC GLOBAL DEFAULT 14 isinff@@LIBC
382:   FUNC GLOBAL DEFAULT 14 sigignore@@LIBC_O
383:   FUNC GLOBAL DEFAULT 14 strtoull_l@@LIBC
384:   FUNC GLOBAL DEFAULT 14 getauxval@@LIBC
385:   FUNC GLOBAL DEFAULT 14 posix_spawn_file_actions_@@LIBC_P
386:   FUNC GLOBAL DEFAULT 14 mincore@@LIBC
387:   FUNC GLOBAL DEFAULT 14 munlock@@LIBC
388:   FUNC GLOBAL DEFAULT 14 freopen64@@LIBC_N
389:   FUNC GLOBAL DEFAULT 14 funlockfile@@LIBC
390:   FUNC GLOBAL DEFAULT 14 erand48@@LIBC
391:   FUNC GLOBAL DEFAULT 14 pthread_mutexattr_getprot@@LIBC_P
392:   FUNC GLOBAL DEFAULT 14 __libc_init@@LIBC
393:   FUNC GLOBAL DEFAULT 14 tgkill@@LIBC
394:   FUNC GLOBAL DEFAULT 14 putchar@@LIBC
395:   FUNC GLOBAL DEFAULT 14 open_memstream@@LIBC
396:   FUNC GLOBAL DEFAULT 14 fchdir@@LIBC
397:   FUNC GLOBAL DEFAULT 14 isinfl@@LIBC
398:   FUNC GLOBAL DEFAULT 14 unlink@@LIBC
399:   FUNC GLOBAL DEFAULT 14 setstate@@LIBC
400:   FUNC GLOBAL DEFAULT 14 insque@@LIBC
401:   FUNC GLOBAL DEFAULT 14 alphasort@@LIBC
402:   FUNC GLOBAL DEFAULT 14 clock_settime@@LIBC
403:   FUNC GLOBAL DEFAULT 14 __gnu_strerror_r@@LIBC
404:   OBJECT GLOBAL DEFAULT 11 in6addr_any@@LIBC_N
405:   FUNC GLOBAL DEFAULT 14 ptrace@@LIBC
406:   FUNC GLOBAL DEFAULT 14 cfgetispeed@@LIBC
407:   FUNC WEAK DEFAULT 14 pthread_attr_setinheritsc@@LIBC_P
408:   FUNC GLOBAL DEFAULT 14 getrlimit64@@LIBC
409:   FUNC GLOBAL DEFAULT 14 llistxattr@@LIBC
410:   FUNC GLOBAL DEFAULT 14 sendfile64@@LIBC
411:   FUNC GLOBAL DEFAULT 14 pthread_spin_unlock@@LIBC_N
412:   FUNC GLOBAL DEFAULT 14 timer_getoverrun@@LIBC
413:   FUNC GLOBAL DEFAULT 14 strlcat@@LIBC
414:   FUNC GLOBAL DEFAULT 14 getwchar@@LIBC
415:   OBJECT GLOBAL DEFAULT 23 error_message_count@@LIBC
416:   FUNC GLOBAL DEFAULT 14 wcsnlen@@LIBC
417:   FUNC GLOBAL DEFAULT 14 printf@@LIBC
418:   FUNC GLOBAL DEFAULT 14 lgetxattr@@LIBC
419:   FUNC GLOBAL DEFAULT 14 recvmsg@@LIBC
420:   FUNC GLOBAL DEFAULT 14 dirname@@LIBC
421:   FUNC GLOBAL DEFAULT 14 posix_fadvise@@LIBC
422:   FUNC GLOBAL DEFAULT 14 delete_module@@LIBC
423:   FUNC GLOBAL DEFAULT 14 strcpy@@LIBC
424:   FUNC GLOBAL DEFAULT 14 endpwent@@LIBC_O
425:   FUNC GLOBAL DEFAULT 14 sched_setscheduler@@LIBC
426:   FUNC GLOBAL DEFAULT 14 open@@LIBC
427:   FUNC GLOBAL DEFAULT 14 atof@@LIBC
428:   FUNC GLOBAL DEFAULT 14 connect@@LIBC
429:   FUNC GLOBAL DEFAULT 14 freelocale@@LIBC
430:   FUNC GLOBAL DEFAULT 14 tcsetattr@@LIBC
431:   FUNC GLOBAL DEFAULT 14 wcsxfrm@@LIBC
432:   FUNC GLOBAL DEFAULT 14 ns_name_rollback@@LIBC
433:   FUNC WEAK DEFAULT 14 android_getaddrinfofornet@@LIBC_PRIVATE
434:   FUNC GLOBAL DEFAULT 14 memccpy@@LIBC
435:   FUNC GLOBAL DEFAULT 14 pthread_barrierattr_destr@@LIBC_N
436:   FUNC GLOBAL DEFAULT 14 posix_spawn@@LIBC_P
437:   FUNC GLOBAL DEFAULT 14 strncasecmp@@LIBC
438:   FUNC GLOBAL DEFAULT 14 wcstod_l@@LIBC_P
439:   FUNC GLOBAL DEFAULT 14 wcstoumax@@LIBC
440:   FUNC GLOBAL DEFAULT 14 getgid@@LIBC
441:   FUNC GLOBAL DEFAULT 14 __ppoll64_chk@@LIBC
442:   FUNC GLOBAL DEFAULT 14 pthread_mutex_trylock@@LIBC
443:   FUNC GLOBAL DEFAULT 14 __isfinite@@LIBC
444:   FUNC GLOBAL DEFAULT 14 atoi@@LIBC
445:   FUNC GLOBAL DEFAULT 14 iswcntrl_l@@LIBC
446:   FUNC GLOBAL DEFAULT 14 __FD_CLR_chk@@LIBC
447:   FUNC GLOBAL DEFAULT 14 isatty@@LIBC
448:   FUNC GLOBAL DEFAULT 14 sigfillset@@LIBC
449:   FUNC GLOBAL DEFAULT 14 ns_put32@@LIBC
450:   FUNC GLOBAL DEFAULT 14 __p_option@@LIBC
451:   FUNC GLOBAL DEFAULT 14 sigtimedwait@@LIBC
452:   FUNC GLOBAL DEFAULT 14 wctype_l@@LIBC
453:   FUNC GLOBAL DEFAULT 14 regexec@@LIBC
454:   FUNC GLOBAL DEFAULT 14 strtold@@LIBC
455:   FUNC GLOBAL DEFAULT 14 atol@@LIBC
456:   FUNC GLOBAL DEFAULT 14 pthread_mutex_init@@LIBC
457:   FUNC GLOBAL DEFAULT 14 fgetc_unlocked@@LIBC_P
458:   FUNC GLOBAL DEFAULT 14 __fpending@@LIBC
459:   FUNC GLOBAL DEFAULT 14 posix_fadvise64@@LIBC
460:   FUNC WEAK DEFAULT 14 __system_property_find@@LIBC
461:   FUNC GLOBAL DEFAULT 14 reboot@@LIBC
462:   FUNC GLOBAL DEFAULT 14 setsockopt@@LIBC
463:   FUNC GLOBAL DEFAULT 14 vfscanf@@LIBC
464:   FUNC GLOBAL DEFAULT 14 getprogname@@LIBC
465:   FUNC GLOBAL DEFAULT 14 getpwuid@@LIBC
466:   FUNC GLOBAL DEFAULT 14 tcdrain@@LIBC
467:   FUNC GLOBAL DEFAULT 14 __res_querydomain@@LIBC
468:   FUNC GLOBAL DEFAULT 14 wcscpy@@LIBC
469:   FUNC GLOBAL DEFAULT 14 funopen64@@LIBC_N
470:   FUNC GLOBAL DEFAULT 14 fexecve@@LIBC_P
471:   FUNC GLOBAL DEFAULT 14 signal@@LIBC
472:   OBJECT GLOBAL DEFAULT 18 __p_class_syms@@LIBC
473:   FUNC GLOBAL DEFAULT 14 arc4random_buf@@LIBC
474:   FUNC GLOBAL DEFAULT 14 seteuid@@LIBC
475:   FUNC GLOBAL DEFAULT 14 iswxdigit_l@@LIBC
476:   FUNC GLOBAL DEFAULT 14 __res_hnok@@LIBC
477:   FUNC GLOBAL DEFAULT 14 wctob@@LIBC
478:   FUNC GLOBAL DEFAULT 14 strtoll@@LIBC
479:   FUNC GLOBAL DEFAULT 14 semop@@LIBC_O
480:   FUNC GLOBAL DEFAULT 14 openlog@@LIBC
481:   FUNC GLOBAL DEFAULT 14 fwrite@@LIBC
482:   FUNC GLOBAL DEFAULT 14 pthread_self@@LIBC
483:   FUNC GLOBAL DEFAULT 14 mkostemps64@@LIBC
484:   FUNC GLOBAL DEFAULT 14 ptsname_r@@LIBC
485:   FUNC GLOBAL DEFAULT 14 wcsxfrm_l@@LIBC
486:   FUNC GLOBAL DEFAULT 14 towctrans@@LIBC_O
487:   FUNC GLOBAL DEFAULT 14 nanosleep@@LIBC
488:   FUNC GLOBAL DEFAULT 14 pthread_rwlock_timedwrloc@@LIBC
489:   FUNC GLOBAL DEFAULT 14 memalign@@LIBC
490:   FUNC GLOBAL DEFAULT 14 posix_spawnattr_setflags@@LIBC_P
491:   FUNC GLOBAL DEFAULT 14 towupper@@LIBC
492:   FUNC GLOBAL DEFAULT 14 fread@@LIBC
493:   FUNC GLOBAL DEFAULT 14 fts_open@@LIBC
494:   FUNC GLOBAL DEFAULT 14 memset@@LIBC
495:   FUNC GLOBAL DEFAULT 14 chmod@@LIBC
496:   FUNC GLOBAL DEFAULT 14 fstatat@@LIBC
497:   FUNC GLOBAL DEFAULT 14 ns_parserr@@LIBC
498:   FUNC GLOBAL DEFAULT 14 open_wmemstream@@LIBC
499:   FUNC GLOBAL DEFAULT 14 __stpncpy_chk@@LIBC
500:   FUNC WEAK DEFAULT 14 pthread_setschedprio@@LIBC_P
501:   FUNC GLOBAL DEFAULT 14 posix_spawn_file_actions_@@LIBC_P
502:   FUNC GLOBAL DEFAULT 14 system@@LIBC
503:   FUNC GLOBAL DEFAULT 14 gethostbyname2_r@@LIBC
504:   FUNC GLOBAL DEFAULT 14 __sched_cpucount@@LIBC
505:   FUNC GLOBAL DEFAULT 14 fgets_unlocked@@LIBC_P
506:   FUNC WEAK DEFAULT 14 exit@@LIBC
507:   FUNC GLOBAL DEFAULT 14 iscntrl_l@@LIBC
508:   FUNC GLOBAL DEFAULT 14 __openat_2@@LIBC
509:   FUNC GLOBAL DEFAULT 14 mkostemp64@@LIBC
510:   FUNC GLOBAL DEFAULT 14 __sym_ston@@LIBC
511:   OBJECT GLOBAL DEFAULT 23 optreset@@LIBC
512:   FUNC GLOBAL DEFAULT 14 preadv@@LIBC_N
513:   FUNC GLOBAL DEFAULT 14 __strlen_chk@@LIBC
514:   FUNC GLOBAL DEFAULT 14 mempcpy@@LIBC
515:   FUNC GLOBAL DEFAULT 14 tmpfile64@@LIBC_N
516:   FUNC GLOBAL DEFAULT 14 __vsprintf_chk@@LIBC
517:   FUNC GLOBAL DEFAULT 14 fsync@@LIBC
518:   FUNC GLOBAL DEFAULT 14 getc_unlocked@@LIBC
519:   FUNC GLOBAL DEFAULT 14 strtoul_l@@LIBC_O
520:   FUNC GLOBAL DEFAULT 14 socket@@LIBC
521:   FUNC GLOBAL DEFAULT 14 pread64@@LIBC
522:   FUNC GLOBAL DEFAULT 14 epoll_ctl@@LIBC
523:   FUNC GLOBAL DEFAULT 14 gmtime@@LIBC
524:   FUNC GLOBAL DEFAULT 14 lcong48@@LIBC
525:   FUNC GLOBAL DEFAULT 14 arc4random@@LIBC
526:   FUNC GLOBAL DEFAULT 14 timegm@@LIBC
527:   FUNC GLOBAL DEFAULT 14 sigwaitinfo@@LIBC
528:   FUNC GLOBAL DEFAULT 14 shmdt@@LIBC_O
529:   FUNC GLOBAL DEFAULT 14 __strlcat_chk@@LIBC
530:   FUNC GLOBAL DEFAULT 14 pread@@LIBC
531:   FUNC GLOBAL DEFAULT 14 daemon@@LIBC
532:   FUNC GLOBAL DEFAULT 14 pthread_cond_timedwait_mo@@LIBC
533:   FUNC GLOBAL DEFAULT 14 wctrans_l@@LIBC_O
534:   FUNC GLOBAL DEFAULT 14 seed48@@LIBC
535:   FUNC GLOBAL DEFAULT 14 setrlimit@@LIBC
536:   OBJECT GLOBAL DEFAULT 16 stdin@@LIBC
537:   FUNC WEAK DEFAULT 14 __system_property_serial@@LIBC
538:   FUNC GLOBAL DEFAULT 14 error@@LIBC
539:   FUNC GLOBAL DEFAULT 14 __stpncpy_chk2@@LIBC
540:   FUNC GLOBAL DEFAULT 14 at_quick_exit@@LIBC
541:   FUNC GLOBAL DEFAULT 14 mrand48@@LIBC
542:   FUNC GLOBAL DEFAULT 14 msync@@LIBC
543:   FUNC GLOBAL DEFAULT 14 ether_aton_r@@LIBC
544:   FUNC GLOBAL DEFAULT 14 creat@@LIBC
545:   FUNC GLOBAL DEFAULT 14 sysinfo@@LIBC
546:   FUNC GLOBAL DEFAULT 14 hstrerror@@LIBC
547:   FUNC GLOBAL DEFAULT 14 setrlimit64@@LIBC
548:   FUNC GLOBAL DEFAULT 14 scanf@@LIBC
549:   FUNC WEAK DEFAULT 14 pthread_attr_getinheritsc@@LIBC_P
550:   FUNC GLOBAL DEFAULT 14 memchr@@LIBC
551:   FUNC GLOBAL DEFAULT 14 isdigit_l@@LIBC
552:   FUNC GLOBAL DEFAULT 14 mbrlen@@LIBC
553:   FUNC GLOBAL DEFAULT 14 closedir@@LIBC
554:   FUNC GLOBAL DEFAULT 14 flistxattr@@LIBC
555:   FUNC GLOBAL DEFAULT 14 nftw64@@LIBC
556:   FUNC GLOBAL DEFAULT 14 lockf64@@LIBC_N
557:   FUNC GLOBAL DEFAULT 14 __fread_chk@@LIBC_N
558:   FUNC GLOBAL DEFAULT 14 __sprintf_chk@@LIBC
559:   FUNC GLOBAL DEFAULT 14 getlogin_r@@LIBC_P
560:   FUNC GLOBAL DEFAULT 14 if_indextoname@@LIBC
561:   FUNC GLOBAL DEFAULT 14 msgctl@@LIBC_O
562:   FUNC GLOBAL DEFAULT 14 localtime@@LIBC
563:   FUNC GLOBAL DEFAULT 14 mkostemps@@LIBC
564:   FUNC GLOBAL DEFAULT 14 if_nameindex@@LIBC_N
565:   FUNC GLOBAL DEFAULT 14 scandirat64@@LIBC_N
566:   FUNC GLOBAL DEFAULT 14 inet_netof@@LIBC
567:   FUNC GLOBAL DEFAULT 14 pthread_rwlock_timedwrloc@@LIBC_P
568:   FUNC GLOBAL DEFAULT 14 clock@@LIBC
569:   FUNC GLOBAL DEFAULT 14 iswctype@@LIBC
570:   FUNC GLOBAL DEFAULT 14 getrlimit@@LIBC
571:   FUNC GLOBAL DEFAULT 14 sigprocmask64@@LIBC_P
572:   FUNC GLOBAL DEFAULT 14 timespec_get@@LIBC_Q
573:   FUNC GLOBAL DEFAULT 14 wcsftime_l@@LIBC_P
574:   FUNC GLOBAL DEFAULT 14 ns_makecanon@@LIBC
575:   FUNC GLOBAL DEFAULT 14 free@@LIBC
576:   FUNC GLOBAL DEFAULT 14 umount2@@LIBC
577:   FUNC GLOBAL DEFAULT 14 abs@@LIBC
578:   FUNC WEAK DEFAULT 14 android_fdsan_close_with_@@LIBC_Q
579:   FUNC GLOBAL DEFAULT 14 flock@@LIBC
580:   FUNC GLOBAL DEFAULT 14 posix_spawnattr_getsigmas@@LIBC_P
581:   FUNC GLOBAL DEFAULT 14 regerror@@LIBC
582:   FUNC WEAK DEFAULT 14 pthread_attr_getschedpoli@@LIBC
583:   FUNC GLOBAL DEFAULT 14 __p_fqname@@LIBC
584:   FUNC GLOBAL DEFAULT 14 timerfd_gettime@@LIBC
585:   FUNC GLOBAL DEFAULT 14 getgrnam_r@@LIBC_N
586:   FUNC GLOBAL DEFAULT 14 waitpid@@LIBC
587:   FUNC GLOBAL DEFAULT 14 iswcntrl@@LIBC
588:   FUNC GLOBAL DEFAULT 14 inet_nsap_ntoa@@LIBC
589:   FUNC GLOBAL DEFAULT 14 arc4random_uniform@@LIBC
590:   FUNC GLOBAL DEFAULT 14 __read_chk@@LIBC
591:   FUNC WEAK DEFAULT 14 pthread_attr_getdetachsta@@LIBC
592:   FUNC GLOBAL DEFAULT 14 __strcat_chk@@LIBC
593:   FUNC GLOBAL DEFAULT 14 random@@LIBC
594:   FUNC GLOBAL DEFAULT 14 __res_ninit@@LIBC
595:   FUNC WEAK DEFAULT 14 pthread_attr_setschedpara@@LIBC
596:   FUNC GLOBAL DEFAULT 14 pthread_condattr_setclock@@LIBC
597:   FUNC WEAK DEFAULT 14 __system_property_read_ca@@LIBC_O
598:   FUNC GLOBAL DEFAULT 14 setmntent@@LIBC
599:   FUNC GLOBAL DEFAULT 14 mlock@@LIBC
600:   FUNC GLOBAL DEFAULT 14 fread_unlocked@@LIBC_P
601:   FUNC GLOBAL DEFAULT 14 nl_langinfo@@LIBC_O
602:   FUNC GLOBAL DEFAULT 14 strtoimax@@LIBC
603:   FUNC GLOBAL DEFAULT 14 putchar_unlocked@@LIBC
604:   FUNC WEAK DEFAULT 14 pthread_attr_getguardsize@@LIBC
605:   FUNC GLOBAL DEFAULT 14 pthread_equal@@LIBC
606:   FUNC GLOBAL DEFAULT 14 __sendto_chk@@LIBC_O
607:   FUNC GLOBAL DEFAULT 14 putc@@LIBC
608:   FUNC GLOBAL DEFAULT 14 setlocale@@LIBC
609:   FUNC GLOBAL DEFAULT 14 wctype@@LIBC
610:   FUNC GLOBAL DEFAULT 14 pthread_barrierattr_init@@LIBC_N
611:   FUNC GLOBAL DEFAULT 14 getenv@@LIBC
612:   FUNC GLOBAL DEFAULT 14 setprogname@@LIBC
613:   FUNC GLOBAL DEFAULT 14 fchownat@@LIBC
614:   FUNC GLOBAL DEFAULT 14 strcoll_l@@LIBC
615:   FUNC GLOBAL DEFAULT 14 towlower_l@@LIBC
616:   FUNC GLOBAL DEFAULT 14 vsnprintf@@LIBC
617:   FUNC GLOBAL DEFAULT 14 wcstombs@@LIBC
618:   FUNC GLOBAL DEFAULT 14 pclose@@LIBC
619:   OBJECT GLOBAL DEFAULT 16 stdout@@LIBC
620:   OBJECT GLOBAL DEFAULT 23 __stack_chk_guard@@LIBC
621:   FUNC GLOBAL DEFAULT 14 android_get_device_api_le@@LIBC_Q
622:   FUNC GLOBAL DEFAULT 14 fremovexattr@@LIBC
623:   FUNC GLOBAL DEFAULT 14 recvfrom@@LIBC
624:   FUNC GLOBAL DEFAULT 14 pthread_sigmask64@@LIBC_P
625:   FUNC GLOBAL DEFAULT 14 iswdigit@@LIBC
626:   FUNC WEAK DEFAULT 14 clone@@LIBC
627:   FUNC GLOBAL DEFAULT 14 strsep@@LIBC
628:   FUNC GLOBAL DEFAULT 14 sethostent@@LIBC_P
629:   FUNC GLOBAL DEFAULT 14 __assert2@@LIBC
630:   FUNC GLOBAL DEFAULT 14 getloadavg@@LIBC_Q
631:   FUNC GLOBAL DEFAULT 14 getmntent@@LIBC
632:   FUNC GLOBAL DEFAULT 14 readlink@@LIBC
633:   FUNC GLOBAL DEFAULT 14 fseek@@LIBC
634:   FUNC GLOBAL DEFAULT 14 tolower_l@@LIBC
635:   FUNC GLOBAL DEFAULT 14 listxattr@@LIBC
636:   FUNC GLOBAL DEFAULT 14 fstatvfs64@@LIBC
637:   FUNC GLOBAL DEFAULT 14 ns_samename@@LIBC
638:   FUNC GLOBAL DEFAULT 14 hsearch_r@@LIBC_P
639:   OBJECT GLOBAL DEFAULT 23 __memalign_hook@@LIBC_P
640:   FUNC GLOBAL DEFAULT 14 fflush@@LIBC
641:   FUNC GLOBAL DEFAULT 14 iconv_close@@LIBC_P
642:   FUNC GLOBAL DEFAULT 14 inotify_add_watch@@LIBC
643:   FUNC GLOBAL DEFAULT 14 android_mallopt@@LIBC_Q
644:   FUNC GLOBAL DEFAULT 14 c16rtomb@@LIBC
645:   FUNC GLOBAL DEFAULT 14 __strncat_chk@@LIBC
646:   FUNC GLOBAL DEFAULT 14 getwc@@LIBC
647:   FUNC WEAK DEFAULT 14 android_fdsan_set_error_l@@LIBC_Q
648:   FUNC GLOBAL DEFAULT 14 poll@@LIBC
649:   FUNC GLOBAL DEFAULT 14 strtold_l@@LIBC
650:   FUNC WEAK DEFAULT 14 gai_strerror@@LIBC
651:   FUNC GLOBAL DEFAULT 14 vswscanf@@LIBC
652:   FUNC GLOBAL DEFAULT 14 pthread_barrier_destroy@@LIBC_N
653:   FUNC GLOBAL DEFAULT 14 lseek@@LIBC
654:   FUNC GLOBAL DEFAULT 14 getpwnam_r@@LIBC
655:   FUNC GLOBAL DEFAULT 14 __register_atfork@@LIBC
656:   FUNC GLOBAL DEFAULT 14 inet_network@@LIBC
657:   FUNC GLOBAL DEFAULT 14 sigismember64@@LIBC_P
658:   FUNC GLOBAL DEFAULT 14 __getcwd_chk@@LIBC_N
659:   FUNC GLOBAL DEFAULT 14 pwritev@@LIBC_N
660:   FUNC GLOBAL DEFAULT 14 vscanf@@LIBC
661:   FUNC GLOBAL DEFAULT 14 pthread_rwlockattr_destro@@LIBC
662:   FUNC GLOBAL DEFAULT 14 munmap@@LIBC
663:   FUNC GLOBAL DEFAULT 14 access@@LIBC
664:   FUNC GLOBAL DEFAULT 14 __fpclassify@@LIBC
665:   FUNC GLOBAL DEFAULT 14 posix_spawnattr_setpgroup@@LIBC_P
666:   FUNC GLOBAL DEFAULT 14 wmemcmp@@LIBC
667:   FUNC GLOBAL DEFAULT 14 isfinite@@LIBC
668:   FUNC GLOBAL DEFAULT 14 posix_spawnattr_setsigdef@@LIBC_P
669:   FUNC GLOBAL DEFAULT 14 ns_name_pack@@LIBC
670:   FUNC GLOBAL DEFAULT 14 __sched_cpualloc@@LIBC
671:   FUNC GLOBAL DEFAULT 14 c32rtomb@@LIBC
672:   FUNC GLOBAL DEFAULT 14 sched_getaffinity@@LIBC
673:   FUNC GLOBAL DEFAULT 14 sem_init@@LIBC
674:   FUNC GLOBAL DEFAULT 14 sem_trywait@@LIBC
675:   FUNC GLOBAL DEFAULT 14 inet_pton@@LIBC
676:   FUNC GLOBAL DEFAULT 14 android_gethostbynameforn@@LIBC_PRIVATE
677:   FUNC GLOBAL DEFAULT 14 puts@@LIBC
678:   FUNC GLOBAL DEFAULT 14 pthread_rwlock_timedrdloc@@LIBC_P
679:   FUNC WEAK DEFAULT 14 pthread_getspecific@@LIBC
680:   FUNC GLOBAL DEFAULT 14 setlinebuf@@LIBC
681:   FUNC GLOBAL DEFAULT 14 __fseterr@@LIBC_P
682:   FUNC GLOBAL DEFAULT 14 __dn_count_labels@@LIBC
683:   FUNC GLOBAL DEFAULT 14 strcoll@@LIBC
684:   FUNC GLOBAL DEFAULT 14 __recvfrom_chk@@LIBC
685:   FUNC GLOBAL DEFAULT 14 __p_type@@LIBC
686:   FUNC GLOBAL DEFAULT 14 iswalpha_l@@LIBC
687:   FUNC GLOBAL DEFAULT 14 strpbrk@@LIBC
688:   FUNC GLOBAL DEFAULT 14 fwscanf@@LIBC
689:   FUNC GLOBAL DEFAULT 14 pthread_mutex_unlock@@LIBC
690:   FUNC GLOBAL DEFAULT 14 ppoll64@@LIBC_P
691:   FUNC GLOBAL DEFAULT 14 setegid@@LIBC
692:   FUNC GLOBAL DEFAULT 14 posix_spawnattr_init@@LIBC_P
693:   FUNC GLOBAL DEFAULT 14 semget@@LIBC_O
694:   FUNC GLOBAL DEFAULT 14 ntohl@@LIBC
695:   FUNC GLOBAL DEFAULT 14 strchr@@LIBC
696:   FUNC GLOBAL DEFAULT 14 pthread_mutexattr_settype@@LIBC
697:   FUNC GLOBAL DEFAULT 14 sbrk@@LIBC
698:   FUNC GLOBAL DEFAULT 14 mkstemps64@@LIBC
699:   FUNC GLOBAL DEFAULT 14 mbrtoc16@@LIBC
700:   FUNC GLOBAL DEFAULT 14 setnetent@@LIBC_P
701:   OBJECT GLOBAL DEFAULT 18 __p_type_syms@@LIBC
702:   FUNC GLOBAL DEFAULT 14 _tolower@@LIBC
703:   FUNC GLOBAL DEFAULT 14 setvbuf@@LIBC
704:   FUNC GLOBAL DEFAULT 14 pthread_once@@LIBC
705:   FUNC GLOBAL DEFAULT 14 isxdigit_l@@LIBC
706:   FUNC GLOBAL DEFAULT 14 shmget@@LIBC_O
707:   FUNC GLOBAL DEFAULT 14 wcstoull_l@@LIBC
708:   FUNC GLOBAL DEFAULT 14 iswlower@@LIBC
709:   FUNC GLOBAL DEFAULT 14 warnx@@LIBC
710:   FUNC GLOBAL DEFAULT 14 clearerr@@LIBC
711:   FUNC GLOBAL DEFAULT 14 clearerr_unlocked@@LIBC
712:   FUNC GLOBAL DEFAULT 14 ns_name_pton@@LIBC
713:   FUNC GLOBAL DEFAULT 14 rmdir@@LIBC
714:   FUNC GLOBAL DEFAULT 14 llabs@@LIBC
715:   FUNC GLOBAL DEFAULT 14 strspn@@LIBC
716:   FUNC GLOBAL DEFAULT 14 tee@@LIBC
717:   FUNC GLOBAL DEFAULT 14 tolower@@LIBC
718:   FUNC GLOBAL DEFAULT 14 mkstemps@@LIBC
719:   FUNC GLOBAL DEFAULT 14 strcasecmp_l@@LIBC
720:   FUNC GLOBAL DEFAULT 14 ntohs@@LIBC
721:   FUNC GLOBAL DEFAULT 14 isalnum@@LIBC
722:   FUNC GLOBAL DEFAULT 14 statvfs64@@LIBC
723:   FUNC GLOBAL DEFAULT 14 sched_rr_get_interval@@LIBC
724:   FUNC GLOBAL DEFAULT 14 fgetc@@LIBC
725:   FUNC GLOBAL DEFAULT 14 getnetent@@LIBC_P
726:   FUNC GLOBAL DEFAULT 14 pause@@LIBC
727:   FUNC GLOBAL DEFAULT 14 posix_fallocate64@@LIBC
728:   FUNC GLOBAL DEFAULT 14 timer_delete@@LIBC
729:   FUNC GLOBAL DEFAULT 14 semtimedop@@LIBC_O
730:   FUNC GLOBAL DEFAULT 14 wcsncasecmp@@LIBC
731:   FUNC GLOBAL DEFAULT 14 iswspace@@LIBC
732:   FUNC GLOBAL DEFAULT 14 __putlong@@LIBC
733:   FUNC GLOBAL DEFAULT 14 res_mkquery@@LIBC
734:   FUNC GLOBAL DEFAULT 14 jrand48@@LIBC
735:   FUNC GLOBAL DEFAULT 14 setfsuid@@LIBC
736:   FUNC GLOBAL DEFAULT 14 freopen@@LIBC
737:   FUNC GLOBAL DEFAULT 14 stat@@LIBC
738:   FUNC GLOBAL DEFAULT 14 iswxdigit@@LIBC
739:   FUNC GLOBAL DEFAULT 14 android_net_res_stats_agg@@LIBC_PLATFORM
740:   FUNC GLOBAL DEFAULT 14 gmtime_r@@LIBC
741:   FUNC WEAK DEFAULT 14 __pthread_cleanup_push@@LIBC
742:   FUNC GLOBAL DEFAULT 14 scandirat@@LIBC_N
743:   OBJECT GLOBAL DEFAULT 11 in6addr_loopback@@LIBC_N
744:   FUNC GLOBAL DEFAULT 14 sem_post@@LIBC
745:   FUNC GLOBAL DEFAULT 14 wcschr@@LIBC
746:   FUNC GLOBAL DEFAULT 14 ungetc@@LIBC
747:   FUNC GLOBAL DEFAULT 14 syncfs@@LIBC_P
748:   FUNC GLOBAL DEFAULT 14 dup2@@LIBC
749:   FUNC GLOBAL DEFAULT 14 res_search@@LIBC
750:   FUNC GLOBAL DEFAULT 14 __pread_chk@@LIBC
751:   FUNC GLOBAL DEFAULT 14 pthread_barrierattr_setps@@LIBC_N
752:   FUNC GLOBAL DEFAULT 14 dup3@@LIBC
753:   FUNC GLOBAL DEFAULT 14 mkfifo@@LIBC
754:   FUNC GLOBAL DEFAULT 14 ptsname@@LIBC
755:   FUNC GLOBAL DEFAULT 14 pthread_cond_destroy@@LIBC
756:   FUNC GLOBAL DEFAULT 14 isalpha_l@@LIBC
757:   FUNC GLOBAL DEFAULT 14 isgraph_l@@LIBC
758:   FUNC GLOBAL DEFAULT 14 isxdigit@@LIBC
759:   FUNC GLOBAL DEFAULT 14 pthread_mutex_timedlock@@LIBC
760:   FUNC GLOBAL DEFAULT 14 wcsspn@@LIBC
761:   FUNC WEAK DEFAULT 14 pthread_key_delete@@LIBC
762:   FUNC GLOBAL DEFAULT 14 __isfinitef@@LIBC
763:   FUNC GLOBAL DEFAULT 14 freeifaddrs@@LIBC_N
764:   FUNC GLOBAL DEFAULT 14 __dn_skipname@@LIBC
765:   FUNC GLOBAL DEFAULT 14 __res_dnok@@LIBC
766:   FUNC GLOBAL DEFAULT 14 getsockopt@@LIBC
767:   FUNC GLOBAL DEFAULT 14 wcpncpy@@LIBC
768:   FUNC GLOBAL DEFAULT 14 wcsrchr@@LIBC
769:   FUNC GLOBAL DEFAULT 14 setutent@@LIBC
770:   FUNC GLOBAL DEFAULT 14 ferror_unlocked@@LIBC
771:   FUNC GLOBAL DEFAULT 14 openat64@@LIBC
772:   FUNC GLOBAL DEFAULT 14 tdestroy@@LIBC
773:   FUNC GLOBAL DEFAULT 14 __stpcpy_chk@@LIBC
774:   FUNC GLOBAL DEFAULT 14 setuid@@LIBC
775:   FUNC WEAK DEFAULT 14 pthread_attr_getstacksize@@LIBC
776:   FUNC GLOBAL DEFAULT 14 chown@@LIBC
777:   FUNC GLOBAL DEFAULT 14 vfprintf@@LIBC
778:   FUNC GLOBAL DEFAULT 14 __res_hostalias@@LIBC
779:   FUNC GLOBAL DEFAULT 14 pwrite@@LIBC
780:   FUNC GLOBAL DEFAULT 14 wcsncpy@@LIBC
781:   FUNC GLOBAL DEFAULT 14 get_nprocs@@LIBC
782:   FUNC GLOBAL DEFAULT 14 closelog@@LIBC
783:   FUNC GLOBAL DEFAULT 14 reallocarray@@LIBC_Q
784:   FUNC GLOBAL DEFAULT 14 get_avphys_pages@@LIBC
785:   FUNC GLOBAL DEFAULT 14 fsetxattr@@LIBC
786:   FUNC GLOBAL DEFAULT 14 __isfinitel@@LIBC
787:   FUNC GLOBAL DEFAULT 14 getentropy@@LIBC_P
788:   FUNC GLOBAL DEFAULT 14 fgets@@LIBC
789:   FUNC GLOBAL DEFAULT 14 login_tty@@LIBC
790:   FUNC GLOBAL DEFAULT 14 getppid@@LIBC
791:   FUNC GLOBAL DEFAULT 14 ns_sprintrrf@@LIBC
792:   FUNC GLOBAL DEFAULT 14 quick_exit@@LIBC
793:   FUNC GLOBAL DEFAULT 14 wscanf@@LIBC
794:   FUNC GLOBAL DEFAULT 14 pthread_rwlock_timedrdloc@@LIBC
795:   FUNC GLOBAL DEFAULT 14 __assert@@LIBC
796:   OBJECT GLOBAL DEFAULT 23 error_one_per_line@@LIBC
797:   FUNC GLOBAL DEFAULT 14 pipe2@@LIBC
798:   FUNC GLOBAL DEFAULT 14 toascii@@LIBC
799:   FUNC GLOBAL DEFAULT 14 madvise@@LIBC
800:   FUNC GLOBAL DEFAULT 14 error_at_line@@LIBC
801:   FUNC GLOBAL DEFAULT 14 pthread_barrier_init@@LIBC_N
802:   FUNC GLOBAL DEFAULT 14 pthread_spin_lock@@LIBC_N
803:   FUNC GLOBAL DEFAULT 14 isgraph@@LIBC
804:   FUNC GLOBAL DEFAULT 14 __fpclassifyd@@LIBC
805:   FUNC GLOBAL DEFAULT 14 posix_spawnattr_getflags@@LIBC_P
806:   FUNC WEAK DEFAULT 14 __system_property_set_fil@@LIBC_PLATFORM
807:   FUNC GLOBAL DEFAULT 14 getchar_unlocked@@LIBC
808:   FUNC GLOBAL DEFAULT 14 fcntl@@LIBC
809:   FUNC GLOBAL DEFAULT 14 android_fdsan_get_fd_tabl@@LIBC_PLATFORM
810:   FUNC GLOBAL DEFAULT 14 timer_gettime@@LIBC
811:   FUNC GLOBAL DEFAULT 14 iswdigit_l@@LIBC
812:   FUNC GLOBAL DEFAULT 14 strtod@@LIBC
813:   FUNC GLOBAL DEFAULT 14 __fpclassifyf@@LIBC
814:   FUNC GLOBAL DEFAULT 14 vsscanf@@LIBC
815:   FUNC GLOBAL DEFAULT 14 sched_setaffinity@@LIBC
816:   FUNC GLOBAL DEFAULT 14 pthread_setname_np@@LIBC
817:   FUNC WEAK DEFAULT 14 pthread_setspecific@@LIBC
818:   FUNC GLOBAL DEFAULT 14 getrandom@@LIBC_P
819:   FUNC GLOBAL DEFAULT 14 cfsetospeed@@LIBC
820:   FUNC GLOBAL DEFAULT 14 timerfd_settime@@LIBC
821:   FUNC GLOBAL DEFAULT 14 strtof@@LIBC
822:   FUNC WEAK DEFAULT 14 __system_property_set@@LIBC
823:   FUNC GLOBAL DEFAULT 14 vwarnx@@LIBC
824:   FUNC GLOBAL DEFAULT 14 __b64_pton@@LIBC
825:   FUNC GLOBAL DEFAULT 14 inotify_rm_watch@@LIBC
826:   OBJECT GLOBAL DEFAULT 23 __progname@@LIBC
827:   FUNC GLOBAL DEFAULT 14 openat@@LIBC
828:   FUNC GLOBAL DEFAULT 14 pthread_kill@@LIBC
829:   FUNC GLOBAL DEFAULT 14 wcstoll_l@@LIBC
830:   FUNC WEAK DEFAULT 14 pthread_getschedparam@@LIBC
831:   FUNC WEAK DEFAULT 14 pthread_setschedparam@@LIBC
832:   FUNC GLOBAL DEFAULT 14 mallopt@@LIBC_O
833:   FUNC GLOBAL DEFAULT 14 clock_getres@@LIBC
834:   FUNC GLOBAL DEFAULT 14 renameat@@LIBC
835:   FUNC GLOBAL DEFAULT 14 sem_wait@@LIBC
836:   FUNC GLOBAL DEFAULT 14 rewind@@LIBC
837:   FUNC GLOBAL DEFAULT 14 __fpclassifyl@@LIBC
838:   FUNC GLOBAL DEFAULT 14 __get_h_errno@@LIBC
839:   FUNC GLOBAL DEFAULT 14 putenv@@LIBC
840:   FUNC GLOBAL DEFAULT 14 ns_skiprr@@LIBC
841:   FUNC GLOBAL DEFAULT 14 strtok@@LIBC
842:   FUNC GLOBAL DEFAULT 14 strtol@@LIBC
843:   FUNC GLOBAL DEFAULT 14 basename@@LIBC
844:   FUNC GLOBAL DEFAULT 14 mkdirat@@LIBC
845:   FUNC GLOBAL DEFAULT 14 rename@@LIBC
846:   FUNC GLOBAL DEFAULT 14 ns_sprintrr@@LIBC
847:   FUNC GLOBAL DEFAULT 14 difftime@@LIBC
848:   FUNC GLOBAL DEFAULT 14 getnameinfo@@LIBC
849:   FUNC GLOBAL DEFAULT 14 __res_close@@LIBC
850:   FUNC GLOBAL DEFAULT 14 fseeko@@LIBC
851:   FUNC GLOBAL DEFAULT 14 usleep@@LIBC
852:   FUNC GLOBAL DEFAULT 14 getpwent@@LIBC_O
853:   FUNC GLOBAL DEFAULT 14 pipe@@LIBC
854:   FUNC GLOBAL DEFAULT 14 ttyname@@LIBC
855:   FUNC WEAK DEFAULT 14 __system_property_read@@LIBC
856:   FUNC GLOBAL DEFAULT 14 tcsendbreak@@LIBC
857:   FUNC GLOBAL DEFAULT 14 lseek64@@LIBC
858:   FUNC GLOBAL DEFAULT 14 pthread_mutexattr_setprot@@LIBC_P
859:   FUNC GLOBAL DEFAULT 14 fdopendir@@LIBC
860:   FUNC GLOBAL DEFAULT 14 gethostbyname_r@@LIBC
861:   FUNC GLOBAL DEFAULT 14 mlockall@@LIBC
862:   FUNC GLOBAL DEFAULT 14 wcstod@@LIBC
863:   FUNC GLOBAL DEFAULT 14 __isnanf@@LIBC
864:   FUNC GLOBAL DEFAULT 14 isfinitef@@LIBC
865:   FUNC GLOBAL DEFAULT 14 strtof_l@@LIBC_O
866:   FUNC GLOBAL DEFAULT 14 strtoq@@LIBC
867:   FUNC GLOBAL DEFAULT 14 wcstoul@@LIBC
868:   FUNC GLOBAL DEFAULT 14 sleep@@LIBC
869:   FUNC GLOBAL DEFAULT 14 sigdelset64@@LIBC_P
870:   FUNC GLOBAL DEFAULT 14 isalpha@@LIBC
871:   FUNC GLOBAL DEFAULT 14 setpwent@@LIBC_O
872:   FUNC GLOBAL DEFAULT 14 mbsnrtowcs@@LIBC
873:   FUNC GLOBAL DEFAULT 14 wcstof@@LIBC
874:   FUNC GLOBAL DEFAULT 14 wcwidth@@LIBC
875:   FUNC GLOBAL DEFAULT 14 android_gethostbyaddrforn@@LIBC_PRIVATE
876:   FUNC GLOBAL DEFAULT 14 pthread_cond_init@@LIBC
877:   FUNC GLOBAL DEFAULT 14 __res_queriesmatch@@LIBC
878:   FUNC GLOBAL DEFAULT 14 remove@@LIBC
879:   FUNC GLOBAL DEFAULT 14 listen@@LIBC
880:   FUNC GLOBAL DEFAULT 14 gethostbyaddr@@LIBC
881:   FUNC GLOBAL DEFAULT 14 android_net_res_stats_get@@LIBC_PLATFORM
882:   FUNC GLOBAL DEFAULT 14 __fbufsize@@LIBC
883:   FUNC GLOBAL DEFAULT 14 __fwriting@@LIBC_P
884:   FUNC GLOBAL DEFAULT 14 fchmod@@LIBC
885:   FUNC GLOBAL DEFAULT 14 _Exit@@LIBC
886:   FUNC GLOBAL DEFAULT 14 posix_spawnattr_getsigmas@@LIBC_P
887:   FUNC GLOBAL DEFAULT 14 __isnanl@@LIBC
888:   FUNC GLOBAL DEFAULT 14 isfinitel@@LIBC
889:   FUNC GLOBAL DEFAULT 14 __fp_nquery@@LIBC
890:   FUNC GLOBAL DEFAULT 14 wcstok@@LIBC
891:   FUNC GLOBAL DEFAULT 14 putwc@@LIBC
892:   FUNC GLOBAL DEFAULT 14 epoll_wait@@LIBC
893:   FUNC GLOBAL DEFAULT 14 wcstol@@LIBC
894:   FUNC GLOBAL DEFAULT 14 iswprint@@LIBC
895:   FUNC GLOBAL DEFAULT 14 towctrans_l@@LIBC_O
896:   FUNC GLOBAL DEFAULT 14 getpgrp@@LIBC
897:   FUNC GLOBAL DEFAULT 14 getgrnam@@LIBC
898:   FUNC GLOBAL DEFAULT 14 endmntent@@LIBC
899:   FUNC GLOBAL DEFAULT 14 mmap64@@LIBC
900:   FUNC GLOBAL DEFAULT 14 link@@LIBC
901:   FUNC GLOBAL DEFAULT 14 sigblock@@LIBC
902:   FUNC GLOBAL DEFAULT 14 fallocate@@LIBC
903:   FUNC GLOBAL DEFAULT 14 getopt@@LIBC
904:   FUNC GLOBAL DEFAULT 14 pthread_mutexattr_setpsha@@LIBC
905:   FUNC GLOBAL DEFAULT 14 mkostemp@@LIBC
906:   FUNC GLOBAL DEFAULT 14 strtok_r@@LIBC
907:   FUNC GLOBAL DEFAULT 14 bind@@LIBC
908:   FUNC GLOBAL DEFAULT 14 pthread_condattr_getclock@@LIBC
909:   FUNC GLOBAL DEFAULT 14 readdir64_r@@LIBC
910:   FUNC GLOBAL DEFAULT 14 sem_open@@LIBC
911:   FUNC GLOBAL DEFAULT 14 malloc_backtrace@@LIBC_Q
912:   FUNC GLOBAL DEFAULT 14 pthread_rwlock_rdlock@@LIBC
913:   FUNC GLOBAL DEFAULT 14 sem_timedwait@@LIBC
914:   FUNC GLOBAL DEFAULT 14 sigqueue@@LIBC
915:   FUNC GLOBAL DEFAULT 14 ferror@@LIBC
916:   FUNC GLOBAL DEFAULT 14 mknod@@LIBC
917:   FUNC GLOBAL DEFAULT 14 fallocate64@@LIBC
918:   FUNC GLOBAL DEFAULT 14 gethostent@@LIBC
919:   FUNC GLOBAL DEFAULT 14 setns@@LIBC
920:   FUNC GLOBAL DEFAULT 14 fscanf@@LIBC
921:   FUNC WEAK DEFAULT 14 pthread_attr_getschedpara@@LIBC
922:   FUNC GLOBAL DEFAULT 14 utimensat@@LIBC
923:   FUNC GLOBAL DEFAULT 14 sem_destroy@@LIBC
924:   FUNC GLOBAL DEFAULT 14 signalfd64@@LIBC_P
925:   FUNC WEAK DEFAULT 14 __system_property_foreach@@LIBC
926:   FUNC GLOBAL DEFAULT 14 strerror@@LIBC
927:   FUNC GLOBAL DEFAULT 14 lchown@@LIBC
928:   FUNC GLOBAL DEFAULT 14 strncat@@LIBC
929:   FUNC GLOBAL DEFAULT 14 verrx@@LIBC
930:   FUNC GLOBAL DEFAULT 14 pwritev64@@LIBC_N
931:   FUNC GLOBAL DEFAULT 14 ctime_r@@LIBC
932:   FUNC GLOBAL DEFAULT 14 __fsetlocking@@LIBC
933:   FUNC WEAK DEFAULT 14 __pthread_cleanup_pop@@LIBC
934:   FUNC GLOBAL DEFAULT 14 mbrtoc32@@LIBC
935:   FUNC GLOBAL DEFAULT 14 epoll_create1@@LIBC
936:   FUNC GLOBAL DEFAULT 14 signalfd@@LIBC
937:   FUNC GLOBAL DEFAULT 14 ns_name_compress@@LIBC
938:   FUNC GLOBAL DEFAULT 14 __fgets_chk@@LIBC
939:   FUNC GLOBAL DEFAULT 14 recvmmsg@@LIBC
940:   FUNC GLOBAL DEFAULT 14 posix_fallocate@@LIBC
941:   FUNC GLOBAL DEFAULT 14 syslog@@LIBC
942:   FUNC GLOBAL DEFAULT 14 iswpunct@@LIBC
943:   FUNC GLOBAL DEFAULT 14 setfsgid@@LIBC
944:   FUNC GLOBAL DEFAULT 14 wcsnrtombs@@LIBC
945:   FUNC GLOBAL DEFAULT 14 mbstowcs@@LIBC
946:   FUNC GLOBAL DEFAULT 14 sched_get_priority_min@@LIBC
947:   FUNC GLOBAL DEFAULT 14 openpty@@LIBC
948:   FUNC GLOBAL DEFAULT 14 ns_initparse@@LIBC
949:   FUNC GLOBAL DEFAULT 14 strcspn@@LIBC
950:   FUNC GLOBAL DEFAULT 14 wcslcat@@LIBC
951:   FUNC GLOBAL DEFAULT 14 fwrite_unlocked@@LIBC_P
952:   FUNC GLOBAL DEFAULT 14 vprintf@@LIBC
953:   FUNC GLOBAL DEFAULT 14 pthread_rwlock_trywrlock@@LIBC
954:   FUNC WEAK DEFAULT 14 _longjmp@@LIBC
955:   FUNC GLOBAL DEFAULT 14 lstat64@@LIBC
956:   FUNC GLOBAL DEFAULT 14 send@@LIBC
957:   FUNC WEAK DEFAULT 14 __system_property_wait_an@@LIBC_DEPRECATED
958:   FUNC GLOBAL DEFAULT 14 wcscoll_l@@LIBC
959:   FUNC GLOBAL DEFAULT 14 adjtimex@@LIBC_N
960:   FUNC GLOBAL DEFAULT 14 ftruncate64@@LIBC
961:   FUNC GLOBAL DEFAULT 14 pthread_barrier_wait@@LIBC_N
962:   FUNC GLOBAL DEFAULT 14 tcflow@@LIBC
963:   FUNC WEAK DEFAULT 14 getaddrinfo@@LIBC
964:   FUNC GLOBAL DEFAULT 14 div@@LIBC
965:   FUNC GLOBAL DEFAULT 14 posix_spawnattr_getschedp@@LIBC_P
966:   FUNC GLOBAL DEFAULT 14 __res_mailok@@LIBC
967:   FUNC GLOBAL DEFAULT 14 ctermid@@LIBC_O
968:   FUNC GLOBAL DEFAULT 14 getnetbyaddr@@LIBC
969:   FUNC WEAK DEFAULT 14 pthread_attr_init@@LIBC
970:   FUNC GLOBAL DEFAULT 14 wcstof_l@@LIBC_P
971:   FUNC GLOBAL DEFAULT 14 realloc@@LIBC
972:   OBJECT GLOBAL DEFAULT 16 optopt@@LIBC
973:   FUNC GLOBAL DEFAULT 14 hsearch@@LIBC_P
974:   FUNC GLOBAL DEFAULT 14 ctime@@LIBC
975:   FUNC GLOBAL DEFAULT 14 ttyname_r@@LIBC
976:   FUNC GLOBAL DEFAULT 14 readahead@@LIBC
977:   FUNC GLOBAL DEFAULT 14 pthread_condattr_destroy@@LIBC
978:   FUNC GLOBAL DEFAULT 14 endhostent@@LIBC_P
979:   FUNC GLOBAL DEFAULT 14 fgetln@@LIBC
980:   FUNC GLOBAL DEFAULT 14 klogctl@@LIBC
981:   FUNC GLOBAL DEFAULT 14 setgid@@LIBC
982:   FUNC GLOBAL DEFAULT 14 feof_unlocked@@LIBC
983:   FUNC GLOBAL DEFAULT 14 endnetent@@LIBC_P
984:   FUNC GLOBAL DEFAULT 14 fpathconf@@LIBC
985:   FUNC GLOBAL DEFAULT 14 tmpnam@@LIBC
986:   FUNC GLOBAL DEFAULT 14 inet_addr@@LIBC
987:   FUNC GLOBAL DEFAULT 14 __write_chk@@LIBC_N
988:   FUNC WEAK DEFAULT 14 android_fdsan_exchange_ow@@LIBC_Q
989:   FUNC GLOBAL DEFAULT 14 ioctl@@LIBC
990:   FUNC GLOBAL DEFAULT 14 catgets@@LIBC_O
991:   FUNC GLOBAL DEFAULT 14 acct@@LIBC
992:   FUNC GLOBAL DEFAULT 14 getrusage@@LIBC
993:   FUNC WEAK DEFAULT 14 pthread_attr_setstack@@LIBC
994:   FUNC WEAK DEFAULT 14 vfork@@LIBC
995:   FUNC GLOBAL DEFAULT 14 wcstold@@LIBC
996:   FUNC GLOBAL DEFAULT 14 sem_unlink@@LIBC
997:   FUNC GLOBAL DEFAULT 14 gethostbyaddr_r@@LIBC
998:   FUNC GLOBAL DEFAULT 14 getsubopt@@LIBC_O
999:   FUNC GLOBAL DEFAULT 14 wctrans@@LIBC_O
1000:   FUNC GLOBAL DEFAULT 14 __res_send_setqhook@@LIBC
1001:   FUNC GLOBAL DEFAULT 14 sendfile@@LIBC
1002:   FUNC GLOBAL DEFAULT 14 __res_send_setrhook@@LIBC
1003:   FUNC GLOBAL DEFAULT 14 prlimit64@@LIBC
1004:   FUNC GLOBAL DEFAULT 14 read@@LIBC
1005:   FUNC GLOBAL DEFAULT 14 android_fdsan_get_owner_t@@LIBC_Q
1006:   FUNC GLOBAL DEFAULT 14 getpgid@@LIBC
1007:   FUNC GLOBAL DEFAULT 14 tcgetpgrp@@LIBC
1008:   FUNC GLOBAL DEFAULT 14 iswgraph_l@@LIBC
1009:   FUNC GLOBAL DEFAULT 14 getsid@@LIBC
1010:   FUNC GLOBAL DEFAULT 14 feof@@LIBC
1011:   FUNC GLOBAL DEFAULT 14 wmemmove@@LIBC
1012:   FUNC GLOBAL DEFAULT 14 readdir64@@LIBC
1013:   FUNC GLOBAL DEFAULT 14 execl@@LIBC
1014:   FUNC GLOBAL DEFAULT 14 __res_ownok@@LIBC
1015:   FUNC GLOBAL DEFAULT 14 swprintf@@LIBC
1016:   FUNC GLOBAL DEFAULT 14 mbsinit@@LIBC
1017:   FUNC GLOBAL DEFAULT 14 sigrelse@@LIBC_O
1018:   FUNC GLOBAL DEFAULT 14 posix_spawnattr_getpgroup@@LIBC_P
1019:   FUNC GLOBAL DEFAULT 14 vwarn@@LIBC
1020:   FUNC WEAK DEFAULT 14 setjmp@@LIBC
1021:   FUNC GLOBAL DEFAULT 14 __res_nsearch@@LIBC
1022:   FUNC GLOBAL DEFAULT 14 pthread_cond_wait@@LIBC
1023:   FUNC GLOBAL DEFAULT 14 clock_nanosleep@@LIBC
1024:   FUNC GLOBAL DEFAULT 14 sync_file_range@@LIBC_O
1025:   FUNC GLOBAL DEFAULT 14 wcstoll@@LIBC
1026:   FUNC GLOBAL DEFAULT 14 fgetwc@@LIBC
1027:   FUNC GLOBAL DEFAULT 14 strlcpy@@LIBC
1028:   OBJECT WEAK DEFAULT 23 __system_property_area__@@LIBC_PLATFORM
1029:   FUNC GLOBAL DEFAULT 14 fileno@@LIBC
1030:   FUNC GLOBAL DEFAULT 14 removexattr@@LIBC
1031:   FUNC GLOBAL DEFAULT 14 sync@@LIBC
1032:   FUNC WEAK DEFAULT 14 _setjmp@@LIBC
1033:   FUNC GLOBAL DEFAULT 14 timer_settime@@LIBC
1034:   FUNC GLOBAL DEFAULT 14 sigset@@LIBC_O
1035:   FUNC GLOBAL DEFAULT 14 pthread_barrierattr_getps@@LIBC_N
1036:   FUNC GLOBAL DEFAULT 14 pthread_rwlockattr_init@@LIBC
1037:   FUNC GLOBAL DEFAULT 14 kill@@LIBC
1038:   FUNC GLOBAL DEFAULT 14 iswpunct_l@@LIBC
1039:   FUNC GLOBAL DEFAULT 14 utime@@LIBC
1040:   FUNC GLOBAL DEFAULT 14 if_freenameindex@@LIBC_N
1041:   FUNC GLOBAL DEFAULT 14 getpeername@@LIBC
1042:   FUNC GLOBAL DEFAULT 14 err@@LIBC
1043:   FUNC GLOBAL DEFAULT 14 getopt_long@@LIBC
1044:   FUNC GLOBAL DEFAULT 14 lsearch@@LIBC
1045:   FUNC GLOBAL DEFAULT 14 unshare@@LIBC
1046:   FUNC GLOBAL DEFAULT 14 execv@@LIBC
1047:   FUNC GLOBAL DEFAULT 14 __isnan@@LIBC
1048:   FUNC GLOBAL DEFAULT 14 sigismember@@LIBC
1049:   FUNC GLOBAL DEFAULT 14 sched_setparam@@LIBC
1050:   FUNC GLOBAL DEFAULT 14 msgget@@LIBC_O
1051:   FUNC GLOBAL DEFAULT 14 iswblank@@LIBC
1052:   FUNC GLOBAL DEFAULT 14 localtime_r@@LIBC
1053:   FUNC GLOBAL DEFAULT 14 timer_create@@LIBC
1054:   FUNC GLOBAL DEFAULT 14 capget@@LIBC
1055:   FUNC GLOBAL DEFAULT 14 malloc_iterate@@LIBC_Q
1056:   FUNC GLOBAL DEFAULT 14 sigpause@@LIBC_O
1057:   FUNC GLOBAL DEFAULT 14 writev@@LIBC
1058:   FUNC GLOBAL DEFAULT 14 process_vm_writev@@LIBC
1059:   FUNC GLOBAL DEFAULT 14 iswupper_l@@LIBC
1060:   FUNC GLOBAL DEFAULT 14 endgrent@@LIBC_O
1061:   FUNC GLOBAL DEFAULT 14 getmntent_r@@LIBC
1062:   FUNC GLOBAL DEFAULT 14 chroot@@LIBC
1063:   FUNC GLOBAL DEFAULT 14 fts_read@@LIBC
1064:   FUNC GLOBAL DEFAULT 14 getutent@@LIBC
1065:   FUNC GLOBAL DEFAULT 14 fstatat64@@LIBC
1066:   FUNC GLOBAL DEFAULT 14 socketpair@@LIBC
1067:   FUNC GLOBAL DEFAULT 14 __libc_current_sigrtmin@@LIBC
1068:   FUNC GLOBAL DEFAULT 14 sigemptyset@@LIBC
1069:   FUNC GLOBAL DEFAULT 14 wmemcpy@@LIBC
1070:   FUNC GLOBAL DEFAULT 14 hdestroy@@LIBC_P
1071:   FUNC GLOBAL DEFAULT 14 mkdtemp@@LIBC
1072:   FUNC WEAK DEFAULT 14 pthread_key_create@@LIBC
1073:   FUNC GLOBAL DEFAULT 14 strtoumax@@LIBC
1074:   FUNC GLOBAL DEFAULT 14 lutimes@@LIBC_O
1075:   FUNC WEAK DEFAULT 14 __system_property_add@@LIBC_PLATFORM
1076:   FUNC GLOBAL DEFAULT 14 execvpe@@LIBC
1077:   FUNC GLOBAL DEFAULT 14 regfree@@LIBC
1078:   FUNC GLOBAL DEFAULT 14 ftok@@LIBC
1079:   FUNC GLOBAL DEFAULT 14 fgetws@@LIBC
1080:   FUNC GLOBAL DEFAULT 14 fgetxattr@@LIBC
1081:   FUNC GLOBAL DEFAULT 14 qsort@@LIBC
1082:   FUNC GLOBAL DEFAULT 14 cfmakeraw@@LIBC
1083:   FUNC GLOBAL DEFAULT 14 setreuid@@LIBC
1084:   FUNC GLOBAL DEFAULT 14 epoll_pwait64@@LIBC_P
1085:   FUNC GLOBAL DEFAULT 14 _toupper@@LIBC
1086:   FUNC GLOBAL DEFAULT 14 strcasestr@@LIBC
1087:   FUNC GLOBAL DEFAULT 14 __strrchr_chk@@LIBC
1088:   FUNC GLOBAL DEFAULT 14 ffs@@LIBC
1089:   FUNC GLOBAL DEFAULT 14 gethostname@@LIBC
1090:   FUNC GLOBAL DEFAULT 14 iswupper@@LIBC
1091:   FUNC GLOBAL DEFAULT 14 inet_lnaof@@LIBC
1092:   FUNC GLOBAL DEFAULT 14 lldiv@@LIBC
1093:   FUNC GLOBAL DEFAULT 14 dprintf@@LIBC
1094:   FUNC GLOBAL DEFAULT 14 strndup@@LIBC
1095:   FUNC GLOBAL DEFAULT 14 setgroups@@LIBC
1096:   FUNC GLOBAL DEFAULT 14 fwprintf@@LIBC
1097:   FUNC GLOBAL DEFAULT 14 ispunct_l@@LIBC
1098:   FUNC GLOBAL DEFAULT 14 pthread_getname_np@@LIBC_O
1099:   FUNC GLOBAL DEFAULT 14 __memcpy_chk@@LIBC
1100:   FUNC GLOBAL DEFAULT 14 ftrylockfile@@LIBC
1101:   FUNC GLOBAL DEFAULT 14 __ctype_get_mb_cur_max@@LIBC
1102:   FUNC GLOBAL DEFAULT 14 strerror_l@@LIBC
1103:   FUNC GLOBAL DEFAULT 14 msgrcv@@LIBC_O
1104:   FUNC GLOBAL DEFAULT 14 wcrtomb@@LIBC
1105:   FUNC GLOBAL DEFAULT 14 timerfd_create@@LIBC
1106:   FUNC GLOBAL DEFAULT 14 malloc_disable@@LIBC_Q
1107:   FUNC GLOBAL DEFAULT 14 toupper@@LIBC
1108:   FUNC WEAK DEFAULT 14 android_fdsan_get_error_l@@LIBC_Q
1109:   FUNC GLOBAL DEFAULT 14 iconv_open@@LIBC_P
1110:   FUNC GLOBAL DEFAULT 14 umount@@LIBC
1111:   FUNC GLOBAL DEFAULT 14 truncate64@@LIBC
1112:   FUNC GLOBAL DEFAULT 14 getsockname@@LIBC
1113:   FUNC GLOBAL DEFAULT 14 strcat@@LIBC
1114:   FUNC GLOBAL DEFAULT 14 sched_getscheduler@@LIBC
1115:   FUNC GLOBAL DEFAULT 14 _flushlbf@@LIBC
1116:   FUNC GLOBAL DEFAULT 14 aligned_alloc@@LIBC_P
1117:   FUNC GLOBAL DEFAULT 14 malloc_enable@@LIBC_Q
1118:   FUNC GLOBAL DEFAULT 14 fchmodat@@LIBC
1119:   FUNC GLOBAL DEFAULT 14 futimesat@@LIBC_O
1120:   FUNC GLOBAL DEFAULT 14 __cxa_finalize@@LIBC
1121:   FUNC GLOBAL DEFAULT 14 strncmp@@LIBC
1122:   FUNC GLOBAL DEFAULT 14 isupper_l@@LIBC
1123:   FUNC GLOBAL DEFAULT 14 fstatfs@@LIBC
1124:   FUNC GLOBAL DEFAULT 14 posix_spawnattr_getsigdef@@LIBC_P
1125:   FUNC GLOBAL DEFAULT 14 _resolv_delete_cache_for_@@LIBC
1126:   FUNC GLOBAL DEFAULT 14 nrand48@@LIBC
1127:   FUNC GLOBAL DEFAULT 14 mount@@LIBC
1128:   FUNC GLOBAL DEFAULT 14 ftell@@LIBC
1129:   FUNC WEAK DEFAULT 14 pthread_join@@LIBC
1130:   FUNC GLOBAL DEFAULT 14 getpt@@LIBC
1131:   FUNC GLOBAL DEFAULT 14 srand@@LIBC
1132:   FUNC GLOBAL DEFAULT 14 strerror_r@@LIBC
1133:   FUNC GLOBAL DEFAULT 14 mbsrtowcs@@LIBC
1134:   FUNC GLOBAL DEFAULT 14 getgroups@@LIBC
1135:   FUNC GLOBAL DEFAULT 14 preadv64@@LIBC_N
1136:   FUNC GLOBAL DEFAULT 14 __memrchr_chk@@LIBC
1137:   FUNC GLOBAL DEFAULT 14 prctl@@LIBC
1138:   FUNC GLOBAL DEFAULT 14 mkstemp@@LIBC
1139:   FUNC GLOBAL DEFAULT 14 strxfrm_l@@LIBC
1140:   FUNC GLOBAL DEFAULT 14 imaxabs@@LIBC
1141:   FUNC WEAK DEFAULT 14 __system_property_area_se@@LIBC
1142:   FUNC GLOBAL DEFAULT 14 eventfd_write@@LIBC
1143:   FUNC GLOBAL DEFAULT 14 newlocale@@LIBC
1144:   FUNC GLOBAL DEFAULT 14 hasmntopt@@LIBC_O
1145:   OBJECT GLOBAL DEFAULT 23 daylight@@LIBC
1146:   FUNC GLOBAL DEFAULT 14 sprintf@@LIBC
1147:   FUNC GLOBAL DEFAULT 14 vfwscanf@@LIBC
1148:   FUNC GLOBAL DEFAULT 14 malloc_info@@LIBC
1149:   FUNC GLOBAL DEFAULT 14 iscntrl@@LIBC
1150:   FUNC GLOBAL DEFAULT 14 android_fdsan_get_tag_typ@@LIBC_Q
1151:   FUNC GLOBAL DEFAULT 14 lockf@@LIBC_N
1152:   FUNC GLOBAL DEFAULT 14 strtol_l@@LIBC_O
1153:   FUNC GLOBAL DEFAULT 14 setservent@@LIBC
1154:   FUNC GLOBAL DEFAULT 14 funopen@@LIBC
1155:   FUNC GLOBAL DEFAULT 14 posix_memalign@@LIBC
1156:   FUNC GLOBAL DEFAULT 14 getline@@LIBC
1157:   FUNC GLOBAL DEFAULT 14 __strlcpy_chk@@LIBC
1158:   FUNC GLOBAL DEFAULT 14 atoll@@LIBC
1159:   FUNC GLOBAL DEFAULT 14 epoll_pwait@@LIBC
1160:   FUNC GLOBAL DEFAULT 14 glob@@LIBC_P
1161:   FUNC GLOBAL DEFAULT 14 fchown@@LIBC
1162:   FUNC GLOBAL DEFAULT 14 setenv@@LIBC
1163:   FUNC GLOBAL DEFAULT 14 dup@@LIBC
1164:   FUNC GLOBAL DEFAULT 14 fileno_unlocked@@LIBC_N
1165:   FUNC GLOBAL DEFAULT 14 clock_gettime@@LIBC
1166:   FUNC GLOBAL DEFAULT 14 get_phys_pages@@LIBC
1167:   FUNC GLOBAL DEFAULT 14 getcwd@@LIBC
1168:   FUNC GLOBAL DEFAULT 14 sighold@@LIBC_O
1169:   FUNC GLOBAL DEFAULT 14 readv@@LIBC
1170:   FUNC GLOBAL DEFAULT 14 __umask_chk@@LIBC
1171:   FUNC GLOBAL DEFAULT 14 cfgetospeed@@LIBC
1172:   FUNC GLOBAL DEFAULT 14 tmpfile@@LIBC
1173:   FUNC GLOBAL DEFAULT 14 umask@@LIBC
1174:   FUNC GLOBAL DEFAULT 14 wcscat@@LIBC
1175:   FUNC GLOBAL DEFAULT 14 iswblank_l@@LIBC
1176:   FUNC GLOBAL DEFAULT 14 memcmp@@LIBC
1177:   OBJECT GLOBAL DEFAULT 16 tzname@@LIBC
1178:   FUNC GLOBAL DEFAULT 14 wcstoul_l@@LIBC_P
1179:   OBJECT GLOBAL DEFAULT 16 opterr@@LIBC
1180:   FUNC GLOBAL DEFAULT 14 pthread_condattr_getpshar@@LIBC
1181:   FUNC GLOBAL DEFAULT 14 strcasecmp@@LIBC
1182:   FUNC GLOBAL DEFAULT 14 __isnormalf@@LIBC
1183:   FUNC GLOBAL DEFAULT 14 mkfifoat@@LIBC
1184:   FUNC GLOBAL DEFAULT 14 wcscasecmp@@LIBC
1185:   FUNC GLOBAL DEFAULT 14 ldexp@@LIBC
1186:   FUNC GLOBAL DEFAULT 14 isdigit@@LIBC
1187:   FUNC GLOBAL DEFAULT 14 quotactl@@LIBC_O
1188:   FUNC GLOBAL DEFAULT 14 setbuf@@LIBC
1189:   FUNC GLOBAL DEFAULT 14 strnlen@@LIBC
1190:   FUNC GLOBAL DEFAULT 14 wmempcpy@@LIBC
1191:   FUNC GLOBAL DEFAULT 14 pthread_spin_destroy@@LIBC_N
1192:   FUNC GLOBAL DEFAULT 14 __isnormal@@LIBC
1193:   FUNC GLOBAL DEFAULT 14 isnanf@@LIBC
1194:   FUNC GLOBAL DEFAULT 14 mkstemp64@@LIBC
1195:   FUNC GLOBAL DEFAULT 14 __res_nclose@@LIBC
1196:   FUNC GLOBAL DEFAULT 14 __sym_ntop@@LIBC
1197:   FUNC GLOBAL DEFAULT 14 pthread_mutexattr_getpsha@@LIBC
1198:   FUNC GLOBAL DEFAULT 14 __p_secstodate@@LIBC
1199:   FUNC GLOBAL DEFAULT 14 pthread_condattr_init@@LIBC
1200:   FUNC GLOBAL DEFAULT 14 strxfrm@@LIBC
1201:   FUNC GLOBAL DEFAULT 14 __sym_ntos@@LIBC
1202:   FUNC GLOBAL DEFAULT 14 rand_r@@LIBC
1203:   FUNC GLOBAL DEFAULT 14 labs@@LIBC
1204:   FUNC GLOBAL DEFAULT 14 tsearch@@LIBC
1205:   FUNC GLOBAL DEFAULT 14 perror@@LIBC
1206:   FUNC GLOBAL DEFAULT 14 __isnormall@@LIBC
1207:   FUNC GLOBAL DEFAULT 14 btowc@@LIBC
1208:   FUNC WEAK DEFAULT 14 pthread_detach@@LIBC
1209:   FUNC GLOBAL DEFAULT 14 __strcpy_chk@@LIBC
1210:   FUNC GLOBAL DEFAULT 14 pselect@@LIBC
1211:   FUNC GLOBAL DEFAULT 14 eventfd@@LIBC
1212:   FUNC GLOBAL DEFAULT 14 pthread_condattr_setpshar@@LIBC
1213:   FUNC GLOBAL DEFAULT 14 pthread_spin_init@@LIBC_N
1214:   FUNC GLOBAL DEFAULT 14 isnanl@@LIBC
1215:   FUNC GLOBAL DEFAULT 14 sigsuspend@@LIBC
1216:   FUNC GLOBAL DEFAULT 14 res_init@@LIBC
1217:   FUNC GLOBAL DEFAULT 14 __loc_aton@@LIBC
1218:   FUNC GLOBAL DEFAULT 14 init_module@@LIBC
1219:   FUNC GLOBAL DEFAULT 14 sigaddset64@@LIBC_P
1220:   FUNC GLOBAL DEFAULT 14 catclose@@LIBC_O
1221:   FUNC GLOBAL DEFAULT 14 _resolv_flush_cache_for_n@@LIBC
1222:   FUNC GLOBAL DEFAULT 14 munlockall@@LIBC
1223:   FUNC GLOBAL DEFAULT 14 settimeofday@@LIBC
1224:   FUNC GLOBAL DEFAULT 14 __sched_cpufree@@LIBC
1225:   FUNC GLOBAL DEFAULT 14 fsetpos64@@LIBC_N
1226:   FUNC GLOBAL DEFAULT 14 wprintf@@LIBC
1227:   FUNC GLOBAL DEFAULT 14 stpcpy@@LIBC
1228:   FUNC GLOBAL DEFAULT 14 wcscoll@@LIBC
1229:   FUNC GLOBAL DEFAULT 14 getopt_long_only@@LIBC
1230:   FUNC WEAK DEFAULT 14 pthread_attr_setguardsize@@LIBC
1231:   FUNC GLOBAL DEFAULT 14 abort@@LIBC
1232:   FUNC GLOBAL DEFAULT 14 pthread_mutexattr_init@@LIBC
1233:   FUNC GLOBAL DEFAULT 14 fopen@@LIBC
1234:   FUNC GLOBAL DEFAULT 14 readdir_r@@LIBC
1235:   FUNC GLOBAL DEFAULT 14 setresuid@@LIBC
1236:   FUNC GLOBAL DEFAULT 14 wcspbrk@@LIBC
1237:   FUNC GLOBAL DEFAULT 14 isnan@@LIBC
1238:   FUNC GLOBAL DEFAULT 14 statfs@@LIBC
1239:   FUNC GLOBAL DEFAULT 14 regcomp@@LIBC
1240:   FUNC GLOBAL DEFAULT 14 vdprintf@@LIBC
1241:   FUNC GLOBAL DEFAULT 14 strstr@@LIBC
1242:   FUNC GLOBAL DEFAULT 14 sigpending64@@LIBC_P
1243:   FUNC GLOBAL DEFAULT 14 mmap@@LIBC
1244:   FUNC GLOBAL DEFAULT 14 isblank_l@@LIBC
1245:   FUNC GLOBAL DEFAULT 14 asprintf@@LIBC
1246:   FUNC GLOBAL DEFAULT 14 geteuid@@LIBC
1247:   FUNC GLOBAL DEFAULT 14 sethostname@@LIBC
1248:   FUNC GLOBAL DEFAULT 14 getc@@LIBC
1249:   FUNC GLOBAL DEFAULT 14 tcsetpgrp@@LIBC
1250:   FUNC GLOBAL DEFAULT 14 __res_isourserver@@LIBC
1251:   FUNC GLOBAL DEFAULT 14 __loc_ntoa@@LIBC
1252:   FUNC GLOBAL DEFAULT 14 calloc@@LIBC
1253:   FUNC GLOBAL DEFAULT 14 getpriority@@LIBC
1254:   FUNC GLOBAL DEFAULT 14 mbrtowc@@LIBC
1255:   FUNC GLOBAL DEFAULT 14 gethostbyname@@LIBC
1256:   FUNC GLOBAL DEFAULT 14 pthread_rwlockattr_getkin@@LIBC
1257:   FUNC GLOBAL DEFAULT 14 wcstol_l@@LIBC_P
1258:   FUNC GLOBAL DEFAULT 14 strptime_l@@LIBC_P
1259:   FUNC GLOBAL DEFAULT 14 pthread_mutex_timedlock_m@@LIBC_P
1260:   FUNC GLOBAL DEFAULT 14 ftruncate@@LIBC
1261:   FUNC GLOBAL DEFAULT 14 posix_openpt@@LIBC
1262:   FUNC GLOBAL DEFAULT 14 sigpending@@LIBC
1263:   FUNC GLOBAL DEFAULT 14 getresuid@@LIBC
1264:   FUNC GLOBAL DEFAULT 14 fgetpos@@LIBC
1265:   FUNC GLOBAL DEFAULT 14 strtoull@@LIBC
1266:   FUNC GLOBAL DEFAULT 14 islower@@LIBC
1267:   FUNC GLOBAL DEFAULT 14 getlogin@@LIBC
1268:   FUNC GLOBAL DEFAULT 14 fputwc@@LIBC
1269:   FUNC GLOBAL DEFAULT 14 prlimit@@LIBC
1270:   FUNC GLOBAL DEFAULT 14 close@@LIBC
1271:   FUNC WEAK DEFAULT 14 sigsetjmp@@LIBC
1272:   FUNC GLOBAL DEFAULT 14 __strncpy_chk@@LIBC
1273:   FUNC GLOBAL DEFAULT 14 popen@@LIBC
1274:   FUNC GLOBAL DEFAULT 14 __freading@@LIBC_P
1275:   FUNC WEAK DEFAULT 14 android_set_abort_message@@LIBC
1276:   FUNC GLOBAL DEFAULT 14 setxattr@@LIBC
1277:   FUNC GLOBAL DEFAULT 14 futimens@@LIBC
1278:   FUNC GLOBAL DEFAULT 14 res_query@@LIBC
1279:   FUNC GLOBAL DEFAULT 14 wcstoimax@@LIBC
1280:   FUNC GLOBAL DEFAULT 14 fwide@@LIBC
1281:   FUNC GLOBAL DEFAULT 14 remque@@LIBC
1282:   OBJECT GLOBAL DEFAULT 16 __sF@@LIBC
1283:   FUNC GLOBAL DEFAULT 14 sched_get_priority_max@@LIBC
1284:   FUNC WEAK DEFAULT 14 pthread_attr_setschedpoli@@LIBC
1285:   FUNC GLOBAL DEFAULT 14 _exit@@LIBC
1286:   FUNC GLOBAL DEFAULT 14 gettid@@LIBC
1287:   FUNC GLOBAL DEFAULT 14 endprotoent@@LIBC_P
1288:   FUNC GLOBAL DEFAULT 14 __poll_chk@@LIBC
1289:   FUNC GLOBAL DEFAULT 14 wcsstr@@LIBC
1290:   FUNC GLOBAL DEFAULT 14 sigaltstack@@LIBC
1291:   FUNC GLOBAL DEFAULT 14 fputc_unlocked@@LIBC_P
1292:   FUNC GLOBAL DEFAULT 14 setbuffer@@LIBC
1293:   FUNC GLOBAL DEFAULT 14 pthread_rwlockattr_setkin@@LIBC
1294:   FUNC GLOBAL DEFAULT 14 isnormalf@@LIBC
1295:   FUNC GLOBAL DEFAULT 14 linkat@@LIBC
1296:   FUNC GLOBAL DEFAULT 14 sigsetmask@@LIBC
1297:   FUNC GLOBAL DEFAULT 14 ns_get16@@LIBC
1298:   FUNC GLOBAL DEFAULT 14 __snprintf_chk@@LIBC
1299:   FUNC GLOBAL DEFAULT 14 getdelim@@LIBC
1300:   FUNC GLOBAL DEFAULT 14 asctime_r@@LIBC
1301:   FUNC GLOBAL DEFAULT 14 mktime@@LIBC
1302:   FUNC GLOBAL DEFAULT 14 __cxa_atexit@@LIBC
1303:   FUNC GLOBAL DEFAULT 14 isspace@@LIBC
1304:   FUNC GLOBAL DEFAULT 14 scandir@@LIBC
1305:   FUNC GLOBAL DEFAULT 14 __p_time@@LIBC
1306:   FUNC GLOBAL DEFAULT 14 __freadable@@LIBC
1307:   FUNC GLOBAL DEFAULT 14 __open_2@@LIBC
1308:   FUNC GLOBAL DEFAULT 14 dn_expand@@LIBC
1309:   FUNC GLOBAL DEFAULT 14 strdup@@LIBC
1310:   FUNC GLOBAL DEFAULT 14 uname@@LIBC
1311:   FUNC GLOBAL DEFAULT 14 cfsetspeed@@LIBC
1312:   FUNC GLOBAL DEFAULT 14 memrchr@@LIBC
1313:   FUNC GLOBAL DEFAULT 14 wmemset@@LIBC
1314:   FUNC GLOBAL DEFAULT 14 process_vm_readv@@LIBC
1315:   FUNC WEAK DEFAULT 14 longjmp@@LIBC
1316:   FUNC GLOBAL DEFAULT 14 eventfd_read@@LIBC
1317:   FUNC GLOBAL DEFAULT 14 nice@@LIBC
1318:   FUNC GLOBAL DEFAULT 14 gets@@LIBC
1319:   FUNC GLOBAL DEFAULT 14 setregid@@LIBC
1320:   FUNC WEAK DEFAULT 14 pthread_attr_getstack@@LIBC
1321:   FUNC WEAK DEFAULT 14 pthread_attr_setscope@@LIBC
1322:   FUNC GLOBAL DEFAULT 14 sigdelset@@LIBC
1323:   FUNC GLOBAL DEFAULT 14 wcscasecmp_l@@LIBC
1324:   FUNC GLOBAL DEFAULT 14 __fwrite_chk@@LIBC_N
1325:   FUNC GLOBAL DEFAULT 14 swapon@@LIBC
1326:   FUNC GLOBAL DEFAULT 14 isnormall@@LIBC
1327:   FUNC GLOBAL DEFAULT 14 getdomainname@@LIBC_O
1328:   FUNC GLOBAL DEFAULT 14 setdomainname@@LIBC_O
1329:   FUNC GLOBAL DEFAULT 14 __memset_chk@@LIBC
1330:   FUNC GLOBAL DEFAULT 14 sigaction64@@LIBC_P
1331:   FUNC GLOBAL DEFAULT 14 readdir@@LIBC
1332:   FUNC GLOBAL DEFAULT 14 forkpty@@LIBC
1333:   FUNC GLOBAL DEFAULT 14 wcstold_l@@LIBC
1334:   FUNC GLOBAL DEFAULT 14 __fpurge@@LIBC
1335:   FUNC GLOBAL DEFAULT 14 unlockpt@@LIBC
1336:   FUNC GLOBAL DEFAULT 14 srandom@@LIBC
1337:   FUNC GLOBAL DEFAULT 14 vwscanf@@LIBC
1338:   FUNC GLOBAL DEFAULT 14 __vsnprintf_chk@@LIBC
1339:   FUNC GLOBAL DEFAULT 14 strcmp@@LIBC
1340:   FUNC GLOBAL DEFAULT 14 __readlink_chk@@LIBC
1341:   FUNC GLOBAL DEFAULT 14 getgrgid@@LIBC
1342:   FUNC GLOBAL DEFAULT 14 getifaddrs@@LIBC_N
1343:   FUNC GLOBAL DEFAULT 14 fpurge@@LIBC
1344:   FUNC GLOBAL DEFAULT 14 fputws@@LIBC
1345:   FUNC GLOBAL DEFAULT 14 ungetwc@@LIBC
1346:   FUNC GLOBAL DEFAULT 14 sendmsg@@LIBC
1347:   FUNC GLOBAL DEFAULT 14 fts_close@@LIBC
1348:   FUNC GLOBAL DEFAULT 14 localeconv@@LIBC
1349:   FUNC GLOBAL DEFAULT 14 mknodat@@LIBC
1350:   FUNC GLOBAL DEFAULT 14 bindresvport@@LIBC
1351:   FUNC GLOBAL DEFAULT 14 chdir@@LIBC
1352:   FUNC GLOBAL DEFAULT 14 pututline@@LIBC
1353:   FUNC GLOBAL DEFAULT 14 fputs_unlocked@@LIBC_P
1354:   FUNC GLOBAL DEFAULT 14 __cmsg_nxthdr@@LIBC
1355:   FUNC GLOBAL DEFAULT 14 iswalnum_l@@LIBC
1356:   FUNC GLOBAL DEFAULT 14 clock_getcpuclockid@@LIBC
1357:   FUNC GLOBAL DEFAULT 14 telldir@@LIBC
1358:   FUNC GLOBAL DEFAULT 14 recv@@LIBC
1359:   FUNC GLOBAL DEFAULT 14 getservbyport@@LIBC
1360:   FUNC GLOBAL DEFAULT 14 fstat64@@LIBC
1361:   FUNC GLOBAL DEFAULT 14 shutdown@@LIBC
1362:   FUNC GLOBAL DEFAULT 14 putc_unlocked@@LIBC
1363:   FUNC GLOBAL DEFAULT 14 pthread_rwlock_unlock@@LIBC
1364:   FUNC GLOBAL DEFAULT 14 creat64@@LIBC
1365:   FUNC GLOBAL DEFAULT 14 __memmove_chk@@LIBC
1366:   FUNC GLOBAL DEFAULT 14 initstate@@LIBC
1367:   FUNC GLOBAL DEFAULT 14 isascii@@LIBC
1368:   FUNC GLOBAL DEFAULT 14 inotify_init1@@LIBC
1369:   FUNC GLOBAL DEFAULT 14 ns_name_unpack@@LIBC
1370:   FUNC GLOBAL DEFAULT 14 wcsdup@@LIBC
