 0x000000000000000e (SONAME)             Library soname: [libf2fs_sparseblock.so]
  
Symbol   contains 26 entries:
Num:   Type Bind Vis Ndx Name
0:   NOTYPE LOCAL DEFAULT UND
1:   FUNC GLOBAL DEFAULT UND __cxa_finalize@LIBC (2)
2:   FUNC GLOBAL DEFAULT UND __android_log_buf_print@LIBLOG (3)
3:   FUNC GLOBAL DEFAULT UND __open_2@LIBC (2)
4:   FUNC GLOBAL DEFAULT UND __stack_chk_fail@LIBC (2)
5:   FUNC GLOBAL DEFAULT UND calloc@LIBC (2)
6:   FUNC GLOBAL DEFAULT UND close@LIBC (2)
7:   FUNC GLOBAL DEFAULT UND free@LIBC (2)
8:   FUNC GLOBAL DEFAULT UND ftruncate64@LIBC (2)
9:   FUNC GLOBAL DEFAULT UND lseek64@LIBC (2)
10:   FUNC GLOBAL DEFAULT UND malloc@LIBC (2)
11:   FUNC GLOBAL DEFAULT UND memcpy@LIBC (2)
12:   FUNC GLOBAL DEFAULT UND open@LIBC (2)
13:   FUNC GLOBAL DEFAULT UND printf@LIBC (2)
14:   FUNC GLOBAL DEFAULT UND puts@LIBC (2)
15:   FUNC GLOBAL DEFAULT UND read@LIBC (2)
16:   FUNC GLOBAL DEFAULT UND write@LIBC (2)
17:   FUNC GLOBAL DEFAULT 14 copy_used
18:   FUNC GLOBAL DEFAULT 14 free_f2fs_info
19:   FUNC GLOBAL DEFAULT 14 get_valid_checkpoint_info
20:   FUNC GLOBAL DEFAULT 14 main
21:   FUNC GLOBAL DEFAULT 14 f2fs_test_bit
22:   FUNC GLOBAL DEFAULT 14 generate_f2fs_info
23:   FUNC GLOBAL DEFAULT 14 get_f2fs_filesystem_size_
24:   FUNC GLOBAL DEFAULT 14 get_num_blocks_used
25:   FUNC GLOBAL DEFAULT 14 run_on_used_blocks
