 0x0000000e (SONAME)                     Library soname: [libmedia_helper.so]
  
Symbol   contains 266 entries:
Num:   Type Bind Vis Ndx Name
0:   NOTYPE LOCAL DEFAULT UND
1:   FUNC GLOBAL DEFAULT UND __cxa_finalize@LIBC (2)
2:   FUNC GLOBAL DEFAULT UND _ZN7android10VectorImpl13
3:   FUNC GLOBAL DEFAULT UND _ZN7android10VectorImpl5c
4:   FUNC GLOBAL DEFAULT UND _ZN7android16SortedVector
5:   FUNC GLOBAL DEFAULT UND _ZN7android16SortedVector
6:   FUNC GLOBAL DEFAULT UND _ZN7android16SortedVector
7:   FUNC GLOBAL DEFAULT UND _ZN7android16SortedVector
8:   FUNC GLOBAL DEFAULT UND _ZN7android7String85setTo
9:   FUNC GLOBAL DEFAULT UND _ZN7android7String86appen
10:   FUNC GLOBAL DEFAULT UND _ZN7android7String86appen
11:   FUNC GLOBAL DEFAULT UND _ZN7android7String8C1EPKc
12:   FUNC GLOBAL DEFAULT UND _ZN7android7String8C1EPKc
13:   FUNC GLOBAL DEFAULT UND _ZN7android7String8C1ERKS
14:   FUNC GLOBAL DEFAULT UND _ZN7android7String8C1Ev
15:   FUNC GLOBAL DEFAULT UND _ZN7android7String8D1Ev
16:   FUNC GLOBAL DEFAULT UND _ZNK7android16SortedVecto
17:   FUNC GLOBAL DEFAULT UND _ZNK7android7String86leng
18:   FUNC GLOBAL DEFAULT UND _ZdaPv
19:   FUNC GLOBAL DEFAULT UND _ZdlPv
20:   FUNC GLOBAL DEFAULT UND _Znaj
21:   FUNC GLOBAL DEFAULT UND __android_log_assert@LIBLOG (3)
22:   FUNC GLOBAL DEFAULT UND __stack_chk_fail@LIBC (2)
23:   OBJECT GLOBAL DEFAULT UND __stack_chk_guard@LIBC (2)
24:   FUNC GLOBAL DEFAULT UND __vsnprintf_chk@LIBC (2)
25:   FUNC GLOBAL DEFAULT UND sscanf@LIBC (2)
26:   FUNC GLOBAL DEFAULT UND strcmp@LIBC (2)
27:   FUNC GLOBAL DEFAULT UND strcpy@LIBC (2)
28:   FUNC GLOBAL DEFAULT UND strcspn@LIBC (2)
29:   FUNC GLOBAL DEFAULT UND strlen@LIBC (2)
30:   FUNC GLOBAL DEFAULT UND strtok_r@LIBC (2)
31:   FUNC GLOBAL DEFAULT UND _ZN7android10VectorImpl3a
32:   FUNC GLOBAL DEFAULT UND _ZN7android10VectorImplC2
33:   FUNC GLOBAL DEFAULT UND _ZN7android10VectorImplD2
34:   FUNC GLOBAL DEFAULT UND _ZNKSt3__112basic_stringI
35:   FUNC GLOBAL DEFAULT UND _ZNKSt3__112basic_stringI
36:   FUNC GLOBAL DEFAULT UND _ZNKSt3__120__vector_base
37:   FUNC GLOBAL DEFAULT UND _ZNKSt3__121__basic_strin
38:   FUNC GLOBAL DEFAULT UND _ZNSt3__112basic_stringIc
39:   FUNC GLOBAL DEFAULT UND _ZNSt3__112basic_stringIc
40:   FUNC GLOBAL DEFAULT UND _ZNSt3__112basic_stringIc
41:   FUNC GLOBAL DEFAULT UND _ZNSt3__112basic_stringIc
42:   FUNC GLOBAL DEFAULT UND _ZNSt3__112basic_stringIc
43:   FUNC GLOBAL DEFAULT UND _ZNSt3__112basic_stringIc
44:   FUNC GLOBAL DEFAULT UND _ZNSt3__113basic_istreamI
45:   FUNC GLOBAL DEFAULT UND _ZNSt3__113basic_istreamI
46:   FUNC GLOBAL DEFAULT UND _ZNSt3__113basic_istreamI
47:   FUNC GLOBAL DEFAULT UND _ZNSt3__113basic_ostreamI
48:   FUNC GLOBAL DEFAULT UND _ZNSt3__113basic_ostreamI
49:   FUNC GLOBAL DEFAULT UND _ZNSt3__114basic_iostream
50:   FUNC GLOBAL DEFAULT UND _ZNSt3__114basic_iostream
51:   FUNC GLOBAL DEFAULT UND _ZNSt3__114basic_iostream
52:   FUNC GLOBAL DEFAULT UND _ZNSt3__115basic_streambu
53:   FUNC GLOBAL DEFAULT UND _ZNSt3__115basic_streambu
54:   FUNC GLOBAL DEFAULT UND _ZNSt3__115basic_streambu
55:   FUNC GLOBAL DEFAULT UND _ZNSt3__115basic_streambu
56:   FUNC GLOBAL DEFAULT UND _ZNSt3__115basic_streambu
57:   FUNC GLOBAL DEFAULT UND _ZNSt3__115basic_streambu
58:   FUNC GLOBAL DEFAULT UND _ZNSt3__115basic_streambu
59:   FUNC GLOBAL DEFAULT UND _ZNSt3__115basic_streambu
60:   FUNC GLOBAL DEFAULT UND _ZNSt3__115basic_streambu
61:   FUNC GLOBAL DEFAULT UND _ZNSt3__18ios_base4initEP
62:   FUNC GLOBAL DEFAULT UND _ZNSt3__19basic_iosIcNS_1
63:   FUNC GLOBAL DEFAULT UND _ZThn8_NSt3__114basic_ios
64:   FUNC GLOBAL DEFAULT UND _ZThn8_NSt3__114basic_ios
65:   FUNC GLOBAL DEFAULT UND _ZTv0_n12_NSt3__113basic_
66:   FUNC GLOBAL DEFAULT UND _ZTv0_n12_NSt3__113basic_
67:   FUNC GLOBAL DEFAULT UND _ZTv0_n12_NSt3__113basic_
68:   FUNC GLOBAL DEFAULT UND _ZTv0_n12_NSt3__113basic_
69:   FUNC GLOBAL DEFAULT UND _ZTv0_n12_NSt3__114basic_
70:   FUNC GLOBAL DEFAULT UND _ZTv0_n12_NSt3__114basic_
71:   FUNC GLOBAL DEFAULT UND _Znwj
72:   FUNC GLOBAL DEFAULT UND abort@LIBC (2)
73:   FUNC GLOBAL DEFAULT UND free@LIBC (2)
74:   FUNC GLOBAL DEFAULT UND strdup@LIBC (2)
75:   FUNC GLOBAL DEFAULT UND strtok@LIBC (2)
76:   FUNC GLOBAL DEFAULT UND memcpy@LIBC (2)
77:   FUNC GLOBAL DEFAULT UND memmove@LIBC (2)
78:   FUNC GLOBAL DEFAULT UND memset@LIBC (2)
79:   FUNC GLOBAL DEFAULT 13 _ZN7android14AudioParamet
80:   FUNC WEAK DEFAULT 13 _ZN7android13TypeConverte
81:   OBJECT GLOBAL DEFAULT 17 _ZN7android13TypeConverte
82:   OBJECT GLOBAL DEFAULT 17 _ZN7android13TypeConverte
83:   FUNC WEAK DEFAULT 13 _ZN7android13TypeConverte
84:   FUNC WEAK DEFAULT 13 _ZN7android13TypeConverte
85:   FUNC WEAK DEFAULT 13 _ZN7android13TypeConverte
86:   FUNC GLOBAL DEFAULT 13 _ZN7android23samplingRate
87:   FUNC WEAK DEFAULT 13 _ZNK7android12SortedVecto
88:   OBJECT GLOBAL DEFAULT 17 _ZN7android14AudioParamet
89:   OBJECT GLOBAL DEFAULT 17 _ZN7android14AudioParamet
90:   FUNC GLOBAL DEFAULT 13 _ZNK7android14AudioParame
91:   FUNC GLOBAL DEFAULT 13 _ZN7android22channelMasks
92:   FUNC WEAK DEFAULT 13 _ZNK7android6VectorI14aud
93:   OBJECT GLOBAL DEFAULT 17 _ZN7android14AudioParamet
94:   FUNC WEAK DEFAULT 13 _ZNK7android12SortedVecto
95:   FUNC WEAK DEFAULT 13 _ZNK7android12SortedVecto
96:   FUNC WEAK DEFAULT 13 _ZNSt3__16vectorIjNS_9all
97:   OBJECT WEAK DEFAULT 17 _ZTVNSt3__115basic_string
98:   FUNC WEAK DEFAULT 13 _ZN7android13TypeConverte
99:   OBJECT GLOBAL DEFAULT 17 _ZN7android14AudioParamet
100:   FUNC WEAK DEFAULT 13 _ZNK7android12SortedVecto
101:   OBJECT GLOBAL DEFAULT 17 _ZN7android13TypeConverte
102:   FUNC WEAK DEFAULT 13 _ZNK7android6VectorI14aud
103:   OBJECT WEAK DEFAULT 17 _ZTCNSt3__118basic_string
104:   FUNC WEAK DEFAULT 13 _ZNK7android12SortedVecto
105:   FUNC WEAK DEFAULT 13 _ZN7android13TypeConverte
106:   FUNC WEAK DEFAULT 13 _ZN7android13TypeConverte
107:   FUNC WEAK DEFAULT 13 _ZN7android13TypeConverte
108:   FUNC WEAK DEFAULT 13 _ZN7android13TypeConverte
109:   OBJECT WEAK DEFAULT 17 _ZTTNSt3__118basic_string
110:   FUNC GLOBAL DEFAULT 13 _ZNK7android14AudioParame
111:   FUNC WEAK DEFAULT 13 _ZN7android13TypeConverte
112:   FUNC WEAK DEFAULT 13 _ZN7android13TypeConverte
113:   FUNC WEAK DEFAULT 13 _ZN7android13TypeConverte
114:   OBJECT GLOBAL DEFAULT 17 _ZN7android13TypeConverte
115:   FUNC WEAK DEFAULT 13 _ZN7android13TypeConverte
116:   FUNC GLOBAL DEFAULT 13 __aeabi_memset4
117:   OBJECT GLOBAL DEFAULT 17 _ZN7android14AudioParamet
118:   OBJECT GLOBAL DEFAULT 17 _ZN7android14AudioParamet
119:   FUNC GLOBAL DEFAULT 13 _ZN7android14AudioParamet
120:   FUNC WEAK DEFAULT 13 _ZN7android13TypeConverte
121:   FUNC WEAK DEFAULT 13 _ZN7android13TypeConverte
122:   OBJECT GLOBAL DEFAULT 17 _ZN7android13TypeConverte
123:   FUNC WEAK DEFAULT 13 _ZNK7android6VectorI14aud
124:   OBJECT GLOBAL DEFAULT 17 _ZN7android13TypeConverte
125:   OBJECT GLOBAL DEFAULT 17 _ZN7android14AudioParamet
126:   FUNC WEAK DEFAULT 13 _ZN7android13TypeConverte
127:   FUNC WEAK DEFAULT 13 _ZN7android13TypeConverte
128:   OBJECT GLOBAL DEFAULT 17 _ZN7android13TypeConverte
129:   FUNC WEAK DEFAULT 13 _ZNSt3__16vectorI20audio_
130:   FUNC GLOBAL DEFAULT 13 __aeabi_memset8
131:   FUNC GLOBAL DEFAULT 13 _ZN7android14AudioParamet
132:   FUNC WEAK DEFAULT 13 _ZN7android13TypeConverte
133:   FUNC WEAK DEFAULT 13 _ZNK7android12SortedVecto
134:   FUNC GLOBAL DEFAULT 13 _ZN7android14AudioParamet
135:   FUNC WEAK DEFAULT 13 _ZN7android13TypeConverte
136:   FUNC WEAK DEFAULT 13 _ZN7android13TypeConverte
137:   FUNC WEAK DEFAULT 13 _ZNSt3__115basic_stringbu
138:   OBJECT GLOBAL DEFAULT 17 _ZN7android14AudioParamet
139:   FUNC GLOBAL DEFAULT 13 _ZNK7android14AudioParame
140:   FUNC GLOBAL DEFAULT 13 _ZNK7android14AudioParame
141:   FUNC WEAK DEFAULT 13 _ZN7android13TypeConverte
142:   FUNC WEAK DEFAULT 13 _ZN7android13TypeConverte
143:   FUNC WEAK DEFAULT 13 _ZNK7android12SortedVecto
144:   FUNC WEAK DEFAULT 13 _ZN7android13TypeConverte
145:   FUNC GLOBAL DEFAULT 13 __aeabi_memcpy4
146:   FUNC WEAK DEFAULT 13 _ZN7android13TypeConverte
147:   FUNC WEAK DEFAULT 13 _ZN7android13TypeConverte
148:   FUNC WEAK DEFAULT 13 _ZN7android13TypeConverte
149:   FUNC WEAK DEFAULT 13 _ZNK7android6VectorI14aud
150:   FUNC WEAK DEFAULT 13 _ZNK7android12SortedVecto
151:   FUNC GLOBAL DEFAULT 13 _ZNK7android14AudioParame
152:   FUNC WEAK DEFAULT 13 _ZN7android13TypeConverte
153:   FUNC WEAK DEFAULT 13 _ZN7android13TypeConverte
154:   OBJECT GLOBAL DEFAULT 17 _ZN7android13TypeConverte
155:   FUNC WEAK DEFAULT 13 _ZN7android13TypeConverte
156:   FUNC WEAK DEFAULT 13 _ZNK7android6VectorI14aud
157:   FUNC WEAK DEFAULT 13 _ZNSt3__16vectorI14audio_
158:   OBJECT WEAK DEFAULT 17 _ZTCNSt3__118basic_string
159:   OBJECT WEAK DEFAULT 17 _ZTVN7android12SortedVect
160:   FUNC WEAK DEFAULT 13 _ZN7android13TypeConverte
161:   FUNC WEAK DEFAULT 13 _ZN7android13TypeConverte
162:   FUNC WEAK DEFAULT 13 _ZNK7android12SortedVecto
163:   FUNC WEAK DEFAULT 13 _ZNSt3__16vectorI19audio_
164:   FUNC GLOBAL DEFAULT 13 __aeabi_memcpy8
165:   OBJECT GLOBAL DEFAULT 17 _ZN7android14AudioParamet
166:   OBJECT GLOBAL DEFAULT 17 _ZN7android14AudioParamet
167:   FUNC WEAK DEFAULT 13 _ZN7android13TypeConverte
168:   FUNC WEAK DEFAULT 13 _ZN7android13TypeConverte
169:   FUNC WEAK DEFAULT 13 _ZNSt3__115basic_stringbu
170:   OBJECT GLOBAL DEFAULT 17 _ZN7android14AudioParamet
171:   FUNC GLOBAL DEFAULT 13 _ZN7android16formatFromSt
172:   FUNC WEAK DEFAULT 13 _ZN7android13TypeConverte
173:   FUNC WEAK DEFAULT 13 _ZN7android13TypeConverte
174:   FUNC WEAK DEFAULT 13 _ZN7android13TypeConverte
175:   FUNC WEAK DEFAULT 13 _ZN7android13TypeConverte
176:   FUNC WEAK DEFAULT 13 _ZNSt3__16vectorI12audio_
177:   OBJECT WEAK DEFAULT 17 _ZTCNSt3__118basic_string
178:   OBJECT WEAK DEFAULT 17 _ZTVN7android6VectorI14au
179:   FUNC WEAK DEFAULT 13 _ZN7android13TypeConverte
180:   FUNC WEAK DEFAULT 13 _ZNSt3__16vectorI13audio_
181:   FUNC WEAK DEFAULT 13 _ZN7android13TypeConverte
182:   FUNC WEAK DEFAULT 13 _ZNSt3__115basic_stringbu
183:   OBJECT GLOBAL DEFAULT 17 _ZN7android14AudioParamet
184:   OBJECT GLOBAL DEFAULT 17 _ZN7android14AudioParamet
185:   FUNC WEAK DEFAULT 13 _ZN7android13TypeConverte
186:   FUNC WEAK DEFAULT 13 _ZN7android13TypeConverte
187:   FUNC GLOBAL DEFAULT 13 _ZN7android21channelMaskF
188:   FUNC WEAK DEFAULT 13 _ZNK7android12SortedVecto
189:   OBJECT GLOBAL DEFAULT 17 _ZN7android14AudioParamet
190:   FUNC WEAK DEFAULT 13 _ZN7android13TypeConverte
191:   FUNC WEAK DEFAULT 13 _ZN7android13TypeConverte
192:   FUNC GLOBAL DEFAULT 13 _ZN7android16deviceFromSt
193:   OBJECT GLOBAL DEFAULT 17 _ZN7android14AudioParamet
194:   OBJECT GLOBAL DEFAULT 17 _ZN7android14AudioParamet
195:   FUNC GLOBAL DEFAULT 13 _ZN7android14AudioParamet
196:   FUNC GLOBAL DEFAULT 13 _ZNK7android14AudioParame
197:   OBJECT GLOBAL DEFAULT 17 _ZN7android13TypeConverte
198:   OBJECT GLOBAL DEFAULT 17 _ZN7android13TypeConverte
199:   FUNC WEAK DEFAULT 13 _ZN7android13TypeConverte
200:   FUNC WEAK DEFAULT 13 _ZN7android13TypeConverte
201:   FUNC GLOBAL DEFAULT 13 __aeabi_memclr4
202:   FUNC WEAK DEFAULT 13 _ZN7android13TypeConverte
203:   FUNC WEAK DEFAULT 13 _ZNK7android12SortedVecto
204:   OBJECT GLOBAL DEFAULT 17 _ZN7android14AudioParamet
205:   FUNC WEAK DEFAULT 13 _ZN7android13TypeConverte
206:   FUNC WEAK DEFAULT 13 _ZN7android13TypeConverte
207:   FUNC WEAK DEFAULT 13 _ZN7android13TypeConverte
208:   FUNC GLOBAL DEFAULT 13 __aeabi_memmove4
209:   OBJECT GLOBAL DEFAULT 17 _ZN7android13TypeConverte
210:   FUNC WEAK DEFAULT 13 _ZN7android13TypeConverte
211:   OBJECT GLOBAL DEFAULT 17 _ZN7android14AudioParamet
212:   FUNC GLOBAL DEFAULT 13 _ZN7android14AudioParamet
213:   FUNC WEAK DEFAULT 13 _ZN7android13TypeConverte
214:   OBJECT GLOBAL DEFAULT 17 _ZN7android13TypeConverte
215:   FUNC WEAK DEFAULT 13 _ZN7android13TypeConverte
216:   OBJECT GLOBAL DEFAULT 17 _ZN7android13TypeConverte
217:   FUNC WEAK DEFAULT 13 _ZN7android13TypeConverte
218:   FUNC WEAK DEFAULT 13 _ZNK7android6VectorI14aud
219:   FUNC GLOBAL DEFAULT 13 __aeabi_memclr8
220:   FUNC WEAK DEFAULT 13 _ZN7android13TypeConverte
221:   FUNC WEAK DEFAULT 13 _ZN7android13TypeConverte
222:   FUNC WEAK DEFAULT 13 _ZN7android13TypeConverte
223:   FUNC GLOBAL DEFAULT 13 _ZN7android27inputChannel
224:   FUNC WEAK DEFAULT 13 _ZNSt3__16vectorI19audio_
225:   FUNC GLOBAL DEFAULT 13 __aeabi_memmove8
226:   OBJECT GLOBAL DEFAULT 17 _ZN7android14AudioParamet
227:   FUNC WEAK DEFAULT 13 _ZN7android13TypeConverte
228:   FUNC GLOBAL DEFAULT 13 __aeabi_memset
229:   FUNC WEAK DEFAULT 13 _ZN7android13TypeConverte
230:   FUNC WEAK DEFAULT 13 _ZN7android13TypeConverte
231:   OBJECT WEAK DEFAULT 17 _ZTVNSt3__118basic_string
232:   FUNC GLOBAL DEFAULT 13 _ZN7android14AudioParamet
233:   FUNC WEAK DEFAULT 13 _ZNSt3__115basic_stringbu
234:   OBJECT GLOBAL DEFAULT 17 _ZN7android14AudioParamet
235:   FUNC WEAK DEFAULT 13 _ZNK7android12SortedVecto
236:   FUNC WEAK DEFAULT 13 _ZN7android13TypeConverte
237:   FUNC WEAK DEFAULT 13 _ZN7android13TypeConverte
238:   FUNC WEAK DEFAULT 13 _ZN7android13TypeConverte
239:   FUNC GLOBAL DEFAULT 13 _ZN7android28outputChanne
240:   FUNC WEAK DEFAULT 13 _ZNK7android12SortedVecto
241:   FUNC WEAK DEFAULT 13 _ZN7android13TypeConverte
242:   FUNC GLOBAL DEFAULT 13 _ZN7android17formatsFromS
243:   FUNC WEAK DEFAULT 13 _ZNSt3__115basic_stringbu
244:   FUNC GLOBAL DEFAULT 13 _ZN7android14AudioParamet
245:   OBJECT WEAK DEFAULT 17 _ZTVN7android12SortedVect
246:   OBJECT GLOBAL DEFAULT 17 _ZN7android13TypeConverte
247:   FUNC GLOBAL DEFAULT 13 _ZN7android14AudioParamet
248:   OBJECT GLOBAL DEFAULT 17 _ZN7android14AudioParamet
249:   OBJECT GLOBAL DEFAULT 17 _ZN7android14AudioParamet
250:   FUNC GLOBAL DEFAULT 13 _ZN7android14AudioParamet
251:   FUNC WEAK DEFAULT 13 _ZN7android13TypeConverte
252:   FUNC WEAK DEFAULT 13 _ZN7android13TypeConverte
253:   FUNC WEAK DEFAULT 13 _ZN7android13TypeConverte
254:   OBJECT GLOBAL DEFAULT 17 _ZN7android14AudioParamet
255:   FUNC WEAK DEFAULT 13 _ZNK7android12SortedVecto
256:   FUNC GLOBAL DEFAULT 13 __aeabi_memmove
257:   FUNC WEAK DEFAULT 13 _ZN7android13TypeConverte
258:   OBJECT GLOBAL DEFAULT 17 _ZN7android13TypeConverte
259:   FUNC WEAK DEFAULT 13 _ZN7android13TypeConverte
260:   FUNC GLOBAL DEFAULT 13 __aeabi_memclr
261:   OBJECT GLOBAL DEFAULT 17 _ZN7android14AudioParamet
262:   OBJECT GLOBAL DEFAULT 17 _ZTVN7android14AudioParam
263:   FUNC WEAK DEFAULT 13 _ZN7android13TypeConverte
264:   FUNC WEAK DEFAULT 13 _ZN7android13TypeConverte
265:   FUNC GLOBAL DEFAULT 13 __aeabi_memcpy
