 0x0000000e (SONAME)                     Library soname: [libmemtrack.so]
  
Symbol   contains 40 entries:
Num:   Type Bind Vis Ndx Name
0:   NOTYPE LOCAL DEFAULT UND
1:   FUNC GLOBAL DEFAULT UND __cxa_atexit@LIBC (2)
2:   FUNC GLOBAL DEFAULT UND __cxa_finalize@LIBC (2)
3:   FUNC GLOBAL DEFAULT UND _ZN7android8hardware7deta
4:   FUNC GLOBAL DEFAULT UND _ZN7android8hardware8memt
5:   FUNC GLOBAL DEFAULT UND _ZNK7android7RefBase9decS
6:   FUNC GLOBAL DEFAULT UND _ZNK7android7RefBase9incS
7:   FUNC GLOBAL DEFAULT UND _ZNKSt3__120__vector_base
8:   FUNC GLOBAL DEFAULT UND _ZdaPv
9:   FUNC GLOBAL DEFAULT UND _ZdlPv
10:   FUNC GLOBAL DEFAULT UND _Znaj
11:   FUNC GLOBAL DEFAULT UND _Znwj
12:   FUNC GLOBAL DEFAULT UND __android_log_print@LIBLOG (3)
13:   FUNC GLOBAL DEFAULT UND __cxa_guard_acquire
14:   FUNC GLOBAL DEFAULT UND __cxa_guard_release
15:   FUNC GLOBAL DEFAULT UND __stack_chk_fail@LIBC (2)
16:   OBJECT GLOBAL DEFAULT UND __stack_chk_guard@LIBC (2)
17:   FUNC GLOBAL DEFAULT UND abort@LIBC (2)
18:   FUNC GLOBAL DEFAULT UND memcpy@LIBC (2)
19:   FUNC GLOBAL DEFAULT UND memset@LIBC (2)
20:   FUNC GLOBAL DEFAULT 13 memtrack_proc_get
21:   FUNC GLOBAL DEFAULT 13 memtrack_proc_other_pss
22:   FUNC GLOBAL DEFAULT 13 memtrack_proc_other_total
23:   FUNC GLOBAL DEFAULT 13 __aeabi_memcpy4
24:   FUNC WEAK DEFAULT 13 _ZNSt3__16vectorIN7androi
25:   FUNC GLOBAL DEFAULT 13 memtrack_proc_new
26:   FUNC GLOBAL DEFAULT 13 __aeabi_memclr8
27:   FUNC GLOBAL DEFAULT 13 __aeabi_memcpy
28:   FUNC GLOBAL DEFAULT 13 memtrack_proc_gl_total
29:   FUNC GLOBAL DEFAULT 13 __aeabi_memset8
30:   FUNC WEAK DEFAULT 13 _ZN7android2spINS_8hardwa
31:   FUNC GLOBAL DEFAULT 13 memtrack_proc_destroy
32:   FUNC GLOBAL DEFAULT 13 memtrack_proc_gl_pss
33:   FUNC GLOBAL DEFAULT 13 memtrack_proc_graphics_ps
34:   FUNC GLOBAL DEFAULT 13 memtrack_proc_graphics_to
35:   FUNC GLOBAL DEFAULT 13 __aeabi_memclr
36:   FUNC GLOBAL DEFAULT 13 __aeabi_memclr4
37:   FUNC GLOBAL DEFAULT 13 __aeabi_memset
38:   FUNC GLOBAL DEFAULT 13 __aeabi_memset4
39:   FUNC GLOBAL DEFAULT 13 __aeabi_memcpy8
