 0x000000000000000e (SONAME)             Library soname: [android.hardware.dumpstate@1.0.so]
  
Symbol   contains 227 entries:
Num:   Type Bind Vis Ndx Name
0:   NOTYPE LOCAL DEFAULT UND
1:   FUNC GLOBAL DEFAULT UND __cxa_finalize@LIBC (2)
2:   FUNC GLOBAL DEFAULT UND _ZN7android14sp_report_ra
3:   FUNC GLOBAL DEFAULT UND _ZN7android21report_syspr
4:   OBJECT GLOBAL DEFAULT UND _ZN7android4hidl4base4V1_
5:   FUNC GLOBAL DEFAULT UND _ZN7android4hidl4base4V1_
6:   FUNC GLOBAL DEFAULT UND _ZN7android4hidl4base4V1_
7:   FUNC GLOBAL DEFAULT UND _ZN7android4hidl4base4V1_
8:   FUNC GLOBAL DEFAULT UND _ZN7android4hidl4base4V1_
9:   FUNC GLOBAL DEFAULT UND _ZN7android4hidl4base4V1_
10:   FUNC GLOBAL DEFAULT UND _ZN7android4hidl4base4V1_
11:   FUNC GLOBAL DEFAULT UND _ZN7android4hidl4base4V1_
12:   FUNC GLOBAL DEFAULT UND _ZN7android4hidl4base4V1_
13:   FUNC GLOBAL DEFAULT UND _ZN7android4hidl4base4V1_
14:   FUNC GLOBAL DEFAULT UND _ZN7android4hidl4base4V1_
15:   FUNC GLOBAL DEFAULT UND _ZN7android4hidl4base4V1_
16:   FUNC GLOBAL DEFAULT UND _ZN7android4hidl4base4V1_
17:   FUNC GLOBAL DEFAULT UND _ZN7android4hidl4base4V1_
18:   FUNC GLOBAL DEFAULT UND _ZN7android4hidl4base4V1_
19:   FUNC GLOBAL DEFAULT UND _ZN7android4hidl4base4V1_
20:   FUNC GLOBAL DEFAULT UND _ZN7android4hidl4base4V1_
21:   FUNC GLOBAL DEFAULT UND _ZN7android4hidl4base4V1_
22:   FUNC GLOBAL DEFAULT UND _ZN7android4hidl4base4V1_
23:   FUNC GLOBAL DEFAULT UND _ZN7android4hidl4base4V1_
24:   FUNC GLOBAL DEFAULT UND _ZN7android4hidl4base4V1_
25:   FUNC GLOBAL DEFAULT UND _ZN7android4hidl4base4V1_
26:   FUNC GLOBAL DEFAULT UND _ZN7android4hidl4base4V1_
27:   FUNC GLOBAL DEFAULT UND _ZN7android4hidl4base4V1_
28:   FUNC GLOBAL DEFAULT UND _ZN7android7RefBase10onFi
29:   FUNC GLOBAL DEFAULT UND _ZN7android7RefBase12weak
30:   FUNC GLOBAL DEFAULT UND _ZN7android7RefBase13onLa
31:   FUNC GLOBAL DEFAULT UND _ZN7android7RefBase15onLa
32:   FUNC GLOBAL DEFAULT UND _ZN7android7RefBase20onIn
33:   FUNC GLOBAL DEFAULT UND _ZN7android7RefBaseC2Ev
34:   FUNC GLOBAL DEFAULT UND _ZN7android7RefBaseD2Ev
35:   FUNC GLOBAL DEFAULT UND _ZN7android8hardware10IIn
36:   FUNC GLOBAL DEFAULT UND _ZN7android8hardware10IIn
37:   FUNC GLOBAL DEFAULT UND _ZN7android8hardware10IIn
38:   FUNC GLOBAL DEFAULT UND _ZN7android8hardware10IIn
39:   FUNC GLOBAL DEFAULT UND _ZN7android8hardware10IIn
40:   FUNC GLOBAL DEFAULT UND _ZN7android8hardware11BpH
41:   FUNC GLOBAL DEFAULT UND _ZN7android8hardware11BpH
42:   FUNC GLOBAL DEFAULT UND _ZN7android8hardware11BpH
43:   FUNC GLOBAL DEFAULT UND _ZN7android8hardware11BpH
44:   FUNC GLOBAL DEFAULT UND _ZN7android8hardware11BpH
45:   FUNC GLOBAL DEFAULT UND _ZN7android8hardware11BpH
46:   FUNC GLOBAL DEFAULT UND _ZN7android8hardware11BpH
47:   FUNC GLOBAL DEFAULT UND _ZN7android8hardware11hid
48:   FUNC GLOBAL DEFAULT UND _ZN7android8hardware11hid
49:   FUNC GLOBAL DEFAULT UND _ZN7android8hardware11hid
50:   FUNC GLOBAL DEFAULT UND _ZN7android8hardware11hid
51:   FUNC GLOBAL DEFAULT UND _ZN7android8hardware11hid
52:   FUNC GLOBAL DEFAULT UND _ZN7android8hardware11hid
53:   FUNC GLOBAL DEFAULT UND _ZN7android8hardware11hid
54:   FUNC GLOBAL DEFAULT UND _ZN7android8hardware11hid
55:   FUNC GLOBAL DEFAULT UND _ZN7android8hardware12Pro
56:   FUNC GLOBAL DEFAULT UND _ZN7android8hardware12Pro
57:   FUNC GLOBAL DEFAULT UND _ZN7android8hardware13wri
58:   FUNC GLOBAL DEFAULT UND _ZN7android8hardware14rea
59:   FUNC GLOBAL DEFAULT UND _ZN7android8hardware21def
60:   FUNC GLOBAL DEFAULT UND _ZN7android8hardware23get
61:   FUNC GLOBAL DEFAULT UND _ZN7android8hardware27hid
62:   FUNC GLOBAL DEFAULT UND _ZN7android8hardware27hid
63:   FUNC GLOBAL DEFAULT UND _ZN7android8hardware6Parc
64:   FUNC GLOBAL DEFAULT UND _ZN7android8hardware6Parc
65:   FUNC GLOBAL DEFAULT UND _ZN7android8hardware6Parc
66:   FUNC GLOBAL DEFAULT UND _ZN7android8hardware6Parc
67:   FUNC GLOBAL DEFAULT UND _ZN7android8hardware6Stat
68:   FUNC GLOBAL DEFAULT UND _ZN7android8hardware6Stat
69:   FUNC GLOBAL DEFAULT UND _ZN7android8hardware6Stat
70:   FUNC GLOBAL DEFAULT UND _ZN7android8hardware6Stat
71:   FUNC GLOBAL DEFAULT UND _ZN7android8hardware7IBin
72:   FUNC GLOBAL DEFAULT UND _ZN7android8hardware7IBin
73:   FUNC GLOBAL DEFAULT UND _ZN7android8hardware7IBin
74:   FUNC GLOBAL DEFAULT UND _ZN7android8hardware7IBin
75:   FUNC GLOBAL DEFAULT UND _ZN7android8hardware7deta
76:   FUNC GLOBAL DEFAULT UND _ZN7android8hardware7deta
77:   FUNC GLOBAL DEFAULT UND _ZN7android8hardware7deta
78:   FUNC GLOBAL DEFAULT UND _ZN7android8hardware7deta
79:   FUNC GLOBAL DEFAULT UND _ZN7android8hardware7deta
80:   FUNC GLOBAL DEFAULT UND _ZN7android8hardware7deta
81:   FUNC GLOBAL DEFAULT UND _ZN7android8hardware7deta
82:   OBJECT GLOBAL DEFAULT UND _ZN7android8hardware7deta
83:   FUNC GLOBAL DEFAULT UND _ZN7android8hardware7deta
84:   OBJECT GLOBAL DEFAULT UND _ZN7android8hardware7deta
85:   FUNC GLOBAL DEFAULT UND _ZN7android8hardware7deta
86:   FUNC GLOBAL DEFAULT UND _ZN7android8hardware7deta
87:   FUNC GLOBAL DEFAULT UND _ZN7android8hardware7deta
88:   FUNC GLOBAL DEFAULT UND _ZN7android8hardware7deta
89:   FUNC GLOBAL DEFAULT UND _ZN7android8hardware7deta
90:   FUNC GLOBAL DEFAULT UND _ZN7android8hardware7deta
91:   FUNC GLOBAL DEFAULT UND _ZN7android8hardware7deta
92:   FUNC GLOBAL DEFAULT UND _ZN7android8hardware7deta
93:   FUNC GLOBAL DEFAULT UND _ZN7android8hardware7deta
94:   OBJECT GLOBAL DEFAULT UND _ZN7android8hardware7deta
95:   FUNC GLOBAL DEFAULT UND _ZN7android8hardware9BHwB
96:   FUNC GLOBAL DEFAULT UND _ZN7android8hardware9BHwB
97:   FUNC GLOBAL DEFAULT UND _ZN7android8hardware9BHwB
98:   FUNC GLOBAL DEFAULT UND _ZN7android8hardware9BHwB
99:   FUNC GLOBAL DEFAULT UND _ZN7android8hardware9BHwB
100:   FUNC GLOBAL DEFAULT UND _ZN7android8hardware9BHwB
101:   FUNC GLOBAL DEFAULT UND _ZN7android8hardware9BHwB
102:   FUNC GLOBAL DEFAULT UND _ZN7android8hardware9BHwB
103:   FUNC GLOBAL DEFAULT UND _ZN7android8hardware9BHwB
104:   FUNC GLOBAL DEFAULT UND _ZN7android8hardware9BHwB
105:   FUNC GLOBAL DEFAULT UND _ZNK7android7RefBase10cre
106:   FUNC GLOBAL DEFAULT UND _ZNK7android7RefBase11get
107:   FUNC GLOBAL DEFAULT UND _ZNK7android7RefBase9decS
108:   FUNC GLOBAL DEFAULT UND _ZNK7android7RefBase9incS
109:   FUNC GLOBAL DEFAULT UND _ZNK7android8hardware11hi
110:   FUNC GLOBAL DEFAULT UND _ZNK7android8hardware6Par
111:   FUNC GLOBAL DEFAULT UND _ZNK7android8hardware6Par
112:   FUNC GLOBAL DEFAULT UND _ZNK7android8hardware7IBi
113:   FUNC GLOBAL DEFAULT UND _ZNK7android8hardware7det
114:   FUNC GLOBAL DEFAULT UND _ZNK7android8hardware9BHw
115:   FUNC GLOBAL DEFAULT UND _ZNKSt3__120__vector_base
116:   FUNC GLOBAL DEFAULT UND _ZNKSt3__121__basic_strin
117:   FUNC GLOBAL DEFAULT UND _ZNSt3__112basic_stringIc
118:   FUNC GLOBAL DEFAULT UND _ZNSt3__15mutex4lockEv
119:   FUNC GLOBAL DEFAULT UND _ZNSt3__15mutex6unlockEv
120:   FUNC GLOBAL DEFAULT UND _ZNSt3__15mutexD1Ev
121:   FUNC GLOBAL DEFAULT UND _ZTv0_n24_N7android4hidl4
122:   FUNC GLOBAL DEFAULT UND _ZTv0_n24_N7android4hidl4
123:   FUNC GLOBAL DEFAULT UND _ZTv0_n24_N7android8hardw
124:   FUNC GLOBAL DEFAULT UND _ZTv0_n24_N7android8hardw
125:   FUNC GLOBAL DEFAULT UND _ZTv0_n24_N7android8hardw
126:   FUNC GLOBAL DEFAULT UND _ZTv0_n24_N7android8hardw
127:   FUNC GLOBAL DEFAULT UND _ZTv0_n24_N7android8hardw
128:   FUNC GLOBAL DEFAULT UND _ZTv0_n24_N7android8hardw
129:   FUNC GLOBAL DEFAULT UND _ZTv0_n24_N7android8hardw
130:   FUNC GLOBAL DEFAULT UND _ZTv0_n24_N7android8hardw
131:   FUNC GLOBAL DEFAULT UND _ZTv0_n32_N7android8hardw
132:   FUNC GLOBAL DEFAULT UND _ZTv0_n40_N7android8hardw
133:   FUNC GLOBAL DEFAULT UND _ZTv0_n48_N7android8hardw
134:   FUNC GLOBAL DEFAULT UND _ZdaPv
135:   FUNC GLOBAL DEFAULT UND _ZdlPv
136:   FUNC GLOBAL DEFAULT UND _Znam
137:   FUNC GLOBAL DEFAULT UND _Znwm
138:   FUNC GLOBAL DEFAULT UND __cxa_pure_virtual
139:   FUNC GLOBAL DEFAULT UND __stack_chk_fail@LIBC (2)
140:   FUNC GLOBAL DEFAULT UND abort@LIBC (2)
141:   FUNC GLOBAL DEFAULT UND atrace_begin_body
142:   OBJECT GLOBAL DEFAULT UND atrace_enabled_tags
143:   FUNC GLOBAL DEFAULT UND atrace_end_body
144:   OBJECT GLOBAL DEFAULT UND atrace_is_ready
145:   FUNC GLOBAL DEFAULT UND atrace_setup
146:   FUNC GLOBAL DEFAULT UND memcmp@LIBC (2)
147:   FUNC GLOBAL DEFAULT UND memcpy@LIBC (2)
148:   FUNC GLOBAL DEFAULT UND memset@LIBC (2)
149:   FUNC GLOBAL DEFAULT UND strlen@LIBC (2)
150:   OBJECT GLOBAL DEFAULT 18 _ZTCN7android8hardware9du
151:   FUNC GLOBAL DEFAULT 14 _ZN7android8hardware9dump
152:   OBJECT WEAK DEFAULT 18 _ZTCN7android8hardware9du
153:   FUNC GLOBAL DEFAULT 14 _ZN7android8hardware9dump
154:   FUNC GLOBAL DEFAULT 14 _ZN7android8hardware9dump
155:   FUNC GLOBAL DEFAULT 14 _ZN7android8hardware9dump
156:   FUNC GLOBAL DEFAULT 14 _ZN7android8hardware9dump
157:   FUNC WEAK DEFAULT 14 _ZNSt3__127__tree_balance
158:   FUNC GLOBAL DEFAULT 14 _ZN7android8hardware9dump
159:   FUNC GLOBAL DEFAULT 14 _ZN7android8hardware9dump
160:   FUNC GLOBAL DEFAULT 14 _ZN7android8hardware9dump
161:   FUNC WEAK DEFAULT 14 _ZNSt3__16vectorINS_8func
162:   FUNC GLOBAL DEFAULT 14 _ZN7android8hardware9dump
163:   FUNC GLOBAL DEFAULT 14 _ZN7android8hardware9dump
164:   OBJECT GLOBAL DEFAULT 18 _ZTTN7android8hardware9du
165:   OBJECT GLOBAL DEFAULT 18 _ZTVN7android8hardware9du
166:   FUNC GLOBAL DEFAULT 14 _ZN7android8hardware9dump
167:   FUNC GLOBAL DEFAULT 14 _ZN7android8hardware9dump
168:   FUNC GLOBAL DEFAULT 14 _ZN7android8hardware9dump
169:   FUNC GLOBAL DEFAULT 14 _ZN7android8hardware9dump
170:   FUNC GLOBAL DEFAULT 14 _ZN7android8hardware9dump
171:   OBJECT GLOBAL DEFAULT 18 _ZTCN7android8hardware9du
172:   FUNC GLOBAL DEFAULT 14 _ZN7android8hardware9dump
173:   FUNC GLOBAL DEFAULT 14 _ZN7android8hardware9dump
174:   FUNC GLOBAL DEFAULT 14 _ZN7android8hardware9dump
175:   FUNC GLOBAL DEFAULT 14 _ZN7android8hardware9dump
176:   OBJECT GLOBAL DEFAULT 18 _ZTCN7android8hardware9du
177:   FUNC GLOBAL DEFAULT 14 _ZN7android8hardware9dump
178:   FUNC GLOBAL DEFAULT 14 _ZN7android8hardware9dump
179:   OBJECT WEAK DEFAULT 18 _ZTVN7android8hardware9du
180:   FUNC GLOBAL DEFAULT 14 _ZN7android8hardware9dump
181:   FUNC GLOBAL DEFAULT 14 _ZN7android8hardware9dump
182:   FUNC GLOBAL DEFAULT 14 _ZN7android8hardware9dump
183:   FUNC GLOBAL DEFAULT 14 _ZN7android8hardware9dump
184:   FUNC WEAK DEFAULT 14 _ZNSt3__16__treeINS_12__v
185:   OBJECT GLOBAL DEFAULT 18 _ZTCN7android8hardware9du
186:   FUNC GLOBAL DEFAULT 14 _ZThn32_N7android8hardwar
187:   FUNC GLOBAL DEFAULT 14 _ZN7android8hardware9dump
188:   FUNC WEAK DEFAULT 14 _ZNSt3__16__treeINS_12__v
189:   FUNC WEAK DEFAULT 14 _ZNSt3__16__treeINS_12__v
190:   FUNC WEAK DEFAULT 14 _ZNSt3__16vectorIN7androi
191:   OBJECT GLOBAL DEFAULT 18 _ZTTN7android8hardware9du
192:   OBJECT GLOBAL DEFAULT 16 _ZN7android8hardware9dump
193:   FUNC GLOBAL DEFAULT 14 _ZN7android8hardware9dump
194:   FUNC GLOBAL DEFAULT 14 _ZN7android8hardware9dump
195:   FUNC WEAK DEFAULT 14 _ZNSt3__16__treeINS_12__v
196:   OBJECT GLOBAL DEFAULT 18 _ZTTN7android8hardware9du
197:   FUNC GLOBAL DEFAULT 14 _ZTv0_n24_N7android8hardw
198:   FUNC GLOBAL DEFAULT 14 _ZN7android8hardware9dump
199:   FUNC GLOBAL DEFAULT 14 _ZN7android8hardware9dump
200:   OBJECT GLOBAL DEFAULT 18 _ZTVN7android8hardware9du
201:   FUNC GLOBAL DEFAULT 14 _ZN7android8hardware9dump
202:   OBJECT GLOBAL DEFAULT 18 _ZTCN7android8hardware9du
203:   OBJECT GLOBAL DEFAULT 18 _ZTCN7android8hardware9du
204:   FUNC GLOBAL DEFAULT 14 _ZN7android8hardware9dump
205:   FUNC GLOBAL DEFAULT 14 _ZN7android8hardware9dump
206:   FUNC GLOBAL DEFAULT 14 _ZN7android8hardware9dump
207:   FUNC GLOBAL DEFAULT 14 _ZN7android8hardware9dump
208:   OBJECT GLOBAL DEFAULT 18 _ZTCN7android8hardware9du
209:   OBJECT GLOBAL DEFAULT 18 _ZTCN7android8hardware9du
210:   FUNC GLOBAL DEFAULT 14 _ZThn32_N7android8hardwar
211:   FUNC WEAK DEFAULT 14 _ZN7android8hardware7deta
212:   FUNC WEAK DEFAULT 14 _ZN7android8hardware7deta
213:   FUNC GLOBAL DEFAULT 14 _ZN7android8hardware9dump
214:   FUNC GLOBAL DEFAULT 14 _ZN7android8hardware9dump
215:   FUNC GLOBAL DEFAULT 14 _ZN7android8hardware9dump
216:   FUNC GLOBAL DEFAULT 14 _ZN7android8hardware9dump
217:   FUNC GLOBAL DEFAULT 14 _ZN7android8hardware9dump
218:   FUNC WEAK DEFAULT 14 _ZNSt3__113__tree_removeI
219:   FUNC WEAK DEFAULT 14 _ZNSt3__16vectorIPvNS_9al
220:   OBJECT GLOBAL DEFAULT 18 _ZTCN7android8hardware9du
221:   FUNC GLOBAL DEFAULT 14 _ZN7android8hardware9dump
222:   FUNC GLOBAL DEFAULT 14 _ZN7android8hardware9dump
223:   FUNC WEAK DEFAULT 14 _ZNSt3__16__treeINS_12__v
224:   FUNC WEAK DEFAULT 14 _ZNSt3__16__treeINS_12__v
225:   OBJECT GLOBAL DEFAULT 18 _ZTVN7android8hardware9du
226:   FUNC GLOBAL DEFAULT 14 _ZTv0_n24_N7android8hardw
