 0x000000000000000e (SONAME)             Library soname: [libnetdbpf.so]
  
Symbol   contains 64 entries:
Num:   Type Bind Vis Ndx Name
0:   NOTYPE LOCAL DEFAULT UND
1:   FUNC GLOBAL DEFAULT UND __cxa_finalize@LIBC (2)
2:   FUNC GLOBAL DEFAULT UND __cxa_atexit@LIBC (2)
3:   FUNC GLOBAL DEFAULT UND _ZN7android3bpf11mapRetri
4:   FUNC GLOBAL DEFAULT UND _ZN7android3bpf12findMapE
5:   FUNC GLOBAL DEFAULT UND _ZN7android3bpf13getNextM
6:   FUNC GLOBAL DEFAULT UND _ZN7android3bpf14deleteMa
7:   FUNC GLOBAL DEFAULT UND _ZN7android3bpf14getFirst
8:   FUNC GLOBAL DEFAULT UND _ZN7android4base12StringP
9:   FUNC GLOBAL DEFAULT UND _ZN7android9netdutils15st
10:   FUNC GLOBAL DEFAULT UND _ZNKSt3__120__vector_base
11:   FUNC GLOBAL DEFAULT UND _ZNKSt3__120__vector_base
12:   FUNC GLOBAL DEFAULT UND _ZNKSt3__121__basic_strin
13:   FUNC GLOBAL DEFAULT UND _ZNSt3__112basic_stringIc
14:   FUNC GLOBAL DEFAULT UND _ZNSt3__112basic_stringIc
15:   FUNC GLOBAL DEFAULT UND _ZdlPv
16:   FUNC GLOBAL DEFAULT UND _Znwm
17:   FUNC GLOBAL DEFAULT UND __android_log_print@LIBLOG (3)
18:   FUNC GLOBAL DEFAULT UND __errno@LIBC (2)
19:   FUNC GLOBAL DEFAULT UND __stack_chk_fail@LIBC (2)
20:   FUNC GLOBAL DEFAULT UND __strlcpy_chk@LIBC (2)
21:   FUNC GLOBAL DEFAULT UND abort@LIBC (2)
22:   FUNC WEAK DEFAULT UND android_fdsan_close_with_@LIBC_Q (4)
23:   FUNC WEAK DEFAULT UND android_fdsan_create_owne@LIBC_Q (4)
24:   FUNC WEAK DEFAULT UND android_fdsan_exchange_ow@LIBC_Q (4)
25:   FUNC GLOBAL DEFAULT UND close@LIBC (2)
26:   FUNC GLOBAL DEFAULT UND memcmp@LIBC (2)
27:   FUNC GLOBAL DEFAULT UND memcpy@LIBC (2)
28:   FUNC GLOBAL DEFAULT UND memset@LIBC (2)
29:   FUNC GLOBAL DEFAULT UND strcmp@LIBC (2)
30:   FUNC GLOBAL DEFAULT UND strerror@LIBC (2)
31:   FUNC GLOBAL DEFAULT UND strlcpy@LIBC (2)
32:   FUNC GLOBAL DEFAULT UND strlen@LIBC (2)
33:   FUNC GLOBAL DEFAULT UND strncmp@LIBC (2)
34:   FUNC GLOBAL DEFAULT 14 _ZN7android3bpf10stats_li
35:   FUNC GLOBAL DEFAULT 14 _ZN7android3bpf26parseBpf
36:   FUNC WEAK DEFAULT 14 _ZNSt3__17__sort3IRNS_6__
37:   FUNC WEAK DEFAULT 14 _ZNSt3__17__sort4IRNS_6__
38:   FUNC WEAK DEFAULT 14 _ZN7android3bpf19getIface
39:   FUNC WEAK DEFAULT 14 _ZN7android3bpf19getIface
40:   FUNC WEAK DEFAULT 14 _ZN7android3bpf20maybeLog
41:   FUNC WEAK DEFAULT 14 _ZNSt3__118__insertion_so
42:   FUNC GLOBAL DEFAULT 14 _ZN7android3bpf13combineU
43:   FUNC GLOBAL DEFAULT 14 _ZN7android3bpf18populate
44:   FUNC GLOBAL DEFAULT 14 _ZN7android3bpfltERKNS0_1
45:   FUNC WEAK DEFAULT 14 _ZNSt3__16vectorIN7androi
46:   FUNC WEAK DEFAULT 14 _ZNSt3__16vectorIN7androi
47:   FUNC GLOBAL DEFAULT 14 _ZN7android3bpf14bpfGetUi
48:   FUNC WEAK DEFAULT 14 _ZNK7android3bpf6BpfMapIj
49:   FUNC GLOBAL DEFAULT 14 _ZN7android3bpf16bpfGetIf
50:   FUNC GLOBAL DEFAULT 14 _ZN7android3bpf17groupNet
51:   FUNC GLOBAL DEFAULT 14 _ZN7android3bpfeqERKNS0_1
52:   FUNC WEAK DEFAULT 14 _ZNK7android3bpf6BpfMapIN
53:   FUNC WEAK DEFAULT 14 _ZNSt3__127__insertion_so
54:   FUNC GLOBAL DEFAULT 14 _ZN7android3bpf10stats_li
55:   FUNC GLOBAL DEFAULT 14 _ZN7android3bpf22bpfGetUi
56:   FUNC GLOBAL DEFAULT 14 _ZN7android3bpf23parseBpf
57:   FUNC GLOBAL DEFAULT 14 _ZN7android3bpf24bpfGetIf
58:   FUNC GLOBAL DEFAULT 14 _ZN7android3bpf31parseBpf
59:   FUNC GLOBAL DEFAULT 14 _ZN7android3bpf34parseBpf
60:   FUNC WEAK DEFAULT 14 _ZNSt3__16__sortIRNS_6__l
61:   FUNC WEAK DEFAULT 14 _ZN7android3bpf20maybeLog
62:   FUNC WEAK DEFAULT 14 _ZN7android3bpf6BpfMapINS
63:   FUNC WEAK DEFAULT 14 _ZNK7android3bpf6BpfMapIj
