 0x000000000000000e (SONAME)             Library soname: [slicer.so]
  
Symbol   contains 480 entries:
Num:   Type Bind Vis Ndx Name
0:   NOTYPE LOCAL DEFAULT UND
1:   FUNC GLOBAL DEFAULT UND __cxa_finalize@LIBC (2)
2:   FUNC GLOBAL DEFAULT UND _ZNKSt3__120__vector_base
3:   OBJECT GLOBAL DEFAULT UND _ZTVN10__cxxabiv117__clas
4:   OBJECT GLOBAL DEFAULT UND _ZTVN10__cxxabiv120__si_c
5:   FUNC GLOBAL DEFAULT UND _ZdlPv
6:   FUNC GLOBAL DEFAULT UND _Znwm
7:   FUNC GLOBAL DEFAULT UND __dynamic_cast
8:   FUNC GLOBAL DEFAULT UND __stack_chk_fail@LIBC (2)
9:   FUNC GLOBAL DEFAULT UND abort@LIBC (2)
10:   FUNC GLOBAL DEFAULT UND free@LIBC (2)
11:   FUNC GLOBAL DEFAULT UND memcpy@LIBC (2)
12:   FUNC GLOBAL DEFAULT UND memset@LIBC (2)
13:   FUNC GLOBAL DEFAULT UND realloc@LIBC (2)
14:   FUNC GLOBAL DEFAULT UND _ZNSt3__119__shared_weak_
15:   FUNC GLOBAL DEFAULT UND memmove@LIBC (2)
16:   FUNC GLOBAL DEFAULT UND __cxa_thread_atexit
17:   FUNC GLOBAL DEFAULT UND printf@LIBC (2)
18:   FUNC GLOBAL DEFAULT UND vprintf@LIBC (2)
19:   FUNC GLOBAL DEFAULT UND _ZNKSt3__121__basic_strin
20:   FUNC GLOBAL DEFAULT UND _ZNKSt3__16locale9use_fac
21:   FUNC GLOBAL DEFAULT UND _ZNKSt3__18ios_base6getlo
22:   FUNC GLOBAL DEFAULT UND _ZNSt3__112basic_stringIc
23:   FUNC GLOBAL DEFAULT UND _ZNSt3__112basic_stringIc
24:   FUNC GLOBAL DEFAULT UND _ZNSt3__113basic_istreamI
25:   FUNC GLOBAL DEFAULT UND _ZNSt3__113basic_istreamI
26:   FUNC GLOBAL DEFAULT UND _ZNSt3__113basic_ostreamI
27:   FUNC GLOBAL DEFAULT UND _ZNSt3__113basic_ostreamI
28:   FUNC GLOBAL DEFAULT UND _ZNSt3__113basic_ostreamI
29:   FUNC GLOBAL DEFAULT UND _ZNSt3__113basic_ostreamI
30:   FUNC GLOBAL DEFAULT UND _ZNSt3__114basic_iostream
31:   FUNC GLOBAL DEFAULT UND _ZNSt3__114basic_iostream
32:   FUNC GLOBAL DEFAULT UND _ZNSt3__114basic_iostream
33:   FUNC GLOBAL DEFAULT UND _ZNSt3__115basic_streambu
34:   FUNC GLOBAL DEFAULT UND _ZNSt3__115basic_streambu
35:   FUNC GLOBAL DEFAULT UND _ZNSt3__115basic_streambu
36:   FUNC GLOBAL DEFAULT UND _ZNSt3__115basic_streambu
37:   FUNC GLOBAL DEFAULT UND _ZNSt3__115basic_streambu
38:   FUNC GLOBAL DEFAULT UND _ZNSt3__115basic_streambu
39:   FUNC GLOBAL DEFAULT UND _ZNSt3__115basic_streambu
40:   FUNC GLOBAL DEFAULT UND _ZNSt3__115basic_streambu
41:   FUNC GLOBAL DEFAULT UND _ZNSt3__115basic_streambu
42:   OBJECT GLOBAL DEFAULT UND _ZNSt3__15ctypeIcE2idE
43:   FUNC GLOBAL DEFAULT UND _ZNSt3__16localeD1Ev
44:   FUNC GLOBAL DEFAULT UND _ZNSt3__18ios_base4initEP
45:   FUNC GLOBAL DEFAULT UND _ZNSt3__18ios_base5clearE
46:   FUNC GLOBAL DEFAULT UND _ZNSt3__19basic_iosIcNS_1
47:   OBJECT GLOBAL DEFAULT UND _ZTINSt3__113basic_istrea
48:   OBJECT GLOBAL DEFAULT UND _ZTINSt3__113basic_ostrea
49:   OBJECT GLOBAL DEFAULT UND _ZTINSt3__114basic_iostre
50:   OBJECT GLOBAL DEFAULT UND _ZTINSt3__115basic_stream
51:   FUNC GLOBAL DEFAULT UND _ZThn16_NSt3__114basic_io
52:   FUNC GLOBAL DEFAULT UND _ZThn16_NSt3__114basic_io
53:   FUNC GLOBAL DEFAULT UND _ZTv0_n24_NSt3__113basic_
54:   FUNC GLOBAL DEFAULT UND _ZTv0_n24_NSt3__113basic_
55:   FUNC GLOBAL DEFAULT UND _ZTv0_n24_NSt3__113basic_
56:   FUNC GLOBAL DEFAULT UND _ZTv0_n24_NSt3__113basic_
57:   FUNC GLOBAL DEFAULT UND _ZTv0_n24_NSt3__114basic_
58:   FUNC GLOBAL DEFAULT UND _ZTv0_n24_NSt3__114basic_
59:   FUNC GLOBAL DEFAULT UND adler32
60:   FUNC GLOBAL DEFAULT UND strlen@LIBC (2)
61:   FUNC GLOBAL DEFAULT UND memcmp@LIBC (2)
62:   FUNC GLOBAL DEFAULT UND _ZNKSt3__112basic_stringI
63:   FUNC GLOBAL DEFAULT UND calloc@LIBC (2)
64:   FUNC GLOBAL DEFAULT UND strcmp@LIBC (2)
65:   FUNC GLOBAL DEFAULT UND __cxa_pure_virtual
66:   FUNC GLOBAL DEFAULT UND _ZNKSt3__119__shared_weak
67:   FUNC GLOBAL DEFAULT UND _ZNSt3__119__shared_weak_
68:   OBJECT GLOBAL DEFAULT UND _ZTINSt3__119__shared_wea
69:   FUNC GLOBAL DEFAULT UND _ZdaPv
70:   FUNC GLOBAL DEFAULT UND _Znam
71:   FUNC GLOBAL DEFAULT UND malloc@LIBC (2)
72:   FUNC GLOBAL DEFAULT UND pthread_getspecific@LIBC (2)
73:   FUNC GLOBAL DEFAULT UND pthread_key_create@LIBC (2)
74:   FUNC GLOBAL DEFAULT UND pthread_key_delete@LIBC (2)
75:   FUNC GLOBAL DEFAULT UND pthread_mutex_lock@LIBC (2)
76:   FUNC GLOBAL DEFAULT UND pthread_mutex_unlock@LIBC (2)
77:   FUNC GLOBAL DEFAULT UND pthread_once@LIBC (2)
78:   FUNC GLOBAL DEFAULT UND pthread_setspecific@LIBC (2)
79:   FUNC WEAK DEFAULT 14 _ZNSt3__16vectorINS_10uni
80:   OBJECT WEAK DEFAULT 11 _ZTSN3lir7VisitorE
81:   FUNC GLOBAL DEFAULT 14 _ZN3lir6CodeIr18DecodeSpa
82:   FUNC WEAK DEFAULT 14 _ZNSt3__16vectorIN6slicer
83:   FUNC GLOBAL DEFAULT 14 _ZNK3dex6Writer14MapMetho
84:   FUNC WEAK DEFAULT 14 _ZNSt3__127__tree_balance
85:   OBJECT WEAK DEFAULT 11 _ZTSN3lir4VRegE
86:   OBJECT WEAK DEFAULT 18 _ZTCNSt3__118basic_string
87:   FUNC GLOBAL DEFAULT 14 _ZN2ir7Builder12GetFieldD
88:   FUNC WEAK DEFAULT 14 _ZNSt3__16vectorINS_10uni
89:   OBJECT WEAK DEFAULT 18 _ZTIN6slicer14Transformat
90:   OBJECT GLOBAL DEFAULT 18 _ZTVN6slicer8ExitHookE
91:   FUNC GLOBAL DEFAULT 14 _ZN3lir15BytecodeEncoder5
92:   FUNC GLOBAL DEFAULT 14 _ZNK2ir13StringsHasher4Ha
93:   FUNC WEAK DEFAULT 14 _ZNSt3__16vectorIN6slicer
94:   FUNC WEAK DEFAULT 14 _ZNSt3__16vectorIPN2ir15F
95:   FUNC WEAK DEFAULT 14 _ZNSt3__16vectorIN3dex20F
96:   FUNC WEAK DEFAULT 14 _ZNSt3__16__treeINS_12__v
97:   FUNC GLOBAL DEFAULT 14 _ZN2ir7DexFile16SortClass
98:   FUNC WEAK DEFAULT 14 _ZN6slicer9HashTableIRKNS
99:   FUNC WEAK DEFAULT 14 _ZNSt3__16vectorIPN2ir17A
100:   OBJECT WEAK DEFAULT 11 _ZTSN3lir7OperandE
101:   FUNC WEAK DEFAULT 14 _ZNSt3__115basic_stringbu
102:   OBJECT WEAK DEFAULT 11 _ZTSN6slicer19RegsRenumbe
103:   FUNC WEAK DEFAULT 14 _ZNSt3__16__treeINS_12__v
104:   FUNC GLOBAL DEFAULT 14 _ZN3lir15BytecodeEncoder6
105:   OBJECT WEAK DEFAULT 18 _ZTIN3lir8VRegPairE
106:   OBJECT GLOBAL DEFAULT 11 _ZTSN6slicer19AllocateScr
107:   FUNC GLOBAL DEFAULT 14 _ZN3dex6Reader14ParseFiel
108:   FUNC GLOBAL DEFAULT 14 _ZN3dex6Reader8GetProtoEj
109:   OBJECT WEAK DEFAULT 11 _ZTSN3lir14IndexedOperand
110:   OBJECT WEAK DEFAULT 18 _ZTIN3lir5FieldE
111:   OBJECT GLOBAL DEFAULT 18 _ZTIN3lir18BasicBlocksVis
112:   FUNC GLOBAL DEFAULT 14 _ZN3dex6Reader12CreateFul
113:   FUNC GLOBAL DEFAULT 14 _ZN3dex6Reader13CreateCla
114:   FUNC GLOBAL DEFAULT 14 _ZN3dex6Writer27CreateAnn
115:   FUNC WEAK DEFAULT 14 _ZNSt3__16vectorINS_10uni
116:   FUNC GLOBAL DEFAULT 14 _ZN3dex6Reader19ExtractEn
117:   FUNC GLOBAL DEFAULT 14 _ZN3dex18GetWidthFromForm
118:   OBJECT WEAK DEFAULT 11 _ZTSN3lir5LabelE
119:   OBJECT WEAK DEFAULT 18 _ZTVN3lir9VRegRangeE
120:   FUNC GLOBAL DEFAULT 14 _ZN3lir18BasicBlocksVisit
121:   FUNC GLOBAL DEFAULT 14 _ZN3lir18BasicBlocksVisit
122:   OBJECT WEAK DEFAULT 11 _ZTSNSt3__118basic_string
123:   FUNC GLOBAL DEFAULT 14 _ZNK2ir13StringsHasher7Co
124:   FUNC WEAK DEFAULT 14 _ZNSt3__16vectorIN6slicer
125:   FUNC GLOBAL DEFAULT 14 _ZN3dex6Writer22CreateCla
126:   FUNC GLOBAL DEFAULT 14 _ZN3lir15BytecodeEncoder1
127:   FUNC GLOBAL DEFAULT 14 _ZN6slicer16_weakCheckFai
128:   OBJECT WEAK DEFAULT 18 _ZTIN3lir17DbgInfoAnnotat
129:   FUNC GLOBAL DEFAULT 14 _ZNK3dex6Reader7TypeIdsEv
130:   FUNC GLOBAL DEFAULT 14 _ZN3lir6CodeIr17FixupSpar
131:   FUNC WEAK DEFAULT 14 _ZNSt3__16vectorIPN2ir6St
132:   FUNC GLOBAL DEFAULT 14 _ZN3dex6Reader16ExtractDe
133:   FUNC WEAK DEFAULT 14 _ZNSt3__16vectorIN3lir15B
134:   FUNC WEAK DEFAULT 14 _ZNSt3__16vectorIN3dex21M
135:   FUNC WEAK DEFAULT 14 _ZNSt3__114__copy_aligned
136:   FUNC GLOBAL DEFAULT 14 _ZN3dex6ReaderC2EPKhm
137:   FUNC WEAK DEFAULT 14 _ZNSt3__16vectorINS_10uni
138:   FUNC WEAK DEFAULT 14 _ZNSt3__16__treeINS_12__v
139:   OBJECT WEAK DEFAULT 11 _ZTSN3lir4TypeE
140:   OBJECT WEAK DEFAULT 18 _ZTVN3lir8BytecodeE
141:   FUNC GLOBAL DEFAULT 14 _ZN2ir7DexFile17TopSortCl
142:   FUNC GLOBAL DEFAULT 14 _ZN3dex6Writer13FillClass
143:   OBJECT WEAK DEFAULT 18 _ZTIN3lir9VRegRangeE
144:   OBJECT GLOBAL DEFAULT 18 _ZTVN3lir15BytecodeEncode
145:   FUNC WEAK DEFAULT 14 _ZNSt3__115basic_stringbu
146:   FUNC GLOBAL DEFAULT 14 _ZN3dex6Reader18ExtractAn
147:   FUNC WEAK DEFAULT 14 _ZNSt3__16vectorINS_10uni
148:   FUNC GLOBAL DEFAULT 14 _ZN3dex6Writer14WriteDebu
149:   FUNC GLOBAL DEFAULT 14 _ZN3dex19GetFormatFromOpc
150:   FUNC GLOBAL DEFAULT 14 _ZN3lir6CodeIr11Dissasemb
151:   FUNC WEAK DEFAULT 14 _ZNSt3__16vectorINS_10uni
152:   FUNC WEAK DEFAULT 14 _ZNSt3__16__treeINS_12__v
153:   FUNC WEAK DEFAULT 14 _ZNSt3__16vectorIPN3lir13
154:   OBJECT WEAK DEFAULT 11 _ZTSN3lir13DbgInfoHeaderE
155:   FUNC WEAK DEFAULT 14 _ZNK6slicer9HashTableIPKc
156:   FUNC WEAK DEFAULT 14 _ZNSt3__16vectorIN6slicer
157:   FUNC GLOBAL DEFAULT 14 _ZNK3dex6Reader9ClassDefs
158:   FUNC WEAK DEFAULT 14 _ZNSt3__16vectorIPN2ir10A
159:   OBJECT WEAK DEFAULT 18 _ZTINSt3__120__shared_ptr
160:   FUNC GLOBAL DEFAULT 14 _ZN3dex6Writer21WriteClas
161:   OBJECT WEAK DEFAULT 18 _ZTVN3lir7Const64E
162:   FUNC GLOBAL DEFAULT 14 _ZN3dex6Reader15ParseAnno
163:   FUNC WEAK DEFAULT 14 _ZNSt3__16vectorIPN2ir6St
164:   FUNC GLOBAL DEFAULT 14 _ZN3dex6Writer11CreateIma
165:   FUNC GLOBAL DEFAULT 14 _ZN3lir16DebugInfoEncoder
166:   FUNC WEAK DEFAULT 14 _ZNSt3__124__put_characte
167:   FUNC GLOBAL DEFAULT 14 _ZN3dex6Reader9ParseTypeE
168:   FUNC GLOBAL DEFAULT 14 _ZN3dex6ReaderC1EPKhm
169:   FUNC GLOBAL DEFAULT 14 _ZN3lir6CodeIr13FixupSwit
170:   FUNC GLOBAL DEFAULT 14 _ZN6slicer19AllocateScrat
171:   FUNC WEAK DEFAULT 14 _ZNSt3__16vectorIPN2ir13E
172:   OBJECT WEAK DEFAULT 18 _ZTIN3lir11InstructionE
173:   OBJECT WEAK DEFAULT 18 _ZTVN3lir12CodeLocationE
174:   OBJECT WEAK DEFAULT 18 _ZTVN3lir13TryBlockBeginE
175:   FUNC GLOBAL DEFAULT 14 _ZN3dex6Reader9GetStringE
176:   FUNC WEAK DEFAULT 14 _ZNSt3__16vectorINS_10uni
177:   FUNC GLOBAL DEFAULT 14 _ZN3dex6Writer13WriteType
178:   OBJECT WEAK DEFAULT 11 _ZTSN3lir8BytecodeE
179:   OBJECT WEAK DEFAULT 18 _ZTIN6slicer19RegsRenumbe
180:   FUNC GLOBAL DEFAULT 14 _ZNK3dex6Reader9MethodIds
181:   FUNC WEAK DEFAULT 14 _ZNSt3__16vectorINS_10uni
182:   FUNC GLOBAL DEFAULT 14 _ZN3dex6Writer10FillField
183:   FUNC WEAK DEFAULT 14 _ZNSt3__16__treeINS_4pair
184:   FUNC GLOBAL DEFAULT 14 _ZNK2ir13MethodsHasher7Co
185:   OBJECT GLOBAL DEFAULT 18 _ZTIN6slicer19AllocateScr
186:   OBJECT GLOBAL DEFAULT 11 _ZTSN3lir16TryBlocksEncod
187:   OBJECT WEAK DEFAULT 18 _ZTIN3lir13TryBlockBeginE
188:   FUNC GLOBAL DEFAULT 14 _ZNK3dex6Reader8ProtoIdsE
189:   FUNC GLOBAL DEFAULT 14 _ZNK3dex6Writer14MapStrin
190:   FUNC GLOBAL DEFAULT 14 _ZNK2ir12ProtosHasher7Com
191:   FUNC GLOBAL DEFAULT 14 _ZNK2ir7Builder13FindProt
192:   OBJECT GLOBAL DEFAULT 18 _ZTVN6slicer10DetourHookE
193:   FUNC GLOBAL DEFAULT 14 _ZN3dex6Reader11ExtractCo
194:   FUNC GLOBAL DEFAULT 14 _ZN3lir6CodeIr8AssembleEv
195:   OBJECT WEAK DEFAULT 18 _ZTIN3lir5LabelE
196:   OBJECT GLOBAL DEFAULT 18 _ZTVN3lir16TryBlocksEncod
197:   FUNC WEAK DEFAULT 14 _ZNSt3__16vectorIPN3lir7O
198:   FUNC WEAK DEFAULT 14 _ZNSt3__16vectorIPN2ir12E
199:   FUNC WEAK DEFAULT 14 _ZNSt3__16vectorIPN2ir4Ty
200:   FUNC GLOBAL DEFAULT 14 _ZN3dex6Writer10FillProto
201:   OBJECT WEAK DEFAULT 11 _ZTSN3lir7Const64E
202:   FUNC GLOBAL DEFAULT 14 _ZN3lir6CodeIr19Dissasemb
203:   OBJECT WEAK DEFAULT 18 _ZTIN3lir10LineNumberE
204:   OBJECT WEAK DEFAULT 18 _ZTCNSt3__118basic_string
205:   FUNC GLOBAL DEFAULT 14 _ZN2ir7Builder8GetProtoEP
206:   OBJECT WEAK DEFAULT 18 _ZTVN6slicer19RegsRenumbe
207:   OBJECT GLOBAL DEFAULT 18 _ZTVN6slicer21DetourInter
208:   FUNC GLOBAL DEFAULT 14 _ZN3lir15BytecodeEncoder5
209:   FUNC GLOBAL DEFAULT 14 _ZN3lir6CodeIr20Dissasemb
210:   OBJECT GLOBAL DEFAULT 18 _ZTVN6slicer19AllocateScr
211:   FUNC WEAK DEFAULT 14 _ZNSt3__16vectorINS_10uni
212:   OBJECT GLOBAL DEFAULT 11 _ZTSN6slicer9EntryHookE
213:   FUNC GLOBAL DEFAULT 14 _ZN3dex6Writer21CreateCod
214:   OBJECT GLOBAL DEFAULT 18 _ZTIN6slicer8ExitHookE
215:   FUNC WEAK DEFAULT 14 _ZNSt3__16vectorINS_10uni
216:   OBJECT WEAK DEFAULT 18 _ZTIN3lir4NodeE
217:   FUNC GLOBAL DEFAULT 14 _ZN6slicer10DetourHook5Ap
218:   FUNC WEAK DEFAULT 14 _ZNSt3__16vectorINS_10uni
219:   FUNC GLOBAL DEFAULT 14 _ZN3dex6Writer29CreateEnc
220:   FUNC GLOBAL DEFAULT 14 _ZN3lir6CodeIr15DecodeArr
221:   FUNC WEAK DEFAULT 14 _ZNSt3__16__treeINS_12__v
222:   OBJECT GLOBAL DEFAULT 18 _ZTIN6slicer10DetourHookE
223:   FUNC GLOBAL DEFAULT 14 _ZN3lir16TryBlocksEncoder
224:   FUNC GLOBAL DEFAULT 14 _ZNK3dex6Writer13MapField
225:   FUNC GLOBAL DEFAULT 14 _ZN3lir15BytecodeEncoder5
226:   FUNC GLOBAL DEFAULT 14 _ZN6slicer12_checkFailedE
227:   OBJECT WEAK DEFAULT 18 _ZTVNSt3__115basic_string
228:   FUNC GLOBAL DEFAULT 14 _ZN3lir6CodeIr9GetStringE
229:   OBJECT WEAK DEFAULT 11 _ZTSN3lir11TryBlockEndE
230:   FUNC GLOBAL DEFAULT 14 _ZN3lir18BasicBlocksVisit
231:   FUNC GLOBAL DEFAULT 14 _ZN3lir16TryBlocksEncoder
232:   OBJECT WEAK DEFAULT 18 _ZTIN3lir6MethodE
233:   FUNC GLOBAL DEFAULT 14 _ZNK3dex6Reader10DexMapLi
234:   FUNC GLOBAL DEFAULT 14 _ZN3lir15BytecodeEncoder5
235:   FUNC WEAK DEFAULT 14 _ZNSt3__16vectorIN6slicer
236:   FUNC GLOBAL DEFAULT 14 _ZN3lir18BasicBlocksVisit
237:   OBJECT WEAK DEFAULT 11 _ZTSN6slicer14Transformat
238:   FUNC GLOBAL DEFAULT 14 _ZN3dex6Reader10ParseProt
239:   OBJECT WEAK DEFAULT 18 _ZTVN3lir8VRegListE
240:   FUNC GLOBAL DEFAULT 14 __emutls_get_address
241:   FUNC GLOBAL DEFAULT 14 _ZN3dex6Reader20ParseFiel
242:   FUNC GLOBAL DEFAULT 14 _ZN3dex6Writer23CreateStr
243:   FUNC GLOBAL DEFAULT 14 _ZN3dex22GetIndexTypeFrom
244:   FUNC GLOBAL DEFAULT 14 _ZN3lir6CodeIr7GetRegBERK
245:   OBJECT WEAK DEFAULT 18 _ZTVNSt3__118basic_string
246:   FUNC WEAK DEFAULT 14 _ZNSt3__16vectorINS_10uni
247:   FUNC GLOBAL DEFAULT 14 _ZN3dex6Writer27CreateAnn
248:   OBJECT GLOBAL DEFAULT 11 _ZTSN3lir18BasicBlocksVis
249:   OBJECT GLOBAL DEFAULT 11 _ZTSN6slicer21DetourInter
250:   FUNC GLOBAL DEFAULT 14 _ZN3dex6Reader17ParseEnco
251:   FUNC GLOBAL DEFAULT 14 _ZN3lir6CodeIr20Dissasemb
252:   FUNC WEAK DEFAULT 14 _ZNSt3__16vectorIPN3lir11
253:   FUNC WEAK DEFAULT 14 _ZNSt3__16vectorIPN2ir4Ty
254:   FUNC GLOBAL DEFAULT 14 _ZN3dex6Reader17ParseEnco
255:   FUNC GLOBAL DEFAULT 14 _ZN3dex6Reader21ExtractAn
256:   FUNC GLOBAL DEFAULT 14 _ZN3dex6Reader27ExtractAn
257:   FUNC WEAK DEFAULT 14 _ZN6slicer9HashTableIRKN2
258:   FUNC WEAK DEFAULT 14 _ZNSt3__16vectorINS_10uni
259:   FUNC GLOBAL DEFAULT 14 _ZN3dex6Writer16CreateMap
260:   FUNC GLOBAL DEFAULT 14 _ZN3dex6Writer22CreateTyp
261:   FUNC WEAK DEFAULT 14 _ZNSt3__16vectorIN3lir10B
262:   FUNC GLOBAL DEFAULT 14 _ZNK2ir4Type4DeclEv
263:   FUNC GLOBAL DEFAULT 14 _ZN3dex6Reader17ParseEnco
264:   FUNC WEAK DEFAULT 14 _ZNSt3__16vectorIN6slicer
265:   OBJECT WEAK DEFAULT 18 _ZTVNSt3__120__shared_ptr
266:   FUNC GLOBAL DEFAULT 14 _ZN3dex6Writer20CreateAnn
267:   FUNC GLOBAL DEFAULT 14 _ZN3dex18GetFlagsFromOpco
268:   OBJECT WEAK DEFAULT 18 _ZTVN3lir5FieldE
269:   FUNC WEAK DEFAULT 14 _ZN6slicer9HashTableIRKNS
270:   FUNC GLOBAL DEFAULT 14 _ZN6slicer19AllocateScrat
271:   FUNC GLOBAL DEFAULT 14 _ZN3dex6Reader15ParseMeth
272:   OBJECT WEAK DEFAULT 11 _ZTSNSt3__120__shared_ptr
273:   FUNC GLOBAL DEFAULT 14 _ZNK3dex6Reader8FieldIdsE
274:   FUNC WEAK DEFAULT 14 _ZNSt3__16__treeINS_12__v
275:   FUNC WEAK DEFAULT 14 _ZNSt3__16vectorIPN3lir11
276:   OBJECT GLOBAL DEFAULT 11 _ZTSN3lir16DebugInfoEncod
277:   FUNC GLOBAL DEFAULT 14 _ZN3dex6Reader11ParseStri
278:   FUNC WEAK DEFAULT 14 _ZNSt3__16vectorINS_10uni
279:   OBJECT GLOBAL DEFAULT 18 _ZTIN3lir16TryBlocksEncod
280:   OBJECT WEAK DEFAULT 11 _ZTSN3lir12CodeLocationE
281:   FUNC GLOBAL DEFAULT 14 _ZN3lir16DebugInfoEncoder
282:   FUNC GLOBAL DEFAULT 14 _ZN3lir6CodeIr17FixupPack
283:   OBJECT WEAK DEFAULT 18 _ZTVN3lir17DbgInfoAnnotat
284:   OBJECT GLOBAL DEFAULT 18 _ZTIN6slicer21DetourInter
285:   OBJECT WEAK DEFAULT 11 _ZTSN3lir8VRegListE
286:   FUNC GLOBAL DEFAULT 14 _ZN3lir6CodeIr7GetTypeEj
287:   OBJECT WEAK DEFAULT 11 _ZTSN3lir17DbgInfoAnnotat
288:   FUNC GLOBAL DEFAULT 14 _ZN3lir18BasicBlocksVisit
289:   FUNC WEAK DEFAULT 14 _ZNSt3__16__treeIjNS_4les
290:   FUNC GLOBAL DEFAULT 14 _ZN3dex6Writer14WriteClas
291:   FUNC GLOBAL DEFAULT 14 _ZN3dex6Writer22CreateDeb
292:   FUNC WEAK DEFAULT 14 _ZNSt3__16vectorIPN2ir6St
293:   FUNC WEAK DEFAULT 14 _ZNKSt3__115basic_stringb
294:   FUNC WEAK DEFAULT 14 _ZNSt3__16vectorINS_10uni
295:   FUNC GLOBAL DEFAULT 14 _ZN3dex6Writer17WriteInst
296:   OBJECT WEAK DEFAULT 11 _ZTSN3lir4NodeE
297:   OBJECT WEAK DEFAULT 18 _ZTTNSt3__118basic_string
298:   FUNC GLOBAL DEFAULT 14 _ZN3dex6Reader14ValidateH
299:   OBJECT GLOBAL DEFAULT 18 _ZTIN3lir15BytecodeEncode
300:   OBJECT WEAK DEFAULT 11 _ZTSN3lir13TryBlockBeginE
301:   FUNC GLOBAL DEFAULT 14 _ZNK2ir13MethodsHasher4Ha
302:   OBJECT GLOBAL DEFAULT 16 __emutls_v._ZN6slicer13we
303:   FUNC GLOBAL DEFAULT 14 _ZN2ir7DexFile9NormalizeE
304:   FUNC WEAK DEFAULT 14 _ZNSt3__16vectorIPN2ir4Ty
305:   FUNC GLOBAL DEFAULT 14 _ZN3dex6Reader20ParsePara
306:   FUNC GLOBAL DEFAULT 14 _ZN3dex6Writer19WriteAnno
307:   FUNC GLOBAL DEFAULT 14 _ZN3lir15BytecodeEncoder1
308:   OBJECT GLOBAL DEFAULT 11 _ZTSN3lir15BytecodeEncode
309:   OBJECT WEAK DEFAULT 18 _ZTIN3lir8BytecodeE
310:   OBJECT GLOBAL DEFAULT 18 _ZTVN3lir16DebugInfoEncod
311:   FUNC WEAK DEFAULT 14 _ZNSt3__115basic_stringbu
312:   FUNC WEAK DEFAULT 14 _ZNSt3__16vectorIbNS_9all
313:   FUNC GLOBAL DEFAULT 14 _ZN6slicer19DetourVirtual
314:   FUNC WEAK DEFAULT 14 _ZNSt3__16__treeINS_12__v
315:   FUNC GLOBAL DEFAULT 14 _ZNK2ir7Builder15FindAsci
316:   FUNC GLOBAL DEFAULT 14 _ZN3dex6Reader20ExtractAn
317:   FUNC WEAK DEFAULT 14 _ZNSt3__16vectorINS_10uni
318:   OBJECT WEAK DEFAULT 11 _ZTSN3lir6MethodE
319:   FUNC WEAK DEFAULT 14 _ZNSt3__16vectorIPN3lir5L
320:   FUNC GLOBAL DEFAULT 14 _ZN6slicer19AllocateScrat
321:   FUNC GLOBAL DEFAULT 14 _ZN6slicer21DetourInterfa
322:   FUNC GLOBAL DEFAULT 14 _ZN3dex18OpcodeFromByteco
323:   FUNC GLOBAL DEFAULT 14 _ZN3lir6CodeIr18DecodePac
324:   FUNC WEAK DEFAULT 14 _ZNSt3__16vectorINS_10uni
325:   FUNC WEAK DEFAULT 14 _ZNSt3__16vectorIPN2ir13A
326:   FUNC GLOBAL DEFAULT 14 _ZN3lir15BytecodeEncoder5
327:   OBJECT WEAK DEFAULT 11 _ZTSN3lir9ArrayDataE
328:   OBJECT WEAK DEFAULT 18 _ZTIN3lir6StringE
329:   FUNC GLOBAL DEFAULT 14 _ZN6slicer9EntryHook5Appl
330:   OBJECT GLOBAL DEFAULT 11 _ZTSN6slicer10DetourHookE
331:   FUNC GLOBAL DEFAULT 14 _ZN3dex6Reader17ParseInst
332:   OBJECT WEAK DEFAULT 11 _ZTSN3lir19SparseSwitchPa
333:   FUNC GLOBAL DEFAULT 14 _ZNK2ir13MethodsHasher6Ge
334:   FUNC GLOBAL DEFAULT 14 _ZN3dex6Reader8GetClassEj
335:   OBJECT WEAK DEFAULT 18 _ZTIN3lir7Const32E
336:   OBJECT WEAK DEFAULT 18 _ZTIN3lir7VisitorE
337:   FUNC GLOBAL DEFAULT 14 _ZN3dex18DescriptorToShor
338:   OBJECT GLOBAL DEFAULT 18 _ZTVN6slicer9EntryHookE
339:   FUNC GLOBAL DEFAULT 14 _ZNK3dex6Reader9StringIds
340:   FUNC WEAK DEFAULT 14 _ZNSt3__16vectorIN3lir19S
341:   OBJECT WEAK DEFAULT 18 _ZTVN3lir6MethodE
342:   FUNC GLOBAL DEFAULT 14 _ZN3lir16DebugInfoEncoder
343:   FUNC GLOBAL DEFAULT 14 _ZN3dex7Utf8CmpEPKcS1_
344:   OBJECT GLOBAL DEFAULT 11 _ZTSN6slicer19DetourVirtu
345:   FUNC GLOBAL DEFAULT 14 _ZN3lir15BytecodeEncoder5
346:   OBJECT WEAK DEFAULT 18 _ZTVN3lir4VRegE
347:   FUNC GLOBAL DEFAULT 14 _ZNK2ir4Type11GetCategory
348:   FUNC GLOBAL DEFAULT 14 _ZN6slicer19AllocateScrat
349:   FUNC WEAK DEFAULT 14 _ZNSt3__16vectorIPN2ir15P
350:   FUNC GLOBAL DEFAULT 14 _ZN3dex6Writer9WriteCodeE
351:   OBJECT WEAK DEFAULT 11 _ZTSN3lir11InstructionE
352:   OBJECT WEAK DEFAULT 18 _ZTVN3lir5LabelE
353:   FUNC WEAK DEFAULT 14 _ZNSt3__16vectorIPN2ir16M
354:   OBJECT WEAK DEFAULT 18 _ZTIN3lir12CodeLocationE
355:   FUNC GLOBAL DEFAULT 14 _ZNK2ir5Proto9SignatureEv
356:   FUNC WEAK DEFAULT 14 _ZNSt3__16vectorINS_10uni
357:   FUNC GLOBAL DEFAULT 14 _ZN6slicer18MethodInstrum
358:   OBJECT GLOBAL DEFAULT 11 _ZTSN6slicer8ExitHookE
359:   FUNC WEAK DEFAULT 14 _ZN6slicer9HashTableIRKN2
360:   FUNC GLOBAL DEFAULT 14 _ZNK3dex6Reader14FindClas
361:   FUNC GLOBAL DEFAULT 14 _ZN3dex6Writer25WriteAnno
362:   FUNC WEAK DEFAULT 14 _ZNSt3__16vectorIjNS_9all
363:   OBJECT WEAK DEFAULT 11 _ZTSN3lir10LineNumberE
364:   OBJECT WEAK DEFAULT 18 _ZTVN3lir11TryBlockEndE
365:   FUNC GLOBAL DEFAULT 14 _ZN3dex16DescriptorToDecl
366:   FUNC WEAK DEFAULT 14 _ZNSt3__120__shared_ptr_e
367:   FUNC GLOBAL DEFAULT 14 _ZN3dex17DecodeInstructio
368:   FUNC GLOBAL DEFAULT 14 _ZN3dex6Reader18ParseEnco
369:   FUNC WEAK DEFAULT 14 _ZNSt3__16vectorINS_10uni
370:   FUNC GLOBAL DEFAULT 14 _ZN3lir18BasicBlocksVisit
371:   OBJECT WEAK DEFAULT 18 _ZTCNSt3__118basic_string
372:   FUNC GLOBAL DEFAULT 14 _ZN3dex6Writer14WriteTryB
373:   OBJECT WEAK DEFAULT 18 _ZTIN3lir7OperandE
374:   OBJECT WEAK DEFAULT 18 _ZTIN3lir19SparseSwitchPa
375:   FUNC WEAK DEFAULT 14 _ZNSt3__16vectorIN6slicer
376:   FUNC GLOBAL DEFAULT 14 _ZN3dex20GetWidthFromByte
377:   OBJECT WEAK DEFAULT 18 _ZTVN3lir8VRegPairE
378:   OBJECT WEAK DEFAULT 18 _ZTINSt3__118basic_string
379:   FUNC GLOBAL DEFAULT 14 _ZN3dex6Reader7GetTypeEj
380:   FUNC WEAK DEFAULT 14 _ZNSt3__16vectorINS_10uni
381:   FUNC WEAK DEFAULT 14 _ZNSt3__16vectorIPN2ir12E
382:   FUNC GLOBAL DEFAULT 14 _ZN3lir15BytecodeEncoder5
383:   OBJECT GLOBAL DEFAULT 18 _ZTIN3lir16DebugInfoEncod
384:   FUNC GLOBAL DEFAULT 14 _ZN3dex15ComputeChecksumE
385:   FUNC WEAK DEFAULT 14 _ZNSt3__16vectorIPN2ir4Ty
386:   FUNC WEAK DEFAULT 14 _ZNSt3__16vectorIN3lir12C
387:   FUNC GLOBAL DEFAULT 14 _ZN6slicer18MethodInstrum
388:   FUNC GLOBAL DEFAULT 14 _ZN3dex6Reader21ParseMeth
389:   FUNC GLOBAL DEFAULT 14 _ZNK3dex6Writer11FilePoin
390:   OBJECT WEAK DEFAULT 18 _ZTIN3lir8VRegListE
391:   FUNC GLOBAL DEFAULT 14 _ZN3lir6CodeIr17GetIndexe
392:   FUNC WEAK DEFAULT 14 _ZNSt3__16vectorIPN3lir7O
393:   FUNC GLOBAL DEFAULT 14 _ZNK2ir8MethodId5MatchEPN
394:   FUNC GLOBAL DEFAULT 14 _ZN3lir15BytecodeEncoder5
395:   FUNC GLOBAL DEFAULT 14 _ZN3lir6CodeIr8GetLabelEj
396:   OBJECT WEAK DEFAULT 11 _ZTSN3lir6StringE
397:   OBJECT WEAK DEFAULT 18 _ZTVN3lir4TypeE
398:   OBJECT WEAK DEFAULT 18 _ZTVN3lir9ArrayDataE
399:   FUNC GLOBAL DEFAULT 14 _ZN2ir7Builder11GetTypeLi
400:   FUNC GLOBAL DEFAULT 14 _ZN2ir7Builder14GetAsciiS
401:   FUNC GLOBAL DEFAULT 14 _ZN3dex24GetVerifyFlagsFr
402:   FUNC GLOBAL DEFAULT 14 _ZN3lir6CodeIr14DecodeByt
403:   OBJECT WEAK DEFAULT 11 _ZTSN3lir19PackedSwitchPa
404:   FUNC GLOBAL DEFAULT 14 _ZN6slicer8ExitHook5Apply
405:   FUNC WEAK DEFAULT 14 _ZNSt3__16__treeINS_12__v
406:   FUNC WEAK DEFAULT 14 _ZNSt3__16__treeINS_12__v
407:   OBJECT WEAK DEFAULT 18 _ZTVN3lir19SparseSwitchPa
408:   FUNC GLOBAL DEFAULT 14 _ZN3dex13GetOpcodeNameENS
409:   FUNC GLOBAL DEFAULT 14 _ZN3dex6Writer20CreateAnn
410:   OBJECT WEAK DEFAULT 11 _ZTSN3lir8VRegPairE
411:   OBJECT GLOBAL DEFAULT 18 _ZTVN3lir18BasicBlocksVis
412:   FUNC WEAK DEFAULT 14 _ZNSt3__114__copy_aligned
413:   FUNC WEAK DEFAULT 14 _ZNSt3__16vectorIN6slicer
414:   OBJECT GLOBAL DEFAULT 18 _ZTIN6slicer19DetourVirtu
415:   FUNC GLOBAL DEFAULT 14 _ZN3lir15BytecodeEncoder5
416:   OBJECT WEAK DEFAULT 18 _ZTINSt3__115basic_string
417:   FUNC WEAK DEFAULT 14 _ZNSt3__116__copy_unalign
418:   FUNC GLOBAL DEFAULT 14 _ZN3dex6Reader12GetFieldD
419:   FUNC GLOBAL DEFAULT 14 _ZN3dex6Writer17WriteEnco
420:   FUNC GLOBAL DEFAULT 14 _ZN3dex6Writer18WriteEnco
421:   OBJECT WEAK DEFAULT 18 _ZTIN3lir4VRegE
422:   FUNC GLOBAL DEFAULT 14 _ZNK2ir12ProtosHasher4Has
423:   FUNC GLOBAL DEFAULT 14 _ZN3dex6Reader13GetMethod
424:   FUNC GLOBAL DEFAULT 14 _ZN6slicer6_fatalEPKcz
425:   OBJECT WEAK DEFAULT 18 _ZTIN3lir9ArrayDataE
426:   OBJECT WEAK DEFAULT 18 _ZTVN3lir6StringE
427:   FUNC WEAK DEFAULT 14 _ZNSt3__16__treeINS_12__v
428:   OBJECT WEAK DEFAULT 18 _ZTVN3lir13DbgInfoHeaderE
429:   FUNC GLOBAL DEFAULT 14 _ZN3lir16ControlFlowGraph
430:   OBJECT GLOBAL DEFAULT 18 _ZTVN6slicer19DetourVirtu
431:   FUNC GLOBAL DEFAULT 14 _ZNK3dex6Reader14GetStrin
432:   OBJECT WEAK DEFAULT 18 _ZTVN3lir7Const32E
433:   FUNC GLOBAL DEFAULT 14 _ZN3lir18BasicBlocksVisit
434:   FUNC WEAK DEFAULT 14 _ZNSt3__16vectorIN6slicer
435:   FUNC GLOBAL DEFAULT 14 _ZNK3dex6Writer12MapTypeI
436:   FUNC WEAK DEFAULT 14 _ZNSt3__16__treeINS_12__v
437:   FUNC GLOBAL DEFAULT 14 _ZN3lir6CodeIr7GetRegAERK
438:   FUNC WEAK DEFAULT 14 _ZNSt3__16vectorIPN3lir5L
439:   FUNC WEAK DEFAULT 14 _ZNSt3__16vectorIN3dex24P
440:   OBJECT WEAK DEFAULT 18 _ZTIN3lir13DbgInfoHeaderE
441:   OBJECT WEAK DEFAULT 18 _ZTIN3lir19PackedSwitchPa
442:   FUNC GLOBAL DEFAULT 14 _ZNK2ir7Builder10FindMeth
443:   OBJECT GLOBAL DEFAULT 18 _ZTIN6slicer9EntryHookE
444:   OBJECT WEAK DEFAULT 18 _ZTIN3lir14IndexedOperand
445:   FUNC GLOBAL DEFAULT 14 _ZN3lir6CodeIr7GetRegCERK
446:   OBJECT WEAK DEFAULT 11 _ZTSN3lir5FieldE
447:   FUNC GLOBAL DEFAULT 14 _ZTHN6slicer13weak_failur
448:   FUNC WEAK DEFAULT 14 _ZNK6slicer9HashTableIRKN
449:   FUNC WEAK DEFAULT 14 _ZNSt3__120__shared_ptr_e
450:   FUNC GLOBAL DEFAULT 14 _ZN3dex6Writer9FillTypesE
451:   OBJECT WEAK DEFAULT 11 _ZTSN3lir9VRegRangeE
452:   FUNC WEAK DEFAULT 14 _ZNSt3__115basic_stringbu
453:   OBJECT WEAK DEFAULT 11 _ZTSNSt3__115basic_string
454:   FUNC WEAK DEFAULT 14 _ZN6slicer9HashTableIPKcN
455:   FUNC WEAK DEFAULT 14 _ZNSt3__16vectorIbNS_9all
456:   FUNC GLOBAL DEFAULT 14 _ZN3lir15BytecodeEncoder1
457:   FUNC GLOBAL DEFAULT 14 _ZN3dex6Reader10ParseClas
458:   FUNC GLOBAL DEFAULT 14 _ZN3lir15BytecodeEncoder1
459:   OBJECT WEAK DEFAULT 18 _ZTIN3lir11TryBlockEndE
460:   FUNC GLOBAL DEFAULT 14 _ZN2ir7Builder7GetTypeEPN
461:   FUNC WEAK DEFAULT 14 _ZNSt3__16vectorINS_10uni
462:   FUNC GLOBAL DEFAULT 14 _ZN3dex6Reader15ExtractTy
463:   FUNC GLOBAL DEFAULT 14 _ZN3dex6Writer11FillMetho
464:   FUNC GLOBAL DEFAULT 14 _ZN3dex6Writer22WriteClas
465:   OBJECT WEAK DEFAULT 18 _ZTIN3lir7Const64E
466:   FUNC GLOBAL DEFAULT 14 _ZN2ir7Builder13GetMethod
467:   FUNC WEAK DEFAULT 14 _ZN6slicer9HashTableIPKcN
468:   OBJECT WEAK DEFAULT 11 _ZTSN3lir7Const32E
469:   FUNC WEAK DEFAULT 14 _ZNK6slicer9HashTableIRKN
470:   OBJECT WEAK DEFAULT 18 _ZTVN3lir11InstructionE
471:   FUNC WEAK DEFAULT 14 _ZNSt3__16__treeINS_12__v
472:   FUNC GLOBAL DEFAULT 14 _ZN3dex6Writer18WriteAnno
473:   FUNC WEAK DEFAULT 14 _ZNSt3__16vectorIN3dex7Ma
474:   OBJECT WEAK DEFAULT 18 _ZTIN3lir4TypeE
475:   FUNC WEAK DEFAULT 14 _ZNSt3__16vectorINS_10uni
476:   FUNC WEAK DEFAULT 14 _ZNSt3__16vectorIbNS_9all
477:   OBJECT WEAK DEFAULT 18 _ZTVN3lir10LineNumberE
478:   OBJECT WEAK DEFAULT 18 _ZTVN3lir19PackedSwitchPa
479:   FUNC WEAK DEFAULT 14 _ZNSt3__16vectorIN6slicer
