 0x000000000000000e (SONAME)             Library soname: [android.hardware.ir@1.0.so]
  
Symbol   contains 233 entries:
Num:   Type Bind Vis Ndx Name
0:   NOTYPE LOCAL DEFAULT UND
1:   FUNC GLOBAL DEFAULT UND __cxa_finalize@LIBC (2)
2:   FUNC GLOBAL DEFAULT UND _ZN7android14sp_report_ra
3:   FUNC GLOBAL DEFAULT UND _ZN7android21report_syspr
4:   OBJECT GLOBAL DEFAULT UND _ZN7android4hidl4base4V1_
5:   FUNC GLOBAL DEFAULT UND _ZN7android4hidl4base4V1_
6:   FUNC GLOBAL DEFAULT UND _ZN7android4hidl4base4V1_
7:   FUNC GLOBAL DEFAULT UND _ZN7android4hidl4base4V1_
8:   FUNC GLOBAL DEFAULT UND _ZN7android4hidl4base4V1_
9:   FUNC GLOBAL DEFAULT UND _ZN7android4hidl4base4V1_
10:   FUNC GLOBAL DEFAULT UND _ZN7android4hidl4base4V1_
11:   FUNC GLOBAL DEFAULT UND _ZN7android4hidl4base4V1_
12:   FUNC GLOBAL DEFAULT UND _ZN7android4hidl4base4V1_
13:   FUNC GLOBAL DEFAULT UND _ZN7android4hidl4base4V1_
14:   FUNC GLOBAL DEFAULT UND _ZN7android4hidl4base4V1_
15:   FUNC GLOBAL DEFAULT UND _ZN7android4hidl4base4V1_
16:   FUNC GLOBAL DEFAULT UND _ZN7android4hidl4base4V1_
17:   FUNC GLOBAL DEFAULT UND _ZN7android4hidl4base4V1_
18:   FUNC GLOBAL DEFAULT UND _ZN7android4hidl4base4V1_
19:   FUNC GLOBAL DEFAULT UND _ZN7android4hidl4base4V1_
20:   FUNC GLOBAL DEFAULT UND _ZN7android4hidl4base4V1_
21:   FUNC GLOBAL DEFAULT UND _ZN7android4hidl4base4V1_
22:   FUNC GLOBAL DEFAULT UND _ZN7android4hidl4base4V1_
23:   FUNC GLOBAL DEFAULT UND _ZN7android4hidl4base4V1_
24:   FUNC GLOBAL DEFAULT UND _ZN7android4hidl4base4V1_
25:   FUNC GLOBAL DEFAULT UND _ZN7android4hidl4base4V1_
26:   FUNC GLOBAL DEFAULT UND _ZN7android4hidl4base4V1_
27:   FUNC GLOBAL DEFAULT UND _ZN7android4hidl4base4V1_
28:   FUNC GLOBAL DEFAULT UND _ZN7android7RefBase10onFi
29:   FUNC GLOBAL DEFAULT UND _ZN7android7RefBase12weak
30:   FUNC GLOBAL DEFAULT UND _ZN7android7RefBase13onLa
31:   FUNC GLOBAL DEFAULT UND _ZN7android7RefBase15onLa
32:   FUNC GLOBAL DEFAULT UND _ZN7android7RefBase20onIn
33:   FUNC GLOBAL DEFAULT UND _ZN7android7RefBaseC2Ev
34:   FUNC GLOBAL DEFAULT UND _ZN7android7RefBaseD2Ev
35:   FUNC GLOBAL DEFAULT UND _ZN7android8hardware10IIn
36:   FUNC GLOBAL DEFAULT UND _ZN7android8hardware10IIn
37:   FUNC GLOBAL DEFAULT UND _ZN7android8hardware10IIn
38:   FUNC GLOBAL DEFAULT UND _ZN7android8hardware10IIn
39:   FUNC GLOBAL DEFAULT UND _ZN7android8hardware10IIn
40:   FUNC GLOBAL DEFAULT UND _ZN7android8hardware11BpH
41:   FUNC GLOBAL DEFAULT UND _ZN7android8hardware11BpH
42:   FUNC GLOBAL DEFAULT UND _ZN7android8hardware11BpH
43:   FUNC GLOBAL DEFAULT UND _ZN7android8hardware11BpH
44:   FUNC GLOBAL DEFAULT UND _ZN7android8hardware11BpH
45:   FUNC GLOBAL DEFAULT UND _ZN7android8hardware11BpH
46:   FUNC GLOBAL DEFAULT UND _ZN7android8hardware11BpH
47:   FUNC GLOBAL DEFAULT UND _ZN7android8hardware11hid
48:   FUNC GLOBAL DEFAULT UND _ZN7android8hardware11hid
49:   FUNC GLOBAL DEFAULT UND _ZN7android8hardware11hid
50:   FUNC GLOBAL DEFAULT UND _ZN7android8hardware11hid
51:   FUNC GLOBAL DEFAULT UND _ZN7android8hardware11hid
52:   FUNC GLOBAL DEFAULT UND _ZN7android8hardware12Pro
53:   FUNC GLOBAL DEFAULT UND _ZN7android8hardware12Pro
54:   FUNC GLOBAL DEFAULT UND _ZN7android8hardware13wri
55:   FUNC GLOBAL DEFAULT UND _ZN7android8hardware14rea
56:   FUNC GLOBAL DEFAULT UND _ZN7android8hardware21def
57:   FUNC GLOBAL DEFAULT UND _ZN7android8hardware23get
58:   FUNC GLOBAL DEFAULT UND _ZN7android8hardware27hid
59:   FUNC GLOBAL DEFAULT UND _ZN7android8hardware27hid
60:   FUNC GLOBAL DEFAULT UND _ZN7android8hardware6Parc
61:   FUNC GLOBAL DEFAULT UND _ZN7android8hardware6Parc
62:   FUNC GLOBAL DEFAULT UND _ZN7android8hardware6Parc
63:   FUNC GLOBAL DEFAULT UND _ZN7android8hardware6Parc
64:   FUNC GLOBAL DEFAULT UND _ZN7android8hardware6Parc
65:   FUNC GLOBAL DEFAULT UND _ZN7android8hardware6Parc
66:   FUNC GLOBAL DEFAULT UND _ZN7android8hardware6Parc
67:   FUNC GLOBAL DEFAULT UND _ZN7android8hardware6Stat
68:   FUNC GLOBAL DEFAULT UND _ZN7android8hardware6Stat
69:   FUNC GLOBAL DEFAULT UND _ZN7android8hardware6Stat
70:   FUNC GLOBAL DEFAULT UND _ZN7android8hardware6Stat
71:   FUNC GLOBAL DEFAULT UND _ZN7android8hardware7IBin
72:   FUNC GLOBAL DEFAULT UND _ZN7android8hardware7IBin
73:   FUNC GLOBAL DEFAULT UND _ZN7android8hardware7IBin
74:   FUNC GLOBAL DEFAULT UND _ZN7android8hardware7IBin
75:   FUNC GLOBAL DEFAULT UND _ZN7android8hardware7deta
76:   FUNC GLOBAL DEFAULT UND _ZN7android8hardware7deta
77:   FUNC GLOBAL DEFAULT UND _ZN7android8hardware7deta
78:   FUNC GLOBAL DEFAULT UND _ZN7android8hardware7deta
79:   FUNC GLOBAL DEFAULT UND _ZN7android8hardware7deta
80:   FUNC GLOBAL DEFAULT UND _ZN7android8hardware7deta
81:   FUNC GLOBAL DEFAULT UND _ZN7android8hardware7deta
82:   OBJECT GLOBAL DEFAULT UND _ZN7android8hardware7deta
83:   FUNC GLOBAL DEFAULT UND _ZN7android8hardware7deta
84:   OBJECT GLOBAL DEFAULT UND _ZN7android8hardware7deta
85:   FUNC GLOBAL DEFAULT UND _ZN7android8hardware7deta
86:   FUNC GLOBAL DEFAULT UND _ZN7android8hardware7deta
87:   FUNC GLOBAL DEFAULT UND _ZN7android8hardware7deta
88:   FUNC GLOBAL DEFAULT UND _ZN7android8hardware7deta
89:   FUNC GLOBAL DEFAULT UND _ZN7android8hardware7deta
90:   FUNC GLOBAL DEFAULT UND _ZN7android8hardware7deta
91:   FUNC GLOBAL DEFAULT UND _ZN7android8hardware7deta
92:   FUNC GLOBAL DEFAULT UND _ZN7android8hardware7deta
93:   FUNC GLOBAL DEFAULT UND _ZN7android8hardware7deta
94:   OBJECT GLOBAL DEFAULT UND _ZN7android8hardware7deta
95:   FUNC GLOBAL DEFAULT UND _ZN7android8hardware9BHwB
96:   FUNC GLOBAL DEFAULT UND _ZN7android8hardware9BHwB
97:   FUNC GLOBAL DEFAULT UND _ZN7android8hardware9BHwB
98:   FUNC GLOBAL DEFAULT UND _ZN7android8hardware9BHwB
99:   FUNC GLOBAL DEFAULT UND _ZN7android8hardware9BHwB
100:   FUNC GLOBAL DEFAULT UND _ZN7android8hardware9BHwB
101:   FUNC GLOBAL DEFAULT UND _ZN7android8hardware9BHwB
102:   FUNC GLOBAL DEFAULT UND _ZN7android8hardware9BHwB
103:   FUNC GLOBAL DEFAULT UND _ZN7android8hardware9BHwB
104:   FUNC GLOBAL DEFAULT UND _ZN7android8hardware9BHwB
105:   FUNC GLOBAL DEFAULT UND _ZNK7android7RefBase10cre
106:   FUNC GLOBAL DEFAULT UND _ZNK7android7RefBase11get
107:   FUNC GLOBAL DEFAULT UND _ZNK7android7RefBase9decS
108:   FUNC GLOBAL DEFAULT UND _ZNK7android7RefBase9incS
109:   FUNC GLOBAL DEFAULT UND _ZNK7android8hardware6Par
110:   FUNC GLOBAL DEFAULT UND _ZNK7android8hardware6Par
111:   FUNC GLOBAL DEFAULT UND _ZNK7android8hardware6Par
112:   FUNC GLOBAL DEFAULT UND _ZNK7android8hardware6Par
113:   FUNC GLOBAL DEFAULT UND _ZNK7android8hardware6Par
114:   FUNC GLOBAL DEFAULT UND _ZNK7android8hardware7IBi
115:   FUNC GLOBAL DEFAULT UND _ZNK7android8hardware7det
116:   FUNC GLOBAL DEFAULT UND _ZNK7android8hardware9BHw
117:   FUNC GLOBAL DEFAULT UND _ZNKSt3__120__vector_base
118:   FUNC GLOBAL DEFAULT UND _ZNKSt3__121__basic_strin
119:   FUNC GLOBAL DEFAULT UND _ZNSt3__112basic_stringIc
120:   FUNC GLOBAL DEFAULT UND _ZNSt3__15mutex4lockEv
121:   FUNC GLOBAL DEFAULT UND _ZNSt3__15mutex6unlockEv
122:   FUNC GLOBAL DEFAULT UND _ZNSt3__15mutexD1Ev
123:   FUNC GLOBAL DEFAULT UND _ZTv0_n24_N7android4hidl4
124:   FUNC GLOBAL DEFAULT UND _ZTv0_n24_N7android4hidl4
125:   FUNC GLOBAL DEFAULT UND _ZTv0_n24_N7android8hardw
126:   FUNC GLOBAL DEFAULT UND _ZTv0_n24_N7android8hardw
127:   FUNC GLOBAL DEFAULT UND _ZTv0_n24_N7android8hardw
128:   FUNC GLOBAL DEFAULT UND _ZTv0_n24_N7android8hardw
129:   FUNC GLOBAL DEFAULT UND _ZTv0_n24_N7android8hardw
130:   FUNC GLOBAL DEFAULT UND _ZTv0_n24_N7android8hardw
131:   FUNC GLOBAL DEFAULT UND _ZTv0_n24_N7android8hardw
132:   FUNC GLOBAL DEFAULT UND _ZTv0_n24_N7android8hardw
133:   FUNC GLOBAL DEFAULT UND _ZTv0_n32_N7android8hardw
134:   FUNC GLOBAL DEFAULT UND _ZTv0_n40_N7android8hardw
135:   FUNC GLOBAL DEFAULT UND _ZTv0_n48_N7android8hardw
136:   FUNC GLOBAL DEFAULT UND _ZdaPv
137:   FUNC GLOBAL DEFAULT UND _ZdlPv
138:   FUNC GLOBAL DEFAULT UND _Znam
139:   FUNC GLOBAL DEFAULT UND _Znwm
140:   FUNC GLOBAL DEFAULT UND __android_log_assert@LIBLOG (3)
141:   FUNC GLOBAL DEFAULT UND __cxa_pure_virtual
142:   FUNC GLOBAL DEFAULT UND __stack_chk_fail@LIBC (2)
143:   FUNC GLOBAL DEFAULT UND abort@LIBC (2)
144:   FUNC GLOBAL DEFAULT UND atrace_begin_body
145:   OBJECT GLOBAL DEFAULT UND atrace_enabled_tags
146:   FUNC GLOBAL DEFAULT UND atrace_end_body
147:   OBJECT GLOBAL DEFAULT UND atrace_is_ready
148:   FUNC GLOBAL DEFAULT UND atrace_setup
149:   FUNC GLOBAL DEFAULT UND memcmp@LIBC (2)
150:   FUNC GLOBAL DEFAULT UND memcpy@LIBC (2)
151:   FUNC GLOBAL DEFAULT UND memset@LIBC (2)
152:   FUNC GLOBAL DEFAULT UND strlen@LIBC (2)
153:   FUNC GLOBAL DEFAULT 14 _ZN7android8hardware2ir4V
154:   FUNC GLOBAL DEFAULT 14 _ZN7android8hardware2ir4V
155:   FUNC GLOBAL DEFAULT 14 _ZN7android8hardware2ir4V
156:   FUNC WEAK DEFAULT 14 _ZNSt3__16__treeINS_12__v
157:   OBJECT GLOBAL DEFAULT 18 _ZTCN7android8hardware2ir
158:   FUNC GLOBAL DEFAULT 14 _ZN7android8hardware2ir4V
159:   FUNC GLOBAL DEFAULT 14 _ZN7android8hardware2ir4V
160:   FUNC GLOBAL DEFAULT 14 _ZN7android8hardware2ir4V
161:   FUNC GLOBAL DEFAULT 14 _ZN7android8hardware2ir4V
162:   FUNC WEAK DEFAULT 14 _ZNSt3__16__treeINS_12__v
163:   OBJECT GLOBAL DEFAULT 18 _ZTCN7android8hardware2ir
164:   FUNC GLOBAL DEFAULT 14 _ZN7android8hardware2ir4V
165:   FUNC GLOBAL DEFAULT 14 _ZN7android8hardware2ir4V
166:   FUNC GLOBAL DEFAULT 14 _ZN7android8hardware2ir4V
167:   FUNC WEAK DEFAULT 14 _ZNSt3__127__tree_balance
168:   FUNC WEAK DEFAULT 14 _ZNSt3__16__treeINS_12__v
169:   OBJECT GLOBAL DEFAULT 18 _ZTVN7android8hardware2ir
170:   FUNC GLOBAL DEFAULT 14 _ZN7android8hardware2ir4V
171:   FUNC GLOBAL DEFAULT 14 _ZN7android8hardware2ir4V
172:   FUNC GLOBAL DEFAULT 14 _ZN7android8hardware2ir4V
173:   FUNC GLOBAL DEFAULT 14 _ZN7android8hardware2ir4V
174:   FUNC GLOBAL DEFAULT 14 _ZN7android8hardware2ir4V
175:   OBJECT GLOBAL DEFAULT 18 _ZTVN7android8hardware2ir
176:   OBJECT GLOBAL DEFAULT 16 _ZN7android8hardware2ir4V
177:   OBJECT WEAK DEFAULT 18 _ZTCN7android8hardware2ir
178:   OBJECT GLOBAL DEFAULT 18 _ZTTN7android8hardware2ir
179:   FUNC GLOBAL DEFAULT 14 _ZTv0_n24_N7android8hardw
180:   FUNC GLOBAL DEFAULT 14 _ZN7android8hardware2ir4V
181:   FUNC WEAK DEFAULT 14 _ZNSt3__16__treeINS_12__v
182:   FUNC WEAK DEFAULT 14 _ZNSt3__16vectorIN7androi
183:   OBJECT GLOBAL DEFAULT 18 _ZTCN7android8hardware2ir
184:   FUNC GLOBAL DEFAULT 14 _ZN7android8hardware2ir4V
185:   FUNC GLOBAL DEFAULT 14 _ZN7android8hardware2ir4V
186:   FUNC GLOBAL DEFAULT 14 _ZN7android8hardware2ir4V
187:   FUNC GLOBAL DEFAULT 14 _ZN7android8hardware2ir4V
188:   FUNC GLOBAL DEFAULT 14 _ZN7android8hardware2ir4V
189:   FUNC GLOBAL DEFAULT 14 _ZN7android8hardware2ir4V
190:   FUNC WEAK DEFAULT 14 _ZNSt3__16vectorINS_8func
191:   OBJECT GLOBAL DEFAULT 18 _ZTCN7android8hardware2ir
192:   FUNC GLOBAL DEFAULT 14 _ZN7android8hardware2ir4V
193:   FUNC GLOBAL DEFAULT 14 _ZN7android8hardware2ir4V
194:   OBJECT GLOBAL DEFAULT 18 _ZTVN7android8hardware2ir
195:   FUNC GLOBAL DEFAULT 14 _ZThn32_N7android8hardwar
196:   FUNC GLOBAL DEFAULT 14 _ZN7android8hardware2ir4V
197:   OBJECT GLOBAL DEFAULT 18 _ZTCN7android8hardware2ir
198:   OBJECT GLOBAL DEFAULT 18 _ZTCN7android8hardware2ir
199:   FUNC GLOBAL DEFAULT 14 _ZN7android8hardware2ir4V
200:   FUNC GLOBAL DEFAULT 14 _ZN7android8hardware2ir4V
201:   FUNC WEAK DEFAULT 14 _ZNSt3__16__treeINS_12__v
202:   FUNC WEAK DEFAULT 14 _ZNSt3__113__tree_removeI
203:   FUNC WEAK DEFAULT 14 _ZNSt3__16__treeINS_12__v
204:   OBJECT GLOBAL DEFAULT 18 _ZTCN7android8hardware2ir
205:   FUNC GLOBAL DEFAULT 14 _ZN7android8hardware2ir4V
206:   FUNC GLOBAL DEFAULT 14 _ZN7android8hardware2ir4V
207:   FUNC GLOBAL DEFAULT 14 _ZN7android8hardware2ir4V
208:   FUNC WEAK DEFAULT 14 _ZNSt3__16vectorIPvNS_9al
209:   OBJECT GLOBAL DEFAULT 18 _ZTTN7android8hardware2ir
210:   FUNC GLOBAL DEFAULT 14 _ZN7android8hardware2ir4V
211:   FUNC GLOBAL DEFAULT 14 _ZN7android8hardware2ir4V
212:   FUNC GLOBAL DEFAULT 14 _ZN7android8hardware2ir4V
213:   FUNC GLOBAL DEFAULT 14 _ZN7android8hardware2ir4V
214:   OBJECT GLOBAL DEFAULT 18 _ZTCN7android8hardware2ir
215:   OBJECT GLOBAL DEFAULT 18 _ZTCN7android8hardware2ir
216:   FUNC GLOBAL DEFAULT 14 _ZN7android8hardware2ir4V
217:   FUNC WEAK DEFAULT 14 _ZN7android8hardware7deta
218:   OBJECT WEAK DEFAULT 18 _ZTVN7android8hardware2ir
219:   FUNC GLOBAL DEFAULT 14 _ZTv0_n24_N7android8hardw
220:   FUNC GLOBAL DEFAULT 14 _ZN7android8hardware2ir4V
221:   FUNC GLOBAL DEFAULT 14 _ZN7android8hardware2ir4V
222:   FUNC GLOBAL DEFAULT 14 _ZN7android8hardware2ir4V
223:   FUNC GLOBAL DEFAULT 14 _ZN7android8hardware2ir4V
224:   FUNC GLOBAL DEFAULT 14 _ZN7android8hardware2ir4V
225:   FUNC GLOBAL DEFAULT 14 _ZN7android8hardware2ir4V
226:   FUNC GLOBAL DEFAULT 14 _ZN7android8hardware2ir4V
227:   FUNC GLOBAL DEFAULT 14 _ZThn32_N7android8hardwar
228:   FUNC GLOBAL DEFAULT 14 _ZN7android8hardware2ir4V
229:   FUNC GLOBAL DEFAULT 14 _ZN7android8hardware2ir4V
230:   FUNC GLOBAL DEFAULT 14 _ZN7android8hardware2ir4V
231:   FUNC WEAK DEFAULT 14 _ZN7android8hardware7deta
232:   OBJECT GLOBAL DEFAULT 18 _ZTTN7android8hardware2ir
