 0x000000000000000e (SONAME)             Library soname: [libmedia_codecserviceregistrant.so]
  
Symbol   contains 29 entries:
Num:   Type Bind Vis Ndx Name
0:   NOTYPE LOCAL DEFAULT UND
1:   FUNC GLOBAL DEFAULT UND __cxa_finalize@LIBC (2)
2:   FUNC GLOBAL DEFAULT UND _ZN7android4base21GetMini
3:   FUNC GLOBAL DEFAULT UND _ZN7android4base10LogMess
4:   FUNC GLOBAL DEFAULT UND _ZN7android4base10LogMess
5:   FUNC GLOBAL DEFAULT UND _ZN7android4base10LogMess
6:   FUNC GLOBAL DEFAULT UND _Znwm
7:   FUNC GLOBAL DEFAULT UND _ZN7android31GetCodec2Pla
8:   FUNC GLOBAL DEFAULT UND _ZN7android8hardware5medi
9:   FUNC GLOBAL DEFAULT UND __cfi_slowpath@LIBC_OMR1 (3)
10:   FUNC GLOBAL DEFAULT UND _ZN7android8hardware5medi
11:   FUNC GLOBAL DEFAULT UND __errno@LIBC (2)
12:   FUNC GLOBAL DEFAULT UND _ZdlPv
13:   FUNC GLOBAL DEFAULT UND _ZNK7android7RefBase9decS
14:   FUNC GLOBAL DEFAULT UND _ZNSt3__113basic_ostreamI
15:   FUNC GLOBAL DEFAULT UND _ZNSt3__113basic_ostreamI
16:   FUNC GLOBAL DEFAULT UND _ZNKSt3__18ios_base6getlo
17:   FUNC GLOBAL DEFAULT UND _ZNSt3__16localeD1Ev
18:   FUNC GLOBAL DEFAULT UND _ZNKSt3__16locale9use_fac
19:   FUNC GLOBAL DEFAULT UND _ZNSt3__18ios_base5clearE
20:   FUNC GLOBAL DEFAULT UND _ZNSt3__119__shared_weak_
21:   FUNC GLOBAL DEFAULT UND _ZNK7android7RefBase9incS
22:   OBJECT GLOBAL DEFAULT UND _ZNSt3__15ctypeIcE2idE
23:   FUNC GLOBAL DEFAULT UND abort@LIBC (2)
24:   FUNC GLOBAL DEFAULT UND memset@LIBC (2)
25:   FUNC GLOBAL DEFAULT UND __stack_chk_fail@LIBC (2)
26:   FUNC GLOBAL DEFAULT 14 RegisterCodecServices
27:   FUNC WEAK DEFAULT 14 _ZNSt3__124__put_characte
28:   FUNC GLOBAL DEFAULT 14 __cfi_check
