 0x0000000e (SONAME)                     Library soname: [libsfplugin_ccodec_utils.so]
  
Symbol   contains 641 entries:
Num:   Type Bind Vis Ndx Name
0:   NOTYPE LOCAL DEFAULT UND
1:   FUNC GLOBAL DEFAULT UND __cxa_atexit@LIBC (2)
2:   FUNC GLOBAL DEFAULT UND __cxa_finalize@LIBC (2)
3:   FUNC GLOBAL DEFAULT UND _ZN13C2GraphicView4dataEv
4:   FUNC GLOBAL DEFAULT UND _ZN7android4base10LogMess
5:   FUNC GLOBAL DEFAULT UND _ZN7android4base10LogMess
6:   FUNC GLOBAL DEFAULT UND _ZN7android4base10LogMess
7:   FUNC GLOBAL DEFAULT UND _ZNK13C2GraphicView4dataE
8:   FUNC GLOBAL DEFAULT UND _ZNK13C2GraphicView6layou
9:   FUNC GLOBAL DEFAULT UND _ZNKSt3__119__shared_weak
10:   FUNC GLOBAL DEFAULT UND _ZNKSt3__16locale9use_fac
11:   FUNC GLOBAL DEFAULT UND _ZNKSt3__18ios_base6getlo
12:   FUNC GLOBAL DEFAULT UND _ZNSt3__113basic_ostreamI
13:   FUNC GLOBAL DEFAULT UND _ZNSt3__113basic_ostreamI
14:   FUNC GLOBAL DEFAULT UND _ZNSt3__119__shared_weak_
15:   FUNC GLOBAL DEFAULT UND _ZNSt3__119__shared_weak_
16:   OBJECT GLOBAL DEFAULT UND _ZNSt3__15ctypeIcE2idE
17:   FUNC GLOBAL DEFAULT UND _ZNSt3__15mutex4lockEv
18:   FUNC GLOBAL DEFAULT UND _ZNSt3__15mutex6unlockEv
19:   FUNC GLOBAL DEFAULT UND _ZNSt3__15mutexD1Ev
20:   FUNC GLOBAL DEFAULT UND _ZNSt3__16localeD1Ev
21:   FUNC GLOBAL DEFAULT UND _ZNSt3__18ios_base5clearE
22:   FUNC GLOBAL DEFAULT UND _ZdaPv
23:   FUNC GLOBAL DEFAULT UND _ZdlPv
24:   FUNC GLOBAL DEFAULT UND _Znaj
25:   FUNC GLOBAL DEFAULT UND _Znwj
26:   FUNC GLOBAL DEFAULT UND __android_log_print@LIBLOG (3)
27:   FUNC GLOBAL DEFAULT UND __stack_chk_fail@LIBC (2)
28:   OBJECT GLOBAL DEFAULT UND __stack_chk_guard@LIBC (2)
29:   FUNC GLOBAL DEFAULT UND _ZN7android10ColorUtils27
30:   FUNC GLOBAL DEFAULT UND _ZN7android10ColorUtils30
31:   FUNC GLOBAL DEFAULT UND _ZN7android10ColorUtils32
32:   FUNC GLOBAL DEFAULT UND _ZN7android10ColorUtils33
33:   FUNC GLOBAL DEFAULT UND _ZN7android10ColorUtils33
34:   FUNC GLOBAL DEFAULT UND _ZN7android10ColorUtils35
35:   FUNC GLOBAL DEFAULT UND _ZN7android10ColorUtils35
36:   FUNC GLOBAL DEFAULT UND _ZNKSt3__112basic_stringI
37:   FUNC GLOBAL DEFAULT UND _ZNKSt3__120__vector_base
38:   FUNC GLOBAL DEFAULT UND abort@LIBC (2)
39:   FUNC WEAK DEFAULT UND android_set_abort_message@LIBC (2)
40:   FUNC GLOBAL DEFAULT UND strlen@LIBC (2)
41:   FUNC GLOBAL DEFAULT UND write@LIBC (2)
42:   FUNC GLOBAL DEFAULT UND free@LIBC (2)
43:   FUNC GLOBAL DEFAULT UND malloc@LIBC (2)
44:   FUNC GLOBAL DEFAULT UND __fgets_chk@LIBC (2)
45:   FUNC GLOBAL DEFAULT UND fclose@LIBC (2)
46:   FUNC GLOBAL DEFAULT UND fopen@LIBC (2)
47:   FUNC GLOBAL DEFAULT UND getenv@LIBC (2)
48:   FUNC GLOBAL DEFAULT UND memcmp@LIBC (2)
49:   FUNC GLOBAL DEFAULT UND strcmp@LIBC (2)
50:   FUNC GLOBAL DEFAULT UND strstr@LIBC (2)
51:   FUNC GLOBAL DEFAULT UND __memcpy_chk@LIBC (2)
52:   FUNC GLOBAL DEFAULT UND memcpy@LIBC (2)
53:   FUNC GLOBAL DEFAULT UND memset@LIBC (2)
54:   FUNC GLOBAL DEFAULT 14 I422ToARGB1555Row_NEON
55:   FUNC GLOBAL DEFAULT 14 BlendPlaneRow_C
56:   FUNC GLOBAL DEFAULT 14 MergeUVRow_C
57:   FUNC GLOBAL DEFAULT 14 __divdi3
58:   FUNC GLOBAL DEFAULT 14 __aeabi_memset
59:   FUNC GLOBAL DEFAULT 14 I420Mirror
60:   FUNC GLOBAL DEFAULT 14 ARGB4444ToYRow_NEON
61:   FUNC GLOBAL DEFAULT 14 RGB565ToYRow_C
62:   FUNC GLOBAL DEFAULT 14 RGB565ToARGBRow_NEON
63:   FUNC GLOBAL DEFAULT 14 I420Rect
64:   FUNC GLOBAL DEFAULT 14 UYVYToI420
65:   FUNC GLOBAL DEFAULT 14 ARGBShuffleRow_C
66:   FUNC GLOBAL DEFAULT 14 _ZN7android8C2Mapper24Get
67:   FUNC GLOBAL DEFAULT 14 ARGB1555ToUVRow_Any_NEON
68:   FUNC GLOBAL DEFAULT 14 I400Mirror
69:   FUNC GLOBAL DEFAULT 14 RGBColorMatrix
70:   FUNC GLOBAL DEFAULT 14 UYVYToI422
71:   FUNC GLOBAL DEFAULT 14 ScaleARGBRowDown2Linear_N
72:   FUNC WEAK DEFAULT 14 _ZN7android7ALookupIN7C2C
73:   FUNC GLOBAL DEFAULT 14 ScaleSlope
74:   FUNC GLOBAL DEFAULT 14 ScaleARGBFilterCols_C
75:   OBJECT GLOBAL DEFAULT 18 _ZTVN7android11MemoryBloc
76:   FUNC GLOBAL DEFAULT 14 InterpolateRow_NEON
77:   FUNC GLOBAL DEFAULT 14 RAWToRGB24Row_C
78:   FUNC GLOBAL DEFAULT 14 _ZN7android8C2Mapper3mapE
79:   FUNC GLOBAL DEFAULT 14 ARGB4444ToARGBRow_C
80:   FUNC GLOBAL DEFAULT 14 ARGBExtractAlphaRow_C
81:   FUNC GLOBAL DEFAULT 14 ARGBSubtractRow_NEON
82:   FUNC GLOBAL DEFAULT 14 YUY2ToUV422Row_Any_NEON
83:   FUNC GLOBAL DEFAULT 14 ARGBToUVJRow_NEON
84:   FUNC GLOBAL DEFAULT 14 ARGB1555ToYRow_Any_NEON
85:   FUNC GLOBAL DEFAULT 14 NV21ToABGR
86:   FUNC GLOBAL DEFAULT 14 CanonicalFourCC
87:   FUNC GLOBAL DEFAULT 14 RGB565ToARGBRow_Any_NEON
88:   FUNC GLOBAL DEFAULT 14 J420ToRGB565
89:   FUNC GLOBAL DEFAULT 14 ARGBShadeRow_NEON
90:   FUNC GLOBAL DEFAULT 14 ARGBMirror
91:   FUNC GLOBAL DEFAULT 14 I420Scale
92:   FUNC GLOBAL DEFAULT 14 ScaleFilterCols64_C
93:   FUNC GLOBAL DEFAULT 14 ScaleRowDown4Box_Any_NEON
94:   FUNC WEAK DEFAULT 14 _ZNSt3__124__put_characte
95:   FUNC GLOBAL DEFAULT 14 NV12ToARGBRow_Any_NEON
96:   FUNC GLOBAL DEFAULT 14 ARGBToYJRow_C
97:   FUNC GLOBAL DEFAULT 14 I444ToARGBRow_NEON
98:   FUNC GLOBAL DEFAULT 14 ScaleARGBRowDown2Box_Any_
99:   FUNC GLOBAL DEFAULT 14 BGRAToYRow_C
100:   FUNC GLOBAL DEFAULT 14 Android420ToABGR
101:   FUNC GLOBAL DEFAULT 14 I400ToARGBRow_Any_NEON
102:   FUNC GLOBAL DEFAULT 14 YUY2ToARGBRow_Any_NEON
103:   FUNC GLOBAL DEFAULT 14 I420ToRGBA
104:   FUNC GLOBAL DEFAULT 14 ScaleRowDown2Box_NEON
105:   FUNC GLOBAL DEFAULT 14 SobelToPlaneRow_C
106:   FUNC GLOBAL DEFAULT 14 ScaleFilterReduce
107:   FUNC GLOBAL DEFAULT 14 ScaleRowDown2_16_C
108:   FUNC GLOBAL DEFAULT 14 Android420ToARGBMatrix
109:   FUNC GLOBAL DEFAULT 14 ScaleFilterCols_C
110:   FUNC GLOBAL DEFAULT 14 SobelXRow_NEON
111:   FUNC GLOBAL DEFAULT 14 _ZN7android33CreateYUV420
112:   FUNC GLOBAL DEFAULT 14 ARGBInterpolate
113:   FUNC GLOBAL DEFAULT 14 ARGBQuantize
114:   FUNC GLOBAL DEFAULT 14 ARGBToRAWRow_C
115:   FUNC GLOBAL DEFAULT 14 BGRAToUVRow_C
116:   FUNC GLOBAL DEFAULT 14 RGB24ToARGBRow_Any_NEON
117:   FUNC GLOBAL DEFAULT 14 ARGBLumaColorTableRow_C
118:   FUNC GLOBAL DEFAULT 14 _ZN7android8IsYUV420EPKNS
119:   FUNC GLOBAL DEFAULT 14 ABGRToYRow_NEON
120:   FUNC GLOBAL DEFAULT 14 ARGBGrayRow_C
121:   FUNC GLOBAL DEFAULT 14 ARGBSetRow_NEON
122:   FUNC GLOBAL DEFAULT 14 ScaleRowDown2Box_Any_NEON
123:   FUNC GLOBAL DEFAULT 14 UYVYToNV12
124:   FUNC GLOBAL DEFAULT 14 I400Copy
125:   FUNC GLOBAL DEFAULT 14 ARGBSobelToPlane
126:   FUNC GLOBAL DEFAULT 14 I422ToRGBA
127:   FUNC GLOBAL DEFAULT 14 ScaleARGBRowDownEvenBox_N
128:   FUNC GLOBAL DEFAULT 14 NV12ToRGB565Row_C
129:   FUNC GLOBAL DEFAULT 14 ScaleOffset
130:   FUNC GLOBAL DEFAULT 14 ScaleFilterCols_Any_NEON
131:   FUNC GLOBAL DEFAULT 14 ARGBSobelXY
132:   FUNC GLOBAL DEFAULT 14 ARGBSubtract
133:   FUNC GLOBAL DEFAULT 14 HalfFloat1Row_Any_NEON
134:   FUNC GLOBAL DEFAULT 14 ARGBToRGB24Row_Any_NEON
135:   FUNC GLOBAL DEFAULT 14 UYVYToUVRow_C
136:   FUNC GLOBAL DEFAULT 14 UYVYToYRow_C
137:   FUNC GLOBAL DEFAULT 14 ARGBToRGB565DitherRow_NEO
138:   FUNC GLOBAL DEFAULT 14 ARGBToARGB4444Row_C
139:   FUNC GLOBAL DEFAULT 14 _ZN7android6IsNV12ERK13C2
140:   FUNC GLOBAL DEFAULT 14 YUY2ToARGB
141:   FUNC GLOBAL DEFAULT 14 I422ToRGBARow_Any_NEON
142:   FUNC GLOBAL DEFAULT 14 ARGBSepia
143:   FUNC GLOBAL DEFAULT 14 SplitUVRow_NEON
144:   FUNC GLOBAL DEFAULT 14 _ZN7android8C2Mapper3mapE
145:   FUNC GLOBAL DEFAULT 14 ARGBColorMatrixRow_NEON
146:   FUNC GLOBAL DEFAULT 14 _ZN7android11MemoryBlockC
147:   OBJECT WEAK DEFAULT 18 _ZTVNSt3__120__shared_ptr
148:   FUNC GLOBAL DEFAULT 14 __aeabi_memcpy
149:   FUNC GLOBAL DEFAULT 14 ARGB4444ToYRow_C
150:   FUNC GLOBAL DEFAULT 14 RAWToYRow_C
151:   FUNC GLOBAL DEFAULT 14 YUY2ToUVRow_NEON
152:   FUNC GLOBAL DEFAULT 14 MergeUVRow_NEON
153:   FUNC GLOBAL DEFAULT 14 ARGBToRAWRow_NEON
154:   FUNC GLOBAL DEFAULT 14 _ZN7android8C2Mapper3mapE
155:   FUNC GLOBAL DEFAULT 14 I444ToI420
156:   FUNC GLOBAL DEFAULT 14 CopyPlane
157:   FUNC GLOBAL DEFAULT 14 I422ToARGB4444Row_NEON
158:   FUNC GLOBAL DEFAULT 14 RAWToI420
159:   FUNC GLOBAL DEFAULT 14 ARGBToYJRow_Any_NEON
160:   FUNC GLOBAL DEFAULT 14 SobelRow_NEON
161:   FUNC GLOBAL DEFAULT 14 ARGB1555ToYRow_C
162:   FUNC GLOBAL DEFAULT 14 BGRAToUVRow_Any_NEON
163:   FUNC GLOBAL DEFAULT 14 YUY2ToYRow_NEON
164:   FUNC GLOBAL DEFAULT 14 I420ToARGB1555
165:   FUNC GLOBAL DEFAULT 14 SetRow_C
166:   FUNC GLOBAL DEFAULT 14 ScaleRowDown34_NEON
167:   FUNC GLOBAL DEFAULT 14 ARGB1555ToYRow_NEON
168:   FUNC GLOBAL DEFAULT 14 ARGB4444ToUVRow_NEON
169:   FUNC GLOBAL DEFAULT 14 SplitUVPlane
170:   FUNC GLOBAL DEFAULT 14 UYVYToUV422Row_Any_NEON
171:   FUNC GLOBAL DEFAULT 14 UYVYToUV422Row_C
172:   FUNC GLOBAL DEFAULT 14 ScaleRowDown2Linear_16_C
173:   FUNC WEAK DEFAULT 14 _ZN7android7ALookupIN7C2C
174:   FUNC GLOBAL DEFAULT 14 ABGRToUVRow_Any_NEON
175:   FUNC GLOBAL DEFAULT 14 ComputeCumulativeSumRow_C
176:   FUNC GLOBAL DEFAULT 14 MirrorPlane
177:   FUNC GLOBAL DEFAULT 14 __aeabi_memclr
178:   FUNC GLOBAL DEFAULT 14 NV21ToARGBRow_Any_NEON
179:   FUNC GLOBAL DEFAULT 14 ScaleRowDown2Box_Odd_NEON
180:   FUNC GLOBAL DEFAULT 14 YUY2ToUV422Row_NEON
181:   FUNC GLOBAL DEFAULT 14 ARGBToUV444Row_Any_NEON
182:   FUNC GLOBAL DEFAULT 14 ARGBToUV444Row_C
183:   FUNC GLOBAL DEFAULT 14 ARGBAddRow_C
184:   FUNC GLOBAL DEFAULT 14 ScaleRowDown38_16_C
185:   FUNC GLOBAL DEFAULT 14 _ZN7android8C2Mapper3mapE
186:   FUNC GLOBAL DEFAULT 14 _ZN7android8C2Mapper3mapE
187:   FUNC GLOBAL DEFAULT 14 I420ToRGB565
188:   FUNC GLOBAL DEFAULT 14 ARGBToYRow_C
189:   FUNC GLOBAL DEFAULT 14 ConvertFromI420
190:   FUNC GLOBAL DEFAULT 14 ARGBToRGB565DitherRow_C
191:   FUNC GLOBAL DEFAULT 14 ARGBMultiply
192:   FUNC GLOBAL DEFAULT 14 ARGBExtractAlphaRow_NEON
193:   FUNC GLOBAL DEFAULT 14 RGBColorTableRow_C
194:   FUNC GLOBAL DEFAULT 14 ARGB1555ToARGBRow_C
195:   FUNC GLOBAL DEFAULT 14 I420ToRGB565Dither
196:   FUNC GLOBAL DEFAULT 14 ARGBComputeCumulativeSum
197:   FUNC GLOBAL DEFAULT 14 RGB24ToARGB
198:   FUNC GLOBAL DEFAULT 14 ScalePlaneVertical
199:   FUNC GLOBAL DEFAULT 14 RAWToARGBRow_Any_NEON
200:   FUNC GLOBAL DEFAULT 14 I422ToRGBARow_NEON
201:   FUNC GLOBAL DEFAULT 14 ARGBSepiaRow_NEON
202:   FUNC GLOBAL DEFAULT 14 ARGBToYJRow_NEON
203:   FUNC GLOBAL DEFAULT 14 ScaleRowDown2Linear_Any_N
204:   FUNC GLOBAL DEFAULT 14 ScaleRowDown38_3_Box_Any_
205:   FUNC GLOBAL DEFAULT 14 __aeabi_memclr4
206:   FUNC GLOBAL DEFAULT 14 ARGB4444ToUVRow_Any_NEON
207:   FUNC GLOBAL DEFAULT 14 ARGBColorMatrix
208:   FUNC GLOBAL DEFAULT 14 ARGBSubtractRow_C
209:   FUNC GLOBAL DEFAULT 14 RGBColorTable
210:   FUNC GLOBAL DEFAULT 14 ScaleRowDown34_0_Box_C
211:   FUNC GLOBAL DEFAULT 14 ScaleRowDown4Box_NEON
212:   FUNC GLOBAL DEFAULT 14 _ZN7android8C2Mapper3mapE
213:   FUNC GLOBAL DEFAULT 14 RGB565ToYRow_Any_NEON
214:   FUNC GLOBAL DEFAULT 14 ARGBQuantizeRow_C
215:   FUNC GLOBAL DEFAULT 14 ScaleARGBRowDown2Linear_C
216:   FUNC GLOBAL DEFAULT 14 BGRAToI420
217:   FUNC GLOBAL DEFAULT 14 NV21ToARGB
218:   OBJECT GLOBAL DEFAULT 12 kYvuI601Constants
219:   FUNC GLOBAL DEFAULT 14 _ZN7android8C2Mapper3mapE
220:   FUNC GLOBAL DEFAULT 14 ARGB1555ToUVRow_NEON
221:   FUNC GLOBAL DEFAULT 14 __aeabi_memclr8
222:   FUNC GLOBAL DEFAULT 14 ScaleRowDown34_1_Box_C
223:   FUNC GLOBAL DEFAULT 14 RGBAToUVRow_Any_NEON
224:   FUNC GLOBAL DEFAULT 14 CumulativeSumToAverageRow
225:   FUNC GLOBAL DEFAULT 14 ScalePlaneVertical_16
226:   FUNC GLOBAL DEFAULT 14 _ZN7android11MemoryBlockD
227:   FUNC GLOBAL DEFAULT 14 _ZN7android21ConvertRGBTo
228:   FUNC GLOBAL DEFAULT 14 _ZNK7android11MemoryBlock
229:   FUNC GLOBAL DEFAULT 14 M420ToI420
230:   FUNC GLOBAL DEFAULT 14 RAWToUVRow_NEON
231:   FUNC GLOBAL DEFAULT 14 ARGBBlur
232:   FUNC GLOBAL DEFAULT 14 ARGBGray
233:   FUNC GLOBAL DEFAULT 14 SplitUVRow_Any_NEON
234:   FUNC GLOBAL DEFAULT 14 ScaleARGBFilterCols64_C
235:   FUNC GLOBAL DEFAULT 14 _ZNK7android11MemoryBlock
236:   FUNC GLOBAL DEFAULT 14 Android420ToARGB
237:   FUNC GLOBAL DEFAULT 14 ScaleARGBRowDown2_C
238:   FUNC GLOBAL DEFAULT 14 ScaleARGBRowDownEven_C
239:   FUNC GLOBAL DEFAULT 14 _ZN7android8C2Mapper3mapE
240:   FUNC GLOBAL DEFAULT 14 RGB565ToUVRow_C
241:   FUNC GLOBAL DEFAULT 14 ARGBExtractAlpha
242:   FUNC GLOBAL DEFAULT 14 SobelRow_Any_NEON
243:   FUNC GLOBAL DEFAULT 14 ScaleAddRow_C
244:   FUNC GLOBAL DEFAULT 14 ScalePlaneBilinearDown
245:   FUNC GLOBAL DEFAULT 14 NV12ToI420
246:   FUNC GLOBAL DEFAULT 14 RAWToYRow_NEON
247:   FUNC GLOBAL DEFAULT 14 YUY2ToUVRow_Any_NEON
248:   FUNC GLOBAL DEFAULT 14 ARGBSobel
249:   FUNC GLOBAL DEFAULT 14 HalfFloat1Row_NEON
250:   FUNC GLOBAL DEFAULT 14 ScaleARGBCols_Any_NEON
251:   FUNC GLOBAL DEFAULT 14 I420AlphaToABGR
252:   FUNC GLOBAL DEFAULT 14 ARGBRect
253:   FUNC GLOBAL DEFAULT 14 NV12ToRGB565Row_NEON
254:   FUNC GLOBAL DEFAULT 14 I420ToI422
255:   FUNC GLOBAL DEFAULT 14 ScaleRowDown38_Any_NEON
256:   FUNC GLOBAL DEFAULT 14 ABGRToUVRow_C
257:   FUNC GLOBAL DEFAULT 14 I422ToARGBRow_C
258:   OBJECT GLOBAL DEFAULT 12 fixed_invtbl8
259:   FUNC GLOBAL DEFAULT 14 ScaleRowDown4_16_C
260:   FUNC GLOBAL DEFAULT 14 I400ToI420
261:   FUNC GLOBAL DEFAULT 14 RGBAToYRow_NEON
262:   FUNC GLOBAL DEFAULT 14 ARGBBlendRow_C
263:   FUNC GLOBAL DEFAULT 14 ABGRToYRow_C
264:   FUNC GLOBAL DEFAULT 14 RGB565ToARGB
265:   FUNC GLOBAL DEFAULT 14 I420Interpolate
266:   FUNC GLOBAL DEFAULT 14 SobelXYRow_C
267:   FUNC GLOBAL DEFAULT 14 I422ToI420
268:   FUNC GLOBAL DEFAULT 14 RGB24ToUVRow_Any_NEON
269:   FUNC GLOBAL DEFAULT 14 ABGRToARGB
270:   FUNC GLOBAL DEFAULT 14 ScaleCols_C
271:   FUNC GLOBAL DEFAULT 14 ScaleRowDown34_1_Box_16_C
272:   FUNC GLOBAL DEFAULT 14 ScaleRowDown34_Any_NEON
273:   FUNC GLOBAL DEFAULT 14 ScaleARGBRowDown2_NEON
274:   OBJECT GLOBAL DEFAULT 12 kYuvI601Constants
275:   FUNC GLOBAL DEFAULT 14 ScaleRowDown34_0_Box_16_C
276:   FUNC GLOBAL DEFAULT 14 _ZN7android15MemoryBlockP
277:   FUNC GLOBAL DEFAULT 14 RAWToARGBRow_C
278:   FUNC GLOBAL DEFAULT 14 ARGBColorTable
279:   FUNC GLOBAL DEFAULT 14 ARGBCopyAlpha
280:   FUNC GLOBAL DEFAULT 14 ARGBToARGB1555Row_C
281:   FUNC GLOBAL DEFAULT 14 I420Copy
282:   FUNC GLOBAL DEFAULT 14 I420ToBGRA
283:   FUNC GLOBAL DEFAULT 14 ARGBBlendRow_NEON
284:   FUNC GLOBAL DEFAULT 14 ARGBToRGB24Row_C
285:   FUNC GLOBAL DEFAULT 14 ARGBToUVJRow_C
286:   FUNC GLOBAL DEFAULT 14 __aeabi_uidiv
287:   FUNC GLOBAL DEFAULT 14 ARGBToYRow_NEON
288:   FUNC GLOBAL DEFAULT 14 J422ToABGR
289:   FUNC GLOBAL DEFAULT 14 YUY2ToARGBRow_NEON
290:   FUNC GLOBAL DEFAULT 14 I422ToRGB565Row_C
291:   FUNC GLOBAL DEFAULT 14 YUY2ToUV422Row_C
292:   FUNC GLOBAL DEFAULT 14 ScaleRowDown38_3_Box_16_C
293:   FUNC GLOBAL DEFAULT 14 ARGBToI420
294:   FUNC GLOBAL DEFAULT 14 ARGB4444ToYRow_Any_NEON
295:   FUNC GLOBAL DEFAULT 14 ARGBPolynomialRow_C
296:   FUNC GLOBAL DEFAULT 14 ARGBSetRow_C
297:   FUNC GLOBAL DEFAULT 14 ScaleRowDown38_2_Box_16_C
298:   FUNC GLOBAL DEFAULT 14 ScaleRowDown4_C
299:   FUNC GLOBAL DEFAULT 14 ScaleARGBCols_NEON
300:   FUNC GLOBAL DEFAULT 14 I422ToYUY2Row_C
301:   FUNC GLOBAL DEFAULT 14 HalfFloatRow_Any_NEON
302:   FUNC GLOBAL DEFAULT 14 ScaleARGBRowDown2Box_C
303:   FUNC GLOBAL DEFAULT 14 _ZN7android6IsI420EPKNS_1
304:   FUNC GLOBAL DEFAULT 14 ARGB4444ToI420
305:   FUNC GLOBAL DEFAULT 14 I444ToABGR
306:   FUNC GLOBAL DEFAULT 14 H420ToRGB565
307:   FUNC GLOBAL DEFAULT 14 I422ToARGB1555Row_Any_NEO
308:   FUNC GLOBAL DEFAULT 14 ARGBQuantizeRow_NEON
309:   FUNC WEAK DEFAULT 14 _ZN7android7ALookupIN8C2C
310:   FUNC GLOBAL DEFAULT 14 _ZN7android8C2Mapper3mapE
311:   FUNC GLOBAL DEFAULT 14 I422ToRGB565
312:   FUNC GLOBAL DEFAULT 14 ArmCpuCaps
313:   FUNC GLOBAL DEFAULT 14 ScaleFilterCols_16_C
314:   FUNC GLOBAL DEFAULT 14 ARGB1555ToI420
315:   FUNC GLOBAL DEFAULT 14 I422ToARGBRow_Any_NEON
316:   FUNC GLOBAL DEFAULT 14 I422ToARGB4444Row_C
317:   FUNC GLOBAL DEFAULT 14 I422ToBGRA
318:   FUNC GLOBAL DEFAULT 14 ScaleARGBRowDownEven_Any_
319:   FUNC GLOBAL DEFAULT 14 __aeabi_uidivmod
320:   FUNC GLOBAL DEFAULT 14 I420ToNV12
321:   FUNC GLOBAL DEFAULT 14 RGBAToARGB
322:   FUNC GLOBAL DEFAULT 14 ScaleRowDown2Box_Odd_C
323:   FUNC GLOBAL DEFAULT 14 ScaleARGBFilterCols_Any_N
324:   FUNC WEAK DEFAULT 14 _ZNSt3__120__shared_ptr_e
325:   FUNC WEAK DEFAULT 14 _ZN7android7ALookupIN8C2C
326:   FUNC GLOBAL DEFAULT 14 ARGB1555ToARGBRow_NEON
327:   FUNC GLOBAL DEFAULT 14 I420ToUYVY
328:   FUNC GLOBAL DEFAULT 14 SobelToPlaneRow_NEON
329:   FUNC GLOBAL DEFAULT 14 CopyRow_NEON
330:   FUNC GLOBAL DEFAULT 14 YUY2ToARGBRow_C
331:   OBJECT GLOBAL DEFAULT 12 kYvuH709Constants
332:   FUNC GLOBAL DEFAULT 14 RAWToRGB24Row_Any_NEON
333:   FUNC GLOBAL DEFAULT 14 ScaleRowDown38_2_Box_Any_
334:   FUNC GLOBAL DEFAULT 14 __aeabi_ldivmod
335:   FUNC GLOBAL DEFAULT 14 _ZN7android8C2Mapper3mapE
336:   FUNC GLOBAL DEFAULT 14 BGRAToYRow_NEON
337:   FUNC GLOBAL DEFAULT 14 ARGBToBGRA
338:   FUNC GLOBAL DEFAULT 14 ARGBMirrorRow_C
339:   FUNC GLOBAL DEFAULT 14 SetRow_NEON
340:   FUNC GLOBAL DEFAULT 14 ARGBAffineRow_C
341:   FUNC GLOBAL DEFAULT 14 ScaleAddRow_16_C
342:   FUNC GLOBAL DEFAULT 14 ScaleARGBCols64_C
343:   FUNC GLOBAL DEFAULT 14 __udivsi3
344:   FUNC GLOBAL DEFAULT 14 _ZN7android29CreateYUV420
345:   FUNC GLOBAL DEFAULT 14 I422ToRGB565Row_NEON
346:   FUNC GLOBAL DEFAULT 14 ARGBColorMatrixRow_C
347:   FUNC GLOBAL DEFAULT 14 ARGBSubtractRow_Any_NEON
348:   FUNC GLOBAL DEFAULT 14 ScaleRowDown38_2_Box_C
349:   FUNC WEAK DEFAULT 14 _ZNSt3__120__shared_ptr_e
350:   FUNC GLOBAL DEFAULT 14 J400ToARGBRow_Any_NEON
351:   FUNC GLOBAL DEFAULT 14 I420ToRGB24
352:   FUNC GLOBAL DEFAULT 14 HalfFloatPlane
353:   FUNC GLOBAL DEFAULT 14 SobelXYRow_NEON
354:   FUNC GLOBAL DEFAULT 14 FixedDiv_C
355:   FUNC GLOBAL DEFAULT 14 UYVYToARGB
356:   FUNC GLOBAL DEFAULT 14 SobelYRow_C
357:   FUNC GLOBAL DEFAULT 14 ScaleRowDown2_C
358:   FUNC GLOBAL DEFAULT 14 _ZN7android8C2Mapper3mapE
359:   FUNC GLOBAL DEFAULT 14 CopyRow_Any_NEON
360:   FUNC GLOBAL DEFAULT 14 I422ToUYVY
361:   FUNC GLOBAL DEFAULT 14 InterpolatePlane
362:   FUNC GLOBAL DEFAULT 14 ScaleRowDown38_3_Box_C
363:   FUNC GLOBAL DEFAULT 14 ScaleARGBCols_C
364:   FUNC GLOBAL DEFAULT 14 RAWToUVRow_Any_NEON
365:   FUNC GLOBAL DEFAULT 14 I422ToRGBARow_C
366:   FUNC GLOBAL DEFAULT 14 SetRow_Any_NEON
367:   FUNC GLOBAL DEFAULT 14 FixedDiv1_C
368:   FUNC GLOBAL DEFAULT 14 I422ToUYVYRow_Any_NEON
369:   FUNC GLOBAL DEFAULT 14 ScaleRowDown2Linear_C
370:   FUNC GLOBAL DEFAULT 14 RAWToYRow_Any_NEON
371:   FUNC GLOBAL DEFAULT 14 ARGBUnattenuate
372:   FUNC GLOBAL DEFAULT 14 ARGBAdd
373:   FUNC GLOBAL DEFAULT 14 InterpolateRow_16_C
374:   FUNC GLOBAL DEFAULT 14 I420Scale_16
375:   FUNC GLOBAL DEFAULT 14 ScaleARGBRowDownEven_NEON
376:   FUNC GLOBAL DEFAULT 14 RGB565ToYRow_NEON
377:   OBJECT GLOBAL DEFAULT 12 kYuvJPEGConstants
378:   FUNC GLOBAL DEFAULT 14 SobelToPlaneRow_Any_NEON
379:   FUNC GLOBAL DEFAULT 14 ScaleColsUp2_C
380:   FUNC GLOBAL DEFAULT 14 RAWToRGB24Row_NEON
381:   FUNC GLOBAL DEFAULT 14 ARGBToUV444Row_NEON
382:   FUNC WEAK DEFAULT 14 _ZNSt3__120__shared_ptr_e
383:   FUNC GLOBAL DEFAULT 14 NV21ToARGBRow_C
384:   FUNC GLOBAL DEFAULT 14 I420ToRGB565Matrix
385:   FUNC GLOBAL DEFAULT 14 I422ToARGB4444Row_Any_NEO
386:   FUNC GLOBAL DEFAULT 14 ARGBToARGB4444Row_NEON
387:   FUNC GLOBAL DEFAULT 14 ScalePlaneBilinearDown_16
388:   FUNC GLOBAL DEFAULT 14 ScaleARGBFilterCols_NEON
389:   FUNC WEAK DEFAULT 14 _ZN7android7ALookupIN7C2C
390:   FUNC GLOBAL DEFAULT 14 ARGB1555ToARGBRow_Any_NEO
391:   FUNC GLOBAL DEFAULT 14 ARGBAttenuateRow_Any_NEON
392:   FUNC GLOBAL DEFAULT 14 MirrorUVRow_NEON
393:   OBJECT GLOBAL DEFAULT 12 kYuvH709Constants
394:   FUNC GLOBAL DEFAULT 14 ARGBUnattenuateRow_C
395:   FUNC GLOBAL DEFAULT 14 ScaleFilterRows_NEON
396:   FUNC GLOBAL DEFAULT 14 __udivmodsi4
397:   FUNC GLOBAL DEFAULT 14 CopyRow_C
398:   FUNC GLOBAL DEFAULT 14 RGB24ToYRow_Any_NEON
399:   FUNC GLOBAL DEFAULT 14 ARGBBlend
400:   FUNC GLOBAL DEFAULT 14 ScaleRowDown2Box_16_C
401:   FUNC GLOBAL DEFAULT 14 ScaleARGBRowDownEvenBox_C
402:   FUNC GLOBAL DEFAULT 14 BGRAToYRow_Any_NEON
403:   FUNC GLOBAL DEFAULT 14 RGBAToYRow_C
404:   FUNC GLOBAL DEFAULT 14 I420AlphaToARGB
405:   FUNC GLOBAL DEFAULT 14 ARGBToARGB1555Row_NEON
406:   FUNC GLOBAL DEFAULT 14 ARGBToUVJRow_Any_NEON
407:   FUNC GLOBAL DEFAULT 14 RGB24ToUVRow_C
408:   FUNC GLOBAL DEFAULT 14 YUY2ToUVRow_C
409:   FUNC GLOBAL DEFAULT 14 J420ToABGR
410:   FUNC GLOBAL DEFAULT 14 I400ToARGBRow_NEON
411:   FUNC GLOBAL DEFAULT 14 MergeUVPlane
412:   FUNC GLOBAL DEFAULT 14 GetARGBBlend
413:   FUNC GLOBAL DEFAULT 14 SobelYRow_NEON
414:   FUNC GLOBAL DEFAULT 14 _ZN7android8C2Mapper3mapE
415:   FUNC GLOBAL DEFAULT 14 I420ToABGR
416:   FUNC GLOBAL DEFAULT 14 NV12ToABGR
417:   FUNC GLOBAL DEFAULT 14 ARGBToRGB565DitherRow_Any
418:   FUNC GLOBAL DEFAULT 14 UYVYToUV422Row_NEON
419:   FUNC GLOBAL DEFAULT 14 RGBAToUVRow_NEON
420:   FUNC GLOBAL DEFAULT 14 YUY2ToYRow_Any_NEON
421:   FUNC GLOBAL DEFAULT 14 H420ToABGR
422:   FUNC GLOBAL DEFAULT 14 ARGBShade
423:   FUNC GLOBAL DEFAULT 14 ARGBAddRow_Any_NEON
424:   FUNC GLOBAL DEFAULT 14 ARGBExtractAlphaRow_Any_N
425:   FUNC GLOBAL DEFAULT 14 SplitUVRow_C
426:   FUNC GLOBAL DEFAULT 14 ScaleRowDown2_NEON
427:   FUNC GLOBAL DEFAULT 14 ScaleARGBRowDownEvenBox_A
428:   FUNC GLOBAL DEFAULT 14 ARGBGrayTo
429:   FUNC GLOBAL DEFAULT 14 ARGBMirrorRow_NEON
430:   FUNC GLOBAL DEFAULT 14 I420ToYUY2
431:   FUNC GLOBAL DEFAULT 14 MirrorRow_C
432:   FUNC GLOBAL DEFAULT 14 NV12ToRGB565Row_Any_NEON
433:   FUNC GLOBAL DEFAULT 14 ScaleRowDown38_C
434:   FUNC GLOBAL DEFAULT 14 ARGBMultiplyRow_C
435:   FUNC GLOBAL DEFAULT 14 MirrorUVRow_C
436:   FUNC GLOBAL DEFAULT 14 ScalePlane_16
437:   FUNC GLOBAL DEFAULT 14 _ZN7android11MemoryBlockC
438:   FUNC GLOBAL DEFAULT 14 _ZN7android8C2Mapper3mapE
439:   FUNC GLOBAL DEFAULT 14 I422ToRGB24Row_C
440:   FUNC GLOBAL DEFAULT 14 ARGBCopyYToAlpha
441:   FUNC GLOBAL DEFAULT 14 ARGBToARGB4444Row_Any_NEO
442:   FUNC GLOBAL DEFAULT 14 ARGB1555ToUVRow_C
443:   FUNC GLOBAL DEFAULT 14 I422ToABGR
444:   FUNC GLOBAL DEFAULT 14 I422ToYUY2Row_NEON
445:   FUNC GLOBAL DEFAULT 14 ARGBAddRow_NEON
446:   FUNC GLOBAL DEFAULT 14 H422ToABGR
447:   FUNC GLOBAL DEFAULT 14 J422ToARGB
448:   FUNC GLOBAL DEFAULT 14 ScaleRowDown2Box_C
449:   FUNC GLOBAL DEFAULT 14 _ZN7android6IsNV12EPKNS_1
450:   FUNC GLOBAL DEFAULT 14 ARGBToUVRow_Any_NEON
451:   FUNC GLOBAL DEFAULT 14 UYVYToYRow_NEON
452:   FUNC GLOBAL DEFAULT 14 _ZN7android8IsYUV420ERK13
453:   FUNC GLOBAL DEFAULT 14 _ZN7android8C2Mapper21Get
454:   FUNC GLOBAL DEFAULT 14 J444ToARGB
455:   FUNC GLOBAL DEFAULT 14 ARGB4444ToARGBRow_Any_NEO
456:   FUNC GLOBAL DEFAULT 14 I422ToYUY2
457:   FUNC GLOBAL DEFAULT 14 I444ToARGB
458:   FUNC GLOBAL DEFAULT 14 RAWToARGBRow_NEON
459:   OBJECT GLOBAL DEFAULT 12 kYvuJPEGConstants
460:   FUNC GLOBAL DEFAULT 14 I444Copy
461:   FUNC GLOBAL DEFAULT 14 ScaleARGBColsUp2_C
462:   FUNC GLOBAL DEFAULT 14 ARGBToUVRow_NEON
463:   FUNC GLOBAL DEFAULT 14 YUY2ToI420
464:   FUNC GLOBAL DEFAULT 14 ARGBToABGR
465:   FUNC GLOBAL DEFAULT 14 RAWToARGB
466:   FUNC GLOBAL DEFAULT 14 I420ToNV21
467:   FUNC GLOBAL DEFAULT 14 NV12ToRGB565
468:   FUNC GLOBAL DEFAULT 14 YUY2ToY
469:   FUNC GLOBAL DEFAULT 14 MipsCpuCaps
470:   FUNC GLOBAL DEFAULT 14 ARGBMultiplyRow_Any_NEON
471:   FUNC GLOBAL DEFAULT 14 YUY2ToI422
472:   FUNC GLOBAL DEFAULT 14 ARGBToRGB565Row_NEON
473:   FUNC GLOBAL DEFAULT 14 ScaleRowDown34_16_C
474:   FUNC GLOBAL DEFAULT 14 __udivmoddi4
475:   FUNC WEAK DEFAULT 14 _ZN7android7ALookupIN8C2C
476:   FUNC GLOBAL DEFAULT 14 I422ToARGB1555Row_C
477:   FUNC GLOBAL DEFAULT 14 Scale
478:   FUNC GLOBAL DEFAULT 14 __aeabi_memcpy4
479:   OBJECT GLOBAL DEFAULT 23 cpu_info_
480:   FUNC GLOBAL DEFAULT 14 ARGBAttenuateRow_NEON
481:   FUNC WEAK DEFAULT 14 _ZN7android7ALookupIN7C2C
482:   FUNC GLOBAL DEFAULT 14 I422AlphaToARGBRow_NEON
483:   FUNC GLOBAL DEFAULT 14 J400ToARGBRow_C
484:   FUNC GLOBAL DEFAULT 14 RGB24ToARGBRow_NEON
485:   FUNC GLOBAL DEFAULT 14 I422ToRGB565Row_Any_NEON
486:   FUNC GLOBAL DEFAULT 14 MaskCpuFlags
487:   FUNC GLOBAL DEFAULT 14 ARGBCopyYToAlphaRow_C
488:   FUNC GLOBAL DEFAULT 14 ARGBShuffleRow_Any_NEON
489:   FUNC GLOBAL DEFAULT 14 _ZN7android11MemoryBlockC
490:   FUNC WEAK DEFAULT 14 _ZN7android7ALookupIN7C2C
491:   FUNC GLOBAL DEFAULT 14 ARGBLumaColorTable
492:   FUNC GLOBAL DEFAULT 14 ARGBGrayRow_NEON
493:   FUNC GLOBAL DEFAULT 14 ScaleRowDown2Linear_NEON
494:   FUNC GLOBAL DEFAULT 14 __aeabi_memcpy8
495:   FUNC GLOBAL DEFAULT 14 I422ToYUY2Row_Any_NEON
496:   FUNC GLOBAL DEFAULT 14 ARGBAttenuate
497:   FUNC GLOBAL DEFAULT 14 ARGBToARGB1555Row_Any_NEO
498:   FUNC GLOBAL DEFAULT 14 __divmoddi4
499:   FUNC GLOBAL DEFAULT 14 InitCpuFlags
500:   FUNC GLOBAL DEFAULT 14 I422ToRGB24Row_Any_NEON
501:   FUNC GLOBAL DEFAULT 14 ARGBToYRow_Any_NEON
502:   FUNC GLOBAL DEFAULT 14 UYVYToUVRow_NEON
503:   FUNC GLOBAL DEFAULT 14 ARGBSepiaRow_C
504:   FUNC GLOBAL DEFAULT 14 MirrorRow_NEON
505:   FUNC GLOBAL DEFAULT 14 ScaleRowDown38_NEON
506:   FUNC GLOBAL DEFAULT 14 ARGBCopy
507:   FUNC GLOBAL DEFAULT 14 ARGBMirrorRow_Any_NEON
508:   FUNC GLOBAL DEFAULT 14 RAWToUVRow_C
509:   FUNC GLOBAL DEFAULT 14 UYVYToARGBRow_Any_NEON
510:   FUNC GLOBAL DEFAULT 14 NV12ToARGBRow_NEON
511:   FUNC GLOBAL DEFAULT 14 NV21ToARGBRow_NEON
512:   FUNC GLOBAL DEFAULT 14 I422ToUYVYRow_C
513:   FUNC GLOBAL DEFAULT 14 ARGBColorTableRow_C
514:   FUNC GLOBAL DEFAULT 14 ARGBToRGB24Row_NEON
515:   FUNC GLOBAL DEFAULT 14 ScaleRowDown4Box_16_C
516:   FUNC GLOBAL DEFAULT 14 _ZN7android11MemoryBlockD
517:   FUNC GLOBAL DEFAULT 14 ABGRToYRow_Any_NEON
518:   FUNC GLOBAL DEFAULT 14 ABGRToUVRow_NEON
519:   FUNC GLOBAL DEFAULT 14 RGB24ToI420
520:   FUNC GLOBAL DEFAULT 14 BGRAToARGB
521:   FUNC GLOBAL DEFAULT 14 MirrorRow_Any_NEON
522:   FUNC GLOBAL DEFAULT 14 YUY2ToNV12
523:   FUNC GLOBAL DEFAULT 14 ScaleCols_16_C
524:   FUNC GLOBAL DEFAULT 14 ScaleRowDown34_C
525:   FUNC GLOBAL DEFAULT 14 ScaleARGBRowDown2Linear_A
526:   FUNC GLOBAL DEFAULT 14 I400ToARGBRow_C
527:   FUNC GLOBAL DEFAULT 14 NV12ToARGBRow_C
528:   FUNC GLOBAL DEFAULT 14 ARGBToRGB565Row_C
529:   FUNC GLOBAL DEFAULT 14 _ZN7android9ImageCopyEPhP
530:   FUNC GLOBAL DEFAULT 14 ARGBAttenuateRow_C
531:   FUNC GLOBAL DEFAULT 14 ARGBShadeRow_C
532:   FUNC GLOBAL DEFAULT 14 ScaleAddRows_NEON
533:   FUNC GLOBAL DEFAULT 14 ARGB4444ToUVRow_C
534:   FUNC GLOBAL DEFAULT 14 RGBAToYRow_Any_NEON
535:   FUNC GLOBAL DEFAULT 14 SetPlane
536:   FUNC GLOBAL DEFAULT 14 M420ToARGB
537:   FUNC GLOBAL DEFAULT 14 ARGB4444ToARGBRow_NEON
538:   FUNC GLOBAL DEFAULT 14 I444ToARGBRow_Any_NEON
539:   FUNC GLOBAL DEFAULT 14 ARGBSetRow_Any_NEON
540:   FUNC GLOBAL DEFAULT 14 HalfFloatRow_NEON
541:   FUNC GLOBAL DEFAULT 14 _ZN7android11MemoryBlockC
542:   FUNC GLOBAL DEFAULT 14 NV21ToI420
543:   OBJECT WEAK DEFAULT 18 _ZTVNSt3__120__shared_ptr
544:   FUNC GLOBAL DEFAULT 14 RGB24ToUVRow_NEON
545:   FUNC GLOBAL DEFAULT 14 RGB565ToARGBRow_C
546:   FUNC GLOBAL DEFAULT 14 __aeabi_memset4
547:   FUNC GLOBAL DEFAULT 14 J420ToARGB
548:   FUNC GLOBAL DEFAULT 14 I420ToI444
549:   FUNC GLOBAL DEFAULT 14 UYVYToARGBRow_NEON
550:   FUNC GLOBAL DEFAULT 14 ARGBCopyAlphaRow_C
551:   FUNC GLOBAL DEFAULT 14 _ZN7android6IsI420ERK13C2
552:   FUNC GLOBAL DEFAULT 14 I420ToARGB
553:   FUNC GLOBAL DEFAULT 14 NV12ToARGB
554:   FUNC GLOBAL DEFAULT 14 J400ToARGBRow_NEON
555:   FUNC GLOBAL DEFAULT 14 RAWToRGB24
556:   FUNC GLOBAL DEFAULT 14 ScaleRowDown4_Any_NEON
557:   FUNC GLOBAL DEFAULT 14 Android420ToI420
558:   FUNC GLOBAL DEFAULT 14 H420ToARGB
559:   FUNC GLOBAL DEFAULT 14 InterpolateRow_Any_NEON
560:   FUNC GLOBAL DEFAULT 14 I420ToRAW
561:   FUNC GLOBAL DEFAULT 14 I422ToRGB24Row_NEON
562:   FUNC GLOBAL DEFAULT 14 I422ToUYVYRow_NEON
563:   FUNC GLOBAL DEFAULT 14 ScaleRowDown2_Any_NEON
564:   FUNC GLOBAL DEFAULT 14 ScaleARGBRowDown2_Any_NEO
565:   FUNC GLOBAL DEFAULT 14 __aeabi_memset8
566:   FUNC GLOBAL DEFAULT 14 _ZN7android9ImageCopyER13
567:   FUNC GLOBAL DEFAULT 14 _ZN7android8C2Mapper3mapE
568:   FUNC GLOBAL DEFAULT 14 _ZN7android8C2Mapper3mapE
569:   FUNC GLOBAL DEFAULT 14 J400ToARGB
570:   FUNC GLOBAL DEFAULT 14 _ZN7android11MemoryBlockD
571:   FUNC GLOBAL DEFAULT 14 _ZN7android8C2Mapper3mapE
572:   FUNC GLOBAL DEFAULT 14 ARGBToUVRow_C
573:   FUNC GLOBAL DEFAULT 14 I400ToARGB
574:   FUNC GLOBAL DEFAULT 14 I422AlphaToARGBRow_C
575:   FUNC GLOBAL DEFAULT 14 SobelXYRow_Any_NEON
576:   FUNC GLOBAL DEFAULT 14 ScaleColsUp2_16_C
577:   FUNC GLOBAL DEFAULT 14 ScaleRowDown34_0_Box_Any_
578:   FUNC GLOBAL DEFAULT 14 ScaleARGBRowDown2Box_NEON
579:   FUNC GLOBAL DEFAULT 14 RGB24ToYRow_C
580:   FUNC GLOBAL DEFAULT 14 RGB565ToUVRow_Any_NEON
581:   FUNC GLOBAL DEFAULT 14 ARGBShuffle
582:   FUNC GLOBAL DEFAULT 14 BlendPlane
583:   FUNC GLOBAL DEFAULT 14 SobelXRow_C
584:   FUNC GLOBAL DEFAULT 14 RGB24ToYRow_NEON
585:   FUNC GLOBAL DEFAULT 14 I422ToARGB
586:   FUNC GLOBAL DEFAULT 14 I422AlphaToARGBRow_Any_NE
587:   FUNC WEAK DEFAULT 14 _ZNSt3__120__shared_ptr_e
588:   FUNC GLOBAL DEFAULT 14 H422ToARGB
589:   FUNC GLOBAL DEFAULT 14 CpuId
590:   FUNC GLOBAL DEFAULT 14 ScalePlaneBilinearUp
591:   FUNC GLOBAL DEFAULT 14 ScaleRowDown34_1_Box_Any_
592:   FUNC GLOBAL DEFAULT 14 ScaleRowDown4_NEON
593:   FUNC WEAK DEFAULT 14 _ZN7android7ALookupIN7C2C
594:   FUNC GLOBAL DEFAULT 14 ARGBShuffleRow_NEON
595:   FUNC GLOBAL DEFAULT 14 _ZN7android15MemoryBlockP
596:   FUNC GLOBAL DEFAULT 14 RGB565ToI420
597:   FUNC GLOBAL DEFAULT 14 UYVYToUVRow_Any_NEON
598:   FUNC GLOBAL DEFAULT 14 HalfFloatRow_C
599:   FUNC GLOBAL DEFAULT 14 I420ToI400
600:   FUNC GLOBAL DEFAULT 14 ABGRToI420
601:   FUNC GLOBAL DEFAULT 14 I422Copy
602:   FUNC GLOBAL DEFAULT 14 ARGBToRGB565Row_Any_NEON
603:   FUNC GLOBAL DEFAULT 14 ScaleRowDown34_1_Box_NEON
604:   FUNC GLOBAL DEFAULT 14 _ZN7android11MemoryBlock8
605:   FUNC GLOBAL DEFAULT 14 InterpolateRow_C
606:   FUNC GLOBAL DEFAULT 14 ScaleRowDown34_0_Box_NEON
607:   FUNC GLOBAL DEFAULT 14 RGB565ToUVRow_NEON
608:   FUNC GLOBAL DEFAULT 14 ARGB4444ToARGB
609:   FUNC GLOBAL DEFAULT 14 CopyPlane_16
610:   FUNC GLOBAL DEFAULT 14 I400ToI400
611:   FUNC GLOBAL DEFAULT 14 ScalePlaneBilinearUp_16
612:   FUNC GLOBAL DEFAULT 14 ScaleRowDown4Box_C
613:   FUNC GLOBAL DEFAULT 14 RGBAToUVRow_C
614:   FUNC GLOBAL DEFAULT 14 ScalePlane
615:   FUNC GLOBAL DEFAULT 14 RGB24ToARGBRow_C
616:   FUNC GLOBAL DEFAULT 14 UYVYToARGBRow_C
617:   FUNC GLOBAL DEFAULT 14 ScaleRowDown38_3_Box_NEON
618:   FUNC GLOBAL DEFAULT 14 ARGB1555ToARGB
619:   FUNC GLOBAL DEFAULT 14 SobelRow_C
620:   FUNC GLOBAL DEFAULT 14 ScaleRowDown38_2_Box_NEON
621:   FUNC GLOBAL DEFAULT 14 _ZN7android15MemoryBlockP
622:   FUNC GLOBAL DEFAULT 14 I420ToARGB4444
623:   FUNC GLOBAL DEFAULT 14 I444ToARGBRow_C
624:   FUNC GLOBAL DEFAULT 14 YUY2ToYRow_C
625:   FUNC GLOBAL DEFAULT 14 I422ToARGBRow_NEON
626:   FUNC GLOBAL DEFAULT 14 ARGBMultiplyRow_NEON
627:   FUNC GLOBAL DEFAULT 14 ARGBToRAWRow_Any_NEON
628:   FUNC GLOBAL DEFAULT 14 I420Blend
629:   FUNC GLOBAL DEFAULT 14 ScaleFilterCols_NEON
630:   FUNC GLOBAL DEFAULT 14 _ZN7android8C2Mapper3mapE
631:   FUNC GLOBAL DEFAULT 14 CopyRow_16_C
632:   FUNC GLOBAL DEFAULT 14 MergeUVRow_Any_NEON
633:   FUNC GLOBAL DEFAULT 14 RGBAToI420
634:   FUNC GLOBAL DEFAULT 14 ARGBPolynomial
635:   FUNC WEAK DEFAULT 14 _ZN7android7ALookupIN8C2C
636:   FUNC GLOBAL DEFAULT 14 _ZN7android8C2Mapper3mapE
637:   FUNC GLOBAL DEFAULT 14 BGRAToUVRow_NEON
638:   FUNC GLOBAL DEFAULT 14 UYVYToYRow_Any_NEON
639:   FUNC GLOBAL DEFAULT 14 ScaleFilterCols64_16_C
640:   FUNC GLOBAL DEFAULT 14 _ZN7android8C2Mapper3mapE
