 0x0000000e (SONAME)                     Library soname: [android.hardware.renderscript@1.0.so]
  
Symbol   contains 548 entries:
Num:   Type Bind Vis Ndx Name
0:   NOTYPE LOCAL DEFAULT UND
1:   FUNC GLOBAL DEFAULT UND __cxa_finalize@LIBC (2)
2:   FUNC GLOBAL DEFAULT UND _ZN7android14sp_report_ra
3:   FUNC GLOBAL DEFAULT UND _ZN7android21report_syspr
4:   OBJECT GLOBAL DEFAULT UND _ZN7android4hidl4base4V1_
5:   FUNC GLOBAL DEFAULT UND _ZN7android4hidl4base4V1_
6:   FUNC GLOBAL DEFAULT UND _ZN7android4hidl4base4V1_
7:   FUNC GLOBAL DEFAULT UND _ZN7android4hidl4base4V1_
8:   FUNC GLOBAL DEFAULT UND _ZN7android4hidl4base4V1_
9:   FUNC GLOBAL DEFAULT UND _ZN7android4hidl4base4V1_
10:   FUNC GLOBAL DEFAULT UND _ZN7android4hidl4base4V1_
11:   FUNC GLOBAL DEFAULT UND _ZN7android4hidl4base4V1_
12:   FUNC GLOBAL DEFAULT UND _ZN7android4hidl4base4V1_
13:   FUNC GLOBAL DEFAULT UND _ZN7android4hidl4base4V1_
14:   FUNC GLOBAL DEFAULT UND _ZN7android4hidl4base4V1_
15:   FUNC GLOBAL DEFAULT UND _ZN7android4hidl4base4V1_
16:   FUNC GLOBAL DEFAULT UND _ZN7android4hidl4base4V1_
17:   FUNC GLOBAL DEFAULT UND _ZN7android4hidl4base4V1_
18:   FUNC GLOBAL DEFAULT UND _ZN7android4hidl4base4V1_
19:   FUNC GLOBAL DEFAULT UND _ZN7android4hidl4base4V1_
20:   FUNC GLOBAL DEFAULT UND _ZN7android4hidl4base4V1_
21:   FUNC GLOBAL DEFAULT UND _ZN7android4hidl4base4V1_
22:   FUNC GLOBAL DEFAULT UND _ZN7android4hidl4base4V1_
23:   FUNC GLOBAL DEFAULT UND _ZN7android4hidl4base4V1_
24:   FUNC GLOBAL DEFAULT UND _ZN7android4hidl4base4V1_
25:   FUNC GLOBAL DEFAULT UND _ZN7android4hidl4base4V1_
26:   FUNC GLOBAL DEFAULT UND _ZN7android4hidl4base4V1_
27:   FUNC GLOBAL DEFAULT UND _ZN7android4hidl4base4V1_
28:   FUNC GLOBAL DEFAULT UND _ZN7android7RefBase10onFi
29:   FUNC GLOBAL DEFAULT UND _ZN7android7RefBase12weak
30:   FUNC GLOBAL DEFAULT UND _ZN7android7RefBase13onLa
31:   FUNC GLOBAL DEFAULT UND _ZN7android7RefBase15onLa
32:   FUNC GLOBAL DEFAULT UND _ZN7android7RefBase20onIn
33:   FUNC GLOBAL DEFAULT UND _ZN7android7RefBaseC2Ev
34:   FUNC GLOBAL DEFAULT UND _ZN7android7RefBaseD2Ev
35:   FUNC GLOBAL DEFAULT UND _ZN7android8hardware10IIn
36:   FUNC GLOBAL DEFAULT UND _ZN7android8hardware10IIn
37:   FUNC GLOBAL DEFAULT UND _ZN7android8hardware10IIn
38:   FUNC GLOBAL DEFAULT UND _ZN7android8hardware10IIn
39:   FUNC GLOBAL DEFAULT UND _ZN7android8hardware10IIn
40:   FUNC GLOBAL DEFAULT UND _ZN7android8hardware11BpH
41:   FUNC GLOBAL DEFAULT UND _ZN7android8hardware11BpH
42:   FUNC GLOBAL DEFAULT UND _ZN7android8hardware11BpH
43:   FUNC GLOBAL DEFAULT UND _ZN7android8hardware11BpH
44:   FUNC GLOBAL DEFAULT UND _ZN7android8hardware11BpH
45:   FUNC GLOBAL DEFAULT UND _ZN7android8hardware11BpH
46:   FUNC GLOBAL DEFAULT UND _ZN7android8hardware11BpH
47:   FUNC GLOBAL DEFAULT UND _ZN7android8hardware11hid
48:   FUNC GLOBAL DEFAULT UND _ZN7android8hardware11hid
49:   FUNC GLOBAL DEFAULT UND _ZN7android8hardware11hid
50:   FUNC GLOBAL DEFAULT UND _ZN7android8hardware11hid
51:   FUNC GLOBAL DEFAULT UND _ZN7android8hardware11hid
52:   FUNC GLOBAL DEFAULT UND _ZN7android8hardware12Pro
53:   FUNC GLOBAL DEFAULT UND _ZN7android8hardware12Pro
54:   FUNC GLOBAL DEFAULT UND _ZN7android8hardware13wri
55:   FUNC GLOBAL DEFAULT UND _ZN7android8hardware14rea
56:   FUNC GLOBAL DEFAULT UND _ZN7android8hardware21def
57:   FUNC GLOBAL DEFAULT UND _ZN7android8hardware21wri
58:   FUNC GLOBAL DEFAULT UND _ZN7android8hardware22rea
59:   FUNC GLOBAL DEFAULT UND _ZN7android8hardware23get
60:   FUNC GLOBAL DEFAULT UND _ZN7android8hardware27hid
61:   FUNC GLOBAL DEFAULT UND _ZN7android8hardware27hid
62:   FUNC GLOBAL DEFAULT UND _ZN7android8hardware6Parc
63:   FUNC GLOBAL DEFAULT UND _ZN7android8hardware6Parc
64:   FUNC GLOBAL DEFAULT UND _ZN7android8hardware6Parc
65:   FUNC GLOBAL DEFAULT UND _ZN7android8hardware6Parc
66:   FUNC GLOBAL DEFAULT UND _ZN7android8hardware6Parc
67:   FUNC GLOBAL DEFAULT UND _ZN7android8hardware6Parc
68:   FUNC GLOBAL DEFAULT UND _ZN7android8hardware6Parc
69:   FUNC GLOBAL DEFAULT UND _ZN7android8hardware6Parc
70:   FUNC GLOBAL DEFAULT UND _ZN7android8hardware6Parc
71:   FUNC GLOBAL DEFAULT UND _ZN7android8hardware6Parc
72:   FUNC GLOBAL DEFAULT UND _ZN7android8hardware6Parc
73:   FUNC GLOBAL DEFAULT UND _ZN7android8hardware6Parc
74:   FUNC GLOBAL DEFAULT UND _ZN7android8hardware6Stat
75:   FUNC GLOBAL DEFAULT UND _ZN7android8hardware6Stat
76:   FUNC GLOBAL DEFAULT UND _ZN7android8hardware6Stat
77:   FUNC GLOBAL DEFAULT UND _ZN7android8hardware6Stat
78:   FUNC GLOBAL DEFAULT UND _ZN7android8hardware7IBin
79:   FUNC GLOBAL DEFAULT UND _ZN7android8hardware7IBin
80:   FUNC GLOBAL DEFAULT UND _ZN7android8hardware7IBin
81:   FUNC GLOBAL DEFAULT UND _ZN7android8hardware7IBin
82:   FUNC GLOBAL DEFAULT UND _ZN7android8hardware7deta
83:   FUNC GLOBAL DEFAULT UND _ZN7android8hardware7deta
84:   FUNC GLOBAL DEFAULT UND _ZN7android8hardware7deta
85:   FUNC GLOBAL DEFAULT UND _ZN7android8hardware7deta
86:   FUNC GLOBAL DEFAULT UND _ZN7android8hardware7deta
87:   FUNC GLOBAL DEFAULT UND _ZN7android8hardware7deta
88:   FUNC GLOBAL DEFAULT UND _ZN7android8hardware7deta
89:   OBJECT GLOBAL DEFAULT UND _ZN7android8hardware7deta
90:   OBJECT GLOBAL DEFAULT UND _ZN7android8hardware7deta
91:   FUNC GLOBAL DEFAULT UND _ZN7android8hardware7deta
92:   FUNC GLOBAL DEFAULT UND _ZN7android8hardware7deta
93:   FUNC GLOBAL DEFAULT UND _ZN7android8hardware7deta
94:   FUNC GLOBAL DEFAULT UND _ZN7android8hardware7deta
95:   FUNC GLOBAL DEFAULT UND _ZN7android8hardware7deta
96:   FUNC GLOBAL DEFAULT UND _ZN7android8hardware7deta
97:   FUNC GLOBAL DEFAULT UND _ZN7android8hardware7deta
98:   FUNC GLOBAL DEFAULT UND _ZN7android8hardware7deta
99:   FUNC GLOBAL DEFAULT UND _ZN7android8hardware7deta
100:   OBJECT GLOBAL DEFAULT UND _ZN7android8hardware7deta
101:   FUNC GLOBAL DEFAULT UND _ZN7android8hardware9BHwB
102:   FUNC GLOBAL DEFAULT UND _ZN7android8hardware9BHwB
103:   FUNC GLOBAL DEFAULT UND _ZN7android8hardware9BHwB
104:   FUNC GLOBAL DEFAULT UND _ZN7android8hardware9BHwB
105:   FUNC GLOBAL DEFAULT UND _ZN7android8hardware9BHwB
106:   FUNC GLOBAL DEFAULT UND _ZN7android8hardware9BHwB
107:   FUNC GLOBAL DEFAULT UND _ZN7android8hardware9BHwB
108:   FUNC GLOBAL DEFAULT UND _ZN7android8hardware9BHwB
109:   FUNC GLOBAL DEFAULT UND _ZN7android8hardware9BHwB
110:   FUNC GLOBAL DEFAULT UND _ZN7android8hardware9BHwB
111:   FUNC GLOBAL DEFAULT UND _ZNK7android7RefBase10cre
112:   FUNC GLOBAL DEFAULT UND _ZNK7android7RefBase11get
113:   FUNC GLOBAL DEFAULT UND _ZNK7android7RefBase9decS
114:   FUNC GLOBAL DEFAULT UND _ZNK7android7RefBase9incS
115:   FUNC GLOBAL DEFAULT UND _ZNK7android8hardware6Par
116:   FUNC GLOBAL DEFAULT UND _ZNK7android8hardware6Par
117:   FUNC GLOBAL DEFAULT UND _ZNK7android8hardware6Par
118:   FUNC GLOBAL DEFAULT UND _ZNK7android8hardware6Par
119:   FUNC GLOBAL DEFAULT UND _ZNK7android8hardware6Par
120:   FUNC GLOBAL DEFAULT UND _ZNK7android8hardware6Par
121:   FUNC GLOBAL DEFAULT UND _ZNK7android8hardware6Par
122:   FUNC GLOBAL DEFAULT UND _ZNK7android8hardware6Par
123:   FUNC GLOBAL DEFAULT UND _ZNK7android8hardware6Par
124:   FUNC GLOBAL DEFAULT UND _ZNK7android8hardware6Par
125:   FUNC GLOBAL DEFAULT UND _ZNK7android8hardware7IBi
126:   FUNC GLOBAL DEFAULT UND _ZNK7android8hardware7det
127:   FUNC GLOBAL DEFAULT UND _ZNK7android8hardware9BHw
128:   FUNC GLOBAL DEFAULT UND _ZNKSt3__120__vector_base
129:   FUNC GLOBAL DEFAULT UND _ZNKSt3__121__basic_strin
130:   FUNC GLOBAL DEFAULT UND _ZNSt3__112basic_stringIc
131:   FUNC GLOBAL DEFAULT UND _ZNSt3__15mutex4lockEv
132:   FUNC GLOBAL DEFAULT UND _ZNSt3__15mutex6unlockEv
133:   FUNC GLOBAL DEFAULT UND _ZNSt3__15mutexD1Ev
134:   FUNC GLOBAL DEFAULT UND _ZTv0_n12_N7android4hidl4
135:   FUNC GLOBAL DEFAULT UND _ZTv0_n12_N7android4hidl4
136:   FUNC GLOBAL DEFAULT UND _ZTv0_n12_N7android8hardw
137:   FUNC GLOBAL DEFAULT UND _ZTv0_n12_N7android8hardw
138:   FUNC GLOBAL DEFAULT UND _ZTv0_n12_N7android8hardw
139:   FUNC GLOBAL DEFAULT UND _ZTv0_n12_N7android8hardw
140:   FUNC GLOBAL DEFAULT UND _ZTv0_n12_N7android8hardw
141:   FUNC GLOBAL DEFAULT UND _ZTv0_n12_N7android8hardw
142:   FUNC GLOBAL DEFAULT UND _ZTv0_n12_N7android8hardw
143:   FUNC GLOBAL DEFAULT UND _ZTv0_n12_N7android8hardw
144:   FUNC GLOBAL DEFAULT UND _ZTv0_n16_N7android8hardw
145:   FUNC GLOBAL DEFAULT UND _ZTv0_n20_N7android8hardw
146:   FUNC GLOBAL DEFAULT UND _ZTv0_n24_N7android8hardw
147:   FUNC GLOBAL DEFAULT UND _ZdaPv
148:   FUNC GLOBAL DEFAULT UND _ZdlPv
149:   FUNC GLOBAL DEFAULT UND _Znaj
150:   FUNC GLOBAL DEFAULT UND _Znwj
151:   FUNC GLOBAL DEFAULT UND __android_log_assert@LIBLOG (3)
152:   FUNC GLOBAL DEFAULT UND __cxa_pure_virtual
153:   FUNC GLOBAL DEFAULT UND __stack_chk_fail@LIBC (2)
154:   OBJECT GLOBAL DEFAULT UND __stack_chk_guard@LIBC (2)
155:   FUNC GLOBAL DEFAULT UND abort@LIBC (2)
156:   FUNC GLOBAL DEFAULT UND atrace_begin_body
157:   OBJECT GLOBAL DEFAULT UND atrace_enabled_tags
158:   FUNC GLOBAL DEFAULT UND atrace_end_body
159:   OBJECT GLOBAL DEFAULT UND atrace_is_ready
160:   FUNC GLOBAL DEFAULT UND atrace_setup
161:   FUNC GLOBAL DEFAULT UND memcmp@LIBC (2)
162:   FUNC GLOBAL DEFAULT UND strlen@LIBC (2)
163:   FUNC GLOBAL DEFAULT UND _ZN7android8hardware6Parc
164:   FUNC GLOBAL DEFAULT UND _ZN7android8hardware7deta
165:   FUNC GLOBAL DEFAULT UND _ZNK7android8hardware6Par
166:   FUNC GLOBAL DEFAULT UND _ZNSt3__112basic_stringIc
167:   FUNC GLOBAL DEFAULT UND memcpy@LIBC (2)
168:   FUNC GLOBAL DEFAULT UND memset@LIBC (2)
169:   FUNC WEAK DEFAULT 14 _ZNSt3__127__tree_balance
170:   OBJECT GLOBAL DEFAULT 18 _ZTCN7android8hardware12r
171:   FUNC GLOBAL DEFAULT 14 _ZTv0_n12_N7android8hardw
172:   FUNC GLOBAL DEFAULT 14 _ZN7android8hardware12ren
173:   FUNC GLOBAL DEFAULT 14 _ZN7android8hardware12ren
174:   FUNC GLOBAL DEFAULT 14 _ZN7android8hardware12ren
175:   OBJECT GLOBAL DEFAULT 18 _ZTCN7android8hardware12r
176:   FUNC GLOBAL DEFAULT 14 _ZN7android8hardware12ren
177:   FUNC GLOBAL DEFAULT 14 _ZN7android8hardware12ren
178:   FUNC GLOBAL DEFAULT 14 _ZN7android8hardware12ren
179:   FUNC GLOBAL DEFAULT 14 _ZN7android8hardware12ren
180:   FUNC GLOBAL DEFAULT 14 _ZN7android8hardware12ren
181:   FUNC GLOBAL DEFAULT 14 _ZN7android8hardware12ren
182:   FUNC GLOBAL DEFAULT 14 _ZN7android8hardware12ren
183:   FUNC WEAK DEFAULT 14 _ZNSt3__16vectorIN7androi
184:   FUNC GLOBAL DEFAULT 14 _ZN7android8hardware12ren
185:   OBJECT WEAK DEFAULT 18 _ZTVN7android8hardware12r
186:   FUNC GLOBAL DEFAULT 14 _ZN7android8hardware12ren
187:   FUNC GLOBAL DEFAULT 14 _ZN7android8hardware12ren
188:   FUNC GLOBAL DEFAULT 14 _ZN7android8hardware12ren
189:   FUNC GLOBAL DEFAULT 14 _ZN7android8hardware12ren
190:   FUNC GLOBAL DEFAULT 14 _ZN7android8hardware12ren
191:   FUNC GLOBAL DEFAULT 14 _ZN7android8hardware12ren
192:   FUNC GLOBAL DEFAULT 14 _ZN7android8hardware12ren
193:   FUNC GLOBAL DEFAULT 14 _ZN7android8hardware12ren
194:   FUNC GLOBAL DEFAULT 14 _ZN7android8hardware12ren
195:   FUNC GLOBAL DEFAULT 14 _ZN7android8hardware12ren
196:   FUNC GLOBAL DEFAULT 14 _ZN7android8hardware12ren
197:   FUNC GLOBAL DEFAULT 14 _ZN7android8hardware12ren
198:   FUNC GLOBAL DEFAULT 14 _ZN7android8hardware12ren
199:   FUNC GLOBAL DEFAULT 14 _ZN7android8hardware12ren
200:   FUNC GLOBAL DEFAULT 14 _ZN7android8hardware12ren
201:   FUNC GLOBAL DEFAULT 14 _ZN7android8hardware12ren
202:   FUNC GLOBAL DEFAULT 14 _ZN7android8hardware12ren
203:   FUNC GLOBAL DEFAULT 14 _ZThn20_N7android8hardwar
204:   FUNC GLOBAL DEFAULT 14 _ZN7android8hardware12ren
205:   FUNC GLOBAL DEFAULT 14 _ZN7android8hardware12ren
206:   FUNC GLOBAL DEFAULT 14 _ZN7android8hardware12ren
207:   FUNC GLOBAL DEFAULT 14 _ZN7android8hardware12ren
208:   FUNC GLOBAL DEFAULT 14 _ZN7android8hardware12ren
209:   FUNC GLOBAL DEFAULT 14 _ZN7android8hardware12ren
210:   FUNC GLOBAL DEFAULT 14 _ZN7android8hardware12ren
211:   FUNC GLOBAL DEFAULT 14 _ZN7android8hardware12ren
212:   FUNC GLOBAL DEFAULT 14 _ZN7android8hardware12ren
213:   FUNC GLOBAL DEFAULT 14 _ZN7android8hardware12ren
214:   FUNC GLOBAL DEFAULT 14 _ZN7android8hardware12ren
215:   FUNC GLOBAL DEFAULT 14 _ZN7android8hardware12ren
216:   FUNC GLOBAL DEFAULT 14 _ZN7android8hardware12ren
217:   FUNC GLOBAL DEFAULT 14 _ZN7android8hardware12ren
218:   FUNC GLOBAL DEFAULT 14 _ZN7android8hardware12ren
219:   FUNC GLOBAL DEFAULT 14 _ZN7android8hardware12ren
220:   FUNC GLOBAL DEFAULT 14 _ZN7android8hardware12ren
221:   FUNC WEAK DEFAULT 14 _ZNSt3__113__tree_removeI
222:   FUNC WEAK DEFAULT 14 _ZNSt3__16__treeINS_12__v
223:   FUNC GLOBAL DEFAULT 14 _ZTv0_n12_N7android8hardw
224:   FUNC GLOBAL DEFAULT 14 _ZN7android8hardware12ren
225:   FUNC GLOBAL DEFAULT 14 _ZN7android8hardware12ren
226:   FUNC WEAK DEFAULT 14 _ZN7android8hardware7deta
227:   FUNC GLOBAL DEFAULT 14 _ZN7android8hardware12ren
228:   FUNC GLOBAL DEFAULT 14 _ZN7android8hardware12ren
229:   FUNC GLOBAL DEFAULT 14 _ZN7android8hardware12ren
230:   FUNC GLOBAL DEFAULT 14 _ZN7android8hardware12ren
231:   FUNC GLOBAL DEFAULT 14 _ZN7android8hardware12ren
232:   FUNC GLOBAL DEFAULT 14 _ZN7android8hardware12ren
233:   FUNC GLOBAL DEFAULT 14 _ZN7android8hardware12ren
234:   FUNC GLOBAL DEFAULT 14 _ZN7android8hardware12ren
235:   FUNC GLOBAL DEFAULT 14 _ZN7android8hardware12ren
236:   FUNC GLOBAL DEFAULT 14 _ZN7android8hardware12ren
237:   FUNC GLOBAL DEFAULT 14 _ZN7android8hardware12ren
238:   OBJECT GLOBAL DEFAULT 16 _ZN7android8hardware12ren
239:   FUNC WEAK DEFAULT 14 _ZNSt3__16__treeINS_12__v
240:   OBJECT GLOBAL DEFAULT 18 _ZTCN7android8hardware12r
241:   FUNC GLOBAL DEFAULT 14 _ZN7android8hardware12ren
242:   FUNC GLOBAL DEFAULT 14 _ZN7android8hardware12ren
243:   FUNC GLOBAL DEFAULT 14 _ZN7android8hardware12ren
244:   FUNC GLOBAL DEFAULT 14 _ZN7android8hardware12ren
245:   FUNC GLOBAL DEFAULT 14 _ZN7android8hardware12ren
246:   FUNC GLOBAL DEFAULT 14 _ZN7android8hardware12ren
247:   FUNC GLOBAL DEFAULT 14 _ZN7android8hardware12ren
248:   FUNC GLOBAL DEFAULT 14 _ZN7android8hardware12ren
249:   FUNC GLOBAL DEFAULT 14 _ZN7android8hardware12ren
250:   OBJECT GLOBAL DEFAULT 18 _ZTTN7android8hardware12r
251:   FUNC GLOBAL DEFAULT 14 __aeabi_memset4
252:   FUNC GLOBAL DEFAULT 14 _ZN7android8hardware12ren
253:   FUNC GLOBAL DEFAULT 14 _ZN7android8hardware12ren
254:   FUNC GLOBAL DEFAULT 14 _ZN7android8hardware12ren
255:   FUNC GLOBAL DEFAULT 14 _ZN7android8hardware12ren
256:   FUNC WEAK DEFAULT 14 _ZN7android8hardware7deta
257:   OBJECT GLOBAL DEFAULT 18 _ZTCN7android8hardware12r
258:   FUNC GLOBAL DEFAULT 14 _ZN7android8hardware12ren
259:   FUNC WEAK DEFAULT 14 _ZNSt3__16__treeINS_12__v
260:   OBJECT GLOBAL DEFAULT 18 _ZTCN7android8hardware12r
261:   FUNC GLOBAL DEFAULT 14 __aeabi_memset8
262:   FUNC GLOBAL DEFAULT 14 _ZN7android8hardware12ren
263:   FUNC GLOBAL DEFAULT 14 _ZN7android8hardware12ren
264:   FUNC GLOBAL DEFAULT 14 _ZN7android8hardware12ren
265:   FUNC GLOBAL DEFAULT 14 _ZN7android8hardware12ren
266:   FUNC GLOBAL DEFAULT 14 _ZN7android8hardware12ren
267:   FUNC GLOBAL DEFAULT 14 _ZN7android8hardware12ren
268:   FUNC GLOBAL DEFAULT 14 _ZN7android8hardware12ren
269:   FUNC GLOBAL DEFAULT 14 _ZN7android8hardware12ren
270:   FUNC GLOBAL DEFAULT 14 _ZN7android8hardware12ren
271:   OBJECT GLOBAL DEFAULT 18 _ZTVN7android8hardware12r
272:   FUNC GLOBAL DEFAULT 14 _ZN7android8hardware12ren
273:   FUNC GLOBAL DEFAULT 14 _ZN7android8hardware12ren
274:   FUNC GLOBAL DEFAULT 14 _ZN7android8hardware12ren
275:   FUNC GLOBAL DEFAULT 14 _ZThn20_N7android8hardwar
276:   FUNC GLOBAL DEFAULT 14 _ZN7android8hardware12ren
277:   FUNC GLOBAL DEFAULT 14 _ZN7android8hardware12ren
278:   FUNC GLOBAL DEFAULT 14 __aeabi_memcpy
279:   FUNC GLOBAL DEFAULT 14 _ZN7android8hardware12ren
280:   OBJECT GLOBAL DEFAULT 18 _ZTVN7android8hardware12r
281:   FUNC GLOBAL DEFAULT 14 _ZN7android8hardware12ren
282:   FUNC GLOBAL DEFAULT 14 _ZN7android8hardware12ren
283:   FUNC GLOBAL DEFAULT 14 _ZN7android8hardware12ren
284:   FUNC GLOBAL DEFAULT 14 _ZN7android8hardware12ren
285:   FUNC GLOBAL DEFAULT 14 _ZN7android8hardware12ren
286:   FUNC GLOBAL DEFAULT 14 _ZN7android8hardware12ren
287:   FUNC GLOBAL DEFAULT 14 _ZN7android8hardware12ren
288:   FUNC GLOBAL DEFAULT 14 _ZN7android8hardware12ren
289:   FUNC GLOBAL DEFAULT 14 _ZN7android8hardware12ren
290:   FUNC GLOBAL DEFAULT 14 _ZN7android8hardware12ren
291:   FUNC GLOBAL DEFAULT 14 _ZN7android8hardware12ren
292:   FUNC GLOBAL DEFAULT 14 _ZN7android8hardware12ren
293:   FUNC WEAK DEFAULT 14 _ZNSt3__16vectorINS_8func
294:   OBJECT GLOBAL DEFAULT 18 _ZTCN7android8hardware12r
295:   FUNC GLOBAL DEFAULT 14 _ZN7android8hardware12ren
296:   FUNC GLOBAL DEFAULT 14 _ZN7android8hardware12ren
297:   FUNC GLOBAL DEFAULT 14 _ZN7android8hardware12ren
298:   FUNC GLOBAL DEFAULT 14 _ZN7android8hardware12ren
299:   FUNC GLOBAL DEFAULT 14 _ZN7android8hardware12ren
300:   FUNC GLOBAL DEFAULT 14 _ZN7android8hardware12ren
301:   OBJECT GLOBAL DEFAULT 18 _ZTCN7android8hardware12r
302:   FUNC GLOBAL DEFAULT 14 _ZN7android8hardware12ren
303:   OBJECT GLOBAL DEFAULT 18 _ZTCN7android8hardware12r
304:   FUNC GLOBAL DEFAULT 14 _ZN7android8hardware12ren
305:   FUNC GLOBAL DEFAULT 14 _ZN7android8hardware12ren
306:   FUNC GLOBAL DEFAULT 14 _ZN7android8hardware12ren
307:   FUNC GLOBAL DEFAULT 14 _ZN7android8hardware12ren
308:   FUNC GLOBAL DEFAULT 14 _ZN7android8hardware12ren
309:   FUNC GLOBAL DEFAULT 14 _ZN7android8hardware12ren
310:   FUNC GLOBAL DEFAULT 14 _ZN7android8hardware12ren
311:   FUNC GLOBAL DEFAULT 14 _ZN7android8hardware12ren
312:   FUNC GLOBAL DEFAULT 14 _ZN7android8hardware12ren
313:   FUNC GLOBAL DEFAULT 14 _ZN7android8hardware12ren
314:   FUNC GLOBAL DEFAULT 14 _ZN7android8hardware12ren
315:   FUNC GLOBAL DEFAULT 14 _ZN7android8hardware12ren
316:   FUNC GLOBAL DEFAULT 14 _ZN7android8hardware12ren
317:   OBJECT GLOBAL DEFAULT 16 _ZN7android8hardware12ren
318:   FUNC GLOBAL DEFAULT 14 _ZN7android8hardware12ren
319:   FUNC GLOBAL DEFAULT 14 _ZN7android8hardware12ren
320:   FUNC GLOBAL DEFAULT 14 _ZN7android8hardware12ren
321:   FUNC GLOBAL DEFAULT 14 _ZN7android8hardware12ren
322:   FUNC GLOBAL DEFAULT 14 _ZN7android8hardware12ren
323:   FUNC GLOBAL DEFAULT 14 _ZN7android8hardware12ren
324:   FUNC GLOBAL DEFAULT 14 _ZN7android8hardware12ren
325:   FUNC GLOBAL DEFAULT 14 _ZN7android8hardware12ren
326:   FUNC GLOBAL DEFAULT 14 _ZN7android8hardware12ren
327:   FUNC GLOBAL DEFAULT 14 _ZN7android8hardware12ren
328:   FUNC GLOBAL DEFAULT 14 _ZN7android8hardware12ren
329:   FUNC WEAK DEFAULT 14 _ZN7android8hardware7deta
330:   FUNC GLOBAL DEFAULT 14 _ZN7android8hardware12ren
331:   FUNC GLOBAL DEFAULT 14 _ZN7android8hardware12ren
332:   FUNC GLOBAL DEFAULT 14 _ZN7android8hardware12ren
333:   FUNC GLOBAL DEFAULT 14 _ZN7android8hardware12ren
334:   FUNC WEAK DEFAULT 14 _ZNSt3__16vectorIPvNS_9al
335:   FUNC WEAK DEFAULT 14 _ZN7android8hardware7deta
336:   FUNC GLOBAL DEFAULT 14 _ZN7android8hardware12ren
337:   FUNC GLOBAL DEFAULT 14 _ZN7android8hardware12ren
338:   FUNC GLOBAL DEFAULT 14 _ZN7android8hardware12ren
339:   FUNC GLOBAL DEFAULT 14 _ZN7android8hardware12ren
340:   FUNC GLOBAL DEFAULT 14 _ZN7android8hardware12ren
341:   FUNC GLOBAL DEFAULT 14 _ZN7android8hardware12ren
342:   FUNC GLOBAL DEFAULT 14 _ZN7android8hardware12ren
343:   FUNC GLOBAL DEFAULT 14 _ZN7android8hardware12ren
344:   FUNC WEAK DEFAULT 14 _ZNSt3__16__treeINS_12__v
345:   OBJECT GLOBAL DEFAULT 18 _ZTCN7android8hardware12r
346:   FUNC GLOBAL DEFAULT 14 __aeabi_memcpy4
347:   FUNC GLOBAL DEFAULT 14 _ZN7android8hardware12ren
348:   FUNC GLOBAL DEFAULT 14 _ZN7android8hardware12ren
349:   OBJECT GLOBAL DEFAULT 18 _ZTCN7android8hardware12r
350:   FUNC GLOBAL DEFAULT 14 _ZN7android8hardware12ren
351:   FUNC GLOBAL DEFAULT 14 _ZN7android8hardware12ren
352:   FUNC GLOBAL DEFAULT 14 _ZN7android8hardware12ren
353:   FUNC GLOBAL DEFAULT 14 _ZN7android8hardware12ren
354:   FUNC GLOBAL DEFAULT 14 _ZN7android8hardware12ren
355:   FUNC GLOBAL DEFAULT 14 _ZN7android8hardware12ren
356:   FUNC GLOBAL DEFAULT 14 _ZN7android8hardware12ren
357:   FUNC GLOBAL DEFAULT 14 __aeabi_memcpy8
358:   FUNC GLOBAL DEFAULT 14 _ZN7android8hardware12ren
359:   FUNC GLOBAL DEFAULT 14 _ZN7android8hardware12ren
360:   FUNC GLOBAL DEFAULT 14 _ZN7android8hardware12ren
361:   FUNC GLOBAL DEFAULT 14 _ZN7android8hardware12ren
362:   FUNC GLOBAL DEFAULT 14 _ZN7android8hardware12ren
363:   FUNC GLOBAL DEFAULT 14 _ZN7android8hardware12ren
364:   FUNC GLOBAL DEFAULT 14 _ZN7android8hardware12ren
365:   FUNC GLOBAL DEFAULT 14 _ZN7android8hardware12ren
366:   FUNC GLOBAL DEFAULT 14 _ZN7android8hardware12ren
367:   FUNC GLOBAL DEFAULT 14 _ZN7android8hardware12ren
368:   OBJECT GLOBAL DEFAULT 18 _ZTTN7android8hardware12r
369:   FUNC GLOBAL DEFAULT 14 _ZN7android8hardware12ren
370:   FUNC GLOBAL DEFAULT 14 _ZN7android8hardware12ren
371:   FUNC GLOBAL DEFAULT 14 _ZN7android8hardware12ren
372:   FUNC GLOBAL DEFAULT 14 _ZN7android8hardware12ren
373:   FUNC GLOBAL DEFAULT 14 _ZN7android8hardware12ren
374:   FUNC GLOBAL DEFAULT 14 _ZN7android8hardware12ren
375:   FUNC WEAK DEFAULT 14 _ZNSt3__16__treeINS_12__v
376:   OBJECT GLOBAL DEFAULT 18 _ZTCN7android8hardware12r
377:   FUNC GLOBAL DEFAULT 14 _ZN7android8hardware12ren
378:   FUNC GLOBAL DEFAULT 14 _ZN7android8hardware12ren
379:   FUNC GLOBAL DEFAULT 14 _ZN7android8hardware12ren
380:   FUNC GLOBAL DEFAULT 14 _ZN7android8hardware12ren
381:   OBJECT GLOBAL DEFAULT 18 _ZTVN7android8hardware12r
382:   FUNC GLOBAL DEFAULT 14 _ZN7android8hardware12ren
383:   FUNC GLOBAL DEFAULT 14 _ZN7android8hardware12ren
384:   FUNC WEAK DEFAULT 14 _ZNSt3__16__treeINS_12__v
385:   FUNC GLOBAL DEFAULT 14 _ZN7android8hardware12ren
386:   FUNC GLOBAL DEFAULT 14 _ZN7android8hardware12ren
387:   FUNC GLOBAL DEFAULT 14 _ZN7android8hardware12ren
388:   FUNC GLOBAL DEFAULT 14 _ZN7android8hardware12ren
389:   FUNC GLOBAL DEFAULT 14 _ZN7android8hardware12ren
390:   FUNC GLOBAL DEFAULT 14 _ZN7android8hardware12ren
391:   FUNC GLOBAL DEFAULT 14 _ZN7android8hardware12ren
392:   OBJECT GLOBAL DEFAULT 18 _ZTTN7android8hardware12r
393:   FUNC GLOBAL DEFAULT 14 _ZTv0_n12_N7android8hardw
394:   FUNC GLOBAL DEFAULT 14 _ZN7android8hardware12ren
395:   FUNC GLOBAL DEFAULT 14 _ZN7android8hardware12ren
396:   FUNC GLOBAL DEFAULT 14 _ZN7android8hardware12ren
397:   FUNC GLOBAL DEFAULT 14 _ZN7android8hardware12ren
398:   FUNC GLOBAL DEFAULT 14 _ZN7android8hardware12ren
399:   FUNC GLOBAL DEFAULT 14 _ZN7android8hardware12ren
400:   FUNC GLOBAL DEFAULT 14 _ZN7android8hardware12ren
401:   OBJECT GLOBAL DEFAULT 18 _ZTCN7android8hardware12r
402:   FUNC GLOBAL DEFAULT 14 _ZN7android8hardware12ren
403:   FUNC GLOBAL DEFAULT 14 _ZN7android8hardware12ren
404:   FUNC GLOBAL DEFAULT 14 _ZN7android8hardware12ren
405:   FUNC GLOBAL DEFAULT 14 _ZN7android8hardware12ren
406:   FUNC GLOBAL DEFAULT 14 _ZN7android8hardware12ren
407:   FUNC WEAK DEFAULT 14 _ZN7android8hardware10fro
408:   FUNC GLOBAL DEFAULT 14 _ZN7android8hardware12ren
409:   FUNC GLOBAL DEFAULT 14 _ZN7android8hardware12ren
410:   FUNC GLOBAL DEFAULT 14 _ZN7android8hardware12ren
411:   FUNC GLOBAL DEFAULT 14 _ZN7android8hardware12ren
412:   FUNC GLOBAL DEFAULT 14 _ZN7android8hardware12ren
413:   FUNC GLOBAL DEFAULT 14 _ZN7android8hardware12ren
414:   FUNC GLOBAL DEFAULT 14 _ZN7android8hardware12ren
415:   FUNC GLOBAL DEFAULT 14 _ZN7android8hardware12ren
416:   FUNC GLOBAL DEFAULT 14 _ZN7android8hardware12ren
417:   FUNC GLOBAL DEFAULT 14 _ZN7android8hardware12ren
418:   FUNC GLOBAL DEFAULT 14 _ZN7android8hardware12ren
419:   FUNC GLOBAL DEFAULT 14 _ZN7android8hardware12ren
420:   FUNC GLOBAL DEFAULT 14 _ZN7android8hardware12ren
421:   OBJECT WEAK DEFAULT 18 _ZTVN7android8hardware12r
422:   FUNC GLOBAL DEFAULT 14 _ZN7android8hardware12ren
423:   OBJECT GLOBAL DEFAULT 18 _ZTCN7android8hardware12r
424:   FUNC GLOBAL DEFAULT 14 __aeabi_memclr4
425:   FUNC GLOBAL DEFAULT 14 _ZN7android8hardware12ren
426:   FUNC GLOBAL DEFAULT 14 _ZN7android8hardware12ren
427:   FUNC GLOBAL DEFAULT 14 _ZN7android8hardware12ren
428:   FUNC GLOBAL DEFAULT 14 _ZN7android8hardware12ren
429:   OBJECT GLOBAL DEFAULT 18 _ZTTN7android8hardware12r
430:   FUNC GLOBAL DEFAULT 14 _ZN7android8hardware12ren
431:   OBJECT GLOBAL DEFAULT 18 _ZTCN7android8hardware12r
432:   FUNC GLOBAL DEFAULT 14 _ZThn20_N7android8hardwar
433:   FUNC GLOBAL DEFAULT 14 _ZN7android8hardware12ren
434:   FUNC GLOBAL DEFAULT 14 _ZN7android8hardware12ren
435:   FUNC GLOBAL DEFAULT 14 _ZN7android8hardware12ren
436:   FUNC GLOBAL DEFAULT 14 _ZN7android8hardware12ren
437:   FUNC GLOBAL DEFAULT 14 _ZN7android8hardware12ren
438:   FUNC GLOBAL DEFAULT 14 _ZN7android8hardware12ren
439:   FUNC GLOBAL DEFAULT 14 _ZN7android8hardware12ren
440:   FUNC GLOBAL DEFAULT 14 _ZN7android8hardware12ren
441:   FUNC GLOBAL DEFAULT 14 _ZN7android8hardware12ren
442:   OBJECT GLOBAL DEFAULT 18 _ZTTN7android8hardware12r
443:   FUNC GLOBAL DEFAULT 14 _ZN7android8hardware12ren
444:   FUNC GLOBAL DEFAULT 14 __aeabi_memclr8
445:   FUNC GLOBAL DEFAULT 14 _ZN7android8hardware12ren
446:   FUNC GLOBAL DEFAULT 14 _ZN7android8hardware12ren
447:   FUNC GLOBAL DEFAULT 14 _ZN7android8hardware12ren
448:   FUNC GLOBAL DEFAULT 14 _ZTv0_n12_N7android8hardw
449:   FUNC GLOBAL DEFAULT 14 __aeabi_memset
450:   FUNC GLOBAL DEFAULT 14 _ZN7android8hardware12ren
451:   FUNC GLOBAL DEFAULT 14 _ZN7android8hardware12ren
452:   FUNC GLOBAL DEFAULT 14 _ZN7android8hardware12ren
453:   FUNC GLOBAL DEFAULT 14 _ZN7android8hardware12ren
454:   FUNC GLOBAL DEFAULT 14 _ZN7android8hardware12ren
455:   FUNC GLOBAL DEFAULT 14 _ZN7android8hardware12ren
456:   FUNC GLOBAL DEFAULT 14 _ZN7android8hardware12ren
457:   FUNC GLOBAL DEFAULT 14 _ZN7android8hardware12ren
458:   FUNC GLOBAL DEFAULT 14 _ZN7android8hardware12ren
459:   FUNC GLOBAL DEFAULT 14 _ZN7android8hardware12ren
460:   FUNC GLOBAL DEFAULT 14 _ZN7android8hardware12ren
461:   FUNC GLOBAL DEFAULT 14 _ZN7android8hardware12ren
462:   OBJECT GLOBAL DEFAULT 18 _ZTCN7android8hardware12r
463:   OBJECT GLOBAL DEFAULT 18 _ZTCN7android8hardware12r
464:   FUNC GLOBAL DEFAULT 14 _ZN7android8hardware12ren
465:   FUNC GLOBAL DEFAULT 14 _ZN7android8hardware12ren
466:   FUNC GLOBAL DEFAULT 14 _ZN7android8hardware12ren
467:   FUNC GLOBAL DEFAULT 14 _ZN7android8hardware12ren
468:   FUNC GLOBAL DEFAULT 14 _ZN7android8hardware12ren
469:   OBJECT GLOBAL DEFAULT 18 _ZTVN7android8hardware12r
470:   FUNC GLOBAL DEFAULT 14 _ZN7android8hardware12ren
471:   FUNC GLOBAL DEFAULT 14 _ZN7android8hardware12ren
472:   FUNC GLOBAL DEFAULT 14 _ZN7android8hardware12ren
473:   FUNC GLOBAL DEFAULT 14 _ZN7android8hardware12ren
474:   FUNC GLOBAL DEFAULT 14 _ZN7android8hardware12ren
475:   OBJECT GLOBAL DEFAULT 18 _ZTVN7android8hardware12r
476:   FUNC GLOBAL DEFAULT 14 _ZN7android8hardware12ren
477:   FUNC GLOBAL DEFAULT 14 _ZN7android8hardware12ren
478:   FUNC GLOBAL DEFAULT 14 _ZN7android8hardware12ren
479:   FUNC GLOBAL DEFAULT 14 _ZN7android8hardware12ren
480:   FUNC GLOBAL DEFAULT 14 __aeabi_memclr
481:   FUNC GLOBAL DEFAULT 14 _ZN7android8hardware12ren
482:   OBJECT GLOBAL DEFAULT 18 _ZTTN7android8hardware12r
483:   FUNC GLOBAL DEFAULT 14 _ZN7android8hardware12ren
484:   FUNC GLOBAL DEFAULT 14 _ZN7android8hardware12ren
485:   FUNC GLOBAL DEFAULT 14 _ZN7android8hardware12ren
486:   FUNC GLOBAL DEFAULT 14 _ZN7android8hardware12ren
487:   FUNC GLOBAL DEFAULT 14 _ZN7android8hardware12ren
488:   FUNC GLOBAL DEFAULT 14 _ZN7android8hardware12ren
489:   FUNC GLOBAL DEFAULT 14 _ZN7android8hardware12ren
490:   FUNC GLOBAL DEFAULT 14 _ZN7android8hardware12ren
491:   FUNC GLOBAL DEFAULT 14 _ZN7android8hardware12ren
492:   FUNC GLOBAL DEFAULT 14 _ZN7android8hardware12ren
493:   FUNC GLOBAL DEFAULT 14 _ZN7android8hardware12ren
494:   FUNC GLOBAL DEFAULT 14 _ZN7android8hardware12ren
495:   FUNC GLOBAL DEFAULT 14 _ZN7android8hardware12ren
496:   FUNC GLOBAL DEFAULT 14 _ZN7android8hardware12ren
497:   FUNC GLOBAL DEFAULT 14 _ZN7android8hardware12ren
498:   FUNC WEAK DEFAULT 14 _ZN7android8hardware7deta
499:   OBJECT WEAK DEFAULT 18 _ZTCN7android8hardware12r
500:   FUNC GLOBAL DEFAULT 14 _ZThn20_N7android8hardwar
501:   FUNC GLOBAL DEFAULT 14 _ZN7android8hardware12ren
502:   FUNC GLOBAL DEFAULT 14 _ZN7android8hardware12ren
503:   FUNC GLOBAL DEFAULT 14 _ZN7android8hardware12ren
504:   FUNC GLOBAL DEFAULT 14 _ZN7android8hardware12ren
505:   FUNC GLOBAL DEFAULT 14 _ZN7android8hardware12ren
506:   FUNC GLOBAL DEFAULT 14 _ZN7android8hardware12ren
507:   FUNC GLOBAL DEFAULT 14 _ZN7android8hardware12ren
508:   FUNC GLOBAL DEFAULT 14 _ZN7android8hardware12ren
509:   FUNC GLOBAL DEFAULT 14 _ZN7android8hardware12ren
510:   FUNC GLOBAL DEFAULT 14 _ZN7android8hardware12ren
511:   FUNC GLOBAL DEFAULT 14 _ZN7android8hardware12ren
512:   FUNC GLOBAL DEFAULT 14 _ZN7android8hardware12ren
513:   FUNC GLOBAL DEFAULT 14 _ZN7android8hardware12ren
514:   FUNC GLOBAL DEFAULT 14 _ZN7android8hardware12ren
515:   FUNC GLOBAL DEFAULT 14 _ZN7android8hardware12ren
516:   FUNC GLOBAL DEFAULT 14 _ZN7android8hardware12ren
517:   FUNC GLOBAL DEFAULT 14 _ZN7android8hardware12ren
518:   FUNC GLOBAL DEFAULT 14 _ZN7android8hardware12ren
519:   FUNC GLOBAL DEFAULT 14 _ZN7android8hardware12ren
520:   FUNC GLOBAL DEFAULT 14 _ZN7android8hardware12ren
521:   FUNC GLOBAL DEFAULT 14 _ZN7android8hardware12ren
522:   FUNC GLOBAL DEFAULT 14 _ZN7android8hardware12ren
523:   OBJECT GLOBAL DEFAULT 18 _ZTCN7android8hardware12r
524:   FUNC GLOBAL DEFAULT 14 _ZN7android8hardware12ren
525:   FUNC GLOBAL DEFAULT 14 _ZN7android8hardware12ren
526:   FUNC GLOBAL DEFAULT 14 _ZN7android8hardware12ren
527:   FUNC GLOBAL DEFAULT 14 _ZN7android8hardware12ren
528:   FUNC GLOBAL DEFAULT 14 _ZN7android8hardware12ren
529:   FUNC GLOBAL DEFAULT 14 _ZN7android8hardware12ren
530:   FUNC GLOBAL DEFAULT 14 _ZN7android8hardware12ren
531:   FUNC GLOBAL DEFAULT 14 _ZN7android8hardware12ren
532:   FUNC GLOBAL DEFAULT 14 _ZN7android8hardware12ren
533:   FUNC GLOBAL DEFAULT 14 _ZN7android8hardware12ren
534:   OBJECT WEAK DEFAULT 18 _ZTCN7android8hardware12r
535:   FUNC GLOBAL DEFAULT 14 _ZN7android8hardware12ren
536:   FUNC GLOBAL DEFAULT 14 _ZN7android8hardware12ren
537:   FUNC GLOBAL DEFAULT 14 _ZN7android8hardware12ren
538:   FUNC GLOBAL DEFAULT 14 _ZN7android8hardware12ren
539:   FUNC GLOBAL DEFAULT 14 _ZN7android8hardware12ren
540:   OBJECT GLOBAL DEFAULT 18 _ZTCN7android8hardware12r
541:   FUNC GLOBAL DEFAULT 14 _ZN7android8hardware12ren
542:   FUNC GLOBAL DEFAULT 14 _ZN7android8hardware12ren
543:   FUNC GLOBAL DEFAULT 14 _ZN7android8hardware12ren
544:   FUNC GLOBAL DEFAULT 14 _ZN7android8hardware12ren
545:   FUNC GLOBAL DEFAULT 14 _ZN7android8hardware12ren
546:   FUNC GLOBAL DEFAULT 14 _ZN7android8hardware12ren
547:   OBJECT GLOBAL DEFAULT 18 _ZTVN7android8hardware12r
