 0x0000000e (SONAME)                     Library soname: [libunwindstack.so]
  
Symbol   contains 857 entries:
Num:   Type Bind Vis Ndx Name
0:   NOTYPE LOCAL DEFAULT UND
1:   FUNC GLOBAL DEFAULT UND __cxa_finalize@LIBC (2)
2:   FUNC GLOBAL DEFAULT UND _ZN7android4base12StringP
3:   FUNC GLOBAL DEFAULT UND _ZNSt3__112basic_stringIc
4:   FUNC GLOBAL DEFAULT UND _ZNSt3__112basic_stringIc
5:   FUNC GLOBAL DEFAULT UND _ZdlPv
6:   FUNC GLOBAL DEFAULT UND _Znwj
7:   FUNC GLOBAL DEFAULT UND __stack_chk_fail@LIBC (2)
8:   OBJECT GLOBAL DEFAULT UND __stack_chk_guard@LIBC (2)
9:   FUNC GLOBAL DEFAULT UND abort@LIBC (2)
10:   FUNC GLOBAL DEFAULT UND _ZN7art_api3dex22LoadLibd
11:   FUNC GLOBAL DEFAULT UND _ZN7art_api3dex7DexFile16
12:   OBJECT GLOBAL DEFAULT UND _ZN7art_api3dex7DexFile22
13:   OBJECT GLOBAL DEFAULT UND _ZN7art_api3dex7DexFile26
14:   OBJECT GLOBAL DEFAULT UND _ZN7art_api3dex7DexFile34
15:   FUNC GLOBAL DEFAULT UND _ZN7art_api3dex7DexFileD2
16:   OBJECT GLOBAL DEFAULT UND _ZN7art_api3dex9DexString
17:   OBJECT GLOBAL DEFAULT UND _ZN7art_api3dex9DexString
18:   OBJECT GLOBAL DEFAULT UND _ZN7art_api3dex9DexString
19:   FUNC GLOBAL DEFAULT UND _ZNKSt3__120__vector_base
20:   FUNC GLOBAL DEFAULT UND _ZNKSt3__121__basic_strin
21:   FUNC GLOBAL DEFAULT UND _ZNSt3__112basic_stringIc
22:   OBJECT GLOBAL DEFAULT UND _ZTVN7art_api3dex7DexFile
23:   FUNC GLOBAL DEFAULT UND __errno@LIBC (2)
24:   FUNC GLOBAL DEFAULT UND __open_2@LIBC (2)
25:   FUNC GLOBAL DEFAULT UND __strlen_chk@LIBC (2)
26:   FUNC WEAK DEFAULT UND android_fdsan_close_with_@LIBC_Q (3)
27:   FUNC WEAK DEFAULT UND android_fdsan_create_owne@LIBC_Q (3)
28:   FUNC WEAK DEFAULT UND android_fdsan_exchange_ow@LIBC_Q (3)
29:   FUNC GLOBAL DEFAULT UND close@LIBC (2)
30:   FUNC GLOBAL DEFAULT UND _ZNSt3__112__next_primeEj
31:   FUNC GLOBAL DEFAULT UND _ZNSt3__119__shared_weak_
32:   FUNC GLOBAL DEFAULT UND _ZNSt3__15mutex4lockEv
33:   FUNC GLOBAL DEFAULT UND _ZNSt3__15mutex6unlockEv
34:   FUNC GLOBAL DEFAULT UND _ZNSt3__15mutexD1Ev
35:   FUNC GLOBAL DEFAULT UND __cxa_pure_virtual
36:   FUNC GLOBAL DEFAULT UND _ZNSt3__112basic_stringIc
37:   FUNC GLOBAL DEFAULT UND _ZNSt3__112basic_stringIc
38:   FUNC GLOBAL DEFAULT UND _ZNSt3__19to_stringEi
39:   FUNC GLOBAL DEFAULT UND _ZNSt3__19to_stringEx
40:   FUNC GLOBAL DEFAULT UND _ZNSt3__19to_stringEy
41:   FUNC GLOBAL DEFAULT UND strlen@LIBC (2)
42:   FUNC GLOBAL DEFAULT UND _ZNSt3__112basic_stringIc
43:   FUNC GLOBAL DEFAULT UND _ZNSt3__112basic_stringIc
44:   FUNC GLOBAL DEFAULT UND _ZNSt3__112basic_stringIc
45:   FUNC GLOBAL DEFAULT UND __android_log_print@LIBLOG (4)
46:   FUNC GLOBAL DEFAULT UND memcmp@LIBC (2)
47:   FUNC GLOBAL DEFAULT UND Crc64GenerateTable
48:   FUNC GLOBAL DEFAULT UND CrcGenerateTable
49:   FUNC GLOBAL DEFAULT UND XzUnpacker_Code
50:   FUNC GLOBAL DEFAULT UND XzUnpacker_Construct
51:   FUNC GLOBAL DEFAULT UND XzUnpacker_Free
52:   FUNC GLOBAL DEFAULT UND XzUnpacker_IsStreamWasFin
53:   FUNC GLOBAL DEFAULT UND _ZNKSt3__112basic_stringI
54:   FUNC GLOBAL DEFAULT UND _ZNSt3__112basic_stringIc
55:   FUNC GLOBAL DEFAULT UND free@LIBC (2)
56:   FUNC GLOBAL DEFAULT UND malloc@LIBC (2)
57:   FUNC GLOBAL DEFAULT UND __gnu_basename@LIBC (2)
58:   FUNC GLOBAL DEFAULT UND __android_log_vprint@LIBLOG (4)
59:   FUNC GLOBAL DEFAULT UND vprintf@LIBC (2)
60:   FUNC GLOBAL DEFAULT UND _ZNKSt3__119__shared_weak
61:   FUNC GLOBAL DEFAULT UND _ZNSt3__119__shared_weak_
62:   FUNC GLOBAL DEFAULT UND _ZN7android4base16ReadFil
63:   FUNC GLOBAL DEFAULT UND isxdigit@LIBC (2)
64:   FUNC GLOBAL DEFAULT UND strchr@LIBC (2)
65:   FUNC GLOBAL DEFAULT UND strncmp@LIBC (2)
66:   FUNC GLOBAL DEFAULT UND strtoull@LIBC (2)
67:   FUNC GLOBAL DEFAULT UND fstat@LIBC (2)
68:   FUNC GLOBAL DEFAULT UND getpagesize@LIBC (2)
69:   FUNC GLOBAL DEFAULT UND getpid@LIBC (2)
70:   FUNC GLOBAL DEFAULT UND mmap@LIBC (2)
71:   FUNC GLOBAL DEFAULT UND munmap@LIBC (2)
72:   FUNC GLOBAL DEFAULT UND process_vm_readv@LIBC (2)
73:   FUNC GLOBAL DEFAULT UND ptrace@LIBC (2)
74:   FUNC GLOBAL DEFAULT UND pthread_rwlock_init@LIBC (2)
75:   FUNC GLOBAL DEFAULT UND pthread_rwlock_rdlock@LIBC (2)
76:   FUNC GLOBAL DEFAULT UND pthread_rwlock_unlock@LIBC (2)
77:   FUNC GLOBAL DEFAULT UND pthread_rwlock_wrlock@LIBC (2)
78:   FUNC GLOBAL DEFAULT UND _ZNSt3__19to_stringEj
79:   FUNC GLOBAL DEFAULT UND _ZN7android4base10StartsW
80:   FUNC GLOBAL DEFAULT UND _ZNKSt3__112basic_stringI
81:   FUNC GLOBAL DEFAULT UND _ZNKSt3__120__vector_base
82:   FUNC GLOBAL DEFAULT UND _ZNSt3__112basic_stringIc
83:   FUNC GLOBAL DEFAULT UND _ZNSt3__112basic_stringIc
84:   FUNC GLOBAL DEFAULT UND _ZNSt3__1plIcNS_11char_tr
85:   FUNC GLOBAL DEFAULT UND __memcpy_chk@LIBC (2)
86:   FUNC GLOBAL DEFAULT UND islower@LIBC (2)
87:   FUNC GLOBAL DEFAULT UND isupper@LIBC (2)
88:   FUNC GLOBAL DEFAULT UND strcmp@LIBC (2)
89:   FUNC GLOBAL DEFAULT UND strtoul@LIBC (2)
90:   FUNC GLOBAL DEFAULT UND memcpy@LIBC (2)
91:   FUNC GLOBAL DEFAULT UND memmove@LIBC (2)
92:   FUNC GLOBAL DEFAULT UND memset@LIBC (2)
93:   FUNC WEAK DEFAULT 14 _ZN11unwindstack8DwarfCfa
94:   FUNC WEAK DEFAULT 14 _ZN11unwindstack8DwarfCfa
95:   FUNC WEAK DEFAULT 14 _ZN11unwindstack21DwarfSe
96:   FUNC GLOBAL DEFAULT 14 _ZN9Demangler6ParseSEPKc
97:   FUNC WEAK DEFAULT 14 _ZNSt3__16vectorIyNS_9all
98:   FUNC WEAK DEFAULT 14 _ZN11unwindstack8DwarfCfa
99:   FUNC GLOBAL DEFAULT 14 _ZN11unwindstack18MemoryF
100:   FUNC WEAK DEFAULT 14 _ZN11unwindstack8DwarfCfa
101:   FUNC GLOBAL DEFAULT 14 _ZN9Demangler6ParseTEPKc
102:   FUNC GLOBAL DEFAULT 14 _ZN11unwindstack8ArmExidx
103:   FUNC GLOBAL DEFAULT 14 _ZN11unwindstack8ArmExidx
104:   FUNC WEAK DEFAULT 14 _ZN11unwindstack7DwarfOpI
105:   OBJECT GLOBAL DEFAULT 18 _ZTVN11unwindstack7RegsAr
106:   OBJECT GLOBAL DEFAULT 12 _ZN11unwindstack12DwarfCf
107:   FUNC GLOBAL DEFAULT 14 _ZN11unwindstack7MapInfo1
108:   FUNC GLOBAL DEFAULT 14 _ZN11unwindstack8RegsMips
109:   FUNC GLOBAL DEFAULT 14 _ZN9Demangler13AppendCurr
110:   FUNC GLOBAL DEFAULT 14 _ZN9Demangler25ParseFunct
111:   FUNC WEAK DEFAULT 14 _ZN11unwindstack8DwarfCfa
112:   FUNC WEAK DEFAULT 14 _ZN11unwindstack16DwarfSe
113:   FUNC WEAK DEFAULT 14 _ZN11unwindstack7DwarfOpI
114:   FUNC GLOBAL DEFAULT 14 _ZN11unwindstack3Elf8GetR
115:   FUNC WEAK DEFAULT 14 _ZNSt3__112__hash_tableIN
116:   FUNC WEAK DEFAULT 14 _ZNSt3__16__sortIRZN11unw
117:   FUNC WEAK DEFAULT 14 _ZN11unwindstack7DwarfOpI
118:   FUNC WEAK DEFAULT 14 _ZN11unwindstack7DwarfOpI
119:   FUNC WEAK DEFAULT 14 _ZN11unwindstack12ElfInte
120:   OBJECT GLOBAL DEFAULT 18 _ZTVN11unwindstack10RegsM
121:   FUNC WEAK DEFAULT 14 _ZN11unwindstack8DwarfCfa
122:   FUNC GLOBAL DEFAULT 14 _ZN11unwindstack12ElfInte
123:   FUNC GLOBAL DEFAULT 14 _ZN11unwindstack15ElfInte
124:   FUNC GLOBAL DEFAULT 14 _ZN11unwindstack12MemoryR
125:   FUNC WEAK DEFAULT 14 _ZN11unwindstack8DwarfCfa
126:   FUNC GLOBAL DEFAULT 14 _ZN11unwindstack3Elf4Init
127:   FUNC GLOBAL DEFAULT 14 _ZN11unwindstack8JitDebug
128:   OBJECT WEAK DEFAULT 18 _ZTVN11unwindstack17DexFi
129:   FUNC WEAK DEFAULT 14 _ZN11unwindstack8DwarfCfa
130:   FUNC WEAK DEFAULT 14 _ZN11unwindstack8DwarfCfa
131:   FUNC WEAK DEFAULT 14 _ZN11unwindstack7DwarfOpI
132:   FUNC WEAK DEFAULT 14 _ZNSt3__16__treeINS_12__v
133:   FUNC WEAK DEFAULT 14 _ZN11unwindstack8DwarfCfa
134:   FUNC WEAK DEFAULT 14 _ZN11unwindstack12ElfInte
135:   FUNC GLOBAL DEFAULT 14 _ZN11unwindstack13LocalUn
136:   FUNC GLOBAL DEFAULT 14 _ZN11unwindstack10RegsMip
137:   FUNC WEAK DEFAULT 14 _ZN11unwindstack7DwarfOpI
138:   FUNC WEAK DEFAULT 14 _ZN11unwindstack7DwarfOpI
139:   FUNC WEAK DEFAULT 14 _ZN11unwindstack7DwarfOpI
140:   FUNC WEAK DEFAULT 14 _ZNSt3__120__shared_ptr_p
141:   FUNC WEAK DEFAULT 14 _ZNSt3__16vectorINS_10uni
142:   FUNC GLOBAL DEFAULT 14 _ZN11unwindstack7RegsX864
143:   FUNC WEAK DEFAULT 14 _ZN11unwindstack19DwarfEh
144:   FUNC GLOBAL DEFAULT 14 _ZN11unwindstack12ElfInte
145:   FUNC GLOBAL DEFAULT 14 _ZN11unwindstack7RegsArm1
146:   FUNC GLOBAL DEFAULT 14 _ZN9Demangler19GetStringF
147:   FUNC GLOBAL DEFAULT 14 _ZN11unwindstack8DexFiles
148:   FUNC WEAK DEFAULT 14 _ZN11unwindstack7DwarfOpI
149:   OBJECT WEAK DEFAULT 18 _ZTVN11unwindstack8ArmExi
150:   FUNC GLOBAL DEFAULT 14 _ZN11unwindstack18MemoryO
151:   FUNC WEAK DEFAULT 14 _ZN11unwindstack8DwarfCfa
152:   OBJECT WEAK DEFAULT 18 _ZN9Demangler7kDTypesE
153:   FUNC WEAK DEFAULT 14 _ZNSt3__16vectorINS_10uni
154:   FUNC WEAK DEFAULT 14 _ZN11unwindstack8DwarfCfa
155:   FUNC WEAK DEFAULT 14 _ZN11unwindstack7DwarfOpI
156:   FUNC WEAK DEFAULT 14 _ZN11unwindstack7DwarfOpI
157:   FUNC WEAK DEFAULT 14 _ZN11unwindstack21DwarfSe
158:   FUNC GLOBAL DEFAULT 14 _ZN11unwindstack3Elf9Cach
159:   FUNC WEAK DEFAULT 14 _ZNSt3__16vectorINS_10uni
160:   FUNC WEAK DEFAULT 14 _ZNSt3__112__hash_tableIN
161:   FUNC WEAK DEFAULT 14 _ZNSt3__16__treeINS_12__v
162:   FUNC GLOBAL DEFAULT 14 _ZN11unwindstack3Elf22Cac
163:   OBJECT WEAK DEFAULT 18 _ZTVNSt3__120__shared_ptr
164:   OBJECT GLOBAL DEFAULT 18 _ZTVN11unwindstack19Memor
165:   FUNC GLOBAL DEFAULT 14 _ZN11unwindstack10RegsX86
166:   OBJECT WEAK DEFAULT 18 _ZN11unwindstack7DwarfOpI
167:   FUNC GLOBAL DEFAULT 14 _ZN11unwindstack8RegsMips
168:   FUNC GLOBAL DEFAULT 14 _ZN11unwindstack8RegsMips
169:   FUNC GLOBAL DEFAULT 14 _ZN11unwindstack10RegsMip
170:   FUNC WEAK DEFAULT 14 _ZN11unwindstack7DwarfOpI
171:   FUNC WEAK DEFAULT 14 _ZN11unwindstack16DwarfSe
172:   FUNC GLOBAL DEFAULT 14 _ZN11unwindstack7RegsArm1
173:   FUNC GLOBAL DEFAULT 14 _ZN11unwindstack8Unwinder
174:   FUNC WEAK DEFAULT 14 _ZN11unwindstack8DwarfCfa
175:   FUNC GLOBAL DEFAULT 14 _ZN9Demangler22ParseTempl
176:   FUNC GLOBAL DEFAULT 14 _ZN11unwindstack8DexFiles
177:   FUNC WEAK DEFAULT 14 _ZN11unwindstack7DwarfOpI
178:   FUNC WEAK DEFAULT 14 _ZN11unwindstack7DwarfOpI
179:   FUNC GLOBAL DEFAULT 14 _ZN11unwindstack7RegsX862
180:   FUNC GLOBAL DEFAULT 14 _ZN9Demangler4SaveERKNSt3
181:   OBJECT WEAK DEFAULT 18 _ZTVN11unwindstack7DwarfO
182:   FUNC WEAK DEFAULT 14 _ZNSt3__1plIcNS_11char_tr
183:   FUNC GLOBAL DEFAULT 14 _ZN11unwindstack19MemoryO
184:   FUNC WEAK DEFAULT 14 _ZN11unwindstack11DwarfMe
185:   FUNC WEAK DEFAULT 14 _ZNSt3__112__hash_tableIN
186:   OBJECT GLOBAL DEFAULT 18 _ZTVN11unwindstack13Memor
187:   FUNC WEAK DEFAULT 14 _ZNSt3__112__hash_tableIN
188:   FUNC WEAK DEFAULT 14 _ZN11unwindstack19DwarfEh
189:   FUNC WEAK DEFAULT 14 _ZN11unwindstack16DwarfSe
190:   FUNC WEAK DEFAULT 14 _ZN11unwindstack7DwarfOpI
191:   FUNC GLOBAL DEFAULT 14 _ZN9Demangler29ParseTempl
192:   OBJECT WEAK DEFAULT 18 _ZN11unwindstack8DwarfCfa
193:   FUNC WEAK DEFAULT 14 _ZN11unwindstack8DwarfCfa
194:   FUNC WEAK DEFAULT 14 _ZN11unwindstack8DwarfCfa
195:   FUNC GLOBAL DEFAULT 14 _ZN11unwindstack6Memory19
196:   FUNC GLOBAL DEFAULT 14 _ZN11unwindstack7RegsArm2
197:   FUNC GLOBAL DEFAULT 14 _ZN11unwindstack8RegsMips
198:   FUNC GLOBAL DEFAULT 14 __aeabi_memset4
199:   FUNC WEAK DEFAULT 14 _ZN11unwindstack8DwarfCfa
200:   FUNC WEAK DEFAULT 14 _ZN11unwindstack19DwarfEh
201:   FUNC WEAK DEFAULT 14 _ZN11unwindstack16DwarfSe
202:   FUNC WEAK DEFAULT 14 _ZNSt3__112__hash_tableIN
203:   FUNC WEAK DEFAULT 14 _ZNSt3__120__shared_ptr_p
204:   FUNC WEAK DEFAULT 14 _ZN11unwindstack7DwarfOpI
205:   FUNC WEAK DEFAULT 14 _ZN11unwindstack21DwarfSe
206:   FUNC WEAK DEFAULT 14 _ZN11unwindstack12ElfInte
207:   FUNC GLOBAL DEFAULT 14 _ZN11unwindstack7RegsX86C
208:   FUNC GLOBAL DEFAULT 14 _ZN11unwindstack10RegsX86
209:   FUNC WEAK DEFAULT 14 _ZN11unwindstack7DwarfOpI
210:   FUNC WEAK DEFAULT 14 _ZN11unwindstack7DwarfOpI
211:   FUNC GLOBAL DEFAULT 14 _ZN11unwindstack6Memory25
212:   OBJECT GLOBAL DEFAULT 18 _ZTVN11unwindstack12Memor
213:   FUNC GLOBAL DEFAULT 14 _ZN11unwindstack10RegsX86
214:   FUNC GLOBAL DEFAULT 14 _ZN9Demangler5ParseEPKcj
215:   FUNC GLOBAL DEFAULT 14 __aeabi_memset8
216:   FUNC GLOBAL DEFAULT 14 _ZN11unwindstack8ArmExidx
217:   FUNC WEAK DEFAULT 14 _ZN11unwindstack7DwarfOpI
218:   FUNC WEAK DEFAULT 14 _ZN11unwindstack7DwarfOpI
219:   OBJECT WEAK DEFAULT 18 _ZTVN11unwindstack16Dwarf
220:   FUNC WEAK DEFAULT 14 _ZNSt3__16vectorINS_12bas
221:   FUNC WEAK DEFAULT 14 _ZN11unwindstack11DwarfMe
222:   FUNC WEAK DEFAULT 14 _ZN11unwindstack7DwarfOpI
223:   FUNC WEAK DEFAULT 14 _ZN11unwindstack12ElfInte
224:   FUNC WEAK DEFAULT 14 _ZN11unwindstack8DwarfCfa
225:   FUNC WEAK DEFAULT 14 _ZNSt3__114__split_buffer
226:   FUNC WEAK DEFAULT 14 _ZN11unwindstack19DwarfEh
227:   FUNC WEAK DEFAULT 14 _ZN11unwindstack11DwarfMe
228:   FUNC WEAK DEFAULT 14 _ZN11unwindstack15DwarfDe
229:   FUNC WEAK DEFAULT 14 _ZNSt3__112__hash_tableIN
230:   FUNC GLOBAL DEFAULT 14 _ZN11unwindstack4Maps4Sor
231:   FUNC GLOBAL DEFAULT 14 _ZN11unwindstack9RegsArm6
232:   FUNC WEAK DEFAULT 14 _ZNSt3__15dequeIN11unwind
233:   FUNC WEAK DEFAULT 14 _ZN11unwindstack7DwarfOpI
234:   FUNC WEAK DEFAULT 14 _ZNSt3__16__treeINS_12__v
235:   FUNC GLOBAL DEFAULT 14 _ZN11unwindstack12MemoryR
236:   FUNC WEAK DEFAULT 14 _ZN11unwindstack8DwarfCfa
237:   FUNC WEAK DEFAULT 14 _ZN11unwindstack7DwarfOpI
238:   FUNC WEAK DEFAULT 14 _ZN11unwindstack12ElfInte
239:   FUNC GLOBAL DEFAULT 14 _ZN11unwindstack7RegsArmC
240:   FUNC GLOBAL DEFAULT 14 _ZN11unwindstack3logEhPKc
241:   FUNC GLOBAL DEFAULT 14 _ZN11unwindstack4Regs18Cr
242:   FUNC WEAK DEFAULT 14 _ZNSt3__1plIcNS_11char_tr
243:   FUNC WEAK DEFAULT 14 _ZN11unwindstack8DwarfCfa
244:   FUNC WEAK DEFAULT 14 _ZN11unwindstack21DwarfSe
245:   OBJECT GLOBAL DEFAULT 18 _ZTVN11unwindstack11Memor
246:   FUNC WEAK DEFAULT 14 _ZNSt3__15dequeIyNS_9allo
247:   FUNC GLOBAL DEFAULT 14 _ZN11unwindstack7MapInfo1
248:   FUNC GLOBAL DEFAULT 14 _ZN11unwindstack6Memory9R
249:   FUNC WEAK DEFAULT 14 _ZN11unwindstack12DwarfEh
250:   FUNC GLOBAL DEFAULT 14 _ZN11unwindstack3Elf17Get
251:   FUNC WEAK DEFAULT 14 _ZNSt3__112__hash_tableIN
252:   OBJECT GLOBAL DEFAULT 18 _ZTVN11unwindstack15ElfIn
253:   FUNC GLOBAL DEFAULT 14 _ZN11unwindstack13MemoryO
254:   FUNC WEAK DEFAULT 14 _ZNSt3__17__sort4IRZN11un
255:   FUNC GLOBAL DEFAULT 14 _ZN9Demangler14AppendArgu
256:   FUNC WEAK DEFAULT 14 _ZNSt3__112__hash_tableIN
257:   FUNC GLOBAL DEFAULT 14 _ZN11unwindstack8JitDebug
258:   FUNC GLOBAL DEFAULT 14 _ZN11unwindstack18MemoryF
259:   FUNC GLOBAL DEFAULT 14 _ZN9Demangler14ParseArgum
260:   FUNC GLOBAL DEFAULT 14 __divmoddi4
261:   FUNC WEAK DEFAULT 14 _ZNSt3__112__deque_baseIN
262:   FUNC WEAK DEFAULT 14 _ZNSt3__114__split_buffer
263:   FUNC GLOBAL DEFAULT 14 _ZN11unwindstack3Elf16Ini
264:   FUNC WEAK DEFAULT 14 _ZNSt3__120__shared_ptr_p
265:   FUNC GLOBAL DEFAULT 14 _ZN11unwindstack10RegsMip
266:   OBJECT WEAK DEFAULT 18 _ZTVN11unwindstack8DwarfC
267:   FUNC WEAK DEFAULT 14 _ZN11unwindstack7DwarfOpI
268:   FUNC GLOBAL DEFAULT 14 _ZN11unwindstack18MemoryF
269:   FUNC WEAK DEFAULT 14 _ZNSt3__112__hash_tableIN
270:   FUNC WEAK DEFAULT 14 _ZN11unwindstack14GetBuil
271:   FUNC GLOBAL DEFAULT 14 _ZN11unwindstack8JitDebug
272:   FUNC WEAK DEFAULT 14 _ZNSt3__120__shared_ptr_e
273:   FUNC WEAK DEFAULT 14 _ZN11unwindstack7DwarfOpI
274:   FUNC WEAK DEFAULT 14 _ZNSt3__114__split_buffer
275:   FUNC GLOBAL DEFAULT 14 _ZN11unwindstack3Elf10IsV
276:   FUNC GLOBAL DEFAULT 14 _ZN11unwindstack9RegsArm6
277:   FUNC WEAK DEFAULT 14 _ZNSt3__114__split_buffer
278:   FUNC WEAK DEFAULT 14 _ZNSt3__16vectorINS_4pair
279:   FUNC GLOBAL DEFAULT 14 _ZN11unwindstack8ArmExidx
280:   FUNC WEAK DEFAULT 14 _ZN11unwindstack7DwarfOpI
281:   FUNC WEAK DEFAULT 14 _ZN11unwindstack21DwarfSe
282:   FUNC GLOBAL DEFAULT 14 _ZN11unwindstack15Unwinde
283:   FUNC GLOBAL DEFAULT 14 __udivmodsi4
284:   FUNC WEAK DEFAULT 14 _ZNSt3__114__split_buffer
285:   FUNC WEAK DEFAULT 14 _ZN11unwindstack8DwarfCfa
286:   OBJECT WEAK DEFAULT 18 _ZTVN11unwindstack19Dwarf
287:   FUNC WEAK DEFAULT 14 _ZNSt3__112__hash_tableIN
288:   FUNC GLOBAL DEFAULT 14 _ZN11unwindstack8JitDebug
289:   FUNC WEAK DEFAULT 14 _ZN11unwindstack8DwarfCfa
290:   FUNC GLOBAL DEFAULT 14 __aeabi_memclr4
291:   OBJECT WEAK DEFAULT 18 _ZN9Demangler7kSTypesE
292:   FUNC GLOBAL DEFAULT 14 _ZN11unwindstack6Global19
293:   FUNC WEAK DEFAULT 14 _ZNSt3__112__hash_tableIN
294:   FUNC WEAK DEFAULT 14 _ZN11unwindstack7DwarfOpI
295:   FUNC WEAK DEFAULT 14 _ZN11unwindstack16DwarfSe
296:   FUNC WEAK DEFAULT 14 _ZNSt3__120__shared_ptr_p
297:   FUNC WEAK DEFAULT 14 _ZNSt3__16vectorINS_12bas
298:   FUNC WEAK DEFAULT 14 _ZN11unwindstack7Symbols9
299:   FUNC WEAK DEFAULT 14 _ZN11unwindstack8DwarfCfa
300:   FUNC WEAK DEFAULT 14 _ZNSt3__15dequeIjNS_9allo
301:   FUNC GLOBAL DEFAULT 14 _ZN11unwindstack15ElfInte
302:   FUNC GLOBAL DEFAULT 14 _ZN11unwindstack10RegsMip
303:   FUNC GLOBAL DEFAULT 14 _ZN11unwindstack10RegsMip
304:   FUNC GLOBAL DEFAULT 14 _ZN11unwindstack8Unwinder
305:   FUNC GLOBAL DEFAULT 14 __aeabi_memcpy4
306:   FUNC WEAK DEFAULT 14 _ZNSt3__114__split_buffer
307:   FUNC GLOBAL DEFAULT 14 __aeabi_memclr8
308:   FUNC WEAK DEFAULT 14 _ZN11unwindstack8DwarfCfa
309:   FUNC WEAK DEFAULT 14 _ZNSt3__112__hash_tableIN
310:   FUNC WEAK DEFAULT 14 _ZN11unwindstack7DwarfOpI
311:   FUNC WEAK DEFAULT 14 _ZNSt3__16vectorIPN11unwi
312:   FUNC GLOBAL DEFAULT 14 _ZN11unwindstack7MapInfo1
313:   FUNC GLOBAL DEFAULT 14 _ZN11unwindstack18MemoryF
314:   FUNC GLOBAL DEFAULT 14 _ZN9Demangler13AppendCurr
315:   OBJECT WEAK DEFAULT 18 _ZN9Demangler6kTypesE
316:   FUNC GLOBAL DEFAULT 14 __aeabi_uidiv
317:   FUNC GLOBAL DEFAULT 14 _ZN11unwindstack8DexFiles
318:   FUNC GLOBAL DEFAULT 14 _ZN11unwindstack3Elf9IsVa
319:   OBJECT WEAK DEFAULT 18 _ZTVN11unwindstack14ElfIn
320:   FUNC GLOBAL DEFAULT 14 _ZN11unwindstack7RegsX866
321:   FUNC WEAK DEFAULT 14 _ZNSt3__112__hash_tableIN
322:   FUNC WEAK DEFAULT 14 _ZN11unwindstack12ElfInte
323:   FUNC WEAK DEFAULT 14 _ZNSt3__112__hash_tableIN
324:   OBJECT WEAK DEFAULT 18 _ZTVN11unwindstack8RegsIm
325:   OBJECT GLOBAL DEFAULT 18 _ZTVN11unwindstack7RegsX8
326:   FUNC GLOBAL DEFAULT 14 __aeabi_memcpy8
327:   FUNC WEAK DEFAULT 14 _ZN11unwindstack8DwarfCfa
328:   FUNC WEAK DEFAULT 14 _ZN11unwindstack7DwarfOpI
329:   FUNC WEAK DEFAULT 14 _ZN11unwindstack7Symbols7
330:   FUNC GLOBAL DEFAULT 14 _ZN11unwindstack7Symbols1
331:   FUNC GLOBAL DEFAULT 14 _ZN11unwindstack3Elf11Cac
332:   FUNC GLOBAL DEFAULT 14 _ZN11unwindstack8DexFiles
333:   FUNC WEAK DEFAULT 14 _ZNSt3__112__hash_tableIN
334:   FUNC WEAK DEFAULT 14 _ZN11unwindstack12ElfInte
335:   FUNC WEAK DEFAULT 14 _ZN11unwindstack12ElfInte
336:   FUNC GLOBAL DEFAULT 14 _ZN11unwindstack8Unwinder
337:   FUNC WEAK DEFAULT 14 _ZNSt3__114__split_buffer
338:   FUNC WEAK DEFAULT 14 _ZN11unwindstack7DwarfOpI
339:   FUNC WEAK DEFAULT 14 _ZN11unwindstack15DwarfDe
340:   FUNC GLOBAL DEFAULT 14 _ZN11unwindstack19MemoryO
341:   FUNC GLOBAL DEFAULT 14 _ZN11unwindstack9RegsArm6
342:   FUNC GLOBAL DEFAULT 14 _ZN11unwindstack7RegsX865
343:   FUNC GLOBAL DEFAULT 14 _ZN11unwindstack10RegsX86
344:   FUNC GLOBAL DEFAULT 14 _ZN11unwindstack10RegsMip
345:   FUNC GLOBAL DEFAULT 14 _ZN9Demangler18ParseCompl
346:   OBJECT GLOBAL DEFAULT 22 _ZN11unwindstack3Elf14cac
347:   FUNC WEAK DEFAULT 14 _ZN11unwindstack16DwarfSe
348:   FUNC WEAK DEFAULT 14 _ZN11unwindstack12ElfInte
349:   FUNC WEAK DEFAULT 14 _ZN11unwindstack12ElfInte
350:   FUNC GLOBAL DEFAULT 14 _ZN11unwindstack3Elf10Inv
351:   OBJECT GLOBAL DEFAULT 18 _ZTVN11unwindstack4MapsE
352:   FUNC GLOBAL DEFAULT 14 _ZN11unwindstack4Regs15Cr
353:   FUNC GLOBAL DEFAULT 14 _ZN9Demangler20AppendOper
354:   FUNC WEAK DEFAULT 14 _ZN11unwindstack8DwarfCfa
355:   FUNC WEAK DEFAULT 14 _ZN11unwindstack7DwarfOpI
356:   FUNC GLOBAL DEFAULT 14 _ZN11unwindstack3Elf10Get
357:   FUNC GLOBAL DEFAULT 14 _ZN11unwindstack8JitDebug
358:   FUNC WEAK DEFAULT 14 _ZN11unwindstack7DwarfOpI
359:   FUNC WEAK DEFAULT 14 _ZN11unwindstack7DwarfOpI
360:   FUNC WEAK DEFAULT 14 _ZN11unwindstack7DwarfOpI
361:   FUNC WEAK DEFAULT 14 _ZN11unwindstack7DwarfOpI
362:   FUNC GLOBAL DEFAULT 14 _ZN11unwindstack7RegsArm1
363:   FUNC GLOBAL DEFAULT 14 _ZN11unwindstack10RegsX86
364:   FUNC WEAK DEFAULT 14 _ZN11unwindstack7DwarfOpI
365:   FUNC WEAK DEFAULT 14 _ZNSt3__112__hash_tableIN
366:   FUNC WEAK DEFAULT 14 _ZN11unwindstack12ElfInte
367:   OBJECT WEAK DEFAULT 18 _ZTVNSt3__120__shared_ptr
368:   FUNC GLOBAL DEFAULT 14 _ZN9Demangler24ParseArgum
369:   FUNC WEAK DEFAULT 14 _ZNSt3__114__split_buffer
370:   FUNC GLOBAL DEFAULT 14 _ZN11unwindstack8DexFiles
371:   FUNC WEAK DEFAULT 14 _ZN11unwindstack7DwarfOpI
372:   FUNC WEAK DEFAULT 14 _ZN11unwindstack8DwarfCfa
373:   FUNC WEAK DEFAULT 14 _ZN11unwindstack16DwarfSe
374:   FUNC WEAK DEFAULT 14 _ZN11unwindstack7DwarfOpI
375:   FUNC WEAK DEFAULT 14 _ZN11unwindstack7DwarfOpI
376:   FUNC WEAK DEFAULT 14 _ZN11unwindstack7DwarfOpI
377:   FUNC GLOBAL DEFAULT 14 _ZN11unwindstack3Elf7GetI
378:   FUNC GLOBAL DEFAULT 14 _ZN11unwindstack12ElfInte
379:   FUNC GLOBAL DEFAULT 14 _ZN11unwindstack10BufferM
380:   FUNC GLOBAL DEFAULT 14 _ZN11unwindstack12MemoryR
381:   FUNC GLOBAL DEFAULT 14 _ZN11unwindstack9RegsArm6
382:   FUNC WEAK DEFAULT 14 _ZNSt3__16vectorIN11unwin
383:   FUNC WEAK DEFAULT 14 _ZN11unwindstack7DwarfOpI
384:   OBJECT GLOBAL DEFAULT 18 _ZTVN11unwindstack12Memor
385:   FUNC GLOBAL DEFAULT 14 _ZN11unwindstack7RegsX862
386:   FUNC GLOBAL DEFAULT 14 _ZN11unwindstack8RegsMips
387:   FUNC GLOBAL DEFAULT 14 _ZN11unwindstack10RegsMip
388:   FUNC WEAK DEFAULT 14 _ZN11unwindstack8DwarfCfa
389:   FUNC WEAK DEFAULT 14 _ZNSt3__112__hash_tableIN
390:   FUNC WEAK DEFAULT 14 _ZN11unwindstack19DwarfEh
391:   FUNC WEAK DEFAULT 14 _ZN11unwindstack7DwarfOpI
392:   FUNC WEAK DEFAULT 14 _ZN11unwindstack8DwarfCfa
393:   FUNC WEAK DEFAULT 14 _ZNSt3__114__split_buffer
394:   FUNC WEAK DEFAULT 14 _ZN11unwindstack7DwarfOpI
395:   FUNC WEAK DEFAULT 14 _ZN11unwindstack21DwarfSe
396:   FUNC GLOBAL DEFAULT 14 _ZN11unwindstack8JitDebug
397:   FUNC GLOBAL DEFAULT 14 _ZN11unwindstack8DexFiles
398:   FUNC GLOBAL DEFAULT 14 _ZN11unwindstack11DwarfMe
399:   FUNC WEAK DEFAULT 14 _ZN11unwindstack7DwarfOpI
400:   FUNC WEAK DEFAULT 14 _ZN11unwindstack7DwarfOpI
401:   FUNC WEAK DEFAULT 14 _ZN11unwindstack7DwarfOpI
402:   FUNC GLOBAL DEFAULT 14 _ZN11unwindstack12ElfInte
403:   FUNC WEAK DEFAULT 14 _ZNSt3__112__hash_tableIN
404:   FUNC GLOBAL DEFAULT 14 _ZN11unwindstack8Unwinder
405:   FUNC WEAK DEFAULT 14 _ZNSt3__114__split_buffer
406:   FUNC WEAK DEFAULT 14 _ZN11unwindstack12DwarfEh
407:   FUNC WEAK DEFAULT 14 _ZNSt3__120__shared_ptr_p
408:   FUNC WEAK DEFAULT 14 _ZNSt3__16vectorIjNS_9all
409:   FUNC WEAK DEFAULT 14 _ZN11unwindstack19DwarfEh
410:   FUNC WEAK DEFAULT 14 _ZN11unwindstack11DwarfMe
411:   FUNC WEAK DEFAULT 14 _ZN11unwindstack7DwarfOpI
412:   FUNC GLOBAL DEFAULT 14 _ZN11unwindstack8JitDebug
413:   FUNC WEAK DEFAULT 14 _ZN11unwindstack7DwarfOpI
414:   FUNC GLOBAL DEFAULT 14 _ZN11unwindstack15ElfInte
415:   FUNC WEAK DEFAULT 14 _ZN11unwindstack7DwarfOpI
416:   FUNC WEAK DEFAULT 14 _ZN11unwindstack16DwarfSe
417:   FUNC WEAK DEFAULT 14 _ZNSt3__112__hash_tableIN
418:   FUNC GLOBAL DEFAULT 14 _ZN11unwindstack7DexFile2
419:   FUNC WEAK DEFAULT 14 _ZN11unwindstack8DwarfCfa
420:   OBJECT WEAK DEFAULT 18 _ZTVN11unwindstack21Dwarf
421:   FUNC GLOBAL DEFAULT 14 _ZN11unwindstack9RegsArm6
422:   FUNC WEAK DEFAULT 14 _ZN11unwindstack7DwarfOpI
423:   FUNC WEAK DEFAULT 14 _ZNSt3__112__hash_tableIN
424:   FUNC GLOBAL DEFAULT 14 _ZN11unwindstack9RegsArm6
425:   FUNC GLOBAL DEFAULT 14 _ZN11unwindstack7RegsX864
426:   FUNC WEAK DEFAULT 14 _ZN11unwindstack16DwarfSe
427:   FUNC WEAK DEFAULT 14 _ZN11unwindstack16DwarfSe
428:   FUNC WEAK DEFAULT 14 _ZNSt3__112__hash_tableIN
429:   FUNC WEAK DEFAULT 14 _ZNSt3__16vectorIN11unwin
430:   FUNC WEAK DEFAULT 14 _ZN11unwindstack8DwarfCfa
431:   FUNC WEAK DEFAULT 14 _ZN11unwindstack8DwarfCfa
432:   FUNC WEAK DEFAULT 14 _ZN11unwindstack8DwarfCfa
433:   FUNC GLOBAL DEFAULT 14 _ZN11unwindstack11DwarfMe
434:   FUNC WEAK DEFAULT 14 _ZN11unwindstack7DwarfOpI
435:   FUNC GLOBAL DEFAULT 14 _ZN11unwindstack12MemoryB
436:   FUNC WEAK DEFAULT 14 _ZN11unwindstack8DwarfCfa
437:   FUNC WEAK DEFAULT 14 _ZN11unwindstack7DwarfOpI
438:   FUNC GLOBAL DEFAULT 14 _ZN11unwindstack3Elf8Cach
439:   FUNC GLOBAL DEFAULT 14 _ZN11unwindstack15ElfInte
440:   FUNC GLOBAL DEFAULT 14 _ZN11unwindstack15ElfInte
441:   FUNC WEAK DEFAULT 14 _ZNSt3__112__hash_tableIN
442:   FUNC WEAK DEFAULT 14 _ZN11unwindstack8DwarfCfa
443:   FUNC WEAK DEFAULT 14 _ZN11unwindstack21DwarfSe
444:   FUNC GLOBAL DEFAULT 14 _ZN11unwindstack13log_to_
445:   FUNC GLOBAL DEFAULT 14 _ZN11unwindstack10RegsX86
446:   FUNC GLOBAL DEFAULT 14 _ZN11unwindstack10RegsX86
447:   FUNC GLOBAL DEFAULT 14 _ZN11unwindstack10RegsMip
448:   FUNC GLOBAL DEFAULT 14 _ZN9Demangler17ParseFunct
449:   FUNC WEAK DEFAULT 14 _ZNSt3__112__hash_tableIN
450:   OBJECT WEAK DEFAULT 18 _ZTVN11unwindstack15Dwarf
451:   FUNC WEAK DEFAULT 14 _ZN11unwindstack7DwarfOpI
452:   FUNC WEAK DEFAULT 14 _ZN11unwindstack8DwarfCfa
453:   FUNC WEAK DEFAULT 14 _ZNSt3__112__hash_tableIN
454:   FUNC WEAK DEFAULT 14 _ZN11unwindstack7DwarfOpI
455:   FUNC WEAK DEFAULT 14 _ZNSt3__16vectorIPKN11unw
456:   OBJECT WEAK DEFAULT 18 _ZTVN11unwindstack12Dwarf
457:   FUNC GLOBAL DEFAULT 14 _ZN11unwindstack7MapInfo6
458:   FUNC GLOBAL DEFAULT 14 _ZN11unwindstack7RegsX86C
459:   FUNC WEAK DEFAULT 14 _ZN11unwindstack8DwarfCfa
460:   FUNC GLOBAL DEFAULT 14 _ZN11unwindstack12DwarfSe
461:   FUNC WEAK DEFAULT 14 _ZN11unwindstack19DwarfEh
462:   FUNC WEAK DEFAULT 14 _ZN11unwindstack12DwarfEh
463:   FUNC WEAK DEFAULT 14 _ZN11unwindstack16DwarfSe
464:   FUNC WEAK DEFAULT 14 _ZNSt3__112__hash_tableIN
465:   FUNC GLOBAL DEFAULT 14 _ZN11unwindstack3Elf15Get
466:   FUNC GLOBAL DEFAULT 14 _ZN11unwindstack3Elf19Ste
467:   OBJECT GLOBAL DEFAULT 18 _ZTVN11unwindstack12Memor
468:   FUNC GLOBAL DEFAULT 14 _ZN11unwindstack18MemoryO
469:   FUNC GLOBAL DEFAULT 14 _ZN9Demangler21ParseFunct
470:   FUNC WEAK DEFAULT 14 _ZN11unwindstack7DwarfOpI
471:   FUNC GLOBAL DEFAULT 14 _ZN11unwindstack3Elf19Get
472:   OBJECT GLOBAL DEFAULT 18 _ZTVN11unwindstack6Memory
473:   FUNC GLOBAL DEFAULT 14 __aeabi_memmove4
474:   FUNC WEAK DEFAULT 14 _ZN11unwindstack16DwarfSe
475:   FUNC WEAK DEFAULT 14 _ZN11unwindstack21DwarfSe
476:   FUNC GLOBAL DEFAULT 14 _ZN11unwindstack7RegsArm6
477:   FUNC WEAK DEFAULT 14 _ZN11unwindstack7DwarfOpI
478:   FUNC WEAK DEFAULT 14 _ZN11unwindstack7DwarfOpI
479:   FUNC GLOBAL DEFAULT 14 __aeabi_memmove8
480:   FUNC WEAK DEFAULT 14 _ZN11unwindstack7DwarfOpI
481:   FUNC GLOBAL DEFAULT 14 _ZN11unwindstack19MemoryO
482:   FUNC WEAK DEFAULT 14 _ZNSt3__15dequeIN9Demangl
483:   FUNC GLOBAL DEFAULT 14 _ZN11unwindstack7RegsArm4
484:   FUNC GLOBAL DEFAULT 14 _ZN11unwindstack8DexFiles
485:   FUNC WEAK DEFAULT 14 _ZN11unwindstack19DwarfEh
486:   OBJECT WEAK DEFAULT 18 _ZTVN11unwindstack12Dwarf
487:   OBJECT WEAK DEFAULT 18 _ZTVN11unwindstack9LocalM
488:   FUNC WEAK DEFAULT 14 _ZNSt3__112__hash_tableIN
489:   FUNC WEAK DEFAULT 14 _ZNSt3__112__hash_tableIN
490:   FUNC GLOBAL DEFAULT 14 _ZN11unwindstack9RegsArm6
491:   OBJECT GLOBAL DEFAULT 18 _ZTVN11unwindstack8DexFil
492:   FUNC GLOBAL DEFAULT 14 __aeabi_uidivmod
493:   FUNC GLOBAL DEFAULT 14 _ZN11unwindstack3Elf17Set
494:   FUNC GLOBAL DEFAULT 14 _ZN11unwindstack8RegsMips
495:   FUNC GLOBAL DEFAULT 14 _ZN11unwindstack8Unwinder
496:   FUNC WEAK DEFAULT 14 _ZN11unwindstack7DwarfOpI
497:   FUNC GLOBAL DEFAULT 14 _ZN11unwindstack7MapInfo1
498:   OBJECT GLOBAL DEFAULT 18 _ZTVN11unwindstack18Memor
499:   FUNC GLOBAL DEFAULT 14 _ZN11unwindstack7RegsX862
500:   FUNC GLOBAL DEFAULT 14 _ZN11unwindstack3Elf8Cach
501:   FUNC GLOBAL DEFAULT 14 _ZN11unwindstack11MemoryR
502:   FUNC GLOBAL DEFAULT 14 _ZN11unwindstack7MapInfoD
503:   FUNC WEAK DEFAULT 14 _ZNSt3__16vectorIN11unwin
504:   FUNC GLOBAL DEFAULT 14 _ZN11unwindstack8RegsMips
505:   FUNC WEAK DEFAULT 14 _ZN11unwindstack8DwarfCfa
506:   FUNC WEAK DEFAULT 14 _ZN11unwindstack16DwarfSe
507:   FUNC WEAK DEFAULT 14 _ZN11unwindstack12ElfInte
508:   FUNC GLOBAL DEFAULT 14 _ZNK11unwindstack18LocalU
509:   FUNC GLOBAL DEFAULT 14 _ZN11unwindstack7SymbolsC
510:   FUNC GLOBAL DEFAULT 14 _ZN11unwindstack8DexFiles
511:   FUNC WEAK DEFAULT 14 _ZN11unwindstack8DwarfCfa
512:   FUNC WEAK DEFAULT 14 _ZNSt3__112__hash_tableIN
513:   FUNC GLOBAL DEFAULT 14 _ZN11unwindstack18MemoryF
514:   FUNC GLOBAL DEFAULT 14 _ZN11unwindstack10RegsX86
515:   FUNC WEAK DEFAULT 14 _ZN11unwindstack8DwarfCfa
516:   FUNC WEAK DEFAULT 14 _ZNSt3__112__hash_tableIN
517:   FUNC WEAK DEFAULT 14 _ZN11unwindstack7DwarfOpI
518:   FUNC GLOBAL DEFAULT 14 _ZN11unwindstack3Elf16Get
519:   FUNC GLOBAL DEFAULT 14 _ZN11unwindstack15ElfInte
520:   FUNC GLOBAL DEFAULT 14 _ZN11unwindstack7RegsArm4
521:   FUNC GLOBAL DEFAULT 14 _ZN11unwindstack9RegsArm6
522:   FUNC GLOBAL DEFAULT 14 _ZN11unwindstack7RegsArm2
523:   FUNC GLOBAL DEFAULT 14 _ZN11unwindstack7RegsX861
524:   OBJECT GLOBAL DEFAULT 18 _ZTVN11unwindstack8RegsMi
525:   FUNC GLOBAL DEFAULT 14 _ZN11unwindstack10RegsMip
526:   FUNC WEAK DEFAULT 14 _ZNSt3__16vectorIM9Demang
527:   OBJECT WEAK DEFAULT 18 _ZTVN11unwindstack15DexFi
528:   FUNC WEAK DEFAULT 14 _ZN11unwindstack8DwarfCfa
529:   FUNC WEAK DEFAULT 14 _ZN11unwindstack7DwarfOpI
530:   FUNC WEAK DEFAULT 14 _ZN11unwindstack12ElfInte
531:   FUNC GLOBAL DEFAULT 14 _ZN11unwindstack8RegsMips
532:   FUNC WEAK DEFAULT 14 _ZN11unwindstack7DwarfOpI
533:   FUNC GLOBAL DEFAULT 14 _ZN11unwindstack3Elf11Get
534:   FUNC GLOBAL DEFAULT 14 __aeabi_memcpy
535:   FUNC WEAK DEFAULT 14 _ZN11unwindstack8DwarfCfa
536:   FUNC WEAK DEFAULT 14 _ZN11unwindstack7DwarfOpI
537:   FUNC WEAK DEFAULT 14 _ZN11unwindstack7DwarfOpI
538:   FUNC WEAK DEFAULT 14 _ZN11unwindstack15DwarfDe
539:   OBJECT GLOBAL DEFAULT 18 _ZTVN11unwindstack8JitDeb
540:   FUNC WEAK DEFAULT 14 _ZNSt3__120__shared_ptr_p
541:   OBJECT GLOBAL DEFAULT 18 _ZTVN11unwindstack11Memor
542:   FUNC WEAK DEFAULT 14 _ZN11unwindstack16DwarfSe
543:   FUNC WEAK DEFAULT 14 _ZN11unwindstack7DwarfOpI
544:   FUNC WEAK DEFAULT 14 _ZN11unwindstack7DwarfOpI
545:   FUNC WEAK DEFAULT 14 _ZN11unwindstack7DwarfOpI
546:   OBJECT GLOBAL DEFAULT 18 _ZTVN11unwindstack10RegsX
547:   FUNC WEAK DEFAULT 14 _ZN11unwindstack8DwarfCfa
548:   FUNC WEAK DEFAULT 14 _ZN11unwindstack8DwarfCfa
549:   FUNC WEAK DEFAULT 14 _ZN11unwindstack7DwarfOpI
550:   FUNC WEAK DEFAULT 14 _ZNSt3__16vectorIPN11unwi
551:   FUNC GLOBAL DEFAULT 14 _ZN11unwindstack10RegsMip
552:   OBJECT WEAK DEFAULT 18 _ZTVN11unwindstack7DwarfO
553:   FUNC GLOBAL DEFAULT 14 _ZN11unwindstack13MemoryO
554:   FUNC GLOBAL DEFAULT 14 _ZN11unwindstack7MapInfo3
555:   FUNC GLOBAL DEFAULT 14 _ZN11unwindstack13LocalUn
556:   FUNC GLOBAL DEFAULT 14 _ZN11unwindstack8DexFiles
557:   FUNC WEAK DEFAULT 14 _ZN11unwindstack7DwarfOpI
558:   FUNC WEAK DEFAULT 14 _ZN11unwindstack12ElfInte
559:   FUNC GLOBAL DEFAULT 14 _ZN11unwindstack17DexFile
560:   FUNC WEAK DEFAULT 14 _ZN11unwindstack7DwarfOpI
561:   FUNC WEAK DEFAULT 14 _ZN11unwindstack8DwarfCfa
562:   FUNC GLOBAL DEFAULT 14 _ZN11unwindstack12DwarfSe
563:   FUNC WEAK DEFAULT 14 _ZNSt3__112__hash_tableIN
564:   FUNC WEAK DEFAULT 14 _ZN11unwindstack7DwarfOpI
565:   FUNC WEAK DEFAULT 14 _ZN11unwindstack14GetBuil
566:   FUNC GLOBAL DEFAULT 14 _ZN11unwindstack15ElfInte
567:   FUNC GLOBAL DEFAULT 14 _ZN11unwindstack8DexFiles
568:   FUNC WEAK DEFAULT 14 _ZNSt3__15dequeIN11unwind
569:   FUNC WEAK DEFAULT 14 _ZN11unwindstack7DwarfOpI
570:   FUNC WEAK DEFAULT 14 _ZN11unwindstack7Symbols7
571:   FUNC GLOBAL DEFAULT 14 _ZN11unwindstack8JitDebug
572:   FUNC WEAK DEFAULT 14 _ZNSt3__15dequeIhNS_9allo
573:   FUNC WEAK DEFAULT 14 _ZN11unwindstack16DwarfSe
574:   FUNC WEAK DEFAULT 14 _ZN11unwindstack7DwarfOpI
575:   FUNC WEAK DEFAULT 14 _ZNSt3__114__split_buffer
576:   FUNC WEAK DEFAULT 14 _ZN11unwindstack7DwarfOpI
577:   FUNC WEAK DEFAULT 14 _ZN11unwindstack7DwarfOpI
578:   FUNC WEAK DEFAULT 14 _ZN11unwindstack12DwarfEh
579:   FUNC GLOBAL DEFAULT 14 _ZN11unwindstack12ElfInte
580:   FUNC GLOBAL DEFAULT 14 _ZN11unwindstack9RegsArm6
581:   FUNC WEAK DEFAULT 14 _ZN11unwindstack7DwarfOpI
582:   FUNC WEAK DEFAULT 14 _ZN11unwindstack7DwarfOpI
583:   FUNC WEAK DEFAULT 14 _ZN11unwindstack7DwarfOpI
584:   FUNC GLOBAL DEFAULT 14 _ZN11unwindstack8RegsMips
585:   FUNC WEAK DEFAULT 14 _ZN11unwindstack7DwarfOpI
586:   FUNC WEAK DEFAULT 14 _ZN11unwindstack16DwarfSe
587:   FUNC WEAK DEFAULT 14 _ZN11unwindstack16DwarfSe
588:   FUNC WEAK DEFAULT 14 _ZN7android8procinfo18Rea
589:   FUNC WEAK DEFAULT 14 _ZNSt3__16vectorIhNS_9all
590:   FUNC GLOBAL DEFAULT 14 _ZN11unwindstack8DexFiles
591:   FUNC WEAK DEFAULT 14 _ZNSt3__16vectorIyNS_9all
592:   FUNC WEAK DEFAULT 14 _ZN11unwindstack8DwarfCfa
593:   FUNC WEAK DEFAULT 14 _ZN11unwindstack8DwarfCfa
594:   FUNC WEAK DEFAULT 14 _ZNSt3__112__hash_tableIN
595:   FUNC WEAK DEFAULT 14 _ZN11unwindstack12ElfInte
596:   FUNC GLOBAL DEFAULT 14 _ZN11unwindstack8DexFiles
597:   FUNC GLOBAL DEFAULT 14 _ZN11unwindstack12ElfInte
598:   FUNC GLOBAL DEFAULT 14 _ZN11unwindstack7MapInfo1
599:   FUNC GLOBAL DEFAULT 14 _ZN11unwindstack4Maps3Add
600:   FUNC WEAK DEFAULT 14 _ZN11unwindstack12ElfInte
601:   FUNC GLOBAL DEFAULT 14 _ZNK11unwindstack10Remote
602:   OBJECT WEAK DEFAULT 18 _ZTVNSt3__120__shared_ptr
603:   FUNC GLOBAL DEFAULT 14 _ZN9Demangler16FindFuncti
604:   FUNC WEAK DEFAULT 14 _ZN11unwindstack8DwarfCfa
605:   FUNC GLOBAL DEFAULT 14 _ZN11unwindstack11DwarfMe
606:   FUNC WEAK DEFAULT 14 _ZN11unwindstack7DwarfOpI
607:   FUNC WEAK DEFAULT 14 _ZN11unwindstack16DwarfSe
608:   FUNC GLOBAL DEFAULT 14 _ZN11unwindstack9RegsArm6
609:   FUNC GLOBAL DEFAULT 14 _ZN11unwindstack10RegsMip
610:   FUNC GLOBAL DEFAULT 14 _ZN11unwindstack7DexFile6
611:   FUNC WEAK DEFAULT 14 _ZN11unwindstack11DwarfMe
612:   FUNC WEAK DEFAULT 14 _ZN11unwindstack16DwarfSe
613:   FUNC WEAK DEFAULT 14 _ZN11unwindstack7DwarfOpI
614:   FUNC GLOBAL DEFAULT 14 _ZN11unwindstack8JitDebug
615:   FUNC WEAK DEFAULT 14 _ZN11unwindstack7DwarfOpI
616:   FUNC WEAK DEFAULT 14 _ZNSt3__112__hash_tableIN
617:   FUNC WEAK DEFAULT 14 _ZNSt3__112__hash_tableIN
618:   OBJECT WEAK DEFAULT 18 _ZTVN11unwindstack16Dwarf
619:   FUNC GLOBAL DEFAULT 14 _ZN11unwindstack11MemoryR
620:   FUNC WEAK DEFAULT 14 _ZN11unwindstack7DwarfOpI
621:   FUNC GLOBAL DEFAULT 14 _ZN11unwindstack7RegsArm1
622:   FUNC WEAK DEFAULT 14 _ZNSt3__114__split_buffer
623:   FUNC WEAK DEFAULT 14 _ZN11unwindstack7DwarfOpI
624:   FUNC GLOBAL DEFAULT 14 _ZN11unwindstack7RegsArm2
625:   FUNC GLOBAL DEFAULT 14 _ZN11unwindstack7RegsX861
626:   OBJECT GLOBAL DEFAULT 22 _ZN11unwindstack3Elf6cach
627:   FUNC GLOBAL DEFAULT 14 _ZN11unwindstack18MemoryF
628:   FUNC GLOBAL DEFAULT 14 _ZN11unwindstack6Memory10
629:   FUNC GLOBAL DEFAULT 14 _ZN11unwindstack4Regs11Cu
630:   FUNC WEAK DEFAULT 14 _ZN11unwindstack8DwarfCfa
631:   OBJECT WEAK DEFAULT 18 _ZTVN11unwindstack8DwarfC
632:   FUNC WEAK DEFAULT 14 _ZN11unwindstack12ElfInte
633:   OBJECT WEAK DEFAULT 18 _ZTVN11unwindstack3ElfE
634:   FUNC GLOBAL DEFAULT 14 __divdi3
635:   OBJECT GLOBAL DEFAULT 18 _ZTVN11unwindstack12ElfIn
636:   FUNC WEAK DEFAULT 14 _ZNSt3__114__split_buffer
637:   FUNC WEAK DEFAULT 14 _ZN11unwindstack8DwarfCfa
638:   FUNC WEAK DEFAULT 14 _ZN11unwindstack19DwarfEh
639:   FUNC WEAK DEFAULT 14 _ZN11unwindstack7DwarfOpI
640:   FUNC GLOBAL DEFAULT 14 _ZN9Demangler20ParseCompl
641:   FUNC GLOBAL DEFAULT 14 _ZN11unwindstack8ArmExidx
642:   FUNC WEAK DEFAULT 14 _ZN11unwindstack8DwarfCfa
643:   FUNC WEAK DEFAULT 14 _ZNSt3__16__treeINS_12__v
644:   FUNC GLOBAL DEFAULT 14 _ZN11unwindstack6Global17
645:   FUNC GLOBAL DEFAULT 14 _ZN11unwindstack6Global7S
646:   FUNC WEAK DEFAULT 14 _ZNSt3__16__treeINS_12__v
647:   FUNC GLOBAL DEFAULT 14 _ZN11unwindstack7RegsX866
648:   FUNC GLOBAL DEFAULT 14 _ZN11unwindstack8RegsMips
649:   FUNC GLOBAL DEFAULT 14 _ZN11unwindstack8DexFiles
650:   FUNC WEAK DEFAULT 14 _ZN11unwindstack19DwarfEh
651:   FUNC WEAK DEFAULT 14 _ZN11unwindstack7DwarfOpI
652:   FUNC WEAK DEFAULT 14 _ZN11unwindstack7DwarfOpI
653:   FUNC WEAK DEFAULT 14 _ZN11unwindstack7DwarfOpI
654:   FUNC GLOBAL DEFAULT 14 _ZN11unwindstack3Elf9GetS
655:   FUNC GLOBAL DEFAULT 14 __udivmoddi4
656:   FUNC GLOBAL DEFAULT 14 _ZN11unwindstack15DexFile
657:   FUNC GLOBAL DEFAULT 14 _ZN11unwindstack11DwarfMe
658:   FUNC WEAK DEFAULT 14 _ZN11unwindstack12ElfInte
659:   FUNC GLOBAL DEFAULT 14 _ZN11unwindstack4Regs9Rem
660:   FUNC WEAK DEFAULT 14 _ZN11unwindstack8DwarfCfa
661:   FUNC WEAK DEFAULT 14 _ZN11unwindstack7DwarfOpI
662:   FUNC WEAK DEFAULT 14 _ZN11unwindstack7DwarfOpI
663:   FUNC WEAK DEFAULT 14 _ZN11unwindstack12ElfInte
664:   FUNC GLOBAL DEFAULT 14 _ZN11unwindstack11MemoryL
665:   FUNC GLOBAL DEFAULT 14 _ZN11unwindstack18MemoryO
666:   FUNC WEAK DEFAULT 14 _ZN11unwindstack8DwarfCfa
667:   FUNC WEAK DEFAULT 14 _ZN11unwindstack16DwarfSe
668:   FUNC GLOBAL DEFAULT 14 _ZN11unwindstack3Elf12Get
669:   OBJECT GLOBAL DEFAULT 18 _ZTVN11unwindstack11Memor
670:   FUNC WEAK DEFAULT 14 _ZNSt3__17__sort4IRZN11un
671:   FUNC WEAK DEFAULT 14 _ZN11unwindstack7DwarfOpI
672:   FUNC WEAK DEFAULT 14 _ZN11unwindstack21DwarfSe
673:   FUNC GLOBAL DEFAULT 14 _ZN11unwindstack3Elf25Cre
674:   FUNC WEAK DEFAULT 14 _ZN11unwindstack7DwarfOpI
675:   FUNC WEAK DEFAULT 14 _ZNSt3__112__hash_tableIN
676:   FUNC WEAK DEFAULT 14 _ZNSt3__120__shared_ptr_e
677:   FUNC GLOBAL DEFAULT 14 _ZN11unwindstack8DexFiles
678:   FUNC WEAK DEFAULT 14 _ZN11unwindstack7DwarfOpI
679:   FUNC WEAK DEFAULT 14 _ZN11unwindstack16DwarfSe
680:   FUNC WEAK DEFAULT 14 _ZNSt3__1plIcNS_11char_tr
681:   FUNC WEAK DEFAULT 14 _ZN11unwindstack19DwarfEh
682:   FUNC WEAK DEFAULT 14 _ZN11unwindstack7DwarfOpI
683:   FUNC WEAK DEFAULT 14 _ZNSt3__112__hash_tableIN
684:   FUNC GLOBAL DEFAULT 14 _ZN11unwindstack18MemoryO
685:   FUNC GLOBAL DEFAULT 14 _ZN11unwindstack7RegsX861
686:   OBJECT WEAK DEFAULT 18 _ZTVN11unwindstack7Symbol
687:   FUNC GLOBAL DEFAULT 14 _ZN11unwindstack8JitDebug
688:   FUNC WEAK DEFAULT 14 _ZN11unwindstack7DwarfOpI
689:   FUNC WEAK DEFAULT 14 _ZN11unwindstack7DwarfOpI
690:   FUNC WEAK DEFAULT 14 _ZN11unwindstack21DwarfSe
691:   OBJECT GLOBAL DEFAULT 22 _ZN11unwindstack3Elf11cac
692:   FUNC WEAK DEFAULT 14 _ZN11unwindstack19DwarfEh
693:   FUNC WEAK DEFAULT 14 _ZN11unwindstack7DwarfOpI
694:   FUNC WEAK DEFAULT 14 _ZN11unwindstack7DwarfOpI
695:   FUNC WEAK DEFAULT 14 _ZN11unwindstack12ElfInte
696:   FUNC GLOBAL DEFAULT 14 _ZN11unwindstack9RegsArm6
697:   FUNC GLOBAL DEFAULT 14 _ZN11unwindstack7RegsX861
698:   OBJECT WEAK DEFAULT 18 _ZTVN11unwindstack19Dwarf
699:   FUNC WEAK DEFAULT 14 _ZN11unwindstack16DwarfSe
700:   FUNC GLOBAL DEFAULT 14 _ZN11unwindstack8RegsMips
701:   FUNC GLOBAL DEFAULT 14 _ZN11unwindstack10RegsMip
702:   FUNC WEAK DEFAULT 14 _ZN11unwindstack8DwarfCfa
703:   FUNC GLOBAL DEFAULT 14 _ZN11unwindstack3Elf10Get
704:   FUNC GLOBAL DEFAULT 14 _ZN11unwindstack13LocalUn
705:   FUNC GLOBAL DEFAULT 14 __aeabi_ldivmod
706:   FUNC GLOBAL DEFAULT 14 _ZN11unwindstack8JitDebug
707:   FUNC GLOBAL DEFAULT 14 _ZN11unwindstack4Maps4Fin
708:   FUNC WEAK DEFAULT 14 _ZN11unwindstack16DwarfSe
709:   FUNC WEAK DEFAULT 14 _ZN11unwindstack7DwarfOpI
710:   FUNC WEAK DEFAULT 14 _ZNSt3__114__split_buffer
711:   FUNC GLOBAL DEFAULT 14 _ZN11unwindstack13LocalUn
712:   FUNC WEAK DEFAULT 14 _ZNSt3__112__hash_tableIN
713:   FUNC GLOBAL DEFAULT 14 _ZN11unwindstack10RegsMip
714:   FUNC WEAK DEFAULT 14 _ZN11unwindstack16DwarfSe
715:   FUNC GLOBAL DEFAULT 14 _ZN11unwindstack10RegsX86
716:   FUNC GLOBAL DEFAULT 14 _ZN11unwindstack10RegsX86
717:   FUNC WEAK DEFAULT 14 _ZNSt3__16vectorIM9Demang
718:   FUNC GLOBAL DEFAULT 14 __udivsi3
719:   FUNC WEAK DEFAULT 14 _ZN11unwindstack8DwarfCfa
720:   FUNC WEAK DEFAULT 14 _ZN11unwindstack7DwarfOpI
721:   FUNC GLOBAL DEFAULT 14 _ZN11unwindstack8JitDebug
722:   OBJECT GLOBAL DEFAULT 18 _ZTVN11unwindstack18Memor
723:   FUNC WEAK DEFAULT 14 _ZN11unwindstack7DwarfOpI
724:   FUNC WEAK DEFAULT 14 _ZN11unwindstack7DwarfOpI
725:   FUNC WEAK DEFAULT 14 _ZN11unwindstack16DwarfSe
726:   FUNC WEAK DEFAULT 14 _ZNSt3__112__hash_tableIN
727:   FUNC GLOBAL DEFAULT 14 _ZN11unwindstack11MemoryR
728:   FUNC GLOBAL DEFAULT 14 _ZN11unwindstack7RegsArm5
729:   FUNC WEAK DEFAULT 14 _ZN11unwindstack11DwarfMe
730:   FUNC WEAK DEFAULT 14 _ZN11unwindstack7DwarfOpI
731:   FUNC WEAK DEFAULT 14 _ZNSt3__16vectorIcNS_9all
732:   FUNC GLOBAL DEFAULT 14 _ZN11unwindstack9RegsArm6
733:   OBJECT WEAK DEFAULT 18 _ZTVN11unwindstack8RegsIm
734:   FUNC WEAK DEFAULT 14 _ZN11unwindstack8DwarfCfa
735:   FUNC GLOBAL DEFAULT 14 _ZN11unwindstack7MapInfoD
736:   FUNC GLOBAL DEFAULT 14 _ZN11unwindstack8RegsMips
737:   FUNC GLOBAL DEFAULT 14 __aeabi_memmove
738:   FUNC WEAK DEFAULT 14 _ZN11unwindstack8DwarfCfa
739:   FUNC GLOBAL DEFAULT 14 __aeabi_memclr
740:   FUNC WEAK DEFAULT 14 _ZN11unwindstack8DwarfCfa
741:   FUNC WEAK DEFAULT 14 _ZNSt3__16vectorIPKN11unw
742:   OBJECT WEAK DEFAULT 18 _ZTVN11unwindstack11Dwarf
743:   FUNC GLOBAL DEFAULT 14 _ZN11unwindstack18LocalUp
744:   FUNC GLOBAL DEFAULT 14 _ZN11unwindstack11MemoryC
745:   FUNC GLOBAL DEFAULT 14 _ZN11unwindstack8DexFiles
746:   FUNC WEAK DEFAULT 14 _ZNSt3__112__hash_tableIN
747:   OBJECT WEAK DEFAULT 18 _ZN11unwindstack7DwarfOpI
748:   OBJECT WEAK DEFAULT 18 _ZTVN11unwindstack14ElfIn
749:   OBJECT WEAK DEFAULT 18 _ZTVNSt3__120__shared_ptr
750:   FUNC GLOBAL DEFAULT 14 _ZN11unwindstack8Unwinder
751:   FUNC WEAK DEFAULT 14 _ZNSt3__127__insertion_so
752:   FUNC WEAK DEFAULT 14 _ZNSt3__114__split_buffer
753:   FUNC WEAK DEFAULT 14 _ZNSt3__112__hash_tableIN
754:   FUNC GLOBAL DEFAULT 14 _ZN11unwindstack10RegsX86
755:   FUNC GLOBAL DEFAULT 14 _ZN11unwindstack10RegsX86
756:   FUNC GLOBAL DEFAULT 14 _ZN11unwindstack10RegsX86
757:   FUNC WEAK DEFAULT 14 _ZN11unwindstack21DwarfSe
758:   FUNC GLOBAL DEFAULT 14 _ZN11unwindstack8RegsMips
759:   FUNC GLOBAL DEFAULT 14 _Z8demanglePKc
760:   OBJECT WEAK DEFAULT 18 _ZN11unwindstack8DwarfCfa
761:   FUNC WEAK DEFAULT 14 _ZN11unwindstack7DwarfOpI
762:   FUNC GLOBAL DEFAULT 14 _ZN11unwindstack10RegsMip
763:   FUNC WEAK DEFAULT 14 _ZNSt3__114__split_buffer
764:   FUNC GLOBAL DEFAULT 14 _ZN11unwindstack4Maps5Par
765:   FUNC GLOBAL DEFAULT 14 _ZN11unwindstack9RegsArm6
766:   FUNC WEAK DEFAULT 14 _ZNSt3__16__sortIRZN11unw
767:   FUNC GLOBAL DEFAULT 14 __aeabi_memset
768:   FUNC WEAK DEFAULT 14 _ZNSt3__114__split_buffer
769:   FUNC GLOBAL DEFAULT 14 _ZN11unwindstack3Elf4Step
770:   FUNC WEAK DEFAULT 14 _ZNSt3__112__hash_tableIN
771:   FUNC WEAK DEFAULT 14 _ZN11unwindstack8DwarfCfa
772:   FUNC WEAK DEFAULT 14 _ZN11unwindstack8DwarfCfa
773:   FUNC WEAK DEFAULT 14 _ZN11unwindstack21DwarfSe
774:   FUNC GLOBAL DEFAULT 14 _ZN11unwindstack7RegsArmC
775:   OBJECT GLOBAL DEFAULT 18 _ZTVN11unwindstack9RegsAr
776:   FUNC GLOBAL DEFAULT 14 _ZN11unwindstack10RegsX86
777:   OBJECT WEAK DEFAULT 18 _ZTVN11unwindstack6Global
778:   FUNC WEAK DEFAULT 14 _ZN11unwindstack8DwarfCfa
779:   FUNC WEAK DEFAULT 14 _ZN11unwindstack7DwarfOpI
780:   FUNC WEAK DEFAULT 14 _ZN11unwindstack7DwarfOpI
781:   FUNC WEAK DEFAULT 14 _ZN11unwindstack7DwarfOpI
782:   FUNC WEAK DEFAULT 14 _ZN11unwindstack12ElfInte
783:   FUNC GLOBAL DEFAULT 14 _ZN11unwindstack8JitDebug
784:   FUNC WEAK DEFAULT 14 _ZN11unwindstack19DwarfEh
785:   FUNC WEAK DEFAULT 14 _ZN11unwindstack7DwarfOpI
786:   FUNC GLOBAL DEFAULT 14 _ZN9Demangler18GetArgumen
787:   FUNC GLOBAL DEFAULT 14 _ZN9Demangler20ParseTempl
788:   FUNC WEAK DEFAULT 14 _ZNSt3__112__deque_baseIN
789:   FUNC WEAK DEFAULT 14 _ZNSt3__114__split_buffer
790:   FUNC WEAK DEFAULT 14 _ZN11unwindstack12ElfInte
791:   FUNC WEAK DEFAULT 14 _ZNSt3__112__hash_tableIN
792:   FUNC WEAK DEFAULT 14 _ZNSt3__16vectorIN11unwin
793:   FUNC WEAK DEFAULT 14 _ZNSt3__127__tree_balance
794:   FUNC WEAK DEFAULT 14 _ZNSt3__112__hash_tableIN
795:   FUNC GLOBAL DEFAULT 14 _ZN11unwindstack19MemoryO
796:   FUNC WEAK DEFAULT 14 _ZNSt3__114__split_buffer
797:   FUNC WEAK DEFAULT 14 _ZNSt3__112__hash_tableIN
798:   FUNC GLOBAL DEFAULT 14 _ZN11unwindstack12MemoryB
799:   FUNC GLOBAL DEFAULT 14 _ZN11unwindstack7SymbolsC
800:   OBJECT GLOBAL DEFAULT 18 _ZTVN11unwindstack18Local
801:   FUNC GLOBAL DEFAULT 14 _ZN11unwindstack7RegsArm6
802:   FUNC GLOBAL DEFAULT 14 _ZN11unwindstack8DexFiles
803:   FUNC WEAK DEFAULT 14 _ZNSt3__112__hash_tableIN
804:   OBJECT WEAK DEFAULT 18 _ZTVN11unwindstack15Dwarf
805:   FUNC GLOBAL DEFAULT 14 _ZN11unwindstack8JitDebug
806:   FUNC GLOBAL DEFAULT 14 _ZN11unwindstack8Unwinder
807:   FUNC WEAK DEFAULT 14 _ZN11unwindstack15DwarfDe
808:   OBJECT WEAK DEFAULT 18 _ZTVNSt3__120__shared_ptr
809:   FUNC GLOBAL DEFAULT 14 _ZN11unwindstack10RegsX86
810:   FUNC GLOBAL DEFAULT 14 _ZN9Demangler30ParseFunct
811:   FUNC GLOBAL DEFAULT 14 _ZN11unwindstack6GlobalC2
812:   FUNC WEAK DEFAULT 14 _ZNSt3__16vectorINS_12bas
813:   OBJECT WEAK DEFAULT 18 _ZTVN11unwindstack21Dwarf
814:   FUNC WEAK DEFAULT 14 _ZNSt3__127__insertion_so
815:   FUNC GLOBAL DEFAULT 14 _ZN9Demangler16FinalizeTe
816:   FUNC WEAK DEFAULT 14 _ZN11unwindstack8DwarfCfa
817:   FUNC WEAK DEFAULT 14 _ZN11unwindstack11DwarfMe
818:   FUNC WEAK DEFAULT 14 _ZNSt3__120__shared_ptr_p
819:   FUNC WEAK DEFAULT 14 _ZN11unwindstack8DwarfCfa
820:   FUNC WEAK DEFAULT 14 _ZN11unwindstack7DwarfOpI
821:   FUNC WEAK DEFAULT 14 _ZNSt3__112__hash_tableIN
822:   FUNC GLOBAL DEFAULT 14 _ZN11unwindstack7RegsX861
823:   FUNC GLOBAL DEFAULT 14 _ZN11unwindstack9RegsArm6
824:   FUNC WEAK DEFAULT 14 _ZN11unwindstack8DwarfCfa
825:   FUNC WEAK DEFAULT 14 _ZN11unwindstack8DwarfCfa
826:   FUNC WEAK DEFAULT 14 _ZN11unwindstack7DwarfOpI
827:   FUNC WEAK DEFAULT 14 _ZN11unwindstack8DwarfCfa
828:   FUNC WEAK DEFAULT 14 _ZN11unwindstack8DwarfCfa
829:   FUNC WEAK DEFAULT 14 _ZN11unwindstack7DwarfOpI
830:   FUNC GLOBAL DEFAULT 14 _ZN11unwindstack8RegsMips
831:   FUNC GLOBAL DEFAULT 14 _ZN11unwindstack6GlobalC2
832:   FUNC GLOBAL DEFAULT 14 _ZN11unwindstack8DexFiles
833:   FUNC WEAK DEFAULT 14 _ZNSt3__112__hash_tableIN
834:   FUNC WEAK DEFAULT 14 _ZN11unwindstack8DwarfCfa
835:   FUNC GLOBAL DEFAULT 14 __aeabi_uldivmod
836:   FUNC GLOBAL DEFAULT 14 _ZN11unwindstack7MapInfo1
837:   OBJECT GLOBAL DEFAULT 18 _ZTVN11unwindstack10Buffe
838:   FUNC WEAK DEFAULT 14 _ZN11unwindstack11DwarfMe
839:   FUNC WEAK DEFAULT 14 _ZN11unwindstack19DwarfEh
840:   FUNC WEAK DEFAULT 14 _ZN11unwindstack7DwarfOpI
841:   FUNC WEAK DEFAULT 14 _ZN11unwindstack16DwarfSe
842:   FUNC WEAK DEFAULT 14 _ZNSt3__120__shared_ptr_p
843:   FUNC WEAK DEFAULT 14 _ZNSt3__114__split_buffer
844:   OBJECT WEAK DEFAULT 18 _ZTVN11unwindstack12Dwarf
845:   FUNC WEAK DEFAULT 14 _ZN11unwindstack7Symbols9
846:   FUNC GLOBAL DEFAULT 14 _ZN11unwindstack8JitDebug
847:   FUNC WEAK DEFAULT 14 _ZN11unwindstack8DwarfCfa
848:   FUNC WEAK DEFAULT 14 _ZNSt3__15dequeIN11unwind
849:   FUNC WEAK DEFAULT 14 _ZNSt3__112__hash_tableIN
850:   OBJECT GLOBAL DEFAULT 18 _ZTVN11unwindstack10Remot
851:   FUNC WEAK DEFAULT 14 _ZNSt3__16vectorINS_12bas
852:   FUNC WEAK DEFAULT 14 _ZN11unwindstack7DwarfOpI
853:   FUNC GLOBAL DEFAULT 14 _ZN11unwindstack8JitDebug
854:   FUNC WEAK DEFAULT 14 _ZN11unwindstack7DwarfOpI
855:   FUNC WEAK DEFAULT 14 _ZN11unwindstack7DwarfOpI
856:   FUNC WEAK DEFAULT 14 _ZN11unwindstack7DwarfOpI
