 0x0000000e (SONAME)                     Library soname: [android.hardware.graphics.mapper@3.0.so]
  
Symbol   contains 271 entries:
Num:   Type Bind Vis Ndx Name
0:   NOTYPE LOCAL DEFAULT UND
1:   FUNC GLOBAL DEFAULT UND __cxa_finalize@LIBC (2)
2:   FUNC GLOBAL DEFAULT UND _ZN7android14sp_report_ra
3:   FUNC GLOBAL DEFAULT UND _ZN7android21report_syspr
4:   OBJECT GLOBAL DEFAULT UND _ZN7android4hidl4base4V1_
5:   FUNC GLOBAL DEFAULT UND _ZN7android4hidl4base4V1_
6:   FUNC GLOBAL DEFAULT UND _ZN7android4hidl4base4V1_
7:   FUNC GLOBAL DEFAULT UND _ZN7android4hidl4base4V1_
8:   FUNC GLOBAL DEFAULT UND _ZN7android4hidl4base4V1_
9:   FUNC GLOBAL DEFAULT UND _ZN7android4hidl4base4V1_
10:   FUNC GLOBAL DEFAULT UND _ZN7android4hidl4base4V1_
11:   FUNC GLOBAL DEFAULT UND _ZN7android4hidl4base4V1_
12:   FUNC GLOBAL DEFAULT UND _ZN7android4hidl4base4V1_
13:   FUNC GLOBAL DEFAULT UND _ZN7android4hidl4base4V1_
14:   FUNC GLOBAL DEFAULT UND _ZN7android4hidl4base4V1_
15:   FUNC GLOBAL DEFAULT UND _ZN7android4hidl4base4V1_
16:   FUNC GLOBAL DEFAULT UND _ZN7android4hidl4base4V1_
17:   FUNC GLOBAL DEFAULT UND _ZN7android4hidl4base4V1_
18:   FUNC GLOBAL DEFAULT UND _ZN7android4hidl4base4V1_
19:   FUNC GLOBAL DEFAULT UND _ZN7android4hidl4base4V1_
20:   FUNC GLOBAL DEFAULT UND _ZN7android4hidl4base4V1_
21:   FUNC GLOBAL DEFAULT UND _ZN7android4hidl4base4V1_
22:   FUNC GLOBAL DEFAULT UND _ZN7android4hidl4base4V1_
23:   FUNC GLOBAL DEFAULT UND _ZN7android4hidl4base4V1_
24:   FUNC GLOBAL DEFAULT UND _ZN7android4hidl4base4V1_
25:   FUNC GLOBAL DEFAULT UND _ZN7android4hidl4base4V1_
26:   FUNC GLOBAL DEFAULT UND _ZN7android4hidl4base4V1_
27:   FUNC GLOBAL DEFAULT UND _ZN7android4hidl4base4V1_
28:   FUNC GLOBAL DEFAULT UND _ZN7android7RefBase10onFi
29:   FUNC GLOBAL DEFAULT UND _ZN7android7RefBase12weak
30:   FUNC GLOBAL DEFAULT UND _ZN7android7RefBase13onLa
31:   FUNC GLOBAL DEFAULT UND _ZN7android7RefBase15onLa
32:   FUNC GLOBAL DEFAULT UND _ZN7android7RefBase20onIn
33:   FUNC GLOBAL DEFAULT UND _ZN7android7RefBaseC2Ev
34:   FUNC GLOBAL DEFAULT UND _ZN7android7RefBaseD2Ev
35:   FUNC GLOBAL DEFAULT UND _ZN7android8hardware10IIn
36:   FUNC GLOBAL DEFAULT UND _ZN7android8hardware10IIn
37:   FUNC GLOBAL DEFAULT UND _ZN7android8hardware10IIn
38:   FUNC GLOBAL DEFAULT UND _ZN7android8hardware10IIn
39:   FUNC GLOBAL DEFAULT UND _ZN7android8hardware10IIn
40:   FUNC GLOBAL DEFAULT UND _ZN7android8hardware11BpH
41:   FUNC GLOBAL DEFAULT UND _ZN7android8hardware11BpH
42:   FUNC GLOBAL DEFAULT UND _ZN7android8hardware11BpH
43:   FUNC GLOBAL DEFAULT UND _ZN7android8hardware11BpH
44:   FUNC GLOBAL DEFAULT UND _ZN7android8hardware11BpH
45:   FUNC GLOBAL DEFAULT UND _ZN7android8hardware11BpH
46:   FUNC GLOBAL DEFAULT UND _ZN7android8hardware11BpH
47:   FUNC GLOBAL DEFAULT UND _ZN7android8hardware11hid
48:   FUNC GLOBAL DEFAULT UND _ZN7android8hardware11hid
49:   FUNC GLOBAL DEFAULT UND _ZN7android8hardware11hid
50:   FUNC GLOBAL DEFAULT UND _ZN7android8hardware11hid
51:   FUNC GLOBAL DEFAULT UND _ZN7android8hardware11hid
52:   FUNC GLOBAL DEFAULT UND _ZN7android8hardware11hid
53:   FUNC GLOBAL DEFAULT UND _ZN7android8hardware11hid
54:   FUNC GLOBAL DEFAULT UND _ZN7android8hardware11hid
55:   FUNC GLOBAL DEFAULT UND _ZN7android8hardware12Pro
56:   FUNC GLOBAL DEFAULT UND _ZN7android8hardware12Pro
57:   FUNC GLOBAL DEFAULT UND _ZN7android8hardware13wri
58:   FUNC GLOBAL DEFAULT UND _ZN7android8hardware14rea
59:   FUNC GLOBAL DEFAULT UND _ZN7android8hardware21def
60:   FUNC GLOBAL DEFAULT UND _ZN7android8hardware23get
61:   FUNC GLOBAL DEFAULT UND _ZN7android8hardware27hid
62:   FUNC GLOBAL DEFAULT UND _ZN7android8hardware27hid
63:   FUNC GLOBAL DEFAULT UND _ZN7android8hardware6Parc
64:   FUNC GLOBAL DEFAULT UND _ZN7android8hardware6Parc
65:   FUNC GLOBAL DEFAULT UND _ZN7android8hardware6Parc
66:   FUNC GLOBAL DEFAULT UND _ZN7android8hardware6Parc
67:   FUNC GLOBAL DEFAULT UND _ZN7android8hardware6Parc
68:   FUNC GLOBAL DEFAULT UND _ZN7android8hardware6Parc
69:   FUNC GLOBAL DEFAULT UND _ZN7android8hardware6Parc
70:   FUNC GLOBAL DEFAULT UND _ZN7android8hardware6Parc
71:   FUNC GLOBAL DEFAULT UND _ZN7android8hardware6Stat
72:   FUNC GLOBAL DEFAULT UND _ZN7android8hardware6Stat
73:   FUNC GLOBAL DEFAULT UND _ZN7android8hardware6Stat
74:   FUNC GLOBAL DEFAULT UND _ZN7android8hardware6Stat
75:   FUNC GLOBAL DEFAULT UND _ZN7android8hardware7IBin
76:   FUNC GLOBAL DEFAULT UND _ZN7android8hardware7IBin
77:   FUNC GLOBAL DEFAULT UND _ZN7android8hardware7IBin
78:   FUNC GLOBAL DEFAULT UND _ZN7android8hardware7IBin
79:   FUNC GLOBAL DEFAULT UND _ZN7android8hardware7deta
80:   FUNC GLOBAL DEFAULT UND _ZN7android8hardware7deta
81:   FUNC GLOBAL DEFAULT UND _ZN7android8hardware7deta
82:   FUNC GLOBAL DEFAULT UND _ZN7android8hardware7deta
83:   FUNC GLOBAL DEFAULT UND _ZN7android8hardware7deta
84:   FUNC GLOBAL DEFAULT UND _ZN7android8hardware7deta
85:   FUNC GLOBAL DEFAULT UND _ZN7android8hardware7deta
86:   OBJECT GLOBAL DEFAULT UND _ZN7android8hardware7deta
87:   OBJECT GLOBAL DEFAULT UND _ZN7android8hardware7deta
88:   FUNC GLOBAL DEFAULT UND _ZN7android8hardware7deta
89:   FUNC GLOBAL DEFAULT UND _ZN7android8hardware7deta
90:   FUNC GLOBAL DEFAULT UND _ZN7android8hardware7deta
91:   FUNC GLOBAL DEFAULT UND _ZN7android8hardware7deta
92:   FUNC GLOBAL DEFAULT UND _ZN7android8hardware7deta
93:   FUNC GLOBAL DEFAULT UND _ZN7android8hardware7deta
94:   FUNC GLOBAL DEFAULT UND _ZN7android8hardware7deta
95:   FUNC GLOBAL DEFAULT UND _ZN7android8hardware7deta
96:   FUNC GLOBAL DEFAULT UND _ZN7android8hardware7deta
97:   OBJECT GLOBAL DEFAULT UND _ZN7android8hardware7deta
98:   FUNC GLOBAL DEFAULT UND _ZN7android8hardware9BHwB
99:   FUNC GLOBAL DEFAULT UND _ZN7android8hardware9BHwB
100:   FUNC GLOBAL DEFAULT UND _ZN7android8hardware9BHwB
101:   FUNC GLOBAL DEFAULT UND _ZN7android8hardware9BHwB
102:   FUNC GLOBAL DEFAULT UND _ZN7android8hardware9BHwB
103:   FUNC GLOBAL DEFAULT UND _ZN7android8hardware9BHwB
104:   FUNC GLOBAL DEFAULT UND _ZN7android8hardware9BHwB
105:   FUNC GLOBAL DEFAULT UND _ZN7android8hardware9BHwB
106:   FUNC GLOBAL DEFAULT UND _ZN7android8hardware9BHwB
107:   FUNC GLOBAL DEFAULT UND _ZN7android8hardware9BHwB
108:   FUNC GLOBAL DEFAULT UND _ZNK7android7RefBase10cre
109:   FUNC GLOBAL DEFAULT UND _ZNK7android7RefBase11get
110:   FUNC GLOBAL DEFAULT UND _ZNK7android7RefBase9decS
111:   FUNC GLOBAL DEFAULT UND _ZNK7android7RefBase9incS
112:   FUNC GLOBAL DEFAULT UND _ZNK7android8hardware11hi
113:   FUNC GLOBAL DEFAULT UND _ZNK7android8hardware6Par
114:   FUNC GLOBAL DEFAULT UND _ZNK7android8hardware6Par
115:   FUNC GLOBAL DEFAULT UND _ZNK7android8hardware6Par
116:   FUNC GLOBAL DEFAULT UND _ZNK7android8hardware6Par
117:   FUNC GLOBAL DEFAULT UND _ZNK7android8hardware6Par
118:   FUNC GLOBAL DEFAULT UND _ZNK7android8hardware6Par
119:   FUNC GLOBAL DEFAULT UND _ZNK7android8hardware7IBi
120:   FUNC GLOBAL DEFAULT UND _ZNK7android8hardware7det
121:   FUNC GLOBAL DEFAULT UND _ZNK7android8hardware9BHw
122:   FUNC GLOBAL DEFAULT UND _ZNKSt3__120__vector_base
123:   FUNC GLOBAL DEFAULT UND _ZNKSt3__121__basic_strin
124:   FUNC GLOBAL DEFAULT UND _ZNSt3__112basic_stringIc
125:   FUNC GLOBAL DEFAULT UND _ZNSt3__15mutex4lockEv
126:   FUNC GLOBAL DEFAULT UND _ZNSt3__15mutex6unlockEv
127:   FUNC GLOBAL DEFAULT UND _ZNSt3__15mutexD1Ev
128:   FUNC GLOBAL DEFAULT UND _ZTv0_n12_N7android4hidl4
129:   FUNC GLOBAL DEFAULT UND _ZTv0_n12_N7android4hidl4
130:   FUNC GLOBAL DEFAULT UND _ZTv0_n12_N7android8hardw
131:   FUNC GLOBAL DEFAULT UND _ZTv0_n12_N7android8hardw
132:   FUNC GLOBAL DEFAULT UND _ZTv0_n12_N7android8hardw
133:   FUNC GLOBAL DEFAULT UND _ZTv0_n12_N7android8hardw
134:   FUNC GLOBAL DEFAULT UND _ZTv0_n12_N7android8hardw
135:   FUNC GLOBAL DEFAULT UND _ZTv0_n12_N7android8hardw
136:   FUNC GLOBAL DEFAULT UND _ZTv0_n12_N7android8hardw
137:   FUNC GLOBAL DEFAULT UND _ZTv0_n12_N7android8hardw
138:   FUNC GLOBAL DEFAULT UND _ZTv0_n16_N7android8hardw
139:   FUNC GLOBAL DEFAULT UND _ZTv0_n20_N7android8hardw
140:   FUNC GLOBAL DEFAULT UND _ZTv0_n24_N7android8hardw
141:   FUNC GLOBAL DEFAULT UND _ZdaPv
142:   FUNC GLOBAL DEFAULT UND _ZdlPv
143:   FUNC GLOBAL DEFAULT UND _Znaj
144:   FUNC GLOBAL DEFAULT UND _Znwj
145:   FUNC GLOBAL DEFAULT UND __android_log_assert@LIBLOG (3)
146:   FUNC GLOBAL DEFAULT UND __cxa_pure_virtual
147:   FUNC GLOBAL DEFAULT UND __stack_chk_fail@LIBC (2)
148:   OBJECT GLOBAL DEFAULT UND __stack_chk_guard@LIBC (2)
149:   FUNC GLOBAL DEFAULT UND abort@LIBC (2)
150:   FUNC GLOBAL DEFAULT UND atrace_begin_body
151:   OBJECT GLOBAL DEFAULT UND atrace_enabled_tags
152:   FUNC GLOBAL DEFAULT UND atrace_end_body
153:   OBJECT GLOBAL DEFAULT UND atrace_is_ready
154:   FUNC GLOBAL DEFAULT UND atrace_setup
155:   FUNC GLOBAL DEFAULT UND memcmp@LIBC (2)
156:   FUNC GLOBAL DEFAULT UND strlen@LIBC (2)
157:   FUNC GLOBAL DEFAULT UND memcpy@LIBC (2)
158:   FUNC GLOBAL DEFAULT UND memset@LIBC (2)
159:   OBJECT GLOBAL DEFAULT 18 _ZTCN7android8hardware8gr
160:   FUNC WEAK DEFAULT 14 _ZNSt3__16__treeINS_12__v
161:   FUNC WEAK DEFAULT 14 _ZNSt3__16vectorIPvNS_9al
162:   OBJECT GLOBAL DEFAULT 18 _ZTCN7android8hardware8gr
163:   FUNC GLOBAL DEFAULT 14 _ZN7android8hardware8grap
164:   FUNC WEAK DEFAULT 14 _ZNSt3__127__tree_balance
165:   FUNC GLOBAL DEFAULT 14 _ZN7android8hardware8grap
166:   OBJECT WEAK DEFAULT 18 _ZTVN7android8hardware8gr
167:   FUNC GLOBAL DEFAULT 14 __aeabi_memcpy4
168:   FUNC WEAK DEFAULT 14 _ZNSt3__113__tree_removeI
169:   FUNC WEAK DEFAULT 14 _ZNSt3__16vectorINS_8func
170:   OBJECT GLOBAL DEFAULT 18 _ZTCN7android8hardware8gr
171:   FUNC GLOBAL DEFAULT 14 _ZN7android8hardware8grap
172:   FUNC GLOBAL DEFAULT 14 _ZN7android8hardware8grap
173:   FUNC GLOBAL DEFAULT 14 _ZN7android8hardware8grap
174:   FUNC GLOBAL DEFAULT 14 _ZN7android8hardware8grap
175:   FUNC WEAK DEFAULT 14 _ZNSt3__16vectorIN7androi
176:   OBJECT GLOBAL DEFAULT 18 _ZTCN7android8hardware8gr
177:   FUNC GLOBAL DEFAULT 14 _ZN7android8hardware8grap
178:   FUNC GLOBAL DEFAULT 14 _ZN7android8hardware8grap
179:   FUNC GLOBAL DEFAULT 14 _ZN7android8hardware8grap
180:   FUNC GLOBAL DEFAULT 14 _ZN7android8hardware8grap
181:   FUNC GLOBAL DEFAULT 14 _ZN7android8hardware8grap
182:   OBJECT GLOBAL DEFAULT 18 _ZTVN7android8hardware8gr
183:   OBJECT GLOBAL DEFAULT 18 _ZTVN7android8hardware8gr
184:   FUNC GLOBAL DEFAULT 14 _ZThn20_N7android8hardwar
185:   FUNC GLOBAL DEFAULT 14 _ZN7android8hardware8grap
186:   FUNC GLOBAL DEFAULT 14 _ZN7android8hardware8grap
187:   FUNC GLOBAL DEFAULT 14 __aeabi_memcpy8
188:   FUNC GLOBAL DEFAULT 14 _ZN7android8hardware8grap
189:   FUNC GLOBAL DEFAULT 14 _ZN7android8hardware8grap
190:   FUNC GLOBAL DEFAULT 14 _ZN7android8hardware8grap
191:   FUNC GLOBAL DEFAULT 14 __aeabi_memclr4
192:   FUNC GLOBAL DEFAULT 14 _ZN7android8hardware8grap
193:   FUNC GLOBAL DEFAULT 14 _ZThn20_N7android8hardwar
194:   FUNC GLOBAL DEFAULT 14 _ZN7android8hardware8grap
195:   FUNC GLOBAL DEFAULT 14 _ZN7android8hardware8grap
196:   FUNC GLOBAL DEFAULT 14 _ZN7android8hardware8grap
197:   FUNC GLOBAL DEFAULT 14 _ZN7android8hardware8grap
198:   FUNC GLOBAL DEFAULT 14 _ZN7android8hardware8grap
199:   FUNC GLOBAL DEFAULT 14 _ZN7android8hardware8grap
200:   FUNC GLOBAL DEFAULT 14 _ZN7android8hardware8grap
201:   FUNC GLOBAL DEFAULT 14 _ZN7android8hardware8grap
202:   OBJECT GLOBAL DEFAULT 18 _ZTTN7android8hardware8gr
203:   OBJECT GLOBAL DEFAULT 18 _ZTTN7android8hardware8gr
204:   FUNC GLOBAL DEFAULT 14 __aeabi_memclr8
205:   FUNC GLOBAL DEFAULT 14 _ZN7android8hardware8grap
206:   FUNC GLOBAL DEFAULT 14 _ZN7android8hardware8grap
207:   FUNC GLOBAL DEFAULT 14 _ZN7android8hardware8grap
208:   FUNC GLOBAL DEFAULT 14 _ZN7android8hardware8grap
209:   OBJECT GLOBAL DEFAULT 18 _ZTCN7android8hardware8gr
210:   FUNC GLOBAL DEFAULT 14 _ZN7android8hardware8grap
211:   OBJECT GLOBAL DEFAULT 18 _ZTCN7android8hardware8gr
212:   FUNC GLOBAL DEFAULT 14 _ZN7android8hardware8grap
213:   FUNC GLOBAL DEFAULT 14 _ZN7android8hardware8grap
214:   FUNC GLOBAL DEFAULT 14 _ZN7android8hardware8grap
215:   FUNC WEAK DEFAULT 14 _ZN7android8hardware7deta
216:   FUNC GLOBAL DEFAULT 14 _ZN7android8hardware8grap
217:   FUNC GLOBAL DEFAULT 14 _ZN7android8hardware8grap
218:   FUNC GLOBAL DEFAULT 14 _ZN7android8hardware8grap
219:   OBJECT GLOBAL DEFAULT 18 _ZTCN7android8hardware8gr
220:   FUNC GLOBAL DEFAULT 14 _ZTv0_n12_N7android8hardw
221:   FUNC GLOBAL DEFAULT 14 _ZN7android8hardware8grap
222:   FUNC GLOBAL DEFAULT 14 _ZN7android8hardware8grap
223:   FUNC WEAK DEFAULT 14 _ZNSt3__16__treeINS_12__v
224:   FUNC GLOBAL DEFAULT 14 _ZN7android8hardware8grap
225:   FUNC GLOBAL DEFAULT 14 _ZN7android8hardware8grap
226:   FUNC GLOBAL DEFAULT 14 _ZN7android8hardware8grap
227:   FUNC GLOBAL DEFAULT 14 _ZN7android8hardware8grap
228:   FUNC WEAK DEFAULT 14 _ZNSt3__16__treeINS_12__v
229:   FUNC GLOBAL DEFAULT 14 _ZN7android8hardware8grap
230:   FUNC GLOBAL DEFAULT 14 _ZN7android8hardware8grap
231:   FUNC GLOBAL DEFAULT 14 _ZN7android8hardware8grap
232:   FUNC GLOBAL DEFAULT 14 _ZN7android8hardware8grap
233:   OBJECT GLOBAL DEFAULT 18 _ZTCN7android8hardware8gr
234:   FUNC GLOBAL DEFAULT 14 _ZTv0_n12_N7android8hardw
235:   FUNC GLOBAL DEFAULT 14 __aeabi_memcpy
236:   FUNC GLOBAL DEFAULT 14 _ZN7android8hardware8grap
237:   OBJECT GLOBAL DEFAULT 16 _ZN7android8hardware8grap
238:   OBJECT GLOBAL DEFAULT 18 _ZTVN7android8hardware8gr
239:   FUNC GLOBAL DEFAULT 14 __aeabi_memclr
240:   FUNC GLOBAL DEFAULT 14 _ZN7android8hardware8grap
241:   FUNC GLOBAL DEFAULT 14 _ZN7android8hardware8grap
242:   FUNC GLOBAL DEFAULT 14 _ZN7android8hardware8grap
243:   FUNC GLOBAL DEFAULT 14 _ZN7android8hardware8grap
244:   FUNC WEAK DEFAULT 14 _ZNSt3__16__treeINS_12__v
245:   FUNC WEAK DEFAULT 14 _ZNSt3__16__treeINS_12__v
246:   FUNC GLOBAL DEFAULT 14 _ZN7android8hardware8grap
247:   FUNC GLOBAL DEFAULT 14 _ZN7android8hardware8grap
248:   FUNC GLOBAL DEFAULT 14 _ZN7android8hardware8grap
249:   OBJECT GLOBAL DEFAULT 18 _ZTCN7android8hardware8gr
250:   FUNC GLOBAL DEFAULT 14 __aeabi_memset
251:   FUNC GLOBAL DEFAULT 14 __aeabi_memset4
252:   FUNC GLOBAL DEFAULT 14 _ZN7android8hardware8grap
253:   FUNC GLOBAL DEFAULT 14 _ZN7android8hardware8grap
254:   OBJECT WEAK DEFAULT 18 _ZTCN7android8hardware8gr
255:   FUNC GLOBAL DEFAULT 14 _ZN7android8hardware8grap
256:   FUNC GLOBAL DEFAULT 14 _ZN7android8hardware8grap
257:   FUNC GLOBAL DEFAULT 14 _ZN7android8hardware8grap
258:   FUNC GLOBAL DEFAULT 14 _ZN7android8hardware8grap
259:   FUNC GLOBAL DEFAULT 14 _ZN7android8hardware8grap
260:   OBJECT GLOBAL DEFAULT 18 _ZTTN7android8hardware8gr
261:   FUNC WEAK DEFAULT 14 _ZN7android8hardware7deta
262:   FUNC GLOBAL DEFAULT 14 _ZN7android8hardware8grap
263:   FUNC GLOBAL DEFAULT 14 _ZN7android8hardware8grap
264:   FUNC GLOBAL DEFAULT 14 _ZN7android8hardware8grap
265:   FUNC GLOBAL DEFAULT 14 _ZN7android8hardware8grap
266:   FUNC GLOBAL DEFAULT 14 _ZN7android8hardware8grap
267:   FUNC GLOBAL DEFAULT 14 _ZN7android8hardware8grap
268:   FUNC WEAK DEFAULT 14 _ZNSt3__16__treeINS_12__v
269:   FUNC GLOBAL DEFAULT 14 _ZN7android8hardware8grap
270:   FUNC GLOBAL DEFAULT 14 __aeabi_memset8
