 0x000000000000000e (SONAME)             Library soname: [libcodec2_client.so]
  
Symbol   contains 217 entries:
Num:   Type Bind Vis Ndx Name
0:   NOTYPE LOCAL DEFAULT UND
1:   FUNC GLOBAL DEFAULT UND __cxa_finalize@LIBC (2)
2:   FUNC GLOBAL DEFAULT UND __cxa_atexit@LIBC (2)
3:   FUNC GLOBAL DEFAULT UND _ZN7android4base21GetMini
4:   FUNC GLOBAL DEFAULT UND _ZN7android4base10LogMess
5:   FUNC GLOBAL DEFAULT UND _ZN7android4base10LogMess
6:   FUNC GLOBAL DEFAULT UND _ZN7android4base10LogMess
7:   FUNC GLOBAL DEFAULT UND __cfi_slowpath@LIBC_OMR1 (3)
8:   FUNC GLOBAL DEFAULT UND _ZN7android8hardware5medi
9:   FUNC GLOBAL DEFAULT UND _ZN7android8hardware5medi
10:   FUNC GLOBAL DEFAULT UND _Znwm
11:   FUNC GLOBAL DEFAULT UND _ZN7android8hardware11hid
12:   FUNC GLOBAL DEFAULT UND _ZN7android8hardware5medi
13:   FUNC GLOBAL DEFAULT UND _ZN7android8hardware11hid
14:   FUNC GLOBAL DEFAULT UND _ZN7android8hardware5medi
15:   FUNC GLOBAL DEFAULT UND __cxa_guard_acquire
16:   FUNC GLOBAL DEFAULT UND __cxa_guard_release
17:   FUNC GLOBAL DEFAULT UND _ZN7android8hardware5medi
18:   FUNC GLOBAL DEFAULT UND _ZNSt3__15mutexD1Ev
19:   FUNC GLOBAL DEFAULT UND _ZNSt3__112basic_stringIc
20:   FUNC GLOBAL DEFAULT UND _ZN7android4base14GetIntP
21:   FUNC GLOBAL DEFAULT UND _ZN7android8hardware5medi
22:   FUNC GLOBAL DEFAULT UND _ZN7android8hardware5medi
23:   FUNC GLOBAL DEFAULT UND _ZN7android8hardware5medi
24:   FUNC GLOBAL DEFAULT UND _ZN7android8hardware7deta
25:   FUNC GLOBAL DEFAULT UND _ZN7android8hardware5medi
26:   FUNC GLOBAL DEFAULT UND _ZN7android8hardware5medi
27:   FUNC GLOBAL DEFAULT UND _ZN7android8hardware8grap
28:   FUNC GLOBAL DEFAULT UND _ZN7android8hardware5medi
29:   FUNC GLOBAL DEFAULT UND __android_log_print@LIBLOG (4)
30:   FUNC GLOBAL DEFAULT UND _ZN7android8hardware5medi
31:   FUNC GLOBAL DEFAULT UND __cxa_pure_virtual
32:   FUNC GLOBAL DEFAULT UND _ZNSt3__112basic_stringIc
33:   FUNC GLOBAL DEFAULT UND _ZdlPv
34:   FUNC GLOBAL DEFAULT UND abort@LIBC (2)
35:   FUNC GLOBAL DEFAULT UND _ZNK7android8hardware11hi
36:   FUNC GLOBAL DEFAULT UND _ZNSt3__112basic_stringIc
37:   FUNC GLOBAL DEFAULT UND __errno@LIBC (2)
38:   FUNC GLOBAL DEFAULT UND _ZNK7android8hardware7det
39:   FUNC GLOBAL DEFAULT UND _ZNK7android7RefBase9incS
40:   FUNC GLOBAL DEFAULT UND _ZN7android7RefBaseC2Ev
41:   FUNC GLOBAL DEFAULT UND _ZN7android8hardware5medi
42:   FUNC GLOBAL DEFAULT UND _ZN7android8hardware5medi
43:   FUNC GLOBAL DEFAULT UND _ZN7android8hardware5medi
44:   FUNC GLOBAL DEFAULT UND _ZN7android8hardware5medi
45:   FUNC GLOBAL DEFAULT UND _ZN7android8hardware5medi
46:   FUNC GLOBAL DEFAULT UND _ZN7android8hardware5medi
47:   FUNC GLOBAL DEFAULT UND _ZN7android8hardware5medi
48:   FUNC GLOBAL DEFAULT UND _ZN7android8hardware5medi
49:   FUNC GLOBAL DEFAULT UND _ZN7android8hardware5medi
50:   FUNC GLOBAL DEFAULT UND _ZN7android8hardware5medi
51:   FUNC GLOBAL DEFAULT UND _ZN7android7RefBase10onFi
52:   FUNC GLOBAL DEFAULT UND _ZN7android7RefBase15onLa
53:   FUNC GLOBAL DEFAULT UND _ZN7android7RefBase20onIn
54:   FUNC GLOBAL DEFAULT UND _ZN7android7RefBase13onLa
55:   FUNC GLOBAL DEFAULT UND _ZN7android7RefBaseD2Ev
56:   FUNC GLOBAL DEFAULT UND _ZNSt3__119__shared_weak_
57:   FUNC GLOBAL DEFAULT UND _ZN7android8hardware5medi
58:   FUNC GLOBAL DEFAULT UND _ZNSt3__119__shared_weak_
59:   FUNC GLOBAL DEFAULT UND _ZN7android8hardware5medi
60:   FUNC GLOBAL DEFAULT UND _ZNKSt3__120__vector_base
61:   FUNC GLOBAL DEFAULT UND _ZNSt3__119__shared_weak_
62:   FUNC GLOBAL DEFAULT UND _ZNKSt3__119__shared_weak
63:   FUNC GLOBAL DEFAULT UND _ZNSt3__113basic_ostreamI
64:   FUNC GLOBAL DEFAULT UND _ZN7android8hardware5medi
65:   FUNC GLOBAL DEFAULT UND _ZNSt3__113basic_ostreamI
66:   FUNC GLOBAL DEFAULT UND _Z8asString11c2_status_tP
67:   FUNC GLOBAL DEFAULT UND _ZNSt3__111__call_onceERV
68:   FUNC GLOBAL DEFAULT UND _ZNSt3__111this_thread9sl
69:   FUNC GLOBAL DEFAULT UND _ZN7android4hidl7manager4
70:   FUNC GLOBAL DEFAULT UND _ZN7android8hardware11hid
71:   FUNC GLOBAL DEFAULT UND strncmp@LIBC (2)
72:   FUNC GLOBAL DEFAULT UND _ZN7android8hardware7deta
73:   FUNC GLOBAL DEFAULT UND memcmp@LIBC (2)
74:   FUNC GLOBAL DEFAULT UND _ZNSt3__114basic_iostream
75:   FUNC GLOBAL DEFAULT UND _ZNSt3__114basic_iostream
76:   FUNC GLOBAL DEFAULT UND _ZThn16_NSt3__114basic_io
77:   FUNC GLOBAL DEFAULT UND _ZThn16_NSt3__114basic_io
78:   FUNC GLOBAL DEFAULT UND _ZTv0_n24_NSt3__114basic_
79:   FUNC GLOBAL DEFAULT UND _ZTv0_n24_NSt3__114basic_
80:   FUNC GLOBAL DEFAULT UND _ZNSt3__113basic_istreamI
81:   FUNC GLOBAL DEFAULT UND _ZNSt3__113basic_istreamI
82:   FUNC GLOBAL DEFAULT UND _ZTv0_n24_NSt3__113basic_
83:   FUNC GLOBAL DEFAULT UND _ZTv0_n24_NSt3__113basic_
84:   FUNC GLOBAL DEFAULT UND _ZNSt3__113basic_ostreamI
85:   FUNC GLOBAL DEFAULT UND _ZNSt3__113basic_ostreamI
86:   FUNC GLOBAL DEFAULT UND _ZTv0_n24_NSt3__113basic_
87:   FUNC GLOBAL DEFAULT UND _ZTv0_n24_NSt3__113basic_
88:   FUNC GLOBAL DEFAULT UND _ZNSt3__18ios_base4initEP
89:   FUNC GLOBAL DEFAULT UND _ZNSt3__115basic_streambu
90:   FUNC GLOBAL DEFAULT UND _ZNSt3__115basic_streambu
91:   FUNC GLOBAL DEFAULT UND _ZNSt3__115basic_streambu
92:   FUNC GLOBAL DEFAULT UND _ZNSt3__115basic_streambu
93:   FUNC GLOBAL DEFAULT UND _ZNSt3__115basic_streambu
94:   FUNC GLOBAL DEFAULT UND _ZNSt3__115basic_streambu
95:   FUNC GLOBAL DEFAULT UND _ZNSt3__115basic_streambu
96:   FUNC GLOBAL DEFAULT UND _ZNSt3__115basic_streambu
97:   FUNC GLOBAL DEFAULT UND _ZNSt3__115basic_streambu
98:   FUNC GLOBAL DEFAULT UND _ZNSt3__112basic_stringIc
99:   FUNC GLOBAL DEFAULT UND _ZNSt3__112basic_stringIc
100:   FUNC GLOBAL DEFAULT UND _ZNKSt3__121__basic_strin
101:   FUNC GLOBAL DEFAULT UND _ZNSt3__19basic_iosIcNS_1
102:   FUNC GLOBAL DEFAULT UND _ZNSt3__114basic_iostream
103:   FUNC GLOBAL DEFAULT UND _ZNK7android7RefBase9decS
104:   FUNC GLOBAL DEFAULT UND _ZNKSt3__112basic_stringI
105:   FUNC GLOBAL DEFAULT UND strlen@LIBC (2)
106:   FUNC GLOBAL DEFAULT UND _ZNSt3__112basic_stringIc
107:   FUNC GLOBAL DEFAULT UND _ZN7android8hardware5medi
108:   FUNC GLOBAL DEFAULT UND _ZdaPv
109:   FUNC GLOBAL DEFAULT UND _ZN7android8hardware5medi
110:   FUNC GLOBAL DEFAULT UND _ZN7android8hardware11hid
111:   FUNC GLOBAL DEFAULT UND _ZN7android22IGraphicBuff
112:   FUNC GLOBAL DEFAULT UND _ZN7android7BBinderC2Ev
113:   FUNC GLOBAL DEFAULT UND _ZNSt3__113basic_ostreamI
114:   FUNC GLOBAL DEFAULT UND _ZNSt3__113basic_ostreamI
115:   FUNC GLOBAL DEFAULT UND _ZNKSt3__18ios_base6getlo
116:   FUNC GLOBAL DEFAULT UND _ZNSt3__16localeD1Ev
117:   FUNC GLOBAL DEFAULT UND _ZNKSt3__16locale9use_fac
118:   FUNC GLOBAL DEFAULT UND _ZNSt3__18ios_base5clearE
119:   FUNC GLOBAL DEFAULT UND _ZNSt3__15mutex4lockEv
120:   FUNC GLOBAL DEFAULT UND _ZNSt3__15mutex6unlockEv
121:   FUNC GLOBAL DEFAULT UND _ZN7android8hardware7deta
122:   FUNC GLOBAL DEFAULT UND _Znam
123:   FUNC GLOBAL DEFAULT UND _ZN7android8hardware5medi
124:   FUNC GLOBAL DEFAULT UND _ZN7android8hardware5medi
125:   FUNC GLOBAL DEFAULT UND _ZN7android8hardware5medi
126:   FUNC GLOBAL DEFAULT UND _ZN7android8hardware5medi
127:   FUNC GLOBAL DEFAULT UND _ZN7android8hardware5medi
128:   FUNC GLOBAL DEFAULT UND _ZN7android8hardware5medi
129:   FUNC GLOBAL DEFAULT UND _ZN7android14sp_report_ra
130:   FUNC GLOBAL DEFAULT UND _ZN7android8hardware5medi
131:   FUNC GLOBAL DEFAULT UND _ZN7android8hardware5medi
132:   OBJECT GLOBAL DEFAULT UND _ZN7android8hardware5medi
133:   OBJECT GLOBAL DEFAULT UND _ZTVN7android8hardware5me
134:   OBJECT GLOBAL DEFAULT UND _ZTVN7android8hardware8gr
135:   OBJECT GLOBAL DEFAULT UND _ZTTN7android8hardware8gr
136:   OBJECT GLOBAL DEFAULT UND _ZNSt3__15ctypeIcE2idE
137:   FUNC GLOBAL DEFAULT UND memset@LIBC (2)
138:   FUNC GLOBAL DEFAULT UND memcpy@LIBC (2)
139:   FUNC GLOBAL DEFAULT UND memmove@LIBC (2)
140:   FUNC GLOBAL DEFAULT UND __stack_chk_fail@LIBC (2)
141:   FUNC GLOBAL DEFAULT 14 _ZNK7android24Codec2Confi
142:   FUNC GLOBAL DEFAULT 14 _ZN7android12Codec2Client
143:   FUNC GLOBAL DEFAULT 14 _ZN7android12Codec2Client
144:   FUNC WEAK DEFAULT 14 _ZNSt3__115basic_stringbu
145:   FUNC GLOBAL DEFAULT 14 _ZN7android12Codec2Client
146:   FUNC GLOBAL DEFAULT 14 _ZN7android12Codec2Client
147:   FUNC GLOBAL DEFAULT 14 _ZN7android12Codec2Client
148:   FUNC GLOBAL DEFAULT 14 _ZN7android12Codec2Client
149:   FUNC WEAK DEFAULT 14 _ZNSt3__127__tree_balance
150:   FUNC GLOBAL DEFAULT 14 _ZN7android12Codec2Client
151:   FUNC GLOBAL DEFAULT 14 _ZN7android12Codec2Client
152:   FUNC GLOBAL DEFAULT 14 _ZN7android12Codec2Client
153:   FUNC WEAK DEFAULT 14 _ZNSt3__115basic_stringbu
154:   FUNC GLOBAL DEFAULT 14 _ZN7android24Codec2Config
155:   FUNC GLOBAL DEFAULT 14 _ZNK7android12Codec2Clien
156:   FUNC GLOBAL DEFAULT 14 _ZN7android12Codec2Client
157:   FUNC GLOBAL DEFAULT 14 _ZN7android12Codec2Client
158:   FUNC GLOBAL DEFAULT 14 _ZN7android12Codec2Client
159:   FUNC GLOBAL DEFAULT 14 _ZN7android12Codec2Client
160:   FUNC GLOBAL DEFAULT 14 _ZNK7android24Codec2Confi
161:   FUNC GLOBAL DEFAULT 14 _ZN7android12Codec2Client
162:   FUNC GLOBAL DEFAULT 14 _ZN7android12Codec2Client
163:   FUNC GLOBAL DEFAULT 14 _ZN7android12Codec2Client
164:   FUNC GLOBAL DEFAULT 14 _ZN7android24Codec2Config
165:   FUNC GLOBAL DEFAULT 14 _ZNK7android12Codec2Clien
166:   FUNC GLOBAL DEFAULT 14 _ZN7android12Codec2Client
167:   FUNC GLOBAL DEFAULT 14 _ZN7android12Codec2Client
168:   FUNC WEAK DEFAULT 14 _ZNSt3__115basic_stringbu
169:   OBJECT WEAK DEFAULT 22 _ZZN7android12Codec2Clien
170:   FUNC GLOBAL DEFAULT 14 _ZN7android12Codec2Client
171:   FUNC GLOBAL DEFAULT 14 _ZN7android12Codec2Client
172:   FUNC GLOBAL DEFAULT 14 _ZN7android12Codec2Client
173:   FUNC GLOBAL DEFAULT 14 _ZN7android12Codec2Client
174:   FUNC GLOBAL DEFAULT 14 _ZN7android12Codec2Client
175:   FUNC WEAK DEFAULT 14 _ZNSt3__124__put_characte
176:   OBJECT WEAK DEFAULT 18 _ZTVNSt3__118basic_string
177:   OBJECT WEAK DEFAULT 18 _ZTVNSt3__115basic_string
178:   FUNC GLOBAL DEFAULT 14 _ZN7android12Codec2Client
179:   FUNC GLOBAL DEFAULT 14 _ZN7android12Codec2Client
180:   FUNC GLOBAL DEFAULT 14 _ZN7android12Codec2Client
181:   FUNC WEAK DEFAULT 14 _ZNSt3__115basic_stringbu
182:   OBJECT WEAK DEFAULT 18 _ZTTNSt3__118basic_string
183:   FUNC GLOBAL DEFAULT 14 _ZNK7android24Codec2Confi
184:   FUNC GLOBAL DEFAULT 14 _ZN7android12Codec2Client
185:   FUNC GLOBAL DEFAULT 14 _ZN7android12Codec2Client
186:   FUNC WEAK DEFAULT 14 _ZNKSt3__115basic_stringb
187:   OBJECT WEAK DEFAULT 22 _ZGVZN7android12Codec2Cli
188:   FUNC GLOBAL DEFAULT 14 _ZN7android12Codec2Client
189:   FUNC GLOBAL DEFAULT 14 __cfi_check
190:   FUNC GLOBAL DEFAULT 14 _ZN7android24Codec2Config
191:   FUNC GLOBAL DEFAULT 14 _ZN7android12Codec2Client
192:   FUNC GLOBAL DEFAULT 14 _ZNK7android12Codec2Clien
193:   FUNC GLOBAL DEFAULT 14 _ZNK7android24Codec2Confi
194:   FUNC GLOBAL DEFAULT 14 _ZNK7android12Codec2Clien
195:   FUNC GLOBAL DEFAULT 14 _ZN7android12Codec2Client
196:   FUNC GLOBAL DEFAULT 14 _ZN7android12Codec2Client
197:   FUNC GLOBAL DEFAULT 14 _ZN7android12Codec2Client
198:   FUNC GLOBAL DEFAULT 14 _ZN7android12Codec2Client
199:   OBJECT WEAK DEFAULT 18 _ZTCNSt3__118basic_string
200:   FUNC GLOBAL DEFAULT 14 _ZN7android12Codec2Client
201:   FUNC GLOBAL DEFAULT 14 _ZN7android12Codec2Client
202:   FUNC GLOBAL DEFAULT 14 _ZN7android12Codec2Client
203:   FUNC GLOBAL DEFAULT 14 _ZN7android12Codec2Client
204:   FUNC GLOBAL DEFAULT 14 _ZN7android12Codec2Client
205:   FUNC GLOBAL DEFAULT 14 _ZNK7android12Codec2Clien
206:   FUNC GLOBAL DEFAULT 14 _ZN7android12Codec2Client
207:   FUNC GLOBAL DEFAULT 14 _ZNK7android12Codec2Clien
208:   FUNC GLOBAL DEFAULT 14 _ZN7android12Codec2Client
209:   FUNC GLOBAL DEFAULT 14 _ZN7android12Codec2Client
210:   FUNC GLOBAL DEFAULT 14 _ZN7android12Codec2Client
211:   FUNC GLOBAL DEFAULT 14 _ZN7android12Codec2Client
212:   OBJECT GLOBAL DEFAULT 18 _ZTVN7android12Codec2Clie
213:   OBJECT WEAK DEFAULT 18 _ZTCNSt3__118basic_string
214:   OBJECT WEAK DEFAULT 18 _ZTCNSt3__118basic_string
215:   FUNC GLOBAL DEFAULT 14 _ZN7android12Codec2Client
216:   FUNC GLOBAL DEFAULT 14 _ZN7android12Codec2Client
