 0x0000000e (SONAME)                     Library soname: [android.hardware.camera.device@1.0.so]
  
Symbol   contains 525 entries:
Num:   Type Bind Vis Ndx Name
0:   NOTYPE LOCAL DEFAULT UND
1:   FUNC GLOBAL DEFAULT UND __cxa_finalize@LIBC (2)
2:   FUNC GLOBAL DEFAULT UND _ZN7android14sp_report_ra
3:   FUNC GLOBAL DEFAULT UND _ZN7android21report_syspr
4:   OBJECT GLOBAL DEFAULT UND _ZN7android4hidl4base4V1_
5:   FUNC GLOBAL DEFAULT UND _ZN7android4hidl4base4V1_
6:   FUNC GLOBAL DEFAULT UND _ZN7android4hidl4base4V1_
7:   FUNC GLOBAL DEFAULT UND _ZN7android4hidl4base4V1_
8:   FUNC GLOBAL DEFAULT UND _ZN7android4hidl4base4V1_
9:   FUNC GLOBAL DEFAULT UND _ZN7android4hidl4base4V1_
10:   FUNC GLOBAL DEFAULT UND _ZN7android4hidl4base4V1_
11:   FUNC GLOBAL DEFAULT UND _ZN7android4hidl4base4V1_
12:   FUNC GLOBAL DEFAULT UND _ZN7android4hidl4base4V1_
13:   FUNC GLOBAL DEFAULT UND _ZN7android4hidl4base4V1_
14:   FUNC GLOBAL DEFAULT UND _ZN7android4hidl4base4V1_
15:   FUNC GLOBAL DEFAULT UND _ZN7android4hidl4base4V1_
16:   FUNC GLOBAL DEFAULT UND _ZN7android4hidl4base4V1_
17:   FUNC GLOBAL DEFAULT UND _ZN7android4hidl4base4V1_
18:   FUNC GLOBAL DEFAULT UND _ZN7android4hidl4base4V1_
19:   FUNC GLOBAL DEFAULT UND _ZN7android4hidl4base4V1_
20:   FUNC GLOBAL DEFAULT UND _ZN7android4hidl4base4V1_
21:   FUNC GLOBAL DEFAULT UND _ZN7android4hidl4base4V1_
22:   FUNC GLOBAL DEFAULT UND _ZN7android4hidl4base4V1_
23:   FUNC GLOBAL DEFAULT UND _ZN7android4hidl4base4V1_
24:   FUNC GLOBAL DEFAULT UND _ZN7android4hidl4base4V1_
25:   FUNC GLOBAL DEFAULT UND _ZN7android4hidl4base4V1_
26:   FUNC GLOBAL DEFAULT UND _ZN7android4hidl4base4V1_
27:   FUNC GLOBAL DEFAULT UND _ZN7android4hidl4base4V1_
28:   FUNC GLOBAL DEFAULT UND _ZN7android7RefBase10onFi
29:   FUNC GLOBAL DEFAULT UND _ZN7android7RefBase12weak
30:   FUNC GLOBAL DEFAULT UND _ZN7android7RefBase13onLa
31:   FUNC GLOBAL DEFAULT UND _ZN7android7RefBase15onLa
32:   FUNC GLOBAL DEFAULT UND _ZN7android7RefBase20onIn
33:   FUNC GLOBAL DEFAULT UND _ZN7android7RefBaseC2Ev
34:   FUNC GLOBAL DEFAULT UND _ZN7android7RefBaseD2Ev
35:   FUNC GLOBAL DEFAULT UND _ZN7android8hardware10IIn
36:   FUNC GLOBAL DEFAULT UND _ZN7android8hardware10IIn
37:   FUNC GLOBAL DEFAULT UND _ZN7android8hardware10IIn
38:   FUNC GLOBAL DEFAULT UND _ZN7android8hardware10IIn
39:   FUNC GLOBAL DEFAULT UND _ZN7android8hardware10IIn
40:   FUNC GLOBAL DEFAULT UND _ZN7android8hardware11BpH
41:   FUNC GLOBAL DEFAULT UND _ZN7android8hardware11BpH
42:   FUNC GLOBAL DEFAULT UND _ZN7android8hardware11BpH
43:   FUNC GLOBAL DEFAULT UND _ZN7android8hardware11BpH
44:   FUNC GLOBAL DEFAULT UND _ZN7android8hardware11BpH
45:   FUNC GLOBAL DEFAULT UND _ZN7android8hardware11BpH
46:   FUNC GLOBAL DEFAULT UND _ZN7android8hardware11BpH
47:   FUNC GLOBAL DEFAULT UND _ZN7android8hardware11hid
48:   FUNC GLOBAL DEFAULT UND _ZN7android8hardware11hid
49:   FUNC GLOBAL DEFAULT UND _ZN7android8hardware11hid
50:   FUNC GLOBAL DEFAULT UND _ZN7android8hardware11hid
51:   FUNC GLOBAL DEFAULT UND _ZN7android8hardware11hid
52:   FUNC GLOBAL DEFAULT UND _ZN7android8hardware11hid
53:   FUNC GLOBAL DEFAULT UND _ZN7android8hardware11hid
54:   FUNC GLOBAL DEFAULT UND _ZN7android8hardware11hid
55:   FUNC GLOBAL DEFAULT UND _ZN7android8hardware12Pro
56:   FUNC GLOBAL DEFAULT UND _ZN7android8hardware12Pro
57:   FUNC GLOBAL DEFAULT UND _ZN7android8hardware13wri
58:   FUNC GLOBAL DEFAULT UND _ZN7android8hardware14rea
59:   FUNC GLOBAL DEFAULT UND _ZN7android8hardware21def
60:   FUNC GLOBAL DEFAULT UND _ZN7android8hardware21wri
61:   FUNC GLOBAL DEFAULT UND _ZN7android8hardware22rea
62:   FUNC GLOBAL DEFAULT UND _ZN7android8hardware23get
63:   FUNC GLOBAL DEFAULT UND _ZN7android8hardware27hid
64:   FUNC GLOBAL DEFAULT UND _ZN7android8hardware27hid
65:   FUNC GLOBAL DEFAULT UND _ZN7android8hardware6Parc
66:   FUNC GLOBAL DEFAULT UND _ZN7android8hardware6Parc
67:   FUNC GLOBAL DEFAULT UND _ZN7android8hardware6Parc
68:   FUNC GLOBAL DEFAULT UND _ZN7android8hardware6Parc
69:   FUNC GLOBAL DEFAULT UND _ZN7android8hardware6Parc
70:   FUNC GLOBAL DEFAULT UND _ZN7android8hardware6Parc
71:   FUNC GLOBAL DEFAULT UND _ZN7android8hardware6Parc
72:   FUNC GLOBAL DEFAULT UND _ZN7android8hardware6Parc
73:   FUNC GLOBAL DEFAULT UND _ZN7android8hardware6Parc
74:   FUNC GLOBAL DEFAULT UND _ZN7android8hardware6Parc
75:   FUNC GLOBAL DEFAULT UND _ZN7android8hardware6Stat
76:   FUNC GLOBAL DEFAULT UND _ZN7android8hardware6Stat
77:   FUNC GLOBAL DEFAULT UND _ZN7android8hardware6Stat
78:   FUNC GLOBAL DEFAULT UND _ZN7android8hardware6Stat
79:   FUNC GLOBAL DEFAULT UND _ZN7android8hardware6came
80:   FUNC GLOBAL DEFAULT UND _ZN7android8hardware6came
81:   FUNC GLOBAL DEFAULT UND _ZN7android8hardware7IBin
82:   FUNC GLOBAL DEFAULT UND _ZN7android8hardware7IBin
83:   FUNC GLOBAL DEFAULT UND _ZN7android8hardware7IBin
84:   FUNC GLOBAL DEFAULT UND _ZN7android8hardware7IBin
85:   FUNC GLOBAL DEFAULT UND _ZN7android8hardware7deta
86:   FUNC GLOBAL DEFAULT UND _ZN7android8hardware7deta
87:   FUNC GLOBAL DEFAULT UND _ZN7android8hardware7deta
88:   FUNC GLOBAL DEFAULT UND _ZN7android8hardware7deta
89:   FUNC GLOBAL DEFAULT UND _ZN7android8hardware7deta
90:   FUNC GLOBAL DEFAULT UND _ZN7android8hardware7deta
91:   FUNC GLOBAL DEFAULT UND _ZN7android8hardware7deta
92:   OBJECT GLOBAL DEFAULT UND _ZN7android8hardware7deta
93:   OBJECT GLOBAL DEFAULT UND _ZN7android8hardware7deta
94:   FUNC GLOBAL DEFAULT UND _ZN7android8hardware7deta
95:   FUNC GLOBAL DEFAULT UND _ZN7android8hardware7deta
96:   FUNC GLOBAL DEFAULT UND _ZN7android8hardware7deta
97:   FUNC GLOBAL DEFAULT UND _ZN7android8hardware7deta
98:   FUNC GLOBAL DEFAULT UND _ZN7android8hardware7deta
99:   FUNC GLOBAL DEFAULT UND _ZN7android8hardware7deta
100:   FUNC GLOBAL DEFAULT UND _ZN7android8hardware7deta
101:   FUNC GLOBAL DEFAULT UND _ZN7android8hardware7deta
102:   FUNC GLOBAL DEFAULT UND _ZN7android8hardware7deta
103:   FUNC GLOBAL DEFAULT UND _ZN7android8hardware7deta
104:   OBJECT GLOBAL DEFAULT UND _ZN7android8hardware7deta
105:   FUNC GLOBAL DEFAULT UND _ZN7android8hardware9BHwB
106:   FUNC GLOBAL DEFAULT UND _ZN7android8hardware9BHwB
107:   FUNC GLOBAL DEFAULT UND _ZN7android8hardware9BHwB
108:   FUNC GLOBAL DEFAULT UND _ZN7android8hardware9BHwB
109:   FUNC GLOBAL DEFAULT UND _ZN7android8hardware9BHwB
110:   FUNC GLOBAL DEFAULT UND _ZN7android8hardware9BHwB
111:   FUNC GLOBAL DEFAULT UND _ZN7android8hardware9BHwB
112:   FUNC GLOBAL DEFAULT UND _ZN7android8hardware9BHwB
113:   FUNC GLOBAL DEFAULT UND _ZN7android8hardware9BHwB
114:   FUNC GLOBAL DEFAULT UND _ZN7android8hardware9BHwB
115:   FUNC GLOBAL DEFAULT UND _ZNK7android7RefBase10cre
116:   FUNC GLOBAL DEFAULT UND _ZNK7android7RefBase11get
117:   FUNC GLOBAL DEFAULT UND _ZNK7android7RefBase9decS
118:   FUNC GLOBAL DEFAULT UND _ZNK7android7RefBase9incS
119:   FUNC GLOBAL DEFAULT UND _ZNK7android8hardware11hi
120:   FUNC GLOBAL DEFAULT UND _ZNK7android8hardware6Par
121:   FUNC GLOBAL DEFAULT UND _ZNK7android8hardware6Par
122:   FUNC GLOBAL DEFAULT UND _ZNK7android8hardware6Par
123:   FUNC GLOBAL DEFAULT UND _ZNK7android8hardware6Par
124:   FUNC GLOBAL DEFAULT UND _ZNK7android8hardware6Par
125:   FUNC GLOBAL DEFAULT UND _ZNK7android8hardware6Par
126:   FUNC GLOBAL DEFAULT UND _ZNK7android8hardware6Par
127:   FUNC GLOBAL DEFAULT UND _ZNK7android8hardware6Par
128:   FUNC GLOBAL DEFAULT UND _ZNK7android8hardware7IBi
129:   FUNC GLOBAL DEFAULT UND _ZNK7android8hardware7det
130:   FUNC GLOBAL DEFAULT UND _ZNK7android8hardware9BHw
131:   FUNC GLOBAL DEFAULT UND _ZNKSt3__120__vector_base
132:   FUNC GLOBAL DEFAULT UND _ZNKSt3__121__basic_strin
133:   FUNC GLOBAL DEFAULT UND _ZNSt3__112basic_stringIc
134:   FUNC GLOBAL DEFAULT UND _ZNSt3__15mutex4lockEv
135:   FUNC GLOBAL DEFAULT UND _ZNSt3__15mutex6unlockEv
136:   FUNC GLOBAL DEFAULT UND _ZNSt3__15mutexD1Ev
137:   FUNC GLOBAL DEFAULT UND _ZTv0_n12_N7android4hidl4
138:   FUNC GLOBAL DEFAULT UND _ZTv0_n12_N7android4hidl4
139:   FUNC GLOBAL DEFAULT UND _ZTv0_n12_N7android8hardw
140:   FUNC GLOBAL DEFAULT UND _ZTv0_n12_N7android8hardw
141:   FUNC GLOBAL DEFAULT UND _ZTv0_n12_N7android8hardw
142:   FUNC GLOBAL DEFAULT UND _ZTv0_n12_N7android8hardw
143:   FUNC GLOBAL DEFAULT UND _ZTv0_n12_N7android8hardw
144:   FUNC GLOBAL DEFAULT UND _ZTv0_n12_N7android8hardw
145:   FUNC GLOBAL DEFAULT UND _ZTv0_n12_N7android8hardw
146:   FUNC GLOBAL DEFAULT UND _ZTv0_n12_N7android8hardw
147:   FUNC GLOBAL DEFAULT UND _ZTv0_n16_N7android8hardw
148:   FUNC GLOBAL DEFAULT UND _ZTv0_n20_N7android8hardw
149:   FUNC GLOBAL DEFAULT UND _ZTv0_n24_N7android8hardw
150:   FUNC GLOBAL DEFAULT UND _ZdaPv
151:   FUNC GLOBAL DEFAULT UND _ZdlPv
152:   FUNC GLOBAL DEFAULT UND _Znaj
153:   FUNC GLOBAL DEFAULT UND _Znwj
154:   FUNC GLOBAL DEFAULT UND __android_log_assert@LIBLOG (3)
155:   FUNC GLOBAL DEFAULT UND __cxa_pure_virtual
156:   FUNC GLOBAL DEFAULT UND __stack_chk_fail@LIBC (2)
157:   OBJECT GLOBAL DEFAULT UND __stack_chk_guard@LIBC (2)
158:   FUNC GLOBAL DEFAULT UND abort@LIBC (2)
159:   FUNC GLOBAL DEFAULT UND atrace_begin_body
160:   OBJECT GLOBAL DEFAULT UND atrace_enabled_tags
161:   FUNC GLOBAL DEFAULT UND atrace_end_body
162:   OBJECT GLOBAL DEFAULT UND atrace_is_ready
163:   FUNC GLOBAL DEFAULT UND atrace_setup
164:   FUNC GLOBAL DEFAULT UND memcmp@LIBC (2)
165:   FUNC GLOBAL DEFAULT UND strlen@LIBC (2)
166:   FUNC GLOBAL DEFAULT UND _ZN7android8hardware6Parc
167:   FUNC GLOBAL DEFAULT UND _ZNK7android8hardware6Par
168:   FUNC GLOBAL DEFAULT UND _ZN7android8hardware6Parc
169:   FUNC GLOBAL DEFAULT UND _ZNK7android8hardware6Par
170:   FUNC GLOBAL DEFAULT UND _ZN7android8hardware21wri
171:   FUNC GLOBAL DEFAULT UND _ZN7android8hardware22rea
172:   FUNC GLOBAL DEFAULT UND memcpy@LIBC (2)
173:   FUNC GLOBAL DEFAULT UND memset@LIBC (2)
174:   FUNC GLOBAL DEFAULT 14 _ZN7android8hardware6came
175:   FUNC GLOBAL DEFAULT 14 _ZN7android8hardware6came
176:   FUNC GLOBAL DEFAULT 14 _ZTv0_n12_N7android8hardw
177:   OBJECT GLOBAL DEFAULT 18 _ZTTN7android8hardware6ca
178:   FUNC GLOBAL DEFAULT 14 _ZThn20_N7android8hardwar
179:   FUNC GLOBAL DEFAULT 14 _ZN7android8hardware6came
180:   FUNC GLOBAL DEFAULT 14 _ZN7android8hardware6came
181:   FUNC GLOBAL DEFAULT 14 _ZN7android8hardware6came
182:   FUNC GLOBAL DEFAULT 14 _ZN7android8hardware6came
183:   FUNC GLOBAL DEFAULT 14 _ZN7android8hardware6came
184:   FUNC GLOBAL DEFAULT 14 _ZTv0_n12_N7android8hardw
185:   FUNC GLOBAL DEFAULT 14 _ZN7android8hardware6came
186:   FUNC GLOBAL DEFAULT 14 _ZN7android8hardware6came
187:   FUNC GLOBAL DEFAULT 14 _ZN7android8hardware6came
188:   FUNC GLOBAL DEFAULT 14 _ZN7android8hardware6came
189:   FUNC GLOBAL DEFAULT 14 _ZN7android8hardware6came
190:   FUNC GLOBAL DEFAULT 14 _ZN7android8hardware6came
191:   FUNC GLOBAL DEFAULT 14 _ZN7android8hardware6came
192:   FUNC GLOBAL DEFAULT 14 _ZN7android8hardware6came
193:   OBJECT GLOBAL DEFAULT 18 _ZTCN7android8hardware6ca
194:   FUNC GLOBAL DEFAULT 14 _ZN7android8hardware6came
195:   FUNC GLOBAL DEFAULT 14 _ZN7android8hardware6came
196:   FUNC GLOBAL DEFAULT 14 _ZN7android8hardware6came
197:   FUNC GLOBAL DEFAULT 14 _ZN7android8hardware6came
198:   FUNC GLOBAL DEFAULT 14 _ZN7android8hardware6came
199:   FUNC GLOBAL DEFAULT 14 _ZN7android8hardware6came
200:   FUNC GLOBAL DEFAULT 14 _ZN7android8hardware6came
201:   FUNC GLOBAL DEFAULT 14 _ZN7android8hardware6came
202:   FUNC GLOBAL DEFAULT 14 _ZN7android8hardware6came
203:   OBJECT GLOBAL DEFAULT 18 _ZTCN7android8hardware6ca
204:   FUNC GLOBAL DEFAULT 14 _ZN7android8hardware6came
205:   FUNC GLOBAL DEFAULT 14 _ZN7android8hardware6came
206:   FUNC GLOBAL DEFAULT 14 _ZN7android8hardware6came
207:   FUNC GLOBAL DEFAULT 14 _ZN7android8hardware6came
208:   FUNC GLOBAL DEFAULT 14 _ZN7android8hardware6came
209:   FUNC GLOBAL DEFAULT 14 _ZN7android8hardware6came
210:   FUNC GLOBAL DEFAULT 14 _ZN7android8hardware6came
211:   FUNC GLOBAL DEFAULT 14 __aeabi_memclr4
212:   FUNC GLOBAL DEFAULT 14 _ZN7android8hardware6came
213:   FUNC GLOBAL DEFAULT 14 _ZN7android8hardware6came
214:   FUNC GLOBAL DEFAULT 14 _ZN7android8hardware6came
215:   FUNC GLOBAL DEFAULT 14 _ZN7android8hardware6came
216:   FUNC GLOBAL DEFAULT 14 _ZN7android8hardware6came
217:   FUNC GLOBAL DEFAULT 14 _ZN7android8hardware6came
218:   FUNC WEAK DEFAULT 14 _ZNSt3__16vectorIN7androi
219:   FUNC GLOBAL DEFAULT 14 _ZN7android8hardware6came
220:   FUNC GLOBAL DEFAULT 14 _ZN7android8hardware6came
221:   FUNC GLOBAL DEFAULT 14 _ZN7android8hardware6came
222:   FUNC GLOBAL DEFAULT 14 _ZN7android8hardware6came
223:   FUNC GLOBAL DEFAULT 14 _ZN7android8hardware6came
224:   FUNC GLOBAL DEFAULT 14 _ZN7android8hardware6came
225:   FUNC GLOBAL DEFAULT 14 _ZN7android8hardware6came
226:   FUNC GLOBAL DEFAULT 14 __aeabi_memclr8
227:   FUNC GLOBAL DEFAULT 14 _ZN7android8hardware6came
228:   OBJECT GLOBAL DEFAULT 18 _ZTCN7android8hardware6ca
229:   OBJECT GLOBAL DEFAULT 18 _ZTTN7android8hardware6ca
230:   FUNC GLOBAL DEFAULT 14 _ZN7android8hardware6came
231:   FUNC GLOBAL DEFAULT 14 _ZN7android8hardware6came
232:   FUNC GLOBAL DEFAULT 14 _ZN7android8hardware6came
233:   FUNC GLOBAL DEFAULT 14 _ZN7android8hardware6came
234:   FUNC WEAK DEFAULT 14 _ZNSt3__16__treeINS_12__v
235:   FUNC GLOBAL DEFAULT 14 _ZThn20_N7android8hardwar
236:   FUNC GLOBAL DEFAULT 14 __aeabi_memcpy
237:   OBJECT GLOBAL DEFAULT 18 _ZTVN7android8hardware6ca
238:   OBJECT WEAK DEFAULT 18 _ZTVN7android8hardware6ca
239:   FUNC GLOBAL DEFAULT 14 _ZN7android8hardware6came
240:   FUNC GLOBAL DEFAULT 14 _ZN7android8hardware6came
241:   OBJECT WEAK DEFAULT 18 _ZTCN7android8hardware6ca
242:   FUNC GLOBAL DEFAULT 14 _ZN7android8hardware6came
243:   OBJECT GLOBAL DEFAULT 18 _ZTTN7android8hardware6ca
244:   FUNC GLOBAL DEFAULT 14 _ZN7android8hardware6came
245:   FUNC GLOBAL DEFAULT 14 _ZN7android8hardware6came
246:   OBJECT GLOBAL DEFAULT 18 _ZTVN7android8hardware6ca
247:   OBJECT GLOBAL DEFAULT 18 _ZTCN7android8hardware6ca
248:   FUNC GLOBAL DEFAULT 14 __aeabi_memset
249:   FUNC GLOBAL DEFAULT 14 _ZN7android8hardware6came
250:   FUNC GLOBAL DEFAULT 14 _ZN7android8hardware6came
251:   FUNC GLOBAL DEFAULT 14 _ZN7android8hardware6came
252:   OBJECT GLOBAL DEFAULT 18 _ZTCN7android8hardware6ca
253:   FUNC GLOBAL DEFAULT 14 _ZTv0_n12_N7android8hardw
254:   FUNC WEAK DEFAULT 14 _ZN7android8hardware7deta
255:   FUNC GLOBAL DEFAULT 14 _ZN7android8hardware6came
256:   FUNC GLOBAL DEFAULT 14 _ZN7android8hardware6came
257:   FUNC GLOBAL DEFAULT 14 _ZN7android8hardware6came
258:   FUNC GLOBAL DEFAULT 14 _ZN7android8hardware6came
259:   FUNC GLOBAL DEFAULT 14 _ZN7android8hardware6came
260:   FUNC GLOBAL DEFAULT 14 _ZN7android8hardware6came
261:   FUNC GLOBAL DEFAULT 14 _ZN7android8hardware6came
262:   FUNC GLOBAL DEFAULT 14 _ZN7android8hardware6came
263:   OBJECT GLOBAL DEFAULT 18 _ZTCN7android8hardware6ca
264:   FUNC GLOBAL DEFAULT 14 _ZN7android8hardware6came
265:   FUNC GLOBAL DEFAULT 14 _ZN7android8hardware6came
266:   FUNC GLOBAL DEFAULT 14 _ZThn20_N7android8hardwar
267:   FUNC GLOBAL DEFAULT 14 _ZN7android8hardware6came
268:   FUNC GLOBAL DEFAULT 14 _ZN7android8hardware6came
269:   FUNC GLOBAL DEFAULT 14 _ZN7android8hardware6came
270:   OBJECT GLOBAL DEFAULT 18 _ZTCN7android8hardware6ca
271:   FUNC GLOBAL DEFAULT 14 _ZN7android8hardware6came
272:   FUNC GLOBAL DEFAULT 14 _ZN7android8hardware6came
273:   FUNC GLOBAL DEFAULT 14 _ZN7android8hardware6came
274:   FUNC WEAK DEFAULT 14 _ZN7android8hardware7deta
275:   FUNC GLOBAL DEFAULT 14 _ZN7android8hardware6came
276:   OBJECT GLOBAL DEFAULT 18 _ZTCN7android8hardware6ca
277:   FUNC GLOBAL DEFAULT 14 _ZN7android8hardware6came
278:   OBJECT GLOBAL DEFAULT 18 _ZTCN7android8hardware6ca
279:   OBJECT GLOBAL DEFAULT 18 _ZTTN7android8hardware6ca
280:   OBJECT GLOBAL DEFAULT 18 _ZTVN7android8hardware6ca
281:   FUNC GLOBAL DEFAULT 14 _ZN7android8hardware6came
282:   FUNC GLOBAL DEFAULT 14 _ZN7android8hardware6came
283:   FUNC GLOBAL DEFAULT 14 __aeabi_memset4
284:   FUNC GLOBAL DEFAULT 14 _ZN7android8hardware6came
285:   FUNC GLOBAL DEFAULT 14 _ZN7android8hardware6came
286:   FUNC GLOBAL DEFAULT 14 _ZN7android8hardware6came
287:   FUNC GLOBAL DEFAULT 14 _ZN7android8hardware6came
288:   FUNC GLOBAL DEFAULT 14 _ZN7android8hardware6came
289:   FUNC GLOBAL DEFAULT 14 _ZN7android8hardware6came
290:   FUNC GLOBAL DEFAULT 14 _ZN7android8hardware6came
291:   FUNC GLOBAL DEFAULT 14 _ZN7android8hardware6came
292:   FUNC GLOBAL DEFAULT 14 _ZN7android8hardware6came
293:   FUNC GLOBAL DEFAULT 14 _ZN7android8hardware6came
294:   FUNC GLOBAL DEFAULT 14 _ZN7android8hardware6came
295:   FUNC GLOBAL DEFAULT 14 _ZN7android8hardware6came
296:   OBJECT GLOBAL DEFAULT 18 _ZTVN7android8hardware6ca
297:   FUNC GLOBAL DEFAULT 14 _ZN7android8hardware6came
298:   FUNC GLOBAL DEFAULT 14 _ZN7android8hardware6came
299:   FUNC GLOBAL DEFAULT 14 _ZN7android8hardware6came
300:   FUNC WEAK DEFAULT 14 _ZN7android8hardware7deta
301:   FUNC GLOBAL DEFAULT 14 __aeabi_memset8
302:   FUNC GLOBAL DEFAULT 14 _ZN7android8hardware6came
303:   FUNC GLOBAL DEFAULT 14 _ZN7android8hardware6came
304:   FUNC GLOBAL DEFAULT 14 _ZN7android8hardware6came
305:   FUNC WEAK DEFAULT 14 _ZNSt3__16__treeINS_12__v
306:   FUNC GLOBAL DEFAULT 14 _ZN7android8hardware6came
307:   FUNC GLOBAL DEFAULT 14 _ZN7android8hardware6came
308:   FUNC GLOBAL DEFAULT 14 _ZN7android8hardware6came
309:   FUNC WEAK DEFAULT 14 _ZNSt3__16vectorINS_8func
310:   FUNC GLOBAL DEFAULT 14 _ZN7android8hardware6came
311:   FUNC GLOBAL DEFAULT 14 _ZN7android8hardware6came
312:   FUNC GLOBAL DEFAULT 14 _ZN7android8hardware6came
313:   FUNC GLOBAL DEFAULT 14 _ZN7android8hardware6came
314:   FUNC GLOBAL DEFAULT 14 _ZN7android8hardware6came
315:   FUNC GLOBAL DEFAULT 14 _ZN7android8hardware6came
316:   FUNC GLOBAL DEFAULT 14 _ZN7android8hardware6came
317:   FUNC GLOBAL DEFAULT 14 _ZN7android8hardware6came
318:   FUNC GLOBAL DEFAULT 14 _ZN7android8hardware6came
319:   OBJECT GLOBAL DEFAULT 16 _ZN7android8hardware6came
320:   FUNC WEAK DEFAULT 14 _ZN7android8hardware10fro
321:   FUNC GLOBAL DEFAULT 14 _ZN7android8hardware6came
322:   FUNC GLOBAL DEFAULT 14 _ZN7android8hardware6came
323:   FUNC GLOBAL DEFAULT 14 _ZN7android8hardware6came
324:   FUNC GLOBAL DEFAULT 14 _ZN7android8hardware6came
325:   FUNC GLOBAL DEFAULT 14 _ZN7android8hardware6came
326:   FUNC GLOBAL DEFAULT 14 _ZN7android8hardware6came
327:   FUNC GLOBAL DEFAULT 14 _ZN7android8hardware6came
328:   FUNC GLOBAL DEFAULT 14 _ZN7android8hardware6came
329:   OBJECT WEAK DEFAULT 18 _ZTVN7android8hardware6ca
330:   OBJECT GLOBAL DEFAULT 16 _ZN7android8hardware6came
331:   FUNC GLOBAL DEFAULT 14 _ZTv0_n12_N7android8hardw
332:   OBJECT GLOBAL DEFAULT 16 _ZN7android8hardware6came
333:   FUNC GLOBAL DEFAULT 14 _ZN7android8hardware6came
334:   FUNC GLOBAL DEFAULT 14 _ZN7android8hardware6came
335:   FUNC GLOBAL DEFAULT 14 _ZThn20_N7android8hardwar
336:   FUNC WEAK DEFAULT 14 _ZNSt3__16__treeINS_12__v
337:   FUNC GLOBAL DEFAULT 14 _ZN7android8hardware6came
338:   OBJECT GLOBAL DEFAULT 18 _ZTTN7android8hardware6ca
339:   FUNC GLOBAL DEFAULT 14 _ZN7android8hardware6came
340:   OBJECT WEAK DEFAULT 18 _ZTVN7android8hardware6ca
341:   FUNC GLOBAL DEFAULT 14 _ZN7android8hardware6came
342:   FUNC GLOBAL DEFAULT 14 _ZN7android8hardware6came
343:   FUNC GLOBAL DEFAULT 14 _ZN7android8hardware6came
344:   OBJECT GLOBAL DEFAULT 18 _ZTTN7android8hardware6ca
345:   FUNC GLOBAL DEFAULT 14 _ZN7android8hardware6came
346:   FUNC GLOBAL DEFAULT 14 _ZN7android8hardware6came
347:   FUNC WEAK DEFAULT 14 _ZNSt3__127__tree_balance
348:   OBJECT GLOBAL DEFAULT 18 _ZTVN7android8hardware6ca
349:   FUNC GLOBAL DEFAULT 14 _ZN7android8hardware6came
350:   OBJECT GLOBAL DEFAULT 18 _ZTCN7android8hardware6ca
351:   FUNC GLOBAL DEFAULT 14 _ZN7android8hardware6came
352:   FUNC GLOBAL DEFAULT 14 _ZN7android8hardware6came
353:   FUNC GLOBAL DEFAULT 14 _ZN7android8hardware6came
354:   FUNC GLOBAL DEFAULT 14 _ZTv0_n12_N7android8hardw
355:   FUNC GLOBAL DEFAULT 14 _ZN7android8hardware6came
356:   FUNC GLOBAL DEFAULT 14 _ZN7android8hardware6came
357:   FUNC GLOBAL DEFAULT 14 _ZN7android8hardware6came
358:   FUNC GLOBAL DEFAULT 14 _ZN7android8hardware6came
359:   FUNC GLOBAL DEFAULT 14 _ZN7android8hardware6came
360:   FUNC GLOBAL DEFAULT 14 _ZN7android8hardware6came
361:   FUNC GLOBAL DEFAULT 14 _ZN7android8hardware6came
362:   FUNC WEAK DEFAULT 14 _ZN7android8hardware7deta
363:   FUNC GLOBAL DEFAULT 14 _ZN7android8hardware6came
364:   FUNC GLOBAL DEFAULT 14 _ZN7android8hardware6came
365:   FUNC GLOBAL DEFAULT 14 _ZN7android8hardware6came
366:   FUNC GLOBAL DEFAULT 14 _ZN7android8hardware6came
367:   OBJECT WEAK DEFAULT 18 _ZTCN7android8hardware6ca
368:   OBJECT GLOBAL DEFAULT 18 _ZTCN7android8hardware6ca
369:   FUNC GLOBAL DEFAULT 14 __aeabi_memclr
370:   FUNC WEAK DEFAULT 14 _ZN7android8hardware10fro
371:   FUNC GLOBAL DEFAULT 14 _ZN7android8hardware6came
372:   FUNC GLOBAL DEFAULT 14 _ZN7android8hardware6came
373:   FUNC GLOBAL DEFAULT 14 _ZN7android8hardware6came
374:   FUNC GLOBAL DEFAULT 14 _ZN7android8hardware6came
375:   FUNC GLOBAL DEFAULT 14 _ZN7android8hardware6came
376:   FUNC GLOBAL DEFAULT 14 _ZN7android8hardware6came
377:   FUNC GLOBAL DEFAULT 14 _ZN7android8hardware6came
378:   FUNC GLOBAL DEFAULT 14 _ZN7android8hardware6came
379:   FUNC GLOBAL DEFAULT 14 _ZN7android8hardware6came
380:   FUNC GLOBAL DEFAULT 14 _ZN7android8hardware6came
381:   FUNC GLOBAL DEFAULT 14 _ZN7android8hardware6came
382:   FUNC GLOBAL DEFAULT 14 _ZN7android8hardware6came
383:   FUNC GLOBAL DEFAULT 14 _ZN7android8hardware6came
384:   FUNC GLOBAL DEFAULT 14 _ZN7android8hardware6came
385:   FUNC GLOBAL DEFAULT 14 _ZN7android8hardware6came
386:   FUNC GLOBAL DEFAULT 14 _ZN7android8hardware6came
387:   OBJECT GLOBAL DEFAULT 18 _ZTVN7android8hardware6ca
388:   FUNC GLOBAL DEFAULT 14 _ZN7android8hardware6came
389:   FUNC GLOBAL DEFAULT 14 _ZN7android8hardware6came
390:   FUNC GLOBAL DEFAULT 14 _ZN7android8hardware6came
391:   OBJECT GLOBAL DEFAULT 18 _ZTTN7android8hardware6ca
392:   FUNC GLOBAL DEFAULT 14 _ZN7android8hardware6came
393:   FUNC GLOBAL DEFAULT 14 _ZN7android8hardware6came
394:   OBJECT GLOBAL DEFAULT 18 _ZTTN7android8hardware6ca
395:   FUNC GLOBAL DEFAULT 14 _ZN7android8hardware6came
396:   FUNC GLOBAL DEFAULT 14 _ZN7android8hardware6came
397:   FUNC GLOBAL DEFAULT 14 _ZN7android8hardware6came
398:   FUNC GLOBAL DEFAULT 14 _ZN7android8hardware6came
399:   FUNC GLOBAL DEFAULT 14 _ZN7android8hardware6came
400:   FUNC GLOBAL DEFAULT 14 _ZN7android8hardware6came
401:   FUNC GLOBAL DEFAULT 14 _ZN7android8hardware6came
402:   FUNC GLOBAL DEFAULT 14 _ZN7android8hardware6came
403:   FUNC GLOBAL DEFAULT 14 _ZN7android8hardware6came
404:   FUNC GLOBAL DEFAULT 14 _ZN7android8hardware6came
405:   OBJECT GLOBAL DEFAULT 18 _ZTVN7android8hardware6ca
406:   FUNC GLOBAL DEFAULT 14 _ZN7android8hardware6came
407:   FUNC GLOBAL DEFAULT 14 _ZN7android8hardware6came
408:   FUNC GLOBAL DEFAULT 14 _ZN7android8hardware6came
409:   FUNC WEAK DEFAULT 14 _ZN7android8hardware7deta
410:   OBJECT GLOBAL DEFAULT 18 _ZTCN7android8hardware6ca
411:   FUNC GLOBAL DEFAULT 14 _ZThn20_N7android8hardwar
412:   FUNC GLOBAL DEFAULT 14 _ZN7android8hardware6came
413:   OBJECT GLOBAL DEFAULT 18 _ZTCN7android8hardware6ca
414:   FUNC GLOBAL DEFAULT 14 _ZN7android8hardware6came
415:   FUNC GLOBAL DEFAULT 14 _ZN7android8hardware6came
416:   FUNC GLOBAL DEFAULT 14 _ZN7android8hardware6came
417:   FUNC GLOBAL DEFAULT 14 _ZN7android8hardware6came
418:   OBJECT GLOBAL DEFAULT 18 _ZTCN7android8hardware6ca
419:   OBJECT GLOBAL DEFAULT 18 _ZTCN7android8hardware6ca
420:   OBJECT GLOBAL DEFAULT 18 _ZTCN7android8hardware6ca
421:   FUNC GLOBAL DEFAULT 14 _ZN7android8hardware6came
422:   FUNC GLOBAL DEFAULT 14 _ZN7android8hardware6came
423:   FUNC GLOBAL DEFAULT 14 _ZN7android8hardware6came
424:   FUNC GLOBAL DEFAULT 14 _ZN7android8hardware6came
425:   FUNC GLOBAL DEFAULT 14 _ZTv0_n12_N7android8hardw
426:   FUNC GLOBAL DEFAULT 14 _ZN7android8hardware6came
427:   OBJECT GLOBAL DEFAULT 18 _ZTCN7android8hardware6ca
428:   OBJECT GLOBAL DEFAULT 18 _ZTCN7android8hardware6ca
429:   FUNC GLOBAL DEFAULT 14 _ZN7android8hardware6came
430:   FUNC GLOBAL DEFAULT 14 _ZN7android8hardware6came
431:   FUNC GLOBAL DEFAULT 14 _ZN7android8hardware6came
432:   FUNC GLOBAL DEFAULT 14 _ZN7android8hardware6came
433:   FUNC GLOBAL DEFAULT 14 _ZN7android8hardware6came
434:   FUNC GLOBAL DEFAULT 14 _ZN7android8hardware6came
435:   FUNC GLOBAL DEFAULT 14 _ZN7android8hardware6came
436:   FUNC GLOBAL DEFAULT 14 _ZN7android8hardware6came
437:   FUNC GLOBAL DEFAULT 14 _ZN7android8hardware6came
438:   FUNC GLOBAL DEFAULT 14 _ZN7android8hardware6came
439:   FUNC GLOBAL DEFAULT 14 _ZN7android8hardware6came
440:   OBJECT GLOBAL DEFAULT 18 _ZTCN7android8hardware6ca
441:   FUNC GLOBAL DEFAULT 14 _ZN7android8hardware6came
442:   FUNC GLOBAL DEFAULT 14 _ZN7android8hardware6came
443:   FUNC WEAK DEFAULT 14 _ZNSt3__113__tree_removeI
444:   FUNC GLOBAL DEFAULT 14 _ZN7android8hardware6came
445:   FUNC GLOBAL DEFAULT 14 _ZN7android8hardware6came
446:   FUNC GLOBAL DEFAULT 14 _ZN7android8hardware6came
447:   FUNC GLOBAL DEFAULT 14 _ZN7android8hardware6came
448:   FUNC GLOBAL DEFAULT 14 _ZN7android8hardware6came
449:   FUNC GLOBAL DEFAULT 14 _ZThn20_N7android8hardwar
450:   OBJECT GLOBAL DEFAULT 18 _ZTVN7android8hardware6ca
451:   FUNC GLOBAL DEFAULT 14 _ZN7android8hardware6came
452:   FUNC GLOBAL DEFAULT 14 _ZN7android8hardware6came
453:   FUNC GLOBAL DEFAULT 14 _ZN7android8hardware6came
454:   FUNC GLOBAL DEFAULT 14 _ZN7android8hardware6came
455:   FUNC GLOBAL DEFAULT 14 _ZN7android8hardware6came
456:   FUNC GLOBAL DEFAULT 14 _ZN7android8hardware6came
457:   OBJECT GLOBAL DEFAULT 18 _ZTTN7android8hardware6ca
458:   FUNC GLOBAL DEFAULT 14 _ZN7android8hardware6came
459:   FUNC GLOBAL DEFAULT 14 _ZN7android8hardware6came
460:   FUNC WEAK DEFAULT 14 _ZN7android8hardware7deta
461:   FUNC GLOBAL DEFAULT 14 _ZN7android8hardware6came
462:   FUNC GLOBAL DEFAULT 14 _ZN7android8hardware6came
463:   FUNC GLOBAL DEFAULT 14 _ZN7android8hardware6came
464:   FUNC GLOBAL DEFAULT 14 __aeabi_memcpy4
465:   FUNC GLOBAL DEFAULT 14 _ZN7android8hardware6came
466:   FUNC GLOBAL DEFAULT 14 _ZN7android8hardware6came
467:   FUNC GLOBAL DEFAULT 14 _ZN7android8hardware6came
468:   FUNC GLOBAL DEFAULT 14 _ZN7android8hardware6came
469:   FUNC GLOBAL DEFAULT 14 _ZN7android8hardware6came
470:   FUNC GLOBAL DEFAULT 14 _ZN7android8hardware6came
471:   FUNC GLOBAL DEFAULT 14 _ZN7android8hardware6came
472:   FUNC GLOBAL DEFAULT 14 _ZN7android8hardware6came
473:   FUNC GLOBAL DEFAULT 14 _ZN7android8hardware6came
474:   FUNC GLOBAL DEFAULT 14 _ZN7android8hardware6came
475:   FUNC GLOBAL DEFAULT 14 _ZN7android8hardware6came
476:   FUNC GLOBAL DEFAULT 14 __aeabi_memcpy8
477:   FUNC GLOBAL DEFAULT 14 _ZN7android8hardware6came
478:   FUNC WEAK DEFAULT 14 _ZNSt3__16vectorIPvNS_9al
479:   OBJECT GLOBAL DEFAULT 18 _ZTCN7android8hardware6ca
480:   FUNC GLOBAL DEFAULT 14 _ZN7android8hardware6came
481:   FUNC WEAK DEFAULT 14 _ZNSt3__16__treeINS_12__v
482:   FUNC GLOBAL DEFAULT 14 _ZN7android8hardware6came
483:   FUNC GLOBAL DEFAULT 14 _ZN7android8hardware6came
484:   FUNC GLOBAL DEFAULT 14 _ZN7android8hardware6came
485:   FUNC GLOBAL DEFAULT 14 _ZN7android8hardware6came
486:   FUNC GLOBAL DEFAULT 14 _ZN7android8hardware6came
487:   FUNC GLOBAL DEFAULT 14 _ZN7android8hardware6came
488:   FUNC GLOBAL DEFAULT 14 _ZN7android8hardware6came
489:   FUNC GLOBAL DEFAULT 14 _ZN7android8hardware6came
490:   FUNC GLOBAL DEFAULT 14 _ZN7android8hardware6came
491:   FUNC GLOBAL DEFAULT 14 _ZN7android8hardware6came
492:   FUNC GLOBAL DEFAULT 14 _ZN7android8hardware6came
493:   OBJECT GLOBAL DEFAULT 18 _ZTCN7android8hardware6ca
494:   OBJECT GLOBAL DEFAULT 18 _ZTVN7android8hardware6ca
495:   FUNC GLOBAL DEFAULT 14 _ZN7android8hardware6came
496:   OBJECT GLOBAL DEFAULT 18 _ZTCN7android8hardware6ca
497:   FUNC GLOBAL DEFAULT 14 _ZN7android8hardware6came
498:   FUNC GLOBAL DEFAULT 14 _ZN7android8hardware6came
499:   OBJECT GLOBAL DEFAULT 18 _ZTCN7android8hardware6ca
500:   FUNC WEAK DEFAULT 14 _ZN7android8hardware7deta
501:   FUNC GLOBAL DEFAULT 14 _ZN7android8hardware6came
502:   FUNC GLOBAL DEFAULT 14 _ZN7android8hardware6came
503:   OBJECT GLOBAL DEFAULT 18 _ZTCN7android8hardware6ca
504:   FUNC GLOBAL DEFAULT 14 _ZN7android8hardware6came
505:   FUNC GLOBAL DEFAULT 14 _ZN7android8hardware6came
506:   FUNC WEAK DEFAULT 14 _ZNSt3__16__treeINS_12__v
507:   FUNC GLOBAL DEFAULT 14 _ZN7android8hardware6came
508:   FUNC GLOBAL DEFAULT 14 _ZN7android8hardware6came
509:   FUNC GLOBAL DEFAULT 14 _ZN7android8hardware6came
510:   OBJECT GLOBAL DEFAULT 18 _ZTCN7android8hardware6ca
511:   FUNC WEAK DEFAULT 14 _ZN7android8hardware7deta
512:   OBJECT GLOBAL DEFAULT 18 _ZTCN7android8hardware6ca
513:   FUNC GLOBAL DEFAULT 14 _ZN7android8hardware6came
514:   FUNC GLOBAL DEFAULT 14 _ZN7android8hardware6came
515:   FUNC GLOBAL DEFAULT 14 _ZN7android8hardware6came
516:   FUNC GLOBAL DEFAULT 14 _ZN7android8hardware6came
517:   FUNC GLOBAL DEFAULT 14 _ZN7android8hardware6came
518:   FUNC GLOBAL DEFAULT 14 _ZN7android8hardware6came
519:   FUNC WEAK DEFAULT 14 _ZNSt3__16__treeINS_12__v
520:   OBJECT WEAK DEFAULT 18 _ZTCN7android8hardware6ca
521:   FUNC GLOBAL DEFAULT 14 _ZN7android8hardware6came
522:   OBJECT GLOBAL DEFAULT 18 _ZTCN7android8hardware6ca
523:   FUNC GLOBAL DEFAULT 14 _ZN7android8hardware6came
524:   FUNC GLOBAL DEFAULT 14 _ZN7android8hardware6came
