 0x0000000e (SONAME)                     Library soname: [libnativeloader_lazy.so]
  
Symbol   contains 24 entries:
Num:   Type Bind Vis Ndx Name
0:   NOTYPE LOCAL DEFAULT UND
1:   FUNC GLOBAL DEFAULT UND __cxa_finalize@LIBC (2)
2:   FUNC GLOBAL DEFAULT UND __cxa_guard_acquire
3:   FUNC GLOBAL DEFAULT UND __cxa_guard_release
4:   FUNC GLOBAL DEFAULT UND dlopen@LIBC (3)
5:   FUNC GLOBAL DEFAULT UND dlsym@LIBC (3)
6:   FUNC GLOBAL DEFAULT UND __stack_chk_fail@LIBC (2)
7:   OBJECT GLOBAL DEFAULT UND __stack_chk_guard@LIBC (2)
8:   FUNC GLOBAL DEFAULT UND memset@LIBC (2)
9:   FUNC GLOBAL DEFAULT 13 FindNativeLoaderNamespace
10:   FUNC GLOBAL DEFAULT 13 ResetNativeLoader
11:   FUNC GLOBAL DEFAULT 13 __aeabi_memclr8
12:   FUNC GLOBAL DEFAULT 13 __aeabi_memset8
13:   FUNC GLOBAL DEFAULT 13 CloseNativeLibrary
14:   FUNC GLOBAL DEFAULT 13 CreateClassLoaderNamespac
15:   FUNC GLOBAL DEFAULT 13 InitializeNativeLoader
16:   FUNC GLOBAL DEFAULT 13 OpenNativeLibrary
17:   FUNC GLOBAL DEFAULT 13 __aeabi_memset
18:   FUNC GLOBAL DEFAULT 13 FindNamespaceByClassLoade
19:   FUNC GLOBAL DEFAULT 13 NativeLoaderFreeErrorMess
20:   FUNC GLOBAL DEFAULT 13 OpenNativeLibraryInNamesp
21:   FUNC GLOBAL DEFAULT 13 __aeabi_memclr
22:   FUNC GLOBAL DEFAULT 13 __aeabi_memclr4
23:   FUNC GLOBAL DEFAULT 13 __aeabi_memset4
