 0x000000000000000e (SONAME)             Library soname: [server_configurable_flags.so]
  
Symbol   contains 170 entries:
Num:   Type Bind Vis Ndx Name
0:   NOTYPE LOCAL DEFAULT UND
1:   FUNC GLOBAL DEFAULT UND __cxa_finalize@LIBC (2)
2:   FUNC GLOBAL DEFAULT UND __cxa_atexit@LIBC (2)
3:   FUNC GLOBAL DEFAULT UND _ZN7android4base10LogMess
4:   FUNC GLOBAL DEFAULT UND _ZN7android4base10LogMess
5:   FUNC GLOBAL DEFAULT UND _ZN7android4base10LogMess
6:   FUNC GLOBAL DEFAULT UND _ZN7android4base10StartsW
7:   FUNC GLOBAL DEFAULT UND _ZN7android4base11GetProp
8:   FUNC GLOBAL DEFAULT UND _ZN7android4base11SetProp
9:   FUNC GLOBAL DEFAULT UND _ZN7android4base14GetIntP
10:   FUNC GLOBAL DEFAULT UND _ZN7android4base15WriteSt
11:   FUNC GLOBAL DEFAULT UND _ZN7android4base21GetMini
12:   FUNC GLOBAL DEFAULT UND _ZNKSt3__112basic_stringI
13:   FUNC GLOBAL DEFAULT UND _ZNKSt3__119__shared_weak
14:   FUNC GLOBAL DEFAULT UND _ZNKSt3__120__vector_base
15:   FUNC GLOBAL DEFAULT UND _ZNKSt3__121__basic_strin
16:   FUNC GLOBAL DEFAULT UND _ZNKSt3__123__match_any_b
17:   FUNC GLOBAL DEFAULT UND _ZNKSt3__16locale4nameEv
18:   FUNC GLOBAL DEFAULT UND _ZNKSt3__16locale9use_fac
19:   FUNC GLOBAL DEFAULT UND _ZNKSt3__18ios_base6getlo
20:   FUNC GLOBAL DEFAULT UND _ZNSt3__112basic_stringIc
21:   FUNC GLOBAL DEFAULT UND _ZNSt3__112basic_stringIc
22:   FUNC GLOBAL DEFAULT UND _ZNSt3__112basic_stringIc
23:   FUNC GLOBAL DEFAULT UND _ZNSt3__112basic_stringIc
24:   FUNC GLOBAL DEFAULT UND _ZNSt3__112basic_stringIc
25:   FUNC GLOBAL DEFAULT UND _ZNSt3__113basic_ostreamI
26:   FUNC GLOBAL DEFAULT UND _ZNSt3__113basic_ostreamI
27:   FUNC GLOBAL DEFAULT UND _ZNSt3__113basic_ostreamI
28:   FUNC GLOBAL DEFAULT UND _ZNSt3__115__get_classnam
29:   FUNC GLOBAL DEFAULT UND _ZNSt3__119__shared_weak_
30:   FUNC GLOBAL DEFAULT UND _ZNSt3__119__shared_weak_
31:   FUNC GLOBAL DEFAULT UND _ZNSt3__120__get_collatio
32:   OBJECT GLOBAL DEFAULT UND _ZNSt3__15ctypeIcE2idE
33:   FUNC GLOBAL DEFAULT UND _ZNSt3__16localeC1ERKS0_
34:   FUNC GLOBAL DEFAULT UND _ZNSt3__16localeC1Ev
35:   FUNC GLOBAL DEFAULT UND _ZNSt3__16localeD1Ev
36:   OBJECT GLOBAL DEFAULT UND _ZNSt3__17collateIcE2idE
37:   FUNC GLOBAL DEFAULT UND _ZNSt3__18ios_base5clearE
38:   FUNC GLOBAL DEFAULT UND _ZNSt3__19to_stringEi
39:   FUNC GLOBAL DEFAULT UND _ZNSt3__1plIcNS_11char_tr
40:   FUNC GLOBAL DEFAULT UND _ZdlPv
41:   FUNC GLOBAL DEFAULT UND _Znwm
42:   FUNC GLOBAL DEFAULT UND __errno@LIBC (2)
43:   FUNC GLOBAL DEFAULT UND __stack_chk_fail@LIBC (2)
44:   FUNC GLOBAL DEFAULT UND abort@LIBC (2)
45:   FUNC WEAK DEFAULT UND android_fdsan_close_with_@LIBC_Q (3)
46:   FUNC WEAK DEFAULT UND android_fdsan_create_owne@LIBC_Q (3)
47:   FUNC WEAK DEFAULT UND android_fdsan_exchange_ow@LIBC_Q (3)
48:   FUNC GLOBAL DEFAULT UND close@LIBC (2)
49:   FUNC GLOBAL DEFAULT UND memchr@LIBC (2)
50:   FUNC GLOBAL DEFAULT UND memcmp@LIBC (2)
51:   FUNC GLOBAL DEFAULT UND memcpy@LIBC (2)
52:   FUNC GLOBAL DEFAULT UND memmove@LIBC (2)
53:   FUNC GLOBAL DEFAULT UND memset@LIBC (2)
54:   FUNC GLOBAL DEFAULT UND open@LIBC (2)
55:   FUNC GLOBAL DEFAULT UND property_list
56:   FUNC GLOBAL DEFAULT UND strcmp@LIBC (2)
57:   FUNC GLOBAL DEFAULT UND strlen@LIBC (2)
58:   FUNC WEAK DEFAULT 14 _ZNSt3__111basic_regexIcN
59:   OBJECT WEAK DEFAULT 18 _ZTVNSt3__111__alternateI
60:   OBJECT WEAK DEFAULT 18 _ZTVNSt3__111__match_anyI
61:   FUNC WEAK DEFAULT 14 _ZNKSt3__118__back_ref_co
62:   FUNC WEAK DEFAULT 14 _ZNKSt3__126__end_marked_
63:   OBJECT WEAK DEFAULT 18 _ZTVNSt3__116__owns_one_s
64:   OBJECT WEAK DEFAULT 18 _ZTVNSt3__117__repeat_one
65:   OBJECT WEAK DEFAULT 18 _ZTVNSt3__121__empty_non_
66:   FUNC WEAK DEFAULT 14 _ZNKSt3__111__alternateIc
67:   FUNC WEAK DEFAULT 14 _ZNKSt3__16__loopIcE6__ex
68:   FUNC WEAK DEFAULT 14 _ZNSt3__111basic_regexIcN
69:   FUNC WEAK DEFAULT 14 _ZNSt3__111basic_regexIcN
70:   FUNC WEAK DEFAULT 14 _ZNKSt3__111__end_stateIc
71:   FUNC WEAK DEFAULT 14 _ZNSt3__111basic_regexIcN
72:   FUNC WEAK DEFAULT 14 _ZNSt3__111basic_regexIcN
73:   OBJECT WEAK DEFAULT 18 _ZTVNSt3__110__r_anchorIc
74:   FUNC WEAK DEFAULT 14 _ZNKSt3__111__alternateIc
75:   FUNC WEAK DEFAULT 14 _ZNSt3__111basic_regexIcN
76:   FUNC WEAK DEFAULT 14 _ZNSt3__111basic_regexIcN
77:   FUNC WEAK DEFAULT 14 _ZNSt3__111basic_regexIcN
78:   FUNC WEAK DEFAULT 14 _ZNKSt3__128__begin_marke
79:   OBJECT WEAK DEFAULT 18 _ZTVNSt3__128__begin_mark
80:   FUNC GLOBAL DEFAULT 14 _ZN25server_configurable_
81:   FUNC WEAK DEFAULT 14 _ZNSt3__16vectorIcNS_9all
82:   OBJECT WEAK DEFAULT 18 _ZTVNSt3__16__loopIcEE
83:   FUNC WEAK DEFAULT 14 _ZNSt3__111basic_regexIcN
84:   FUNC WEAK DEFAULT 14 _ZNSt3__16vectorINS_4pair
85:   OBJECT WEAK DEFAULT 18 _ZTVNSt3__120__match_char
86:   FUNC GLOBAL DEFAULT 14 _ZN25server_configurable_
87:   FUNC WEAK DEFAULT 14 _ZNSt3__111basic_regexIcN
88:   FUNC WEAK DEFAULT 14 _ZNSt3__114__split_buffer
89:   FUNC WEAK DEFAULT 14 _ZNSt3__16vectorINS_7__st
90:   FUNC WEAK DEFAULT 14 _ZNSt3__16vectorINS_9sub_
91:   FUNC WEAK DEFAULT 14 _ZNKSt3__110__l_anchorIcE
92:   FUNC WEAK DEFAULT 14 _ZNKSt3__115__word_bounda
93:   FUNC WEAK DEFAULT 14 _ZNKSt3__121__empty_non_o
94:   FUNC WEAK DEFAULT 14 _ZNSt3__124__put_characte
95:   FUNC WEAK DEFAULT 14 _ZNSt3__16vectorINS_9sub_
96:   OBJECT WEAK DEFAULT 18 _ZTVNSt3__110__l_anchorIc
97:   OBJECT WEAK DEFAULT 18 _ZTVNSt3__117__owns_two_s
98:   OBJECT WEAK DEFAULT 18 _ZTVNSt3__120__bracket_ex
99:   FUNC WEAK DEFAULT 14 _ZNKSt3__112regex_traitsI
100:   FUNC WEAK DEFAULT 14 _ZNSt3__111basic_regexIcN
101:   FUNC WEAK DEFAULT 14 _ZNSt3__111basic_regexIcN
102:   FUNC WEAK DEFAULT 14 _ZNSt3__114__split_buffer
103:   FUNC WEAK DEFAULT 14 _ZNSt3__16vectorINS_9sub_
104:   FUNC WEAK DEFAULT 14 _ZNKSt3__112regex_traitsI
105:   FUNC WEAK DEFAULT 14 _ZNSt3__111basic_regexIcN
106:   FUNC WEAK DEFAULT 14 _ZNSt3__116__owns_one_sta
107:   FUNC WEAK DEFAULT 14 _ZNSt3__117__owns_two_sta
108:   FUNC WEAK DEFAULT 14 _ZNKSt3__111__match_anyIc
109:   FUNC WEAK DEFAULT 14 _ZNSt3__16vectorINS_4pair
110:   OBJECT WEAK DEFAULT 18 _ZTVNSt3__116__back_ref_i
111:   OBJECT WEAK DEFAULT 18 _ZTVNSt3__120__shared_ptr
112:   FUNC WEAK DEFAULT 14 _ZNKSt3__111basic_regexIc
113:   FUNC WEAK DEFAULT 14 _ZNKSt3__112regex_traitsI
114:   FUNC WEAK DEFAULT 14 _ZNKSt3__113__empty_state
115:   FUNC WEAK DEFAULT 14 _ZNSt3__15dequeINS_7__sta
116:   FUNC WEAK DEFAULT 14 _ZNSt3__15dequeINS_7__sta
117:   FUNC WEAK DEFAULT 14 _ZNKSt3__111basic_regexIc
118:   FUNC WEAK DEFAULT 14 _ZNSt3__111basic_regexIcN
119:   FUNC WEAK DEFAULT 14 _ZNKSt3__111basic_regexIc
120:   OBJECT WEAK DEFAULT 18 _ZTVNSt3__112__match_char
121:   FUNC WEAK DEFAULT 14 _ZNKSt3__110__back_refIcE
122:   FUNC WEAK DEFAULT 14 _ZNSt3__111basic_regexIcN
123:   FUNC WEAK DEFAULT 14 _ZNSt3__111basic_regexIcN
124:   FUNC WEAK DEFAULT 14 _ZNKSt3__120__bracket_exp
125:   FUNC WEAK DEFAULT 14 _ZNSt3__112__deque_baseIN
126:   FUNC WEAK DEFAULT 14 _ZNSt3__116__owns_one_sta
127:   FUNC WEAK DEFAULT 14 _ZNSt3__117__owns_two_sta
128:   FUNC WEAK DEFAULT 14 _ZNSt3__120__shared_ptr_p
129:   OBJECT WEAK DEFAULT 18 _ZTVNSt3__123__match_any_
130:   FUNC WEAK DEFAULT 14 _ZNKSt3__110__r_anchorIcE
131:   FUNC WEAK DEFAULT 14 _ZNKSt3__112__match_charI
132:   FUNC WEAK DEFAULT 14 _ZNKSt3__120__match_char_
133:   FUNC WEAK DEFAULT 14 _ZNKSt3__16__loopIcE12__e
134:   FUNC WEAK DEFAULT 14 _ZNSt3__114__split_buffer
135:   FUNC WEAK DEFAULT 14 _ZNSt3__16vectorINS_4pair
136:   FUNC WEAK DEFAULT 14 _ZNKSt3__111basic_regexIc
137:   FUNC WEAK DEFAULT 14 _ZNSt3__111basic_regexIcN
138:   FUNC WEAK DEFAULT 14 _ZNSt3__16vectorINS_4pair
139:   FUNC WEAK DEFAULT 14 _ZNSt3__16vectorIcNS_9all
140:   OBJECT WEAK DEFAULT 18 _ZTVNSt3__115__word_bound
141:   OBJECT WEAK DEFAULT 18 _ZTVNSt3__118__back_ref_c
142:   FUNC WEAK DEFAULT 14 _ZNSt3__111basic_regexIcN
143:   FUNC WEAK DEFAULT 14 _ZNSt3__111basic_regexIcN
144:   FUNC WEAK DEFAULT 14 _ZNSt3__111basic_regexIcN
145:   FUNC WEAK DEFAULT 14 _ZNSt3__114__split_buffer
146:   FUNC WEAK DEFAULT 14 _ZNKSt3__118__match_char_
147:   FUNC WEAK DEFAULT 14 _ZNSt3__111basic_regexIcN
148:   FUNC WEAK DEFAULT 14 _ZNSt3__111basic_regexIcN
149:   FUNC WEAK DEFAULT 14 _ZNSt3__111basic_regexIcN
150:   FUNC WEAK DEFAULT 14 _ZNSt3__120__shared_ptr_p
151:   OBJECT WEAK DEFAULT 18 _ZTVNSt3__111__end_stateI
152:   OBJECT WEAK DEFAULT 18 _ZTVNSt3__118__match_char
153:   FUNC WEAK DEFAULT 14 _ZNKSt3__112regex_traitsI
154:   FUNC WEAK DEFAULT 14 _ZNKSt3__116__back_ref_ic
155:   FUNC WEAK DEFAULT 14 _ZNSt3__111basic_regexIcN
156:   FUNC WEAK DEFAULT 14 _ZNSt3__111basic_regexIcN
157:   FUNC WEAK DEFAULT 14 _ZNSt3__16vectorINS_12bas
158:   OBJECT WEAK DEFAULT 18 _ZTVNSt3__110__back_refIc
159:   FUNC WEAK DEFAULT 14 _ZNKSt3__117__repeat_one_
160:   FUNC WEAK DEFAULT 14 _ZNSt3__16vectorINS_9sub_
161:   OBJECT WEAK DEFAULT 18 _ZTVNSt3__113__empty_stat
162:   OBJECT WEAK DEFAULT 18 _ZTVNSt3__126__end_marked
163:   FUNC WEAK DEFAULT 14 _ZNKSt3__111__lookaheadIc
164:   FUNC WEAK DEFAULT 14 _ZNKSt3__112regex_traitsI
165:   FUNC WEAK DEFAULT 14 _ZNSt3__111basic_regexIcN
166:   FUNC WEAK DEFAULT 14 _ZNSt3__111basic_regexIcN
167:   FUNC WEAK DEFAULT 14 _ZNSt3__111basic_regexIcN
168:   FUNC WEAK DEFAULT 14 _ZNSt3__114__split_buffer
169:   OBJECT WEAK DEFAULT 18 _ZTVNSt3__111__lookaheadI
