 0x0000000e (SONAME)                     Library soname: [libtombstoned_client.so]
  
Symbol   contains 68 entries:
Num:   Type Bind Vis Ndx Name
0:   NOTYPE LOCAL DEFAULT UND
1:   FUNC GLOBAL DEFAULT UND __cxa_finalize@LIBC (2)
2:   FUNC GLOBAL DEFAULT UND _ZN7android4base27Receive
3:   FUNC GLOBAL DEFAULT UND _ZNKSt3__120__vector_base
4:   FUNC GLOBAL DEFAULT UND _ZdlPv
5:   FUNC GLOBAL DEFAULT UND _Znwj
6:   FUNC GLOBAL DEFAULT UND __errno@LIBC (2)
7:   FUNC GLOBAL DEFAULT UND __stack_chk_fail@LIBC (2)
8:   OBJECT GLOBAL DEFAULT UND __stack_chk_guard@LIBC (2)
9:   FUNC GLOBAL DEFAULT UND __write_chk@LIBC_N (3)
10:   FUNC GLOBAL DEFAULT UND abort@LIBC (2)
11:   FUNC WEAK DEFAULT UND android_fdsan_close_with_@LIBC_Q (4)
12:   FUNC WEAK DEFAULT UND android_fdsan_create_owne@LIBC_Q (4)
13:   FUNC WEAK DEFAULT UND android_fdsan_exchange_ow@LIBC_Q (4)
14:   FUNC GLOBAL DEFAULT UND close@LIBC (2)
15:   FUNC GLOBAL DEFAULT UND fcntl@LIBC (2)
16:   FUNC GLOBAL DEFAULT UND socket_local_client
17:   FUNC GLOBAL DEFAULT UND strerror@LIBC (2)
18:   FUNC GLOBAL DEFAULT UND _ZN7android4base12StringP
19:   FUNC GLOBAL DEFAULT UND _ZN7android4base16ReadFil
20:   FUNC GLOBAL DEFAULT UND _ZN7android4base4TrimERKN
21:   FUNC GLOBAL DEFAULT UND __assert@LIBC (2)
22:   FUNC GLOBAL DEFAULT UND __memcpy_chk@LIBC (2)
23:   FUNC GLOBAL DEFAULT UND __strlcpy_chk@LIBC (2)
24:   FUNC GLOBAL DEFAULT UND __strlen_chk@LIBC (2)
25:   FUNC GLOBAL DEFAULT UND android_set_abort_message@LIBC (2)
26:   FUNC GLOBAL DEFAULT UND clock_gettime@LIBC (2)
27:   FUNC GLOBAL DEFAULT UND connect@LIBC (2)
28:   FUNC GLOBAL DEFAULT UND gettid@LIBC (2)
29:   FUNC GLOBAL DEFAULT UND socket@LIBC (2)
30:   FUNC GLOBAL DEFAULT UND strlen@LIBC (2)
31:   FUNC GLOBAL DEFAULT UND syscall@LIBC (2)
32:   FUNC GLOBAL DEFAULT UND write@LIBC (2)
33:   FUNC GLOBAL DEFAULT UND writev@LIBC (2)
34:   FUNC GLOBAL DEFAULT UND memcpy@LIBC (2)
35:   FUNC GLOBAL DEFAULT UND memset@LIBC (2)
36:   FUNC GLOBAL DEFAULT 14 __aeabi_uldivmod
37:   FUNC GLOBAL DEFAULT 14 __aeabi_memclr4
38:   FUNC GLOBAL DEFAULT 14 _Z28tombstoned_notify_com
39:   FUNC GLOBAL DEFAULT 14 async_safe_fatal_va_list
40:   FUNC WEAK DEFAULT 14 _ZNSt3__16vectorIPN7andro
41:   FUNC GLOBAL DEFAULT 14 async_safe_format_log
42:   FUNC GLOBAL DEFAULT 14 async_safe_format_buffer
43:   FUNC GLOBAL DEFAULT 14 async_safe_format_fd
44:   FUNC GLOBAL DEFAULT 14 __udivsi3
45:   FUNC GLOBAL DEFAULT 14 _Z18tombstoned_connectiPN
46:   FUNC WEAK DEFAULT 14 _ZNSt3__16vectorIPN7andro
47:   FUNC GLOBAL DEFAULT 14 async_safe_fatal_no_abort
48:   FUNC GLOBAL DEFAULT 14 async_safe_format_buffer_
49:   FUNC GLOBAL DEFAULT 14 async_safe_format_fd_va_l
50:   FUNC GLOBAL DEFAULT 14 async_safe_format_log_va_
51:   FUNC GLOBAL DEFAULT 14 __udivmodsi4
52:   FUNC GLOBAL DEFAULT 14 __aeabi_memcpy4
53:   FUNC GLOBAL DEFAULT 14 __aeabi_memset4
54:   FUNC GLOBAL DEFAULT 14 _Z15get_thread_namei
55:   FUNC GLOBAL DEFAULT 14 _Z16get_process_namei
56:   FUNC GLOBAL DEFAULT 14 async_safe_write_log
57:   FUNC GLOBAL DEFAULT 14 __aeabi_memclr
58:   FUNC GLOBAL DEFAULT 14 __udivmoddi4
59:   FUNC GLOBAL DEFAULT 14 __aeabi_memclr8
60:   FUNC WEAK DEFAULT 14 _ZN7android4base22Receive
61:   FUNC WEAK DEFAULT 14 _ZNSt3__113__vector_baseI
62:   FUNC GLOBAL DEFAULT 14 __aeabi_uidiv
63:   FUNC GLOBAL DEFAULT 14 __aeabi_uidivmod
64:   FUNC GLOBAL DEFAULT 14 __aeabi_memcpy
65:   FUNC GLOBAL DEFAULT 14 __aeabi_memcpy8
66:   FUNC GLOBAL DEFAULT 14 __aeabi_memset
67:   FUNC GLOBAL DEFAULT 14 __aeabi_memset8
