 0x000000000000000e (SONAME)             Library soname: [libkeymaster_portable.so]
  
Symbol   contains 793 entries:
Num:   Type Bind Vis Ndx Name
0:   NOTYPE LOCAL DEFAULT UND
1:   FUNC GLOBAL DEFAULT UND __cxa_finalize@LIBC (2)
2:   FUNC GLOBAL DEFAULT UND __cxa_atexit@LIBC (2)
3:   FUNC GLOBAL DEFAULT UND __cfi_slowpath@LIBC_OMR1 (3)
4:   FUNC GLOBAL DEFAULT UND __memset_chk@LIBC (2)
5:   FUNC GLOBAL DEFAULT UND __memcpy_chk@LIBC (2)
6:   FUNC GLOBAL DEFAULT UND qsort@LIBC (2)
7:   FUNC GLOBAL DEFAULT UND malloc@LIBC (2)
8:   FUNC GLOBAL DEFAULT UND memcmp@LIBC (2)
9:   FUNC GLOBAL DEFAULT UND free@LIBC (2)
10:   FUNC GLOBAL DEFAULT UND abort@LIBC (2)
11:   FUNC GLOBAL DEFAULT UND CRYPTO_memcmp
12:   FUNC GLOBAL DEFAULT UND HMAC_CTX_init
13:   FUNC GLOBAL DEFAULT UND EVP_sha256
14:   FUNC GLOBAL DEFAULT UND HMAC_Init_ex
15:   FUNC GLOBAL DEFAULT UND HMAC_Update
16:   FUNC GLOBAL DEFAULT UND HMAC_Final
17:   FUNC GLOBAL DEFAULT UND HMAC_CTX_cleanup
18:   FUNC GLOBAL DEFAULT UND AES_set_encrypt_key
19:   FUNC GLOBAL DEFAULT UND AES_set_decrypt_key
20:   FUNC GLOBAL DEFAULT UND AES_encrypt
21:   FUNC GLOBAL DEFAULT UND AES_decrypt
22:   FUNC GLOBAL DEFAULT UND SHA256_Init
23:   FUNC GLOBAL DEFAULT UND SHA256_Update
24:   FUNC GLOBAL DEFAULT UND SHA256_Final
25:   FUNC GLOBAL DEFAULT UND EVP_PKEY_type
26:   FUNC GLOBAL DEFAULT UND EVP_PKEY_get1_RSA
27:   FUNC GLOBAL DEFAULT UND RSA_size
28:   FUNC GLOBAL DEFAULT UND BN_get_word
29:   FUNC GLOBAL DEFAULT UND EVP_PKEY_get1_EC_KEY
30:   FUNC GLOBAL DEFAULT UND EC_KEY_get0_group
31:   FUNC GLOBAL DEFAULT UND d2i_PrivateKey
32:   FUNC GLOBAL DEFAULT UND time@LIBC (2)
33:   FUNC GLOBAL DEFAULT UND RSA_free
34:   FUNC GLOBAL DEFAULT UND EC_KEY_free
35:   FUNC GLOBAL DEFAULT UND EVP_PKEY_free
36:   FUNC GLOBAL DEFAULT UND EVP_aes_128_ecb
37:   FUNC GLOBAL DEFAULT UND EVP_aes_192_ecb
38:   FUNC GLOBAL DEFAULT UND EVP_aes_256_ecb
39:   FUNC GLOBAL DEFAULT UND EVP_aes_128_cbc
40:   FUNC GLOBAL DEFAULT UND EVP_aes_192_cbc
41:   FUNC GLOBAL DEFAULT UND EVP_aes_256_cbc
42:   FUNC GLOBAL DEFAULT UND EVP_aes_128_ctr
43:   FUNC GLOBAL DEFAULT UND EVP_aes_192_ctr
44:   FUNC GLOBAL DEFAULT UND EVP_aes_256_ctr
45:   FUNC GLOBAL DEFAULT UND EVP_aes_128_gcm
46:   FUNC GLOBAL DEFAULT UND EVP_aes_192_gcm
47:   FUNC GLOBAL DEFAULT UND EVP_aes_256_gcm
48:   FUNC GLOBAL DEFAULT UND EVP_PKEY_new
49:   FUNC GLOBAL DEFAULT UND i2d_PUBKEY
50:   FUNC GLOBAL DEFAULT UND ASN1_item_d2i
51:   FUNC GLOBAL DEFAULT UND ASN1_item_i2d
52:   FUNC GLOBAL DEFAULT UND ASN1_item_new
53:   FUNC GLOBAL DEFAULT UND ASN1_item_free
54:   FUNC GLOBAL DEFAULT UND ASN1_INTEGER_new
55:   FUNC GLOBAL DEFAULT UND ASN1_INTEGER_set
56:   FUNC GLOBAL DEFAULT UND BN_new
57:   FUNC GLOBAL DEFAULT UND BN_set_u64
58:   FUNC GLOBAL DEFAULT UND BN_to_ASN1_INTEGER
59:   FUNC GLOBAL DEFAULT UND ASN1_NULL_new
60:   FUNC GLOBAL DEFAULT UND ASN1_OCTET_STRING_new
61:   FUNC GLOBAL DEFAULT UND ASN1_OCTET_STRING_set
62:   FUNC GLOBAL DEFAULT UND ASN1_ENUMERATED_set
63:   FUNC GLOBAL DEFAULT UND ASN1_INTEGER_get
64:   FUNC GLOBAL DEFAULT UND ASN1_ENUMERATED_get
65:   FUNC GLOBAL DEFAULT UND ASN1_INTEGER_free
66:   FUNC GLOBAL DEFAULT UND BN_free
67:   FUNC GLOBAL DEFAULT UND sk_new_null
68:   FUNC GLOBAL DEFAULT UND sk_push
69:   FUNC GLOBAL DEFAULT UND sk_num
70:   FUNC GLOBAL DEFAULT UND sk_value
71:   FUNC GLOBAL DEFAULT UND ASN1_INTEGER_to_BN
72:   OBJECT GLOBAL DEFAULT UND ASN1_INTEGER_it
73:   OBJECT GLOBAL DEFAULT UND ASN1_NULL_it
74:   OBJECT GLOBAL DEFAULT UND ASN1_OCTET_STRING_it
75:   OBJECT GLOBAL DEFAULT UND ASN1_BOOLEAN_it
76:   OBJECT GLOBAL DEFAULT UND ASN1_ENUMERATED_it
77:   FUNC GLOBAL DEFAULT UND X509_new
78:   FUNC GLOBAL DEFAULT UND X509_set_version
79:   FUNC GLOBAL DEFAULT UND X509_set_serialNumber
80:   FUNC GLOBAL DEFAULT UND X509_NAME_new
81:   FUNC GLOBAL DEFAULT UND X509_NAME_add_entry_by_tx
82:   FUNC GLOBAL DEFAULT UND X509_set_subject_name
83:   FUNC GLOBAL DEFAULT UND ASN1_TIME_new
84:   FUNC GLOBAL DEFAULT UND ASN1_TIME_set
85:   FUNC GLOBAL DEFAULT UND X509_set_notBefore
86:   FUNC GLOBAL DEFAULT UND X509_set_notAfter
87:   FUNC GLOBAL DEFAULT UND d2i_X509
88:   FUNC GLOBAL DEFAULT UND X509_get_subject_name
89:   FUNC GLOBAL DEFAULT UND X509_set_issuer_name
90:   FUNC GLOBAL DEFAULT UND X509V3_set_ctx
91:   FUNC GLOBAL DEFAULT UND X509V3_EXT_nconf_nid
92:   FUNC GLOBAL DEFAULT UND X509_add_ext
93:   FUNC GLOBAL DEFAULT UND X509_sign
94:   FUNC GLOBAL DEFAULT UND X509_EXTENSION_free
95:   FUNC GLOBAL DEFAULT UND X509_free
96:   FUNC GLOBAL DEFAULT UND X509_NAME_free
97:   FUNC GLOBAL DEFAULT UND ASN1_TIME_free
98:   FUNC GLOBAL DEFAULT UND ASN1_BIT_STRING_free
99:   FUNC GLOBAL DEFAULT UND ASN1_BIT_STRING_new
100:   FUNC GLOBAL DEFAULT UND ASN1_BIT_STRING_set_bit
101:   FUNC GLOBAL DEFAULT UND i2d_ASN1_BIT_STRING
102:   FUNC GLOBAL DEFAULT UND ASN1_OCTET_STRING_free
103:   FUNC GLOBAL DEFAULT UND X509_EXTENSION_create_by_
104:   FUNC GLOBAL DEFAULT UND X509_set_pubkey
105:   FUNC GLOBAL DEFAULT UND ASN1_OBJECT_free
106:   FUNC GLOBAL DEFAULT UND OBJ_txt2obj
107:   FUNC GLOBAL DEFAULT UND X509_EXTENSION_create_by_
108:   FUNC GLOBAL DEFAULT UND i2d_X509
109:   FUNC GLOBAL DEFAULT UND EVP_CIPHER_CTX_init
110:   FUNC GLOBAL DEFAULT UND EVP_CIPHER_CTX_cleanup
111:   FUNC GLOBAL DEFAULT UND EVP_CipherFinal_ex
112:   FUNC GLOBAL DEFAULT UND ERR_error_string
113:   FUNC GLOBAL DEFAULT UND ERR_peek_last_error
114:   FUNC GLOBAL DEFAULT UND EVP_CipherInit_ex
115:   FUNC GLOBAL DEFAULT UND EVP_CIPHER_CTX_set_paddin
116:   FUNC GLOBAL DEFAULT UND EVP_CipherUpdate
117:   FUNC GLOBAL DEFAULT UND EVP_CIPHER_CTX_ctrl
118:   FUNC GLOBAL DEFAULT UND RAND_bytes
119:   FUNC GLOBAL DEFAULT UND CMAC_CTX_new
120:   FUNC GLOBAL DEFAULT UND CMAC_Init
121:   FUNC GLOBAL DEFAULT UND CMAC_Update
122:   FUNC GLOBAL DEFAULT UND CMAC_Final
123:   FUNC GLOBAL DEFAULT UND CMAC_Reset
124:   FUNC GLOBAL DEFAULT UND CMAC_CTX_free
125:   FUNC GLOBAL DEFAULT UND EVP_PKEY_set1_EC_KEY
126:   FUNC GLOBAL DEFAULT UND EC_KEY_new
127:   FUNC GLOBAL DEFAULT UND EC_KEY_set_group
128:   FUNC GLOBAL DEFAULT UND EC_KEY_generate_key
129:   FUNC GLOBAL DEFAULT UND EC_KEY_check_key
130:   FUNC GLOBAL DEFAULT UND EC_GROUP_new_by_curve_nam
131:   FUNC GLOBAL DEFAULT UND EC_GROUP_free
132:   FUNC GLOBAL DEFAULT UND EVP_MD_CTX_init
133:   FUNC GLOBAL DEFAULT UND EVP_MD_CTX_cleanup
134:   FUNC GLOBAL DEFAULT UND EVP_sha1
135:   FUNC GLOBAL DEFAULT UND EVP_sha224
136:   FUNC GLOBAL DEFAULT UND EVP_sha384
137:   FUNC GLOBAL DEFAULT UND EVP_sha512
138:   FUNC GLOBAL DEFAULT UND EVP_PKEY_bits
139:   FUNC GLOBAL DEFAULT UND EVP_DigestSignInit
140:   FUNC GLOBAL DEFAULT UND EVP_DigestSignUpdate
141:   FUNC GLOBAL DEFAULT UND ECDSA_size
142:   FUNC GLOBAL DEFAULT UND ECDSA_sign
143:   FUNC GLOBAL DEFAULT UND EVP_DigestSignFinal
144:   FUNC GLOBAL DEFAULT UND EVP_DigestVerifyInit
145:   FUNC GLOBAL DEFAULT UND EVP_DigestVerifyUpdate
146:   FUNC GLOBAL DEFAULT UND ECDSA_verify
147:   FUNC GLOBAL DEFAULT UND EVP_DigestVerifyFinal
148:   FUNC GLOBAL DEFAULT UND HMAC
149:   FUNC GLOBAL DEFAULT UND EVP_MD_size
150:   FUNC GLOBAL DEFAULT UND EVP_DigestInit_ex
151:   FUNC GLOBAL DEFAULT UND EVP_DigestUpdate
152:   FUNC GLOBAL DEFAULT UND EVP_DigestFinal_ex
153:   FUNC GLOBAL DEFAULT UND EC_KEY_new_by_curve_name
154:   FUNC GLOBAL DEFAULT UND EC_POINT_point2oct
155:   FUNC GLOBAL DEFAULT UND EC_KEY_get0_public_key
156:   FUNC GLOBAL DEFAULT UND EC_POINT_new
157:   FUNC GLOBAL DEFAULT UND EC_POINT_oct2point
158:   FUNC GLOBAL DEFAULT UND EC_POINT_is_on_curve
159:   FUNC GLOBAL DEFAULT UND ECDH_compute_key
160:   FUNC GLOBAL DEFAULT UND EC_POINT_free
161:   FUNC GLOBAL DEFAULT UND EC_GROUP_get_curve_name
162:   FUNC GLOBAL DEFAULT UND d2i_PKCS8_PRIV_KEY_INFO
163:   FUNC GLOBAL DEFAULT UND EVP_PKCS82PKEY
164:   FUNC GLOBAL DEFAULT UND i2d_PrivateKey
165:   FUNC GLOBAL DEFAULT UND BN_CTX_new
166:   FUNC GLOBAL DEFAULT UND EC_GROUP_get_order
167:   FUNC GLOBAL DEFAULT UND BN_num_bits
168:   FUNC GLOBAL DEFAULT UND PKCS8_PRIV_KEY_INFO_free
169:   FUNC GLOBAL DEFAULT UND BN_CTX_free
170:   FUNC GLOBAL DEFAULT UND EVP_PKEY_set1_RSA
171:   FUNC GLOBAL DEFAULT UND RSA_new
172:   FUNC GLOBAL DEFAULT UND BN_set_word
173:   FUNC GLOBAL DEFAULT UND RSA_generate_key_ex
174:   FUNC GLOBAL DEFAULT UND EVP_PKEY_size
175:   FUNC GLOBAL DEFAULT UND EVP_PKEY_CTX_set_rsa_padd
176:   FUNC GLOBAL DEFAULT UND EVP_PKEY_CTX_set_rsa_pss_
177:   FUNC GLOBAL DEFAULT UND EVP_md5
178:   FUNC GLOBAL DEFAULT UND RSA_private_encrypt
179:   FUNC GLOBAL DEFAULT UND RSA_public_decrypt
180:   FUNC GLOBAL DEFAULT UND EVP_PKEY_CTX_set_rsa_oaep
181:   FUNC GLOBAL DEFAULT UND EVP_PKEY_CTX_set_rsa_mgf1
182:   FUNC GLOBAL DEFAULT UND EVP_PKEY_CTX_new
183:   FUNC GLOBAL DEFAULT UND EVP_PKEY_encrypt_init
184:   FUNC GLOBAL DEFAULT UND EVP_PKEY_encrypt
185:   FUNC GLOBAL DEFAULT UND EVP_PKEY_decrypt_init
186:   FUNC GLOBAL DEFAULT UND EVP_PKEY_decrypt
187:   FUNC GLOBAL DEFAULT UND EVP_PKEY_CTX_free
188:   FUNC GLOBAL DEFAULT UND EVP_des_ede
189:   FUNC GLOBAL DEFAULT UND EVP_des_ede3
190:   FUNC GLOBAL DEFAULT UND EVP_des_ede_cbc
191:   FUNC GLOBAL DEFAULT UND EVP_des_ede3_cbc
192:   FUNC GLOBAL DEFAULT UND memset@LIBC (2)
193:   FUNC GLOBAL DEFAULT UND memcpy@LIBC (2)
194:   FUNC GLOBAL DEFAULT UND memmove@LIBC (2)
195:   FUNC GLOBAL DEFAULT UND __stack_chk_fail@LIBC (2)
196:   FUNC GLOBAL DEFAULT 14 _ZNK9keymaster17HardwareA
197:   FUNC GLOBAL DEFAULT 14 _ZNK9keymaster20Asymmetri
198:   FUNC GLOBAL DEFAULT 14 _ZN9keymaster5EcKey13EvpT
199:   OBJECT GLOBAL DEFAULT 19 _ZTVN9keymaster28GetKeyCh
200:   FUNC GLOBAL DEFAULT 14 _ZN9keymaster16Authorizat
201:   FUNC GLOBAL DEFAULT 14 _ZN9keymaster23BlockCiphe
202:   FUNC GLOBAL DEFAULT 14 _ZN9keymaster23UpdateOper
203:   FUNC GLOBAL DEFAULT 14 _ZN9keymaster16AttestKeyR
204:   OBJECT GLOBAL DEFAULT 23 _ZN9keymaster19softwareRo
205:   FUNC GLOBAL DEFAULT 14 _ZN9keymaster12EcKeyFacto
206:   FUNC GLOBAL DEFAULT 14 _ZN9keymaster20EcdsaVerif
207:   FUNC GLOBAL DEFAULT 14 _ZN9keymaster19GenerateKe
208:   FUNC GLOBAL DEFAULT 14 ae_clear
209:   FUNC GLOBAL DEFAULT 14 _ZN9keymaster23BlockCiphe
210:   FUNC GLOBAL DEFAULT 14 _ZNK9keymaster12EcKeyFact
211:   FUNC GLOBAL DEFAULT 14 _ZN9keymaster18KM_WRAPPED
212:   FUNC GLOBAL DEFAULT 14 _ZN9keymaster16Authorizat
213:   FUNC GLOBAL DEFAULT 14 _ZN9keymaster22FinishOper
214:   FUNC GLOBAL DEFAULT 14 _ZN9keymaster18UpgradeKey
215:   OBJECT GLOBAL DEFAULT 23 _ZN9keymaster19TAG_ACTIVE
216:   FUNC GLOBAL DEFAULT 14 _ZN9keymaster23BlockCiphe
217:   FUNC GLOBAL DEFAULT 14 _ZNK9keymaster28GetKeyCha
218:   FUNC GLOBAL DEFAULT 14 _ZN9keymaster16ExportKeyR
219:   FUNC GLOBAL DEFAULT 14 _ZNK9keymaster24ImportWra
220:   OBJECT GLOBAL DEFAULT 23 _ZN9keymaster11TAG_PADDIN
221:   FUNC GLOBAL DEFAULT 14 _ZN9keymaster23BlockCiphe
222:   FUNC GLOBAL DEFAULT 14 _ZNK9keymaster12EcKeyFact
223:   FUNC GLOBAL DEFAULT 14 _ZNK9keymaster25ComputeSh
224:   FUNC GLOBAL DEFAULT 14 _ZN9keymaster23BlockCiphe
225:   OBJECT GLOBAL DEFAULT 23 _ZN9keymaster19TAG_BOOTLO
226:   FUNC GLOBAL DEFAULT 14 _ZNK9keymaster20NistCurve
227:   FUNC GLOBAL DEFAULT 14 _ZNK9keymaster22UpdateOpe
228:   FUNC GLOBAL DEFAULT 14 _ZN9keymaster16Authorizat
229:   FUNC GLOBAL DEFAULT 14 _ZN9keymaster6Logger3LogE
230:   FUNC GLOBAL DEFAULT 14 _ZN9keymaster16Authorizat
231:   FUNC GLOBAL DEFAULT 14 _ZNK9keymaster16Authoriza
232:   OBJECT GLOBAL DEFAULT 23 _ZN9keymaster15TAG_PADDIN
233:   FUNC GLOBAL DEFAULT 14 _ZNK9keymaster21EcdsaOper
234:   FUNC GLOBAL DEFAULT 14 _ZN9keymaster20NistCurveK
235:   FUNC GLOBAL DEFAULT 14 _ZN9keymaster17AttestKeyR
236:   FUNC GLOBAL DEFAULT 14 _ZN9keymaster28GetKeyChar
237:   FUNC GLOBAL DEFAULT 14 _ZN9keymaster21BeginOpera
238:   FUNC GLOBAL DEFAULT 14 _ZN9keymaster25TranslateL
239:   FUNC GLOBAL DEFAULT 14 _ZNK9keymaster13AesKeyFac
240:   FUNC GLOBAL DEFAULT 14 _ZN9keymaster24build_atte
241:   FUNC GLOBAL DEFAULT 14 _ZN9keymaster23BlockCiphe
242:   FUNC GLOBAL DEFAULT 14 _ZNK9keymaster19TripleDes
243:   FUNC GLOBAL DEFAULT 14 _ZNK9keymaster23FinishOpe
244:   OBJECT GLOBAL DEFAULT 23 _ZN9keymaster7TAG_KDFE
245:   FUNC GLOBAL DEFAULT 14 _ZN9keymaster22i2d_KM_KEY
246:   FUNC GLOBAL DEFAULT 14 _ZNK9keymaster17AddEntrop
247:   FUNC GLOBAL DEFAULT 14 _ZN9keymaster17ExportKeyR
248:   FUNC GLOBAL DEFAULT 14 _ZN9keymaster16Authorizat
249:   FUNC GLOBAL DEFAULT 14 _ZNK9keymaster14HmacKeyFa
250:   FUNC GLOBAL DEFAULT 14 _ZN9keymaster16RsaSignOpe
251:   FUNC GLOBAL DEFAULT 14 _ZNK9keymaster16AttestKey
252:   FUNC GLOBAL DEFAULT 14 _ZN9keymaster17AttestKeyR
253:   OBJECT GLOBAL DEFAULT 19 _ZTVN9keymaster17Keymaste
254:   FUNC GLOBAL DEFAULT 14 _ZN9keymaster17extract_au
255:   FUNC GLOBAL DEFAULT 14 _ZNK9keymaster13RsaKeyFac
256:   FUNC GLOBAL DEFAULT 14 _ZNK9keymaster23ImportWra
257:   FUNC GLOBAL DEFAULT 14 _ZN9keymaster20KeymasterE
258:   OBJECT GLOBAL DEFAULT 23 _ZN9keymaster33TAG_TRUSTE
259:   OBJECT GLOBAL DEFAULT 23 _ZN9keymaster14TAG_DIGEST
260:   FUNC GLOBAL DEFAULT 14 _ZN9keymaster22KM_KEY_DES
261:   FUNC GLOBAL DEFAULT 14 _ZN9keymaster4ckdfERKNS_1
262:   FUNC GLOBAL DEFAULT 14 _ZN9keymaster16AttestKeyR
263:   OBJECT GLOBAL DEFAULT 23 _ZN9keymaster30TAG_ATTEST
264:   OBJECT GLOBAL DEFAULT 19 _ZTVN9keymaster27BlockCip
265:   FUNC GLOBAL DEFAULT 14 _ZN9keymaster22UpdateOper
266:   FUNC GLOBAL DEFAULT 14 _ZN9keymaster14GenerateRa
267:   FUNC GLOBAL DEFAULT 14 _ZNK9keymaster10HmacSha25
268:   FUNC GLOBAL DEFAULT 14 _ZN9keymaster19RsaDecrypt
269:   FUNC GLOBAL DEFAULT 14 _ZN9keymaster16AndroidKey
270:   FUNC GLOBAL DEFAULT 14 _ZN9keymaster16DeleteKeyR
271:   FUNC GLOBAL DEFAULT 14 ae_decrypt
272:   OBJECT GLOBAL DEFAULT 23 _ZN9keymaster31TAG_ORIGIN
273:   FUNC WEAK DEFAULT 14 _ZnamRKSt9nothrow_t
274:   OBJECT GLOBAL DEFAULT 19 _ZTVN9keymaster17Verifica
275:   FUNC GLOBAL DEFAULT 14 _ZN9keymaster23ImportWrap
276:   FUNC GLOBAL DEFAULT 14 _ZN9keymaster18UpgradeSof
277:   FUNC GLOBAL DEFAULT 14 _ZNK9keymaster25ComputeSh
278:   FUNC GLOBAL DEFAULT 14 _ZN9keymaster23ImportWrap
279:   FUNC GLOBAL DEFAULT 14 _ZN9keymaster30BlockCiphe
280:   FUNC GLOBAL DEFAULT 14 _ZNK9keymaster20NistCurve
281:   FUNC GLOBAL DEFAULT 14 _ZN9keymaster17RsaCryptOp
282:   FUNC GLOBAL DEFAULT 14 _ZNK9keymaster17Verificat
283:   OBJECT GLOBAL DEFAULT 19 _ZTVN9keymaster17ExportKe
284:   FUNC GLOBAL DEFAULT 14 _ZN9keymaster16Authorizat
285:   FUNC GLOBAL DEFAULT 14 _ZNK9keymaster16Operation
286:   FUNC GLOBAL DEFAULT 14 _ZN9keymaster6Buffer7rese
287:   FUNC GLOBAL DEFAULT 14 _ZN9keymaster20i2d_KM_ROO
288:   FUNC GLOBAL DEFAULT 14 _ZN9keymaster14EcdsaOpera
289:   FUNC GLOBAL DEFAULT 14 _ZNK9keymaster27RsaCrypti
290:   FUNC GLOBAL DEFAULT 14 _ZN9keymaster16AndroidKey
291:   FUNC GLOBAL DEFAULT 14 _ZN9keymaster16AndroidKey
292:   OBJECT GLOBAL DEFAULT 19 _ZTVN9keymaster18UpgradeK
293:   OBJECT GLOBAL DEFAULT 23 _ZN9keymaster14TAG_OS_VER
294:   OBJECT GLOBAL DEFAULT 19 _ZTVN9keymaster30BlockCip
295:   FUNC GLOBAL DEFAULT 14 _ZNK9keymaster10HmacSha25
296:   FUNC GLOBAL DEFAULT 14 _ZNK9keymaster20SoftwareR
297:   FUNC GLOBAL DEFAULT 14 _ZN9keymaster14OperationT
298:   FUNC GLOBAL DEFAULT 14 _ZN9keymaster18UpgradeKey
299:   FUNC GLOBAL DEFAULT 14 _ZN9keymaster14AccessCoun
300:   OBJECT GLOBAL DEFAULT 23 _ZN9keymaster22TAG_ROLLBA
301:   OBJECT GLOBAL DEFAULT 19 _ZTVN9keymaster20HmacOper
302:   FUNC GLOBAL DEFAULT 14 _ZN9keymaster13HmacOperat
303:   OBJECT GLOBAL DEFAULT 19 _ZTVN9keymaster19RsaEncry
304:   FUNC GLOBAL DEFAULT 14 _ZN9keymaster19KM_WRAPPED
305:   FUNC GLOBAL DEFAULT 14 _ZN9keymaster16AndroidKey
306:   FUNC GLOBAL DEFAULT 14 _ZN9keymaster16Authorizat
307:   FUNC GLOBAL DEFAULT 14 _ZN9keymaster13HmacOperat
308:   FUNC GLOBAL DEFAULT 14 _ZN9keymaster13append_to_
309:   FUNC GLOBAL DEFAULT 14 _ZN9keymaster10dup_buffer
310:   OBJECT GLOBAL DEFAULT 19 _ZTVN9keymaster16Authoriz
311:   FUNC GLOBAL DEFAULT 14 _ZN9keymaster6Buffer12Rei
312:   FUNC GLOBAL DEFAULT 14 _ZN9keymaster20EcdsaVerif
313:   FUNC GLOBAL DEFAULT 14 _ZN9keymaster13HmacOperat
314:   FUNC GLOBAL DEFAULT 14 _ZN9keymaster16AndroidKey
315:   FUNC GLOBAL DEFAULT 14 _ZN9keymaster6Logger5Erro
316:   FUNC GLOBAL DEFAULT 14 ae_encrypt
317:   FUNC GLOBAL DEFAULT 14 _ZNK9keymaster14HmacKeyFa
318:   FUNC GLOBAL DEFAULT 14 _ZN9keymaster16AndroidKey
319:   FUNC GLOBAL DEFAULT 14 _ZN9keymaster16AndroidKey
320:   FUNC WEAK DEFAULT 14 _ZdaPv
321:   FUNC GLOBAL DEFAULT 14 _ZN9keymaster16EcKeySizeT
322:   OBJECT GLOBAL DEFAULT 23 _ZN9keymaster18TAG_USER_S
323:   FUNC GLOBAL DEFAULT 14 _ZN9keymaster16Authorizat
324:   FUNC GLOBAL DEFAULT 14 _ZN9keymaster28GetKeyChar
325:   FUNC GLOBAL DEFAULT 14 _ZN9keymaster23BlockCiphe
326:   FUNC GLOBAL DEFAULT 14 _ZNK9keymaster13RsaKeyFac
327:   FUNC GLOBAL DEFAULT 14 _ZN9keymaster21HmacSharin
328:   FUNC GLOBAL DEFAULT 14 _ZN9keymaster17UpgradeKey
329:   FUNC GLOBAL DEFAULT 14 _ZN9keymaster20KeymasterE
330:   FUNC GLOBAL DEFAULT 14 _ZN9keymaster30BlockCiphe
331:   OBJECT GLOBAL DEFAULT 19 _ZTVN9keymaster21EcdsaOpe
332:   FUNC GLOBAL DEFAULT 14 _ZN9keymaster18GetVersion
333:   FUNC GLOBAL DEFAULT 14 _ZN9keymaster17UpgradeKey
334:   OBJECT GLOBAL DEFAULT 19 _ZTVN9keymaster16RsaSignO
335:   FUNC WEAK DEFAULT 14 _ZnwmRKSt9nothrow_t
336:   FUNC GLOBAL DEFAULT 14 _ZN9keymaster17KeymasterR
337:   OBJECT GLOBAL DEFAULT 19 _ZTVN9keymaster20Keymaste
338:   OBJECT GLOBAL DEFAULT 19 _ZTVN9keymaster5EcKeyE
339:   FUNC GLOBAL DEFAULT 14 _ZN9keymaster16AndroidKey
340:   FUNC GLOBAL DEFAULT 14 _ZNK9keymaster23UpdateOpe
341:   OBJECT GLOBAL DEFAULT 19 _ZTVN9keymaster22UpdateOp
342:   FUNC GLOBAL DEFAULT 14 _ZN9keymaster19KeyMateria
343:   FUNC GLOBAL DEFAULT 14 _ZN9keymaster14EcdsaOpera
344:   OBJECT GLOBAL DEFAULT 19 _ZTVN9keymaster17RsaCrypt
345:   FUNC GLOBAL DEFAULT 14 _ZNK9keymaster16Authoriza
346:   FUNC GLOBAL DEFAULT 14 _ZNK9keymaster6Buffer14Se
347:   FUNC GLOBAL DEFAULT 14 _ZNK9keymaster6Buffer15av
348:   FUNC GLOBAL DEFAULT 14 _ZN9keymaster6Buffer12Rei
349:   FUNC GLOBAL DEFAULT 14 _ZN9keymaster16KM_AUTH_LI
350:   FUNC GLOBAL DEFAULT 14 _ZN9keymaster22d2i_KM_KEY
351:   OBJECT GLOBAL DEFAULT 19 _ZTVN9keymaster13RsaKeyFa
352:   FUNC GLOBAL DEFAULT 14 _ZNK9keymaster21HmacShari
353:   FUNC GLOBAL DEFAULT 14 _ZNK9keymaster26HmacShari
354:   FUNC GLOBAL DEFAULT 14 _ZN9keymaster25BuildHidde
355:   FUNC GLOBAL DEFAULT 14 _ZN9keymaster12SymmetricK
356:   FUNC GLOBAL DEFAULT 14 _ZN9keymaster15build_auth
357:   FUNC GLOBAL DEFAULT 14 _ZN9keymaster8EciesKem7De
358:   FUNC GLOBAL DEFAULT 14 _ZNK9keymaster22BeginOper
359:   FUNC GLOBAL DEFAULT 14 _ZN9keymaster22BeginOpera
360:   FUNC GLOBAL DEFAULT 14 _ZNK9keymaster16ExportKey
361:   OBJECT GLOBAL DEFAULT 23 _ZN9keymaster20TAG_NO_AUT
362:   OBJECT GLOBAL DEFAULT 23 _ZN9keymaster23TAG_ATTEST
363:   FUNC GLOBAL DEFAULT 14 _ZN9keymaster43Deserializ
364:   FUNC GLOBAL DEFAULT 14 _ZN9keymaster24parse_atte
365:   OBJECT GLOBAL DEFAULT 19 _ZTVN9keymaster20EcdsaVer
366:   FUNC GLOBAL DEFAULT 14 _ZN9keymaster13AccessTime
367:   FUNC GLOBAL DEFAULT 14 _ZN9keymaster30BlockCiphe
368:   FUNC GLOBAL DEFAULT 14 _ZN9keymaster16AndroidKey
369:   FUNC GLOBAL DEFAULT 14 _ZNK9keymaster17Verificat
370:   FUNC GLOBAL DEFAULT 14 _ZN9keymaster14EcdsaOpera
371:   OBJECT GLOBAL DEFAULT 19 _ZTVN9keymaster27RsaCrypt
372:   FUNC GLOBAL DEFAULT 14 _ZN9keymaster16Authorizat
373:   OBJECT GLOBAL DEFAULT 23 _ZN9keymaster26TAG_ECIES_
374:   FUNC GLOBAL DEFAULT 14 _ZNK9keymaster13AesKeyFac
375:   FUNC GLOBAL DEFAULT 14 _ZN9keymaster12SymmetricK
376:   FUNC GLOBAL DEFAULT 14 _ZN9keymaster12SymmetricK
377:   FUNC GLOBAL DEFAULT 14 ae_init
378:   FUNC GLOBAL DEFAULT 14 _ZNK9keymaster19Symmetric
379:   OBJECT GLOBAL DEFAULT 19 _ZTVN9keymaster23AesEvpCi
380:   FUNC GLOBAL DEFAULT 14 _ZN9keymaster16Authorizat
381:   FUNC GLOBAL DEFAULT 14 _ZN9keymaster12RsaOperati
382:   FUNC GLOBAL DEFAULT 14 _ZN9keymaster21RsaDigesti
383:   FUNC GLOBAL DEFAULT 14 _ZNK9keymaster29TripleDes
384:   FUNC GLOBAL DEFAULT 14 _ZN9keymaster20KeymasterE
385:   OBJECT GLOBAL DEFAULT 23 _ZN9keymaster20TAG_APPLIC
386:   OBJECT GLOBAL DEFAULT 23 _ZN9keymaster19TAG_ASSOCI
387:   FUNC GLOBAL DEFAULT 14 _ZN9keymaster30BlockCiphe
388:   OBJECT GLOBAL DEFAULT 19 _ZTVN9keymaster25TripleDe
389:   FUNC GLOBAL DEFAULT 14 _ZN9keymaster16Authorizat
390:   FUNC GLOBAL DEFAULT 14 _ZNK9keymaster16Authoriza
391:   OBJECT GLOBAL DEFAULT 19 _ZTVN9keymaster16DeleteKe
392:   FUNC GLOBAL DEFAULT 14 _ZNK9keymaster16Authoriza
393:   FUNC GLOBAL DEFAULT 14 _ZNK9keymaster16Operation
394:   OBJECT GLOBAL DEFAULT 19 _ZTVN9keymaster19RsaOpera
395:   FUNC GLOBAL DEFAULT 14 _ZN9keymaster17ImportKeyR
396:   FUNC GLOBAL DEFAULT 14 _ZN9keymaster19GenerateKe
397:   OBJECT GLOBAL DEFAULT 23 _ZN9keymaster14TAG_MAC_LE
398:   FUNC GLOBAL DEFAULT 14 _ZN9keymaster29SerializeI
399:   FUNC GLOBAL DEFAULT 14 _ZNK9keymaster12EcKeyFact
400:   FUNC GLOBAL DEFAULT 14 _ZNK9keymaster13RsaKeyFac
401:   FUNC GLOBAL DEFAULT 14 _ZNK9keymaster16DeleteKey
402:   OBJECT GLOBAL DEFAULT 19 _ZTVN9keymaster17AddEntro
403:   OBJECT GLOBAL DEFAULT 23 _ZN9keymaster11empty_para
404:   FUNC GLOBAL DEFAULT 14 _ZN9keymaster30BlockCiphe
405:   FUNC GLOBAL DEFAULT 14 _ZN9keymaster3KdfC2Ev
406:   FUNC GLOBAL DEFAULT 14 _ZNK9keymaster17Keymaster
407:   FUNC GLOBAL DEFAULT 14 _ZNK9keymaster16AttestKey
408:   FUNC GLOBAL DEFAULT 14 _ZN9keymaster12RsaOperati
409:   FUNC GLOBAL DEFAULT 14 _ZN9keymaster16AndroidKey
410:   FUNC GLOBAL DEFAULT 14 _ZN9keymaster16Authorizat
411:   OBJECT GLOBAL DEFAULT 23 _ZN9keymaster10TAG_DIGEST
412:   OBJECT GLOBAL DEFAULT 19 _ZTVN9keymaster19AesOpera
413:   FUNC GLOBAL DEFAULT 14 _ZN9keymaster25convert_pk
414:   FUNC GLOBAL DEFAULT 14 _ZNK9keymaster6Buffer14av
415:   FUNC GLOBAL DEFAULT 14 _ZNK9keymaster16Authoriza
416:   FUNC GLOBAL DEFAULT 14 _ZNK9keymaster16ImportKey
417:   FUNC GLOBAL DEFAULT 14 _ZNK9keymaster16Authoriza
418:   FUNC GLOBAL DEFAULT 14 _ZN9keymaster16Authorizat
419:   FUNC GLOBAL DEFAULT 14 _ZN9keymaster20d2i_KM_ROO
420:   FUNC GLOBAL DEFAULT 14 _ZNK9keymaster27RsaCrypti
421:   FUNC GLOBAL DEFAULT 14 _ZN9keymaster10HmacSha256
422:   FUNC GLOBAL DEFAULT 14 _ZNK9keymaster28GetKeyCha
423:   FUNC GLOBAL DEFAULT 14 _ZN9keymaster31Deserializ
424:   FUNC GLOBAL DEFAULT 14 _ZNK9keymaster22FinishOpe
425:   FUNC GLOBAL DEFAULT 14 _ZN9keymaster25ParseOldSo
426:   FUNC GLOBAL DEFAULT 14 _ZN9keymaster23ImportWrap
427:   FUNC GLOBAL DEFAULT 14 _ZN9keymaster19parse_root
428:   FUNC GLOBAL DEFAULT 14 _ZNK9keymaster25TripleDes
429:   FUNC GLOBAL DEFAULT 14 _ZN9keymaster17AttestKeyR
430:   FUNC GLOBAL DEFAULT 14 _ZN9keymaster18ec_group_s
431:   FUNC GLOBAL DEFAULT 14 _ZN9keymaster17parse_wrap
432:   FUNC GLOBAL DEFAULT 14 _ZN9keymaster16AndroidKey
433:   FUNC GLOBAL DEFAULT 14 _ZNK9keymaster19GenerateK
434:   FUNC GLOBAL DEFAULT 14 _ZNK9keymaster17AddEntrop
435:   FUNC GLOBAL DEFAULT 14 _ZN9keymaster20KeymasterE
436:   FUNC GLOBAL DEFAULT 14 _ZN9keymaster13HmacOperat
437:   OBJECT GLOBAL DEFAULT 19 _ZTVN9keymaster20Software
438:   FUNC GLOBAL DEFAULT 14 _ZN9keymaster16Authorizat
439:   OBJECT GLOBAL DEFAULT 23 _ZN9keymaster14TAG_BLOCK_
440:   OBJECT GLOBAL DEFAULT 19 _ZTVN9keymaster11Iso18033
441:   FUNC GLOBAL DEFAULT 14 _ZN9keymaster16AndroidKey
442:   FUNC GLOBAL DEFAULT 14 _ZN9keymaster6Buffer11Des
443:   OBJECT GLOBAL DEFAULT 19 _ZTVN9keymaster24ImportWr
444:   FUNC GLOBAL DEFAULT 14 gen_offset
445:   FUNC GLOBAL DEFAULT 14 _ZN9keymaster12EcKeyFacto
446:   OBJECT GLOBAL DEFAULT 19 _ZTVN9keymaster18GetVersi
447:   FUNC GLOBAL DEFAULT 14 _ZN9keymaster16AttestKeyR
448:   FUNC GLOBAL DEFAULT 14 _ZN9keymaster20EcdsaVerif
449:   FUNC GLOBAL DEFAULT 14 _ZN9keymaster20NistCurveK
450:   OBJECT GLOBAL DEFAULT 19 _ZTVN9keymaster14EcdsaOpe
451:   OBJECT GLOBAL DEFAULT 23 _ZN9keymaster31TAG_ATTEST
452:   FUNC GLOBAL DEFAULT 14 _ZNK9keymaster16Operation
453:   FUNC GLOBAL DEFAULT 14 _ZN9keymaster21RsaDigesti
454:   FUNC GLOBAL DEFAULT 14 _ZNK9keymaster20Keymaster
455:   OBJECT GLOBAL DEFAULT 19 _ZTVN9keymaster14HmacKeyF
456:   FUNC GLOBAL DEFAULT 14 _ZNK9keymaster29GetKeyCha
457:   FUNC GLOBAL DEFAULT 14 _ZN9keymaster8EciesKem7En
458:   FUNC GLOBAL DEFAULT 14 _ZN9keymaster18i2d_KM_WRA
459:   OBJECT GLOBAL DEFAULT 23 _ZN9keymaster13TAG_ALGORI
460:   OBJECT GLOBAL DEFAULT 19 _ZTVN9keymaster30BlockCip
461:   OBJECT GLOBAL DEFAULT 19 _ZTVN9keymaster21RsaDiges
462:   FUNC GLOBAL DEFAULT 14 _ZN9keymaster26SerializeA
463:   FUNC GLOBAL DEFAULT 14 _ZN9keymaster23BlockCiphe
464:   OBJECT GLOBAL DEFAULT 19 _ZTVN9keymaster19RsaDecry
465:   FUNC GLOBAL DEFAULT 14 _ZN9keymaster17UpgradeKey
466:   FUNC GLOBAL DEFAULT 14 _ZN9keymaster30i2d_KM_WRA
467:   FUNC GLOBAL DEFAULT 14 _ZNK9keymaster16Authoriza
468:   FUNC GLOBAL DEFAULT 14 _ZNK9keymaster12EcKeyFact
469:   FUNC GLOBAL DEFAULT 14 _ZN9keymaster19RsaEncrypt
470:   FUNC GLOBAL DEFAULT 14 _ZN9keymaster16AndroidKey
471:   OBJECT GLOBAL DEFAULT 23 _ZN9keymaster17TAG_OS_PAT
472:   FUNC GLOBAL DEFAULT 14 _ZNK9keymaster21HmacShari
473:   FUNC GLOBAL DEFAULT 14 _ZN9keymaster16Authorizat
474:   OBJECT GLOBAL DEFAULT 19 _ZTVN9keymaster20Asymmetr
475:   FUNC GLOBAL DEFAULT 14 _ZN9keymaster12RsaOperati
476:   FUNC GLOBAL DEFAULT 14 _ZNK9keymaster16DeleteKey
477:   OBJECT GLOBAL DEFAULT 23 _ZN9keymaster21TAG_MAX_US
478:   OBJECT GLOBAL DEFAULT 19 _ZTVN9keymaster23BlockCip
479:   FUNC GLOBAL DEFAULT 14 _ZNK9keymaster29GetKeyCha
480:   FUNC GLOBAL DEFAULT 14 _ZNK9keymaster22UpdateOpe
481:   FUNC GLOBAL DEFAULT 14 _ZN9keymaster16i2d_KM_AUT
482:   FUNC GLOBAL DEFAULT 14 _ZNK9keymaster19GenerateK
483:   FUNC GLOBAL DEFAULT 14 _ZN9keymaster19GenerateKe
484:   FUNC GLOBAL DEFAULT 14 _ZNK9keymaster13AesKeyFac
485:   FUNC GLOBAL DEFAULT 14 _ZN9keymaster10HmacSha256
486:   FUNC GLOBAL DEFAULT 14 _ZN9keymaster16RsaSignOpe
487:   FUNC GLOBAL DEFAULT 14 _ZN9keymaster28GetKeyChar
488:   FUNC GLOBAL DEFAULT 14 _ZN9keymaster23BlockCiphe
489:   FUNC GLOBAL DEFAULT 14 _ZN9keymaster23BlockCiphe
490:   FUNC GLOBAL DEFAULT 14 _ZNK9keymaster16Authoriza
491:   FUNC GLOBAL DEFAULT 14 __cfi_check
492:   FUNC GLOBAL DEFAULT 14 _ZN9keymaster20KeymasterE
493:   FUNC GLOBAL DEFAULT 14 _ZNK9keymaster20Asymmetri
494:   OBJECT GLOBAL DEFAULT 19 _ZTVN9keymaster13HmacOper
495:   FUNC GLOBAL DEFAULT 14 _ZN9keymaster17UpgradeKey
496:   FUNC GLOBAL DEFAULT 14 _ZNK9keymaster17UpgradeKe
497:   FUNC GLOBAL DEFAULT 14 _ZN9keymaster16Authorizat
498:   FUNC GLOBAL DEFAULT 14 _ZN9keymaster18EcdsaSignO
499:   FUNC GLOBAL DEFAULT 14 _ZNK9keymaster22BeginOper
500:   FUNC GLOBAL DEFAULT 14 _ZNK9keymaster16ImportKey
501:   FUNC GLOBAL DEFAULT 14 _ZN9keymaster16AndroidKey
502:   FUNC GLOBAL DEFAULT 14 _ZNK9keymaster6Buffer9Ser
503:   OBJECT GLOBAL DEFAULT 19 _ZTVN9keymaster16ExportKe
504:   OBJECT GLOBAL DEFAULT 23 _ZN9keymaster12TAG_EC_CUR
505:   FUNC GLOBAL DEFAULT 14 _ZN9keymaster21RsaDigesti
506:   FUNC GLOBAL DEFAULT 14 _ZN9keymaster18d2i_KM_WRA
507:   FUNC GLOBAL DEFAULT 14 _ZNK9keymaster23UpdateOpe
508:   FUNC GLOBAL DEFAULT 14 _ZN9keymaster18UpgradeKey
509:   FUNC GLOBAL DEFAULT 14 _ZNK9keymaster13AccessTim
510:   OBJECT GLOBAL DEFAULT 23 _ZN9keymaster27TAG_MIN_SE
511:   OBJECT GLOBAL DEFAULT 23 _ZN9keymaster13TAG_UNIQUE
512:   OBJECT GLOBAL DEFAULT 19 _ZTVN9keymaster12Symmetri
513:   FUNC GLOBAL DEFAULT 14 _ZN9keymaster31KM_WRAPPED
514:   FUNC GLOBAL DEFAULT 14 _ZN9keymaster16AndroidKey
515:   FUNC GLOBAL DEFAULT 14 _ZN9keymaster16AndroidKey
516:   FUNC GLOBAL DEFAULT 14 _ZNK9keymaster21BeginOper
517:   OBJECT GLOBAL DEFAULT 19 _ZTVN9keymaster16AttestKe
518:   FUNC GLOBAL DEFAULT 14 _ZN9keymaster20KeymasterE
519:   OBJECT GLOBAL DEFAULT 23 _ZN9keymaster16TAG_AUTH_T
520:   FUNC GLOBAL DEFAULT 14 _ZNK9keymaster21EcdsaOper
521:   FUNC GLOBAL DEFAULT 14 _ZNK9keymaster28RsaDigest
522:   FUNC GLOBAL DEFAULT 14 _ZN9keymaster17build_wrap
523:   FUNC GLOBAL DEFAULT 14 _ZNK9keymaster16AndroidKe
524:   FUNC GLOBAL DEFAULT 14 _ZN9keymaster23BlockCiphe
525:   FUNC GLOBAL DEFAULT 14 _ZN9keymaster8EciesKemC2E
526:   FUNC GLOBAL DEFAULT 14 _ZN9keymaster8EciesKem7De
527:   FUNC GLOBAL DEFAULT 14 _ZN9keymaster13HmacOperat
528:   FUNC GLOBAL DEFAULT 14 ae_ctx_sizeof
529:   FUNC GLOBAL DEFAULT 14 _ZN9keymaster23BlockCiphe
530:   OBJECT GLOBAL DEFAULT 19 _ZTVN9keymaster18EcdsaSig
531:   FUNC GLOBAL DEFAULT 14 _ZNK9keymaster16Authoriza
532:   FUNC GLOBAL DEFAULT 14 _ZNK9keymaster23AesEvpCip
533:   FUNC GLOBAL DEFAULT 14 _ZN9keymaster14EcdsaOpera
534:   FUNC GLOBAL DEFAULT 14 _ZN9keymaster16RsaSignOpe
535:   FUNC GLOBAL DEFAULT 14 _ZN9keymaster16Authorizat
536:   OBJECT GLOBAL DEFAULT 23 _ZN9keymaster11TAG_INVALI
537:   OBJECT GLOBAL DEFAULT 23 _ZN9keymaster21TAG_CREATI
538:   FUNC GLOBAL DEFAULT 14 _ZN9keymaster11Iso18033Kd
539:   OBJECT GLOBAL DEFAULT 19 _ZTVN9keymaster12RsaOpera
540:   FUNC WEAK DEFAULT 14 _ZdlPv
541:   FUNC GLOBAL DEFAULT 14 _ZN9keymaster16Authorizat
542:   FUNC GLOBAL DEFAULT 14 _ZN9keymaster17ExportKeyR
543:   FUNC GLOBAL DEFAULT 14 _ZNK9keymaster17UpgradeKe
544:   FUNC GLOBAL DEFAULT 14 _ZN9keymaster21FakeKeyAut
545:   FUNC GLOBAL DEFAULT 14 _ZN9keymaster12EcKeyFacto
546:   OBJECT GLOBAL DEFAULT 19 _ZTVN9keymaster28RsaDiges
547:   OBJECT GLOBAL DEFAULT 19 _ZTVN9keymaster22FinishOp
548:   FUNC GLOBAL DEFAULT 14 _ZN9keymaster6RsaKey13Sup
549:   FUNC GLOBAL DEFAULT 14 _ZN9keymaster21RsaDigesti
550:   OBJECT GLOBAL DEFAULT 23 _ZN9keymaster21TAG_INCLUD
551:   FUNC GLOBAL DEFAULT 14 _ZN9keymaster6Buffer4read
552:   FUNC GLOBAL DEFAULT 14 _ZN9keymaster24SetKeyBlob
553:   FUNC GLOBAL DEFAULT 14 _ZNK9keymaster20NistCurve
554:   OBJECT GLOBAL DEFAULT 19 _ZTVN9keymaster21HmacShar
555:   FUNC GLOBAL DEFAULT 14 _ZNK9keymaster16Authoriza
556:   FUNC GLOBAL DEFAULT 14 _ZN9keymaster16Authorizat
557:   OBJECT GLOBAL DEFAULT 19 _ZTVN9keymaster16AndroidK
558:   FUNC GLOBAL DEFAULT 14 _ZN9keymaster23ImportWrap
559:   OBJECT GLOBAL DEFAULT 23 _ZN9keymaster13TAG_ALL_US
560:   FUNC GLOBAL DEFAULT 14 _ZNK9keymaster16Operation
561:   FUNC GLOBAL DEFAULT 14 _ZNK9keymaster10HmacSha25
562:   FUNC GLOBAL DEFAULT 14 _ZN9keymaster14OperationT
563:   FUNC GLOBAL DEFAULT 14 _ZN9keymaster19GenerateKe
564:   FUNC GLOBAL DEFAULT 14 _ZNK9keymaster27BlockCiph
565:   FUNC GLOBAL DEFAULT 14 _ZN9keymaster8EciesKem7En
566:   FUNC GLOBAL DEFAULT 14 _ZN9keymaster12SymmetricK
567:   FUNC GLOBAL DEFAULT 14 _ZNK9keymaster16Authoriza
568:   FUNC GLOBAL DEFAULT 14 _ZN9keymaster16AndroidKey
569:   OBJECT GLOBAL DEFAULT 19 _ZTVN9keymaster23ImportWr
570:   FUNC GLOBAL DEFAULT 14 _ZN9keymaster6Logger3LogE
571:   FUNC GLOBAL DEFAULT 14 _ZN9keymaster28Deserializ
572:   FUNC GLOBAL DEFAULT 14 _ZN9keymaster23BlockCiphe
573:   FUNC GLOBAL DEFAULT 14 _ZN9keymaster12RsaOperati
574:   FUNC GLOBAL DEFAULT 14 _ZNK9keymaster20Asymmetri
575:   OBJECT GLOBAL DEFAULT 19 _ZTVN9keymaster20NistCurv
576:   FUNC GLOBAL DEFAULT 14 _ZN9keymaster13copy_from_
577:   FUNC GLOBAL DEFAULT 14 ae_allocate
578:   FUNC GLOBAL DEFAULT 14 _ZN9keymaster8memcmp_sEPK
579:   FUNC GLOBAL DEFAULT 14 _ZNK9keymaster17ImportKey
580:   FUNC GLOBAL DEFAULT 14 _ZN9keymaster17HardwareAu
581:   OBJECT GLOBAL DEFAULT 19 _ZTVN9keymaster23UpdateOp
582:   FUNC GLOBAL DEFAULT 14 _ZN9keymaster6Logger5Debu
583:   FUNC GLOBAL DEFAULT 14 _ZN9keymaster16ImportKeyR
584:   OBJECT GLOBAL DEFAULT 19 _ZTVN9keymaster16Rfc5869S
585:   FUNC GLOBAL DEFAULT 14 _ZN9keymaster16AndroidKey
586:   FUNC GLOBAL DEFAULT 14 _ZN9keymaster30BlockCiphe
587:   FUNC GLOBAL DEFAULT 14 _ZN9keymaster12RsaOperati
588:   FUNC GLOBAL DEFAULT 14 _ZNK9keymaster17AttestKey
589:   FUNC GLOBAL DEFAULT 14 _ZNK9keymaster18UpgradeKe
590:   OBJECT GLOBAL DEFAULT 23 _ZN9keymaster25TAG_ATTEST
591:   FUNC GLOBAL DEFAULT 14 _ZN9keymaster17KM_AUTH_LI
592:   FUNC GLOBAL DEFAULT 14 _ZNK9keymaster5EcKey13Int
593:   OBJECT GLOBAL DEFAULT 19 _ZTVN9keymaster18RsaVerif
594:   FUNC GLOBAL DEFAULT 14 _ZN9keymaster16Authorizat
595:   OBJECT GLOBAL DEFAULT 23 _ZN9keymaster11TAG_USER_I
596:   FUNC GLOBAL DEFAULT 14 _ZN9keymaster13OcbDecrypt
597:   FUNC GLOBAL DEFAULT 14 _ZN9keymaster16RsaSignOpe
598:   FUNC GLOBAL DEFAULT 14 _ZN9keymaster16AndroidKey
599:   FUNC GLOBAL DEFAULT 14 _ZN9keymaster23FinishOper
600:   FUNC GLOBAL DEFAULT 14 _ZN9keymaster27copy_size_
601:   FUNC GLOBAL DEFAULT 14 _ZN9keymaster17AttestKeyR
602:   OBJECT GLOBAL DEFAULT 19 _ZTVN9keymaster26HmacShar
603:   FUNC GLOBAL DEFAULT 14 _ZNK9keymaster16Authoriza
604:   OBJECT GLOBAL DEFAULT 23 _ZN9keymaster17TAG_ROOT_O
605:   OBJECT GLOBAL DEFAULT 23 _ZN9keymaster24TAG_ATTEST
606:   FUNC GLOBAL DEFAULT 14 _ZNK9keymaster20HmacOpera
607:   FUNC GLOBAL DEFAULT 14 _ZNK9keymaster13RsaKeyFac
608:   FUNC GLOBAL DEFAULT 14 _ZN9keymaster16AndroidKey
609:   FUNC GLOBAL DEFAULT 14 _ZNK9keymaster17ImportKey
610:   OBJECT GLOBAL DEFAULT 23 _ZN9keymaster27TAG_BLOB_U
611:   FUNC GLOBAL DEFAULT 14 _ZN9keymaster12RsaOperati
612:   FUNC GLOBAL DEFAULT 14 _ZN9keymaster14OperationT
613:   FUNC GLOBAL DEFAULT 14 _ZN9keymaster16AndroidKey
614:   FUNC GLOBAL DEFAULT 14 _ZN9keymaster17Verificati
615:   FUNC GLOBAL DEFAULT 14 _ZN9keymaster16d2i_KM_AUT
616:   FUNC GLOBAL DEFAULT 14 _ZN9keymaster16AndroidKey
617:   FUNC GLOBAL DEFAULT 14 _ZN9keymaster16AttestKeyR
618:   OBJECT GLOBAL DEFAULT 23 _ZN9keymaster11TAG_PURPOS
619:   FUNC GLOBAL DEFAULT 14 _ZN9keymaster13OcbEncrypt
620:   FUNC GLOBAL DEFAULT 14 _ZN9keymaster25ParseOcbAu
621:   FUNC GLOBAL DEFAULT 14 _ZNK9keymaster13Asymmetri
622:   FUNC GLOBAL DEFAULT 14 _ZN9keymaster3Kdf26Uint32
623:   FUNC GLOBAL DEFAULT 14 _ZN9keymaster16Authorizat
624:   FUNC GLOBAL DEFAULT 14 _ZNK9keymaster18GetVersio
625:   FUNC GLOBAL DEFAULT 14 _ZNK9keymaster17AttestKey
626:   FUNC GLOBAL DEFAULT 14 _ZNK9keymaster19RsaOperat
627:   FUNC GLOBAL DEFAULT 14 _ZN9keymaster16AndroidKey
628:   FUNC GLOBAL DEFAULT 14 _ZN9keymaster16AttestKeyR
629:   FUNC GLOBAL DEFAULT 14 _ZN9keymaster16Authorizat
630:   OBJECT GLOBAL DEFAULT 23 _ZN9keymaster24TAG_ATTEST
631:   FUNC GLOBAL DEFAULT 14 _ZNK9keymaster16Operation
632:   FUNC GLOBAL DEFAULT 14 _ZNK9keymaster16Authoriza
633:   FUNC GLOBAL DEFAULT 14 _ZNK9keymaster16Authoriza
634:   OBJECT GLOBAL DEFAULT 23 _ZN9keymaster23TAG_RSA_PU
635:   OBJECT GLOBAL DEFAULT 19 _ZTVN9keymaster29GetKeyCh
636:   FUNC GLOBAL DEFAULT 14 _ZNK9keymaster14HmacKeyFa
637:   FUNC GLOBAL DEFAULT 14 _ZN9keymaster16ExportKeyR
638:   OBJECT GLOBAL DEFAULT 19 _ZTVN9keymaster21BeginOpe
639:   FUNC GLOBAL DEFAULT 14 _ZN9keymaster8EciesKemC1E
640:   FUNC GLOBAL DEFAULT 14 _ZN9keymaster20NistCurveK
641:   FUNC GLOBAL DEFAULT 14 _ZN9keymaster17ImportKeyR
642:   FUNC GLOBAL DEFAULT 14 _ZN9keymaster26HmacSharin
643:   FUNC GLOBAL DEFAULT 14 _ZNK9keymaster16Authoriza
644:   FUNC GLOBAL DEFAULT 14 _ZN9keymaster20KeymasterE
645:   FUNC GLOBAL DEFAULT 14 _ZNK9keymaster27BlockCiph
646:   OBJECT GLOBAL DEFAULT 19 _ZTVN9keymaster8EciesKemE
647:   FUNC GLOBAL DEFAULT 14 _ZNK9keymaster13RsaKeyFac
648:   FUNC GLOBAL DEFAULT 14 _ZN9keymaster16Authorizat
649:   FUNC GLOBAL DEFAULT 14 _ZNK9keymaster18UpgradeKe
650:   OBJECT GLOBAL DEFAULT 23 _ZN9keymaster10TAG_ORIGIN
651:   FUNC GLOBAL DEFAULT 14 _ZN9keymaster30BlockCiphe
652:   FUNC GLOBAL DEFAULT 14 _ZN9keymaster17RsaCryptOp
653:   FUNC GLOBAL DEFAULT 14 _ZN9keymaster16AndroidKey
654:   FUNC GLOBAL DEFAULT 14 _ZN9keymaster16AndroidKey
655:   FUNC GLOBAL DEFAULT 14 _ZNK9keymaster6RsaKey13In
656:   FUNC GLOBAL DEFAULT 14 _ZN9keymaster19RsaOperati
657:   OBJECT GLOBAL DEFAULT 19 _ZTVN9keymaster19Symmetri
658:   FUNC GLOBAL DEFAULT 14 _ZN9keymaster16AndroidKey
659:   FUNC GLOBAL DEFAULT 14 _ZNK9keymaster19AesOperat
660:   OBJECT GLOBAL DEFAULT 19 _ZTVN9keymaster19TripleDe
661:   FUNC GLOBAL DEFAULT 14 _ZNK9keymaster23ImportWra
662:   FUNC GLOBAL DEFAULT 14 _ZNK9keymaster16Operation
663:   FUNC GLOBAL DEFAULT 14 _ZNK9keymaster10HmacSha25
664:   FUNC GLOBAL DEFAULT 14 _ZN9keymaster28GetKeyChar
665:   FUNC GLOBAL DEFAULT 14 _ZN9keymaster21BeginOpera
666:   FUNC GLOBAL DEFAULT 14 _ZNK9keymaster17ExportKey
667:   FUNC GLOBAL DEFAULT 14 _ZN9keymaster30BlockCiphe
668:   FUNC GLOBAL DEFAULT 14 _ZN9keymaster18RsaVerifyO
669:   FUNC GLOBAL DEFAULT 14 _ZN9keymaster16Authorizat
670:   FUNC GLOBAL DEFAULT 14 _ZN9keymaster24ImportWrap
671:   FUNC GLOBAL DEFAULT 14 _ZN9keymaster23KM_KEY_DES
672:   FUNC GLOBAL DEFAULT 14 _ZNK9keymaster19TripleDes
673:   FUNC GLOBAL DEFAULT 14 _ZNK9keymaster29TripleDes
674:   FUNC GLOBAL DEFAULT 14 _ZN9keymaster16AndroidKey
675:   FUNC GLOBAL DEFAULT 14 _ZN9keymaster16AndroidKey
676:   FUNC GLOBAL DEFAULT 14 _ZNK9keymaster23FinishOpe
677:   OBJECT GLOBAL DEFAULT 23 _ZN9keymaster23TAG_ATTEST
678:   FUNC GLOBAL DEFAULT 14 _ZN9keymaster23BlockCiphe
679:   FUNC GLOBAL DEFAULT 14 _ZN9keymaster23BlockCiphe
680:   OBJECT GLOBAL DEFAULT 23 _ZN9keymaster18TAG_MIN_MA
681:   FUNC GLOBAL DEFAULT 14 _ZN9keymaster6Logger7Warn
682:   FUNC GLOBAL DEFAULT 14 _ZNK9keymaster12EcKeyFact
683:   FUNC GLOBAL DEFAULT 14 _ZN9keymaster16Rfc5869Sha
684:   FUNC GLOBAL DEFAULT 14 _ZN9keymaster16AndroidKey
685:   FUNC GLOBAL DEFAULT 14 _ZNK9keymaster16ExportKey
686:   FUNC GLOBAL DEFAULT 14 _ZNK9keymaster19Symmetric
687:   OBJECT GLOBAL DEFAULT 19 _ZTVN9keymaster13Asymmetr
688:   FUNC GLOBAL DEFAULT 14 _ZN9keymaster30BlockCiphe
689:   FUNC GLOBAL DEFAULT 14 _ZN9keymaster3minEmm
690:   FUNC GLOBAL DEFAULT 14 _ZN9keymaster18RsaVerifyO
691:   FUNC GLOBAL DEFAULT 14 _ZN9keymaster18RsaVerifyO
692:   FUNC GLOBAL DEFAULT 14 _ZN9keymaster16AndroidKey
693:   FUNC GLOBAL DEFAULT 14 _ZN9keymaster17AddEntropy
694:   FUNC GLOBAL DEFAULT 14 _ZN9keymaster24ImportWrap
695:   FUNC GLOBAL DEFAULT 14 _ZNK9keymaster14AccessCou
696:   OBJECT GLOBAL DEFAULT 23 _ZN9keymaster14TAG_AUTH_T
697:   FUNC GLOBAL DEFAULT 14 _ZN9keymaster21KM_ROOT_OF
698:   FUNC GLOBAL DEFAULT 14 _ZN9keymaster23BlockCiphe
699:   FUNC GLOBAL DEFAULT 14 _ZN9keymaster13HmacOperat
700:   FUNC GLOBAL DEFAULT 14 _ZN9keymaster29GetKeyChar
701:   OBJECT GLOBAL DEFAULT 23 _ZN9keymaster12TAG_KEY_SI
702:   OBJECT GLOBAL DEFAULT 23 _ZN9keymaster6Logger9inst
703:   FUNC GLOBAL DEFAULT 14 _ZN9keymaster12ec_get_gro
704:   FUNC GLOBAL DEFAULT 14 _ZNK9keymaster21BeginOper
705:   FUNC GLOBAL DEFAULT 14 _ZNK9keymaster22FinishOpe
706:   FUNC GLOBAL DEFAULT 14 _ZN9keymaster6RsaKey13Evp
707:   FUNC GLOBAL DEFAULT 14 _ZN9keymaster16AndroidKey
708:   OBJECT GLOBAL DEFAULT 19 _ZTVN9keymaster17Hardware
709:   FUNC GLOBAL DEFAULT 14 _ZN9keymaster18UpgradeKey
710:   OBJECT GLOBAL DEFAULT 23 _ZN9keymaster26TAG_ATTEST
711:   FUNC GLOBAL DEFAULT 14 _ZN9keymaster20NistCurveK
712:   FUNC GLOBAL DEFAULT 14 _ZN9keymaster13HmacOperat
713:   FUNC GLOBAL DEFAULT 14 _ZN9keymaster16AndroidKey
714:   FUNC GLOBAL DEFAULT 14 _ZN9keymaster16DeleteKeyR
715:   FUNC GLOBAL DEFAULT 14 _ZNK9keymaster18GetVersio
716:   FUNC GLOBAL DEFAULT 14 _ZN9keymaster17AttestKeyR
717:   OBJECT GLOBAL DEFAULT 19 _ZTVN9keymaster17AttestKe
718:   FUNC GLOBAL DEFAULT 14 _ZN9keymaster6Logger6Seve
719:   OBJECT GLOBAL DEFAULT 23 _ZN9keymaster20TAG_ALL_AP
720:   FUNC GLOBAL DEFAULT 14 _ZNK9keymaster23AesEvpCip
721:   FUNC GLOBAL DEFAULT 14 _ZN9keymaster19EvpKeyToKe
722:   FUNC GLOBAL DEFAULT 14 _ZN9keymaster30KM_WRAPPED
723:   FUNC WEAK DEFAULT 14 __cxa_pure_virtual
724:   FUNC GLOBAL DEFAULT 14 _ZNK9keymaster16Authoriza
725:   FUNC GLOBAL DEFAULT 14 _ZNK9keymaster16Authoriza
726:   FUNC GLOBAL DEFAULT 14 _ZN9keymaster6Logger4Info
727:   FUNC GLOBAL DEFAULT 14 _ZN9keymaster20generate_a
728:   FUNC GLOBAL DEFAULT 14 _ZN9keymaster3Kdf4InitE18
729:   FUNC GLOBAL DEFAULT 14 _ZN9keymaster13HmacOperat
730:   FUNC GLOBAL DEFAULT 14 _ZN9keymaster16RsaSignOpe
731:   FUNC GLOBAL DEFAULT 14 _ZNK9keymaster19TripleDes
732:   FUNC GLOBAL DEFAULT 14 _ZN9keymaster16AndroidKey
733:   FUNC GLOBAL DEFAULT 14 _ZNK9keymaster17Keymaster
734:   FUNC GLOBAL DEFAULT 14 _ZNK9keymaster24ImportWra
735:   OBJECT GLOBAL DEFAULT 19 _ZTVN9keymaster6BufferE
736:   FUNC GLOBAL DEFAULT 14 _ZN9keymaster28GetKeyChar
737:   FUNC GLOBAL DEFAULT 14 _ZN9keymaster9Operation15
738:   FUNC GLOBAL DEFAULT 14 _ZNK9keymaster19Symmetric
739:   FUNC GLOBAL DEFAULT 14 _ZN9keymaster12RsaOperati
740:   FUNC GLOBAL DEFAULT 14 _ZN9keymaster20KeymasterE
741:   OBJECT GLOBAL DEFAULT 23 _ZN9keymaster28TAG_UNLOCK
742:   FUNC GLOBAL DEFAULT 14 _ZN9keymaster17UpgradeKey
743:   OBJECT GLOBAL DEFAULT 19 _ZTVN9keymaster22BeginOpe
744:   OBJECT GLOBAL DEFAULT 19 _ZTVN9keymaster23FinishOp
745:   FUNC GLOBAL DEFAULT 14 _ZNK9keymaster16Authoriza
746:   OBJECT GLOBAL DEFAULT 23 _ZN9keymaster25TAG_USAGE_
747:   OBJECT GLOBAL DEFAULT 23 _ZN9keymaster23TAG_ALLOW_
748:   FUNC GLOBAL DEFAULT 14 _ZN9keymaster18EcdsaSignO
749:   FUNC GLOBAL DEFAULT 14 _ZNK9keymaster10HmacSha25
750:   FUNC GLOBAL DEFAULT 14 _ZN9keymaster21RsaDigesti
751:   OBJECT GLOBAL DEFAULT 19 _ZTVN9keymaster17ImportKe
752:   OBJECT GLOBAL DEFAULT 19 _ZTVN9keymaster16ImportKe
753:   FUNC GLOBAL DEFAULT 14 _ZN9keymaster16EcCurveToK
754:   OBJECT GLOBAL DEFAULT 23 _ZN9keymaster18TAG_USER_A
755:   FUNC GLOBAL DEFAULT 14 _ZNK9keymaster23BlockCiph
756:   FUNC GLOBAL DEFAULT 14 _ZN9keymaster16ImportKeyR
757:   FUNC GLOBAL DEFAULT 14 _ZNK9keymaster26HmacShari
758:   FUNC GLOBAL DEFAULT 14 _ZN9keymaster16Authorizat
759:   FUNC GLOBAL DEFAULT 14 _ZN9keymaster20KeymasterE
760:   OBJECT GLOBAL DEFAULT 23 _ZN9keymaster9TAG_NONCEE
761:   OBJECT GLOBAL DEFAULT 19 _ZTVN9keymaster6RsaKeyE
762:   FUNC GLOBAL DEFAULT 14 _ZN9keymaster13HmacOperat
763:   FUNC GLOBAL DEFAULT 14 _ZN9keymaster12SymmetricK
764:   FUNC GLOBAL DEFAULT 14 _ZNK9keymaster17HardwareA
765:   FUNC GLOBAL DEFAULT 14 _ZN9keymaster18RsaVerifyO
766:   OBJECT GLOBAL DEFAULT 19 _ZTVN9keymaster25ComputeS
767:   OBJECT GLOBAL DEFAULT 19 _ZTVN9keymaster19Generate
768:   OBJECT GLOBAL DEFAULT 19 _ZTVN9keymaster17UpgradeK
769:   OBJECT GLOBAL DEFAULT 16 infoString
770:   FUNC GLOBAL DEFAULT 14 _ZNK9keymaster20HmacOpera
771:   FUNC GLOBAL DEFAULT 14 _ZN9keymaster6RsaKey13Sup
772:   FUNC GLOBAL DEFAULT 14 _ZN9keymaster12RsaOperati
773:   FUNC GLOBAL DEFAULT 14 _ZN9keymaster30d2i_KM_WRA
774:   FUNC GLOBAL DEFAULT 14 _ZN9keymaster20KM_ROOT_OF
775:   FUNC GLOBAL DEFAULT 14 _ZN9keymaster18RsaVerifyO
776:   FUNC GLOBAL DEFAULT 14 _ZNK9keymaster17ExportKey
777:   FUNC GLOBAL DEFAULT 14 _ZN9keymaster25ComputeSha
778:   OBJECT GLOBAL DEFAULT 23 _ZN9keymaster18TAG_APPLIC
779:   OBJECT GLOBAL DEFAULT 23 _ZN9keymaster25TAG_ATTEST
780:   FUNC GLOBAL DEFAULT 14 _ZN9keymaster14EcdsaOpera
781:   FUNC GLOBAL DEFAULT 14 _ZNK9keymaster19RsaOperat
782:   FUNC GLOBAL DEFAULT 14 _ZN9keymaster23is_public_
783:   OBJECT GLOBAL DEFAULT 23 _ZN9keymaster16TAG_CALLER
784:   FUNC GLOBAL DEFAULT 14 ae_free
785:   OBJECT GLOBAL DEFAULT 19 _ZTVN9keymaster12EcKeyFac
786:   OBJECT GLOBAL DEFAULT 19 _ZTVN9keymaster29TripleDe
787:   OBJECT WEAK DEFAULT 11 _ZSt7nothrow
788:   FUNC GLOBAL DEFAULT 14 _ZN9keymaster6Buffer5writ
789:   FUNC GLOBAL DEFAULT 14 _ZN9keymaster17ec_get_gro
790:   OBJECT GLOBAL DEFAULT 19 _ZTVN9keymaster13AesKeyFa
791:   FUNC GLOBAL DEFAULT 14 _ZN9keymaster6Buffer5Clea
792:   FUNC GLOBAL DEFAULT 14 _ZN9keymaster18EcdsaSignO
