 0x0000000e (SONAME)                     Library soname: [libui.so]
  
Symbol   contains 609 entries:
Num:   Type Bind Vis Ndx Name
0:   NOTYPE LOCAL DEFAULT UND
1:   FUNC GLOBAL DEFAULT UND __cxa_atexit@LIBC (2)
2:   FUNC GLOBAL DEFAULT UND __cxa_finalize@LIBC (2)
3:   FUNC GLOBAL DEFAULT UND _ZNKSt3__121__basic_strin
4:   FUNC GLOBAL DEFAULT UND _ZNSt3__112basic_stringIc
5:   FUNC GLOBAL DEFAULT UND _ZdlPv
6:   FUNC GLOBAL DEFAULT UND _Znaj
7:   FUNC GLOBAL DEFAULT UND _Znwj
8:   FUNC GLOBAL DEFAULT UND __stack_chk_fail@LIBC (2)
9:   OBJECT GLOBAL DEFAULT UND __stack_chk_guard@LIBC (2)
10:   FUNC GLOBAL DEFAULT UND abort@LIBC (2)
11:   FUNC GLOBAL DEFAULT UND powf@LIBC (3)
12:   FUNC GLOBAL DEFAULT UND strlen@LIBC (2)
13:   FUNC GLOBAL DEFAULT UND _ZN7android10frameworks9b
14:   FUNC GLOBAL DEFAULT UND _ZN7android12NativeHandle
15:   FUNC GLOBAL DEFAULT UND _ZN7android14sp_report_ra
16:   FUNC GLOBAL DEFAULT UND _ZN7android8hardware11hid
17:   FUNC GLOBAL DEFAULT UND _ZN7android8hardware11hid
18:   FUNC GLOBAL DEFAULT UND _ZN7android8hardware11hid
19:   FUNC GLOBAL DEFAULT UND _ZN7android8hardware11hid
20:   FUNC GLOBAL DEFAULT UND _ZN7android8hardware7deta
21:   FUNC GLOBAL DEFAULT UND _ZNK7android7RefBase9decS
22:   FUNC GLOBAL DEFAULT UND _ZNK7android7RefBase9incS
23:   FUNC GLOBAL DEFAULT UND _ZNK7android8hardware11hi
24:   FUNC GLOBAL DEFAULT UND _ZNK7android8hardware11hi
25:   FUNC GLOBAL DEFAULT UND __android_log_print@LIBLOG (4)
26:   FUNC GLOBAL DEFAULT UND __errno@LIBC (2)
27:   FUNC WEAK DEFAULT UND android_fdsan_close_with_@LIBC_Q (5)
28:   FUNC WEAK DEFAULT UND android_fdsan_create_owne@LIBC_Q (5)
29:   FUNC WEAK DEFAULT UND android_fdsan_exchange_ow@LIBC_Q (5)
30:   OBJECT GLOBAL DEFAULT UND atrace_is_ready
31:   FUNC GLOBAL DEFAULT UND atrace_setup
32:   FUNC GLOBAL DEFAULT UND close@LIBC (2)
33:   FUNC GLOBAL DEFAULT UND fcntl@LIBC (2)
34:   FUNC GLOBAL DEFAULT UND native_handle_clone
35:   FUNC GLOBAL DEFAULT UND strerror@LIBC (2)
36:   FUNC GLOBAL DEFAULT UND eventfd@LIBC (2)
37:   FUNC GLOBAL DEFAULT UND eventfd_read@LIBC (2)
38:   FUNC GLOBAL DEFAULT UND eventfd_write@LIBC (2)
39:   FUNC GLOBAL DEFAULT UND ashmem_create_region
40:   FUNC GLOBAL DEFAULT UND ashmem_get_size_region
41:   FUNC GLOBAL DEFAULT UND ashmem_set_prot_region
42:   FUNC GLOBAL DEFAULT UND ashmem_valid
43:   FUNC GLOBAL DEFAULT UND mmap@LIBC (2)
44:   FUNC GLOBAL DEFAULT UND munmap@LIBC (2)
45:   FUNC GLOBAL DEFAULT UND _ZN7android4base12StringP
46:   FUNC GLOBAL DEFAULT UND atrace_begin_body
47:   OBJECT GLOBAL DEFAULT UND atrace_enabled_tags
48:   FUNC GLOBAL DEFAULT UND atrace_end_body
49:   FUNC GLOBAL DEFAULT UND dup@LIBC (2)
50:   FUNC GLOBAL DEFAULT UND sync_file_info
51:   FUNC GLOBAL DEFAULT UND sync_file_info_free
52:   FUNC GLOBAL DEFAULT UND sync_merge
53:   FUNC GLOBAL DEFAULT UND sync_wait
54:   FUNC GLOBAL DEFAULT UND _ZNKSt3__119__shared_weak
55:   FUNC GLOBAL DEFAULT UND _ZNKSt3__120__vector_base
56:   FUNC GLOBAL DEFAULT UND _ZNSt3__112__next_primeEj
57:   FUNC GLOBAL DEFAULT UND _ZNSt3__119__shared_weak_
58:   FUNC GLOBAL DEFAULT UND _ZNSt3__119__shared_weak_
59:   FUNC GLOBAL DEFAULT UND _ZNSt3__119__shared_weak_
60:   FUNC GLOBAL DEFAULT UND _ZNSt3__15mutex4lockEv
61:   FUNC GLOBAL DEFAULT UND _ZNSt3__15mutex6unlockEv
62:   FUNC GLOBAL DEFAULT UND _ZNSt3__15mutexD1Ev
63:   FUNC GLOBAL DEFAULT UND _ZN7android10VectorImpl13
64:   FUNC GLOBAL DEFAULT UND _ZN7android10VectorImpl6r
65:   FUNC GLOBAL DEFAULT UND __cxa_pure_virtual
66:   FUNC GLOBAL DEFAULT UND _ZN7android8hardware11hid
67:   FUNC GLOBAL DEFAULT UND _ZN7android8hardware14IPC
68:   FUNC GLOBAL DEFAULT UND _ZN7android8hardware14IPC
69:   FUNC GLOBAL DEFAULT UND _ZN7android8hardware7deta
70:   FUNC GLOBAL DEFAULT UND _ZN7android8hardware7deta
71:   OBJECT GLOBAL DEFAULT UND _ZN7android8hardware8grap
72:   FUNC GLOBAL DEFAULT UND _ZN7android8hardware8grap
73:   FUNC GLOBAL DEFAULT UND _ZN7android8hardware8grap
74:   FUNC GLOBAL DEFAULT UND _ZN7android8hardware8grap
75:   FUNC GLOBAL DEFAULT UND _ZNK7android8hardware11hi
76:   FUNC GLOBAL DEFAULT UND _ZNK7android8hardware7det
77:   FUNC GLOBAL DEFAULT UND _ZNSt3__112basic_stringIc
78:   FUNC GLOBAL DEFAULT UND _ZdaPv
79:   FUNC GLOBAL DEFAULT UND __android_log_assert@LIBLOG (4)
80:   FUNC GLOBAL DEFAULT UND native_handle_init
81:   OBJECT GLOBAL DEFAULT UND _ZN7android8hardware8grap
82:   FUNC GLOBAL DEFAULT UND _ZN7android8hardware8grap
83:   FUNC GLOBAL DEFAULT UND _ZN7android8hardware8grap
84:   FUNC GLOBAL DEFAULT UND _ZN7android12NativeHandle
85:   FUNC GLOBAL DEFAULT UND _ZN7android7RefBase10onFi
86:   FUNC GLOBAL DEFAULT UND _ZN7android7RefBase13onLa
87:   FUNC GLOBAL DEFAULT UND _ZN7android7RefBase15onLa
88:   FUNC GLOBAL DEFAULT UND _ZN7android7RefBase20onIn
89:   FUNC GLOBAL DEFAULT UND _ZN7android7RefBaseC2Ev
90:   FUNC GLOBAL DEFAULT UND _ZN7android7RefBaseD2Ev
91:   FUNC GLOBAL DEFAULT UND __android_log_error_write@LIBLOG_M (6)
92:   FUNC GLOBAL DEFAULT UND getpid@LIBC (2)
93:   FUNC GLOBAL DEFAULT UND native_handle_close
94:   FUNC GLOBAL DEFAULT UND native_handle_create
95:   FUNC GLOBAL DEFAULT UND native_handle_delete
96:   FUNC GLOBAL DEFAULT UND pthread_mutex_lock@LIBC (2)
97:   FUNC GLOBAL DEFAULT UND pthread_mutex_unlock@LIBC (2)
98:   FUNC GLOBAL DEFAULT UND _ZN7android10VectorImpl13
99:   FUNC GLOBAL DEFAULT UND _ZN7android16SortedVector
100:   FUNC GLOBAL DEFAULT UND _ZN7android16SortedVector
101:   FUNC GLOBAL DEFAULT UND _ZN7android16SortedVector
102:   FUNC GLOBAL DEFAULT UND _ZN7android16SortedVector
103:   FUNC GLOBAL DEFAULT UND _ZN7android4base13StringA
104:   FUNC GLOBAL DEFAULT UND _ZNSt3__112basic_stringIc
105:   FUNC GLOBAL DEFAULT UND _ZNSt3__112basic_stringIc
106:   FUNC GLOBAL DEFAULT UND pthread_mutex_destroy@LIBC (2)
107:   FUNC GLOBAL DEFAULT UND pthread_mutex_init@LIBC (2)
108:   FUNC GLOBAL DEFAULT UND _ZN7android10VectorImpl12
109:   FUNC GLOBAL DEFAULT UND _ZN7android10VectorImpl3a
110:   FUNC GLOBAL DEFAULT UND _ZN7android10VectorImpl5c
111:   FUNC GLOBAL DEFAULT UND _ZN7android10VectorImpl8i
112:   FUNC GLOBAL DEFAULT UND _ZN7android10VectorImplC2
113:   FUNC GLOBAL DEFAULT UND _ZN7android10VectorImplC2
114:   FUNC GLOBAL DEFAULT UND _ZN7android10VectorImplD2
115:   FUNC GLOBAL DEFAULT UND _ZN7android10VectorImplaS
116:   FUNC WEAK DEFAULT UND android_set_abort_message@LIBC (2)
117:   FUNC GLOBAL DEFAULT UND write@LIBC (2)
118:   FUNC GLOBAL DEFAULT UND memcpy@LIBC (2)
119:   FUNC GLOBAL DEFAULT UND memmove@LIBC (2)
120:   FUNC GLOBAL DEFAULT UND memset@LIBC (2)
121:   OBJECT WEAK DEFAULT 18 _ZTVNSt3__110__function6_
122:   FUNC GLOBAL DEFAULT 14 _ZN7android15BufferHubBuf
123:   FUNC GLOBAL DEFAULT 14 _ZN7android19GraphicBuffe
124:   FUNC GLOBAL DEFAULT 14 _ZN7android6RegionC2ERKNS
125:   FUNC GLOBAL DEFAULT 14 _ZN7android2ui9TransformD
126:   FUNC WEAK DEFAULT 14 _ZNSt3__110__function6__f
127:   FUNC GLOBAL DEFAULT 14 _ZN7android5Fence4waitEi
128:   FUNC GLOBAL DEFAULT 14 _ZN7android13GraphicBuffe
129:   FUNC GLOBAL DEFAULT 14 _ZN7android6Region13trans
130:   FUNC GLOBAL DEFAULT 14 _ZN7android6Region14makeB
131:   FUNC GLOBAL DEFAULT 14 __aeabi_memset4
132:   FUNC GLOBAL DEFAULT 14 _Z16dataspaceDetails19and
133:   FUNC WEAK DEFAULT 14 _ZNKSt3__110__function6__
134:   FUNC GLOBAL DEFAULT 14 __aeabi_memcpy
135:   FUNC GLOBAL DEFAULT 14 _ZN7android9FenceTimeC2ER
136:   OBJECT GLOBAL DEFAULT 18 _ZTVN7android16GrallocAll
137:   FUNC WEAK DEFAULT 14 _ZN7android9SingletonINS_
138:   FUNC WEAK DEFAULT 14 _ZNK7android6VectorINS_4R
139:   FUNC GLOBAL DEFAULT 14 _ZNK7android9FenceTime19g
140:   FUNC GLOBAL DEFAULT 14 _ZNK7android17Gralloc3All
141:   FUNC GLOBAL DEFAULT 14 _ZN7android19GraphicBuffe
142:   FUNC GLOBAL DEFAULT 14 _ZNK7android13GraphicBuff
143:   FUNC GLOBAL DEFAULT 14 _ZNK7android6Region14merg
144:   FUNC GLOBAL DEFAULT 14 _Z20decodeColorTransform2
145:   OBJECT GLOBAL DEFAULT 18 _ZTVN7android14Gralloc2Ma
146:   FUNC GLOBAL DEFAULT 14 _ZNK7android4RectltERKS0_
147:   FUNC GLOBAL DEFAULT 14 __aeabi_memset8
148:   FUNC GLOBAL DEFAULT 14 _ZN7android10ColorSpaceC2
149:   FUNC GLOBAL DEFAULT 14 _ZNK7android5Fence10getFd
150:   FUNC WEAK DEFAULT 14 _ZNSt3__112__hash_tableIN
151:   FUNC WEAK DEFAULT 14 _ZN7android9SingletonINS_
152:   FUNC GLOBAL DEFAULT 14 _ZN7android13GraphicBuffe
153:   FUNC GLOBAL DEFAULT 14 _ZN7android22GraphicBuffe
154:   FUNC WEAK DEFAULT 14 _ZN7android9SingletonINS_
155:   FUNC GLOBAL DEFAULT 14 _ZN7android5Fence5mergeER
156:   FUNC GLOBAL DEFAULT 14 _ZNK7android14Gralloc3Map
157:   FUNC GLOBAL DEFAULT 14 _ZN7android15HdrCapabilit
158:   FUNC GLOBAL DEFAULT 14 _ZNK7android2ui9Transform
159:   FUNC GLOBAL DEFAULT 14 _ZNK7android9FenceTime11g
160:   FUNC GLOBAL DEFAULT 14 _ZN7android17Gralloc2Allo
161:   FUNC GLOBAL DEFAULT 14 _ZN7android14Gralloc3Mapp
162:   OBJECT GLOBAL DEFAULT 18 _ZTVN7android13GraphicBuf
163:   FUNC GLOBAL DEFAULT 14 _ZN7android2ui9TransformD
164:   FUNC WEAK DEFAULT 14 _ZNSt3__110__function6__f
165:   FUNC GLOBAL DEFAULT 14 _ZNK7android16BufferHubEv
166:   FUNC WEAK DEFAULT 14 _ZNSt3__120__shared_ptr_p
167:   FUNC GLOBAL DEFAULT 14 _ZN7android13GraphicBuffe
168:   FUNC GLOBAL DEFAULT 14 _ZN7android13GraphicBuffe
169:   FUNC GLOBAL DEFAULT 14 _ZN7android6Region3setEii
170:   FUNC GLOBAL DEFAULT 14 _ZN7android13GraphicBuffe
171:   FUNC GLOBAL DEFAULT 14 _ZN7android4Rect5insetEii
172:   FUNC GLOBAL DEFAULT 14 _ZN7android6Region16addRe
173:   FUNC GLOBAL DEFAULT 14 _ZN7android10ColorSpace18
174:   FUNC GLOBAL DEFAULT 14 _ZN7android10ColorSpace5B
175:   FUNC GLOBAL DEFAULT 14 _ZN7android9FenceTimeC1EO
176:   FUNC GLOBAL DEFAULT 14 _ZNK7android9FenceTime7is
177:   FUNC GLOBAL DEFAULT 14 _ZN7android2ui9Transform5
178:   FUNC GLOBAL DEFAULT 14 _ZN7android10ColorSpace12
179:   FUNC GLOBAL DEFAULT 14 _ZN7android10ColorSpace9D
180:   FUNC WEAK DEFAULT 14 _ZNKSt3__110__function6__
181:   FUNC WEAK DEFAULT 14 _ZNSt3__114__split_buffer
182:   FUNC GLOBAL DEFAULT 14 _ZN7android22GraphicBuffe
183:   FUNC WEAK DEFAULT 14 _ZNSt3__110__function6__f
184:   FUNC WEAK DEFAULT 14 _ZNSt3__112__hash_tableIN
185:   FUNC GLOBAL DEFAULT 14 _ZN7android6Region9unflat
186:   FUNC GLOBAL DEFAULT 14 _ZN7android2ui9Transforma
187:   FUNC GLOBAL DEFAULT 14 _ZN7android10ColorSpaceC1
188:   FUNC GLOBAL DEFAULT 14 _ZN7android10FrameStats9u
189:   FUNC GLOBAL DEFAULT 14 _ZN7android13GraphicBuffe
190:   FUNC WEAK DEFAULT 14 _ZNK7android12SortedVecto
191:   FUNC WEAK DEFAULT 14 _ZNSt3__120__shared_ptr_e
192:   FUNC GLOBAL DEFAULT 14 _ZN7android6Region10raste
193:   FUNC GLOBAL DEFAULT 14 _ZN7android19ColorSpaceCo
194:   FUNC GLOBAL DEFAULT 14 _ZN7android22GraphicBuffe
195:   FUNC GLOBAL DEFAULT 14 _ZN7android6Region25creat
196:   FUNC GLOBAL DEFAULT 14 _ZN7android15BufferHubBuf
197:   FUNC GLOBAL DEFAULT 14 _Z18decodeRenderIntentN7a
198:   FUNC WEAK DEFAULT 14 _ZNSt3__15dequeINS_8weak_
199:   FUNC GLOBAL DEFAULT 14 _ZN7android14Gralloc3Mapp
200:   FUNC WEAK DEFAULT 14 _ZNK7android12SortedVecto
201:   FUNC GLOBAL DEFAULT 14 _ZNK7android6Region16isTr
202:   FUNC GLOBAL DEFAULT 14 _ZN7android13GraphicBuffe
203:   OBJECT WEAK DEFAULT 18 _ZTVNSt3__110__function6_
204:   FUNC GLOBAL DEFAULT 14 _ZN7android13GraphicBuffe
205:   FUNC WEAK DEFAULT 14 _ZNK7android6VectorINS_4R
206:   FUNC GLOBAL DEFAULT 14 _ZN7android20appendUiConf
207:   FUNC WEAK DEFAULT 14 _ZNSt3__110__function6__f
208:   FUNC GLOBAL DEFAULT 14 _ZN7android16BufferHubEve
209:   FUNC WEAK DEFAULT 14 _ZN7android2spINS_5FenceE
210:   FUNC GLOBAL DEFAULT 14 _ZN7android9FenceTimeC2Ex
211:   FUNC GLOBAL DEFAULT 14 _ZNK7android14Gralloc3Map
212:   FUNC GLOBAL DEFAULT 14 _ZN7android19GraphicBuffe
213:   FUNC GLOBAL DEFAULT 14 _ZN7android6Region17boole
214:   FUNC GLOBAL DEFAULT 14 _ZN7android2ui9Transform3
215:   FUNC GLOBAL DEFAULT 14 _ZNK7android2ui9Transform
216:   FUNC GLOBAL DEFAULT 14 _ZNK7android15BufferHubBu
217:   FUNC GLOBAL DEFAULT 14 _ZN7android5FenceC1ENS_4b
218:   FUNC GLOBAL DEFAULT 14 _ZN7android19FenceToFence
219:   FUNC GLOBAL DEFAULT 14 _ZNK7android10FrameStats1
220:   FUNC GLOBAL DEFAULT 14 _ZNK7android14Gralloc3Map
221:   OBJECT GLOBAL DEFAULT 18 _ZTVN7android14Gralloc3Ma
222:   FUNC GLOBAL DEFAULT 14 _ZN7android13GraphicBuffe
223:   FUNC GLOBAL DEFAULT 14 _ZN7android22GraphicBuffe
224:   FUNC GLOBAL DEFAULT 14 _ZN7android5FenceC2Ei
225:   FUNC GLOBAL DEFAULT 14 _ZN7android9FenceTime13si
226:   FUNC GLOBAL DEFAULT 14 _ZNK7android22GraphicBuff
227:   FUNC WEAK DEFAULT 14 _ZNSt3__110__function6__f
228:   FUNC GLOBAL DEFAULT 14 _ZN7android13GraphicBuffe
229:   FUNC GLOBAL DEFAULT 14 _ZNK7android2ui9Transform
230:   FUNC GLOBAL DEFAULT 14 _ZN7android10ColorSpace5D
231:   FUNC GLOBAL DEFAULT 14 _ZNK7android4Rect9interse
232:   FUNC WEAK DEFAULT 14 _ZNKSt3__110__function6__
233:   FUNC WEAK DEFAULT 14 _ZNKSt3__110__function6__
234:   FUNC GLOBAL DEFAULT 14 _ZN7android15BufferHubBuf
235:   FUNC WEAK DEFAULT 14 _ZNSt3__110shared_ptrIN7a
236:   FUNC GLOBAL DEFAULT 14 _ZNK7android17Gralloc2All
237:   FUNC GLOBAL DEFAULT 14 _ZN7android13GraphicBuffe
238:   FUNC GLOBAL DEFAULT 14 _ZN7android6Region7xorSel
239:   FUNC GLOBAL DEFAULT 14 _ZNK7android6Region14merg
240:   FUNC GLOBAL DEFAULT 14 _ZNK7android2ui9Transform
241:   FUNC WEAK DEFAULT 14 _ZNKSt3__110__function6__
242:   FUNC WEAK DEFAULT 14 _ZNKSt3__110__function6__
243:   FUNC GLOBAL DEFAULT 14 _ZNK7android4Rect9transfo
244:   FUNC GLOBAL DEFAULT 14 _ZNK7android6Region9trans
245:   FUNC WEAK DEFAULT 14 _ZNSt3__110__function6__f
246:   FUNC GLOBAL DEFAULT 14 _ZN7android16BufferHubEve
247:   FUNC GLOBAL DEFAULT 14 _ZN7android13FenceTimelin
248:   FUNC GLOBAL DEFAULT 14 _ZN7android9FenceTimeC1Ex
249:   FUNC WEAK DEFAULT 14 _ZNSt3__112__hash_tableIN
250:   FUNC GLOBAL DEFAULT 14 _ZNK7android17Gralloc2All
251:   FUNC GLOBAL DEFAULT 14 _ZNK7android13GraphicBuff
252:   FUNC GLOBAL DEFAULT 14 _ZNK7android6Region3endEv
253:   FUNC WEAK DEFAULT 14 _ZNKSt3__110__function6__
254:   FUNC WEAK DEFAULT 14 _ZNKSt3__110__function6__
255:   FUNC GLOBAL DEFAULT 14 _ZNK7android17Gralloc3All
256:   FUNC GLOBAL DEFAULT 14 _ZN7android4Rect8offsetTo
257:   FUNC GLOBAL DEFAULT 14 _ZN7android5FenceC1Ei
258:   FUNC GLOBAL DEFAULT 14 _ZN7android9FenceTime8Sna
259:   FUNC GLOBAL DEFAULT 14 _ZN7android19GraphicBuffe
260:   FUNC GLOBAL DEFAULT 14 _ZN7android6Region7andSel
261:   FUNC WEAK DEFAULT 14 _ZNSt3__110__function6__f
262:   FUNC GLOBAL DEFAULT 14 _ZN7android15BufferHubBuf
263:   FUNC GLOBAL DEFAULT 14 _ZN7android13GraphicBuffe
264:   FUNC GLOBAL DEFAULT 14 _ZNK7android6Region9opera
265:   OBJECT WEAK DEFAULT 18 _ZTVNSt3__110__function6_
266:   FUNC GLOBAL DEFAULT 14 _ZN7android16BufferHubEve
267:   FUNC WEAK DEFAULT 14 _ZN7android9SingletonINS_
268:   FUNC GLOBAL DEFAULT 14 _ZN7android12bitsPerPixel
269:   OBJECT WEAK DEFAULT 18 _ZTVNSt3__120__shared_ptr
270:   FUNC GLOBAL DEFAULT 14 _ZN7android6Region13opera
271:   FUNC WEAK DEFAULT 14 _ZNSt3__110__function6__f
272:   FUNC GLOBAL DEFAULT 14 _ZN7android15BufferHubBuf
273:   FUNC GLOBAL DEFAULT 14 _ZNK7android13GraphicBuff
274:   FUNC GLOBAL DEFAULT 14 _ZN7android6Region9transl
275:   FUNC WEAK DEFAULT 14 _ZNK7android12SortedVecto
276:   FUNC GLOBAL DEFAULT 14 _ZN7android6Region17boole
277:   FUNC GLOBAL DEFAULT 14 _ZN7android13GraphicBuffe
278:   FUNC GLOBAL DEFAULT 14 _ZNK7android6Region5merge
279:   FUNC GLOBAL DEFAULT 14 _ZNK7android14Gralloc3Map
280:   FUNC GLOBAL DEFAULT 14 _ZN7android6Region5clearE
281:   FUNC WEAK DEFAULT 14 _ZNSt3__15dequeINS_8weak_
282:   FUNC WEAK DEFAULT 14 _ZNSt3__16vectorIN7androi
283:   FUNC GLOBAL DEFAULT 14 _ZN7android6Region17boole
284:   FUNC GLOBAL DEFAULT 14 _ZNK7android2ui9Transform
285:   FUNC WEAK DEFAULT 14 _ZNKSt3__110__function6__
286:   FUNC WEAK DEFAULT 14 _ZNSt3__16vectorINS_8weak
287:   FUNC GLOBAL DEFAULT 14 _ZNK7android17Gralloc3All
288:   OBJECT GLOBAL DEFAULT 18 _ZTVN7android17Gralloc3Al
289:   FUNC GLOBAL DEFAULT 14 _ZN7android13GraphicBuffe
290:   FUNC GLOBAL DEFAULT 14 _ZNK7android22GraphicBuff
291:   FUNC GLOBAL DEFAULT 14 _ZNK7android4RectplERKNS_
292:   FUNC GLOBAL DEFAULT 14 _ZN7android6Region12subtr
293:   FUNC GLOBAL DEFAULT 14 _ZN7android2ui9TransformC
294:   FUNC WEAK DEFAULT 14 _ZNSt3__110__function6__f
295:   FUNC GLOBAL DEFAULT 14 _ZN7android14Gralloc2Mapp
296:   FUNC GLOBAL DEFAULT 14 _ZN7android16BufferHubEve
297:   FUNC WEAK DEFAULT 14 _ZNSt3__114__split_buffer
298:   FUNC GLOBAL DEFAULT 14 _ZNK7android13GraphicBuff
299:   OBJECT GLOBAL DEFAULT 23 _ZN7android22GraphicBuffe
300:   FUNC GLOBAL DEFAULT 14 android_convertGralloc1To
301:   FUNC WEAK DEFAULT 14 _ZNK7android6VectorINS_4R
302:   FUNC GLOBAL DEFAULT 14 _ZNK7android16BufferHubEv
303:   FUNC GLOBAL DEFAULT 14 _ZNK7android9FenceTime8Sn
304:   FUNC GLOBAL DEFAULT 14 _ZN7android6Region3setEjj
305:   FUNC GLOBAL DEFAULT 14 _ZN7android6Region9scaleS
306:   FUNC GLOBAL DEFAULT 14 _ZN7android6RegionC1ERKS0
307:   FUNC GLOBAL DEFAULT 14 _ZNK7android6Region4dumpE
308:   FUNC GLOBAL DEFAULT 14 __aeabi_memmove4
309:   FUNC GLOBAL DEFAULT 14 _ZNK7android4RectmiERKNS_
310:   OBJECT WEAK DEFAULT 18 _ZTVNSt3__110__function6_
311:   FUNC GLOBAL DEFAULT 14 _ZNK7android10FrameStats1
312:   FUNC GLOBAL DEFAULT 14 _ZN7android6Region12subtr
313:   FUNC GLOBAL DEFAULT 14 _ZN7android10ColorSpace6B
314:   FUNC GLOBAL DEFAULT 14 _ZNK7android13GraphicBuff
315:   FUNC GLOBAL DEFAULT 14 _ZN7android6RegionC2ERKS0
316:   OBJECT GLOBAL DEFAULT 23 _ZN7android9SingletonINS_
317:   FUNC GLOBAL DEFAULT 14 _ZN7android2ui9Transform8
318:   FUNC GLOBAL DEFAULT 14 __aeabi_memmove8
319:   FUNC GLOBAL DEFAULT 14 _ZN7android10ColorSpace4s
320:   FUNC GLOBAL DEFAULT 14 _ZN7android17BufferHubMet
321:   FUNC GLOBAL DEFAULT 14 _ZN7android9FenceTimeC2EO
322:   FUNC GLOBAL DEFAULT 14 _ZN7android13GraphicBuffe
323:   FUNC GLOBAL DEFAULT 14 _ZNK7android6Region8subtr
324:   FUNC GLOBAL DEFAULT 14 _ZNK7android2ui9Transform
325:   FUNC GLOBAL DEFAULT 14 _ZN7android10ColorSpaceC1
326:   FUNC GLOBAL DEFAULT 14 _ZN7android15BufferHubBuf
327:   FUNC GLOBAL DEFAULT 14 _ZN7android17BufferHubMet
328:   FUNC GLOBAL DEFAULT 14 _Z9to_stringRKN7android4R
329:   FUNC GLOBAL DEFAULT 14 _ZN7android17Gralloc3Allo
330:   OBJECT GLOBAL DEFAULT 13 _ZN7android4Rect10EMPTY_R
331:   OBJECT GLOBAL DEFAULT 13 _ZN7android4Rect12INVALID
332:   FUNC GLOBAL DEFAULT 14 _ZN7android2ui9TransformC
333:   FUNC GLOBAL DEFAULT 14 _ZN7android10ColorSpaceC2
334:   FUNC GLOBAL DEFAULT 14 _ZN7android14Gralloc2Mapp
335:   FUNC GLOBAL DEFAULT 14 _ZNK7android6Region7flatt
336:   OBJECT WEAK DEFAULT 18 _ZTVNSt3__110__function6_
337:   FUNC GLOBAL DEFAULT 14 _Z15decodeColorModeN7andr
338:   FUNC GLOBAL DEFAULT 14 _ZN7android5Fence9unflatt
339:   FUNC GLOBAL DEFAULT 14 _ZN7android9FenceTimeC1ER
340:   FUNC GLOBAL DEFAULT 14 _ZNK7android14Gralloc3Map
341:   FUNC GLOBAL DEFAULT 14 _ZNK7android6Region8conta
342:   FUNC GLOBAL DEFAULT 14 _ZN7android15BufferHubBuf
343:   FUNC WEAK DEFAULT 14 _ZNSt3__114__split_buffer
344:   FUNC GLOBAL DEFAULT 14 _ZN7android13GraphicBuffe
345:   FUNC GLOBAL DEFAULT 14 _ZNK7android15HdrCapabili
346:   FUNC GLOBAL DEFAULT 14 _ZNK7android15HdrCapabili
347:   FUNC GLOBAL DEFAULT 14 _ZN7android6Region12subtr
348:   FUNC GLOBAL DEFAULT 14 _ZN7android6RegionD2Ev
349:   FUNC GLOBAL DEFAULT 14 _ZN7android2ui9TransformC
350:   FUNC GLOBAL DEFAULT 14 _ZN7android13GrallocMappe
351:   FUNC GLOBAL DEFAULT 14 _ZN7android13GraphicBuffe
352:   FUNC WEAK DEFAULT 14 _ZN7android9SingletonINS_
353:   FUNC GLOBAL DEFAULT 14 _ZN7android6Region7xorSel
354:   FUNC GLOBAL DEFAULT 14 _ZN7android9FenceTime20ap
355:   FUNC GLOBAL DEFAULT 14 _ZN7android9FenceTime8Sna
356:   FUNC GLOBAL DEFAULT 14 _ZNK7android14Gralloc3Map
357:   FUNC GLOBAL DEFAULT 14 _ZN7android13GraphicBuffe
358:   FUNC GLOBAL DEFAULT 14 _ZN7android6Region6orSelf
359:   FUNC GLOBAL DEFAULT 14 _ZNK7android5Fence3dupEv
360:   FUNC GLOBAL DEFAULT 14 _ZN7android19FenceToFence
361:   FUNC GLOBAL DEFAULT 14 _ZNK7android14Gralloc3Map
362:   FUNC GLOBAL DEFAULT 14 _ZN7android19GraphicBuffe
363:   FUNC GLOBAL DEFAULT 14 _ZN7android10ColorSpaceC2
364:   FUNC WEAK DEFAULT 14 _ZNKSt3__110__function6__
365:   FUNC GLOBAL DEFAULT 14 _ZNK7android5Fence16getFl
366:   FUNC GLOBAL DEFAULT 14 _ZN7android13FenceTimelin
367:   FUNC GLOBAL DEFAULT 14 _ZN7android6Region10raste
368:   FUNC GLOBAL DEFAULT 14 _ZN7android13GraphicBuffe
369:   FUNC GLOBAL DEFAULT 14 _ZNK7android13GraphicBuff
370:   FUNC GLOBAL DEFAULT 14 _ZN7android15HdrCapabilit
371:   FUNC GLOBAL DEFAULT 14 _ZNK7android10FrameStats7
372:   FUNC GLOBAL DEFAULT 14 _ZNK7android6Region5begin
373:   FUNC GLOBAL DEFAULT 14 __aeabi_memcpy4
374:   FUNC GLOBAL DEFAULT 14 _ZN7android9FenceTime13ge
375:   FUNC WEAK DEFAULT 14 _ZNSt3__120__shared_ptr_p
376:   FUNC GLOBAL DEFAULT 14 _ZN7android13GraphicBuffe
377:   FUNC GLOBAL DEFAULT 14 _ZN7android6Region10raste
378:   FUNC GLOBAL DEFAULT 14 _ZN7android19GraphicBuffe
379:   FUNC GLOBAL DEFAULT 14 _ZN7android6RegionD1Ev
380:   FUNC GLOBAL DEFAULT 14 _ZN7android2ui9TransformC
381:   FUNC GLOBAL DEFAULT 14 _ZNK7android2ui9Transform
382:   FUNC GLOBAL DEFAULT 14 _ZN7android5FenceC2ENS_4b
383:   FUNC GLOBAL DEFAULT 14 _ZNK7android5Fence7flatte
384:   FUNC GLOBAL DEFAULT 14 _ZN7android13GrallocMappe
385:   FUNC GLOBAL DEFAULT 14 _ZN7android16GrallocAlloc
386:   FUNC WEAK DEFAULT 14 _ZN7android9SingletonINS_
387:   FUNC GLOBAL DEFAULT 14 _ZN7android9FenceTime8Sna
388:   FUNC GLOBAL DEFAULT 14 _ZNK7android17Gralloc2All
389:   FUNC GLOBAL DEFAULT 14 _ZNK7android14Gralloc3Map
390:   FUNC GLOBAL DEFAULT 14 _ZN7android13GraphicBuffe
391:   FUNC GLOBAL DEFAULT 14 _ZN7android6Region13opera
392:   FUNC GLOBAL DEFAULT 14 _ZN7android10ColorSpaceC2
393:   FUNC WEAK DEFAULT 14 _ZNKSt3__110__function6__
394:   FUNC WEAK DEFAULT 14 _ZNSt3__110__function6__f
395:   FUNC GLOBAL DEFAULT 14 _ZNK7android9FenceTime8Sn
396:   FUNC GLOBAL DEFAULT 14 _ZNK7android14Gralloc2Map
397:   FUNC GLOBAL DEFAULT 14 _ZN7android13GraphicBuffe
398:   FUNC GLOBAL DEFAULT 14 _ZNK7android13GraphicBuff
399:   FUNC GLOBAL DEFAULT 14 _ZNK7android13GraphicBuff
400:   FUNC WEAK DEFAULT 14 _ZNK7android6VectorINS_4R
401:   FUNC GLOBAL DEFAULT 14 __aeabi_memcpy8
402:   FUNC GLOBAL DEFAULT 14 _ZN7android9FenceTime8Sna
403:   FUNC GLOBAL DEFAULT 14 _ZN7android19GraphicBuffe
404:   FUNC GLOBAL DEFAULT 14 _ZN7android15HdrCapabilit
405:   FUNC GLOBAL DEFAULT 14 _ZNK7android2ui9Transform
406:   FUNC WEAK DEFAULT 14 _ZN7android9SingletonINS_
407:   FUNC GLOBAL DEFAULT 14 _ZNK7android2ui9Transform
408:   FUNC GLOBAL DEFAULT 14 _ZN7android22GraphicBuffe
409:   FUNC GLOBAL DEFAULT 14 _ZN7android6Region7xorSel
410:   FUNC GLOBAL DEFAULT 14 _ZN7android10ColorSpace4A
411:   FUNC GLOBAL DEFAULT 14 _Z14decodeTransfer19andro
412:   OBJECT GLOBAL DEFAULT 23 _ZN7android9FenceTime8NO_
413:   FUNC GLOBAL DEFAULT 14 _ZN7android13GraphicBuffe
414:   OBJECT GLOBAL DEFAULT 18 _ZTVN7android6Region10ras
415:   FUNC GLOBAL DEFAULT 14 _ZN7android13GraphicBuffe
416:   FUNC GLOBAL DEFAULT 14 _ZN7android15HdrCapabilit
417:   FUNC GLOBAL DEFAULT 14 _ZN7android6Region10raste
418:   FUNC WEAK DEFAULT 14 _ZNKSt3__110__function6__
419:   FUNC GLOBAL DEFAULT 14 _Z14decodeStandard19andro
420:   FUNC GLOBAL DEFAULT 14 _ZNK7android5Fence13getSi
421:   FUNC WEAK DEFAULT 14 _ZNSt3__114__split_buffer
422:   FUNC GLOBAL DEFAULT 14 _ZNK7android14Gralloc2Map
423:   FUNC GLOBAL DEFAULT 14 _ZNK7android2ui9Transform
424:   FUNC WEAK DEFAULT 14 _ZNSt3__110__function6__f
425:   FUNC GLOBAL DEFAULT 14 _ZN7android13GrallocMappe
426:   FUNC GLOBAL DEFAULT 14 _ZN7android16GrallocAlloc
427:   FUNC GLOBAL DEFAULT 14 _ZNK7android14Gralloc2Map
428:   FUNC WEAK DEFAULT 14 _ZN7android9SingletonINS_
429:   FUNC GLOBAL DEFAULT 14 _ZN7android6Region8valida
430:   FUNC GLOBAL DEFAULT 14 _ZNK7android15BufferHubBu
431:   FUNC WEAK DEFAULT 14 _ZNK7android12SortedVecto
432:   FUNC GLOBAL DEFAULT 14 _ZN7android19GraphicBuffe
433:   FUNC GLOBAL DEFAULT 14 _ZNK7android6Region16getF
434:   FUNC WEAK DEFAULT 14 _ZNK7android6VectorINS_4R
435:   FUNC GLOBAL DEFAULT 14 _ZN7android2ui9Transform3
436:   FUNC GLOBAL DEFAULT 14 _ZN7android19FenceToFence
437:   OBJECT GLOBAL DEFAULT 18 _ZTVN7android17Gralloc2Al
438:   FUNC GLOBAL DEFAULT 14 _ZN7android6Region6orSelf
439:   FUNC GLOBAL DEFAULT 14 _ZN7android2ui9Transform6
440:   FUNC GLOBAL DEFAULT 14 _ZNK7android2ui9Transform
441:   FUNC WEAK DEFAULT 14 _ZNSt3__110__function6__f
442:   FUNC GLOBAL DEFAULT 14 _ZN7android17BufferHubMet
443:   FUNC GLOBAL DEFAULT 14 _ZNK7android14Gralloc3Map
444:   FUNC GLOBAL DEFAULT 14 _ZN7android10ColorSpaceC2
445:   FUNC WEAK DEFAULT 14 _ZNSt3__110__function6__f
446:   OBJECT GLOBAL DEFAULT 18 _ZTVN7android13GrallocMap
447:   FUNC GLOBAL DEFAULT 14 _ZN7android13GraphicBuffe
448:   FUNC WEAK DEFAULT 14 _ZN7android9SingletonINS_
449:   FUNC GLOBAL DEFAULT 14 _ZN7android15HdrCapabilit
450:   FUNC GLOBAL DEFAULT 14 _ZN7android4Rect11makeInv
451:   OBJECT WEAK DEFAULT 18 _ZTVNSt3__110__function6_
452:   FUNC GLOBAL DEFAULT 14 _ZN7android14Gralloc2Mapp
453:   FUNC GLOBAL DEFAULT 14 _ZN7android13GraphicBuffe
454:   FUNC GLOBAL DEFAULT 14 _ZN7android6Region9transl
455:   FUNC GLOBAL DEFAULT 14 _ZN7android19ColorSpaceCo
456:   FUNC GLOBAL DEFAULT 14 _ZN7android6RegionaSERKS0
457:   FUNC GLOBAL DEFAULT 14 _ZNK7android2ui9Transform
458:   FUNC GLOBAL DEFAULT 14 _ZN7android15BufferHubBuf
459:   FUNC GLOBAL DEFAULT 14 _ZN7android15BufferHubBuf
460:   FUNC GLOBAL DEFAULT 14 _ZN7android6Region10raste
461:   FUNC GLOBAL DEFAULT 14 _ZNK7android6Region9opera
462:   FUNC GLOBAL DEFAULT 14 _ZN7android13GraphicBuffe
463:   FUNC GLOBAL DEFAULT 14 _ZN7android6Region3setERK
464:   FUNC GLOBAL DEFAULT 14 _ZN7android6Region7andSel
465:   FUNC GLOBAL DEFAULT 14 _ZNK7android6Region4dumpE
466:   OBJECT GLOBAL DEFAULT 13 _ZN7android2ui4Size5EMPTY
467:   FUNC GLOBAL DEFAULT 14 _ZN7android5Fence5mergeEP
468:   FUNC GLOBAL DEFAULT 14 _ZN7android16GrallocAlloc
469:   FUNC GLOBAL DEFAULT 14 _ZNK7android14Gralloc2Map
470:   FUNC GLOBAL DEFAULT 14 _ZNK7android14Gralloc2Map
471:   FUNC GLOBAL DEFAULT 14 _ZN7android10ColorSpace9c
472:   FUNC GLOBAL DEFAULT 14 _ZN7android15BufferHubBuf
473:   FUNC WEAK DEFAULT 14 _ZNSt3__112__hash_tableIN
474:   FUNC GLOBAL DEFAULT 14 _ZN7android19GraphicBuffe
475:   FUNC GLOBAL DEFAULT 14 _ZN7android22GraphicBuffe
476:   FUNC GLOBAL DEFAULT 14 _ZNK7android9FenceTime8Sn
477:   FUNC GLOBAL DEFAULT 14 _ZN7android17Gralloc3Allo
478:   FUNC GLOBAL DEFAULT 14 _ZN7android6Region6orSelf
479:   FUNC WEAK DEFAULT 14 _ZNSt3__110__function6__f
480:   FUNC GLOBAL DEFAULT 14 _ZN7android17BufferHubMet
481:   FUNC GLOBAL DEFAULT 14 _ZNK7android6Region9opera
482:   FUNC GLOBAL DEFAULT 14 _ZNK7android2ui9Transform
483:   FUNC GLOBAL DEFAULT 14 _ZN7android17BufferHubMet
484:   OBJECT GLOBAL DEFAULT 23 _ZN7android5Fence8NO_FENC
485:   FUNC WEAK DEFAULT 14 _ZN7android9SingletonINS_
486:   FUNC WEAK DEFAULT 14 _ZNK7android6VectorINS_4R
487:   OBJECT GLOBAL DEFAULT 13 _ZN7android2ui4Size7INVAL
488:   FUNC GLOBAL DEFAULT 14 _ZNK7android2ui9Transform
489:   FUNC GLOBAL DEFAULT 14 _ZNK7android14Gralloc2Map
490:   FUNC GLOBAL DEFAULT 14 _ZN7android13GraphicBuffe
491:   FUNC GLOBAL DEFAULT 14 _ZN7android10ColorSpace11
492:   FUNC WEAK DEFAULT 14 _ZNK7android12SortedVecto
493:   FUNC GLOBAL DEFAULT 14 _ZNK7android2ui9Transform
494:   FUNC GLOBAL DEFAULT 14 android_convertGralloc0To
495:   FUNC GLOBAL DEFAULT 14 _ZN7android10ColorSpaceC1
496:   FUNC GLOBAL DEFAULT 14 _ZN7android15BufferHubBuf
497:   FUNC GLOBAL DEFAULT 14 _ZN7android13GraphicBuffe
498:   FUNC GLOBAL DEFAULT 14 _ZN7android10ColorSpace8A
499:   FUNC WEAK DEFAULT 14 _ZN7android2spINS_5FenceE
500:   FUNC GLOBAL DEFAULT 14 _ZN7android13GraphicBuffe
501:   FUNC GLOBAL DEFAULT 14 _ZN7android19GraphicBuffe
502:   FUNC GLOBAL DEFAULT 14 _ZN7android22GraphicBuffe
503:   FUNC GLOBAL DEFAULT 14 _ZNK7android6Region8getAr
504:   FUNC GLOBAL DEFAULT 14 _ZNK7android6Region8subtr
505:   FUNC WEAK DEFAULT 14 _ZNSt3__110__function6__f
506:   FUNC GLOBAL DEFAULT 14 _ZN7android9FenceTimeC1ER
507:   OBJECT GLOBAL DEFAULT 23 _ZN7android9SingletonINS_
508:   OBJECT GLOBAL DEFAULT 23 _ZN7android9SingletonINS_
509:   FUNC WEAK DEFAULT 14 _ZNKSt3__110__function6__
510:   FUNC GLOBAL DEFAULT 14 _ZN7android9FenceTime8Sna
511:   FUNC GLOBAL DEFAULT 14 _ZNK7android14Gralloc2Map
512:   FUNC GLOBAL DEFAULT 14 _ZN7android13GraphicBuffe
513:   FUNC GLOBAL DEFAULT 14 _ZNK7android2ui9Transform
514:   FUNC WEAK DEFAULT 14 _ZNSt3__110__function6__f
515:   FUNC GLOBAL DEFAULT 14 _ZNK7android14Gralloc2Map
516:   FUNC GLOBAL DEFAULT 14 _ZN7android13GraphicBuffe
517:   FUNC GLOBAL DEFAULT 14 _ZN7android13bytesPerPixe
518:   FUNC GLOBAL DEFAULT 14 _ZNK7android6Region14merg
519:   FUNC GLOBAL DEFAULT 14 _ZNK7android2ui9Transform
520:   FUNC GLOBAL DEFAULT 14 _ZN7android10ColorSpace4N
521:   FUNC GLOBAL DEFAULT 14 _ZN7android15BufferHubBuf
522:   FUNC GLOBAL DEFAULT 14 _ZNK7android6Region8conta
523:   FUNC GLOBAL DEFAULT 14 _ZNK7android6Region9inter
524:   FUNC GLOBAL DEFAULT 14 _ZN7android15BufferHubBuf
525:   FUNC GLOBAL DEFAULT 14 _Z17decodePixelFormati
526:   OBJECT WEAK DEFAULT 18 _ZTVNSt3__120__shared_ptr
527:   FUNC WEAK DEFAULT 14 _ZNSt3__110__function6__f
528:   FUNC WEAK DEFAULT 14 _ZNSt3__110__function6__f
529:   FUNC WEAK DEFAULT 14 _ZNSt3__120__shared_ptr_e
530:   FUNC GLOBAL DEFAULT 14 _ZN7android10ColorSpaceC1
531:   FUNC WEAK DEFAULT 14 _ZNKSt3__110__function6__
532:   FUNC WEAK DEFAULT 14 _ZNSt3__15dequeINS_8weak_
533:   FUNC GLOBAL DEFAULT 14 _ZN7android17Gralloc2Allo
534:   FUNC GLOBAL DEFAULT 14 _ZN7android29mapPublicFor
535:   FUNC GLOBAL DEFAULT 14 _ZNK7android13GraphicBuff
536:   FUNC GLOBAL DEFAULT 14 _ZN7android6Region7andSel
537:   FUNC GLOBAL DEFAULT 14 __aeabi_memmove
538:   OBJECT WEAK DEFAULT 18 _ZTVN7android12SortedVect
539:   FUNC GLOBAL DEFAULT 14 _ZNK7android6Region5merge
540:   FUNC GLOBAL DEFAULT 14 __aeabi_memset
541:   FUNC GLOBAL DEFAULT 14 _ZNK7android14Gralloc2Map
542:   FUNC GLOBAL DEFAULT 14 _ZNK7android14Gralloc3Map
543:   FUNC GLOBAL DEFAULT 14 _ZN7android13GraphicBuffe
544:   FUNC GLOBAL DEFAULT 14 _ZN7android13GraphicBuffe
545:   FUNC WEAK DEFAULT 14 _ZNK7android12SortedVecto
546:   FUNC GLOBAL DEFAULT 14 _ZNK7android2ui9Transform
547:   OBJECT WEAK DEFAULT 18 _ZTVNSt3__110__function6_
548:   FUNC GLOBAL DEFAULT 14 _ZN7android13GraphicBuffe
549:   FUNC GLOBAL DEFAULT 14 _ZN7android26mapPublicFor
550:   FUNC GLOBAL DEFAULT 14 _ZNK7android6Region8subtr
551:   FUNC GLOBAL DEFAULT 14 _ZNK7android6Region9inter
552:   FUNC GLOBAL DEFAULT 14 _ZNK7android2ui9Transform
553:   FUNC GLOBAL DEFAULT 14 _ZN7android10ColorSpaceC2
554:   FUNC GLOBAL DEFAULT 14 _ZN7android15BufferHubBuf
555:   FUNC GLOBAL DEFAULT 14 _ZN7android13GraphicBuffe
556:   FUNC WEAK DEFAULT 14 _ZNSt3__112__hash_tableIN
557:   FUNC GLOBAL DEFAULT 14 _ZN7android6RegionC2Ev
558:   FUNC GLOBAL DEFAULT 14 _ZN7android2ui9TransformC
559:   FUNC GLOBAL DEFAULT 14 _ZN7android10ColorSpace6A
560:   FUNC GLOBAL DEFAULT 14 _ZN7android5Fence11waitFo
561:   FUNC WEAK DEFAULT 14 _ZNK7android12SortedVecto
562:   FUNC GLOBAL DEFAULT 14 _ZN7android35mapHalFormat
563:   FUNC GLOBAL DEFAULT 14 _ZN7android6Region17boole
564:   FUNC GLOBAL DEFAULT 14 _ZNK7android6Region5merge
565:   FUNC GLOBAL DEFAULT 14 __aeabi_memclr
566:   FUNC GLOBAL DEFAULT 14 _ZN7android17BufferHubMet
567:   FUNC WEAK DEFAULT 14 _ZNSt3__16vectorINS_4pair
568:   OBJECT GLOBAL DEFAULT 23 _ZN7android22GraphicBuffe
569:   FUNC GLOBAL DEFAULT 14 _ZN7android6Region13opera
570:   FUNC GLOBAL DEFAULT 14 _ZN7android2ui9TransformC
571:   FUNC GLOBAL DEFAULT 14 _ZNK7android2ui9Transform
572:   FUNC GLOBAL DEFAULT 14 __aeabi_memclr4
573:   FUNC GLOBAL DEFAULT 14 _ZN7android13GraphicBuffe
574:   FUNC GLOBAL DEFAULT 14 _ZN7android10ColorSpace10
575:   FUNC WEAK DEFAULT 14 _ZNSt3__112__hash_tableIN
576:   FUNC GLOBAL DEFAULT 14 _ZN7android13GraphicBuffe
577:   OBJECT WEAK DEFAULT 18 _ZTVN7android6VectorINS_4
578:   FUNC GLOBAL DEFAULT 14 _ZNK7android2ui9Transform
579:   FUNC GLOBAL DEFAULT 14 _ZN7android10ColorSpaceC1
580:   FUNC GLOBAL DEFAULT 14 _ZNK7android14Gralloc2Map
581:   OBJECT GLOBAL DEFAULT 23 _ZN7android6Region14INVAL
582:   FUNC WEAK DEFAULT 14 _ZNSt3__110__function6__f
583:   FUNC GLOBAL DEFAULT 14 _ZN7android9FenceTimeC2ER
584:   FUNC GLOBAL DEFAULT 14 _ZN7android14Gralloc3Mapp
585:   FUNC GLOBAL DEFAULT 14 _ZN7android13GraphicBuffe
586:   FUNC GLOBAL DEFAULT 14 __aeabi_memclr8
587:   FUNC GLOBAL DEFAULT 14 _ZN7android19GraphicBuffe
588:   FUNC GLOBAL DEFAULT 14 _ZN7android6RegionC1Ev
589:   FUNC GLOBAL DEFAULT 14 _ZN7android2ui9Transform3
590:   FUNC WEAK DEFAULT 14 _ZN7android9SingletonINS_
591:   FUNC GLOBAL DEFAULT 14 _ZNK7android14Gralloc2Map
592:   FUNC GLOBAL DEFAULT 14 _ZN7android4Rect8offsetBy
593:   FUNC WEAK DEFAULT 14 _ZNSt3__110__function6__f
594:   FUNC GLOBAL DEFAULT 14 _Z11decodeRange19android_
595:   FUNC GLOBAL DEFAULT 14 _ZN7android19GraphicBuffe
596:   FUNC GLOBAL DEFAULT 14 _ZN7android10ColorSpaceC1
597:   FUNC WEAK DEFAULT 14 _ZNSt3__110__function6__f
598:   FUNC GLOBAL DEFAULT 14 _ZNK7android14Gralloc3Map
599:   FUNC GLOBAL DEFAULT 14 _ZN7android6RegionC1ERKNS
600:   OBJECT GLOBAL DEFAULT 18 _ZTVN7android15BufferHubB
601:   FUNC GLOBAL DEFAULT 14 _ZN7android19GraphicBuffe
602:   FUNC GLOBAL DEFAULT 14 _ZN7android19GraphicBuffe
603:   OBJECT GLOBAL DEFAULT 23 _ZN7android9SingletonINS_
604:   FUNC WEAK DEFAULT 14 _ZN7android9SingletonINS_
605:   FUNC GLOBAL DEFAULT 14 _ZN7android15BufferHubBuf
606:   FUNC GLOBAL DEFAULT 14 _ZN7android15HdrCapabilit
607:   FUNC GLOBAL DEFAULT 14 _ZNK7android4Rect6reduceE
608:   FUNC GLOBAL DEFAULT 14 _ZNK7android6Region9inter
