 0x000000000000000e (SONAME)             Library soname: [android.hardware.audio.common@2.0-util.so]
  
Symbol   contains 27 entries:
Num:   Type Bind Vis Ndx Name
0:   NOTYPE LOCAL DEFAULT UND
1:   FUNC GLOBAL DEFAULT UND __cxa_finalize@LIBC (2)
2:   FUNC GLOBAL DEFAULT UND _ZN7android8hardware11hid
3:   FUNC GLOBAL DEFAULT UND _ZNK7android8hardware11hi
4:   FUNC GLOBAL DEFAULT UND _ZdaPv
5:   FUNC GLOBAL DEFAULT UND _Znam
6:   FUNC GLOBAL DEFAULT UND memset@LIBC (2)
7:   FUNC GLOBAL DEFAULT UND strlen@LIBC (2)
8:   FUNC GLOBAL DEFAULT UND strncpy@LIBC (2)
9:   FUNC GLOBAL DEFAULT 13 _ZN7android8hardware5audi
10:   FUNC GLOBAL DEFAULT 13 _ZN7android8hardware5audi
11:   FUNC GLOBAL DEFAULT 13 _ZN7android8hardware5audi
12:   FUNC GLOBAL DEFAULT 13 _ZN7android8hardware5audi
13:   FUNC GLOBAL DEFAULT 13 _ZN7android8hardware5audi
14:   FUNC GLOBAL DEFAULT 13 _ZN7android8hardware5audi
15:   FUNC GLOBAL DEFAULT 13 _ZN7android8hardware5audi
16:   FUNC GLOBAL DEFAULT 13 _ZN7android8hardware5audi
17:   FUNC GLOBAL DEFAULT 13 _ZN7android8hardware5audi
18:   FUNC GLOBAL DEFAULT 13 _ZN7android8hardware5audi
19:   FUNC GLOBAL DEFAULT 13 _ZN7android8hardware5audi
20:   FUNC GLOBAL DEFAULT 13 _ZN7android8hardware5audi
21:   FUNC GLOBAL DEFAULT 13 _ZN7android8hardware5audi
22:   FUNC GLOBAL DEFAULT 13 _ZN7android8hardware5audi
23:   FUNC GLOBAL DEFAULT 13 _ZN7android8hardware5audi
24:   FUNC GLOBAL DEFAULT 13 _ZN7android8hardware5audi
25:   FUNC GLOBAL DEFAULT 13 _ZN7android8hardware5audi
26:   FUNC GLOBAL DEFAULT 13 _ZN7android8hardware5audi
