 0x000000000000000e (SONAME)             Library soname: [android.hardware.camera.device@3.2.so]
  
Symbol   contains 423 entries:
Num:   Type Bind Vis Ndx Name
0:   NOTYPE LOCAL DEFAULT UND
1:   FUNC GLOBAL DEFAULT UND __cxa_finalize@LIBC (2)
2:   FUNC GLOBAL DEFAULT UND _ZN7android14sp_report_ra
3:   FUNC GLOBAL DEFAULT UND _ZN7android21report_syspr
4:   OBJECT GLOBAL DEFAULT UND _ZN7android4hidl4base4V1_
5:   FUNC GLOBAL DEFAULT UND _ZN7android4hidl4base4V1_
6:   FUNC GLOBAL DEFAULT UND _ZN7android4hidl4base4V1_
7:   FUNC GLOBAL DEFAULT UND _ZN7android4hidl4base4V1_
8:   FUNC GLOBAL DEFAULT UND _ZN7android4hidl4base4V1_
9:   FUNC GLOBAL DEFAULT UND _ZN7android4hidl4base4V1_
10:   FUNC GLOBAL DEFAULT UND _ZN7android4hidl4base4V1_
11:   FUNC GLOBAL DEFAULT UND _ZN7android4hidl4base4V1_
12:   FUNC GLOBAL DEFAULT UND _ZN7android4hidl4base4V1_
13:   FUNC GLOBAL DEFAULT UND _ZN7android4hidl4base4V1_
14:   FUNC GLOBAL DEFAULT UND _ZN7android4hidl4base4V1_
15:   FUNC GLOBAL DEFAULT UND _ZN7android4hidl4base4V1_
16:   FUNC GLOBAL DEFAULT UND _ZN7android4hidl4base4V1_
17:   FUNC GLOBAL DEFAULT UND _ZN7android4hidl4base4V1_
18:   FUNC GLOBAL DEFAULT UND _ZN7android4hidl4base4V1_
19:   FUNC GLOBAL DEFAULT UND _ZN7android4hidl4base4V1_
20:   FUNC GLOBAL DEFAULT UND _ZN7android4hidl4base4V1_
21:   FUNC GLOBAL DEFAULT UND _ZN7android4hidl4base4V1_
22:   FUNC GLOBAL DEFAULT UND _ZN7android4hidl4base4V1_
23:   FUNC GLOBAL DEFAULT UND _ZN7android4hidl4base4V1_
24:   FUNC GLOBAL DEFAULT UND _ZN7android4hidl4base4V1_
25:   FUNC GLOBAL DEFAULT UND _ZN7android4hidl4base4V1_
26:   FUNC GLOBAL DEFAULT UND _ZN7android4hidl4base4V1_
27:   FUNC GLOBAL DEFAULT UND _ZN7android4hidl4base4V1_
28:   FUNC GLOBAL DEFAULT UND _ZN7android7RefBase10onFi
29:   FUNC GLOBAL DEFAULT UND _ZN7android7RefBase12weak
30:   FUNC GLOBAL DEFAULT UND _ZN7android7RefBase13onLa
31:   FUNC GLOBAL DEFAULT UND _ZN7android7RefBase15onLa
32:   FUNC GLOBAL DEFAULT UND _ZN7android7RefBase20onIn
33:   FUNC GLOBAL DEFAULT UND _ZN7android7RefBaseC2Ev
34:   FUNC GLOBAL DEFAULT UND _ZN7android7RefBaseD2Ev
35:   FUNC GLOBAL DEFAULT UND _ZN7android8hardware10IIn
36:   FUNC GLOBAL DEFAULT UND _ZN7android8hardware10IIn
37:   FUNC GLOBAL DEFAULT UND _ZN7android8hardware10IIn
38:   FUNC GLOBAL DEFAULT UND _ZN7android8hardware10IIn
39:   FUNC GLOBAL DEFAULT UND _ZN7android8hardware10IIn
40:   FUNC GLOBAL DEFAULT UND _ZN7android8hardware11BpH
41:   FUNC GLOBAL DEFAULT UND _ZN7android8hardware11BpH
42:   FUNC GLOBAL DEFAULT UND _ZN7android8hardware11BpH
43:   FUNC GLOBAL DEFAULT UND _ZN7android8hardware11BpH
44:   FUNC GLOBAL DEFAULT UND _ZN7android8hardware11BpH
45:   FUNC GLOBAL DEFAULT UND _ZN7android8hardware11BpH
46:   FUNC GLOBAL DEFAULT UND _ZN7android8hardware11BpH
47:   FUNC GLOBAL DEFAULT UND _ZN7android8hardware11hid
48:   FUNC GLOBAL DEFAULT UND _ZN7android8hardware11hid
49:   FUNC GLOBAL DEFAULT UND _ZN7android8hardware11hid
50:   FUNC GLOBAL DEFAULT UND _ZN7android8hardware11hid
51:   FUNC GLOBAL DEFAULT UND _ZN7android8hardware11hid
52:   FUNC GLOBAL DEFAULT UND _ZN7android8hardware11hid
53:   FUNC GLOBAL DEFAULT UND _ZN7android8hardware11hid
54:   FUNC GLOBAL DEFAULT UND _ZN7android8hardware11hid
55:   FUNC GLOBAL DEFAULT UND _ZN7android8hardware12Pro
56:   FUNC GLOBAL DEFAULT UND _ZN7android8hardware12Pro
57:   FUNC GLOBAL DEFAULT UND _ZN7android8hardware13wri
58:   FUNC GLOBAL DEFAULT UND _ZN7android8hardware14rea
59:   FUNC GLOBAL DEFAULT UND _ZN7android8hardware21def
60:   FUNC GLOBAL DEFAULT UND _ZN7android8hardware23get
61:   FUNC GLOBAL DEFAULT UND _ZN7android8hardware27hid
62:   FUNC GLOBAL DEFAULT UND _ZN7android8hardware27hid
63:   FUNC GLOBAL DEFAULT UND _ZN7android8hardware6Parc
64:   FUNC GLOBAL DEFAULT UND _ZN7android8hardware6Parc
65:   FUNC GLOBAL DEFAULT UND _ZN7android8hardware6Parc
66:   FUNC GLOBAL DEFAULT UND _ZN7android8hardware6Parc
67:   FUNC GLOBAL DEFAULT UND _ZN7android8hardware6Parc
68:   FUNC GLOBAL DEFAULT UND _ZN7android8hardware6Parc
69:   FUNC GLOBAL DEFAULT UND _ZN7android8hardware6Parc
70:   FUNC GLOBAL DEFAULT UND _ZN7android8hardware6Parc
71:   FUNC GLOBAL DEFAULT UND _ZN7android8hardware6Stat
72:   FUNC GLOBAL DEFAULT UND _ZN7android8hardware6Stat
73:   FUNC GLOBAL DEFAULT UND _ZN7android8hardware6Stat
74:   FUNC GLOBAL DEFAULT UND _ZN7android8hardware6Stat
75:   FUNC GLOBAL DEFAULT UND _ZN7android8hardware6came
76:   FUNC GLOBAL DEFAULT UND _ZN7android8hardware6came
77:   FUNC GLOBAL DEFAULT UND _ZN7android8hardware7IBin
78:   FUNC GLOBAL DEFAULT UND _ZN7android8hardware7IBin
79:   FUNC GLOBAL DEFAULT UND _ZN7android8hardware7IBin
80:   FUNC GLOBAL DEFAULT UND _ZN7android8hardware7IBin
81:   FUNC GLOBAL DEFAULT UND _ZN7android8hardware7deta
82:   FUNC GLOBAL DEFAULT UND _ZN7android8hardware7deta
83:   FUNC GLOBAL DEFAULT UND _ZN7android8hardware7deta
84:   FUNC GLOBAL DEFAULT UND _ZN7android8hardware7deta
85:   FUNC GLOBAL DEFAULT UND _ZN7android8hardware7deta
86:   FUNC GLOBAL DEFAULT UND _ZN7android8hardware7deta
87:   FUNC GLOBAL DEFAULT UND _ZN7android8hardware7deta
88:   OBJECT GLOBAL DEFAULT UND _ZN7android8hardware7deta
89:   FUNC GLOBAL DEFAULT UND _ZN7android8hardware7deta
90:   OBJECT GLOBAL DEFAULT UND _ZN7android8hardware7deta
91:   FUNC GLOBAL DEFAULT UND _ZN7android8hardware7deta
92:   FUNC GLOBAL DEFAULT UND _ZN7android8hardware7deta
93:   FUNC GLOBAL DEFAULT UND _ZN7android8hardware7deta
94:   FUNC GLOBAL DEFAULT UND _ZN7android8hardware7deta
95:   FUNC GLOBAL DEFAULT UND _ZN7android8hardware7deta
96:   FUNC GLOBAL DEFAULT UND _ZN7android8hardware7deta
97:   FUNC GLOBAL DEFAULT UND _ZN7android8hardware7deta
98:   FUNC GLOBAL DEFAULT UND _ZN7android8hardware7deta
99:   FUNC GLOBAL DEFAULT UND _ZN7android8hardware7deta
100:   FUNC GLOBAL DEFAULT UND _ZN7android8hardware7deta
101:   OBJECT GLOBAL DEFAULT UND _ZN7android8hardware7deta
102:   FUNC GLOBAL DEFAULT UND _ZN7android8hardware9BHwB
103:   FUNC GLOBAL DEFAULT UND _ZN7android8hardware9BHwB
104:   FUNC GLOBAL DEFAULT UND _ZN7android8hardware9BHwB
105:   FUNC GLOBAL DEFAULT UND _ZN7android8hardware9BHwB
106:   FUNC GLOBAL DEFAULT UND _ZN7android8hardware9BHwB
107:   FUNC GLOBAL DEFAULT UND _ZN7android8hardware9BHwB
108:   FUNC GLOBAL DEFAULT UND _ZN7android8hardware9BHwB
109:   FUNC GLOBAL DEFAULT UND _ZN7android8hardware9BHwB
110:   FUNC GLOBAL DEFAULT UND _ZN7android8hardware9BHwB
111:   FUNC GLOBAL DEFAULT UND _ZN7android8hardware9BHwB
112:   FUNC GLOBAL DEFAULT UND _ZNK7android7RefBase10cre
113:   FUNC GLOBAL DEFAULT UND _ZNK7android7RefBase11get
114:   FUNC GLOBAL DEFAULT UND _ZNK7android7RefBase9decS
115:   FUNC GLOBAL DEFAULT UND _ZNK7android7RefBase9incS
116:   FUNC GLOBAL DEFAULT UND _ZNK7android8hardware11hi
117:   FUNC GLOBAL DEFAULT UND _ZNK7android8hardware6Par
118:   FUNC GLOBAL DEFAULT UND _ZNK7android8hardware6Par
119:   FUNC GLOBAL DEFAULT UND _ZNK7android8hardware6Par
120:   FUNC GLOBAL DEFAULT UND _ZNK7android8hardware6Par
121:   FUNC GLOBAL DEFAULT UND _ZNK7android8hardware6Par
122:   FUNC GLOBAL DEFAULT UND _ZNK7android8hardware6Par
123:   FUNC GLOBAL DEFAULT UND _ZNK7android8hardware7IBi
124:   FUNC GLOBAL DEFAULT UND _ZNK7android8hardware7det
125:   FUNC GLOBAL DEFAULT UND _ZNK7android8hardware9BHw
126:   FUNC GLOBAL DEFAULT UND _ZNKSt3__120__vector_base
127:   FUNC GLOBAL DEFAULT UND _ZNKSt3__121__basic_strin
128:   FUNC GLOBAL DEFAULT UND _ZNSt3__112basic_stringIc
129:   FUNC GLOBAL DEFAULT UND _ZNSt3__112basic_stringIc
130:   FUNC GLOBAL DEFAULT UND _ZNSt3__15mutex4lockEv
131:   FUNC GLOBAL DEFAULT UND _ZNSt3__15mutex6unlockEv
132:   FUNC GLOBAL DEFAULT UND _ZNSt3__15mutexD1Ev
133:   FUNC GLOBAL DEFAULT UND _ZTv0_n24_N7android4hidl4
134:   FUNC GLOBAL DEFAULT UND _ZTv0_n24_N7android4hidl4
135:   FUNC GLOBAL DEFAULT UND _ZTv0_n24_N7android8hardw
136:   FUNC GLOBAL DEFAULT UND _ZTv0_n24_N7android8hardw
137:   FUNC GLOBAL DEFAULT UND _ZTv0_n24_N7android8hardw
138:   FUNC GLOBAL DEFAULT UND _ZTv0_n24_N7android8hardw
139:   FUNC GLOBAL DEFAULT UND _ZTv0_n24_N7android8hardw
140:   FUNC GLOBAL DEFAULT UND _ZTv0_n24_N7android8hardw
141:   FUNC GLOBAL DEFAULT UND _ZTv0_n24_N7android8hardw
142:   FUNC GLOBAL DEFAULT UND _ZTv0_n24_N7android8hardw
143:   FUNC GLOBAL DEFAULT UND _ZTv0_n32_N7android8hardw
144:   FUNC GLOBAL DEFAULT UND _ZTv0_n40_N7android8hardw
145:   FUNC GLOBAL DEFAULT UND _ZTv0_n48_N7android8hardw
146:   FUNC GLOBAL DEFAULT UND _ZdaPv
147:   FUNC GLOBAL DEFAULT UND _ZdlPv
148:   FUNC GLOBAL DEFAULT UND _Znam
149:   FUNC GLOBAL DEFAULT UND _Znwm
150:   FUNC GLOBAL DEFAULT UND __android_log_assert@LIBLOG (3)
151:   FUNC GLOBAL DEFAULT UND __cxa_pure_virtual
152:   FUNC GLOBAL DEFAULT UND __stack_chk_fail@LIBC (2)
153:   FUNC GLOBAL DEFAULT UND abort@LIBC (2)
154:   FUNC GLOBAL DEFAULT UND atrace_begin_body
155:   OBJECT GLOBAL DEFAULT UND atrace_enabled_tags
156:   FUNC GLOBAL DEFAULT UND atrace_end_body
157:   OBJECT GLOBAL DEFAULT UND atrace_is_ready
158:   FUNC GLOBAL DEFAULT UND atrace_setup
159:   FUNC GLOBAL DEFAULT UND memcmp@LIBC (2)
160:   FUNC GLOBAL DEFAULT UND memcpy@LIBC (2)
161:   FUNC GLOBAL DEFAULT UND memset@LIBC (2)
162:   FUNC GLOBAL DEFAULT UND strlen@LIBC (2)
163:   FUNC GLOBAL DEFAULT UND _ZN7android8hardware6Parc
164:   FUNC GLOBAL DEFAULT UND _ZNK7android8hardware6Par
165:   FUNC GLOBAL DEFAULT UND _ZN7android8hardware21wri
166:   FUNC GLOBAL DEFAULT UND _ZN7android8hardware22rea
167:   FUNC GLOBAL DEFAULT 14 _ZN7android8hardware6came
168:   OBJECT GLOBAL DEFAULT 18 _ZTCN7android8hardware6ca
169:   FUNC GLOBAL DEFAULT 14 _ZN7android8hardware6came
170:   FUNC GLOBAL DEFAULT 14 _ZN7android8hardware6came
171:   FUNC GLOBAL DEFAULT 14 _ZN7android8hardware6came
172:   FUNC WEAK DEFAULT 14 _ZNSt3__16vectorIN7androi
173:   FUNC GLOBAL DEFAULT 14 _ZN7android8hardware6came
174:   OBJECT WEAK DEFAULT 18 _ZTVN7android8hardware6ca
175:   FUNC GLOBAL DEFAULT 14 _ZN7android8hardware6came
176:   FUNC GLOBAL DEFAULT 14 _ZN7android8hardware6came
177:   FUNC WEAK DEFAULT 14 _ZN7android8hardware7deta
178:   FUNC GLOBAL DEFAULT 14 _ZN7android8hardware6came
179:   FUNC GLOBAL DEFAULT 14 _ZN7android8hardware6came
180:   FUNC GLOBAL DEFAULT 14 _ZN7android8hardware6came
181:   OBJECT GLOBAL DEFAULT 18 _ZTCN7android8hardware6ca
182:   FUNC GLOBAL DEFAULT 14 _ZN7android8hardware6came
183:   FUNC GLOBAL DEFAULT 14 _ZN7android8hardware6came
184:   FUNC GLOBAL DEFAULT 14 _ZN7android8hardware6came
185:   FUNC GLOBAL DEFAULT 14 _ZN7android8hardware6came
186:   OBJECT GLOBAL DEFAULT 18 _ZTCN7android8hardware6ca
187:   FUNC GLOBAL DEFAULT 14 _ZN7android8hardware6came
188:   FUNC WEAK DEFAULT 14 _ZN7android8hardware7deta
189:   OBJECT GLOBAL DEFAULT 18 _ZTTN7android8hardware6ca
190:   FUNC GLOBAL DEFAULT 14 _ZN7android8hardware6came
191:   FUNC GLOBAL DEFAULT 14 _ZTv0_n24_N7android8hardw
192:   FUNC GLOBAL DEFAULT 14 _ZN7android8hardware6came
193:   OBJECT GLOBAL DEFAULT 18 _ZTTN7android8hardware6ca
194:   OBJECT GLOBAL DEFAULT 18 _ZTVN7android8hardware6ca
195:   FUNC GLOBAL DEFAULT 14 _ZN7android8hardware6came
196:   OBJECT GLOBAL DEFAULT 18 _ZTCN7android8hardware6ca
197:   OBJECT GLOBAL DEFAULT 16 _ZN7android8hardware6came
198:   FUNC WEAK DEFAULT 14 _ZN7android8hardware7deta
199:   FUNC GLOBAL DEFAULT 14 _ZTv0_n24_N7android8hardw
200:   FUNC GLOBAL DEFAULT 14 _ZN7android8hardware6came
201:   FUNC GLOBAL DEFAULT 14 _ZN7android8hardware6came
202:   FUNC GLOBAL DEFAULT 14 _ZN7android8hardware6came
203:   FUNC GLOBAL DEFAULT 14 _ZN7android8hardware6came
204:   OBJECT GLOBAL DEFAULT 18 _ZTVN7android8hardware6ca
205:   FUNC GLOBAL DEFAULT 14 _ZN7android8hardware6came
206:   OBJECT GLOBAL DEFAULT 16 _ZN7android8hardware6came
207:   FUNC WEAK DEFAULT 14 _ZN7android8hardware7deta
208:   FUNC GLOBAL DEFAULT 14 _ZN7android8hardware6came
209:   OBJECT WEAK DEFAULT 18 _ZTVN7android8hardware6ca
210:   FUNC GLOBAL DEFAULT 14 _ZN7android8hardware6came
211:   FUNC GLOBAL DEFAULT 14 _ZN7android8hardware6came
212:   FUNC GLOBAL DEFAULT 14 _ZN7android8hardware6came
213:   FUNC GLOBAL DEFAULT 14 _ZThn32_N7android8hardwar
214:   OBJECT GLOBAL DEFAULT 18 _ZTCN7android8hardware6ca
215:   FUNC GLOBAL DEFAULT 14 _ZN7android8hardware6came
216:   FUNC GLOBAL DEFAULT 14 _ZN7android8hardware6came
217:   FUNC GLOBAL DEFAULT 14 _ZN7android8hardware6came
218:   FUNC GLOBAL DEFAULT 14 _ZThn32_N7android8hardwar
219:   FUNC WEAK DEFAULT 14 _ZN7android8hardware7deta
220:   FUNC GLOBAL DEFAULT 14 _ZN7android8hardware6came
221:   FUNC GLOBAL DEFAULT 14 _ZN7android8hardware6came
222:   FUNC GLOBAL DEFAULT 14 _ZN7android8hardware6came
223:   FUNC GLOBAL DEFAULT 14 _ZN7android8hardware6came
224:   FUNC WEAK DEFAULT 14 _ZN7android8hardware7deta
225:   OBJECT GLOBAL DEFAULT 18 _ZTCN7android8hardware6ca
226:   FUNC GLOBAL DEFAULT 14 _ZN7android8hardware6came
227:   FUNC GLOBAL DEFAULT 14 _ZN7android8hardware6came
228:   OBJECT GLOBAL DEFAULT 18 _ZTCN7android8hardware6ca
229:   FUNC GLOBAL DEFAULT 14 _ZN7android8hardware6came
230:   FUNC GLOBAL DEFAULT 14 _ZN7android8hardware6came
231:   OBJECT GLOBAL DEFAULT 18 _ZTCN7android8hardware6ca
232:   FUNC GLOBAL DEFAULT 14 _ZN7android8hardware6came
233:   OBJECT GLOBAL DEFAULT 18 _ZTCN7android8hardware6ca
234:   FUNC GLOBAL DEFAULT 14 _ZN7android8hardware6came
235:   FUNC GLOBAL DEFAULT 14 _ZN7android8hardware6came
236:   FUNC GLOBAL DEFAULT 14 _ZN7android8hardware6came
237:   FUNC GLOBAL DEFAULT 14 _ZN7android8hardware6came
238:   OBJECT GLOBAL DEFAULT 18 _ZTCN7android8hardware6ca
239:   OBJECT GLOBAL DEFAULT 16 _ZN7android8hardware6came
240:   FUNC WEAK DEFAULT 14 _ZNSt3__113__tree_removeI
241:   FUNC GLOBAL DEFAULT 14 _ZN7android8hardware6came
242:   FUNC GLOBAL DEFAULT 14 _ZN7android8hardware6came
243:   FUNC GLOBAL DEFAULT 14 _ZN7android8hardware6came
244:   FUNC GLOBAL DEFAULT 14 _ZN7android8hardware6came
245:   FUNC GLOBAL DEFAULT 14 _ZN7android8hardware6came
246:   FUNC GLOBAL DEFAULT 14 _ZN7android8hardware6came
247:   FUNC GLOBAL DEFAULT 14 _ZN7android8hardware6came
248:   FUNC GLOBAL DEFAULT 14 _ZN7android8hardware6came
249:   FUNC GLOBAL DEFAULT 14 _ZThn32_N7android8hardwar
250:   FUNC WEAK DEFAULT 14 _ZN7android8hardware10fro
251:   FUNC GLOBAL DEFAULT 14 _ZN7android8hardware6came
252:   FUNC WEAK DEFAULT 14 _ZNSt3__127__tree_balance
253:   FUNC GLOBAL DEFAULT 14 _ZThn32_N7android8hardwar
254:   FUNC GLOBAL DEFAULT 14 _ZN7android8hardware6came
255:   FUNC GLOBAL DEFAULT 14 _ZN7android8hardware6came
256:   FUNC GLOBAL DEFAULT 14 _ZN7android8hardware6came
257:   FUNC GLOBAL DEFAULT 14 _ZN7android8hardware6came
258:   FUNC GLOBAL DEFAULT 14 _ZN7android8hardware6came
259:   FUNC GLOBAL DEFAULT 14 _ZN7android8hardware6came
260:   FUNC GLOBAL DEFAULT 14 _ZN7android8hardware6came
261:   FUNC WEAK DEFAULT 14 _ZNSt3__16__treeINS_12__v
262:   OBJECT GLOBAL DEFAULT 18 _ZTTN7android8hardware6ca
263:   OBJECT GLOBAL DEFAULT 18 _ZTCN7android8hardware6ca
264:   FUNC GLOBAL DEFAULT 14 _ZN7android8hardware6came
265:   FUNC GLOBAL DEFAULT 14 _ZN7android8hardware6came
266:   FUNC WEAK DEFAULT 14 _ZNSt3__16__treeINS_12__v
267:   OBJECT GLOBAL DEFAULT 18 _ZTTN7android8hardware6ca
268:   OBJECT GLOBAL DEFAULT 18 _ZTVN7android8hardware6ca
269:   FUNC GLOBAL DEFAULT 14 _ZN7android8hardware6came
270:   OBJECT GLOBAL DEFAULT 18 _ZTCN7android8hardware6ca
271:   FUNC GLOBAL DEFAULT 14 _ZN7android8hardware6came
272:   FUNC GLOBAL DEFAULT 14 _ZN7android8hardware6came
273:   FUNC GLOBAL DEFAULT 14 _ZN7android8hardware6came
274:   FUNC GLOBAL DEFAULT 14 _ZN7android8hardware6came
275:   OBJECT GLOBAL DEFAULT 18 _ZTVN7android8hardware6ca
276:   FUNC GLOBAL DEFAULT 14 _ZN7android8hardware6came
277:   OBJECT WEAK DEFAULT 18 _ZTCN7android8hardware6ca
278:   FUNC GLOBAL DEFAULT 14 _ZN7android8hardware6came
279:   FUNC GLOBAL DEFAULT 14 _ZN7android8hardware6came
280:   FUNC GLOBAL DEFAULT 14 _ZN7android8hardware6came
281:   FUNC GLOBAL DEFAULT 14 _ZN7android8hardware6came
282:   OBJECT WEAK DEFAULT 18 _ZTVN7android8hardware6ca
283:   FUNC GLOBAL DEFAULT 14 _ZN7android8hardware6came
284:   FUNC GLOBAL DEFAULT 14 _ZN7android8hardware6came
285:   FUNC GLOBAL DEFAULT 14 _ZN7android8hardware6came
286:   FUNC GLOBAL DEFAULT 14 _ZN7android8hardware6came
287:   FUNC GLOBAL DEFAULT 14 _ZN7android8hardware6came
288:   FUNC GLOBAL DEFAULT 14 _ZN7android8hardware6came
289:   FUNC GLOBAL DEFAULT 14 _ZN7android8hardware6came
290:   FUNC GLOBAL DEFAULT 14 _ZN7android8hardware6came
291:   FUNC GLOBAL DEFAULT 14 _ZN7android8hardware6came
292:   FUNC GLOBAL DEFAULT 14 _ZN7android8hardware6came
293:   FUNC GLOBAL DEFAULT 14 _ZN7android8hardware6came
294:   FUNC GLOBAL DEFAULT 14 _ZN7android8hardware6came
295:   FUNC GLOBAL DEFAULT 14 _ZN7android8hardware6came
296:   FUNC GLOBAL DEFAULT 14 _ZN7android8hardware6came
297:   FUNC GLOBAL DEFAULT 14 _ZN7android8hardware6came
298:   OBJECT GLOBAL DEFAULT 18 _ZTCN7android8hardware6ca
299:   FUNC GLOBAL DEFAULT 14 _ZN7android8hardware6came
300:   FUNC GLOBAL DEFAULT 14 _ZN7android8hardware6came
301:   FUNC WEAK DEFAULT 14 _ZNSt3__16__treeINS_12__v
302:   FUNC GLOBAL DEFAULT 14 _ZN7android8hardware6came
303:   FUNC GLOBAL DEFAULT 14 _ZN7android8hardware6came
304:   FUNC GLOBAL DEFAULT 14 _ZN7android8hardware6came
305:   FUNC WEAK DEFAULT 14 _ZNSt3__16__treeINS_12__v
306:   OBJECT GLOBAL DEFAULT 18 _ZTCN7android8hardware6ca
307:   OBJECT GLOBAL DEFAULT 18 _ZTCN7android8hardware6ca
308:   FUNC GLOBAL DEFAULT 14 _ZN7android8hardware6came
309:   FUNC GLOBAL DEFAULT 14 _ZN7android8hardware6came
310:   FUNC GLOBAL DEFAULT 14 _ZN7android8hardware6came
311:   FUNC GLOBAL DEFAULT 14 _ZN7android8hardware6came
312:   FUNC GLOBAL DEFAULT 14 _ZN7android8hardware6came
313:   FUNC GLOBAL DEFAULT 14 _ZN7android8hardware6came
314:   FUNC GLOBAL DEFAULT 14 _ZN7android8hardware6came
315:   FUNC GLOBAL DEFAULT 14 _ZN7android8hardware6came
316:   FUNC GLOBAL DEFAULT 14 _ZN7android8hardware6came
317:   FUNC GLOBAL DEFAULT 14 _ZN7android8hardware6came
318:   FUNC GLOBAL DEFAULT 14 _ZN7android8hardware6came
319:   FUNC GLOBAL DEFAULT 14 _ZThn32_N7android8hardwar
320:   FUNC GLOBAL DEFAULT 14 _ZN7android8hardware6came
321:   FUNC GLOBAL DEFAULT 14 _ZN7android8hardware6came
322:   FUNC GLOBAL DEFAULT 14 _ZN7android8hardware6came
323:   FUNC GLOBAL DEFAULT 14 _ZN7android8hardware6came
324:   FUNC GLOBAL DEFAULT 14 _ZTv0_n24_N7android8hardw
325:   FUNC GLOBAL DEFAULT 14 _ZN7android8hardware6came
326:   FUNC GLOBAL DEFAULT 14 _ZThn32_N7android8hardwar
327:   FUNC GLOBAL DEFAULT 14 _ZN7android8hardware6came
328:   FUNC GLOBAL DEFAULT 14 _ZTv0_n24_N7android8hardw
329:   FUNC GLOBAL DEFAULT 14 _ZN7android8hardware6came
330:   FUNC GLOBAL DEFAULT 14 _ZN7android8hardware6came
331:   FUNC GLOBAL DEFAULT 14 _ZN7android8hardware6came
332:   FUNC GLOBAL DEFAULT 14 _ZN7android8hardware6came
333:   FUNC GLOBAL DEFAULT 14 _ZN7android8hardware6came
334:   OBJECT GLOBAL DEFAULT 18 _ZTCN7android8hardware6ca
335:   FUNC GLOBAL DEFAULT 14 _ZN7android8hardware6came
336:   FUNC GLOBAL DEFAULT 14 _ZN7android8hardware6came
337:   FUNC GLOBAL DEFAULT 14 _ZN7android8hardware6came
338:   FUNC GLOBAL DEFAULT 14 _ZN7android8hardware6came
339:   FUNC GLOBAL DEFAULT 14 _ZN7android8hardware6came
340:   FUNC GLOBAL DEFAULT 14 _ZN7android8hardware6came
341:   FUNC GLOBAL DEFAULT 14 _ZN7android8hardware6came
342:   FUNC GLOBAL DEFAULT 14 _ZN7android8hardware6came
343:   FUNC GLOBAL DEFAULT 14 _ZN7android8hardware6came
344:   FUNC GLOBAL DEFAULT 14 _ZN7android8hardware6came
345:   FUNC GLOBAL DEFAULT 14 _ZN7android8hardware6came
346:   FUNC GLOBAL DEFAULT 14 _ZN7android8hardware6came
347:   FUNC GLOBAL DEFAULT 14 _ZN7android8hardware6came
348:   FUNC GLOBAL DEFAULT 14 _ZN7android8hardware6came
349:   OBJECT GLOBAL DEFAULT 18 _ZTCN7android8hardware6ca
350:   FUNC GLOBAL DEFAULT 14 _ZN7android8hardware6came
351:   FUNC WEAK DEFAULT 14 _ZNSt3__16__treeINS_12__v
352:   FUNC WEAK DEFAULT 14 _ZNSt3__16vectorINS_8func
353:   OBJECT GLOBAL DEFAULT 18 _ZTTN7android8hardware6ca
354:   FUNC GLOBAL DEFAULT 14 _ZN7android8hardware6came
355:   FUNC GLOBAL DEFAULT 14 _ZN7android8hardware6came
356:   FUNC WEAK DEFAULT 14 _ZNSt3__16vectorIPvNS_9al
357:   FUNC GLOBAL DEFAULT 14 _ZN7android8hardware6came
358:   OBJECT WEAK DEFAULT 18 _ZTCN7android8hardware6ca
359:   OBJECT GLOBAL DEFAULT 18 _ZTCN7android8hardware6ca
360:   FUNC WEAK DEFAULT 14 _ZN7android8hardware7deta
361:   FUNC GLOBAL DEFAULT 14 _ZN7android8hardware6came
362:   OBJECT GLOBAL DEFAULT 18 _ZTVN7android8hardware6ca
363:   FUNC GLOBAL DEFAULT 14 _ZN7android8hardware6came
364:   FUNC GLOBAL DEFAULT 14 _ZN7android8hardware6came
365:   OBJECT GLOBAL DEFAULT 18 _ZTTN7android8hardware6ca
366:   FUNC GLOBAL DEFAULT 14 _ZN7android8hardware6came
367:   FUNC GLOBAL DEFAULT 14 _ZN7android8hardware6came
368:   FUNC GLOBAL DEFAULT 14 _ZTv0_n24_N7android8hardw
369:   FUNC GLOBAL DEFAULT 14 _ZN7android8hardware6came
370:   FUNC GLOBAL DEFAULT 14 _ZN7android8hardware6came
371:   FUNC GLOBAL DEFAULT 14 _ZTv0_n24_N7android8hardw
372:   FUNC GLOBAL DEFAULT 14 _ZN7android8hardware6came
373:   FUNC GLOBAL DEFAULT 14 _ZN7android8hardware6came
374:   OBJECT GLOBAL DEFAULT 18 _ZTVN7android8hardware6ca
375:   FUNC GLOBAL DEFAULT 14 _ZN7android8hardware6came
376:   FUNC GLOBAL DEFAULT 14 _ZN7android8hardware6came
377:   FUNC GLOBAL DEFAULT 14 _ZN7android8hardware6came
378:   FUNC GLOBAL DEFAULT 14 _ZN7android8hardware6came
379:   FUNC GLOBAL DEFAULT 14 _ZN7android8hardware6came
380:   FUNC GLOBAL DEFAULT 14 _ZN7android8hardware6came
381:   FUNC GLOBAL DEFAULT 14 _ZN7android8hardware6came
382:   FUNC GLOBAL DEFAULT 14 _ZN7android8hardware6came
383:   FUNC GLOBAL DEFAULT 14 _ZN7android8hardware6came
384:   OBJECT GLOBAL DEFAULT 18 _ZTCN7android8hardware6ca
385:   OBJECT GLOBAL DEFAULT 18 _ZTCN7android8hardware6ca
386:   FUNC WEAK DEFAULT 14 _ZN7android8hardware10fro
387:   FUNC GLOBAL DEFAULT 14 _ZN7android8hardware6came
388:   FUNC GLOBAL DEFAULT 14 _ZN7android8hardware6came
389:   FUNC GLOBAL DEFAULT 14 _ZN7android8hardware6came
390:   OBJECT GLOBAL DEFAULT 18 _ZTCN7android8hardware6ca
391:   FUNC GLOBAL DEFAULT 14 _ZN7android8hardware6came
392:   FUNC GLOBAL DEFAULT 14 _ZN7android8hardware6came
393:   OBJECT WEAK DEFAULT 18 _ZTCN7android8hardware6ca
394:   FUNC GLOBAL DEFAULT 14 _ZN7android8hardware6came
395:   OBJECT GLOBAL DEFAULT 18 _ZTCN7android8hardware6ca
396:   FUNC GLOBAL DEFAULT 14 _ZN7android8hardware6came
397:   FUNC GLOBAL DEFAULT 14 _ZN7android8hardware6came
398:   FUNC GLOBAL DEFAULT 14 _ZN7android8hardware6came
399:   FUNC GLOBAL DEFAULT 14 _ZN7android8hardware6came
400:   OBJECT GLOBAL DEFAULT 18 _ZTTN7android8hardware6ca
401:   FUNC GLOBAL DEFAULT 14 _ZN7android8hardware6came
402:   FUNC WEAK DEFAULT 14 _ZNSt3__16__treeINS_12__v
403:   OBJECT GLOBAL DEFAULT 18 _ZTCN7android8hardware6ca
404:   OBJECT GLOBAL DEFAULT 18 _ZTTN7android8hardware6ca
405:   OBJECT GLOBAL DEFAULT 18 _ZTCN7android8hardware6ca
406:   OBJECT GLOBAL DEFAULT 18 _ZTCN7android8hardware6ca
407:   FUNC GLOBAL DEFAULT 14 _ZN7android8hardware6came
408:   OBJECT GLOBAL DEFAULT 18 _ZTCN7android8hardware6ca
409:   FUNC GLOBAL DEFAULT 14 _ZN7android8hardware6came
410:   FUNC GLOBAL DEFAULT 14 _ZN7android8hardware6came
411:   OBJECT GLOBAL DEFAULT 18 _ZTTN7android8hardware6ca
412:   OBJECT GLOBAL DEFAULT 18 _ZTVN7android8hardware6ca
413:   FUNC GLOBAL DEFAULT 14 _ZN7android8hardware6came
414:   FUNC WEAK DEFAULT 14 _ZN7android8hardware7deta
415:   FUNC GLOBAL DEFAULT 14 _ZN7android8hardware6came
416:   OBJECT GLOBAL DEFAULT 18 _ZTVN7android8hardware6ca
417:   FUNC GLOBAL DEFAULT 14 _ZN7android8hardware6came
418:   OBJECT GLOBAL DEFAULT 18 _ZTCN7android8hardware6ca
419:   FUNC GLOBAL DEFAULT 14 _ZN7android8hardware6came
420:   FUNC GLOBAL DEFAULT 14 _ZN7android8hardware6came
421:   FUNC GLOBAL DEFAULT 14 _ZN7android8hardware6came
422:   OBJECT GLOBAL DEFAULT 18 _ZTVN7android8hardware6ca
