 0x0000000e (SONAME)                     Library soname: [android.hardware.tv.input@1.0.so]
  
Symbol   contains 323 entries:
Num:   Type Bind Vis Ndx Name
0:   NOTYPE LOCAL DEFAULT UND
1:   FUNC GLOBAL DEFAULT UND __cxa_finalize@LIBC (2)
2:   FUNC GLOBAL DEFAULT UND _ZN7android14sp_report_ra
3:   FUNC GLOBAL DEFAULT UND _ZN7android21report_syspr
4:   OBJECT GLOBAL DEFAULT UND _ZN7android4hidl4base4V1_
5:   FUNC GLOBAL DEFAULT UND _ZN7android4hidl4base4V1_
6:   FUNC GLOBAL DEFAULT UND _ZN7android4hidl4base4V1_
7:   FUNC GLOBAL DEFAULT UND _ZN7android4hidl4base4V1_
8:   FUNC GLOBAL DEFAULT UND _ZN7android4hidl4base4V1_
9:   FUNC GLOBAL DEFAULT UND _ZN7android4hidl4base4V1_
10:   FUNC GLOBAL DEFAULT UND _ZN7android4hidl4base4V1_
11:   FUNC GLOBAL DEFAULT UND _ZN7android4hidl4base4V1_
12:   FUNC GLOBAL DEFAULT UND _ZN7android4hidl4base4V1_
13:   FUNC GLOBAL DEFAULT UND _ZN7android4hidl4base4V1_
14:   FUNC GLOBAL DEFAULT UND _ZN7android4hidl4base4V1_
15:   FUNC GLOBAL DEFAULT UND _ZN7android4hidl4base4V1_
16:   FUNC GLOBAL DEFAULT UND _ZN7android4hidl4base4V1_
17:   FUNC GLOBAL DEFAULT UND _ZN7android4hidl4base4V1_
18:   FUNC GLOBAL DEFAULT UND _ZN7android4hidl4base4V1_
19:   FUNC GLOBAL DEFAULT UND _ZN7android4hidl4base4V1_
20:   FUNC GLOBAL DEFAULT UND _ZN7android4hidl4base4V1_
21:   FUNC GLOBAL DEFAULT UND _ZN7android4hidl4base4V1_
22:   FUNC GLOBAL DEFAULT UND _ZN7android4hidl4base4V1_
23:   FUNC GLOBAL DEFAULT UND _ZN7android4hidl4base4V1_
24:   FUNC GLOBAL DEFAULT UND _ZN7android4hidl4base4V1_
25:   FUNC GLOBAL DEFAULT UND _ZN7android4hidl4base4V1_
26:   FUNC GLOBAL DEFAULT UND _ZN7android4hidl4base4V1_
27:   FUNC GLOBAL DEFAULT UND _ZN7android4hidl4base4V1_
28:   FUNC GLOBAL DEFAULT UND _ZN7android7RefBase10onFi
29:   FUNC GLOBAL DEFAULT UND _ZN7android7RefBase12weak
30:   FUNC GLOBAL DEFAULT UND _ZN7android7RefBase13onLa
31:   FUNC GLOBAL DEFAULT UND _ZN7android7RefBase15onLa
32:   FUNC GLOBAL DEFAULT UND _ZN7android7RefBase20onIn
33:   FUNC GLOBAL DEFAULT UND _ZN7android7RefBaseC2Ev
34:   FUNC GLOBAL DEFAULT UND _ZN7android7RefBaseD2Ev
35:   FUNC GLOBAL DEFAULT UND _ZN7android8hardware10IIn
36:   FUNC GLOBAL DEFAULT UND _ZN7android8hardware10IIn
37:   FUNC GLOBAL DEFAULT UND _ZN7android8hardware10IIn
38:   FUNC GLOBAL DEFAULT UND _ZN7android8hardware10IIn
39:   FUNC GLOBAL DEFAULT UND _ZN7android8hardware10IIn
40:   FUNC GLOBAL DEFAULT UND _ZN7android8hardware11BpH
41:   FUNC GLOBAL DEFAULT UND _ZN7android8hardware11BpH
42:   FUNC GLOBAL DEFAULT UND _ZN7android8hardware11BpH
43:   FUNC GLOBAL DEFAULT UND _ZN7android8hardware11BpH
44:   FUNC GLOBAL DEFAULT UND _ZN7android8hardware11BpH
45:   FUNC GLOBAL DEFAULT UND _ZN7android8hardware11BpH
46:   FUNC GLOBAL DEFAULT UND _ZN7android8hardware11BpH
47:   FUNC GLOBAL DEFAULT UND _ZN7android8hardware11hid
48:   FUNC GLOBAL DEFAULT UND _ZN7android8hardware11hid
49:   FUNC GLOBAL DEFAULT UND _ZN7android8hardware11hid
50:   FUNC GLOBAL DEFAULT UND _ZN7android8hardware11hid
51:   FUNC GLOBAL DEFAULT UND _ZN7android8hardware11hid
52:   FUNC GLOBAL DEFAULT UND _ZN7android8hardware11hid
53:   FUNC GLOBAL DEFAULT UND _ZN7android8hardware11hid
54:   FUNC GLOBAL DEFAULT UND _ZN7android8hardware11hid
55:   FUNC GLOBAL DEFAULT UND _ZN7android8hardware12Pro
56:   FUNC GLOBAL DEFAULT UND _ZN7android8hardware12Pro
57:   FUNC GLOBAL DEFAULT UND _ZN7android8hardware13wri
58:   FUNC GLOBAL DEFAULT UND _ZN7android8hardware14rea
59:   FUNC GLOBAL DEFAULT UND _ZN7android8hardware21def
60:   FUNC GLOBAL DEFAULT UND _ZN7android8hardware23get
61:   FUNC GLOBAL DEFAULT UND _ZN7android8hardware27hid
62:   FUNC GLOBAL DEFAULT UND _ZN7android8hardware27hid
63:   FUNC GLOBAL DEFAULT UND _ZN7android8hardware6Parc
64:   FUNC GLOBAL DEFAULT UND _ZN7android8hardware6Parc
65:   FUNC GLOBAL DEFAULT UND _ZN7android8hardware6Parc
66:   FUNC GLOBAL DEFAULT UND _ZN7android8hardware6Parc
67:   FUNC GLOBAL DEFAULT UND _ZN7android8hardware6Parc
68:   FUNC GLOBAL DEFAULT UND _ZN7android8hardware6Parc
69:   FUNC GLOBAL DEFAULT UND _ZN7android8hardware6Parc
70:   FUNC GLOBAL DEFAULT UND _ZN7android8hardware6Parc
71:   FUNC GLOBAL DEFAULT UND _ZN7android8hardware6Stat
72:   FUNC GLOBAL DEFAULT UND _ZN7android8hardware6Stat
73:   FUNC GLOBAL DEFAULT UND _ZN7android8hardware6Stat
74:   FUNC GLOBAL DEFAULT UND _ZN7android8hardware6Stat
75:   FUNC GLOBAL DEFAULT UND _ZN7android8hardware7IBin
76:   FUNC GLOBAL DEFAULT UND _ZN7android8hardware7IBin
77:   FUNC GLOBAL DEFAULT UND _ZN7android8hardware7IBin
78:   FUNC GLOBAL DEFAULT UND _ZN7android8hardware7IBin
79:   FUNC GLOBAL DEFAULT UND _ZN7android8hardware7deta
80:   FUNC GLOBAL DEFAULT UND _ZN7android8hardware7deta
81:   FUNC GLOBAL DEFAULT UND _ZN7android8hardware7deta
82:   FUNC GLOBAL DEFAULT UND _ZN7android8hardware7deta
83:   FUNC GLOBAL DEFAULT UND _ZN7android8hardware7deta
84:   FUNC GLOBAL DEFAULT UND _ZN7android8hardware7deta
85:   FUNC GLOBAL DEFAULT UND _ZN7android8hardware7deta
86:   OBJECT GLOBAL DEFAULT UND _ZN7android8hardware7deta
87:   OBJECT GLOBAL DEFAULT UND _ZN7android8hardware7deta
88:   FUNC GLOBAL DEFAULT UND _ZN7android8hardware7deta
89:   FUNC GLOBAL DEFAULT UND _ZN7android8hardware7deta
90:   FUNC GLOBAL DEFAULT UND _ZN7android8hardware7deta
91:   FUNC GLOBAL DEFAULT UND _ZN7android8hardware7deta
92:   FUNC GLOBAL DEFAULT UND _ZN7android8hardware7deta
93:   FUNC GLOBAL DEFAULT UND _ZN7android8hardware7deta
94:   FUNC GLOBAL DEFAULT UND _ZN7android8hardware7deta
95:   FUNC GLOBAL DEFAULT UND _ZN7android8hardware7deta
96:   FUNC GLOBAL DEFAULT UND _ZN7android8hardware7deta
97:   FUNC GLOBAL DEFAULT UND _ZN7android8hardware7deta
98:   OBJECT GLOBAL DEFAULT UND _ZN7android8hardware7deta
99:   FUNC GLOBAL DEFAULT UND _ZN7android8hardware9BHwB
100:   FUNC GLOBAL DEFAULT UND _ZN7android8hardware9BHwB
101:   FUNC GLOBAL DEFAULT UND _ZN7android8hardware9BHwB
102:   FUNC GLOBAL DEFAULT UND _ZN7android8hardware9BHwB
103:   FUNC GLOBAL DEFAULT UND _ZN7android8hardware9BHwB
104:   FUNC GLOBAL DEFAULT UND _ZN7android8hardware9BHwB
105:   FUNC GLOBAL DEFAULT UND _ZN7android8hardware9BHwB
106:   FUNC GLOBAL DEFAULT UND _ZN7android8hardware9BHwB
107:   FUNC GLOBAL DEFAULT UND _ZN7android8hardware9BHwB
108:   FUNC GLOBAL DEFAULT UND _ZN7android8hardware9BHwB
109:   FUNC GLOBAL DEFAULT UND _ZNK7android7RefBase10cre
110:   FUNC GLOBAL DEFAULT UND _ZNK7android7RefBase11get
111:   FUNC GLOBAL DEFAULT UND _ZNK7android7RefBase9decS
112:   FUNC GLOBAL DEFAULT UND _ZNK7android7RefBase9incS
113:   FUNC GLOBAL DEFAULT UND _ZNK7android8hardware11hi
114:   FUNC GLOBAL DEFAULT UND _ZNK7android8hardware6Par
115:   FUNC GLOBAL DEFAULT UND _ZNK7android8hardware6Par
116:   FUNC GLOBAL DEFAULT UND _ZNK7android8hardware6Par
117:   FUNC GLOBAL DEFAULT UND _ZNK7android8hardware6Par
118:   FUNC GLOBAL DEFAULT UND _ZNK7android8hardware6Par
119:   FUNC GLOBAL DEFAULT UND _ZNK7android8hardware6Par
120:   FUNC GLOBAL DEFAULT UND _ZNK7android8hardware7IBi
121:   FUNC GLOBAL DEFAULT UND _ZNK7android8hardware7det
122:   FUNC GLOBAL DEFAULT UND _ZNK7android8hardware9BHw
123:   FUNC GLOBAL DEFAULT UND _ZNKSt3__120__vector_base
124:   FUNC GLOBAL DEFAULT UND _ZNKSt3__121__basic_strin
125:   FUNC GLOBAL DEFAULT UND _ZNSt3__112basic_stringIc
126:   FUNC GLOBAL DEFAULT UND _ZNSt3__15mutex4lockEv
127:   FUNC GLOBAL DEFAULT UND _ZNSt3__15mutex6unlockEv
128:   FUNC GLOBAL DEFAULT UND _ZNSt3__15mutexD1Ev
129:   FUNC GLOBAL DEFAULT UND _ZTv0_n12_N7android4hidl4
130:   FUNC GLOBAL DEFAULT UND _ZTv0_n12_N7android4hidl4
131:   FUNC GLOBAL DEFAULT UND _ZTv0_n12_N7android8hardw
132:   FUNC GLOBAL DEFAULT UND _ZTv0_n12_N7android8hardw
133:   FUNC GLOBAL DEFAULT UND _ZTv0_n12_N7android8hardw
134:   FUNC GLOBAL DEFAULT UND _ZTv0_n12_N7android8hardw
135:   FUNC GLOBAL DEFAULT UND _ZTv0_n12_N7android8hardw
136:   FUNC GLOBAL DEFAULT UND _ZTv0_n12_N7android8hardw
137:   FUNC GLOBAL DEFAULT UND _ZTv0_n12_N7android8hardw
138:   FUNC GLOBAL DEFAULT UND _ZTv0_n12_N7android8hardw
139:   FUNC GLOBAL DEFAULT UND _ZTv0_n16_N7android8hardw
140:   FUNC GLOBAL DEFAULT UND _ZTv0_n20_N7android8hardw
141:   FUNC GLOBAL DEFAULT UND _ZTv0_n24_N7android8hardw
142:   FUNC GLOBAL DEFAULT UND _ZdaPv
143:   FUNC GLOBAL DEFAULT UND _ZdlPv
144:   FUNC GLOBAL DEFAULT UND _Znaj
145:   FUNC GLOBAL DEFAULT UND _Znwj
146:   FUNC GLOBAL DEFAULT UND __android_log_assert@LIBLOG (3)
147:   FUNC GLOBAL DEFAULT UND __cxa_pure_virtual
148:   FUNC GLOBAL DEFAULT UND __stack_chk_fail@LIBC (2)
149:   OBJECT GLOBAL DEFAULT UND __stack_chk_guard@LIBC (2)
150:   FUNC GLOBAL DEFAULT UND abort@LIBC (2)
151:   FUNC GLOBAL DEFAULT UND atrace_begin_body
152:   OBJECT GLOBAL DEFAULT UND atrace_enabled_tags
153:   FUNC GLOBAL DEFAULT UND atrace_end_body
154:   OBJECT GLOBAL DEFAULT UND atrace_is_ready
155:   FUNC GLOBAL DEFAULT UND atrace_setup
156:   FUNC GLOBAL DEFAULT UND memcmp@LIBC (2)
157:   FUNC GLOBAL DEFAULT UND strlen@LIBC (2)
158:   FUNC GLOBAL DEFAULT UND memcpy@LIBC (2)
159:   FUNC GLOBAL DEFAULT UND memset@LIBC (2)
160:   FUNC GLOBAL DEFAULT 14 _ZN7android8hardware2tv5i
161:   OBJECT GLOBAL DEFAULT 18 _ZTCN7android8hardware2tv
162:   FUNC GLOBAL DEFAULT 14 _ZN7android8hardware2tv5i
163:   FUNC GLOBAL DEFAULT 14 _ZN7android8hardware2tv5i
164:   OBJECT GLOBAL DEFAULT 16 _ZN7android8hardware2tv5i
165:   OBJECT GLOBAL DEFAULT 18 _ZTCN7android8hardware2tv
166:   FUNC GLOBAL DEFAULT 14 _ZN7android8hardware2tv5i
167:   FUNC GLOBAL DEFAULT 14 _ZN7android8hardware2tv5i
168:   FUNC GLOBAL DEFAULT 14 _ZThn20_N7android8hardwar
169:   OBJECT GLOBAL DEFAULT 18 _ZTCN7android8hardware2tv
170:   FUNC GLOBAL DEFAULT 14 _ZN7android8hardware2tv5i
171:   FUNC GLOBAL DEFAULT 14 _ZN7android8hardware2tv5i
172:   FUNC GLOBAL DEFAULT 14 _ZN7android8hardware2tv5i
173:   OBJECT WEAK DEFAULT 18 _ZTCN7android8hardware2tv
174:   OBJECT WEAK DEFAULT 18 _ZTCN7android8hardware2tv
175:   OBJECT GLOBAL DEFAULT 18 _ZTVN7android8hardware2tv
176:   FUNC GLOBAL DEFAULT 14 __aeabi_memset4
177:   FUNC GLOBAL DEFAULT 14 _ZN7android8hardware2tv5i
178:   OBJECT GLOBAL DEFAULT 18 _ZTTN7android8hardware2tv
179:   OBJECT GLOBAL DEFAULT 18 _ZTVN7android8hardware2tv
180:   FUNC GLOBAL DEFAULT 14 _ZN7android8hardware2tv5i
181:   FUNC GLOBAL DEFAULT 14 _ZN7android8hardware2tv5i
182:   OBJECT GLOBAL DEFAULT 18 _ZTTN7android8hardware2tv
183:   FUNC GLOBAL DEFAULT 14 _ZTv0_n12_N7android8hardw
184:   FUNC GLOBAL DEFAULT 14 _ZN7android8hardware2tv5i
185:   FUNC GLOBAL DEFAULT 14 _ZN7android8hardware2tv5i
186:   OBJECT GLOBAL DEFAULT 18 _ZTCN7android8hardware2tv
187:   FUNC GLOBAL DEFAULT 14 _ZN7android8hardware2tv5i
188:   FUNC GLOBAL DEFAULT 14 _ZN7android8hardware2tv5i
189:   OBJECT GLOBAL DEFAULT 18 _ZTCN7android8hardware2tv
190:   FUNC GLOBAL DEFAULT 14 _ZN7android8hardware2tv5i
191:   OBJECT GLOBAL DEFAULT 18 _ZTVN7android8hardware2tv
192:   FUNC GLOBAL DEFAULT 14 __aeabi_memcpy
193:   FUNC GLOBAL DEFAULT 14 _ZN7android8hardware2tv5i
194:   FUNC GLOBAL DEFAULT 14 _ZN7android8hardware2tv5i
195:   FUNC GLOBAL DEFAULT 14 __aeabi_memset8
196:   FUNC GLOBAL DEFAULT 14 _ZN7android8hardware2tv5i
197:   FUNC GLOBAL DEFAULT 14 _ZN7android8hardware2tv5i
198:   FUNC WEAK DEFAULT 14 _ZNSt3__16vectorINS_8func
199:   OBJECT WEAK DEFAULT 18 _ZTVN7android8hardware2tv
200:   FUNC GLOBAL DEFAULT 14 __aeabi_memclr4
201:   FUNC GLOBAL DEFAULT 14 _ZN7android8hardware2tv5i
202:   FUNC GLOBAL DEFAULT 14 _ZN7android8hardware2tv5i
203:   FUNC GLOBAL DEFAULT 14 _ZN7android8hardware2tv5i
204:   FUNC GLOBAL DEFAULT 14 _ZN7android8hardware2tv5i
205:   FUNC GLOBAL DEFAULT 14 _ZN7android8hardware2tv5i
206:   FUNC GLOBAL DEFAULT 14 _ZN7android8hardware2tv5i
207:   FUNC WEAK DEFAULT 14 _ZNSt3__16__treeINS_12__v
208:   FUNC GLOBAL DEFAULT 14 _ZThn20_N7android8hardwar
209:   FUNC GLOBAL DEFAULT 14 _ZN7android8hardware2tv5i
210:   FUNC GLOBAL DEFAULT 14 _ZN7android8hardware2tv5i
211:   FUNC GLOBAL DEFAULT 14 _ZN7android8hardware2tv5i
212:   FUNC WEAK DEFAULT 14 _ZNSt3__113__tree_removeI
213:   FUNC GLOBAL DEFAULT 14 _ZN7android8hardware2tv5i
214:   FUNC GLOBAL DEFAULT 14 __aeabi_memclr8
215:   OBJECT GLOBAL DEFAULT 16 _ZN7android8hardware2tv5i
216:   FUNC GLOBAL DEFAULT 14 _ZN7android8hardware2tv5i
217:   FUNC GLOBAL DEFAULT 14 _ZN7android8hardware2tv5i
218:   OBJECT GLOBAL DEFAULT 18 _ZTCN7android8hardware2tv
219:   FUNC GLOBAL DEFAULT 14 _ZTv0_n12_N7android8hardw
220:   OBJECT GLOBAL DEFAULT 18 _ZTCN7android8hardware2tv
221:   FUNC GLOBAL DEFAULT 14 _ZN7android8hardware2tv5i
222:   OBJECT GLOBAL DEFAULT 18 _ZTCN7android8hardware2tv
223:   OBJECT GLOBAL DEFAULT 18 _ZTCN7android8hardware2tv
224:   FUNC GLOBAL DEFAULT 14 _ZTv0_n12_N7android8hardw
225:   FUNC GLOBAL DEFAULT 14 _ZN7android8hardware2tv5i
226:   FUNC GLOBAL DEFAULT 14 _ZN7android8hardware2tv5i
227:   FUNC GLOBAL DEFAULT 14 _ZN7android8hardware2tv5i
228:   OBJECT GLOBAL DEFAULT 18 _ZTCN7android8hardware2tv
229:   FUNC GLOBAL DEFAULT 14 _ZN7android8hardware2tv5i
230:   OBJECT GLOBAL DEFAULT 18 _ZTCN7android8hardware2tv
231:   OBJECT GLOBAL DEFAULT 18 _ZTCN7android8hardware2tv
232:   FUNC GLOBAL DEFAULT 14 _ZN7android8hardware2tv5i
233:   FUNC GLOBAL DEFAULT 14 _ZN7android8hardware2tv5i
234:   FUNC GLOBAL DEFAULT 14 _ZN7android8hardware2tv5i
235:   FUNC WEAK DEFAULT 14 _ZNSt3__16__treeINS_12__v
236:   FUNC GLOBAL DEFAULT 14 _ZN7android8hardware2tv5i
237:   FUNC WEAK DEFAULT 14 _ZN7android8hardware7deta
238:   FUNC GLOBAL DEFAULT 14 _ZN7android8hardware2tv5i
239:   OBJECT GLOBAL DEFAULT 18 _ZTCN7android8hardware2tv
240:   OBJECT GLOBAL DEFAULT 18 _ZTCN7android8hardware2tv
241:   FUNC GLOBAL DEFAULT 14 _ZN7android8hardware2tv5i
242:   FUNC GLOBAL DEFAULT 14 _ZN7android8hardware2tv5i
243:   FUNC GLOBAL DEFAULT 14 _ZN7android8hardware2tv5i
244:   FUNC GLOBAL DEFAULT 14 _ZN7android8hardware2tv5i
245:   FUNC WEAK DEFAULT 14 _ZN7android8hardware7deta
246:   OBJECT GLOBAL DEFAULT 18 _ZTTN7android8hardware2tv
247:   FUNC GLOBAL DEFAULT 14 _ZN7android8hardware2tv5i
248:   OBJECT GLOBAL DEFAULT 18 _ZTCN7android8hardware2tv
249:   FUNC WEAK DEFAULT 14 _ZNSt3__127__tree_balance
250:   FUNC WEAK DEFAULT 14 _ZNSt3__16__treeINS_12__v
251:   FUNC GLOBAL DEFAULT 14 _ZN7android8hardware2tv5i
252:   FUNC GLOBAL DEFAULT 14 _ZN7android8hardware2tv5i
253:   FUNC GLOBAL DEFAULT 14 _ZN7android8hardware2tv5i
254:   FUNC GLOBAL DEFAULT 14 _ZN7android8hardware2tv5i
255:   FUNC GLOBAL DEFAULT 14 _ZThn20_N7android8hardwar
256:   FUNC GLOBAL DEFAULT 14 __aeabi_memset
257:   FUNC GLOBAL DEFAULT 14 _ZN7android8hardware2tv5i
258:   FUNC GLOBAL DEFAULT 14 _ZN7android8hardware2tv5i
259:   FUNC WEAK DEFAULT 14 _ZNSt3__16__treeINS_12__v
260:   FUNC WEAK DEFAULT 14 _ZNSt3__16vectorIN7androi
261:   OBJECT GLOBAL DEFAULT 18 _ZTCN7android8hardware2tv
262:   FUNC GLOBAL DEFAULT 14 _ZTv0_n12_N7android8hardw
263:   FUNC GLOBAL DEFAULT 14 _ZN7android8hardware2tv5i
264:   FUNC GLOBAL DEFAULT 14 _ZN7android8hardware2tv5i
265:   FUNC GLOBAL DEFAULT 14 _ZN7android8hardware2tv5i
266:   FUNC GLOBAL DEFAULT 14 _ZN7android8hardware2tv5i
267:   FUNC GLOBAL DEFAULT 14 _ZN7android8hardware2tv5i
268:   FUNC GLOBAL DEFAULT 14 _ZN7android8hardware2tv5i
269:   FUNC GLOBAL DEFAULT 14 _ZN7android8hardware2tv5i
270:   FUNC GLOBAL DEFAULT 14 _ZN7android8hardware2tv5i
271:   FUNC GLOBAL DEFAULT 14 _ZN7android8hardware2tv5i
272:   FUNC GLOBAL DEFAULT 14 _ZN7android8hardware2tv5i
273:   OBJECT GLOBAL DEFAULT 18 _ZTCN7android8hardware2tv
274:   OBJECT WEAK DEFAULT 18 _ZTVN7android8hardware2tv
275:   FUNC GLOBAL DEFAULT 14 _ZN7android8hardware2tv5i
276:   FUNC GLOBAL DEFAULT 14 __aeabi_memclr
277:   FUNC GLOBAL DEFAULT 14 _ZN7android8hardware2tv5i
278:   FUNC WEAK DEFAULT 14 _ZNSt3__16__treeINS_12__v
279:   OBJECT GLOBAL DEFAULT 18 _ZTCN7android8hardware2tv
280:   FUNC GLOBAL DEFAULT 14 _ZN7android8hardware2tv5i
281:   FUNC GLOBAL DEFAULT 14 _ZN7android8hardware2tv5i
282:   FUNC GLOBAL DEFAULT 14 _ZN7android8hardware2tv5i
283:   FUNC WEAK DEFAULT 14 _ZN7android8hardware7deta
284:   FUNC WEAK DEFAULT 14 _ZNSt3__16__treeINS_12__v
285:   FUNC GLOBAL DEFAULT 14 _ZN7android8hardware2tv5i
286:   OBJECT GLOBAL DEFAULT 18 _ZTVN7android8hardware2tv
287:   OBJECT GLOBAL DEFAULT 18 _ZTTN7android8hardware2tv
288:   FUNC GLOBAL DEFAULT 14 _ZN7android8hardware2tv5i
289:   FUNC GLOBAL DEFAULT 14 _ZN7android8hardware2tv5i
290:   FUNC GLOBAL DEFAULT 14 _ZN7android8hardware2tv5i
291:   FUNC GLOBAL DEFAULT 14 _ZN7android8hardware2tv5i
292:   FUNC GLOBAL DEFAULT 14 _ZThn20_N7android8hardwar
293:   FUNC GLOBAL DEFAULT 14 _ZN7android8hardware2tv5i
294:   FUNC GLOBAL DEFAULT 14 _ZN7android8hardware2tv5i
295:   FUNC GLOBAL DEFAULT 14 _ZN7android8hardware2tv5i
296:   FUNC WEAK DEFAULT 14 _ZNSt3__16vectorIPvNS_9al
297:   OBJECT GLOBAL DEFAULT 18 _ZTVN7android8hardware2tv
298:   OBJECT GLOBAL DEFAULT 18 _ZTTN7android8hardware2tv
299:   FUNC GLOBAL DEFAULT 14 _ZN7android8hardware2tv5i
300:   FUNC GLOBAL DEFAULT 14 _ZN7android8hardware2tv5i
301:   FUNC GLOBAL DEFAULT 14 _ZN7android8hardware2tv5i
302:   FUNC GLOBAL DEFAULT 14 _ZN7android8hardware2tv5i
303:   OBJECT GLOBAL DEFAULT 18 _ZTTN7android8hardware2tv
304:   FUNC GLOBAL DEFAULT 14 __aeabi_memcpy4
305:   FUNC WEAK DEFAULT 14 _ZN7android8hardware7deta
306:   FUNC WEAK DEFAULT 14 _ZN7android8hardware10fro
307:   FUNC GLOBAL DEFAULT 14 _ZN7android8hardware2tv5i
308:   FUNC GLOBAL DEFAULT 14 _ZN7android8hardware2tv5i
309:   FUNC GLOBAL DEFAULT 14 _ZN7android8hardware2tv5i
310:   FUNC GLOBAL DEFAULT 14 _ZN7android8hardware2tv5i
311:   FUNC GLOBAL DEFAULT 14 _ZN7android8hardware2tv5i
312:   FUNC GLOBAL DEFAULT 14 _ZN7android8hardware2tv5i
313:   FUNC GLOBAL DEFAULT 14 _ZN7android8hardware2tv5i
314:   FUNC GLOBAL DEFAULT 14 _ZN7android8hardware2tv5i
315:   FUNC GLOBAL DEFAULT 14 _ZN7android8hardware2tv5i
316:   FUNC GLOBAL DEFAULT 14 _ZN7android8hardware2tv5i
317:   FUNC GLOBAL DEFAULT 14 _ZN7android8hardware2tv5i
318:   OBJECT GLOBAL DEFAULT 18 _ZTVN7android8hardware2tv
319:   FUNC GLOBAL DEFAULT 14 _ZN7android8hardware2tv5i
320:   FUNC GLOBAL DEFAULT 14 _ZN7android8hardware2tv5i
321:   FUNC WEAK DEFAULT 14 _ZN7android8hardware7deta
322:   FUNC GLOBAL DEFAULT 14 __aeabi_memcpy8
