 0x0000000e (SONAME)                     Library soname: [libm.so]
  
Symbol   contains 223 entries:
Num:   Type Bind Vis Ndx Name
0:   NOTYPE LOCAL DEFAULT UND
1:   FUNC GLOBAL DEFAULT 8 coshl@@LIBC
2:   FUNC GLOBAL DEFAULT 8 fabsl@@LIBC
3:   FUNC GLOBAL DEFAULT 8 fmaxl@@LIBC
4:   FUNC GLOBAL DEFAULT 8 __signbitl@@LIBC
5:   FUNC GLOBAL DEFAULT 8 cosh@@LIBC
6:   FUNC GLOBAL DEFAULT 8 fabs@@LIBC
7:   FUNC GLOBAL DEFAULT 8 ilogb@@LIBC
8:   FUNC GLOBAL DEFAULT 8 lgamma@@LIBC
9:   FUNC GLOBAL DEFAULT 8 log1pl@@LIBC
10:   FUNC GLOBAL DEFAULT 8 truncl@@LIBC
11:   FUNC GLOBAL DEFAULT 8 copysign@@LIBC
12:   FUNC GLOBAL DEFAULT 8 feenableexcept@@LIBC
13:   FUNC GLOBAL DEFAULT 8 nearbyintf@@LIBC
14:   FUNC GLOBAL DEFAULT 8 fedisableexcept@@LIBC
15:   FUNC GLOBAL DEFAULT 8 jnf@@LIBC
16:   FUNC GLOBAL DEFAULT 8 nearbyint@@LIBC
17:   FUNC GLOBAL DEFAULT 8 round@@LIBC
18:   FUNC GLOBAL DEFAULT 8 ynf@@LIBC
19:   OBJECT GLOBAL DEFAULT 10 __fe_dfl_env@@LIBC
20:   FUNC GLOBAL DEFAULT 8 feupdateenv@@LIBC
21:   FUNC GLOBAL DEFAULT 8 acosf@@LIBC
22:   FUNC GLOBAL DEFAULT 8 atan2l@@LIBC
23:   FUNC GLOBAL DEFAULT 8 cbrtf@@LIBC
24:   FUNC GLOBAL DEFAULT 8 ceil@@LIBC
25:   FUNC GLOBAL DEFAULT 8 cosl@@LIBC
26:   FUNC GLOBAL DEFAULT 8 dremf@@LIBC
27:   FUNC GLOBAL DEFAULT 8 erfcf@@LIBC
28:   FUNC GLOBAL DEFAULT 8 exp2f@@LIBC
29:   FUNC GLOBAL DEFAULT 8 fdimf@@LIBC
30:   FUNC GLOBAL DEFAULT 8 fegetenv@@LIBC
31:   FUNC GLOBAL DEFAULT 8 fmodf@@LIBC
32:   FUNC GLOBAL DEFAULT 8 lgammal@@LIBC
33:   FUNC GLOBAL DEFAULT 8 llrintl@@LIBC
34:   FUNC GLOBAL DEFAULT 8 fmax@@LIBC
35:   FUNC GLOBAL DEFAULT 8 hypotf@@LIBC
36:   FUNC GLOBAL DEFAULT 8 log10@@LIBC
37:   FUNC GLOBAL DEFAULT 8 scalbf@@LIBC
38:   FUNC GLOBAL DEFAULT 8 significandf@@LIBC
39:   FUNC GLOBAL DEFAULT 8 acosh@@LIBC
40:   FUNC GLOBAL DEFAULT 8 remainder@@LIBC
41:   FUNC GLOBAL DEFAULT 8 feraiseexcept@@LIBC
42:   FUNC GLOBAL DEFAULT 8 fmod@@LIBC
43:   FUNC GLOBAL DEFAULT 8 gamma_r@@LIBC
44:   FUNC GLOBAL DEFAULT 8 nearbyintl@@LIBC
45:   FUNC GLOBAL DEFAULT 8 fma@@LIBC
46:   FUNC GLOBAL DEFAULT 8 expf@@LIBC
47:   FUNC GLOBAL DEFAULT 8 floorf@@LIBC
48:   FUNC GLOBAL DEFAULT 8 lgamma_r@@LIBC
49:   FUNC GLOBAL DEFAULT 8 lroundf@@LIBC
50:   FUNC GLOBAL DEFAULT 8 nanf@@LIBC
51:   FUNC GLOBAL DEFAULT 8 nextafterf@@LIBC
52:   FUNC GLOBAL DEFAULT 8 remainderf@@LIBC
53:   FUNC GLOBAL DEFAULT 8 acosl@@LIBC
54:   FUNC GLOBAL DEFAULT 8 cbrtl@@LIBC
55:   FUNC GLOBAL DEFAULT 8 erfcl@@LIBC
56:   FUNC GLOBAL DEFAULT 8 exp2l@@LIBC
57:   FUNC GLOBAL DEFAULT 8 fdiml@@LIBC
58:   FUNC GLOBAL DEFAULT 8 fmodl@@LIBC
59:   FUNC GLOBAL DEFAULT 8 gamma@@LIBC
60:   FUNC GLOBAL DEFAULT 8 __signbit@@LIBC
61:   FUNC GLOBAL DEFAULT 8 hypotl@@LIBC
62:   FUNC GLOBAL DEFAULT 8 scalb@@LIBC
63:   FUNC GLOBAL DEFAULT 8 significandl@@LIBC
64:   FUNC GLOBAL DEFAULT 8 cbrt@@LIBC
65:   FUNC GLOBAL DEFAULT 8 exp@@LIBC
66:   FUNC GLOBAL DEFAULT 8 exp2@@LIBC
67:   FUNC GLOBAL DEFAULT 8 fegetexceptflag@@LIBC
68:   FUNC GLOBAL DEFAULT 8 feclearexcept@@LIBC
69:   FUNC GLOBAL DEFAULT 8 scalbn@@LIBC
70:   FUNC GLOBAL DEFAULT 8 frexp@@LIBC
71:   FUNC GLOBAL DEFAULT 8 j0@@LIBC
72:   FUNC GLOBAL DEFAULT 8 log@@LIBC
73:   FUNC GLOBAL DEFAULT 8 log1p@@LIBC
74:   FUNC GLOBAL DEFAULT 8 remquo@@LIBC
75:   FUNC GLOBAL DEFAULT 8 y0@@LIBC
76:   FUNC GLOBAL DEFAULT 8 ceilf@@LIBC
77:   FUNC GLOBAL DEFAULT 8 cos@@LIBC
78:   FUNC GLOBAL DEFAULT 8 csqrtl@@LIBC
79:   FUNC GLOBAL DEFAULT 8 expl@@LIBC
80:   FUNC GLOBAL DEFAULT 8 floorl@@LIBC
81:   FUNC GLOBAL DEFAULT 8 fminf@@LIBC
82:   FUNC GLOBAL DEFAULT 8 j1@@LIBC
83:   FUNC GLOBAL DEFAULT 8 lroundl@@LIBC
84:   FUNC GLOBAL DEFAULT 8 nanl@@LIBC
85:   FUNC GLOBAL DEFAULT 8 nextafterl@@LIBC
86:   FUNC GLOBAL DEFAULT 8 remainderl@@LIBC
87:   FUNC GLOBAL DEFAULT 8 sqrtf@@LIBC
88:   FUNC GLOBAL DEFAULT 8 y1@@LIBC
89:   FUNC GLOBAL DEFAULT 8 logb@@LIBC
90:   FUNC GLOBAL DEFAULT 8 erfc@@LIBC
91:   FUNC GLOBAL DEFAULT 8 finitef@@LIBC
92:   FUNC GLOBAL DEFAULT 8 llround@@LIBC
93:   FUNC GLOBAL DEFAULT 8 nexttoward@@LIBC
94:   FUNC GLOBAL DEFAULT 8 sincos@@LIBC
95:   FUNC GLOBAL DEFAULT 8 gammaf_r@@LIBC
96:   FUNC GLOBAL DEFAULT 8 asinhf@@LIBC
97:   FUNC GLOBAL DEFAULT 8 atanhf@@LIBC
98:   FUNC GLOBAL DEFAULT 8 erff@@LIBC
99:   FUNC GLOBAL DEFAULT 8 frexpf@@LIBC
100:   FUNC GLOBAL DEFAULT 8 logf@@LIBC
101:   FUNC GLOBAL DEFAULT 8 cabsl@@LIBC
102:   FUNC GLOBAL DEFAULT 8 ceill@@LIBC
103:   FUNC GLOBAL DEFAULT 8 fesetround@@LIBC
104:   FUNC GLOBAL DEFAULT 8 fminl@@LIBC
105:   FUNC GLOBAL DEFAULT 8 jn@@LIBC
106:   FUNC GLOBAL DEFAULT 8 sin@@LIBC
107:   FUNC GLOBAL DEFAULT 8 sqrtl@@LIBC
108:   FUNC GLOBAL DEFAULT 8 tan@@LIBC
109:   FUNC GLOBAL DEFAULT 8 yn@@LIBC
110:   FUNC GLOBAL DEFAULT 8 acos@@LIBC
111:   FUNC GLOBAL DEFAULT 8 log2@@LIBC
112:   FUNC GLOBAL DEFAULT 8 remquof@@LIBC
113:   FUNC GLOBAL DEFAULT 8 rint@@LIBC
114:   FUNC GLOBAL DEFAULT 8 significand@@LIBC
115:   FUNC GLOBAL DEFAULT 8 tgammaf@@LIBC
116:   FUNC GLOBAL DEFAULT 8 erf@@LIBC
117:   FUNC GLOBAL DEFAULT 8 j1f@@LIBC
118:   FUNC GLOBAL DEFAULT 8 y1f@@LIBC
119:   FUNC GLOBAL DEFAULT 8 asinhl@@LIBC
120:   FUNC GLOBAL DEFAULT 8 atanhl@@LIBC
121:   FUNC GLOBAL DEFAULT 8 erfl@@LIBC
122:   FUNC GLOBAL DEFAULT 8 frexpl@@LIBC
123:   FUNC GLOBAL DEFAULT 8 logbf@@LIBC
124:   FUNC GLOBAL DEFAULT 8 logl@@LIBC
125:   FUNC GLOBAL DEFAULT 8 drem@@LIBC
126:   FUNC GLOBAL DEFAULT 8 fdim@@LIBC
127:   FUNC GLOBAL DEFAULT 8 fesetexceptflag@@LIBC
128:   FUNC GLOBAL DEFAULT 8 floor@@LIBC
129:   FUNC GLOBAL DEFAULT 8 ilogbf@@LIBC
130:   FUNC GLOBAL DEFAULT 8 log10f@@LIBC
131:   FUNC GLOBAL DEFAULT 8 lrintf@@LIBC
132:   FUNC GLOBAL DEFAULT 8 asin@@LIBC
133:   FUNC GLOBAL DEFAULT 8 atan@@LIBC
134:   FUNC GLOBAL DEFAULT 8 expm1@@LIBC
135:   FUNC GLOBAL DEFAULT 8 feholdexcept@@LIBC
136:   FUNC GLOBAL DEFAULT 8 remquol@@LIBC
137:   FUNC GLOBAL DEFAULT 8 tgammal@@LIBC
138:   FUNC GLOBAL DEFAULT 8 finite@@LIBC
139:   FUNC GLOBAL DEFAULT 8 llrint@@LIBC
140:   FUNC GLOBAL DEFAULT 8 acoshf@@LIBC
141:   FUNC GLOBAL DEFAULT 8 fetestexcept@@LIBC
142:   FUNC GLOBAL DEFAULT 8 powf@@LIBC
143:   FUNC GLOBAL DEFAULT 8 sinf@@LIBC
144:   FUNC GLOBAL DEFAULT 8 tanf@@LIBC
145:   FUNC GLOBAL DEFAULT 8 logbl@@LIBC
146:   FUNC GLOBAL DEFAULT 8 nan@@LIBC
147:   FUNC GLOBAL DEFAULT 8 ilogbl@@LIBC
148:   FUNC GLOBAL DEFAULT 8 log10l@@LIBC
149:   FUNC GLOBAL DEFAULT 8 lrintl@@LIBC
150:   FUNC GLOBAL DEFAULT 8 scalblnf@@LIBC
151:   FUNC GLOBAL DEFAULT 8 sinh@@LIBC
152:   FUNC GLOBAL DEFAULT 8 tanh@@LIBC
153:   FUNC GLOBAL DEFAULT 8 sqrt@@LIBC
154:   FUNC GLOBAL DEFAULT 8 trunc@@LIBC
155:   FUNC GLOBAL DEFAULT 8 acoshl@@LIBC
156:   FUNC GLOBAL DEFAULT 8 asinf@@LIBC
157:   FUNC GLOBAL DEFAULT 8 atanf@@LIBC
158:   FUNC GLOBAL DEFAULT 8 cprojl@@LIBC
159:   FUNC GLOBAL DEFAULT 8 llroundf@@LIBC
160:   FUNC GLOBAL DEFAULT 8 log2f@@LIBC
161:   FUNC GLOBAL DEFAULT 8 modff@@LIBC
162:   FUNC GLOBAL DEFAULT 8 powl@@LIBC
163:   FUNC GLOBAL DEFAULT 8 rintf@@LIBC
164:   FUNC GLOBAL DEFAULT 8 sinhf@@LIBC
165:   FUNC GLOBAL DEFAULT 8 sinl@@LIBC
166:   FUNC GLOBAL DEFAULT 8 tanhf@@LIBC
167:   FUNC GLOBAL DEFAULT 8 tanl@@LIBC
168:   FUNC GLOBAL DEFAULT 8 ldexpf@@LIBC
169:   FUNC GLOBAL DEFAULT 8 roundf@@LIBC
170:   FUNC GLOBAL DEFAULT 8 asinh@@LIBC
171:   FUNC GLOBAL DEFAULT 8 atanh@@LIBC
172:   FUNC GLOBAL DEFAULT 8 fmin@@LIBC
173:   FUNC GLOBAL DEFAULT 8 scalblnl@@LIBC
174:   FUNC GLOBAL DEFAULT 8 atan2@@LIBC
175:   FUNC GLOBAL DEFAULT 8 lrint@@LIBC
176:   FUNC GLOBAL DEFAULT 8 pow@@LIBC
177:   OBJECT GLOBAL DEFAULT 10 signgam@@LIBC
178:   FUNC GLOBAL DEFAULT 8 expm1f@@LIBC
179:   FUNC GLOBAL DEFAULT 8 fmaf@@LIBC
180:   FUNC GLOBAL DEFAULT 8 scalbln@@LIBC
181:   FUNC GLOBAL DEFAULT 8 asinl@@LIBC
182:   FUNC GLOBAL DEFAULT 8 atanl@@LIBC
183:   FUNC GLOBAL DEFAULT 8 copysignf@@LIBC
184:   FUNC GLOBAL DEFAULT 8 lgammaf_r@@LIBC
185:   FUNC GLOBAL DEFAULT 8 llroundl@@LIBC
186:   FUNC GLOBAL DEFAULT 8 log2l@@LIBC
187:   FUNC GLOBAL DEFAULT 8 modfl@@LIBC
188:   FUNC GLOBAL DEFAULT 8 nexttowardf@@LIBC
189:   FUNC GLOBAL DEFAULT 8 rintl@@LIBC
190:   FUNC GLOBAL DEFAULT 8 sinhl@@LIBC
191:   FUNC GLOBAL DEFAULT 8 tanhl@@LIBC
192:   FUNC GLOBAL DEFAULT 8 fesetenv@@LIBC
193:   FUNC GLOBAL DEFAULT 8 ldexpl@@LIBC
194:   FUNC GLOBAL DEFAULT 8 roundl@@LIBC
195:   FUNC GLOBAL DEFAULT 8 tgamma@@LIBC
196:   FUNC GLOBAL DEFAULT 8 scalbnf@@LIBC
197:   FUNC GLOBAL DEFAULT 8 sincosf@@LIBC
198:   FUNC GLOBAL DEFAULT 8 fegetexcept@@LIBC
199:   FUNC GLOBAL DEFAULT 8 fegetround@@LIBC
200:   FUNC GLOBAL DEFAULT 8 j0f@@LIBC
201:   FUNC GLOBAL DEFAULT 8 y0f@@LIBC
202:   FUNC GLOBAL DEFAULT 8 lround@@LIBC
203:   FUNC GLOBAL DEFAULT 8 coshf@@LIBC
204:   FUNC GLOBAL DEFAULT 8 expm1l@@LIBC
205:   FUNC GLOBAL DEFAULT 8 fabsf@@LIBC
206:   FUNC GLOBAL DEFAULT 8 fmal@@LIBC
207:   FUNC GLOBAL DEFAULT 8 fmaxf@@LIBC
208:   FUNC GLOBAL DEFAULT 8 __signbitf@@LIBC
209:   FUNC GLOBAL DEFAULT 8 copysignl@@LIBC
210:   FUNC GLOBAL DEFAULT 8 log1pf@@LIBC
211:   FUNC GLOBAL DEFAULT 8 nextafter@@LIBC
212:   FUNC GLOBAL DEFAULT 8 nexttowardl@@LIBC
213:   FUNC GLOBAL DEFAULT 8 truncf@@LIBC
214:   FUNC GLOBAL DEFAULT 8 hypot@@LIBC
215:   FUNC GLOBAL DEFAULT 8 scalbnl@@LIBC
216:   FUNC GLOBAL DEFAULT 8 sincosl@@LIBC
217:   FUNC GLOBAL DEFAULT 8 atan2f@@LIBC
218:   FUNC GLOBAL DEFAULT 8 cosf@@LIBC
219:   FUNC GLOBAL DEFAULT 8 gammaf@@LIBC
220:   FUNC GLOBAL DEFAULT 8 lgammaf@@LIBC
221:   FUNC GLOBAL DEFAULT 8 llrintf@@LIBC
222:   FUNC GLOBAL DEFAULT 8 modf@@LIBC
