 0x000000000000000e (SONAME)             Library soname: [android.hardware.broadcastradio@1.0.so]
  
Symbol   contains 492 entries:
Num:   Type Bind Vis Ndx Name
0:   NOTYPE LOCAL DEFAULT UND
1:   FUNC GLOBAL DEFAULT UND __cxa_finalize@LIBC (2)
2:   FUNC GLOBAL DEFAULT UND _ZN7android14sp_report_ra
3:   FUNC GLOBAL DEFAULT UND _ZN7android21report_syspr
4:   OBJECT GLOBAL DEFAULT UND _ZN7android4hidl4base4V1_
5:   FUNC GLOBAL DEFAULT UND _ZN7android4hidl4base4V1_
6:   FUNC GLOBAL DEFAULT UND _ZN7android4hidl4base4V1_
7:   FUNC GLOBAL DEFAULT UND _ZN7android4hidl4base4V1_
8:   FUNC GLOBAL DEFAULT UND _ZN7android4hidl4base4V1_
9:   FUNC GLOBAL DEFAULT UND _ZN7android4hidl4base4V1_
10:   FUNC GLOBAL DEFAULT UND _ZN7android4hidl4base4V1_
11:   FUNC GLOBAL DEFAULT UND _ZN7android4hidl4base4V1_
12:   FUNC GLOBAL DEFAULT UND _ZN7android4hidl4base4V1_
13:   FUNC GLOBAL DEFAULT UND _ZN7android4hidl4base4V1_
14:   FUNC GLOBAL DEFAULT UND _ZN7android4hidl4base4V1_
15:   FUNC GLOBAL DEFAULT UND _ZN7android4hidl4base4V1_
16:   FUNC GLOBAL DEFAULT UND _ZN7android4hidl4base4V1_
17:   FUNC GLOBAL DEFAULT UND _ZN7android4hidl4base4V1_
18:   FUNC GLOBAL DEFAULT UND _ZN7android4hidl4base4V1_
19:   FUNC GLOBAL DEFAULT UND _ZN7android4hidl4base4V1_
20:   FUNC GLOBAL DEFAULT UND _ZN7android4hidl4base4V1_
21:   FUNC GLOBAL DEFAULT UND _ZN7android4hidl4base4V1_
22:   FUNC GLOBAL DEFAULT UND _ZN7android4hidl4base4V1_
23:   FUNC GLOBAL DEFAULT UND _ZN7android4hidl4base4V1_
24:   FUNC GLOBAL DEFAULT UND _ZN7android4hidl4base4V1_
25:   FUNC GLOBAL DEFAULT UND _ZN7android4hidl4base4V1_
26:   FUNC GLOBAL DEFAULT UND _ZN7android4hidl4base4V1_
27:   FUNC GLOBAL DEFAULT UND _ZN7android4hidl4base4V1_
28:   FUNC GLOBAL DEFAULT UND _ZN7android7RefBase10onFi
29:   FUNC GLOBAL DEFAULT UND _ZN7android7RefBase12weak
30:   FUNC GLOBAL DEFAULT UND _ZN7android7RefBase13onLa
31:   FUNC GLOBAL DEFAULT UND _ZN7android7RefBase15onLa
32:   FUNC GLOBAL DEFAULT UND _ZN7android7RefBase20onIn
33:   FUNC GLOBAL DEFAULT UND _ZN7android7RefBaseC2Ev
34:   FUNC GLOBAL DEFAULT UND _ZN7android7RefBaseD2Ev
35:   FUNC GLOBAL DEFAULT UND _ZN7android8hardware10IIn
36:   FUNC GLOBAL DEFAULT UND _ZN7android8hardware10IIn
37:   FUNC GLOBAL DEFAULT UND _ZN7android8hardware10IIn
38:   FUNC GLOBAL DEFAULT UND _ZN7android8hardware10IIn
39:   FUNC GLOBAL DEFAULT UND _ZN7android8hardware10IIn
40:   FUNC GLOBAL DEFAULT UND _ZN7android8hardware11BpH
41:   FUNC GLOBAL DEFAULT UND _ZN7android8hardware11BpH
42:   FUNC GLOBAL DEFAULT UND _ZN7android8hardware11BpH
43:   FUNC GLOBAL DEFAULT UND _ZN7android8hardware11BpH
44:   FUNC GLOBAL DEFAULT UND _ZN7android8hardware11BpH
45:   FUNC GLOBAL DEFAULT UND _ZN7android8hardware11BpH
46:   FUNC GLOBAL DEFAULT UND _ZN7android8hardware11BpH
47:   FUNC GLOBAL DEFAULT UND _ZN7android8hardware11hid
48:   FUNC GLOBAL DEFAULT UND _ZN7android8hardware11hid
49:   FUNC GLOBAL DEFAULT UND _ZN7android8hardware11hid
50:   FUNC GLOBAL DEFAULT UND _ZN7android8hardware11hid
51:   FUNC GLOBAL DEFAULT UND _ZN7android8hardware11hid
52:   FUNC GLOBAL DEFAULT UND _ZN7android8hardware12Pro
53:   FUNC GLOBAL DEFAULT UND _ZN7android8hardware12Pro
54:   FUNC GLOBAL DEFAULT UND _ZN7android8hardware13wri
55:   FUNC GLOBAL DEFAULT UND _ZN7android8hardware14rea
56:   FUNC GLOBAL DEFAULT UND _ZN7android8hardware21def
57:   FUNC GLOBAL DEFAULT UND _ZN7android8hardware23get
58:   FUNC GLOBAL DEFAULT UND _ZN7android8hardware27hid
59:   FUNC GLOBAL DEFAULT UND _ZN7android8hardware27hid
60:   FUNC GLOBAL DEFAULT UND _ZN7android8hardware6Parc
61:   FUNC GLOBAL DEFAULT UND _ZN7android8hardware6Parc
62:   FUNC GLOBAL DEFAULT UND _ZN7android8hardware6Parc
63:   FUNC GLOBAL DEFAULT UND _ZN7android8hardware6Parc
64:   FUNC GLOBAL DEFAULT UND _ZN7android8hardware6Parc
65:   FUNC GLOBAL DEFAULT UND _ZN7android8hardware6Parc
66:   FUNC GLOBAL DEFAULT UND _ZN7android8hardware6Parc
67:   FUNC GLOBAL DEFAULT UND _ZN7android8hardware6Stat
68:   FUNC GLOBAL DEFAULT UND _ZN7android8hardware6Stat
69:   FUNC GLOBAL DEFAULT UND _ZN7android8hardware6Stat
70:   FUNC GLOBAL DEFAULT UND _ZN7android8hardware6Stat
71:   FUNC GLOBAL DEFAULT UND _ZN7android8hardware7IBin
72:   FUNC GLOBAL DEFAULT UND _ZN7android8hardware7IBin
73:   FUNC GLOBAL DEFAULT UND _ZN7android8hardware7IBin
74:   FUNC GLOBAL DEFAULT UND _ZN7android8hardware7IBin
75:   FUNC GLOBAL DEFAULT UND _ZN7android8hardware7deta
76:   FUNC GLOBAL DEFAULT UND _ZN7android8hardware7deta
77:   FUNC GLOBAL DEFAULT UND _ZN7android8hardware7deta
78:   FUNC GLOBAL DEFAULT UND _ZN7android8hardware7deta
79:   FUNC GLOBAL DEFAULT UND _ZN7android8hardware7deta
80:   FUNC GLOBAL DEFAULT UND _ZN7android8hardware7deta
81:   FUNC GLOBAL DEFAULT UND _ZN7android8hardware7deta
82:   OBJECT GLOBAL DEFAULT UND _ZN7android8hardware7deta
83:   FUNC GLOBAL DEFAULT UND _ZN7android8hardware7deta
84:   OBJECT GLOBAL DEFAULT UND _ZN7android8hardware7deta
85:   FUNC GLOBAL DEFAULT UND _ZN7android8hardware7deta
86:   FUNC GLOBAL DEFAULT UND _ZN7android8hardware7deta
87:   FUNC GLOBAL DEFAULT UND _ZN7android8hardware7deta
88:   FUNC GLOBAL DEFAULT UND _ZN7android8hardware7deta
89:   FUNC GLOBAL DEFAULT UND _ZN7android8hardware7deta
90:   FUNC GLOBAL DEFAULT UND _ZN7android8hardware7deta
91:   FUNC GLOBAL DEFAULT UND _ZN7android8hardware7deta
92:   FUNC GLOBAL DEFAULT UND _ZN7android8hardware7deta
93:   FUNC GLOBAL DEFAULT UND _ZN7android8hardware7deta
94:   FUNC GLOBAL DEFAULT UND _ZN7android8hardware7deta
95:   OBJECT GLOBAL DEFAULT UND _ZN7android8hardware7deta
96:   FUNC GLOBAL DEFAULT UND _ZN7android8hardware9BHwB
97:   FUNC GLOBAL DEFAULT UND _ZN7android8hardware9BHwB
98:   FUNC GLOBAL DEFAULT UND _ZN7android8hardware9BHwB
99:   FUNC GLOBAL DEFAULT UND _ZN7android8hardware9BHwB
100:   FUNC GLOBAL DEFAULT UND _ZN7android8hardware9BHwB
101:   FUNC GLOBAL DEFAULT UND _ZN7android8hardware9BHwB
102:   FUNC GLOBAL DEFAULT UND _ZN7android8hardware9BHwB
103:   FUNC GLOBAL DEFAULT UND _ZN7android8hardware9BHwB
104:   FUNC GLOBAL DEFAULT UND _ZN7android8hardware9BHwB
105:   FUNC GLOBAL DEFAULT UND _ZN7android8hardware9BHwB
106:   FUNC GLOBAL DEFAULT UND _ZNK7android7RefBase10cre
107:   FUNC GLOBAL DEFAULT UND _ZNK7android7RefBase11get
108:   FUNC GLOBAL DEFAULT UND _ZNK7android7RefBase9decS
109:   FUNC GLOBAL DEFAULT UND _ZNK7android7RefBase9incS
110:   FUNC GLOBAL DEFAULT UND _ZNK7android8hardware6Par
111:   FUNC GLOBAL DEFAULT UND _ZNK7android8hardware6Par
112:   FUNC GLOBAL DEFAULT UND _ZNK7android8hardware6Par
113:   FUNC GLOBAL DEFAULT UND _ZNK7android8hardware6Par
114:   FUNC GLOBAL DEFAULT UND _ZNK7android8hardware6Par
115:   FUNC GLOBAL DEFAULT UND _ZNK7android8hardware7IBi
116:   FUNC GLOBAL DEFAULT UND _ZNK7android8hardware7det
117:   FUNC GLOBAL DEFAULT UND _ZNK7android8hardware9BHw
118:   FUNC GLOBAL DEFAULT UND _ZNKSt3__120__vector_base
119:   FUNC GLOBAL DEFAULT UND _ZNKSt3__121__basic_strin
120:   FUNC GLOBAL DEFAULT UND _ZNSt3__112basic_stringIc
121:   FUNC GLOBAL DEFAULT UND _ZNSt3__112basic_stringIc
122:   FUNC GLOBAL DEFAULT UND _ZNSt3__15mutex4lockEv
123:   FUNC GLOBAL DEFAULT UND _ZNSt3__15mutex6unlockEv
124:   FUNC GLOBAL DEFAULT UND _ZNSt3__15mutexD1Ev
125:   FUNC GLOBAL DEFAULT UND _ZTv0_n24_N7android4hidl4
126:   FUNC GLOBAL DEFAULT UND _ZTv0_n24_N7android4hidl4
127:   FUNC GLOBAL DEFAULT UND _ZTv0_n24_N7android8hardw
128:   FUNC GLOBAL DEFAULT UND _ZTv0_n24_N7android8hardw
129:   FUNC GLOBAL DEFAULT UND _ZTv0_n24_N7android8hardw
130:   FUNC GLOBAL DEFAULT UND _ZTv0_n24_N7android8hardw
131:   FUNC GLOBAL DEFAULT UND _ZTv0_n24_N7android8hardw
132:   FUNC GLOBAL DEFAULT UND _ZTv0_n24_N7android8hardw
133:   FUNC GLOBAL DEFAULT UND _ZTv0_n24_N7android8hardw
134:   FUNC GLOBAL DEFAULT UND _ZTv0_n24_N7android8hardw
135:   FUNC GLOBAL DEFAULT UND _ZTv0_n32_N7android8hardw
136:   FUNC GLOBAL DEFAULT UND _ZTv0_n40_N7android8hardw
137:   FUNC GLOBAL DEFAULT UND _ZTv0_n48_N7android8hardw
138:   FUNC GLOBAL DEFAULT UND _ZdaPv
139:   FUNC GLOBAL DEFAULT UND _ZdlPv
140:   FUNC GLOBAL DEFAULT UND _Znam
141:   FUNC GLOBAL DEFAULT UND _Znwm
142:   FUNC GLOBAL DEFAULT UND __android_log_assert@LIBLOG (3)
143:   FUNC GLOBAL DEFAULT UND __cxa_pure_virtual
144:   FUNC GLOBAL DEFAULT UND __stack_chk_fail@LIBC (2)
145:   FUNC GLOBAL DEFAULT UND abort@LIBC (2)
146:   FUNC GLOBAL DEFAULT UND atrace_begin_body
147:   OBJECT GLOBAL DEFAULT UND atrace_enabled_tags
148:   FUNC GLOBAL DEFAULT UND atrace_end_body
149:   OBJECT GLOBAL DEFAULT UND atrace_is_ready
150:   FUNC GLOBAL DEFAULT UND atrace_setup
151:   FUNC GLOBAL DEFAULT UND memcmp@LIBC (2)
152:   FUNC GLOBAL DEFAULT UND memcpy@LIBC (2)
153:   FUNC GLOBAL DEFAULT UND memset@LIBC (2)
154:   FUNC GLOBAL DEFAULT UND strlen@LIBC (2)
155:   FUNC GLOBAL DEFAULT UND _ZN7android8hardware6Parc
156:   FUNC GLOBAL DEFAULT UND _ZNK7android8hardware6Par
157:   FUNC GLOBAL DEFAULT UND _ZN7android8hardware6Parc
158:   FUNC GLOBAL DEFAULT UND _ZNK7android8hardware6Par
159:   FUNC GLOBAL DEFAULT UND _ZN7android8hardware21wri
160:   FUNC GLOBAL DEFAULT UND _ZN7android8hardware22rea
161:   OBJECT GLOBAL DEFAULT 18 _ZTCN7android8hardware14b
162:   FUNC GLOBAL DEFAULT 14 _ZN7android8hardware14bro
163:   FUNC GLOBAL DEFAULT 14 _ZN7android8hardware14bro
164:   OBJECT GLOBAL DEFAULT 18 _ZTTN7android8hardware14b
165:   FUNC GLOBAL DEFAULT 14 _ZN7android8hardware14bro
166:   FUNC WEAK DEFAULT 14 _ZN7android8hardware7deta
167:   OBJECT GLOBAL DEFAULT 18 _ZTCN7android8hardware14b
168:   OBJECT GLOBAL DEFAULT 18 _ZTCN7android8hardware14b
169:   OBJECT WEAK DEFAULT 18 _ZTVN7android8hardware14b
170:   FUNC GLOBAL DEFAULT 14 _ZN7android8hardware14bro
171:   FUNC GLOBAL DEFAULT 14 _ZN7android8hardware14bro
172:   OBJECT GLOBAL DEFAULT 18 _ZTTN7android8hardware14b
173:   FUNC GLOBAL DEFAULT 14 _ZN7android8hardware14bro
174:   FUNC GLOBAL DEFAULT 14 _ZN7android8hardware14bro
175:   FUNC GLOBAL DEFAULT 14 _ZN7android8hardware14bro
176:   FUNC GLOBAL DEFAULT 14 _ZN7android8hardware14bro
177:   OBJECT GLOBAL DEFAULT 18 _ZTVN7android8hardware14b
178:   FUNC GLOBAL DEFAULT 14 _ZN7android8hardware14bro
179:   OBJECT GLOBAL DEFAULT 18 _ZTCN7android8hardware14b
180:   FUNC GLOBAL DEFAULT 14 _ZTv0_n24_N7android8hardw
181:   FUNC WEAK DEFAULT 14 _ZN7android8hardware7deta
182:   FUNC GLOBAL DEFAULT 14 _ZN7android8hardware14bro
183:   FUNC GLOBAL DEFAULT 14 _ZN7android8hardware14bro
184:   FUNC GLOBAL DEFAULT 14 _ZN7android8hardware14bro
185:   FUNC GLOBAL DEFAULT 14 _ZN7android8hardware14bro
186:   FUNC GLOBAL DEFAULT 14 _ZN7android8hardware14bro
187:   FUNC GLOBAL DEFAULT 14 _ZN7android8hardware14bro
188:   FUNC WEAK DEFAULT 14 _ZN7android8hardware7deta
189:   FUNC GLOBAL DEFAULT 14 _ZN7android8hardware14bro
190:   FUNC GLOBAL DEFAULT 14 _ZN7android8hardware14bro
191:   FUNC GLOBAL DEFAULT 14 _ZN7android8hardware14bro
192:   FUNC GLOBAL DEFAULT 14 _ZN7android8hardware14bro
193:   OBJECT GLOBAL DEFAULT 18 _ZTCN7android8hardware14b
194:   OBJECT GLOBAL DEFAULT 18 _ZTVN7android8hardware14b
195:   FUNC GLOBAL DEFAULT 14 _ZN7android8hardware14bro
196:   FUNC GLOBAL DEFAULT 14 _ZN7android8hardware14bro
197:   OBJECT GLOBAL DEFAULT 18 _ZTTN7android8hardware14b
198:   FUNC GLOBAL DEFAULT 14 _ZN7android8hardware14bro
199:   FUNC GLOBAL DEFAULT 14 _ZN7android8hardware14bro
200:   FUNC GLOBAL DEFAULT 14 _ZN7android8hardware14bro
201:   FUNC WEAK DEFAULT 14 _ZNSt3__113__tree_removeI
202:   FUNC GLOBAL DEFAULT 14 _ZN7android8hardware14bro
203:   FUNC GLOBAL DEFAULT 14 _ZN7android8hardware14bro
204:   OBJECT GLOBAL DEFAULT 18 _ZTTN7android8hardware14b
205:   OBJECT GLOBAL DEFAULT 18 _ZTCN7android8hardware14b
206:   FUNC GLOBAL DEFAULT 14 _ZN7android8hardware14bro
207:   FUNC GLOBAL DEFAULT 14 _ZN7android8hardware14bro
208:   FUNC GLOBAL DEFAULT 14 _ZN7android8hardware14bro
209:   FUNC GLOBAL DEFAULT 14 _ZN7android8hardware14bro
210:   FUNC GLOBAL DEFAULT 14 _ZN7android8hardware14bro
211:   FUNC GLOBAL DEFAULT 14 _ZN7android8hardware14bro
212:   FUNC WEAK DEFAULT 14 _ZNSt3__16__treeINS_12__v
213:   OBJECT GLOBAL DEFAULT 18 _ZTTN7android8hardware14b
214:   FUNC GLOBAL DEFAULT 14 _ZN7android8hardware14bro
215:   FUNC GLOBAL DEFAULT 14 _ZN7android8hardware14bro
216:   FUNC GLOBAL DEFAULT 14 _ZN7android8hardware14bro
217:   FUNC GLOBAL DEFAULT 14 _ZThn32_N7android8hardwar
218:   FUNC GLOBAL DEFAULT 14 _ZN7android8hardware14bro
219:   OBJECT GLOBAL DEFAULT 18 _ZTVN7android8hardware14b
220:   FUNC GLOBAL DEFAULT 14 _ZN7android8hardware14bro
221:   FUNC WEAK DEFAULT 14 _ZNSt3__16__treeINS_12__v
222:   OBJECT GLOBAL DEFAULT 18 _ZTCN7android8hardware14b
223:   FUNC GLOBAL DEFAULT 14 _ZN7android8hardware14bro
224:   FUNC GLOBAL DEFAULT 14 _ZN7android8hardware14bro
225:   OBJECT GLOBAL DEFAULT 18 _ZTCN7android8hardware14b
226:   FUNC GLOBAL DEFAULT 14 _ZN7android8hardware14bro
227:   OBJECT WEAK DEFAULT 18 _ZTVN7android8hardware14b
228:   FUNC GLOBAL DEFAULT 14 _ZN7android8hardware14bro
229:   FUNC GLOBAL DEFAULT 14 _ZN7android8hardware14bro
230:   FUNC GLOBAL DEFAULT 14 _ZN7android8hardware14bro
231:   OBJECT WEAK DEFAULT 18 _ZTCN7android8hardware14b
232:   FUNC GLOBAL DEFAULT 14 _ZN7android8hardware14bro
233:   FUNC GLOBAL DEFAULT 14 _ZN7android8hardware14bro
234:   FUNC GLOBAL DEFAULT 14 _ZN7android8hardware14bro
235:   FUNC GLOBAL DEFAULT 14 _ZN7android8hardware14bro
236:   OBJECT GLOBAL DEFAULT 18 _ZTCN7android8hardware14b
237:   OBJECT GLOBAL DEFAULT 18 _ZTTN7android8hardware14b
238:   OBJECT GLOBAL DEFAULT 16 _ZN7android8hardware14bro
239:   FUNC GLOBAL DEFAULT 14 _ZN7android8hardware14bro
240:   FUNC GLOBAL DEFAULT 14 _ZN7android8hardware14bro
241:   FUNC GLOBAL DEFAULT 14 _ZN7android8hardware14bro
242:   FUNC GLOBAL DEFAULT 14 _ZN7android8hardware14bro
243:   FUNC GLOBAL DEFAULT 14 _ZN7android8hardware14bro
244:   FUNC GLOBAL DEFAULT 14 _ZN7android8hardware14bro
245:   FUNC GLOBAL DEFAULT 14 _ZN7android8hardware14bro
246:   FUNC GLOBAL DEFAULT 14 _ZN7android8hardware14bro
247:   OBJECT WEAK DEFAULT 18 _ZTCN7android8hardware14b
248:   OBJECT GLOBAL DEFAULT 18 _ZTTN7android8hardware14b
249:   FUNC GLOBAL DEFAULT 14 _ZN7android8hardware14bro
250:   OBJECT GLOBAL DEFAULT 18 _ZTCN7android8hardware14b
251:   FUNC WEAK DEFAULT 14 _ZN7android8hardware7deta
252:   OBJECT GLOBAL DEFAULT 18 _ZTCN7android8hardware14b
253:   FUNC WEAK DEFAULT 14 _ZNSt3__16vectorINS_8func
254:   FUNC GLOBAL DEFAULT 14 _ZN7android8hardware14bro
255:   FUNC GLOBAL DEFAULT 14 _ZN7android8hardware14bro
256:   FUNC GLOBAL DEFAULT 14 _ZN7android8hardware14bro
257:   OBJECT WEAK DEFAULT 18 _ZTCN7android8hardware14b
258:   FUNC GLOBAL DEFAULT 14 _ZN7android8hardware14bro
259:   FUNC GLOBAL DEFAULT 14 _ZN7android8hardware14bro
260:   FUNC GLOBAL DEFAULT 14 _ZN7android8hardware14bro
261:   OBJECT GLOBAL DEFAULT 18 _ZTCN7android8hardware14b
262:   FUNC GLOBAL DEFAULT 14 _ZN7android8hardware14bro
263:   FUNC GLOBAL DEFAULT 14 _ZN7android8hardware14bro
264:   FUNC GLOBAL DEFAULT 14 _ZN7android8hardware14bro
265:   FUNC GLOBAL DEFAULT 14 _ZN7android8hardware14bro
266:   FUNC GLOBAL DEFAULT 14 _ZN7android8hardware14bro
267:   FUNC GLOBAL DEFAULT 14 _ZN7android8hardware14bro
268:   FUNC GLOBAL DEFAULT 14 _ZN7android8hardware14bro
269:   OBJECT GLOBAL DEFAULT 18 _ZTCN7android8hardware14b
270:   FUNC GLOBAL DEFAULT 14 _ZN7android8hardware14bro
271:   FUNC GLOBAL DEFAULT 14 _ZN7android8hardware14bro
272:   FUNC GLOBAL DEFAULT 14 _ZN7android8hardware14bro
273:   FUNC GLOBAL DEFAULT 14 _ZN7android8hardware14bro
274:   OBJECT GLOBAL DEFAULT 16 _ZN7android8hardware14bro
275:   FUNC GLOBAL DEFAULT 14 _ZN7android8hardware14bro
276:   FUNC GLOBAL DEFAULT 14 _ZN7android8hardware14bro
277:   FUNC GLOBAL DEFAULT 14 _ZN7android8hardware14bro
278:   FUNC GLOBAL DEFAULT 14 _ZN7android8hardware14bro
279:   FUNC GLOBAL DEFAULT 14 _ZN7android8hardware14bro
280:   FUNC WEAK DEFAULT 14 _ZN7android8hardware10fro
281:   OBJECT GLOBAL DEFAULT 18 _ZTCN7android8hardware14b
282:   OBJECT GLOBAL DEFAULT 18 _ZTCN7android8hardware14b
283:   FUNC GLOBAL DEFAULT 14 _ZN7android8hardware14bro
284:   FUNC GLOBAL DEFAULT 14 _ZN7android8hardware14bro
285:   FUNC WEAK DEFAULT 14 _ZNSt3__16vectorIN7androi
286:   OBJECT GLOBAL DEFAULT 18 _ZTCN7android8hardware14b
287:   OBJECT GLOBAL DEFAULT 18 _ZTCN7android8hardware14b
288:   FUNC GLOBAL DEFAULT 14 _ZN7android8hardware14bro
289:   FUNC WEAK DEFAULT 14 _ZN7android8hardware10fro
290:   FUNC GLOBAL DEFAULT 14 _ZN7android8hardware14bro
291:   FUNC GLOBAL DEFAULT 14 _ZN7android8hardware14bro
292:   FUNC GLOBAL DEFAULT 14 _ZN7android8hardware14bro
293:   FUNC GLOBAL DEFAULT 14 _ZN7android8hardware14bro
294:   FUNC WEAK DEFAULT 14 _ZN7android8hardware10fro
295:   FUNC GLOBAL DEFAULT 14 _ZN7android8hardware14bro
296:   FUNC GLOBAL DEFAULT 14 _ZN7android8hardware14bro
297:   FUNC GLOBAL DEFAULT 14 _ZN7android8hardware14bro
298:   OBJECT GLOBAL DEFAULT 18 _ZTCN7android8hardware14b
299:   OBJECT GLOBAL DEFAULT 18 _ZTTN7android8hardware14b
300:   FUNC GLOBAL DEFAULT 14 _ZN7android8hardware14bro
301:   FUNC GLOBAL DEFAULT 14 _ZN7android8hardware14bro
302:   OBJECT GLOBAL DEFAULT 18 _ZTCN7android8hardware14b
303:   FUNC GLOBAL DEFAULT 14 _ZN7android8hardware14bro
304:   FUNC GLOBAL DEFAULT 14 _ZN7android8hardware14bro
305:   FUNC GLOBAL DEFAULT 14 _ZN7android8hardware14bro
306:   FUNC GLOBAL DEFAULT 14 _ZN7android8hardware14bro
307:   FUNC WEAK DEFAULT 14 _ZN7android8hardware7deta
308:   FUNC GLOBAL DEFAULT 14 _ZN7android8hardware14bro
309:   FUNC GLOBAL DEFAULT 14 _ZN7android8hardware14bro
310:   OBJECT GLOBAL DEFAULT 18 _ZTVN7android8hardware14b
311:   FUNC GLOBAL DEFAULT 14 _ZN7android8hardware14bro
312:   FUNC GLOBAL DEFAULT 14 _ZN7android8hardware14bro
313:   OBJECT GLOBAL DEFAULT 18 _ZTCN7android8hardware14b
314:   FUNC GLOBAL DEFAULT 14 _ZThn32_N7android8hardwar
315:   FUNC GLOBAL DEFAULT 14 _ZN7android8hardware14bro
316:   FUNC GLOBAL DEFAULT 14 _ZN7android8hardware14bro
317:   FUNC WEAK DEFAULT 14 _ZN7android8hardware7deta
318:   FUNC GLOBAL DEFAULT 14 _ZN7android8hardware14bro
319:   FUNC GLOBAL DEFAULT 14 _ZN7android8hardware14bro
320:   FUNC GLOBAL DEFAULT 14 _ZN7android8hardware14bro
321:   FUNC WEAK DEFAULT 14 _ZN7android8hardware7deta
322:   FUNC GLOBAL DEFAULT 14 _ZN7android8hardware14bro
323:   FUNC WEAK DEFAULT 14 _ZN7android8hardware7deta
324:   OBJECT GLOBAL DEFAULT 18 _ZTCN7android8hardware14b
325:   FUNC GLOBAL DEFAULT 14 _ZN7android8hardware14bro
326:   OBJECT GLOBAL DEFAULT 18 _ZTCN7android8hardware14b
327:   OBJECT GLOBAL DEFAULT 18 _ZTCN7android8hardware14b
328:   FUNC GLOBAL DEFAULT 14 _ZN7android8hardware14bro
329:   FUNC GLOBAL DEFAULT 14 _ZN7android8hardware14bro
330:   FUNC GLOBAL DEFAULT 14 _ZN7android8hardware14bro
331:   FUNC GLOBAL DEFAULT 14 _ZN7android8hardware14bro
332:   FUNC GLOBAL DEFAULT 14 _ZN7android8hardware14bro
333:   FUNC GLOBAL DEFAULT 14 _ZN7android8hardware14bro
334:   OBJECT GLOBAL DEFAULT 16 _ZN7android8hardware14bro
335:   FUNC GLOBAL DEFAULT 14 _ZN7android8hardware14bro
336:   FUNC GLOBAL DEFAULT 14 _ZN7android8hardware14bro
337:   FUNC GLOBAL DEFAULT 14 _ZN7android8hardware14bro
338:   FUNC WEAK DEFAULT 14 _ZNSt3__16__treeINS_12__v
339:   FUNC GLOBAL DEFAULT 14 _ZTv0_n24_N7android8hardw
340:   FUNC GLOBAL DEFAULT 14 _ZThn32_N7android8hardwar
341:   FUNC GLOBAL DEFAULT 14 _ZN7android8hardware14bro
342:   FUNC GLOBAL DEFAULT 14 _ZN7android8hardware14bro
343:   FUNC GLOBAL DEFAULT 14 _ZN7android8hardware14bro
344:   FUNC GLOBAL DEFAULT 14 _ZN7android8hardware14bro
345:   FUNC GLOBAL DEFAULT 14 _ZN7android8hardware14bro
346:   OBJECT GLOBAL DEFAULT 18 _ZTVN7android8hardware14b
347:   FUNC WEAK DEFAULT 14 _ZN7android8hardware7deta
348:   FUNC GLOBAL DEFAULT 14 _ZTv0_n24_N7android8hardw
349:   FUNC WEAK DEFAULT 14 _ZNSt3__16vectorIPvNS_9al
350:   FUNC GLOBAL DEFAULT 14 _ZN7android8hardware14bro
351:   FUNC GLOBAL DEFAULT 14 _ZN7android8hardware14bro
352:   FUNC GLOBAL DEFAULT 14 _ZN7android8hardware14bro
353:   FUNC GLOBAL DEFAULT 14 _ZN7android8hardware14bro
354:   FUNC GLOBAL DEFAULT 14 _ZN7android8hardware14bro
355:   FUNC WEAK DEFAULT 14 _ZN7android8hardware7deta
356:   FUNC GLOBAL DEFAULT 14 _ZN7android8hardware14bro
357:   FUNC GLOBAL DEFAULT 14 _ZN7android8hardware14bro
358:   FUNC GLOBAL DEFAULT 14 _ZN7android8hardware14bro
359:   OBJECT GLOBAL DEFAULT 18 _ZTCN7android8hardware14b
360:   FUNC GLOBAL DEFAULT 14 _ZN7android8hardware14bro
361:   FUNC GLOBAL DEFAULT 14 _ZN7android8hardware14bro
362:   FUNC GLOBAL DEFAULT 14 _ZN7android8hardware14bro
363:   FUNC GLOBAL DEFAULT 14 _ZN7android8hardware14bro
364:   FUNC GLOBAL DEFAULT 14 _ZN7android8hardware14bro
365:   OBJECT GLOBAL DEFAULT 18 _ZTCN7android8hardware14b
366:   OBJECT GLOBAL DEFAULT 18 _ZTTN7android8hardware14b
367:   FUNC GLOBAL DEFAULT 14 _ZN7android8hardware14bro
368:   FUNC GLOBAL DEFAULT 14 _ZN7android8hardware14bro
369:   FUNC GLOBAL DEFAULT 14 _ZN7android8hardware14bro
370:   FUNC GLOBAL DEFAULT 14 _ZN7android8hardware14bro
371:   FUNC GLOBAL DEFAULT 14 _ZN7android8hardware14bro
372:   FUNC GLOBAL DEFAULT 14 _ZN7android8hardware14bro
373:   OBJECT GLOBAL DEFAULT 18 _ZTCN7android8hardware14b
374:   OBJECT GLOBAL DEFAULT 18 _ZTCN7android8hardware14b
375:   FUNC GLOBAL DEFAULT 14 _ZN7android8hardware14bro
376:   FUNC GLOBAL DEFAULT 14 _ZN7android8hardware14bro
377:   FUNC GLOBAL DEFAULT 14 _ZN7android8hardware14bro
378:   FUNC GLOBAL DEFAULT 14 _ZN7android8hardware14bro
379:   OBJECT WEAK DEFAULT 18 _ZTVN7android8hardware14b
380:   FUNC GLOBAL DEFAULT 14 _ZThn32_N7android8hardwar
381:   FUNC GLOBAL DEFAULT 14 _ZN7android8hardware14bro
382:   FUNC GLOBAL DEFAULT 14 _ZN7android8hardware14bro
383:   FUNC GLOBAL DEFAULT 14 _ZN7android8hardware14bro
384:   FUNC WEAK DEFAULT 14 _ZNSt3__16__treeINS_12__v
385:   FUNC GLOBAL DEFAULT 14 _ZN7android8hardware14bro
386:   OBJECT GLOBAL DEFAULT 18 _ZTCN7android8hardware14b
387:   FUNC GLOBAL DEFAULT 14 _ZN7android8hardware14bro
388:   FUNC GLOBAL DEFAULT 14 _ZN7android8hardware14bro
389:   FUNC GLOBAL DEFAULT 14 _ZN7android8hardware14bro
390:   FUNC GLOBAL DEFAULT 14 _ZN7android8hardware14bro
391:   FUNC GLOBAL DEFAULT 14 _ZTv0_n24_N7android8hardw
392:   FUNC GLOBAL DEFAULT 14 _ZThn32_N7android8hardwar
393:   FUNC GLOBAL DEFAULT 14 _ZN7android8hardware14bro
394:   FUNC GLOBAL DEFAULT 14 _ZN7android8hardware14bro
395:   FUNC GLOBAL DEFAULT 14 _ZN7android8hardware14bro
396:   FUNC WEAK DEFAULT 14 _ZNSt3__127__tree_balance
397:   FUNC GLOBAL DEFAULT 14 _ZN7android8hardware14bro
398:   OBJECT GLOBAL DEFAULT 18 _ZTTN7android8hardware14b
399:   FUNC GLOBAL DEFAULT 14 _ZN7android8hardware14bro
400:   FUNC GLOBAL DEFAULT 14 _ZN7android8hardware14bro
401:   OBJECT GLOBAL DEFAULT 18 _ZTTN7android8hardware14b
402:   FUNC GLOBAL DEFAULT 14 _ZN7android8hardware14bro
403:   OBJECT GLOBAL DEFAULT 18 _ZTTN7android8hardware14b
404:   FUNC GLOBAL DEFAULT 14 _ZN7android8hardware14bro
405:   FUNC GLOBAL DEFAULT 14 _ZN7android8hardware14bro
406:   OBJECT GLOBAL DEFAULT 18 _ZTCN7android8hardware14b
407:   FUNC GLOBAL DEFAULT 14 _ZN7android8hardware14bro
408:   FUNC GLOBAL DEFAULT 14 _ZN7android8hardware14bro
409:   FUNC GLOBAL DEFAULT 14 _ZN7android8hardware14bro
410:   FUNC GLOBAL DEFAULT 14 _ZN7android8hardware14bro
411:   OBJECT WEAK DEFAULT 18 _ZTVN7android8hardware14b
412:   FUNC GLOBAL DEFAULT 14 _ZN7android8hardware14bro
413:   FUNC GLOBAL DEFAULT 14 _ZN7android8hardware14bro
414:   OBJECT GLOBAL DEFAULT 18 _ZTCN7android8hardware14b
415:   OBJECT GLOBAL DEFAULT 18 _ZTVN7android8hardware14b
416:   OBJECT GLOBAL DEFAULT 18 _ZTCN7android8hardware14b
417:   FUNC GLOBAL DEFAULT 14 _ZN7android8hardware14bro
418:   FUNC GLOBAL DEFAULT 14 _ZN7android8hardware14bro
419:   FUNC GLOBAL DEFAULT 14 _ZN7android8hardware14bro
420:   FUNC GLOBAL DEFAULT 14 _ZN7android8hardware14bro
421:   FUNC GLOBAL DEFAULT 14 _ZN7android8hardware14bro
422:   OBJECT GLOBAL DEFAULT 18 _ZTVN7android8hardware14b
423:   FUNC GLOBAL DEFAULT 14 _ZN7android8hardware14bro
424:   OBJECT GLOBAL DEFAULT 18 _ZTVN7android8hardware14b
425:   FUNC GLOBAL DEFAULT 14 _ZN7android8hardware14bro
426:   FUNC GLOBAL DEFAULT 14 _ZN7android8hardware14bro
427:   OBJECT GLOBAL DEFAULT 16 _ZN7android8hardware14bro
428:   OBJECT GLOBAL DEFAULT 18 _ZTVN7android8hardware14b
429:   FUNC GLOBAL DEFAULT 14 _ZN7android8hardware14bro
430:   FUNC GLOBAL DEFAULT 14 _ZN7android8hardware14bro
431:   FUNC GLOBAL DEFAULT 14 _ZN7android8hardware14bro
432:   OBJECT GLOBAL DEFAULT 18 _ZTVN7android8hardware14b
433:   FUNC GLOBAL DEFAULT 14 _ZTv0_n24_N7android8hardw
434:   FUNC GLOBAL DEFAULT 14 _ZN7android8hardware14bro
435:   FUNC GLOBAL DEFAULT 14 _ZN7android8hardware14bro
436:   FUNC GLOBAL DEFAULT 14 _ZN7android8hardware14bro
437:   FUNC GLOBAL DEFAULT 14 _ZTv0_n24_N7android8hardw
438:   FUNC GLOBAL DEFAULT 14 _ZN7android8hardware14bro
439:   FUNC GLOBAL DEFAULT 14 _ZThn32_N7android8hardwar
440:   FUNC GLOBAL DEFAULT 14 _ZN7android8hardware14bro
441:   FUNC GLOBAL DEFAULT 14 _ZN7android8hardware14bro
442:   FUNC WEAK DEFAULT 14 _ZNSt3__16__treeINS_12__v
443:   OBJECT GLOBAL DEFAULT 18 _ZTVN7android8hardware14b
444:   OBJECT GLOBAL DEFAULT 18 _ZTCN7android8hardware14b
445:   FUNC GLOBAL DEFAULT 14 _ZN7android8hardware14bro
446:   FUNC GLOBAL DEFAULT 14 _ZN7android8hardware14bro
447:   FUNC GLOBAL DEFAULT 14 _ZN7android8hardware14bro
448:   FUNC WEAK DEFAULT 14 _ZN7android8hardware7deta
449:   OBJECT GLOBAL DEFAULT 18 _ZTVN7android8hardware14b
450:   OBJECT GLOBAL DEFAULT 18 _ZTCN7android8hardware14b
451:   FUNC GLOBAL DEFAULT 14 _ZTv0_n24_N7android8hardw
452:   FUNC GLOBAL DEFAULT 14 _ZN7android8hardware14bro
453:   FUNC GLOBAL DEFAULT 14 _ZN7android8hardware14bro
454:   FUNC GLOBAL DEFAULT 14 _ZN7android8hardware14bro
455:   FUNC GLOBAL DEFAULT 14 _ZN7android8hardware14bro
456:   FUNC GLOBAL DEFAULT 14 _ZN7android8hardware14bro
457:   FUNC GLOBAL DEFAULT 14 _ZN7android8hardware14bro
458:   FUNC GLOBAL DEFAULT 14 _ZN7android8hardware14bro
459:   OBJECT GLOBAL DEFAULT 18 _ZTCN7android8hardware14b
460:   FUNC GLOBAL DEFAULT 14 _ZN7android8hardware14bro
461:   FUNC GLOBAL DEFAULT 14 _ZN7android8hardware14bro
462:   FUNC GLOBAL DEFAULT 14 _ZN7android8hardware14bro
463:   FUNC GLOBAL DEFAULT 14 _ZN7android8hardware14bro
464:   FUNC GLOBAL DEFAULT 14 _ZN7android8hardware14bro
465:   FUNC GLOBAL DEFAULT 14 _ZN7android8hardware14bro
466:   OBJECT GLOBAL DEFAULT 18 _ZTCN7android8hardware14b
467:   FUNC GLOBAL DEFAULT 14 _ZN7android8hardware14bro
468:   FUNC GLOBAL DEFAULT 14 _ZN7android8hardware14bro
469:   FUNC GLOBAL DEFAULT 14 _ZN7android8hardware14bro
470:   FUNC GLOBAL DEFAULT 14 _ZN7android8hardware14bro
471:   FUNC GLOBAL DEFAULT 14 _ZN7android8hardware14bro
472:   FUNC GLOBAL DEFAULT 14 _ZN7android8hardware14bro
473:   FUNC GLOBAL DEFAULT 14 _ZN7android8hardware14bro
474:   FUNC GLOBAL DEFAULT 14 _ZN7android8hardware14bro
475:   FUNC GLOBAL DEFAULT 14 _ZN7android8hardware14bro
476:   FUNC GLOBAL DEFAULT 14 _ZN7android8hardware14bro
477:   FUNC GLOBAL DEFAULT 14 _ZN7android8hardware14bro
478:   FUNC GLOBAL DEFAULT 14 _ZN7android8hardware14bro
479:   FUNC GLOBAL DEFAULT 14 _ZN7android8hardware14bro
480:   FUNC GLOBAL DEFAULT 14 _ZThn32_N7android8hardwar
481:   FUNC GLOBAL DEFAULT 14 _ZN7android8hardware14bro
482:   FUNC GLOBAL DEFAULT 14 _ZN7android8hardware14bro
483:   OBJECT GLOBAL DEFAULT 18 _ZTCN7android8hardware14b
484:   FUNC GLOBAL DEFAULT 14 _ZN7android8hardware14bro
485:   FUNC GLOBAL DEFAULT 14 _ZN7android8hardware14bro
486:   FUNC WEAK DEFAULT 14 _ZNSt3__16__treeINS_12__v
487:   OBJECT WEAK DEFAULT 18 _ZTCN7android8hardware14b
488:   FUNC GLOBAL DEFAULT 14 _ZN7android8hardware14bro
489:   FUNC GLOBAL DEFAULT 14 _ZN7android8hardware14bro
490:   FUNC GLOBAL DEFAULT 14 _ZTv0_n24_N7android8hardw
491:   FUNC GLOBAL DEFAULT 14 _ZThn32_N7android8hardwar
