 0x000000000000000e (SONAME)             Library soname: [libkeystore_parcelables.so]
  
Symbol   contains 107 entries:
Num:   Type Bind Vis Ndx Name
0:   NOTYPE LOCAL DEFAULT UND
1:   FUNC GLOBAL DEFAULT UND __cxa_finalize@LIBC (2)
2:   FUNC GLOBAL DEFAULT UND _Znwm
3:   FUNC GLOBAL DEFAULT UND _ZNSt3__119__shared_weak_
4:   FUNC GLOBAL DEFAULT UND _ZdlPv
5:   FUNC GLOBAL DEFAULT UND _ZNSt3__119__shared_weak_
6:   FUNC GLOBAL DEFAULT UND _ZNKSt3__119__shared_weak
7:   FUNC GLOBAL DEFAULT UND __cfi_slowpath@LIBC_OMR1 (3)
8:   FUNC GLOBAL DEFAULT UND _ZNKSt3__120__vector_base
9:   FUNC GLOBAL DEFAULT UND abort@LIBC (2)
10:   FUNC GLOBAL DEFAULT UND _ZN7android6Parcel10write
11:   FUNC GLOBAL DEFAULT UND _ZN7android6Parcel26write
12:   FUNC GLOBAL DEFAULT UND _ZNK7android6Parcel12data
13:   FUNC GLOBAL DEFAULT UND _ZNK7android6Parcel9readI
14:   FUNC GLOBAL DEFAULT UND _ZNK7android6Parcel15setD
15:   FUNC GLOBAL DEFAULT UND _ZNK7android6Parcel14read
16:   FUNC GLOBAL DEFAULT UND _ZN7android8String16C1ERK
17:   FUNC GLOBAL DEFAULT UND _ZN7android6Parcel13write
18:   FUNC GLOBAL DEFAULT UND _ZN7android6Parcel10write
19:   FUNC GLOBAL DEFAULT UND _ZNK7android6Parcel12read
20:   FUNC GLOBAL DEFAULT UND _ZNK7android6Parcel9readI
21:   FUNC GLOBAL DEFAULT UND _ZN7android8String16D1Ev
22:   FUNC GLOBAL DEFAULT UND _ZdaPv
23:   FUNC GLOBAL DEFAULT UND _Znam
24:   FUNC GLOBAL DEFAULT UND _ZNK7android6Parcel9readI
25:   FUNC GLOBAL DEFAULT UND _ZNK7android6Parcel11read
26:   FUNC GLOBAL DEFAULT UND _ZN7android6Parcel5writeE
27:   FUNC GLOBAL DEFAULT UND _ZNK7android6Parcel9readI
28:   FUNC GLOBAL DEFAULT UND __android_log_print@LIBLOG (4)
29:   FUNC GLOBAL DEFAULT UND _ZN7android8hardware7deta
30:   FUNC GLOBAL DEFAULT UND _ZNK7android6Parcel16read
31:   FUNC GLOBAL DEFAULT UND _ZN7android6Parcel17write
32:   FUNC GLOBAL DEFAULT UND _ZNK7android7RefBase9decS
33:   FUNC GLOBAL DEFAULT UND _ZN7android14sp_report_ra
34:   FUNC GLOBAL DEFAULT UND _ZN7android6Parcel15write
35:   FUNC GLOBAL DEFAULT UND _ZNK7android6Parcel14read
36:   FUNC WEAK DEFAULT UND android_set_abort_message@LIBC (2)
37:   FUNC GLOBAL DEFAULT UND strlen@LIBC (2)
38:   FUNC GLOBAL DEFAULT UND write@LIBC (2)
39:   FUNC GLOBAL DEFAULT UND memset@LIBC (2)
40:   FUNC GLOBAL DEFAULT UND __stack_chk_fail@LIBC (2)
41:   FUNC GLOBAL DEFAULT 14 _ZNK7android8security9key
42:   FUNC GLOBAL DEFAULT 14 _ZNK7android8security9key
43:   FUNC GLOBAL DEFAULT 14 _ZNK7android8security9key
44:   FUNC GLOBAL DEFAULT 14 __cfi_check
45:   FUNC GLOBAL DEFAULT 14 _ZN7android8security9keym
46:   FUNC GLOBAL DEFAULT 14 _ZN7android8security9keym
47:   FUNC GLOBAL DEFAULT 14 _ZN8keystore18writeKeymas
48:   OBJECT GLOBAL DEFAULT 18 _ZTVN7android8security9ke
49:   FUNC GLOBAL DEFAULT 14 _ZNK7android8security9key
50:   OBJECT GLOBAL DEFAULT 18 _ZTVN7android8security9ke
51:   FUNC GLOBAL DEFAULT 14 _ZN7android8security9keym
52:   FUNC GLOBAL DEFAULT 14 _ZN7android8security9keym
53:   FUNC GLOBAL DEFAULT 14 _ZN8keystore30readCertifi
54:   FUNC GLOBAL DEFAULT 14 _ZN7android8security9keym
55:   FUNC GLOBAL DEFAULT 14 _ZN7android8security9keym
56:   FUNC GLOBAL DEFAULT 14 _ZNK7android8security9key
57:   OBJECT GLOBAL DEFAULT 18 _ZTVN7android8security9ke
58:   FUNC GLOBAL DEFAULT 14 _ZN7android8security9keym
59:   FUNC GLOBAL DEFAULT 14 _ZNK7android8security9key
60:   OBJECT GLOBAL DEFAULT 18 _ZTVN7android8security9ke
61:   FUNC GLOBAL DEFAULT 14 _ZN7android8security9keym
62:   FUNC WEAK DEFAULT 14 _ZNK7android6Parcel14read
63:   FUNC GLOBAL DEFAULT 14 _ZN8keystore21writeParamS
64:   FUNC GLOBAL DEFAULT 14 _ZN8keystore29writeCertif
65:   FUNC GLOBAL DEFAULT 14 _ZN7android8security9keym
66:   FUNC GLOBAL DEFAULT 14 _ZN7android8security9keym
67:   FUNC GLOBAL DEFAULT 14 _ZN7android8security9keym
68:   FUNC GLOBAL DEFAULT 14 _ZN7android8security9keym
69:   FUNC GLOBAL DEFAULT 14 _ZN7android8security9keym
70:   OBJECT GLOBAL DEFAULT 18 _ZTVN7android8security9ke
71:   FUNC GLOBAL DEFAULT 14 _ZN7android8security9keym
72:   FUNC GLOBAL DEFAULT 14 _ZN7android8security9keym
73:   FUNC GLOBAL DEFAULT 14 _ZN7android8security9keym
74:   FUNC GLOBAL DEFAULT 14 _ZN7android8security9keym
75:   FUNC GLOBAL DEFAULT 14 _ZN7android8security9keym
76:   FUNC GLOBAL DEFAULT 14 _ZN7android8security9keym
77:   OBJECT GLOBAL DEFAULT 18 _ZTVN7android8security9ke
78:   OBJECT GLOBAL DEFAULT 18 _ZTVN7android8security9ke
79:   FUNC GLOBAL DEFAULT 14 _ZNK7android8security8key
80:   FUNC GLOBAL DEFAULT 14 _ZN7android8security9keym
81:   FUNC GLOBAL DEFAULT 14 _ZN7android8security9keym
82:   FUNC GLOBAL DEFAULT 14 _ZN7android8security9keym
83:   FUNC GLOBAL DEFAULT 14 _ZNK7android8security9key
84:   FUNC GLOBAL DEFAULT 14 _ZNK7android7content2pm9S
85:   FUNC GLOBAL DEFAULT 14 _ZN7android8security9keym
86:   FUNC WEAK DEFAULT 14 _ZNK7android6Parcel14read
87:   FUNC GLOBAL DEFAULT 14 _ZN7android8security9keym
88:   FUNC GLOBAL DEFAULT 14 _ZN8keystore22readParamSe
89:   FUNC GLOBAL DEFAULT 14 _ZN7android8security9keym
90:   FUNC GLOBAL DEFAULT 14 _ZN8keystore17readKeymast
91:   FUNC GLOBAL DEFAULT 14 _ZN7android8security8keys
92:   FUNC GLOBAL DEFAULT 14 _ZN7android7content2pm9Si
93:   FUNC GLOBAL DEFAULT 14 _ZN7android8security9keym
94:   FUNC GLOBAL DEFAULT 14 _ZN7android8security9keym
95:   FUNC GLOBAL DEFAULT 14 _ZN7android8security9keym
96:   FUNC GLOBAL DEFAULT 14 _ZN8keystore26readKeyPara
97:   FUNC GLOBAL DEFAULT 14 _ZN8keystore25writeKeyPar
98:   OBJECT GLOBAL DEFAULT 18 _ZTVN7android8security8ke
99:   FUNC GLOBAL DEFAULT 14 _ZN7android7content2pm9Si
100:   FUNC GLOBAL DEFAULT 14 _ZN7android8security9keym
101:   FUNC GLOBAL DEFAULT 14 _ZN8keystore18writeKeymas
102:   FUNC GLOBAL DEFAULT 14 _ZN7android8security9keym
103:   FUNC GLOBAL DEFAULT 14 _ZN7android7content2pm9Si
104:   OBJECT GLOBAL DEFAULT 18 _ZTVN7android7content2pm9
105:   FUNC GLOBAL DEFAULT 14 _ZNK7android8security9key
106:   OBJECT GLOBAL DEFAULT 18 _ZTVN7android8security9ke
