 0x000000000000000e (SONAME)             Library soname: [libmedia_jni_utils.so]
  
Symbol   contains 19 entries:
Num:   Type Bind Vis Ndx Name
0:   NOTYPE LOCAL DEFAULT UND
1:   FUNC GLOBAL DEFAULT UND __cxa_finalize@LIBC (2)
2:   FUNC GLOBAL DEFAULT UND _ZN7android13GraphicBuffe
3:   FUNC GLOBAL DEFAULT UND _ZN7android13GraphicBuffe
4:   FUNC GLOBAL DEFAULT UND _ZNK7android7RefBase9decS
5:   FUNC GLOBAL DEFAULT UND _ZNK7android7RefBase9incS
6:   FUNC GLOBAL DEFAULT UND __android_log_assert@LIBLOG (3)
7:   FUNC GLOBAL DEFAULT UND __android_log_print@LIBLOG (3)
8:   FUNC GLOBAL DEFAULT UND __stack_chk_fail@LIBC (2)
9:   FUNC GLOBAL DEFAULT 13 _ZN7android18getLockedIma
10:   FUNC GLOBAL DEFAULT 13 _ZN7android13isPossiblyYU
11:   FUNC GLOBAL DEFAULT 13 _ZN7android14getBufferWid
12:   FUNC GLOBAL DEFAULT 13 _ZN7android14isFormatOpaq
13:   FUNC GLOBAL DEFAULT 13 _ZN7android15getBufferHei
14:   FUNC GLOBAL DEFAULT 13 _ZN7android17Image_getBlo
15:   FUNC GLOBAL DEFAULT 13 _ZN7android19lockImageFro
16:   FUNC GLOBAL DEFAULT 13 _ZN7android19lockImageFro
17:   FUNC GLOBAL DEFAULT 13 _ZN7android20applyFormatO
18:   FUNC GLOBAL DEFAULT 13 _ZN7android23usingRGBAToJ
