 0x0000000e (SONAME)                     Library soname: [libartbased.so]
  
Symbol   contains 972 entries:
Num:   Type Bind Vis Ndx Name
0:   NOTYPE LOCAL DEFAULT UND
1:   FUNC GLOBAL DEFAULT UND __cxa_atexit@LIBC (3)
2:   FUNC GLOBAL DEFAULT UND __cxa_finalize@LIBC (3)
3:   FUNC GLOBAL DEFAULT UND _ZN7android4base10LogMess
4:   FUNC GLOBAL DEFAULT UND _ZN7android4base10LogMess
5:   FUNC GLOBAL DEFAULT UND _ZN7android4base10LogMess
6:   FUNC GLOBAL DEFAULT UND _ZN7android4base21GetMini
7:   FUNC GLOBAL DEFAULT UND _ZNKSt3__16locale9use_fac
8:   FUNC GLOBAL DEFAULT UND _ZNKSt3__18ios_base6getlo
9:   FUNC GLOBAL DEFAULT UND _ZNSt3__113basic_ostreamI
10:   FUNC GLOBAL DEFAULT UND _ZNSt3__113basic_ostreamI
11:   OBJECT GLOBAL DEFAULT UND _ZNSt3__15ctypeIcE2idE
12:   FUNC GLOBAL DEFAULT UND _ZNSt3__16localeD1Ev
13:   FUNC GLOBAL DEFAULT UND _ZNSt3__18ios_base5clearE
14:   FUNC GLOBAL DEFAULT UND _ZdlPv
15:   FUNC GLOBAL DEFAULT UND _Znwj
16:   FUNC GLOBAL DEFAULT UND __errno@LIBC (3)
17:   FUNC GLOBAL DEFAULT UND __stack_chk_fail@LIBC (3)
18:   OBJECT GLOBAL DEFAULT UND __stack_chk_guard@LIBC (3)
19:   FUNC GLOBAL DEFAULT UND strcmp@LIBC (3)
20:   FUNC GLOBAL DEFAULT UND strlen@LIBC (3)
21:   FUNC GLOBAL DEFAULT UND calloc@LIBC (3)
22:   FUNC GLOBAL DEFAULT UND free@LIBC (3)
23:   FUNC GLOBAL DEFAULT UND _ZNSt3__113basic_ostreamI
24:   FUNC GLOBAL DEFAULT UND _ZNSt3__113basic_ostreamI
25:   FUNC GLOBAL DEFAULT UND _ZNKSt3__121__basic_strin
26:   FUNC GLOBAL DEFAULT UND _ZNSt3__112basic_stringIc
27:   FUNC GLOBAL DEFAULT UND _ZNSt3__112basic_stringIc
28:   FUNC GLOBAL DEFAULT UND _ZNSt3__113basic_ostreamI
29:   FUNC GLOBAL DEFAULT UND _ZNSt3__113basic_ostreamI
30:   FUNC GLOBAL DEFAULT UND _ZNSt3__113basic_ostreamI
31:   FUNC GLOBAL DEFAULT UND _ZNSt3__113basic_ostreamI
32:   FUNC GLOBAL DEFAULT UND _ZNSt3__113basic_ostreamI
33:   FUNC GLOBAL DEFAULT UND _ZNSt3__113basic_ostreamI
34:   FUNC GLOBAL DEFAULT UND _ZNSt3__115basic_streambu
35:   FUNC GLOBAL DEFAULT UND _ZNSt3__115basic_streambu
36:   FUNC GLOBAL DEFAULT UND _ZNSt3__115basic_streambu
37:   FUNC GLOBAL DEFAULT UND _ZNSt3__115basic_streambu
38:   FUNC GLOBAL DEFAULT UND _ZNSt3__115basic_streambu
39:   FUNC GLOBAL DEFAULT UND _ZNSt3__115basic_streambu
40:   FUNC GLOBAL DEFAULT UND _ZNSt3__115basic_streambu
41:   FUNC GLOBAL DEFAULT UND _ZNSt3__115basic_streambu
42:   FUNC GLOBAL DEFAULT UND _ZNSt3__115basic_streambu
43:   FUNC GLOBAL DEFAULT UND _ZNSt3__18ios_base4initEP
44:   FUNC GLOBAL DEFAULT UND _ZNSt3__19basic_iosIcNS_1
45:   FUNC GLOBAL DEFAULT UND _ZTv0_n12_NSt3__113basic_
46:   FUNC GLOBAL DEFAULT UND _ZTv0_n12_NSt3__113basic_
47:   FUNC GLOBAL DEFAULT UND memcmp@LIBC (3)
48:   FUNC GLOBAL DEFAULT UND _ZNSt3__113basic_ostreamI
49:   FUNC GLOBAL DEFAULT UND _ZN7android4base12StringP
50:   FUNC GLOBAL DEFAULT UND lseek@LIBC (3)
51:   FUNC GLOBAL DEFAULT UND read@LIBC (3)
52:   FUNC GLOBAL DEFAULT UND strerror@LIBC (3)
53:   FUNC GLOBAL DEFAULT UND _ZN7android4base10StartsW
54:   FUNC GLOBAL DEFAULT UND _ZN7android4base8EndsWith
55:   FUNC GLOBAL DEFAULT UND _ZNKSt3__112basic_stringI
56:   FUNC GLOBAL DEFAULT UND _ZNKSt3__112basic_stringI
57:   FUNC GLOBAL DEFAULT UND _ZNSt3__112basic_stringIc
58:   FUNC GLOBAL DEFAULT UND _ZNSt3__112basic_stringIc
59:   FUNC GLOBAL DEFAULT UND _ZNSt3__112basic_stringIc
60:   FUNC GLOBAL DEFAULT UND _ZNSt3__112basic_stringIc
61:   FUNC GLOBAL DEFAULT UND _ZNSt3__112basic_stringIc
62:   FUNC GLOBAL DEFAULT UND _ZNSt3__112basic_stringIc
63:   FUNC GLOBAL DEFAULT UND __read_chk@LIBC (3)
64:   FUNC GLOBAL DEFAULT UND dirname@LIBC (3)
65:   FUNC GLOBAL DEFAULT UND dladdr@LIBC (4)
66:   FUNC GLOBAL DEFAULT UND fcntl@LIBC (3)
67:   FUNC GLOBAL DEFAULT UND getenv@LIBC (3)
68:   FUNC GLOBAL DEFAULT UND memchr@LIBC (3)
69:   FUNC GLOBAL DEFAULT UND mkdir@LIBC (3)
70:   FUNC GLOBAL DEFAULT UND realpath@LIBC (3)
71:   FUNC GLOBAL DEFAULT UND strdup@LIBC (3)
72:   FUNC GLOBAL DEFAULT UND _ZN7android4base10LogdLog
73:   FUNC GLOBAL DEFAULT UND _ZN7android4base10LogdLog
74:   FUNC GLOBAL DEFAULT UND _ZN7android4base11InitLog
75:   FUNC GLOBAL DEFAULT UND __android_log_write@LIBLOG (5)
76:   FUNC GLOBAL DEFAULT UND __memmove_chk@LIBC (3)
77:   FUNC GLOBAL DEFAULT UND __vsnprintf_chk@LIBC (3)
78:   FUNC GLOBAL DEFAULT UND malloc@LIBC (3)
79:   FUNC GLOBAL DEFAULT UND strrchr@LIBC (3)
80:   FUNC GLOBAL DEFAULT UND _ZNSt3__15mutex4lockEv
81:   FUNC GLOBAL DEFAULT UND _ZNSt3__15mutex6unlockEv
82:   FUNC GLOBAL DEFAULT UND _ZNSt3__15mutexD1Ev
83:   FUNC GLOBAL DEFAULT UND __cxa_guard_acquire
84:   FUNC GLOBAL DEFAULT UND __cxa_guard_release
85:   FUNC GLOBAL DEFAULT UND android_get_device_api_le@LIBC_Q (6)
86:   FUNC GLOBAL DEFAULT UND syscall@LIBC (3)
87:   FUNC GLOBAL DEFAULT UND sscanf@LIBC (3)
88:   FUNC GLOBAL DEFAULT UND uname@LIBC (3)
89:   FUNC GLOBAL DEFAULT UND _ZNSt3__112basic_stringIc
90:   FUNC WEAK DEFAULT UND android_fdsan_close_with_@LIBC_Q (6)
91:   FUNC WEAK DEFAULT UND android_fdsan_create_owne@LIBC_Q (6)
92:   FUNC GLOBAL DEFAULT UND close@LIBC (3)
93:   FUNC GLOBAL DEFAULT UND madvise@LIBC (3)
94:   FUNC GLOBAL DEFAULT UND mprotect@LIBC (3)
95:   FUNC GLOBAL DEFAULT UND mremap@LIBC (3)
96:   FUNC GLOBAL DEFAULT UND msync@LIBC (3)
97:   FUNC GLOBAL DEFAULT UND prctl@LIBC (3)
98:   FUNC GLOBAL DEFAULT UND stat@LIBC (3)
99:   FUNC GLOBAL DEFAULT UND unlink@LIBC (3)
100:   FUNC GLOBAL DEFAULT UND _ZNKSt3__120__vector_base
101:   FUNC GLOBAL DEFAULT UND abort@LIBC (3)
102:   FUNC GLOBAL DEFAULT UND getpid@LIBC (3)
103:   FUNC GLOBAL DEFAULT UND process_vm_readv@LIBC (3)
104:   FUNC GLOBAL DEFAULT UND flock@LIBC (3)
105:   FUNC GLOBAL DEFAULT UND fstat@LIBC (3)
106:   FUNC GLOBAL DEFAULT UND getpwnam@LIBC (3)
107:   FUNC GLOBAL DEFAULT UND getsockopt@LIBC (3)
108:   FUNC GLOBAL DEFAULT UND _ZNSt3__113basic_ostreamI
109:   FUNC GLOBAL DEFAULT UND clock_gettime@LIBC (3)
110:   FUNC GLOBAL DEFAULT UND localtime_r@LIBC (3)
111:   FUNC GLOBAL DEFAULT UND nanosleep@LIBC (3)
112:   FUNC GLOBAL DEFAULT UND time@LIBC (3)
113:   FUNC GLOBAL DEFAULT UND _ZNSt3__112basic_stringIc
114:   FUNC GLOBAL DEFAULT UND _ZNSt3__113basic_ostreamI
115:   FUNC GLOBAL DEFAULT UND _ZdaPv
116:   FUNC GLOBAL DEFAULT UND _Znaj
117:   FUNC GLOBAL DEFAULT UND __open_2@LIBC (3)
118:   FUNC WEAK DEFAULT UND android_fdsan_exchange_ow@LIBC_Q (6)
119:   FUNC GLOBAL DEFAULT UND fdatasync@LIBC (3)
120:   FUNC GLOBAL DEFAULT UND ftruncate64@LIBC (3)
121:   FUNC GLOBAL DEFAULT UND open@LIBC (3)
122:   FUNC GLOBAL DEFAULT UND pread@LIBC (3)
123:   FUNC GLOBAL DEFAULT UND pread64@LIBC (3)
124:   FUNC GLOBAL DEFAULT UND pwrite@LIBC (3)
125:   FUNC GLOBAL DEFAULT UND pwrite64@LIBC (3)
126:   FUNC GLOBAL DEFAULT UND sendfile@LIBC (3)
127:   FUNC GLOBAL DEFAULT UND write@LIBC (3)
128:   FUNC GLOBAL DEFAULT UND _ZN7android4base16ReadFil
129:   FUNC GLOBAL DEFAULT UND _ZNKSt3__112basic_stringI
130:   FUNC GLOBAL DEFAULT UND _ZNKSt3__121__basic_strin
131:   FUNC GLOBAL DEFAULT UND _ZNKSt3__16locale9has_fac
132:   FUNC GLOBAL DEFAULT UND _ZNSt3__113basic_istreamI
133:   FUNC GLOBAL DEFAULT UND _ZNSt3__113basic_istreamI
134:   FUNC GLOBAL DEFAULT UND _ZNSt3__113basic_istreamI
135:   FUNC GLOBAL DEFAULT UND _ZNSt3__113basic_istreamI
136:   FUNC GLOBAL DEFAULT UND _ZNSt3__16localeC1ERKS0_
137:   OBJECT GLOBAL DEFAULT UND _ZNSt3__17codecvtIcc9mbst
138:   FUNC GLOBAL DEFAULT UND _ZTv0_n12_NSt3__113basic_
139:   FUNC GLOBAL DEFAULT UND _ZTv0_n12_NSt3__113basic_
140:   FUNC GLOBAL DEFAULT UND cacheflush@LIBC (3)
141:   FUNC GLOBAL DEFAULT UND fclose@LIBC (3)
142:   FUNC GLOBAL DEFAULT UND fflush@LIBC (3)
143:   FUNC GLOBAL DEFAULT UND fopen@LIBC (3)
144:   FUNC GLOBAL DEFAULT UND fread@LIBC (3)
145:   FUNC GLOBAL DEFAULT UND fseeko@LIBC (3)
146:   FUNC GLOBAL DEFAULT UND ftello@LIBC (3)
147:   FUNC GLOBAL DEFAULT UND fwrite@LIBC (3)
148:   FUNC GLOBAL DEFAULT UND gettid@LIBC (3)
149:   FUNC GLOBAL DEFAULT UND pthread_self@LIBC (3)
150:   FUNC GLOBAL DEFAULT UND pthread_setname_np@LIBC (3)
151:   FUNC GLOBAL DEFAULT UND strncmp@LIBC (3)
152:   FUNC GLOBAL DEFAULT UND strncpy@LIBC (3)
153:   FUNC GLOBAL DEFAULT UND strtoull@LIBC (3)
154:   FUNC GLOBAL DEFAULT UND usleep@LIBC (3)
155:   FUNC GLOBAL DEFAULT UND mmap@LIBC (3)
156:   FUNC GLOBAL DEFAULT UND munmap@LIBC (3)
157:   FUNC GLOBAL DEFAULT UND ferror@LIBC (3)
158:   FUNC GLOBAL DEFAULT UND fseek@LIBC (3)
159:   FUNC GLOBAL DEFAULT UND ftell@LIBC (3)
160:   FUNC GLOBAL DEFAULT UND _ZN7android4base10MappedF
161:   FUNC GLOBAL DEFAULT UND _ZN7android4base10MappedF
162:   FUNC GLOBAL DEFAULT UND _ZN7android4base10WriteFu
163:   FUNC GLOBAL DEFAULT UND _ZN7android4base17ReadFul
164:   FUNC GLOBAL DEFAULT UND __android_log_error_write@LIBLOG_M (7)
165:   FUNC GLOBAL DEFAULT UND __android_log_print@LIBLOG (5)
166:   FUNC GLOBAL DEFAULT UND __cxa_pure_virtual
167:   FUNC GLOBAL DEFAULT UND __memcpy_chk@LIBC (3)
168:   FUNC GLOBAL DEFAULT UND fallocate64@LIBC (3)
169:   FUNC GLOBAL DEFAULT UND lseek64@LIBC (3)
170:   FUNC GLOBAL DEFAULT UND memcpy@LIBC (3)
171:   FUNC GLOBAL DEFAULT UND memmove@LIBC (3)
172:   FUNC GLOBAL DEFAULT UND memset@LIBC (3)
173:   FUNC WEAK DEFAULT UND android_set_abort_message@LIBC (3)
174:   FUNC WEAK PROTECTED 15 _ZN3art23ArenaAllocatorSt
175:   FUNC GLOBAL PROTECTED 15 _ZN3art15MallocArenaPool1
176:   FUNC GLOBAL DEFAULT 15 Ppmd7_Init
177:   FUNC GLOBAL DEFAULT 15 inflateSyncPoint
178:   FUNC GLOBAL DEFAULT 15 LzmaEnc_GetCurBuf
179:   FUNC GLOBAL DEFAULT 15 Lzma86_GetUnpackSize
180:   FUNC GLOBAL DEFAULT 15 _ZN11zip_archive7InflateE
181:   FUNC GLOBAL PROTECTED 15 _ZN3artlsERNSt3__113basic
182:   FUNC GLOBAL PROTECTED 15 _ZN3art2OS18OpenFileForRe
183:   FUNC GLOBAL PROTECTED 15 _ZN3art19SocketPeerIsTrus
184:   FUNC GLOBAL DEFAULT 15 LZ4_compress_HC_destSize
185:   FUNC GLOBAL DEFAULT 15 LookInStream_SeekTo
186:   FUNC GLOBAL DEFAULT 15 FileSeqInStream_CreateVTa
187:   FUNC GLOBAL DEFAULT 15 _Z18ExtractEntryToFileP10
188:   FUNC GLOBAL DEFAULT 15 Xzs_GetNumBlocks
189:   FUNC GLOBAL DEFAULT 15 LzmaEnc_MemEncode
190:   FUNC GLOBAL DEFAULT 15 crc32_z
191:   FUNC GLOBAL PROTECTED 15 _ZN3art17ReadMagicAndRese
192:   FUNC GLOBAL PROTECTED 15 _ZN3art10GetCmdLineEv
193:   FUNC GLOBAL PROTECTED 15 _ZN3art26ProgramInvocatio
194:   FUNC WEAK PROTECTED 15 _ZNSt3__127__tree_balance
195:   FUNC GLOBAL PROTECTED 15 _ZN3art10ZipArchive10Open
196:   FUNC GLOBAL DEFAULT 15 LZ4F_compressBegin
197:   FUNC GLOBAL DEFAULT 15 CrcUpdateT1
198:   OBJECT GLOBAL DEFAULT 24 g_AesCtr_Code
199:   FUNC GLOBAL DEFAULT 15 inflateValidate
200:   OBJECT WEAK PROTECTED 19 _ZTVN3art5ArenaE
201:   FUNC GLOBAL PROTECTED 15 _ZN3art22GetDalvikCacheFi
202:   FUNC WEAK PROTECTED 15 _ZN9unix_file6FdFile17Wri
203:   FUNC GLOBAL DEFAULT 15 HeapSort64
204:   FUNC GLOBAL PROTECTED 15 _ZN3art6MemMapD2Ev
205:   FUNC GLOBAL DEFAULT 15 _Z9FindEntryP10ZipArchive
206:   FUNC GLOBAL DEFAULT 15 CrcUpdateT4
207:   OBJECT WEAK DEFAULT 19 _ZTVNSt3__115basic_string
208:   FUNC GLOBAL DEFAULT 15 inflateSync
209:   FUNC GLOBAL PROTECTED 15 _ZN3art10LockedFile11Rele
210:   FUNC GLOBAL DEFAULT 15 Sha256_Init
211:   FUNC GLOBAL PROTECTED 15 _ZN3art11MallocArenaD2Ev
212:   FUNC GLOBAL PROTECTED 15 _ZN3art15MallocArenaPool1
213:   FUNC GLOBAL PROTECTED 15 _ZN3art6MemMap11MapIntern
214:   FUNC GLOBAL DEFAULT 15 LZ4_compress_destSize
215:   FUNC GLOBAL PROTECTED 15 _ZN9unix_file6FdFileC2EiR
216:   OBJECT WEAK DEFAULT 19 _ZTCNSt3__114basic_ifstre
217:   FUNC GLOBAL DEFAULT 15 LZ4_sizeofState
218:   FUNC GLOBAL DEFAULT 15 LZ4_loadDictHC
219:   FUNC GLOBAL DEFAULT 15 LZ4F_compressFrame
220:   FUNC GLOBAL DEFAULT 15 LZ4F_createDecompressionC
221:   FUNC GLOBAL DEFAULT 15 XXH64_hashFromCanonical
222:   FUNC GLOBAL DEFAULT 15 SzAllocTemp
223:   FUNC GLOBAL DEFAULT 15 CrcUpdateT8
224:   FUNC GLOBAL DEFAULT 15 LzmaEnc_Init
225:   FUNC GLOBAL DEFAULT 15 Xz_GetUnpackSize
226:   FUNC GLOBAL PROTECTED 15 _ZN3art9Allocator18GetMal
227:   FUNC GLOBAL PROTECTED 15 _ZN3art10LockedFile4OpenE
228:   FUNC WEAK PROTECTED 15 _ZNSt3__113basic_filebufI
229:   FUNC GLOBAL DEFAULT 15 LZ4_sizeofStateHC
230:   FUNC GLOBAL DEFAULT 15 LookInStream_Read
231:   FUNC GLOBAL DEFAULT 15 LzmaEnc_RestoreState
232:   FUNC GLOBAL DEFAULT 15 HeapSort
233:   FUNC GLOBAL PROTECTED 15 _ZN9unix_file6FdFileC2EOS
234:   FUNC GLOBAL DEFAULT 15 Bcj2Dec_Init
235:   FUNC GLOBAL DEFAULT 15 Ppmd7_Alloc
236:   FUNC GLOBAL DEFAULT 15 File_Write
237:   FUNC GLOBAL DEFAULT 15 SeqInStream_ReadByte
238:   FUNC GLOBAL PROTECTED 15 _ZN3art10ArenaStackC2EPNS
239:   FUNC GLOBAL PROTECTED 15 _ZN9unix_file6FdFile5Rese
240:   FUNC GLOBAL PROTECTED 15 _ZN3art24ArenaAllocatorMe
241:   FUNC GLOBAL DEFAULT 15 LzmaDec_Free
242:   FUNC GLOBAL PROTECTED 15 _ZN3art6MemMap22MadviseDo
243:   FUNC GLOBAL DEFAULT 15 LZ4_resetStream
244:   FUNC GLOBAL DEFAULT 15 LZ4F_getFrameInfo
245:   FUNC GLOBAL PROTECTED 15 _ZN3art6MemMap7SetSizeEj
246:   FUNC GLOBAL PROTECTED 15 _ZN3art6MemMap9HasMemMapE
247:   FUNC GLOBAL DEFAULT 15 LZ4F_getErrorCode
248:   FUNC GLOBAL DEFAULT 15 Xz_ParseHeader
249:   FUNC GLOBAL DEFAULT 15 Xz_ReadVarInt
250:   FUNC GLOBAL DEFAULT 15 zlibVersion
251:   FUNC GLOBAL PROTECTED 15 _ZN3art14ArenaAllocatorD2
252:   FUNC GLOBAL DEFAULT 15 LZ4_freeStreamDecode
253:   FUNC GLOBAL DEFAULT 15 crc32
254:   FUNC GLOBAL PROTECTED 15 _ZN3artlsERNSt3__113basic
255:   FUNC GLOBAL PROTECTED 15 _ZN3art11MallocArenaD0Ev
256:   FUNC GLOBAL PROTECTED 15 _ZN3art9BitVectorC2EjbPNS
257:   OBJECT WEAK DEFAULT 19 _ZTTNSt3__114basic_ifstre
258:   FUNC GLOBAL DEFAULT 15 LZ4_freeStream
259:   FUNC GLOBAL DEFAULT 15 SzArEx_Open
260:   FUNC GLOBAL DEFAULT 15 MatchFinder_Construct
261:   FUNC GLOBAL PROTECTED 15 _ZN3art9BitVectorC2EbPNS_
262:   FUNC GLOBAL PROTECTED 15 _ZN3art6MemMap16MapFileAt
263:   FUNC GLOBAL DEFAULT 15 LZ4_uncompress_unknownOut
264:   FUNC GLOBAL DEFAULT 15 LzmaEnc_MemPrepare
265:   FUNC GLOBAL DEFAULT 15 __udivsi3
266:   OBJECT GLOBAL PROTECTED 19 _ZTVN3art9BitVectorE
267:   FUNC GLOBAL PROTECTED 15 _ZN3art17ThreadCpuNanoTim
268:   FUNC GLOBAL PROTECTED 15 _ZN9unix_file6FdFile12Cle
269:   FUNC GLOBAL DEFAULT 15 _ZN10ZipArchiveC2Eib
270:   FUNC WEAK PROTECTED 15 _ZNSt3__16__treeINS_12__v
271:   FUNC GLOBAL PROTECTED 15 _ZN3art6MemMap11ReplaceWi
272:   FUNC GLOBAL PROTECTED 15 _ZN9unix_file6FdFile11Res
273:   FUNC GLOBAL PROTECTED 15 _ZNK3art14ArenaAllocator8
274:   FUNC GLOBAL PROTECTED 15 _ZN3art27GetDefaultBootIm
275:   FUNC GLOBAL DEFAULT 15 LZ4_compress_fast_extStat
276:   FUNC GLOBAL DEFAULT 15 LzmaEnc_Destruct
277:   FUNC GLOBAL PROTECTED 15 _ZNK3art9BitVector10DumpH
278:   FUNC WEAK PROTECTED 15 _ZNKSt3__110__function6__
279:   FUNC GLOBAL PROTECTED 15 _ZN3art6MemMap14DumpMapsL
280:   FUNC GLOBAL PROTECTED 15 _ZN9unix_file6FdFileC2EiR
281:   FUNC GLOBAL DEFAULT 15 LZ4_decoderRingBufferSize
282:   FUNC GLOBAL DEFAULT 15 LZ4_sizeofStreamState
283:   FUNC GLOBAL DEFAULT 15 XXH64
284:   FUNC GLOBAL PROTECTED 15 _ZN3art9BitVector5UnionEP
285:   FUNC GLOBAL DEFAULT 15 adler32_combine64
286:   FUNC GLOBAL DEFAULT 15 crc32_combine
287:   OBJECT GLOBAL DEFAULT 19 z_errmsg
288:   FUNC GLOBAL PROTECTED 15 _ZN3art14PrettyDurationEy
289:   OBJECT WEAK DEFAULT 19 _ZTVNSt3__113basic_filebu
290:   FUNC GLOBAL DEFAULT 15 Lzma2Enc_SetDataSize
291:   FUNC GLOBAL DEFAULT 15 inflate_fast
292:   FUNC GLOBAL DEFAULT 15 zError
293:   FUNC GLOBAL PROTECTED 15 _ZN3art9BitVectorD1Ev
294:   FUNC GLOBAL PROTECTED 15 _ZN3art15MallocArenaPoolC
295:   FUNC GLOBAL PROTECTED 15 _ZN3art20ScopedArenaAlloc
296:   FUNC GLOBAL DEFAULT 15 _Z13OpenArchiveFdiPKcPP10
297:   FUNC GLOBAL DEFAULT 15 LZ4_compress_limitedOutpu
298:   FUNC GLOBAL DEFAULT 15 LZ4_compressHC
299:   FUNC GLOBAL PROTECTED 15 _ZN9unix_file6FdFile10Wri
300:   FUNC WEAK PROTECTED 15 _ZNSt3__113basic_filebufI
301:   FUNC GLOBAL PROTECTED 15 _ZN3art8ZipEntry8GetCrc32
302:   FUNC GLOBAL DEFAULT 15 LZ4_versionNumber
303:   FUNC GLOBAL DEFAULT 15 LZ4_compressHC_limitedOut
304:   FUNC GLOBAL DEFAULT 15 LZ4_createStreamHC
305:   FUNC GLOBAL DEFAULT 15 LZ4_decompress_fast_conti
306:   FUNC GLOBAL DEFAULT 15 File_Close
307:   FUNC GLOBAL DEFAULT 15 LzmaCompress
308:   FUNC GLOBAL PROTECTED 15 _ZN3art17TrackedAllocator
309:   FUNC GLOBAL PROTECTED 15 _ZN3art10DupCloexecEi
310:   FUNC WEAK PROTECTED 15 _ZNSt3__113__tree_removeI
311:   FUNC GLOBAL DEFAULT 15 Xz_Encode
312:   FUNC GLOBAL PROTECTED 15 _ZN3art22GetSystemImageFi
313:   FUNC GLOBAL DEFAULT 15 SzBitUi32s_Free
314:   FUNC GLOBAL DEFAULT 15 XzUnpacker_Free
315:   FUNC GLOBAL DEFAULT 15 LZ4_favorDecompressionSpe
316:   FUNC GLOBAL PROTECTED 15 _ZN3art23instruction_set_
317:   FUNC GLOBAL PROTECTED 15 _ZN3art6MemMap12MapAnonym
318:   FUNC GLOBAL PROTECTED 15 _ZN9unix_file6FdFileC2Eib
319:   FUNC GLOBAL DEFAULT 15 LzmaDec_DecodeToDic
320:   FUNC GLOBAL DEFAULT 15 zcalloc
321:   OBJECT WEAK PROTECTED 19 _ZTVN3art23ArenaBitVector
322:   FUNC GLOBAL PROTECTED 15 _ZN3art14GetAndroidDataEv
323:   FUNC GLOBAL PROTECTED 15 _ZN3art6MemMap11TryReadab
324:   FUNC GLOBAL DEFAULT 15 _ZN9ZipStringC1EPKc
325:   FUNC GLOBAL DEFAULT 15 __aeabi_memset
326:   FUNC WEAK PROTECTED 15 _ZNSt3__16vectorINS_12bas
327:   FUNC GLOBAL DEFAULT 15 LzmaProps_Decode
328:   FUNC GLOBAL DEFAULT 15 __aeabi_memset4
329:   OBJECT GLOBAL PROTECTED 19 _ZTVN3art11MallocArenaE
330:   FUNC GLOBAL PROTECTED 15 _ZN3art6MemMap12SetDebugN
331:   FUNC GLOBAL PROTECTED 15 _ZN9unix_file6FdFileD2Ev
332:   FUNC GLOBAL PROTECTED 15 _ZN9unix_file6FdFileC1EiR
333:   FUNC GLOBAL PROTECTED 15 _ZN9unix_file8CopyFileERK
334:   FUNC WEAK PROTECTED 15 _ZNSt3__113basic_filebufI
335:   OBJECT GLOBAL DEFAULT 24 g_AesCbc_Encode
336:   FUNC GLOBAL DEFAULT 15 _ZN10ZipArchiveD2Ev
337:   OBJECT GLOBAL PROTECTED 19 _ZTVN3art15MallocArenaPoo
338:   FUNC WEAK PROTECTED 15 _ZNSt3__113basic_filebufI
339:   FUNC GLOBAL DEFAULT 15 Ppmd7z_RangeEnc_FlushData
340:   FUNC GLOBAL DEFAULT 15 _ZN11zip_archive6ReaderD1
341:   FUNC GLOBAL PROTECTED 15 _ZN3art26GetInstructionSe
342:   FUNC GLOBAL PROTECTED 15 _ZN3art24ArenaAllocatorMe
343:   FUNC GLOBAL PROTECTED 15 _ZN3art14ArenaBitVectorC2
344:   FUNC GLOBAL PROTECTED 15 _ZN3art25LocationIsOnRunt
345:   FUNC GLOBAL PROTECTED 15 _ZNK9unix_file6FdFile8IsO
346:   FUNC GLOBAL PROTECTED 15 _ZN3art15MallocArenaPoolD
347:   FUNC GLOBAL PROTECTED 15 _ZN3art6MemMap12TargetMUn
348:   FUNC GLOBAL PROTECTED 15 _ZNK9unix_file6FdFile9Get
349:   FUNC WEAK PROTECTED 15 _ZNSt3__113basic_filebufI
350:   FUNC GLOBAL DEFAULT 15 LZ4_compressHC2_limitedOu
351:   FUNC GLOBAL DEFAULT 15 LZ4_slideInputBufferHC
352:   FUNC GLOBAL DEFAULT 15 XzCheck_Update
353:   FUNC WEAK PROTECTED 15 _ZN3art23ArenaAllocatorSt
354:   FUNC GLOBAL PROTECTED 15 _ZNK3art9BitVector4DumpER
355:   FUNC GLOBAL PROTECTED 15 _ZN3art6MemMap4swapERS0_
356:   FUNC GLOBAL DEFAULT 15 LZ4_compress_withState
357:   FUNC GLOBAL DEFAULT 15 XzUnpacker_PrepareToRando
358:   FUNC GLOBAL DEFAULT 15 __aeabi_uidivmod
359:   FUNC GLOBAL DEFAULT 15 __aeabi_memset8
360:   FUNC GLOBAL DEFAULT 15 LZ4_compressHC2_limitedOu
361:   FUNC GLOBAL DEFAULT 15 LZ4_createHC
362:   FUNC GLOBAL DEFAULT 15 SzAlloc
363:   FUNC GLOBAL DEFAULT 15 Buf_Free
364:   FUNC GLOBAL DEFAULT 15 SzArEx_GetFileNameUtf16
365:   FUNC GLOBAL DEFAULT 15 XzUnpacker_CodeFull
366:   FUNC GLOBAL DEFAULT 15 Xz_ReadHeader
367:   FUNC GLOBAL DEFAULT 15 _ZNK13MappedZipFile17GetF
368:   FUNC GLOBAL DEFAULT 15 inflateSetDictionary
369:   FUNC GLOBAL DEFAULT 15 LZ4_compressHC2_limitedOu
370:   FUNC GLOBAL DEFAULT 15 GetMatchesSpec1
371:   FUNC GLOBAL DEFAULT 15 Ppmd7_Update1_0
372:   FUNC GLOBAL DEFAULT 15 Ppmd7_UpdateBin
373:   FUNC GLOBAL DEFAULT 15 inflateGetHeader
374:   FUNC GLOBAL PROTECTED 15 _ZN9unix_file6FdFile6move
375:   FUNC GLOBAL DEFAULT 15 _Z15ExtractToMemoryP10Zip
376:   FUNC GLOBAL PROTECTED 15 _ZN3art10ZipArchiveD2Ev
377:   FUNC GLOBAL DEFAULT 15 Bcj2Dec_Decode
378:   OBJECT GLOBAL PROTECTED 24 _ZN3art9gAbortingE
379:   FUNC GLOBAL PROTECTED 15 _ZNK3art10ArenaStack12Get
380:   FUNC GLOBAL PROTECTED 15 _ZNK3art10ZipArchive4Find
381:   FUNC GLOBAL DEFAULT 15 LZ4_decompress_safe
382:   OBJECT GLOBAL PROTECTED 24 _ZN3art17TrackedAllocator
383:   FUNC GLOBAL PROTECTED 15 _ZN9unix_file6FdFile5Writ
384:   FUNC GLOBAL DEFAULT 15 _Z12CloseArchiveP10ZipArc
385:   FUNC GLOBAL DEFAULT 15 LZ4_compress_forceExtDict
386:   FUNC GLOBAL PROTECTED 15 _ZN3art14ArenaAllocator31
387:   FUNC GLOBAL PROTECTED 15 _ZN3art9BitVector10Ensure
388:   FUNC GLOBAL PROTECTED 15 _ZNK9unix_file6FdFile10Ch
389:   FUNC GLOBAL PROTECTED 15 _ZN3art8ZipEntry19MapDire
390:   FUNC GLOBAL DEFAULT 15 XXH32_reset
391:   FUNC GLOBAL DEFAULT 15 LzmaDec_DecodeToBuf
392:   FUNC GLOBAL DEFAULT 15 Crc64GenerateTable
393:   FUNC GLOBAL DEFAULT 15 inflateReset2
394:   FUNC GLOBAL PROTECTED 15 _ZN9unix_file6FdFile11Pwr
395:   OBJECT GLOBAL DEFAULT 24 g_CrcUpdate
396:   FUNC GLOBAL DEFAULT 15 Crc64Update
397:   FUNC GLOBAL DEFAULT 15 XzCheck_Final
398:   FUNC GLOBAL DEFAULT 15 __udivmoddi4
399:   FUNC GLOBAL PROTECTED 15 _ZN3art19InstructionSetAb
400:   FUNC GLOBAL PROTECTED 15 _ZN3art6MemMap15CheckMapR
401:   FUNC GLOBAL PROTECTED 15 _ZN9unix_file6FdFileD0Ev
402:   FUNC GLOBAL PROTECTED 15 _ZN3art13SetThreadNameEPK
403:   FUNC GLOBAL DEFAULT 15 SzArEx_Extract
404:   FUNC GLOBAL PROTECTED 15 _ZN3art5ArenaC2Ev
405:   FUNC GLOBAL PROTECTED 15 _ZN3art15MallocArenaPoolD
406:   FUNC GLOBAL PROTECTED 15 _ZN3art10LockedFile5DupOf
407:   FUNC GLOBAL PROTECTED 15 _ZN3art10GetIsoDateEv
408:   FUNC GLOBAL DEFAULT 15 SzGetNextFolderItem
409:   FUNC GLOBAL DEFAULT 15 Xz_GetPackSize
410:   FUNC GLOBAL DEFAULT 15 get_crc_table
411:   FUNC GLOBAL PROTECTED 15 _ZN3art10ArenaStack5Reset
412:   FUNC GLOBAL DEFAULT 15 XXH64_freeState
413:   FUNC GLOBAL DEFAULT 15 LookInStream_LookRead
414:   FUNC GLOBAL DEFAULT 15 LookToRead2_CreateVTable
415:   FUNC GLOBAL DEFAULT 15 AesGenTables
416:   FUNC GLOBAL DEFAULT 15 LZ4F_isError
417:   FUNC GLOBAL PROTECTED 15 _ZNK3art7HexDump4DumpERNS
418:   FUNC GLOBAL PROTECTED 15 _ZN3art2OS17OpenFileReadW
419:   FUNC GLOBAL DEFAULT 15 LZ4F_compressBound
420:   FUNC GLOBAL DEFAULT 15 __aeabi_uidiv
421:   FUNC GLOBAL PROTECTED 15 _ZN3art2OS10FileExistsEPK
422:   FUNC GLOBAL PROTECTED 15 _ZN9unix_file6FdFileC1ERK
423:   FUNC GLOBAL PROTECTED 15 _ZN3art20ScopedArenaAlloc
424:   FUNC GLOBAL DEFAULT 15 MatchFinder_GetNumAvailab
425:   FUNC GLOBAL DEFAULT 15 LzmaEncode
426:   OBJECT WEAK DEFAULT 19 _ZTV12MemoryWriter
427:   FUNC GLOBAL DEFAULT 15 adler32
428:   FUNC WEAK PROTECTED 15 _ZNK3art23ArenaAllocatorS
429:   FUNC GLOBAL PROTECTED 15 _ZNK3art9BitVector16GetHi
430:   FUNC GLOBAL PROTECTED 15 _ZN3art9LogHelper15LogLin
431:   FUNC GLOBAL PROTECTED 15 _ZN3art6MemMap10TargetMMa
432:   FUNC GLOBAL DEFAULT 15 AesCtr_Code_Intel
433:   FUNC GLOBAL DEFAULT 15 Lzma2Dec_Parse
434:   FUNC GLOBAL DEFAULT 15 XzCheck_Init
435:   OBJECT WEAK DEFAULT 19 _ZTV10FileWriter
436:   FUNC GLOBAL PROTECTED 15 _ZNK9unix_file6FdFile2FdE
437:   FUNC GLOBAL PROTECTED 15 _ZN3art18ProcessCpuNanoTi
438:   FUNC GLOBAL DEFAULT 15 LZ4_saveDict
439:   FUNC GLOBAL DEFAULT 15 LZ4_resetStreamHC
440:   FUNC GLOBAL DEFAULT 15 XzBlock_Parse
441:   FUNC GLOBAL DEFAULT 15 adler32_combine
442:   FUNC WEAK PROTECTED 15 _ZN3art23ArenaAllocatorSt
443:   FUNC GLOBAL PROTECTED 15 _ZN3art8MemStatsC1EPKcPKN
444:   FUNC WEAK PROTECTED 15 _ZNSt3__110__function6__f
445:   FUNC GLOBAL PROTECTED 15 _ZN3art24RegisterRuntimeD
446:   FUNC GLOBAL DEFAULT 15 LZ4F_compressEnd
447:   FUNC GLOBAL DEFAULT 15 LzmaEnc_Encode
448:   FUNC GLOBAL DEFAULT 15 crc32_combine64
449:   FUNC GLOBAL PROTECTED 15 _ZN3art8SafeCopyEPvPKvj
450:   FUNC GLOBAL PROTECTED 15 _ZN3art10ArenaStack20Upda
451:   FUNC GLOBAL DEFAULT 15 LzmaDec_AllocateProbs
452:   FUNC GLOBAL DEFAULT 15 SecToRead_CreateVTable
453:   FUNC GLOBAL DEFAULT 15 Bt3Zip_MatchFinder_GetMat
454:   FUNC GLOBAL DEFAULT 15 LzmaEnc_PrepareForLzma2
455:   FUNC GLOBAL PROTECTED 15 _ZN3art8MemStatsC2EPKcPKN
456:   FUNC WEAK PROTECTED 15 _ZNSt3__16__treeINS_12__v
457:   FUNC GLOBAL DEFAULT 15 Lzma2Dec_Init
458:   OBJECT GLOBAL DEFAULT 24 g_AesCbc_Decode
459:   FUNC GLOBAL PROTECTED 15 _ZN3art14GetDalvikCacheEP
460:   FUNC GLOBAL PROTECTED 15 _ZN3art27LocationIsOnCons
461:   FUNC GLOBAL PROTECTED 15 _ZN3art15MallocArenaPool1
462:   FUNC GLOBAL PROTECTED 15 _ZN3art10ArenaStack19Allo
463:   FUNC GLOBAL DEFAULT 15 Lzma86_Encode
464:   FUNC GLOBAL DEFAULT 15 SzArEx_Init
465:   FUNC GLOBAL DEFAULT 15 MatchFinder_Init
466:   FUNC GLOBAL DEFAULT 15 Lzma2EncProps_Normalize
467:   FUNC GLOBAL DEFAULT 15 LzmaEnc_SetProps
468:   FUNC GLOBAL DEFAULT 15 Sha256_Final
469:   FUNC GLOBAL DEFAULT 15 XzDecMt_Decode
470:   FUNC GLOBAL PROTECTED 15 _ZN3art10ZipArchive4OpenE
471:   FUNC GLOBAL DEFAULT 15 DynBuf_Construct
472:   FUNC GLOBAL PROTECTED 15 _ZN3art14ArenaAllocatorC1
473:   FUNC GLOBAL PROTECTED 15 _ZN3art6MemMap26Contained
474:   FUNC WEAK PROTECTED 15 _ZNSt3__16vectorIPbNS_9al
475:   FUNC GLOBAL PROTECTED 15 _ZN3art14FormatDurationEy
476:   FUNC GLOBAL PROTECTED 15 _ZN9unix_file6FdFile7Dest
477:   FUNC GLOBAL DEFAULT 15 LZ4_resetStream_fast
478:   OBJECT GLOBAL DEFAULT 19 _ZTVN11zip_archive6Writer
479:   FUNC GLOBAL DEFAULT 15 __udivmodsi4
480:   FUNC GLOBAL PROTECTED 15 _ZN3art9BitVector12UnionI
481:   FUNC GLOBAL PROTECTED 15 _ZN9unix_file6FdFile5Eras
482:   FUNC GLOBAL DEFAULT 15 Lzma2Dec_DecodeToDic
483:   FUNC GLOBAL DEFAULT 15 MatchFinder_Normalize3
484:   FUNC GLOBAL DEFAULT 15 LzmaEnc_Destroy
485:   FUNC GLOBAL PROTECTED 15 _ZN3art14ArenaBitVectorC2
486:   FUNC GLOBAL DEFAULT 15 Lzma2Dec_AllocateProbs
487:   FUNC GLOBAL DEFAULT 15 MatchFinder_ReduceOffsets
488:   FUNC GLOBAL DEFAULT 15 inflateCopy
489:   FUNC GLOBAL PROTECTED 15 _ZN3art14ArenaAllocator20
490:   FUNC GLOBAL DEFAULT 15 __aeabi_uldivmod
491:   FUNC GLOBAL DEFAULT 15 XzFlags_GetCheckSize
492:   FUNC GLOBAL DEFAULT 15 zlibCompileFlags
493:   FUNC GLOBAL PROTECTED 15 _ZN3art20ScopedArenaAlloc
494:   FUNC GLOBAL PROTECTED 15 _ZN9unix_file6FdFile10Flu
495:   FUNC GLOBAL PROTECTED 15 _ZN3art8ZipEntryD1Ev
496:   FUNC GLOBAL DEFAULT 15 LZ4_loadDict
497:   FUNC GLOBAL DEFAULT 15 LZ4_compress_fast
498:   FUNC GLOBAL PROTECTED 15 _ZN3art12memfd_createEPKc
499:   FUNC GLOBAL DEFAULT 15 LZ4F_compressFrame_usingC
500:   FUNC GLOBAL DEFAULT 15 Ppmd7_Free
501:   FUNC GLOBAL DEFAULT 15 XzBlock_ReadHeader
502:   FUNC GLOBAL DEFAULT 15 _ZN10ZipArchiveC1EPvj
503:   FUNC GLOBAL PROTECTED 15 _ZN3art6MemMap11CheckNoGa
504:   FUNC GLOBAL DEFAULT 15 XXH32_freeState
505:   OBJECT WEAK DEFAULT 19 _ZTV13ProcessWriter
506:   FUNC GLOBAL PROTECTED 15 _ZN3art6MemMapC1EOS0_
507:   FUNC GLOBAL DEFAULT 15 LZ4F_decompress
508:   FUNC GLOBAL PROTECTED 15 _ZN3art9BitVectorC1ERKS0_
509:   FUNC WEAK PROTECTED 15 _ZNSt3__110__function6__f
510:   FUNC GLOBAL DEFAULT 15 MatchFinder_GetPointerToC
511:   FUNC GLOBAL DEFAULT 15 MatchFinder_Init_3
512:   FUNC GLOBAL DEFAULT 15 _ZNK13MappedZipFile12Read
513:   FUNC GLOBAL PROTECTED 15 _ZN3art11MallocArenaC2Ej
514:   FUNC GLOBAL PROTECTED 15 _ZN9unix_file6FdFile4Open
515:   FUNC GLOBAL DEFAULT 15 Buf_Create
516:   FUNC GLOBAL PROTECTED 15 _ZN3art6MemMap18TakeReser
517:   FUNC GLOBAL DEFAULT 15 AlignOffsetAlloc_CreateVT
518:   FUNC GLOBAL DEFAULT 15 Lzma2Dec_DecodeToBuf
519:   FUNC GLOBAL DEFAULT 15 XzCrc64UpdateT4
520:   OBJECT WEAK PROTECTED 13 _ZN3art9hiddenapi7ApiList
521:   FUNC GLOBAL DEFAULT 15 LZ4_setStreamDecode
522:   FUNC GLOBAL DEFAULT 15 LZ4_resetStreamHC_fast
523:   FUNC GLOBAL DEFAULT 15 LzmaDecode
524:   FUNC GLOBAL PROTECTED 15 _ZN3art24ArenaAllocatorMe
525:   FUNC WEAK PROTECTED 15 _ZNSt3__110__function6__f
526:   FUNC WEAK PROTECTED 15 _ZNSt3__113basic_filebufI
527:   FUNC GLOBAL DEFAULT 15 _ZN11zip_archive6WriterD2
528:   OBJECT GLOBAL DEFAULT 13 inflate_copyright
529:   FUNC GLOBAL PROTECTED 15 _ZN3art14ArenaAllocator26
530:   FUNC GLOBAL PROTECTED 15 _ZN3art6MemMap10Invalidat
531:   FUNC GLOBAL PROTECTED 15 _ZN3art20ScopedArenaAlloc
532:   FUNC GLOBAL PROTECTED 15 _ZN3art8NanoTimeEv
533:   FUNC WEAK PROTECTED 15 _ZNSt3__113basic_filebufI
534:   FUNC GLOBAL DEFAULT 15 XXH32_createState
535:   FUNC GLOBAL DEFAULT 15 AesCbc_Encode_Intel
536:   OBJECT GLOBAL PROTECTED 24 _ZN3art17TrackedAllocator
537:   FUNC WEAK PROTECTED 15 _ZNKSt3__110__function6__
538:   FUNC GLOBAL DEFAULT 15 DynBuf_SeekToBeg
539:   FUNC GLOBAL PROTECTED 15 _ZN3art16ReadFileToString
540:   FUNC GLOBAL PROTECTED 15 _ZN9unix_file6FdFile9SetL
541:   FUNC GLOBAL DEFAULT 15 AesCbc_Encode
542:   FUNC GLOBAL DEFAULT 15 zcfree
543:   FUNC GLOBAL DEFAULT 15 LZ4F_compressBegin_usingC
544:   FUNC GLOBAL DEFAULT 15 LZ4F_getErrorName
545:   FUNC GLOBAL DEFAULT 15 XXH32_hashFromCanonical
546:   FUNC GLOBAL PROTECTED 15 _ZN3art10IsZipMagicEj
547:   FUNC GLOBAL PROTECTED 15 _ZN9unix_file6FdFileaSEOS
548:   FUNC GLOBAL PROTECTED 15 _ZN3art14FlushCpuCachesEP
549:   FUNC GLOBAL DEFAULT 15 LZ4_setCompressionLevel
550:   FUNC GLOBAL DEFAULT 15 Lzma86_Decode
551:   FUNC GLOBAL DEFAULT 15 __divdi3
552:   FUNC GLOBAL PROTECTED 15 _ZN3art10ArenaStackC1EPNS
553:   FUNC GLOBAL PROTECTED 15 _ZN3art12InitTimeSpecEbix
554:   FUNC GLOBAL DEFAULT 15 LZ4_compress
555:   FUNC GLOBAL DEFAULT 15 LZ4F_decompress_usingDict
556:   FUNC GLOBAL DEFAULT 15 XXH64_canonicalFromHash
557:   FUNC GLOBAL PROTECTED 15 _ZN3art6MemMap11SwapMembe
558:   FUNC GLOBAL PROTECTED 15 _ZN3art6MemMap14TargetMMa
559:   FUNC GLOBAL DEFAULT 15 AesCtr_Code
560:   FUNC GLOBAL DEFAULT 15 LzmaEnc_CodeOneMemBlock
561:   OBJECT GLOBAL PROTECTED 19 _ZTVN9unix_file6FdFileE
562:   FUNC GLOBAL PROTECTED 15 _ZN3art27SetRuntimeDebugF
563:   FUNC GLOBAL DEFAULT 15 LZ4_attach_dictionary
564:   FUNC GLOBAL DEFAULT 15 IA64_Convert
565:   FUNC GLOBAL DEFAULT 15 File_Construct
566:   FUNC GLOBAL PROTECTED 15 _ZN3art16GetProcessStatus
567:   FUNC GLOBAL DEFAULT 15 LookInStream_Read2
568:   FUNC GLOBAL PROTECTED 15 _ZN3art2OS17OpenFileWithF
569:   FUNC GLOBAL DEFAULT 15 LZ4F_compressionLevel_max
570:   FUNC GLOBAL DEFAULT 15 XXH64_update
571:   FUNC GLOBAL DEFAULT 15 _ZN11zip_archive6WriterD0
572:   OBJECT GLOBAL PROTECTED 24 _ZN3art17TrackedAllocator
573:   FUNC GLOBAL DEFAULT 15 LzmaEnc_InitPrices
574:   FUNC GLOBAL PROTECTED 15 _ZN3art14ArenaBitVectorC1
575:   FUNC GLOBAL DEFAULT 15 inflateCodesUsed
576:   OBJECT WEAK PROTECTED 19 _ZTVN3art13NoopAllocatorE
577:   FUNC GLOBAL DEFAULT 15 LzmaEncProps_GetDictSize
578:   FUNC GLOBAL DEFAULT 15 Xz_Construct
579:   FUNC GLOBAL DEFAULT 15 XzEnc_SetDataSize
580:   FUNC GLOBAL DEFAULT 15 XzProps_Init
581:   FUNC GLOBAL DEFAULT 15 _ZN16CentralDirectory10In
582:   FUNC GLOBAL PROTECTED 15 _ZN3art23GetInstructionSe
583:   FUNC GLOBAL DEFAULT 15 __aeabi_memcpy
584:   FUNC GLOBAL PROTECTED 15 _ZN9unix_file6FdFileC1EiR
585:   FUNC GLOBAL DEFAULT 15 FileOutStream_CreateVTabl
586:   OBJECT GLOBAL PROTECTED 24 _ZN3art13gLogVerbosityE
587:   FUNC GLOBAL PROTECTED 15 _ZN3art6MemMap7ProtectEi
588:   FUNC WEAK PROTECTED 15 _ZNSt3__16__treeINS_12__v
589:   FUNC GLOBAL PROTECTED 15 _ZN3art9MilliTimeEv
590:   FUNC GLOBAL DEFAULT 15 __aeabi_ldivmod
591:   FUNC GLOBAL DEFAULT 15 LZ4_create
592:   FUNC GLOBAL DEFAULT 15 CrcCalc
593:   FUNC GLOBAL DEFAULT 15 SecToLook_CreateVTable
594:   FUNC GLOBAL PROTECTED 15 _ZN3art16LocationIsOnApex
595:   FUNC GLOBAL PROTECTED 15 _ZN3art18LocationIsOnSyst
596:   FUNC GLOBAL PROTECTED 15 _ZNK3art8ZipEntry11IsAlig
597:   FUNC GLOBAL PROTECTED 15 _ZN3art14ArenaBitVectorC1
598:   FUNC WEAK PROTECTED 15 _ZNSt3__1plIcNS_11char_tr
599:   FUNC GLOBAL DEFAULT 15 XzDecMt_Create
600:   FUNC GLOBAL PROTECTED 15 _ZN3art27LocationIsOnSyst
601:   FUNC GLOBAL PROTECTED 15 _ZN3art6MemMapC2ERKNSt3__
602:   FUNC GLOBAL PROTECTED 15 _ZN9unix_file6FdFile9Read
603:   FUNC GLOBAL DEFAULT 15 LZ4_sizeofStreamStateHC
604:   FUNC GLOBAL PROTECTED 15 _ZN3art21GetAndroidRuntim
605:   FUNC GLOBAL PROTECTED 15 _ZN3art10ArenaStackD1Ev
606:   FUNC GLOBAL DEFAULT 15 _Z15ErrorCodeStringi
607:   FUNC GLOBAL DEFAULT 15 Hc3Zip_MatchFinder_Skip
608:   FUNC GLOBAL DEFAULT 15 inflate
609:   FUNC GLOBAL DEFAULT 15 inflateReset
610:   FUNC GLOBAL DEFAULT 15 __aeabi_memmove4
611:   FUNC GLOBAL PROTECTED 15 _ZNK3art9BitVector10IsSub
612:   FUNC GLOBAL PROTECTED 15 _ZN9unix_file6FdFile6Unli
613:   FUNC GLOBAL DEFAULT 15 MatchFinder_NeedMove
614:   FUNC GLOBAL DEFAULT 15 _ZNK13MappedZipFile13GetF
615:   FUNC GLOBAL PROTECTED 15 _ZN3art12GetTaskStatsEiPc
616:   FUNC GLOBAL DEFAULT 15 LZ4_compressHC_limitedOut
617:   FUNC GLOBAL DEFAULT 15 MatchFinder_MoveBlock
618:   FUNC GLOBAL PROTECTED 15 _ZN3art15MallocArenaPool8
619:   FUNC GLOBAL PROTECTED 15 _ZN3art6MemMap29MapIntern
620:   FUNC GLOBAL DEFAULT 15 Delta_Init
621:   FUNC GLOBAL DEFAULT 15 _ZN10ZipArchiveC1Eib
622:   FUNC WEAK PROTECTED 15 _ZNSt3__113basic_filebufI
623:   FUNC GLOBAL DEFAULT 15 LZ4_compressHC_continue
624:   FUNC GLOBAL DEFAULT 15 XXH32_update
625:   FUNC GLOBAL DEFAULT 15 MatchFinder_ReadIfRequire
626:   FUNC GLOBAL DEFAULT 15 XzUnpacker_Construct
627:   FUNC GLOBAL DEFAULT 15 __aeabi_memmove8
628:   FUNC GLOBAL PROTECTED 15 _ZN3art13GetThreadNameEi
629:   FUNC GLOBAL DEFAULT 15 LZ4_compressBound
630:   FUNC GLOBAL DEFAULT 15 LzmaDec_Allocate
631:   FUNC GLOBAL DEFAULT 15 XzEnc_Encode
632:   FUNC GLOBAL PROTECTED 15 _ZNK9unix_file6FdFile4Rea
633:   FUNC GLOBAL PROTECTED 15 _ZN9unix_file6FdFile13Mar
634:   FUNC GLOBAL DEFAULT 15 LZ4_createStream
635:   FUNC GLOBAL DEFAULT 15 AesCbc_Decode
636:   FUNC GLOBAL PROTECTED 15 _ZN3art9BitVectorC2ERKS0_
637:   FUNC GLOBAL DEFAULT 15 XXH_versionNumber
638:   FUNC GLOBAL DEFAULT 15 File_Read
639:   FUNC GLOBAL DEFAULT 15 Sha256_Update
640:   FUNC GLOBAL DEFAULT 15 Xzs_Free
641:   FUNC WEAK PROTECTED 15 _ZNKSt3__115basic_stringb
642:   FUNC GLOBAL DEFAULT 15 LZ4_compress_HC
643:   FUNC GLOBAL DEFAULT 15 LZ4F_createCDict
644:   FUNC GLOBAL DEFAULT 15 LzmaEncProps_Normalize
645:   FUNC GLOBAL PROTECTED 15 _ZN3art6MemMapD1Ev
646:   FUNC GLOBAL PROTECTED 15 _ZN3art20ScopedArenaAlloc
647:   FUNC GLOBAL PROTECTED 15 _ZN3art8ZipEntry15Extract
648:   FUNC GLOBAL DEFAULT 15 LZ4_decompress_fast_withP
649:   FUNC GLOBAL DEFAULT 15 AesCbc_Decode_Intel
650:   FUNC GLOBAL DEFAULT 15 XzEnc_SetProps
651:   OBJECT WEAK PROTECTED 19 _ZN3art23ArenaAllocatorSt
652:   FUNC GLOBAL PROTECTED 15 _ZNK3art9BitVector10NumSe
653:   FUNC GLOBAL PROTECTED 15 _ZN9unix_file6FdFile17Flu
654:   FUNC GLOBAL DEFAULT 15 LZ4_decompress_safe_using
655:   FUNC GLOBAL DEFAULT 15 InFile_Open
656:   FUNC GLOBAL PROTECTED 15 _ZN3art9BitVectorC1EjbPNS
657:   FUNC GLOBAL PROTECTED 15 _ZN3art11MallocArenaD1Ev
658:   FUNC GLOBAL DEFAULT 15 _Z14StartIterationP10ZipA
659:   FUNC GLOBAL PROTECTED 15 _ZNK3art14ArenaAllocator1
660:   FUNC GLOBAL PROTECTED 15 _ZN3art6GetTidEv
661:   FUNC GLOBAL DEFAULT 15 LZ4F_freeDecompressionCon
662:   FUNC GLOBAL DEFAULT 15 Lzma2Enc_SetProps
663:   FUNC GLOBAL PROTECTED 15 _ZN3art14GetAndroidRootEv
664:   FUNC GLOBAL PROTECTED 15 _ZN3art20ScopedArenaAlloc
665:   FUNC GLOBAL PROTECTED 15 _ZN3art10PrettySizeEx
666:   FUNC GLOBAL DEFAULT 15 Aes_SetKey_Enc
667:   FUNC WEAK PROTECTED 15 _ZN9unix_file6FdFile17Wri
668:   FUNC WEAK PROTECTED 15 _ZNSt3__113basic_filebufI
669:   FUNC GLOBAL DEFAULT 15 SzAr_DecodeFolder
670:   FUNC GLOBAL DEFAULT 15 BraState_SetFromMethod
671:   FUNC GLOBAL PROTECTED 15 _ZN3art9BitVector4CopyEPK
672:   FUNC GLOBAL DEFAULT 15 _ZN9ZipStringC2EPKc
673:   FUNC GLOBAL PROTECTED 15 _ZN9unix_file6FdFileC1Eib
674:   FUNC GLOBAL PROTECTED 15 _ZN9unix_filelsERNSt3__11
675:   FUNC GLOBAL DEFAULT 15 LZ4F_freeCDict
676:   OBJECT GLOBAL DEFAULT 24 g_CrcUpdateT4
677:   FUNC GLOBAL DEFAULT 15 AesCbc_Init
678:   FUNC GLOBAL DEFAULT 15 LzmaEnc_Create
679:   FUNC GLOBAL PROTECTED 15 _ZN3art5SplitERKNSt3__112
680:   FUNC WEAK PROTECTED 15 _ZNSt3__17getlineIcNS_11c
681:   FUNC GLOBAL DEFAULT 15 LZ4_decompress_safe_force
682:   FUNC GLOBAL DEFAULT 15 SzFreeTemp
683:   FUNC GLOBAL DEFAULT 15 MatchFinder_Init_HighHash
684:   OBJECT GLOBAL PROTECTED 17 _ZN3art18g_malloc_allocat
685:   FUNC GLOBAL DEFAULT 15 LZ4_compress_HC_continue
686:   FUNC GLOBAL DEFAULT 15 MatchFinder_CreateVTable
687:   FUNC GLOBAL PROTECTED 15 _ZN3art25GetAndroidRuntim
688:   OBJECT WEAK PROTECTED 19 _ZTVN3art15MallocAllocato
689:   FUNC GLOBAL PROTECTED 15 _ZN3art14ArenaAllocatorD1
690:   OBJECT GLOBAL DEFAULT 24 g_CrcUpdateT8
691:   FUNC GLOBAL DEFAULT 15 LzmaDec_FreeProbs
692:   FUNC GLOBAL DEFAULT 15 Aes_SetKey_Dec
693:   FUNC GLOBAL PROTECTED 15 _ZN3art9BitVectorD2Ev
694:   FUNC GLOBAL PROTECTED 15 _ZN3art15MallocArenaPoolC
695:   FUNC GLOBAL DEFAULT 15 LZ4_compress_HC_extStateH
696:   FUNC GLOBAL DEFAULT 15 _Z23ProcessZipEntryConten
697:   FUNC GLOBAL DEFAULT 15 __divmoddi4
698:   FUNC GLOBAL PROTECTED 15 _ZNK3art9BitVector10NumSe
699:   FUNC GLOBAL PROTECTED 15 _ZN3art2OS16GetFileSizeBy
700:   FUNC GLOBAL DEFAULT 15 LZ4_compress_HC_continue_
701:   FUNC GLOBAL DEFAULT 15 LZ4_freeStreamHC
702:   FUNC GLOBAL DEFAULT 15 XXH32
703:   FUNC GLOBAL PROTECTED 15 _ZN3art27GetInstructionSe
704:   FUNC GLOBAL PROTECTED 15 _ZN3art9Allocator16GetNoo
705:   FUNC GLOBAL PROTECTED 15 _ZN3art21ProgramInvocatio
706:   FUNC GLOBAL DEFAULT 15 LZ4_compress_fast_continu
707:   OBJECT GLOBAL PROTECTED 19 _ZTVN3art8ZipEntryE
708:   FUNC GLOBAL DEFAULT 15 XzDecMtProps_Init
709:   FUNC GLOBAL DEFAULT 15 MatchFinder_Init_LowHash
710:   FUNC GLOBAL PROTECTED 15 _ZN3art6MemMapC2EOS0_
711:   FUNC GLOBAL DEFAULT 15 LZ4_compress_continue
712:   FUNC GLOBAL DEFAULT 15 _ZNK13MappedZipFile10GetB
713:   FUNC WEAK PROTECTED 15 _ZNK3art23ArenaAllocatorS
714:   FUNC GLOBAL PROTECTED 15 _ZNK3art9BitVector11SameB
715:   FUNC GLOBAL DEFAULT 15 Ppmd7z_RangeDec_CreateVTa
716:   FUNC GLOBAL PROTECTED 15 _ZN3art6MemMap21ReleaseRe
717:   FUNC GLOBAL DEFAULT 15 _Z17GetFileDescriptorP10Z
718:   FUNC GLOBAL DEFAULT 15 LZ4F_resetDecompressionCo
719:   FUNC GLOBAL DEFAULT 15 LzmaEnc_GetNumAvailableBy
720:   FUNC GLOBAL DEFAULT 15 Ppmd7_Update1
721:   FUNC GLOBAL PROTECTED 15 _ZN9unix_file6FdFile7Comp
722:   FUNC GLOBAL DEFAULT 15 Ppmd7_Update2
723:   FUNC GLOBAL DEFAULT 15 inflate_table
724:   FUNC GLOBAL PROTECTED 15 _ZN3art11InitLoggingEPPcR
725:   FUNC GLOBAL DEFAULT 15 SeqInStream_Read
726:   FUNC GLOBAL DEFAULT 15 Xz_EncodeEmpty
727:   FUNC GLOBAL PROTECTED 15 _ZN3art9BitVectorD0Ev
728:   FUNC GLOBAL PROTECTED 15 _ZN3art6MemMap7DoResetEv
729:   FUNC GLOBAL DEFAULT 15 Hc3Zip_MatchFinder_GetMat
730:   OBJECT GLOBAL DEFAULT 24 g_Crc64Table
731:   FUNC GLOBAL DEFAULT 15 _ZN11zip_archive6ReaderD2
732:   FUNC GLOBAL PROTECTED 15 _ZN3art9BitVector14SetIni
733:   FUNC GLOBAL PROTECTED 15 _ZN3art14GetDalvikCacheEP
734:   FUNC GLOBAL PROTECTED 15 _ZN3art20ScopedArenaAlloc
735:   OBJECT WEAK PROTECTED 19 _ZTVN3art10LockedFileE
736:   FUNC GLOBAL PROTECTED 15 _ZN3art22GetNsToTimeUnitD
737:   FUNC GLOBAL PROTECTED 15 _ZN3art8ZipEntry21GetUnco
738:   FUNC GLOBAL DEFAULT 15 LZ4_uncompress
739:   FUNC GLOBAL DEFAULT 15 MyAlloc
740:   FUNC WEAK PROTECTED 15 _ZN3art23ArenaAllocatorSt
741:   OBJECT WEAK PROTECTED 19 _ZTVN3art14ArenaBitVector
742:   FUNC GLOBAL PROTECTED 15 _ZN3art9BitVector10NumSet
743:   FUNC GLOBAL PROTECTED 15 _ZNK3art12MemoryRegion8Co
744:   FUNC GLOBAL DEFAULT 15 XXH64_digest
745:   FUNC GLOBAL DEFAULT 15 ARMT_Convert
746:   FUNC GLOBAL DEFAULT 15 LzmaDec_Init
747:   FUNC GLOBAL DEFAULT 15 LzmaEncProps_Init
748:   FUNC GLOBAL DEFAULT 15 LzmaEnc_Construct
749:   FUNC GLOBAL PROTECTED 15 _ZN9unix_file6FdFile4Open
750:   FUNC GLOBAL DEFAULT 15 DynBuf_Write
751:   FUNC GLOBAL DEFAULT 15 File_GetLength
752:   OBJECT WEAK PROTECTED 19 _ZTVNSt3__110__function6_
753:   FUNC GLOBAL PROTECTED 15 _ZN3art5Arena5ResetEv
754:   FUNC GLOBAL DEFAULT 15 LzmaEnc_Finish
755:   FUNC GLOBAL DEFAULT 15 XzUnpacker_SetOutBuf
756:   FUNC GLOBAL DEFAULT 15 inflateUndermine
757:   OBJECT GLOBAL PROTECTED 24 _ZN3art6MemMap14mem_maps_
758:   FUNC GLOBAL DEFAULT 15 LZ4_slideInputBuffer
759:   FUNC GLOBAL DEFAULT 15 SzFree
760:   FUNC GLOBAL DEFAULT 15 MyFree
761:   FUNC WEAK PROTECTED 15 _ZNSt3__113basic_filebufI
762:   FUNC GLOBAL DEFAULT 15 Ppmd7_MakeEscFreq
763:   OBJECT WEAK PROTECTED 19 _ZTVNSt3__110__function6_
764:   FUNC GLOBAL PROTECTED 15 _ZNK3art15MallocArenaPool
765:   FUNC GLOBAL DEFAULT 15 LZ4_freeHC
766:   FUNC GLOBAL DEFAULT 15 SzArEx_Free
767:   FUNC GLOBAL DEFAULT 15 SeqInStream_Read2
768:   FUNC GLOBAL DEFAULT 15 MatchFinder_Free
769:   FUNC GLOBAL DEFAULT 15 OutFile_Open
770:   FUNC GLOBAL DEFAULT 15 XzUnpacker_IsBlockFinishe
771:   FUNC GLOBAL PROTECTED 15 _ZN3artlsERNSt3__113basic
772:   FUNC GLOBAL DEFAULT 15 LZ4_compress_limitedOutpu
773:   FUNC GLOBAL DEFAULT 15 adler32_z
774:   FUNC GLOBAL PROTECTED 15 _ZN9unix_file6FdFileD1Ev
775:   FUNC GLOBAL DEFAULT 15 _ZN10ZipArchiveD1Ev
776:   OBJECT WEAK PROTECTED 19 _ZN3art9hiddenapi7ApiList
777:   FUNC GLOBAL DEFAULT 15 _ZN11zip_archive6ReaderD0
778:   FUNC GLOBAL PROTECTED 15 _ZN3art9BitVector8Subtrac
779:   FUNC GLOBAL PROTECTED 15 _ZN3art15MallocArenaPoolD
780:   FUNC GLOBAL DEFAULT 15 LZ4F_createCompressionCon
781:   FUNC GLOBAL DEFAULT 15 XzFilterProps_Init
782:   FUNC GLOBAL DEFAULT 15 LZ4_decompress_safe_withP
783:   FUNC GLOBAL DEFAULT 15 LZ4_attach_HC_dictionary
784:   FUNC GLOBAL DEFAULT 15 x86_Convert
785:   OBJECT WEAK DEFAULT 19 _ZTTNSt3__119basic_ostrin
786:   FUNC GLOBAL PROTECTED 15 _ZN3art10membarrierENS_17
787:   FUNC GLOBAL PROTECTED 15 _ZN3art14ArenaAllocator17
788:   FUNC GLOBAL PROTECTED 15 _ZN3art18GetAndroidRootSa
789:   FUNC GLOBAL DEFAULT 15 XXH32_digest
790:   FUNC WEAK PROTECTED 15 _ZNSt3__124__put_characte
791:   FUNC GLOBAL PROTECTED 15 _ZN3art18GetAndroidDataSa
792:   FUNC GLOBAL PROTECTED 15 _ZN3art10ZipArchiveD1Ev
793:   FUNC GLOBAL DEFAULT 15 LZ4_resetStreamStateHC
794:   FUNC GLOBAL DEFAULT 15 Lzma2Enc_Create
795:   FUNC GLOBAL DEFAULT 15 Lzma2Enc_Encode2
796:   FUNC GLOBAL DEFAULT 15 LzmaEnc_SetDataSize
797:   FUNC WEAK PROTECTED 15 _ZNKSt3__110__function6__
798:   FUNC GLOBAL DEFAULT 15 XXH64_reset
799:   FUNC GLOBAL DEFAULT 15 _Z12EndIterationPv
800:   FUNC GLOBAL DEFAULT 15 _ZNK8ZipEntry19GetModific
801:   FUNC GLOBAL DEFAULT 15 __aeabi_memclr4
802:   FUNC GLOBAL PROTECTED 15 _ZN3art6MemMap8ShutdownEv
803:   FUNC GLOBAL DEFAULT 15 LZ4_compress_limitedOutpu
804:   OBJECT GLOBAL DEFAULT 19 _ZTVN11zip_archive6Reader
805:   FUNC GLOBAL PROTECTED 15 _ZN3art6MemMap10RemapAtEn
806:   FUNC GLOBAL PROTECTED 15 _ZN3art6MemMap18GetLarges
807:   FUNC GLOBAL PROTECTED 15 _ZN3art22GetAppropriateTi
808:   FUNC GLOBAL DEFAULT 15 LZ4_versionString
809:   FUNC GLOBAL DEFAULT 15 LZ4_compressHC2
810:   FUNC GLOBAL DEFAULT 15 Xzs_GetUnpackSize
811:   FUNC GLOBAL PROTECTED 15 _ZN3art6MemMap8MapDummyEP
812:   FUNC GLOBAL PROTECTED 15 _ZN3artlsERNSt3__113basic
813:   FUNC GLOBAL DEFAULT 15 _ZN10ZipArchiveC2EPvj
814:   OBJECT WEAK DEFAULT 19 _ZTV11EntryReader
815:   FUNC WEAK PROTECTED 15 _ZNSt3__16__treeINS_12__v
816:   FUNC GLOBAL DEFAULT 15 Ppmd7_EncodeSymbol
817:   FUNC WEAK PROTECTED 15 _ZNSt3__115basic_stringbu
818:   FUNC GLOBAL DEFAULT 15 __aeabi_memclr
819:   FUNC GLOBAL PROTECTED 15 _ZN3art6MemMap16CheckRese
820:   FUNC GLOBAL PROTECTED 15 _ZN3art6MemMap8DumpMapsER
821:   FUNC GLOBAL DEFAULT 15 __aeabi_memclr8
822:   FUNC GLOBAL DEFAULT 15 Lzma2Dec_Allocate
823:   FUNC GLOBAL DEFAULT 15 XzUnpacker_Init
824:   FUNC GLOBAL PROTECTED 15 _ZN3art5ArenaC1Ev
825:   FUNC GLOBAL PROTECTED 15 _ZN9unix_file6FdFileC1EOS
826:   FUNC GLOBAL PROTECTED 15 _ZN3art6MemMap7AlignByEj
827:   FUNC GLOBAL PROTECTED 15 _ZN3art9BitVector9Interse
828:   FUNC GLOBAL PROTECTED 15 _ZN3art2OS15DirectoryExis
829:   FUNC GLOBAL DEFAULT 15 LZ4_decompress_safe_parti
830:   FUNC GLOBAL DEFAULT 15 Ppmd7_Construct
831:   FUNC GLOBAL DEFAULT 15 inflateEnd
832:   FUNC WEAK PROTECTED 15 _ZNSt3__115basic_stringbu
833:   FUNC GLOBAL PROTECTED 15 _ZN3art40RuntimeModuleRoo
834:   FUNC GLOBAL PROTECTED 15 _ZN3art8ZipEntry14IsUncom
835:   FUNC GLOBAL PROTECTED 15 _ZN3art8ZipEntry20MapDire
836:   FUNC GLOBAL DEFAULT 15 XXH32_copyState
837:   FUNC GLOBAL DEFAULT 15 Lzma2Enc_Destroy
838:   FUNC GLOBAL DEFAULT 15 XzDecMt_Destroy
839:   FUNC GLOBAL PROTECTED 15 _ZNK3art8MemStats4DumpERN
840:   FUNC GLOBAL DEFAULT 15 MatchFinder_Create
841:   OBJECT WEAK DEFAULT 19 _ZTVNSt3__119basic_ostrin
842:   FUNC GLOBAL PROTECTED 15 _ZN3art15GetVdexFilenameE
843:   FUNC GLOBAL DEFAULT 15 LzmaEnc_IsWriteEndMark
844:   FUNC GLOBAL PROTECTED 15 _ZN3art6MemMap4SyncEv
845:   FUNC GLOBAL DEFAULT 15 LZ4F_getVersion
846:   FUNC GLOBAL DEFAULT 15 CrcUpdate
847:   FUNC GLOBAL DEFAULT 15 __aeabi_memcpy4
848:   FUNC GLOBAL DEFAULT 15 XzStatInfo_Clear
849:   FUNC GLOBAL DEFAULT 15 _Z15ExtractToWriterP10Zip
850:   FUNC GLOBAL PROTECTED 15 _ZN3art15MallocArenaPool1
851:   FUNC GLOBAL PROTECTED 15 _ZN3art6MemMap4InitEv
852:   FUNC GLOBAL PROTECTED 15 _ZN9unix_file6FdFile6move
853:   FUNC GLOBAL DEFAULT 15 LZ4_decompress_fast
854:   FUNC GLOBAL DEFAULT 15 XXH32_canonicalFromHash
855:   FUNC GLOBAL DEFAULT 15 DynBuf_Free
856:   FUNC GLOBAL DEFAULT 15 LzmaEnc_WriteProperties
857:   FUNC GLOBAL DEFAULT 15 Ppmd7z_RangeDec_Init
858:   FUNC GLOBAL PROTECTED 15 _ZNK3art14ArenaAllocator1
859:   FUNC GLOBAL PROTECTED 15 _ZN3art9NanoSleepEy
860:   FUNC GLOBAL DEFAULT 15 XzUnpacker_Code
861:   FUNC GLOBAL DEFAULT 15 XzEnc_Create
862:   FUNC GLOBAL PROTECTED 15 _ZN3art2OS15CreateEmptyFi
863:   FUNC GLOBAL PROTECTED 15 _ZN3art8ZipEntryD2Ev
864:   FUNC GLOBAL DEFAULT 15 LZ4_compress_default
865:   FUNC GLOBAL DEFAULT 15 LZ4_resetStreamState
866:   FUNC GLOBAL DEFAULT 15 Buf_Init
867:   FUNC GLOBAL DEFAULT 15 PPC_Convert
868:   FUNC GLOBAL DEFAULT 15 SPARC_Convert
869:   FUNC GLOBAL DEFAULT 15 File_Seek
870:   FUNC GLOBAL DEFAULT 15 Delta_Encode
871:   FUNC GLOBAL PROTECTED 15 _ZN3art6MemMap10RemapAtEn
872:   FUNC GLOBAL DEFAULT 15 __aeabi_memcpy8
873:   FUNC GLOBAL DEFAULT 15 Xz_Free
874:   FUNC GLOBAL DEFAULT 15 LZ4_compressHC2_continue
875:   FUNC GLOBAL DEFAULT 15 FileInStream_CreateVTable
876:   FUNC GLOBAL DEFAULT 15 inflateInit_
877:   FUNC GLOBAL PROTECTED 15 _ZNK3art9BitVector12GetAl
878:   FUNC GLOBAL DEFAULT 15 XzUnpacker_GetExtraSize
879:   FUNC GLOBAL PROTECTED 15 _ZN3art10ArenaStack21Allo
880:   FUNC GLOBAL PROTECTED 15 _ZN3art6MemMapC1ERKNSt3__
881:   FUNC GLOBAL PROTECTED 15 _ZN9unix_file6FdFile5Flus
882:   FUNC GLOBAL DEFAULT 15 LZ4_decompress_safe_conti
883:   FUNC GLOBAL DEFAULT 15 LZ4F_compressFrameBound
884:   OBJECT WEAK DEFAULT 19 _ZTCNSt3__119basic_ostrin
885:   FUNC GLOBAL PROTECTED 15 _ZN3art14PrintFileToLogER
886:   FUNC GLOBAL PROTECTED 15 _ZN3art8ZipEntry13Extract
887:   FUNC GLOBAL DEFAULT 15 LZ4F_compressUpdate
888:   FUNC GLOBAL DEFAULT 15 inflateResetKeep
889:   FUNC GLOBAL PROTECTED 15 _ZN3art9BitVectorC1EbPNS_
890:   FUNC GLOBAL DEFAULT 15 Xzs_Construct
891:   FUNC GLOBAL PROTECTED 15 _ZN3art9MicroTimeEv
892:   OBJECT WEAK DEFAULT 19 _ZTVNSt3__114basic_ifstre
893:   FUNC GLOBAL DEFAULT 15 inflateMark
894:   FUNC WEAK PROTECTED 15 _ZNSt3__115basic_stringbu
895:   FUNC WEAK PROTECTED 15 _ZNSt3__110__function6__f
896:   FUNC GLOBAL DEFAULT 15 LZ4_compressHC_withStateH
897:   FUNC GLOBAL DEFAULT 15 XXH64_createState
898:   FUNC GLOBAL DEFAULT 15 LzmaUncompress
899:   FUNC GLOBAL DEFAULT 15 inflatePrime
900:   OBJECT WEAK PROTECTED 19 _ZTVN3art23ArenaBitVector
901:   FUNC GLOBAL DEFAULT 15 _Z21OpenArchiveFromMemory
902:   FUNC GLOBAL PROTECTED 15 _ZN3art8ZipEntryD0Ev
903:   FUNC GLOBAL DEFAULT 15 SzAr_GetFolderUnpackSize
904:   OBJECT GLOBAL DEFAULT 24 g_CrcTable
905:   FUNC GLOBAL DEFAULT 15 _ZN10ZipArchive26Initiali
906:   FUNC GLOBAL DEFAULT 15 inflateGetDictionary
907:   FUNC WEAK PROTECTED 15 _ZNSt3__115basic_stringbu
908:   FUNC GLOBAL PROTECTED 15 _ZN9unix_file6FdFile5Clos
909:   FUNC GLOBAL DEFAULT 15 LZ4F_freeCompressionConte
910:   FUNC GLOBAL DEFAULT 15 Lzma2Decode
911:   FUNC GLOBAL DEFAULT 15 XzEnc_Destroy
912:   FUNC WEAK PROTECTED 15 _ZNK3art23ArenaAllocatorS
913:   FUNC GLOBAL DEFAULT 15 LZ4_compress_fast_force
914:   FUNC GLOBAL PROTECTED 15 _ZN3art2OS24CreateEmptyFi
915:   FUNC GLOBAL PROTECTED 15 _ZN9unix_file6FdFile4Copy
916:   FUNC GLOBAL DEFAULT 15 Bt3Zip_MatchFinder_Skip
917:   FUNC GLOBAL DEFAULT 15 Lzma2EncProps_Init
918:   FUNC GLOBAL PROTECTED 15 _ZN9unix_file6FdFileC2ERK
919:   FUNC GLOBAL DEFAULT 15 LZ4F_flush
920:   FUNC GLOBAL DEFAULT 15 LZ4_decompress_fast_using
921:   FUNC GLOBAL PROTECTED 15 _ZN3art14ArenaAllocator19
922:   FUNC GLOBAL PROTECTED 15 _ZN3art11MallocArenaC1Ej
923:   FUNC GLOBAL DEFAULT 15 LZ4_createStreamDecode
924:   FUNC GLOBAL DEFAULT 15 LZ4_saveDictHC
925:   FUNC GLOBAL DEFAULT 15 XXH64_copyState
926:   FUNC GLOBAL DEFAULT 15 SzBitUi64s_Free
927:   FUNC GLOBAL DEFAULT 15 Ppmd7_DecodeSymbol
928:   FUNC GLOBAL DEFAULT 15 Crc64Calc
929:   FUNC GLOBAL DEFAULT 15 Xz_WriteVarInt
930:   FUNC GLOBAL DEFAULT 15 XzUnpacker_IsStreamWasFin
931:   FUNC GLOBAL DEFAULT 15 _ZN11zip_archive6WriterD1
932:   OBJECT GLOBAL PROTECTED 17 _ZN3art16g_noop_allocator
933:   OBJECT WEAK PROTECTED 19 _ZN3art9hiddenapi7ApiList
934:   FUNC WEAK PROTECTED 15 _ZNKSt3__110__function6__
935:   FUNC GLOBAL PROTECTED 15 _ZN3art19ZeroAndReleasePa
936:   FUNC GLOBAL PROTECTED 15 _ZN3art20ScopedArenaAlloc
937:   FUNC WEAK PROTECTED 15 _ZNSt3__113basic_filebufI
938:   FUNC GLOBAL DEFAULT 15 LZ4_compress_HC_extStateH
939:   FUNC GLOBAL PROTECTED 15 _ZN3art10LockedFile4OpenE
940:   FUNC GLOBAL DEFAULT 15 CrcGenerateTable
941:   FUNC GLOBAL DEFAULT 15 Delta_Decode
942:   FUNC GLOBAL PROTECTED 15 _ZN9unix_file6FdFile10Pre
943:   FUNC GLOBAL DEFAULT 15 ARM_Convert
944:   FUNC GLOBAL DEFAULT 15 LzmaEnc_FreeLits
945:   FUNC GLOBAL DEFAULT 15 Ppmd7z_RangeEnc_Init
946:   FUNC GLOBAL DEFAULT 15 inflateInit2_
947:   FUNC GLOBAL PROTECTED 15 _ZN3art27GetDefaultBootIm
948:   FUNC WEAK PROTECTED 15 _ZNSt3__110__function6__f
949:   FUNC GLOBAL PROTECTED 15 _ZN3artlsERNSt3__113basic
950:   FUNC GLOBAL DEFAULT 15 LZ4_compressHC_limitedOut
951:   FUNC GLOBAL DEFAULT 15 _Z4NextPvP8ZipEntryP9ZipS
952:   FUNC GLOBAL PROTECTED 15 _ZN3art14ArenaAllocatorC2
953:   FUNC GLOBAL PROTECTED 15 _ZN3art16OpenAndReadMagic
954:   FUNC WEAK PROTECTED 15 _ZNSt3__110__function6__f
955:   FUNC GLOBAL PROTECTED 15 _ZN3art10ArenaStack25Upda
956:   FUNC GLOBAL DEFAULT 15 LzmaDec_InitDicAndState
957:   FUNC GLOBAL DEFAULT 15 LzmaEnc_SaveState
958:   FUNC GLOBAL PROTECTED 15 _ZNK3art14ArenaAllocator9
959:   FUNC GLOBAL DEFAULT 15 __aeabi_memmove
960:   FUNC GLOBAL PROTECTED 15 _ZN3art13GetGMapsEntryERK
961:   FUNC GLOBAL PROTECTED 15 _ZN3art20ReplaceFileExten
962:   FUNC GLOBAL PROTECTED 15 _ZNK9unix_file6FdFile12Re
963:   FUNC GLOBAL PROTECTED 15 _ZN3art12SleepForeverEv
964:   FUNC GLOBAL DEFAULT 15 _Z11OpenArchivePKcPP10Zip
965:   FUNC GLOBAL DEFAULT 15 LZ4_compressHC2_withState
966:   FUNC GLOBAL DEFAULT 15 Lzma2Enc_WriteProperties
967:   FUNC GLOBAL DEFAULT 15 Xzs_ReadBackward
968:   FUNC GLOBAL DEFAULT 15 _Z11GetOwnerTagPK10ZipArc
969:   FUNC GLOBAL PROTECTED 15 _ZN3art10ArenaStackD2Ev
970:   FUNC GLOBAL PROTECTED 15 _ZN9unix_file6FdFile7Rele
971:   FUNC GLOBAL DEFAULT 15 LZ4_compress_fast_extStat
