 0x0000000e (SONAME)                     Library soname: [android.system.net.netd@1.0.so]
  
Symbol   contains 240 entries:
Num:   Type Bind Vis Ndx Name
0:   NOTYPE LOCAL DEFAULT UND
1:   FUNC GLOBAL DEFAULT UND __cxa_finalize@LIBC (2)
2:   FUNC GLOBAL DEFAULT UND _ZN7android14sp_report_ra
3:   FUNC GLOBAL DEFAULT UND _ZN7android21report_syspr
4:   OBJECT GLOBAL DEFAULT UND _ZN7android4hidl4base4V1_
5:   FUNC GLOBAL DEFAULT UND _ZN7android4hidl4base4V1_
6:   FUNC GLOBAL DEFAULT UND _ZN7android4hidl4base4V1_
7:   FUNC GLOBAL DEFAULT UND _ZN7android4hidl4base4V1_
8:   FUNC GLOBAL DEFAULT UND _ZN7android4hidl4base4V1_
9:   FUNC GLOBAL DEFAULT UND _ZN7android4hidl4base4V1_
10:   FUNC GLOBAL DEFAULT UND _ZN7android4hidl4base4V1_
11:   FUNC GLOBAL DEFAULT UND _ZN7android4hidl4base4V1_
12:   FUNC GLOBAL DEFAULT UND _ZN7android4hidl4base4V1_
13:   FUNC GLOBAL DEFAULT UND _ZN7android4hidl4base4V1_
14:   FUNC GLOBAL DEFAULT UND _ZN7android4hidl4base4V1_
15:   FUNC GLOBAL DEFAULT UND _ZN7android4hidl4base4V1_
16:   FUNC GLOBAL DEFAULT UND _ZN7android4hidl4base4V1_
17:   FUNC GLOBAL DEFAULT UND _ZN7android4hidl4base4V1_
18:   FUNC GLOBAL DEFAULT UND _ZN7android4hidl4base4V1_
19:   FUNC GLOBAL DEFAULT UND _ZN7android4hidl4base4V1_
20:   FUNC GLOBAL DEFAULT UND _ZN7android4hidl4base4V1_
21:   FUNC GLOBAL DEFAULT UND _ZN7android4hidl4base4V1_
22:   FUNC GLOBAL DEFAULT UND _ZN7android4hidl4base4V1_
23:   FUNC GLOBAL DEFAULT UND _ZN7android4hidl4base4V1_
24:   FUNC GLOBAL DEFAULT UND _ZN7android4hidl4base4V1_
25:   FUNC GLOBAL DEFAULT UND _ZN7android4hidl4base4V1_
26:   FUNC GLOBAL DEFAULT UND _ZN7android4hidl4base4V1_
27:   FUNC GLOBAL DEFAULT UND _ZN7android4hidl4base4V1_
28:   FUNC GLOBAL DEFAULT UND _ZN7android7RefBase10onFi
29:   FUNC GLOBAL DEFAULT UND _ZN7android7RefBase12weak
30:   FUNC GLOBAL DEFAULT UND _ZN7android7RefBase13onLa
31:   FUNC GLOBAL DEFAULT UND _ZN7android7RefBase15onLa
32:   FUNC GLOBAL DEFAULT UND _ZN7android7RefBase20onIn
33:   FUNC GLOBAL DEFAULT UND _ZN7android7RefBaseC2Ev
34:   FUNC GLOBAL DEFAULT UND _ZN7android7RefBaseD2Ev
35:   FUNC GLOBAL DEFAULT UND _ZN7android8hardware10IIn
36:   FUNC GLOBAL DEFAULT UND _ZN7android8hardware10IIn
37:   FUNC GLOBAL DEFAULT UND _ZN7android8hardware10IIn
38:   FUNC GLOBAL DEFAULT UND _ZN7android8hardware10IIn
39:   FUNC GLOBAL DEFAULT UND _ZN7android8hardware10IIn
40:   FUNC GLOBAL DEFAULT UND _ZN7android8hardware11BpH
41:   FUNC GLOBAL DEFAULT UND _ZN7android8hardware11BpH
42:   FUNC GLOBAL DEFAULT UND _ZN7android8hardware11BpH
43:   FUNC GLOBAL DEFAULT UND _ZN7android8hardware11BpH
44:   FUNC GLOBAL DEFAULT UND _ZN7android8hardware11BpH
45:   FUNC GLOBAL DEFAULT UND _ZN7android8hardware11BpH
46:   FUNC GLOBAL DEFAULT UND _ZN7android8hardware11BpH
47:   FUNC GLOBAL DEFAULT UND _ZN7android8hardware11hid
48:   FUNC GLOBAL DEFAULT UND _ZN7android8hardware11hid
49:   FUNC GLOBAL DEFAULT UND _ZN7android8hardware11hid
50:   FUNC GLOBAL DEFAULT UND _ZN7android8hardware11hid
51:   FUNC GLOBAL DEFAULT UND _ZN7android8hardware11hid
52:   FUNC GLOBAL DEFAULT UND _ZN7android8hardware12Pro
53:   FUNC GLOBAL DEFAULT UND _ZN7android8hardware12Pro
54:   FUNC GLOBAL DEFAULT UND _ZN7android8hardware13wri
55:   FUNC GLOBAL DEFAULT UND _ZN7android8hardware14rea
56:   FUNC GLOBAL DEFAULT UND _ZN7android8hardware21def
57:   FUNC GLOBAL DEFAULT UND _ZN7android8hardware23get
58:   FUNC GLOBAL DEFAULT UND _ZN7android8hardware27hid
59:   FUNC GLOBAL DEFAULT UND _ZN7android8hardware27hid
60:   FUNC GLOBAL DEFAULT UND _ZN7android8hardware6Parc
61:   FUNC GLOBAL DEFAULT UND _ZN7android8hardware6Parc
62:   FUNC GLOBAL DEFAULT UND _ZN7android8hardware6Parc
63:   FUNC GLOBAL DEFAULT UND _ZN7android8hardware6Parc
64:   FUNC GLOBAL DEFAULT UND _ZN7android8hardware6Parc
65:   FUNC GLOBAL DEFAULT UND _ZN7android8hardware6Parc
66:   FUNC GLOBAL DEFAULT UND _ZN7android8hardware6Stat
67:   FUNC GLOBAL DEFAULT UND _ZN7android8hardware6Stat
68:   FUNC GLOBAL DEFAULT UND _ZN7android8hardware6Stat
69:   FUNC GLOBAL DEFAULT UND _ZN7android8hardware6Stat
70:   FUNC GLOBAL DEFAULT UND _ZN7android8hardware7IBin
71:   FUNC GLOBAL DEFAULT UND _ZN7android8hardware7IBin
72:   FUNC GLOBAL DEFAULT UND _ZN7android8hardware7IBin
73:   FUNC GLOBAL DEFAULT UND _ZN7android8hardware7IBin
74:   FUNC GLOBAL DEFAULT UND _ZN7android8hardware7deta
75:   FUNC GLOBAL DEFAULT UND _ZN7android8hardware7deta
76:   FUNC GLOBAL DEFAULT UND _ZN7android8hardware7deta
77:   FUNC GLOBAL DEFAULT UND _ZN7android8hardware7deta
78:   FUNC GLOBAL DEFAULT UND _ZN7android8hardware7deta
79:   FUNC GLOBAL DEFAULT UND _ZN7android8hardware7deta
80:   FUNC GLOBAL DEFAULT UND _ZN7android8hardware7deta
81:   OBJECT GLOBAL DEFAULT UND _ZN7android8hardware7deta
82:   OBJECT GLOBAL DEFAULT UND _ZN7android8hardware7deta
83:   FUNC GLOBAL DEFAULT UND _ZN7android8hardware7deta
84:   FUNC GLOBAL DEFAULT UND _ZN7android8hardware7deta
85:   FUNC GLOBAL DEFAULT UND _ZN7android8hardware7deta
86:   FUNC GLOBAL DEFAULT UND _ZN7android8hardware7deta
87:   FUNC GLOBAL DEFAULT UND _ZN7android8hardware7deta
88:   FUNC GLOBAL DEFAULT UND _ZN7android8hardware7deta
89:   FUNC GLOBAL DEFAULT UND _ZN7android8hardware7deta
90:   FUNC GLOBAL DEFAULT UND _ZN7android8hardware7deta
91:   FUNC GLOBAL DEFAULT UND _ZN7android8hardware7deta
92:   OBJECT GLOBAL DEFAULT UND _ZN7android8hardware7deta
93:   FUNC GLOBAL DEFAULT UND _ZN7android8hardware9BHwB
94:   FUNC GLOBAL DEFAULT UND _ZN7android8hardware9BHwB
95:   FUNC GLOBAL DEFAULT UND _ZN7android8hardware9BHwB
96:   FUNC GLOBAL DEFAULT UND _ZN7android8hardware9BHwB
97:   FUNC GLOBAL DEFAULT UND _ZN7android8hardware9BHwB
98:   FUNC GLOBAL DEFAULT UND _ZN7android8hardware9BHwB
99:   FUNC GLOBAL DEFAULT UND _ZN7android8hardware9BHwB
100:   FUNC GLOBAL DEFAULT UND _ZN7android8hardware9BHwB
101:   FUNC GLOBAL DEFAULT UND _ZN7android8hardware9BHwB
102:   FUNC GLOBAL DEFAULT UND _ZN7android8hardware9BHwB
103:   FUNC GLOBAL DEFAULT UND _ZNK7android7RefBase10cre
104:   FUNC GLOBAL DEFAULT UND _ZNK7android7RefBase11get
105:   FUNC GLOBAL DEFAULT UND _ZNK7android7RefBase9decS
106:   FUNC GLOBAL DEFAULT UND _ZNK7android7RefBase9incS
107:   FUNC GLOBAL DEFAULT UND _ZNK7android8hardware6Par
108:   FUNC GLOBAL DEFAULT UND _ZNK7android8hardware6Par
109:   FUNC GLOBAL DEFAULT UND _ZNK7android8hardware6Par
110:   FUNC GLOBAL DEFAULT UND _ZNK7android8hardware6Par
111:   FUNC GLOBAL DEFAULT UND _ZNK7android8hardware7IBi
112:   FUNC GLOBAL DEFAULT UND _ZNK7android8hardware7det
113:   FUNC GLOBAL DEFAULT UND _ZNK7android8hardware9BHw
114:   FUNC GLOBAL DEFAULT UND _ZNKSt3__120__vector_base
115:   FUNC GLOBAL DEFAULT UND _ZNKSt3__121__basic_strin
116:   FUNC GLOBAL DEFAULT UND _ZNSt3__112basic_stringIc
117:   FUNC GLOBAL DEFAULT UND _ZNSt3__15mutex4lockEv
118:   FUNC GLOBAL DEFAULT UND _ZNSt3__15mutex6unlockEv
119:   FUNC GLOBAL DEFAULT UND _ZNSt3__15mutexD1Ev
120:   FUNC GLOBAL DEFAULT UND _ZTv0_n12_N7android4hidl4
121:   FUNC GLOBAL DEFAULT UND _ZTv0_n12_N7android4hidl4
122:   FUNC GLOBAL DEFAULT UND _ZTv0_n12_N7android8hardw
123:   FUNC GLOBAL DEFAULT UND _ZTv0_n12_N7android8hardw
124:   FUNC GLOBAL DEFAULT UND _ZTv0_n12_N7android8hardw
125:   FUNC GLOBAL DEFAULT UND _ZTv0_n12_N7android8hardw
126:   FUNC GLOBAL DEFAULT UND _ZTv0_n12_N7android8hardw
127:   FUNC GLOBAL DEFAULT UND _ZTv0_n12_N7android8hardw
128:   FUNC GLOBAL DEFAULT UND _ZTv0_n12_N7android8hardw
129:   FUNC GLOBAL DEFAULT UND _ZTv0_n12_N7android8hardw
130:   FUNC GLOBAL DEFAULT UND _ZTv0_n16_N7android8hardw
131:   FUNC GLOBAL DEFAULT UND _ZTv0_n20_N7android8hardw
132:   FUNC GLOBAL DEFAULT UND _ZTv0_n24_N7android8hardw
133:   FUNC GLOBAL DEFAULT UND _ZdaPv
134:   FUNC GLOBAL DEFAULT UND _ZdlPv
135:   FUNC GLOBAL DEFAULT UND _Znaj
136:   FUNC GLOBAL DEFAULT UND _Znwj
137:   FUNC GLOBAL DEFAULT UND __android_log_assert@LIBLOG (3)
138:   FUNC GLOBAL DEFAULT UND __cxa_pure_virtual
139:   FUNC GLOBAL DEFAULT UND __stack_chk_fail@LIBC (2)
140:   OBJECT GLOBAL DEFAULT UND __stack_chk_guard@LIBC (2)
141:   FUNC GLOBAL DEFAULT UND abort@LIBC (2)
142:   FUNC GLOBAL DEFAULT UND atrace_begin_body
143:   OBJECT GLOBAL DEFAULT UND atrace_enabled_tags
144:   FUNC GLOBAL DEFAULT UND atrace_end_body
145:   OBJECT GLOBAL DEFAULT UND atrace_is_ready
146:   FUNC GLOBAL DEFAULT UND atrace_setup
147:   FUNC GLOBAL DEFAULT UND memcmp@LIBC (2)
148:   FUNC GLOBAL DEFAULT UND strlen@LIBC (2)
149:   FUNC GLOBAL DEFAULT UND memcpy@LIBC (2)
150:   FUNC GLOBAL DEFAULT UND memset@LIBC (2)
151:   FUNC GLOBAL DEFAULT 14 _ZN7android6system3net4ne
152:   OBJECT GLOBAL DEFAULT 18 _ZTCN7android6system3net4
153:   OBJECT GLOBAL DEFAULT 18 _ZTCN7android6system3net4
154:   FUNC GLOBAL DEFAULT 14 _ZN7android6system3net4ne
155:   FUNC GLOBAL DEFAULT 14 _ZN7android6system3net4ne
156:   FUNC WEAK DEFAULT 14 _ZNSt3__16__treeINS_12__v
157:   FUNC GLOBAL DEFAULT 14 _ZN7android6system3net4ne
158:   OBJECT WEAK DEFAULT 18 _ZTCN7android6system3net4
159:   FUNC GLOBAL DEFAULT 14 _ZTv0_n12_N7android6syste
160:   FUNC GLOBAL DEFAULT 14 __aeabi_memclr8
161:   FUNC GLOBAL DEFAULT 14 _ZN7android6system3net4ne
162:   FUNC GLOBAL DEFAULT 14 _ZN7android6system3net4ne
163:   FUNC GLOBAL DEFAULT 14 _ZN7android6system3net4ne
164:   FUNC WEAK DEFAULT 14 _ZNSt3__16vectorIN7androi
165:   OBJECT GLOBAL DEFAULT 18 _ZTTN7android6system3net4
166:   FUNC GLOBAL DEFAULT 14 _ZThn20_N7android6system3
167:   OBJECT GLOBAL DEFAULT 16 _ZN7android6system3net4ne
168:   FUNC GLOBAL DEFAULT 14 _ZN7android6system3net4ne
169:   FUNC GLOBAL DEFAULT 14 _ZN7android6system3net4ne
170:   FUNC WEAK DEFAULT 14 _ZNSt3__16__treeINS_12__v
171:   FUNC GLOBAL DEFAULT 14 _ZN7android6system3net4ne
172:   FUNC WEAK DEFAULT 14 _ZNSt3__16__treeINS_12__v
173:   FUNC WEAK DEFAULT 14 _ZNSt3__16vectorIPvNS_9al
174:   OBJECT WEAK DEFAULT 18 _ZTVN7android6system3net4
175:   FUNC GLOBAL DEFAULT 14 __aeabi_memcpy
176:   FUNC GLOBAL DEFAULT 14 _ZN7android6system3net4ne
177:   FUNC WEAK DEFAULT 14 _ZNSt3__16__treeINS_12__v
178:   FUNC WEAK DEFAULT 14 _ZNSt3__16__treeINS_12__v
179:   OBJECT GLOBAL DEFAULT 18 _ZTVN7android6system3net4
180:   FUNC WEAK DEFAULT 14 _ZNSt3__16__treeINS_12__v
181:   FUNC GLOBAL DEFAULT 14 _ZN7android6system3net4ne
182:   FUNC GLOBAL DEFAULT 14 _ZN7android6system3net4ne
183:   FUNC WEAK DEFAULT 14 _ZNSt3__16vectorINS_8func
184:   OBJECT GLOBAL DEFAULT 18 _ZTCN7android6system3net4
185:   FUNC GLOBAL DEFAULT 14 __aeabi_memcpy4
186:   FUNC GLOBAL DEFAULT 14 __aeabi_memset4
187:   FUNC GLOBAL DEFAULT 14 _ZN7android6system3net4ne
188:   FUNC GLOBAL DEFAULT 14 _ZN7android6system3net4ne
189:   FUNC GLOBAL DEFAULT 14 _ZN7android6system3net4ne
190:   FUNC GLOBAL DEFAULT 14 _ZN7android6system3net4ne
191:   FUNC GLOBAL DEFAULT 14 _ZN7android6system3net4ne
192:   OBJECT GLOBAL DEFAULT 18 _ZTCN7android6system3net4
193:   FUNC GLOBAL DEFAULT 14 __aeabi_memset
194:   FUNC GLOBAL DEFAULT 14 _ZN7android6system3net4ne
195:   FUNC GLOBAL DEFAULT 14 _ZN7android6system3net4ne
196:   FUNC WEAK DEFAULT 14 _ZN7android8hardware7deta
197:   OBJECT GLOBAL DEFAULT 18 _ZTCN7android6system3net4
198:   FUNC GLOBAL DEFAULT 14 _ZN7android6system3net4ne
199:   FUNC GLOBAL DEFAULT 14 _ZN7android6system3net4ne
200:   FUNC GLOBAL DEFAULT 14 _ZN7android6system3net4ne
201:   OBJECT GLOBAL DEFAULT 18 _ZTTN7android6system3net4
202:   OBJECT GLOBAL DEFAULT 18 _ZTVN7android6system3net4
203:   FUNC GLOBAL DEFAULT 14 _ZTv0_n12_N7android6syste
204:   FUNC GLOBAL DEFAULT 14 __aeabi_memcpy8
205:   FUNC GLOBAL DEFAULT 14 __aeabi_memset8
206:   FUNC GLOBAL DEFAULT 14 _ZN7android6system3net4ne
207:   FUNC GLOBAL DEFAULT 14 _ZN7android6system3net4ne
208:   FUNC GLOBAL DEFAULT 14 _ZN7android6system3net4ne
209:   OBJECT GLOBAL DEFAULT 18 _ZTCN7android6system3net4
210:   OBJECT GLOBAL DEFAULT 18 _ZTTN7android6system3net4
211:   FUNC GLOBAL DEFAULT 14 _ZThn20_N7android6system3
212:   FUNC GLOBAL DEFAULT 14 _ZN7android6system3net4ne
213:   FUNC GLOBAL DEFAULT 14 _ZN7android6system3net4ne
214:   FUNC GLOBAL DEFAULT 14 _ZN7android6system3net4ne
215:   FUNC GLOBAL DEFAULT 14 _ZN7android6system3net4ne
216:   FUNC GLOBAL DEFAULT 14 _ZN7android6system3net4ne
217:   FUNC GLOBAL DEFAULT 14 _ZN7android6system3net4ne
218:   FUNC GLOBAL DEFAULT 14 _ZN7android6system3net4ne
219:   FUNC GLOBAL DEFAULT 14 _ZN7android6system3net4ne
220:   FUNC GLOBAL DEFAULT 14 _ZN7android6system3net4ne
221:   OBJECT GLOBAL DEFAULT 18 _ZTCN7android6system3net4
222:   FUNC GLOBAL DEFAULT 14 _ZN7android6system3net4ne
223:   FUNC GLOBAL DEFAULT 14 _ZN7android6system3net4ne
224:   FUNC GLOBAL DEFAULT 14 _ZN7android6system3net4ne
225:   FUNC WEAK DEFAULT 14 _ZNSt3__127__tree_balance
226:   FUNC GLOBAL DEFAULT 14 _ZN7android6system3net4ne
227:   FUNC GLOBAL DEFAULT 14 _ZN7android6system3net4ne
228:   OBJECT GLOBAL DEFAULT 18 _ZTCN7android6system3net4
229:   FUNC GLOBAL DEFAULT 14 _ZN7android6system3net4ne
230:   FUNC GLOBAL DEFAULT 14 _ZN7android6system3net4ne
231:   FUNC WEAK DEFAULT 14 _ZN7android8hardware7deta
232:   FUNC WEAK DEFAULT 14 _ZNSt3__113__tree_removeI
233:   OBJECT GLOBAL DEFAULT 18 _ZTCN7android6system3net4
234:   FUNC GLOBAL DEFAULT 14 __aeabi_memclr
235:   FUNC GLOBAL DEFAULT 14 __aeabi_memclr4
236:   FUNC GLOBAL DEFAULT 14 _ZN7android6system3net4ne
237:   FUNC GLOBAL DEFAULT 14 _ZN7android6system3net4ne
238:   FUNC GLOBAL DEFAULT 14 _ZN7android6system3net4ne
239:   OBJECT GLOBAL DEFAULT 18 _ZTVN7android6system3net4
