 0x0000000e (SONAME)                     Library soname: [libaudiopolicy.so]
  
Symbol   contains 66 entries:
Num:   Type Bind Vis Ndx Name
0:   NOTYPE LOCAL DEFAULT UND
1:   FUNC GLOBAL DEFAULT UND __cxa_finalize@LIBC (2)
2:   FUNC GLOBAL DEFAULT UND _ZN7android6Parcel10write
3:   FUNC GLOBAL DEFAULT UND _ZN7android6Parcel11write
4:   FUNC GLOBAL DEFAULT UND _ZN7android6Parcel16write
5:   FUNC GLOBAL DEFAULT UND _ZNK7android6Parcel10read
6:   FUNC GLOBAL DEFAULT UND _ZNK7android6Parcel17read
7:   FUNC GLOBAL DEFAULT UND _ZNK7android6Parcel9readI
8:   FUNC GLOBAL DEFAULT UND _ZNKSt3__121__basic_strin
9:   FUNC GLOBAL DEFAULT UND _ZdlPv
10:   FUNC GLOBAL DEFAULT UND _Znwj
11:   FUNC GLOBAL DEFAULT UND __stack_chk_fail@LIBC (2)
12:   OBJECT GLOBAL DEFAULT UND __stack_chk_guard@LIBC (2)
13:   FUNC GLOBAL DEFAULT UND strlen@LIBC (2)
14:   FUNC GLOBAL DEFAULT UND strncpy@LIBC (2)
15:   FUNC GLOBAL DEFAULT UND _ZN7android10VectorImpl3a
16:   FUNC GLOBAL DEFAULT UND _ZN7android6Parcel12write
17:   FUNC GLOBAL DEFAULT UND _ZN7android6Parcel9writeB
18:   FUNC GLOBAL DEFAULT UND _ZN7android7String85setTo
19:   FUNC GLOBAL DEFAULT UND _ZN7android7String8D1Ev
20:   FUNC GLOBAL DEFAULT UND _ZNK7android6Parcel11read
21:   FUNC GLOBAL DEFAULT UND _ZNK7android6Parcel12data
22:   FUNC GLOBAL DEFAULT UND _ZNK7android6Parcel8readB
23:   FUNC GLOBAL DEFAULT UND __android_log_print@LIBLOG (3)
24:   FUNC GLOBAL DEFAULT UND _ZNK7android6Parcel15setD
25:   FUNC GLOBAL DEFAULT UND _ZNKSt3__120__vector_base
26:   FUNC GLOBAL DEFAULT UND __strlen_chk@LIBC (2)
27:   FUNC GLOBAL DEFAULT UND strcmp@LIBC (2)
28:   FUNC GLOBAL DEFAULT UND abort@LIBC (2)
29:   FUNC GLOBAL DEFAULT UND memcpy@LIBC (2)
30:   FUNC GLOBAL DEFAULT UND memset@LIBC (2)
31:   FUNC GLOBAL DEFAULT 13 _ZN7android19AudioDeviceT
32:   FUNC GLOBAL DEFAULT 13 _ZNK7android19AudioDevice
33:   FUNC GLOBAL DEFAULT 13 _ZNK7android8AudioMix26is
34:   FUNC GLOBAL DEFAULT 13 __aeabi_memclr4
35:   FUNC GLOBAL DEFAULT 13 _ZN7android16AudioVolumeG
36:   FUNC GLOBAL DEFAULT 13 _ZN7android15AudioAttribu
37:   OBJECT GLOBAL DEFAULT 17 _ZTVN7android16AudioVolum
38:   OBJECT GLOBAL DEFAULT 17 _ZTVN7android15AudioAttri
39:   FUNC GLOBAL DEFAULT 13 _ZNK7android8AudioMix13se
40:   FUNC GLOBAL DEFAULT 13 _ZN7android20AudioProduct
41:   FUNC GLOBAL DEFAULT 13 _ZNK7android8AudioMix11se
42:   FUNC GLOBAL DEFAULT 13 _ZNK7android8AudioMix15ha
43:   OBJECT GLOBAL DEFAULT 17 _ZTVN7android20AudioProdu
44:   FUNC GLOBAL DEFAULT 13 __aeabi_memcpy4
45:   FUNC WEAK DEFAULT 13 _ZNSt3__16vectorI19audio_
46:   FUNC GLOBAL DEFAULT 13 __aeabi_memset4
47:   FUNC GLOBAL DEFAULT 13 _ZN7android20AudioProduct
48:   FUNC WEAK DEFAULT 13 _ZNSt3__16vectorIN7androi
49:   FUNC GLOBAL DEFAULT 13 __aeabi_memclr
50:   FUNC GLOBAL DEFAULT 13 __aeabi_memclr8
51:   FUNC GLOBAL DEFAULT 13 _ZNK7android16AudioVolume
52:   FUNC GLOBAL DEFAULT 13 _ZNK7android15AudioAttrib
53:   FUNC GLOBAL DEFAULT 13 _ZN7android22AudioMixMatc
54:   FUNC GLOBAL DEFAULT 13 __aeabi_memcpy
55:   FUNC GLOBAL DEFAULT 13 _ZN7android22AudioMixMatc
56:   FUNC GLOBAL DEFAULT 13 _ZN7android22AudioMixMatc
57:   FUNC GLOBAL DEFAULT 13 _ZN7android8AudioMix14rea
58:   FUNC GLOBAL DEFAULT 13 _ZNK7android22AudioMixMat
59:   FUNC GLOBAL DEFAULT 13 _ZNK7android8AudioMix10ha
60:   FUNC GLOBAL DEFAULT 13 _ZNK7android8AudioMix13wr
61:   FUNC GLOBAL DEFAULT 13 _ZNK7android20AudioProduc
62:   FUNC WEAK DEFAULT 13 _ZNSt3__16vectorI18audio_
63:   FUNC GLOBAL DEFAULT 13 __aeabi_memcpy8
64:   FUNC GLOBAL DEFAULT 13 __aeabi_memset
65:   FUNC GLOBAL DEFAULT 13 __aeabi_memset8
