 0x000000000000000e (SONAME)             Library soname: [libnfc-nci.so]
  
Symbol   contains 1214 entries:
Num:   Type Bind Vis Ndx Name
0:   NOTYPE LOCAL DEFAULT UND
1:   FUNC GLOBAL DEFAULT UND __cxa_finalize@LIBC (2)
2:   FUNC GLOBAL DEFAULT UND __cxa_atexit@LIBC (2)
3:   FUNC GLOBAL DEFAULT UND _ZN7logging22ShouldCreate
4:   FUNC GLOBAL DEFAULT UND _ZN7logging10LogMessageC1
5:   FUNC GLOBAL DEFAULT UND _ZN7android4base12StringP
6:   FUNC GLOBAL DEFAULT UND _ZN7logging10LogMessageD1
7:   FUNC GLOBAL DEFAULT UND __cfi_slowpath@LIBC_OMR1 (3)
8:   FUNC GLOBAL DEFAULT UND memcmp@LIBC (2)
9:   FUNC GLOBAL DEFAULT UND __android_log_error_write@LIBLOG_M (4)
10:   FUNC GLOBAL DEFAULT UND __memcpy_chk@LIBC (2)
11:   FUNC GLOBAL DEFAULT UND _ZdlPv
12:   FUNC GLOBAL DEFAULT UND _ZNSt3__113basic_ostreamI
13:   FUNC GLOBAL DEFAULT UND _ZNSt3__113basic_ostreamI
14:   FUNC GLOBAL DEFAULT UND _Znwm
15:   FUNC GLOBAL DEFAULT UND __memset_chk@LIBC (2)
16:   FUNC GLOBAL DEFAULT UND _ZNKSt3__18ios_base6getlo
17:   FUNC GLOBAL DEFAULT UND _ZNSt3__16localeD1Ev
18:   FUNC GLOBAL DEFAULT UND _ZNKSt3__16locale9use_fac
19:   FUNC GLOBAL DEFAULT UND _ZNSt3__18ios_base5clearE
20:   OBJECT GLOBAL DEFAULT UND _ZNSt3__15ctypeIcE2idE
21:   FUNC GLOBAL DEFAULT UND strlen@LIBC (2)
22:   FUNC GLOBAL DEFAULT UND __strlen_chk@LIBC (2)
23:   FUNC GLOBAL DEFAULT UND _ZN7android4util11stats_w
24:   FUNC GLOBAL DEFAULT UND __vsprintf_chk@LIBC (2)
25:   FUNC GLOBAL DEFAULT UND strncmp@LIBC (2)
26:   FUNC GLOBAL DEFAULT UND __strncpy_chk2@LIBC (2)
27:   FUNC GLOBAL DEFAULT UND strncpy@LIBC (2)
28:   FUNC GLOBAL DEFAULT UND _ZNKSt3__121__basic_strin
29:   FUNC GLOBAL DEFAULT UND _ZN7logging10LogMessageC1
30:   FUNC GLOBAL DEFAULT UND abort@LIBC (2)
31:   FUNC GLOBAL DEFAULT UND gettimeofday@LIBC (2)
32:   FUNC GLOBAL DEFAULT UND _ZN7android4util11stats_w
33:   FUNC GLOBAL DEFAULT UND _ZN7android13metricslogge
34:   FUNC GLOBAL DEFAULT UND _ZNSt3__113basic_ostreamI
35:   FUNC GLOBAL DEFAULT UND _ZNSt3__113basic_ostreamI
36:   FUNC GLOBAL DEFAULT UND _ZNSt3__113basic_ostreamI
37:   FUNC GLOBAL DEFAULT UND _ZNSt3__112basic_stringIc
38:   FUNC GLOBAL DEFAULT UND close@LIBC (2)
39:   FUNC GLOBAL DEFAULT UND __open_2@LIBC (2)
40:   FUNC GLOBAL DEFAULT UND __read_chk@LIBC (2)
41:   FUNC GLOBAL DEFAULT UND _ZNSt3__112basic_stringIc
42:   FUNC GLOBAL DEFAULT UND _ZN4base11CommandLine4Ini
43:   FUNC GLOBAL DEFAULT UND _ZN7logging11SetLogItemsE
44:   FUNC GLOBAL DEFAULT UND _ZN7android8hardware3nfc4
45:   FUNC GLOBAL DEFAULT UND _ZN7android8hardware3nfc4
46:   FUNC GLOBAL DEFAULT UND _ZN7android8hardware3nfc4
47:   FUNC GLOBAL DEFAULT UND _ZN7android8hardware7deta
48:   FUNC GLOBAL DEFAULT UND pthread_mutexattr_init@LIBC (2)
49:   FUNC GLOBAL DEFAULT UND pthread_mutex_init@LIBC (2)
50:   FUNC GLOBAL DEFAULT UND pthread_mutexattr_destroy@LIBC (2)
51:   FUNC GLOBAL DEFAULT UND pthread_mutex_destroy@LIBC (2)
52:   FUNC GLOBAL DEFAULT UND pthread_mutex_lock@LIBC (2)
53:   FUNC GLOBAL DEFAULT UND pthread_mutex_unlock@LIBC (2)
54:   FUNC GLOBAL DEFAULT UND pthread_condattr_init@LIBC (2)
55:   FUNC GLOBAL DEFAULT UND pthread_cond_init@LIBC (2)
56:   FUNC GLOBAL DEFAULT UND pthread_condattr_destroy@LIBC (2)
57:   FUNC GLOBAL DEFAULT UND pthread_cond_destroy@LIBC (2)
58:   FUNC GLOBAL DEFAULT UND pthread_cond_wait@LIBC (2)
59:   FUNC GLOBAL DEFAULT UND pthread_cond_signal@LIBC (2)
60:   FUNC GLOBAL DEFAULT UND property_get
61:   FUNC GLOBAL DEFAULT UND sscanf@LIBC (2)
62:   FUNC GLOBAL DEFAULT UND _ZN7android7RefBaseC2Ev
63:   FUNC GLOBAL DEFAULT UND _ZN7android8hardware3nfc4
64:   FUNC GLOBAL DEFAULT UND _ZN7android8hardware3nfc4
65:   FUNC GLOBAL DEFAULT UND _ZN7android8hardware3nfc4
66:   FUNC GLOBAL DEFAULT UND _ZN7android8hardware3nfc4
67:   FUNC GLOBAL DEFAULT UND _ZN7android8hardware3nfc4
68:   FUNC GLOBAL DEFAULT UND _ZN7android8hardware3nfc4
69:   FUNC GLOBAL DEFAULT UND _ZN7android8hardware3nfc4
70:   FUNC GLOBAL DEFAULT UND _ZN7android8hardware3nfc4
71:   FUNC GLOBAL DEFAULT UND _ZN7android8hardware3nfc4
72:   FUNC GLOBAL DEFAULT UND _ZN7android8hardware3nfc4
73:   FUNC GLOBAL DEFAULT UND _ZN7android7RefBase10onFi
74:   FUNC GLOBAL DEFAULT UND _ZN7android7RefBase15onLa
75:   FUNC GLOBAL DEFAULT UND _ZN7android7RefBase20onIn
76:   FUNC GLOBAL DEFAULT UND _ZN7android7RefBase13onLa
77:   FUNC GLOBAL DEFAULT UND _ZN7android7RefBaseD2Ev
78:   FUNC GLOBAL DEFAULT UND _ZdaPv
79:   FUNC GLOBAL DEFAULT UND _Znam
80:   FUNC GLOBAL DEFAULT UND _ZNK7android7RefBase9decS
81:   FUNC GLOBAL DEFAULT UND _ZN7android14sp_report_ra
82:   FUNC GLOBAL DEFAULT UND _ZNK7android7RefBase9incS
83:   FUNC GLOBAL DEFAULT UND _ZNSt3__15mutexD1Ev
84:   FUNC GLOBAL DEFAULT UND dprintf@LIBC (2)
85:   FUNC GLOBAL DEFAULT UND __b64_ntop@LIBC (2)
86:   FUNC GLOBAL DEFAULT UND _ZN7android4base10LogMess
87:   FUNC GLOBAL DEFAULT UND _ZN7android4base10LogMess
88:   FUNC GLOBAL DEFAULT UND _ZN7android4base10LogMess
89:   FUNC GLOBAL DEFAULT UND deflateInit_
90:   FUNC GLOBAL DEFAULT UND deflate
91:   FUNC GLOBAL DEFAULT UND deflateEnd
92:   FUNC GLOBAL DEFAULT UND _ZNSt3__15mutex4lockEv
93:   FUNC GLOBAL DEFAULT UND _ZNSt3__15mutex6unlockEv
94:   FUNC GLOBAL DEFAULT UND malloc@LIBC (2)
95:   FUNC GLOBAL DEFAULT UND free@LIBC (2)
96:   FUNC GLOBAL DEFAULT UND __errno@LIBC (2)
97:   FUNC GLOBAL DEFAULT UND remove@LIBC (2)
98:   FUNC GLOBAL DEFAULT UND read@LIBC (2)
99:   FUNC GLOBAL DEFAULT UND open@LIBC (2)
100:   FUNC GLOBAL DEFAULT UND write@LIBC (2)
101:   FUNC GLOBAL DEFAULT UND __write_chk@LIBC_N (5)
102:   FUNC GLOBAL DEFAULT UND __cxa_guard_acquire
103:   FUNC GLOBAL DEFAULT UND __cxa_guard_release
104:   FUNC GLOBAL DEFAULT UND _ZNSt3__112basic_stringIc
105:   FUNC GLOBAL DEFAULT UND stat@LIBC (2)
106:   FUNC GLOBAL DEFAULT UND _ZNKSt3__120__vector_base
107:   FUNC GLOBAL DEFAULT UND _ZNKSt3__112basic_stringI
108:   FUNC GLOBAL DEFAULT UND pthread_self@LIBC (2)
109:   FUNC GLOBAL DEFAULT UND times@LIBC (2)
110:   FUNC GLOBAL DEFAULT UND pthread_mutexattr_settype@LIBC (2)
111:   FUNC GLOBAL DEFAULT UND pthread_condattr_setclock@LIBC (2)
112:   FUNC GLOBAL DEFAULT UND pthread_attr_init@LIBC (2)
113:   FUNC GLOBAL DEFAULT UND pthread_attr_setdetachsta@LIBC (2)
114:   FUNC GLOBAL DEFAULT UND pthread_create@LIBC (2)
115:   FUNC GLOBAL DEFAULT UND pthread_getschedparam@LIBC (2)
116:   FUNC GLOBAL DEFAULT UND pthread_setschedparam@LIBC (2)
117:   FUNC GLOBAL DEFAULT UND usleep@LIBC (2)
118:   FUNC GLOBAL DEFAULT UND nanosleep@LIBC (2)
119:   FUNC GLOBAL DEFAULT UND clock_gettime@LIBC (2)
120:   FUNC GLOBAL DEFAULT UND pthread_cond_timedwait@LIBC (2)
121:   FUNC GLOBAL DEFAULT UND _ZNSt3__112basic_stringIc
122:   FUNC GLOBAL DEFAULT UND _ZN7android4base16ReadFil
123:   FUNC GLOBAL DEFAULT UND _ZN7android4base21GetMini
124:   FUNC GLOBAL DEFAULT UND _ZN7android4base4TrimERKN
125:   FUNC GLOBAL DEFAULT UND _ZNSt3__112basic_stringIc
126:   FUNC GLOBAL DEFAULT UND _ZNKSt3__112basic_stringI
127:   FUNC GLOBAL DEFAULT UND _ZN7android4base5SplitERK
128:   FUNC GLOBAL DEFAULT UND isspace@LIBC (2)
129:   FUNC GLOBAL DEFAULT UND strtoull@LIBC (2)
130:   FUNC GLOBAL DEFAULT UND tolower@LIBC (2)
131:   FUNC GLOBAL DEFAULT UND __strchr_chk@LIBC (2)
132:   FUNC GLOBAL DEFAULT UND _ZNSt3__19basic_iosIcNS_1
133:   FUNC GLOBAL DEFAULT UND _ZNSt3__114basic_iostream
134:   FUNC GLOBAL DEFAULT UND _ZNSt3__114basic_iostream
135:   FUNC GLOBAL DEFAULT UND _ZThn16_NSt3__114basic_io
136:   FUNC GLOBAL DEFAULT UND _ZThn16_NSt3__114basic_io
137:   FUNC GLOBAL DEFAULT UND _ZTv0_n24_NSt3__114basic_
138:   FUNC GLOBAL DEFAULT UND _ZTv0_n24_NSt3__114basic_
139:   FUNC GLOBAL DEFAULT UND _ZNSt3__113basic_istreamI
140:   FUNC GLOBAL DEFAULT UND _ZNSt3__113basic_istreamI
141:   FUNC GLOBAL DEFAULT UND _ZTv0_n24_NSt3__113basic_
142:   FUNC GLOBAL DEFAULT UND _ZTv0_n24_NSt3__113basic_
143:   FUNC GLOBAL DEFAULT UND _ZNSt3__113basic_ostreamI
144:   FUNC GLOBAL DEFAULT UND _ZNSt3__113basic_ostreamI
145:   FUNC GLOBAL DEFAULT UND _ZTv0_n24_NSt3__113basic_
146:   FUNC GLOBAL DEFAULT UND _ZTv0_n24_NSt3__113basic_
147:   FUNC GLOBAL DEFAULT UND _ZNSt3__114basic_iostream
148:   FUNC GLOBAL DEFAULT UND _ZNSt3__115basic_streambu
149:   FUNC GLOBAL DEFAULT UND _ZNSt3__115basic_streambu
150:   FUNC GLOBAL DEFAULT UND _ZNSt3__115basic_streambu
151:   FUNC GLOBAL DEFAULT UND _ZNSt3__115basic_streambu
152:   FUNC GLOBAL DEFAULT UND _ZNSt3__115basic_streambu
153:   FUNC GLOBAL DEFAULT UND _ZNSt3__115basic_streambu
154:   FUNC GLOBAL DEFAULT UND _ZNSt3__115basic_streambu
155:   FUNC GLOBAL DEFAULT UND _ZNSt3__115basic_streambu
156:   FUNC GLOBAL DEFAULT UND _ZNSt3__112basic_stringIc
157:   FUNC GLOBAL DEFAULT UND _ZNSt3__112basic_stringIc
158:   FUNC GLOBAL DEFAULT UND _ZNSt3__112basic_stringIc
159:   FUNC GLOBAL DEFAULT UND _ZNSt3__18ios_base4initEP
160:   FUNC GLOBAL DEFAULT UND _ZNSt3__115basic_streambu
161:   FUNC GLOBAL DEFAULT UND _ZNSt3__113basic_istreamI
162:   FUNC GLOBAL DEFAULT UND calloc@LIBC (2)
163:   FUNC GLOBAL DEFAULT UND memset@LIBC (2)
164:   FUNC GLOBAL DEFAULT UND memcpy@LIBC (2)
165:   FUNC GLOBAL DEFAULT UND memmove@LIBC (2)
166:   FUNC GLOBAL DEFAULT UND __stack_chk_fail@LIBC (2)
167:   FUNC GLOBAL DEFAULT 14 _Z31nfa_ce_remove_listen_
168:   FUNC GLOBAL DEFAULT 14 _Z27nfa_dm_start_excl_dis
169:   FUNC GLOBAL DEFAULT 14 _Z31nfa_dm_act_get_rf_dis
170:   FUNC GLOBAL DEFAULT 14 _Z47nfa_sys_cback_reg_nfc
171:   FUNC GLOBAL DEFAULT 14 _Z11GKI_shiftupPhS_j
172:   FUNC GLOBAL DEFAULT 14 _Z23ce_t3t_handle_check_c
173:   FUNC GLOBAL DEFAULT 14 _ZN15AutoThreadMutexC1ER1
174:   FUNC GLOBAL DEFAULT 14 _Z15ringbuffer_initm
175:   FUNC GLOBAL DEFAULT 14 _Z15gki_buffer_initv
176:   FUNC GLOBAL DEFAULT 14 _Z13GKI_exceptiontNSt3__1
177:   FUNC GLOBAL DEFAULT 14 _Z21CE_T4tSetLocalNDEFMsg
178:   FUNC GLOBAL DEFAULT 14 _Z24nfa_ee_api_set_proto_
179:   FUNC GLOBAL DEFAULT 14 _Z21nfa_hciu_release_gate
180:   FUNC GLOBAL DEFAULT 14 _Z28rw_t4t_handle_isodep_
181:   FUNC GLOBAL DEFAULT 14 _Z17NFA_SendVsCommandhhPh
182:   OBJECT GLOBAL DEFAULT 23 nfc_cb
183:   FUNC GLOBAL DEFAULT 14 _Z15nfa_nv_co_writePKhth
184:   FUNC GLOBAL DEFAULT 14 _Z18RW_T1tWriteNoErasehhh
185:   FUNC GLOBAL DEFAULT 14 _Z26nfc_find_conn_cb_by_h
186:   FUNC GLOBAL DEFAULT 14 _Z15CE_SendRawFramePht
187:   FUNC GLOBAL DEFAULT 14 _Z17rw_t3t_conn_cbackhtP9
188:   FUNC GLOBAL DEFAULT 14 _ZN9NfcConfig6hasKeyERKNS
189:   FUNC GLOBAL DEFAULT 14 _Z28nfa_hci_proc_nfcc_pow
190:   FUNC GLOBAL DEFAULT 14 _Z18nfa_p2p_reg_serverP12
191:   FUNC GLOBAL DEFAULT 14 _Z14nfc_stop_timerP14TIME
192:   FUNC GLOBAL DEFAULT 14 _Z25rw_t3t_act_handle_sro
193:   FUNC GLOBAL DEFAULT 14 _Z18nfa_ce_set_contentv
194:   FUNC GLOBAL DEFAULT 14 _Z19nfa_ce_activate_ntfP1
195:   FUNC GLOBAL DEFAULT 14 _Z26nfa_dm_set_power_sub_
196:   FUNC GLOBAL DEFAULT 14 _Z21nfa_p2p_activate_llcp
197:   FUNC GLOBAL DEFAULT 14 _Z18nfa_dm_sys_disablev
198:   FUNC GLOBAL DEFAULT 14 _Z18NFA_RwI93StayQuietv
199:   FUNC GLOBAL DEFAULT 14 _Z27nfc_find_conn_cb_by_c
200:   FUNC GLOBAL DEFAULT 14 _Z21nfc_process_timer_evt
201:   FUNC GLOBAL DEFAULT 14 _ZN9NfcConfig10loadConfig
202:   OBJECT GLOBAL DEFAULT 23 p_nfa_dm_gen_cfg
203:   FUNC GLOBAL DEFAULT 14 _ZN13NfcAdaptation6signal
204:   FUNC GLOBAL DEFAULT 14 _Z13GKI_shiftdownPhjj
205:   FUNC GLOBAL DEFAULT 14 _Z26NFA_EeAddSystemCodeRo
206:   FUNC GLOBAL DEFAULT 14 _Z27nfa_hciu_send_set_par
207:   FUNC GLOBAL DEFAULT 14 _Z21NFA_P2pRegisterClient
208:   OBJECT GLOBAL DEFAULT 23 _ZN13NfcAdaptation8mHal_1
209:   FUNC GLOBAL DEFAULT 14 _Z10RW_T1tReadhh
210:   FUNC GLOBAL DEFAULT 14 _Z18NDEF_MsgGetNumRecsPh
211:   OBJECT GLOBAL DEFAULT 23 rw_cb
212:   FUNC GLOBAL DEFAULT 14 _Z8tags_powii
213:   FUNC GLOBAL DEFAULT 14 _Z19nfa_ee_nci_wait_rspP1
214:   FUNC GLOBAL DEFAULT 14 _ZN13NfcAdaptation8HalClo
215:   OBJECT GLOBAL DEFAULT 23 _ZN13NfcAdaptation23mHalC
216:   FUNC GLOBAL DEFAULT 14 _Z26nfa_dm_set_p2p_listen
217:   FUNC GLOBAL DEFAULT 14 _Z14NFA_RwT2tWritehPh
218:   FUNC GLOBAL DEFAULT 14 _Z20nfc_ncif_cmd_timeoutv
219:   FUNC GLOBAL DEFAULT 14 _Z13rw_mfc_selecthPh
220:   FUNC GLOBAL DEFAULT 14 _Z13NFC_ConnCloseh
221:   FUNC GLOBAL DEFAULT 14 _Z30nfa_hci_restore_defau
222:   OBJECT GLOBAL DEFAULT 18 _ZTV11ThreadMutex
223:   FUNC GLOBAL DEFAULT 14 _Z11RW_T3tCheckhP15tT3T_B
224:   FUNC GLOBAL DEFAULT 14 _ZN13ThreadCondVarD2Ev
225:   FUNC GLOBAL DEFAULT 14 _Z30llcp_util_deallocate_
226:   FUNC GLOBAL DEFAULT 14 _Z18llcp_util_parse_ccPht
227:   FUNC GLOBAL DEFAULT 14 _Z18nfc_ncif_proc_dataP7N
228:   FUNC GLOBAL DEFAULT 14 _Z26nfa_sys_disable_subsy
229:   FUNC GLOBAL DEFAULT 14 _Z25nfa_hciu_add_pipe_to_
230:   FUNC GLOBAL DEFAULT 14 _Z20LLCP_DiscoverServiceP
231:   FUNC GLOBAL DEFAULT 14 _Z15LLCP_ConnectCfmhhP23t
232:   FUNC GLOBAL DEFAULT 14 _Z22nfa_p2p_set_local_bus
233:   FUNC GLOBAL DEFAULT 14 _Z17NFC_NfceePLConfighh
234:   FUNC GLOBAL DEFAULT 14 _Z27nfa_dm_is_raw_frame_s
235:   FUNC GLOBAL DEFAULT 14 _Z23nfa_ee_api_add_sys_co
236:   FUNC GLOBAL DEFAULT 14 _Z19NFA_EeAddAidRoutingth
237:   FUNC GLOBAL DEFAULT 14 _Z17NFA_P2pAcceptConntth
238:   FUNC GLOBAL DEFAULT 14 _Z18RW_T2tSectorSelecth
239:   FUNC GLOBAL DEFAULT 14 _Z17NFA_RwI93WriteAFIh
240:   FUNC GLOBAL DEFAULT 14 _ZN10ConfigFile11getUnsig
241:   FUNC GLOBAL DEFAULT 14 _Z15nfc_gen_cleanupv
242:   FUNC GLOBAL DEFAULT 14 _ZN13NfcAdaptationD0Ev
243:   FUNC GLOBAL DEFAULT 14 _Z15ringbuffer_freeP12rin
244:   FUNC GLOBAL DEFAULT 14 _Z25nfa_sys_enable_subsys
245:   FUNC GLOBAL DEFAULT 14 _Z21NFA_RwI93ResetToReady
246:   FUNC GLOBAL DEFAULT 14 _Z23nfc_main_handle_hal_e
247:   FUNC GLOBAL DEFAULT 14 _Z16NFC_TestLoopbackP7NFC
248:   FUNC GLOBAL DEFAULT 14 _Z25nfa_dm_act_send_raw_f
249:   FUNC GLOBAL DEFAULT 14 _Z16NFA_RwDetectNDefv
250:   OBJECT GLOBAL DEFAULT 16 p_nfa_dm_ce_cfg
251:   FUNC GLOBAL DEFAULT 14 _Z26rw_t3t_handle_nci_pol
252:   FUNC GLOBAL DEFAULT 14 _ZN13NfcAdaptation12HalTe
253:   OBJECT GLOBAL DEFAULT 18 _ZTV15AutoThreadMutex
254:   FUNC GLOBAL DEFAULT 14 _ZN11ConfigValueC2Ej
255:   FUNC GLOBAL DEFAULT 14 _Z11NFC_Disablev
256:   FUNC GLOBAL DEFAULT 14 _Z19nfa_ee_api_discoverP1
257:   FUNC GLOBAL DEFAULT 14 _Z18nfa_rw_sys_disablev
258:   FUNC GLOBAL DEFAULT 14 _Z18llcp_link_activateP21
259:   FUNC GLOBAL DEFAULT 14 _Z19llcp_dlc_proc_i_pduhh
260:   FUNC GLOBAL DEFAULT 14 _Z21NFA_CeRegisterAidOnDH
261:   FUNC GLOBAL DEFAULT 14 _Z22nfa_dm_disc_sm_execut
262:   FUNC GLOBAL DEFAULT 14 _Z19nfa_hciu_alloc_pipeh
263:   OBJECT GLOBAL DEFAULT 23 nfa_p2p_cb
264:   FUNC GLOBAL DEFAULT 14 _ZN13NfcAdaptation14HalGe
265:   FUNC GLOBAL DEFAULT 14 _Z15nfa_hci_startupv
266:   FUNC GLOBAL DEFAULT 14 _Z32nci_snd_core_set_powe
267:   FUNC GLOBAL DEFAULT 14 _Z22NDEF_MsgCopyAndDechun
268:   OBJECT GLOBAL DEFAULT 23 nfa_ce_cb
269:   FUNC GLOBAL DEFAULT 14 _Z16GKI_get_buf_sizePv
270:   FUNC GLOBAL DEFAULT 14 _Z26rw_i93_send_cmd_stay_
271:   OBJECT GLOBAL DEFAULT 16 KeyMAD
272:   OBJECT GLOBAL DEFAULT 16 access_permission_mad
273:   OBJECT GLOBAL DEFAULT 23 gki_cb
274:   OBJECT WEAK DEFAULT 18 _ZTCNSt3__118basic_string
275:   FUNC GLOBAL DEFAULT 14 _Z32nfa_dm_ndef_dereg_hdl
276:   FUNC GLOBAL DEFAULT 14 _Z16RW_MfcFormatNDefv
277:   FUNC GLOBAL DEFAULT 14 _ZN10ConfigFile9getString
278:   FUNC GLOBAL DEFAULT 14 _Z17NFC_NfceeDiscoverb
279:   FUNC GLOBAL DEFAULT 14 _Z20nfa_ee_discv_timeoutP
280:   FUNC GLOBAL DEFAULT 14 _Z18LLCP_ConnectRejecthhh
281:   FUNC GLOBAL DEFAULT 14 _Z21RW_I93ReadSingleBlock
282:   FUNC GLOBAL DEFAULT 14 _Z13RW_T1tReadAllv
283:   FUNC GLOBAL DEFAULT 14 _Z17ce_t3t_conn_cbackhtP9
284:   FUNC GLOBAL DEFAULT 14 _Z19t2t_cmd_to_rsp_infoh
285:   FUNC GLOBAL DEFAULT 14 _Z22nfa_dm_add_rf_discove
286:   FUNC GLOBAL DEFAULT 14 _Z18nfa_hciu_evt_2_strhh
287:   FUNC GLOBAL DEFAULT 14 _Z27NFA_RegisterNDefTypeH
288:   FUNC GLOBAL DEFAULT 14 _Z27nfa_ee_find_sys_code_
289:   FUNC GLOBAL DEFAULT 14 _ZN10ConfigFile13parseFro
290:   FUNC GLOBAL DEFAULT 14 _Z32nfa_hciu_send_clear_a
291:   FUNC GLOBAL DEFAULT 14 _Z19RW_I93PresenceCheckv
292:   FUNC GLOBAL DEFAULT 14 _Z40nfa_hciu_find_gate_wi
293:   FUNC GLOBAL DEFAULT 14 _Z29nfa_hciu_send_delete_
294:   FUNC GLOBAL DEFAULT 14 _Z27rw_i93_process_ext_sy
295:   OBJECT GLOBAL DEFAULT 16 KeyDefault
296:   FUNC GLOBAL DEFAULT 14 _Z32nfa_p2p_proc_llcp_dis
297:   FUNC GLOBAL DEFAULT 14 _Z13NFA_P2pReadUItjPhPjS_
298:   OBJECT GLOBAL DEFAULT 23 nfa_sys_cb
299:   FUNC GLOBAL DEFAULT 14 _Z17llcp_util_send_ccP10t
300:   FUNC GLOBAL DEFAULT 14 _Z24nfc_ncif_check_cmd_qu
301:   FUNC GLOBAL DEFAULT 14 _Z12rw_t2t_writetPh
302:   FUNC GLOBAL DEFAULT 14 _ZN13NfcAdaptation10Initi
303:   FUNC GLOBAL DEFAULT 14 _Z20nfc_stop_quick_timerP
304:   FUNC GLOBAL DEFAULT 14 _Z14NFC_ConnCreatehhhPFvh
305:   FUNC GLOBAL DEFAULT 14 _Z23nfa_ee_restore_ntf_do
306:   FUNC GLOBAL DEFAULT 14 _ZN11ConfigValueC2Ev
307:   FUNC GLOBAL DEFAULT 14 _Z17NFA_EnableDtamode14tN
308:   FUNC GLOBAL DEFAULT 14 _Z17nfa_p2p_sdp_cbackhh
309:   FUNC GLOBAL DEFAULT 14 _Z20NFA_P2pGetLLCPConfigP
310:   FUNC GLOBAL DEFAULT 14 _Z16RW_T1tDetectNDefv
311:   FUNC GLOBAL DEFAULT 14 _Z22nfa_dm_act_send_raw_v
312:   FUNC GLOBAL DEFAULT 14 _Z20NFC_SendRawVsCommandP
313:   FUNC GLOBAL DEFAULT 14 _Z35nfa_p2p_create_data_l
314:   FUNC GLOBAL DEFAULT 14 _Z14NFA_RwT1tWritehhhb
315:   FUNC GLOBAL DEFAULT 14 _Z19NDEF_MsgReplaceTypePh
316:   FUNC GLOBAL DEFAULT 14 _Z26rw_i93_send_cmd_lock_
317:   FUNC GLOBAL DEFAULT 14 _Z25rw_t3t_act_handle_fmt
318:   FUNC GLOBAL DEFAULT 14 _Z19GKI_poolutilizationh
319:   FUNC GLOBAL DEFAULT 14 _Z23nfa_dm_check_set_conf
320:   FUNC GLOBAL DEFAULT 14 _Z29NFA_DeregisterNDefTyp
321:   FUNC GLOBAL DEFAULT 14 _Z36nfa_sys_cback_notify_
322:   FUNC GLOBAL DEFAULT 14 _Z11LLCP_SendUIhhP7NFC_HD
323:   FUNC GLOBAL DEFAULT 14 _Z24LLCP_ReadLogicalLinkD
324:   OBJECT GLOBAL DEFAULT 23 _ZN13NfcAdaptation12mHalC
325:   FUNC GLOBAL DEFAULT 14 _Z24nfa_ee_check_set_rout
326:   FUNC GLOBAL DEFAULT 14 _Z27nfa_hciu_send_get_par
327:   FUNC GLOBAL DEFAULT 14 _Z19LLCP_DeactivateLinkv
328:   FUNC GLOBAL DEFAULT 14 _Z16RW_I93DetectNDefv
329:   FUNC GLOBAL DEFAULT 14 _Z22nfc_task_shutdown_nfc
330:   FUNC GLOBAL DEFAULT 14 _Z13rw_i93_selectPh
331:   FUNC GLOBAL DEFAULT 14 _Z18GKI_find_buf_startPv
332:   FUNC GLOBAL DEFAULT 14 _Z25nfa_dm_act_enable_pol
333:   FUNC GLOBAL DEFAULT 14 _Z17nfa_dm_act_selectP11t
334:   FUNC GLOBAL DEFAULT 14 _Z14NFC_SetRoutingbhhPh
335:   OBJECT GLOBAL DEFAULT 23 HCI_LOOPBACK_DEBUG
336:   FUNC GLOBAL DEFAULT 14 _Z17NFA_P2pRejectConnt
337:   FUNC GLOBAL DEFAULT 14 _Z22rw_mfc_process_timeou
338:   FUNC GLOBAL DEFAULT 14 _Z24LLCP_FlushDataLinkRxD
339:   FUNC GLOBAL DEFAULT 14 _Z19nci_snd_t3t_pollingth
340:   FUNC GLOBAL DEFAULT 14 _Z15ringbuffer_peekPK12ri
341:   FUNC GLOBAL DEFAULT 14 _Z18GKI_get_time_stampPa
342:   OBJECT GLOBAL DEFAULT 23 nfa_hci_cb
343:   FUNC GLOBAL DEFAULT 14 _Z32nfa_hciu_get_allocate
344:   FUNC GLOBAL DEFAULT 14 _Z16NFA_HciAllocGateth
345:   FUNC GLOBAL DEFAULT 14 _Z18RW_I93ResetToReadyv
346:   FUNC GLOBAL DEFAULT 14 _Z17llcp_dlsm_executeP10t
347:   FUNC GLOBAL DEFAULT 14 _Z23nci_snd_core_get_conf
348:   FUNC GLOBAL DEFAULT 14 _Z7GKI_runPv
349:   FUNC GLOBAL DEFAULT 14 _Z21GKI_get_os_tick_count
350:   FUNC GLOBAL DEFAULT 14 _Z25nfa_hciu_find_pipe_by
351:   FUNC GLOBAL DEFAULT 14 _Z22RW_SetActivatedTagTyp
352:   FUNC GLOBAL DEFAULT 14 _Z23llcp_sdp_check_send_s
353:   FUNC GLOBAL DEFAULT 14 _Z15RW_SendRawFramePht
354:   FUNC GLOBAL DEFAULT 14 _Z27rw_t3t_act_handle_che
355:   FUNC GLOBAL DEFAULT 14 _Z18nfa_dm_act_reg_vscP11
356:   OBJECT GLOBAL DEFAULT 16 p_nfa_dm_cfg
357:   OBJECT GLOBAL DEFAULT 16 p_nfa_dm_rf_disc_freq_cfg
358:   FUNC GLOBAL DEFAULT 14 _Z28nfa_p2p_proc_llcp_con
359:   FUNC GLOBAL DEFAULT 14 _Z15RW_T2tWriteNDeftPh
360:   FUNC GLOBAL DEFAULT 14 _ZN13NfcAdaptation13HalIn
361:   FUNC GLOBAL DEFAULT 14 _Z20NFA_SendRawVsCommandh
362:   FUNC GLOBAL DEFAULT 14 _Z17nfa_p2p_send_dataP12t
363:   FUNC GLOBAL DEFAULT 14 _Z27LLCP_IsLogicalLinkCon
364:   FUNC GLOBAL DEFAULT 14 _Z12GKI_send_msghhPv
365:   FUNC GLOBAL DEFAULT 14 _Z7rw_initv
366:   FUNC GLOBAL DEFAULT 14 _Z13rw_t4t_selectv
367:   FUNC GLOBAL DEFAULT 14 _Z21GKI_add_to_timer_list
368:   FUNC GLOBAL DEFAULT 14 _Z33rw_i93_send_cmd_read_
369:   FUNC GLOBAL DEFAULT 14 _ZN10ConfigFile6hasKeyERK
370:   FUNC GLOBAL DEFAULT 14 _Z21nfa_ee_api_remove_aid
371:   FUNC GLOBAL DEFAULT 14 _Z16NFA_HciSendEventthhtP
372:   FUNC WEAK DEFAULT 14 _ZNSt3__127__tree_balance
373:   OBJECT GLOBAL DEFAULT 23 _ZN13NfcAdaptation4mHalE
374:   FUNC GLOBAL DEFAULT 14 _Z50nfa_sys_cback_notify_
375:   FUNC GLOBAL DEFAULT 14 _Z15nfa_ee_nci_connP11tNF
376:   FUNC GLOBAL DEFAULT 14 _Z34nfa_hciu_find_active_
377:   FUNC GLOBAL DEFAULT 14 _Z17LLCP_GetRemoteLSCv
378:   FUNC GLOBAL DEFAULT 14 _Z11GKI_getlastP8BUFFER_Q
379:   FUNC GLOBAL DEFAULT 14 _Z7ce_initv
380:   FUNC GLOBAL DEFAULT 14 _Z25NFA_CeSetIsoDepListen
381:   FUNC GLOBAL DEFAULT 14 _Z26NFA_EeGetLmrtRemainin
382:   FUNC GLOBAL DEFAULT 14 _Z27nfa_hciu_find_pipe_by
383:   FUNC GLOBAL DEFAULT 14 _Z33nfa_hciu_find_active_
384:   FUNC GLOBAL DEFAULT 14 _Z11GKI_enqueueP8BUFFER_Q
385:   FUNC GLOBAL DEFAULT 14 _Z14nfa_nv_ci_readthh
386:   FUNC GLOBAL DEFAULT 14 _Z23LLCP_GetDiscoveryConf
387:   FUNC GLOBAL DEFAULT 14 _Z23nfc_ncif_proc_ee_acti
388:   FUNC GLOBAL DEFAULT 14 _Z33rw_i93_send_cmd_read_
389:   FUNC GLOBAL DEFAULT 14 _Z28rw_t3t_act_handle_upd
390:   FUNC GLOBAL DEFAULT 14 _Z29NFA_ReleaseExclusiveR
391:   FUNC GLOBAL DEFAULT 14 _ZN9NfcConfig11getUnsigne
392:   FUNC GLOBAL DEFAULT 14 _Z18nfa_ee_start_timerv
393:   FUNC GLOBAL DEFAULT 14 _Z20RW_T3tGetSystemCodesv
394:   FUNC GLOBAL DEFAULT 14 _Z20NFA_RwSetTagReadOnlyb
395:   FUNC GLOBAL DEFAULT 14 _ZN13ThreadCondVarC1Ev
396:   FUNC GLOBAL DEFAULT 14 _Z14ringbuffer_popP12ring
397:   FUNC GLOBAL DEFAULT 14 _Z15gki_timers_initv
398:   FUNC GLOBAL DEFAULT 14 _Z15GKI_resume_taskh
399:   FUNC GLOBAL DEFAULT 14 _ZN9NfcConfig11getUnsigne
400:   FUNC GLOBAL DEFAULT 14 _ZN13NfcAdaptation28HalDe
401:   FUNC GLOBAL DEFAULT 14 _Z23NFA_CeConfigureLocalT
402:   FUNC GLOBAL DEFAULT 14 _Z15RW_I93LockBlockh
403:   FUNC GLOBAL DEFAULT 14 _Z23NDEF_MsgGetFirstRecBy
404:   FUNC GLOBAL DEFAULT 14 _Z26rw_t3t_process_frame_
405:   FUNC GLOBAL DEFAULT 14 _Z21CE_T3tSetLocalNDEFMsg
406:   FUNC GLOBAL DEFAULT 14 _Z28nfa_hciu_count_pipes_
407:   FUNC GLOBAL DEFAULT 14 _Z28nfa_p2p_restart_rf_di
408:   FUNC GLOBAL DEFAULT 14 _Z21nfc_ncif_proc_credits
409:   FUNC GLOBAL DEFAULT 14 _Z27NFA_EeSetDefaultTechR
410:   FUNC GLOBAL DEFAULT 14 _Z14LLCP_GetConfigPtPhS0_
411:   FUNC GLOBAL DEFAULT 14 _Z16NFA_EeDeregisterPFvhP
412:   FUNC GLOBAL DEFAULT 14 _Z20nfa_rw_handle_op_reqP
413:   FUNC GLOBAL DEFAULT 14 _Z15nfa_ee_find_ecbh
414:   FUNC GLOBAL DEFAULT 14 _Z19t1t_cmd_to_rsp_infoh
415:   FUNC GLOBAL DEFAULT 14 _ZN11ThreadMutexD0Ev
416:   FUNC GLOBAL DEFAULT 14 _Z18NFA_P2pGetLinkInfot
417:   FUNC GLOBAL DEFAULT 14 _Z15nfc_set_conn_idP12tNF
418:   FUNC GLOBAL DEFAULT 14 _Z19rw_t1t_send_dyn_cmdhh
419:   FUNC GLOBAL DEFAULT 14 _Z11NFA_Disableb
420:   FUNC GLOBAL DEFAULT 14 _Z26NFA_SetRfDiscoveryDur
421:   FUNC GLOBAL DEFAULT 14 _Z14NFA_RegVSCbackbPFvhtP
422:   FUNC GLOBAL DEFAULT 14 _Z19nfa_ee_nci_disc_rspP1
423:   FUNC GLOBAL DEFAULT 14 _Z14RW_I93ReadNDefv
424:   FUNC GLOBAL DEFAULT 14 _Z27nci_snd_discover_sele
425:   FUNC GLOBAL DEFAULT 14 _Z16nfa_dm_is_activev
426:   FUNC GLOBAL DEFAULT 14 _Z28llcp_dlc_get_next_pdu
427:   FUNC GLOBAL DEFAULT 14 _Z18llcp_sdp_proc_dataP20
428:   FUNC GLOBAL DEFAULT 14 _Z25nfa_p2p_disable_liste
429:   FUNC GLOBAL DEFAULT 14 _Z24LLCP_IsDataLinkConges
430:   FUNC GLOBAL DEFAULT 14 _Z27nfa_ce_restart_listen
431:   FUNC GLOBAL DEFAULT 14 _Z15NFA_RwLocateTlvh
432:   FUNC GLOBAL DEFAULT 14 _Z17llcp_util_send_dmhhh
433:   FUNC GLOBAL DEFAULT 14 _Z22llcp_util_send_connec
434:   FUNC GLOBAL DEFAULT 14 _Z8nfc_taskj
435:   FUNC GLOBAL DEFAULT 14 _Z15GKI_delete_poolh
436:   FUNC GLOBAL DEFAULT 14 _Z19NFA_P2pConnectBySapth
437:   FUNC GLOBAL DEFAULT 14 _Z19llcp_util_send_dischh
438:   FUNC GLOBAL DEFAULT 14 _Z11rw_t2t_readt
439:   FUNC GLOBAL DEFAULT 14 _Z28nfc_ce_t3t_set_listen
440:   FUNC GLOBAL DEFAULT 14 _Z19nfa_ee_nci_disc_ntfP1
441:   FUNC GLOBAL DEFAULT 14 _Z20NFA_P2pConnectByNamet
442:   FUNC GLOBAL DEFAULT 14 _Z16RW_T2tDetectNDefb
443:   FUNC GLOBAL DEFAULT 14 _Z29nfc_ncif_proc_conn_cr
444:   FUNC GLOBAL DEFAULT 14 _Z13NDEF_RecGetIdPhS_
445:   OBJECT GLOBAL DEFAULT 23 ce_cb
446:   FUNC GLOBAL DEFAULT 14 _Z17rw_t2t_handle_rspPh
447:   OBJECT GLOBAL DEFAULT 23 _ZN13NfcAdaptation10mpIns
448:   FUNC GLOBAL DEFAULT 14 _ZN13NfcAdaptationD1Ev
449:   FUNC GLOBAL DEFAULT 14 _Z25nfa_ce_handle_t4t_aid
450:   FUNC GLOBAL DEFAULT 14 _Z16RW_T3tFormatNDefv
451:   FUNC GLOBAL DEFAULT 14 _Z17RW_T3tSetReadOnlyb
452:   FUNC GLOBAL DEFAULT 14 _Z18NFA_RwI93LockDSFIDv
453:   FUNC GLOBAL DEFAULT 14 _ZNK11ConfigValue7getType
454:   FUNC GLOBAL DEFAULT 14 _Z25nfa_dm_delete_rf_disc
455:   FUNC GLOBAL DEFAULT 14 _Z20nfa_dm_rf_deactivateh
456:   FUNC GLOBAL DEFAULT 14 _Z15NFA_RwI93SelectPh
457:   FUNC GLOBAL DEFAULT 14 _Z24llcp_util_build_info_
458:   FUNC GLOBAL DEFAULT 14 _ZN13NfcAdaptation16GetVe
459:   FUNC GLOBAL DEFAULT 14 _Z30NFA_EeClearDefaultPro
460:   FUNC GLOBAL DEFAULT 14 _Z19NFA_RwI93GetSysInfoPh
461:   FUNC GLOBAL DEFAULT 14 _Z22NFC_UpdateRFCommParam
462:   FUNC GLOBAL DEFAULT 14 _Z19nfa_hciu_alloc_gateht
463:   FUNC GLOBAL DEFAULT 14 _Z22nfc_ncif_proc_activat
464:   FUNC GLOBAL DEFAULT 14 _Z16RW_T3tUpdateNDefjPh
465:   FUNC GLOBAL DEFAULT 14 _Z33nfa_hciu_count_open_p
466:   FUNC GLOBAL DEFAULT 14 _Z17NFA_HciCreatePipethhh
467:   OBJECT GLOBAL DEFAULT 11 t4t_v20_ndef_tag_aid
468:   FUNC GLOBAL DEFAULT 14 _Z21rw_i93_sm_update_ndef
469:   FUNC GLOBAL DEFAULT 14 _Z13NFA_SetConfighhPh
470:   FUNC GLOBAL DEFAULT 14 _Z28nfa_dm_act_conn_cback
471:   FUNC GLOBAL DEFAULT 14 _Z18NDEF_MsgGetNextRecPh
472:   FUNC GLOBAL DEFAULT 14 _Z10RW_T2tReadt
473:   FUNC GLOBAL DEFAULT 14 _Z23GKI_get_remaining_tic
474:   OBJECT GLOBAL DEFAULT 11 t4t_v10_ndef_tag_aid
475:   FUNC GLOBAL DEFAULT 14 _Z18GKI_ready_to_sleepv
476:   FUNC GLOBAL DEFAULT 14 _Z34nfa_hci_handle_pipe_o
477:   FUNC GLOBAL DEFAULT 14 _Z23nfa_hciu_get_gate_own
478:   FUNC GLOBAL DEFAULT 14 _Z36NFA_RwI93GetMultiBloc
479:   FUNC GLOBAL DEFAULT 14 _Z18nci_snd_core_reseth
480:   FUNC GLOBAL DEFAULT 14 _ZN10ConfigFile15parseFro
481:   FUNC GLOBAL DEFAULT 14 _Z15nfa_sys_sendmsgPv
482:   FUNC GLOBAL DEFAULT 14 _Z13NFA_RwT3tReadhP19tNFA
483:   FUNC GLOBAL DEFAULT 14 _Z32rw_t3t_act_handle_che
484:   FUNC GLOBAL DEFAULT 14 _Z26crcChecksumVerifyInte
485:   FUNC GLOBAL DEFAULT 14 _ZN13NfcAdaptation31HalDo
486:   FUNC GLOBAL DEFAULT 14 _Z34NFA_SetPowerSubStateF
487:   FUNC GLOBAL DEFAULT 14 _Z23nfc_ncif_proc_reset_r
488:   FUNC GLOBAL DEFAULT 14 _Z32rw_t3t_send_next_ndef
489:   FUNC GLOBAL DEFAULT 14 _Z20nfa_dm_act_pause_p2pP
490:   FUNC GLOBAL DEFAULT 14 _Z14NFC_GetRoutingv
491:   FUNC GLOBAL DEFAULT 14 _Z27nfc_process_quick_tim
492:   FUNC GLOBAL DEFAULT 14 _Z28rw_i93_send_cmd_get_s
493:   OBJECT GLOBAL DEFAULT 16 KeyNDEF
494:   FUNC GLOBAL DEFAULT 14 _Z26nfa_ce_api_cfg_isodep
495:   FUNC GLOBAL DEFAULT 14 _Z31nfa_dm_act_release_ex
496:   FUNC GLOBAL DEFAULT 14 _Z48nfa_hciu_send_to_apps
497:   FUNC GLOBAL DEFAULT 14 _Z17llcp_util_send_uihhP1
498:   FUNC GLOBAL DEFAULT 14 _Z20nfa_ee_api_lmrt_sizeP
499:   FUNC GLOBAL DEFAULT 14 _Z27LLCP_FlushLogicalLink
500:   FUNC GLOBAL DEFAULT 14 _Z26nfa_dm_stop_excl_disc
501:   OBJECT GLOBAL DEFAULT 16 p_nfa_hci_cfg
502:   FUNC GLOBAL DEFAULT 14 _Z15nfa_dm_evt_hdlrP7NFC_
503:   FUNC GLOBAL DEFAULT 14 _Z17nfa_sys_ptim_initP8tP
504:   FUNC GLOBAL DEFAULT 14 _Z22gki_adjust_timer_coun
505:   FUNC GLOBAL DEFAULT 14 _ZN9NfcConfig8getBytesERK
506:   FUNC GLOBAL DEFAULT 14 _Z11GKI_freebufPv
507:   FUNC GLOBAL DEFAULT 14 _Z15nfa_p2p_send_uiP12tNF
508:   FUNC GLOBAL DEFAULT 14 _Z19nfa_sys_start_timerP1
509:   FUNC GLOBAL DEFAULT 14 _Z17nfa_dm_set_configP11t
510:   FUNC GLOBAL DEFAULT 14 _Z31nfa_dm_notify_activat
511:   FUNC GLOBAL DEFAULT 14 _Z20NFA_HciAddStaticPipet
512:   FUNC GLOBAL DEFAULT 14 _Z13NFA_RwT1tReadhh
513:   FUNC GLOBAL DEFAULT 14 _Z20rw_i93_send_to_upperP
514:   FUNC GLOBAL DEFAULT 14 _Z22CE_SetActivatedTagTyp
515:   FUNC GLOBAL DEFAULT 14 _Z12NFC_SendDatahP7NFC_HD
516:   FUNC GLOBAL DEFAULT 14 _Z12NFA_PauseP2pv
517:   FUNC GLOBAL DEFAULT 14 _Z23nfa_ee_report_disc_do
518:   FUNC GLOBAL DEFAULT 14 _Z33nfa_hciu_check_pipe_b
519:   FUNC GLOBAL DEFAULT 14 _Z30llcp_link_process_lin
520:   FUNC GLOBAL DEFAULT 14 _Z17nfa_ee_sys_enablev
521:   FUNC GLOBAL DEFAULT 14 _Z11nfa_ce_initv
522:   FUNC GLOBAL DEFAULT 14 _Z28nfa_hciu_get_type_ins
523:   FUNC GLOBAL DEFAULT 14 _Z17NDEF_MsgReplaceIdPhjP
524:   FUNC GLOBAL DEFAULT 14 _Z10NFA_EnablePFvhP18tNFA
525:   FUNC GLOBAL DEFAULT 14 _Z20nfa_hciu_send_to_apph
526:   FUNC GLOBAL DEFAULT 14 _Z19RW_T3tPresenceCheckv
527:   FUNC GLOBAL DEFAULT 14 _Z24NFA_RwI93ReadSingleBl
528:   FUNC GLOBAL DEFAULT 14 _Z30nfc_ncif_report_conn_
529:   FUNC GLOBAL DEFAULT 14 _Z30rw_i93_send_cmd_reset
530:   FUNC GLOBAL DEFAULT 14 _Z18crcChecksumComputePKh
531:   FUNC GLOBAL DEFAULT 14 _ZNK11ConfigValue8getByte
532:   FUNC GLOBAL DEFAULT 14 _Z18nfa_ee_api_add_aidP11
533:   FUNC GLOBAL DEFAULT 14 _Z18nfc_ncif_send_dataP12
534:   FUNC GLOBAL DEFAULT 14 _ZNK11ConfigValue9getStri
535:   FUNC GLOBAL DEFAULT 14 _Z27nfa_dm_act_enable_lis
536:   FUNC GLOBAL DEFAULT 14 _Z21nfa_ee_api_update_now
537:   FUNC GLOBAL DEFAULT 14 _Z16NFA_EeDisconnectt
538:   FUNC GLOBAL DEFAULT 14 _Z33llcp_util_adjust_dl_r
539:   FUNC GLOBAL DEFAULT 14 _Z23NDEF_MsgGetLastRecInM
540:   FUNC GLOBAL DEFAULT 14 _Z31ce_t3t_handle_non_nfc
541:   FUNC GLOBAL DEFAULT 14 _Z17rw_t1t_read_locksv
542:   FUNC GLOBAL DEFAULT 14 _ZN13NfcAdaptation13HalPo
543:   FUNC GLOBAL DEFAULT 14 _Z14nfa_nv_co_readPhth
544:   FUNC GLOBAL DEFAULT 14 _Z24nfa_hci_startup_compl
545:   FUNC GLOBAL DEFAULT 14 _ZN13NfcAdaptation27HalDo
546:   FUNC GLOBAL DEFAULT 14 _Z22nfa_ee_restore_one_ec
547:   FUNC GLOBAL DEFAULT 14 _Z26nfa_p2p_proc_llcp_dat
548:   FUNC GLOBAL DEFAULT 14 _Z17rw_t1t_handle_rspPK17
549:   FUNC GLOBAL DEFAULT 14 _Z22nfa_ce_start_listenin
550:   FUNC GLOBAL DEFAULT 14 _Z16NFA_SendRawFramePhtt
551:   FUNC GLOBAL DEFAULT 14 _Z22nci_snd_deactivate_cm
552:   FUNC GLOBAL DEFAULT 14 _Z27nfa_sys_is_graceful_d
553:   FUNC GLOBAL DEFAULT 14 _Z24llcp_sdp_get_sap_by_n
554:   FUNC GLOBAL DEFAULT 14 _Z14GKI_send_eventht
555:   FUNC GLOBAL DEFAULT 14 _Z20rw_t2t_sector_changeh
556:   FUNC GLOBAL DEFAULT 14 _ZN13ThreadCondVar6signal
557:   FUNC GLOBAL DEFAULT 14 _Z19NFA_P2pGetRemoteSaptP
558:   FUNC GLOBAL DEFAULT 14 _Z27NFA_RwI93ReadMultiple
559:   FUNC GLOBAL DEFAULT 14 _Z17llcp_sdp_proc_snltPh
560:   FUNC GLOBAL DEFAULT 14 _Z25rw_t2t_handle_op_comp
561:   OBJECT GLOBAL DEFAULT 23 _ZN13NfcAdaptation22mHalO
562:   FUNC GLOBAL DEFAULT 14 _Z24nci_proc_prop_raw_vs_
563:   FUNC GLOBAL DEFAULT 14 _Z24nfa_ce_api_cfg_local_
564:   FUNC GLOBAL DEFAULT 14 _Z14RW_MfcReadNDefPht
565:   FUNC GLOBAL DEFAULT 14 _Z15GKI_start_timerhib
566:   FUNC GLOBAL DEFAULT 14 _Z21NDEF_MsgAppendPayload
567:   FUNC GLOBAL DEFAULT 14 _ZN9NfcConfig5clearEv
568:   FUNC GLOBAL DEFAULT 14 _ZN13ThreadCondVarC2Ev
569:   FUNC GLOBAL DEFAULT 14 _ZN11ConfigValueC1ENSt3__
570:   OBJECT GLOBAL DEFAULT 23 nfa_dm_cb
571:   FUNC GLOBAL DEFAULT 14 _Z29NFA_RequestExclusiveR
572:   FUNC GLOBAL DEFAULT 14 _Z15t1t_info_to_strPK17tT
573:   FUNC GLOBAL DEFAULT 14 _Z11GKI_getnextPv
574:   FUNC GLOBAL DEFAULT 14 _Z14NFA_EeSendDatattPh
575:   FUNC GLOBAL DEFAULT 14 _Z27nfa_ee_proc_nfcc_powe
576:   FUNC GLOBAL DEFAULT 14 _Z17NFA_HciDeregisterPc
577:   FUNC GLOBAL DEFAULT 14 _Z16RW_T4tUpdateNDeftPh
578:   FUNC GLOBAL DEFAULT 14 _Z18CE_T3tSendCheckRsphhh
579:   OBJECT WEAK DEFAULT 18 _ZTVNSt3__118basic_string
580:   FUNC GLOBAL DEFAULT 14 _Z21nfa_ce_handle_t3t_evt
581:   FUNC GLOBAL DEFAULT 14 _Z26NFA_RegisterNDefUriHa
582:   FUNC GLOBAL DEFAULT 14 _Z19NFA_GetAidTableSizev
583:   FUNC GLOBAL DEFAULT 14 _Z15NFA_RwWriteNDefPhj
584:   FUNC GLOBAL DEFAULT 14 _Z22nfa_sys_disable_timer
585:   FUNC GLOBAL DEFAULT 14 _Z27gki_timers_is_timer_r
586:   FUNC GLOBAL DEFAULT 14 _Z21nfa_ce_deactivate_ntf
587:   FUNC GLOBAL DEFAULT 14 _Z25nfa_ee_api_clear_tech
588:   FUNC GLOBAL DEFAULT 14 _Z26nfa_ee_api_clear_prot
589:   FUNC GLOBAL DEFAULT 14 _Z16NFA_RwT1tReadSegh
590:   FUNC GLOBAL DEFAULT 14 _Z13NFC_GetConfighPh
591:   FUNC GLOBAL DEFAULT 14 _Z13rw_t2t_selectv
592:   FUNC GLOBAL DEFAULT 14 _Z14GKI_sched_lockv
593:   FUNC GLOBAL DEFAULT 14 _ZN11ThreadMutexD1Ev
594:   FUNC GLOBAL DEFAULT 14 _ZNK11ConfigValue11getUns
595:   OBJECT WEAK DEFAULT 18 _ZTCNSt3__118basic_string
596:   FUNC GLOBAL DEFAULT 14 _Z21nfa_dm_ndef_dereg_all
597:   FUNC GLOBAL DEFAULT 14 _Z23nfa_p2p_deactivate_ll
598:   FUNC GLOBAL DEFAULT 14 _Z26nfa_dm_act_disable_po
599:   FUNC GLOBAL DEFAULT 14 _Z20RW_I93SetTagReadOnlyv
600:   FUNC GLOBAL DEFAULT 14 _Z13rw_t1t_selectPhS_
601:   FUNC GLOBAL DEFAULT 14 _Z15nfa_mem_co_freePv
602:   FUNC GLOBAL DEFAULT 14 _Z29NFA_CeConfigureUiccLi
603:   FUNC GLOBAL DEFAULT 14 _Z13NFA_RwT2tReadh
604:   FUNC GLOBAL DEFAULT 14 _Z26GKI_remove_from_timer
605:   FUNC GLOBAL DEFAULT 14 _Z21nfa_ee_get_tech_route
606:   FUNC GLOBAL DEFAULT 14 _Z20ce_t3t_send_to_lowerP
607:   FUNC GLOBAL DEFAULT 14 _Z32rw_i93_send_cmd_get_e
608:   FUNC GLOBAL DEFAULT 14 _Z31rw_t3t_send_next_ndef
609:   FUNC GLOBAL DEFAULT 14 _ZN9NfcConfig9getStringER
610:   FUNC WEAK DEFAULT 14 _ZNSt3__17getlineIcNS_11c
611:   FUNC GLOBAL DEFAULT 14 _Z9GKI_delayj
612:   FUNC GLOBAL DEFAULT 14 _Z38nfa_dm_disc_start_kov
613:   FUNC GLOBAL DEFAULT 14 _Z30nfa_rw_handle_sleep_w
614:   FUNC GLOBAL DEFAULT 14 _Z17nfa_hciu_send_msghhht
615:   FUNC GLOBAL DEFAULT 14 _Z35nfa_hciu_remove_all_p
616:   FUNC GLOBAL DEFAULT 14 _Z13GKI_read_mboxh
617:   FUNC GLOBAL DEFAULT 14 _Z34rw_i93_send_cmd_write
618:   FUNC GLOBAL DEFAULT 14 _Z23nfa_ce_api_dereg_list
619:   OBJECT GLOBAL DEFAULT 23 nfc_debug_enabled
620:   FUNC GLOBAL DEFAULT 14 _Z21nfa_dm_p2p_prio_logic
621:   FUNC GLOBAL DEFAULT 14 _Z32nfa_rw_handle_presenc
622:   FUNC GLOBAL DEFAULT 14 _Z27nfa_ee_find_max_aid_c
623:   FUNC GLOBAL DEFAULT 14 _Z11GKI_dequeueP8BUFFER_Q
624:   FUNC GLOBAL DEFAULT 14 _Z17LLCP_GetRemoteWKSv
625:   FUNC GLOBAL DEFAULT 14 _Z20ringbuffer_availableP
626:   FUNC GLOBAL DEFAULT 14 _Z8NFA_InitP14tHAL_NFC_EN
627:   FUNC GLOBAL DEFAULT 14 _ZN13NfcAdaptationD2Ev
628:   FUNC GLOBAL DEFAULT 14 _Z15GKI_create_taskPFjjEh
629:   FUNC GLOBAL DEFAULT 14 _Z33GKI_timer_queue_regis
630:   FUNC GLOBAL DEFAULT 14 _Z33nfa_sys_cback_reg_ena
631:   FUNC GLOBAL DEFAULT 14 _Z18nfa_p2p_set_configj
632:   FUNC GLOBAL DEFAULT 14 _Z25nfa_hciu_is_host_rese
633:   FUNC GLOBAL DEFAULT 14 _Z15RW_MfcWriteNDeftPh
634:   FUNC GLOBAL DEFAULT 14 _Z22nfa_dm_p2p_timer_even
635:   FUNC GLOBAL DEFAULT 14 _Z22NFC_ISODEPNakPresChec
636:   FUNC GLOBAL DEFAULT 14 _Z13NFA_EeGetInfoPhP12tNF
637:   FUNC GLOBAL DEFAULT 14 _Z15LLCP_GetLinkMIUPtS_
638:   FUNC GLOBAL DEFAULT 14 _Z20nfa_dm_ndef_reg_hdlrP
639:   FUNC GLOBAL DEFAULT 14 _Z33nfa_p2p_proc_llcp_dis
640:   FUNC GLOBAL DEFAULT 14 _Z21nfa_p2p_get_link_info
641:   FUNC GLOBAL DEFAULT 14 _Z15nfc_start_timerP14TIM
642:   FUNC GLOBAL DEFAULT 14 _Z15t1t_info_to_evtPK17tT
643:   FUNC GLOBAL DEFAULT 14 _ZN13NfcAdaptation8Finali
644:   FUNC GLOBAL DEFAULT 14 _Z10NFA_Selecthhh
645:   FUNC GLOBAL DEFAULT 14 _Z24nfa_sys_ptim_start_ti
646:   FUNC GLOBAL DEFAULT 14 _Z35llcp_util_check_rx_co
647:   FUNC GLOBAL DEFAULT 14 _Z21llcp_dlc_get_next_pdu
648:   FUNC GLOBAL DEFAULT 14 _Z17nci_proc_core_ntfP7NF
649:   FUNC GLOBAL DEFAULT 14 _Z26nci_proc_rf_managemen
650:   FUNC GLOBAL DEFAULT 14 _Z21rw_t3t_send_check_cmd
651:   FUNC GLOBAL DEFAULT 14 _Z15RW_I93StayQuietv
652:   FUNC GLOBAL DEFAULT 14 _Z25RW_I93WriteMultipleBl
653:   FUNC GLOBAL DEFAULT 14 _Z16NFA_RwI93LockAFIv
654:   FUNC GLOBAL DEFAULT 14 _Z46nfc_ncif_proc_isodep_
655:   OBJECT GLOBAL DEFAULT 23 _ZN13NfcAdaptation16mHalD
656:   FUNC GLOBAL DEFAULT 14 _Z23NFA_CeDeregisterAidOn
657:   FUNC GLOBAL DEFAULT 14 _Z17nci_proc_prop_rspP7NF
658:   FUNC GLOBAL DEFAULT 14 _Z19nfa_ee_api_registerP1
659:   FUNC GLOBAL DEFAULT 14 _Z14NFA_P2pFlushUItPj
660:   OBJECT GLOBAL DEFAULT 23 llcp_cb
661:   FUNC GLOBAL DEFAULT 14 _Z10GKI_getbuft
662:   FUNC GLOBAL DEFAULT 14 _Z27nfa_hci_dh_startup_co
663:   FUNC GLOBAL DEFAULT 14 _Z15LLCP_Deregisterh
664:   FUNC GLOBAL DEFAULT 14 _Z17LLCP_ActivateLink21tL
665:   FUNC GLOBAL DEFAULT 14 _Z23rw_t3t_start_poll_tim
666:   FUNC GLOBAL DEFAULT 14 _Z30nfa_dm_conn_cback_eve
667:   FUNC GLOBAL DEFAULT 14 _Z19nfa_ee_rout_timeoutP1
668:   FUNC GLOBAL DEFAULT 14 _Z22rw_i93_get_next_block
669:   OBJECT GLOBAL DEFAULT 16 MAD_B1
670:   FUNC GLOBAL DEFAULT 14 _ZN13NfcAdaptation6Thread
671:   FUNC GLOBAL DEFAULT 14 _Z39nfa_ee_route_add_one_
672:   FUNC GLOBAL DEFAULT 14 _Z29NFA_EeClearDefaultTec
673:   FUNC GLOBAL DEFAULT 14 _Z28nci_snd_parameter_upd
674:   OBJECT GLOBAL DEFAULT 16 MAD_B2
675:   FUNC GLOBAL DEFAULT 14 _Z19CE_T4tDeregisterAIDh
676:   FUNC GLOBAL DEFAULT 14 _Z32nfa_rw_stop_presence_
677:   FUNC GLOBAL DEFAULT 14 _Z16NFC_NfceeModeSethh
678:   OBJECT GLOBAL DEFAULT 16 NFA_RW_TAG_SLP_REQ
679:   FUNC GLOBAL DEFAULT 14 _Z11ce_t3t_initv
680:   FUNC GLOBAL DEFAULT 14 _ZN13NfcAdaptation17HalCo
681:   FUNC GLOBAL DEFAULT 14 _Z21nfa_dm_act_deactivate
682:   FUNC GLOBAL DEFAULT 14 _Z15NFC_GetLmrtSizev
683:   FUNC GLOBAL DEFAULT 14 _Z16RW_T1tFormatNDefv
684:   FUNC GLOBAL DEFAULT 14 _Z21nfc_ncif_error_status
685:   FUNC GLOBAL DEFAULT 14 _Z24NDEF_MsgGetNextRecByT
686:   OBJECT GLOBAL DEFAULT 11 t1t_cmd_rsp_infos
687:   FUNC GLOBAL DEFAULT 14 _Z29nfa_p2p_proc_llcp_con
688:   FUNC GLOBAL DEFAULT 14 _Z15RW_I93InventorybhPh
689:   FUNC GLOBAL DEFAULT 14 _Z16llcp_dlc_flush_qP10tL
690:   FUNC GLOBAL DEFAULT 14 _Z19rw_i93_sm_read_ndefP7
691:   FUNC GLOBAL DEFAULT 14 _Z19nfa_ee_lmrt_to_nfccP1
692:   FUNC GLOBAL DEFAULT 14 _Z29nfa_hci_handle_admin_
693:   FUNC GLOBAL DEFAULT 14 _Z22nfa_p2p_get_remote_sa
694:   FUNC GLOBAL DEFAULT 14 _Z16RW_I93FormatNDefv
695:   FUNC GLOBAL DEFAULT 14 _Z12llcp_cleanupv
696:   FUNC GLOBAL DEFAULT 14 _ZN15AutoThreadMutexC2ER1
697:   FUNC GLOBAL DEFAULT 14 _Z27nfa_dm_act_update_rf_
698:   FUNC GLOBAL DEFAULT 14 _Z24nci_snd_discover_map_
699:   FUNC GLOBAL DEFAULT 14 _Z16nfc_free_conn_cbP12tN
700:   FUNC GLOBAL DEFAULT 14 _Z22rw_t3t_send_update_cm
701:   FUNC GLOBAL DEFAULT 14 _Z16nfa_sys_registerhPK12
702:   FUNC GLOBAL DEFAULT 14 _Z29nfa_rw_presence_check
703:   FUNC GLOBAL DEFAULT 14 _Z25NDEF_MsgGetFirstRecBy
704:   FUNC GLOBAL DEFAULT 14 _Z22NDEF_MsgReplacePayloa
705:   FUNC GLOBAL DEFAULT 14 _Z25rw_i93_send_cmd_inven
706:   FUNC GLOBAL DEFAULT 14 _Z28NFA_EeSetDefaultProto
707:   FUNC GLOBAL DEFAULT 14 _Z23nfa_hciu_get_state_na
708:   FUNC GLOBAL DEFAULT 14 _Z16RW_T4tDetectNDefv
709:   FUNC GLOBAL DEFAULT 14 _Z20nfa_rw_proc_disc_evth
710:   FUNC GLOBAL DEFAULT 14 _Z20NFA_SetP2pListenTechh
711:   FUNC GLOBAL DEFAULT 14 _Z29nfa_dm_ndef_find_next
712:   FUNC GLOBAL DEFAULT 14 _Z19NFA_RwI93WriteDSFIDh
713:   FUNC GLOBAL DEFAULT 14 _Z15NDEF_RecGetTypePhS_S_
714:   FUNC GLOBAL DEFAULT 14 _Z19nfa_ee_report_eventPF
715:   FUNC GLOBAL DEFAULT 14 _Z9RW_T1tRidv
716:   FUNC GLOBAL DEFAULT 14 _Z14NFA_EeDiscoverPFvhP18
717:   FUNC GLOBAL DEFAULT 14 _Z23nfa_rw_command_comple
718:   FUNC GLOBAL DEFAULT 14 _Z21NFC_SetReassemblyFlag
719:   FUNC GLOBAL DEFAULT 14 _Z22nci_snd_nfcee_discove
720:   FUNC GLOBAL DEFAULT 14 _Z26nci_proc_ee_managemen
721:   FUNC GLOBAL DEFAULT 14 _Z22rw_t1t_process_timeou
722:   FUNC GLOBAL DEFAULT 14 _Z20rw_t2t_info_to_eventP
723:   FUNC GLOBAL DEFAULT 14 _ZN13NfcAdaptation24HalDe
724:   FUNC GLOBAL DEFAULT 14 _Z17ringbuffer_deleteP12r
725:   FUNC GLOBAL DEFAULT 14 _Z17rw_t1t_conn_cbackhtP9
726:   FUNC GLOBAL DEFAULT 14 _Z15t2t_info_to_evtPK17tT
727:   FUNC GLOBAL DEFAULT 14 _ZN11ThreadMutex4lockEv
728:   FUNC GLOBAL DEFAULT 14 _ZN11ConfigValue15parseFr
729:   FUNC GLOBAL DEFAULT 14 _Z16GKI_timer_updatei
730:   FUNC GLOBAL DEFAULT 14 _Z25GKI_init_timer_list_e
731:   FUNC GLOBAL DEFAULT 14 _Z20GKI_register_mempoolP
732:   FUNC GLOBAL DEFAULT 14 _Z22nfa_ce_discovery_cbac
733:   FUNC GLOBAL DEFAULT 14 _Z23nfa_dm_disable_comple
734:   FUNC GLOBAL DEFAULT 14 _Z21nfa_ee_nci_action_ntf
735:   FUNC GLOBAL DEFAULT 14 _Z29NFA_EeRemoveSystemCod
736:   FUNC GLOBAL DEFAULT 14 _Z13GKI_poolcounth
737:   FUNC GLOBAL DEFAULT 14 _Z24rw_i93_send_cmd_lock_
738:   FUNC GLOBAL DEFAULT 14 _Z13GKI_os_mallocj
739:   FUNC GLOBAL DEFAULT 14 _Z19nfa_ee_api_mode_setP1
740:   FUNC GLOBAL DEFAULT 14 _Z19llcp_dlc_is_rw_openP1
741:   OBJECT GLOBAL DEFAULT 16 MAD_B64
742:   FUNC GLOBAL DEFAULT 14 _ZN9NfcConfig11getInstanc
743:   FUNC GLOBAL DEFAULT 14 _Z23GKI_set_pool_permissi
744:   FUNC GLOBAL DEFAULT 14 _Z12nfa_p2p_initv
745:   FUNC GLOBAL DEFAULT 14 _Z11nfa_ee_initv
746:   FUNC GLOBAL DEFAULT 14 _Z30nfa_p2p_proc_llcp_con
747:   FUNC GLOBAL DEFAULT 14 _Z11GKI_disablev
748:   FUNC GLOBAL DEFAULT 14 _Z15NFA_HciRegisterPcPFvh
749:   FUNC GLOBAL DEFAULT 14 _Z19nfa_rw_activate_ntfP1
750:   FUNC GLOBAL DEFAULT 14 _Z24nfc_ncif_proc_deactiv
751:   OBJECT GLOBAL DEFAULT 16 nfa_ee_max_ee_cfg
752:   FUNC GLOBAL DEFAULT 14 _Z22NFA_UpdateRFCommParam
753:   FUNC GLOBAL DEFAULT 14 _Z18NFA_HciSendCommandthh
754:   FUNC GLOBAL DEFAULT 14 _Z25nfc_ncif_proc_get_rou
755:   FUNC GLOBAL DEFAULT 14 _Z18NFC_PowerCycleNFCCv
756:   FUNC GLOBAL DEFAULT 14 _ZN13NfcAdaptation11GetIn
757:   FUNC WEAK DEFAULT 14 _ZNSt3__115basic_stringbu
758:   FUNC GLOBAL DEFAULT 14 _Z22NDEF_MsgGetNextRecByI
759:   FUNC GLOBAL DEFAULT 14 _Z20llcp_util_get_app_cbh
760:   FUNC GLOBAL DEFAULT 14 _Z11RW_T1tRead8h
761:   FUNC GLOBAL DEFAULT 14 _Z27llcp_util_parse_link_
762:   FUNC GLOBAL DEFAULT 14 _ZN13NfcAdaptationC1Ev
763:   FUNC GLOBAL DEFAULT 14 _Z12NFA_HciDebughhPh
764:   FUNC GLOBAL DEFAULT 14 _Z21NDEF_MsgGetRecByIndex
765:   FUNC WEAK DEFAULT 14 _ZNSt3__124__put_characte
766:   FUNC GLOBAL DEFAULT 14 _Z21nfa_dm_disc_new_state
767:   FUNC GLOBAL DEFAULT 14 _Z23nci_snd_set_routing_c
768:   FUNC GLOBAL DEFAULT 14 _Z27rw_i93_send_cmd_write
769:   FUNC GLOBAL DEFAULT 14 _ZN11ThreadMutexD2Ev
770:   OBJECT GLOBAL DEFAULT 23 _ZN13NfcAdaptation9mCallb
771:   FUNC GLOBAL DEFAULT 14 _Z37nfa_dm_rel_excl_rf_co
772:   FUNC GLOBAL DEFAULT 14 _Z18NDEF_RecGetPayloadPhP
773:   FUNC GLOBAL DEFAULT 14 _Z21RW_T4tSetNDefReadOnly
774:   FUNC GLOBAL DEFAULT 14 _ZN11ConfigValueC2ENSt3__
775:   FUNC GLOBAL DEFAULT 14 _Z16nfa_ce_hdl_eventP7NFC
776:   FUNC GLOBAL DEFAULT 14 _Z16NFC_DiscoveryMaphP18t
777:   FUNC GLOBAL DEFAULT 14 _Z29nfa_ee_check_restore_
778:   FUNC GLOBAL DEFAULT 14 _Z16RW_T1tWriteErasehhh
779:   FUNC GLOBAL DEFAULT 14 _Z22rw_t2t_process_timeou
780:   FUNC GLOBAL DEFAULT 14 _Z16nfa_ee_is_activet
781:   FUNC GLOBAL DEFAULT 14 _Z26nfa_p2p_update_listen
782:   FUNC GLOBAL DEFAULT 14 _Z22nfa_hci_api_deregiste
783:   FUNC GLOBAL DEFAULT 14 _Z29nfc_ncif_rf_managemen
784:   FUNC GLOBAL DEFAULT 14 _Z15ringbuffer_sizePK12ri
785:   OBJECT WEAK DEFAULT 18 _ZTVNSt3__115basic_string
786:   FUNC GLOBAL DEFAULT 14 _Z17nfc_alloc_conn_cbPFvh
787:   FUNC GLOBAL DEFAULT 14 _Z8GKI_initv
788:   FUNC GLOBAL DEFAULT 14 _Z19debug_nfcsnoop_initv
789:   FUNC GLOBAL DEFAULT 14 _Z33RW_I93GetMultiBlockSe
790:   FUNC WEAK DEFAULT 14 _ZN7android4base9ParseUin
791:   FUNC GLOBAL DEFAULT 14 _Z18GKI_get_tick_countv
792:   FUNC GLOBAL DEFAULT 14 _Z13NFA_GetConfighPh
793:   FUNC GLOBAL DEFAULT 14 _Z12RW_T3tUpdatehP15tT3T_
794:   FUNC GLOBAL DEFAULT 14 _Z12NFA_RwT1tRidv
795:   FUNC GLOBAL DEFAULT 14 _ZN15AutoThreadMutexD0Ev
796:   FUNC GLOBAL DEFAULT 14 _Z14nfa_dm_disableP11tNFA
797:   OBJECT GLOBAL DEFAULT 16 NFC_B0
798:   FUNC GLOBAL DEFAULT 14 _Z17rw_t3t_data_cbackhP14
799:   FUNC GLOBAL DEFAULT 14 _Z15GKI_isend_eventht
800:   FUNC WEAK DEFAULT 14 _ZNSt3__115basic_stringbu
801:   FUNC GLOBAL DEFAULT 14 _Z15nfa_ee_proc_evttPv
802:   FUNC GLOBAL DEFAULT 14 _Z12nfa_sys_initv
803:   FUNC GLOBAL DEFAULT 14 _Z18NFC_DiscoveryStarthP2
804:   FUNC GLOBAL DEFAULT 14 _Z30rw_i93_check_sys_info
805:   FUNC GLOBAL DEFAULT 14 _Z28nfa_dm_is_protocol_su
806:   FUNC GLOBAL DEFAULT 14 _Z23nfa_p2p_llcp_link_cba
807:   FUNC GLOBAL DEFAULT 14 _Z16RW_I93WriteDSFIDh
808:   FUNC GLOBAL DEFAULT 14 _Z21nfc_ncif_event_status
809:   FUNC GLOBAL DEFAULT 14 _Z14nfc_data_eventP12tNFC
810:   FUNC GLOBAL DEFAULT 14 _Z27nfa_hciu_find_gate_by
811:   FUNC GLOBAL DEFAULT 14 _Z17RW_T1tWriteErase8hPh
812:   FUNC GLOBAL DEFAULT 14 _Z13NFC_FlushDatah
813:   FUNC GLOBAL DEFAULT 14 _Z21nfa_dm_nfc_revt_2_str
814:   OBJECT GLOBAL DEFAULT 23 nfa_ee_cb
815:   FUNC GLOBAL DEFAULT 14 _Z23nci_snd_core_set_conf
816:   FUNC GLOBAL DEFAULT 14 _Z33rw_t3t_act_handle_upd
817:   FUNC GLOBAL DEFAULT 14 _Z18nfa_ee_sys_disablev
818:   FUNC GLOBAL DEFAULT 14 _ZN13NfcAdaptation18HalCo
819:   FUNC GLOBAL DEFAULT 14 _ZN11ConfigValueC2ENSt3__
820:   FUNC GLOBAL DEFAULT 14 _Z29nfc_ncif_proc_t3t_pol
821:   FUNC GLOBAL DEFAULT 14 _Z13RW_T1tReadSegh
822:   FUNC GLOBAL DEFAULT 14 _Z16rw_i93_sm_formatP7NFC
823:   FUNC GLOBAL DEFAULT 14 _Z30nfa_sys_notify_nfcc_p
824:   FUNC GLOBAL DEFAULT 14 _Z19NFA_StopRfDiscoveryv
825:   FUNC GLOBAL DEFAULT 14 _Z13nfa_sys_eventP7NFC_HD
826:   FUNC GLOBAL DEFAULT 14 _Z26nfc_ncif_proc_discove
827:   FUNC GLOBAL DEFAULT 14 _ZN10ConfigFile8getBytesE
828:   FUNC GLOBAL DEFAULT 14 _Z18nfa_ce_sys_disablev
829:   FUNC GLOBAL DEFAULT 14 _Z16nfcsnoop_capturePK7NF
830:   FUNC GLOBAL DEFAULT 14 _ZN13NfcAdaptation14Devic
831:   FUNC GLOBAL DEFAULT 14 _Z17NFC_SendVsCommandhP7N
832:   FUNC GLOBAL DEFAULT 14 _Z26nfa_dm_act_disable_ti
833:   FUNC GLOBAL DEFAULT 14 _Z8NFC_InitP14tHAL_NFC_EN
834:   FUNC GLOBAL DEFAULT 14 _Z24nfa_hci_api_dealloc_g
835:   FUNC GLOBAL DEFAULT 14 _Z13ce_select_t4tv
836:   FUNC GLOBAL DEFAULT 14 _Z18gki_chk_buf_damagePv
837:   FUNC GLOBAL DEFAULT 14 _Z18nfa_sys_deregisterh
838:   FUNC GLOBAL DEFAULT 14 _Z13nfa_p2p_deregP12tNFA_
839:   FUNC GLOBAL DEFAULT 14 _Z13NFA_P2pSendUIthtPh
840:   FUNC GLOBAL DEFAULT 14 _Z29rw_t3t_message_set_bl
841:   FUNC GLOBAL DEFAULT 14 _Z19NFA_RwPresenceCheckh
842:   FUNC GLOBAL DEFAULT 14 _Z26nfc_ncif_set_config_s
843:   FUNC GLOBAL DEFAULT 14 _Z22ce_t3t_is_valid_opcod
844:   FUNC GLOBAL DEFAULT 14 _Z20NFA_DisableListeningv
845:   FUNC GLOBAL DEFAULT 14 _Z21nfc_start_quick_timer
846:   FUNC GLOBAL DEFAULT 14 _Z26nfa_dm_ndef_handle_me
847:   FUNC GLOBAL DEFAULT 14 _Z23nfa_hciu_get_pipe_own
848:   FUNC GLOBAL DEFAULT 14 _Z20llcp_process_timeoutP
849:   FUNC GLOBAL DEFAULT 14 _Z25nfa_hciu_send_to_all_
850:   FUNC GLOBAL DEFAULT 14 _Z21nfa_hci_ee_info_cback
851:   FUNC GLOBAL DEFAULT 14 _Z19GKI_init_timer_listP1
852:   OBJECT WEAK DEFAULT 18 _ZTTNSt3__118basic_string
853:   FUNC GLOBAL DEFAULT 14 _Z23nfa_ce_free_scratch_b
854:   FUNC GLOBAL DEFAULT 14 _Z21nfa_hciu_release_pipe
855:   FUNC GLOBAL DEFAULT 14 _Z18NFA_HciGetHostListt
856:   FUNC GLOBAL DEFAULT 14 _Z17NFA_P2pDeregistert
857:   FUNC GLOBAL DEFAULT 14 _Z15NFA_P2pSendDatattPh
858:   FUNC GLOBAL DEFAULT 14 _Z23nfa_p2p_discovery_cba
859:   FUNC GLOBAL DEFAULT 14 _Z15RW_T3tCheckNDefv
860:   FUNC GLOBAL DEFAULT 14 _Z25NFA_RwI93WriteSingleB
861:   FUNC GLOBAL DEFAULT 14 _Z21LLCP_RegisterDtaCback
862:   OBJECT GLOBAL DEFAULT 18 _ZTV13NfcAdaptation
863:   FUNC GLOBAL DEFAULT 14 _Z21nfa_rw_send_raw_frame
864:   FUNC GLOBAL DEFAULT 14 _Z25nfa_ee_find_total_aid
865:   FUNC GLOBAL DEFAULT 14 _Z16RW_T2tFormatNDefv
866:   FUNC GLOBAL DEFAULT 14 _ZN13NfcAdaptation16GetHa
867:   FUNC GLOBAL DEFAULT 14 _Z21nfa_ce_api_reg_listen
868:   FUNC GLOBAL DEFAULT 14 _Z28nfa_dm_act_disable_li
869:   FUNC GLOBAL DEFAULT 14 _Z29nfa_hci_handle_admin_
870:   FUNC GLOBAL DEFAULT 14 _Z15rw_t3t_send_cmdP10tRW
871:   FUNC GLOBAL DEFAULT 14 _Z21rw_t3t_send_raw_frame
872:   FUNC GLOBAL DEFAULT 14 _Z17CE_T4tRegisterAIDhPhP
873:   FUNC GLOBAL DEFAULT 14 _Z26nfa_hciu_find_pipe_on
874:   FUNC GLOBAL DEFAULT 14 _Z15RW_I93LockDSFIDv
875:   FUNC GLOBAL DEFAULT 14 _Z13nfc_set_stateh
876:   FUNC GLOBAL DEFAULT 14 _Z10RW_T3tPollthh
877:   FUNC GLOBAL DEFAULT 14 _Z20rw_i93_send_to_lowerP
878:   FUNC GLOBAL DEFAULT 14 _Z25rw_t1t_handle_op_comp
879:   OBJECT GLOBAL DEFAULT 23 nfc_storage_path
880:   FUNC GLOBAL DEFAULT 14 _Z29nfa_ce_realloc_scratc
881:   FUNC GLOBAL DEFAULT 14 _Z25nfa_p2p_reject_connec
882:   FUNC GLOBAL DEFAULT 14 _Z20GKI_get_pool_bufsizeh
883:   FUNC GLOBAL DEFAULT 14 _Z20NFC_SetPowerOffSleepb
884:   FUNC GLOBAL DEFAULT 14 _Z27nfa_hciu_send_open_pi
885:   FUNC GLOBAL DEFAULT 14 _Z13LLCP_SendDatahhP7NFC_
886:   FUNC GLOBAL DEFAULT 14 _Z14RW_I93WriteAFIh
887:   FUNC GLOBAL DEFAULT 14 _Z13RW_I93LockAFIv
888:   FUNC GLOBAL DEFAULT 14 _Z22rw_t3t_process_timeou
889:   FUNC GLOBAL DEFAULT 14 _Z18rw_t3t_format_cplth
890:   FUNC GLOBAL DEFAULT 14 _Z16GKI_suspend_taskh
891:   OBJECT GLOBAL DEFAULT 23 appl_dta_mode_flag
892:   OBJECT GLOBAL DEFAULT 16 nfa_proprietary_cfg
893:   FUNC GLOBAL DEFAULT 14 _Z15NFA_HciOpenPipeth
894:   FUNC GLOBAL DEFAULT 14 _Z18nfa_p2p_reg_clientP12
895:   FUNC GLOBAL DEFAULT 14 _Z19NFC_DiscoverySelecthh
896:   FUNC GLOBAL DEFAULT 14 _Z24nfa_ee_report_update_
897:   FUNC GLOBAL DEFAULT 14 _Z29nfa_p2p_proc_llcp_lin
898:   OBJECT GLOBAL DEFAULT 23 gki_pthread_info
899:   FUNC GLOBAL DEFAULT 14 _Z20NFC_SetStaticRfCbackP
900:   FUNC GLOBAL DEFAULT 14 _Z21nfc_main_post_hal_evt
901:   FUNC GLOBAL DEFAULT 14 _Z21GKI_remove_from_queue
902:   FUNC GLOBAL DEFAULT 14 _Z23rw_i93_sm_set_read_on
903:   FUNC GLOBAL DEFAULT 14 _ZN11ThreadMutexC1Ev
904:   FUNC GLOBAL DEFAULT 14 _Z12RW_I93SelectPh
905:   FUNC GLOBAL DEFAULT 14 _Z25llcp_dlc_find_dlcb_by
906:   FUNC GLOBAL DEFAULT 14 _Z8GKI_waittj
907:   FUNC GLOBAL DEFAULT 14 _Z12NDEF_MsgInitPhjPj
908:   FUNC GLOBAL DEFAULT 14 _Z31delete_stack_non_vola
909:   FUNC GLOBAL DEFAULT 14 _Z18NFA_DisablePollingv
910:   FUNC GLOBAL DEFAULT 14 _Z19NFA_EnableListeningv
911:   FUNC GLOBAL DEFAULT 14 _ZN13ThreadCondVarD0Ev
912:   FUNC GLOBAL DEFAULT 14 _Z11GKI_os_freePv
913:   FUNC GLOBAL DEFAULT 14 _Z14GKI_get_taskidv
914:   FUNC GLOBAL DEFAULT 14 _ZN13NfcAdaptation26Initi
915:   FUNC GLOBAL DEFAULT 14 _ZN13NfcAdaptation7HalOpe
916:   FUNC GLOBAL DEFAULT 14 _Z13NFA_ResumeP2pv
917:   FUNC GLOBAL DEFAULT 14 _Z15nfa_ee_evt_hdlrP7NFC_
918:   FUNC GLOBAL DEFAULT 14 _Z19LLCP_RegisterClienthP
919:   FUNC GLOBAL DEFAULT 14 _Z25nfc_ncif_decode_rf_pa
920:   FUNC GLOBAL DEFAULT 14 _Z17NFC_GetNCIVersionv
921:   FUNC GLOBAL DEFAULT 14 _Z34NFA_CeRegisterFelicaS
922:   FUNC GLOBAL DEFAULT 14 _Z15RW_T2tLocateTlvh
923:   FUNC GLOBAL DEFAULT 14 _Z20llcp_dlc_proc_rx_pduh
924:   FUNC GLOBAL DEFAULT 14 _ZN13ThreadCondVar4waitEv
925:   FUNC GLOBAL DEFAULT 14 __cfi_check
926:   FUNC GLOBAL DEFAULT 14 _Z27nfa_hci_handle_dyn_pi
927:   FUNC GLOBAL DEFAULT 14 _Z14NFA_RwT1tRead8h
928:   FUNC GLOBAL DEFAULT 14 _ZN13NfcAdaptationC2Ev
929:   FUNC GLOBAL DEFAULT 14 _Z13NFC_SetConfighPh
930:   FUNC GLOBAL DEFAULT 14 _Z21nfa_rw_deactivate_ntf
931:   FUNC GLOBAL DEFAULT 14 _Z24nci_snd_core_conn_cre
932:   FUNC GLOBAL DEFAULT 14 _Z31verify_stack_non_vola
933:   FUNC GLOBAL DEFAULT 14 _Z14GKI_getpoolbufh
934:   FUNC GLOBAL DEFAULT 14 _Z20nfa_hci_is_valid_cfgv
935:   FUNC GLOBAL DEFAULT 14 _Z26llcp_link_connection_
936:   FUNC GLOBAL DEFAULT 14 _Z20rw_t1t_info_to_eventP
937:   FUNC GLOBAL DEFAULT 14 _Z17nfa_dm_get_configP11t
938:   FUNC GLOBAL DEFAULT 14 _Z14RW_T1tReadNDefPht
939:   FUNC GLOBAL DEFAULT 14 _Z26rw_i93_get_product_ve
940:   FUNC GLOBAL DEFAULT 14 _Z34rw_t3t_act_handle_raw
941:   FUNC GLOBAL DEFAULT 14 _Z22nfa_sys_check_disable
942:   FUNC GLOBAL DEFAULT 14 _Z29nfa_hciu_send_create_
943:   FUNC GLOBAL DEFAULT 14 _Z24nfc_mode_set_ntf_time
944:   FUNC GLOBAL DEFAULT 14 _Z19rw_i93_handle_errorh
945:   FUNC WEAK DEFAULT 14 _ZNSt3__115basic_stringbu
946:   FUNC GLOBAL DEFAULT 14 _Z20nfa_ee_check_disablev
947:   FUNC GLOBAL DEFAULT 14 _Z20nfa_dm_is_p2p_pausedv
948:   FUNC GLOBAL DEFAULT 14 _Z13NFA_EeModeSetth
949:   FUNC GLOBAL DEFAULT 14 _Z34nfa_hci_check_pending
950:   FUNC GLOBAL DEFAULT 14 _Z22nfc_ncif_proc_init_rs
951:   FUNC GLOBAL DEFAULT 14 _Z18RW_T3tSendRawFrametPh
952:   FUNC GLOBAL DEFAULT 14 _Z19debug_nfcsnoop_dumpi
953:   OBJECT WEAK DEFAULT 18 _ZTCNSt3__118basic_string
954:   FUNC GLOBAL DEFAULT 14 _Z30nfa_ce_t3t_generate_r
955:   FUNC GLOBAL DEFAULT 14 _Z19nfa_dm_act_send_vscP1
956:   FUNC GLOBAL DEFAULT 14 _Z19NFA_P2pSetLocalBusytb
957:   FUNC GLOBAL DEFAULT 14 _Z22rw_i93_send_cmd_selec
958:   OBJECT GLOBAL DEFAULT 16 p_nfa_proprietary_cfg
959:   FUNC GLOBAL DEFAULT 14 _Z17NFA_GetNCIVersionv
960:   FUNC GLOBAL DEFAULT 14 _Z24nfa_dm_disc_sleep_wak
961:   FUNC GLOBAL DEFAULT 14 _Z19RW_T1tPresenceCheckv
962:   FUNC GLOBAL DEFAULT 14 _Z19RW_T4tPresenceCheckh
963:   FUNC GLOBAL DEFAULT 14 _Z16RW_MfcDetectNDefv
964:   FUNC GLOBAL DEFAULT 14 _Z26rw_i93_send_cmd_lock_
965:   FUNC GLOBAL DEFAULT 14 _Z36NFA_CeDeregisterFelic
966:   FUNC GLOBAL DEFAULT 14 _Z19llcp_util_send_frmrP1
967:   FUNC GLOBAL DEFAULT 14 _Z17nfc_ncif_send_cmdP7NF
968:   FUNC GLOBAL DEFAULT 14 _Z18ce_t3t_get_rsp_bufv
969:   FUNC GLOBAL DEFAULT 14 _ZN15AutoThreadMutexD1Ev
970:   FUNC GLOBAL DEFAULT 14 _Z28nfa_ee_reg_cback_enab
971:   FUNC GLOBAL DEFAULT 14 _Z15RW_T1tWriteNDeftPh
972:   FUNC GLOBAL DEFAULT 14 _Z19LLCP_RegisterServerhh
973:   FUNC GLOBAL DEFAULT 14 _Z23LLCP_SetLocalBusyStat
974:   FUNC GLOBAL DEFAULT 14 _Z15NFA_P2pReadDatatjPjPh
975:   FUNC GLOBAL DEFAULT 14 _Z19nfa_rw_handle_eventP7
976:   FUNC GLOBAL DEFAULT 14 _Z17t1t_tag_init_datah
977:   FUNC GLOBAL DEFAULT 14 _Z14gki_task_entryPv
978:   FUNC GLOBAL DEFAULT 14 _Z34nfa_dm_poll_disc_cbac
979:   FUNC GLOBAL DEFAULT 14 _Z22nfa_ee_find_aid_offse
980:   FUNC GLOBAL DEFAULT 14 _Z23nfa_ee_nci_disc_req_n
981:   FUNC GLOBAL DEFAULT 14 _Z22rw_t4t_process_timeou
982:   FUNC GLOBAL DEFAULT 14 _Z17ce_t3t_data_cbackP14t
983:   FUNC GLOBAL DEFAULT 14 _Z27nfa_dm_proc_nfcc_powe
984:   FUNC GLOBAL DEFAULT 14 _Z23nfa_ee_nci_mode_set_r
985:   FUNC GLOBAL DEFAULT 14 _Z20nfa_hciu_instr_2_strh
986:   FUNC GLOBAL DEFAULT 14 _Z11RW_T2tWritetPh
987:   FUNC GLOBAL DEFAULT 14 _Z21rw_t3t_check_mc_block
988:   OBJECT GLOBAL DEFAULT 11 t1t_init_content
989:   OBJECT GLOBAL DEFAULT 18 _ZTV13ThreadCondVar
990:   FUNC WEAK DEFAULT 14 _ZNSt3__115basic_stringbu
991:   FUNC GLOBAL DEFAULT 14 _Z20NFC_SetPowerSubStateh
992:   FUNC GLOBAL DEFAULT 14 _Z20NFA_StartRfDiscoveryv
993:   FUNC GLOBAL DEFAULT 14 _Z21NFA_PowerOffSleepMode
994:   FUNC GLOBAL DEFAULT 14 _Z21NFC_SetStaticHciCback
995:   FUNC GLOBAL DEFAULT 14 _Z18NFA_RwI93LockBlockh
996:   FUNC GLOBAL DEFAULT 14 _Z16nfa_mem_co_allocj
997:   FUNC GLOBAL DEFAULT 14 _Z35nfa_dm_disc_handle_ko
998:   FUNC GLOBAL DEFAULT 14 _Z14NFC_Deactivateh
999:   FUNC GLOBAL DEFAULT 14 _Z20nfa_ee_api_send_dataP
1000:   FUNC GLOBAL DEFAULT 14 _Z28NFA_RwI93WriteMultipl
1001:   FUNC GLOBAL DEFAULT 14 _Z21GKI_timer_queue_empty
1002:   FUNC GLOBAL DEFAULT 14 _Z17NFC_GetStatusNameh
1003:   FUNC GLOBAL DEFAULT 14 _Z24RW_I93ReadMultipleBlo
1004:   FUNC GLOBAL DEFAULT 14 _Z38nci_snd_iso_dep_nak_p
1005:   FUNC WEAK DEFAULT 14 _ZN7android4base9ParseUin
1006:   FUNC GLOBAL DEFAULT 14 _Z19llcp_sdp_send_sdreqhP
1007:   FUNC GLOBAL DEFAULT 14 _Z28nfa_ce_api_deregister
1008:   FUNC GLOBAL DEFAULT 14 _Z13nfa_dm_enableP11tNFA_
1009:   OBJECT GLOBAL DEFAULT 16 nfa_dm_cfg
1010:   FUNC GLOBAL DEFAULT 14 _Z14RW_T4tReadNDefv
1011:   FUNC GLOBAL DEFAULT 14 _Z9llcp_initv
1012:   FUNC GLOBAL DEFAULT 14 _Z9tags_log2j
1013:   FUNC GLOBAL DEFAULT 14 _Z17ringbuffer_insertP12r
1014:   FUNC GLOBAL DEFAULT 14 _Z32nfa_hciu_add_pipe_to_
1015:   FUNC GLOBAL DEFAULT 14 _Z20NFA_P2pSetLLCPConfigt
1016:   FUNC GLOBAL DEFAULT 14 _Z20nfa_sys_timer_updatev
1017:   FUNC GLOBAL DEFAULT 14 _Z30llcp_util_adjust_ll_c
1018:   FUNC GLOBAL DEFAULT 14 _Z17t2t_tag_init_datahbt
1019:   FUNC GLOBAL DEFAULT 14 _Z10GKI_enablev
1020:   FUNC GLOBAL DEFAULT 14 _Z24nfa_dm_start_rf_disco
1021:   FUNC GLOBAL DEFAULT 14 _Z22RW_I93WriteSingleBloc
1022:   FUNC GLOBAL DEFAULT 14 _Z33rw_t3t_act_handle_nde
1023:   FUNC GLOBAL DEFAULT 14 _ZN13NfcAdaptation4DumpEi
1024:   FUNC GLOBAL DEFAULT 14 _Z15GKI_create_pooltthPv
1025:   FUNC GLOBAL DEFAULT 14 _Z17nfa_p2p_start_sdpPch
1026:   FUNC GLOBAL DEFAULT 14 _Z21NFA_P2pRegisterServer
1027:   FUNC GLOBAL DEFAULT 14 _Z22nci_snd_nfcee_mode_se
1028:   FUNC GLOBAL DEFAULT 14 _Z32nci_snd_nfcee_power_l
1029:   FUNC GLOBAL DEFAULT 14 _Z28nfc_ncif_proc_get_con
1030:   FUNC GLOBAL DEFAULT 14 _Z22nfc_ncif_update_windo
1031:   FUNC GLOBAL DEFAULT 14 _Z14NDEF_MsgAddRecPhjPjhS
1032:   FUNC GLOBAL DEFAULT 14 _Z35rw_i93_send_cmd_get_m
1033:   FUNC GLOBAL DEFAULT 14 _Z16GKI_enqueue_headP8BUF
1034:   FUNC GLOBAL DEFAULT 14 _Z22nfa_dm_ndef_dereg_hdl
1035:   FUNC GLOBAL DEFAULT 14 _Z16GKI_sched_unlockv
1036:   FUNC GLOBAL DEFAULT 14 _Z24ce_t3t_handle_update_
1037:   FUNC GLOBAL DEFAULT 14 _ZN9NfcConfigC1Ev
1038:   FUNC GLOBAL DEFAULT 14 _Z10GKI_init_qP8BUFFER_Q
1039:   FUNC GLOBAL DEFAULT 14 _Z25nfa_dm_rf_discover_se
1040:   FUNC GLOBAL DEFAULT 14 _Z25nfa_hciu_find_gate_by
1041:   FUNC GLOBAL DEFAULT 14 _ZN11ThreadMutex6unlockEv
1042:   FUNC GLOBAL DEFAULT 14 _Z14NFA_RwReadNDefv
1043:   OBJECT GLOBAL DEFAULT 23 nfa_dm_num_dm_interface_m
1044:   FUNC GLOBAL DEFAULT 14 _Z37rw_t3t_send_update_nd
1045:   FUNC GLOBAL DEFAULT 14 _Z17nfa_dm_sys_enablev
1046:   FUNC GLOBAL DEFAULT 14 _Z29nfa_dm_p2p_prio_logic
1047:   OBJECT GLOBAL DEFAULT 16 nfa_dm_ndef_wkt_uri_str_t
1048:   FUNC GLOBAL DEFAULT 14 _Z20RW_T1tSetTagReadOnlyb
1049:   FUNC GLOBAL DEFAULT 14 _Z15NFA_RwFormatTagv
1050:   FUNC GLOBAL DEFAULT 14 _Z15NFA_RwT1tWrite8hPhb
1051:   FUNC GLOBAL DEFAULT 14 _Z28llcp_util_allocate_da
1052:   FUNC GLOBAL DEFAULT 14 _Z29nfa_dm_act_start_rf_d
1053:   OBJECT GLOBAL DEFAULT 23 nfa_poll_bail_out_mode
1054:   FUNC GLOBAL DEFAULT 14 _Z22nfc_reset_all_conn_cb
1055:   FUNC GLOBAL DEFAULT 14 _Z16RW_I93UpdateNDeftPh
1056:   FUNC GLOBAL DEFAULT 14 _Z16RW_T4tFormatNDefv
1057:   FUNC GLOBAL DEFAULT 14 _Z8GKI_stopv
1058:   FUNC GLOBAL DEFAULT 14 _Z28nfa_hciu_send_close_p
1059:   FUNC GLOBAL DEFAULT 14 _Z12GKI_shutdownv
1060:   FUNC GLOBAL DEFAULT 14 _Z16NFA_P2pFlushDatatPj
1061:   FUNC GLOBAL DEFAULT 14 _Z25llcp_link_check_send_
1062:   FUNC GLOBAL DEFAULT 14 _Z20GKI_change_buf_ownerP
1063:   FUNC GLOBAL DEFAULT 14 _Z29nfa_dm_disc_conn_even
1064:   FUNC GLOBAL DEFAULT 14 _Z23nfa_hciu_is_active_ho
1065:   FUNC GLOBAL DEFAULT 14 _Z19RW_T2tPresenceCheckv
1066:   FUNC GLOBAL DEFAULT 14 _Z15RW_T1tLocateTlvh
1067:   FUNC GLOBAL DEFAULT 14 _Z22nfc_ncif_process_even
1068:   FUNC GLOBAL DEFAULT 14 _Z22ce_t4t_process_timeou
1069:   FUNC GLOBAL DEFAULT 14 _Z15t2t_info_to_strPK17tT
1070:   FUNC GLOBAL DEFAULT 14 _Z18GKI_queue_is_emptyP8B
1071:   FUNC GLOBAL DEFAULT 14 _Z11nfa_dm_initv
1072:   FUNC GLOBAL DEFAULT 14 _Z23nfa_hciu_get_event_na
1073:   FUNC GLOBAL DEFAULT 14 _Z17nci_snd_core_inith
1074:   FUNC GLOBAL DEFAULT 14 _ZN11ConfigValueC1ENSt3__
1075:   FUNC WEAK DEFAULT 14 _ZNSt3__115basic_stringbu
1076:   FUNC GLOBAL DEFAULT 14 _Z16NDEF_MsgValidatePhjb
1077:   FUNC GLOBAL DEFAULT 14 _Z20nci_snd_discover_cmdh
1078:   FUNC GLOBAL DEFAULT 14 _ZN10ConfigFile8getValueE
1079:   FUNC GLOBAL DEFAULT 14 _Z21nfa_ee_api_disconnect
1080:   FUNC GLOBAL DEFAULT 14 _Z25NFA_HciGetGateAndPipe
1081:   FUNC GLOBAL DEFAULT 14 _Z26nfa_rw_presence_check
1082:   FUNC GLOBAL DEFAULT 14 _Z16NFA_RwT1tReadAllv
1083:   FUNC GLOBAL DEFAULT 14 _Z13rw_t3t_selectPhhh
1084:   FUNC GLOBAL DEFAULT 14 _Z32nfa_hci_handle_link_m
1085:   FUNC GLOBAL DEFAULT 14 _Z11nfc_enabledhP7NFC_HDR
1086:   FUNC GLOBAL DEFAULT 14 _Z17GKI_poolfreecounth
1087:   FUNC GLOBAL DEFAULT 14 _Z24nfa_p2p_enable_listen
1088:   OBJECT GLOBAL DEFAULT 23 _ZN13NfcAdaptation5sLockE
1089:   FUNC GLOBAL DEFAULT 14 _Z23nci_snd_core_conn_clo
1090:   FUNC GLOBAL DEFAULT 14 _Z15ce_t3t_send_rspP6tCE_
1091:   FUNC GLOBAL DEFAULT 14 _ZN11ThreadMutexC2Ev
1092:   FUNC GLOBAL DEFAULT 14 _Z23nfa_ee_api_set_tech_c
1093:   FUNC GLOBAL DEFAULT 14 _Z15NFA_EeUpdateNowv
1094:   FUNC GLOBAL DEFAULT 14 _Z13ce_select_t3ttPh
1095:   FUNC GLOBAL DEFAULT 14 _Z25rw_i93_get_next_block
1096:   FUNC GLOBAL DEFAULT 14 _ZN13NfcAdaptation14HalPr
1097:   FUNC GLOBAL DEFAULT 14 _Z32gki_system_tick_start
1098:   FUNC GLOBAL DEFAULT 14 _Z31nfa_dm_act_request_ex
1099:   FUNC GLOBAL DEFAULT 14 _Z17NFA_EnablePollingh
1100:   FUNC GLOBAL DEFAULT 14 _Z18nfa_ee_update_routv
1101:   FUNC GLOBAL DEFAULT 14 _Z29nfa_hci_handle_admin_
1102:   FUNC GLOBAL DEFAULT 14 _Z24CE_T3tSetLocalNDefPar
1103:   FUNC GLOBAL DEFAULT 14 _Z19CE_T3tSendUpdateRsphh
1104:   FUNC GLOBAL DEFAULT 14 _ZN13ThreadCondVarD1Ev
1105:   FUNC GLOBAL DEFAULT 14 _Z21nfa_ee_api_deregister
1106:   FUNC GLOBAL DEFAULT 14 _Z18NFA_HciGetRegistrythh
1107:   FUNC GLOBAL DEFAULT 14 _Z21LLCP_GetRemoteVersion
1108:   OBJECT GLOBAL DEFAULT 23 nfa_rw_cb
1109:   FUNC GLOBAL DEFAULT 14 _Z34rw_i93_send_cmd_write
1110:   FUNC GLOBAL DEFAULT 14 _Z12nfa_hci_initv
1111:   FUNC GLOBAL DEFAULT 14 _Z31nfa_dm_ndef_clear_not
1112:   FUNC GLOBAL DEFAULT 14 _Z22NFA_EeRemoveAidRoutin
1113:   FUNC GLOBAL DEFAULT 14 _Z13NFA_EeConnectthPFvhP1
1114:   FUNC GLOBAL DEFAULT 14 _Z26nfa_hci_check_api_req
1115:   FUNC GLOBAL DEFAULT 14 _Z17NFA_HciDeletePipeth
1116:   OBJECT GLOBAL DEFAULT 16 access_permission_nfc
1117:   FUNC GLOBAL DEFAULT 14 _ZN9NfcConfig9getStringER
1118:   FUNC GLOBAL DEFAULT 14 _Z10NFC_EnablePFvtP13tNFC
1119:   FUNC GLOBAL DEFAULT 14 _Z30nfa_ee_find_total_sys
1120:   FUNC GLOBAL DEFAULT 14 _Z23nfa_sys_ptim_stop_tim
1121:   FUNC GLOBAL DEFAULT 14 _ZN13NfcAdaptation12Facto
1122:   FUNC GLOBAL DEFAULT 14 _ZN10ConfigFile9addConfig
1123:   FUNC GLOBAL DEFAULT 14 _Z16RW_I93GetSysInfoPh
1124:   FUNC GLOBAL DEFAULT 14 _Z16RW_T3tDetectNDefv
1125:   FUNC GLOBAL DEFAULT 14 _Z19RW_T1tWriteNoErase8hP
1126:   FUNC GLOBAL DEFAULT 14 _Z14NFA_RwT3tWritehP19tNF
1127:   FUNC GLOBAL DEFAULT 14 _Z21LLCP_SetTxCompleteNtf
1128:   FUNC GLOBAL DEFAULT 14 _ZN11ConfigValueC1Ej
1129:   OBJECT GLOBAL DEFAULT 23 _ZN13NfcAdaptation8mHal_1
1130:   FUNC GLOBAL DEFAULT 14 _Z26nfa_dm_act_power_off_
1131:   FUNC GLOBAL DEFAULT 14 _Z34nfa_all_ee_find_total
1132:   FUNC GLOBAL DEFAULT 14 _Z18nfa_ee_api_connectP11
1133:   FUNC GLOBAL DEFAULT 14 _Z26nfa_ee_find_ecb_by_co
1134:   FUNC GLOBAL DEFAULT 14 _Z19rw_t3t_update_blockP1
1135:   FUNC GLOBAL DEFAULT 14 _Z21nfa_ce_handle_t4t_evt
1136:   FUNC GLOBAL DEFAULT 14 _Z11nfa_rw_initv
1137:   FUNC GLOBAL DEFAULT 14 _Z26nfa_ee_proc_hci_info_
1138:   FUNC GLOBAL DEFAULT 14 _Z18nfa_p2p_disconnectP12
1139:   FUNC GLOBAL DEFAULT 14 _Z20nfa_p2p_set_llcp_cfgP
1140:   FUNC GLOBAL DEFAULT 14 _Z29nfc_ncif_proc_ee_disc
1141:   FUNC GLOBAL DEFAULT 14 _Z29nfc_ncif_proc_proprie
1142:   FUNC GLOBAL DEFAULT 14 _Z26nci_proc_rf_managemen
1143:   FUNC GLOBAL DEFAULT 14 _Z21nfa_dm_act_resume_p2p
1144:   FUNC GLOBAL DEFAULT 14 _Z17NDEF_MsgRemoveRecPhPj
1145:   FUNC GLOBAL DEFAULT 14 _Z18nfc_remaining_timeP14
1146:   FUNC GLOBAL DEFAULT 14 _Z32rw_t2t_read_terminato
1147:   FUNC GLOBAL DEFAULT 14 _Z17nci_proc_prop_ntfP7NF
1148:   FUNC GLOBAL DEFAULT 14 _Z14RW_T2tReadNDefPht
1149:   FUNC GLOBAL DEFAULT 14 _Z23llcp_util_parse_conne
1150:   FUNC GLOBAL DEFAULT 14 _Z18nfa_sys_stop_timerP14
1151:   FUNC GLOBAL DEFAULT 14 _Z25rw_i93_send_cmd_write
1152:   FUNC GLOBAL DEFAULT 14 _Z22rw_t1t_send_static_cm
1153:   FUNC GLOBAL DEFAULT 14 _ZN15AutoThreadMutexD2Ev
1154:   FUNC GLOBAL DEFAULT 14 _Z25nfa_p2p_accept_connec
1155:   FUNC GLOBAL DEFAULT 14 _Z21LLCP_ReadDataLinkData
1156:   FUNC GLOBAL DEFAULT 14 _Z23nci_snd_get_routing_c
1157:   FUNC GLOBAL DEFAULT 14 _Z21rw_i93_sm_detect_ndef
1158:   FUNC GLOBAL DEFAULT 14 _Z15LLCP_ConnectReqhhP23t
1159:   OBJECT GLOBAL DEFAULT 23 p_nfa_dm_interface_mappin
1160:   FUNC GLOBAL DEFAULT 14 _Z18nfa_ee_ecb_to_maskP11
1161:   FUNC GLOBAL DEFAULT 14 _Z29nfa_hciu_is_no_host_r
1162:   FUNC GLOBAL DEFAULT 14 _Z25nfa_sys_ptim_timer_up
1163:   FUNC GLOBAL DEFAULT 14 _Z20NDEF_MsgGetRecLengthP
1164:   FUNC GLOBAL DEFAULT 14 _Z14NFC_RegVSCbackbPFvhtP
1165:   OBJECT GLOBAL DEFAULT 16 nfa_hci_cfg
1166:   FUNC GLOBAL DEFAULT 14 _Z18NFA_HciDeallocGateth
1167:   FUNC GLOBAL DEFAULT 14 _Z14LLCP_SetConfigthhtttt
1168:   FUNC GLOBAL DEFAULT 14 _ZN11ConfigValueC1Ev
1169:   FUNC GLOBAL DEFAULT 14 _Z29nfc_wait_2_deactivate
1170:   OBJECT GLOBAL DEFAULT 11 t2t_cmd_rsp_infos
1171:   FUNC GLOBAL DEFAULT 14 _Z16NFA_HciClosePipeth
1172:   FUNC GLOBAL DEFAULT 14 _Z17nci_proc_core_rspP7NF
1173:   FUNC GLOBAL DEFAULT 14 _Z17rw_t2t_conn_cbackhtP9
1174:   FUNC GLOBAL DEFAULT 14 _Z20rw_t3t_process_errorh
1175:   FUNC GLOBAL DEFAULT 14 _Z24rw_t3t_set_readonly_c
1176:   FUNC GLOBAL DEFAULT 14 _ZN13NfcAdaptation9NFCA_T
1177:   FUNC GLOBAL DEFAULT 14 _Z24nfa_hci_enable_one_nf
1178:   FUNC GLOBAL DEFAULT 14 _Z18LLCP_DisconnectReqhhb
1179:   FUNC GLOBAL DEFAULT 14 _Z20RW_T2tSetTagReadOnlyb
1180:   FUNC GLOBAL DEFAULT 14 _Z27nfa_ee_nci_nfcee_stat
1181:   FUNC GLOBAL DEFAULT 14 _Z15nfa_nv_ci_writeh
1182:   FUNC GLOBAL DEFAULT 14 _ZN13NfcAdaptation8HalWri
1183:   OBJECT GLOBAL DEFAULT 23 isDownloadFirmwareComplet
1184:   FUNC GLOBAL DEFAULT 14 _Z24nfa_ce_disable_local_
1185:   FUNC GLOBAL DEFAULT 14 _Z14NFA_EeRegisterPFvhP18
1186:   FUNC GLOBAL DEFAULT 14 _Z13GKI_exit_taskh
1187:   FUNC GLOBAL DEFAULT 14 _Z23nfa_rw_free_ndef_rx_b
1188:   FUNC GLOBAL DEFAULT 14 _Z18NFA_RwI93InventorybhP
1189:   FUNC GLOBAL DEFAULT 14 _Z24nfc_main_flush_cmd_qu
1190:   FUNC GLOBAL DEFAULT 14 _ZN10ConfigFile5clearEv
1191:   FUNC GLOBAL DEFAULT 14 _Z28nfa_dm_act_stop_rf_di
1192:   OBJECT GLOBAL DEFAULT 16 p_nfa_sys_cfg
1193:   FUNC GLOBAL DEFAULT 14 _Z21GKI_update_timer_list
1194:   FUNC GLOBAL DEFAULT 14 _Z14GKI_stop_timerh
1195:   FUNC GLOBAL DEFAULT 14 _Z21llcp_util_send_rr_rnr
1196:   FUNC GLOBAL DEFAULT 14 _Z26nfc_ncif_proc_rf_fiel
1197:   FUNC GLOBAL DEFAULT 14 _Z31nfa_dm_act_set_rf_dis
1198:   FUNC GLOBAL DEFAULT 14 _Z14NFA_Deactivateb
1199:   FUNC GLOBAL DEFAULT 14 _Z26nfa_ee_api_remove_sys
1200:   FUNC GLOBAL DEFAULT 14 _Z22rw_i93_process_timeou
1201:   FUNC GLOBAL DEFAULT 14 _ZN9NfcConfigC2Ev
1202:   FUNC GLOBAL DEFAULT 14 _ZN10ConfigFile7isEmptyEv
1203:   FUNC GLOBAL DEFAULT 14 _Z19nfa_sys_is_registerh
1204:   FUNC GLOBAL DEFAULT 14 _Z17NFA_P2pDisconnecttb
1205:   FUNC GLOBAL DEFAULT 14 _Z21NFA_RwT2tSectorSelect
1206:   FUNC GLOBAL DEFAULT 14 _Z26nci_proc_ee_managemen
1207:   FUNC GLOBAL DEFAULT 14 _Z12GKI_getfirstP8BUFFER_
1208:   FUNC GLOBAL DEFAULT 14 _Z23rw_i93_process_sys_in
1209:   FUNC GLOBAL DEFAULT 14 _ZN13NfcAdaptation16Downl
1210:   FUNC GLOBAL DEFAULT 14 _Z20llcp_link_deactivateh
1211:   FUNC GLOBAL DEFAULT 14 _Z29llcp_dlc_check_to_sen
1212:   FUNC GLOBAL DEFAULT 14 _Z26llcp_sdp_proc_deactiv
1213:   FUNC GLOBAL DEFAULT 14 _Z16GKI_map_tasknameh
