 0x000000000000000e (SONAME)             Library soname: [libaudioclient.so]
  
Symbol   contains 1296 entries:
Num:   Type Bind Vis Ndx Name
0:   NOTYPE LOCAL DEFAULT UND
1:   FUNC GLOBAL DEFAULT UND __cxa_finalize@LIBC (2)
2:   FUNC GLOBAL DEFAULT UND __cxa_atexit@LIBC (2)
3:   FUNC GLOBAL DEFAULT UND _ZN7android10IInterfaceC2
4:   FUNC GLOBAL DEFAULT UND _ZN7android10IInterfaceD0
5:   FUNC GLOBAL DEFAULT UND _ZN7android10IInterfaceD1
6:   FUNC GLOBAL DEFAULT UND _ZN7android10IInterfaceD2
7:   FUNC GLOBAL DEFAULT UND _ZN7android10VectorImpl13
8:   FUNC GLOBAL DEFAULT UND _ZN7android10VectorImpl5c
9:   FUNC GLOBAL DEFAULT UND _ZN7android10VectorImpl6r
10:   FUNC GLOBAL DEFAULT UND _ZN7android10VectorImpl8i
11:   FUNC GLOBAL DEFAULT UND _ZN7android10VectorImplC2
12:   FUNC GLOBAL DEFAULT UND _ZN7android10VectorImplC2
13:   FUNC GLOBAL DEFAULT UND _ZN7android10VectorImplD2
14:   FUNC GLOBAL DEFAULT UND _ZN7android14sp_report_ra
15:   FUNC GLOBAL DEFAULT UND _ZN7android6Parcel10write
16:   FUNC GLOBAL DEFAULT UND _ZN7android6Parcel10write
17:   FUNC GLOBAL DEFAULT UND _ZN7android6Parcel11write
18:   FUNC GLOBAL DEFAULT UND _ZN7android6Parcel13write
19:   FUNC GLOBAL DEFAULT UND _ZN7android6Parcel15write
20:   FUNC GLOBAL DEFAULT UND _ZN7android6Parcel16write
21:   FUNC GLOBAL DEFAULT UND _ZN7android6Parcel16write
22:   FUNC GLOBAL DEFAULT UND _ZN7android6Parcel19write
23:   FUNC GLOBAL DEFAULT UND _ZN7android6ParcelC1Ev
24:   FUNC GLOBAL DEFAULT UND _ZN7android6ParcelD1Ev
25:   FUNC GLOBAL DEFAULT UND _ZN7android6binder6Status
26:   FUNC GLOBAL DEFAULT UND _ZN7android6binder6Status
27:   FUNC GLOBAL DEFAULT UND _ZN7android6binder6Status
28:   FUNC GLOBAL DEFAULT UND _ZN7android6binder6Status
29:   FUNC GLOBAL DEFAULT UND _ZN7android7BBinder10onTr
30:   FUNC GLOBAL DEFAULT UND _ZN7android7BBinder10ping
31:   FUNC GLOBAL DEFAULT UND _ZN7android7BBinder11link
32:   FUNC GLOBAL DEFAULT UND _ZN7android7BBinder11loca
33:   FUNC GLOBAL DEFAULT UND _ZN7android7BBinder12atta
34:   FUNC GLOBAL DEFAULT UND _ZN7android7BBinder12deta
35:   FUNC GLOBAL DEFAULT UND _ZN7android7BBinder13unli
36:   FUNC GLOBAL DEFAULT UND _ZN7android7BBinder4dumpE
37:   FUNC GLOBAL DEFAULT UND _ZN7android7BBinder8trans
38:   FUNC GLOBAL DEFAULT UND _ZN7android7BBinderD0Ev
39:   FUNC GLOBAL DEFAULT UND _ZN7android7BBinderD1Ev
40:   FUNC GLOBAL DEFAULT UND _ZN7android7IBinder11loca
41:   FUNC GLOBAL DEFAULT UND _ZN7android7IBinder12remo
42:   FUNC GLOBAL DEFAULT UND _ZN7android7IBinder19quer
43:   FUNC GLOBAL DEFAULT UND _ZN7android7IBinderD0Ev
44:   FUNC GLOBAL DEFAULT UND _ZN7android7IBinderD1Ev
45:   FUNC GLOBAL DEFAULT UND _ZN7android7RefBase10onFi
46:   FUNC GLOBAL DEFAULT UND _ZN7android7RefBase13onLa
47:   FUNC GLOBAL DEFAULT UND _ZN7android7RefBase15onLa
48:   FUNC GLOBAL DEFAULT UND _ZN7android7RefBase20onIn
49:   FUNC GLOBAL DEFAULT UND _ZN7android7RefBaseC2Ev
50:   FUNC GLOBAL DEFAULT UND _ZN7android7RefBaseD2Ev
51:   FUNC GLOBAL DEFAULT UND _ZN7android7String8C1ERKS
52:   FUNC GLOBAL DEFAULT UND _ZN7android7String8C1Ev
53:   FUNC GLOBAL DEFAULT UND _ZN7android7String8D1Ev
54:   FUNC GLOBAL DEFAULT UND _ZN7android8String16C1EPK
55:   FUNC GLOBAL DEFAULT UND _ZN7android8String16C1ERK
56:   FUNC GLOBAL DEFAULT UND _ZN7android8String16C1Ev
57:   FUNC GLOBAL DEFAULT UND _ZN7android8String16D1Ev
58:   FUNC GLOBAL DEFAULT UND _ZN7android9BpRefBase10on
59:   FUNC GLOBAL DEFAULT UND _ZN7android9BpRefBase15on
60:   FUNC GLOBAL DEFAULT UND _ZN7android9BpRefBase20on
61:   FUNC GLOBAL DEFAULT UND _ZN7android9BpRefBaseC2ER
62:   FUNC GLOBAL DEFAULT UND _ZN7android9BpRefBaseD0Ev
63:   FUNC GLOBAL DEFAULT UND _ZN7android9BpRefBaseD1Ev
64:   FUNC GLOBAL DEFAULT UND _ZN7android9BpRefBaseD2Ev
65:   FUNC GLOBAL DEFAULT UND _ZNK7android6Parcel10read
66:   FUNC GLOBAL DEFAULT UND _ZNK7android6Parcel12read
67:   FUNC GLOBAL DEFAULT UND _ZNK7android6Parcel14chec
68:   FUNC GLOBAL DEFAULT UND _ZNK7android6Parcel14read
69:   FUNC GLOBAL DEFAULT UND _ZNK7android6Parcel15read
70:   FUNC GLOBAL DEFAULT UND _ZNK7android6Parcel15read
71:   FUNC GLOBAL DEFAULT UND _ZNK7android6Parcel9readF
72:   FUNC GLOBAL DEFAULT UND _ZNK7android6Parcel9readI
73:   FUNC GLOBAL DEFAULT UND _ZNK7android6binder6Statu
74:   FUNC GLOBAL DEFAULT UND _ZNK7android7BBinder10fin
75:   FUNC GLOBAL DEFAULT UND _ZNK7android7BBinder13isB
76:   FUNC GLOBAL DEFAULT UND _ZNK7android7BBinder22get
77:   FUNC GLOBAL DEFAULT UND _ZNK7android7IBinder13che
78:   FUNC GLOBAL DEFAULT UND _ZNK7android7RefBase9decS
79:   FUNC GLOBAL DEFAULT UND _ZNK7android7RefBase9incS
80:   FUNC GLOBAL DEFAULT UND _ZNK7android8String164siz
81:   FUNC GLOBAL DEFAULT UND _ZNKSt3__120__vector_base
82:   FUNC GLOBAL DEFAULT UND _ZTv0_n24_N7android10IInt
83:   FUNC GLOBAL DEFAULT UND _ZTv0_n24_N7android10IInt
84:   FUNC GLOBAL DEFAULT UND _ZTv0_n24_N7android7BBind
85:   FUNC GLOBAL DEFAULT UND _ZTv0_n24_N7android7BBind
86:   FUNC GLOBAL DEFAULT UND _ZTv0_n24_N7android7IBind
87:   FUNC GLOBAL DEFAULT UND _ZTv0_n24_N7android7IBind
88:   FUNC GLOBAL DEFAULT UND _ZTv0_n24_N7android9BpRef
89:   FUNC GLOBAL DEFAULT UND _ZTv0_n24_N7android9BpRef
90:   FUNC GLOBAL DEFAULT UND _ZTv0_n32_N7android9BpRef
91:   FUNC GLOBAL DEFAULT UND _ZTv0_n40_N7android9BpRef
92:   FUNC GLOBAL DEFAULT UND _ZTv0_n48_N7android9BpRef
93:   FUNC GLOBAL DEFAULT UND _ZdlPv
94:   FUNC GLOBAL DEFAULT UND _Znwm
95:   FUNC GLOBAL DEFAULT UND __android_log_print@LIBLOG (3)
96:   FUNC GLOBAL DEFAULT UND __cxa_pure_virtual
97:   FUNC GLOBAL DEFAULT UND __stack_chk_fail@LIBC (2)
98:   FUNC GLOBAL DEFAULT UND abort@LIBC (2)
99:   FUNC GLOBAL DEFAULT UND memcpy@LIBC (2)
100:   FUNC GLOBAL DEFAULT UND memmove@LIBC (2)
101:   FUNC GLOBAL DEFAULT UND strzcmp16
102:   FUNC GLOBAL DEFAULT UND _ZN7android6Parcel11write
103:   FUNC GLOBAL DEFAULT UND _ZNK7android6Parcel10read
104:   FUNC GLOBAL DEFAULT UND _ZN7android10IInterface8a
105:   FUNC GLOBAL DEFAULT UND _ZN7android14IPCThreadSta
106:   FUNC GLOBAL DEFAULT UND _ZN7android14IPCThreadSta
107:   FUNC GLOBAL DEFAULT UND _ZN7android7BBinderC2Ev
108:   FUNC GLOBAL DEFAULT UND _ZN7android7BBinderD2Ev
109:   FUNC GLOBAL DEFAULT UND _ZN7android7RefBase12weak
110:   FUNC GLOBAL DEFAULT UND _ZN7android7RefBase12weak
111:   FUNC GLOBAL DEFAULT UND _ZNK7android14IPCThreadSt
112:   FUNC GLOBAL DEFAULT UND _ZNK7android7IMemory7poin
113:   FUNC GLOBAL DEFAULT UND _ZNK7android7RefBase10cre
114:   FUNC GLOBAL DEFAULT UND __vsnprintf_chk@LIBC (2)
115:   FUNC GLOBAL DEFAULT UND pthread_mutex_destroy@LIBC (2)
116:   FUNC GLOBAL DEFAULT UND pthread_mutex_init@LIBC (2)
117:   FUNC GLOBAL DEFAULT UND pthread_mutex_lock@LIBC (2)
118:   FUNC GLOBAL DEFAULT UND pthread_mutex_unlock@LIBC (2)
119:   FUNC GLOBAL DEFAULT UND sscanf@LIBC (2)
120:   OBJECT GLOBAL DEFAULT UND _ZN7android13TypeConverte
121:   OBJECT GLOBAL DEFAULT UND _ZN7android13TypeConverte
122:   OBJECT GLOBAL DEFAULT UND _ZN7android13TypeConverte
123:   OBJECT GLOBAL DEFAULT UND _ZN7android13TypeConverte
124:   FUNC GLOBAL DEFAULT UND _ZN7android18MediaAnalyti
125:   FUNC GLOBAL DEFAULT UND _ZN7android18MediaAnalyti
126:   FUNC GLOBAL DEFAULT UND _ZN7android18MediaAnalyti
127:   FUNC GLOBAL DEFAULT UND _ZN7android18MediaAnalyti
128:   FUNC GLOBAL DEFAULT UND _ZN7android18MediaAnalyti
129:   FUNC GLOBAL DEFAULT UND _ZN7android18MediaAnalyti
130:   FUNC GLOBAL DEFAULT UND _ZN7android18MediaAnalyti
131:   FUNC GLOBAL DEFAULT UND _ZN7android18MediaAnalyti
132:   FUNC GLOBAL DEFAULT UND _ZN7android6Parcel10write
133:   FUNC GLOBAL DEFAULT UND _ZN7android6Parcel17write
134:   FUNC GLOBAL DEFAULT UND _ZN7android6Parcel5writeE
135:   FUNC GLOBAL DEFAULT UND _ZN7android6Thread10ready
136:   FUNC GLOBAL DEFAULT UND _ZN7android6Thread11reque
137:   FUNC GLOBAL DEFAULT UND _ZN7android6Thread18reque
138:   FUNC GLOBAL DEFAULT UND _ZN7android6Thread3runEPK
139:   FUNC GLOBAL DEFAULT UND _ZN7android6ThreadC2Eb
140:   FUNC GLOBAL DEFAULT UND _ZN7android6ThreadD0Ev
141:   FUNC GLOBAL DEFAULT UND _ZN7android6ThreadD1Ev
142:   FUNC GLOBAL DEFAULT UND _ZN7android6ThreadD2Ev
143:   FUNC GLOBAL DEFAULT UND _ZN7android7IMemory11asIn
144:   FUNC GLOBAL DEFAULT UND _ZN7android7String812appe
145:   FUNC GLOBAL DEFAULT UND _ZN7android7String86appen
146:   FUNC GLOBAL DEFAULT UND _ZN7android8String165setT
147:   FUNC GLOBAL DEFAULT UND _ZNK7android14IPCThreadSt
148:   FUNC GLOBAL DEFAULT UND _ZNK7android18MediaAnalyt
149:   FUNC GLOBAL DEFAULT UND _ZNK7android6Parcel10read
150:   FUNC GLOBAL DEFAULT UND _ZNK7android6Parcel12read
151:   FUNC GLOBAL DEFAULT UND _ZNK7android6Parcel16read
152:   FUNC GLOBAL DEFAULT UND _ZNK7android6Parcel4readE
153:   FUNC GLOBAL DEFAULT UND _ZNK7android6Parcel9readI
154:   FUNC GLOBAL DEFAULT UND _ZNK7android6Parcel9readI
155:   FUNC GLOBAL DEFAULT UND _ZNK7android6Thread11exit
156:   FUNC GLOBAL DEFAULT UND _ZNK7android6Thread6getTi
157:   FUNC GLOBAL DEFAULT UND _ZNK7android7String86leng
158:   FUNC GLOBAL DEFAULT UND _ZNKSt3__121__basic_strin
159:   FUNC GLOBAL DEFAULT UND _ZNKSt3__16locale9use_fac
160:   FUNC GLOBAL DEFAULT UND _ZNKSt3__18ios_base6getlo
161:   FUNC GLOBAL DEFAULT UND _ZNSt3__112basic_stringIc
162:   FUNC GLOBAL DEFAULT UND _ZNSt3__112basic_stringIc
163:   FUNC GLOBAL DEFAULT UND _ZNSt3__112basic_stringIc
164:   FUNC GLOBAL DEFAULT UND _ZNSt3__112basic_stringIc
165:   FUNC GLOBAL DEFAULT UND _ZNSt3__113basic_ostreamI
166:   FUNC GLOBAL DEFAULT UND _ZNSt3__113basic_ostreamI
167:   FUNC GLOBAL DEFAULT UND _ZNSt3__113basic_ostreamI
168:   FUNC GLOBAL DEFAULT UND _ZNSt3__113basic_ostreamI
169:   FUNC GLOBAL DEFAULT UND _ZNSt3__113basic_ostreamI
170:   FUNC GLOBAL DEFAULT UND _ZNSt3__113basic_ostreamI
171:   FUNC GLOBAL DEFAULT UND _ZNSt3__115basic_streambu
172:   FUNC GLOBAL DEFAULT UND _ZNSt3__115basic_streambu
173:   FUNC GLOBAL DEFAULT UND _ZNSt3__115basic_streambu
174:   FUNC GLOBAL DEFAULT UND _ZNSt3__115basic_streambu
175:   FUNC GLOBAL DEFAULT UND _ZNSt3__115basic_streambu
176:   FUNC GLOBAL DEFAULT UND _ZNSt3__115basic_streambu
177:   FUNC GLOBAL DEFAULT UND _ZNSt3__115basic_streambu
178:   FUNC GLOBAL DEFAULT UND _ZNSt3__115basic_streambu
179:   FUNC GLOBAL DEFAULT UND _ZNSt3__115basic_streambu
180:   OBJECT GLOBAL DEFAULT UND _ZNSt3__15ctypeIcE2idE
181:   FUNC GLOBAL DEFAULT UND _ZNSt3__16localeD1Ev
182:   FUNC GLOBAL DEFAULT UND _ZNSt3__18ios_base4initEP
183:   FUNC GLOBAL DEFAULT UND _ZNSt3__18ios_base5clearE
184:   FUNC GLOBAL DEFAULT UND _ZNSt3__19basic_iosIcNS_1
185:   FUNC GLOBAL DEFAULT UND _ZNSt3__19to_stringEi
186:   FUNC GLOBAL DEFAULT UND _ZTv0_n24_N7android6Threa
187:   FUNC GLOBAL DEFAULT UND _ZTv0_n24_N7android6Threa
188:   FUNC GLOBAL DEFAULT UND _ZTv0_n24_NSt3__113basic_
189:   FUNC GLOBAL DEFAULT UND _ZTv0_n24_NSt3__113basic_
190:   FUNC GLOBAL DEFAULT UND __android_log_assert@LIBLOG (3)
191:   FUNC GLOBAL DEFAULT UND androidSetThreadPriority
192:   FUNC GLOBAL DEFAULT UND clock_gettime@LIBC (2)
193:   FUNC GLOBAL DEFAULT UND get_sched_policy
194:   FUNC GLOBAL DEFAULT UND getpid@LIBC (2)
195:   FUNC GLOBAL DEFAULT UND getpriority@LIBC (2)
196:   FUNC GLOBAL DEFAULT UND memset@LIBC (2)
197:   FUNC GLOBAL DEFAULT UND pthread_cond_destroy@LIBC (2)
198:   FUNC GLOBAL DEFAULT UND pthread_cond_init@LIBC (2)
199:   FUNC GLOBAL DEFAULT UND pthread_cond_signal@LIBC (2)
200:   FUNC GLOBAL DEFAULT UND pthread_cond_timedwait@LIBC (2)
201:   FUNC GLOBAL DEFAULT UND pthread_cond_wait@LIBC (2)
202:   FUNC GLOBAL DEFAULT UND pthread_condattr_destroy@LIBC (2)
203:   FUNC GLOBAL DEFAULT UND pthread_condattr_init@LIBC (2)
204:   FUNC GLOBAL DEFAULT UND pthread_condattr_setclock@LIBC (2)
205:   FUNC GLOBAL DEFAULT UND sched_getscheduler@LIBC (2)
206:   FUNC GLOBAL DEFAULT UND set_sched_policy
207:   FUNC GLOBAL DEFAULT UND setpriority@LIBC (2)
208:   FUNC GLOBAL DEFAULT UND strlen@LIBC (2)
209:   FUNC GLOBAL DEFAULT UND systemTime
210:   FUNC GLOBAL DEFAULT UND usleep@LIBC (2)
211:   FUNC GLOBAL DEFAULT UND write@LIBC (2)
212:   FUNC GLOBAL DEFAULT UND _ZN7android10VectorImpl13
213:   FUNC GLOBAL DEFAULT UND _ZN7android10VectorImpl3a
214:   FUNC GLOBAL DEFAULT UND _ZN7android12ProcessState
215:   FUNC GLOBAL DEFAULT UND _ZN7android12ProcessState
216:   OBJECT GLOBAL DEFAULT UND _ZN7android13TypeConverte
217:   FUNC GLOBAL DEFAULT UND _ZN7android14IPCThreadSta
218:   FUNC GLOBAL DEFAULT UND _ZN7android14IPCThreadSta
219:   FUNC GLOBAL DEFAULT UND _ZN7android16SortedVector
220:   FUNC GLOBAL DEFAULT UND _ZN7android16SortedVector
221:   FUNC GLOBAL DEFAULT UND _ZN7android16SortedVector
222:   FUNC GLOBAL DEFAULT UND _ZN7android16SortedVector
223:   FUNC GLOBAL DEFAULT UND _ZN7android20AudioProduct
224:   FUNC GLOBAL DEFAULT UND _ZN7android21defaultServi
225:   FUNC GLOBAL DEFAULT UND _ZN7android7RefBase10rena
226:   FUNC GLOBAL DEFAULT UND _ZN7android7RefBase11rena
227:   FUNC GLOBAL DEFAULT UND _ZN7android7RefBase12weak
228:   FUNC GLOBAL DEFAULT UND _ZN7android7String85setTo
229:   FUNC GLOBAL DEFAULT UND _ZN7android7String8C1EPKc
230:   FUNC GLOBAL DEFAULT UND _ZNK7android16SortedVecto
231:   OBJECT GLOBAL DEFAULT UND _ZTVN7android15AudioAttri
232:   FUNC GLOBAL DEFAULT UND expf@LIBC (4)
233:   FUNC GLOBAL DEFAULT UND logf@LIBC (4)
234:   OBJECT GLOBAL DEFAULT UND _ZN7android14AudioParamet
235:   OBJECT GLOBAL DEFAULT UND _ZN7android14AudioParamet
236:   FUNC GLOBAL DEFAULT UND _ZN7android14AudioParamet
237:   FUNC GLOBAL DEFAULT UND _ZN7android14AudioParamet
238:   FUNC GLOBAL DEFAULT UND _ZNK7android14AudioParame
239:   FUNC GLOBAL DEFAULT UND _ZNK7android6Parcel9readF
240:   FUNC GLOBAL DEFAULT UND _ZNSt3__112__next_primeEm
241:   FUNC GLOBAL DEFAULT UND _ZNSt3__113basic_istreamI
242:   FUNC GLOBAL DEFAULT UND _ZNSt3__113basic_istreamI
243:   FUNC GLOBAL DEFAULT UND _ZNSt3__113basic_ostreamI
244:   FUNC GLOBAL DEFAULT UND _ZNSt3__114basic_iostream
245:   FUNC GLOBAL DEFAULT UND _ZNSt3__114basic_iostream
246:   FUNC GLOBAL DEFAULT UND _ZNSt3__114basic_iostream
247:   OBJECT GLOBAL DEFAULT UND _ZTVN7android14AudioParam
248:   FUNC GLOBAL DEFAULT UND _ZThn16_NSt3__114basic_io
249:   FUNC GLOBAL DEFAULT UND _ZThn16_NSt3__114basic_io
250:   FUNC GLOBAL DEFAULT UND _ZTv0_n24_NSt3__113basic_
251:   FUNC GLOBAL DEFAULT UND _ZTv0_n24_NSt3__113basic_
252:   FUNC GLOBAL DEFAULT UND _ZTv0_n24_NSt3__114basic_
253:   FUNC GLOBAL DEFAULT UND _ZTv0_n24_NSt3__114basic_
254:   FUNC GLOBAL DEFAULT UND gain_from_float
255:   FUNC GLOBAL DEFAULT UND isnanf@LIBC (2)
256:   FUNC GLOBAL DEFAULT UND powf@LIBC (4)
257:   FUNC GLOBAL DEFAULT UND strcmp@LIBC (2)
258:   FUNC GLOBAL DEFAULT UND __errno@LIBC (2)
259:   FUNC GLOBAL DEFAULT UND roundup
260:   FUNC GLOBAL DEFAULT UND strerror@LIBC (2)
261:   FUNC GLOBAL DEFAULT UND syscall@LIBC (2)
262:   FUNC GLOBAL DEFAULT UND _ZN7android6Parcel12write
263:   FUNC GLOBAL DEFAULT UND _ZN7android6Parcel12write
264:   FUNC GLOBAL DEFAULT UND _ZN7android9TimeCheckC1EP
265:   FUNC GLOBAL DEFAULT UND _ZN7android9TimeCheckD1Ev
266:   FUNC GLOBAL DEFAULT UND _ZNK7android6Parcel11read
267:   FUNC GLOBAL DEFAULT UND _ZNK7android6Parcel11read
268:   FUNC GLOBAL DEFAULT UND _ZNK7android6Parcel9readI
269:   FUNC GLOBAL DEFAULT UND _ZNSt3__112basic_stringIc
270:   FUNC GLOBAL DEFAULT UND _ZNSt3__19to_stringEj
271:   FUNC GLOBAL DEFAULT UND __android_log_error_write@LIBLOG_M (5)
272:   FUNC GLOBAL DEFAULT UND calloc@LIBC (2)
273:   FUNC GLOBAL DEFAULT UND free@LIBC (2)
274:   FUNC GLOBAL DEFAULT UND multiuser_get_app_id
275:   FUNC GLOBAL DEFAULT UND _ZN7android15AudioAttribu
276:   FUNC GLOBAL DEFAULT UND _ZN7android16AudioVolumeG
277:   FUNC GLOBAL DEFAULT UND _ZN7android19AudioDeviceT
278:   FUNC GLOBAL DEFAULT UND _ZN7android20AudioProduct
279:   FUNC GLOBAL DEFAULT UND _ZN7android6Parcel9writeB
280:   FUNC GLOBAL DEFAULT UND _ZN7android8AudioMix14rea
281:   FUNC GLOBAL DEFAULT UND _ZNK7android19AudioDevice
282:   FUNC GLOBAL DEFAULT UND _ZNK7android6Parcel12data
283:   FUNC GLOBAL DEFAULT UND _ZNK7android6Parcel15setD
284:   FUNC GLOBAL DEFAULT UND _ZNK7android6Parcel8readB
285:   FUNC GLOBAL DEFAULT UND _ZNK7android8AudioMix13wr
286:   OBJECT GLOBAL DEFAULT UND _ZTVN7android16AudioVolum
287:   OBJECT GLOBAL DEFAULT UND _ZTVN7android20AudioProdu
288:   FUNC GLOBAL DEFAULT UND _ZdaPv
289:   FUNC GLOBAL DEFAULT UND _Znam
290:   FUNC GLOBAL DEFAULT UND strnlen@LIBC (2)
291:   FUNC GLOBAL DEFAULT UND malloc@LIBC (2)
292:   FUNC GLOBAL DEFAULT UND __strlen_chk@LIBC (2)
293:   FUNC GLOBAL DEFAULT UND property_get
294:   FUNC GLOBAL DEFAULT UND pthread_cond_broadcast@LIBC (2)
295:   FUNC GLOBAL DEFAULT UND sincos@LIBC (4)
296:   FUNC GLOBAL DEFAULT UND strchr@LIBC (2)
297:   FUNC GLOBAL DEFAULT UND strstr@LIBC (2)
298:   FUNC GLOBAL DEFAULT UND _ZN7android13IAudioManage
299:   FUNC GLOBAL DEFAULT UND _ZN7android6binder6Status
300:   FUNC GLOBAL DEFAULT UND _ZN7android7BBinderC1Ev
301:   FUNC WEAK DEFAULT UND android_set_abort_message@LIBC (2)
302:   FUNC GLOBAL DEFAULT 14 _ZN7android5media13BpAudi
303:   FUNC GLOBAL DEFAULT 14 _ZN7android5media7IPlayer
304:   FUNC WEAK DEFAULT 14 _ZNSt3__112__hash_tableIN
305:   FUNC WEAK DEFAULT 14 _ZNSt3__14listIN7android5
306:   FUNC WEAK DEFAULT 14 _ZNK7android6VectorINS_22
307:   OBJECT WEAK DEFAULT 18 _ZTCN7android14BpEffectCl
308:   OBJECT GLOBAL DEFAULT 18 _ZTCN7android5media8BnPla
309:   FUNC GLOBAL DEFAULT 14 _ZN7android11AudioSystem1
310:   FUNC GLOBAL DEFAULT 14 _ZN7android11AudioSystem2
311:   OBJECT GLOBAL DEFAULT 18 _ZTCN7android20BnAudioFli
312:   FUNC GLOBAL DEFAULT 14 _ZN7android11AudioSystem2
313:   FUNC GLOBAL DEFAULT 14 _ZN7android13IAudioFlinge
314:   FUNC GLOBAL DEFAULT 14 _ZN7android11AudioEffect1
315:   OBJECT GLOBAL DEFAULT 18 _ZTTN7android10AudioTrack
316:   FUNC GLOBAL DEFAULT 14 _ZN7android14BnAudioFling
317:   OBJECT GLOBAL DEFAULT 18 _ZTVN7android5media8BnPla
318:   FUNC GLOBAL DEFAULT 14 _ZN7android11AudioSystem2
319:   FUNC GLOBAL DEFAULT 14 _ZN7android5media12IAudio
320:   FUNC GLOBAL DEFAULT 14 _ZN7android11AudioSystem1
321:   FUNC GLOBAL DEFAULT 14 _ZN7android10AudioTrack7l
322:   OBJECT GLOBAL DEFAULT 18 _ZTVN7android11ServerProx
323:   FUNC GLOBAL DEFAULT 14 _ZN7android20BnAudioPolic
324:   FUNC GLOBAL DEFAULT 14 _ZN7android5media13BpAudi
325:   FUNC GLOBAL DEFAULT 14 _ZN7android11AudioSystem1
326:   FUNC GLOBAL DEFAULT 14 _ZN7android11AudioSystem2
327:   FUNC WEAK DEFAULT 14 _ZNK7android6VectorINS_2s
328:   OBJECT GLOBAL DEFAULT 18 _ZTCN7android14BnAudioFli
329:   OBJECT WEAK DEFAULT 18 _ZTVN7android20BpAudioFli
330:   FUNC GLOBAL DEFAULT 14 _ZN7android11AudioSystem1
331:   OBJECT GLOBAL DEFAULT 18 _ZTCN7android10AudioTrack
332:   FUNC GLOBAL DEFAULT 14 _ZN7android5media7IPlayer
333:   OBJECT WEAK DEFAULT 18 _ZTTN7android11AudioEffec
334:   OBJECT WEAK DEFAULT 18 _ZTVN7android22AudioRecor
335:   FUNC GLOBAL DEFAULT 14 _ZN7android11AudioSystem1
336:   FUNC GLOBAL DEFAULT 14 _ZN7android11AudioSystem1
337:   FUNC WEAK DEFAULT 14 _ZNSt3__124__put_characte
338:   OBJECT WEAK DEFAULT 18 _ZTVN7android20BpAudioPol
339:   FUNC GLOBAL DEFAULT 14 _ZN7android13ToneGenerato
340:   FUNC GLOBAL DEFAULT 14 _ZTv0_n24_N7android15Trac
341:   OBJECT GLOBAL DEFAULT 18 _ZTTN7android5media13BnAu
342:   OBJECT GLOBAL DEFAULT 18 _ZTCN7android5media8BnPla
343:   FUNC GLOBAL DEFAULT 14 _ZTv0_n24_N7android19IAud
344:   FUNC GLOBAL DEFAULT 14 _ZN7android11AudioRecord2
345:   OBJECT WEAK DEFAULT 18 _ZTVN7android12SortedVect
346:   OBJECT GLOBAL DEFAULT 18 _ZTCN7android20BnAudioPol
347:   OBJECT GLOBAL DEFAULT 18 _ZTVN7android14BnEffectCl
348:   OBJECT GLOBAL DEFAULT 18 _ZTCN7android15TrackPlaye
349:   OBJECT GLOBAL DEFAULT 18 _ZTCN7android5media14IPla
350:   OBJECT GLOBAL DEFAULT 11 _ZN7android11ClientProxy1
351:   FUNC GLOBAL DEFAULT 14 _ZNK7android11AudioRecord
352:   FUNC GLOBAL DEFAULT 14 _ZN7android11IAudioTrack1
353:   OBJECT GLOBAL DEFAULT 18 _ZTVN7android15TrackPlaye
354:   OBJECT GLOBAL DEFAULT 18 _ZTVN7android5media13BpAu
355:   FUNC GLOBAL DEFAULT 14 _ZN7android11AudioRecord1
356:   FUNC WEAK DEFAULT 14 _ZNSt3__115basic_stringbu
357:   FUNC GLOBAL DEFAULT 14 _ZN7android11AudioSystem1
358:   FUNC GLOBAL DEFAULT 14 _ZN7android11AudioSystem2
359:   OBJECT GLOBAL DEFAULT 18 _ZTCN7android10PlayerBase
360:   FUNC WEAK DEFAULT 14 _ZNK7android6VectorIiE12d
361:   FUNC GLOBAL DEFAULT 14 _ZThn8_N7android5media8Bn
362:   FUNC GLOBAL DEFAULT 14 _ZN7android10AudioTrack16
363:   FUNC GLOBAL DEFAULT 14 _ZN7android10AudioTrack21
364:   FUNC GLOBAL DEFAULT 14 _ZN7android10AudioTrackC1
365:   FUNC GLOBAL DEFAULT 14 _ZN7android11AudioSystem1
366:   FUNC GLOBAL DEFAULT 14 _ZN7android11AudioSystem2
367:   FUNC GLOBAL DEFAULT 14 _ZN7android11AudioSystem4
368:   FUNC WEAK DEFAULT 14 _ZNK7android6VectorINS_2s
369:   OBJECT WEAK DEFAULT 18 _ZTCN7android20BpAudioFli
370:   FUNC WEAK DEFAULT 14 _ZNK7android12SortedVecto
371:   FUNC GLOBAL DEFAULT 14 _ZN7android10PlayerBase5p
372:   FUNC GLOBAL DEFAULT 14 _ZN7android15TrackPlayerB
373:   FUNC GLOBAL DEFAULT 14 _ZN7android10AudioTrack21
374:   FUNC GLOBAL DEFAULT 14 _ZN7android10AudioTrack9s
375:   OBJECT GLOBAL DEFAULT 18 _ZTVN7android27StaticAudi
376:   OBJECT GLOBAL DEFAULT 18 _ZTCN7android5media19IAud
377:   FUNC GLOBAL DEFAULT 14 _ZN7android5media7IPlayer
378:   FUNC WEAK DEFAULT 14 _ZNK7android12SortedVecto
379:   OBJECT GLOBAL DEFAULT 18 _ZTCN7android11AudioSyste
380:   FUNC GLOBAL DEFAULT 14 _ZNK7android11AudioRecord
381:   FUNC WEAK DEFAULT 14 _ZN7android11BnInterfaceI
382:   OBJECT GLOBAL DEFAULT 18 _ZTCN7android12BnAudioTra
383:   OBJECT WEAK DEFAULT 18 _ZTCN7android8BpEffectE0_
384:   FUNC GLOBAL DEFAULT 14 _ZN7android11AudioEffect7
385:   FUNC WEAK DEFAULT 14 _ZNSt3__16__treeINS_12__v
386:   OBJECT GLOBAL DEFAULT 18 _ZTCN7android11AudioSyste
387:   FUNC GLOBAL DEFAULT 14 _ZN7android21AudioTrackSe
388:   OBJECT WEAK DEFAULT 18 _ZTVN7android26BpAudioPol
389:   OBJECT GLOBAL DEFAULT 23 _ZN7android7IEffect12defa
390:   FUNC GLOBAL DEFAULT 14 _ZN7android11AudioEffect1
391:   FUNC GLOBAL DEFAULT 14 _ZN7android24RecordingAct
392:   FUNC GLOBAL DEFAULT 14 _ZThn8_N7android12BnAudio
393:   OBJECT WEAK DEFAULT 18 _ZTCN7android14BpEffectCl
394:   OBJECT GLOBAL DEFAULT 18 _ZTCN7android5media8BnPla
395:   FUNC GLOBAL DEFAULT 14 _ZN7android11AudioSystem1
396:   FUNC GLOBAL DEFAULT 14 _ZN7android21AudioTrackCl
397:   FUNC GLOBAL DEFAULT 14 _ZN7android10PlayerBase20
398:   FUNC GLOBAL DEFAULT 14 _ZN7android24RecordingAct
399:   FUNC GLOBAL DEFAULT 14 _ZN7android11AudioSystem1
400:   OBJECT WEAK DEFAULT 18 _ZTCN7android26BpAudioPol
401:   OBJECT WEAK DEFAULT 18 _ZTVN7android8BpEffectE
402:   OBJECT GLOBAL DEFAULT 18 _ZTCN7android5media13BnAu
403:   OBJECT GLOBAL DEFAULT 18 _ZTTN7android5media8BnPla
404:   OBJECT GLOBAL DEFAULT 18 _ZTCN7android11AudioRecor
405:   FUNC GLOBAL DEFAULT 14 _ZN7android11AudioSystem1
406:   OBJECT GLOBAL DEFAULT 23 _ZN7android11IAudioTrack1
407:   FUNC GLOBAL DEFAULT 14 _ZN7android5media13BpAudi
408:   FUNC GLOBAL DEFAULT 14 _ZN7android11AudioSystem1
409:   OBJECT GLOBAL DEFAULT 23 _ZN7android11IAudioTrack1
410:   FUNC GLOBAL DEFAULT 14 _ZN7android5media8BpPlaye
411:   FUNC GLOBAL DEFAULT 14 _ZN7android11AudioRecord1
412:   FUNC GLOBAL DEFAULT 14 _ZN7android11AudioSystem1
413:   FUNC GLOBAL DEFAULT 14 _ZN7android11AudioSystem1
414:   FUNC GLOBAL DEFAULT 14 _ZNK7android10AudioTrack1
415:   FUNC WEAK DEFAULT 14 _ZNK7android6VectorINS0_I
416:   FUNC WEAK DEFAULT 14 _ZNK7android6VectorIiE8do
417:   FUNC GLOBAL DEFAULT 14 _ZN7android5media14IPlaye
418:   FUNC GLOBAL DEFAULT 14 _ZNK7android11AudioEffect
419:   FUNC GLOBAL DEFAULT 14 _ZN7android11AudioRecord1
420:   FUNC WEAK DEFAULT 14 _ZNSt3__16vectorIN7androi
421:   FUNC GLOBAL DEFAULT 14 _ZThn8_N7android11AudioSy
422:   FUNC GLOBAL DEFAULT 14 _ZN7android10AudioTrack11
423:   OBJECT GLOBAL DEFAULT 18 _ZTTN7android7IEffectE
424:   OBJECT WEAK DEFAULT 18 _ZTCN7android11AudioEffec
425:   FUNC GLOBAL DEFAULT 14 _ZN7android11AudioRecord1
426:   FUNC GLOBAL DEFAULT 14 _ZN7android11AudioSystem1
427:   FUNC GLOBAL DEFAULT 14 _ZN7android11AudioRecordD
428:   OBJECT GLOBAL DEFAULT 18 _ZTCN7android11AudioSyste
429:   OBJECT GLOBAL DEFAULT 18 _ZTCN7android14BnAudioFli
430:   FUNC GLOBAL DEFAULT 14 _ZN7android25IAudioPolicy
431:   FUNC GLOBAL DEFAULT 14 _ZN7android11AudioSystem1
432:   OBJECT GLOBAL DEFAULT 18 _ZTVN7android10AudioTrack
433:   FUNC GLOBAL DEFAULT 14 _ZN7android13IAudioFlinge
434:   FUNC GLOBAL DEFAULT 14 _ZTv0_n24_N7android10Play
435:   FUNC WEAK DEFAULT 14 _ZNSt3__16__treeINS_12__v
436:   FUNC GLOBAL DEFAULT 14 _ZN7android11AudioSystem1
437:   FUNC GLOBAL DEFAULT 14 _ZN7android10AudioTrack5p
438:   OBJECT GLOBAL DEFAULT 18 _ZTTN7android14BnEffectCl
439:   FUNC GLOBAL DEFAULT 14 _ZN7android11AudioSystem1
440:   FUNC GLOBAL DEFAULT 14 _ZN7android11AudioSystem1
441:   FUNC GLOBAL DEFAULT 14 _ZN7android10AudioTrack7f
442:   OBJECT WEAK DEFAULT 18 _ZTCN7android20BpAudioFli
443:   OBJECT GLOBAL DEFAULT 18 _ZTTN7android25IAudioPoli
444:   FUNC GLOBAL DEFAULT 14 _ZThn8_N7android8BnEffect
445:   FUNC WEAK DEFAULT 14 _ZNSt3__16__treeINS_12__v
446:   OBJECT WEAK DEFAULT 18 _ZTVN7android13IAudioFlin
447:   FUNC WEAK DEFAULT 14 _ZNK7android12SortedVecto
448:   FUNC GLOBAL DEFAULT 14 _ZN7android11ServerProxy1
449:   FUNC GLOBAL DEFAULT 14 _ZN7android10PlayerBase11
450:   FUNC WEAK DEFAULT 14 _ZN7android11BnInterfaceI
451:   OBJECT GLOBAL DEFAULT 18 _ZTCN7android5media8BpPla
452:   FUNC GLOBAL DEFAULT 14 _ZNK7android10AudioTrack1
453:   OBJECT GLOBAL DEFAULT 18 _ZTVN7android10AudioTrack
454:   FUNC GLOBAL DEFAULT 14 _ZN7android11AudioRecord1
455:   FUNC GLOBAL DEFAULT 14 _ZN7android11AudioSystem1
456:   FUNC GLOBAL DEFAULT 14 _ZN7android11AudioSystem2
457:   FUNC GLOBAL DEFAULT 14 _ZN7android11AudioSystem2
458:   FUNC GLOBAL DEFAULT 14 _ZN7android10AudioTrack17
459:   OBJECT WEAK DEFAULT 18 _ZTVN7android14BpEffectCl
460:   FUNC GLOBAL DEFAULT 14 _ZN7android11AudioSystem1
461:   FUNC GLOBAL DEFAULT 14 _ZN7android11AudioSystem1
462:   FUNC GLOBAL DEFAULT 14 _ZN7android11AudioSystem1
463:   FUNC GLOBAL DEFAULT 14 _ZN7android10AudioTrack12
464:   FUNC GLOBAL DEFAULT 14 _ZNK7android27StaticAudio
465:   FUNC GLOBAL DEFAULT 14 _ZN7android13IEffectClien
466:   FUNC GLOBAL DEFAULT 14 _ZN7android10AudioTrack13
467:   FUNC GLOBAL DEFAULT 14 _ZNK7android10AudioTrack2
468:   FUNC GLOBAL DEFAULT 14 _ZNK7android10AudioTrack7
469:   FUNC WEAK DEFAULT 14 _ZNK7android12SortedVecto
470:   FUNC WEAK DEFAULT 14 _ZNK7android6VectorIfE7do
471:   OBJECT GLOBAL DEFAULT 18 _ZTCN7android11AudioSyste
472:   FUNC GLOBAL DEFAULT 14 _ZN7android19IAudioFlinge
473:   FUNC GLOBAL DEFAULT 14 _ZN7android27StaticAudioT
474:   FUNC GLOBAL DEFAULT 14 _ZN7android5ProxyC1EPNS_1
475:   FUNC GLOBAL DEFAULT 14 _ZN7android11AudioEffect2
476:   FUNC GLOBAL DEFAULT 14 _ZNK7android11AudioEffect
477:   OBJECT WEAK DEFAULT 18 _ZTVN7android11AudioEffec
478:   FUNC GLOBAL DEFAULT 14 _ZN7android11AudioSystem1
479:   FUNC GLOBAL DEFAULT 14 _ZN7android11AudioSystem1
480:   FUNC GLOBAL DEFAULT 14 _ZN7android11ServerProxy1
481:   FUNC GLOBAL DEFAULT 14 _ZN7android10PlayerBase15
482:   FUNC GLOBAL DEFAULT 14 _ZN7android11ClientProxy1
483:   FUNC GLOBAL DEFAULT 14 _ZN7android11AudioSystem2
484:   FUNC GLOBAL DEFAULT 14 _ZN7android11AudioSystem2
485:   FUNC GLOBAL DEFAULT 14 _ZN7android10AudioTrackD2
486:   OBJECT GLOBAL DEFAULT 18 _ZTVN7android26BnAudioPol
487:   FUNC GLOBAL DEFAULT 14 _ZN7android11AudioRecord1
488:   FUNC GLOBAL DEFAULT 14 _ZN7android24RecordingAct
489:   FUNC GLOBAL DEFAULT 14 _ZN7android11AudioSystem1
490:   OBJECT GLOBAL DEFAULT 23 _ZN7android11AudioSystem8
491:   FUNC GLOBAL DEFAULT 14 _ZN7android25IAudioPolicy
492:   OBJECT WEAK DEFAULT 18 _ZTCN7android20BpAudioPol
493:   OBJECT WEAK DEFAULT 18 _ZTCN7android20BpAudioPol
494:   FUNC GLOBAL DEFAULT 14 _ZN7android10PlayerBaseD2
495:   FUNC GLOBAL DEFAULT 14 _ZN7android15TrackPlayerB
496:   FUNC GLOBAL DEFAULT 14 _ZN7android11AudioEffect1
497:   FUNC GLOBAL DEFAULT 14 _ZN7android24RecordingAct
498:   FUNC GLOBAL DEFAULT 14 _ZN7android11ClientProxy2
499:   OBJECT WEAK DEFAULT 18 _ZTCN7android14BpAudioFli
500:   FUNC GLOBAL DEFAULT 14 _ZN7android11IAudioTrackD
501:   FUNC GLOBAL DEFAULT 14 _ZNK7android11AudioRecord
502:   FUNC WEAK DEFAULT 14 _ZNSt3__112__hash_tableIN
503:   FUNC GLOBAL DEFAULT 14 _ZTv0_n24_N7android13IEff
504:   OBJECT GLOBAL DEFAULT 18 _ZTCN7android11AudioSyste
505:   FUNC WEAK DEFAULT 14 _ZNK7android6VectorINS_19
506:   FUNC GLOBAL DEFAULT 14 _ZN7android7IEffectD1Ev
507:   FUNC GLOBAL DEFAULT 14 _ZN7android11AudioEffect3
508:   FUNC GLOBAL DEFAULT 14 _ZN7android11AudioRecord3
509:   FUNC GLOBAL DEFAULT 14 _ZN7android11AudioSystem1
510:   FUNC WEAK DEFAULT 14 _ZNK7android12SortedVecto
511:   FUNC GLOBAL DEFAULT 14 _ZN7android10AudioTrack16
512:   OBJECT WEAK DEFAULT 18 _ZTCN7android12BpAudioTra
513:   FUNC GLOBAL DEFAULT 14 _ZN7android11AudioEffect1
514:   FUNC GLOBAL DEFAULT 14 _ZN7android10PlayerBase5s
515:   FUNC GLOBAL DEFAULT 14 _ZN7android11AudioEffect1
516:   OBJECT WEAK DEFAULT 18 _ZTCNSt3__119basic_ostrin
517:   OBJECT WEAK DEFAULT 18 _ZTVNSt3__115basic_string
518:   FUNC GLOBAL DEFAULT 14 _ZN7android27StaticAudioT
519:   OBJECT WEAK DEFAULT 18 _ZTTN7android26BpAudioPol
520:   FUNC GLOBAL DEFAULT 14 _ZN7android13IEffectClien
521:   FUNC GLOBAL DEFAULT 14 _ZN7android24RecordingAct
522:   OBJECT WEAK DEFAULT 18 _ZTVN7android13IAudioFlin
523:   FUNC GLOBAL DEFAULT 14 _ZN7android13ToneGenerato
524:   FUNC GLOBAL DEFAULT 14 _ZN7android11AudioSystem2
525:   FUNC GLOBAL DEFAULT 14 _ZN7android11AudioSystem2
526:   FUNC GLOBAL DEFAULT 14 _ZN7android11AudioSystem2
527:   FUNC GLOBAL DEFAULT 14 _ZN7android26BnAudioPolic
528:   FUNC WEAK DEFAULT 14 _ZNK7android12SortedVecto
529:   FUNC GLOBAL DEFAULT 14 _ZN7android13ToneGenerato
530:   FUNC GLOBAL DEFAULT 14 _ZN7android15TrackPlayerB
531:   FUNC GLOBAL DEFAULT 14 _ZN7android19IAudioFlinge
532:   FUNC GLOBAL DEFAULT 14 _ZNK7android25IAudioPolic
533:   FUNC WEAK DEFAULT 14 _ZNSt3__16__treeINS_12__v
534:   FUNC GLOBAL DEFAULT 14 _ZN7android15TrackPlayerB
535:   FUNC GLOBAL DEFAULT 14 _ZTv0_n24_N7android5media
536:   FUNC GLOBAL DEFAULT 14 _ZN7android11AudioSystem1
537:   FUNC GLOBAL DEFAULT 14 _ZN7android18audio_track_
538:   FUNC GLOBAL DEFAULT 14 _ZN7android10PlayerBase6s
539:   OBJECT GLOBAL DEFAULT 18 _ZTTN7android11AudioSyste
540:   FUNC GLOBAL DEFAULT 14 _ZN7android27StaticAudioT
541:   FUNC GLOBAL DEFAULT 14 _ZN7android20BnAudioPolic
542:   FUNC WEAK DEFAULT 14 _ZNSt3__16vectorIN7androi
543:   OBJECT GLOBAL DEFAULT 18 _ZTCN7android12BnAudioTra
544:   FUNC WEAK DEFAULT 14 _ZNK7android6VectorINS0_I
545:   OBJECT WEAK DEFAULT 18 _ZTVN7android5media12Volu
546:   FUNC GLOBAL DEFAULT 14 _ZNK7android27StaticAudio
547:   FUNC GLOBAL DEFAULT 14 _ZNK7android19IAudioPolic
548:   OBJECT WEAK DEFAULT 18 _ZTVN7android5media14Micr
549:   OBJECT WEAK DEFAULT 18 _ZTCN7android11AudioEffec
550:   FUNC GLOBAL DEFAULT 14 _ZThn8_N7android11AudioSy
551:   FUNC WEAK DEFAULT 14 _ZNK7android12SortedVecto
552:   FUNC GLOBAL DEFAULT 14 _ZTv0_n24_N7android19IAud
553:   FUNC GLOBAL DEFAULT 14 _ZN7android11AudioEffect1
554:   FUNC GLOBAL DEFAULT 14 _ZN7android13IEffectClien
555:   FUNC WEAK DEFAULT 14 _ZNSt3__115basic_stringbu
556:   FUNC GLOBAL DEFAULT 14 _ZN7android11AudioSystem1
557:   FUNC GLOBAL DEFAULT 14 _ZN7android11AudioSystem1
558:   FUNC GLOBAL DEFAULT 14 _ZN7android10AudioTrack15
559:   OBJECT GLOBAL DEFAULT 18 _ZTCN7android8BnEffectE8_
560:   FUNC WEAK DEFAULT 14 _ZNSt3__16__treeINS_12__v
561:   FUNC GLOBAL DEFAULT 14 _ZN7android10AudioTrack16
562:   FUNC GLOBAL DEFAULT 14 _ZN7android5media12IAudio
563:   FUNC GLOBAL DEFAULT 14 _ZN7android11ClientProxy9
564:   FUNC GLOBAL DEFAULT 14 _ZN7android11AudioSystem1
565:   FUNC GLOBAL DEFAULT 14 _ZN7android10AudioTrack16
566:   FUNC GLOBAL DEFAULT 14 _ZN7android10AudioTrack16
567:   OBJECT WEAK DEFAULT 18 _ZTVN7android6VectorINS_1
568:   FUNC GLOBAL DEFAULT 14 _ZNK7android11IAudioTrack
569:   FUNC GLOBAL DEFAULT 14 _ZTv0_n24_N7android5media
570:   FUNC GLOBAL DEFAULT 14 _ZN7android10AudioTrack4s
571:   FUNC WEAK DEFAULT 14 _ZNK7android6VectorINS_19
572:   OBJECT GLOBAL DEFAULT 18 _ZTCN7android15TrackPlaye
573:   FUNC GLOBAL DEFAULT 14 _ZN7android11AudioSystem1
574:   FUNC GLOBAL DEFAULT 14 _ZN7android10AudioTrack5s
575:   FUNC WEAK DEFAULT 14 _ZNK7android6VectorINS_8A
576:   FUNC GLOBAL DEFAULT 14 _ZN7android10PlayerBase17
577:   FUNC GLOBAL DEFAULT 14 _ZN7android10PlayerBase4s
578:   FUNC WEAK DEFAULT 14 _ZNSt3__16__treeINS_12__v
579:   FUNC WEAK DEFAULT 14 _ZNK7android6VectorINS_2s
580:   FUNC GLOBAL DEFAULT 14 _ZNK7android10AudioTrack1
581:   FUNC GLOBAL DEFAULT 14 _ZN7android21AudioTrackCl
582:   FUNC WEAK DEFAULT 14 _ZNK7android6VectorIiE7do
583:   FUNC GLOBAL DEFAULT 14 _ZN7android10AudioTrackC2
584:   OBJECT GLOBAL DEFAULT 18 _ZTVN7android25IAudioPoli
585:   FUNC GLOBAL DEFAULT 14 _ZN7android10PlayerBaseC2
586:   FUNC GLOBAL DEFAULT 14 _ZN7android11AudioEffect2
587:   FUNC GLOBAL DEFAULT 14 _ZN7android11AudioSystem3
588:   FUNC GLOBAL DEFAULT 14 _ZN7android11IAudioTrackC
589:   OBJECT GLOBAL DEFAULT 18 _ZTTN7android5media19IAud
590:   FUNC GLOBAL DEFAULT 14 _ZN7android11AudioSystem2
591:   FUNC GLOBAL DEFAULT 14 _ZN7android20BnAudioFling
592:   FUNC GLOBAL DEFAULT 14 _ZN7android10AudioTrack21
593:   FUNC GLOBAL DEFAULT 14 _ZN7android21AudioTrackCl
594:   FUNC GLOBAL DEFAULT 14 _ZN7android12BnAudioTrack
595:   OBJECT GLOBAL DEFAULT 18 _ZTCN7android10PlayerBase
596:   FUNC GLOBAL DEFAULT 14 _ZN7android10AudioTrack15
597:   FUNC GLOBAL DEFAULT 14 _ZN7android10AudioTrack16
598:   FUNC WEAK DEFAULT 14 _ZNSt3__112__hash_tableIN
599:   FUNC GLOBAL DEFAULT 14 _ZN7android11AudioSystem1
600:   FUNC GLOBAL DEFAULT 14 _ZN7android11AudioSystem2
601:   FUNC GLOBAL DEFAULT 14 _ZN7android15TrackPlayerB
602:   FUNC GLOBAL DEFAULT 14 _ZN7android27StaticAudioT
603:   FUNC WEAK DEFAULT 14 _ZNK7android6VectorINS0_I
604:   OBJECT GLOBAL DEFAULT 18 _ZTCN7android5media8BpPla
605:   FUNC GLOBAL DEFAULT 14 _ZN7android11AudioRecord1
606:   FUNC GLOBAL DEFAULT 14 _ZN7android11AudioSystem2
607:   FUNC GLOBAL DEFAULT 14 _ZN7android10AudioTrack15
608:   FUNC GLOBAL DEFAULT 14 _ZN7android10AudioTrack7s
609:   FUNC GLOBAL DEFAULT 14 _ZN7android19IAudioPolicy
610:   FUNC WEAK DEFAULT 14 _ZNSt3__16vectorIjNS_9all
611:   FUNC GLOBAL DEFAULT 14 _ZN7android11AudioSystem2
612:   FUNC GLOBAL DEFAULT 14 _ZN7android11AudioSystem2
613:   OBJECT GLOBAL DEFAULT 23 _ZN7android19IAudioFlinge
614:   FUNC GLOBAL DEFAULT 14 _ZN7android10AudioTrack6r
615:   FUNC GLOBAL DEFAULT 14 _ZN7android15TrackPlayerB
616:   OBJECT GLOBAL DEFAULT 18 _ZTCN7android5media13BpAu
617:   FUNC WEAK DEFAULT 14 _ZN7android11BnInterfaceI
618:   OBJECT GLOBAL DEFAULT 18 _ZTVN7android5media7IPlay
619:   FUNC GLOBAL DEFAULT 14 _ZN7android11AudioEffectD
620:   FUNC WEAK DEFAULT 14 _ZNK7android6VectorINS_2s
621:   FUNC WEAK DEFAULT 14 _ZNK7android6VectorINS_8A
622:   FUNC GLOBAL DEFAULT 14 _ZN7android10PlayerBase9s
623:   FUNC WEAK DEFAULT 14 _ZNK7android6VectorIfE12d
624:   FUNC GLOBAL DEFAULT 14 _ZN7android11AudioSystem1
625:   OBJECT GLOBAL DEFAULT 18 _ZTCN7android11AudioRecor
626:   OBJECT GLOBAL DEFAULT 18 _ZTTN7android11AudioRecor
627:   FUNC WEAK DEFAULT 14 _ZNSt3__16__treeINS_12__v
628:   FUNC GLOBAL DEFAULT 14 _ZN7android11ClientProxyC
629:   OBJECT GLOBAL DEFAULT 18 _ZTVN7android11AudioRecor
630:   FUNC GLOBAL DEFAULT 14 _ZN7android19IAudioFlinge
631:   FUNC WEAK DEFAULT 14 _ZNK7android12SortedVecto
632:   OBJECT GLOBAL DEFAULT 18 _ZTCN7android11AudioSyste
633:   FUNC GLOBAL DEFAULT 14 _ZN7android15TrackPlayerB
634:   FUNC GLOBAL DEFAULT 14 _ZN7android15TrackPlayerB
635:   OBJECT GLOBAL DEFAULT 23 _ZN7android13IAudioFlinge
636:   OBJECT GLOBAL DEFAULT 18 _ZTCN7android11IAudioTrac
637:   FUNC GLOBAL DEFAULT 14 _ZN7android11AudioRecordC
638:   FUNC GLOBAL DEFAULT 14 _ZN7android11AudioSystem9
639:   FUNC GLOBAL DEFAULT 14 _ZTv0_n24_N7android25IAud
640:   FUNC GLOBAL DEFAULT 14 _ZN7android10AudioTrack11
641:   OBJECT WEAK DEFAULT 18 _ZTCN7android14BpAudioFli
642:   FUNC WEAK DEFAULT 14 _ZNK7android6VectorINS_22
643:   FUNC GLOBAL DEFAULT 14 _ZN7android13ToneGenerato
644:   OBJECT GLOBAL DEFAULT 23 _ZN7android5media7IPlayer
645:   FUNC GLOBAL DEFAULT 14 _ZTv0_n24_N7android11Audi
646:   FUNC GLOBAL DEFAULT 14 _ZN7android11AudioSystem1
647:   OBJECT GLOBAL DEFAULT 23 _ZN7android5media12IAudio
648:   OBJECT GLOBAL DEFAULT 18 _ZTVN7android11AudioEffec
649:   OBJECT GLOBAL DEFAULT 23 _ZN7android25IAudioPolicy
650:   FUNC GLOBAL DEFAULT 14 _ZN7android13ToneGenerato
651:   FUNC GLOBAL DEFAULT 14 _ZN7android5media8BpPlaye
652:   FUNC GLOBAL DEFAULT 14 _ZN7android13IEffectClien
653:   FUNC GLOBAL DEFAULT 14 _ZN7android11ClientProxy1
654:   FUNC WEAK DEFAULT 14 _ZNK7android12SortedVecto
655:   FUNC GLOBAL DEFAULT 14 _ZTv0_n24_N7android7IEffe
656:   FUNC GLOBAL DEFAULT 14 _ZN7android10PlayerBase18
657:   FUNC GLOBAL DEFAULT 14 _ZN7android5media14IPlaye
658:   FUNC GLOBAL DEFAULT 14 _ZN7android11AudioRecordD
659:   FUNC GLOBAL DEFAULT 14 _ZN7android11AudioSystem7
660:   FUNC GLOBAL DEFAULT 14 _ZN7android10AudioTrack17
661:   OBJECT GLOBAL DEFAULT 18 _ZTVN7android19IAudioFlin
662:   FUNC GLOBAL DEFAULT 14 _ZN7android5media19IAudio
663:   FUNC GLOBAL DEFAULT 14 _ZN7android21AudioTrackSe
664:   FUNC GLOBAL DEFAULT 14 _ZThn8_N7android15TrackPl
665:   FUNC GLOBAL DEFAULT 14 _ZN7android5media8BnPlaye
666:   OBJECT WEAK DEFAULT 18 _ZTVN7android5media12Volu
667:   FUNC GLOBAL DEFAULT 14 _ZN7android11AudioRecordC
668:   FUNC GLOBAL DEFAULT 14 _ZN7android11AudioSystem1
669:   FUNC GLOBAL DEFAULT 14 _ZN7android15TrackPlayerB
670:   FUNC GLOBAL DEFAULT 14 _ZN7android5media12IAudio
671:   OBJECT GLOBAL DEFAULT 18 _ZTCN7android5media12IAud
672:   FUNC GLOBAL DEFAULT 14 _ZN7android11AudioRecord1
673:   FUNC GLOBAL DEFAULT 14 _ZN7android11AudioSystem2
674:   FUNC GLOBAL DEFAULT 14 _ZN7android11AudioSystem2
675:   FUNC GLOBAL DEFAULT 14 _ZN7android10AudioTrack5w
676:   OBJECT GLOBAL DEFAULT 18 _ZTVN7android19IAudioPoli
677:   FUNC GLOBAL DEFAULT 14 _ZN7android13ToneGenerato
678:   FUNC GLOBAL DEFAULT 14 _ZN7android5media13BpAudi
679:   FUNC GLOBAL DEFAULT 14 _ZN7android11AudioSystem1
680:   FUNC GLOBAL DEFAULT 14 _ZN7android10AudioTrack9s
681:   FUNC GLOBAL DEFAULT 14 _ZNK7android10AudioTrack1
682:   OBJECT GLOBAL DEFAULT 18 _ZTCN7android12BnAudioTra
683:   FUNC GLOBAL DEFAULT 14 _ZN7android5media19IAudio
684:   OBJECT GLOBAL DEFAULT 18 _ZTCN7android5media13BpAu
685:   FUNC GLOBAL DEFAULT 14 _ZNK7android11AudioRecord
686:   FUNC GLOBAL DEFAULT 14 _ZN7android11AudioSystem1
687:   FUNC GLOBAL DEFAULT 14 _ZThn8_N7android11AudioSy
688:   FUNC GLOBAL DEFAULT 14 _ZN7android10AudioTrack21
689:   OBJECT GLOBAL DEFAULT 18 _ZTTN7android11IAudioTrac
690:   FUNC GLOBAL DEFAULT 14 _ZN7android5media19IAudio
691:   FUNC GLOBAL DEFAULT 14 _ZN7android11AudioSystem1
692:   FUNC GLOBAL DEFAULT 14 _ZN7android13IAudioFlinge
693:   OBJECT GLOBAL DEFAULT 18 _ZTVN7android10PlayerBase
694:   OBJECT GLOBAL DEFAULT 18 _ZTTN7android5media13BpAu
695:   OBJECT GLOBAL DEFAULT 18 _ZTCN7android8BnEffectE8_
696:   FUNC GLOBAL DEFAULT 14 _ZN7android11AudioSystem1
697:   FUNC WEAK DEFAULT 14 _ZNK7android12SortedVecto
698:   FUNC GLOBAL DEFAULT 14 _ZN7android11AudioRecord1
699:   FUNC GLOBAL DEFAULT 14 _ZN7android27StaticAudioT
700:   FUNC GLOBAL DEFAULT 14 _ZNK7android5media12IAudi
701:   FUNC WEAK DEFAULT 14 _ZN7android11BnInterfaceI
702:   FUNC GLOBAL DEFAULT 14 _ZN7android11AudioSystem2
703:   FUNC GLOBAL DEFAULT 14 _ZNK7android19IAudioFling
704:   FUNC GLOBAL DEFAULT 14 _ZN7android10AudioTrack25
705:   FUNC GLOBAL DEFAULT 14 _ZN7android10AudioTrack17
706:   FUNC GLOBAL DEFAULT 14 _ZN7android19IAudioPolicy
707:   OBJECT GLOBAL DEFAULT 18 _ZTTN7android5media7IPlay
708:   OBJECT GLOBAL DEFAULT 23 _ZN7android25IAudioPolicy
709:   FUNC GLOBAL DEFAULT 14 _ZN7android10AudioTrack17
710:   FUNC GLOBAL DEFAULT 14 _ZN7android10AudioTrackD0
711:   OBJECT GLOBAL DEFAULT 18 _ZTTN7android12BnAudioTra
712:   FUNC GLOBAL DEFAULT 14 _ZN7android10PlayerBaseD0
713:   FUNC WEAK DEFAULT 14 _ZNSt3__16vectorIiNS_9all
714:   FUNC GLOBAL DEFAULT 14 _ZTv0_n24_N7android10Audi
715:   FUNC GLOBAL DEFAULT 14 _ZN7android11IAudioTrackD
716:   OBJECT GLOBAL DEFAULT 18 _ZTCN7android10PlayerBase
717:   OBJECT GLOBAL DEFAULT 18 _ZTTN7android5media14IPla
718:   FUNC GLOBAL DEFAULT 14 _ZN7android11AudioEffect2
719:   FUNC GLOBAL DEFAULT 14 _ZN7android11AudioRecord1
720:   OBJECT WEAK DEFAULT 18 _ZTVNSt3__118basic_string
721:   FUNC GLOBAL DEFAULT 14 _ZN7android5media12IAudio
722:   FUNC GLOBAL DEFAULT 14 _ZN7android11AudioSystem1
723:   FUNC GLOBAL DEFAULT 14 _ZN7android10AudioTrack23
724:   FUNC WEAK DEFAULT 14 _ZNK7android6VectorIfE15d
725:   FUNC GLOBAL DEFAULT 14 _ZN7android11AudioEffectC
726:   OBJECT GLOBAL DEFAULT 18 _ZTCN7android12BnAudioTra
727:   OBJECT WEAK DEFAULT 18 _ZTTN7android8BpEffectE
728:   FUNC GLOBAL DEFAULT 14 _ZN7android13ToneGenerato
729:   OBJECT GLOBAL DEFAULT 18 _ZTCN7android15TrackPlaye
730:   OBJECT GLOBAL DEFAULT 18 _ZTVN7android5media19IAud
731:   FUNC GLOBAL DEFAULT 14 _ZN7android11AudioSystem2
732:   FUNC GLOBAL DEFAULT 14 _ZN7android27StaticAudioT
733:   FUNC WEAK DEFAULT 14 _ZN7android11BnInterfaceI
734:   FUNC GLOBAL DEFAULT 14 _ZN7android11AudioSystem1
735:   FUNC GLOBAL DEFAULT 14 _ZN7android10AudioTrack3s
736:   OBJECT WEAK DEFAULT 18 _ZTVN7android5media13Volu
737:   FUNC WEAK DEFAULT 14 _ZNK7android6VectorIfE16d
738:   OBJECT GLOBAL DEFAULT 18 _ZTCN7android5media13BpAu
739:   OBJECT GLOBAL DEFAULT 18 _ZTCN7android5media8BnPla
740:   FUNC WEAK DEFAULT 14 _ZNK7android12SortedVecto
741:   FUNC GLOBAL DEFAULT 14 _ZTv0_n24_N7android15Trac
742:   FUNC GLOBAL DEFAULT 14 _ZN7android5media19IAudio
743:   FUNC GLOBAL DEFAULT 14 _ZN7android5media8BpPlaye
744:   FUNC GLOBAL DEFAULT 14 _ZN7android11AudioRecord2
745:   FUNC GLOBAL DEFAULT 14 _ZN7android11AudioSystem2
746:   FUNC GLOBAL DEFAULT 14 _ZNK7android13IAudioFling
747:   OBJECT GLOBAL DEFAULT 18 _ZTCN7android7IEffectE0_N
748:   FUNC GLOBAL DEFAULT 14 _ZN7android13ToneGenerato
749:   FUNC GLOBAL DEFAULT 14 _ZN7android5media12IAudio
750:   OBJECT WEAK DEFAULT 18 _ZTCN7android11AudioEffec
751:   FUNC GLOBAL DEFAULT 14 _ZN7android11AudioEffect2
752:   FUNC GLOBAL DEFAULT 14 _ZN7android19IAudioFlinge
753:   FUNC GLOBAL DEFAULT 14 _ZN7android19IAudioFlinge
754:   FUNC GLOBAL DEFAULT 14 _ZN7android15TrackPlayerB
755:   FUNC GLOBAL DEFAULT 14 _ZThn8_N7android14BnEffec
756:   FUNC GLOBAL DEFAULT 14 _ZN7android11AudioRecord5
757:   FUNC GLOBAL DEFAULT 14 _ZN7android11AudioSystem2
758:   FUNC WEAK DEFAULT 14 _ZNSt3__115basic_stringbu
759:   FUNC GLOBAL DEFAULT 14 _ZN7android11AudioSystem1
760:   FUNC GLOBAL DEFAULT 14 _ZN7android11ServerProxy1
761:   OBJECT GLOBAL DEFAULT 18 _ZTCN7android20BnAudioPol
762:   FUNC GLOBAL DEFAULT 14 _ZN7android15TrackPlayerB
763:   FUNC GLOBAL DEFAULT 14 _ZN7android5media8BpPlaye
764:   FUNC WEAK DEFAULT 14 _ZNK7android6VectorINS_2s
765:   FUNC GLOBAL DEFAULT 14 _ZThn8_N7android26BnAudio
766:   FUNC GLOBAL DEFAULT 14 _ZN7android10AudioTrack10
767:   OBJECT GLOBAL DEFAULT 23 _ZN7android19IAudioPolicy
768:   OBJECT GLOBAL DEFAULT 18 _ZTCN7android26BnAudioPol
769:   FUNC GLOBAL DEFAULT 14 _ZN7android15TrackPlayerB
770:   FUNC GLOBAL DEFAULT 14 _ZN7android5media14IPlaye
771:   FUNC GLOBAL DEFAULT 14 _ZN7android11AudioRecord1
772:   FUNC GLOBAL DEFAULT 14 _ZNK7android27StaticAudio
773:   FUNC GLOBAL DEFAULT 14 _ZTv0_n24_N7android11IAud
774:   FUNC WEAK DEFAULT 14 _ZNK7android6VectorINS_2s
775:   FUNC GLOBAL DEFAULT 14 _ZN7android10AudioTrack16
776:   FUNC GLOBAL DEFAULT 14 _ZN7android20BnAudioPolic
777:   FUNC WEAK DEFAULT 14 _ZNK7android6VectorINS_8A
778:   OBJECT WEAK DEFAULT 18 _ZTCN7android14BpEffectCl
779:   FUNC GLOBAL DEFAULT 14 _ZN7android11AudioSystem2
780:   FUNC GLOBAL DEFAULT 14 _ZN7android11AudioSystem3
781:   FUNC GLOBAL DEFAULT 14 _ZN7android10AudioTrack18
782:   OBJECT GLOBAL DEFAULT 18 _ZTVN7android10AudioTrack
783:   OBJECT GLOBAL DEFAULT 18 _ZTCN7android20BnAudioFli
784:   FUNC GLOBAL DEFAULT 14 _ZN7android13ToneGenerato
785:   FUNC WEAK DEFAULT 14 _ZN7android11BnInterfaceI
786:   FUNC GLOBAL DEFAULT 14 _ZN7android13IEffectClien
787:   FUNC GLOBAL DEFAULT 14 _ZN7android11AudioRecord2
788:   OBJECT WEAK DEFAULT 18 _ZTTNSt3__119basic_ostrin
789:   FUNC GLOBAL DEFAULT 14 _ZN7android11AudioSystem1
790:   FUNC GLOBAL DEFAULT 14 _ZN7android11AudioSystem1
791:   FUNC GLOBAL DEFAULT 14 _ZN7android11AudioSystem3
792:   FUNC WEAK DEFAULT 14 _ZNSt3__113__tree_removeI
793:   FUNC GLOBAL DEFAULT 14 _ZN7android11AudioSystem1
794:   FUNC WEAK DEFAULT 14 _ZNK7android6VectorINS_2s
795:   FUNC GLOBAL DEFAULT 14 _ZNK7android21AudioTrackS
796:   OBJECT GLOBAL DEFAULT 18 _ZTCN7android13IAudioFlin
797:   FUNC GLOBAL DEFAULT 14 _ZTv0_n24_N7android13IAud
798:   FUNC GLOBAL DEFAULT 14 _ZN7android5media7IPlayer
799:   FUNC GLOBAL DEFAULT 14 _ZN7android11AudioEffect1
800:   FUNC GLOBAL DEFAULT 14 _ZN7android11AudioSystem1
801:   OBJECT GLOBAL DEFAULT 23 _ZN7android11AudioSystem2
802:   FUNC GLOBAL DEFAULT 14 _ZN7android11AudioSystem2
803:   OBJECT GLOBAL DEFAULT 18 _ZTCN7android26BnAudioPol
804:   FUNC GLOBAL DEFAULT 14 _ZN7android11AudioSystem1
805:   OBJECT GLOBAL DEFAULT 18 _ZTCN7android10PlayerBase
806:   FUNC GLOBAL DEFAULT 14 _ZN7android11AudioSystem2
807:   OBJECT WEAK DEFAULT 18 _ZTCN7android11AudioEffec
808:   OBJECT GLOBAL DEFAULT 18 _ZTCN7android10AudioTrack
809:   FUNC WEAK DEFAULT 14 _ZNK7android6VectorIfE10d
810:   OBJECT GLOBAL DEFAULT 18 _ZTCN7android5media13BnAu
811:   FUNC GLOBAL DEFAULT 14 _ZN7android10AudioTrack13
812:   FUNC GLOBAL DEFAULT 14 _ZN7android10AudioTrack22
813:   FUNC GLOBAL DEFAULT 14 _ZN7android24RecordingAct
814:   FUNC GLOBAL DEFAULT 14 _ZN7android11AudioSystem1
815:   OBJECT GLOBAL DEFAULT 23 _ZN7android5media12IAudio
816:   OBJECT WEAK DEFAULT 18 _ZTCN7android11AudioEffec
817:   FUNC GLOBAL DEFAULT 14 _ZN7android21AudioTrackSe
818:   FUNC GLOBAL DEFAULT 14 _ZNK7android7IEffect22get
819:   FUNC WEAK DEFAULT 14 _ZNK7android6VectorINS0_I
820:   FUNC GLOBAL DEFAULT 14 _ZN7android11AudioSystem1
821:   FUNC WEAK DEFAULT 14 _ZNSt3__16__treeINS_12__v
822:   OBJECT GLOBAL DEFAULT 18 _ZTVN7android11AudioSyste
823:   FUNC GLOBAL DEFAULT 14 _ZNK7android10AudioTrack1
824:   OBJECT GLOBAL DEFAULT 18 _ZTCN7android14BnEffectCl
825:   OBJECT GLOBAL DEFAULT 11 _ZN7android13ToneGenerato
826:   OBJECT GLOBAL DEFAULT 18 _ZTCN7android5media13BpAu
827:   OBJECT GLOBAL DEFAULT 18 _ZTVN7android11AudioSyste
828:   FUNC GLOBAL DEFAULT 14 _ZN7android5media12IAudio
829:   FUNC GLOBAL DEFAULT 14 _ZN7android5media19IAudio
830:   FUNC WEAK DEFAULT 14 _ZN7android2spINS_11Audio
831:   FUNC WEAK DEFAULT 14 _ZNK7android6VectorINS_19
832:   FUNC GLOBAL DEFAULT 14 _ZN7android11AudioSystem2
833:   FUNC WEAK DEFAULT 14 _ZN7android2spINS_11Audio
834:   FUNC GLOBAL DEFAULT 14 _ZN7android5media13BnAudi
835:   FUNC GLOBAL DEFAULT 14 _ZN7android11IAudioTrack1
836:   OBJECT GLOBAL DEFAULT 18 _ZTCN7android5media13BnAu
837:   FUNC GLOBAL DEFAULT 14 _ZN7android10AudioTrack16
838:   FUNC GLOBAL DEFAULT 14 _ZN7android10AudioTrack22
839:   FUNC GLOBAL DEFAULT 14 _ZN7android19IAudioPolicy
840:   OBJECT GLOBAL DEFAULT 18 _ZTCN7android25IAudioPoli
841:   FUNC GLOBAL DEFAULT 14 _ZN7android11AudioRecord1
842:   FUNC GLOBAL DEFAULT 14 _ZN7android11AudioSystem2
843:   FUNC WEAK DEFAULT 14 _ZNK7android6VectorINS_2s
844:   FUNC GLOBAL DEFAULT 14 _ZN7android13IAudioFlinge
845:   OBJECT WEAK DEFAULT 18 _ZTVN7android6VectorINS0_
846:   OBJECT GLOBAL DEFAULT 18 _ZTCN7android5media8BpPla
847:   OBJECT GLOBAL DEFAULT 23 _ZN7android11AudioSystem1
848:   OBJECT GLOBAL DEFAULT 18 _ZTTN7android11AudioSyste
849:   OBJECT WEAK DEFAULT 18 _ZTVN7android14BpAudioFli
850:   OBJECT GLOBAL DEFAULT 23 _ZN7android13IEffectClien
851:   FUNC WEAK DEFAULT 14 _ZNK7android6VectorINS_2s
852:   FUNC GLOBAL DEFAULT 14 _ZN7android5media13BpAudi
853:   FUNC WEAK DEFAULT 14 _ZN7android11BnInterfaceI
854:   FUNC GLOBAL DEFAULT 14 _ZN7android10AudioTrack15
855:   FUNC GLOBAL DEFAULT 14 _ZN7android21AudioTrackSe
856:   FUNC GLOBAL DEFAULT 14 _ZN7android27StaticAudioT
857:   FUNC GLOBAL DEFAULT 14 _ZThn8_N7android10PlayerB
858:   FUNC GLOBAL DEFAULT 14 _ZN7android11AudioEffect1
859:   OBJECT GLOBAL DEFAULT 23 _ZN7android11AudioSystem1
860:   FUNC GLOBAL DEFAULT 14 _ZN7android11AudioSystem2
861:   FUNC GLOBAL DEFAULT 14 _ZN7android11AudioSystem2
862:   OBJECT WEAK DEFAULT 18 _ZTCNSt3__118basic_string
863:   FUNC GLOBAL DEFAULT 14 _ZN7android25IAudioPolicy
864:   FUNC GLOBAL DEFAULT 14 _ZN7android11AudioEffect2
865:   FUNC GLOBAL DEFAULT 14 _ZN7android11AudioSystem9
866:   FUNC GLOBAL DEFAULT 14 _ZN7android10AudioTrack20
867:   FUNC GLOBAL DEFAULT 14 _ZN7android11AudioRecordC
868:   FUNC GLOBAL DEFAULT 14 _ZN7android11AudioSystem1
869:   FUNC GLOBAL DEFAULT 14 _ZN7android5media13BpAudi
870:   OBJECT GLOBAL DEFAULT 18 _ZTCN7android5media8BnPla
871:   OBJECT WEAK DEFAULT 18 _ZTVN7android5media12Volu
872:   FUNC GLOBAL DEFAULT 14 _ZN7android11AudioRecord2
873:   OBJECT GLOBAL DEFAULT 18 _ZTCN7android11AudioSyste
874:   FUNC GLOBAL DEFAULT 14 _ZN7android10AudioTrackC1
875:   FUNC GLOBAL DEFAULT 14 _ZN7android27StaticAudioT
876:   OBJECT GLOBAL DEFAULT 18 _ZTCN7android10PlayerBase
877:   FUNC WEAK DEFAULT 14 _ZNK7android6VectorIiE15d
878:   OBJECT WEAK DEFAULT 18 _ZTCN7android20BpAudioFli
879:   OBJECT WEAK DEFAULT 18 _ZTCN7android12BpAudioTra
880:   FUNC WEAK DEFAULT 14 _ZNSt3__16vectorIfNS_9all
881:   FUNC GLOBAL DEFAULT 14 _ZN7android13ToneGenerato
882:   OBJECT GLOBAL DEFAULT 18 _ZTTN7android15TrackPlaye
883:   OBJECT GLOBAL DEFAULT 18 _ZTTN7android5media8BpPla
884:   OBJECT GLOBAL DEFAULT 18 _ZTTN7android11AudioRecor
885:   FUNC GLOBAL DEFAULT 14 _ZN7android11AudioSystem3
886:   FUNC GLOBAL DEFAULT 14 _ZNK7android21AudioTrackC
887:   FUNC GLOBAL DEFAULT 14 _ZN7android5media8BpPlaye
888:   FUNC GLOBAL DEFAULT 14 _ZN7android11AudioSystem2
889:   OBJECT WEAK DEFAULT 18 _ZTVNSt3__119basic_ostrin
890:   FUNC GLOBAL DEFAULT 14 _ZN7android11AudioSystem1
891:   FUNC GLOBAL DEFAULT 14 _ZN7android10AudioTrack5f
892:   OBJECT GLOBAL DEFAULT 18 _ZTVN7android21AudioTrack
893:   FUNC GLOBAL DEFAULT 14 _ZN7android5media19IAudio
894:   FUNC GLOBAL DEFAULT 14 _ZNK7android11AudioEffect
895:   FUNC GLOBAL DEFAULT 14 _ZN7android11AudioRecord1
896:   FUNC GLOBAL DEFAULT 14 _ZN7android25IAudioPolicy
897:   FUNC GLOBAL DEFAULT 14 _ZN7android19IAudioFlinge
898:   OBJECT WEAK DEFAULT 18 _ZTVN7android6VectorINS_2
899:   OBJECT WEAK DEFAULT 18 _ZTVN7android6VectorIfEE
900:   FUNC GLOBAL DEFAULT 14 _ZN7android11AudioSystem1
901:   FUNC WEAK DEFAULT 14 _ZNSt3__16__treeINS_12__v
902:   OBJECT GLOBAL DEFAULT 18 _ZTCN7android11AudioSyste
903:   FUNC GLOBAL DEFAULT 14 _ZN7android10AudioTrack13
904:   FUNC GLOBAL DEFAULT 14 _ZNK7android22AudioRecord
905:   FUNC WEAK DEFAULT 14 _ZNK7android6VectorINS_19
906:   FUNC WEAK DEFAULT 14 _ZNK7android6VectorINS_8A
907:   OBJECT WEAK DEFAULT 18 _ZTCN7android8BpEffectE0_
908:   FUNC GLOBAL DEFAULT 14 _ZN7android24RecordingAct
909:   FUNC GLOBAL DEFAULT 14 _ZN7android11AudioRecord4
910:   FUNC GLOBAL DEFAULT 14 _ZN7android10AudioTrack22
911:   FUNC GLOBAL DEFAULT 14 _ZNK7android10AudioTrack1
912:   OBJECT WEAK DEFAULT 18 _ZTCN7android20BpAudioPol
913:   FUNC GLOBAL DEFAULT 14 _ZN7android11AudioEffect1
914:   FUNC GLOBAL DEFAULT 14 _ZN7android11AudioSystem1
915:   FUNC GLOBAL DEFAULT 14 _ZN7android11AudioSystem1
916:   OBJECT GLOBAL DEFAULT 18 _ZTCN7android20BnAudioFli
917:   FUNC GLOBAL DEFAULT 14 _ZN7android7IEffectD2Ev
918:   FUNC WEAK DEFAULT 14 _ZNK7android6VectorINS_19
919:   OBJECT GLOBAL DEFAULT 18 _ZTCN7android26BnAudioPol
920:   OBJECT WEAK DEFAULT 18 _ZTCN7android12BpAudioTra
921:   FUNC WEAK DEFAULT 14 _ZNK7android12SortedVecto
922:   OBJECT GLOBAL DEFAULT 18 _ZTVN7android11IAudioTrac
923:   FUNC GLOBAL DEFAULT 14 _ZN7android13ToneGenerato
924:   FUNC GLOBAL DEFAULT 14 _ZNK7android11AudioRecord
925:   FUNC GLOBAL DEFAULT 14 _ZN7android11AudioSystem1
926:   FUNC GLOBAL DEFAULT 14 _ZNK7android21AudioTrackS
927:   FUNC GLOBAL DEFAULT 14 _ZN7android11AudioSystem1
928:   FUNC WEAK DEFAULT 14 _ZNSt3__112__hash_tableIN
929:   FUNC WEAK DEFAULT 14 _ZNK7android6VectorINS_8A
930:   FUNC WEAK DEFAULT 14 _ZNSt3__16vectorI19effect
931:   FUNC GLOBAL DEFAULT 14 _ZN7android5media8BpPlaye
932:   FUNC GLOBAL DEFAULT 14 _ZN7android27StaticAudioT
933:   FUNC GLOBAL DEFAULT 14 _ZN7android13ToneGenerato
934:   FUNC GLOBAL DEFAULT 14 _ZN7android10AudioTrack12
935:   OBJECT WEAK DEFAULT 18 _ZTTN7android14BpAudioFli
936:   FUNC GLOBAL DEFAULT 14 _ZTv0_n24_N7android5media
937:   FUNC GLOBAL DEFAULT 14 _ZN7android11AudioRecord1
938:   OBJECT WEAK DEFAULT 18 _ZTVN7android6VectorINS_2
939:   OBJECT WEAK DEFAULT 18 _ZTCN7android14BpEffectCl
940:   FUNC GLOBAL DEFAULT 14 _ZN7android10AudioTrackC2
941:   OBJECT WEAK DEFAULT 18 _ZTVN7android13IAudioFlin
942:   FUNC GLOBAL DEFAULT 14 _ZNK7android27StaticAudio
943:   OBJECT GLOBAL DEFAULT 18 _ZTTN7android20BnAudioFli
944:   FUNC GLOBAL DEFAULT 14 _ZN7android11AudioSystem1
945:   FUNC GLOBAL DEFAULT 14 _ZN7android21AudioTrackCl
946:   FUNC GLOBAL DEFAULT 14 _ZN7android5media12IAudio
947:   FUNC GLOBAL DEFAULT 14 _ZN7android5media7IPlayer
948:   FUNC GLOBAL DEFAULT 14 _ZN7android10AudioTrack15
949:   FUNC WEAK DEFAULT 14 _ZNK7android12SortedVecto
950:   FUNC GLOBAL DEFAULT 14 _ZN7android14BnEffectClie
951:   OBJECT GLOBAL DEFAULT 18 _ZTCN7android14BnAudioFli
952:   OBJECT GLOBAL DEFAULT 18 _ZTTN7android20BnAudioPol
953:   FUNC GLOBAL DEFAULT 14 _ZTv0_n24_N7android19IAud
954:   FUNC GLOBAL DEFAULT 14 _ZN7android10AudioTrack17
955:   OBJECT GLOBAL DEFAULT 18 _ZTVN7android5media14IPla
956:   FUNC GLOBAL DEFAULT 14 _ZN7android10AudioTrack14
957:   OBJECT GLOBAL DEFAULT 18 _ZTVN7android8BnEffectE
958:   FUNC GLOBAL DEFAULT 14 _ZN7android11AudioSystem2
959:   FUNC GLOBAL DEFAULT 14 _ZTv0_n24_N7android5media
960:   FUNC GLOBAL DEFAULT 14 _ZN7android11AudioSystem1
961:   OBJECT GLOBAL DEFAULT 23 _ZN7android11AudioSystem1
962:   FUNC GLOBAL DEFAULT 14 _ZN7android11AudioSystem1
963:   FUNC WEAK DEFAULT 14 _ZNK7android12SortedVecto
964:   FUNC WEAK DEFAULT 14 _ZNSt3__16__treeINS_12__v
965:   FUNC GLOBAL DEFAULT 14 _ZTv0_n24_N7android19IAud
966:   FUNC WEAK DEFAULT 14 _ZNK7android12SortedVecto
967:   FUNC WEAK DEFAULT 14 _ZNK7android6VectorINS_22
968:   OBJECT GLOBAL DEFAULT 18 _ZTCN7android15TrackPlaye
969:   FUNC GLOBAL DEFAULT 14 _ZN7android19IAudioPolicy
970:   FUNC GLOBAL DEFAULT 14 _ZNK7android10AudioTrack9
971:   OBJECT GLOBAL DEFAULT 18 _ZTTN7android19IAudioFlin
972:   OBJECT GLOBAL DEFAULT 18 _ZTCN7android8BnEffectE0_
973:   FUNC WEAK DEFAULT 14 _ZNK7android6VectorINS_2s
974:   OBJECT GLOBAL DEFAULT 23 _ZN7android19IAudioFlinge
975:   FUNC WEAK DEFAULT 14 _ZNSt3__127__tree_balance
976:   FUNC GLOBAL DEFAULT 14 _ZN7android11AudioEffectC
977:   FUNC GLOBAL DEFAULT 14 _ZN7android11AudioRecord1
978:   FUNC GLOBAL DEFAULT 14 _ZN7android11AudioSystem1
979:   FUNC GLOBAL DEFAULT 14 _ZN7android11AudioSystem2
980:   FUNC GLOBAL DEFAULT 14 _ZN7android25IAudioPolicy
981:   OBJECT GLOBAL DEFAULT 18 _ZTVN7android11ClientProx
982:   OBJECT GLOBAL DEFAULT 18 _ZTCN7android8BnEffectE0_
983:   OBJECT GLOBAL DEFAULT 18 _ZTTN7android19IAudioPoli
984:   OBJECT GLOBAL DEFAULT 18 _ZTCN7android15TrackPlaye
985:   FUNC GLOBAL DEFAULT 14 _ZNK7android5media7IPlaye
986:   OBJECT GLOBAL DEFAULT 11 _ZN7android11ClientProxy8
987:   FUNC GLOBAL DEFAULT 14 _ZThn8_N7android20BnAudio
988:   FUNC GLOBAL DEFAULT 14 _ZN7android5media14IPlaye
989:   FUNC GLOBAL DEFAULT 14 _ZN7android11AudioRecord1
990:   OBJECT GLOBAL DEFAULT 18 _ZTCN7android11AudioSyste
991:   FUNC GLOBAL DEFAULT 14 _ZN7android7IEffectC2Ev
992:   OBJECT GLOBAL DEFAULT 18 _ZTCN7android10PlayerBase
993:   OBJECT GLOBAL DEFAULT 23 _ZN7android11AudioSystem2
994:   FUNC GLOBAL DEFAULT 14 _ZN7android19IAudioPolicy
995:   FUNC GLOBAL DEFAULT 14 _ZN7android7IEffect11asIn
996:   FUNC WEAK DEFAULT 14 _ZNSt3__16vectorIiNS_9all
997:   OBJECT WEAK DEFAULT 18 _ZTCN7android26BpAudioPol
998:   OBJECT GLOBAL DEFAULT 18 _ZTCN7android5media14IPla
999:   FUNC GLOBAL DEFAULT 14 _ZN7android11AudioSystem1
1000:   FUNC WEAK DEFAULT 14 _ZNK7android6VectorINS_2s
1001:   FUNC GLOBAL DEFAULT 14 _ZN7android27StaticAudioT
1002:   FUNC GLOBAL DEFAULT 14 _ZN7android5media8BpPlaye
1003:   FUNC GLOBAL DEFAULT 14 _ZN7android11AudioEffectD
1004:   FUNC GLOBAL DEFAULT 14 _ZN7android11AudioRecord1
1005:   FUNC GLOBAL DEFAULT 14 _ZN7android11AudioSystem2
1006:   FUNC GLOBAL DEFAULT 14 _ZN7android11ClientProxyC
1007:   FUNC WEAK DEFAULT 14 _ZNKSt3__115basic_stringb
1008:   FUNC WEAK DEFAULT 14 _ZNK7android6VectorINS_2s
1009:   FUNC GLOBAL DEFAULT 14 _ZN7android10AudioTrack13
1010:   OBJECT WEAK DEFAULT 18 _ZTCN7android14BpAudioFli
1011:   OBJECT WEAK DEFAULT 18 _ZTVN7android12BpAudioTra
1012:   FUNC GLOBAL DEFAULT 14 _ZN7android13ToneGenerato
1013:   OBJECT GLOBAL DEFAULT 18 _ZTVN7android11AudioRecor
1014:   FUNC GLOBAL DEFAULT 14 _ZN7android11AudioSystem1
1015:   FUNC GLOBAL DEFAULT 14 _ZN7android11AudioSystem1
1016:   FUNC GLOBAL DEFAULT 14 _ZN7android10AudioTrack9s
1017:   OBJECT WEAK DEFAULT 18 _ZTCN7android8BpEffectE0_
1018:   FUNC WEAK DEFAULT 14 _ZNSt3__115basic_stringbu
1019:   OBJECT GLOBAL DEFAULT 18 _ZTVN7android13IAudioFlin
1020:   OBJECT GLOBAL DEFAULT 18 _ZTCN7android5media13BnAu
1021:   FUNC GLOBAL DEFAULT 14 _ZN7android11AudioRecord1
1022:   FUNC GLOBAL DEFAULT 14 _ZThn8_N7android11AudioSy
1023:   FUNC GLOBAL DEFAULT 14 _ZN7android10AudioTrackC2
1024:   OBJECT GLOBAL DEFAULT 18 _ZTCN7android26BnAudioPol
1025:   OBJECT GLOBAL DEFAULT 18 _ZTCN7android14BnEffectCl
1026:   FUNC GLOBAL DEFAULT 14 _ZN7android11AudioSystem3
1027:   OBJECT WEAK DEFAULT 18 _ZTCN7android20BpAudioFli
1028:   OBJECT WEAK DEFAULT 18 _ZTCN7android26BpAudioPol
1029:   FUNC WEAK DEFAULT 14 _ZNK7android6VectorIiE10d
1030:   FUNC GLOBAL DEFAULT 14 _ZTv0_n24_N7android11Audi
1031:   FUNC GLOBAL DEFAULT 14 _ZN7android11AudioSystem1
1032:   FUNC GLOBAL DEFAULT 14 _ZThn8_N7android11AudioSy
1033:   OBJECT GLOBAL DEFAULT 18 _ZTVN7android5media13BnAu
1034:   FUNC GLOBAL DEFAULT 14 _ZN7android11AudioEffectC
1035:   FUNC GLOBAL DEFAULT 14 _ZN7android11AudioSystem1
1036:   FUNC GLOBAL DEFAULT 14 _ZN7android11IAudioTrack1
1037:   OBJECT WEAK DEFAULT 18 _ZTVN7android11AudioClien
1038:   FUNC GLOBAL DEFAULT 14 _ZN7android10AudioTrack15
1039:   FUNC GLOBAL DEFAULT 14 _ZN7android11AudioRecordD
1040:   FUNC GLOBAL DEFAULT 14 _ZN7android10AudioTrack14
1041:   FUNC GLOBAL DEFAULT 14 _ZN7android27StaticAudioT
1042:   OBJECT GLOBAL DEFAULT 18 _ZTCN7android20BnAudioFli
1043:   OBJECT GLOBAL DEFAULT 11 _ZN7android13ToneGenerato
1044:   FUNC GLOBAL DEFAULT 14 _ZN7android11AudioRecord1
1045:   FUNC GLOBAL DEFAULT 14 _ZN7android11AudioSystem1
1046:   FUNC GLOBAL DEFAULT 14 _ZN7android27StaticAudioT
1047:   FUNC GLOBAL DEFAULT 14 _ZNK7android10AudioTrack1
1048:   FUNC GLOBAL DEFAULT 14 _ZN7android27StaticAudioT
1049:   OBJECT GLOBAL DEFAULT 18 _ZTCN7android13IEffectCli
1050:   FUNC WEAK DEFAULT 14 _ZNK7android12SortedVecto
1051:   FUNC GLOBAL DEFAULT 14 _ZTv0_n24_N7android10Play
1052:   FUNC GLOBAL DEFAULT 14 _ZThn8_N7android15TrackPl
1053:   FUNC GLOBAL DEFAULT 14 _ZNK7android10AudioTrack8
1054:   OBJECT GLOBAL DEFAULT 18 _ZTCN7android26BnAudioPol
1055:   OBJECT GLOBAL DEFAULT 18 _ZTCN7android12BnAudioTra
1056:   FUNC GLOBAL DEFAULT 14 _ZN7android11AudioSystem2
1057:   FUNC GLOBAL DEFAULT 14 _ZN7android10AudioTrack12
1058:   OBJECT WEAK DEFAULT 18 _ZTVN7android6VectorIiEE
1059:   FUNC GLOBAL DEFAULT 14 _ZNK7android10AudioTrack1
1060:   FUNC GLOBAL DEFAULT 14 _ZN7android11AudioRecord1
1061:   OBJECT WEAK DEFAULT 18 _ZTVN7android17AudioIoDes
1062:   OBJECT WEAK DEFAULT 18 _ZTTN7android14BpEffectCl
1063:   FUNC GLOBAL DEFAULT 14 _ZN7android5media13BpAudi
1064:   FUNC GLOBAL DEFAULT 14 _ZN7android11AudioEffect2
1065:   FUNC GLOBAL DEFAULT 14 _ZN7android11AudioRecord1
1066:   FUNC WEAK DEFAULT 14 _ZNSt3__16__treeINS_12__v
1067:   FUNC WEAK DEFAULT 14 _ZNK7android6VectorINS_22
1068:   FUNC GLOBAL DEFAULT 14 _ZN7android13ToneGenerato
1069:   FUNC GLOBAL DEFAULT 14 _ZN7android11AudioEffectC
1070:   FUNC GLOBAL DEFAULT 14 _ZN7android10AudioTrack12
1071:   OBJECT GLOBAL DEFAULT 18 _ZTCN7android20BnAudioPol
1072:   OBJECT GLOBAL DEFAULT 18 _ZTCN7android14BnEffectCl
1073:   FUNC GLOBAL DEFAULT 14 _ZN7android5media14IPlaye
1074:   FUNC GLOBAL DEFAULT 14 _ZN7android11AudioSystem2
1075:   FUNC GLOBAL DEFAULT 14 _ZN7android10AudioTrack26
1076:   FUNC GLOBAL DEFAULT 14 _ZN7android27StaticAudioT
1077:   OBJECT WEAK DEFAULT 18 _ZTVN7android6VectorINS_8
1078:   FUNC GLOBAL DEFAULT 14 _ZN7android11AudioSystem1
1079:   FUNC WEAK DEFAULT 14 _ZNSt3__16vectorI19effect
1080:   OBJECT GLOBAL DEFAULT 18 _ZTCN7android14BnEffectCl
1081:   FUNC GLOBAL DEFAULT 14 _ZThn8_N7android5media13B
1082:   OBJECT GLOBAL DEFAULT 18 _ZTCN7android5media7IPlay
1083:   OBJECT GLOBAL DEFAULT 18 _ZTCN7android19IAudioFlin
1084:   OBJECT WEAK DEFAULT 18 _ZTCN7android12BpAudioTra
1085:   FUNC WEAK DEFAULT 14 _ZNSt3__16vectorIN7androi
1086:   FUNC GLOBAL DEFAULT 14 _ZN7android11AudioSystem1
1087:   FUNC GLOBAL DEFAULT 14 _ZNK7android10AudioTrack4
1088:   FUNC GLOBAL DEFAULT 14 _ZN7android5ProxyC2EPNS_1
1089:   OBJECT GLOBAL DEFAULT 18 _ZTTN7android26BnAudioPol
1090:   OBJECT GLOBAL DEFAULT 23 _ZN7android5media7IPlayer
1091:   FUNC GLOBAL DEFAULT 14 _ZN7android11AudioSystem1
1092:   FUNC GLOBAL DEFAULT 14 _ZN7android10AudioTrackD1
1093:   FUNC GLOBAL DEFAULT 14 _ZN7android10PlayerBase15
1094:   OBJECT GLOBAL DEFAULT 18 _ZTVN7android5media12IAud
1095:   FUNC GLOBAL DEFAULT 14 _ZN7android25IAudioPolicy
1096:   OBJECT WEAK DEFAULT 18 _ZTTN7android20BpAudioFli
1097:   FUNC WEAK DEFAULT 14 _ZNSt3__16vectorI18audio_
1098:   FUNC WEAK DEFAULT 14 _ZNSt3__16vectorIN7androi
1099:   OBJECT WEAK DEFAULT 18 _ZTTN7android12BpAudioTra
1100:   FUNC GLOBAL DEFAULT 14 _ZN7android10PlayerBaseD1
1101:   FUNC WEAK DEFAULT 14 _ZNK7android6VectorIiE16d
1102:   FUNC GLOBAL DEFAULT 14 _ZTv0_n24_N7android10Audi
1103:   FUNC GLOBAL DEFAULT 14 _ZN7android11IAudioTrackD
1104:   OBJECT GLOBAL DEFAULT 23 _ZN7android7IEffect10desc
1105:   FUNC GLOBAL DEFAULT 14 _ZN7android11AudioSystem1
1106:   FUNC GLOBAL DEFAULT 14 _ZN7android11AudioSystem2
1107:   OBJECT GLOBAL DEFAULT 23 _ZN7android11AudioSystem5
1108:   OBJECT GLOBAL DEFAULT 23 _ZN7android13IAudioFlinge
1109:   OBJECT GLOBAL DEFAULT 18 _ZTTN7android13IAudioFlin
1110:   OBJECT GLOBAL DEFAULT 23 _ZN7android19IAudioPolicy
1111:   FUNC GLOBAL DEFAULT 14 _ZTv0_n24_N7android13IEff
1112:   OBJECT GLOBAL DEFAULT 18 _ZTCN7android11AudioSyste
1113:   FUNC GLOBAL DEFAULT 14 _ZN7android10AudioTrack18
1114:   OBJECT WEAK DEFAULT 18 _ZTTN7android20BpAudioPol
1115:   FUNC GLOBAL DEFAULT 14 _ZN7android7IEffectD0Ev
1116:   FUNC GLOBAL DEFAULT 14 _ZN7android11AudioEffectC
1117:   OBJECT WEAK DEFAULT 18 _ZTVN7android13IAudioFlin
1118:   FUNC WEAK DEFAULT 14 _ZN7android11BnInterfaceI
1119:   FUNC GLOBAL DEFAULT 14 _ZN7android11AudioSystem2
1120:   FUNC GLOBAL DEFAULT 14 _ZN7android10AudioTrack16
1121:   OBJECT WEAK DEFAULT 18 _ZTCN7android26BpAudioPol
1122:   FUNC GLOBAL DEFAULT 14 _ZN7android11AudioEffect1
1123:   OBJECT WEAK DEFAULT 18 _ZTCN7android11AudioEffec
1124:   FUNC GLOBAL DEFAULT 14 _ZN7android11AudioSystem1
1125:   FUNC GLOBAL DEFAULT 14 _ZN7android15TrackPlayerB
1126:   FUNC WEAK DEFAULT 14 _ZNK7android12SortedVecto
1127:   FUNC GLOBAL DEFAULT 14 _ZN7android10AudioTrack16
1128:   FUNC GLOBAL DEFAULT 14 _ZThn8_N7android14BnAudio
1129:   FUNC GLOBAL DEFAULT 14 _ZN7android11AudioSystem1
1130:   FUNC GLOBAL DEFAULT 14 _ZN7android11AudioSystem2
1131:   OBJECT GLOBAL DEFAULT 18 _ZTCN7android19IAudioPoli
1132:   OBJECT GLOBAL DEFAULT 18 _ZTVN7android12BnAudioTra
1133:   FUNC GLOBAL DEFAULT 14 _ZN7android13ToneGenerato
1134:   OBJECT WEAK DEFAULT 18 _ZTVN7android12SortedVect
1135:   OBJECT GLOBAL DEFAULT 18 _ZTCN7android14BnAudioFli
1136:   FUNC GLOBAL DEFAULT 14 _ZNK7android13IEffectClie
1137:   FUNC GLOBAL DEFAULT 14 _ZN7android11AudioSystem1
1138:   FUNC GLOBAL DEFAULT 14 _ZN7android19IAudioFlinge
1139:   FUNC GLOBAL DEFAULT 14 _ZN7android15TrackPlayerB
1140:   FUNC GLOBAL DEFAULT 14 _ZN7android18audio_track_
1141:   FUNC GLOBAL DEFAULT 14 _ZN7android11AudioSystem2
1142:   FUNC WEAK DEFAULT 14 _ZNSt3__16__treeINS_12__v
1143:   FUNC GLOBAL DEFAULT 14 _ZN7android7IEffect14setD
1144:   OBJECT GLOBAL DEFAULT 18 _ZTCN7android14BnEffectCl
1145:   FUNC GLOBAL DEFAULT 14 _ZTv0_n24_N7android11IAud
1146:   OBJECT GLOBAL DEFAULT 18 _ZTCN7android15TrackPlaye
1147:   OBJECT GLOBAL DEFAULT 18 _ZTCN7android5media13BnAu
1148:   FUNC GLOBAL DEFAULT 14 _ZN7android10AudioTrack10
1149:   FUNC GLOBAL DEFAULT 14 _ZN7android10AudioTrack16
1150:   FUNC GLOBAL DEFAULT 14 _ZN7android11AudioEffect1
1151:   OBJECT WEAK DEFAULT 18 _ZTVN7android6VectorINS_2
1152:   OBJECT WEAK DEFAULT 18 _ZTVN7android12SortedVect
1153:   FUNC GLOBAL DEFAULT 14 _ZN7android13IEffectClien
1154:   OBJECT GLOBAL DEFAULT 18 _ZTVN7android13IEffectCli
1155:   FUNC GLOBAL DEFAULT 14 _ZN7android5media14IPlaye
1156:   FUNC GLOBAL DEFAULT 14 _ZN7android13IEffectClien
1157:   FUNC WEAK DEFAULT 14 _ZNSt3__16__treeINS_12__v
1158:   OBJECT GLOBAL DEFAULT 18 _ZTVN7android20BnAudioFli
1159:   FUNC WEAK DEFAULT 14 _ZN7android11BnInterfaceI
1160:   FUNC GLOBAL DEFAULT 14 _ZTv0_n24_N7android13IAud
1161:   FUNC WEAK DEFAULT 14 _ZNK7android12SortedVecto
1162:   FUNC GLOBAL DEFAULT 14 _ZN7android5media7IPlayer
1163:   FUNC GLOBAL DEFAULT 14 _ZN7android11AudioEffectC
1164:   FUNC GLOBAL DEFAULT 14 _ZN7android11ClientProxy1
1165:   FUNC GLOBAL DEFAULT 14 _ZThn8_N7android11AudioSy
1166:   FUNC GLOBAL DEFAULT 14 _ZN7android10AudioTrack21
1167:   OBJECT GLOBAL DEFAULT 18 _ZTTN7android10AudioTrack
1168:   FUNC GLOBAL DEFAULT 14 _ZN7android27StaticAudioT
1169:   FUNC WEAK DEFAULT 14 _ZNK7android12SortedVecto
1170:   OBJECT GLOBAL DEFAULT 18 _ZTVN7android20BnAudioPol
1171:   FUNC WEAK DEFAULT 14 _ZNK7android6VectorINS0_I
1172:   OBJECT WEAK DEFAULT 18 _ZTCN7android11AudioEffec
1173:   OBJECT GLOBAL DEFAULT 18 _ZTCN7android11AudioSyste
1174:   OBJECT GLOBAL DEFAULT 18 _ZTVN7android22AudioRecor
1175:   FUNC GLOBAL DEFAULT 14 _ZN7android13IAudioFlinge
1176:   FUNC GLOBAL DEFAULT 14 _ZN7android19IAudioPolicy
1177:   FUNC GLOBAL DEFAULT 14 _ZN7android13ToneGenerato
1178:   OBJECT GLOBAL DEFAULT 23 _ZN7android13IEffectClien
1179:   FUNC GLOBAL DEFAULT 14 _ZN7android11AudioSystem2
1180:   FUNC GLOBAL DEFAULT 14 _ZNK7android10AudioTrack2
1181:   FUNC WEAK DEFAULT 14 _ZNK7android6VectorIfE8do
1182:   FUNC WEAK DEFAULT 14 _ZN7android2spINS_19IAudi
1183:   FUNC GLOBAL DEFAULT 14 _ZN7android10AudioTrackC1
1184:   OBJECT WEAK DEFAULT 18 _ZTCNSt3__118basic_string
1185:   FUNC GLOBAL DEFAULT 14 _ZThn8_N7android20BnAudio
1186:   FUNC GLOBAL DEFAULT 14 _ZN7android11AudioRecord4
1187:   OBJECT GLOBAL DEFAULT 23 _ZN7android11AudioSystem1
1188:   FUNC GLOBAL DEFAULT 14 _ZN7android11AudioSystem2
1189:   OBJECT WEAK DEFAULT 18 _ZTTNSt3__118basic_string
1190:   FUNC WEAK DEFAULT 14 _ZNSt3__16vectorI19audio_
1191:   OBJECT GLOBAL DEFAULT 18 _ZTCN7android8BnEffectE0_
1192:   FUNC GLOBAL DEFAULT 14 _ZN7android10AudioTrack13
1193:   OBJECT GLOBAL DEFAULT 18 _ZTCN7android20BnAudioPol
1194:   FUNC WEAK DEFAULT 14 _ZNK7android6VectorINS0_I
1195:   FUNC GLOBAL DEFAULT 14 _ZNK7android10AudioTrack2
1196:   FUNC GLOBAL DEFAULT 14 _ZN7android21AudioTrackCl
1197:   FUNC GLOBAL DEFAULT 14 _ZN7android21AudioTrackSe
1198:   OBJECT WEAK DEFAULT 18 _ZTCN7android8BpEffectE8_
1199:   FUNC GLOBAL DEFAULT 14 _ZN7android5media14IPlaye
1200:   OBJECT GLOBAL DEFAULT 18 _ZTCN7android11AudioSyste
1201:   FUNC WEAK DEFAULT 14 _ZNK7android12SortedVecto
1202:   FUNC GLOBAL DEFAULT 14 _ZN7android11ServerProxyC
1203:   FUNC GLOBAL DEFAULT 14 _ZN7android10PlayerBase11
1204:   FUNC GLOBAL DEFAULT 14 _ZN7android11AudioEffect1
1205:   FUNC WEAK DEFAULT 14 _ZNSt3__16__treeINS_12__v
1206:   FUNC GLOBAL DEFAULT 14 _ZNK7android11AudioRecord
1207:   OBJECT GLOBAL DEFAULT 18 _ZTVN7android14BnAudioFli
1208:   FUNC GLOBAL DEFAULT 14 _ZN7android10AudioTrack16
1209:   FUNC GLOBAL DEFAULT 14 _ZN7android13IAudioFlinge
1210:   FUNC GLOBAL DEFAULT 14 _ZN7android19IAudioPolicy
1211:   OBJECT GLOBAL DEFAULT 18 _ZTTN7android5media12IAud
1212:   FUNC WEAK DEFAULT 14 _ZN7android2spINS_13IAudi
1213:   FUNC GLOBAL DEFAULT 14 _ZN7android13IAudioFlinge
1214:   FUNC WEAK DEFAULT 14 _ZNK7android6VectorINS_19
1215:   FUNC GLOBAL DEFAULT 14 _ZN7android10PlayerBase14
1216:   FUNC GLOBAL DEFAULT 14 _ZN7android11AudioEffectD
1217:   FUNC GLOBAL DEFAULT 14 _ZN7android11AudioRecord3
1218:   OBJECT GLOBAL DEFAULT 18 _ZTVN7android27StaticAudi
1219:   OBJECT GLOBAL DEFAULT 18 _ZTCN7android5media8BpPla
1220:   FUNC GLOBAL DEFAULT 14 _ZN7android11AudioEffect1
1221:   FUNC GLOBAL DEFAULT 14 _ZN7android25IAudioPolicy
1222:   FUNC GLOBAL DEFAULT 14 _ZN7android11AudioSystem2
1223:   OBJECT GLOBAL DEFAULT 23 _ZN7android11AudioSystem1
1224:   OBJECT GLOBAL DEFAULT 18 _ZTVN7android21AudioTrack
1225:   FUNC GLOBAL DEFAULT 14 _ZThn8_N7android10PlayerB
1226:   FUNC GLOBAL DEFAULT 14 _ZN7android15TrackPlayerB
1227:   OBJECT GLOBAL DEFAULT 18 _ZTCN7android5media19IAud
1228:   FUNC GLOBAL DEFAULT 14 _ZN7android11AudioRecord2
1229:   FUNC GLOBAL DEFAULT 14 _ZN7android11AudioSystem1
1230:   FUNC GLOBAL DEFAULT 14 _ZN7android5media8BpPlaye
1231:   FUNC GLOBAL DEFAULT 14 _ZN7android11AudioRecord1
1232:   FUNC GLOBAL DEFAULT 14 _ZN7android11AudioRecord3
1233:   FUNC GLOBAL DEFAULT 14 _ZN7android11ClientProxy1
1234:   FUNC GLOBAL DEFAULT 14 _ZNK7android11AudioRecord
1235:   OBJECT GLOBAL DEFAULT 18 _ZTCN7android11AudioSyste
1236:   FUNC WEAK DEFAULT 14 _ZNK7android6VectorINS_22
1237:   FUNC WEAK DEFAULT 14 _ZNK7android6VectorINS_8A
1238:   OBJECT GLOBAL DEFAULT 18 _ZTVN7android7IEffectE
1239:   FUNC GLOBAL DEFAULT 14 _ZN7android11AudioRecordC
1240:   FUNC GLOBAL DEFAULT 14 _ZTv0_n24_N7android25IAud
1241:   FUNC GLOBAL DEFAULT 14 _ZN7android10AudioTrack13
1242:   FUNC GLOBAL DEFAULT 14 _ZN7android27StaticAudioT
1243:   OBJECT GLOBAL DEFAULT 18 _ZTCN7android20BnAudioFli
1244:   FUNC GLOBAL DEFAULT 14 _ZN7android11AudioRecord1
1245:   FUNC GLOBAL DEFAULT 14 _ZN7android10AudioTrack12
1246:   OBJECT WEAK DEFAULT 18 _ZTVN7android5ProxyE
1247:   OBJECT WEAK DEFAULT 18 _ZTCN7android14BpAudioFli
1248:   OBJECT GLOBAL DEFAULT 18 _ZTTN7android13IEffectCli
1249:   FUNC GLOBAL DEFAULT 14 _ZN7android11AudioRecord1
1250:   FUNC GLOBAL DEFAULT 14 _ZN7android11AudioSystem2
1251:   FUNC GLOBAL DEFAULT 14 _ZN7android10AudioTrack23
1252:   FUNC GLOBAL DEFAULT 14 _ZN7android13ToneGenerato
1253:   FUNC GLOBAL DEFAULT 14 _ZN7android11AudioRecord2
1254:   FUNC GLOBAL DEFAULT 14 _ZNK7android10AudioTrack1
1255:   FUNC GLOBAL DEFAULT 14 _ZTv0_n24_N7android7IEffe
1256:   FUNC GLOBAL DEFAULT 14 _ZN7android11AudioSystem1
1257:   FUNC WEAK DEFAULT 14 _ZNSt3__16__treeINS_12__v
1258:   FUNC GLOBAL DEFAULT 14 _ZN7android5media7IPlayer
1259:   FUNC GLOBAL DEFAULT 14 _ZN7android11AudioRecord1
1260:   FUNC GLOBAL DEFAULT 14 _ZN7android11AudioSystem1
1261:   FUNC GLOBAL DEFAULT 14 _ZN7android11AudioSystem2
1262:   OBJECT GLOBAL DEFAULT 18 _ZTTN7android8BnEffectE
1263:   FUNC GLOBAL DEFAULT 14 _ZN7android11AudioSystem2
1264:   OBJECT GLOBAL DEFAULT 18 _ZTCN7android11AudioSyste
1265:   FUNC GLOBAL DEFAULT 14 _ZN7android10AudioTrack14
1266:   FUNC GLOBAL DEFAULT 14 _ZN7android11AudioEffect2
1267:   FUNC GLOBAL DEFAULT 14 _ZN7android11AudioRecord1
1268:   FUNC GLOBAL DEFAULT 14 _ZN7android11AudioSystem1
1269:   FUNC GLOBAL DEFAULT 14 _ZN7android7IEffect14getD
1270:   FUNC GLOBAL DEFAULT 14 _ZN7android11AudioSystem1
1271:   OBJECT WEAK DEFAULT 18 _ZTCN7android20BpAudioPol
1272:   FUNC GLOBAL DEFAULT 14 _ZN7android10PlayerBase4i
1273:   OBJECT GLOBAL DEFAULT 18 _ZTCN7android15TrackPlaye
1274:   FUNC WEAK DEFAULT 14 _ZNK7android6Parcel20read
1275:   FUNC GLOBAL DEFAULT 14 _ZN7android5media14IPlaye
1276:   FUNC GLOBAL DEFAULT 14 _ZN7android11AudioSystem1
1277:   FUNC GLOBAL DEFAULT 14 _ZN7android20BnAudioPolic
1278:   FUNC GLOBAL DEFAULT 14 _ZN7android8BnEffect10onT
1279:   FUNC GLOBAL DEFAULT 14 _ZN7android10PlayerBase15
1280:   OBJECT GLOBAL DEFAULT 18 _ZTTN7android10PlayerBase
1281:   FUNC GLOBAL DEFAULT 14 _ZN7android11AudioRecord1
1282:   OBJECT GLOBAL DEFAULT 18 _ZTCN7android14BnAudioFli
1283:   FUNC WEAK DEFAULT 14 _ZNSt3__16vectorI14audio_
1284:   OBJECT GLOBAL DEFAULT 18 _ZTCN7android20BnAudioPol
1285:   OBJECT GLOBAL DEFAULT 18 _ZTVN7android11AudioRecor
1286:   OBJECT WEAK DEFAULT 18 _ZTCNSt3__118basic_string
1287:   FUNC GLOBAL DEFAULT 14 _ZN7android5media8BpPlaye
1288:   OBJECT GLOBAL DEFAULT 18 _ZTVN7android5media8BpPla
1289:   FUNC GLOBAL DEFAULT 14 _ZN7android11AudioSystem1
1290:   FUNC GLOBAL DEFAULT 14 _ZN7android11AudioSystem1
1291:   FUNC GLOBAL DEFAULT 14 _ZN7android10AudioTrack19
1292:   FUNC WEAK DEFAULT 14 _ZNK7android12SortedVecto
1293:   FUNC GLOBAL DEFAULT 14 _ZN7android27StaticAudioT
1294:   OBJECT GLOBAL DEFAULT 18 _ZTTN7android14BnAudioFli
1295:   FUNC WEAK DEFAULT 14 _ZNK7android6VectorINS_22
