 0x000000000000000e (SONAME)             Library soname: [android.hardware.configstore@1.0.so]
  
Symbol   contains 261 entries:
Num:   Type Bind Vis Ndx Name
0:   NOTYPE LOCAL DEFAULT UND
1:   FUNC GLOBAL DEFAULT UND __cxa_finalize@LIBC (2)
2:   FUNC GLOBAL DEFAULT UND _ZN7android14sp_report_ra
3:   FUNC GLOBAL DEFAULT UND _ZN7android21report_syspr
4:   OBJECT GLOBAL DEFAULT UND _ZN7android4hidl4base4V1_
5:   FUNC GLOBAL DEFAULT UND _ZN7android4hidl4base4V1_
6:   FUNC GLOBAL DEFAULT UND _ZN7android4hidl4base4V1_
7:   FUNC GLOBAL DEFAULT UND _ZN7android4hidl4base4V1_
8:   FUNC GLOBAL DEFAULT UND _ZN7android4hidl4base4V1_
9:   FUNC GLOBAL DEFAULT UND _ZN7android4hidl4base4V1_
10:   FUNC GLOBAL DEFAULT UND _ZN7android4hidl4base4V1_
11:   FUNC GLOBAL DEFAULT UND _ZN7android4hidl4base4V1_
12:   FUNC GLOBAL DEFAULT UND _ZN7android4hidl4base4V1_
13:   FUNC GLOBAL DEFAULT UND _ZN7android4hidl4base4V1_
14:   FUNC GLOBAL DEFAULT UND _ZN7android4hidl4base4V1_
15:   FUNC GLOBAL DEFAULT UND _ZN7android4hidl4base4V1_
16:   FUNC GLOBAL DEFAULT UND _ZN7android4hidl4base4V1_
17:   FUNC GLOBAL DEFAULT UND _ZN7android4hidl4base4V1_
18:   FUNC GLOBAL DEFAULT UND _ZN7android4hidl4base4V1_
19:   FUNC GLOBAL DEFAULT UND _ZN7android4hidl4base4V1_
20:   FUNC GLOBAL DEFAULT UND _ZN7android4hidl4base4V1_
21:   FUNC GLOBAL DEFAULT UND _ZN7android4hidl4base4V1_
22:   FUNC GLOBAL DEFAULT UND _ZN7android4hidl4base4V1_
23:   FUNC GLOBAL DEFAULT UND _ZN7android4hidl4base4V1_
24:   FUNC GLOBAL DEFAULT UND _ZN7android4hidl4base4V1_
25:   FUNC GLOBAL DEFAULT UND _ZN7android4hidl4base4V1_
26:   FUNC GLOBAL DEFAULT UND _ZN7android4hidl4base4V1_
27:   FUNC GLOBAL DEFAULT UND _ZN7android4hidl4base4V1_
28:   FUNC GLOBAL DEFAULT UND _ZN7android7RefBase10onFi
29:   FUNC GLOBAL DEFAULT UND _ZN7android7RefBase12weak
30:   FUNC GLOBAL DEFAULT UND _ZN7android7RefBase13onLa
31:   FUNC GLOBAL DEFAULT UND _ZN7android7RefBase15onLa
32:   FUNC GLOBAL DEFAULT UND _ZN7android7RefBase20onIn
33:   FUNC GLOBAL DEFAULT UND _ZN7android7RefBaseC2Ev
34:   FUNC GLOBAL DEFAULT UND _ZN7android7RefBaseD2Ev
35:   FUNC GLOBAL DEFAULT UND _ZN7android8hardware10IIn
36:   FUNC GLOBAL DEFAULT UND _ZN7android8hardware10IIn
37:   FUNC GLOBAL DEFAULT UND _ZN7android8hardware10IIn
38:   FUNC GLOBAL DEFAULT UND _ZN7android8hardware10IIn
39:   FUNC GLOBAL DEFAULT UND _ZN7android8hardware10IIn
40:   FUNC GLOBAL DEFAULT UND _ZN7android8hardware11BpH
41:   FUNC GLOBAL DEFAULT UND _ZN7android8hardware11BpH
42:   FUNC GLOBAL DEFAULT UND _ZN7android8hardware11BpH
43:   FUNC GLOBAL DEFAULT UND _ZN7android8hardware11BpH
44:   FUNC GLOBAL DEFAULT UND _ZN7android8hardware11BpH
45:   FUNC GLOBAL DEFAULT UND _ZN7android8hardware11BpH
46:   FUNC GLOBAL DEFAULT UND _ZN7android8hardware11BpH
47:   FUNC GLOBAL DEFAULT UND _ZN7android8hardware11hid
48:   FUNC GLOBAL DEFAULT UND _ZN7android8hardware11hid
49:   FUNC GLOBAL DEFAULT UND _ZN7android8hardware11hid
50:   FUNC GLOBAL DEFAULT UND _ZN7android8hardware11hid
51:   FUNC GLOBAL DEFAULT UND _ZN7android8hardware11hid
52:   FUNC GLOBAL DEFAULT UND _ZN7android8hardware12Pro
53:   FUNC GLOBAL DEFAULT UND _ZN7android8hardware12Pro
54:   FUNC GLOBAL DEFAULT UND _ZN7android8hardware13wri
55:   FUNC GLOBAL DEFAULT UND _ZN7android8hardware14rea
56:   FUNC GLOBAL DEFAULT UND _ZN7android8hardware21def
57:   FUNC GLOBAL DEFAULT UND _ZN7android8hardware23get
58:   FUNC GLOBAL DEFAULT UND _ZN7android8hardware27hid
59:   FUNC GLOBAL DEFAULT UND _ZN7android8hardware27hid
60:   FUNC GLOBAL DEFAULT UND _ZN7android8hardware6Parc
61:   FUNC GLOBAL DEFAULT UND _ZN7android8hardware6Parc
62:   FUNC GLOBAL DEFAULT UND _ZN7android8hardware6Parc
63:   FUNC GLOBAL DEFAULT UND _ZN7android8hardware6Parc
64:   FUNC GLOBAL DEFAULT UND _ZN7android8hardware6Stat
65:   FUNC GLOBAL DEFAULT UND _ZN7android8hardware6Stat
66:   FUNC GLOBAL DEFAULT UND _ZN7android8hardware6Stat
67:   FUNC GLOBAL DEFAULT UND _ZN7android8hardware6Stat
68:   FUNC GLOBAL DEFAULT UND _ZN7android8hardware7IBin
69:   FUNC GLOBAL DEFAULT UND _ZN7android8hardware7IBin
70:   FUNC GLOBAL DEFAULT UND _ZN7android8hardware7IBin
71:   FUNC GLOBAL DEFAULT UND _ZN7android8hardware7IBin
72:   FUNC GLOBAL DEFAULT UND _ZN7android8hardware7deta
73:   FUNC GLOBAL DEFAULT UND _ZN7android8hardware7deta
74:   FUNC GLOBAL DEFAULT UND _ZN7android8hardware7deta
75:   FUNC GLOBAL DEFAULT UND _ZN7android8hardware7deta
76:   FUNC GLOBAL DEFAULT UND _ZN7android8hardware7deta
77:   FUNC GLOBAL DEFAULT UND _ZN7android8hardware7deta
78:   FUNC GLOBAL DEFAULT UND _ZN7android8hardware7deta
79:   OBJECT GLOBAL DEFAULT UND _ZN7android8hardware7deta
80:   FUNC GLOBAL DEFAULT UND _ZN7android8hardware7deta
81:   OBJECT GLOBAL DEFAULT UND _ZN7android8hardware7deta
82:   FUNC GLOBAL DEFAULT UND _ZN7android8hardware7deta
83:   FUNC GLOBAL DEFAULT UND _ZN7android8hardware7deta
84:   FUNC GLOBAL DEFAULT UND _ZN7android8hardware7deta
85:   FUNC GLOBAL DEFAULT UND _ZN7android8hardware7deta
86:   FUNC GLOBAL DEFAULT UND _ZN7android8hardware7deta
87:   FUNC GLOBAL DEFAULT UND _ZN7android8hardware7deta
88:   FUNC GLOBAL DEFAULT UND _ZN7android8hardware7deta
89:   FUNC GLOBAL DEFAULT UND _ZN7android8hardware7deta
90:   FUNC GLOBAL DEFAULT UND _ZN7android8hardware7deta
91:   OBJECT GLOBAL DEFAULT UND _ZN7android8hardware7deta
92:   FUNC GLOBAL DEFAULT UND _ZN7android8hardware9BHwB
93:   FUNC GLOBAL DEFAULT UND _ZN7android8hardware9BHwB
94:   FUNC GLOBAL DEFAULT UND _ZN7android8hardware9BHwB
95:   FUNC GLOBAL DEFAULT UND _ZN7android8hardware9BHwB
96:   FUNC GLOBAL DEFAULT UND _ZN7android8hardware9BHwB
97:   FUNC GLOBAL DEFAULT UND _ZN7android8hardware9BHwB
98:   FUNC GLOBAL DEFAULT UND _ZN7android8hardware9BHwB
99:   FUNC GLOBAL DEFAULT UND _ZN7android8hardware9BHwB
100:   FUNC GLOBAL DEFAULT UND _ZN7android8hardware9BHwB
101:   FUNC GLOBAL DEFAULT UND _ZN7android8hardware9BHwB
102:   FUNC GLOBAL DEFAULT UND _ZNK7android7RefBase10cre
103:   FUNC GLOBAL DEFAULT UND _ZNK7android7RefBase11get
104:   FUNC GLOBAL DEFAULT UND _ZNK7android7RefBase9decS
105:   FUNC GLOBAL DEFAULT UND _ZNK7android7RefBase9incS
106:   FUNC GLOBAL DEFAULT UND _ZNK7android8hardware6Par
107:   FUNC GLOBAL DEFAULT UND _ZNK7android8hardware6Par
108:   FUNC GLOBAL DEFAULT UND _ZNK7android8hardware7IBi
109:   FUNC GLOBAL DEFAULT UND _ZNK7android8hardware7det
110:   FUNC GLOBAL DEFAULT UND _ZNK7android8hardware9BHw
111:   FUNC GLOBAL DEFAULT UND _ZNKSt3__120__vector_base
112:   FUNC GLOBAL DEFAULT UND _ZNKSt3__121__basic_strin
113:   FUNC GLOBAL DEFAULT UND _ZNSt3__112basic_stringIc
114:   FUNC GLOBAL DEFAULT UND _ZNSt3__15mutex4lockEv
115:   FUNC GLOBAL DEFAULT UND _ZNSt3__15mutex6unlockEv
116:   FUNC GLOBAL DEFAULT UND _ZNSt3__15mutexD1Ev
117:   FUNC GLOBAL DEFAULT UND _ZTv0_n24_N7android4hidl4
118:   FUNC GLOBAL DEFAULT UND _ZTv0_n24_N7android4hidl4
119:   FUNC GLOBAL DEFAULT UND _ZTv0_n24_N7android8hardw
120:   FUNC GLOBAL DEFAULT UND _ZTv0_n24_N7android8hardw
121:   FUNC GLOBAL DEFAULT UND _ZTv0_n24_N7android8hardw
122:   FUNC GLOBAL DEFAULT UND _ZTv0_n24_N7android8hardw
123:   FUNC GLOBAL DEFAULT UND _ZTv0_n24_N7android8hardw
124:   FUNC GLOBAL DEFAULT UND _ZTv0_n24_N7android8hardw
125:   FUNC GLOBAL DEFAULT UND _ZTv0_n24_N7android8hardw
126:   FUNC GLOBAL DEFAULT UND _ZTv0_n24_N7android8hardw
127:   FUNC GLOBAL DEFAULT UND _ZTv0_n32_N7android8hardw
128:   FUNC GLOBAL DEFAULT UND _ZTv0_n40_N7android8hardw
129:   FUNC GLOBAL DEFAULT UND _ZTv0_n48_N7android8hardw
130:   FUNC GLOBAL DEFAULT UND _ZdaPv
131:   FUNC GLOBAL DEFAULT UND _ZdlPv
132:   FUNC GLOBAL DEFAULT UND _Znam
133:   FUNC GLOBAL DEFAULT UND _Znwm
134:   FUNC GLOBAL DEFAULT UND __android_log_assert@LIBLOG (3)
135:   FUNC GLOBAL DEFAULT UND __cxa_pure_virtual
136:   FUNC GLOBAL DEFAULT UND __stack_chk_fail@LIBC (2)
137:   FUNC GLOBAL DEFAULT UND abort@LIBC (2)
138:   FUNC GLOBAL DEFAULT UND atrace_begin_body
139:   OBJECT GLOBAL DEFAULT UND atrace_enabled_tags
140:   FUNC GLOBAL DEFAULT UND atrace_end_body
141:   OBJECT GLOBAL DEFAULT UND atrace_is_ready
142:   FUNC GLOBAL DEFAULT UND atrace_setup
143:   FUNC GLOBAL DEFAULT UND memcmp@LIBC (2)
144:   FUNC GLOBAL DEFAULT UND memcpy@LIBC (2)
145:   FUNC GLOBAL DEFAULT UND memset@LIBC (2)
146:   FUNC GLOBAL DEFAULT UND strlen@LIBC (2)
147:   FUNC GLOBAL DEFAULT UND _ZN7android8hardware21wri
148:   FUNC GLOBAL DEFAULT UND _ZN7android8hardware22rea
149:   FUNC GLOBAL DEFAULT 14 _ZN7android8hardware11con
150:   FUNC GLOBAL DEFAULT 14 _ZN7android8hardware11con
151:   FUNC GLOBAL DEFAULT 14 _ZN7android8hardware11con
152:   FUNC GLOBAL DEFAULT 14 _ZN7android8hardware11con
153:   FUNC WEAK DEFAULT 14 _ZNSt3__16vectorIPvNS_9al
154:   FUNC GLOBAL DEFAULT 14 _ZN7android8hardware11con
155:   FUNC GLOBAL DEFAULT 14 _ZN7android8hardware11con
156:   FUNC GLOBAL DEFAULT 14 _ZN7android8hardware11con
157:   FUNC WEAK DEFAULT 14 _ZNSt3__127__tree_balance
158:   OBJECT GLOBAL DEFAULT 18 _ZTCN7android8hardware11c
159:   FUNC GLOBAL DEFAULT 14 _ZN7android8hardware11con
160:   FUNC GLOBAL DEFAULT 14 _ZN7android8hardware11con
161:   FUNC GLOBAL DEFAULT 14 _ZN7android8hardware11con
162:   OBJECT WEAK DEFAULT 18 _ZTVN7android8hardware11c
163:   FUNC GLOBAL DEFAULT 14 _ZN7android8hardware11con
164:   FUNC GLOBAL DEFAULT 14 _ZN7android8hardware11con
165:   FUNC WEAK DEFAULT 14 _ZNSt3__113__tree_removeI
166:   FUNC WEAK DEFAULT 14 _ZNSt3__16vectorINS_8func
167:   FUNC GLOBAL DEFAULT 14 _ZN7android8hardware11con
168:   FUNC GLOBAL DEFAULT 14 _ZN7android8hardware11con
169:   FUNC GLOBAL DEFAULT 14 _ZN7android8hardware11con
170:   FUNC GLOBAL DEFAULT 14 _ZN7android8hardware11con
171:   FUNC WEAK DEFAULT 14 _ZNSt3__16vectorIN7androi
172:   OBJECT GLOBAL DEFAULT 18 _ZTCN7android8hardware11c
173:   FUNC GLOBAL DEFAULT 14 _ZN7android8hardware11con
174:   FUNC GLOBAL DEFAULT 14 _ZN7android8hardware11con
175:   FUNC GLOBAL DEFAULT 14 _ZN7android8hardware11con
176:   FUNC GLOBAL DEFAULT 14 _ZN7android8hardware11con
177:   FUNC GLOBAL DEFAULT 14 _ZN7android8hardware11con
178:   FUNC GLOBAL DEFAULT 14 _ZN7android8hardware11con
179:   FUNC GLOBAL DEFAULT 14 _ZN7android8hardware11con
180:   FUNC GLOBAL DEFAULT 14 _ZN7android8hardware11con
181:   FUNC GLOBAL DEFAULT 14 _ZN7android8hardware11con
182:   FUNC GLOBAL DEFAULT 14 _ZN7android8hardware11con
183:   FUNC GLOBAL DEFAULT 14 _ZN7android8hardware11con
184:   FUNC GLOBAL DEFAULT 14 _ZN7android8hardware11con
185:   FUNC GLOBAL DEFAULT 14 _ZN7android8hardware11con
186:   FUNC GLOBAL DEFAULT 14 _ZN7android8hardware11con
187:   OBJECT GLOBAL DEFAULT 18 _ZTCN7android8hardware11c
188:   OBJECT GLOBAL DEFAULT 18 _ZTCN7android8hardware11c
189:   FUNC GLOBAL DEFAULT 14 _ZN7android8hardware11con
190:   FUNC GLOBAL DEFAULT 14 _ZN7android8hardware11con
191:   FUNC WEAK DEFAULT 14 _ZN7android8hardware7deta
192:   FUNC GLOBAL DEFAULT 14 _ZN7android8hardware11con
193:   OBJECT GLOBAL DEFAULT 18 _ZTTN7android8hardware11c
194:   FUNC GLOBAL DEFAULT 14 _ZN7android8hardware11con
195:   FUNC GLOBAL DEFAULT 14 _ZN7android8hardware11con
196:   FUNC GLOBAL DEFAULT 14 _ZN7android8hardware11con
197:   FUNC GLOBAL DEFAULT 14 _ZN7android8hardware11con
198:   FUNC WEAK DEFAULT 14 _ZNSt3__16__treeINS_12__v
199:   FUNC GLOBAL DEFAULT 14 _ZN7android8hardware11con
200:   FUNC GLOBAL DEFAULT 14 _ZN7android8hardware11con
201:   OBJECT GLOBAL DEFAULT 18 _ZTCN7android8hardware11c
202:   FUNC GLOBAL DEFAULT 14 _ZN7android8hardware11con
203:   FUNC GLOBAL DEFAULT 14 _ZN7android8hardware11con
204:   FUNC GLOBAL DEFAULT 14 _ZN7android8hardware11con
205:   FUNC GLOBAL DEFAULT 14 _ZN7android8hardware11con
206:   FUNC GLOBAL DEFAULT 14 _ZN7android8hardware11con
207:   FUNC GLOBAL DEFAULT 14 _ZN7android8hardware11con
208:   FUNC GLOBAL DEFAULT 14 _ZN7android8hardware11con
209:   FUNC GLOBAL DEFAULT 14 _ZN7android8hardware11con
210:   FUNC GLOBAL DEFAULT 14 _ZN7android8hardware11con
211:   FUNC WEAK DEFAULT 14 _ZNSt3__16__treeINS_12__v
212:   FUNC GLOBAL DEFAULT 14 _ZN7android8hardware11con
213:   FUNC GLOBAL DEFAULT 14 _ZN7android8hardware11con
214:   OBJECT GLOBAL DEFAULT 18 _ZTCN7android8hardware11c
215:   OBJECT GLOBAL DEFAULT 18 _ZTTN7android8hardware11c
216:   FUNC GLOBAL DEFAULT 14 _ZN7android8hardware11con
217:   FUNC GLOBAL DEFAULT 14 _ZN7android8hardware11con
218:   FUNC GLOBAL DEFAULT 14 _ZN7android8hardware11con
219:   FUNC GLOBAL DEFAULT 14 _ZN7android8hardware11con
220:   FUNC GLOBAL DEFAULT 14 _ZN7android8hardware11con
221:   FUNC WEAK DEFAULT 14 _ZNSt3__16__treeINS_12__v
222:   FUNC GLOBAL DEFAULT 14 _ZThn32_N7android8hardwar
223:   FUNC GLOBAL DEFAULT 14 _ZN7android8hardware11con
224:   FUNC GLOBAL DEFAULT 14 _ZN7android8hardware11con
225:   FUNC GLOBAL DEFAULT 14 _ZN7android8hardware11con
226:   FUNC GLOBAL DEFAULT 14 _ZN7android8hardware11con
227:   OBJECT GLOBAL DEFAULT 18 _ZTVN7android8hardware11c
228:   FUNC GLOBAL DEFAULT 14 _ZN7android8hardware11con
229:   FUNC GLOBAL DEFAULT 14 _ZN7android8hardware11con
230:   FUNC WEAK DEFAULT 14 _ZNSt3__16__treeINS_12__v
231:   FUNC GLOBAL DEFAULT 14 _ZN7android8hardware11con
232:   FUNC WEAK DEFAULT 14 _ZNSt3__16__treeINS_12__v
233:   FUNC GLOBAL DEFAULT 14 _ZThn32_N7android8hardwar
234:   FUNC GLOBAL DEFAULT 14 _ZN7android8hardware11con
235:   FUNC GLOBAL DEFAULT 14 _ZN7android8hardware11con
236:   FUNC GLOBAL DEFAULT 14 _ZN7android8hardware11con
237:   FUNC GLOBAL DEFAULT 14 _ZN7android8hardware11con
238:   FUNC GLOBAL DEFAULT 14 _ZN7android8hardware11con
239:   OBJECT GLOBAL DEFAULT 16 _ZN7android8hardware11con
240:   FUNC GLOBAL DEFAULT 14 _ZN7android8hardware11con
241:   FUNC GLOBAL DEFAULT 14 _ZN7android8hardware11con
242:   OBJECT WEAK DEFAULT 18 _ZTCN7android8hardware11c
243:   OBJECT GLOBAL DEFAULT 18 _ZTCN7android8hardware11c
244:   OBJECT GLOBAL DEFAULT 18 _ZTCN7android8hardware11c
245:   OBJECT GLOBAL DEFAULT 18 _ZTCN7android8hardware11c
246:   FUNC GLOBAL DEFAULT 14 _ZTv0_n24_N7android8hardw
247:   FUNC GLOBAL DEFAULT 14 _ZN7android8hardware11con
248:   FUNC GLOBAL DEFAULT 14 _ZN7android8hardware11con
249:   FUNC GLOBAL DEFAULT 14 _ZN7android8hardware11con
250:   OBJECT GLOBAL DEFAULT 18 _ZTVN7android8hardware11c
251:   FUNC GLOBAL DEFAULT 14 _ZN7android8hardware11con
252:   FUNC GLOBAL DEFAULT 14 _ZN7android8hardware11con
253:   FUNC GLOBAL DEFAULT 14 _ZN7android8hardware11con
254:   OBJECT GLOBAL DEFAULT 18 _ZTVN7android8hardware11c
255:   FUNC GLOBAL DEFAULT 14 _ZN7android8hardware11con
256:   FUNC GLOBAL DEFAULT 14 _ZN7android8hardware11con
257:   FUNC WEAK DEFAULT 14 _ZN7android8hardware7deta
258:   FUNC WEAK DEFAULT 14 _ZNSt3__16__treeINS_12__v
259:   OBJECT GLOBAL DEFAULT 18 _ZTTN7android8hardware11c
260:   FUNC GLOBAL DEFAULT 14 _ZTv0_n24_N7android8hardw
