Package name: com.android.internal.systemui.navbar.gestural
Module name in Android tree: NavigationBarModeGesturalOverlay
Local path in Android tree: frameworks/base/packages/overlays/NavigationBarModeGesturalOverlay
Install path on aosp_coral-userdebug: out/target/product/coral/product/overlay/NavigationBarModeGestural/NavigationBarModeGesturalOverlay.apk

appcompat.sh output:
NOTE: appcompat.sh is still under development. It can report
API uses that do not execute at runtime, and reflection uses
that do not exist. It can also miss on reflection uses.
0 hidden API(s) used: 0 linked against, 0 through reflection
       0 in greylist
       0 in blacklist
       0 in greylist-max-o
       0 in greylist-max-p
To run an analysis that can give more reflection accesses, 
but could include false positives, pass the --imprecise flag. 
