 0x000000000000000e (SONAME)             Library soname: [libprofile.so]
  
Symbol   contains 308 entries:
Num:   Type Bind Vis Ndx Name
0:   NOTYPE LOCAL DEFAULT UND
1:   FUNC GLOBAL DEFAULT UND __cxa_finalize@LIBC (2)
2:   FUNC GLOBAL DEFAULT UND PaletteTraceBegin@LIBARTPALETTE_1 (3)
3:   FUNC GLOBAL DEFAULT UND PaletteTraceEnd@LIBARTPALETTE_1 (3)
4:   FUNC GLOBAL DEFAULT UND _ZN3art10DupCloexecEi
5:   FUNC GLOBAL DEFAULT UND _ZN3art10LockedFile11Rele
6:   FUNC GLOBAL DEFAULT UND _ZN3art10LockedFile4OpenE
7:   FUNC GLOBAL DEFAULT UND _ZN3art10ZipArchive10Open
8:   FUNC GLOBAL DEFAULT UND _ZN3art10ZipArchiveD1Ev
9:   FUNC GLOBAL DEFAULT UND _ZN3art13DexFileLoader19G
10:   OBJECT GLOBAL DEFAULT UND _ZN3art13gLogVerbosityE
11:   FUNC GLOBAL DEFAULT UND _ZN3art14ArenaAllocator17
12:   FUNC GLOBAL DEFAULT UND _ZN3art14ArenaAllocatorC1
13:   FUNC GLOBAL DEFAULT UND _ZN3art14ArenaAllocatorD1
14:   FUNC GLOBAL DEFAULT UND _ZN3art15MallocArenaPoolC
15:   FUNC GLOBAL DEFAULT UND _ZN3art15MallocArenaPoolD
16:   FUNC GLOBAL DEFAULT UND _ZN3art2OS16GetFileSizeBy
17:   FUNC GLOBAL DEFAULT UND _ZN3art6MemMapC1EOS0_
18:   FUNC GLOBAL DEFAULT UND _ZN3art6MemMapD1Ev
19:   FUNC GLOBAL DEFAULT UND _ZN3art8NanoTimeEv
20:   FUNC GLOBAL DEFAULT UND _ZN3art8ZipEntry20MapDire
21:   FUNC GLOBAL DEFAULT UND _ZN3art8ZipEntry21GetUnco
22:   FUNC GLOBAL DEFAULT UND _ZN7android4base10LogMess
23:   FUNC GLOBAL DEFAULT UND _ZN7android4base10LogMess
24:   FUNC GLOBAL DEFAULT UND _ZN7android4base10LogMess
25:   FUNC GLOBAL DEFAULT UND _ZN7android4base21GetMini
26:   FUNC GLOBAL DEFAULT UND _ZN7android4base9ReadFull
27:   FUNC GLOBAL DEFAULT UND _ZN9unix_file6FdFile12Cle
28:   FUNC GLOBAL DEFAULT UND _ZNK3art10ZipArchive4Find
29:   FUNC GLOBAL DEFAULT UND _ZNK3art14ArenaAllocator1
30:   FUNC GLOBAL DEFAULT UND _ZNK3art7DexFile10PrettyT
31:   FUNC GLOBAL DEFAULT UND _ZNK3art7DexFile12PrettyM
32:   FUNC GLOBAL DEFAULT UND _ZNK3art8MemStats4DumpERN
33:   FUNC GLOBAL DEFAULT UND _ZNK9unix_file6FdFile2FdE
34:   FUNC GLOBAL DEFAULT UND _ZNKSt3__112basic_stringI
35:   FUNC GLOBAL DEFAULT UND _ZNKSt3__120__vector_base
36:   FUNC GLOBAL DEFAULT UND _ZNKSt3__121__basic_strin
37:   FUNC GLOBAL DEFAULT UND _ZNKSt3__16locale9use_fac
38:   FUNC GLOBAL DEFAULT UND _ZNKSt3__18ios_base6getlo
39:   FUNC GLOBAL DEFAULT UND _ZNSt3__112__next_primeEm
40:   FUNC GLOBAL DEFAULT UND _ZNSt3__112basic_stringIc
41:   FUNC GLOBAL DEFAULT UND _ZNSt3__112basic_stringIc
42:   FUNC GLOBAL DEFAULT UND _ZNSt3__112basic_stringIc
43:   FUNC GLOBAL DEFAULT UND _ZNSt3__112basic_stringIc
44:   FUNC GLOBAL DEFAULT UND _ZNSt3__112basic_stringIc
45:   FUNC GLOBAL DEFAULT UND _ZNSt3__112basic_stringIc
46:   FUNC GLOBAL DEFAULT UND _ZNSt3__112basic_stringIc
47:   FUNC GLOBAL DEFAULT UND _ZNSt3__112basic_stringIc
48:   FUNC GLOBAL DEFAULT UND _ZNSt3__112basic_stringIc
49:   FUNC GLOBAL DEFAULT UND _ZNSt3__112basic_stringIc
50:   FUNC GLOBAL DEFAULT UND _ZNSt3__113basic_ostreamI
51:   FUNC GLOBAL DEFAULT UND _ZNSt3__113basic_ostreamI
52:   FUNC GLOBAL DEFAULT UND _ZNSt3__113basic_ostreamI
53:   FUNC GLOBAL DEFAULT UND _ZNSt3__113basic_ostreamI
54:   FUNC GLOBAL DEFAULT UND _ZNSt3__113basic_ostreamI
55:   FUNC GLOBAL DEFAULT UND _ZNSt3__113basic_ostreamI
56:   FUNC GLOBAL DEFAULT UND _ZNSt3__113basic_ostreamI
57:   FUNC GLOBAL DEFAULT UND _ZNSt3__113basic_ostreamI
58:   FUNC GLOBAL DEFAULT UND _ZNSt3__113basic_ostreamI
59:   FUNC GLOBAL DEFAULT UND _ZNSt3__115basic_streambu
60:   FUNC GLOBAL DEFAULT UND _ZNSt3__115basic_streambu
61:   FUNC GLOBAL DEFAULT UND _ZNSt3__115basic_streambu
62:   FUNC GLOBAL DEFAULT UND _ZNSt3__115basic_streambu
63:   FUNC GLOBAL DEFAULT UND _ZNSt3__115basic_streambu
64:   FUNC GLOBAL DEFAULT UND _ZNSt3__115basic_streambu
65:   FUNC GLOBAL DEFAULT UND _ZNSt3__115basic_streambu
66:   FUNC GLOBAL DEFAULT UND _ZNSt3__115basic_streambu
67:   FUNC GLOBAL DEFAULT UND _ZNSt3__115basic_streambu
68:   OBJECT GLOBAL DEFAULT UND _ZNSt3__15ctypeIcE2idE
69:   FUNC GLOBAL DEFAULT UND _ZNSt3__16__sortIRNS_6__l
70:   FUNC GLOBAL DEFAULT UND _ZNSt3__16localeD1Ev
71:   FUNC GLOBAL DEFAULT UND _ZNSt3__18ios_base4initEP
72:   FUNC GLOBAL DEFAULT UND _ZNSt3__18ios_base5clearE
73:   FUNC GLOBAL DEFAULT UND _ZNSt3__19basic_iosIcNS_1
74:   FUNC GLOBAL DEFAULT UND _ZNSt3__19to_stringEi
75:   FUNC GLOBAL DEFAULT UND _ZNSt3__19to_stringEj
76:   FUNC GLOBAL DEFAULT UND _ZNSt3__19to_stringEm
77:   FUNC GLOBAL DEFAULT UND _ZNSt3__1plIcNS_11char_tr
78:   FUNC GLOBAL DEFAULT UND _ZTv0_n24_NSt3__113basic_
79:   FUNC GLOBAL DEFAULT UND _ZTv0_n24_NSt3__113basic_
80:   FUNC GLOBAL DEFAULT UND _ZdaPv
81:   FUNC GLOBAL DEFAULT UND _ZdlPv
82:   FUNC GLOBAL DEFAULT UND _Znam
83:   FUNC GLOBAL DEFAULT UND _Znwm
84:   FUNC GLOBAL DEFAULT UND __errno@LIBC (2)
85:   FUNC GLOBAL DEFAULT UND __read_chk@LIBC (2)
86:   FUNC GLOBAL DEFAULT UND __stack_chk_fail@LIBC (2)
87:   FUNC GLOBAL DEFAULT UND abort@LIBC (2)
88:   FUNC GLOBAL DEFAULT UND fstat@LIBC (2)
89:   FUNC GLOBAL DEFAULT UND lseek@LIBC (2)
90:   FUNC GLOBAL DEFAULT UND memcmp@LIBC (2)
91:   FUNC GLOBAL DEFAULT UND memcpy@LIBC (2)
92:   FUNC GLOBAL DEFAULT UND memmove@LIBC (2)
93:   FUNC GLOBAL DEFAULT UND memset@LIBC (2)
94:   FUNC GLOBAL DEFAULT UND rand@LIBC (2)
95:   FUNC GLOBAL DEFAULT UND read@LIBC (2)
96:   FUNC GLOBAL DEFAULT UND srand@LIBC (2)
97:   FUNC GLOBAL DEFAULT UND strerror@LIBC (2)
98:   FUNC GLOBAL DEFAULT UND strlen@LIBC (2)
99:   FUNC GLOBAL DEFAULT UND write@LIBC (2)
100:   FUNC GLOBAL DEFAULT UND free@LIBC (2)
101:   FUNC GLOBAL DEFAULT UND malloc@LIBC (2)
102:   FUNC GLOBAL PROTECTED 14 _ZN3art22ProfileCompilati
103:   FUNC GLOBAL PROTECTED 14 _ZN3art22ProfileCompilati
104:   OBJECT GLOBAL PROTECTED 11 _ZN3art22ProfileCompilati
105:   FUNC GLOBAL PROTECTED 14 _ZNK3art22ProfileCompilat
106:   FUNC GLOBAL DEFAULT 14 inflateMark
107:   FUNC GLOBAL DEFAULT 14 deflateResetKeep
108:   FUNC GLOBAL DEFAULT 14 deflateSetDictionary
109:   FUNC GLOBAL PROTECTED 14 _ZN3art22ProfileCompilati
110:   FUNC GLOBAL PROTECTED 14 _ZN3art22ProfileCompilati
111:   FUNC GLOBAL PROTECTED 14 _ZN3art22ProfileCompilati
112:   FUNC GLOBAL PROTECTED 14 _ZNK3art22ProfileCompilat
113:   FUNC GLOBAL DEFAULT 14 deflateParams
114:   FUNC GLOBAL DEFAULT 14 zlibCompileFlags
115:   FUNC GLOBAL DEFAULT 14 deflate
116:   FUNC WEAK PROTECTED 14 _ZNSt3__16__treeIN3art22P
117:   FUNC GLOBAL DEFAULT 14 inflateInit_
118:   FUNC GLOBAL PROTECTED 14 _ZN3art22ProfileCompilati
119:   FUNC GLOBAL PROTECTED 14 _ZNK3art22ProfileCompilat
120:   FUNC GLOBAL PROTECTED 14 _ZN3art22ProfileCompilati
121:   FUNC WEAK PROTECTED 14 _ZNSt3__112__hash_tableIN
122:   FUNC GLOBAL PROTECTED 14 _ZNK3art22ProfileCompilat
123:   FUNC GLOBAL DEFAULT 14 inflateEnd
124:   FUNC GLOBAL PROTECTED 14 _ZN3art22ProfileCompilati
125:   FUNC GLOBAL DEFAULT 14 deflateSetHeader
126:   FUNC GLOBAL DEFAULT 14 zlibVersion
127:   FUNC GLOBAL PROTECTED 14 _ZN3art22ProfileCompilati
128:   FUNC GLOBAL PROTECTED 14 _ZN3art22ProfileCompilati
129:   FUNC GLOBAL PROTECTED 14 _ZN3art22ProfileCompilati
130:   FUNC GLOBAL PROTECTED 14 _ZN3art22ProfileCompilati
131:   FUNC GLOBAL PROTECTED 14 _ZNK3art22ProfileCompilat
132:   OBJECT GLOBAL DEFAULT 11 inflate_copyright
133:   FUNC WEAK PROTECTED 14 _ZNSt3__16__treeIN3art23D
134:   FUNC GLOBAL DEFAULT 14 deflatePending
135:   FUNC GLOBAL PROTECTED 14 _ZN3art22ProfileCompilati
136:   FUNC GLOBAL PROTECTED 14 _ZN3art22ProfileCompilati
137:   FUNC GLOBAL PROTECTED 14 _ZNK3art22ProfileCompilat
138:   FUNC WEAK PROTECTED 14 _ZNSt3__16__treeIN3art23D
139:   FUNC WEAK PROTECTED 14 _ZNSt3__16__treeINS_12bas
140:   FUNC WEAK PROTECTED 14 _ZNSt3__16vectorIN3art22P
141:   FUNC GLOBAL PROTECTED 14 _ZN3art22ProfileCompilati
142:   FUNC GLOBAL DEFAULT 14 zcalloc
143:   FUNC GLOBAL PROTECTED 14 _ZN3art22ProfileCompilati
144:   FUNC GLOBAL PROTECTED 14 _ZN3art22ProfileCompilati
145:   FUNC WEAK PROTECTED 14 _ZNSt3__115basic_stringbu
146:   FUNC GLOBAL DEFAULT 14 _tr_align
147:   FUNC GLOBAL DEFAULT 14 inflate_table
148:   FUNC GLOBAL PROTECTED 14 _ZN3art22ProfileCompilati
149:   FUNC GLOBAL PROTECTED 14 _ZN3art22ProfileCompilati
150:   FUNC GLOBAL PROTECTED 14 _ZNK3art22ProfileCompilat
151:   FUNC GLOBAL DEFAULT 14 adler32_combine64
152:   FUNC GLOBAL DEFAULT 14 inflateGetDictionary
153:   FUNC GLOBAL PROTECTED 14 _ZN3art22ProfileCompilati
154:   OBJECT GLOBAL PROTECTED 11 _ZN3art22ProfileCompilati
155:   FUNC GLOBAL PROTECTED 14 _ZN3art22ProfileCompilati
156:   FUNC GLOBAL PROTECTED 14 _ZNK3art22ProfileCompilat
157:   FUNC GLOBAL PROTECTED 14 _ZNK3art22ProfileCompilat
158:   FUNC GLOBAL PROTECTED 14 _ZNK3art22ProfileCompilat
159:   FUNC GLOBAL DEFAULT 14 _tr_flush_block
160:   FUNC GLOBAL PROTECTED 14 _ZN3art22ProfileCompilati
161:   OBJECT WEAK DEFAULT 18 _ZTTNSt3__119basic_ostrin
162:   FUNC GLOBAL DEFAULT 14 crc32_combine
163:   FUNC GLOBAL PROTECTED 14 _ZN3art22ProfileCompilati
164:   FUNC GLOBAL PROTECTED 14 _ZN3art22ProfileCompilati
165:   FUNC WEAK PROTECTED 14 _ZNSt3__16__treeIN3art3de
166:   FUNC WEAK PROTECTED 14 _ZNSt3__16vectorItN3art21
167:   OBJECT WEAK DEFAULT 18 _ZTVNSt3__115basic_string
168:   FUNC GLOBAL DEFAULT 14 _tr_stored_block
169:   FUNC GLOBAL DEFAULT 14 _tr_tally
170:   FUNC WEAK PROTECTED 14 _ZNSt3__113__tree_removeI
171:   FUNC WEAK PROTECTED 14 _ZNSt3__16vectorIhN3art21
172:   FUNC GLOBAL DEFAULT 14 inflateSyncPoint
173:   FUNC GLOBAL PROTECTED 14 _ZN3art22ProfileCompilati
174:   FUNC GLOBAL PROTECTED 14 _ZNK3art22ProfileCompilat
175:   FUNC GLOBAL DEFAULT 14 deflateInit2_
176:   FUNC GLOBAL PROTECTED 14 _ZN3art22ProfileCompilati
177:   FUNC WEAK PROTECTED 14 _ZNSt3__112__hash_tableIN
178:   FUNC WEAK PROTECTED 14 _ZNSt3__124uniform_int_di
179:   FUNC GLOBAL DEFAULT 14 crc32_z
180:   FUNC GLOBAL PROTECTED 14 _ZN3art22ProfileCompilati
181:   FUNC GLOBAL DEFAULT 14 deflateCopy
182:   FUNC GLOBAL DEFAULT 14 inflateCopy
183:   FUNC GLOBAL DEFAULT 14 inflateReset2
184:   FUNC GLOBAL PROTECTED 14 _ZN3art22ProfileCompilati
185:   FUNC GLOBAL PROTECTED 14 _ZNK3art22ProfileCompilat
186:   FUNC GLOBAL DEFAULT 14 adler32_z
187:   FUNC GLOBAL PROTECTED 14 _ZN3art22ProfileCompilati
188:   FUNC GLOBAL PROTECTED 14 _ZN3art22ProfileCompilati
189:   FUNC GLOBAL PROTECTED 14 _ZN3art22ProfileCompilati
190:   FUNC GLOBAL PROTECTED 14 _ZN3art22ProfileCompilati
191:   FUNC GLOBAL PROTECTED 14 _ZN3art22ProfileCompilati
192:   FUNC GLOBAL PROTECTED 14 _ZNK3art22ProfileCompilat
193:   FUNC WEAK PROTECTED 14 _ZNSt3__112__hash_tableIN
194:   FUNC WEAK PROTECTED 14 _ZNSt3__16__treeINS_12__v
195:   FUNC GLOBAL DEFAULT 14 crc32
196:   FUNC GLOBAL DEFAULT 14 deflateReset
197:   FUNC WEAK PROTECTED 14 _ZNKSt3__16__treeINS_12__
198:   FUNC WEAK PROTECTED 14 _ZNSt3__115basic_stringbu
199:   FUNC WEAK PROTECTED 14 _ZNSt3__16vectorIN3art3de
200:   FUNC GLOBAL DEFAULT 14 inflateGetHeader
201:   FUNC GLOBAL PROTECTED 14 _ZN3art22ProfileCompilati
202:   FUNC GLOBAL PROTECTED 14 _ZN3art22ProfileCompilati
203:   FUNC WEAK PROTECTED 14 _ZNSt3__110__function6__f
204:   FUNC WEAK PROTECTED 14 _ZNSt3__16__treeIN3art3de
205:   FUNC GLOBAL DEFAULT 14 deflateBound
206:   FUNC GLOBAL DEFAULT 14 inflateUndermine
207:   FUNC GLOBAL PROTECTED 14 _ZN3art22ProfileCompilati
208:   OBJECT GLOBAL PROTECTED 11 _ZN3art22ProfileCompilati
209:   FUNC WEAK PROTECTED 14 _ZNSt3__112__hash_tableIN
210:   FUNC GLOBAL DEFAULT 14 deflatePrime
211:   FUNC GLOBAL DEFAULT 14 inflateResetKeep
212:   FUNC WEAK PROTECTED 14 _ZNKSt3__110__function6__
213:   FUNC GLOBAL PROTECTED 14 _ZN3art22ProfileCompilati
214:   FUNC GLOBAL PROTECTED 14 _ZN3art22ProfileCompilati
215:   FUNC WEAK PROTECTED 14 _ZNSt3__110__function6__f
216:   FUNC WEAK PROTECTED 14 _ZNSt3__16vectorIhNS_9all
217:   FUNC GLOBAL DEFAULT 14 inflateValidate
218:   FUNC GLOBAL PROTECTED 14 _ZN3art22ProfileCompilati
219:   FUNC GLOBAL PROTECTED 14 _ZNK3art22ProfileCompilat
220:   FUNC GLOBAL DEFAULT 14 inflateSync
221:   FUNC GLOBAL DEFAULT 14 inflate_fast
222:   FUNC GLOBAL PROTECTED 14 _ZN3art22ProfileCompilati
223:   FUNC GLOBAL PROTECTED 14 _ZN3art22ProfileCompilati
224:   FUNC WEAK PROTECTED 14 _ZNSt3__16__treeINS_12__v
225:   FUNC WEAK PROTECTED 14 _ZNSt3__16__treeINS_12__v
226:   FUNC WEAK PROTECTED 14 _ZNSt3__16__treeINS_12__v
227:   FUNC GLOBAL DEFAULT 14 inflate
228:   OBJECT GLOBAL DEFAULT 11 _length_code
229:   FUNC GLOBAL PROTECTED 14 _ZN3art22ProfileCompilati
230:   FUNC WEAK PROTECTED 14 _ZNSt3__16__treeIN3art22P
231:   FUNC WEAK PROTECTED 14 _ZNSt3__112__hash_tableIN
232:   FUNC GLOBAL DEFAULT 14 inflateReset
233:   FUNC GLOBAL DEFAULT 14 inflateSetDictionary
234:   FUNC GLOBAL PROTECTED 14 _ZN3art22ProfileCompilati
235:   FUNC GLOBAL PROTECTED 14 _ZN3art22ProfileCompilati
236:   FUNC GLOBAL PROTECTED 14 _ZNK3art22ProfileCompilat
237:   FUNC GLOBAL DEFAULT 14 get_crc_table
238:   FUNC GLOBAL DEFAULT 14 deflateGetDictionary
239:   FUNC GLOBAL PROTECTED 14 _ZN3art22ProfileCompilati
240:   FUNC WEAK PROTECTED 14 _ZNSt3__16vectorIN3art22P
241:   OBJECT GLOBAL DEFAULT 11 deflate_copyright
242:   FUNC GLOBAL DEFAULT 14 inflateCodesUsed
243:   FUNC GLOBAL PROTECTED 14 _ZN3art22ProfileCompilati
244:   FUNC GLOBAL PROTECTED 14 _ZN3art22ProfileCompilati
245:   FUNC GLOBAL PROTECTED 14 _ZN3art22ProfileCompilati
246:   FUNC GLOBAL PROTECTED 14 _ZNK3art22ProfileCompilat
247:   FUNC GLOBAL PROTECTED 14 _ZNK3art22ProfileCompilat
248:   FUNC WEAK PROTECTED 14 _ZNSt3__112__hash_tableIN
249:   OBJECT WEAK PROTECTED 18 _ZTVNSt3__110__function6_
250:   FUNC GLOBAL DEFAULT 14 inflatePrime
251:   FUNC GLOBAL PROTECTED 14 _ZN3art22ProfileCompilati
252:   FUNC GLOBAL PROTECTED 14 _ZN3art22ProfileCompilati
253:   FUNC GLOBAL PROTECTED 14 _ZN3art22ProfileCompilati
254:   FUNC GLOBAL PROTECTED 14 _ZNK3art22ProfileCompilat
255:   FUNC GLOBAL PROTECTED 14 _ZNK3art22ProfileCompilat
256:   FUNC WEAK PROTECTED 14 _ZNSt3__16__treeINS_12__v
257:   OBJECT GLOBAL PROTECTED 11 _ZN3art22ProfileCompilati
258:   FUNC GLOBAL PROTECTED 14 _ZNK3art22ProfileCompilat
259:   FUNC WEAK PROTECTED 14 _ZNSt3__16__treeINS_12__v
260:   FUNC WEAK PROTECTED 14 _ZNSt3__16vectorIhNS_9all
261:   FUNC GLOBAL PROTECTED 14 _ZN3art22ProfileCompilati
262:   FUNC GLOBAL PROTECTED 14 _ZN3art22ProfileCompilati
263:   FUNC WEAK PROTECTED 14 _ZNSt3__127__tree_balance
264:   FUNC GLOBAL DEFAULT 14 zError
265:   FUNC GLOBAL PROTECTED 14 _ZN3art22ProfileCompilati
266:   FUNC GLOBAL PROTECTED 14 _ZNK3art22ProfileCompilat
267:   FUNC GLOBAL PROTECTED 14 _ZNK3art22ProfileCompilat
268:   FUNC WEAK PROTECTED 14 _ZNKSt3__110__function6__
269:   FUNC GLOBAL DEFAULT 14 inflateInit2_
270:   FUNC GLOBAL PROTECTED 14 _ZNK3art22ProfileCompilat
271:   FUNC WEAK PROTECTED 14 _ZNSt3__16__treeINS_12__v
272:   FUNC WEAK PROTECTED 14 _ZNSt3__16__treeINS_12__v
273:   FUNC GLOBAL PROTECTED 14 _ZN3art22ProfileCompilati
274:   FUNC GLOBAL PROTECTED 14 _ZN3art22ProfileCompilati
275:   FUNC WEAK PROTECTED 14 _ZNSt3__115basic_stringbu
276:   OBJECT WEAK DEFAULT 18 _ZTVNSt3__119basic_ostrin
277:   FUNC GLOBAL DEFAULT 14 adler32_combine
278:   FUNC GLOBAL PROTECTED 14 _ZN3art22ProfileCompilati
279:   FUNC GLOBAL PROTECTED 14 _ZNK3art22ProfileCompilat
280:   FUNC WEAK PROTECTED 14 _ZNSt3__110__function6__f
281:   FUNC WEAK PROTECTED 14 _ZNSt3__16__treeIN3art22P
282:   FUNC GLOBAL PROTECTED 14 _ZNK3art22ProfileCompilat
283:   FUNC WEAK PROTECTED 14 _ZNKSt3__115basic_stringb
284:   FUNC GLOBAL DEFAULT 14 deflateTune
285:   OBJECT GLOBAL DEFAULT 18 z_errmsg
286:   FUNC GLOBAL DEFAULT 14 zcfree
287:   FUNC GLOBAL PROTECTED 14 _ZN3art22ProfileCompilati
288:   OBJECT WEAK DEFAULT 18 _ZTCNSt3__119basic_ostrin
289:   FUNC GLOBAL DEFAULT 14 deflateInit_
290:   FUNC GLOBAL DEFAULT 14 adler32
291:   FUNC GLOBAL DEFAULT 14 _tr_flush_bits
292:   FUNC GLOBAL PROTECTED 14 _ZN3art22ProfileCompilati
293:   FUNC WEAK PROTECTED 14 _ZNSt3__16__treeINS_12__v
294:   FUNC GLOBAL DEFAULT 14 deflateEnd
295:   OBJECT GLOBAL DEFAULT 11 _dist_code
296:   FUNC GLOBAL PROTECTED 14 _ZN3art22ProfileCompilati
297:   FUNC GLOBAL PROTECTED 14 _ZN3art22ProfileCompilati
298:   FUNC WEAK PROTECTED 14 _ZNSt3__115basic_stringbu
299:   FUNC WEAK PROTECTED 14 _ZNSt3__124__put_characte
300:   FUNC WEAK PROTECTED 14 _ZNSt3__16__treeINS_12__v
301:   FUNC GLOBAL DEFAULT 14 crc32_combine64
302:   FUNC GLOBAL PROTECTED 14 _ZN3art22ProfileCompilati
303:   FUNC WEAK PROTECTED 14 _ZNSt3__16__treeIN3art23D
304:   FUNC GLOBAL DEFAULT 14 _tr_init
305:   FUNC WEAK PROTECTED 14 _ZNSt3__112__hash_tableIN
306:   FUNC WEAK PROTECTED 14 _ZNSt3__16__treeINS_12__v
307:   FUNC WEAK PROTECTED 14 _ZNSt3__16__treeINS_12__v
