 0x000000000000000e (SONAME)             Library soname: [libstagefright_bufferpool@2.0.1.so]
  
Symbol   contains 334 entries:
Num:   Type Bind Vis Ndx Name
0:   NOTYPE LOCAL DEFAULT UND
1:   FUNC GLOBAL DEFAULT UND __cxa_finalize@LIBC (2)
2:   FUNC GLOBAL DEFAULT UND __cxa_atexit@LIBC (2)
3:   FUNC GLOBAL DEFAULT UND __cfi_slowpath@LIBC_OMR1 (3)
4:   FUNC GLOBAL DEFAULT UND __android_log_print@LIBLOG (4)
5:   FUNC GLOBAL DEFAULT UND _Znwm
6:   FUNC GLOBAL DEFAULT UND _ZN7android7RefBaseC2Ev
7:   FUNC GLOBAL DEFAULT UND _ZN7android7RefBaseD2Ev
8:   FUNC GLOBAL DEFAULT UND _ZdlPv
9:   FUNC GLOBAL DEFAULT UND __cxa_pure_virtual
10:   FUNC GLOBAL DEFAULT UND _ZN7android7RefBase10onFi
11:   FUNC GLOBAL DEFAULT UND _ZN7android7RefBase15onLa
12:   FUNC GLOBAL DEFAULT UND _ZN7android7RefBase20onIn
13:   FUNC GLOBAL DEFAULT UND _ZN7android7RefBase13onLa
14:   FUNC GLOBAL DEFAULT UND _ZN7android8hardware5medi
15:   FUNC GLOBAL DEFAULT UND _ZN7android8hardware5medi
16:   FUNC GLOBAL DEFAULT UND _ZN7android8hardware5medi
17:   FUNC GLOBAL DEFAULT UND _ZN7android8hardware5medi
18:   FUNC GLOBAL DEFAULT UND _ZN7android8hardware5medi
19:   FUNC GLOBAL DEFAULT UND _ZN7android8hardware5medi
20:   FUNC GLOBAL DEFAULT UND _ZN7android8hardware5medi
21:   FUNC GLOBAL DEFAULT UND _ZN7android8hardware5medi
22:   FUNC GLOBAL DEFAULT UND _ZN7android8hardware5medi
23:   FUNC GLOBAL DEFAULT UND _ZN7android8hardware5medi
24:   FUNC GLOBAL DEFAULT UND _ZN7android4hidl4base4V1_
25:   FUNC GLOBAL DEFAULT UND _ZN7android4hidl4base4V1_
26:   FUNC GLOBAL DEFAULT UND _ZN7android4hidl4base4V1_
27:   FUNC GLOBAL DEFAULT UND _ZN7android4hidl4base4V1_
28:   FUNC GLOBAL DEFAULT UND _ZN7android4hidl4base4V1_
29:   FUNC GLOBAL DEFAULT UND _ZN7android4hidl4base4V1_
30:   FUNC GLOBAL DEFAULT UND _ZN7android4hidl4base4V1_
31:   FUNC GLOBAL DEFAULT UND _ZN7android4hidl4base4V1_
32:   FUNC GLOBAL DEFAULT UND _ZN7android4hidl4base4V1_
33:   FUNC GLOBAL DEFAULT UND _ZN7android4hidl4base4V1_
34:   FUNC GLOBAL DEFAULT UND _ZNK7android7RefBase9incS
35:   FUNC GLOBAL DEFAULT UND _ZN7android7RefBase12weak
36:   FUNC GLOBAL DEFAULT UND _ZN7android7RefBase12weak
37:   FUNC GLOBAL DEFAULT UND _ZNSt3__15mutexD1Ev
38:   FUNC GLOBAL DEFAULT UND _ZNK7android7RefBase9decS
39:   FUNC GLOBAL DEFAULT UND _ZNSt3__15mutex4lockEv
40:   FUNC GLOBAL DEFAULT UND _ZNSt3__15mutex6unlockEv
41:   FUNC GLOBAL DEFAULT UND abort@LIBC (2)
42:   FUNC GLOBAL DEFAULT UND _ZNK7android7RefBase10cre
43:   FUNC GLOBAL DEFAULT UND _ZN7android7RefBase12weak
44:   FUNC GLOBAL DEFAULT UND _ZN7android14sp_report_ra
45:   FUNC GLOBAL DEFAULT UND _ZN7android8hardware7deta
46:   FUNC GLOBAL DEFAULT UND _Znam
47:   FUNC GLOBAL DEFAULT UND _ZdaPv
48:   FUNC GLOBAL DEFAULT UND native_handle_close
49:   FUNC GLOBAL DEFAULT UND native_handle_delete
50:   FUNC GLOBAL DEFAULT UND _ZNSt3__119__shared_weak_
51:   FUNC GLOBAL DEFAULT UND _ZNKSt3__119__shared_weak
52:   FUNC GLOBAL DEFAULT UND _ZNSt3__119__shared_weak_
53:   FUNC GLOBAL DEFAULT UND getpid@LIBC (2)
54:   FUNC GLOBAL DEFAULT UND time@LIBC (2)
55:   FUNC GLOBAL DEFAULT UND _ZN7android8hardware7deta
56:   FUNC GLOBAL DEFAULT UND _ZNSt3__118condition_vari
57:   FUNC GLOBAL DEFAULT UND usleep@LIBC (2)
58:   FUNC GLOBAL DEFAULT UND _ZNSt3__16thread6detachEv
59:   FUNC GLOBAL DEFAULT UND _ZNSt3__16threadD1Ev
60:   FUNC GLOBAL DEFAULT UND _ZNSt3__118condition_vari
61:   FUNC GLOBAL DEFAULT UND _ZN7android8hardware9Even
62:   FUNC GLOBAL DEFAULT UND munmap@LIBC (2)
63:   FUNC GLOBAL DEFAULT UND _ZNSt3__120__throw_system
64:   FUNC GLOBAL DEFAULT UND _ZNSt3__119__shared_weak_
65:   FUNC GLOBAL DEFAULT UND _ZNKSt3__120__vector_base
66:   FUNC GLOBAL DEFAULT UND _ZNSt3__115__thread_struc
67:   FUNC GLOBAL DEFAULT UND pthread_create@LIBC (2)
68:   FUNC GLOBAL DEFAULT UND _ZNSt3__119__thread_local
69:   FUNC GLOBAL DEFAULT UND pthread_setspecific@LIBC (2)
70:   FUNC GLOBAL DEFAULT UND _ZNSt3__115__thread_struc
71:   FUNC GLOBAL DEFAULT UND _ZNSt3__118condition_vari
72:   FUNC GLOBAL DEFAULT UND _ZNSt3__118condition_vari
73:   FUNC GLOBAL DEFAULT UND _ZNSt3__15mutex8try_lockE
74:   FUNC GLOBAL DEFAULT UND native_handle_clone
75:   FUNC GLOBAL DEFAULT UND sched_yield@LIBC (2)
76:   FUNC GLOBAL DEFAULT UND _ZN7android8hardware11hid
77:   FUNC GLOBAL DEFAULT UND _ZN7android8hardware11hid
78:   FUNC GLOBAL DEFAULT UND _ZNK7android8hardware11hi
79:   FUNC GLOBAL DEFAULT UND clock_gettime@LIBC (2)
80:   FUNC GLOBAL DEFAULT UND ashmem_create_region
81:   FUNC GLOBAL DEFAULT UND ashmem_set_prot_region
82:   FUNC GLOBAL DEFAULT UND native_handle_create
83:   FUNC GLOBAL DEFAULT UND _ZnwmRKSt9nothrow_t
84:   FUNC GLOBAL DEFAULT UND _ZN7android8hardware7deta
85:   FUNC GLOBAL DEFAULT UND _ZN7android8hardware9Even
86:   FUNC GLOBAL DEFAULT UND mmap@LIBC (2)
87:   FUNC GLOBAL DEFAULT UND dup@LIBC (2)
88:   OBJECT GLOBAL DEFAULT UND _ZSt7nothrow
89:   FUNC GLOBAL DEFAULT UND _ZN7android8hardware15int
90:   FUNC GLOBAL DEFAULT UND _ZN7android8hardware5medi
91:   FUNC GLOBAL DEFAULT UND _ZN7android8hardware5medi
92:   FUNC GLOBAL DEFAULT UND _ZN7android8hardware5medi
93:   FUNC GLOBAL DEFAULT UND _ZN7android8hardware5medi
94:   FUNC GLOBAL DEFAULT UND _ZN7android8hardware5medi
95:   FUNC GLOBAL DEFAULT UND _ZN7android8hardware5medi
96:   FUNC GLOBAL DEFAULT UND _ZN7android8hardware5medi
97:   FUNC GLOBAL DEFAULT UND _ZN7android8hardware5medi
98:   FUNC GLOBAL DEFAULT UND _ZN7android8hardware5medi
99:   FUNC GLOBAL DEFAULT UND _ZN7android8hardware5medi
100:   FUNC GLOBAL DEFAULT UND _ZNSt3__16chrono12steady_
101:   FUNC GLOBAL DEFAULT UND _ZNSt3__16chrono12system_
102:   FUNC GLOBAL DEFAULT UND _ZNSt3__118condition_vari
103:   FUNC GLOBAL DEFAULT UND _ZN7android8hardware11hid
104:   FUNC GLOBAL DEFAULT UND _ZN7android8hardware11hid
105:   FUNC GLOBAL DEFAULT UND _ZN7android8hardware5medi
106:   FUNC GLOBAL DEFAULT UND _ZN7android8hardware5medi
107:   FUNC GLOBAL DEFAULT UND _ZN7android8hardware5medi
108:   FUNC GLOBAL DEFAULT UND _ZN7android8hardware5medi
109:   FUNC GLOBAL DEFAULT UND _ZN7android8hardware5medi
110:   FUNC GLOBAL DEFAULT UND _ZN7android8hardware5medi
111:   FUNC GLOBAL DEFAULT UND _ZN7android8hardware5medi
112:   FUNC GLOBAL DEFAULT UND _ZN7android8hardware5medi
113:   FUNC GLOBAL DEFAULT UND _ZN7android8hardware5medi
114:   FUNC GLOBAL DEFAULT UND _ZN7android8hardware5medi
115:   FUNC GLOBAL DEFAULT UND _ZN7android8hardware5medi
116:   FUNC GLOBAL DEFAULT UND _ZN7android8hardware5medi
117:   FUNC GLOBAL DEFAULT UND _ZN7android8hardware5medi
118:   FUNC GLOBAL DEFAULT UND _ZN7android8hardware5medi
119:   FUNC GLOBAL DEFAULT UND _ZN7android8hardware5medi
120:   FUNC GLOBAL DEFAULT UND _ZN7android8hardware5medi
121:   FUNC GLOBAL DEFAULT UND _ZN7android8hardware5medi
122:   FUNC GLOBAL DEFAULT UND _ZN7android8hardware5medi
123:   FUNC GLOBAL DEFAULT UND _ZN7android8hardware5medi
124:   FUNC GLOBAL DEFAULT UND _ZN7android8hardware5medi
125:   FUNC GLOBAL DEFAULT UND __lttf2
126:   FUNC GLOBAL DEFAULT UND __floatditf
127:   FUNC GLOBAL DEFAULT UND __multf3
128:   FUNC GLOBAL DEFAULT UND memset@LIBC (2)
129:   FUNC GLOBAL DEFAULT UND memcpy@LIBC (2)
130:   FUNC GLOBAL DEFAULT UND __stack_chk_fail@LIBC (2)
131:   OBJECT GLOBAL DEFAULT 19 _ZTTN7android8hardware5me
132:   FUNC GLOBAL DEFAULT 14 _ZN7android8hardware5medi
133:   FUNC GLOBAL DEFAULT 14 _ZN7android8hardware5medi
134:   FUNC GLOBAL DEFAULT 14 _ZN7android8hardware5medi
135:   FUNC GLOBAL DEFAULT 14 _ZN7android8hardware5medi
136:   FUNC GLOBAL DEFAULT 14 _ZN7android8hardware5medi
137:   FUNC GLOBAL DEFAULT 14 _ZN7android8hardware5medi
138:   OBJECT GLOBAL DEFAULT 19 _ZTCN7android8hardware5me
139:   FUNC WEAK DEFAULT 14 _ZNSt3__127__tree_balance
140:   FUNC GLOBAL DEFAULT 14 _ZN7android8hardware5medi
141:   FUNC GLOBAL DEFAULT 14 _ZN7android8hardware5medi
142:   FUNC GLOBAL DEFAULT 14 _ZN7android8hardware5medi
143:   FUNC GLOBAL DEFAULT 14 _ZN7android8hardware5medi
144:   OBJECT GLOBAL DEFAULT 23 _ZN7android8hardware5medi
145:   OBJECT GLOBAL DEFAULT 23 _ZN7android8hardware5medi
146:   FUNC GLOBAL DEFAULT 14 _ZN7android8hardware5medi
147:   OBJECT GLOBAL DEFAULT 19 _ZTCN7android8hardware5me
148:   FUNC GLOBAL DEFAULT 14 _ZN7android8hardware5medi
149:   FUNC GLOBAL DEFAULT 14 _ZN7android8hardware5medi
150:   FUNC GLOBAL DEFAULT 14 _ZN7android8hardware5medi
151:   FUNC GLOBAL DEFAULT 14 _ZN7android8hardware5medi
152:   FUNC GLOBAL DEFAULT 14 _ZTv0_n24_N7android8hardw
153:   FUNC GLOBAL DEFAULT 14 _ZN7android8hardware5medi
154:   FUNC GLOBAL DEFAULT 14 _ZN7android8hardware5medi
155:   FUNC GLOBAL DEFAULT 14 _ZN7android8hardware5medi
156:   FUNC GLOBAL DEFAULT 14 _ZN7android8hardware5medi
157:   FUNC GLOBAL DEFAULT 14 _ZN7android8hardware5medi
158:   FUNC GLOBAL DEFAULT 14 _ZN7android8hardware5medi
159:   FUNC GLOBAL DEFAULT 14 _ZN7android8hardware5medi
160:   FUNC GLOBAL DEFAULT 14 _ZN7android8hardware5medi
161:   FUNC GLOBAL DEFAULT 14 _ZN7android8hardware5medi
162:   FUNC GLOBAL DEFAULT 14 _ZN7android8hardware5medi
163:   FUNC GLOBAL DEFAULT 14 _ZN7android8hardware5medi
164:   FUNC GLOBAL DEFAULT 14 _ZN7android8hardware5medi
165:   FUNC GLOBAL DEFAULT 14 _ZN7android8hardware5medi
166:   FUNC GLOBAL DEFAULT 14 _ZN7android8hardware5medi
167:   FUNC GLOBAL DEFAULT 14 _ZN7android8hardware5medi
168:   FUNC GLOBAL DEFAULT 14 _ZN7android8hardware5medi
169:   FUNC GLOBAL DEFAULT 14 _ZN7android8hardware5medi
170:   FUNC GLOBAL DEFAULT 14 _ZN7android8hardware5medi
171:   FUNC GLOBAL DEFAULT 14 _ZN7android8hardware5medi
172:   FUNC GLOBAL DEFAULT 14 _ZN7android8hardware5medi
173:   OBJECT GLOBAL DEFAULT 19 _ZTVN7android8hardware5me
174:   FUNC GLOBAL DEFAULT 14 _ZN7android8hardware5medi
175:   FUNC GLOBAL DEFAULT 14 _ZN7android8hardware5medi
176:   FUNC GLOBAL DEFAULT 14 _ZTv0_n24_N7android8hardw
177:   FUNC GLOBAL DEFAULT 14 _ZN7android8hardware5medi
178:   FUNC GLOBAL DEFAULT 14 _ZN7android8hardware5medi
179:   FUNC WEAK DEFAULT 14 _ZNSt3__113__tree_removeI
180:   FUNC GLOBAL DEFAULT 14 __cfi_check
181:   OBJECT GLOBAL DEFAULT 19 _ZTTN7android8hardware5me
182:   FUNC GLOBAL DEFAULT 14 _ZN7android8hardware5medi
183:   FUNC GLOBAL DEFAULT 14 _ZN7android8hardware5medi
184:   FUNC GLOBAL DEFAULT 14 _ZN7android8hardware5medi
185:   FUNC GLOBAL DEFAULT 14 _ZTv0_n24_N7android8hardw
186:   FUNC GLOBAL DEFAULT 14 _ZN7android8hardware5medi
187:   FUNC GLOBAL DEFAULT 14 _ZN7android8hardware5medi
188:   FUNC WEAK DEFAULT 14 _ZNSt3__114__thread_proxy
189:   FUNC GLOBAL DEFAULT 14 _ZN7android8hardware5medi
190:   FUNC GLOBAL DEFAULT 14 _ZN7android8hardware5medi
191:   FUNC GLOBAL DEFAULT 14 _ZN7android8hardware5medi
192:   OBJECT GLOBAL DEFAULT 19 _ZTCN7android8hardware5me
193:   OBJECT GLOBAL DEFAULT 19 _ZTVN7android8hardware5me
194:   FUNC GLOBAL DEFAULT 14 _ZN7android8hardware5medi
195:   FUNC GLOBAL DEFAULT 14 _ZN7android8hardware5medi
196:   FUNC GLOBAL DEFAULT 14 _ZN7android8hardware5medi
197:   FUNC GLOBAL DEFAULT 14 _ZN7android8hardware5medi
198:   FUNC GLOBAL DEFAULT 14 _ZN7android8hardware5medi
199:   FUNC GLOBAL DEFAULT 14 _ZN7android8hardware5medi
200:   FUNC GLOBAL DEFAULT 14 _ZTv0_n24_N7android8hardw
201:   FUNC GLOBAL DEFAULT 14 _ZN7android8hardware5medi
202:   FUNC GLOBAL DEFAULT 14 _ZN7android8hardware5medi
203:   FUNC GLOBAL DEFAULT 14 _ZN7android8hardware5medi
204:   OBJECT GLOBAL DEFAULT 23 _ZN7android8hardware5medi
205:   FUNC GLOBAL DEFAULT 14 _ZN7android8hardware5medi
206:   FUNC GLOBAL DEFAULT 14 _ZN7android8hardware5medi
207:   FUNC GLOBAL DEFAULT 14 _ZN7android8hardware5medi
208:   FUNC GLOBAL DEFAULT 14 _ZN7android8hardware5medi
209:   FUNC GLOBAL DEFAULT 14 _ZN7android8hardware5medi
210:   FUNC GLOBAL DEFAULT 14 _ZN7android8hardware5medi
211:   FUNC GLOBAL DEFAULT 14 _ZN7android8hardware5medi
212:   FUNC GLOBAL DEFAULT 14 _ZN7android8hardware5medi
213:   FUNC GLOBAL DEFAULT 14 _ZN7android8hardware5medi
214:   FUNC GLOBAL DEFAULT 14 _ZN7android8hardware5medi
215:   FUNC GLOBAL DEFAULT 14 _ZN7android8hardware5medi
216:   FUNC GLOBAL DEFAULT 14 _ZN7android8hardware5medi
217:   FUNC GLOBAL DEFAULT 14 _ZTv0_n24_N7android8hardw
218:   FUNC GLOBAL DEFAULT 14 _ZTv0_n24_N7android8hardw
219:   FUNC GLOBAL DEFAULT 14 _ZN7android8hardware5medi
220:   FUNC GLOBAL DEFAULT 14 _ZN7android8hardware5medi
221:   FUNC GLOBAL DEFAULT 14 _ZN7android8hardware5medi
222:   FUNC GLOBAL DEFAULT 14 _ZN7android8hardware5medi
223:   FUNC GLOBAL DEFAULT 14 _ZN7android8hardware5medi
224:   FUNC GLOBAL DEFAULT 14 _ZN7android8hardware5medi
225:   FUNC GLOBAL DEFAULT 14 _ZN7android8hardware5medi
226:   FUNC GLOBAL DEFAULT 14 _ZN7android8hardware5medi
227:   FUNC GLOBAL DEFAULT 14 _ZN7android8hardware5medi
228:   FUNC GLOBAL DEFAULT 14 _ZN7android8hardware5medi
229:   OBJECT GLOBAL DEFAULT 19 _ZTTN7android8hardware5me
230:   FUNC GLOBAL DEFAULT 14 _ZTv0_n24_N7android8hardw
231:   FUNC GLOBAL DEFAULT 14 _ZN7android8hardware5medi
232:   FUNC GLOBAL DEFAULT 14 _ZN7android8hardware5medi
233:   FUNC GLOBAL DEFAULT 14 _ZN7android8hardware5medi
234:   FUNC GLOBAL DEFAULT 14 _ZN7android8hardware5medi
235:   FUNC GLOBAL DEFAULT 14 _ZN7android8hardware5medi
236:   FUNC GLOBAL DEFAULT 14 _ZN7android8hardware5medi
237:   FUNC GLOBAL DEFAULT 14 _ZN7android8hardware5medi
238:   FUNC GLOBAL DEFAULT 14 _ZN7android8hardware5medi
239:   FUNC GLOBAL DEFAULT 14 _ZN7android8hardware5medi
240:   FUNC GLOBAL DEFAULT 14 _ZN7android8hardware5medi
241:   FUNC GLOBAL DEFAULT 14 _ZN7android8hardware5medi
242:   FUNC GLOBAL DEFAULT 14 _ZN7android8hardware5medi
243:   FUNC GLOBAL DEFAULT 14 _ZN7android8hardware5medi
244:   FUNC GLOBAL DEFAULT 14 _ZN7android8hardware5medi
245:   FUNC GLOBAL DEFAULT 14 _ZN7android8hardware5medi
246:   FUNC GLOBAL DEFAULT 14 _ZN7android8hardware5medi
247:   FUNC GLOBAL DEFAULT 14 _ZN7android8hardware5medi
248:   FUNC GLOBAL DEFAULT 14 _ZN7android8hardware5medi
249:   FUNC GLOBAL DEFAULT 14 _ZN7android8hardware5medi
250:   OBJECT GLOBAL DEFAULT 23 _ZN7android8hardware5medi
251:   OBJECT GLOBAL DEFAULT 19 _ZTCN7android8hardware5me
252:   FUNC GLOBAL DEFAULT 14 _ZN7android8hardware5medi
253:   OBJECT GLOBAL DEFAULT 19 _ZTVN7android8hardware5me
254:   OBJECT GLOBAL DEFAULT 19 _ZTCN7android8hardware5me
255:   FUNC GLOBAL DEFAULT 14 _ZTv0_n24_N7android8hardw
256:   FUNC GLOBAL DEFAULT 14 _ZN7android8hardware5medi
257:   FUNC GLOBAL DEFAULT 14 _ZN7android8hardware5medi
258:   OBJECT GLOBAL DEFAULT 19 _ZTCN7android8hardware5me
259:   FUNC GLOBAL DEFAULT 14 _ZN7android8hardware5medi
260:   FUNC GLOBAL DEFAULT 14 _ZN7android8hardware5medi
261:   FUNC GLOBAL DEFAULT 14 _ZN7android8hardware5medi
262:   OBJECT GLOBAL DEFAULT 19 _ZTVN7android8hardware5me
263:   OBJECT GLOBAL DEFAULT 19 _ZTTN7android8hardware5me
264:   FUNC GLOBAL DEFAULT 14 _ZN7android8hardware5medi
265:   FUNC GLOBAL DEFAULT 14 _ZN7android8hardware5medi
266:   FUNC GLOBAL DEFAULT 14 _ZN7android8hardware5medi
267:   FUNC GLOBAL DEFAULT 14 _ZN7android8hardware5medi
268:   FUNC GLOBAL DEFAULT 14 _ZN7android8hardware5medi
269:   FUNC GLOBAL DEFAULT 14 _ZN7android8hardware5medi
270:   FUNC GLOBAL DEFAULT 14 _ZN7android8hardware5medi
271:   FUNC GLOBAL DEFAULT 14 _ZN7android8hardware5medi
272:   FUNC GLOBAL DEFAULT 14 _ZN7android8hardware5medi
273:   FUNC GLOBAL DEFAULT 14 _ZN7android8hardware5medi
274:   OBJECT GLOBAL DEFAULT 19 _ZTCN7android8hardware5me
275:   FUNC GLOBAL DEFAULT 14 _ZN7android8hardware5medi
276:   FUNC GLOBAL DEFAULT 14 _ZN7android8hardware5medi
277:   FUNC GLOBAL DEFAULT 14 _ZN7android8hardware5medi
278:   FUNC GLOBAL DEFAULT 14 _ZN7android8hardware5medi
279:   FUNC GLOBAL DEFAULT 14 _ZN7android8hardware5medi
280:   FUNC GLOBAL DEFAULT 14 _ZN7android8hardware5medi
281:   FUNC GLOBAL DEFAULT 14 _ZN7android8hardware5medi
282:   FUNC GLOBAL DEFAULT 14 _ZN7android8hardware5medi
283:   FUNC GLOBAL DEFAULT 14 _ZN7android8hardware5medi
284:   FUNC GLOBAL DEFAULT 14 _ZN7android8hardware5medi
285:   FUNC GLOBAL DEFAULT 14 _ZN7android8hardware5medi
286:   FUNC GLOBAL DEFAULT 14 _ZN7android8hardware5medi
287:   FUNC GLOBAL DEFAULT 14 _ZN7android8hardware5medi
288:   OBJECT GLOBAL DEFAULT 23 _ZN7android8hardware5medi
289:   FUNC GLOBAL DEFAULT 14 _ZN7android8hardware5medi
290:   FUNC GLOBAL DEFAULT 14 _ZN7android8hardware5medi
291:   FUNC GLOBAL DEFAULT 14 _ZN7android8hardware5medi
292:   FUNC GLOBAL DEFAULT 14 _ZN7android8hardware5medi
293:   FUNC GLOBAL DEFAULT 14 _ZN7android8hardware5medi
294:   OBJECT GLOBAL DEFAULT 19 _ZTCN7android8hardware5me
295:   FUNC GLOBAL DEFAULT 14 _ZN7android8hardware5medi
296:   FUNC WEAK DEFAULT 14 _ZNSt3__16__treeIiNS_4les
297:   FUNC GLOBAL DEFAULT 14 _ZN7android8hardware5medi
298:   FUNC GLOBAL DEFAULT 14 _ZN7android8hardware5medi
299:   FUNC GLOBAL DEFAULT 14 _ZN7android8hardware5medi
300:   FUNC GLOBAL DEFAULT 14 _ZN7android8hardware5medi
301:   FUNC GLOBAL DEFAULT 14 _ZN7android8hardware5medi
302:   FUNC GLOBAL DEFAULT 14 _ZN7android8hardware5medi
303:   OBJECT GLOBAL DEFAULT 23 _ZN7android8hardware5medi
304:   FUNC GLOBAL DEFAULT 14 _ZN7android8hardware5medi
305:   FUNC GLOBAL DEFAULT 14 _ZN7android8hardware5medi
306:   FUNC GLOBAL DEFAULT 14 _ZN7android8hardware5medi
307:   OBJECT GLOBAL DEFAULT 19 _ZTCN7android8hardware5me
308:   FUNC GLOBAL DEFAULT 14 _ZN7android8hardware5medi
309:   FUNC GLOBAL DEFAULT 14 _ZN7android8hardware5medi
310:   FUNC GLOBAL DEFAULT 14 _ZN7android8hardware5medi
311:   FUNC GLOBAL DEFAULT 14 _ZN7android8hardware5medi
312:   FUNC GLOBAL DEFAULT 14 _ZN7android8hardware5medi
313:   FUNC GLOBAL DEFAULT 14 _ZN7android8hardware5medi
314:   OBJECT GLOBAL DEFAULT 19 _ZTVN7android8hardware5me
315:   FUNC GLOBAL DEFAULT 14 _ZN7android8hardware5medi
316:   FUNC GLOBAL DEFAULT 14 _ZN7android8hardware5medi
317:   OBJECT GLOBAL DEFAULT 19 _ZTTN7android8hardware5me
318:   FUNC GLOBAL DEFAULT 14 _ZN7android8hardware5medi
319:   FUNC GLOBAL DEFAULT 14 _ZN7android8hardware5medi
320:   FUNC GLOBAL DEFAULT 14 _ZN7android8hardware5medi
321:   FUNC GLOBAL DEFAULT 14 _ZN7android8hardware5medi
322:   FUNC GLOBAL DEFAULT 14 _ZN7android8hardware5medi
323:   FUNC GLOBAL DEFAULT 14 _ZN7android8hardware5medi
324:   FUNC GLOBAL DEFAULT 14 _ZN7android8hardware5medi
325:   FUNC GLOBAL DEFAULT 14 _ZN7android8hardware5medi
326:   FUNC GLOBAL DEFAULT 14 _ZN7android8hardware5medi
327:   FUNC GLOBAL DEFAULT 14 _ZN7android8hardware5medi
328:   FUNC GLOBAL DEFAULT 14 _ZN7android8hardware5medi
329:   FUNC GLOBAL DEFAULT 14 _ZN7android8hardware5medi
330:   FUNC GLOBAL DEFAULT 14 _ZN7android8hardware5medi
331:   FUNC GLOBAL DEFAULT 14 _ZN7android8hardware5medi
332:   FUNC GLOBAL DEFAULT 14 _ZN7android8hardware5medi
333:   FUNC GLOBAL DEFAULT 14 _ZN7android8hardware5medi
