 0x0000000e (SONAME)                     Library soname: [libdl.so]
  
Symbol   contains 9 entries:
Num:   Type Bind Vis Ndx Name
0:   NOTYPE LOCAL DEFAULT UND
1:   FUNC GLOBAL DEFAULT 8 dl_unwind_find_exidx@@LIBC
2:   FUNC GLOBAL DEFAULT 8 dladdr@@LIBC
3:   FUNC GLOBAL DEFAULT 8 dlsym@@LIBC
4:   FUNC GLOBAL DEFAULT 8 android_dlopen_ext@@LIBC
5:   FUNC GLOBAL DEFAULT 8 dl_iterate_phdr@@LIBC
6:   FUNC GLOBAL DEFAULT 8 dlclose@@LIBC
7:   FUNC GLOBAL DEFAULT 8 dlerror@@LIBC
8:   FUNC GLOBAL DEFAULT 8 dlopen@@LIBC
