 0x000000000000000e (SONAME)             Library soname: [libart-disassembler.so]
  
Symbol   contains 317 entries:
Num:   Type Bind Vis Ndx Name
0:   NOTYPE LOCAL DEFAULT UND
1:   NOTYPE WEAK DEFAULT UND __gmon_start__
2:   NOTYPE WEAK DEFAULT UND _ITM_deregisterTMCloneTab
3:   NOTYPE WEAK DEFAULT UND _ITM_registerTMCloneTable
4:   FUNC WEAK DEFAULT UND __cxa_finalize@GLIBC_2.2.5 (2)
5:   NOTYPE WEAK DEFAULT UND _Jv_RegisterClasses
6:   FUNC GLOBAL DEFAULT UND _ZN4vixl7aarch6412Disasse
7:   FUNC GLOBAL DEFAULT UND _ZN4vixl7aarch6412Disasse
8:   FUNC GLOBAL DEFAULT UND _ZN4vixl7aarch647Decoder1
9:   FUNC GLOBAL DEFAULT UND _ZN7android4base10LogMess
10:   FUNC GLOBAL DEFAULT UND _ZN7android4base10LogMess
11:   FUNC GLOBAL DEFAULT UND _ZN7android4base10LogMess
12:   FUNC GLOBAL DEFAULT UND _ZN7android4base12StringP
13:   FUNC GLOBAL DEFAULT UND _ZN7android4base21GetMini
14:   FUNC GLOBAL DEFAULT UND _ZNKSt3__16locale9use_fac
15:   FUNC GLOBAL DEFAULT UND _ZNKSt3__18ios_base6getlo
16:   FUNC GLOBAL DEFAULT UND _ZNSt3__113basic_ostreamI
17:   FUNC GLOBAL DEFAULT UND _ZNSt3__113basic_ostreamI
18:   FUNC GLOBAL DEFAULT UND _ZNSt3__113basic_ostreamI
19:   OBJECT GLOBAL DEFAULT UND _ZNSt3__15ctypeIcE2idE
20:   FUNC GLOBAL DEFAULT UND _ZNSt3__16localeD1Ev
21:   FUNC GLOBAL DEFAULT UND _ZNSt3__18ios_base5clearE
22:   FUNC GLOBAL DEFAULT UND _ZdlPv
23:   FUNC GLOBAL DEFAULT UND _Znwm
24:   FUNC GLOBAL DEFAULT UND __cxa_pure_virtual
25:   FUNC GLOBAL DEFAULT UND __errno_location@GLIBC_2.2.5 (3)
26:   FUNC GLOBAL DEFAULT UND __stack_chk_fail@GLIBC_2.4 (4)
27:   FUNC GLOBAL DEFAULT UND memset@GLIBC_2.2.5 (2)
28:   FUNC GLOBAL DEFAULT UND _ZNKSt3__121__basic_strin
29:   FUNC GLOBAL DEFAULT UND _ZNSt3__112basic_stringIc
30:   FUNC GLOBAL DEFAULT UND _ZNSt3__112basic_stringIc
31:   FUNC GLOBAL DEFAULT UND _ZNSt3__112basic_stringIc
32:   FUNC GLOBAL DEFAULT UND _ZNSt3__112basic_stringIc
33:   FUNC GLOBAL DEFAULT UND _ZNSt3__113basic_ostreamI
34:   FUNC GLOBAL DEFAULT UND _ZNSt3__113basic_ostreamI
35:   FUNC GLOBAL DEFAULT UND _ZNSt3__113basic_ostreamI
36:   FUNC GLOBAL DEFAULT UND _ZNSt3__113basic_ostreamI
37:   FUNC GLOBAL DEFAULT UND _ZNSt3__113basic_ostreamI
38:   FUNC GLOBAL DEFAULT UND _ZNSt3__113basic_ostreamI
39:   FUNC GLOBAL DEFAULT UND _ZNSt3__115basic_streambu
40:   FUNC GLOBAL DEFAULT UND _ZNSt3__115basic_streambu
41:   FUNC GLOBAL DEFAULT UND _ZNSt3__115basic_streambu
42:   FUNC GLOBAL DEFAULT UND _ZNSt3__115basic_streambu
43:   FUNC GLOBAL DEFAULT UND _ZNSt3__115basic_streambu
44:   FUNC GLOBAL DEFAULT UND _ZNSt3__115basic_streambu
45:   FUNC GLOBAL DEFAULT UND _ZNSt3__115basic_streambu
46:   FUNC GLOBAL DEFAULT UND _ZNSt3__115basic_streambu
47:   FUNC GLOBAL DEFAULT UND _ZNSt3__115basic_streambu
48:   FUNC GLOBAL DEFAULT UND _ZNSt3__18ios_base4initEP
49:   FUNC GLOBAL DEFAULT UND _ZNSt3__19basic_iosIcNS_1
50:   FUNC GLOBAL DEFAULT UND _ZTv0_n24_NSt3__113basic_
51:   FUNC GLOBAL DEFAULT UND _ZTv0_n24_NSt3__113basic_
52:   FUNC GLOBAL DEFAULT UND strlen@GLIBC_2.2.5 (2)
53:   FUNC GLOBAL DEFAULT UND _ZNSt3__113basic_istreamI
54:   FUNC GLOBAL DEFAULT UND _ZNSt3__113basic_istreamI
55:   FUNC GLOBAL DEFAULT UND _ZNSt3__113basic_ostreamI
56:   FUNC GLOBAL DEFAULT UND _ZNSt3__114basic_iostream
57:   FUNC GLOBAL DEFAULT UND _ZNSt3__114basic_iostream
58:   FUNC GLOBAL DEFAULT UND _ZNSt3__114basic_iostream
59:   FUNC GLOBAL DEFAULT UND _ZThn16_NSt3__114basic_io
60:   FUNC GLOBAL DEFAULT UND _ZThn16_NSt3__114basic_io
61:   FUNC GLOBAL DEFAULT UND _ZTv0_n24_NSt3__113basic_
62:   FUNC GLOBAL DEFAULT UND _ZTv0_n24_NSt3__113basic_
63:   FUNC GLOBAL DEFAULT UND _ZTv0_n24_NSt3__114basic_
64:   FUNC GLOBAL DEFAULT UND _ZTv0_n24_NSt3__114basic_
65:   FUNC GLOBAL DEFAULT UND _ZN4vixl7aarch3212Disasse
66:   FUNC GLOBAL DEFAULT UND _ZN4vixl7aarch3217PrintDi
67:   FUNC GLOBAL DEFAULT UND _ZN4vixl7aarch3217PrintDi
68:   FUNC GLOBAL DEFAULT UND _ZN4vixl7aarch3217PrintDi
69:   FUNC GLOBAL DEFAULT UND _ZN4vixl7aarch3217PrintDi
70:   FUNC GLOBAL DEFAULT UND _ZN4vixl7aarch32lsERNSt3_
71:   FUNC GLOBAL DEFAULT UND _ZN4vixl7aarch32lsERNSt3_
72:   FUNC GLOBAL DEFAULT UND _ZN4vixl7aarch32lsERNSt3_
73:   FUNC GLOBAL DEFAULT UND _ZN4vixl7aarch32lsERNSt3_
74:   FUNC GLOBAL DEFAULT UND _ZN4vixl7aarch32lsERNSt3_
75:   FUNC GLOBAL DEFAULT UND _ZN4vixl7aarch32lsERNSt3_
76:   FUNC GLOBAL DEFAULT UND _ZNK4vixl7aarch3210Endian
77:   FUNC GLOBAL DEFAULT UND _ZNK4vixl7aarch3212Encodi
78:   FUNC GLOBAL DEFAULT UND _ZNK4vixl7aarch3213Memory
79:   FUNC GLOBAL DEFAULT UND _ZNK4vixl7aarch3214Banked
80:   FUNC GLOBAL DEFAULT UND _ZNK4vixl7aarch3214Interr
81:   FUNC GLOBAL DEFAULT UND _ZNK4vixl7aarch3215Specia
82:   FUNC GLOBAL DEFAULT UND _ZNK4vixl7aarch3217Specia
83:   FUNC GLOBAL DEFAULT UND _ZNK4vixl7aarch3221Masked
84:   FUNC GLOBAL DEFAULT UND _ZNK4vixl7aarch325Shift7G
85:   FUNC GLOBAL DEFAULT UND _ZNK4vixl7aarch328DataTyp
86:   FUNC GLOBAL DEFAULT UND _ZNK4vixl7aarch329Conditi
87:   FUNC GLOBAL DEFAULT UND _ZNSt3__112basic_stringIc
88:   FUNC GLOBAL DEFAULT UND _ZNSt3__113basic_ostreamI
89:   FUNC GLOBAL DEFAULT UND _ZNSt3__113basic_ostreamI
90:   FUNC GLOBAL DEFAULT UND _ZNSt3__113basic_ostreamI
91:   FUNC GLOBAL DEFAULT UND _ZNSt3__113basic_ostreamI
92:   FUNC GLOBAL DEFAULT UND _ZN4vixl7aarch6412Disasse
93:   FUNC GLOBAL DEFAULT UND _ZN4vixl7aarch6412Disasse
94:   FUNC GLOBAL DEFAULT UND _ZN4vixl7aarch6412Disasse
95:   FUNC GLOBAL DEFAULT UND _ZN4vixl7aarch6412Disasse
96:   FUNC GLOBAL DEFAULT UND _ZN4vixl7aarch6412Disasse
97:   FUNC GLOBAL DEFAULT UND _ZN4vixl7aarch6412Disasse
98:   FUNC GLOBAL DEFAULT UND _ZN4vixl7aarch6412Disasse
99:   FUNC GLOBAL DEFAULT UND _ZN4vixl7aarch6412Disasse
100:   FUNC GLOBAL DEFAULT UND _ZN4vixl7aarch6412Disasse
101:   FUNC GLOBAL DEFAULT UND _ZN4vixl7aarch6412Disasse
102:   FUNC GLOBAL DEFAULT UND _ZN4vixl7aarch6412Disasse
103:   FUNC GLOBAL DEFAULT UND _ZN4vixl7aarch6412Disasse
104:   FUNC GLOBAL DEFAULT UND _ZN4vixl7aarch6412Disasse
105:   FUNC GLOBAL DEFAULT UND _ZN4vixl7aarch6412Disasse
106:   FUNC GLOBAL DEFAULT UND _ZN4vixl7aarch6412Disasse
107:   FUNC GLOBAL DEFAULT UND _ZN4vixl7aarch6412Disasse
108:   FUNC GLOBAL DEFAULT UND _ZN4vixl7aarch6412Disasse
109:   FUNC GLOBAL DEFAULT UND _ZN4vixl7aarch6412Disasse
110:   FUNC GLOBAL DEFAULT UND _ZN4vixl7aarch6412Disasse
111:   FUNC GLOBAL DEFAULT UND _ZN4vixl7aarch6412Disasse
112:   FUNC GLOBAL DEFAULT UND _ZN4vixl7aarch6412Disasse
113:   FUNC GLOBAL DEFAULT UND _ZN4vixl7aarch6412Disasse
114:   FUNC GLOBAL DEFAULT UND _ZN4vixl7aarch6412Disasse
115:   FUNC GLOBAL DEFAULT UND _ZN4vixl7aarch6412Disasse
116:   FUNC GLOBAL DEFAULT UND _ZN4vixl7aarch6412Disasse
117:   FUNC GLOBAL DEFAULT UND _ZN4vixl7aarch6412Disasse
118:   FUNC GLOBAL DEFAULT UND _ZN4vixl7aarch6412Disasse
119:   FUNC GLOBAL DEFAULT UND _ZN4vixl7aarch6412Disasse
120:   FUNC GLOBAL DEFAULT UND _ZN4vixl7aarch6412Disasse
121:   FUNC GLOBAL DEFAULT UND _ZN4vixl7aarch6412Disasse
122:   FUNC GLOBAL DEFAULT UND _ZN4vixl7aarch6412Disasse
123:   FUNC GLOBAL DEFAULT UND _ZN4vixl7aarch6412Disasse
124:   FUNC GLOBAL DEFAULT UND _ZN4vixl7aarch6412Disasse
125:   FUNC GLOBAL DEFAULT UND _ZN4vixl7aarch6412Disasse
126:   FUNC GLOBAL DEFAULT UND _ZN4vixl7aarch6412Disasse
127:   FUNC GLOBAL DEFAULT UND _ZN4vixl7aarch6412Disasse
128:   FUNC GLOBAL DEFAULT UND _ZN4vixl7aarch6412Disasse
129:   FUNC GLOBAL DEFAULT UND _ZN4vixl7aarch6412Disasse
130:   FUNC GLOBAL DEFAULT UND _ZN4vixl7aarch6412Disasse
131:   FUNC GLOBAL DEFAULT UND _ZN4vixl7aarch6412Disasse
132:   FUNC GLOBAL DEFAULT UND _ZN4vixl7aarch6412Disasse
133:   FUNC GLOBAL DEFAULT UND _ZN4vixl7aarch6412Disasse
134:   FUNC GLOBAL DEFAULT UND _ZN4vixl7aarch6412Disasse
135:   FUNC GLOBAL DEFAULT UND _ZN4vixl7aarch6412Disasse
136:   FUNC GLOBAL DEFAULT UND _ZN4vixl7aarch6412Disasse
137:   FUNC GLOBAL DEFAULT UND _ZN4vixl7aarch6412Disasse
138:   FUNC GLOBAL DEFAULT UND _ZN4vixl7aarch6412Disasse
139:   FUNC GLOBAL DEFAULT UND _ZN4vixl7aarch6412Disasse
140:   FUNC GLOBAL DEFAULT UND _ZN4vixl7aarch6412Disasse
141:   FUNC GLOBAL DEFAULT UND _ZN4vixl7aarch6412Disasse
142:   FUNC GLOBAL DEFAULT UND _ZN4vixl7aarch6412Disasse
143:   FUNC GLOBAL DEFAULT UND _ZN4vixl7aarch6412Disasse
144:   FUNC GLOBAL DEFAULT UND _ZN4vixl7aarch6412Disasse
145:   FUNC GLOBAL DEFAULT UND _ZN4vixl7aarch6412Disasse
146:   FUNC GLOBAL DEFAULT UND _ZN4vixl7aarch6412Disasse
147:   FUNC GLOBAL DEFAULT UND _ZN4vixl7aarch6412Disasse
148:   FUNC GLOBAL DEFAULT UND _ZN4vixl7aarch6412Disasse
149:   FUNC GLOBAL DEFAULT UND _ZN4vixl7aarch6412Disasse
150:   FUNC GLOBAL DEFAULT UND _ZN4vixl7aarch6412Disasse
151:   FUNC GLOBAL DEFAULT UND _ZN4vixl7aarch6412Disasse
152:   FUNC GLOBAL DEFAULT UND _ZN4vixl7aarch6412Disasse
153:   FUNC GLOBAL DEFAULT UND _ZN4vixl7aarch6412Disasse
154:   FUNC GLOBAL DEFAULT UND _ZN4vixl7aarch6412Disasse
155:   FUNC GLOBAL DEFAULT UND _ZN4vixl7aarch6412Disasse
156:   FUNC GLOBAL DEFAULT UND _ZN4vixl7aarch6412Disasse
157:   FUNC GLOBAL DEFAULT UND _ZN4vixl7aarch6412Disasse
158:   FUNC GLOBAL DEFAULT UND _ZN4vixl7aarch6412Disasse
159:   FUNC GLOBAL DEFAULT UND _ZN4vixl7aarch6412Disasse
160:   FUNC GLOBAL DEFAULT UND _ZN4vixl7aarch6412Disasse
161:   FUNC GLOBAL DEFAULT UND _ZN4vixl7aarch6412Disasse
162:   FUNC GLOBAL DEFAULT UND _ZN4vixl7aarch6412Disasse
163:   FUNC GLOBAL DEFAULT UND _ZN4vixl7aarch6412Disasse
164:   FUNC GLOBAL DEFAULT UND _ZN4vixl7aarch6412Disasse
165:   FUNC GLOBAL DEFAULT UND _ZN4vixl7aarch6412Disasse
166:   FUNC GLOBAL DEFAULT UND _ZN4vixl7aarch6412Disasse
167:   FUNC GLOBAL DEFAULT UND _ZN4vixl7aarch6412Disasse
168:   FUNC GLOBAL DEFAULT UND _ZN4vixl7aarch6412Disasse
169:   FUNC GLOBAL DEFAULT UND _ZN4vixl7aarch6412Disasse
170:   FUNC GLOBAL DEFAULT UND _ZN4vixl7aarch6412Disasse
171:   FUNC GLOBAL DEFAULT UND _ZN4vixl7aarch6412Disasse
172:   FUNC GLOBAL DEFAULT UND _ZN4vixl7aarch6412Disasse
173:   FUNC GLOBAL DEFAULT UND _ZN4vixl7aarch6412Disasse
174:   FUNC GLOBAL DEFAULT UND _ZN4vixl7aarch6412Disasse
175:   FUNC GLOBAL DEFAULT UND _ZN4vixl7aarch6412Disasse
176:   FUNC GLOBAL DEFAULT UND _ZN4vixl7aarch6412Disasse
177:   FUNC GLOBAL DEFAULT UND _ZN4vixl7aarch6412Disasse
178:   FUNC GLOBAL DEFAULT UND _ZN4vixl7aarch6412Disasse
179:   FUNC GLOBAL DEFAULT UND _ZN4vixl7aarch6412Disasse
180:   FUNC GLOBAL DEFAULT UND _ZN4vixl7aarch6412Disasse
181:   FUNC GLOBAL DEFAULT UND _ZN4vixl7aarch6414CalcLSD
182:   FUNC GLOBAL DEFAULT UND _ZN4vixl7aarch647Decoder1
183:   FUNC WEAK PROTECTED 12 _ZNKSt3__115basic_stringb
184:   OBJECT WEAK PROTECTED 21 _ZTVN3art12DisassemblerE
185:   FUNC GLOBAL PROTECTED 12 _ZN3art4mips16Disassemble
186:   FUNC WEAK PROTECTED 12 _ZTv0_n24_NSt3__119basic_
187:   FUNC WEAK PROTECTED 12 _ZTv0_n24_NSt3__119basic_
188:   FUNC GLOBAL PROTECTED 12 _ZN3art4mips16Disassemble
189:   FUNC GLOBAL PROTECTED 12 _ZN3art3arm15Disassembler
190:   FUNC WEAK PROTECTED 12 _ZN4vixl7aarch3212Disasse
191:   FUNC WEAK PROTECTED 12 _ZN4vixl7aarch3212Disasse
192:   FUNC GLOBAL PROTECTED 12 create_disassembler
193:   FUNC GLOBAL PROTECTED 12 _ZN3art5arm6418CustomDisa
194:   FUNC WEAK PROTECTED 12 _ZN3art5arm6418CustomDisa
195:   OBJECT WEAK DEFAULT 21 _ZTVNSt3__119basic_ostrin
196:   FUNC WEAK PROTECTED 12 _ZNSt3__118basic_stringst
197:   FUNC WEAK PROTECTED 12 _ZNSt3__118basic_stringst
198:   FUNC WEAK PROTECTED 12 _ZN4vixl7aarch3212Disasse
199:   FUNC WEAK PROTECTED 12 _ZN4vixl7aarch3212Disasse
200:   FUNC WEAK PROTECTED 12 _ZN4vixl7aarch3212Disasse
201:   FUNC WEAK PROTECTED 12 _ZN4vixl7aarch3212Disasse
202:   FUNC WEAK PROTECTED 12 _ZNSt3__115basic_stringbu
203:   FUNC WEAK PROTECTED 12 _ZN4vixl7aarch3212Disasse
204:   OBJECT WEAK PROTECTED 21 _ZTVN3art3arm15Disassembl
205:   FUNC WEAK PROTECTED 12 _ZN3art3arm15Disassembler
206:   OBJECT GLOBAL PROTECTED 21 _ZTVN3art3x8615Disassembl
207:   FUNC WEAK PROTECTED 12 _ZN4vixl7aarch3212Disasse
208:   FUNC GLOBAL DEFAULT 14 _fini
209:   OBJECT WEAK DEFAULT 21 _ZTVNSt3__118basic_string
210:   FUNC WEAK PROTECTED 12 _ZN3art3arm15Disassembler
211:   FUNC WEAK PROTECTED 12 _ZN4vixl7aarch3212Disasse
212:   OBJECT WEAK DEFAULT 21 _ZTTNSt3__118basic_string
213:   FUNC WEAK PROTECTED 12 _ZN4vixl7aarch3212Disasse
214:   FUNC WEAK PROTECTED 12 _ZN4vixl7aarch3212Disasse
215:   FUNC WEAK PROTECTED 12 _ZN4vixl7aarch3212Disasse
216:   FUNC WEAK PROTECTED 12 _ZN7android4base13ErrnoRe
217:   OBJECT WEAK DEFAULT 21 _ZTVNSt3__115basic_string
218:   FUNC WEAK PROTECTED 12 _ZN4vixl7aarch3212Disasse
219:   FUNC WEAK PROTECTED 12 _ZN4vixl7aarch3212Disasse
220:   FUNC WEAK PROTECTED 12 _ZN4vixl7aarch3212Disasse
221:   FUNC WEAK PROTECTED 12 _ZN4vixl7aarch3212Disasse
222:   FUNC WEAK PROTECTED 12 _ZN4vixl7aarch3212Disasse
223:   FUNC WEAK PROTECTED 12 _ZNSt3__115basic_stringbu
224:   FUNC WEAK PROTECTED 12 _ZN4vixl7aarch3212Disasse
225:   FUNC WEAK PROTECTED 12 _ZNSt3__115basic_stringbu
226:   FUNC WEAK PROTECTED 12 _ZNSt3__115basic_stringbu
227:   FUNC GLOBAL PROTECTED 12 _ZN3art3x8615Disassembler
228:   FUNC WEAK PROTECTED 12 _ZN3art3arm15Disassembler
229:   FUNC WEAK PROTECTED 12 _ZN3art3arm15Disassembler
230:   FUNC WEAK PROTECTED 12 _ZN4vixl7aarch3212Disasse
231:   FUNC WEAK PROTECTED 12 _ZN4vixl7aarch3212Disasse
232:   FUNC WEAK PROTECTED 12 _ZN4vixl7aarch3212Disasse
233:   FUNC WEAK PROTECTED 12 _ZN3art5arm6417Disassembl
234:   FUNC WEAK PROTECTED 12 _ZN3art5arm6417Disassembl
235:   FUNC GLOBAL PROTECTED 12 _ZN3art5arm6418CustomDisa
236:   OBJECT GLOBAL PROTECTED 21 _ZTVN3art4mips16Disassemb
237:   FUNC WEAK PROTECTED 12 _ZN4vixl7aarch3212Disasse
238:   FUNC GLOBAL PROTECTED 12 _ZN3art12DisassemblerC2EP
239:   FUNC WEAK PROTECTED 12 _ZNSt3__124__put_characte
240:   OBJECT GLOBAL PROTECTED 21 _ZTVN3art5arm6418CustomDi
241:   FUNC GLOBAL PROTECTED 12 _ZN3art3x8615Disassembler
242:   OBJECT WEAK DEFAULT 21 _ZTCNSt3__118basic_string
243:   OBJECT WEAK DEFAULT 21 _ZTCNSt3__118basic_string
244:   FUNC WEAK PROTECTED 12 _ZN4vixl7aarch3212Disasse
245:   FUNC WEAK PROTECTED 12 _ZN3art3arm15Disassembler
246:   FUNC GLOBAL PROTECTED 12 _ZN3art3arm15Disassembler
247:   FUNC WEAK PROTECTED 12 _ZN4vixl7aarch3212Disasse
248:   FUNC GLOBAL PROTECTED 12 _ZN3art3x8615Disassembler
249:   FUNC WEAK PROTECTED 12 _ZThn16_NSt3__118basic_st
250:   FUNC WEAK PROTECTED 12 _ZThn16_NSt3__118basic_st
251:   FUNC GLOBAL DEFAULT 13 _init
252:   OBJECT WEAK DEFAULT 21 _ZTCNSt3__119basic_ostrin
253:   FUNC WEAK PROTECTED 12 _ZN4vixl7aarch3212Disasse
254:   FUNC WEAK PROTECTED 12 _ZN4vixl7aarch3212Disasse
255:   FUNC GLOBAL PROTECTED 12 _ZN3art5arm6417Disassembl
256:   FUNC WEAK PROTECTED 12 _ZN4vixl7aarch3212Disasse
257:   FUNC WEAK PROTECTED 12 _ZN3art12DisassemblerD0Ev
258:   FUNC WEAK PROTECTED 12 _ZN3art12DisassemblerD2Ev
259:   FUNC WEAK PROTECTED 12 _ZN4vixl7aarch3212Disasse
260:   FUNC WEAK PROTECTED 12 _ZN4vixl7aarch3212Disasse
261:   FUNC WEAK PROTECTED 12 _ZN4vixl7aarch3212Disasse
262:   OBJECT GLOBAL PROTECTED 21 _ZTVN3art5arm6417Disassem
263:   FUNC WEAK PROTECTED 12 _ZN3art4mips16Disassemble
264:   FUNC WEAK PROTECTED 12 _ZN4vixl7aarch3212Disasse
265:   FUNC WEAK PROTECTED 12 _ZN4vixl7aarch3212Disasse
266:   FUNC WEAK PROTECTED 12 _ZNSt3__115basic_stringbu
267:   OBJECT GLOBAL PROTECTED 21 _ZTVN3art3arm15Disassembl
268:   FUNC GLOBAL PROTECTED 12 _ZN3art12Disassembler24Fo
269:   FUNC GLOBAL PROTECTED 12 _ZN3art3x8615Disassembler
270:   OBJECT WEAK DEFAULT 21 _ZTCNSt3__118basic_string
271:   FUNC WEAK PROTECTED 12 _ZTv0_n24_NSt3__118basic_
272:   FUNC WEAK PROTECTED 12 _ZTv0_n24_NSt3__118basic_
273:   FUNC GLOBAL PROTECTED 12 _ZN3art3arm15Disassembler
274:   FUNC WEAK PROTECTED 12 _ZN3art5arm6417Disassembl
275:   FUNC WEAK PROTECTED 12 _ZNSt3__115basic_stringbu
276:   FUNC WEAK PROTECTED 12 _ZN3art3x8615Disassembler
277:   FUNC WEAK PROTECTED 12 _ZN3art3arm15Disassembler
278:   FUNC WEAK PROTECTED 12 _ZN3art3arm15Disassembler
279:   FUNC WEAK PROTECTED 12 _ZN4vixl7aarch3212Disasse
280:   FUNC WEAK PROTECTED 12 _ZN4vixl7aarch3217PrintDi
281:   FUNC WEAK PROTECTED 12 _ZN4vixl7aarch3217PrintDi
282:   OBJECT WEAK PROTECTED 21 _ZTVN3art3arm15Disassembl
283:   FUNC GLOBAL PROTECTED 12 _ZN3art5arm6417Disassembl
284:   FUNC GLOBAL PROTECTED 12 _ZN3art12Disassembler6Cre
285:   FUNC WEAK PROTECTED 12 _ZN4vixl7aarch3212Disasse
286:   FUNC WEAK PROTECTED 12 _ZN4vixl7aarch3212Disasse
287:   FUNC WEAK PROTECTED 12 _ZN4vixl7aarch3212Disasse
288:   OBJECT WEAK DEFAULT 21 _ZTTNSt3__119basic_ostrin
289:   FUNC WEAK PROTECTED 12 _ZN4vixl7aarch3212Disasse
290:   FUNC WEAK PROTECTED 12 _ZN4vixl7aarch3212Disasse
291:   FUNC WEAK PROTECTED 12 _ZN4vixl7aarch3212Disasse
292:   FUNC GLOBAL PROTECTED 12 _ZN3art5arm6418CustomDisa
293:   FUNC GLOBAL PROTECTED 12 _ZN3art4mips16Disassemble
294:   FUNC GLOBAL PROTECTED 12 _ZN3art3x8615Disassembler
295:   FUNC WEAK PROTECTED 12 _ZNSt3__115basic_stringbu
296:   FUNC WEAK PROTECTED 12 _ZNSt3__119basic_ostrings
297:   FUNC WEAK PROTECTED 12 _ZNSt3__119basic_ostrings
298:   FUNC WEAK PROTECTED 12 _ZN4vixl7aarch3212Disasse
299:   FUNC WEAK PROTECTED 12 _ZN4vixl7aarch3212Disasse
300:   FUNC WEAK PROTECTED 12 _ZN4vixl7aarch3212Disasse
301:   FUNC WEAK PROTECTED 12 _ZN4vixl7aarch3212Disasse
302:   FUNC GLOBAL PROTECTED 12 _ZN3art3arm15Disassembler
303:   FUNC WEAK PROTECTED 12 _ZN3art3arm15Disassembler
304:   FUNC WEAK PROTECTED 12 _ZN3art3arm15Disassembler
305:   FUNC WEAK PROTECTED 12 _ZN4vixl7aarch3212Disasse
306:   FUNC WEAK PROTECTED 12 _ZN3art3arm15Disassembler
307:   FUNC GLOBAL PROTECTED 12 _ZN3art3arm15Disassembler
308:   FUNC WEAK PROTECTED 12 _ZN4vixl7aarch3212Disasse
309:   FUNC WEAK PROTECTED 12 _ZN4vixl7aarch3212Disasse
310:   FUNC WEAK PROTECTED 12 _ZN4vixl7aarch3212Disasse
311:   FUNC WEAK PROTECTED 12 _ZN4vixl7aarch3212Disasse
312:   FUNC WEAK PROTECTED 12 _ZN4vixl7aarch3212Disasse
313:   FUNC WEAK PROTECTED 12 _ZN4vixl7aarch3212Disasse
314:   FUNC WEAK PROTECTED 12 _ZN4vixl7aarch3212Disasse
315:   FUNC WEAK PROTECTED 12 _ZN4vixl7aarch3212Disasse
316:   OBJECT WEAK PROTECTED 21 _ZTVN4vixl7aarch3212Disas
