 0x0000000e (SONAME)                     Library soname: [libprocinfo.so]
  
Symbol   contains 50 entries:
Num:   Type Bind Vis Ndx Name
0:   NOTYPE LOCAL DEFAULT UND
1:   FUNC GLOBAL DEFAULT UND __cxa_finalize@LIBC (2)
2:   FUNC GLOBAL DEFAULT UND _ZN7android4base10LogMess
3:   FUNC GLOBAL DEFAULT UND _ZN7android4base10LogMess
4:   FUNC GLOBAL DEFAULT UND _ZN7android4base10LogMess
5:   FUNC GLOBAL DEFAULT UND _ZN7android4base21GetMini
6:   FUNC GLOBAL DEFAULT UND _ZNKSt3__112basic_stringI
7:   FUNC GLOBAL DEFAULT UND _ZNKSt3__121__basic_strin
8:   FUNC GLOBAL DEFAULT UND _ZNKSt3__16locale9use_fac
9:   FUNC GLOBAL DEFAULT UND _ZNKSt3__18ios_base6getlo
10:   FUNC GLOBAL DEFAULT UND _ZNSt3__112basic_stringIc
11:   FUNC GLOBAL DEFAULT UND _ZNSt3__112basic_stringIc
12:   FUNC GLOBAL DEFAULT UND _ZNSt3__113basic_ostreamI
13:   FUNC GLOBAL DEFAULT UND _ZNSt3__113basic_ostreamI
14:   OBJECT GLOBAL DEFAULT UND _ZNSt3__15ctypeIcE2idE
15:   FUNC GLOBAL DEFAULT UND _ZNSt3__16localeD1Ev
16:   FUNC GLOBAL DEFAULT UND _ZNSt3__18ios_base5clearE
17:   FUNC GLOBAL DEFAULT UND _ZdlPv
18:   FUNC GLOBAL DEFAULT UND _Znwj
19:   FUNC GLOBAL DEFAULT UND __errno@LIBC (2)
20:   FUNC GLOBAL DEFAULT UND __open_2@LIBC (2)
21:   FUNC GLOBAL DEFAULT UND __openat_2@LIBC (2)
22:   FUNC GLOBAL DEFAULT UND __stack_chk_fail@LIBC (2)
23:   OBJECT GLOBAL DEFAULT UND __stack_chk_guard@LIBC (2)
24:   FUNC GLOBAL DEFAULT UND __vsnprintf_chk@LIBC (2)
25:   FUNC WEAK DEFAULT UND android_fdsan_close_with_@LIBC_Q (3)
26:   FUNC WEAK DEFAULT UND android_fdsan_create_owne@LIBC_Q (3)
27:   FUNC WEAK DEFAULT UND android_fdsan_exchange_ow@LIBC_Q (3)
28:   FUNC GLOBAL DEFAULT UND atoi@LIBC (2)
29:   FUNC GLOBAL DEFAULT UND close@LIBC (2)
30:   FUNC GLOBAL DEFAULT UND fclose@LIBC (2)
31:   FUNC GLOBAL DEFAULT UND fdopen@LIBC (2)
32:   FUNC GLOBAL DEFAULT UND free@LIBC (2)
33:   FUNC GLOBAL DEFAULT UND getline@LIBC (2)
34:   FUNC GLOBAL DEFAULT UND strchr@LIBC (2)
35:   FUNC GLOBAL DEFAULT UND strlen@LIBC (2)
36:   FUNC GLOBAL DEFAULT UND memcpy@LIBC (2)
37:   FUNC GLOBAL DEFAULT UND memset@LIBC (2)
38:   FUNC GLOBAL DEFAULT 14 _ZN7android8procinfo14Get
39:   FUNC WEAK DEFAULT 14 _ZNSt3__124__put_characte
40:   FUNC GLOBAL DEFAULT 14 __aeabi_memcpy
41:   FUNC GLOBAL DEFAULT 14 __aeabi_memcpy8
42:   FUNC GLOBAL DEFAULT 14 __aeabi_memclr8
43:   FUNC GLOBAL DEFAULT 14 __aeabi_memset8
44:   FUNC GLOBAL DEFAULT 14 __aeabi_memset
45:   FUNC GLOBAL DEFAULT 14 _ZN7android8procinfo27Get
46:   FUNC GLOBAL DEFAULT 14 __aeabi_memclr
47:   FUNC GLOBAL DEFAULT 14 __aeabi_memcpy4
48:   FUNC GLOBAL DEFAULT 14 __aeabi_memclr4
49:   FUNC GLOBAL DEFAULT 14 __aeabi_memset4
