 0x0000000e (SONAME)                     Library soname: [android.hidl.allocator@1.0.so]
  
Symbol   contains 244 entries:
Num:   Type Bind Vis Ndx Name
0:   NOTYPE LOCAL DEFAULT UND
1:   FUNC GLOBAL DEFAULT UND __cxa_finalize@LIBC (2)
2:   FUNC GLOBAL DEFAULT UND _ZN7android14sp_report_ra
3:   FUNC GLOBAL DEFAULT UND _ZN7android21report_syspr
4:   OBJECT GLOBAL DEFAULT UND _ZN7android4hidl4base4V1_
5:   FUNC GLOBAL DEFAULT UND _ZN7android4hidl4base4V1_
6:   FUNC GLOBAL DEFAULT UND _ZN7android4hidl4base4V1_
7:   FUNC GLOBAL DEFAULT UND _ZN7android4hidl4base4V1_
8:   FUNC GLOBAL DEFAULT UND _ZN7android4hidl4base4V1_
9:   FUNC GLOBAL DEFAULT UND _ZN7android4hidl4base4V1_
10:   FUNC GLOBAL DEFAULT UND _ZN7android4hidl4base4V1_
11:   FUNC GLOBAL DEFAULT UND _ZN7android4hidl4base4V1_
12:   FUNC GLOBAL DEFAULT UND _ZN7android4hidl4base4V1_
13:   FUNC GLOBAL DEFAULT UND _ZN7android4hidl4base4V1_
14:   FUNC GLOBAL DEFAULT UND _ZN7android4hidl4base4V1_
15:   FUNC GLOBAL DEFAULT UND _ZN7android4hidl4base4V1_
16:   FUNC GLOBAL DEFAULT UND _ZN7android4hidl4base4V1_
17:   FUNC GLOBAL DEFAULT UND _ZN7android4hidl4base4V1_
18:   FUNC GLOBAL DEFAULT UND _ZN7android4hidl4base4V1_
19:   FUNC GLOBAL DEFAULT UND _ZN7android4hidl4base4V1_
20:   FUNC GLOBAL DEFAULT UND _ZN7android4hidl4base4V1_
21:   FUNC GLOBAL DEFAULT UND _ZN7android4hidl4base4V1_
22:   FUNC GLOBAL DEFAULT UND _ZN7android4hidl4base4V1_
23:   FUNC GLOBAL DEFAULT UND _ZN7android4hidl4base4V1_
24:   FUNC GLOBAL DEFAULT UND _ZN7android4hidl4base4V1_
25:   FUNC GLOBAL DEFAULT UND _ZN7android4hidl4base4V1_
26:   FUNC GLOBAL DEFAULT UND _ZN7android4hidl4base4V1_
27:   FUNC GLOBAL DEFAULT UND _ZN7android4hidl4base4V1_
28:   FUNC GLOBAL DEFAULT UND _ZN7android7RefBase10onFi
29:   FUNC GLOBAL DEFAULT UND _ZN7android7RefBase12weak
30:   FUNC GLOBAL DEFAULT UND _ZN7android7RefBase13onLa
31:   FUNC GLOBAL DEFAULT UND _ZN7android7RefBase15onLa
32:   FUNC GLOBAL DEFAULT UND _ZN7android7RefBase20onIn
33:   FUNC GLOBAL DEFAULT UND _ZN7android7RefBaseC2Ev
34:   FUNC GLOBAL DEFAULT UND _ZN7android7RefBaseD2Ev
35:   FUNC GLOBAL DEFAULT UND _ZN7android8hardware10IIn
36:   FUNC GLOBAL DEFAULT UND _ZN7android8hardware10IIn
37:   FUNC GLOBAL DEFAULT UND _ZN7android8hardware10IIn
38:   FUNC GLOBAL DEFAULT UND _ZN7android8hardware10IIn
39:   FUNC GLOBAL DEFAULT UND _ZN7android8hardware10IIn
40:   FUNC GLOBAL DEFAULT UND _ZN7android8hardware11BpH
41:   FUNC GLOBAL DEFAULT UND _ZN7android8hardware11BpH
42:   FUNC GLOBAL DEFAULT UND _ZN7android8hardware11BpH
43:   FUNC GLOBAL DEFAULT UND _ZN7android8hardware11BpH
44:   FUNC GLOBAL DEFAULT UND _ZN7android8hardware11BpH
45:   FUNC GLOBAL DEFAULT UND _ZN7android8hardware11BpH
46:   FUNC GLOBAL DEFAULT UND _ZN7android8hardware11BpH
47:   FUNC GLOBAL DEFAULT UND _ZN7android8hardware11hid
48:   FUNC GLOBAL DEFAULT UND _ZN7android8hardware11hid
49:   FUNC GLOBAL DEFAULT UND _ZN7android8hardware11hid
50:   FUNC GLOBAL DEFAULT UND _ZN7android8hardware11hid
51:   FUNC GLOBAL DEFAULT UND _ZN7android8hardware11hid
52:   FUNC GLOBAL DEFAULT UND _ZN7android8hardware12Pro
53:   FUNC GLOBAL DEFAULT UND _ZN7android8hardware12Pro
54:   FUNC GLOBAL DEFAULT UND _ZN7android8hardware13wri
55:   FUNC GLOBAL DEFAULT UND _ZN7android8hardware14rea
56:   FUNC GLOBAL DEFAULT UND _ZN7android8hardware21def
57:   FUNC GLOBAL DEFAULT UND _ZN7android8hardware21wri
58:   FUNC GLOBAL DEFAULT UND _ZN7android8hardware22rea
59:   FUNC GLOBAL DEFAULT UND _ZN7android8hardware23get
60:   FUNC GLOBAL DEFAULT UND _ZN7android8hardware27hid
61:   FUNC GLOBAL DEFAULT UND _ZN7android8hardware27hid
62:   FUNC GLOBAL DEFAULT UND _ZN7android8hardware6Parc
63:   FUNC GLOBAL DEFAULT UND _ZN7android8hardware6Parc
64:   FUNC GLOBAL DEFAULT UND _ZN7android8hardware6Parc
65:   FUNC GLOBAL DEFAULT UND _ZN7android8hardware6Parc
66:   FUNC GLOBAL DEFAULT UND _ZN7android8hardware6Parc
67:   FUNC GLOBAL DEFAULT UND _ZN7android8hardware6Parc
68:   FUNC GLOBAL DEFAULT UND _ZN7android8hardware6Parc
69:   FUNC GLOBAL DEFAULT UND _ZN7android8hardware6Stat
70:   FUNC GLOBAL DEFAULT UND _ZN7android8hardware6Stat
71:   FUNC GLOBAL DEFAULT UND _ZN7android8hardware6Stat
72:   FUNC GLOBAL DEFAULT UND _ZN7android8hardware6Stat
73:   FUNC GLOBAL DEFAULT UND _ZN7android8hardware7IBin
74:   FUNC GLOBAL DEFAULT UND _ZN7android8hardware7IBin
75:   FUNC GLOBAL DEFAULT UND _ZN7android8hardware7IBin
76:   FUNC GLOBAL DEFAULT UND _ZN7android8hardware7IBin
77:   FUNC GLOBAL DEFAULT UND _ZN7android8hardware7deta
78:   FUNC GLOBAL DEFAULT UND _ZN7android8hardware7deta
79:   FUNC GLOBAL DEFAULT UND _ZN7android8hardware7deta
80:   FUNC GLOBAL DEFAULT UND _ZN7android8hardware7deta
81:   FUNC GLOBAL DEFAULT UND _ZN7android8hardware7deta
82:   FUNC GLOBAL DEFAULT UND _ZN7android8hardware7deta
83:   FUNC GLOBAL DEFAULT UND _ZN7android8hardware7deta
84:   OBJECT GLOBAL DEFAULT UND _ZN7android8hardware7deta
85:   OBJECT GLOBAL DEFAULT UND _ZN7android8hardware7deta
86:   FUNC GLOBAL DEFAULT UND _ZN7android8hardware7deta
87:   FUNC GLOBAL DEFAULT UND _ZN7android8hardware7deta
88:   FUNC GLOBAL DEFAULT UND _ZN7android8hardware7deta
89:   FUNC GLOBAL DEFAULT UND _ZN7android8hardware7deta
90:   FUNC GLOBAL DEFAULT UND _ZN7android8hardware7deta
91:   FUNC GLOBAL DEFAULT UND _ZN7android8hardware7deta
92:   FUNC GLOBAL DEFAULT UND _ZN7android8hardware7deta
93:   FUNC GLOBAL DEFAULT UND _ZN7android8hardware7deta
94:   FUNC GLOBAL DEFAULT UND _ZN7android8hardware7deta
95:   OBJECT GLOBAL DEFAULT UND _ZN7android8hardware7deta
96:   FUNC GLOBAL DEFAULT UND _ZN7android8hardware9BHwB
97:   FUNC GLOBAL DEFAULT UND _ZN7android8hardware9BHwB
98:   FUNC GLOBAL DEFAULT UND _ZN7android8hardware9BHwB
99:   FUNC GLOBAL DEFAULT UND _ZN7android8hardware9BHwB
100:   FUNC GLOBAL DEFAULT UND _ZN7android8hardware9BHwB
101:   FUNC GLOBAL DEFAULT UND _ZN7android8hardware9BHwB
102:   FUNC GLOBAL DEFAULT UND _ZN7android8hardware9BHwB
103:   FUNC GLOBAL DEFAULT UND _ZN7android8hardware9BHwB
104:   FUNC GLOBAL DEFAULT UND _ZN7android8hardware9BHwB
105:   FUNC GLOBAL DEFAULT UND _ZN7android8hardware9BHwB
106:   FUNC GLOBAL DEFAULT UND _ZNK7android7RefBase10cre
107:   FUNC GLOBAL DEFAULT UND _ZNK7android7RefBase11get
108:   FUNC GLOBAL DEFAULT UND _ZNK7android7RefBase9decS
109:   FUNC GLOBAL DEFAULT UND _ZNK7android7RefBase9incS
110:   FUNC GLOBAL DEFAULT UND _ZNK7android8hardware6Par
111:   FUNC GLOBAL DEFAULT UND _ZNK7android8hardware6Par
112:   FUNC GLOBAL DEFAULT UND _ZNK7android8hardware6Par
113:   FUNC GLOBAL DEFAULT UND _ZNK7android8hardware6Par
114:   FUNC GLOBAL DEFAULT UND _ZNK7android8hardware6Par
115:   FUNC GLOBAL DEFAULT UND _ZNK7android8hardware7IBi
116:   FUNC GLOBAL DEFAULT UND _ZNK7android8hardware7det
117:   FUNC GLOBAL DEFAULT UND _ZNK7android8hardware9BHw
118:   FUNC GLOBAL DEFAULT UND _ZNKSt3__120__vector_base
119:   FUNC GLOBAL DEFAULT UND _ZNKSt3__121__basic_strin
120:   FUNC GLOBAL DEFAULT UND _ZNSt3__112basic_stringIc
121:   FUNC GLOBAL DEFAULT UND _ZNSt3__15mutex4lockEv
122:   FUNC GLOBAL DEFAULT UND _ZNSt3__15mutex6unlockEv
123:   FUNC GLOBAL DEFAULT UND _ZNSt3__15mutexD1Ev
124:   FUNC GLOBAL DEFAULT UND _ZTv0_n12_N7android4hidl4
125:   FUNC GLOBAL DEFAULT UND _ZTv0_n12_N7android4hidl4
126:   FUNC GLOBAL DEFAULT UND _ZTv0_n12_N7android8hardw
127:   FUNC GLOBAL DEFAULT UND _ZTv0_n12_N7android8hardw
128:   FUNC GLOBAL DEFAULT UND _ZTv0_n12_N7android8hardw
129:   FUNC GLOBAL DEFAULT UND _ZTv0_n12_N7android8hardw
130:   FUNC GLOBAL DEFAULT UND _ZTv0_n12_N7android8hardw
131:   FUNC GLOBAL DEFAULT UND _ZTv0_n12_N7android8hardw
132:   FUNC GLOBAL DEFAULT UND _ZTv0_n12_N7android8hardw
133:   FUNC GLOBAL DEFAULT UND _ZTv0_n12_N7android8hardw
134:   FUNC GLOBAL DEFAULT UND _ZTv0_n16_N7android8hardw
135:   FUNC GLOBAL DEFAULT UND _ZTv0_n20_N7android8hardw
136:   FUNC GLOBAL DEFAULT UND _ZTv0_n24_N7android8hardw
137:   FUNC GLOBAL DEFAULT UND _ZdaPv
138:   FUNC GLOBAL DEFAULT UND _ZdlPv
139:   FUNC GLOBAL DEFAULT UND _Znaj
140:   FUNC GLOBAL DEFAULT UND _Znwj
141:   FUNC GLOBAL DEFAULT UND __android_log_assert@LIBLOG (3)
142:   FUNC GLOBAL DEFAULT UND __cxa_pure_virtual
143:   FUNC GLOBAL DEFAULT UND __stack_chk_fail@LIBC (2)
144:   OBJECT GLOBAL DEFAULT UND __stack_chk_guard@LIBC (2)
145:   FUNC GLOBAL DEFAULT UND abort@LIBC (2)
146:   FUNC GLOBAL DEFAULT UND atrace_begin_body
147:   OBJECT GLOBAL DEFAULT UND atrace_enabled_tags
148:   FUNC GLOBAL DEFAULT UND atrace_end_body
149:   OBJECT GLOBAL DEFAULT UND atrace_is_ready
150:   FUNC GLOBAL DEFAULT UND atrace_setup
151:   FUNC GLOBAL DEFAULT UND memcmp@LIBC (2)
152:   FUNC GLOBAL DEFAULT UND strlen@LIBC (2)
153:   FUNC GLOBAL DEFAULT UND memcpy@LIBC (2)
154:   FUNC GLOBAL DEFAULT UND memset@LIBC (2)
155:   FUNC GLOBAL DEFAULT 14 _ZN7android4hidl9allocato
156:   OBJECT WEAK DEFAULT 18 _ZTCN7android4hidl9alloca
157:   OBJECT GLOBAL DEFAULT 16 _ZN7android4hidl9allocato
158:   FUNC GLOBAL DEFAULT 14 _ZN7android4hidl9allocato
159:   FUNC GLOBAL DEFAULT 14 _ZN7android4hidl9allocato
160:   FUNC WEAK DEFAULT 14 _ZNSt3__16__treeINS_12__v
161:   OBJECT GLOBAL DEFAULT 18 _ZTCN7android4hidl9alloca
162:   FUNC GLOBAL DEFAULT 14 _ZN7android4hidl9allocato
163:   FUNC GLOBAL DEFAULT 14 _ZN7android4hidl9allocato
164:   FUNC GLOBAL DEFAULT 14 __aeabi_memclr8
165:   FUNC WEAK DEFAULT 14 _ZNSt3__16vectorIN7androi
166:   OBJECT GLOBAL DEFAULT 18 _ZTTN7android4hidl9alloca
167:   FUNC GLOBAL DEFAULT 14 _ZN7android4hidl9allocato
168:   FUNC GLOBAL DEFAULT 14 _ZN7android4hidl9allocato
169:   FUNC WEAK DEFAULT 14 _ZNSt3__16__treeINS_12__v
170:   OBJECT GLOBAL DEFAULT 18 _ZTCN7android4hidl9alloca
171:   OBJECT WEAK DEFAULT 18 _ZTVN7android4hidl9alloca
172:   OBJECT GLOBAL DEFAULT 18 _ZTVN7android4hidl9alloca
173:   FUNC GLOBAL DEFAULT 14 _ZN7android4hidl9allocato
174:   FUNC WEAK DEFAULT 14 _ZNSt3__16__treeINS_12__v
175:   FUNC WEAK DEFAULT 14 _ZNSt3__16vectorIPvNS_9al
176:   FUNC GLOBAL DEFAULT 14 __aeabi_memcpy
177:   FUNC GLOBAL DEFAULT 14 _ZN7android4hidl9allocato
178:   FUNC GLOBAL DEFAULT 14 _ZN7android4hidl9allocato
179:   FUNC WEAK DEFAULT 14 _ZNSt3__16__treeINS_12__v
180:   FUNC WEAK DEFAULT 14 _ZNSt3__16__treeINS_12__v
181:   FUNC GLOBAL DEFAULT 14 _ZN7android4hidl9allocato
182:   FUNC WEAK DEFAULT 14 _ZNSt3__16__treeINS_12__v
183:   FUNC GLOBAL DEFAULT 14 _ZThn20_N7android4hidl9al
184:   FUNC GLOBAL DEFAULT 14 _ZTv0_n12_N7android4hidl9
185:   FUNC GLOBAL DEFAULT 14 _ZN7android4hidl9allocato
186:   FUNC GLOBAL DEFAULT 14 _ZN7android4hidl9allocato
187:   FUNC GLOBAL DEFAULT 14 _ZN7android4hidl9allocato
188:   FUNC GLOBAL DEFAULT 14 _ZN7android4hidl9allocato
189:   FUNC GLOBAL DEFAULT 14 _ZN7android4hidl9allocato
190:   FUNC WEAK DEFAULT 14 _ZNSt3__16vectorINS_8func
191:   OBJECT GLOBAL DEFAULT 18 _ZTTN7android4hidl9alloca
192:   OBJECT GLOBAL DEFAULT 18 _ZTVN7android4hidl9alloca
193:   FUNC GLOBAL DEFAULT 14 __aeabi_memcpy4
194:   FUNC GLOBAL DEFAULT 14 __aeabi_memset4
195:   FUNC GLOBAL DEFAULT 14 _ZN7android4hidl9allocato
196:   FUNC GLOBAL DEFAULT 14 _ZN7android4hidl9allocato
197:   FUNC WEAK DEFAULT 14 _ZN7android8hardware7deta
198:   OBJECT GLOBAL DEFAULT 18 _ZTCN7android4hidl9alloca
199:   FUNC GLOBAL DEFAULT 14 _ZN7android4hidl9allocato
200:   FUNC GLOBAL DEFAULT 14 _ZN7android4hidl9allocato
201:   OBJECT GLOBAL DEFAULT 18 _ZTVN7android4hidl9alloca
202:   FUNC GLOBAL DEFAULT 14 __aeabi_memset
203:   FUNC GLOBAL DEFAULT 14 _ZN7android4hidl9allocato
204:   FUNC GLOBAL DEFAULT 14 _ZN7android4hidl9allocato
205:   OBJECT GLOBAL DEFAULT 18 _ZTCN7android4hidl9alloca
206:   OBJECT GLOBAL DEFAULT 18 _ZTCN7android4hidl9alloca
207:   OBJECT GLOBAL DEFAULT 18 _ZTTN7android4hidl9alloca
208:   FUNC GLOBAL DEFAULT 14 __aeabi_memcpy8
209:   FUNC GLOBAL DEFAULT 14 __aeabi_memset8
210:   FUNC GLOBAL DEFAULT 14 _ZN7android4hidl9allocato
211:   FUNC GLOBAL DEFAULT 14 _ZN7android4hidl9allocato
212:   OBJECT GLOBAL DEFAULT 18 _ZTCN7android4hidl9alloca
213:   FUNC GLOBAL DEFAULT 14 _ZN7android4hidl9allocato
214:   FUNC GLOBAL DEFAULT 14 _ZN7android4hidl9allocato
215:   FUNC GLOBAL DEFAULT 14 _ZN7android4hidl9allocato
216:   FUNC WEAK DEFAULT 14 _ZN7android8hardware7deta
217:   FUNC GLOBAL DEFAULT 14 _ZN7android4hidl9allocato
218:   FUNC GLOBAL DEFAULT 14 _ZN7android4hidl9allocato
219:   FUNC GLOBAL DEFAULT 14 _ZN7android4hidl9allocato
220:   FUNC GLOBAL DEFAULT 14 _ZN7android4hidl9allocato
221:   FUNC GLOBAL DEFAULT 14 _ZN7android4hidl9allocato
222:   FUNC GLOBAL DEFAULT 14 _ZN7android4hidl9allocato
223:   FUNC WEAK DEFAULT 14 _ZNSt3__127__tree_balance
224:   FUNC GLOBAL DEFAULT 14 _ZThn20_N7android4hidl9al
225:   FUNC GLOBAL DEFAULT 14 _ZTv0_n12_N7android4hidl9
226:   FUNC GLOBAL DEFAULT 14 _ZN7android4hidl9allocato
227:   FUNC GLOBAL DEFAULT 14 _ZN7android4hidl9allocato
228:   FUNC GLOBAL DEFAULT 14 _ZN7android4hidl9allocato
229:   FUNC GLOBAL DEFAULT 14 _ZN7android4hidl9allocato
230:   OBJECT GLOBAL DEFAULT 18 _ZTCN7android4hidl9alloca
231:   OBJECT GLOBAL DEFAULT 18 _ZTCN7android4hidl9alloca
232:   FUNC GLOBAL DEFAULT 14 _ZN7android4hidl9allocato
233:   FUNC GLOBAL DEFAULT 14 _ZN7android4hidl9allocato
234:   FUNC GLOBAL DEFAULT 14 _ZN7android4hidl9allocato
235:   FUNC WEAK DEFAULT 14 _ZNSt3__113__tree_removeI
236:   OBJECT GLOBAL DEFAULT 18 _ZTCN7android4hidl9alloca
237:   FUNC GLOBAL DEFAULT 14 __aeabi_memclr
238:   FUNC GLOBAL DEFAULT 14 __aeabi_memclr4
239:   FUNC GLOBAL DEFAULT 14 _ZN7android4hidl9allocato
240:   FUNC GLOBAL DEFAULT 14 _ZN7android4hidl9allocato
241:   FUNC GLOBAL DEFAULT 14 _ZN7android4hidl9allocato
242:   FUNC GLOBAL DEFAULT 14 _ZN7android4hidl9allocato
243:   FUNC GLOBAL DEFAULT 14 _ZN7android4hidl9allocato
