 0x000000000000000e (SONAME)             Library soname: [libunwindstack.so]
  
Symbol   contains 837 entries:
Num:   Type Bind Vis Ndx Name
0:   NOTYPE LOCAL DEFAULT UND
1:   FUNC GLOBAL DEFAULT UND __cxa_finalize@LIBC (2)
2:   FUNC GLOBAL DEFAULT UND _ZN7android4base12StringP
3:   FUNC GLOBAL DEFAULT UND _ZNSt3__112basic_stringIc
4:   FUNC GLOBAL DEFAULT UND _ZNSt3__112basic_stringIc
5:   FUNC GLOBAL DEFAULT UND _ZdlPv
6:   FUNC GLOBAL DEFAULT UND _Znwm
7:   FUNC GLOBAL DEFAULT UND __stack_chk_fail@LIBC (2)
8:   FUNC GLOBAL DEFAULT UND abort@LIBC (2)
9:   FUNC GLOBAL DEFAULT UND memmove@LIBC (2)
10:   FUNC GLOBAL DEFAULT UND _ZN7art_api3dex22LoadLibd
11:   FUNC GLOBAL DEFAULT UND _ZN7art_api3dex7DexFile16
12:   OBJECT GLOBAL DEFAULT UND _ZN7art_api3dex7DexFile22
13:   OBJECT GLOBAL DEFAULT UND _ZN7art_api3dex7DexFile26
14:   OBJECT GLOBAL DEFAULT UND _ZN7art_api3dex7DexFile34
15:   FUNC GLOBAL DEFAULT UND _ZN7art_api3dex7DexFileD2
16:   OBJECT GLOBAL DEFAULT UND _ZN7art_api3dex9DexString
17:   OBJECT GLOBAL DEFAULT UND _ZN7art_api3dex9DexString
18:   OBJECT GLOBAL DEFAULT UND _ZN7art_api3dex9DexString
19:   FUNC GLOBAL DEFAULT UND _ZNKSt3__120__vector_base
20:   FUNC GLOBAL DEFAULT UND _ZNKSt3__121__basic_strin
21:   FUNC GLOBAL DEFAULT UND _ZNSt3__112basic_stringIc
22:   OBJECT GLOBAL DEFAULT UND _ZTVN7art_api3dex7DexFile
23:   FUNC GLOBAL DEFAULT UND __errno@LIBC (2)
24:   FUNC GLOBAL DEFAULT UND __open_2@LIBC (2)
25:   FUNC GLOBAL DEFAULT UND __strlen_chk@LIBC (2)
26:   FUNC WEAK DEFAULT UND android_fdsan_close_with_@LIBC_Q (3)
27:   FUNC WEAK DEFAULT UND android_fdsan_create_owne@LIBC_Q (3)
28:   FUNC WEAK DEFAULT UND android_fdsan_exchange_ow@LIBC_Q (3)
29:   FUNC GLOBAL DEFAULT UND close@LIBC (2)
30:   FUNC GLOBAL DEFAULT UND memcpy@LIBC (2)
31:   FUNC GLOBAL DEFAULT UND memset@LIBC (2)
32:   FUNC GLOBAL DEFAULT UND _ZNSt3__112__next_primeEm
33:   FUNC GLOBAL DEFAULT UND _ZNSt3__119__shared_weak_
34:   FUNC GLOBAL DEFAULT UND _ZNSt3__15mutex4lockEv
35:   FUNC GLOBAL DEFAULT UND _ZNSt3__15mutex6unlockEv
36:   FUNC GLOBAL DEFAULT UND _ZNSt3__15mutexD1Ev
37:   FUNC GLOBAL DEFAULT UND __cxa_pure_virtual
38:   FUNC GLOBAL DEFAULT UND _ZNSt3__112basic_stringIc
39:   FUNC GLOBAL DEFAULT UND _ZNSt3__112basic_stringIc
40:   FUNC GLOBAL DEFAULT UND _ZNSt3__19to_stringEi
41:   FUNC GLOBAL DEFAULT UND _ZNSt3__19to_stringEl
42:   FUNC GLOBAL DEFAULT UND _ZNSt3__19to_stringEm
43:   FUNC GLOBAL DEFAULT UND strlen@LIBC (2)
44:   FUNC GLOBAL DEFAULT UND _ZNSt3__112basic_stringIc
45:   FUNC GLOBAL DEFAULT UND _ZNSt3__112basic_stringIc
46:   FUNC GLOBAL DEFAULT UND _ZNSt3__112basic_stringIc
47:   FUNC GLOBAL DEFAULT UND __android_log_print@LIBLOG (4)
48:   FUNC GLOBAL DEFAULT UND memcmp@LIBC (2)
49:   FUNC GLOBAL DEFAULT UND Crc64GenerateTable
50:   FUNC GLOBAL DEFAULT UND CrcGenerateTable
51:   FUNC GLOBAL DEFAULT UND XzUnpacker_Code
52:   FUNC GLOBAL DEFAULT UND XzUnpacker_Construct
53:   FUNC GLOBAL DEFAULT UND XzUnpacker_Free
54:   FUNC GLOBAL DEFAULT UND XzUnpacker_IsStreamWasFin
55:   FUNC GLOBAL DEFAULT UND _ZNKSt3__112basic_stringI
56:   FUNC GLOBAL DEFAULT UND _ZNSt3__112basic_stringIc
57:   FUNC GLOBAL DEFAULT UND free@LIBC (2)
58:   FUNC GLOBAL DEFAULT UND malloc@LIBC (2)
59:   FUNC GLOBAL DEFAULT UND __gnu_basename@LIBC (2)
60:   FUNC GLOBAL DEFAULT UND __android_log_vprint@LIBLOG (4)
61:   FUNC GLOBAL DEFAULT UND vprintf@LIBC (2)
62:   FUNC GLOBAL DEFAULT UND _ZNKSt3__119__shared_weak
63:   FUNC GLOBAL DEFAULT UND _ZNSt3__119__shared_weak_
64:   FUNC GLOBAL DEFAULT UND _ZN7android4base16ReadFil
65:   FUNC GLOBAL DEFAULT UND isxdigit@LIBC (2)
66:   FUNC GLOBAL DEFAULT UND strchr@LIBC (2)
67:   FUNC GLOBAL DEFAULT UND strncmp@LIBC (2)
68:   FUNC GLOBAL DEFAULT UND strtoull@LIBC (2)
69:   FUNC GLOBAL DEFAULT UND fstat@LIBC (2)
70:   FUNC GLOBAL DEFAULT UND getpagesize@LIBC (2)
71:   FUNC GLOBAL DEFAULT UND getpid@LIBC (2)
72:   FUNC GLOBAL DEFAULT UND mmap@LIBC (2)
73:   FUNC GLOBAL DEFAULT UND munmap@LIBC (2)
74:   FUNC GLOBAL DEFAULT UND process_vm_readv@LIBC (2)
75:   FUNC GLOBAL DEFAULT UND ptrace@LIBC (2)
76:   FUNC GLOBAL DEFAULT UND pthread_rwlock_init@LIBC (2)
77:   FUNC GLOBAL DEFAULT UND pthread_rwlock_rdlock@LIBC (2)
78:   FUNC GLOBAL DEFAULT UND pthread_rwlock_unlock@LIBC (2)
79:   FUNC GLOBAL DEFAULT UND pthread_rwlock_wrlock@LIBC (2)
80:   FUNC GLOBAL DEFAULT UND _ZN7android4base10StartsW
81:   FUNC GLOBAL DEFAULT UND _ZNKSt3__112basic_stringI
82:   FUNC GLOBAL DEFAULT UND _ZNKSt3__120__vector_base
83:   FUNC GLOBAL DEFAULT UND _ZNSt3__112basic_stringIc
84:   FUNC GLOBAL DEFAULT UND _ZNSt3__112basic_stringIc
85:   FUNC GLOBAL DEFAULT UND _ZNSt3__1plIcNS_11char_tr
86:   FUNC GLOBAL DEFAULT UND __memcpy_chk@LIBC (2)
87:   FUNC GLOBAL DEFAULT UND islower@LIBC (2)
88:   FUNC GLOBAL DEFAULT UND isupper@LIBC (2)
89:   FUNC GLOBAL DEFAULT UND strcmp@LIBC (2)
90:   FUNC GLOBAL DEFAULT UND strtoul@LIBC (2)
91:   FUNC WEAK DEFAULT 14 _ZNSt3__112__hash_tableIN
92:   FUNC GLOBAL DEFAULT 14 _ZN11unwindstack8JitDebug
93:   FUNC GLOBAL DEFAULT 14 _ZN11unwindstack11MemoryR
94:   FUNC WEAK DEFAULT 14 _ZNSt3__112__hash_tableIN
95:   FUNC WEAK DEFAULT 14 _ZNSt3__112__hash_tableIN
96:   FUNC WEAK DEFAULT 14 _ZN11unwindstack12ElfInte
97:   FUNC GLOBAL DEFAULT 14 _ZN11unwindstack9RegsArm6
98:   FUNC GLOBAL DEFAULT 14 _ZN11unwindstack8RegsMips
99:   OBJECT WEAK DEFAULT 18 _ZN9Demangler7kSTypesE
100:   FUNC GLOBAL DEFAULT 14 _ZN11unwindstack8ArmExidx
101:   FUNC GLOBAL DEFAULT 14 _ZN11unwindstack7MapInfoD
102:   FUNC WEAK DEFAULT 14 _ZN11unwindstack8DwarfCfa
103:   FUNC WEAK DEFAULT 14 _ZN11unwindstack7DwarfOpI
104:   FUNC WEAK DEFAULT 14 _ZNSt3__16__treeINS_12__v
105:   FUNC WEAK DEFAULT 14 _ZN11unwindstack12ElfInte
106:   FUNC WEAK DEFAULT 14 _ZNSt3__112__hash_tableIN
107:   FUNC GLOBAL DEFAULT 14 _ZN11unwindstack8JitDebug
108:   FUNC GLOBAL DEFAULT 14 _ZN11unwindstack7RegsArm2
109:   FUNC GLOBAL DEFAULT 14 _ZN11unwindstack9RegsArm6
110:   FUNC WEAK DEFAULT 14 _ZNSt3__127__insertion_so
111:   FUNC WEAK DEFAULT 14 _ZNSt3__16vectorIM9Demang
112:   FUNC GLOBAL DEFAULT 14 _ZN11unwindstack8ArmExidx
113:   FUNC WEAK DEFAULT 14 _ZN11unwindstack8DwarfCfa
114:   FUNC WEAK DEFAULT 14 _ZN11unwindstack8DwarfCfa
115:   FUNC WEAK DEFAULT 14 _ZNSt3__112__hash_tableIN
116:   FUNC WEAK DEFAULT 14 _ZN11unwindstack19DwarfEh
117:   FUNC WEAK DEFAULT 14 _ZN11unwindstack16DwarfSe
118:   FUNC GLOBAL DEFAULT 14 _ZN11unwindstack8Unwinder
119:   FUNC GLOBAL DEFAULT 14 _ZN11unwindstack3Elf9GetS
120:   FUNC WEAK DEFAULT 14 _ZNSt3__16vectorINS_10uni
121:   FUNC WEAK DEFAULT 14 _ZNSt3__112__hash_tableIN
122:   FUNC GLOBAL DEFAULT 14 _ZN9Demangler19GetStringF
123:   FUNC WEAK DEFAULT 14 _ZN11unwindstack8DwarfCfa
124:   FUNC WEAK DEFAULT 14 _ZN11unwindstack7Symbols7
125:   FUNC WEAK DEFAULT 14 _ZN11unwindstack8DwarfCfa
126:   FUNC WEAK DEFAULT 14 _ZNSt3__112__hash_tableIN
127:   FUNC WEAK DEFAULT 14 _ZNSt3__114__split_buffer
128:   FUNC WEAK DEFAULT 14 _ZN11unwindstack16DwarfSe
129:   FUNC WEAK DEFAULT 14 _ZN11unwindstack21DwarfSe
130:   FUNC GLOBAL DEFAULT 14 _ZN11unwindstack8JitDebug
131:   FUNC WEAK DEFAULT 14 _ZNSt3__16vectorImNS_9all
132:   FUNC WEAK DEFAULT 14 _ZNSt3__112__hash_tableIN
133:   FUNC WEAK DEFAULT 14 _ZN11unwindstack7DwarfOpI
134:   FUNC WEAK DEFAULT 14 _ZN11unwindstack16DwarfSe
135:   FUNC GLOBAL DEFAULT 14 _ZN11unwindstack3Elf22Cac
136:   FUNC GLOBAL DEFAULT 14 _ZN11unwindstack10RegsMip
137:   FUNC GLOBAL DEFAULT 14 _ZN11unwindstack4Regs15Cr
138:   FUNC WEAK DEFAULT 14 _ZN11unwindstack8DwarfCfa
139:   FUNC GLOBAL DEFAULT 14 _ZN11unwindstack3Elf15Get
140:   FUNC GLOBAL DEFAULT 14 _ZN11unwindstack8RegsMips
141:   FUNC GLOBAL DEFAULT 14 _Z8demanglePKc
142:   OBJECT WEAK DEFAULT 18 _ZTVN11unwindstack8DwarfC
143:   FUNC WEAK DEFAULT 14 _ZN11unwindstack11DwarfMe
144:   FUNC WEAK DEFAULT 14 _ZN11unwindstack21DwarfSe
145:   FUNC WEAK DEFAULT 14 _ZNSt3__112__hash_tableIN
146:   OBJECT WEAK DEFAULT 18 _ZTVN11unwindstack14ElfIn
147:   FUNC WEAK DEFAULT 14 _ZN11unwindstack8DwarfCfa
148:   FUNC WEAK DEFAULT 14 _ZN11unwindstack19DwarfEh
149:   OBJECT WEAK DEFAULT 18 _ZTVNSt3__120__shared_ptr
150:   FUNC GLOBAL DEFAULT 14 _ZN11unwindstack15Unwinde
151:   FUNC WEAK DEFAULT 14 _ZN11unwindstack8DwarfCfa
152:   FUNC WEAK DEFAULT 14 _ZNSt3__112__hash_tableIN
153:   FUNC WEAK DEFAULT 14 _ZNSt3__112__hash_tableIN
154:   FUNC WEAK DEFAULT 14 _ZN11unwindstack7DwarfOpI
155:   OBJECT GLOBAL DEFAULT 18 _ZTVN11unwindstack10Buffe
156:   FUNC GLOBAL DEFAULT 14 _ZN11unwindstack7RegsArm4
157:   FUNC WEAK DEFAULT 14 _ZN11unwindstack8DwarfCfa
158:   FUNC WEAK DEFAULT 14 _ZN11unwindstack15DwarfDe
159:   FUNC WEAK DEFAULT 14 _ZN11unwindstack12ElfInte
160:   FUNC GLOBAL DEFAULT 14 _ZN11unwindstack13LocalUn
161:   FUNC GLOBAL DEFAULT 14 _ZN11unwindstack13LocalUn
162:   FUNC WEAK DEFAULT 14 _ZNSt3__15dequeIhNS_9allo
163:   FUNC WEAK DEFAULT 14 _ZNSt3__16vectorImNS_9all
164:   FUNC WEAK DEFAULT 14 _ZN11unwindstack19DwarfEh
165:   FUNC WEAK DEFAULT 14 _ZN11unwindstack7DwarfOpI
166:   OBJECT WEAK DEFAULT 18 _ZTVN11unwindstack9LocalM
167:   FUNC WEAK DEFAULT 14 _ZNSt3__16vectorINS_12bas
168:   FUNC WEAK DEFAULT 14 _ZN11unwindstack16DwarfSe
169:   FUNC GLOBAL DEFAULT 14 _ZN11unwindstack12ElfInte
170:   FUNC GLOBAL DEFAULT 14 _ZN11unwindstack12MemoryR
171:   FUNC WEAK DEFAULT 14 _ZN11unwindstack8DwarfCfa
172:   FUNC GLOBAL DEFAULT 14 _ZN11unwindstack10RegsX86
173:   FUNC WEAK DEFAULT 14 _ZN11unwindstack11DwarfMe
174:   FUNC WEAK DEFAULT 14 _ZN11unwindstack7DwarfOpI
175:   FUNC WEAK DEFAULT 14 _ZN11unwindstack7DwarfOpI
176:   FUNC GLOBAL DEFAULT 14 _ZN11unwindstack10RegsMip
177:   FUNC WEAK DEFAULT 14 _ZN11unwindstack16DwarfSe
178:   FUNC WEAK DEFAULT 14 _ZNSt3__112__hash_tableIN
179:   OBJECT WEAK DEFAULT 18 _ZTVN11unwindstack16Dwarf
180:   FUNC WEAK DEFAULT 14 _ZNSt3__120__shared_ptr_p
181:   FUNC GLOBAL DEFAULT 14 _ZN11unwindstack9RegsArm6
182:   FUNC WEAK DEFAULT 14 _ZNSt3__16vectorINS_12bas
183:   FUNC GLOBAL DEFAULT 14 _ZN11unwindstack3Elf11Cac
184:   FUNC WEAK DEFAULT 14 _ZNSt3__114__split_buffer
185:   FUNC WEAK DEFAULT 14 _ZN11unwindstack11DwarfMe
186:   FUNC WEAK DEFAULT 14 _ZN11unwindstack7DwarfOpI
187:   FUNC WEAK DEFAULT 14 _ZN11unwindstack11DwarfMe
188:   FUNC WEAK DEFAULT 14 _ZNSt3__112__hash_tableIN
189:   FUNC GLOBAL DEFAULT 14 _ZN11unwindstack9RegsArm6
190:   FUNC WEAK DEFAULT 14 _ZNSt3__114__split_buffer
191:   FUNC WEAK DEFAULT 14 _ZNSt3__114__split_buffer
192:   FUNC WEAK DEFAULT 14 _ZNSt3__16vectorIPKN11unw
193:   FUNC GLOBAL DEFAULT 14 _ZN11unwindstack15ElfInte
194:   OBJECT GLOBAL DEFAULT 18 _ZTVN11unwindstack11Memor
195:   FUNC WEAK DEFAULT 14 _ZN11unwindstack7DwarfOpI
196:   FUNC WEAK DEFAULT 14 _ZNSt3__16vectorINS_4pair
197:   FUNC GLOBAL DEFAULT 14 _ZN11unwindstack8JitDebug
198:   FUNC GLOBAL DEFAULT 14 _ZN11unwindstack7MapInfo3
199:   FUNC GLOBAL DEFAULT 14 _ZN11unwindstack10RegsX86
200:   FUNC WEAK DEFAULT 14 _ZNSt3__112__hash_tableIN
201:   FUNC GLOBAL DEFAULT 14 _ZN11unwindstack11DwarfMe
202:   FUNC GLOBAL DEFAULT 14 _ZN11unwindstack8RegsMips
203:   FUNC WEAK DEFAULT 14 _ZN11unwindstack8DwarfCfa
204:   FUNC GLOBAL DEFAULT 14 _ZN11unwindstack18LocalUp
205:   FUNC WEAK DEFAULT 14 _ZNSt3__16vectorIN11unwin
206:   FUNC WEAK DEFAULT 14 _ZNSt3__114__split_buffer
207:   FUNC WEAK DEFAULT 14 _ZN11unwindstack12DwarfEh
208:   FUNC GLOBAL DEFAULT 14 _ZN11unwindstack8DexFiles
209:   FUNC WEAK DEFAULT 14 _ZN11unwindstack12ElfInte
210:   FUNC GLOBAL DEFAULT 14 _ZN11unwindstack19MemoryO
211:   FUNC GLOBAL DEFAULT 14 _ZN11unwindstack9RegsArm6
212:   FUNC WEAK DEFAULT 14 _ZN11unwindstack8DwarfCfa
213:   FUNC WEAK DEFAULT 14 _ZN11unwindstack8DwarfCfa
214:   FUNC WEAK DEFAULT 14 _ZN11unwindstack12ElfInte
215:   FUNC GLOBAL DEFAULT 14 _ZN11unwindstack6Memory25
216:   OBJECT WEAK DEFAULT 18 _ZTVN11unwindstack8RegsIm
217:   FUNC GLOBAL DEFAULT 14 _ZN11unwindstack10RegsMip
218:   FUNC WEAK DEFAULT 14 _ZN11unwindstack19DwarfEh
219:   FUNC WEAK DEFAULT 14 _ZNSt3__112__hash_tableIN
220:   FUNC GLOBAL DEFAULT 14 _ZN11unwindstack3Elf8GetR
221:   FUNC WEAK DEFAULT 14 _ZNSt3__112__hash_tableIN
222:   FUNC GLOBAL DEFAULT 14 _ZN11unwindstack10RegsX86
223:   OBJECT GLOBAL DEFAULT 18 _ZTVN11unwindstack7RegsX8
224:   FUNC WEAK DEFAULT 14 _ZNSt3__114__split_buffer
225:   FUNC WEAK DEFAULT 14 _ZN11unwindstack21DwarfSe
226:   FUNC GLOBAL DEFAULT 14 _ZN11unwindstack7RegsX866
227:   FUNC GLOBAL DEFAULT 14 _ZN11unwindstack8Unwinder
228:   FUNC WEAK DEFAULT 14 _ZN11unwindstack19DwarfEh
229:   FUNC WEAK DEFAULT 14 _ZNSt3__15dequeImNS_9allo
230:   FUNC GLOBAL DEFAULT 14 _ZN11unwindstack18MemoryF
231:   FUNC GLOBAL DEFAULT 14 _ZN9Demangler13AppendCurr
232:   FUNC GLOBAL DEFAULT 14 _ZN11unwindstack8ArmExidx
233:   FUNC WEAK DEFAULT 14 _ZN11unwindstack8DwarfCfa
234:   FUNC WEAK DEFAULT 14 _ZN11unwindstack8DwarfCfa
235:   FUNC GLOBAL DEFAULT 14 _ZN11unwindstack8JitDebug
236:   FUNC GLOBAL DEFAULT 14 _ZN9Demangler20ParseCompl
237:   OBJECT WEAK DEFAULT 18 _ZTVN11unwindstack19Dwarf
238:   FUNC GLOBAL DEFAULT 14 _ZN11unwindstack9RegsArm6
239:   FUNC WEAK DEFAULT 14 _ZN11unwindstack7DwarfOpI
240:   FUNC WEAK DEFAULT 14 _ZN11unwindstack7DwarfOpI
241:   FUNC WEAK DEFAULT 14 _ZN11unwindstack7DwarfOpI
242:   FUNC WEAK DEFAULT 14 _ZN11unwindstack16DwarfSe
243:   FUNC GLOBAL DEFAULT 14 _ZN11unwindstack12ElfInte
244:   FUNC GLOBAL DEFAULT 14 _ZN11unwindstack15DexFile
245:   FUNC WEAK DEFAULT 14 _ZNSt3__16__treeINS_12__v
246:   FUNC WEAK DEFAULT 14 _ZN11unwindstack7DwarfOpI
247:   OBJECT WEAK DEFAULT 18 _ZTVNSt3__120__shared_ptr
248:   FUNC GLOBAL DEFAULT 14 _ZN11unwindstack8RegsMips
249:   FUNC WEAK DEFAULT 14 _ZN11unwindstack8DwarfCfa
250:   FUNC WEAK DEFAULT 14 _ZNSt3__120__shared_ptr_p
251:   OBJECT GLOBAL DEFAULT 18 _ZTVN11unwindstack12Memor
252:   FUNC WEAK DEFAULT 14 _ZN11unwindstack8DwarfCfa
253:   FUNC GLOBAL DEFAULT 14 _ZN11unwindstack3Elf12Get
254:   FUNC WEAK DEFAULT 14 _ZNSt3__16__sortIRZN11unw
255:   FUNC WEAK DEFAULT 14 _ZNSt3__112__deque_baseIN
256:   FUNC WEAK DEFAULT 14 _ZN11unwindstack8DwarfCfa
257:   OBJECT WEAK DEFAULT 18 _ZTVN11unwindstack7DwarfO
258:   FUNC WEAK DEFAULT 14 _ZN11unwindstack7DwarfOpI
259:   FUNC WEAK DEFAULT 14 _ZN11unwindstack16DwarfSe
260:   FUNC WEAK DEFAULT 14 _ZN11unwindstack12ElfInte
261:   FUNC GLOBAL DEFAULT 14 _ZN11unwindstack12MemoryB
262:   FUNC WEAK DEFAULT 14 _ZN11unwindstack7DwarfOpI
263:   FUNC WEAK DEFAULT 14 _ZN11unwindstack16DwarfSe
264:   FUNC GLOBAL DEFAULT 14 _ZN11unwindstack7RegsX86C
265:   FUNC GLOBAL DEFAULT 14 _ZN9Demangler17ParseFunct
266:   FUNC WEAK DEFAULT 14 _ZNSt3__112__hash_tableIN
267:   FUNC WEAK DEFAULT 14 _ZN11unwindstack7DwarfOpI
268:   FUNC GLOBAL DEFAULT 14 _ZN11unwindstack8JitDebug
269:   FUNC WEAK DEFAULT 14 _ZN11unwindstack16DwarfSe
270:   FUNC GLOBAL DEFAULT 14 _ZN11unwindstack3Elf9IsVa
271:   FUNC WEAK DEFAULT 14 _ZNSt3__16vectorINS_10uni
272:   FUNC GLOBAL DEFAULT 14 _ZN11unwindstack7RegsX862
273:   FUNC GLOBAL DEFAULT 14 _ZN11unwindstack10RegsX86
274:   FUNC GLOBAL DEFAULT 14 _ZN11unwindstack12DwarfSe
275:   FUNC GLOBAL DEFAULT 14 _ZN11unwindstack4Maps4Fin
276:   FUNC GLOBAL DEFAULT 14 _ZN11unwindstack9RegsArm6
277:   FUNC GLOBAL DEFAULT 14 _ZN11unwindstack10RegsX86
278:   FUNC GLOBAL DEFAULT 14 _ZN9Demangler29ParseTempl
279:   FUNC WEAK DEFAULT 14 _ZNSt3__114__split_buffer
280:   FUNC WEAK DEFAULT 14 _ZN11unwindstack7DwarfOpI
281:   FUNC WEAK DEFAULT 14 _ZNSt3__114__split_buffer
282:   FUNC GLOBAL DEFAULT 14 _ZN11unwindstack7DexFile2
283:   FUNC WEAK DEFAULT 14 _ZN11unwindstack14GetBuil
284:   FUNC GLOBAL DEFAULT 14 _ZN11unwindstack8RegsMips
285:   FUNC GLOBAL DEFAULT 14 _ZN11unwindstack11DwarfMe
286:   FUNC WEAK DEFAULT 14 _ZN11unwindstack7DwarfOpI
287:   FUNC WEAK DEFAULT 14 _ZN11unwindstack15DwarfDe
288:   OBJECT GLOBAL DEFAULT 18 _ZTVN11unwindstack15ElfIn
289:   FUNC WEAK DEFAULT 14 _ZNSt3__112__hash_tableIN
290:   FUNC WEAK DEFAULT 14 _ZN11unwindstack8DwarfCfa
291:   FUNC WEAK DEFAULT 14 _ZN11unwindstack19DwarfEh
292:   FUNC WEAK DEFAULT 14 _ZN11unwindstack7DwarfOpI
293:   FUNC WEAK DEFAULT 14 _ZN11unwindstack7DwarfOpI
294:   FUNC WEAK DEFAULT 14 _ZN11unwindstack16DwarfSe
295:   FUNC WEAK DEFAULT 14 _ZNSt3__16vectorIcNS_9all
296:   OBJECT GLOBAL DEFAULT 22 _ZN11unwindstack3Elf6cach
297:   FUNC GLOBAL DEFAULT 14 _ZN11unwindstack11MemoryC
298:   FUNC GLOBAL DEFAULT 14 _ZN11unwindstack7RegsArm2
299:   FUNC GLOBAL DEFAULT 14 _ZN11unwindstack9RegsArm6
300:   FUNC GLOBAL DEFAULT 14 _ZN11unwindstack8DexFiles
301:   FUNC WEAK DEFAULT 14 _ZN11unwindstack8DwarfCfa
302:   FUNC WEAK DEFAULT 14 _ZN11unwindstack7DwarfOpI
303:   FUNC WEAK DEFAULT 14 _ZN11unwindstack16DwarfSe
304:   FUNC WEAK DEFAULT 14 _ZN11unwindstack12ElfInte
305:   FUNC GLOBAL DEFAULT 14 _ZN11unwindstack3Elf19Ste
306:   FUNC WEAK DEFAULT 14 _ZN11unwindstack8DwarfCfa
307:   FUNC WEAK DEFAULT 14 _ZNSt3__114__split_buffer
308:   FUNC WEAK DEFAULT 14 _ZN11unwindstack12ElfInte
309:   FUNC WEAK DEFAULT 14 _ZN11unwindstack8DwarfCfa
310:   FUNC GLOBAL DEFAULT 14 _ZN11unwindstack12MemoryR
311:   FUNC WEAK DEFAULT 14 _ZN11unwindstack8DwarfCfa
312:   FUNC WEAK DEFAULT 14 _ZN11unwindstack7DwarfOpI
313:   FUNC WEAK DEFAULT 14 _ZNSt3__112__hash_tableIN
314:   FUNC WEAK DEFAULT 14 _ZNSt3__112__hash_tableIN
315:   FUNC GLOBAL DEFAULT 14 _ZN11unwindstack7RegsArm1
316:   FUNC GLOBAL DEFAULT 14 _ZN11unwindstack7RegsArm6
317:   OBJECT WEAK DEFAULT 18 _ZN11unwindstack8DwarfCfa
318:   FUNC WEAK DEFAULT 14 _ZN11unwindstack7DwarfOpI
319:   FUNC WEAK DEFAULT 14 _ZN11unwindstack7DwarfOpI
320:   FUNC WEAK DEFAULT 14 _ZN11unwindstack7DwarfOpI
321:   FUNC WEAK DEFAULT 14 _ZN11unwindstack21DwarfSe
322:   FUNC GLOBAL DEFAULT 14 _ZN11unwindstack13MemoryO
323:   FUNC WEAK DEFAULT 14 _ZN11unwindstack19DwarfEh
324:   OBJECT WEAK DEFAULT 18 _ZTVN11unwindstack12Dwarf
325:   FUNC WEAK DEFAULT 14 _ZNSt3__120__shared_ptr_p
326:   OBJECT GLOBAL DEFAULT 18 _ZTVN11unwindstack18Memor
327:   FUNC GLOBAL DEFAULT 14 _ZN11unwindstack7RegsX861
328:   FUNC GLOBAL DEFAULT 14 _ZN11unwindstack10RegsX86
329:   FUNC GLOBAL DEFAULT 14 _ZN11unwindstack8DexFiles
330:   FUNC WEAK DEFAULT 14 _ZN11unwindstack8DwarfCfa
331:   OBJECT GLOBAL DEFAULT 18 _ZTVN11unwindstack11Memor
332:   OBJECT GLOBAL DEFAULT 18 _ZTVN11unwindstack8RegsMi
333:   FUNC GLOBAL DEFAULT 14 _ZN11unwindstack8Unwinder
334:   FUNC WEAK DEFAULT 14 _ZN11unwindstack7DwarfOpI
335:   FUNC WEAK DEFAULT 14 _ZN11unwindstack7DwarfOpI
336:   FUNC WEAK DEFAULT 14 _ZN11unwindstack7DwarfOpI
337:   FUNC WEAK DEFAULT 14 _ZN11unwindstack21DwarfSe
338:   FUNC GLOBAL DEFAULT 14 _ZN11unwindstack7SymbolsC
339:   FUNC GLOBAL DEFAULT 14 _ZN11unwindstack18MemoryF
340:   FUNC WEAK DEFAULT 14 _ZNSt3__16vectorIN11unwin
341:   FUNC WEAK DEFAULT 14 _ZN11unwindstack12DwarfEh
342:   FUNC WEAK DEFAULT 14 _ZNSt3__112__hash_tableIN
343:   FUNC GLOBAL DEFAULT 14 _ZN11unwindstack8RegsMips
344:   FUNC WEAK DEFAULT 14 _ZN11unwindstack7DwarfOpI
345:   FUNC GLOBAL DEFAULT 14 _ZN11unwindstack18MemoryF
346:   FUNC WEAK DEFAULT 14 _ZNSt3__120__shared_ptr_e
347:   FUNC GLOBAL DEFAULT 14 _ZN11unwindstack7RegsArm2
348:   FUNC GLOBAL DEFAULT 14 _ZN11unwindstack9RegsArm6
349:   FUNC GLOBAL DEFAULT 14 _ZN11unwindstack8RegsMips
350:   FUNC WEAK DEFAULT 14 _ZNSt3__15dequeIN11unwind
351:   FUNC WEAK DEFAULT 14 _ZN11unwindstack7DwarfOpI
352:   FUNC GLOBAL DEFAULT 14 _ZN11unwindstack15ElfInte
353:   FUNC WEAK DEFAULT 14 _ZNSt3__120__shared_ptr_e
354:   FUNC GLOBAL DEFAULT 14 _ZN11unwindstack10RegsMip
355:   FUNC WEAK DEFAULT 14 _ZN11unwindstack8DwarfCfa
356:   FUNC WEAK DEFAULT 14 _ZN11unwindstack19DwarfEh
357:   FUNC WEAK DEFAULT 14 _ZN11unwindstack7DwarfOpI
358:   FUNC WEAK DEFAULT 14 _ZN11unwindstack7DwarfOpI
359:   FUNC WEAK DEFAULT 14 _ZN11unwindstack7DwarfOpI
360:   FUNC WEAK DEFAULT 14 _ZN11unwindstack16DwarfSe
361:   FUNC WEAK DEFAULT 14 _ZNSt3__112__hash_tableIN
362:   OBJECT WEAK DEFAULT 18 _ZTVN11unwindstack21Dwarf
363:   FUNC WEAK DEFAULT 14 _ZN11unwindstack7Symbols9
364:   FUNC WEAK DEFAULT 14 _ZNSt3__112__hash_tableIN
365:   FUNC GLOBAL DEFAULT 14 _ZN11unwindstack8Unwinder
366:   FUNC GLOBAL DEFAULT 14 _ZN9Demangler30ParseFunct
367:   FUNC WEAK DEFAULT 14 _ZNSt3__114__split_buffer
368:   FUNC WEAK DEFAULT 14 _ZNSt3__112__hash_tableIN
369:   FUNC GLOBAL DEFAULT 14 _ZN11unwindstack10RegsMip
370:   FUNC GLOBAL DEFAULT 14 _ZN11unwindstack9RegsArm6
371:   FUNC GLOBAL DEFAULT 14 _ZN9Demangler18ParseCompl
372:   FUNC GLOBAL DEFAULT 14 _ZN9Demangler25ParseFunct
373:   FUNC WEAK DEFAULT 14 _ZN11unwindstack19DwarfEh
374:   FUNC GLOBAL DEFAULT 14 _ZN11unwindstack10RegsMip
375:   FUNC WEAK DEFAULT 14 _ZN11unwindstack8DwarfCfa
376:   FUNC WEAK DEFAULT 14 _ZN11unwindstack7DwarfOpI
377:   FUNC WEAK DEFAULT 14 _ZN11unwindstack7DwarfOpI
378:   FUNC WEAK DEFAULT 14 _ZN11unwindstack21DwarfSe
379:   FUNC GLOBAL DEFAULT 14 _ZN11unwindstack3Elf7GetI
380:   FUNC GLOBAL DEFAULT 14 _ZN11unwindstack10RegsMip
381:   FUNC WEAK DEFAULT 14 _ZN11unwindstack7DwarfOpI
382:   FUNC GLOBAL DEFAULT 14 _ZN11unwindstack7RegsX86C
383:   FUNC GLOBAL DEFAULT 14 _ZN9Demangler16FinalizeTe
384:   FUNC WEAK DEFAULT 14 _ZN11unwindstack8DwarfCfa
385:   FUNC GLOBAL DEFAULT 14 _ZN11unwindstack12ElfInte
386:   FUNC GLOBAL DEFAULT 14 _ZN11unwindstack3Elf11Get
387:   FUNC WEAK DEFAULT 14 _ZN11unwindstack8DwarfCfa
388:   FUNC GLOBAL DEFAULT 14 _ZN11unwindstack3Elf16Ini
389:   FUNC GLOBAL DEFAULT 14 _ZN11unwindstack6GlobalC2
390:   FUNC WEAK DEFAULT 14 _ZN11unwindstack8DwarfCfa
391:   FUNC WEAK DEFAULT 14 _ZN7android8procinfo18Rea
392:   FUNC WEAK DEFAULT 14 _ZN11unwindstack11DwarfMe
393:   FUNC WEAK DEFAULT 14 _ZN11unwindstack7DwarfOpI
394:   FUNC WEAK DEFAULT 14 _ZNSt3__16__treeINS_12__v
395:   FUNC GLOBAL DEFAULT 14 _ZN11unwindstack7MapInfo1
396:   FUNC GLOBAL DEFAULT 14 _ZN11unwindstack8DexFiles
397:   FUNC WEAK DEFAULT 14 _ZNSt3__16vectorIjNS_9all
398:   FUNC WEAK DEFAULT 14 _ZN11unwindstack16DwarfSe
399:   FUNC WEAK DEFAULT 14 _ZN11unwindstack12ElfInte
400:   OBJECT GLOBAL DEFAULT 18 _ZTVN11unwindstack4MapsE
401:   FUNC WEAK DEFAULT 14 _ZNSt3__16vectorIN11unwin
402:   OBJECT WEAK DEFAULT 18 _ZTVN11unwindstack15Dwarf
403:   FUNC GLOBAL DEFAULT 14 _ZN11unwindstack15ElfInte
404:   FUNC GLOBAL DEFAULT 14 _ZN11unwindstack19MemoryO
405:   FUNC GLOBAL DEFAULT 14 _ZN11unwindstack7RegsX861
406:   FUNC WEAK DEFAULT 14 _ZN11unwindstack8DwarfCfa
407:   FUNC WEAK DEFAULT 14 _ZN11unwindstack7DwarfOpI
408:   FUNC WEAK DEFAULT 14 _ZN11unwindstack7DwarfOpI
409:   FUNC WEAK DEFAULT 14 _ZNSt3__120__shared_ptr_p
410:   FUNC WEAK DEFAULT 14 _ZN11unwindstack7DwarfOpI
411:   FUNC GLOBAL DEFAULT 14 _ZNK11unwindstack10Remote
412:   FUNC WEAK DEFAULT 14 _ZNSt3__16vectorINS_10uni
413:   FUNC WEAK DEFAULT 14 _ZNSt3__112__hash_tableIN
414:   FUNC GLOBAL DEFAULT 14 _ZN11unwindstack6GlobalC2
415:   FUNC GLOBAL DEFAULT 14 _ZN11unwindstack8DexFiles
416:   FUNC GLOBAL DEFAULT 14 _ZN11unwindstack8DexFiles
417:   FUNC WEAK DEFAULT 14 _ZN11unwindstack21DwarfSe
418:   FUNC WEAK DEFAULT 14 _ZN11unwindstack12ElfInte
419:   FUNC GLOBAL DEFAULT 14 _ZN11unwindstack6Global17
420:   FUNC WEAK DEFAULT 14 _ZN11unwindstack19DwarfEh
421:   FUNC WEAK DEFAULT 14 _ZN11unwindstack7DwarfOpI
422:   FUNC WEAK DEFAULT 14 _ZN11unwindstack7DwarfOpI
423:   OBJECT WEAK DEFAULT 18 _ZTVN11unwindstack8ArmExi
424:   FUNC GLOBAL DEFAULT 14 _ZN11unwindstack8JitDebug
425:   FUNC WEAK DEFAULT 14 _ZNSt3__16vectorINS_12bas
426:   FUNC WEAK DEFAULT 14 _ZN11unwindstack8DwarfCfa
427:   FUNC WEAK DEFAULT 14 _ZN11unwindstack7DwarfOpI
428:   FUNC WEAK DEFAULT 14 _ZN11unwindstack12ElfInte
429:   FUNC GLOBAL DEFAULT 14 _ZN11unwindstack8RegsMips
430:   FUNC WEAK DEFAULT 14 _ZNSt3__114__split_buffer
431:   OBJECT GLOBAL DEFAULT 18 _ZTVN11unwindstack19Memor
432:   FUNC GLOBAL DEFAULT 14 _ZN9Demangler24ParseArgum
433:   FUNC WEAK DEFAULT 14 _ZN11unwindstack7DwarfOpI
434:   FUNC GLOBAL DEFAULT 14 _ZN11unwindstack3Elf25Cre
435:   FUNC GLOBAL DEFAULT 14 _ZN11unwindstack7MapInfo1
436:   FUNC GLOBAL DEFAULT 14 _ZN11unwindstack7MapInfo1
437:   FUNC WEAK DEFAULT 14 _ZNSt3__16vectorIN11unwin
438:   FUNC WEAK DEFAULT 14 _ZNSt3__16vectorINS_12bas
439:   FUNC GLOBAL DEFAULT 14 _ZN11unwindstack6Memory9R
440:   FUNC WEAK DEFAULT 14 _ZN11unwindstack8DwarfCfa
441:   FUNC WEAK DEFAULT 14 _ZN11unwindstack16DwarfSe
442:   FUNC GLOBAL DEFAULT 14 _ZN11unwindstack3Elf10Inv
443:   OBJECT GLOBAL DEFAULT 18 _ZTVN11unwindstack9RegsAr
444:   OBJECT WEAK DEFAULT 18 _ZN9Demangler7kDTypesE
445:   FUNC WEAK DEFAULT 14 _ZN11unwindstack8DwarfCfa
446:   FUNC WEAK DEFAULT 14 _ZN11unwindstack7DwarfOpI
447:   FUNC GLOBAL DEFAULT 14 _ZN11unwindstack3Elf10IsV
448:   FUNC WEAK DEFAULT 14 _ZN11unwindstack16DwarfSe
449:   FUNC WEAK DEFAULT 14 _ZN11unwindstack7Symbols7
450:   FUNC GLOBAL DEFAULT 14 _ZN11unwindstack18MemoryF
451:   FUNC GLOBAL DEFAULT 14 _ZN11unwindstack7SymbolsC
452:   FUNC WEAK DEFAULT 14 _ZNSt3__112__hash_tableIN
453:   FUNC WEAK DEFAULT 14 _ZN11unwindstack7DwarfOpI
454:   FUNC WEAK DEFAULT 14 _ZNSt3__114__split_buffer
455:   FUNC GLOBAL DEFAULT 14 _ZN11unwindstack4Maps5Par
456:   FUNC GLOBAL DEFAULT 14 _ZN11unwindstack7RegsArm1
457:   FUNC WEAK DEFAULT 14 _ZNSt3__17__sort4IRZN11un
458:   OBJECT WEAK DEFAULT 18 _ZTVN11unwindstack17DexFi
459:   FUNC WEAK DEFAULT 14 _ZN11unwindstack8DwarfCfa
460:   FUNC WEAK DEFAULT 14 _ZN11unwindstack16DwarfSe
461:   FUNC WEAK DEFAULT 14 _ZN11unwindstack12ElfInte
462:   FUNC WEAK DEFAULT 14 _ZNSt3__127__insertion_so
463:   FUNC GLOBAL DEFAULT 14 _ZN11unwindstack8DexFiles
464:   FUNC WEAK DEFAULT 14 _ZN11unwindstack8DwarfCfa
465:   FUNC WEAK DEFAULT 14 _ZNSt3__112__hash_tableIN
466:   FUNC WEAK DEFAULT 14 _ZNSt3__16vectorIPN11unwi
467:   FUNC GLOBAL DEFAULT 14 _ZN11unwindstack11MemoryR
468:   FUNC GLOBAL DEFAULT 14 _ZN9Demangler4SaveERKNSt3
469:   FUNC WEAK DEFAULT 14 _ZN11unwindstack11DwarfMe
470:   OBJECT WEAK DEFAULT 18 _ZN11unwindstack7DwarfOpI
471:   FUNC WEAK DEFAULT 14 _ZN11unwindstack15DwarfDe
472:   FUNC WEAK DEFAULT 14 _ZN11unwindstack7DwarfOpI
473:   FUNC GLOBAL DEFAULT 14 _ZN11unwindstack7RegsX862
474:   FUNC WEAK DEFAULT 14 _ZN11unwindstack8DwarfCfa
475:   FUNC WEAK DEFAULT 14 _ZN11unwindstack19DwarfEh
476:   FUNC WEAK DEFAULT 14 _ZN11unwindstack7DwarfOpI
477:   FUNC WEAK DEFAULT 14 _ZN11unwindstack12ElfInte
478:   OBJECT WEAK DEFAULT 18 _ZTVNSt3__120__shared_ptr
479:   OBJECT WEAK DEFAULT 18 _ZTVNSt3__120__shared_ptr
480:   FUNC GLOBAL DEFAULT 14 _ZN11unwindstack10RegsX86
481:   FUNC GLOBAL DEFAULT 14 _ZN11unwindstack8DexFiles
482:   FUNC WEAK DEFAULT 14 _ZN11unwindstack7DwarfOpI
483:   FUNC WEAK DEFAULT 14 _ZNSt3__1plIcNS_11char_tr
484:   FUNC GLOBAL DEFAULT 14 _ZN11unwindstack7MapInfo1
485:   FUNC GLOBAL DEFAULT 14 _ZNK11unwindstack18LocalU
486:   FUNC GLOBAL DEFAULT 14 _ZN11unwindstack7RegsArmC
487:   FUNC WEAK DEFAULT 14 _ZNSt3__112__hash_tableIN
488:   OBJECT GLOBAL DEFAULT 18 _ZTVN11unwindstack12Memor
489:   OBJECT WEAK DEFAULT 18 _ZTVN11unwindstack6Global
490:   FUNC WEAK DEFAULT 14 _ZNSt3__112__hash_tableIN
491:   FUNC GLOBAL DEFAULT 14 _ZN11unwindstack8RegsMips
492:   FUNC WEAK DEFAULT 14 _ZN11unwindstack8DwarfCfa
493:   FUNC WEAK DEFAULT 14 _ZN11unwindstack8DwarfCfa
494:   FUNC WEAK DEFAULT 14 _ZN11unwindstack8DwarfCfa
495:   FUNC WEAK DEFAULT 14 _ZN11unwindstack7DwarfOpI
496:   FUNC WEAK DEFAULT 14 _ZN11unwindstack7DwarfOpI
497:   FUNC GLOBAL DEFAULT 14 _ZN11unwindstack12ElfInte
498:   OBJECT GLOBAL DEFAULT 18 _ZTVN11unwindstack10Remot
499:   FUNC GLOBAL DEFAULT 14 _ZN11unwindstack6Global19
500:   FUNC WEAK DEFAULT 14 _ZN11unwindstack7DwarfOpI
501:   FUNC WEAK DEFAULT 14 _ZN11unwindstack8DwarfCfa
502:   FUNC WEAK DEFAULT 14 _ZN11unwindstack21DwarfSe
503:   FUNC GLOBAL DEFAULT 14 _ZN11unwindstack11MemoryL
504:   FUNC GLOBAL DEFAULT 14 _ZN11unwindstack18MemoryF
505:   FUNC GLOBAL DEFAULT 14 _ZN11unwindstack7RegsX865
506:   FUNC WEAK DEFAULT 14 _ZN11unwindstack7DwarfOpI
507:   FUNC WEAK DEFAULT 14 _ZN11unwindstack7DwarfOpI
508:   FUNC WEAK DEFAULT 14 _ZN11unwindstack21DwarfSe
509:   FUNC WEAK DEFAULT 14 _ZN11unwindstack12ElfInte
510:   FUNC WEAK DEFAULT 14 _ZN11unwindstack12ElfInte
511:   FUNC WEAK DEFAULT 14 _ZN11unwindstack8DwarfCfa
512:   FUNC WEAK DEFAULT 14 _ZN11unwindstack8DwarfCfa
513:   FUNC WEAK DEFAULT 14 _ZN11unwindstack8DwarfCfa
514:   FUNC WEAK DEFAULT 14 _ZNSt3__112__hash_tableIN
515:   FUNC WEAK DEFAULT 14 _ZN11unwindstack7DwarfOpI
516:   OBJECT WEAK DEFAULT 18 _ZTVN11unwindstack16Dwarf
517:   FUNC GLOBAL DEFAULT 14 _ZN11unwindstack7MapInfo1
518:   FUNC GLOBAL DEFAULT 14 _ZN11unwindstack6Memory19
519:   FUNC GLOBAL DEFAULT 14 _ZN11unwindstack8RegsMips
520:   FUNC WEAK DEFAULT 14 _ZNSt3__112__hash_tableIN
521:   FUNC WEAK DEFAULT 14 _ZN11unwindstack7DwarfOpI
522:   FUNC GLOBAL DEFAULT 14 _ZN11unwindstack3Elf17Get
523:   FUNC GLOBAL DEFAULT 14 _ZN11unwindstack7RegsArm6
524:   FUNC WEAK DEFAULT 14 _ZN11unwindstack7DwarfOpI
525:   FUNC GLOBAL DEFAULT 14 _ZN11unwindstack8Unwinder
526:   OBJECT WEAK DEFAULT 18 _ZN11unwindstack7DwarfOpI
527:   FUNC WEAK DEFAULT 14 _ZN11unwindstack12ElfInte
528:   FUNC GLOBAL DEFAULT 14 _ZN11unwindstack8DexFiles
529:   FUNC WEAK DEFAULT 14 _ZN11unwindstack8DwarfCfa
530:   FUNC GLOBAL DEFAULT 14 _ZN11unwindstack11DwarfMe
531:   FUNC WEAK DEFAULT 14 _ZN11unwindstack7DwarfOpI
532:   FUNC WEAK DEFAULT 14 _ZN11unwindstack12ElfInte
533:   FUNC WEAK DEFAULT 14 _ZNSt3__112__hash_tableIN
534:   FUNC WEAK DEFAULT 14 _ZNSt3__120__shared_ptr_p
535:   FUNC GLOBAL DEFAULT 14 _ZN11unwindstack7RegsArm1
536:   FUNC WEAK DEFAULT 14 _ZN11unwindstack7DwarfOpI
537:   FUNC GLOBAL DEFAULT 14 _ZN11unwindstack3Elf17Set
538:   FUNC GLOBAL DEFAULT 14 _ZN11unwindstack10RegsX86
539:   FUNC GLOBAL DEFAULT 14 _ZN11unwindstack8RegsMips
540:   FUNC WEAK DEFAULT 14 _ZNSt3__114__split_buffer
541:   FUNC WEAK DEFAULT 14 _ZN11unwindstack8DwarfCfa
542:   FUNC WEAK DEFAULT 14 _ZN11unwindstack7DwarfOpI
543:   FUNC WEAK DEFAULT 14 _ZN11unwindstack7DwarfOpI
544:   FUNC GLOBAL DEFAULT 14 _ZN11unwindstack3Elf4Step
545:   FUNC GLOBAL DEFAULT 14 _ZN11unwindstack9RegsArm6
546:   FUNC WEAK DEFAULT 14 _ZN11unwindstack7DwarfOpI
547:   FUNC GLOBAL DEFAULT 14 _ZN11unwindstack3Elf16Get
548:   FUNC GLOBAL DEFAULT 14 _ZN11unwindstack18MemoryO
549:   FUNC WEAK DEFAULT 14 _ZNSt3__16__treeINS_12__v
550:   FUNC GLOBAL DEFAULT 14 _ZN11unwindstack7RegsX861
551:   FUNC WEAK DEFAULT 14 _ZN11unwindstack8DwarfCfa
552:   OBJECT GLOBAL DEFAULT 18 _ZTVN11unwindstack8JitDeb
553:   FUNC GLOBAL DEFAULT 14 _ZN11unwindstack10RegsMip
554:   FUNC GLOBAL DEFAULT 14 _ZN11unwindstack8ArmExidx
555:   FUNC WEAK DEFAULT 14 _ZN11unwindstack7DwarfOpI
556:   FUNC WEAK DEFAULT 14 _ZN11unwindstack7DwarfOpI
557:   OBJECT GLOBAL DEFAULT 18 _ZTVN11unwindstack18Local
558:   FUNC GLOBAL DEFAULT 14 _ZN11unwindstack8RegsMips
559:   OBJECT GLOBAL DEFAULT 18 _ZTVN11unwindstack8DexFil
560:   FUNC WEAK DEFAULT 14 _ZN11unwindstack16DwarfSe
561:   FUNC WEAK DEFAULT 14 _ZNSt3__112__hash_tableIN
562:   FUNC WEAK DEFAULT 14 _ZN11unwindstack12ElfInte
563:   FUNC WEAK DEFAULT 14 _ZN11unwindstack7DwarfOpI
564:   FUNC WEAK DEFAULT 14 _ZN11unwindstack14GetBuil
565:   FUNC GLOBAL DEFAULT 14 _ZN11unwindstack8ArmExidx
566:   FUNC WEAK DEFAULT 14 _ZNSt3__16vectorIPKN11unw
567:   FUNC WEAK DEFAULT 14 _ZN11unwindstack7DwarfOpI
568:   FUNC WEAK DEFAULT 14 _ZN11unwindstack7DwarfOpI
569:   FUNC GLOBAL DEFAULT 14 _ZN11unwindstack11MemoryR
570:   FUNC WEAK DEFAULT 14 _ZNSt3__120__shared_ptr_p
571:   FUNC GLOBAL DEFAULT 14 _ZN9Demangler20AppendOper
572:   OBJECT WEAK DEFAULT 18 _ZTVN11unwindstack8DwarfC
573:   FUNC WEAK DEFAULT 14 _ZN11unwindstack7DwarfOpI
574:   FUNC WEAK DEFAULT 14 _ZN11unwindstack8DwarfCfa
575:   FUNC GLOBAL DEFAULT 14 _ZN11unwindstack6Global7S
576:   FUNC GLOBAL DEFAULT 14 _ZN11unwindstack8JitDebug
577:   FUNC GLOBAL DEFAULT 14 _ZN9Demangler14AppendArgu
578:   FUNC GLOBAL DEFAULT 14 _ZN11unwindstack11DwarfMe
579:   FUNC WEAK DEFAULT 14 _ZN11unwindstack11DwarfMe
580:   FUNC WEAK DEFAULT 14 _ZNSt3__112__hash_tableIN
581:   FUNC WEAK DEFAULT 14 _ZN11unwindstack7DwarfOpI
582:   FUNC GLOBAL DEFAULT 14 _ZN11unwindstack4Maps3Add
583:   FUNC GLOBAL DEFAULT 14 _ZN11unwindstack8Unwinder
584:   FUNC WEAK DEFAULT 14 _ZNSt3__1plIcNS_11char_tr
585:   FUNC WEAK DEFAULT 14 _ZN11unwindstack8DwarfCfa
586:   FUNC WEAK DEFAULT 14 _ZN11unwindstack16DwarfSe
587:   FUNC WEAK DEFAULT 14 _ZN11unwindstack7DwarfOpI
588:   OBJECT GLOBAL DEFAULT 22 _ZN11unwindstack3Elf14cac
589:   FUNC GLOBAL DEFAULT 14 _ZN11unwindstack7MapInfo6
590:   OBJECT GLOBAL DEFAULT 18 _ZTVN11unwindstack18Memor
591:   OBJECT GLOBAL DEFAULT 18 _ZTVN11unwindstack11Memor
592:   FUNC WEAK DEFAULT 14 _ZN11unwindstack7DwarfOpI
593:   FUNC WEAK DEFAULT 14 _ZNSt3__15dequeIN9Demangl
594:   FUNC WEAK DEFAULT 14 _ZN11unwindstack7DwarfOpI
595:   FUNC WEAK DEFAULT 14 _ZN11unwindstack7DwarfOpI
596:   FUNC GLOBAL DEFAULT 14 _ZN11unwindstack7RegsArmC
597:   FUNC WEAK DEFAULT 14 _ZNSt3__17__sort4IRZN11un
598:   FUNC GLOBAL DEFAULT 14 _ZN11unwindstack8DexFiles
599:   FUNC WEAK DEFAULT 14 _ZN11unwindstack16DwarfSe
600:   FUNC WEAK DEFAULT 14 _ZN11unwindstack7DwarfOpI
601:   FUNC WEAK DEFAULT 14 _ZN11unwindstack7DwarfOpI
602:   FUNC WEAK DEFAULT 14 _ZNSt3__112__hash_tableIN
603:   FUNC WEAK DEFAULT 14 _ZN11unwindstack7DwarfOpI
604:   OBJECT GLOBAL DEFAULT 18 _ZTVN11unwindstack12Memor
605:   FUNC WEAK DEFAULT 14 _ZN11unwindstack8DwarfCfa
606:   FUNC WEAK DEFAULT 14 _ZNSt3__114__split_buffer
607:   FUNC GLOBAL DEFAULT 14 _ZN11unwindstack12ElfInte
608:   FUNC GLOBAL DEFAULT 14 _ZN9Demangler14ParseArgum
609:   FUNC WEAK DEFAULT 14 _ZN11unwindstack8DwarfCfa
610:   FUNC GLOBAL DEFAULT 14 _ZN11unwindstack8JitDebug
611:   FUNC GLOBAL DEFAULT 14 _ZN9Demangler5ParseEPKcm
612:   OBJECT WEAK DEFAULT 18 _ZN11unwindstack8DwarfCfa
613:   FUNC WEAK DEFAULT 14 _ZN11unwindstack15DwarfDe
614:   FUNC WEAK DEFAULT 14 _ZN11unwindstack8DwarfCfa
615:   FUNC GLOBAL DEFAULT 14 _ZN11unwindstack8JitDebug
616:   OBJECT GLOBAL DEFAULT 18 _ZTVN11unwindstack7RegsAr
617:   FUNC GLOBAL DEFAULT 14 _ZN11unwindstack10RegsMip
618:   FUNC GLOBAL DEFAULT 14 _ZN9Demangler16FindFuncti
619:   FUNC GLOBAL DEFAULT 14 _ZN9Demangler6ParseTEPKc
620:   FUNC GLOBAL DEFAULT 14 _ZN11unwindstack8DexFiles
621:   FUNC WEAK DEFAULT 14 _ZN11unwindstack21DwarfSe
622:   FUNC WEAK DEFAULT 14 _ZNSt3__112__hash_tableIN
623:   FUNC WEAK DEFAULT 14 _ZN11unwindstack7DwarfOpI
624:   FUNC WEAK DEFAULT 14 _ZN11unwindstack7DwarfOpI
625:   FUNC WEAK DEFAULT 14 _ZN11unwindstack16DwarfSe
626:   FUNC GLOBAL DEFAULT 14 _ZN11unwindstack8JitDebug
627:   FUNC GLOBAL DEFAULT 14 _ZN11unwindstack3Elf10Get
628:   FUNC WEAK DEFAULT 14 _ZN11unwindstack12ElfInte
629:   FUNC GLOBAL DEFAULT 14 _ZN11unwindstack7RegsArm4
630:   FUNC WEAK DEFAULT 14 _ZNSt3__16__sortIRZN11unw
631:   FUNC GLOBAL DEFAULT 14 _ZN11unwindstack3logEhPKc
632:   FUNC GLOBAL DEFAULT 14 _ZN11unwindstack7DexFile6
633:   FUNC WEAK DEFAULT 14 _ZN11unwindstack8DwarfCfa
634:   FUNC WEAK DEFAULT 14 _ZN11unwindstack7DwarfOpI
635:   FUNC GLOBAL DEFAULT 14 _ZN11unwindstack19MemoryO
636:   FUNC GLOBAL DEFAULT 14 _ZN11unwindstack9RegsArm6
637:   FUNC GLOBAL DEFAULT 14 _ZN9Demangler20ParseTempl
638:   FUNC WEAK DEFAULT 14 _ZNSt3__114__split_buffer
639:   FUNC WEAK DEFAULT 14 _ZN11unwindstack16DwarfSe
640:   FUNC WEAK DEFAULT 14 _ZNSt3__15dequeIjNS_9allo
641:   FUNC GLOBAL DEFAULT 14 _ZN11unwindstack15ElfInte
642:   FUNC GLOBAL DEFAULT 14 _ZN11unwindstack13log_to_
643:   FUNC GLOBAL DEFAULT 14 _ZN11unwindstack8RegsMips
644:   FUNC WEAK DEFAULT 14 _ZN11unwindstack8DwarfCfa
645:   FUNC WEAK DEFAULT 14 _ZN11unwindstack8DwarfCfa
646:   FUNC GLOBAL DEFAULT 14 _ZN11unwindstack7RegsX864
647:   OBJECT WEAK DEFAULT 18 _ZTVN11unwindstack8RegsIm
648:   OBJECT WEAK DEFAULT 18 _ZTVN11unwindstack7Symbol
649:   FUNC WEAK DEFAULT 14 _ZN11unwindstack7DwarfOpI
650:   FUNC GLOBAL DEFAULT 14 _ZN11unwindstack4Maps4Sor
651:   FUNC GLOBAL DEFAULT 14 _ZN11unwindstack8DexFiles
652:   FUNC GLOBAL DEFAULT 14 _ZN11unwindstack8DexFiles
653:   FUNC WEAK DEFAULT 14 _ZN11unwindstack7DwarfOpI
654:   FUNC WEAK DEFAULT 14 _ZN11unwindstack12DwarfEh
655:   FUNC GLOBAL DEFAULT 14 _ZN11unwindstack18MemoryO
656:   FUNC GLOBAL DEFAULT 14 _ZN11unwindstack10RegsMip
657:   FUNC WEAK DEFAULT 14 _ZN11unwindstack7DwarfOpI
658:   OBJECT GLOBAL DEFAULT 18 _ZTVN11unwindstack10RegsX
659:   FUNC GLOBAL DEFAULT 14 _ZN9Demangler13AppendCurr
660:   FUNC WEAK DEFAULT 14 _ZNSt3__114__split_buffer
661:   FUNC WEAK DEFAULT 14 _ZNSt3__112__hash_tableIN
662:   FUNC GLOBAL DEFAULT 14 _ZN11unwindstack10RegsX86
663:   FUNC WEAK DEFAULT 14 _ZN11unwindstack8DwarfCfa
664:   OBJECT WEAK DEFAULT 18 _ZTVN11unwindstack19Dwarf
665:   FUNC GLOBAL DEFAULT 14 _ZN11unwindstack8JitDebug
666:   FUNC GLOBAL DEFAULT 14 _ZN11unwindstack18MemoryO
667:   FUNC GLOBAL DEFAULT 14 _ZN11unwindstack8DexFiles
668:   FUNC WEAK DEFAULT 14 _ZN11unwindstack7DwarfOpI
669:   FUNC WEAK DEFAULT 14 _ZN11unwindstack7DwarfOpI
670:   OBJECT WEAK DEFAULT 18 _ZTVN11unwindstack3ElfE
671:   FUNC WEAK DEFAULT 14 _ZN11unwindstack8DwarfCfa
672:   FUNC WEAK DEFAULT 14 _ZN11unwindstack19DwarfEh
673:   FUNC GLOBAL DEFAULT 14 _ZN9Demangler6ParseSEPKc
674:   FUNC WEAK DEFAULT 14 _ZN11unwindstack8DwarfCfa
675:   FUNC WEAK DEFAULT 14 _ZN11unwindstack7DwarfOpI
676:   FUNC GLOBAL DEFAULT 14 _ZN11unwindstack10RegsMip
677:   FUNC WEAK DEFAULT 14 _ZNSt3__112__hash_tableIN
678:   FUNC WEAK DEFAULT 14 _ZN11unwindstack7DwarfOpI
679:   FUNC WEAK DEFAULT 14 _ZN11unwindstack16DwarfSe
680:   FUNC GLOBAL DEFAULT 14 _ZN11unwindstack9RegsArm6
681:   FUNC WEAK DEFAULT 14 _ZN11unwindstack7DwarfOpI
682:   FUNC WEAK DEFAULT 14 _ZN11unwindstack7Symbols9
683:   FUNC WEAK DEFAULT 14 _ZNSt3__114__split_buffer
684:   OBJECT WEAK DEFAULT 18 _ZTVN11unwindstack15DexFi
685:   FUNC GLOBAL DEFAULT 14 _ZN11unwindstack8DexFiles
686:   OBJECT WEAK DEFAULT 18 _ZTVN11unwindstack7DwarfO
687:   FUNC WEAK DEFAULT 14 _ZN11unwindstack7DwarfOpI
688:   FUNC WEAK DEFAULT 14 _ZN11unwindstack7DwarfOpI
689:   FUNC WEAK DEFAULT 14 _ZNSt3__112__hash_tableIN
690:   FUNC GLOBAL DEFAULT 14 _ZN11unwindstack8DexFiles
691:   FUNC WEAK DEFAULT 14 _ZN11unwindstack8DwarfCfa
692:   FUNC WEAK DEFAULT 14 _ZN11unwindstack7DwarfOpI
693:   FUNC WEAK DEFAULT 14 _ZN11unwindstack7DwarfOpI
694:   FUNC GLOBAL DEFAULT 14 _ZN11unwindstack7MapInfo1
695:   FUNC WEAK DEFAULT 14 _ZN11unwindstack8DwarfCfa
696:   OBJECT GLOBAL DEFAULT 18 _ZTVN11unwindstack12ElfIn
697:   OBJECT GLOBAL DEFAULT 11 _ZN11unwindstack12DwarfCf
698:   FUNC GLOBAL DEFAULT 14 _ZN11unwindstack4Regs18Cr
699:   FUNC WEAK DEFAULT 14 _ZN11unwindstack16DwarfSe
700:   OBJECT WEAK DEFAULT 18 _ZTVN11unwindstack11Dwarf
701:   FUNC WEAK DEFAULT 14 _ZN11unwindstack8DwarfCfa
702:   FUNC WEAK DEFAULT 14 _ZNSt3__120__shared_ptr_p
703:   FUNC GLOBAL DEFAULT 14 _ZN11unwindstack10RegsX86
704:   FUNC GLOBAL DEFAULT 14 _ZN11unwindstack10RegsMip
705:   FUNC WEAK DEFAULT 14 _ZN11unwindstack11DwarfMe
706:   FUNC GLOBAL DEFAULT 14 _ZN11unwindstack8Unwinder
707:   FUNC GLOBAL DEFAULT 14 _ZN9Demangler18GetArgumen
708:   FUNC GLOBAL DEFAULT 14 _ZN11unwindstack8JitDebug
709:   FUNC GLOBAL DEFAULT 14 _ZN11unwindstack8JitDebug
710:   FUNC WEAK DEFAULT 14 _ZN11unwindstack7DwarfOpI
711:   FUNC WEAK DEFAULT 14 _ZN11unwindstack7DwarfOpI
712:   FUNC GLOBAL DEFAULT 14 _ZN11unwindstack7RegsArm1
713:   FUNC GLOBAL DEFAULT 14 _ZN11unwindstack10RegsX86
714:   FUNC WEAK DEFAULT 14 _ZNSt3__16vectorIhNS_9all
715:   FUNC WEAK DEFAULT 14 _ZN11unwindstack8DwarfCfa
716:   FUNC WEAK DEFAULT 14 _ZN11unwindstack7DwarfOpI
717:   FUNC WEAK DEFAULT 14 _ZN11unwindstack21DwarfSe
718:   FUNC WEAK DEFAULT 14 _ZNSt3__112__hash_tableIN
719:   FUNC GLOBAL DEFAULT 14 _ZN11unwindstack3Elf8Cach
720:   FUNC WEAK DEFAULT 14 _ZNSt3__16vectorIPN11unwi
721:   FUNC GLOBAL DEFAULT 14 _ZN11unwindstack7Symbols1
722:   FUNC WEAK DEFAULT 14 _ZNSt3__114__split_buffer
723:   FUNC WEAK DEFAULT 14 _ZN11unwindstack8DwarfCfa
724:   FUNC WEAK DEFAULT 14 _ZN11unwindstack7DwarfOpI
725:   FUNC WEAK DEFAULT 14 _ZN11unwindstack7DwarfOpI
726:   FUNC WEAK DEFAULT 14 _ZN11unwindstack12ElfInte
727:   FUNC GLOBAL DEFAULT 14 _ZN11unwindstack10RegsMip
728:   FUNC GLOBAL DEFAULT 14 _ZN11unwindstack18MemoryF
729:   FUNC WEAK DEFAULT 14 _ZN11unwindstack7DwarfOpI
730:   FUNC WEAK DEFAULT 14 _ZN11unwindstack7DwarfOpI
731:   FUNC GLOBAL DEFAULT 14 _ZN11unwindstack3Elf8Cach
732:   FUNC GLOBAL DEFAULT 14 _ZN11unwindstack7MapInfoD
733:   OBJECT WEAK DEFAULT 18 _ZN9Demangler6kTypesE
734:   FUNC WEAK DEFAULT 14 _ZN11unwindstack7DwarfOpI
735:   OBJECT WEAK DEFAULT 18 _ZTVN11unwindstack12Dwarf
736:   FUNC GLOBAL DEFAULT 14 _ZN11unwindstack3Elf10Get
737:   FUNC GLOBAL DEFAULT 14 _ZN11unwindstack13MemoryO
738:   FUNC WEAK DEFAULT 14 _ZNSt3__112__deque_baseIN
739:   FUNC WEAK DEFAULT 14 _ZN11unwindstack7DwarfOpI
740:   FUNC WEAK DEFAULT 14 _ZN11unwindstack7DwarfOpI
741:   FUNC GLOBAL DEFAULT 14 _ZN11unwindstack15ElfInte
742:   FUNC GLOBAL DEFAULT 14 _ZN11unwindstack10RegsX86
743:   FUNC WEAK DEFAULT 14 _ZN11unwindstack12ElfInte
744:   FUNC GLOBAL DEFAULT 14 _ZN11unwindstack7RegsArm5
745:   FUNC GLOBAL DEFAULT 14 _ZN9Demangler22ParseTempl
746:   FUNC WEAK DEFAULT 14 _ZN11unwindstack8DwarfCfa
747:   FUNC GLOBAL DEFAULT 14 _ZN11unwindstack12DwarfSe
748:   FUNC GLOBAL DEFAULT 14 _ZN11unwindstack18MemoryO
749:   FUNC WEAK DEFAULT 14 _ZNSt3__127__tree_balance
750:   FUNC GLOBAL DEFAULT 14 _ZN11unwindstack8DexFiles
751:   FUNC WEAK DEFAULT 14 _ZNSt3__112__hash_tableIN
752:   FUNC GLOBAL DEFAULT 14 _ZN11unwindstack3Elf4Init
753:   FUNC GLOBAL DEFAULT 14 _ZN11unwindstack7RegsX861
754:   FUNC GLOBAL DEFAULT 14 _ZN9Demangler21ParseFunct
755:   FUNC WEAK DEFAULT 14 _ZN11unwindstack7DwarfOpI
756:   FUNC GLOBAL DEFAULT 14 _ZN11unwindstack12MemoryB
757:   OBJECT GLOBAL DEFAULT 18 _ZTVN11unwindstack6Memory
758:   FUNC GLOBAL DEFAULT 14 _ZN11unwindstack13LocalUn
759:   FUNC GLOBAL DEFAULT 14 _ZN11unwindstack7RegsX862
760:   FUNC WEAK DEFAULT 14 _ZNSt3__112__hash_tableIN
761:   FUNC WEAK DEFAULT 14 _ZNSt3__112__hash_tableIN
762:   FUNC WEAK DEFAULT 14 _ZNSt3__16vectorIM9Demang
763:   FUNC WEAK DEFAULT 14 _ZN11unwindstack7DwarfOpI
764:   FUNC WEAK DEFAULT 14 _ZN11unwindstack12DwarfEh
765:   FUNC GLOBAL DEFAULT 14 _ZN11unwindstack15ElfInte
766:   FUNC GLOBAL DEFAULT 14 _ZN11unwindstack10RegsX86
767:   FUNC GLOBAL DEFAULT 14 _ZN11unwindstack17DexFile
768:   FUNC WEAK DEFAULT 14 _ZN11unwindstack7DwarfOpI
769:   OBJECT WEAK DEFAULT 18 _ZTVN11unwindstack21Dwarf
770:   FUNC GLOBAL DEFAULT 14 _ZN11unwindstack3Elf19Get
771:   FUNC WEAK DEFAULT 14 _ZN11unwindstack8DwarfCfa
772:   FUNC WEAK DEFAULT 14 _ZNSt3__112__hash_tableIN
773:   OBJECT GLOBAL DEFAULT 22 _ZN11unwindstack3Elf11cac
774:   FUNC GLOBAL DEFAULT 14 _ZN11unwindstack7RegsX866
775:   OBJECT GLOBAL DEFAULT 18 _ZTVN11unwindstack13Memor
776:   FUNC GLOBAL DEFAULT 14 _ZN11unwindstack9RegsArm6
777:   FUNC WEAK DEFAULT 14 _ZNSt3__114__split_buffer
778:   FUNC WEAK DEFAULT 14 _ZNSt3__112__hash_tableIN
779:   FUNC WEAK DEFAULT 14 _ZN11unwindstack16DwarfSe
780:   FUNC WEAK DEFAULT 14 _ZNSt3__112__hash_tableIN
781:   FUNC WEAK DEFAULT 14 _ZN11unwindstack19DwarfEh
782:   FUNC WEAK DEFAULT 14 _ZNSt3__114__split_buffer
783:   FUNC GLOBAL DEFAULT 14 _ZN11unwindstack12MemoryR
784:   FUNC WEAK DEFAULT 14 _ZNSt3__112__hash_tableIN
785:   FUNC WEAK DEFAULT 14 _ZN11unwindstack7DwarfOpI
786:   FUNC GLOBAL DEFAULT 14 _ZN11unwindstack8JitDebug
787:   FUNC WEAK DEFAULT 14 _ZNSt3__1plIcNS_11char_tr
788:   FUNC WEAK DEFAULT 14 _ZN11unwindstack7DwarfOpI
789:   FUNC WEAK DEFAULT 14 _ZN11unwindstack7DwarfOpI
790:   FUNC WEAK DEFAULT 14 _ZN11unwindstack7DwarfOpI
791:   FUNC WEAK DEFAULT 14 _ZN11unwindstack7DwarfOpI
792:   FUNC GLOBAL DEFAULT 14 _ZN11unwindstack10BufferM
793:   FUNC GLOBAL DEFAULT 14 _ZN11unwindstack7RegsX864
794:   FUNC GLOBAL DEFAULT 14 _ZN11unwindstack8RegsMips
795:   FUNC WEAK DEFAULT 14 _ZN11unwindstack8DwarfCfa
796:   FUNC WEAK DEFAULT 14 _ZNSt3__15dequeIN11unwind
797:   FUNC WEAK DEFAULT 14 _ZN11unwindstack19DwarfEh
798:   FUNC WEAK DEFAULT 14 _ZNSt3__112__hash_tableIN
799:   FUNC WEAK DEFAULT 14 _ZNSt3__16__treeINS_12__v
800:   OBJECT WEAK DEFAULT 18 _ZTVNSt3__120__shared_ptr
801:   FUNC GLOBAL DEFAULT 14 _ZN11unwindstack12ElfInte
802:   FUNC GLOBAL DEFAULT 14 _ZN11unwindstack10RegsX86
803:   FUNC GLOBAL DEFAULT 14 _ZN11unwindstack10RegsMip
804:   FUNC WEAK DEFAULT 14 _ZN11unwindstack8DwarfCfa
805:   OBJECT WEAK DEFAULT 18 _ZTVN11unwindstack12Dwarf
806:   FUNC WEAK DEFAULT 14 _ZN11unwindstack7DwarfOpI
807:   FUNC WEAK DEFAULT 14 _ZN11unwindstack7DwarfOpI
808:   FUNC GLOBAL DEFAULT 14 _ZN11unwindstack10RegsX86
809:   FUNC WEAK DEFAULT 14 _ZN11unwindstack8DwarfCfa
810:   FUNC WEAK DEFAULT 14 _ZN11unwindstack7DwarfOpI
811:   OBJECT WEAK DEFAULT 18 _ZTVN11unwindstack15Dwarf
812:   FUNC GLOBAL DEFAULT 14 _ZN11unwindstack6Memory10
813:   OBJECT GLOBAL DEFAULT 18 _ZTVN11unwindstack10RegsM
814:   FUNC WEAK DEFAULT 14 _ZNSt3__112__hash_tableIN
815:   FUNC WEAK DEFAULT 14 _ZN11unwindstack7DwarfOpI
816:   FUNC WEAK DEFAULT 14 _ZN11unwindstack7DwarfOpI
817:   FUNC GLOBAL DEFAULT 14 _ZN11unwindstack3Elf9Cach
818:   FUNC GLOBAL DEFAULT 14 _ZN11unwindstack8JitDebug
819:   FUNC WEAK DEFAULT 14 _ZN11unwindstack16DwarfSe
820:   OBJECT WEAK DEFAULT 18 _ZTVN11unwindstack14ElfIn
821:   FUNC GLOBAL DEFAULT 14 _ZN11unwindstack19MemoryO
822:   FUNC GLOBAL DEFAULT 14 _ZN11unwindstack7RegsX861
823:   FUNC WEAK DEFAULT 14 _ZNSt3__112__hash_tableIN
824:   FUNC WEAK DEFAULT 14 _ZNSt3__120__shared_ptr_p
825:   FUNC GLOBAL DEFAULT 14 _ZN11unwindstack4Regs11Cu
826:   FUNC WEAK DEFAULT 14 _ZN11unwindstack8DwarfCfa
827:   FUNC WEAK DEFAULT 14 _ZNSt3__15dequeIN11unwind
828:   FUNC WEAK DEFAULT 14 _ZN11unwindstack16DwarfSe
829:   FUNC WEAK DEFAULT 14 _ZN11unwindstack7DwarfOpI
830:   FUNC WEAK DEFAULT 14 _ZN11unwindstack7DwarfOpI
831:   FUNC WEAK DEFAULT 14 _ZN11unwindstack7DwarfOpI
832:   FUNC WEAK DEFAULT 14 _ZN11unwindstack21DwarfSe
833:   FUNC WEAK DEFAULT 14 _ZN11unwindstack12ElfInte
834:   FUNC GLOBAL DEFAULT 14 _ZN11unwindstack15ElfInte
835:   FUNC GLOBAL DEFAULT 14 _ZN11unwindstack13LocalUn
836:   FUNC GLOBAL DEFAULT 14 _ZN11unwindstack4Regs9Rem
