 0x0000000e (SONAME)                     Library soname: [android.hardware.power@1.2.so]
  
Symbol   contains 281 entries:
Num:   Type Bind Vis Ndx Name
0:   NOTYPE LOCAL DEFAULT UND
1:   FUNC GLOBAL DEFAULT UND __cxa_finalize@LIBC (2)
2:   FUNC GLOBAL DEFAULT UND _ZN7android14sp_report_ra
3:   FUNC GLOBAL DEFAULT UND _ZN7android21report_syspr
4:   OBJECT GLOBAL DEFAULT UND _ZN7android4hidl4base4V1_
5:   FUNC GLOBAL DEFAULT UND _ZN7android4hidl4base4V1_
6:   FUNC GLOBAL DEFAULT UND _ZN7android4hidl4base4V1_
7:   FUNC GLOBAL DEFAULT UND _ZN7android4hidl4base4V1_
8:   FUNC GLOBAL DEFAULT UND _ZN7android4hidl4base4V1_
9:   FUNC GLOBAL DEFAULT UND _ZN7android4hidl4base4V1_
10:   FUNC GLOBAL DEFAULT UND _ZN7android4hidl4base4V1_
11:   FUNC GLOBAL DEFAULT UND _ZN7android4hidl4base4V1_
12:   FUNC GLOBAL DEFAULT UND _ZN7android4hidl4base4V1_
13:   FUNC GLOBAL DEFAULT UND _ZN7android4hidl4base4V1_
14:   FUNC GLOBAL DEFAULT UND _ZN7android4hidl4base4V1_
15:   FUNC GLOBAL DEFAULT UND _ZN7android4hidl4base4V1_
16:   FUNC GLOBAL DEFAULT UND _ZN7android4hidl4base4V1_
17:   FUNC GLOBAL DEFAULT UND _ZN7android4hidl4base4V1_
18:   FUNC GLOBAL DEFAULT UND _ZN7android4hidl4base4V1_
19:   FUNC GLOBAL DEFAULT UND _ZN7android4hidl4base4V1_
20:   FUNC GLOBAL DEFAULT UND _ZN7android4hidl4base4V1_
21:   FUNC GLOBAL DEFAULT UND _ZN7android4hidl4base4V1_
22:   FUNC GLOBAL DEFAULT UND _ZN7android4hidl4base4V1_
23:   FUNC GLOBAL DEFAULT UND _ZN7android4hidl4base4V1_
24:   FUNC GLOBAL DEFAULT UND _ZN7android4hidl4base4V1_
25:   FUNC GLOBAL DEFAULT UND _ZN7android4hidl4base4V1_
26:   FUNC GLOBAL DEFAULT UND _ZN7android4hidl4base4V1_
27:   FUNC GLOBAL DEFAULT UND _ZN7android4hidl4base4V1_
28:   FUNC GLOBAL DEFAULT UND _ZN7android7RefBase10onFi
29:   FUNC GLOBAL DEFAULT UND _ZN7android7RefBase12weak
30:   FUNC GLOBAL DEFAULT UND _ZN7android7RefBase13onLa
31:   FUNC GLOBAL DEFAULT UND _ZN7android7RefBase15onLa
32:   FUNC GLOBAL DEFAULT UND _ZN7android7RefBase20onIn
33:   FUNC GLOBAL DEFAULT UND _ZN7android7RefBaseC2Ev
34:   FUNC GLOBAL DEFAULT UND _ZN7android7RefBaseD2Ev
35:   FUNC GLOBAL DEFAULT UND _ZN7android8hardware10IIn
36:   FUNC GLOBAL DEFAULT UND _ZN7android8hardware10IIn
37:   FUNC GLOBAL DEFAULT UND _ZN7android8hardware10IIn
38:   FUNC GLOBAL DEFAULT UND _ZN7android8hardware10IIn
39:   FUNC GLOBAL DEFAULT UND _ZN7android8hardware10IIn
40:   FUNC GLOBAL DEFAULT UND _ZN7android8hardware11BpH
41:   FUNC GLOBAL DEFAULT UND _ZN7android8hardware11BpH
42:   FUNC GLOBAL DEFAULT UND _ZN7android8hardware11BpH
43:   FUNC GLOBAL DEFAULT UND _ZN7android8hardware11BpH
44:   FUNC GLOBAL DEFAULT UND _ZN7android8hardware11BpH
45:   FUNC GLOBAL DEFAULT UND _ZN7android8hardware11BpH
46:   FUNC GLOBAL DEFAULT UND _ZN7android8hardware11BpH
47:   FUNC GLOBAL DEFAULT UND _ZN7android8hardware11hid
48:   FUNC GLOBAL DEFAULT UND _ZN7android8hardware11hid
49:   FUNC GLOBAL DEFAULT UND _ZN7android8hardware11hid
50:   FUNC GLOBAL DEFAULT UND _ZN7android8hardware11hid
51:   FUNC GLOBAL DEFAULT UND _ZN7android8hardware11hid
52:   FUNC GLOBAL DEFAULT UND _ZN7android8hardware12Pro
53:   FUNC GLOBAL DEFAULT UND _ZN7android8hardware12Pro
54:   FUNC GLOBAL DEFAULT UND _ZN7android8hardware13wri
55:   FUNC GLOBAL DEFAULT UND _ZN7android8hardware21def
56:   FUNC GLOBAL DEFAULT UND _ZN7android8hardware23get
57:   FUNC GLOBAL DEFAULT UND _ZN7android8hardware27hid
58:   FUNC GLOBAL DEFAULT UND _ZN7android8hardware27hid
59:   OBJECT GLOBAL DEFAULT UND _ZN7android8hardware5powe
60:   FUNC GLOBAL DEFAULT UND _ZN7android8hardware5powe
61:   FUNC GLOBAL DEFAULT UND _ZN7android8hardware5powe
62:   FUNC GLOBAL DEFAULT UND _ZN7android8hardware5powe
63:   FUNC GLOBAL DEFAULT UND _ZN7android8hardware5powe
64:   FUNC GLOBAL DEFAULT UND _ZN7android8hardware5powe
65:   FUNC GLOBAL DEFAULT UND _ZN7android8hardware5powe
66:   FUNC GLOBAL DEFAULT UND _ZN7android8hardware5powe
67:   FUNC GLOBAL DEFAULT UND _ZN7android8hardware5powe
68:   FUNC GLOBAL DEFAULT UND _ZN7android8hardware5powe
69:   FUNC GLOBAL DEFAULT UND _ZN7android8hardware5powe
70:   FUNC GLOBAL DEFAULT UND _ZN7android8hardware5powe
71:   FUNC GLOBAL DEFAULT UND _ZN7android8hardware5powe
72:   FUNC GLOBAL DEFAULT UND _ZN7android8hardware5powe
73:   FUNC GLOBAL DEFAULT UND _ZN7android8hardware5powe
74:   FUNC GLOBAL DEFAULT UND _ZN7android8hardware5powe
75:   FUNC GLOBAL DEFAULT UND _ZN7android8hardware5powe
76:   FUNC GLOBAL DEFAULT UND _ZN7android8hardware5powe
77:   FUNC GLOBAL DEFAULT UND _ZN7android8hardware5powe
78:   OBJECT GLOBAL DEFAULT UND _ZN7android8hardware5powe
79:   FUNC GLOBAL DEFAULT UND _ZN7android8hardware5powe
80:   FUNC GLOBAL DEFAULT UND _ZN7android8hardware5powe
81:   FUNC GLOBAL DEFAULT UND _ZN7android8hardware5powe
82:   FUNC GLOBAL DEFAULT UND _ZN7android8hardware5powe
83:   FUNC GLOBAL DEFAULT UND _ZN7android8hardware5powe
84:   FUNC GLOBAL DEFAULT UND _ZN7android8hardware5powe
85:   FUNC GLOBAL DEFAULT UND _ZN7android8hardware5powe
86:   FUNC GLOBAL DEFAULT UND _ZN7android8hardware5powe
87:   FUNC GLOBAL DEFAULT UND _ZN7android8hardware5powe
88:   FUNC GLOBAL DEFAULT UND _ZN7android8hardware5powe
89:   FUNC GLOBAL DEFAULT UND _ZN7android8hardware5powe
90:   FUNC GLOBAL DEFAULT UND _ZN7android8hardware5powe
91:   FUNC GLOBAL DEFAULT UND _ZN7android8hardware5powe
92:   FUNC GLOBAL DEFAULT UND _ZN7android8hardware5powe
93:   FUNC GLOBAL DEFAULT UND _ZN7android8hardware6Parc
94:   FUNC GLOBAL DEFAULT UND _ZN7android8hardware6Parc
95:   FUNC GLOBAL DEFAULT UND _ZN7android8hardware6Parc
96:   FUNC GLOBAL DEFAULT UND _ZN7android8hardware6Parc
97:   FUNC GLOBAL DEFAULT UND _ZN7android8hardware6Parc
98:   FUNC GLOBAL DEFAULT UND _ZN7android8hardware6Stat
99:   FUNC GLOBAL DEFAULT UND _ZN7android8hardware6Stat
100:   FUNC GLOBAL DEFAULT UND _ZN7android8hardware6Stat
101:   FUNC GLOBAL DEFAULT UND _ZN7android8hardware6Stat
102:   FUNC GLOBAL DEFAULT UND _ZN7android8hardware7IBin
103:   FUNC GLOBAL DEFAULT UND _ZN7android8hardware7IBin
104:   FUNC GLOBAL DEFAULT UND _ZN7android8hardware7IBin
105:   FUNC GLOBAL DEFAULT UND _ZN7android8hardware7IBin
106:   FUNC GLOBAL DEFAULT UND _ZN7android8hardware7deta
107:   FUNC GLOBAL DEFAULT UND _ZN7android8hardware7deta
108:   FUNC GLOBAL DEFAULT UND _ZN7android8hardware7deta
109:   FUNC GLOBAL DEFAULT UND _ZN7android8hardware7deta
110:   FUNC GLOBAL DEFAULT UND _ZN7android8hardware7deta
111:   FUNC GLOBAL DEFAULT UND _ZN7android8hardware7deta
112:   FUNC GLOBAL DEFAULT UND _ZN7android8hardware7deta
113:   OBJECT GLOBAL DEFAULT UND _ZN7android8hardware7deta
114:   OBJECT GLOBAL DEFAULT UND _ZN7android8hardware7deta
115:   FUNC GLOBAL DEFAULT UND _ZN7android8hardware7deta
116:   FUNC GLOBAL DEFAULT UND _ZN7android8hardware7deta
117:   FUNC GLOBAL DEFAULT UND _ZN7android8hardware7deta
118:   FUNC GLOBAL DEFAULT UND _ZN7android8hardware7deta
119:   FUNC GLOBAL DEFAULT UND _ZN7android8hardware7deta
120:   FUNC GLOBAL DEFAULT UND _ZN7android8hardware7deta
121:   FUNC GLOBAL DEFAULT UND _ZN7android8hardware7deta
122:   FUNC GLOBAL DEFAULT UND _ZN7android8hardware7deta
123:   FUNC GLOBAL DEFAULT UND _ZN7android8hardware7deta
124:   OBJECT GLOBAL DEFAULT UND _ZN7android8hardware7deta
125:   FUNC GLOBAL DEFAULT UND _ZN7android8hardware9BHwB
126:   FUNC GLOBAL DEFAULT UND _ZN7android8hardware9BHwB
127:   FUNC GLOBAL DEFAULT UND _ZN7android8hardware9BHwB
128:   FUNC GLOBAL DEFAULT UND _ZN7android8hardware9BHwB
129:   FUNC GLOBAL DEFAULT UND _ZN7android8hardware9BHwB
130:   FUNC GLOBAL DEFAULT UND _ZN7android8hardware9BHwB
131:   FUNC GLOBAL DEFAULT UND _ZN7android8hardware9BHwB
132:   FUNC GLOBAL DEFAULT UND _ZN7android8hardware9BHwB
133:   FUNC GLOBAL DEFAULT UND _ZN7android8hardware9BHwB
134:   FUNC GLOBAL DEFAULT UND _ZN7android8hardware9BHwB
135:   FUNC GLOBAL DEFAULT UND _ZNK7android7RefBase10cre
136:   FUNC GLOBAL DEFAULT UND _ZNK7android7RefBase11get
137:   FUNC GLOBAL DEFAULT UND _ZNK7android7RefBase9decS
138:   FUNC GLOBAL DEFAULT UND _ZNK7android7RefBase9incS
139:   FUNC GLOBAL DEFAULT UND _ZNK7android8hardware6Par
140:   FUNC GLOBAL DEFAULT UND _ZNK7android8hardware6Par
141:   FUNC GLOBAL DEFAULT UND _ZNK7android8hardware6Par
142:   FUNC GLOBAL DEFAULT UND _ZNK7android8hardware7IBi
143:   FUNC GLOBAL DEFAULT UND _ZNK7android8hardware7det
144:   FUNC GLOBAL DEFAULT UND _ZNK7android8hardware9BHw
145:   FUNC GLOBAL DEFAULT UND _ZNKSt3__120__vector_base
146:   FUNC GLOBAL DEFAULT UND _ZNKSt3__121__basic_strin
147:   FUNC GLOBAL DEFAULT UND _ZNSt3__112basic_stringIc
148:   FUNC GLOBAL DEFAULT UND _ZNSt3__15mutex4lockEv
149:   FUNC GLOBAL DEFAULT UND _ZNSt3__15mutex6unlockEv
150:   FUNC GLOBAL DEFAULT UND _ZNSt3__15mutexD1Ev
151:   FUNC GLOBAL DEFAULT UND _ZTv0_n12_N7android4hidl4
152:   FUNC GLOBAL DEFAULT UND _ZTv0_n12_N7android4hidl4
153:   FUNC GLOBAL DEFAULT UND _ZTv0_n12_N7android8hardw
154:   FUNC GLOBAL DEFAULT UND _ZTv0_n12_N7android8hardw
155:   FUNC GLOBAL DEFAULT UND _ZTv0_n12_N7android8hardw
156:   FUNC GLOBAL DEFAULT UND _ZTv0_n12_N7android8hardw
157:   FUNC GLOBAL DEFAULT UND _ZTv0_n12_N7android8hardw
158:   FUNC GLOBAL DEFAULT UND _ZTv0_n12_N7android8hardw
159:   FUNC GLOBAL DEFAULT UND _ZTv0_n12_N7android8hardw
160:   FUNC GLOBAL DEFAULT UND _ZTv0_n12_N7android8hardw
161:   FUNC GLOBAL DEFAULT UND _ZTv0_n16_N7android8hardw
162:   FUNC GLOBAL DEFAULT UND _ZTv0_n20_N7android8hardw
163:   FUNC GLOBAL DEFAULT UND _ZTv0_n24_N7android8hardw
164:   FUNC GLOBAL DEFAULT UND _ZdaPv
165:   FUNC GLOBAL DEFAULT UND _ZdlPv
166:   FUNC GLOBAL DEFAULT UND _Znaj
167:   FUNC GLOBAL DEFAULT UND _Znwj
168:   FUNC GLOBAL DEFAULT UND __cxa_pure_virtual
169:   FUNC GLOBAL DEFAULT UND __stack_chk_fail@LIBC (2)
170:   OBJECT GLOBAL DEFAULT UND __stack_chk_guard@LIBC (2)
171:   FUNC GLOBAL DEFAULT UND abort@LIBC (2)
172:   FUNC GLOBAL DEFAULT UND atrace_begin_body
173:   OBJECT GLOBAL DEFAULT UND atrace_enabled_tags
174:   FUNC GLOBAL DEFAULT UND atrace_end_body
175:   OBJECT GLOBAL DEFAULT UND atrace_is_ready
176:   FUNC GLOBAL DEFAULT UND atrace_setup
177:   FUNC GLOBAL DEFAULT UND memcmp@LIBC (2)
178:   FUNC GLOBAL DEFAULT UND strlen@LIBC (2)
179:   FUNC GLOBAL DEFAULT UND memcpy@LIBC (2)
180:   FUNC GLOBAL DEFAULT UND memset@LIBC (2)
181:   FUNC GLOBAL DEFAULT 14 _ZN7android8hardware5powe
182:   FUNC WEAK DEFAULT 14 _ZNSt3__16__treeINS_12__v
183:   FUNC GLOBAL DEFAULT 14 _ZN7android8hardware5powe
184:   FUNC GLOBAL DEFAULT 14 _ZThn20_N7android8hardwar
185:   FUNC GLOBAL DEFAULT 14 _ZTv0_n12_N7android8hardw
186:   OBJECT GLOBAL DEFAULT 16 _ZN7android8hardware5powe
187:   FUNC GLOBAL DEFAULT 14 _ZN7android8hardware5powe
188:   FUNC GLOBAL DEFAULT 14 _ZN7android8hardware5powe
189:   FUNC WEAK DEFAULT 14 _ZNSt3__127__tree_balance
190:   OBJECT GLOBAL DEFAULT 18 _ZTCN7android8hardware5po
191:   OBJECT GLOBAL DEFAULT 18 _ZTCN7android8hardware5po
192:   FUNC GLOBAL DEFAULT 14 __aeabi_memclr8
193:   FUNC GLOBAL DEFAULT 14 _ZN7android8hardware5powe
194:   FUNC GLOBAL DEFAULT 14 _ZN7android8hardware5powe
195:   FUNC GLOBAL DEFAULT 14 __aeabi_memset
196:   FUNC GLOBAL DEFAULT 14 _ZN7android8hardware5powe
197:   OBJECT GLOBAL DEFAULT 18 _ZTCN7android8hardware5po
198:   FUNC GLOBAL DEFAULT 14 _ZN7android8hardware5powe
199:   OBJECT GLOBAL DEFAULT 18 _ZTCN7android8hardware5po
200:   OBJECT GLOBAL DEFAULT 18 _ZTTN7android8hardware5po
201:   FUNC GLOBAL DEFAULT 14 _ZN7android8hardware5powe
202:   FUNC GLOBAL DEFAULT 14 _ZN7android8hardware5powe
203:   FUNC GLOBAL DEFAULT 14 _ZN7android8hardware5powe
204:   FUNC GLOBAL DEFAULT 14 _ZN7android8hardware5powe
205:   FUNC WEAK DEFAULT 14 _ZNSt3__16__treeINS_12__v
206:   OBJECT GLOBAL DEFAULT 18 _ZTTN7android8hardware5po
207:   FUNC GLOBAL DEFAULT 14 _ZN7android8hardware5powe
208:   FUNC GLOBAL DEFAULT 14 _ZN7android8hardware5powe
209:   FUNC WEAK DEFAULT 14 _ZNSt3__16vectorINS_8func
210:   OBJECT GLOBAL DEFAULT 18 _ZTCN7android8hardware5po
211:   OBJECT WEAK DEFAULT 18 _ZTVN7android8hardware5po
212:   OBJECT GLOBAL DEFAULT 18 _ZTVN7android8hardware5po
213:   FUNC GLOBAL DEFAULT 14 __aeabi_memclr
214:   FUNC GLOBAL DEFAULT 14 __aeabi_memset4
215:   FUNC GLOBAL DEFAULT 14 _ZN7android8hardware5powe
216:   OBJECT GLOBAL DEFAULT 18 _ZTCN7android8hardware5po
217:   OBJECT GLOBAL DEFAULT 18 _ZTTN7android8hardware5po
218:   FUNC GLOBAL DEFAULT 14 _ZN7android8hardware5powe
219:   FUNC GLOBAL DEFAULT 14 _ZN7android8hardware5powe
220:   FUNC GLOBAL DEFAULT 14 _ZN7android8hardware5powe
221:   FUNC GLOBAL DEFAULT 14 _ZN7android8hardware5powe
222:   FUNC WEAK DEFAULT 14 _ZNSt3__16__treeINS_12__v
223:   OBJECT GLOBAL DEFAULT 18 _ZTVN7android8hardware5po
224:   FUNC GLOBAL DEFAULT 14 __aeabi_memcpy4
225:   FUNC GLOBAL DEFAULT 14 _ZN7android8hardware5powe
226:   FUNC WEAK DEFAULT 14 _ZN7android8hardware7deta
227:   FUNC WEAK DEFAULT 14 _ZNSt3__113__tree_removeI
228:   FUNC GLOBAL DEFAULT 14 _ZTv0_n12_N7android8hardw
229:   FUNC GLOBAL DEFAULT 14 __aeabi_memset8
230:   FUNC GLOBAL DEFAULT 14 _ZN7android8hardware5powe
231:   FUNC GLOBAL DEFAULT 14 _ZN7android8hardware5powe
232:   FUNC GLOBAL DEFAULT 14 _ZN7android8hardware5powe
233:   FUNC GLOBAL DEFAULT 14 _ZN7android8hardware5powe
234:   FUNC WEAK DEFAULT 14 _ZN7android8hardware7deta
235:   OBJECT GLOBAL DEFAULT 18 _ZTCN7android8hardware5po
236:   FUNC GLOBAL DEFAULT 14 _ZN7android8hardware5powe
237:   FUNC GLOBAL DEFAULT 14 _ZN7android8hardware5powe
238:   FUNC GLOBAL DEFAULT 14 _ZN7android8hardware5powe
239:   FUNC GLOBAL DEFAULT 14 _ZN7android8hardware5powe
240:   FUNC WEAK DEFAULT 14 _ZNSt3__16__treeINS_12__v
241:   OBJECT GLOBAL DEFAULT 18 _ZTCN7android8hardware5po
242:   FUNC GLOBAL DEFAULT 14 __aeabi_memcpy8
243:   FUNC GLOBAL DEFAULT 14 _ZN7android8hardware5powe
244:   FUNC GLOBAL DEFAULT 14 _ZThn20_N7android8hardwar
245:   FUNC GLOBAL DEFAULT 14 _ZN7android8hardware5powe
246:   FUNC GLOBAL DEFAULT 14 _ZN7android8hardware5powe
247:   FUNC GLOBAL DEFAULT 14 _ZN7android8hardware5powe
248:   FUNC GLOBAL DEFAULT 14 _ZN7android8hardware5powe
249:   FUNC GLOBAL DEFAULT 14 _ZN7android8hardware5powe
250:   FUNC GLOBAL DEFAULT 14 _ZN7android8hardware5powe
251:   FUNC WEAK DEFAULT 14 _ZNSt3__16__treeINS_12__v
252:   OBJECT GLOBAL DEFAULT 18 _ZTCN7android8hardware5po
253:   OBJECT GLOBAL DEFAULT 18 _ZTVN7android8hardware5po
254:   FUNC GLOBAL DEFAULT 14 _ZN7android8hardware5powe
255:   FUNC GLOBAL DEFAULT 14 _ZN7android8hardware5powe
256:   FUNC GLOBAL DEFAULT 14 _ZN7android8hardware5powe
257:   FUNC GLOBAL DEFAULT 14 _ZN7android8hardware5powe
258:   FUNC GLOBAL DEFAULT 14 _ZN7android8hardware5powe
259:   FUNC WEAK DEFAULT 14 _ZNSt3__16__treeINS_12__v
260:   FUNC WEAK DEFAULT 14 _ZNSt3__16vectorIPvNS_9al
261:   OBJECT GLOBAL DEFAULT 18 _ZTCN7android8hardware5po
262:   FUNC GLOBAL DEFAULT 14 _ZN7android8hardware5powe
263:   FUNC WEAK DEFAULT 14 _ZN7android8hardware7deta
264:   OBJECT GLOBAL DEFAULT 18 _ZTCN7android8hardware5po
265:   FUNC GLOBAL DEFAULT 14 _ZN7android8hardware5powe
266:   FUNC WEAK DEFAULT 14 _ZN7android8hardware7deta
267:   FUNC WEAK DEFAULT 14 _ZNSt3__16vectorIN7androi
268:   OBJECT WEAK DEFAULT 18 _ZTCN7android8hardware5po
269:   OBJECT GLOBAL DEFAULT 18 _ZTCN7android8hardware5po
270:   FUNC GLOBAL DEFAULT 14 _ZN7android8hardware5powe
271:   OBJECT GLOBAL DEFAULT 18 _ZTCN7android8hardware5po
272:   FUNC GLOBAL DEFAULT 14 _ZN7android8hardware5powe
273:   FUNC GLOBAL DEFAULT 14 _ZN7android8hardware5powe
274:   FUNC GLOBAL DEFAULT 14 __aeabi_memcpy
275:   FUNC GLOBAL DEFAULT 14 _ZN7android8hardware5powe
276:   FUNC GLOBAL DEFAULT 14 _ZN7android8hardware5powe
277:   FUNC GLOBAL DEFAULT 14 _ZN7android8hardware5powe
278:   FUNC GLOBAL DEFAULT 14 _ZN7android8hardware5powe
279:   FUNC GLOBAL DEFAULT 14 __aeabi_memclr4
280:   FUNC GLOBAL DEFAULT 14 _ZN7android8hardware5powe
