 0x0000000e (SONAME)                     Library soname: [libhidlallocatorutils.so]
  
Symbol   contains 19 entries:
Num:   Type Bind Vis Ndx Name
0:   NOTYPE LOCAL DEFAULT UND
1:   FUNC GLOBAL DEFAULT UND __cxa_finalize@LIBC (2)
2:   FUNC GLOBAL DEFAULT UND _ZN7android8hardware10Hid
3:   FUNC GLOBAL DEFAULT UND _ZN7android8hardware10Hid
4:   FUNC GLOBAL DEFAULT UND _ZN7android8hardware11hid
5:   FUNC GLOBAL DEFAULT UND _ZN7android8hardware11hid
6:   FUNC GLOBAL DEFAULT UND _ZN7android8hardware11hid
7:   FUNC GLOBAL DEFAULT UND _ZN7android8hardware11hid
8:   FUNC GLOBAL DEFAULT UND __stack_chk_fail@LIBC (2)
9:   OBJECT GLOBAL DEFAULT UND __stack_chk_guard@LIBC (2)
10:   FUNC GLOBAL DEFAULT UND dup@LIBC (2)
11:   FUNC GLOBAL DEFAULT UND memset@LIBC (2)
12:   FUNC GLOBAL DEFAULT 13 _ZN7android8hardware8from
13:   FUNC GLOBAL DEFAULT 13 __aeabi_memclr
14:   FUNC GLOBAL DEFAULT 13 __aeabi_memclr4
15:   FUNC GLOBAL DEFAULT 13 __aeabi_memclr8
16:   FUNC GLOBAL DEFAULT 13 __aeabi_memset
17:   FUNC GLOBAL DEFAULT 13 __aeabi_memset4
18:   FUNC GLOBAL DEFAULT 13 __aeabi_memset8
