 0x000000000000000e (SONAME)             Library soname: [libnbaio.so]
  
Symbol   contains 125 entries:
Num:   Type Bind Vis Ndx Name
0:   NOTYPE LOCAL DEFAULT UND
1:   FUNC GLOBAL DEFAULT UND __cxa_finalize@LIBC (2)
2:   FUNC GLOBAL DEFAULT UND roundup
3:   FUNC GLOBAL DEFAULT UND malloc@LIBC (2)
4:   FUNC GLOBAL DEFAULT UND _ZN16audio_utils_fifoC1Ej
5:   FUNC GLOBAL DEFAULT UND _ZN23audio_utils_fifo_wri
6:   FUNC GLOBAL DEFAULT UND free@LIBC (2)
7:   FUNC GLOBAL DEFAULT UND _ZN23audio_utils_fifo_wri
8:   FUNC GLOBAL DEFAULT UND _ZN16audio_utils_fifoD1Ev
9:   FUNC GLOBAL DEFAULT UND _ZN7android7RefBaseD2Ev
10:   FUNC GLOBAL DEFAULT UND _ZdlPv
11:   FUNC GLOBAL DEFAULT UND __cfi_slowpath@LIBC_OMR1 (3)
12:   FUNC GLOBAL DEFAULT UND _ZN23audio_utils_fifo_wri
13:   FUNC GLOBAL DEFAULT UND _ZN23audio_utils_fifo_wri
14:   FUNC GLOBAL DEFAULT UND clock_gettime@LIBC (2)
15:   FUNC GLOBAL DEFAULT UND __android_log_print@LIBLOG (4)
16:   FUNC GLOBAL DEFAULT UND nanosleep@LIBC (2)
17:   FUNC GLOBAL DEFAULT UND _ZN7android7RefBase10onFi
18:   FUNC GLOBAL DEFAULT UND _ZN7android7RefBase15onLa
19:   FUNC GLOBAL DEFAULT UND _ZN7android7RefBase20onIn
20:   FUNC GLOBAL DEFAULT UND _ZN7android7RefBase13onLa
21:   FUNC GLOBAL DEFAULT UND _ZN7android7RefBaseC2Ev
22:   FUNC GLOBAL DEFAULT UND _ZN23audio_utils_fifo_rea
23:   FUNC GLOBAL DEFAULT UND _ZN23audio_utils_fifo_rea
24:   FUNC GLOBAL DEFAULT UND _ZN23audio_utils_fifo_rea
25:   FUNC GLOBAL DEFAULT UND _ZN23audio_utils_fifo_rea
26:   FUNC GLOBAL DEFAULT UND __cxa_pure_virtual
27:   FUNC GLOBAL DEFAULT UND _ZNK7android7RefBase9incS
28:   FUNC GLOBAL DEFAULT UND _ZNK7android7RefBase9decS
29:   FUNC GLOBAL DEFAULT UND _ZN7android14sp_report_ra
30:   FUNC GLOBAL DEFAULT UND _ZN23audio_utils_fifo_rea
31:   FUNC GLOBAL DEFAULT UND _ZN23audio_utils_fifo_rea
32:   FUNC GLOBAL DEFAULT UND calloc@LIBC (2)
33:   FUNC GLOBAL DEFAULT UND memcpy@LIBC (2)
34:   FUNC GLOBAL DEFAULT UND abort@LIBC (2)
35:   FUNC GLOBAL DEFAULT UND __stack_chk_fail@LIBC (2)
36:   OBJECT GLOBAL DEFAULT 18 _ZTVN7android14MonoPipeRe
37:   FUNC GLOBAL DEFAULT 14 _ZN7android16Format_from_
38:   FUNC GLOBAL DEFAULT 14 _ZN7android19AudioStreamI
39:   FUNC GLOBAL DEFAULT 14 _ZN7android10PipeReaderC1
40:   FUNC GLOBAL DEFAULT 14 _ZN7android4Pipe5writeEPK
41:   FUNC GLOBAL DEFAULT 14 _ZN7android25SourceAudioB
42:   FUNC GLOBAL DEFAULT 14 _ZN7android25SourceAudioB
43:   FUNC GLOBAL DEFAULT 14 _ZN7android18AudioStreamO
44:   FUNC GLOBAL DEFAULT 14 _ZN7android18AudioStreamO
45:   OBJECT GLOBAL DEFAULT 18 _ZTVN7android10NBAIO_Port
46:   OBJECT GLOBAL DEFAULT 18 _ZTVN7android10NBAIO_Sink
47:   FUNC GLOBAL DEFAULT 14 _ZN7android25AudioBufferP
48:   OBJECT GLOBAL DEFAULT 18 _ZTVN7android8MonoPipeE
49:   FUNC GLOBAL DEFAULT 14 _ZN7android14Format_isEqu
50:   FUNC GLOBAL DEFAULT 14 _ZN7android4PipeD1Ev
51:   FUNC GLOBAL DEFAULT 14 _ZN7android8MonoPipe12get
52:   FUNC GLOBAL DEFAULT 14 _ZN7android10NBAIO_Port9n
53:   FUNC GLOBAL DEFAULT 14 _ZN7android25AudioBufferP
54:   FUNC GLOBAL DEFAULT 14 _ZN7android25AudioBufferP
55:   FUNC GLOBAL DEFAULT 14 _ZN7android19AudioStreamI
56:   FUNC GLOBAL DEFAULT 14 _ZN7android19AudioStreamI
57:   FUNC GLOBAL DEFAULT 14 _ZN7android16Format_frame
58:   FUNC GLOBAL DEFAULT 14 _ZN7android8MonoPipe12set
59:   FUNC GLOBAL DEFAULT 14 _ZN7android14MonoPipeRead
60:   FUNC GLOBAL DEFAULT 14 _ZN7android14MonoPipeRead
61:   FUNC GLOBAL DEFAULT 14 _ZN7android10PipeReaderD1
62:   FUNC GLOBAL DEFAULT 14 _ZN7android17Format_sampl
63:   FUNC GLOBAL DEFAULT 14 _ZN7android19AudioStreamI
64:   FUNC GLOBAL DEFAULT 14 _ZN7android18AudioStreamO
65:   FUNC GLOBAL DEFAULT 14 _ZN7android25SourceAudioB
66:   FUNC GLOBAL DEFAULT 14 _ZN7android8MonoPipeD2Ev
67:   FUNC GLOBAL DEFAULT 14 _ZN7android8MonoPipeD0Ev
68:   FUNC GLOBAL DEFAULT 14 _ZN7android8MonoPipe5writ
69:   FUNC GLOBAL DEFAULT 14 _ZN7android4PipeC1EmRKNS_
70:   FUNC GLOBAL DEFAULT 14 _ZN7android10PipeReader5f
71:   FUNC GLOBAL DEFAULT 14 _ZN7android14MonoPipeRead
72:   FUNC GLOBAL DEFAULT 14 _ZN7android19Format_chann
73:   FUNC GLOBAL DEFAULT 14 _ZN7android10PipeReaderC2
74:   FUNC GLOBAL DEFAULT 14 _ZN7android25SourceAudioB
75:   FUNC GLOBAL DEFAULT 14 _ZN7android10NBAIO_Sink8w
76:   FUNC GLOBAL DEFAULT 14 _ZN7android19AudioStreamI
77:   OBJECT GLOBAL DEFAULT 18 _ZTVN7android19AudioStrea
78:   FUNC GLOBAL DEFAULT 14 _ZN7android19AudioStreamI
79:   FUNC GLOBAL DEFAULT 14 _ZN7android18AudioStreamO
80:   OBJECT GLOBAL DEFAULT 18 _ZTVN7android10PipeReader
81:   FUNC GLOBAL DEFAULT 14 _ZN7android25SourceAudioB
82:   FUNC GLOBAL DEFAULT 14 _ZN7android25SourceAudioB
83:   FUNC GLOBAL DEFAULT 14 _ZN7android25SourceAudioB
84:   FUNC GLOBAL DEFAULT 14 _ZN7android25SourceAudioB
85:   OBJECT GLOBAL DEFAULT 11 _ZN7android14Format_Inval
86:   FUNC GLOBAL DEFAULT 14 _ZN7android14MonoPipeRead
87:   FUNC GLOBAL DEFAULT 14 _ZN7android18AudioStreamO
88:   FUNC GLOBAL DEFAULT 14 _ZN7android18AudioStreamO
89:   FUNC GLOBAL DEFAULT 14 _ZN7android14MonoPipeRead
90:   FUNC GLOBAL DEFAULT 14 _ZN7android25AudioBufferP
91:   FUNC GLOBAL DEFAULT 14 _ZN7android25AudioBufferP
92:   FUNC GLOBAL DEFAULT 14 _ZN7android18AudioStreamO
93:   OBJECT GLOBAL DEFAULT 18 _ZTVN7android18AudioStrea
94:   FUNC GLOBAL DEFAULT 14 _ZN7android4PipeD2Ev
95:   FUNC GLOBAL DEFAULT 14 _ZN7android4PipeD0Ev
96:   FUNC GLOBAL DEFAULT 14 _ZNK7android25SourceAudio
97:   FUNC GLOBAL DEFAULT 14 _ZN7android8MonoPipeC2EmR
98:   FUNC GLOBAL DEFAULT 14 _ZN7android8MonoPipe8shut
99:   FUNC GLOBAL DEFAULT 14 __cfi_check
100:   FUNC GLOBAL DEFAULT 14 _ZN7android12NBAIO_Source
101:   FUNC GLOBAL DEFAULT 14 _ZN7android14Format_isVal
102:   FUNC GLOBAL DEFAULT 14 _ZN7android25AudioBufferP
103:   FUNC GLOBAL DEFAULT 14 _ZN7android25AudioBufferP
104:   FUNC GLOBAL DEFAULT 14 _ZN7android19AudioStreamI
105:   FUNC GLOBAL DEFAULT 14 _ZN7android10PipeReader4r
106:   FUNC GLOBAL DEFAULT 14 _ZN7android14MonoPipeRead
107:   OBJECT GLOBAL DEFAULT 18 _ZTVN7android12NBAIO_Sour
108:   FUNC GLOBAL DEFAULT 14 _ZN7android25AudioBufferP
109:   FUNC GLOBAL DEFAULT 14 _ZN7android18AudioStreamO
110:   FUNC GLOBAL DEFAULT 14 _ZN7android10PipeReaderD2
111:   FUNC GLOBAL DEFAULT 14 _ZN7android10PipeReaderD0
112:   FUNC GLOBAL DEFAULT 14 _ZN7android14MonoPipeRead
113:   OBJECT GLOBAL DEFAULT 18 _ZTVN7android25AudioBuffe
114:   OBJECT GLOBAL DEFAULT 18 _ZTVN7android25SourceAudi
115:   FUNC GLOBAL DEFAULT 14 _ZN7android8MonoPipeD1Ev
116:   OBJECT GLOBAL DEFAULT 18 _ZTVN7android4PipeE
117:   FUNC GLOBAL DEFAULT 14 _ZN7android8MonoPipe16ava
118:   FUNC GLOBAL DEFAULT 14 _ZN7android14MonoPipeRead
119:   FUNC GLOBAL DEFAULT 14 _ZN7android19AudioStreamI
120:   FUNC GLOBAL DEFAULT 14 _ZNK7android25SourceAudio
121:   FUNC GLOBAL DEFAULT 14 _ZN7android8MonoPipe10isS
122:   FUNC GLOBAL DEFAULT 14 _ZN7android8MonoPipeC1EmR
123:   FUNC GLOBAL DEFAULT 14 _ZN7android4PipeC2EmRKNS_
124:   FUNC GLOBAL DEFAULT 14 _ZN7android10PipeReader15
