 0x000000000000000e (SONAME)             Library soname: [libutils.so]
  
Symbol   contains 505 entries:
Num:   Type Bind Vis Ndx Name
0:   NOTYPE LOCAL DEFAULT UND
1:   FUNC GLOBAL DEFAULT UND __cxa_finalize@LIBC (2)
2:   FUNC GLOBAL DEFAULT UND __android_log_print@LIBLOG (3)
3:   FUNC GLOBAL DEFAULT UND __errno@LIBC (2)
4:   FUNC GLOBAL DEFAULT UND free@LIBC (2)
5:   FUNC GLOBAL DEFAULT UND madvise@LIBC (2)
6:   FUNC GLOBAL DEFAULT UND mmap@LIBC (2)
7:   FUNC GLOBAL DEFAULT UND munmap@LIBC (2)
8:   FUNC GLOBAL DEFAULT UND strdup@LIBC (2)
9:   FUNC GLOBAL DEFAULT UND strerror@LIBC (2)
10:   FUNC GLOBAL DEFAULT UND sysconf@LIBC (2)
11:   FUNC GLOBAL DEFAULT UND abort@LIBC (2)
12:   FUNC GLOBAL DEFAULT UND _Znwm
13:   FUNC GLOBAL DEFAULT UND native_handle_close
14:   FUNC GLOBAL DEFAULT UND native_handle_delete
15:   FUNC GLOBAL DEFAULT UND _ZdlPv
16:   FUNC GLOBAL DEFAULT UND __cxa_pure_virtual
17:   FUNC GLOBAL DEFAULT UND __stack_chk_fail@LIBC (2)
18:   FUNC GLOBAL DEFAULT UND __vsnprintf_chk@LIBC (2)
19:   FUNC GLOBAL DEFAULT UND dprintf@LIBC (2)
20:   FUNC GLOBAL DEFAULT UND vasprintf@LIBC (2)
21:   FUNC GLOBAL DEFAULT UND memmove@LIBC (2)
22:   FUNC GLOBAL DEFAULT UND strcmp@LIBC (2)
23:   FUNC GLOBAL DEFAULT UND strtof@LIBC (2)
24:   FUNC GLOBAL DEFAULT UND strtol@LIBC (2)
25:   NOTYPE WEAK DEFAULT UND _ZN7android9CallStack11de
26:   NOTYPE WEAK DEFAULT UND _ZN7android9CallStack16lo
27:   NOTYPE WEAK DEFAULT UND _ZN7android9CallStack18ge
28:   FUNC GLOBAL DEFAULT UND __android_log_assert@LIBLOG (3)
29:   FUNC GLOBAL DEFAULT UND malloc@LIBC (2)
30:   FUNC GLOBAL DEFAULT UND memcpy@LIBC (2)
31:   FUNC GLOBAL DEFAULT UND realloc@LIBC (2)
32:   FUNC GLOBAL DEFAULT UND __cxa_guard_acquire
33:   FUNC GLOBAL DEFAULT UND __cxa_guard_release
34:   FUNC GLOBAL DEFAULT UND strchr@LIBC (2)
35:   FUNC GLOBAL DEFAULT UND strlen@LIBC (2)
36:   FUNC GLOBAL DEFAULT UND strrchr@LIBC (2)
37:   FUNC GLOBAL DEFAULT UND strstr@LIBC (2)
38:   FUNC GLOBAL DEFAULT UND tolower@LIBC (2)
39:   FUNC GLOBAL DEFAULT UND toupper@LIBC (2)
40:   FUNC GLOBAL DEFAULT UND __android_log_error_write@LIBLOG_M (4)
41:   FUNC GLOBAL DEFAULT UND clock_gettime@LIBC (2)
42:   FUNC GLOBAL DEFAULT UND getpriority@LIBC (2)
43:   FUNC GLOBAL DEFAULT UND gettid@LIBC (2)
44:   FUNC GLOBAL DEFAULT UND prctl@LIBC (2)
45:   FUNC GLOBAL DEFAULT UND pthread_attr_destroy@LIBC (2)
46:   FUNC GLOBAL DEFAULT UND pthread_attr_init@LIBC (2)
47:   FUNC GLOBAL DEFAULT UND pthread_attr_setdetachsta@LIBC (2)
48:   FUNC GLOBAL DEFAULT UND pthread_attr_setstacksize@LIBC (2)
49:   FUNC GLOBAL DEFAULT UND pthread_cond_broadcast@LIBC (2)
50:   FUNC GLOBAL DEFAULT UND pthread_cond_destroy@LIBC (2)
51:   FUNC GLOBAL DEFAULT UND pthread_cond_init@LIBC (2)
52:   FUNC GLOBAL DEFAULT UND pthread_cond_wait@LIBC (2)
53:   FUNC GLOBAL DEFAULT UND pthread_condattr_destroy@LIBC (2)
54:   FUNC GLOBAL DEFAULT UND pthread_condattr_init@LIBC (2)
55:   FUNC GLOBAL DEFAULT UND pthread_condattr_setclock@LIBC (2)
56:   FUNC GLOBAL DEFAULT UND pthread_create@LIBC (2)
57:   FUNC GLOBAL DEFAULT UND pthread_gettid_np@LIBC (2)
58:   FUNC GLOBAL DEFAULT UND pthread_mutex_destroy@LIBC (2)
59:   FUNC GLOBAL DEFAULT UND pthread_mutex_init@LIBC (2)
60:   FUNC GLOBAL DEFAULT UND pthread_mutex_lock@LIBC (2)
61:   FUNC GLOBAL DEFAULT UND pthread_mutex_unlock@LIBC (2)
62:   FUNC GLOBAL DEFAULT UND pthread_self@LIBC (2)
63:   FUNC GLOBAL DEFAULT UND set_sched_policy
64:   FUNC GLOBAL DEFAULT UND setpriority@LIBC (2)
65:   FUNC GLOBAL DEFAULT UND _ZdaPv
66:   FUNC GLOBAL DEFAULT UND _Znam
67:   FUNC GLOBAL DEFAULT UND __open_2@LIBC (2)
68:   FUNC GLOBAL DEFAULT UND close@LIBC (2)
69:   FUNC GLOBAL DEFAULT UND fstat@LIBC (2)
70:   FUNC GLOBAL DEFAULT UND read@LIBC (2)
71:   FUNC GLOBAL DEFAULT UND __read_chk@LIBC (2)
72:   FUNC GLOBAL DEFAULT UND __write_chk@LIBC_N (5)
73:   FUNC WEAK DEFAULT UND android_fdsan_close_with_@LIBC_Q (6)
74:   FUNC WEAK DEFAULT UND android_fdsan_create_owne@LIBC_Q (6)
75:   FUNC WEAK DEFAULT UND android_fdsan_exchange_ow@LIBC_Q (6)
76:   FUNC GLOBAL DEFAULT UND epoll_create1@LIBC (2)
77:   FUNC GLOBAL DEFAULT UND epoll_ctl@LIBC (2)
78:   FUNC GLOBAL DEFAULT UND epoll_wait@LIBC (2)
79:   FUNC GLOBAL DEFAULT UND eventfd@LIBC (2)
80:   FUNC GLOBAL DEFAULT UND pthread_getspecific@LIBC (2)
81:   FUNC GLOBAL DEFAULT UND pthread_key_create@LIBC (2)
82:   FUNC GLOBAL DEFAULT UND pthread_once@LIBC (2)
83:   FUNC GLOBAL DEFAULT UND pthread_setspecific@LIBC (2)
84:   FUNC GLOBAL DEFAULT UND atrace_update_tags
85:   FUNC WEAK DEFAULT UND android_set_abort_message@LIBC (2)
86:   FUNC GLOBAL DEFAULT UND write@LIBC (2)
87:   FUNC GLOBAL PROTECTED 14 _ZN7android7String85setTo
88:   FUNC GLOBAL PROTECTED 14 _ZNK7android7String88walk
89:   FUNC GLOBAL PROTECTED 14 _ZN7android10VectorImpl13
90:   FUNC GLOBAL PROTECTED 14 _ZN7android6Looper26sched
91:   FUNC WEAK PROTECTED 14 _ZNK7android6VectorINS_6L
92:   FUNC GLOBAL PROTECTED 14 _ZN7android7RefBase10onFi
93:   FUNC GLOBAL PROTECTED 14 _ZN7android7String8C2EPKD
94:   FUNC GLOBAL PROTECTED 14 _ZNK7android7String816get
95:   FUNC GLOBAL PROTECTED 14 _ZN7android6ThreadD0Ev
96:   FUNC GLOBAL PROTECTED 14 _ZN7android6Looper11sendM
97:   OBJECT GLOBAL PROTECTED 18 _ZTCN7android20SimpleLoop
98:   FUNC GLOBAL PROTECTED 14 _ZTv0_n24_N7android20Simp
99:   OBJECT GLOBAL PROTECTED 18 _ZTVN7android10LogPrinter
100:   FUNC GLOBAL PROTECTED 14 _ZN7android7String85setTo
101:   FUNC GLOBAL PROTECTED 14 _ZN7android9Tokenizer8nex
102:   FUNC GLOBAL PROTECTED 14 _ZN7android8String16C1EPK
103:   FUNC GLOBAL PROTECTED 14 _ZNK7android8String1610st
104:   FUNC GLOBAL PROTECTED 14 _ZN7android6Looper4wakeEv
105:   FUNC WEAK PROTECTED 14 _ZNK7android12SortedVecto
106:   FUNC GLOBAL PROTECTED 14 _ZN7android11PropertyMap6
107:   FUNC GLOBAL PROTECTED 14 _ZN7android16SortedVector
108:   FUNC GLOBAL PROTECTED 14 _ZN7android7String8C2ERKS
109:   FUNC GLOBAL PROTECTED 14 _ZNK7android7String88getU
110:   FUNC GLOBAL PROTECTED 14 _ZN7android6LooperD1Ev
111:   FUNC GLOBAL PROTECTED 14 _ZNK7android6Looper9isPol
112:   FUNC GLOBAL PROTECTED 14 _ZN7android7FileMapC2EOS0
113:   FUNC GLOBAL PROTECTED 14 _ZN7android10VectorImpl13
114:   OBJECT WEAK PROTECTED 18 _ZTVN7android12SortedVect
115:   FUNC GLOBAL PROTECTED 14 _ZN7android10VectorImpl4s
116:   FUNC GLOBAL PROTECTED 14 _ZN7android6Looper18sendM
117:   FUNC GLOBAL PROTECTED 14 _ZN7android14String8Print
118:   FUNC GLOBAL PROTECTED 14 _ZN7android11PropertyMap6
119:   FUNC GLOBAL PROTECTED 14 _ZN7android9Tokenizer4ope
120:   FUNC GLOBAL PROTECTED 14 _ZN7android8String165setT
121:   FUNC GLOBAL PROTECTED 14 _ZNK7android7RefBase9decS
122:   FUNC GLOBAL PROTECTED 14 androidCreateThreadEtc
123:   FUNC GLOBAL PROTECTED 14 _ZN7android10LogPrinterC2
124:   FUNC WEAK PROTECTED 14 _ZNK7android12SortedVecto
125:   FUNC GLOBAL PROTECTED 14 _ZNK7android7String86leng
126:   FUNC GLOBAL PROTECTED 14 _ZNK7android7RefBase12wea
127:   FUNC GLOBAL PROTECTED 14 _ZN7android10VectorImpl15
128:   FUNC WEAK PROTECTED 14 _ZNK7android6VectorINS_28
129:   FUNC GLOBAL PROTECTED 14 _ZTv0_n24_N7android14Mess
130:   FUNC GLOBAL PROTECTED 14 _ZN7android7RefBase11rena
131:   FUNC GLOBAL PROTECTED 14 _ZN7android7String85setTo
132:   FUNC GLOBAL PROTECTED 14 utf8_to_utf32
133:   FUNC GLOBAL PROTECTED 14 _ZNK7android6Thread11exit
134:   FUNC GLOBAL PROTECTED 14 _ZN7android7RefBaseC1Ev
135:   FUNC GLOBAL PROTECTED 14 utf32_to_utf8_length
136:   FUNC GLOBAL PROTECTED 14 utf8_to_utf32_length
137:   FUNC GLOBAL PROTECTED 14 _ZN7android6Looper8remove
138:   FUNC GLOBAL PROTECTED 14 _ZN7android7String86appen
139:   FUNC GLOBAL PROTECTED 14 _ZN7android7RefBase12weak
140:   FUNC GLOBAL PROTECTED 14 _ZN7android7String87forma
141:   FUNC GLOBAL PROTECTED 14 _ZNK7android7String814get
142:   FUNC GLOBAL PROTECTED 14 strncmp16
143:   FUNC GLOBAL PROTECTED 14 _ZN7android10VectorImplC2
144:   FUNC GLOBAL PROTECTED 14 _ZN7android11PropertyMap4
145:   FUNC GLOBAL PROTECTED 14 _ZN7android7RefBaseD2Ev
146:   FUNC GLOBAL PROTECTED 14 _ZN7android7String87toLow
147:   FUNC GLOBAL PROTECTED 14 strlen16
148:   FUNC GLOBAL PROTECTED 14 _ZN7android10VectorImpl3a
149:   FUNC GLOBAL PROTECTED 14 _ZN7android7String812unlo
150:   FUNC GLOBAL PROTECTED 14 _ZNK7android7String810get
151:   FUNC GLOBAL PROTECTED 14 _ZN7android8String16C2ERK
152:   FUNC GLOBAL PROTECTED 14 _ZTv0_n24_N7android6Threa
153:   FUNC GLOBAL PROTECTED 14 _ZN7android6Looper12setFo
154:   FUNC GLOBAL PROTECTED 14 _ZNK7android6Looper20getA
155:   FUNC GLOBAL PROTECTED 14 _ZN7android9FdPrinterC2Ei
156:   FUNC GLOBAL PROTECTED 14 _ZNK7android12SharedBuffe
157:   FUNC GLOBAL PROTECTED 14 _ZN7android7String86forma
158:   FUNC GLOBAL PROTECTED 14 _ZN7android8String16C1EPK
159:   FUNC GLOBAL PROTECTED 14 _ZNK7android11PropertyMap
160:   FUNC GLOBAL PROTECTED 14 _ZN7android7String811real
161:   FUNC GLOBAL PROTECTED 14 _ZN7android8String16C1ENS
162:   FUNC GLOBAL PROTECTED 14 _ZNK7android8String1610st
163:   OBJECT WEAK PROTECTED 18 _ZTVN7android6VectorINS_6
164:   FUNC GLOBAL PROTECTED 14 _ZN7android7PrinterD2Ev
165:   FUNC GLOBAL PROTECTED 14 strnlen32
166:   FUNC GLOBAL PROTECTED 14 _ZN7android10VectorImpl11
167:   FUNC WEAK PROTECTED 14 _ZNK7android6VectorINS_6L
168:   OBJECT GLOBAL PROTECTED 18 _ZTVN7android13PrefixPrin
169:   FUNC GLOBAL PROTECTED 14 _ZN7android11PropertyMapC
170:   FUNC GLOBAL PROTECTED 14 _ZN7android7RefBase20onIn
171:   FUNC GLOBAL PROTECTED 14 _ZNK7android7RefBase10cre
172:   FUNC GLOBAL PROTECTED 14 systemTime
173:   FUNC GLOBAL PROTECTED 14 _ZN7android16SortedVector
174:   FUNC GLOBAL PROTECTED 14 _ZN7android7RefBaseD0Ev
175:   FUNC GLOBAL PROTECTED 14 _ZN7android7String85setTo
176:   FUNC GLOBAL PROTECTED 14 _ZN7android7String8C2Ev
177:   FUNC GLOBAL PROTECTED 14 _ZN7android8String16C2Ev
178:   FUNC GLOBAL PROTECTED 14 _ZN7android10VectorImplD1
179:   FUNC GLOBAL PROTECTED 14 _ZN7android16SortedVector
180:   FUNC GLOBAL PROTECTED 14 _ZNK7android10VectorImpl1
181:   FUNC GLOBAL PROTECTED 14 _ZN7android6Looper7pollAl
182:   FUNC GLOBAL PROTECTED 14 _ZN7android7FileMapC1EOS0
183:   FUNC GLOBAL PROTECTED 14 _ZN7android7String8C2EPKD
184:   FUNC GLOBAL PROTECTED 14 _ZN7android14sp_report_ra
185:   FUNC GLOBAL PROTECTED 14 _ZN7android10VectorImpl4p
186:   FUNC GLOBAL PROTECTED 14 _ZNK7android9StopWatch4na
187:   FUNC WEAK PROTECTED 14 _ZNK7android6VectorINS_6L
188:   FUNC GLOBAL PROTECTED 14 _ZN7android7PrinterD0Ev
189:   FUNC GLOBAL PROTECTED 14 _ZN7android7String812unlo
190:   FUNC GLOBAL PROTECTED 14 _ZN7android6ThreadC2Eb
191:   FUNC GLOBAL PROTECTED 14 _ZN7android20SimpleLooper
192:   FUNC GLOBAL PROTECTED 14 _ZNK7android12SharedBuffe
193:   FUNC GLOBAL PROTECTED 14 _ZNK7android9StopWatch11e
194:   FUNC GLOBAL PROTECTED 14 _ZN7android7String87toUpp
195:   FUNC GLOBAL PROTECTED 14 _ZN7android7String8C2EPKc
196:   FUNC GLOBAL PROTECTED 14 _ZN7android10VectorImpl13
197:   FUNC GLOBAL PROTECTED 14 _ZN7android10VectorImpl3p
198:   FUNC GLOBAL PROTECTED 14 _ZN7android10VectorImpl4s
199:   FUNC GLOBAL PROTECTED 14 _ZN7android6Looper10initT
200:   FUNC GLOBAL PROTECTED 14 _ZN7android7FileMapC1Ev
201:   FUNC WEAK PROTECTED 14 _ZNK7android12SortedVecto
202:   FUNC GLOBAL PROTECTED 14 _ZN7android7String8C1EPKD
203:   FUNC GLOBAL PROTECTED 14 _ZN7android11PropertyMapD
204:   FUNC GLOBAL PROTECTED 14 _ZNK7android9Tokenizer19p
205:   FUNC GLOBAL PROTECTED 14 _ZN7android7String811setP
206:   FUNC GLOBAL PROTECTED 14 _ZN7android10VectorImpl3a
207:   FUNC GLOBAL PROTECTED 14 _ZN7android6Looper6awoken
208:   FUNC GLOBAL PROTECTED 14 _ZN7android7FileMapD2Ev
209:   FUNC GLOBAL PROTECTED 14 _ZN7android7String8C1ERKS
210:   FUNC GLOBAL PROTECTED 14 _ZN7android7String8D1Ev
211:   FUNC GLOBAL PROTECTED 14 _ZN7android7RefBase15onLa
212:   FUNC GLOBAL PROTECTED 14 _ZN7android8String16D1Ev
213:   FUNC GLOBAL PROTECTED 14 _ZN7android9Tokenizer12fr
214:   FUNC WEAK PROTECTED 14 _ZNK7android6VectorINS_6L
215:   FUNC GLOBAL PROTECTED 14 _ZTv0_n24_N7android14Loop
216:   FUNC GLOBAL PROTECTED 14 _ZN7android12NativeHandle
217:   FUNC GLOBAL PROTECTED 14 _ZN7android13PrefixPrinte
218:   FUNC GLOBAL PROTECTED 14 _ZN7android9StopWatchC2EP
219:   FUNC GLOBAL PROTECTED 14 _ZN7android9StopWatchD2Ev
220:   FUNC GLOBAL PROTECTED 14 _ZN7android16SortedVector
221:   FUNC GLOBAL PROTECTED 14 _ZN7android7String86appen
222:   FUNC GLOBAL PROTECTED 14 _ZN7android7String8C2ERKN
223:   FUNC GLOBAL PROTECTED 14 _ZN7android8String166appe
224:   FUNC GLOBAL PROTECTED 14 _ZN7android8String16C1ERK
225:   FUNC GLOBAL PROTECTED 14 _ZN7android20SimpleLooper
226:   FUNC GLOBAL PROTECTED 14 _ZN7android6LooperC1Eb
227:   FUNC GLOBAL PROTECTED 14 _ZN7android18WeakMessageH
228:   FUNC WEAK PROTECTED 14 _ZNK7android6VectorINS_6L
229:   FUNC GLOBAL PROTECTED 14 _ZN7android19JenkinsHashM
230:   FUNC GLOBAL PROTECTED 14 _ZN7android11PropertyMap6
231:   FUNC GLOBAL PROTECTED 14 _ZN7android7String87toLow
232:   FUNC GLOBAL PROTECTED 14 _ZN7android6Thread11_thre
233:   FUNC WEAK PROTECTED 14 _ZNK7android6VectorINS_6L
234:   FUNC GLOBAL PROTECTED 14 _ZN7android7String8C1EPKc
235:   FUNC GLOBAL PROTECTED 14 _ZN7android18WeakMessageH
236:   FUNC GLOBAL PROTECTED 14 _ZNK7android7String84find
237:   FUNC GLOBAL PROTECTED 14 _ZNK7android7String814fin
238:   FUNC GLOBAL PROTECTED 14 androidSetCreateThreadFun
239:   FUNC GLOBAL PROTECTED 14 _ZN7android10VectorImpl13
240:   FUNC GLOBAL PROTECTED 14 _ZN7android7String810appe
241:   FUNC GLOBAL PROTECTED 14 _ZN7android7String87toUpp
242:   FUNC GLOBAL PROTECTED 14 _ZNK7android8String168con
243:   FUNC GLOBAL PROTECTED 14 _ZN7android10VectorImpl8i
244:   FUNC GLOBAL PROTECTED 14 _ZN7android10VectorImplC2
245:   FUNC GLOBAL PROTECTED 14 _ZN7android16SortedVector
246:   FUNC GLOBAL PROTECTED 14 _ZN7android7String8C2EPKD
247:   FUNC GLOBAL PROTECTED 14 _ZN7android10VectorImpl5_
248:   FUNC GLOBAL PROTECTED 14 _ZN7android14MessageHandl
249:   FUNC GLOBAL PROTECTED 14 _ZTv0_n24_N7android18Weak
250:   FUNC WEAK PROTECTED 14 _ZNK7android12SortedVecto
251:   FUNC GLOBAL PROTECTED 14 _ZN7android12SharedBuffer
252:   FUNC GLOBAL PROTECTED 14 _ZN7android8String16C1EPK
253:   FUNC GLOBAL PROTECTED 14 _ZN7android7String8C1EPKc
254:   FUNC GLOBAL PROTECTED 14 _ZN7android9TokenizerC2ER
255:   FUNC GLOBAL PROTECTED 14 _ZN7android11PropertyMap6
256:   FUNC WEAK PROTECTED 14 _ZNK7android12SortedVecto
257:   FUNC GLOBAL PROTECTED 14 _ZNK7android7RefBase14for
258:   FUNC GLOBAL PROTECTED 14 strzcmp16
259:   FUNC GLOBAL PROTECTED 14 _ZN7android18WeakMessageH
260:   FUNC GLOBAL PROTECTED 14 _ZN7android6Looper17sendM
261:   FUNC GLOBAL PROTECTED 14 _ZN7android9TokenizerD1Ev
262:   FUNC GLOBAL PROTECTED 14 _ZN7android7String813appe
263:   FUNC GLOBAL PROTECTED 14 _ZN7android18WeakMessageH
264:   FUNC GLOBAL PROTECTED 14 _ZN7android9Tokenizer14sk
265:   FUNC GLOBAL PROTECTED 14 _ZN7android6Thread18reque
266:   OBJECT GLOBAL PROTECTED 18 _ZTVN7android6ThreadE
267:   FUNC GLOBAL PROTECTED 14 _ZN7android9StopWatchC1EP
268:   FUNC GLOBAL PROTECTED 14 _ZN7android7String8C1EPKD
269:   FUNC GLOBAL PROTECTED 14 _ZN7android7String8C2EPKc
270:   FUNC GLOBAL PROTECTED 14 androidCreateThread
271:   OBJECT GLOBAL PROTECTED 18 _ZTVN7android14String8Pri
272:   FUNC GLOBAL PROTECTED 14 _ZN7android27add_sysprop_
273:   FUNC GLOBAL PROTECTED 14 _ZNK7android6Looper7Reque
274:   FUNC GLOBAL PROTECTED 14 _ZN7android9Tokenizer9nex
275:   FUNC GLOBAL PROTECTED 14 _ZNK7android7RefBase14get
276:   FUNC GLOBAL PROTECTED 14 _ZN7android8String165setT
277:   FUNC GLOBAL PROTECTED 14 _ZN7android8String166appe
278:   FUNC GLOBAL PROTECTED 14 _ZN7android10VectorImpl12
279:   FUNC GLOBAL PROTECTED 14 _ZN7android6Looper16threa
280:   FUNC GLOBAL PROTECTED 14 _ZN7android9StopWatch5res
281:   OBJECT GLOBAL PROTECTED 18 _ZTTN7android18WeakMessag
282:   FUNC GLOBAL PROTECTED 14 _ZN7android14String8Print
283:   FUNC GLOBAL PROTECTED 14 _ZN7android7String8C2EPKD
284:   FUNC GLOBAL PROTECTED 14 utf32_from_utf8_at
285:   FUNC WEAK PROTECTED 14 _ZNK7android6VectorINS_6L
286:   FUNC GLOBAL PROTECTED 14 _ZNK7android7String811get
287:   OBJECT GLOBAL PROTECTED 18 _ZTTN7android6ThreadE
288:   FUNC GLOBAL PROTECTED 14 _ZN7android17JenkinsHashW
289:   FUNC GLOBAL PROTECTED 14 _ZN7android14LooperCallba
290:   FUNC WEAK PROTECTED 14 _ZNK7android12SortedVecto
291:   FUNC GLOBAL PROTECTED 14 _ZN7android8String16C1EPK
292:   FUNC GLOBAL PROTECTED 14 _ZN7android10VectorImpl16
293:   FUNC GLOBAL PROTECTED 14 _ZN7android10VectorImpl4p
294:   FUNC GLOBAL PROTECTED 14 _ZN7android12SharedBuffer
295:   FUNC GLOBAL PROTECTED 14 _ZNK7android12SharedBuffe
296:   FUNC GLOBAL PROTECTED 14 _ZN7android6ThreadD1Ev
297:   OBJECT WEAK PROTECTED 18 _ZTVN7android12SortedVect
298:   OBJECT GLOBAL PROTECTED 18 _ZTVN7android6LooperE
299:   FUNC GLOBAL PROTECTED 14 _ZTv0_n24_N7android20Simp
300:   FUNC GLOBAL PROTECTED 14 _ZN7android7String8C1EPKD
301:   FUNC GLOBAL PROTECTED 14 utf8_to_utf16
302:   OBJECT GLOBAL PROTECTED 16 _ZN7android7FileMap9mPage
303:   FUNC GLOBAL PROTECTED 14 _ZN7android6Looper18rebui
304:   FUNC GLOBAL PROTECTED 14 _ZN7android6LooperD2Ev
305:   FUNC WEAK PROTECTED 14 _ZNK7android6VectorINS_28
306:   FUNC WEAK PROTECTED 14 _ZNK7android12SortedVecto
307:   OBJECT GLOBAL PROTECTED 18 _ZTVN7android7PrinterE
308:   FUNC GLOBAL PROTECTED 14 _ZN7android14LooperCallba
309:   OBJECT GLOBAL PROTECTED 18 _ZTVN7android14LooperCall
310:   FUNC GLOBAL PROTECTED 14 _ZN7android8String16C2EPK
311:   FUNC GLOBAL PROTECTED 14 _ZNK7android6Thread6getTi
312:   OBJECT GLOBAL PROTECTED 18 _ZTVN7android18WeakMessag
313:   FUNC GLOBAL PROTECTED 14 _ZN7android20JenkinsHashM
314:   FUNC GLOBAL PROTECTED 14 _ZN7android7Printer15prin
315:   FUNC GLOBAL PROTECTED 14 _ZN7android7RefBase12weak
316:   FUNC WEAK PROTECTED 14 _ZNK7android6VectorINS_6L
317:   FUNC GLOBAL PROTECTED 14 _ZN7android7RefBase20exte
318:   FUNC GLOBAL PROTECTED 14 _ZNK7android7RefBase12wea
319:   FUNC GLOBAL PROTECTED 14 _ZN7android7String85clear
320:   FUNC GLOBAL PROTECTED 14 utf32_to_utf8
321:   FUNC GLOBAL PROTECTED 14 _ZN7android8String166inse
322:   FUNC GLOBAL PROTECTED 14 strcpy16
323:   OBJECT GLOBAL PROTECTED 18 _ZTVN7android7RefBaseE
324:   FUNC GLOBAL PROTECTED 14 _ZN7android8String165setT
325:   FUNC GLOBAL PROTECTED 14 _ZN7android8String16C2EPK
326:   FUNC GLOBAL PROTECTED 14 strnlen16
327:   FUNC GLOBAL PROTECTED 14 _ZNK7android10VectorImpl8
328:   FUNC GLOBAL PROTECTED 14 _ZN7android21report_syspr
329:   FUNC GLOBAL PROTECTED 14 _ZN7android6LooperD0Ev
330:   FUNC GLOBAL PROTECTED 14 _ZN7android7RefBaseC2Ev
331:   FUNC GLOBAL PROTECTED 14 _ZNK7android7RefBase11get
332:   FUNC GLOBAL PROTECTED 14 _ZN7android7String812appe
333:   FUNC GLOBAL PROTECTED 14 _ZN7android16SortedVector
334:   FUNC WEAK PROTECTED 14 _ZNK7android6VectorINS_28
335:   FUNC WEAK PROTECTED 14 _ZNK7android12SortedVecto
336:   FUNC GLOBAL PROTECTED 14 _ZN7android11PropertyMap6
337:   FUNC WEAK PROTECTED 14 _ZNK7android12SortedVecto
338:   FUNC GLOBAL PROTECTED 14 utf8_to_utf16_length
339:   FUNC GLOBAL PROTECTED 14 _ZN7android10VectorImpl6r
340:   FUNC GLOBAL PROTECTED 14 _ZNK7android12SharedBuffe
341:   FUNC GLOBAL PROTECTED 14 _ZN7android9StopWatch3lap
342:   FUNC GLOBAL PROTECTED 14 _ZN7android7String8C1EPKD
343:   FUNC GLOBAL PROTECTED 14 _ZN7android10LogPrinterC1
344:   FUNC GLOBAL PROTECTED 14 _ZNK7android8String168fin
345:   FUNC GLOBAL PROTECTED 14 _ZN7android19elapsedRealt
346:   FUNC GLOBAL PROTECTED 14 _ZTv0_n24_N7android6Threa
347:   FUNC WEAK PROTECTED 14 _ZNK7android6VectorINS_28
348:   FUNC WEAK PROTECTED 14 _ZNK7android6VectorINS_6L
349:   FUNC GLOBAL PROTECTED 14 _ZN7android7PrinterC2Ev
350:   FUNC GLOBAL PROTECTED 14 _ZTv0_n24_N7android14Mess
351:   FUNC GLOBAL PROTECTED 14 _ZN7android7FileMap6advis
352:   FUNC GLOBAL PROTECTED 14 _ZN7android12uptimeMillis
353:   FUNC GLOBAL PROTECTED 14 androidGetThreadPriority
354:   FUNC GLOBAL PROTECTED 14 _ZN7android10VectorImpl5c
355:   FUNC GLOBAL PROTECTED 14 _ZN7android6Thread4joinEv
356:   FUNC GLOBAL PROTECTED 14 _ZN7android16SortedVector
357:   FUNC GLOBAL PROTECTED 14 _ZN7android16SortedVector
358:   FUNC WEAK PROTECTED 14 _ZNK7android12SortedVecto
359:   FUNC GLOBAL PROTECTED 14 _ZN7android7RefBase12weak
360:   FUNC GLOBAL PROTECTED 14 _ZN7android7RefBase13onLa
361:   FUNC GLOBAL PROTECTED 14 _ZN7android7RefBaseD1Ev
362:   FUNC GLOBAL PROTECTED 14 _ZN7android8String16C2ERK
363:   FUNC GLOBAL PROTECTED 14 _ZN7android10VectorImplD2
364:   FUNC GLOBAL PROTECTED 14 androidSetThreadPriority
365:   OBJECT GLOBAL PROTECTED 18 _ZTTN7android14LooperCall
366:   FUNC GLOBAL PROTECTED 14 _ZN7android10LogPrinter8p
367:   FUNC WEAK PROTECTED 14 _ZNK7android12SortedVecto
368:   FUNC GLOBAL PROTECTED 14 strcmp16
369:   OBJECT WEAK PROTECTED 18 _ZTVN7android6VectorINS_2
370:   FUNC GLOBAL PROTECTED 14 _ZNK7android16SortedVecto
371:   FUNC GLOBAL PROTECTED 14 _ZN7android15elapsedRealt
372:   FUNC WEAK PROTECTED 14 _ZNK7android6VectorINS_28
373:   FUNC GLOBAL PROTECTED 14 _ZN7android7PrinterD1Ev
374:   FUNC GLOBAL PROTECTED 14 _ZN7android7String816conv
375:   FUNC GLOBAL PROTECTED 14 _ZN7android7String8C1ENS0
376:   FUNC GLOBAL PROTECTED 14 do_report_sysprop_change
377:   FUNC GLOBAL PROTECTED 14 _ZN7android20SimpleLooper
378:   FUNC GLOBAL PROTECTED 14 _ZN7android11PropertyMapC
379:   FUNC GLOBAL PROTECTED 14 _ZN7android7String86appen
380:   FUNC GLOBAL PROTECTED 14 _ZN7android7String8C2ENS0
381:   FUNC GLOBAL PROTECTED 14 _ZN7android8String16C2ENS
382:   FUNC GLOBAL PROTECTED 14 _ZN7android16SortedVector
383:   OBJECT GLOBAL PROTECTED 18 _ZTCN7android18WeakMessag
384:   FUNC GLOBAL PROTECTED 14 _ZN7android7FileMapC2Ev
385:   FUNC GLOBAL PROTECTED 14 _ZN7android7String8C1Ev
386:   FUNC GLOBAL PROTECTED 14 _ZN7android8String16C1Ev
387:   FUNC GLOBAL PROTECTED 14 _ZN7android10VectorImplD0
388:   FUNC GLOBAL PROTECTED 14 _ZN7android11PropertyMapD
389:   FUNC GLOBAL PROTECTED 14 strlen32
390:   FUNC GLOBAL PROTECTED 14 _ZN7android8String165setT
391:   FUNC GLOBAL PROTECTED 14 _ZN7android6Thread11reque
392:   FUNC GLOBAL PROTECTED 14 _ZN7android11PropertyMap1
393:   FUNC GLOBAL PROTECTED 14 _ZN7android7String8D2Ev
394:   FUNC GLOBAL PROTECTED 14 _ZN7android8String16D2Ev
395:   FUNC GLOBAL PROTECTED 14 _ZNK7android16SortedVecto
396:   OBJECT GLOBAL PROTECTED 18 _ZTVN7android14MessageHan
397:   FUNC GLOBAL PROTECTED 14 _ZTv0_n24_N7android14Loop
398:   FUNC GLOBAL PROTECTED 14 _ZN7android12NativeHandle
399:   FUNC GLOBAL PROTECTED 14 _ZN7android13PrefixPrinte
400:   FUNC GLOBAL PROTECTED 14 _ZNK7android12SharedBuffe
401:   FUNC GLOBAL PROTECTED 14 _ZN7android7String89remov
402:   FUNC GLOBAL PROTECTED 14 _ZN7android8String169make
403:   FUNC GLOBAL PROTECTED 14 utf8_to_utf16_no_null_ter
404:   FUNC GLOBAL PROTECTED 14 _ZN7android20SimpleLooper
405:   FUNC GLOBAL PROTECTED 14 _ZN7android6Looper14remov
406:   FUNC GLOBAL PROTECTED 14 _ZNK7android7RefBase12wea
407:   FUNC GLOBAL PROTECTED 14 _ZN7android7String85setTo
408:   FUNC GLOBAL PROTECTED 14 _ZN7android8String16C2EPK
409:   FUNC GLOBAL PROTECTED 14 _ZN7android10VectorImpl7_
410:   FUNC GLOBAL PROTECTED 14 _ZN7android6LooperC2Eb
411:   FUNC GLOBAL PROTECTED 14 _ZN7android18WeakMessageH
412:   FUNC GLOBAL PROTECTED 14 _ZN7android6Looper12getFo
413:   FUNC GLOBAL PROTECTED 14 _ZN7android7FileMapD1Ev
414:   FUNC GLOBAL PROTECTED 14 _ZN7android16SortedVector
415:   OBJECT GLOBAL PROTECTED 18 _ZTVN7android10VectorImpl
416:   FUNC GLOBAL PROTECTED 14 _ZN7android6Looper8remove
417:   FUNC GLOBAL PROTECTED 14 _ZN7android7FileMap6creat
418:   FUNC GLOBAL PROTECTED 14 _ZN7android12NativeHandle
419:   FUNC GLOBAL PROTECTED 14 _ZN7android9StopWatchD1Ev
420:   FUNC GLOBAL PROTECTED 14 _ZN7android12NativeHandle
421:   FUNC GLOBAL PROTECTED 14 _ZN7android8String16C2EPK
422:   FUNC WEAK PROTECTED 14 _ZNK7android6VectorINS_6L
423:   FUNC GLOBAL PROTECTED 14 _ZN7android7RefBase12weak
424:   FUNC GLOBAL PROTECTED 14 _ZN7android14MessageHandl
425:   FUNC GLOBAL PROTECTED 14 _ZN7android6Looper9pollIn
426:   OBJECT GLOBAL PROTECTED 18 _ZTVN7android20SimpleLoop
427:   FUNC GLOBAL PROTECTED 14 _ZN7android7String811setP
428:   FUNC GLOBAL PROTECTED 14 _ZNK7android7String810get
429:   FUNC GLOBAL PROTECTED 14 strstr16
430:   FUNC GLOBAL PROTECTED 14 _ZNK7android10VectorImpl8
431:   FUNC GLOBAL PROTECTED 14 _ZN7android10VectorImpl9r
432:   FUNC GLOBAL PROTECTED 14 _ZN7android6Looper7prepar
433:   OBJECT GLOBAL PROTECTED 18 _ZTVN7android16SortedVect
434:   FUNC GLOBAL PROTECTED 14 _ZN7android18WeakMessageH
435:   FUNC GLOBAL PROTECTED 14 toMillisecondTimeoutDelay
436:   FUNC GLOBAL PROTECTED 14 _ZN7android9TokenizerD2Ev
437:   OBJECT GLOBAL PROTECTED 18 _ZTTN7android14MessageHan
438:   FUNC GLOBAL PROTECTED 14 _ZNK7android7String811get
439:   FUNC GLOBAL PROTECTED 14 _ZN7android8String16C1ERK
440:   FUNC GLOBAL PROTECTED 14 _ZN7android10VectorImplaS
441:   FUNC GLOBAL PROTECTED 14 _ZNK7android16SortedVecto
442:   FUNC GLOBAL PROTECTED 14 _ZN7android7FileMapaSEOS0
443:   FUNC GLOBAL PROTECTED 14 _ZN7android7String8C1ERKN
444:   FUNC GLOBAL PROTECTED 14 utf16_to_utf8
445:   FUNC GLOBAL PROTECTED 14 _ZN7android8String16C1ERK
446:   FUNC GLOBAL PROTECTED 14 _ZNK7android8String169fin
447:   FUNC GLOBAL PROTECTED 14 _ZN7android6Thread3runEPK
448:   FUNC GLOBAL PROTECTED 14 _ZN7android14MessageHandl
449:   OBJECT GLOBAL PROTECTED 18 _ZTTN7android20SimpleLoop
450:   FUNC GLOBAL PROTECTED 14 _ZTv0_n24_N7android18Weak
451:   FUNC GLOBAL PROTECTED 14 _ZN7android10LogPrinter9p
452:   FUNC GLOBAL PROTECTED 14 _ZNK7android11PropertyMap
453:   FUNC GLOBAL PROTECTED 14 utf16_to_utf8_length
454:   FUNC GLOBAL PROTECTED 14 _ZN7android8String16C2ERK
455:   FUNC GLOBAL PROTECTED 14 _ZN7android10VectorImpl8i
456:   FUNC GLOBAL PROTECTED 14 _ZN7android9FdPrinterC1Ei
457:   FUNC GLOBAL PROTECTED 14 _ZN7android8String166remo
458:   FUNC GLOBAL PROTECTED 14 _ZN7android9TokenizerC1ER
459:   FUNC GLOBAL PROTECTED 14 utf8_length
460:   FUNC GLOBAL PROTECTED 14 _ZN7android10VectorImpl14
461:   FUNC GLOBAL PROTECTED 14 _ZN7android6Looper12pushR
462:   FUNC WEAK PROTECTED 14 _ZNK7android12SortedVecto
463:   FUNC WEAK PROTECTED 14 _ZNK7android6VectorINS_6L
464:   FUNC GLOBAL PROTECTED 14 _ZNK7android11PropertyMap
465:   FUNC GLOBAL PROTECTED 14 _ZNK7android6Thread9isRun
466:   FUNC GLOBAL PROTECTED 14 _ZN7android10VectorImpl11
467:   FUNC GLOBAL PROTECTED 14 _ZN7android6Looper5addFdE
468:   FUNC GLOBAL PROTECTED 14 _ZN7android14String8Print
469:   FUNC GLOBAL PROTECTED 14 _ZNK7android8String164siz
470:   FUNC GLOBAL PROTECTED 14 _ZN7android11PropertyMap5
471:   FUNC GLOBAL PROTECTED 14 _ZN7android7RefBase10rena
472:   FUNC GLOBAL PROTECTED 14 _ZNK7android12SharedBuffe
473:   FUNC GLOBAL PROTECTED 14 _ZN7android7String810lock
474:   FUNC GLOBAL PROTECTED 14 androidCreateRawThreadEtc
475:   FUNC WEAK PROTECTED 14 _ZNK7android6VectorINS_28
476:   FUNC GLOBAL PROTECTED 14 _ZN7android12NativeHandle
477:   FUNC GLOBAL PROTECTED 14 _ZN7android11PropertyMap6
478:   FUNC GLOBAL PROTECTED 14 _ZNK7android9Tokenizer11g
479:   OBJECT GLOBAL PROTECTED 18 _ZTVN7android9FdPrinterE
480:   FUNC GLOBAL PROTECTED 14 _ZNK7android11PropertyMap
481:   FUNC GLOBAL PROTECTED 14 _ZN7android6Looper5addFdE
482:   FUNC WEAK PROTECTED 14 _ZNK7android6VectorINS_6L
483:   FUNC GLOBAL PROTECTED 14 _ZN7android13PrefixPrinte
484:   FUNC GLOBAL PROTECTED 14 _ZN7android8String1610rep
485:   FUNC GLOBAL PROTECTED 14 _ZN7android6Thread10ready
486:   FUNC GLOBAL PROTECTED 14 _ZN7android6ThreadD2Ev
487:   FUNC GLOBAL PROTECTED 14 androidGetThreadId
488:   FUNC GLOBAL PROTECTED 14 androidSetThreadName
489:   FUNC GLOBAL PROTECTED 14 _ZN7android20SimpleLooper
490:   FUNC GLOBAL PROTECTED 14 _ZN7android20SimpleLooper
491:   FUNC WEAK PROTECTED 14 _ZNK7android12SortedVecto
492:   FUNC GLOBAL PROTECTED 14 _ZN7android9FdPrinter9pri
493:   FUNC GLOBAL PROTECTED 14 _ZN7android7RefBase11rena
494:   FUNC GLOBAL PROTECTED 14 _ZNK7android7RefBase9incS
495:   FUNC GLOBAL PROTECTED 14 _Z24androidCreateThreadGe
496:   FUNC GLOBAL PROTECTED 14 _ZNK7android11PropertyMap
497:   OBJECT WEAK PROTECTED 18 _ZTVN7android6VectorINS_6
498:   FUNC GLOBAL PROTECTED 14 _ZN7android8String166inse
499:   FUNC GLOBAL PROTECTED 14 _ZN7android10VectorImpl9r
500:   FUNC GLOBAL PROTECTED 14 _ZN7android6Looper14remov
501:   FUNC GLOBAL PROTECTED 14 _ZN7android7RefBase12weak
502:   FUNC GLOBAL PROTECTED 14 _ZN7android14LooperCallba
503:   FUNC GLOBAL PROTECTED 14 _ZN7android6Looper8pollOn
504:   FUNC WEAK PROTECTED 14 _ZNK7android12SortedVecto
