 0x0000000e (SONAME)                     Library soname: [android.system.suspend@1.0.so]
  
Symbol   contains 308 entries:
Num:   Type Bind Vis Ndx Name
0:   NOTYPE LOCAL DEFAULT UND
1:   FUNC GLOBAL DEFAULT UND __cxa_finalize@LIBC (2)
2:   FUNC GLOBAL DEFAULT UND _ZN7android14sp_report_ra
3:   FUNC GLOBAL DEFAULT UND _ZN7android21report_syspr
4:   OBJECT GLOBAL DEFAULT UND _ZN7android4hidl4base4V1_
5:   FUNC GLOBAL DEFAULT UND _ZN7android4hidl4base4V1_
6:   FUNC GLOBAL DEFAULT UND _ZN7android4hidl4base4V1_
7:   FUNC GLOBAL DEFAULT UND _ZN7android4hidl4base4V1_
8:   FUNC GLOBAL DEFAULT UND _ZN7android4hidl4base4V1_
9:   FUNC GLOBAL DEFAULT UND _ZN7android4hidl4base4V1_
10:   FUNC GLOBAL DEFAULT UND _ZN7android4hidl4base4V1_
11:   FUNC GLOBAL DEFAULT UND _ZN7android4hidl4base4V1_
12:   FUNC GLOBAL DEFAULT UND _ZN7android4hidl4base4V1_
13:   FUNC GLOBAL DEFAULT UND _ZN7android4hidl4base4V1_
14:   FUNC GLOBAL DEFAULT UND _ZN7android4hidl4base4V1_
15:   FUNC GLOBAL DEFAULT UND _ZN7android4hidl4base4V1_
16:   FUNC GLOBAL DEFAULT UND _ZN7android4hidl4base4V1_
17:   FUNC GLOBAL DEFAULT UND _ZN7android4hidl4base4V1_
18:   FUNC GLOBAL DEFAULT UND _ZN7android4hidl4base4V1_
19:   FUNC GLOBAL DEFAULT UND _ZN7android4hidl4base4V1_
20:   FUNC GLOBAL DEFAULT UND _ZN7android4hidl4base4V1_
21:   FUNC GLOBAL DEFAULT UND _ZN7android4hidl4base4V1_
22:   FUNC GLOBAL DEFAULT UND _ZN7android4hidl4base4V1_
23:   FUNC GLOBAL DEFAULT UND _ZN7android4hidl4base4V1_
24:   FUNC GLOBAL DEFAULT UND _ZN7android4hidl4base4V1_
25:   FUNC GLOBAL DEFAULT UND _ZN7android4hidl4base4V1_
26:   FUNC GLOBAL DEFAULT UND _ZN7android4hidl4base4V1_
27:   FUNC GLOBAL DEFAULT UND _ZN7android4hidl4base4V1_
28:   FUNC GLOBAL DEFAULT UND _ZN7android7RefBase10onFi
29:   FUNC GLOBAL DEFAULT UND _ZN7android7RefBase12weak
30:   FUNC GLOBAL DEFAULT UND _ZN7android7RefBase13onLa
31:   FUNC GLOBAL DEFAULT UND _ZN7android7RefBase15onLa
32:   FUNC GLOBAL DEFAULT UND _ZN7android7RefBase20onIn
33:   FUNC GLOBAL DEFAULT UND _ZN7android7RefBaseC2Ev
34:   FUNC GLOBAL DEFAULT UND _ZN7android7RefBaseD2Ev
35:   FUNC GLOBAL DEFAULT UND _ZN7android8hardware10IIn
36:   FUNC GLOBAL DEFAULT UND _ZN7android8hardware10IIn
37:   FUNC GLOBAL DEFAULT UND _ZN7android8hardware10IIn
38:   FUNC GLOBAL DEFAULT UND _ZN7android8hardware10IIn
39:   FUNC GLOBAL DEFAULT UND _ZN7android8hardware10IIn
40:   FUNC GLOBAL DEFAULT UND _ZN7android8hardware11BpH
41:   FUNC GLOBAL DEFAULT UND _ZN7android8hardware11BpH
42:   FUNC GLOBAL DEFAULT UND _ZN7android8hardware11BpH
43:   FUNC GLOBAL DEFAULT UND _ZN7android8hardware11BpH
44:   FUNC GLOBAL DEFAULT UND _ZN7android8hardware11BpH
45:   FUNC GLOBAL DEFAULT UND _ZN7android8hardware11BpH
46:   FUNC GLOBAL DEFAULT UND _ZN7android8hardware11BpH
47:   FUNC GLOBAL DEFAULT UND _ZN7android8hardware11hid
48:   FUNC GLOBAL DEFAULT UND _ZN7android8hardware11hid
49:   FUNC GLOBAL DEFAULT UND _ZN7android8hardware11hid
50:   FUNC GLOBAL DEFAULT UND _ZN7android8hardware11hid
51:   FUNC GLOBAL DEFAULT UND _ZN7android8hardware11hid
52:   FUNC GLOBAL DEFAULT UND _ZN7android8hardware12Pro
53:   FUNC GLOBAL DEFAULT UND _ZN7android8hardware12Pro
54:   FUNC GLOBAL DEFAULT UND _ZN7android8hardware13wri
55:   FUNC GLOBAL DEFAULT UND _ZN7android8hardware14rea
56:   FUNC GLOBAL DEFAULT UND _ZN7android8hardware21def
57:   FUNC GLOBAL DEFAULT UND _ZN7android8hardware21wri
58:   FUNC GLOBAL DEFAULT UND _ZN7android8hardware22rea
59:   FUNC GLOBAL DEFAULT UND _ZN7android8hardware23get
60:   FUNC GLOBAL DEFAULT UND _ZN7android8hardware27hid
61:   FUNC GLOBAL DEFAULT UND _ZN7android8hardware27hid
62:   FUNC GLOBAL DEFAULT UND _ZN7android8hardware6Parc
63:   FUNC GLOBAL DEFAULT UND _ZN7android8hardware6Parc
64:   FUNC GLOBAL DEFAULT UND _ZN7android8hardware6Parc
65:   FUNC GLOBAL DEFAULT UND _ZN7android8hardware6Parc
66:   FUNC GLOBAL DEFAULT UND _ZN7android8hardware6Parc
67:   FUNC GLOBAL DEFAULT UND _ZN7android8hardware6Parc
68:   FUNC GLOBAL DEFAULT UND _ZN7android8hardware6Stat
69:   FUNC GLOBAL DEFAULT UND _ZN7android8hardware6Stat
70:   FUNC GLOBAL DEFAULT UND _ZN7android8hardware6Stat
71:   FUNC GLOBAL DEFAULT UND _ZN7android8hardware6Stat
72:   FUNC GLOBAL DEFAULT UND _ZN7android8hardware7IBin
73:   FUNC GLOBAL DEFAULT UND _ZN7android8hardware7IBin
74:   FUNC GLOBAL DEFAULT UND _ZN7android8hardware7IBin
75:   FUNC GLOBAL DEFAULT UND _ZN7android8hardware7IBin
76:   FUNC GLOBAL DEFAULT UND _ZN7android8hardware7deta
77:   FUNC GLOBAL DEFAULT UND _ZN7android8hardware7deta
78:   FUNC GLOBAL DEFAULT UND _ZN7android8hardware7deta
79:   FUNC GLOBAL DEFAULT UND _ZN7android8hardware7deta
80:   FUNC GLOBAL DEFAULT UND _ZN7android8hardware7deta
81:   FUNC GLOBAL DEFAULT UND _ZN7android8hardware7deta
82:   FUNC GLOBAL DEFAULT UND _ZN7android8hardware7deta
83:   OBJECT GLOBAL DEFAULT UND _ZN7android8hardware7deta
84:   OBJECT GLOBAL DEFAULT UND _ZN7android8hardware7deta
85:   FUNC GLOBAL DEFAULT UND _ZN7android8hardware7deta
86:   FUNC GLOBAL DEFAULT UND _ZN7android8hardware7deta
87:   FUNC GLOBAL DEFAULT UND _ZN7android8hardware7deta
88:   FUNC GLOBAL DEFAULT UND _ZN7android8hardware7deta
89:   FUNC GLOBAL DEFAULT UND _ZN7android8hardware7deta
90:   FUNC GLOBAL DEFAULT UND _ZN7android8hardware7deta
91:   FUNC GLOBAL DEFAULT UND _ZN7android8hardware7deta
92:   FUNC GLOBAL DEFAULT UND _ZN7android8hardware7deta
93:   FUNC GLOBAL DEFAULT UND _ZN7android8hardware7deta
94:   FUNC GLOBAL DEFAULT UND _ZN7android8hardware7deta
95:   OBJECT GLOBAL DEFAULT UND _ZN7android8hardware7deta
96:   FUNC GLOBAL DEFAULT UND _ZN7android8hardware9BHwB
97:   FUNC GLOBAL DEFAULT UND _ZN7android8hardware9BHwB
98:   FUNC GLOBAL DEFAULT UND _ZN7android8hardware9BHwB
99:   FUNC GLOBAL DEFAULT UND _ZN7android8hardware9BHwB
100:   FUNC GLOBAL DEFAULT UND _ZN7android8hardware9BHwB
101:   FUNC GLOBAL DEFAULT UND _ZN7android8hardware9BHwB
102:   FUNC GLOBAL DEFAULT UND _ZN7android8hardware9BHwB
103:   FUNC GLOBAL DEFAULT UND _ZN7android8hardware9BHwB
104:   FUNC GLOBAL DEFAULT UND _ZN7android8hardware9BHwB
105:   FUNC GLOBAL DEFAULT UND _ZN7android8hardware9BHwB
106:   FUNC GLOBAL DEFAULT UND _ZNK7android7RefBase10cre
107:   FUNC GLOBAL DEFAULT UND _ZNK7android7RefBase11get
108:   FUNC GLOBAL DEFAULT UND _ZNK7android7RefBase9decS
109:   FUNC GLOBAL DEFAULT UND _ZNK7android7RefBase9incS
110:   FUNC GLOBAL DEFAULT UND _ZNK7android8hardware6Par
111:   FUNC GLOBAL DEFAULT UND _ZNK7android8hardware6Par
112:   FUNC GLOBAL DEFAULT UND _ZNK7android8hardware6Par
113:   FUNC GLOBAL DEFAULT UND _ZNK7android8hardware6Par
114:   FUNC GLOBAL DEFAULT UND _ZNK7android8hardware7IBi
115:   FUNC GLOBAL DEFAULT UND _ZNK7android8hardware7det
116:   FUNC GLOBAL DEFAULT UND _ZNK7android8hardware9BHw
117:   FUNC GLOBAL DEFAULT UND _ZNKSt3__120__vector_base
118:   FUNC GLOBAL DEFAULT UND _ZNKSt3__121__basic_strin
119:   FUNC GLOBAL DEFAULT UND _ZNSt3__112basic_stringIc
120:   FUNC GLOBAL DEFAULT UND _ZNSt3__112basic_stringIc
121:   FUNC GLOBAL DEFAULT UND _ZNSt3__15mutex4lockEv
122:   FUNC GLOBAL DEFAULT UND _ZNSt3__15mutex6unlockEv
123:   FUNC GLOBAL DEFAULT UND _ZNSt3__15mutexD1Ev
124:   FUNC GLOBAL DEFAULT UND _ZTv0_n12_N7android4hidl4
125:   FUNC GLOBAL DEFAULT UND _ZTv0_n12_N7android4hidl4
126:   FUNC GLOBAL DEFAULT UND _ZTv0_n12_N7android8hardw
127:   FUNC GLOBAL DEFAULT UND _ZTv0_n12_N7android8hardw
128:   FUNC GLOBAL DEFAULT UND _ZTv0_n12_N7android8hardw
129:   FUNC GLOBAL DEFAULT UND _ZTv0_n12_N7android8hardw
130:   FUNC GLOBAL DEFAULT UND _ZTv0_n12_N7android8hardw
131:   FUNC GLOBAL DEFAULT UND _ZTv0_n12_N7android8hardw
132:   FUNC GLOBAL DEFAULT UND _ZTv0_n12_N7android8hardw
133:   FUNC GLOBAL DEFAULT UND _ZTv0_n12_N7android8hardw
134:   FUNC GLOBAL DEFAULT UND _ZTv0_n16_N7android8hardw
135:   FUNC GLOBAL DEFAULT UND _ZTv0_n20_N7android8hardw
136:   FUNC GLOBAL DEFAULT UND _ZTv0_n24_N7android8hardw
137:   FUNC GLOBAL DEFAULT UND _ZdaPv
138:   FUNC GLOBAL DEFAULT UND _ZdlPv
139:   FUNC GLOBAL DEFAULT UND _Znaj
140:   FUNC GLOBAL DEFAULT UND _Znwj
141:   FUNC GLOBAL DEFAULT UND __cxa_pure_virtual
142:   FUNC GLOBAL DEFAULT UND __stack_chk_fail@LIBC (2)
143:   OBJECT GLOBAL DEFAULT UND __stack_chk_guard@LIBC (2)
144:   FUNC GLOBAL DEFAULT UND abort@LIBC (2)
145:   FUNC GLOBAL DEFAULT UND atrace_begin_body
146:   OBJECT GLOBAL DEFAULT UND atrace_enabled_tags
147:   FUNC GLOBAL DEFAULT UND atrace_end_body
148:   OBJECT GLOBAL DEFAULT UND atrace_is_ready
149:   FUNC GLOBAL DEFAULT UND atrace_setup
150:   FUNC GLOBAL DEFAULT UND memcmp@LIBC (2)
151:   FUNC GLOBAL DEFAULT UND strlen@LIBC (2)
152:   FUNC GLOBAL DEFAULT UND memcpy@LIBC (2)
153:   FUNC GLOBAL DEFAULT UND memset@LIBC (2)
154:   OBJECT GLOBAL DEFAULT 16 _ZN7android6system7suspen
155:   FUNC GLOBAL DEFAULT 14 _ZN7android6system7suspen
156:   FUNC GLOBAL DEFAULT 14 _ZN7android6system7suspen
157:   OBJECT GLOBAL DEFAULT 18 _ZTCN7android6system7susp
158:   OBJECT GLOBAL DEFAULT 18 _ZTVN7android6system7susp
159:   OBJECT GLOBAL DEFAULT 18 _ZTVN7android6system7susp
160:   FUNC GLOBAL DEFAULT 14 _ZN7android6system7suspen
161:   FUNC GLOBAL DEFAULT 14 _ZN7android6system7suspen
162:   FUNC GLOBAL DEFAULT 14 _ZN7android6system7suspen
163:   FUNC GLOBAL DEFAULT 14 __aeabi_memset8
164:   FUNC GLOBAL DEFAULT 14 _ZN7android6system7suspen
165:   FUNC GLOBAL DEFAULT 14 _ZN7android6system7suspen
166:   FUNC GLOBAL DEFAULT 14 _ZN7android6system7suspen
167:   FUNC WEAK DEFAULT 14 _ZNSt3__127__tree_balance
168:   FUNC GLOBAL DEFAULT 14 _ZN7android6system7suspen
169:   FUNC GLOBAL DEFAULT 14 _ZN7android6system7suspen
170:   FUNC WEAK DEFAULT 14 _ZNSt3__16__treeINS_12__v
171:   FUNC GLOBAL DEFAULT 14 _ZN7android6system7suspen
172:   FUNC GLOBAL DEFAULT 14 _ZN7android6system7suspen
173:   FUNC GLOBAL DEFAULT 14 _ZN7android6system7suspen
174:   FUNC GLOBAL DEFAULT 14 _ZN7android6system7suspen
175:   FUNC GLOBAL DEFAULT 14 _ZThn20_N7android6system7
176:   FUNC GLOBAL DEFAULT 14 _ZN7android6system7suspen
177:   FUNC GLOBAL DEFAULT 14 _ZN7android6system7suspen
178:   OBJECT GLOBAL DEFAULT 18 _ZTCN7android6system7susp
179:   OBJECT GLOBAL DEFAULT 18 _ZTTN7android6system7susp
180:   FUNC GLOBAL DEFAULT 14 _ZThn20_N7android6system7
181:   FUNC GLOBAL DEFAULT 14 _ZN7android6system7suspen
182:   FUNC GLOBAL DEFAULT 14 __aeabi_memcpy4
183:   OBJECT GLOBAL DEFAULT 18 _ZTCN7android6system7susp
184:   FUNC GLOBAL DEFAULT 14 _ZN7android6system7suspen
185:   FUNC GLOBAL DEFAULT 14 _ZN7android6system7suspen
186:   FUNC GLOBAL DEFAULT 14 _ZN7android6system7suspen
187:   FUNC WEAK DEFAULT 14 _ZN7android8hardware7deta
188:   FUNC GLOBAL DEFAULT 14 _ZTv0_n12_N7android6syste
189:   FUNC GLOBAL DEFAULT 14 _ZN7android6system7suspen
190:   FUNC GLOBAL DEFAULT 14 _ZN7android6system7suspen
191:   FUNC GLOBAL DEFAULT 14 __aeabi_memcpy8
192:   FUNC GLOBAL DEFAULT 14 __aeabi_memset
193:   FUNC GLOBAL DEFAULT 14 _ZN7android6system7suspen
194:   OBJECT GLOBAL DEFAULT 16 _ZN7android6system7suspen
195:   FUNC WEAK DEFAULT 14 _ZNSt3__16__treeINS_12__v
196:   FUNC GLOBAL DEFAULT 14 _ZN7android6system7suspen
197:   FUNC GLOBAL DEFAULT 14 _ZN7android6system7suspen
198:   FUNC WEAK DEFAULT 14 _ZNSt3__16vectorIN7androi
199:   OBJECT GLOBAL DEFAULT 18 _ZTCN7android6system7susp
200:   FUNC WEAK DEFAULT 14 _ZN7android8hardware7deta
201:   FUNC WEAK DEFAULT 14 _ZNSt3__16__treeINS_12__v
202:   FUNC GLOBAL DEFAULT 14 _ZN7android6system7suspen
203:   OBJECT GLOBAL DEFAULT 18 _ZTTN7android6system7susp
204:   OBJECT GLOBAL DEFAULT 18 _ZTVN7android6system7susp
205:   FUNC GLOBAL DEFAULT 14 _ZN7android6system7suspen
206:   FUNC GLOBAL DEFAULT 14 _ZN7android6system7suspen
207:   FUNC GLOBAL DEFAULT 14 _ZN7android6system7suspen
208:   OBJECT GLOBAL DEFAULT 18 _ZTCN7android6system7susp
209:   FUNC GLOBAL DEFAULT 14 _ZTv0_n12_N7android6syste
210:   FUNC GLOBAL DEFAULT 14 _ZN7android6system7suspen
211:   FUNC GLOBAL DEFAULT 14 _ZN7android6system7suspen
212:   FUNC GLOBAL DEFAULT 14 _ZN7android6system7suspen
213:   FUNC GLOBAL DEFAULT 14 _ZN7android6system7suspen
214:   FUNC GLOBAL DEFAULT 14 _ZN7android6system7suspen
215:   OBJECT GLOBAL DEFAULT 18 _ZTVN7android6system7susp
216:   FUNC GLOBAL DEFAULT 14 _ZN7android6system7suspen
217:   FUNC GLOBAL DEFAULT 14 __aeabi_memcpy
218:   FUNC GLOBAL DEFAULT 14 _ZN7android6system7suspen
219:   OBJECT GLOBAL DEFAULT 18 _ZTCN7android6system7susp
220:   FUNC GLOBAL DEFAULT 14 _ZN7android6system7suspen
221:   OBJECT GLOBAL DEFAULT 18 _ZTTN7android6system7susp
222:   FUNC GLOBAL DEFAULT 14 _ZN7android6system7suspen
223:   FUNC GLOBAL DEFAULT 14 _ZN7android6system7suspen
224:   OBJECT GLOBAL DEFAULT 18 _ZTTN7android6system7susp
225:   FUNC GLOBAL DEFAULT 14 __aeabi_memclr4
226:   FUNC GLOBAL DEFAULT 14 _ZN7android6system7suspen
227:   FUNC WEAK DEFAULT 14 _ZNSt3__16vectorIPvNS_9al
228:   OBJECT WEAK DEFAULT 18 _ZTCN7android6system7susp
229:   FUNC GLOBAL DEFAULT 14 _ZThn20_N7android6system7
230:   FUNC GLOBAL DEFAULT 14 _ZN7android6system7suspen
231:   FUNC GLOBAL DEFAULT 14 _ZN7android6system7suspen
232:   FUNC GLOBAL DEFAULT 14 _ZN7android6system7suspen
233:   FUNC GLOBAL DEFAULT 14 _ZN7android6system7suspen
234:   FUNC GLOBAL DEFAULT 14 _ZN7android6system7suspen
235:   FUNC GLOBAL DEFAULT 14 _ZN7android6system7suspen
236:   OBJECT GLOBAL DEFAULT 18 _ZTVN7android6system7susp
237:   FUNC GLOBAL DEFAULT 14 __aeabi_memclr8
238:   FUNC GLOBAL DEFAULT 14 _ZN7android6system7suspen
239:   FUNC GLOBAL DEFAULT 14 _ZN7android6system7suspen
240:   FUNC WEAK DEFAULT 14 _ZN7android8hardware10fro
241:   FUNC WEAK DEFAULT 14 _ZNSt3__16__treeINS_12__v
242:   FUNC WEAK DEFAULT 14 _ZNSt3__16vectorINS_8func
243:   OBJECT GLOBAL DEFAULT 18 _ZTCN7android6system7susp
244:   OBJECT GLOBAL DEFAULT 18 _ZTCN7android6system7susp
245:   FUNC GLOBAL DEFAULT 14 _ZN7android6system7suspen
246:   FUNC WEAK DEFAULT 14 _ZN7android8hardware7deta
247:   FUNC GLOBAL DEFAULT 14 _ZN7android6system7suspen
248:   FUNC GLOBAL DEFAULT 14 _ZN7android6system7suspen
249:   FUNC GLOBAL DEFAULT 14 _ZN7android6system7suspen
250:   FUNC WEAK DEFAULT 14 _ZN7android8hardware7deta
251:   OBJECT GLOBAL DEFAULT 18 _ZTCN7android6system7susp
252:   FUNC GLOBAL DEFAULT 14 _ZN7android6system7suspen
253:   FUNC GLOBAL DEFAULT 14 _ZN7android6system7suspen
254:   FUNC GLOBAL DEFAULT 14 _ZN7android6system7suspen
255:   FUNC GLOBAL DEFAULT 14 _ZN7android6system7suspen
256:   OBJECT GLOBAL DEFAULT 18 _ZTCN7android6system7susp
257:   FUNC GLOBAL DEFAULT 14 _ZN7android6system7suspen
258:   FUNC GLOBAL DEFAULT 14 _ZN7android6system7suspen
259:   FUNC GLOBAL DEFAULT 14 _ZTv0_n12_N7android6syste
260:   FUNC GLOBAL DEFAULT 14 _ZN7android6system7suspen
261:   FUNC GLOBAL DEFAULT 14 _ZN7android6system7suspen
262:   FUNC GLOBAL DEFAULT 14 _ZN7android6system7suspen
263:   OBJECT WEAK DEFAULT 18 _ZTVN7android6system7susp
264:   FUNC GLOBAL DEFAULT 14 _ZN7android6system7suspen
265:   FUNC GLOBAL DEFAULT 14 _ZN7android6system7suspen
266:   OBJECT GLOBAL DEFAULT 18 _ZTTN7android6system7susp
267:   OBJECT GLOBAL DEFAULT 18 _ZTVN7android6system7susp
268:   FUNC GLOBAL DEFAULT 14 _ZN7android6system7suspen
269:   OBJECT GLOBAL DEFAULT 18 _ZTCN7android6system7susp
270:   FUNC GLOBAL DEFAULT 14 _ZN7android6system7suspen
271:   FUNC WEAK DEFAULT 14 _ZN7android8hardware7deta
272:   FUNC GLOBAL DEFAULT 14 _ZN7android6system7suspen
273:   OBJECT GLOBAL DEFAULT 18 _ZTCN7android6system7susp
274:   FUNC GLOBAL DEFAULT 14 __aeabi_memclr
275:   OBJECT GLOBAL DEFAULT 18 _ZTCN7android6system7susp
276:   FUNC GLOBAL DEFAULT 14 _ZThn20_N7android6system7
277:   FUNC GLOBAL DEFAULT 14 _ZN7android6system7suspen
278:   FUNC GLOBAL DEFAULT 14 _ZN7android6system7suspen
279:   OBJECT GLOBAL DEFAULT 18 _ZTCN7android6system7susp
280:   FUNC GLOBAL DEFAULT 14 _ZN7android6system7suspen
281:   FUNC GLOBAL DEFAULT 14 _ZN7android6system7suspen
282:   OBJECT WEAK DEFAULT 18 _ZTCN7android6system7susp
283:   OBJECT GLOBAL DEFAULT 18 _ZTCN7android6system7susp
284:   FUNC GLOBAL DEFAULT 14 _ZN7android6system7suspen
285:   FUNC WEAK DEFAULT 14 _ZNSt3__16__treeINS_12__v
286:   FUNC WEAK DEFAULT 14 _ZNSt3__16__treeINS_12__v
287:   OBJECT GLOBAL DEFAULT 18 _ZTCN7android6system7susp
288:   FUNC GLOBAL DEFAULT 14 _ZTv0_n12_N7android6syste
289:   OBJECT GLOBAL DEFAULT 18 _ZTTN7android6system7susp
290:   FUNC GLOBAL DEFAULT 14 _ZN7android6system7suspen
291:   FUNC GLOBAL DEFAULT 14 _ZN7android6system7suspen
292:   FUNC GLOBAL DEFAULT 14 _ZN7android6system7suspen
293:   FUNC GLOBAL DEFAULT 14 _ZN7android6system7suspen
294:   FUNC GLOBAL DEFAULT 14 _ZN7android6system7suspen
295:   FUNC GLOBAL DEFAULT 14 _ZN7android6system7suspen
296:   FUNC GLOBAL DEFAULT 14 _ZN7android6system7suspen
297:   FUNC GLOBAL DEFAULT 14 _ZN7android6system7suspen
298:   OBJECT WEAK DEFAULT 18 _ZTVN7android6system7susp
299:   FUNC GLOBAL DEFAULT 14 __aeabi_memset4
300:   FUNC GLOBAL DEFAULT 14 _ZN7android6system7suspen
301:   FUNC WEAK DEFAULT 14 _ZNSt3__113__tree_removeI
302:   FUNC GLOBAL DEFAULT 14 _ZN7android6system7suspen
303:   OBJECT GLOBAL DEFAULT 18 _ZTCN7android6system7susp
304:   FUNC GLOBAL DEFAULT 14 _ZN7android6system7suspen
305:   OBJECT GLOBAL DEFAULT 18 _ZTCN7android6system7susp
306:   FUNC GLOBAL DEFAULT 14 _ZN7android6system7suspen
307:   FUNC GLOBAL DEFAULT 14 _ZN7android6system7suspen
