 0x000000000000000e (SONAME)             Library soname: [android.hardware.nfc@1.0.so]
  
Symbol   contains 319 entries:
Num:   Type Bind Vis Ndx Name
0:   NOTYPE LOCAL DEFAULT UND
1:   FUNC GLOBAL DEFAULT UND __cxa_finalize@LIBC (2)
2:   FUNC GLOBAL DEFAULT UND _ZN7android14sp_report_ra
3:   FUNC GLOBAL DEFAULT UND _ZN7android21report_syspr
4:   OBJECT GLOBAL DEFAULT UND _ZN7android4hidl4base4V1_
5:   FUNC GLOBAL DEFAULT UND _ZN7android4hidl4base4V1_
6:   FUNC GLOBAL DEFAULT UND _ZN7android4hidl4base4V1_
7:   FUNC GLOBAL DEFAULT UND _ZN7android4hidl4base4V1_
8:   FUNC GLOBAL DEFAULT UND _ZN7android4hidl4base4V1_
9:   FUNC GLOBAL DEFAULT UND _ZN7android4hidl4base4V1_
10:   FUNC GLOBAL DEFAULT UND _ZN7android4hidl4base4V1_
11:   FUNC GLOBAL DEFAULT UND _ZN7android4hidl4base4V1_
12:   FUNC GLOBAL DEFAULT UND _ZN7android4hidl4base4V1_
13:   FUNC GLOBAL DEFAULT UND _ZN7android4hidl4base4V1_
14:   FUNC GLOBAL DEFAULT UND _ZN7android4hidl4base4V1_
15:   FUNC GLOBAL DEFAULT UND _ZN7android4hidl4base4V1_
16:   FUNC GLOBAL DEFAULT UND _ZN7android4hidl4base4V1_
17:   FUNC GLOBAL DEFAULT UND _ZN7android4hidl4base4V1_
18:   FUNC GLOBAL DEFAULT UND _ZN7android4hidl4base4V1_
19:   FUNC GLOBAL DEFAULT UND _ZN7android4hidl4base4V1_
20:   FUNC GLOBAL DEFAULT UND _ZN7android4hidl4base4V1_
21:   FUNC GLOBAL DEFAULT UND _ZN7android4hidl4base4V1_
22:   FUNC GLOBAL DEFAULT UND _ZN7android4hidl4base4V1_
23:   FUNC GLOBAL DEFAULT UND _ZN7android4hidl4base4V1_
24:   FUNC GLOBAL DEFAULT UND _ZN7android4hidl4base4V1_
25:   FUNC GLOBAL DEFAULT UND _ZN7android4hidl4base4V1_
26:   FUNC GLOBAL DEFAULT UND _ZN7android4hidl4base4V1_
27:   FUNC GLOBAL DEFAULT UND _ZN7android4hidl4base4V1_
28:   FUNC GLOBAL DEFAULT UND _ZN7android7RefBase10onFi
29:   FUNC GLOBAL DEFAULT UND _ZN7android7RefBase12weak
30:   FUNC GLOBAL DEFAULT UND _ZN7android7RefBase13onLa
31:   FUNC GLOBAL DEFAULT UND _ZN7android7RefBase15onLa
32:   FUNC GLOBAL DEFAULT UND _ZN7android7RefBase20onIn
33:   FUNC GLOBAL DEFAULT UND _ZN7android7RefBaseC2Ev
34:   FUNC GLOBAL DEFAULT UND _ZN7android7RefBaseD2Ev
35:   FUNC GLOBAL DEFAULT UND _ZN7android8hardware10IIn
36:   FUNC GLOBAL DEFAULT UND _ZN7android8hardware10IIn
37:   FUNC GLOBAL DEFAULT UND _ZN7android8hardware10IIn
38:   FUNC GLOBAL DEFAULT UND _ZN7android8hardware10IIn
39:   FUNC GLOBAL DEFAULT UND _ZN7android8hardware10IIn
40:   FUNC GLOBAL DEFAULT UND _ZN7android8hardware11BpH
41:   FUNC GLOBAL DEFAULT UND _ZN7android8hardware11BpH
42:   FUNC GLOBAL DEFAULT UND _ZN7android8hardware11BpH
43:   FUNC GLOBAL DEFAULT UND _ZN7android8hardware11BpH
44:   FUNC GLOBAL DEFAULT UND _ZN7android8hardware11BpH
45:   FUNC GLOBAL DEFAULT UND _ZN7android8hardware11BpH
46:   FUNC GLOBAL DEFAULT UND _ZN7android8hardware11BpH
47:   FUNC GLOBAL DEFAULT UND _ZN7android8hardware11hid
48:   FUNC GLOBAL DEFAULT UND _ZN7android8hardware11hid
49:   FUNC GLOBAL DEFAULT UND _ZN7android8hardware11hid
50:   FUNC GLOBAL DEFAULT UND _ZN7android8hardware11hid
51:   FUNC GLOBAL DEFAULT UND _ZN7android8hardware11hid
52:   FUNC GLOBAL DEFAULT UND _ZN7android8hardware12Pro
53:   FUNC GLOBAL DEFAULT UND _ZN7android8hardware12Pro
54:   FUNC GLOBAL DEFAULT UND _ZN7android8hardware13wri
55:   FUNC GLOBAL DEFAULT UND _ZN7android8hardware14rea
56:   FUNC GLOBAL DEFAULT UND _ZN7android8hardware21def
57:   FUNC GLOBAL DEFAULT UND _ZN7android8hardware23get
58:   FUNC GLOBAL DEFAULT UND _ZN7android8hardware27hid
59:   FUNC GLOBAL DEFAULT UND _ZN7android8hardware27hid
60:   FUNC GLOBAL DEFAULT UND _ZN7android8hardware6Parc
61:   FUNC GLOBAL DEFAULT UND _ZN7android8hardware6Parc
62:   FUNC GLOBAL DEFAULT UND _ZN7android8hardware6Parc
63:   FUNC GLOBAL DEFAULT UND _ZN7android8hardware6Parc
64:   FUNC GLOBAL DEFAULT UND _ZN7android8hardware6Parc
65:   FUNC GLOBAL DEFAULT UND _ZN7android8hardware6Parc
66:   FUNC GLOBAL DEFAULT UND _ZN7android8hardware6Parc
67:   FUNC GLOBAL DEFAULT UND _ZN7android8hardware6Stat
68:   FUNC GLOBAL DEFAULT UND _ZN7android8hardware6Stat
69:   FUNC GLOBAL DEFAULT UND _ZN7android8hardware6Stat
70:   FUNC GLOBAL DEFAULT UND _ZN7android8hardware6Stat
71:   FUNC GLOBAL DEFAULT UND _ZN7android8hardware7IBin
72:   FUNC GLOBAL DEFAULT UND _ZN7android8hardware7IBin
73:   FUNC GLOBAL DEFAULT UND _ZN7android8hardware7IBin
74:   FUNC GLOBAL DEFAULT UND _ZN7android8hardware7IBin
75:   FUNC GLOBAL DEFAULT UND _ZN7android8hardware7deta
76:   FUNC GLOBAL DEFAULT UND _ZN7android8hardware7deta
77:   FUNC GLOBAL DEFAULT UND _ZN7android8hardware7deta
78:   FUNC GLOBAL DEFAULT UND _ZN7android8hardware7deta
79:   FUNC GLOBAL DEFAULT UND _ZN7android8hardware7deta
80:   FUNC GLOBAL DEFAULT UND _ZN7android8hardware7deta
81:   FUNC GLOBAL DEFAULT UND _ZN7android8hardware7deta
82:   OBJECT GLOBAL DEFAULT UND _ZN7android8hardware7deta
83:   FUNC GLOBAL DEFAULT UND _ZN7android8hardware7deta
84:   OBJECT GLOBAL DEFAULT UND _ZN7android8hardware7deta
85:   FUNC GLOBAL DEFAULT UND _ZN7android8hardware7deta
86:   FUNC GLOBAL DEFAULT UND _ZN7android8hardware7deta
87:   FUNC GLOBAL DEFAULT UND _ZN7android8hardware7deta
88:   FUNC GLOBAL DEFAULT UND _ZN7android8hardware7deta
89:   FUNC GLOBAL DEFAULT UND _ZN7android8hardware7deta
90:   FUNC GLOBAL DEFAULT UND _ZN7android8hardware7deta
91:   FUNC GLOBAL DEFAULT UND _ZN7android8hardware7deta
92:   FUNC GLOBAL DEFAULT UND _ZN7android8hardware7deta
93:   FUNC GLOBAL DEFAULT UND _ZN7android8hardware7deta
94:   FUNC GLOBAL DEFAULT UND _ZN7android8hardware7deta
95:   OBJECT GLOBAL DEFAULT UND _ZN7android8hardware7deta
96:   FUNC GLOBAL DEFAULT UND _ZN7android8hardware9BHwB
97:   FUNC GLOBAL DEFAULT UND _ZN7android8hardware9BHwB
98:   FUNC GLOBAL DEFAULT UND _ZN7android8hardware9BHwB
99:   FUNC GLOBAL DEFAULT UND _ZN7android8hardware9BHwB
100:   FUNC GLOBAL DEFAULT UND _ZN7android8hardware9BHwB
101:   FUNC GLOBAL DEFAULT UND _ZN7android8hardware9BHwB
102:   FUNC GLOBAL DEFAULT UND _ZN7android8hardware9BHwB
103:   FUNC GLOBAL DEFAULT UND _ZN7android8hardware9BHwB
104:   FUNC GLOBAL DEFAULT UND _ZN7android8hardware9BHwB
105:   FUNC GLOBAL DEFAULT UND _ZN7android8hardware9BHwB
106:   FUNC GLOBAL DEFAULT UND _ZNK7android7RefBase10cre
107:   FUNC GLOBAL DEFAULT UND _ZNK7android7RefBase11get
108:   FUNC GLOBAL DEFAULT UND _ZNK7android7RefBase9decS
109:   FUNC GLOBAL DEFAULT UND _ZNK7android7RefBase9incS
110:   FUNC GLOBAL DEFAULT UND _ZNK7android8hardware6Par
111:   FUNC GLOBAL DEFAULT UND _ZNK7android8hardware6Par
112:   FUNC GLOBAL DEFAULT UND _ZNK7android8hardware6Par
113:   FUNC GLOBAL DEFAULT UND _ZNK7android8hardware6Par
114:   FUNC GLOBAL DEFAULT UND _ZNK7android8hardware6Par
115:   FUNC GLOBAL DEFAULT UND _ZNK7android8hardware7IBi
116:   FUNC GLOBAL DEFAULT UND _ZNK7android8hardware7det
117:   FUNC GLOBAL DEFAULT UND _ZNK7android8hardware9BHw
118:   FUNC GLOBAL DEFAULT UND _ZNKSt3__120__vector_base
119:   FUNC GLOBAL DEFAULT UND _ZNKSt3__121__basic_strin
120:   FUNC GLOBAL DEFAULT UND _ZNSt3__112basic_stringIc
121:   FUNC GLOBAL DEFAULT UND _ZNSt3__15mutex4lockEv
122:   FUNC GLOBAL DEFAULT UND _ZNSt3__15mutex6unlockEv
123:   FUNC GLOBAL DEFAULT UND _ZNSt3__15mutexD1Ev
124:   FUNC GLOBAL DEFAULT UND _ZTv0_n24_N7android4hidl4
125:   FUNC GLOBAL DEFAULT UND _ZTv0_n24_N7android4hidl4
126:   FUNC GLOBAL DEFAULT UND _ZTv0_n24_N7android8hardw
127:   FUNC GLOBAL DEFAULT UND _ZTv0_n24_N7android8hardw
128:   FUNC GLOBAL DEFAULT UND _ZTv0_n24_N7android8hardw
129:   FUNC GLOBAL DEFAULT UND _ZTv0_n24_N7android8hardw
130:   FUNC GLOBAL DEFAULT UND _ZTv0_n24_N7android8hardw
131:   FUNC GLOBAL DEFAULT UND _ZTv0_n24_N7android8hardw
132:   FUNC GLOBAL DEFAULT UND _ZTv0_n24_N7android8hardw
133:   FUNC GLOBAL DEFAULT UND _ZTv0_n24_N7android8hardw
134:   FUNC GLOBAL DEFAULT UND _ZTv0_n32_N7android8hardw
135:   FUNC GLOBAL DEFAULT UND _ZTv0_n40_N7android8hardw
136:   FUNC GLOBAL DEFAULT UND _ZTv0_n48_N7android8hardw
137:   FUNC GLOBAL DEFAULT UND _ZdaPv
138:   FUNC GLOBAL DEFAULT UND _ZdlPv
139:   FUNC GLOBAL DEFAULT UND _Znam
140:   FUNC GLOBAL DEFAULT UND _Znwm
141:   FUNC GLOBAL DEFAULT UND __cxa_pure_virtual
142:   FUNC GLOBAL DEFAULT UND __stack_chk_fail@LIBC (2)
143:   FUNC GLOBAL DEFAULT UND abort@LIBC (2)
144:   FUNC GLOBAL DEFAULT UND atrace_begin_body
145:   OBJECT GLOBAL DEFAULT UND atrace_enabled_tags
146:   FUNC GLOBAL DEFAULT UND atrace_end_body
147:   OBJECT GLOBAL DEFAULT UND atrace_is_ready
148:   FUNC GLOBAL DEFAULT UND atrace_setup
149:   FUNC GLOBAL DEFAULT UND memcmp@LIBC (2)
150:   FUNC GLOBAL DEFAULT UND memcpy@LIBC (2)
151:   FUNC GLOBAL DEFAULT UND memset@LIBC (2)
152:   FUNC GLOBAL DEFAULT UND strlen@LIBC (2)
153:   FUNC GLOBAL DEFAULT 14 _ZN7android8hardware3nfc4
154:   FUNC GLOBAL DEFAULT 14 _ZN7android8hardware3nfc4
155:   FUNC GLOBAL DEFAULT 14 _ZN7android8hardware3nfc4
156:   FUNC WEAK DEFAULT 14 _ZN7android8hardware7deta
157:   FUNC GLOBAL DEFAULT 14 _ZN7android8hardware3nfc4
158:   FUNC GLOBAL DEFAULT 14 _ZN7android8hardware3nfc4
159:   FUNC GLOBAL DEFAULT 14 _ZN7android8hardware3nfc4
160:   FUNC GLOBAL DEFAULT 14 _ZTv0_n24_N7android8hardw
161:   FUNC GLOBAL DEFAULT 14 _ZN7android8hardware3nfc4
162:   FUNC GLOBAL DEFAULT 14 _ZN7android8hardware3nfc4
163:   FUNC GLOBAL DEFAULT 14 _ZN7android8hardware3nfc4
164:   FUNC GLOBAL DEFAULT 14 _ZN7android8hardware3nfc4
165:   OBJECT GLOBAL DEFAULT 18 _ZTCN7android8hardware3nf
166:   FUNC GLOBAL DEFAULT 14 _ZN7android8hardware3nfc4
167:   FUNC GLOBAL DEFAULT 14 _ZN7android8hardware3nfc4
168:   OBJECT GLOBAL DEFAULT 18 _ZTCN7android8hardware3nf
169:   FUNC GLOBAL DEFAULT 14 _ZN7android8hardware3nfc4
170:   FUNC GLOBAL DEFAULT 14 _ZN7android8hardware3nfc4
171:   FUNC WEAK DEFAULT 14 _ZNSt3__16__treeINS_12__v
172:   FUNC GLOBAL DEFAULT 14 _ZN7android8hardware3nfc4
173:   FUNC GLOBAL DEFAULT 14 _ZN7android8hardware3nfc4
174:   FUNC GLOBAL DEFAULT 14 _ZN7android8hardware3nfc4
175:   OBJECT GLOBAL DEFAULT 18 _ZTCN7android8hardware3nf
176:   OBJECT GLOBAL DEFAULT 18 _ZTVN7android8hardware3nf
177:   FUNC GLOBAL DEFAULT 14 _ZThn32_N7android8hardwar
178:   FUNC GLOBAL DEFAULT 14 _ZN7android8hardware3nfc4
179:   OBJECT GLOBAL DEFAULT 18 _ZTCN7android8hardware3nf
180:   FUNC WEAK DEFAULT 14 _ZNSt3__16vectorIPvNS_9al
181:   OBJECT GLOBAL DEFAULT 18 _ZTCN7android8hardware3nf
182:   FUNC GLOBAL DEFAULT 14 _ZN7android8hardware3nfc4
183:   FUNC GLOBAL DEFAULT 14 _ZN7android8hardware3nfc4
184:   FUNC GLOBAL DEFAULT 14 _ZN7android8hardware3nfc4
185:   OBJECT GLOBAL DEFAULT 16 _ZN7android8hardware3nfc4
186:   FUNC GLOBAL DEFAULT 14 _ZN7android8hardware3nfc4
187:   FUNC GLOBAL DEFAULT 14 _ZN7android8hardware3nfc4
188:   OBJECT GLOBAL DEFAULT 18 _ZTCN7android8hardware3nf
189:   FUNC GLOBAL DEFAULT 14 _ZN7android8hardware3nfc4
190:   FUNC GLOBAL DEFAULT 14 _ZN7android8hardware3nfc4
191:   FUNC GLOBAL DEFAULT 14 _ZN7android8hardware3nfc4
192:   OBJECT GLOBAL DEFAULT 18 _ZTCN7android8hardware3nf
193:   FUNC GLOBAL DEFAULT 14 _ZN7android8hardware3nfc4
194:   FUNC GLOBAL DEFAULT 14 _ZN7android8hardware3nfc4
195:   FUNC GLOBAL DEFAULT 14 _ZN7android8hardware3nfc4
196:   OBJECT GLOBAL DEFAULT 18 _ZTVN7android8hardware3nf
197:   FUNC GLOBAL DEFAULT 14 _ZN7android8hardware3nfc4
198:   FUNC GLOBAL DEFAULT 14 _ZN7android8hardware3nfc4
199:   FUNC GLOBAL DEFAULT 14 _ZN7android8hardware3nfc4
200:   FUNC GLOBAL DEFAULT 14 _ZN7android8hardware3nfc4
201:   OBJECT GLOBAL DEFAULT 18 _ZTVN7android8hardware3nf
202:   FUNC GLOBAL DEFAULT 14 _ZN7android8hardware3nfc4
203:   OBJECT GLOBAL DEFAULT 18 _ZTTN7android8hardware3nf
204:   OBJECT GLOBAL DEFAULT 18 _ZTCN7android8hardware3nf
205:   OBJECT GLOBAL DEFAULT 18 _ZTTN7android8hardware3nf
206:   OBJECT GLOBAL DEFAULT 18 _ZTTN7android8hardware3nf
207:   FUNC GLOBAL DEFAULT 14 _ZThn32_N7android8hardwar
208:   FUNC GLOBAL DEFAULT 14 _ZN7android8hardware3nfc4
209:   FUNC GLOBAL DEFAULT 14 _ZN7android8hardware3nfc4
210:   FUNC GLOBAL DEFAULT 14 _ZN7android8hardware3nfc4
211:   FUNC GLOBAL DEFAULT 14 _ZN7android8hardware3nfc4
212:   FUNC WEAK DEFAULT 14 _ZNSt3__113__tree_removeI
213:   FUNC GLOBAL DEFAULT 14 _ZN7android8hardware3nfc4
214:   FUNC GLOBAL DEFAULT 14 _ZN7android8hardware3nfc4
215:   FUNC GLOBAL DEFAULT 14 _ZN7android8hardware3nfc4
216:   FUNC GLOBAL DEFAULT 14 _ZN7android8hardware3nfc4
217:   FUNC WEAK DEFAULT 14 _ZN7android8hardware7deta
218:   FUNC GLOBAL DEFAULT 14 _ZN7android8hardware3nfc4
219:   FUNC GLOBAL DEFAULT 14 _ZN7android8hardware3nfc4
220:   OBJECT GLOBAL DEFAULT 18 _ZTCN7android8hardware3nf
221:   FUNC GLOBAL DEFAULT 14 _ZN7android8hardware3nfc4
222:   FUNC GLOBAL DEFAULT 14 _ZN7android8hardware3nfc4
223:   FUNC GLOBAL DEFAULT 14 _ZN7android8hardware3nfc4
224:   FUNC WEAK DEFAULT 14 _ZNSt3__16__treeINS_12__v
225:   FUNC GLOBAL DEFAULT 14 _ZN7android8hardware3nfc4
226:   FUNC GLOBAL DEFAULT 14 _ZN7android8hardware3nfc4
227:   FUNC GLOBAL DEFAULT 14 _ZTv0_n24_N7android8hardw
228:   FUNC GLOBAL DEFAULT 14 _ZN7android8hardware3nfc4
229:   FUNC GLOBAL DEFAULT 14 _ZN7android8hardware3nfc4
230:   FUNC GLOBAL DEFAULT 14 _ZN7android8hardware3nfc4
231:   FUNC WEAK DEFAULT 14 _ZNSt3__16__treeINS_12__v
232:   OBJECT WEAK DEFAULT 18 _ZTVN7android8hardware3nf
233:   FUNC GLOBAL DEFAULT 14 _ZN7android8hardware3nfc4
234:   FUNC GLOBAL DEFAULT 14 _ZN7android8hardware3nfc4
235:   FUNC GLOBAL DEFAULT 14 _ZN7android8hardware3nfc4
236:   FUNC GLOBAL DEFAULT 14 _ZN7android8hardware3nfc4
237:   FUNC WEAK DEFAULT 14 _ZN7android8hardware7deta
238:   FUNC WEAK DEFAULT 14 _ZNSt3__127__tree_balance
239:   FUNC WEAK DEFAULT 14 _ZNSt3__16__treeINS_12__v
240:   FUNC GLOBAL DEFAULT 14 _ZTv0_n24_N7android8hardw
241:   FUNC GLOBAL DEFAULT 14 _ZN7android8hardware3nfc4
242:   FUNC GLOBAL DEFAULT 14 _ZN7android8hardware3nfc4
243:   FUNC GLOBAL DEFAULT 14 _ZN7android8hardware3nfc4
244:   FUNC GLOBAL DEFAULT 14 _ZN7android8hardware3nfc4
245:   FUNC GLOBAL DEFAULT 14 _ZN7android8hardware3nfc4
246:   FUNC GLOBAL DEFAULT 14 _ZN7android8hardware3nfc4
247:   FUNC GLOBAL DEFAULT 14 _ZN7android8hardware3nfc4
248:   FUNC GLOBAL DEFAULT 14 _ZN7android8hardware3nfc4
249:   FUNC GLOBAL DEFAULT 14 _ZN7android8hardware3nfc4
250:   FUNC WEAK DEFAULT 14 _ZN7android8hardware7deta
251:   FUNC GLOBAL DEFAULT 14 _ZN7android8hardware3nfc4
252:   FUNC GLOBAL DEFAULT 14 _ZN7android8hardware3nfc4
253:   FUNC GLOBAL DEFAULT 14 _ZN7android8hardware3nfc4
254:   OBJECT WEAK DEFAULT 18 _ZTVN7android8hardware3nf
255:   OBJECT GLOBAL DEFAULT 18 _ZTCN7android8hardware3nf
256:   FUNC GLOBAL DEFAULT 14 _ZN7android8hardware3nfc4
257:   OBJECT GLOBAL DEFAULT 18 _ZTCN7android8hardware3nf
258:   FUNC GLOBAL DEFAULT 14 _ZN7android8hardware3nfc4
259:   FUNC GLOBAL DEFAULT 14 _ZN7android8hardware3nfc4
260:   FUNC WEAK DEFAULT 14 _ZNSt3__16vectorINS_8func
261:   OBJECT GLOBAL DEFAULT 18 _ZTTN7android8hardware3nf
262:   OBJECT GLOBAL DEFAULT 18 _ZTCN7android8hardware3nf
263:   FUNC GLOBAL DEFAULT 14 _ZN7android8hardware3nfc4
264:   FUNC GLOBAL DEFAULT 14 _ZN7android8hardware3nfc4
265:   FUNC GLOBAL DEFAULT 14 _ZN7android8hardware3nfc4
266:   OBJECT GLOBAL DEFAULT 18 _ZTVN7android8hardware3nf
267:   OBJECT GLOBAL DEFAULT 18 _ZTCN7android8hardware3nf
268:   FUNC GLOBAL DEFAULT 14 _ZN7android8hardware3nfc4
269:   OBJECT GLOBAL DEFAULT 18 _ZTCN7android8hardware3nf
270:   FUNC GLOBAL DEFAULT 14 _ZN7android8hardware3nfc4
271:   FUNC WEAK DEFAULT 14 _ZN7android8hardware10fro
272:   FUNC GLOBAL DEFAULT 14 _ZN7android8hardware3nfc4
273:   FUNC GLOBAL DEFAULT 14 _ZN7android8hardware3nfc4
274:   FUNC WEAK DEFAULT 14 _ZNSt3__16__treeINS_12__v
275:   OBJECT GLOBAL DEFAULT 18 _ZTTN7android8hardware3nf
276:   FUNC GLOBAL DEFAULT 14 _ZThn32_N7android8hardwar
277:   FUNC GLOBAL DEFAULT 14 _ZN7android8hardware3nfc4
278:   FUNC GLOBAL DEFAULT 14 _ZN7android8hardware3nfc4
279:   FUNC GLOBAL DEFAULT 14 _ZN7android8hardware3nfc4
280:   FUNC GLOBAL DEFAULT 14 _ZN7android8hardware3nfc4
281:   FUNC GLOBAL DEFAULT 14 _ZN7android8hardware3nfc4
282:   FUNC GLOBAL DEFAULT 14 _ZN7android8hardware3nfc4
283:   FUNC GLOBAL DEFAULT 14 _ZN7android8hardware3nfc4
284:   FUNC GLOBAL DEFAULT 14 _ZN7android8hardware3nfc4
285:   FUNC GLOBAL DEFAULT 14 _ZN7android8hardware3nfc4
286:   FUNC GLOBAL DEFAULT 14 _ZThn32_N7android8hardwar
287:   FUNC GLOBAL DEFAULT 14 _ZN7android8hardware3nfc4
288:   FUNC GLOBAL DEFAULT 14 _ZN7android8hardware3nfc4
289:   FUNC GLOBAL DEFAULT 14 _ZN7android8hardware3nfc4
290:   FUNC GLOBAL DEFAULT 14 _ZN7android8hardware3nfc4
291:   OBJECT GLOBAL DEFAULT 16 _ZN7android8hardware3nfc4
292:   FUNC GLOBAL DEFAULT 14 _ZN7android8hardware3nfc4
293:   FUNC GLOBAL DEFAULT 14 _ZN7android8hardware3nfc4
294:   OBJECT GLOBAL DEFAULT 18 _ZTCN7android8hardware3nf
295:   FUNC GLOBAL DEFAULT 14 _ZN7android8hardware3nfc4
296:   OBJECT WEAK DEFAULT 18 _ZTCN7android8hardware3nf
297:   FUNC GLOBAL DEFAULT 14 _ZTv0_n24_N7android8hardw
298:   FUNC GLOBAL DEFAULT 14 _ZN7android8hardware3nfc4
299:   FUNC WEAK DEFAULT 14 _ZNSt3__16vectorIN7androi
300:   OBJECT WEAK DEFAULT 18 _ZTCN7android8hardware3nf
301:   OBJECT GLOBAL DEFAULT 18 _ZTCN7android8hardware3nf
302:   OBJECT GLOBAL DEFAULT 18 _ZTVN7android8hardware3nf
303:   FUNC GLOBAL DEFAULT 14 _ZN7android8hardware3nfc4
304:   FUNC WEAK DEFAULT 14 _ZN7android8hardware7deta
305:   OBJECT GLOBAL DEFAULT 18 _ZTCN7android8hardware3nf
306:   FUNC GLOBAL DEFAULT 14 _ZN7android8hardware3nfc4
307:   OBJECT GLOBAL DEFAULT 18 _ZTTN7android8hardware3nf
308:   FUNC GLOBAL DEFAULT 14 _ZN7android8hardware3nfc4
309:   FUNC GLOBAL DEFAULT 14 _ZN7android8hardware3nfc4
310:   FUNC GLOBAL DEFAULT 14 _ZN7android8hardware3nfc4
311:   FUNC GLOBAL DEFAULT 14 _ZN7android8hardware3nfc4
312:   FUNC GLOBAL DEFAULT 14 _ZN7android8hardware3nfc4
313:   FUNC GLOBAL DEFAULT 14 _ZN7android8hardware3nfc4
314:   FUNC GLOBAL DEFAULT 14 _ZN7android8hardware3nfc4
315:   FUNC WEAK DEFAULT 14 _ZNSt3__16__treeINS_12__v
316:   OBJECT GLOBAL DEFAULT 18 _ZTCN7android8hardware3nf
317:   OBJECT GLOBAL DEFAULT 18 _ZTVN7android8hardware3nf
318:   FUNC GLOBAL DEFAULT 14 _ZN7android8hardware3nfc4
