 0x000000000000000e (SONAME)             Library soname: [libsensorservice.so]
  
Symbol   contains 371 entries:
Num:   Type Bind Vis Ndx Name
0:   NOTYPE LOCAL DEFAULT UND
1:   FUNC GLOBAL DEFAULT UND __cxa_finalize@LIBC (2)
2:   FUNC GLOBAL DEFAULT UND __cxa_atexit@LIBC (2)
3:   FUNC GLOBAL DEFAULT UND _ZN7android10VectorImpl13
4:   FUNC GLOBAL DEFAULT UND _ZN7android10VectorImpl13
5:   FUNC GLOBAL DEFAULT UND _ZN7android10VectorImpl16
6:   FUNC GLOBAL DEFAULT UND _ZN7android13IBatteryStat
7:   FUNC GLOBAL DEFAULT UND _ZN7android14IPCThreadSta
8:   FUNC GLOBAL DEFAULT UND _ZN7android14IPCThreadSta
9:   FUNC GLOBAL DEFAULT UND _ZN7android14IPCThreadSta
10:   FUNC GLOBAL DEFAULT UND _ZN7android14sp_report_ra
11:   FUNC GLOBAL DEFAULT UND _ZN7android16SortedVector
12:   FUNC GLOBAL DEFAULT UND _ZN7android16SortedVector
13:   FUNC GLOBAL DEFAULT UND _ZN7android16SortedVector
14:   FUNC GLOBAL DEFAULT UND _ZN7android21defaultServi
15:   FUNC GLOBAL DEFAULT UND _ZN7android8String16C1EPK
16:   FUNC GLOBAL DEFAULT UND _ZN7android8String16D1Ev
17:   FUNC GLOBAL DEFAULT UND _ZNK7android16SortedVecto
18:   FUNC GLOBAL DEFAULT UND _ZNK7android7RefBase9decS
19:   FUNC GLOBAL DEFAULT UND _ZdlPv
20:   FUNC GLOBAL DEFAULT UND _Znwm
21:   FUNC GLOBAL DEFAULT UND __stack_chk_fail@LIBC (2)
22:   FUNC GLOBAL DEFAULT UND memset@LIBC (2)
23:   FUNC GLOBAL DEFAULT UND pthread_mutex_destroy@LIBC (2)
24:   FUNC GLOBAL DEFAULT UND pthread_mutex_init@LIBC (2)
25:   FUNC GLOBAL DEFAULT UND pthread_mutex_lock@LIBC (2)
26:   FUNC GLOBAL DEFAULT UND pthread_mutex_unlock@LIBC (2)
27:   FUNC GLOBAL DEFAULT UND _ZN7android6SensorC1EPK8s
28:   FUNC GLOBAL DEFAULT UND _ZN7android6SensorC1EPKc
29:   FUNC GLOBAL DEFAULT UND _ZN7android6SensorD1Ev
30:   FUNC GLOBAL DEFAULT UND _ZN7android7String85setTo
31:   FUNC GLOBAL DEFAULT UND _ZNK7android6Sensor11getM
32:   FUNC GLOBAL DEFAULT UND _ZNK7android6Sensor11getM
33:   FUNC GLOBAL DEFAULT UND _ZNK7android6Sensor13getR
34:   FUNC GLOBAL DEFAULT UND _ZNK7android6Sensor9getHa
35:   FUNC GLOBAL DEFAULT UND __cxa_pure_virtual
36:   FUNC GLOBAL DEFAULT UND __android_log_print@LIBLOG (3)
37:   FUNC GLOBAL DEFAULT UND expf@LIBC (4)
38:   FUNC GLOBAL DEFAULT UND sincosf@LIBC (4)
39:   FUNC GLOBAL DEFAULT UND _ZNK7android6Sensor10getV
40:   FUNC GLOBAL DEFAULT UND _ZNK7android6Sensor13getP
41:   FUNC GLOBAL DEFAULT UND asinf@LIBC (4)
42:   FUNC GLOBAL DEFAULT UND atan2f@LIBC (4)
43:   FUNC GLOBAL DEFAULT UND _ZN7android7String812appe
44:   FUNC GLOBAL DEFAULT UND _ZN7android7String86appen
45:   FUNC GLOBAL DEFAULT UND _ZN7android7String8C1Ev
46:   FUNC GLOBAL DEFAULT UND _ZN7android7String8D1Ev
47:   FUNC GLOBAL DEFAULT UND _ZNKSt3__112basic_stringI
48:   FUNC GLOBAL DEFAULT UND _ZNKSt3__120__vector_base
49:   FUNC GLOBAL DEFAULT UND _ZNKSt3__121__basic_strin
50:   FUNC GLOBAL DEFAULT UND _ZNSt3__15mutex4lockEv
51:   FUNC GLOBAL DEFAULT UND _ZNSt3__15mutex6unlockEv
52:   FUNC GLOBAL DEFAULT UND _ZNSt3__15mutexD1Ev
53:   FUNC GLOBAL DEFAULT UND __android_log_assert@LIBLOG (3)
54:   FUNC GLOBAL DEFAULT UND clock_gettime@LIBC (2)
55:   FUNC GLOBAL DEFAULT UND localtime@LIBC (2)
56:   FUNC GLOBAL DEFAULT UND memcpy@LIBC (2)
57:   FUNC GLOBAL DEFAULT UND strlen@LIBC (2)
58:   FUNC GLOBAL DEFAULT UND _ZN7android10VectorImpl11
59:   FUNC GLOBAL DEFAULT UND _ZN7android10VectorImpl5c
60:   FUNC GLOBAL DEFAULT UND _ZN7android10VectorImpl8i
61:   FUNC GLOBAL DEFAULT UND _ZN7android10VectorImplC2
62:   FUNC GLOBAL DEFAULT UND _ZN7android10VectorImplC2
63:   FUNC GLOBAL DEFAULT UND _ZN7android10VectorImplD2
64:   FUNC GLOBAL DEFAULT UND _ZN7android16SortedVector
65:   FUNC GLOBAL DEFAULT UND _ZN7android4base10LogMess
66:   FUNC GLOBAL DEFAULT UND _ZN7android4base10LogMess
67:   FUNC GLOBAL DEFAULT UND _ZN7android4base10LogMess
68:   FUNC GLOBAL DEFAULT UND _ZN7android7RefBase10onFi
69:   FUNC GLOBAL DEFAULT UND _ZN7android7RefBase13onLa
70:   FUNC GLOBAL DEFAULT UND _ZN7android7RefBase15onLa
71:   FUNC GLOBAL DEFAULT UND _ZN7android7RefBase20onIn
72:   FUNC GLOBAL DEFAULT UND _ZN7android7RefBaseC2Ev
73:   FUNC GLOBAL DEFAULT UND _ZN7android7RefBaseD2Ev
74:   FUNC GLOBAL DEFAULT UND _ZN7android8hardware11hid
75:   FUNC GLOBAL DEFAULT UND _ZN7android8hardware11hid
76:   FUNC GLOBAL DEFAULT UND _ZN7android8hardware7deta
77:   FUNC GLOBAL DEFAULT UND _ZN7android8hardware7deta
78:   FUNC GLOBAL DEFAULT UND _ZN7android8hardware7deta
79:   FUNC GLOBAL DEFAULT UND _ZN7android8hardware7sens
80:   FUNC GLOBAL DEFAULT UND _ZN7android8hardware7sens
81:   FUNC GLOBAL DEFAULT UND _ZN7android8hardware7sens
82:   FUNC GLOBAL DEFAULT UND _ZN7android8hardware7sens
83:   FUNC GLOBAL DEFAULT UND _ZN7android8hardware7sens
84:   FUNC GLOBAL DEFAULT UND _ZN7android8hardware7sens
85:   FUNC GLOBAL DEFAULT UND _ZN7android8hardware7sens
86:   FUNC GLOBAL DEFAULT UND _ZN7android8hardware7sens
87:   FUNC GLOBAL DEFAULT UND _ZN7android8hardware7sens
88:   FUNC GLOBAL DEFAULT UND _ZN7android8hardware7sens
89:   FUNC GLOBAL DEFAULT UND _ZN7android8hardware7sens
90:   FUNC GLOBAL DEFAULT UND _ZN7android8hardware7sens
91:   FUNC GLOBAL DEFAULT UND _ZN7android8hardware9Even
92:   FUNC GLOBAL DEFAULT UND _ZN7android8hardware9Even
93:   FUNC GLOBAL DEFAULT UND _ZN7android8hardware9Even
94:   FUNC GLOBAL DEFAULT UND _ZN7android8hardware9Even
95:   FUNC GLOBAL DEFAULT UND _ZNK7android7RefBase9incS
96:   FUNC GLOBAL DEFAULT UND _ZNK7android8hardware6Sta
97:   FUNC GLOBAL DEFAULT UND _ZNK7android8hardware7det
98:   FUNC GLOBAL DEFAULT UND _ZNKSt3__16locale9use_fac
99:   FUNC GLOBAL DEFAULT UND _ZNKSt3__18ios_base6getlo
100:   FUNC GLOBAL DEFAULT UND _ZNSt3__111this_thread9sl
101:   FUNC GLOBAL DEFAULT UND _ZNSt3__112__next_primeEm
102:   FUNC GLOBAL DEFAULT UND _ZNSt3__113basic_ostreamI
103:   FUNC GLOBAL DEFAULT UND _ZNSt3__113basic_ostreamI
104:   OBJECT GLOBAL DEFAULT UND _ZNSt3__15ctypeIcE2idE
105:   FUNC GLOBAL DEFAULT UND _ZNSt3__16localeD1Ev
106:   FUNC GLOBAL DEFAULT UND _ZNSt3__18ios_base5clearE
107:   OBJECT GLOBAL DEFAULT UND _ZSt7nothrow
108:   FUNC GLOBAL DEFAULT UND _ZdaPv
109:   FUNC GLOBAL DEFAULT UND _Znam
110:   FUNC GLOBAL DEFAULT UND _ZnwmRKSt9nothrow_t
111:   FUNC GLOBAL DEFAULT UND abort@LIBC (2)
112:   FUNC GLOBAL DEFAULT UND ashmem_create_region
113:   FUNC GLOBAL DEFAULT UND ashmem_set_prot_region
114:   FUNC GLOBAL DEFAULT UND memmove@LIBC (2)
115:   FUNC GLOBAL DEFAULT UND mmap@LIBC (2)
116:   FUNC GLOBAL DEFAULT UND munmap@LIBC (2)
117:   FUNC GLOBAL DEFAULT UND native_handle_close
118:   FUNC GLOBAL DEFAULT UND native_handle_create
119:   FUNC GLOBAL DEFAULT UND native_handle_delete
120:   FUNC GLOBAL DEFAULT UND strcmp@LIBC (2)
121:   FUNC GLOBAL DEFAULT UND strerror@LIBC (2)
122:   FUNC GLOBAL DEFAULT UND time@LIBC (2)
123:   FUNC GLOBAL DEFAULT UND _ZN7android4hidl7manager4
124:   FUNC GLOBAL DEFAULT UND _ZN7android4hidl7manager4
125:   FUNC GLOBAL DEFAULT UND _ZN7android4hidl7manager4
126:   FUNC GLOBAL DEFAULT UND _ZN7android4hidl7manager4
127:   FUNC GLOBAL DEFAULT UND _ZN7android4hidl7manager4
128:   FUNC GLOBAL DEFAULT UND _ZN7android4hidl7manager4
129:   FUNC GLOBAL DEFAULT UND _ZN7android4hidl7manager4
130:   FUNC GLOBAL DEFAULT UND _ZN7android4hidl7manager4
131:   FUNC GLOBAL DEFAULT UND _ZN7android4hidl7manager4
132:   FUNC GLOBAL DEFAULT UND _ZN7android4hidl7manager4
133:   FUNC GLOBAL DEFAULT UND _ZN7android8hardware7sens
134:   FUNC GLOBAL DEFAULT UND _ZNSt3__118condition_vari
135:   FUNC GLOBAL DEFAULT UND _ZNSt3__118condition_vari
136:   FUNC GLOBAL DEFAULT UND _ZNSt3__118condition_vari
137:   FUNC GLOBAL DEFAULT UND _ZNSt3__16chrono12steady_
138:   FUNC GLOBAL DEFAULT UND _ZNSt3__16chrono12system_
139:   FUNC GLOBAL DEFAULT UND _ZN7android10IInterfaceD0
140:   FUNC GLOBAL DEFAULT UND _ZN7android10IInterfaceD1
141:   OBJECT GLOBAL DEFAULT UND _ZN7android22ISensorEvent
142:   FUNC GLOBAL DEFAULT UND _ZN7android22ISensorEvent
143:   FUNC GLOBAL DEFAULT UND _ZN7android22ISensorEvent
144:   FUNC GLOBAL DEFAULT UND _ZN7android22ISensorEvent
145:   FUNC GLOBAL DEFAULT UND _ZN7android22ISensorEvent
146:   FUNC GLOBAL DEFAULT UND _ZN7android23BnSensorEven
147:   FUNC GLOBAL DEFAULT UND _ZN7android7BBinder10onTr
148:   FUNC GLOBAL DEFAULT UND _ZN7android7BBinder10ping
149:   FUNC GLOBAL DEFAULT UND _ZN7android7BBinder11link
150:   FUNC GLOBAL DEFAULT UND _ZN7android7BBinder11loca
151:   FUNC GLOBAL DEFAULT UND _ZN7android7BBinder12atta
152:   FUNC GLOBAL DEFAULT UND _ZN7android7BBinder12deta
153:   FUNC GLOBAL DEFAULT UND _ZN7android7BBinder13unli
154:   FUNC GLOBAL DEFAULT UND _ZN7android7BBinder4dumpE
155:   FUNC GLOBAL DEFAULT UND _ZN7android7BBinder8trans
156:   FUNC GLOBAL DEFAULT UND _ZN7android7BBinderC2Ev
157:   FUNC GLOBAL DEFAULT UND _ZN7android7BBinderD0Ev
158:   FUNC GLOBAL DEFAULT UND _ZN7android7BBinderD1Ev
159:   FUNC GLOBAL DEFAULT UND _ZN7android7BBinderD2Ev
160:   FUNC GLOBAL DEFAULT UND _ZN7android7IBinder11loca
161:   FUNC GLOBAL DEFAULT UND _ZN7android7IBinder12remo
162:   FUNC GLOBAL DEFAULT UND _ZN7android7IBinder19quer
163:   FUNC GLOBAL DEFAULT UND _ZN7android7IBinderD0Ev
164:   FUNC GLOBAL DEFAULT UND _ZN7android7IBinderD1Ev
165:   FUNC GLOBAL DEFAULT UND _ZN7android7String8C1ERKN
166:   FUNC GLOBAL DEFAULT UND _ZN7android8String16C1ERK
167:   FUNC GLOBAL DEFAULT UND _ZNK7android22ISensorEven
168:   FUNC GLOBAL DEFAULT UND _ZNK7android6Sensor28isDi
169:   FUNC GLOBAL DEFAULT UND _ZNK7android6Sensor31getH
170:   FUNC GLOBAL DEFAULT UND _ZNK7android7BBinder10fin
171:   FUNC GLOBAL DEFAULT UND _ZNK7android7BBinder13isB
172:   FUNC GLOBAL DEFAULT UND _ZNK7android7BBinder22get
173:   FUNC GLOBAL DEFAULT UND _ZNK7android7IBinder13che
174:   FUNC GLOBAL DEFAULT UND _ZNK7android8String164siz
175:   FUNC GLOBAL DEFAULT UND _ZThn8_N7android23BnSenso
176:   FUNC GLOBAL DEFAULT UND _ZTv0_n24_N7android10IInt
177:   FUNC GLOBAL DEFAULT UND _ZTv0_n24_N7android10IInt
178:   FUNC GLOBAL DEFAULT UND _ZTv0_n24_N7android22ISen
179:   FUNC GLOBAL DEFAULT UND _ZTv0_n24_N7android22ISen
180:   FUNC GLOBAL DEFAULT UND _ZTv0_n24_N7android7BBind
181:   FUNC GLOBAL DEFAULT UND _ZTv0_n24_N7android7BBind
182:   FUNC GLOBAL DEFAULT UND _ZTv0_n24_N7android7IBind
183:   FUNC GLOBAL DEFAULT UND _ZTv0_n24_N7android7IBind
184:   FUNC GLOBAL DEFAULT UND strzcmp16
185:   FUNC GLOBAL DEFAULT UND _ZN7android13AppOpsManage
186:   FUNC GLOBAL DEFAULT UND _ZN7android14LooperCallba
187:   FUNC GLOBAL DEFAULT UND _ZN7android14LooperCallba
188:   FUNC GLOBAL DEFAULT UND _ZN7android14LooperCallba
189:   FUNC GLOBAL DEFAULT UND _ZN7android16SensorEventQ
190:   FUNC GLOBAL DEFAULT UND _ZN7android6Looper5addFdE
191:   FUNC GLOBAL DEFAULT UND _ZN7android6Looper8remove
192:   FUNC GLOBAL DEFAULT UND _ZN7android7BitTubeC1Em
193:   FUNC GLOBAL DEFAULT UND _ZN7android7String8C1ERKS
194:   FUNC GLOBAL DEFAULT UND _ZNK7android6Sensor14isWa
195:   FUNC GLOBAL DEFAULT UND _ZNK7android6Sensor16getR
196:   FUNC GLOBAL DEFAULT UND _ZNK7android6Sensor20getF
197:   FUNC GLOBAL DEFAULT UND _ZNK7android6Sensor25getF
198:   FUNC GLOBAL DEFAULT UND _ZNK7android6Sensor7getTy
199:   FUNC GLOBAL DEFAULT UND _ZNK7android7BitTube9getS
200:   FUNC GLOBAL DEFAULT UND _ZTv0_n24_N7android14Loop
201:   FUNC GLOBAL DEFAULT UND _ZTv0_n24_N7android14Loop
202:   FUNC GLOBAL DEFAULT UND __recvfrom_chk@LIBC (2)
203:   FUNC GLOBAL DEFAULT UND _ZN7android6SensorC1ERK8s
204:   FUNC GLOBAL DEFAULT UND _ZN7android10VectorImpl3a
205:   FUNC GLOBAL DEFAULT UND _ZNK7android6Sensor11getM
206:   FUNC GLOBAL DEFAULT UND _ZNK7android6Sensor13getS
207:   FUNC GLOBAL DEFAULT UND _ZNK7android6Sensor15isDy
208:   FUNC GLOBAL DEFAULT UND _ZNK7android6Sensor17hasA
209:   FUNC GLOBAL DEFAULT UND _ZNK7android6Sensor21getR
210:   FUNC GLOBAL DEFAULT UND _ZNK7android6Sensor24isDa
211:   FUNC GLOBAL DEFAULT UND _ZNK7android6Sensor7getNa
212:   FUNC GLOBAL DEFAULT UND _ZNK7android6Sensor8getFl
213:   FUNC GLOBAL DEFAULT UND _ZNK7android6Sensor9getVe
214:   FUNC GLOBAL DEFAULT UND _ZNK7android7String86leng
215:   FUNC GLOBAL DEFAULT UND _ZN7android10VectorImpl13
216:   FUNC GLOBAL DEFAULT UND _ZN7android7RefBase10rena
217:   FUNC GLOBAL DEFAULT UND _ZN7android7RefBase11rena
218:   FUNC GLOBAL DEFAULT UND _ZN7android7RefBase12weak
219:   FUNC GLOBAL DEFAULT UND _ZN7android7RefBase12weak
220:   FUNC GLOBAL DEFAULT UND _ZNK7android7RefBase10cre
221:   FUNC GLOBAL DEFAULT UND EVP_sha256
222:   FUNC GLOBAL DEFAULT UND HMAC
223:   FUNC GLOBAL DEFAULT UND RAND_bytes
224:   FUNC GLOBAL DEFAULT UND _ZN7android10VectorImpl4p
225:   OBJECT GLOBAL DEFAULT UND _ZN7android12IUidObserver
226:   FUNC GLOBAL DEFAULT UND _ZN7android12IUidObserver
227:   FUNC GLOBAL DEFAULT UND _ZN7android12IUidObserver
228:   FUNC GLOBAL DEFAULT UND _ZN7android12IUidObserver
229:   FUNC GLOBAL DEFAULT UND _ZN7android12IUidObserver
230:   FUNC GLOBAL DEFAULT UND _ZN7android13AppOpsManage
231:   FUNC GLOBAL DEFAULT UND _ZN7android13AppOpsManage
232:   FUNC GLOBAL DEFAULT UND _ZN7android13BnUidObserve
233:   OBJECT GLOBAL DEFAULT UND _ZN7android13ISensorServe
234:   FUNC GLOBAL DEFAULT UND _ZN7android13ISensorServe
235:   FUNC GLOBAL DEFAULT UND _ZN7android13ISensorServe
236:   FUNC GLOBAL DEFAULT UND _ZN7android13ISensorServe
237:   FUNC GLOBAL DEFAULT UND _ZN7android13ISensorServe
238:   FUNC GLOBAL DEFAULT UND _ZN7android14BnSensorServ
239:   FUNC GLOBAL DEFAULT UND _ZN7android15ActivityMana
240:   FUNC GLOBAL DEFAULT UND _ZN7android15ActivityMana
241:   FUNC GLOBAL DEFAULT UND _ZN7android15ActivityMana
242:   FUNC GLOBAL DEFAULT UND _ZN7android15PermissionCa
243:   FUNC GLOBAL DEFAULT UND _ZN7android15checkPermiss
244:   FUNC GLOBAL DEFAULT UND _ZN7android19elapsedRealt
245:   FUNC GLOBAL DEFAULT UND _ZN7android20PermissionCo
246:   FUNC GLOBAL DEFAULT UND _ZN7android20PermissionCo
247:   FUNC GLOBAL DEFAULT UND _ZN7android20SensorPrivac
248:   FUNC GLOBAL DEFAULT UND _ZN7android20SensorPrivac
249:   FUNC GLOBAL DEFAULT UND _ZN7android20SensorPrivac
250:   FUNC GLOBAL DEFAULT UND _ZN7android20SensorPrivac
251:   FUNC GLOBAL DEFAULT UND _ZN7android22checkCalling
252:   FUNC GLOBAL DEFAULT UND _ZN7android6Looper4wakeEv
253:   FUNC GLOBAL DEFAULT UND _ZN7android6Looper8pollOn
254:   FUNC GLOBAL DEFAULT UND _ZN7android6LooperC1Eb
255:   FUNC GLOBAL DEFAULT UND _ZN7android6Sensor5setIdE
256:   FUNC GLOBAL DEFAULT UND _ZN7android6Thread10ready
257:   FUNC GLOBAL DEFAULT UND _ZN7android6Thread11reque
258:   FUNC GLOBAL DEFAULT UND _ZN7android6Thread3runEPK
259:   FUNC GLOBAL DEFAULT UND _ZN7android6ThreadC2Eb
260:   FUNC GLOBAL DEFAULT UND _ZN7android6ThreadD0Ev
261:   FUNC GLOBAL DEFAULT UND _ZN7android6ThreadD1Ev
262:   FUNC GLOBAL DEFAULT UND _ZN7android6ThreadD2Ev
263:   FUNC GLOBAL DEFAULT UND _ZN7android6binder6Status
264:   FUNC GLOBAL DEFAULT UND _ZN7android7RefBase12weak
265:   FUNC GLOBAL DEFAULT UND _ZN7android7String85clear
266:   FUNC GLOBAL DEFAULT UND _ZN7android7String86forma
267:   FUNC GLOBAL DEFAULT UND _ZN7android7content2pm21I
268:   FUNC GLOBAL DEFAULT UND _ZN7android8String16C1ERK
269:   OBJECT GLOBAL DEFAULT UND _ZN7android8hardware22ISe
270:   FUNC GLOBAL DEFAULT UND _ZN7android8hardware22ISe
271:   FUNC GLOBAL DEFAULT UND _ZN7android8hardware22ISe
272:   FUNC GLOBAL DEFAULT UND _ZN7android8hardware22ISe
273:   FUNC GLOBAL DEFAULT UND _ZN7android8hardware22ISe
274:   FUNC GLOBAL DEFAULT UND _ZN7android8hardware23BnS
275:   FUNC GLOBAL DEFAULT UND _ZNK7android12IUidObserve
276:   FUNC GLOBAL DEFAULT UND _ZNK7android13ISensorServ
277:   FUNC GLOBAL DEFAULT UND _ZNK7android14IPCThreadSt
278:   FUNC GLOBAL DEFAULT UND _ZNK7android14IPCThreadSt
279:   FUNC GLOBAL DEFAULT UND _ZNK7android6Sensor13getM
280:   FUNC GLOBAL DEFAULT UND _ZNK7android6Sensor16getR
281:   FUNC GLOBAL DEFAULT UND _ZNK7android6Sensor27isRe
282:   FUNC GLOBAL DEFAULT UND _ZNK7android6Sensor7getUu
283:   FUNC GLOBAL DEFAULT UND _ZNK7android6Thread11exit
284:   FUNC GLOBAL DEFAULT UND _ZNK7android6Thread6getTi
285:   FUNC GLOBAL DEFAULT UND _ZNK7android7String84find
286:   FUNC GLOBAL DEFAULT UND _ZNK7android8hardware22IS
287:   FUNC GLOBAL DEFAULT UND _ZNSt3__112basic_stringIc
288:   FUNC GLOBAL DEFAULT UND _ZNSt3__112basic_stringIc
289:   FUNC GLOBAL DEFAULT UND _ZNSt3__113basic_ostreamI
290:   FUNC GLOBAL DEFAULT UND _ZNSt3__113basic_ostreamI
291:   FUNC GLOBAL DEFAULT UND _ZNSt3__113basic_ostreamI
292:   FUNC GLOBAL DEFAULT UND _ZNSt3__113basic_ostreamI
293:   FUNC GLOBAL DEFAULT UND _ZNSt3__113basic_ostreamI
294:   FUNC GLOBAL DEFAULT UND _ZNSt3__113basic_ostreamI
295:   FUNC GLOBAL DEFAULT UND _ZNSt3__115basic_streambu
296:   FUNC GLOBAL DEFAULT UND _ZNSt3__115basic_streambu
297:   FUNC GLOBAL DEFAULT UND _ZNSt3__115basic_streambu
298:   FUNC GLOBAL DEFAULT UND _ZNSt3__115basic_streambu
299:   FUNC GLOBAL DEFAULT UND _ZNSt3__115basic_streambu
300:   FUNC GLOBAL DEFAULT UND _ZNSt3__115basic_streambu
301:   FUNC GLOBAL DEFAULT UND _ZNSt3__115basic_streambu
302:   FUNC GLOBAL DEFAULT UND _ZNSt3__115basic_streambu
303:   FUNC GLOBAL DEFAULT UND _ZNSt3__115basic_streambu
304:   FUNC GLOBAL DEFAULT UND _ZNSt3__18ios_base4initEP
305:   FUNC GLOBAL DEFAULT UND _ZNSt3__19basic_iosIcNS_1
306:   FUNC GLOBAL DEFAULT UND _ZThn8_N7android13BnUidOb
307:   FUNC GLOBAL DEFAULT UND _ZThn8_N7android14BnSenso
308:   FUNC GLOBAL DEFAULT UND _ZThn8_N7android8hardware
309:   FUNC GLOBAL DEFAULT UND _ZTv0_n24_N7android12IUid
310:   FUNC GLOBAL DEFAULT UND _ZTv0_n24_N7android12IUid
311:   FUNC GLOBAL DEFAULT UND _ZTv0_n24_N7android13ISen
312:   FUNC GLOBAL DEFAULT UND _ZTv0_n24_N7android13ISen
313:   FUNC GLOBAL DEFAULT UND _ZTv0_n24_N7android6Threa
314:   FUNC GLOBAL DEFAULT UND _ZTv0_n24_N7android6Threa
315:   FUNC GLOBAL DEFAULT UND _ZTv0_n24_N7android8hardw
316:   FUNC GLOBAL DEFAULT UND _ZTv0_n24_N7android8hardw
317:   FUNC GLOBAL DEFAULT UND _ZTv0_n24_NSt3__113basic_
318:   FUNC GLOBAL DEFAULT UND _ZTv0_n24_NSt3__113basic_
319:   FUNC GLOBAL DEFAULT UND __android_log_error_write@LIBLOG_M (5)
320:   FUNC GLOBAL DEFAULT UND __fgets_chk@LIBC (2)
321:   FUNC GLOBAL DEFAULT UND __open_2@LIBC (2)
322:   FUNC GLOBAL DEFAULT UND __read_chk@LIBC (2)
323:   FUNC GLOBAL DEFAULT UND __write_chk@LIBC_N (6)
324:   FUNC GLOBAL DEFAULT UND acquire_wake_lock
325:   FUNC GLOBAL DEFAULT UND ashmem_get_size_region
326:   FUNC GLOBAL DEFAULT UND atoi@LIBC (2)
327:   FUNC GLOBAL DEFAULT UND close@LIBC (2)
328:   FUNC GLOBAL DEFAULT UND dprintf@LIBC (2)
329:   FUNC GLOBAL DEFAULT UND fclose@LIBC (2)
330:   FUNC GLOBAL DEFAULT UND fopen@LIBC (2)
331:   FUNC GLOBAL DEFAULT UND mkdir@LIBC (2)
332:   FUNC GLOBAL DEFAULT UND multiuser_get_uid
333:   FUNC GLOBAL DEFAULT UND native_handle_clone
334:   FUNC GLOBAL DEFAULT UND open@LIBC (2)
335:   FUNC GLOBAL DEFAULT UND property_get
336:   FUNC GLOBAL DEFAULT UND qsort@LIBC (2)
337:   FUNC GLOBAL DEFAULT UND release_wake_lock
338:   FUNC GLOBAL DEFAULT UND sched_setscheduler@LIBC (2)
339:   FUNC GLOBAL DEFAULT UND sscanf@LIBC (2)
340:   FUNC GLOBAL DEFAULT UND write@LIBC (2)
341:   FUNC GLOBAL DEFAULT UND _ZN7android8hardware11hid
342:   FUNC GLOBAL DEFAULT UND _ZNK7android8hardware11hi
343:   FUNC GLOBAL DEFAULT UND _ZNK7android8hardware11hi
344:   FUNC GLOBAL DEFAULT UND strdup@LIBC (2)
345:   FUNC GLOBAL DEFAULT 14 _ZN7android8hardware7sens
346:   FUNC GLOBAL DEFAULT 14 __multf3
347:   FUNC GLOBAL DEFAULT 14 __subtf3
348:   FUNC GLOBAL DEFAULT 14 _ZN7android13SensorServic
349:   OBJECT WEAK DEFAULT 18 _ZTTNSt3__119basic_ostrin
350:   FUNC GLOBAL DEFAULT 14 _ZN7android8hardware7sens
351:   FUNC GLOBAL DEFAULT 14 _ZN7android8hardware7sens
352:   FUNC GLOBAL DEFAULT 14 __floatditf
353:   FUNC GLOBAL DEFAULT 14 __gttf2
354:   FUNC GLOBAL DEFAULT 14 __letf2
355:   FUNC GLOBAL DEFAULT 14 __netf2
356:   FUNC GLOBAL DEFAULT 14 __fe_raise_inexact
357:   FUNC GLOBAL DEFAULT 14 _ZN7android13SensorServic
358:   FUNC GLOBAL DEFAULT 14 _ZN7android8hardware7sens
359:   FUNC GLOBAL DEFAULT 14 _ZN7android8hardware7sens
360:   FUNC GLOBAL DEFAULT 14 __unordtf2
361:   FUNC GLOBAL DEFAULT 14 __addtf3
362:   OBJECT WEAK DEFAULT 18 _ZTCNSt3__119basic_ostrin
363:   OBJECT WEAK DEFAULT 18 _ZTVNSt3__115basic_string
364:   OBJECT WEAK DEFAULT 18 _ZTVNSt3__119basic_ostrin
365:   FUNC GLOBAL DEFAULT 14 __lttf2
366:   FUNC GLOBAL DEFAULT 14 _ZN7android8hardware7sens
367:   FUNC GLOBAL DEFAULT 14 __cmptf2
368:   FUNC GLOBAL DEFAULT 14 __eqtf2
369:   FUNC GLOBAL DEFAULT 14 __getf2
370:   FUNC GLOBAL DEFAULT 14 __fe_getround
