 0x0000000e (SONAME)                     Library soname: [android.hardware.tv.cec@1.0.so]
  
Symbol   contains 354 entries:
Num:   Type Bind Vis Ndx Name
0:   NOTYPE LOCAL DEFAULT UND
1:   FUNC GLOBAL DEFAULT UND __cxa_finalize@LIBC (2)
2:   FUNC GLOBAL DEFAULT UND _ZN7android14sp_report_ra
3:   FUNC GLOBAL DEFAULT UND _ZN7android21report_syspr
4:   OBJECT GLOBAL DEFAULT UND _ZN7android4hidl4base4V1_
5:   FUNC GLOBAL DEFAULT UND _ZN7android4hidl4base4V1_
6:   FUNC GLOBAL DEFAULT UND _ZN7android4hidl4base4V1_
7:   FUNC GLOBAL DEFAULT UND _ZN7android4hidl4base4V1_
8:   FUNC GLOBAL DEFAULT UND _ZN7android4hidl4base4V1_
9:   FUNC GLOBAL DEFAULT UND _ZN7android4hidl4base4V1_
10:   FUNC GLOBAL DEFAULT UND _ZN7android4hidl4base4V1_
11:   FUNC GLOBAL DEFAULT UND _ZN7android4hidl4base4V1_
12:   FUNC GLOBAL DEFAULT UND _ZN7android4hidl4base4V1_
13:   FUNC GLOBAL DEFAULT UND _ZN7android4hidl4base4V1_
14:   FUNC GLOBAL DEFAULT UND _ZN7android4hidl4base4V1_
15:   FUNC GLOBAL DEFAULT UND _ZN7android4hidl4base4V1_
16:   FUNC GLOBAL DEFAULT UND _ZN7android4hidl4base4V1_
17:   FUNC GLOBAL DEFAULT UND _ZN7android4hidl4base4V1_
18:   FUNC GLOBAL DEFAULT UND _ZN7android4hidl4base4V1_
19:   FUNC GLOBAL DEFAULT UND _ZN7android4hidl4base4V1_
20:   FUNC GLOBAL DEFAULT UND _ZN7android4hidl4base4V1_
21:   FUNC GLOBAL DEFAULT UND _ZN7android4hidl4base4V1_
22:   FUNC GLOBAL DEFAULT UND _ZN7android4hidl4base4V1_
23:   FUNC GLOBAL DEFAULT UND _ZN7android4hidl4base4V1_
24:   FUNC GLOBAL DEFAULT UND _ZN7android4hidl4base4V1_
25:   FUNC GLOBAL DEFAULT UND _ZN7android4hidl4base4V1_
26:   FUNC GLOBAL DEFAULT UND _ZN7android4hidl4base4V1_
27:   FUNC GLOBAL DEFAULT UND _ZN7android4hidl4base4V1_
28:   FUNC GLOBAL DEFAULT UND _ZN7android7RefBase10onFi
29:   FUNC GLOBAL DEFAULT UND _ZN7android7RefBase12weak
30:   FUNC GLOBAL DEFAULT UND _ZN7android7RefBase13onLa
31:   FUNC GLOBAL DEFAULT UND _ZN7android7RefBase15onLa
32:   FUNC GLOBAL DEFAULT UND _ZN7android7RefBase20onIn
33:   FUNC GLOBAL DEFAULT UND _ZN7android7RefBaseC2Ev
34:   FUNC GLOBAL DEFAULT UND _ZN7android7RefBaseD2Ev
35:   FUNC GLOBAL DEFAULT UND _ZN7android8hardware10IIn
36:   FUNC GLOBAL DEFAULT UND _ZN7android8hardware10IIn
37:   FUNC GLOBAL DEFAULT UND _ZN7android8hardware10IIn
38:   FUNC GLOBAL DEFAULT UND _ZN7android8hardware10IIn
39:   FUNC GLOBAL DEFAULT UND _ZN7android8hardware10IIn
40:   FUNC GLOBAL DEFAULT UND _ZN7android8hardware11BpH
41:   FUNC GLOBAL DEFAULT UND _ZN7android8hardware11BpH
42:   FUNC GLOBAL DEFAULT UND _ZN7android8hardware11BpH
43:   FUNC GLOBAL DEFAULT UND _ZN7android8hardware11BpH
44:   FUNC GLOBAL DEFAULT UND _ZN7android8hardware11BpH
45:   FUNC GLOBAL DEFAULT UND _ZN7android8hardware11BpH
46:   FUNC GLOBAL DEFAULT UND _ZN7android8hardware11BpH
47:   FUNC GLOBAL DEFAULT UND _ZN7android8hardware11hid
48:   FUNC GLOBAL DEFAULT UND _ZN7android8hardware11hid
49:   FUNC GLOBAL DEFAULT UND _ZN7android8hardware11hid
50:   FUNC GLOBAL DEFAULT UND _ZN7android8hardware11hid
51:   FUNC GLOBAL DEFAULT UND _ZN7android8hardware11hid
52:   FUNC GLOBAL DEFAULT UND _ZN7android8hardware12Pro
53:   FUNC GLOBAL DEFAULT UND _ZN7android8hardware12Pro
54:   FUNC GLOBAL DEFAULT UND _ZN7android8hardware13wri
55:   FUNC GLOBAL DEFAULT UND _ZN7android8hardware14rea
56:   FUNC GLOBAL DEFAULT UND _ZN7android8hardware21def
57:   FUNC GLOBAL DEFAULT UND _ZN7android8hardware21wri
58:   FUNC GLOBAL DEFAULT UND _ZN7android8hardware22rea
59:   FUNC GLOBAL DEFAULT UND _ZN7android8hardware23get
60:   FUNC GLOBAL DEFAULT UND _ZN7android8hardware27hid
61:   FUNC GLOBAL DEFAULT UND _ZN7android8hardware27hid
62:   FUNC GLOBAL DEFAULT UND _ZN7android8hardware6Parc
63:   FUNC GLOBAL DEFAULT UND _ZN7android8hardware6Parc
64:   FUNC GLOBAL DEFAULT UND _ZN7android8hardware6Parc
65:   FUNC GLOBAL DEFAULT UND _ZN7android8hardware6Parc
66:   FUNC GLOBAL DEFAULT UND _ZN7android8hardware6Parc
67:   FUNC GLOBAL DEFAULT UND _ZN7android8hardware6Parc
68:   FUNC GLOBAL DEFAULT UND _ZN7android8hardware6Parc
69:   FUNC GLOBAL DEFAULT UND _ZN7android8hardware6Parc
70:   FUNC GLOBAL DEFAULT UND _ZN7android8hardware6Parc
71:   FUNC GLOBAL DEFAULT UND _ZN7android8hardware6Parc
72:   FUNC GLOBAL DEFAULT UND _ZN7android8hardware6Stat
73:   FUNC GLOBAL DEFAULT UND _ZN7android8hardware6Stat
74:   FUNC GLOBAL DEFAULT UND _ZN7android8hardware6Stat
75:   FUNC GLOBAL DEFAULT UND _ZN7android8hardware6Stat
76:   FUNC GLOBAL DEFAULT UND _ZN7android8hardware7IBin
77:   FUNC GLOBAL DEFAULT UND _ZN7android8hardware7IBin
78:   FUNC GLOBAL DEFAULT UND _ZN7android8hardware7IBin
79:   FUNC GLOBAL DEFAULT UND _ZN7android8hardware7IBin
80:   FUNC GLOBAL DEFAULT UND _ZN7android8hardware7deta
81:   FUNC GLOBAL DEFAULT UND _ZN7android8hardware7deta
82:   FUNC GLOBAL DEFAULT UND _ZN7android8hardware7deta
83:   FUNC GLOBAL DEFAULT UND _ZN7android8hardware7deta
84:   FUNC GLOBAL DEFAULT UND _ZN7android8hardware7deta
85:   FUNC GLOBAL DEFAULT UND _ZN7android8hardware7deta
86:   FUNC GLOBAL DEFAULT UND _ZN7android8hardware7deta
87:   OBJECT GLOBAL DEFAULT UND _ZN7android8hardware7deta
88:   OBJECT GLOBAL DEFAULT UND _ZN7android8hardware7deta
89:   FUNC GLOBAL DEFAULT UND _ZN7android8hardware7deta
90:   FUNC GLOBAL DEFAULT UND _ZN7android8hardware7deta
91:   FUNC GLOBAL DEFAULT UND _ZN7android8hardware7deta
92:   FUNC GLOBAL DEFAULT UND _ZN7android8hardware7deta
93:   FUNC GLOBAL DEFAULT UND _ZN7android8hardware7deta
94:   FUNC GLOBAL DEFAULT UND _ZN7android8hardware7deta
95:   FUNC GLOBAL DEFAULT UND _ZN7android8hardware7deta
96:   FUNC GLOBAL DEFAULT UND _ZN7android8hardware7deta
97:   FUNC GLOBAL DEFAULT UND _ZN7android8hardware7deta
98:   FUNC GLOBAL DEFAULT UND _ZN7android8hardware7deta
99:   OBJECT GLOBAL DEFAULT UND _ZN7android8hardware7deta
100:   FUNC GLOBAL DEFAULT UND _ZN7android8hardware9BHwB
101:   FUNC GLOBAL DEFAULT UND _ZN7android8hardware9BHwB
102:   FUNC GLOBAL DEFAULT UND _ZN7android8hardware9BHwB
103:   FUNC GLOBAL DEFAULT UND _ZN7android8hardware9BHwB
104:   FUNC GLOBAL DEFAULT UND _ZN7android8hardware9BHwB
105:   FUNC GLOBAL DEFAULT UND _ZN7android8hardware9BHwB
106:   FUNC GLOBAL DEFAULT UND _ZN7android8hardware9BHwB
107:   FUNC GLOBAL DEFAULT UND _ZN7android8hardware9BHwB
108:   FUNC GLOBAL DEFAULT UND _ZN7android8hardware9BHwB
109:   FUNC GLOBAL DEFAULT UND _ZN7android8hardware9BHwB
110:   FUNC GLOBAL DEFAULT UND _ZNK7android7RefBase10cre
111:   FUNC GLOBAL DEFAULT UND _ZNK7android7RefBase11get
112:   FUNC GLOBAL DEFAULT UND _ZNK7android7RefBase9decS
113:   FUNC GLOBAL DEFAULT UND _ZNK7android7RefBase9incS
114:   FUNC GLOBAL DEFAULT UND _ZNK7android8hardware6Par
115:   FUNC GLOBAL DEFAULT UND _ZNK7android8hardware6Par
116:   FUNC GLOBAL DEFAULT UND _ZNK7android8hardware6Par
117:   FUNC GLOBAL DEFAULT UND _ZNK7android8hardware6Par
118:   FUNC GLOBAL DEFAULT UND _ZNK7android8hardware6Par
119:   FUNC GLOBAL DEFAULT UND _ZNK7android8hardware6Par
120:   FUNC GLOBAL DEFAULT UND _ZNK7android8hardware6Par
121:   FUNC GLOBAL DEFAULT UND _ZNK7android8hardware6Par
122:   FUNC GLOBAL DEFAULT UND _ZNK7android8hardware7IBi
123:   FUNC GLOBAL DEFAULT UND _ZNK7android8hardware7det
124:   FUNC GLOBAL DEFAULT UND _ZNK7android8hardware9BHw
125:   FUNC GLOBAL DEFAULT UND _ZNKSt3__120__vector_base
126:   FUNC GLOBAL DEFAULT UND _ZNKSt3__121__basic_strin
127:   FUNC GLOBAL DEFAULT UND _ZNSt3__112basic_stringIc
128:   FUNC GLOBAL DEFAULT UND _ZNSt3__15mutex4lockEv
129:   FUNC GLOBAL DEFAULT UND _ZNSt3__15mutex6unlockEv
130:   FUNC GLOBAL DEFAULT UND _ZNSt3__15mutexD1Ev
131:   FUNC GLOBAL DEFAULT UND _ZTv0_n12_N7android4hidl4
132:   FUNC GLOBAL DEFAULT UND _ZTv0_n12_N7android4hidl4
133:   FUNC GLOBAL DEFAULT UND _ZTv0_n12_N7android8hardw
134:   FUNC GLOBAL DEFAULT UND _ZTv0_n12_N7android8hardw
135:   FUNC GLOBAL DEFAULT UND _ZTv0_n12_N7android8hardw
136:   FUNC GLOBAL DEFAULT UND _ZTv0_n12_N7android8hardw
137:   FUNC GLOBAL DEFAULT UND _ZTv0_n12_N7android8hardw
138:   FUNC GLOBAL DEFAULT UND _ZTv0_n12_N7android8hardw
139:   FUNC GLOBAL DEFAULT UND _ZTv0_n12_N7android8hardw
140:   FUNC GLOBAL DEFAULT UND _ZTv0_n12_N7android8hardw
141:   FUNC GLOBAL DEFAULT UND _ZTv0_n16_N7android8hardw
142:   FUNC GLOBAL DEFAULT UND _ZTv0_n20_N7android8hardw
143:   FUNC GLOBAL DEFAULT UND _ZTv0_n24_N7android8hardw
144:   FUNC GLOBAL DEFAULT UND _ZdaPv
145:   FUNC GLOBAL DEFAULT UND _ZdlPv
146:   FUNC GLOBAL DEFAULT UND _Znaj
147:   FUNC GLOBAL DEFAULT UND _Znwj
148:   FUNC GLOBAL DEFAULT UND __android_log_assert@LIBLOG (3)
149:   FUNC GLOBAL DEFAULT UND __cxa_pure_virtual
150:   FUNC GLOBAL DEFAULT UND __stack_chk_fail@LIBC (2)
151:   OBJECT GLOBAL DEFAULT UND __stack_chk_guard@LIBC (2)
152:   FUNC GLOBAL DEFAULT UND abort@LIBC (2)
153:   FUNC GLOBAL DEFAULT UND atrace_begin_body
154:   OBJECT GLOBAL DEFAULT UND atrace_enabled_tags
155:   FUNC GLOBAL DEFAULT UND atrace_end_body
156:   OBJECT GLOBAL DEFAULT UND atrace_is_ready
157:   FUNC GLOBAL DEFAULT UND atrace_setup
158:   FUNC GLOBAL DEFAULT UND memcmp@LIBC (2)
159:   FUNC GLOBAL DEFAULT UND strlen@LIBC (2)
160:   FUNC GLOBAL DEFAULT UND memcpy@LIBC (2)
161:   FUNC GLOBAL DEFAULT UND memset@LIBC (2)
162:   FUNC GLOBAL DEFAULT 14 _ZN7android8hardware2tv3c
163:   FUNC GLOBAL DEFAULT 14 _ZN7android8hardware2tv3c
164:   FUNC WEAK DEFAULT 14 _ZNSt3__16vectorINS_8func
165:   FUNC GLOBAL DEFAULT 14 _ZN7android8hardware2tv3c
166:   FUNC GLOBAL DEFAULT 14 _ZN7android8hardware2tv3c
167:   FUNC GLOBAL DEFAULT 14 _ZN7android8hardware2tv3c
168:   FUNC GLOBAL DEFAULT 14 _ZN7android8hardware2tv3c
169:   FUNC GLOBAL DEFAULT 14 _ZN7android8hardware2tv3c
170:   FUNC WEAK DEFAULT 14 _ZN7android8hardware7deta
171:   FUNC WEAK DEFAULT 14 _ZNSt3__16vectorIPvNS_9al
172:   FUNC GLOBAL DEFAULT 14 _ZN7android8hardware2tv3c
173:   FUNC WEAK DEFAULT 14 _ZN7android8hardware7deta
174:   FUNC WEAK DEFAULT 14 _ZNSt3__16__treeINS_12__v
175:   FUNC GLOBAL DEFAULT 14 _ZN7android8hardware2tv3c
176:   FUNC GLOBAL DEFAULT 14 _ZN7android8hardware2tv3c
177:   FUNC GLOBAL DEFAULT 14 _ZN7android8hardware2tv3c
178:   FUNC GLOBAL DEFAULT 14 _ZN7android8hardware2tv3c
179:   FUNC GLOBAL DEFAULT 14 _ZN7android8hardware2tv3c
180:   FUNC WEAK DEFAULT 14 _ZN7android8hardware7deta
181:   FUNC GLOBAL DEFAULT 14 _ZN7android8hardware2tv3c
182:   FUNC GLOBAL DEFAULT 14 _ZN7android8hardware2tv3c
183:   FUNC GLOBAL DEFAULT 14 _ZN7android8hardware2tv3c
184:   FUNC WEAK DEFAULT 14 _ZN7android8hardware7deta
185:   FUNC GLOBAL DEFAULT 14 _ZTv0_n12_N7android8hardw
186:   OBJECT GLOBAL DEFAULT 18 _ZTCN7android8hardware2tv
187:   FUNC GLOBAL DEFAULT 14 _ZN7android8hardware2tv3c
188:   FUNC GLOBAL DEFAULT 14 _ZN7android8hardware2tv3c
189:   FUNC GLOBAL DEFAULT 14 _ZN7android8hardware2tv3c
190:   FUNC GLOBAL DEFAULT 14 _ZN7android8hardware2tv3c
191:   OBJECT WEAK DEFAULT 18 _ZTVN7android8hardware2tv
192:   FUNC GLOBAL DEFAULT 14 __aeabi_memclr4
193:   FUNC GLOBAL DEFAULT 14 _ZN7android8hardware2tv3c
194:   FUNC GLOBAL DEFAULT 14 _ZN7android8hardware2tv3c
195:   FUNC GLOBAL DEFAULT 14 _ZN7android8hardware2tv3c
196:   FUNC GLOBAL DEFAULT 14 _ZN7android8hardware2tv3c
197:   OBJECT GLOBAL DEFAULT 18 _ZTTN7android8hardware2tv
198:   FUNC GLOBAL DEFAULT 14 _ZN7android8hardware2tv3c
199:   FUNC GLOBAL DEFAULT 14 _ZN7android8hardware2tv3c
200:   OBJECT GLOBAL DEFAULT 18 _ZTTN7android8hardware2tv
201:   OBJECT GLOBAL DEFAULT 18 _ZTVN7android8hardware2tv
202:   FUNC GLOBAL DEFAULT 14 _ZN7android8hardware2tv3c
203:   FUNC GLOBAL DEFAULT 14 _ZThn20_N7android8hardwar
204:   FUNC GLOBAL DEFAULT 14 _ZN7android8hardware2tv3c
205:   FUNC GLOBAL DEFAULT 14 _ZN7android8hardware2tv3c
206:   FUNC GLOBAL DEFAULT 14 _ZN7android8hardware2tv3c
207:   FUNC GLOBAL DEFAULT 14 _ZN7android8hardware2tv3c
208:   FUNC GLOBAL DEFAULT 14 __aeabi_memclr8
209:   FUNC GLOBAL DEFAULT 14 _ZN7android8hardware2tv3c
210:   FUNC WEAK DEFAULT 14 _ZNSt3__16__treeINS_12__v
211:   OBJECT GLOBAL DEFAULT 18 _ZTCN7android8hardware2tv
212:   OBJECT GLOBAL DEFAULT 18 _ZTVN7android8hardware2tv
213:   FUNC GLOBAL DEFAULT 14 _ZN7android8hardware2tv3c
214:   FUNC GLOBAL DEFAULT 14 _ZN7android8hardware2tv3c
215:   FUNC GLOBAL DEFAULT 14 _ZN7android8hardware2tv3c
216:   FUNC GLOBAL DEFAULT 14 _ZN7android8hardware2tv3c
217:   FUNC GLOBAL DEFAULT 14 _ZN7android8hardware2tv3c
218:   FUNC GLOBAL DEFAULT 14 _ZN7android8hardware2tv3c
219:   FUNC WEAK DEFAULT 14 _ZN7android8hardware10fro
220:   FUNC GLOBAL DEFAULT 14 _ZN7android8hardware2tv3c
221:   OBJECT GLOBAL DEFAULT 18 _ZTCN7android8hardware2tv
222:   FUNC GLOBAL DEFAULT 14 __aeabi_memcpy
223:   FUNC GLOBAL DEFAULT 14 _ZN7android8hardware2tv3c
224:   FUNC GLOBAL DEFAULT 14 _ZN7android8hardware2tv3c
225:   FUNC GLOBAL DEFAULT 14 _ZN7android8hardware2tv3c
226:   FUNC GLOBAL DEFAULT 14 _ZN7android8hardware2tv3c
227:   FUNC GLOBAL DEFAULT 14 _ZN7android8hardware2tv3c
228:   FUNC GLOBAL DEFAULT 14 _ZN7android8hardware2tv3c
229:   FUNC GLOBAL DEFAULT 14 _ZN7android8hardware2tv3c
230:   FUNC WEAK DEFAULT 14 _ZNSt3__16vectorIN7androi
231:   OBJECT GLOBAL DEFAULT 18 _ZTCN7android8hardware2tv
232:   FUNC GLOBAL DEFAULT 14 _ZN7android8hardware2tv3c
233:   FUNC GLOBAL DEFAULT 14 _ZN7android8hardware2tv3c
234:   OBJECT GLOBAL DEFAULT 18 _ZTCN7android8hardware2tv
235:   FUNC GLOBAL DEFAULT 14 _ZN7android8hardware2tv3c
236:   FUNC GLOBAL DEFAULT 14 _ZN7android8hardware2tv3c
237:   OBJECT GLOBAL DEFAULT 18 _ZTCN7android8hardware2tv
238:   FUNC GLOBAL DEFAULT 14 _ZN7android8hardware2tv3c
239:   FUNC GLOBAL DEFAULT 14 _ZN7android8hardware2tv3c
240:   FUNC GLOBAL DEFAULT 14 _ZN7android8hardware2tv3c
241:   FUNC WEAK DEFAULT 14 _ZNSt3__113__tree_removeI
242:   FUNC GLOBAL DEFAULT 14 _ZTv0_n12_N7android8hardw
243:   FUNC GLOBAL DEFAULT 14 __aeabi_memclr
244:   FUNC GLOBAL DEFAULT 14 _ZN7android8hardware2tv3c
245:   FUNC GLOBAL DEFAULT 14 _ZN7android8hardware2tv3c
246:   FUNC GLOBAL DEFAULT 14 _ZN7android8hardware2tv3c
247:   FUNC GLOBAL DEFAULT 14 _ZN7android8hardware2tv3c
248:   FUNC GLOBAL DEFAULT 14 _ZN7android8hardware2tv3c
249:   FUNC GLOBAL DEFAULT 14 _ZN7android8hardware2tv3c
250:   FUNC WEAK DEFAULT 14 _ZNSt3__127__tree_balance
251:   FUNC WEAK DEFAULT 14 _ZNSt3__16__treeINS_12__v
252:   FUNC GLOBAL DEFAULT 14 _ZN7android8hardware2tv3c
253:   OBJECT GLOBAL DEFAULT 18 _ZTCN7android8hardware2tv
254:   FUNC GLOBAL DEFAULT 14 _ZThn20_N7android8hardwar
255:   FUNC GLOBAL DEFAULT 14 _ZN7android8hardware2tv3c
256:   FUNC GLOBAL DEFAULT 14 _ZN7android8hardware2tv3c
257:   FUNC GLOBAL DEFAULT 14 _ZN7android8hardware2tv3c
258:   OBJECT GLOBAL DEFAULT 18 _ZTTN7android8hardware2tv
259:   FUNC GLOBAL DEFAULT 14 _ZN7android8hardware2tv3c
260:   FUNC GLOBAL DEFAULT 14 _ZN7android8hardware2tv3c
261:   OBJECT GLOBAL DEFAULT 18 _ZTCN7android8hardware2tv
262:   OBJECT GLOBAL DEFAULT 18 _ZTCN7android8hardware2tv
263:   FUNC GLOBAL DEFAULT 14 _ZTv0_n12_N7android8hardw
264:   FUNC GLOBAL DEFAULT 14 _ZN7android8hardware2tv3c
265:   FUNC GLOBAL DEFAULT 14 _ZN7android8hardware2tv3c
266:   FUNC WEAK DEFAULT 14 _ZNSt3__16__treeINS_12__v
267:   FUNC GLOBAL DEFAULT 14 _ZN7android8hardware2tv3c
268:   FUNC GLOBAL DEFAULT 14 _ZN7android8hardware2tv3c
269:   OBJECT GLOBAL DEFAULT 18 _ZTCN7android8hardware2tv
270:   FUNC GLOBAL DEFAULT 14 _ZN7android8hardware2tv3c
271:   FUNC GLOBAL DEFAULT 14 _ZN7android8hardware2tv3c
272:   FUNC GLOBAL DEFAULT 14 _ZN7android8hardware2tv3c
273:   FUNC GLOBAL DEFAULT 14 _ZN7android8hardware2tv3c
274:   FUNC GLOBAL DEFAULT 14 _ZN7android8hardware2tv3c
275:   FUNC GLOBAL DEFAULT 14 _ZN7android8hardware2tv3c
276:   FUNC GLOBAL DEFAULT 14 _ZN7android8hardware2tv3c
277:   FUNC GLOBAL DEFAULT 14 _ZN7android8hardware2tv3c
278:   FUNC GLOBAL DEFAULT 14 _ZN7android8hardware2tv3c
279:   FUNC GLOBAL DEFAULT 14 _ZN7android8hardware2tv3c
280:   OBJECT GLOBAL DEFAULT 18 _ZTCN7android8hardware2tv
281:   FUNC GLOBAL DEFAULT 14 __aeabi_memset
282:   FUNC GLOBAL DEFAULT 14 _ZN7android8hardware2tv3c
283:   FUNC GLOBAL DEFAULT 14 _ZN7android8hardware2tv3c
284:   FUNC GLOBAL DEFAULT 14 _ZN7android8hardware2tv3c
285:   FUNC GLOBAL DEFAULT 14 _ZN7android8hardware2tv3c
286:   OBJECT GLOBAL DEFAULT 18 _ZTCN7android8hardware2tv
287:   FUNC GLOBAL DEFAULT 14 _ZN7android8hardware2tv3c
288:   FUNC GLOBAL DEFAULT 14 _ZN7android8hardware2tv3c
289:   OBJECT GLOBAL DEFAULT 18 _ZTCN7android8hardware2tv
290:   OBJECT GLOBAL DEFAULT 18 _ZTTN7android8hardware2tv
291:   OBJECT GLOBAL DEFAULT 18 _ZTVN7android8hardware2tv
292:   FUNC GLOBAL DEFAULT 14 _ZN7android8hardware2tv3c
293:   FUNC GLOBAL DEFAULT 14 _ZN7android8hardware2tv3c
294:   FUNC GLOBAL DEFAULT 14 _ZN7android8hardware2tv3c
295:   OBJECT GLOBAL DEFAULT 16 _ZN7android8hardware2tv3c
296:   FUNC GLOBAL DEFAULT 14 _ZN7android8hardware2tv3c
297:   FUNC GLOBAL DEFAULT 14 _ZN7android8hardware2tv3c
298:   FUNC GLOBAL DEFAULT 14 _ZN7android8hardware2tv3c
299:   OBJECT WEAK DEFAULT 18 _ZTCN7android8hardware2tv
300:   OBJECT GLOBAL DEFAULT 18 _ZTVN7android8hardware2tv
301:   FUNC GLOBAL DEFAULT 14 _ZN7android8hardware2tv3c
302:   OBJECT GLOBAL DEFAULT 18 _ZTCN7android8hardware2tv
303:   FUNC GLOBAL DEFAULT 14 _ZN7android8hardware2tv3c
304:   FUNC GLOBAL DEFAULT 14 __aeabi_memcpy4
305:   FUNC GLOBAL DEFAULT 14 __aeabi_memset4
306:   FUNC GLOBAL DEFAULT 14 _ZN7android8hardware2tv3c
307:   OBJECT WEAK DEFAULT 18 _ZTVN7android8hardware2tv
308:   OBJECT GLOBAL DEFAULT 18 _ZTCN7android8hardware2tv
309:   FUNC GLOBAL DEFAULT 14 _ZN7android8hardware2tv3c
310:   OBJECT GLOBAL DEFAULT 18 _ZTTN7android8hardware2tv
311:   FUNC GLOBAL DEFAULT 14 _ZN7android8hardware2tv3c
312:   FUNC GLOBAL DEFAULT 14 _ZN7android8hardware2tv3c
313:   FUNC GLOBAL DEFAULT 14 _ZN7android8hardware2tv3c
314:   FUNC WEAK DEFAULT 14 _ZNSt3__16__treeINS_12__v
315:   FUNC GLOBAL DEFAULT 14 _ZThn20_N7android8hardwar
316:   FUNC GLOBAL DEFAULT 14 _ZN7android8hardware2tv3c
317:   FUNC WEAK DEFAULT 14 _ZN7android8hardware7deta
318:   OBJECT GLOBAL DEFAULT 18 _ZTCN7android8hardware2tv
319:   FUNC GLOBAL DEFAULT 14 _ZN7android8hardware2tv3c
320:   FUNC GLOBAL DEFAULT 14 _ZN7android8hardware2tv3c
321:   FUNC GLOBAL DEFAULT 14 _ZN7android8hardware2tv3c
322:   FUNC GLOBAL DEFAULT 14 _ZN7android8hardware2tv3c
323:   OBJECT GLOBAL DEFAULT 18 _ZTVN7android8hardware2tv
324:   FUNC GLOBAL DEFAULT 14 __aeabi_memcpy8
325:   FUNC GLOBAL DEFAULT 14 __aeabi_memset8
326:   FUNC GLOBAL DEFAULT 14 _ZN7android8hardware2tv3c
327:   FUNC GLOBAL DEFAULT 14 _ZN7android8hardware2tv3c
328:   FUNC GLOBAL DEFAULT 14 _ZN7android8hardware2tv3c
329:   OBJECT GLOBAL DEFAULT 18 _ZTCN7android8hardware2tv
330:   FUNC GLOBAL DEFAULT 14 _ZN7android8hardware2tv3c
331:   FUNC GLOBAL DEFAULT 14 _ZN7android8hardware2tv3c
332:   FUNC WEAK DEFAULT 14 _ZNSt3__16__treeINS_12__v
333:   FUNC GLOBAL DEFAULT 14 _ZN7android8hardware2tv3c
334:   FUNC GLOBAL DEFAULT 14 _ZTv0_n12_N7android8hardw
335:   FUNC GLOBAL DEFAULT 14 _ZN7android8hardware2tv3c
336:   OBJECT WEAK DEFAULT 18 _ZTCN7android8hardware2tv
337:   FUNC GLOBAL DEFAULT 14 _ZN7android8hardware2tv3c
338:   FUNC GLOBAL DEFAULT 14 _ZN7android8hardware2tv3c
339:   FUNC GLOBAL DEFAULT 14 _ZN7android8hardware2tv3c
340:   OBJECT GLOBAL DEFAULT 18 _ZTVN7android8hardware2tv
341:   FUNC GLOBAL DEFAULT 14 _ZN7android8hardware2tv3c
342:   FUNC GLOBAL DEFAULT 14 _ZN7android8hardware2tv3c
343:   FUNC GLOBAL DEFAULT 14 _ZN7android8hardware2tv3c
344:   FUNC GLOBAL DEFAULT 14 _ZN7android8hardware2tv3c
345:   FUNC GLOBAL DEFAULT 14 _ZThn20_N7android8hardwar
346:   FUNC GLOBAL DEFAULT 14 _ZN7android8hardware2tv3c
347:   OBJECT GLOBAL DEFAULT 16 _ZN7android8hardware2tv3c
348:   FUNC GLOBAL DEFAULT 14 _ZN7android8hardware2tv3c
349:   FUNC GLOBAL DEFAULT 14 _ZN7android8hardware2tv3c
350:   OBJECT GLOBAL DEFAULT 18 _ZTTN7android8hardware2tv
351:   FUNC GLOBAL DEFAULT 14 _ZN7android8hardware2tv3c
352:   FUNC GLOBAL DEFAULT 14 _ZN7android8hardware2tv3c
353:   OBJECT GLOBAL DEFAULT 18 _ZTCN7android8hardware2tv
