 0x000000000000000e (SONAME)             Library soname: [libsync.so]
  
Symbol   contains 21 entries:
Num:   Type Bind Vis Ndx Name
0:   NOTYPE LOCAL DEFAULT UND
1:   FUNC GLOBAL DEFAULT UND __cxa_finalize@LIBC (2)
2:   FUNC GLOBAL DEFAULT UND __errno@LIBC (2)
3:   FUNC GLOBAL DEFAULT UND __open_2@LIBC (2)
4:   FUNC GLOBAL DEFAULT UND __poll_chk@LIBC (2)
5:   FUNC GLOBAL DEFAULT UND __stack_chk_fail@LIBC (2)
6:   FUNC GLOBAL DEFAULT UND __strlcpy_chk@LIBC (2)
7:   FUNC GLOBAL DEFAULT UND calloc@LIBC (2)
8:   FUNC GLOBAL DEFAULT UND free@LIBC (2)
9:   FUNC GLOBAL DEFAULT UND ioctl@LIBC (2)
10:   FUNC GLOBAL DEFAULT UND malloc@LIBC (2)
11:   FUNC GLOBAL DEFAULT 13 sw_sync_fence_create
12:   FUNC GLOBAL DEFAULT 13 sw_sync_timeline_create
13:   FUNC GLOBAL DEFAULT 13 sw_sync_timeline_inc
14:   FUNC GLOBAL DEFAULT 13 sync_fence_info_free
15:   FUNC GLOBAL DEFAULT 13 sync_file_info
16:   FUNC GLOBAL DEFAULT 13 sync_pt_info
17:   FUNC GLOBAL DEFAULT 13 sync_wait
18:   FUNC GLOBAL DEFAULT 13 sync_fence_info
19:   FUNC GLOBAL DEFAULT 13 sync_file_info_free
20:   FUNC GLOBAL DEFAULT 13 sync_merge
