 0x000000000000000e (SONAME)             Library soname: [android.frameworks.cameraservice.device@2.0.so]
  
Symbol   contains 400 entries:
Num:   Type Bind Vis Ndx Name
0:   NOTYPE LOCAL DEFAULT UND
1:   FUNC GLOBAL DEFAULT UND __cxa_finalize@LIBC (2)
2:   FUNC GLOBAL DEFAULT UND _ZN7android14sp_report_ra
3:   FUNC GLOBAL DEFAULT UND _ZN7android21report_syspr
4:   OBJECT GLOBAL DEFAULT UND _ZN7android4hidl4base4V1_
5:   FUNC GLOBAL DEFAULT UND _ZN7android4hidl4base4V1_
6:   FUNC GLOBAL DEFAULT UND _ZN7android4hidl4base4V1_
7:   FUNC GLOBAL DEFAULT UND _ZN7android4hidl4base4V1_
8:   FUNC GLOBAL DEFAULT UND _ZN7android4hidl4base4V1_
9:   FUNC GLOBAL DEFAULT UND _ZN7android4hidl4base4V1_
10:   FUNC GLOBAL DEFAULT UND _ZN7android4hidl4base4V1_
11:   FUNC GLOBAL DEFAULT UND _ZN7android4hidl4base4V1_
12:   FUNC GLOBAL DEFAULT UND _ZN7android4hidl4base4V1_
13:   FUNC GLOBAL DEFAULT UND _ZN7android4hidl4base4V1_
14:   FUNC GLOBAL DEFAULT UND _ZN7android4hidl4base4V1_
15:   FUNC GLOBAL DEFAULT UND _ZN7android4hidl4base4V1_
16:   FUNC GLOBAL DEFAULT UND _ZN7android4hidl4base4V1_
17:   FUNC GLOBAL DEFAULT UND _ZN7android4hidl4base4V1_
18:   FUNC GLOBAL DEFAULT UND _ZN7android4hidl4base4V1_
19:   FUNC GLOBAL DEFAULT UND _ZN7android4hidl4base4V1_
20:   FUNC GLOBAL DEFAULT UND _ZN7android4hidl4base4V1_
21:   FUNC GLOBAL DEFAULT UND _ZN7android4hidl4base4V1_
22:   FUNC GLOBAL DEFAULT UND _ZN7android4hidl4base4V1_
23:   FUNC GLOBAL DEFAULT UND _ZN7android4hidl4base4V1_
24:   FUNC GLOBAL DEFAULT UND _ZN7android4hidl4base4V1_
25:   FUNC GLOBAL DEFAULT UND _ZN7android4hidl4base4V1_
26:   FUNC GLOBAL DEFAULT UND _ZN7android4hidl4base4V1_
27:   FUNC GLOBAL DEFAULT UND _ZN7android4hidl4base4V1_
28:   FUNC GLOBAL DEFAULT UND _ZN7android7RefBase10onFi
29:   FUNC GLOBAL DEFAULT UND _ZN7android7RefBase12weak
30:   FUNC GLOBAL DEFAULT UND _ZN7android7RefBase13onLa
31:   FUNC GLOBAL DEFAULT UND _ZN7android7RefBase15onLa
32:   FUNC GLOBAL DEFAULT UND _ZN7android7RefBase20onIn
33:   FUNC GLOBAL DEFAULT UND _ZN7android7RefBaseC2Ev
34:   FUNC GLOBAL DEFAULT UND _ZN7android7RefBaseD2Ev
35:   FUNC GLOBAL DEFAULT UND _ZN7android8hardware10IIn
36:   FUNC GLOBAL DEFAULT UND _ZN7android8hardware10IIn
37:   FUNC GLOBAL DEFAULT UND _ZN7android8hardware10IIn
38:   FUNC GLOBAL DEFAULT UND _ZN7android8hardware10IIn
39:   FUNC GLOBAL DEFAULT UND _ZN7android8hardware10IIn
40:   FUNC GLOBAL DEFAULT UND _ZN7android8hardware11BpH
41:   FUNC GLOBAL DEFAULT UND _ZN7android8hardware11BpH
42:   FUNC GLOBAL DEFAULT UND _ZN7android8hardware11BpH
43:   FUNC GLOBAL DEFAULT UND _ZN7android8hardware11BpH
44:   FUNC GLOBAL DEFAULT UND _ZN7android8hardware11BpH
45:   FUNC GLOBAL DEFAULT UND _ZN7android8hardware11BpH
46:   FUNC GLOBAL DEFAULT UND _ZN7android8hardware11BpH
47:   FUNC GLOBAL DEFAULT UND _ZN7android8hardware11hid
48:   FUNC GLOBAL DEFAULT UND _ZN7android8hardware11hid
49:   FUNC GLOBAL DEFAULT UND _ZN7android8hardware11hid
50:   FUNC GLOBAL DEFAULT UND _ZN7android8hardware11hid
51:   FUNC GLOBAL DEFAULT UND _ZN7android8hardware11hid
52:   FUNC GLOBAL DEFAULT UND _ZN7android8hardware11hid
53:   FUNC GLOBAL DEFAULT UND _ZN7android8hardware12Pro
54:   FUNC GLOBAL DEFAULT UND _ZN7android8hardware12Pro
55:   FUNC GLOBAL DEFAULT UND _ZN7android8hardware13wri
56:   FUNC GLOBAL DEFAULT UND _ZN7android8hardware14rea
57:   FUNC GLOBAL DEFAULT UND _ZN7android8hardware21def
58:   FUNC GLOBAL DEFAULT UND _ZN7android8hardware23get
59:   FUNC GLOBAL DEFAULT UND _ZN7android8hardware27hid
60:   FUNC GLOBAL DEFAULT UND _ZN7android8hardware27hid
61:   FUNC GLOBAL DEFAULT UND _ZN7android8hardware6Parc
62:   FUNC GLOBAL DEFAULT UND _ZN7android8hardware6Parc
63:   FUNC GLOBAL DEFAULT UND _ZN7android8hardware6Parc
64:   FUNC GLOBAL DEFAULT UND _ZN7android8hardware6Parc
65:   FUNC GLOBAL DEFAULT UND _ZN7android8hardware6Parc
66:   FUNC GLOBAL DEFAULT UND _ZN7android8hardware6Parc
67:   FUNC GLOBAL DEFAULT UND _ZN7android8hardware6Parc
68:   FUNC GLOBAL DEFAULT UND _ZN7android8hardware6Stat
69:   FUNC GLOBAL DEFAULT UND _ZN7android8hardware6Stat
70:   FUNC GLOBAL DEFAULT UND _ZN7android8hardware6Stat
71:   FUNC GLOBAL DEFAULT UND _ZN7android8hardware6Stat
72:   FUNC GLOBAL DEFAULT UND _ZN7android8hardware7IBin
73:   FUNC GLOBAL DEFAULT UND _ZN7android8hardware7IBin
74:   FUNC GLOBAL DEFAULT UND _ZN7android8hardware7IBin
75:   FUNC GLOBAL DEFAULT UND _ZN7android8hardware7IBin
76:   FUNC GLOBAL DEFAULT UND _ZN7android8hardware7deta
77:   FUNC GLOBAL DEFAULT UND _ZN7android8hardware7deta
78:   FUNC GLOBAL DEFAULT UND _ZN7android8hardware7deta
79:   FUNC GLOBAL DEFAULT UND _ZN7android8hardware7deta
80:   FUNC GLOBAL DEFAULT UND _ZN7android8hardware7deta
81:   FUNC GLOBAL DEFAULT UND _ZN7android8hardware7deta
82:   FUNC GLOBAL DEFAULT UND _ZN7android8hardware7deta
83:   OBJECT GLOBAL DEFAULT UND _ZN7android8hardware7deta
84:   FUNC GLOBAL DEFAULT UND _ZN7android8hardware7deta
85:   OBJECT GLOBAL DEFAULT UND _ZN7android8hardware7deta
86:   FUNC GLOBAL DEFAULT UND _ZN7android8hardware7deta
87:   FUNC GLOBAL DEFAULT UND _ZN7android8hardware7deta
88:   FUNC GLOBAL DEFAULT UND _ZN7android8hardware7deta
89:   FUNC GLOBAL DEFAULT UND _ZN7android8hardware7deta
90:   FUNC GLOBAL DEFAULT UND _ZN7android8hardware7deta
91:   FUNC GLOBAL DEFAULT UND _ZN7android8hardware7deta
92:   FUNC GLOBAL DEFAULT UND _ZN7android8hardware7deta
93:   FUNC GLOBAL DEFAULT UND _ZN7android8hardware7deta
94:   FUNC GLOBAL DEFAULT UND _ZN7android8hardware7deta
95:   OBJECT GLOBAL DEFAULT UND _ZN7android8hardware7deta
96:   FUNC GLOBAL DEFAULT UND _ZN7android8hardware9BHwB
97:   FUNC GLOBAL DEFAULT UND _ZN7android8hardware9BHwB
98:   FUNC GLOBAL DEFAULT UND _ZN7android8hardware9BHwB
99:   FUNC GLOBAL DEFAULT UND _ZN7android8hardware9BHwB
100:   FUNC GLOBAL DEFAULT UND _ZN7android8hardware9BHwB
101:   FUNC GLOBAL DEFAULT UND _ZN7android8hardware9BHwB
102:   FUNC GLOBAL DEFAULT UND _ZN7android8hardware9BHwB
103:   FUNC GLOBAL DEFAULT UND _ZN7android8hardware9BHwB
104:   FUNC GLOBAL DEFAULT UND _ZN7android8hardware9BHwB
105:   FUNC GLOBAL DEFAULT UND _ZN7android8hardware9BHwB
106:   FUNC GLOBAL DEFAULT UND _ZNK7android7RefBase10cre
107:   FUNC GLOBAL DEFAULT UND _ZNK7android7RefBase11get
108:   FUNC GLOBAL DEFAULT UND _ZNK7android7RefBase9decS
109:   FUNC GLOBAL DEFAULT UND _ZNK7android7RefBase9incS
110:   FUNC GLOBAL DEFAULT UND _ZNK7android8hardware6Par
111:   FUNC GLOBAL DEFAULT UND _ZNK7android8hardware6Par
112:   FUNC GLOBAL DEFAULT UND _ZNK7android8hardware6Par
113:   FUNC GLOBAL DEFAULT UND _ZNK7android8hardware6Par
114:   FUNC GLOBAL DEFAULT UND _ZNK7android8hardware6Par
115:   FUNC GLOBAL DEFAULT UND _ZNK7android8hardware7IBi
116:   FUNC GLOBAL DEFAULT UND _ZNK7android8hardware7det
117:   FUNC GLOBAL DEFAULT UND _ZNK7android8hardware9BHw
118:   FUNC GLOBAL DEFAULT UND _ZNKSt3__120__vector_base
119:   FUNC GLOBAL DEFAULT UND _ZNKSt3__121__basic_strin
120:   FUNC GLOBAL DEFAULT UND _ZNSt3__112basic_stringIc
121:   FUNC GLOBAL DEFAULT UND _ZNSt3__15mutex4lockEv
122:   FUNC GLOBAL DEFAULT UND _ZNSt3__15mutex6unlockEv
123:   FUNC GLOBAL DEFAULT UND _ZNSt3__15mutexD1Ev
124:   FUNC GLOBAL DEFAULT UND _ZTv0_n24_N7android4hidl4
125:   FUNC GLOBAL DEFAULT UND _ZTv0_n24_N7android4hidl4
126:   FUNC GLOBAL DEFAULT UND _ZTv0_n24_N7android8hardw
127:   FUNC GLOBAL DEFAULT UND _ZTv0_n24_N7android8hardw
128:   FUNC GLOBAL DEFAULT UND _ZTv0_n24_N7android8hardw
129:   FUNC GLOBAL DEFAULT UND _ZTv0_n24_N7android8hardw
130:   FUNC GLOBAL DEFAULT UND _ZTv0_n24_N7android8hardw
131:   FUNC GLOBAL DEFAULT UND _ZTv0_n24_N7android8hardw
132:   FUNC GLOBAL DEFAULT UND _ZTv0_n24_N7android8hardw
133:   FUNC GLOBAL DEFAULT UND _ZTv0_n24_N7android8hardw
134:   FUNC GLOBAL DEFAULT UND _ZTv0_n32_N7android8hardw
135:   FUNC GLOBAL DEFAULT UND _ZTv0_n40_N7android8hardw
136:   FUNC GLOBAL DEFAULT UND _ZTv0_n48_N7android8hardw
137:   FUNC GLOBAL DEFAULT UND _ZdaPv
138:   FUNC GLOBAL DEFAULT UND _ZdlPv
139:   FUNC GLOBAL DEFAULT UND _Znam
140:   FUNC GLOBAL DEFAULT UND _Znwm
141:   FUNC GLOBAL DEFAULT UND __cxa_pure_virtual
142:   FUNC GLOBAL DEFAULT UND __stack_chk_fail@LIBC (2)
143:   FUNC GLOBAL DEFAULT UND abort@LIBC (2)
144:   FUNC GLOBAL DEFAULT UND atrace_begin_body
145:   OBJECT GLOBAL DEFAULT UND atrace_enabled_tags
146:   FUNC GLOBAL DEFAULT UND atrace_end_body
147:   OBJECT GLOBAL DEFAULT UND atrace_is_ready
148:   FUNC GLOBAL DEFAULT UND atrace_setup
149:   FUNC GLOBAL DEFAULT UND memcmp@LIBC (2)
150:   FUNC GLOBAL DEFAULT UND memcpy@LIBC (2)
151:   FUNC GLOBAL DEFAULT UND memset@LIBC (2)
152:   FUNC GLOBAL DEFAULT UND strlen@LIBC (2)
153:   FUNC GLOBAL DEFAULT UND _ZN7android8hardware6Parc
154:   FUNC GLOBAL DEFAULT UND _ZN7android8hardware6Parc
155:   FUNC GLOBAL DEFAULT UND _ZN7android8hardware6Parc
156:   FUNC GLOBAL DEFAULT UND _ZN7android8hardware6Parc
157:   FUNC GLOBAL DEFAULT UND _ZNK7android8hardware6Par
158:   FUNC GLOBAL DEFAULT UND _ZNK7android8hardware6Par
159:   FUNC GLOBAL DEFAULT UND _ZNK7android8hardware6Par
160:   FUNC GLOBAL DEFAULT UND _ZNK7android8hardware6Par
161:   FUNC GLOBAL DEFAULT UND __android_log_assert@LIBLOG (3)
162:   FUNC GLOBAL DEFAULT UND _ZN7android8hardware21wri
163:   FUNC GLOBAL DEFAULT UND _ZN7android8hardware21wri
164:   FUNC GLOBAL DEFAULT UND _ZN7android8hardware22rea
165:   FUNC GLOBAL DEFAULT UND _ZN7android8hardware22rea
166:   FUNC GLOBAL DEFAULT UND _ZNSt3__112basic_stringIc
167:   FUNC GLOBAL DEFAULT UND _ZNSt3__112basic_stringIc
168:   FUNC GLOBAL DEFAULT UND _ZNSt3__19to_stringEi
169:   OBJECT GLOBAL DEFAULT 18 _ZTTN7android10frameworks
170:   FUNC GLOBAL DEFAULT 14 _ZN7android10frameworks13
171:   FUNC GLOBAL DEFAULT 14 _ZN7android10frameworks13
172:   OBJECT GLOBAL DEFAULT 18 _ZTTN7android10frameworks
173:   FUNC GLOBAL DEFAULT 14 _ZN7android10frameworks13
174:   FUNC GLOBAL DEFAULT 14 _ZN7android10frameworks13
175:   OBJECT GLOBAL DEFAULT 18 _ZTVN7android10frameworks
176:   FUNC GLOBAL DEFAULT 14 _ZN7android10frameworks13
177:   FUNC GLOBAL DEFAULT 14 _ZN7android10frameworks13
178:   FUNC WEAK DEFAULT 14 _ZNSt3__16vectorINS_8func
179:   OBJECT GLOBAL DEFAULT 18 _ZTCN7android10frameworks
180:   FUNC GLOBAL DEFAULT 14 _ZN7android10frameworks13
181:   FUNC GLOBAL DEFAULT 14 _ZN7android10frameworks13
182:   FUNC GLOBAL DEFAULT 14 _ZN7android10frameworks13
183:   FUNC GLOBAL DEFAULT 14 _ZN7android10frameworks13
184:   FUNC GLOBAL DEFAULT 14 _ZN7android10frameworks13
185:   FUNC GLOBAL DEFAULT 14 _ZN7android10frameworks13
186:   FUNC GLOBAL DEFAULT 14 _ZN7android10frameworks13
187:   FUNC GLOBAL DEFAULT 14 _ZN7android10frameworks13
188:   FUNC GLOBAL DEFAULT 14 _ZN7android10frameworks13
189:   FUNC GLOBAL DEFAULT 14 _ZN7android10frameworks13
190:   FUNC GLOBAL DEFAULT 14 _ZN7android10frameworks13
191:   FUNC GLOBAL DEFAULT 14 _ZN7android10frameworks13
192:   FUNC GLOBAL DEFAULT 14 _ZTv0_n24_N7android10fram
193:   FUNC GLOBAL DEFAULT 14 _ZN7android10frameworks13
194:   FUNC GLOBAL DEFAULT 14 _ZN7android10frameworks13
195:   FUNC GLOBAL DEFAULT 14 _ZN7android10frameworks13
196:   FUNC GLOBAL DEFAULT 14 _ZN7android10frameworks13
197:   FUNC GLOBAL DEFAULT 14 _ZN7android10frameworks13
198:   FUNC GLOBAL DEFAULT 14 _ZN7android10frameworks13
199:   FUNC GLOBAL DEFAULT 14 _ZN7android10frameworks13
200:   FUNC GLOBAL DEFAULT 14 _ZN7android10frameworks13
201:   FUNC GLOBAL DEFAULT 14 _ZN7android10frameworks13
202:   FUNC GLOBAL DEFAULT 14 _ZN7android10frameworks13
203:   FUNC GLOBAL DEFAULT 14 _ZN7android10frameworks13
204:   FUNC GLOBAL DEFAULT 14 _ZN7android10frameworks13
205:   FUNC GLOBAL DEFAULT 14 _ZN7android10frameworks13
206:   FUNC GLOBAL DEFAULT 14 _ZN7android10frameworks13
207:   FUNC GLOBAL DEFAULT 14 _ZN7android10frameworks13
208:   FUNC GLOBAL DEFAULT 14 _ZN7android10frameworks13
209:   FUNC GLOBAL DEFAULT 14 _ZN7android10frameworks13
210:   FUNC GLOBAL DEFAULT 14 _ZN7android10frameworks13
211:   FUNC GLOBAL DEFAULT 14 _ZN7android10frameworks13
212:   OBJECT GLOBAL DEFAULT 18 _ZTTN7android10frameworks
213:   FUNC GLOBAL DEFAULT 14 _ZN7android10frameworks13
214:   FUNC WEAK DEFAULT 14 _ZNSt3__16__treeINS_12__v
215:   OBJECT GLOBAL DEFAULT 18 _ZTTN7android10frameworks
216:   FUNC GLOBAL DEFAULT 14 _ZThn32_N7android10framew
217:   FUNC GLOBAL DEFAULT 14 _ZN7android10frameworks13
218:   FUNC GLOBAL DEFAULT 14 _ZN7android10frameworks13
219:   FUNC GLOBAL DEFAULT 14 _ZN7android10frameworks13
220:   FUNC GLOBAL DEFAULT 14 _ZTv0_n24_N7android10fram
221:   FUNC GLOBAL DEFAULT 14 _ZN7android10frameworks13
222:   FUNC GLOBAL DEFAULT 14 _ZN7android10frameworks13
223:   FUNC GLOBAL DEFAULT 14 _ZN7android10frameworks13
224:   FUNC GLOBAL DEFAULT 14 _ZN7android10frameworks13
225:   FUNC WEAK DEFAULT 14 _ZNSt3__16__treeINS_12__v
226:   FUNC WEAK DEFAULT 14 _ZNSt3__16__treeINS_12__v
227:   FUNC WEAK DEFAULT 14 _ZNSt3__16vectorIN7androi
228:   FUNC GLOBAL DEFAULT 14 _ZN7android10frameworks13
229:   FUNC GLOBAL DEFAULT 14 _ZN7android10frameworks13
230:   OBJECT GLOBAL DEFAULT 18 _ZTCN7android10frameworks
231:   FUNC WEAK DEFAULT 14 _ZNSt3__16__treeINS_12__v
232:   FUNC GLOBAL DEFAULT 14 _ZN7android10frameworks13
233:   FUNC GLOBAL DEFAULT 14 _ZN7android10frameworks13
234:   FUNC WEAK DEFAULT 14 _ZN7android8hardware7deta
235:   OBJECT WEAK DEFAULT 18 _ZTVN7android10frameworks
236:   FUNC GLOBAL DEFAULT 14 _ZN7android10frameworks13
237:   FUNC GLOBAL DEFAULT 14 _ZN7android10frameworks13
238:   FUNC GLOBAL DEFAULT 14 _ZNK7android10frameworks1
239:   FUNC GLOBAL DEFAULT 14 _ZN7android10frameworks13
240:   OBJECT WEAK DEFAULT 18 _ZTVN7android10frameworks
241:   OBJECT WEAK DEFAULT 18 _ZTCN7android10frameworks
242:   OBJECT GLOBAL DEFAULT 18 _ZTCN7android10frameworks
243:   FUNC GLOBAL DEFAULT 14 _ZN7android10frameworks13
244:   FUNC GLOBAL DEFAULT 14 _ZN7android10frameworks13
245:   FUNC GLOBAL DEFAULT 14 _ZN7android10frameworks13
246:   FUNC GLOBAL DEFAULT 14 _ZThn32_N7android10framew
247:   FUNC GLOBAL DEFAULT 14 _ZN7android10frameworks13
248:   FUNC GLOBAL DEFAULT 14 _ZN7android10frameworks13
249:   FUNC GLOBAL DEFAULT 14 _ZN7android10frameworks13
250:   FUNC GLOBAL DEFAULT 14 _ZN7android10frameworks13
251:   FUNC GLOBAL DEFAULT 14 _ZN7android10frameworks13
252:   FUNC GLOBAL DEFAULT 14 _ZN7android10frameworks13
253:   FUNC WEAK DEFAULT 14 _ZNSt3__113__tree_removeI
254:   OBJECT GLOBAL DEFAULT 18 _ZTVN7android10frameworks
255:   FUNC GLOBAL DEFAULT 14 _ZN7android10frameworks13
256:   FUNC GLOBAL DEFAULT 14 _ZN7android10frameworks13
257:   FUNC WEAK DEFAULT 14 _ZNSt3__16__treeINS_12__v
258:   FUNC GLOBAL DEFAULT 14 _ZN7android10frameworks13
259:   OBJECT GLOBAL DEFAULT 18 _ZTCN7android10frameworks
260:   FUNC GLOBAL DEFAULT 14 _ZN7android10frameworks13
261:   OBJECT GLOBAL DEFAULT 16 _ZN7android10frameworks13
262:   FUNC GLOBAL DEFAULT 14 _ZN7android10frameworks13
263:   FUNC GLOBAL DEFAULT 14 _ZN7android10frameworks13
264:   FUNC GLOBAL DEFAULT 14 _ZN7android10frameworks13
265:   OBJECT GLOBAL DEFAULT 18 _ZTCN7android10frameworks
266:   OBJECT GLOBAL DEFAULT 18 _ZTCN7android10frameworks
267:   FUNC GLOBAL DEFAULT 14 _ZN7android10frameworks13
268:   FUNC GLOBAL DEFAULT 14 _ZN7android10frameworks13
269:   FUNC GLOBAL DEFAULT 14 _ZN7android10frameworks13
270:   OBJECT GLOBAL DEFAULT 18 _ZTCN7android10frameworks
271:   FUNC GLOBAL DEFAULT 14 _ZTv0_n24_N7android10fram
272:   FUNC GLOBAL DEFAULT 14 _ZN7android10frameworks13
273:   FUNC GLOBAL DEFAULT 14 _ZN7android10frameworks13
274:   FUNC GLOBAL DEFAULT 14 _ZN7android10frameworks13
275:   FUNC GLOBAL DEFAULT 14 _ZN7android10frameworks13
276:   FUNC GLOBAL DEFAULT 14 _ZN7android10frameworks13
277:   FUNC GLOBAL DEFAULT 14 _ZN7android10frameworks13
278:   OBJECT GLOBAL DEFAULT 18 _ZTCN7android10frameworks
279:   FUNC GLOBAL DEFAULT 14 _ZN7android10frameworks13
280:   OBJECT GLOBAL DEFAULT 18 _ZTVN7android10frameworks
281:   FUNC GLOBAL DEFAULT 14 _ZN7android10frameworks13
282:   FUNC GLOBAL DEFAULT 14 _ZN7android10frameworks13
283:   FUNC GLOBAL DEFAULT 14 _ZN7android10frameworks13
284:   FUNC GLOBAL DEFAULT 14 _ZN7android10frameworks13
285:   FUNC GLOBAL DEFAULT 14 _ZN7android10frameworks13
286:   FUNC GLOBAL DEFAULT 14 _ZN7android10frameworks13
287:   FUNC GLOBAL DEFAULT 14 _ZN7android10frameworks13
288:   FUNC GLOBAL DEFAULT 14 _ZN7android10frameworks13
289:   FUNC GLOBAL DEFAULT 14 _ZN7android10frameworks13
290:   FUNC GLOBAL DEFAULT 14 _ZN7android10frameworks13
291:   OBJECT GLOBAL DEFAULT 18 _ZTVN7android10frameworks
292:   FUNC GLOBAL DEFAULT 14 _ZN7android10frameworks13
293:   FUNC GLOBAL DEFAULT 14 _ZN7android10frameworks13
294:   FUNC GLOBAL DEFAULT 14 _ZN7android10frameworks13
295:   FUNC GLOBAL DEFAULT 14 _ZN7android10frameworks13
296:   FUNC GLOBAL DEFAULT 14 _ZN7android10frameworks13
297:   FUNC GLOBAL DEFAULT 14 _ZN7android10frameworks13
298:   FUNC GLOBAL DEFAULT 14 _ZN7android10frameworks13
299:   FUNC GLOBAL DEFAULT 14 _ZTv0_n24_N7android10fram
300:   FUNC GLOBAL DEFAULT 14 _ZN7android10frameworks13
301:   FUNC GLOBAL DEFAULT 14 _ZN7android10frameworks13
302:   OBJECT GLOBAL DEFAULT 18 _ZTCN7android10frameworks
303:   OBJECT GLOBAL DEFAULT 18 _ZTCN7android10frameworks
304:   FUNC GLOBAL DEFAULT 14 _ZN7android10frameworks13
305:   OBJECT GLOBAL DEFAULT 18 _ZTVN7android10frameworks
306:   FUNC GLOBAL DEFAULT 14 _ZN7android10frameworks13
307:   FUNC GLOBAL DEFAULT 14 _ZN7android10frameworks13
308:   OBJECT GLOBAL DEFAULT 18 _ZTTN7android10frameworks
309:   FUNC GLOBAL DEFAULT 14 _ZN7android10frameworks13
310:   FUNC GLOBAL DEFAULT 14 _ZN7android10frameworks13
311:   FUNC GLOBAL DEFAULT 14 _ZN7android10frameworks13
312:   OBJECT GLOBAL DEFAULT 18 _ZTTN7android10frameworks
313:   FUNC GLOBAL DEFAULT 14 _ZN7android10frameworks13
314:   FUNC GLOBAL DEFAULT 14 _ZN7android10frameworks13
315:   FUNC GLOBAL DEFAULT 14 _ZN7android10frameworks13
316:   FUNC GLOBAL DEFAULT 14 _ZN7android10frameworks13
317:   FUNC GLOBAL DEFAULT 14 _ZN7android10frameworks13
318:   FUNC GLOBAL DEFAULT 14 _ZN7android10frameworks13
319:   FUNC GLOBAL DEFAULT 14 _ZN7android10frameworks13
320:   FUNC GLOBAL DEFAULT 14 _ZN7android10frameworks13
321:   OBJECT WEAK DEFAULT 18 _ZTCN7android10frameworks
322:   FUNC GLOBAL DEFAULT 14 _ZN7android10frameworks13
323:   FUNC GLOBAL DEFAULT 14 _ZN7android10frameworks13
324:   FUNC WEAK DEFAULT 14 _ZN7android8hardware7deta
325:   FUNC GLOBAL DEFAULT 14 _ZN7android10frameworks13
326:   FUNC GLOBAL DEFAULT 14 _ZN7android10frameworks13
327:   FUNC GLOBAL DEFAULT 14 _ZN7android10frameworks13
328:   FUNC WEAK DEFAULT 14 _ZN7android8hardware7deta
329:   FUNC GLOBAL DEFAULT 14 _ZN7android10frameworks13
330:   FUNC GLOBAL DEFAULT 14 _ZN7android10frameworks13
331:   FUNC GLOBAL DEFAULT 14 _ZN7android10frameworks13
332:   FUNC GLOBAL DEFAULT 14 _ZN7android10frameworks13
333:   FUNC GLOBAL DEFAULT 14 _ZN7android10frameworks13
334:   FUNC GLOBAL DEFAULT 14 _ZN7android10frameworks13
335:   OBJECT GLOBAL DEFAULT 18 _ZTCN7android10frameworks
336:   FUNC WEAK DEFAULT 14 _ZNSt3__16__treeINS_12__v
337:   FUNC GLOBAL DEFAULT 14 _ZN7android10frameworks13
338:   FUNC GLOBAL DEFAULT 14 _ZN7android10frameworks13
339:   FUNC GLOBAL DEFAULT 14 _ZN7android10frameworks13
340:   FUNC GLOBAL DEFAULT 14 _ZN7android10frameworks13
341:   OBJECT GLOBAL DEFAULT 18 _ZTVN7android10frameworks
342:   FUNC GLOBAL DEFAULT 14 _ZN7android10frameworks13
343:   FUNC GLOBAL DEFAULT 14 _ZN7android10frameworks13
344:   FUNC GLOBAL DEFAULT 14 _ZN7android10frameworks13
345:   FUNC WEAK DEFAULT 14 _ZNSt3__127__tree_balance
346:   FUNC GLOBAL DEFAULT 14 _ZN7android10frameworks13
347:   FUNC GLOBAL DEFAULT 14 _ZN7android10frameworks13
348:   FUNC GLOBAL DEFAULT 14 _ZN7android10frameworks13
349:   FUNC GLOBAL DEFAULT 14 _ZN7android10frameworks13
350:   FUNC GLOBAL DEFAULT 14 _ZN7android10frameworks13
351:   FUNC GLOBAL DEFAULT 14 _ZN7android10frameworks13
352:   OBJECT GLOBAL DEFAULT 18 _ZTCN7android10frameworks
353:   FUNC GLOBAL DEFAULT 14 _ZN7android10frameworks13
354:   FUNC GLOBAL DEFAULT 14 _ZN7android10frameworks13
355:   FUNC GLOBAL DEFAULT 14 _ZN7android10frameworks13
356:   FUNC GLOBAL DEFAULT 14 _ZNK7android10frameworks1
357:   FUNC GLOBAL DEFAULT 14 _ZN7android10frameworks13
358:   FUNC GLOBAL DEFAULT 14 _ZThn32_N7android10framew
359:   FUNC GLOBAL DEFAULT 14 _ZN7android10frameworks13
360:   FUNC GLOBAL DEFAULT 14 _ZN7android10frameworks13
361:   FUNC GLOBAL DEFAULT 14 _ZN7android10frameworks13
362:   FUNC GLOBAL DEFAULT 14 _ZN7android10frameworks13
363:   FUNC GLOBAL DEFAULT 14 _ZN7android10frameworks13
364:   OBJECT GLOBAL DEFAULT 18 _ZTCN7android10frameworks
365:   FUNC GLOBAL DEFAULT 14 _ZN7android10frameworks13
366:   FUNC GLOBAL DEFAULT 14 _ZN7android10frameworks13
367:   FUNC GLOBAL DEFAULT 14 _ZN7android10frameworks13
368:   FUNC GLOBAL DEFAULT 14 _ZN7android10frameworks13
369:   FUNC GLOBAL DEFAULT 14 _ZN7android10frameworks13
370:   FUNC GLOBAL DEFAULT 14 _ZN7android10frameworks13
371:   FUNC GLOBAL DEFAULT 14 _ZN7android10frameworks13
372:   FUNC GLOBAL DEFAULT 14 _ZN7android10frameworks13
373:   FUNC GLOBAL DEFAULT 14 _ZN7android10frameworks13
374:   FUNC GLOBAL DEFAULT 14 _ZN7android10frameworks13
375:   OBJECT GLOBAL DEFAULT 18 _ZTCN7android10frameworks
376:   FUNC GLOBAL DEFAULT 14 _ZThn32_N7android10framew
377:   FUNC GLOBAL DEFAULT 14 _ZN7android10frameworks13
378:   FUNC GLOBAL DEFAULT 14 _ZN7android10frameworks13
379:   FUNC GLOBAL DEFAULT 14 _ZN7android10frameworks13
380:   OBJECT GLOBAL DEFAULT 18 _ZTCN7android10frameworks
381:   OBJECT GLOBAL DEFAULT 18 _ZTCN7android10frameworks
382:   FUNC GLOBAL DEFAULT 14 _ZN7android10frameworks13
383:   FUNC GLOBAL DEFAULT 14 _ZN7android10frameworks13
384:   FUNC WEAK DEFAULT 14 _ZN7android8hardware7deta
385:   OBJECT GLOBAL DEFAULT 18 _ZTCN7android10frameworks
386:   OBJECT GLOBAL DEFAULT 16 _ZN7android10frameworks13
387:   FUNC GLOBAL DEFAULT 14 _ZN7android10frameworks13
388:   FUNC GLOBAL DEFAULT 14 _ZN7android10frameworks13
389:   FUNC GLOBAL DEFAULT 14 _ZN7android10frameworks13
390:   FUNC GLOBAL DEFAULT 14 _ZN7android10frameworks13
391:   FUNC WEAK DEFAULT 14 _ZNSt3__16vectorIPvNS_9al
392:   FUNC GLOBAL DEFAULT 14 _ZN7android10frameworks13
393:   FUNC GLOBAL DEFAULT 14 _ZN7android10frameworks13
394:   FUNC GLOBAL DEFAULT 14 _ZN7android10frameworks13
395:   FUNC GLOBAL DEFAULT 14 _ZN7android10frameworks13
396:   FUNC GLOBAL DEFAULT 14 _ZN7android10frameworks13
397:   FUNC GLOBAL DEFAULT 14 _ZN7android10frameworks13
398:   OBJECT GLOBAL DEFAULT 18 _ZTCN7android10frameworks
399:   FUNC GLOBAL DEFAULT 14 _ZNK7android10frameworks1
