 0x000000000000000e (SONAME)             Library soname: [libdumpstateutil.so]
  
Symbol   contains 107 entries:
Num:   Type Bind Vis Ndx Name
0:   NOTYPE LOCAL DEFAULT UND
1:   FUNC GLOBAL DEFAULT UND __cxa_finalize@LIBC (2)
2:   FUNC GLOBAL DEFAULT UND __cxa_atexit@LIBC (2)
3:   FUNC GLOBAL DEFAULT UND _ZN7android4base10WriteFu
4:   FUNC GLOBAL DEFAULT UND _ZNKSt3__120__vector_base
5:   FUNC GLOBAL DEFAULT UND _ZNSt3__112basic_stringIc
6:   FUNC GLOBAL DEFAULT UND _ZdlPv
7:   FUNC GLOBAL DEFAULT UND _Znwm
8:   FUNC GLOBAL DEFAULT UND __android_log_print@LIBLOG (3)
9:   FUNC GLOBAL DEFAULT UND __cxa_guard_acquire
10:   FUNC GLOBAL DEFAULT UND __cxa_guard_release
11:   FUNC GLOBAL DEFAULT UND __errno@LIBC (2)
12:   FUNC GLOBAL DEFAULT UND __poll_chk@LIBC (2)
13:   FUNC GLOBAL DEFAULT UND __read_chk@LIBC (2)
14:   FUNC GLOBAL DEFAULT UND __stack_chk_fail@LIBC (2)
15:   FUNC GLOBAL DEFAULT UND capget@LIBC (2)
16:   FUNC GLOBAL DEFAULT UND capset@LIBC (2)
17:   FUNC GLOBAL DEFAULT UND clock_gettime@LIBC (2)
18:   FUNC GLOBAL DEFAULT UND dprintf@LIBC (2)
19:   FUNC GLOBAL DEFAULT UND fprintf@LIBC (2)
20:   FUNC GLOBAL DEFAULT UND fstat@LIBC (2)
21:   FUNC GLOBAL DEFAULT UND fsync@LIBC (2)
22:   FUNC GLOBAL DEFAULT UND fwrite@LIBC (2)
23:   FUNC GLOBAL DEFAULT UND getgid@LIBC (2)
24:   FUNC GLOBAL DEFAULT UND getgrnam@LIBC (2)
25:   FUNC GLOBAL DEFAULT UND getpwnam@LIBC (2)
26:   FUNC GLOBAL DEFAULT UND getuid@LIBC (2)
27:   FUNC GLOBAL DEFAULT UND localtime@LIBC (2)
28:   FUNC GLOBAL DEFAULT UND memcmp@LIBC (2)
29:   FUNC GLOBAL DEFAULT UND prctl@LIBC (2)
30:   FUNC GLOBAL DEFAULT UND setgid@LIBC (2)
31:   FUNC GLOBAL DEFAULT UND setgroups@LIBC (2)
32:   FUNC GLOBAL DEFAULT UND setuid@LIBC (2)
33:   OBJECT GLOBAL DEFAULT UND stderr@LIBC (2)
34:   FUNC GLOBAL DEFAULT UND strerror@LIBC (2)
35:   FUNC GLOBAL DEFAULT UND strftime@LIBC (2)
36:   FUNC GLOBAL DEFAULT UND strlen@LIBC (2)
37:   FUNC GLOBAL DEFAULT UND _ZN7android4base11GetProp
38:   FUNC GLOBAL DEFAULT UND _ZN7android4base15GetBool
39:   FUNC GLOBAL DEFAULT UND _ZN7android4base16ReadFil
40:   FUNC GLOBAL DEFAULT UND _ZNKSt3__112basic_stringI
41:   FUNC GLOBAL DEFAULT UND _ZNKSt3__121__basic_strin
42:   FUNC GLOBAL DEFAULT UND _ZNSt3__112basic_stringIc
43:   FUNC GLOBAL DEFAULT UND _ZNSt3__112basic_stringIc
44:   FUNC GLOBAL DEFAULT UND _ZNSt3__112basic_stringIc
45:   FUNC GLOBAL DEFAULT UND _ZNSt3__112basic_stringIc
46:   FUNC GLOBAL DEFAULT UND __open_2@LIBC (2)
47:   FUNC GLOBAL DEFAULT UND _exit@LIBC (2)
48:   FUNC GLOBAL DEFAULT UND abort@LIBC (2)
49:   FUNC WEAK DEFAULT UND android_fdsan_close_with_@LIBC_Q (4)
50:   FUNC WEAK DEFAULT UND android_fdsan_create_owne@LIBC_Q (4)
51:   FUNC WEAK DEFAULT UND android_fdsan_exchange_ow@LIBC_Q (4)
52:   FUNC GLOBAL DEFAULT UND atoi@LIBC (2)
53:   FUNC GLOBAL DEFAULT UND close@LIBC (2)
54:   FUNC GLOBAL DEFAULT UND closedir@LIBC (2)
55:   FUNC GLOBAL DEFAULT UND dup2@LIBC (2)
56:   FUNC GLOBAL DEFAULT UND execvp@LIBC (2)
57:   FUNC GLOBAL DEFAULT UND fork@LIBC (2)
58:   FUNC GLOBAL DEFAULT UND kill@LIBC (2)
59:   FUNC GLOBAL DEFAULT UND memchr@LIBC (2)
60:   FUNC GLOBAL DEFAULT UND memcpy@LIBC (2)
61:   FUNC GLOBAL DEFAULT UND memset@LIBC (2)
62:   FUNC GLOBAL DEFAULT UND opendir@LIBC (2)
63:   FUNC GLOBAL DEFAULT UND printf@LIBC (2)
64:   FUNC GLOBAL DEFAULT UND readdir@LIBC (2)
65:   FUNC GLOBAL DEFAULT UND sigaction@LIBC (2)
66:   FUNC GLOBAL DEFAULT UND sigaddset@LIBC (2)
67:   FUNC GLOBAL DEFAULT UND sigemptyset@LIBC (2)
68:   FUNC GLOBAL DEFAULT UND sigprocmask@LIBC (2)
69:   FUNC GLOBAL DEFAULT UND sigtimedwait@LIBC (2)
70:   FUNC GLOBAL DEFAULT UND waitpid@LIBC (2)
71:   FUNC GLOBAL DEFAULT 14 _Z8Nanotimev
72:   FUNC GLOBAL DEFAULT 14 _ZN7android2os9dumpstate1
73:   FUNC GLOBAL DEFAULT 14 _ZN7android2os9dumpstate1
74:   FUNC GLOBAL DEFAULT 14 _ZN7android2os9dumpstate1
75:   FUNC GLOBAL DEFAULT 14 _ZN7android2os9dumpstate1
76:   FUNC GLOBAL DEFAULT 14 _ZNK7android2os9dumpstate
77:   FUNC GLOBAL DEFAULT 14 _ZNK7android2os9dumpstate
78:   FUNC GLOBAL DEFAULT 14 _ZN7android2os9dumpstate1
79:   FUNC GLOBAL DEFAULT 14 _ZN7android2os9dumpstate1
80:   FUNC GLOBAL DEFAULT 14 _ZN7android2os9dumpstate1
81:   OBJECT GLOBAL DEFAULT 22 _ZN7android2os9dumpstate1
82:   OBJECT GLOBAL DEFAULT 16 _ZN7android2os9dumpstate1
83:   FUNC GLOBAL DEFAULT 14 _ZN7android2os9dumpstate1
84:   FUNC GLOBAL DEFAULT 14 _ZN7android2os9dumpstate1
85:   FUNC WEAK DEFAULT 14 _ZNSt3__16vectorIPKcNS_9a
86:   FUNC GLOBAL DEFAULT 14 _ZN7android2os9dumpstate1
87:   FUNC GLOBAL DEFAULT 14 _ZN7android2os9dumpstate1
88:   FUNC GLOBAL DEFAULT 14 _ZN7android2os9dumpstate1
89:   OBJECT GLOBAL DEFAULT 22 _ZN7android2os9dumpstate1
90:   OBJECT GLOBAL DEFAULT 16 _ZN7android2os9dumpstate1
91:   FUNC GLOBAL DEFAULT 14 _ZN7android2os9dumpstate1
92:   FUNC GLOBAL DEFAULT 14 _ZN7android2os9dumpstate1
93:   FUNC GLOBAL DEFAULT 14 _ZN7android2os9dumpstate1
94:   FUNC GLOBAL DEFAULT 14 _ZN7android2os9dumpstate1
95:   FUNC GLOBAL DEFAULT 14 _ZNK7android2os9dumpstate
96:   FUNC GLOBAL DEFAULT 14 _ZN7android2os9dumpstate1
97:   FUNC GLOBAL DEFAULT 14 _ZNK7android2os9dumpstate
98:   OBJECT GLOBAL DEFAULT 22 _ZN7android2os9dumpstate1
99:   FUNC GLOBAL DEFAULT 14 _ZN7android2os9dumpstate1
100:   FUNC GLOBAL DEFAULT 14 _ZNK7android2os9dumpstate
101:   FUNC GLOBAL DEFAULT 14 _ZNK7android2os9dumpstate
102:   FUNC GLOBAL DEFAULT 14 _Z12DropRootUserv
103:   FUNC GLOBAL DEFAULT 14 _Z18DumpFileFromFdToFdRKN
104:   FUNC GLOBAL DEFAULT 14 _ZN7android2os9dumpstate1
105:   FUNC GLOBAL DEFAULT 14 _ZN7android2os9dumpstate1
106:   FUNC GLOBAL DEFAULT 14 _ZN7android2os9dumpstate1
