 0x000000000000000e (SONAME)             Library soname: [libminikin.so]
  
Symbol   contains 342 entries:
Num:   Type Bind Vis Ndx Name
0:   NOTYPE LOCAL DEFAULT UND
1:   FUNC GLOBAL DEFAULT UND __cxa_finalize@LIBC (2)
2:   FUNC GLOBAL DEFAULT UND __cxa_atexit@LIBC (2)
3:   FUNC GLOBAL DEFAULT UND __android_log_assert@LIBLOG (3)
4:   FUNC GLOBAL DEFAULT UND __android_log_print@LIBLOG (3)
5:   FUNC GLOBAL DEFAULT UND __stack_chk_fail@LIBC (2)
6:   FUNC GLOBAL DEFAULT UND ubidi_close_android@LIBANDROIDICU_EXTERNAL_1 (4)
7:   FUNC GLOBAL DEFAULT UND ubidi_countRuns_android@LIBANDROIDICU_EXTERNAL_1 (4)
8:   FUNC GLOBAL DEFAULT UND ubidi_getParaLevel_androi@LIBANDROIDICU_EXTERNAL_1 (4)
9:   FUNC GLOBAL DEFAULT UND ubidi_getVisualRun_androi@LIBANDROIDICU_EXTERNAL_1 (4)
10:   FUNC GLOBAL DEFAULT UND ubidi_open_android@LIBANDROIDICU_EXTERNAL_1 (4)
11:   FUNC GLOBAL DEFAULT UND ubidi_setClassCallback_an@LIBANDROIDICU_EXTERNAL_1 (4)
12:   FUNC GLOBAL DEFAULT UND ubidi_setPara_android@LIBANDROIDICU_EXTERNAL_1 (4)
13:   FUNC GLOBAL DEFAULT UND _ZNKSt3__120__vector_base
14:   FUNC GLOBAL DEFAULT UND _ZdaPv
15:   FUNC GLOBAL DEFAULT UND _ZdlPv
16:   FUNC GLOBAL DEFAULT UND _Znwm
17:   FUNC GLOBAL DEFAULT UND __android_log_error_write@LIBLOG_M (5)
18:   FUNC GLOBAL DEFAULT UND abort@LIBC (2)
19:   FUNC GLOBAL DEFAULT UND memcpy@LIBC (2)
20:   FUNC GLOBAL DEFAULT UND u_charDirection_android@LIBANDROIDICU_EXTERNAL_1 (4)
21:   FUNC GLOBAL DEFAULT UND u_hasBinaryProperty_andro@LIBANDROIDICU_EXTERNAL_1 (4)
22:   FUNC GLOBAL DEFAULT UND _ZNKSt3__119__shared_weak
23:   FUNC GLOBAL DEFAULT UND _ZNSt3__112__next_primeEm
24:   FUNC GLOBAL DEFAULT UND _ZNSt3__119__shared_weak_
25:   FUNC GLOBAL DEFAULT UND _ZNSt3__119__shared_weak_
26:   FUNC GLOBAL DEFAULT UND _ZNSt3__15mutexD1Ev
27:   FUNC GLOBAL DEFAULT UND __cxa_guard_acquire
28:   FUNC GLOBAL DEFAULT UND __cxa_guard_release
29:   FUNC GLOBAL DEFAULT UND u_charType_android@LIBANDROIDICU_EXTERNAL_1 (4)
30:   FUNC GLOBAL DEFAULT UND unorm2_getNFDInstance_and@LIBANDROIDICU_EXTERNAL_1 (4)
31:   FUNC GLOBAL DEFAULT UND unorm2_getRawDecompositio@LIBANDROIDICU_EXTERNAL_1 (4)
32:   FUNC GLOBAL DEFAULT UND hb_blob_create
33:   FUNC GLOBAL DEFAULT UND hb_blob_destroy
34:   FUNC GLOBAL DEFAULT UND hb_blob_get_data
35:   FUNC GLOBAL DEFAULT UND hb_blob_get_length
36:   FUNC GLOBAL DEFAULT UND hb_face_create
37:   FUNC GLOBAL DEFAULT UND hb_face_destroy
38:   FUNC GLOBAL DEFAULT UND hb_face_get_upem
39:   FUNC GLOBAL DEFAULT UND hb_face_reference_table
40:   FUNC GLOBAL DEFAULT UND hb_font_create
41:   FUNC GLOBAL DEFAULT UND hb_font_create_sub_font
42:   FUNC GLOBAL DEFAULT UND hb_font_destroy
43:   FUNC GLOBAL DEFAULT UND hb_font_get_face
44:   FUNC GLOBAL DEFAULT UND hb_font_set_scale
45:   FUNC GLOBAL DEFAULT UND hb_font_set_variations
46:   FUNC GLOBAL DEFAULT UND hb_ot_font_set_funcs
47:   FUNC GLOBAL DEFAULT UND u_getIntPropertyValue_and@LIBANDROIDICU_EXTERNAL_1 (4)
48:   FUNC GLOBAL DEFAULT UND ubrk_close_android@LIBANDROIDICU_EXTERNAL_1 (4)
49:   FUNC GLOBAL DEFAULT UND _ZNKSt3__112basic_stringI
50:   FUNC GLOBAL DEFAULT UND uscript_getScript_android@LIBANDROIDICU_EXTERNAL_1 (4)
51:   FUNC GLOBAL DEFAULT UND _ZNKSt3__121__basic_strin
52:   FUNC GLOBAL DEFAULT UND _ZNSt3__15mutex4lockEv
53:   FUNC GLOBAL DEFAULT UND _ZNSt3__15mutex6unlockEv
54:   FUNC GLOBAL DEFAULT UND strlen@LIBC (2)
55:   FUNC GLOBAL DEFAULT UND _Znam
56:   FUNC GLOBAL DEFAULT UND dprintf@LIBC (2)
57:   FUNC GLOBAL DEFAULT UND memcmp@LIBC (2)
58:   FUNC GLOBAL DEFAULT UND _ZNSt3__111__call_onceERV
59:   FUNC GLOBAL DEFAULT UND hb_buffer_add
60:   FUNC GLOBAL DEFAULT UND hb_buffer_add_utf16
61:   FUNC GLOBAL DEFAULT UND hb_buffer_clear_contents
62:   FUNC GLOBAL DEFAULT UND hb_buffer_create
63:   FUNC GLOBAL DEFAULT UND hb_buffer_destroy
64:   FUNC GLOBAL DEFAULT UND hb_buffer_get_glyph_infos
65:   FUNC GLOBAL DEFAULT UND hb_buffer_get_glyph_posit
66:   FUNC GLOBAL DEFAULT UND hb_buffer_set_direction
67:   FUNC GLOBAL DEFAULT UND hb_buffer_set_language
68:   FUNC GLOBAL DEFAULT UND hb_buffer_set_script
69:   FUNC GLOBAL DEFAULT UND hb_feature_from_string
70:   FUNC GLOBAL DEFAULT UND hb_font_funcs_create
71:   FUNC GLOBAL DEFAULT UND hb_font_funcs_make_immuta
72:   FUNC GLOBAL DEFAULT UND hb_font_funcs_set_glyph_h
73:   FUNC GLOBAL DEFAULT UND hb_font_funcs_set_glyph_h
74:   FUNC GLOBAL DEFAULT UND hb_font_funcs_set_glyph_h
75:   FUNC GLOBAL DEFAULT UND hb_font_get_glyph_extents
76:   FUNC GLOBAL DEFAULT UND hb_font_get_nominal_glyph
77:   FUNC GLOBAL DEFAULT UND hb_font_set_funcs
78:   FUNC GLOBAL DEFAULT UND hb_font_set_ppem
79:   FUNC GLOBAL DEFAULT UND hb_shape
80:   FUNC GLOBAL DEFAULT UND hb_unicode_funcs_get_defa
81:   FUNC GLOBAL DEFAULT UND hb_unicode_script
82:   FUNC GLOBAL DEFAULT UND memchr@LIBC (2)
83:   FUNC GLOBAL DEFAULT UND memset@LIBC (2)
84:   FUNC GLOBAL DEFAULT UND scalbnf@LIBC (6)
85:   FUNC GLOBAL DEFAULT UND memmove@LIBC (2)
86:   FUNC GLOBAL DEFAULT UND __strlen_chk@LIBC (2)
87:   FUNC GLOBAL DEFAULT UND hb_language_from_string
88:   FUNC GLOBAL DEFAULT UND strncmp@LIBC (2)
89:   FUNC GLOBAL DEFAULT UND _ZNSt3__112basic_stringIc
90:   FUNC GLOBAL DEFAULT UND u_errorName_android@LIBANDROIDICU_EXTERNAL_1 (4)
91:   FUNC GLOBAL DEFAULT UND uloc_addLikelySubtags_and@LIBANDROIDICU_EXTERNAL_1 (4)
92:   FUNC GLOBAL DEFAULT UND uloc_canonicalize_android@LIBANDROIDICU_EXTERNAL_1 (4)
93:   FUNC GLOBAL DEFAULT UND uloc_toLanguageTag_androi@LIBANDROIDICU_EXTERNAL_1 (4)
94:   FUNC GLOBAL DEFAULT UND ubrk_following_android@LIBANDROIDICU_EXTERNAL_1 (4)
95:   FUNC GLOBAL DEFAULT UND ubrk_isBoundary_android@LIBANDROIDICU_EXTERNAL_1 (4)
96:   FUNC GLOBAL DEFAULT UND ubrk_next_android@LIBANDROIDICU_EXTERNAL_1 (4)
97:   FUNC GLOBAL DEFAULT UND ubrk_open_android@LIBANDROIDICU_EXTERNAL_1 (4)
98:   FUNC GLOBAL DEFAULT UND ubrk_setUText_android@LIBANDROIDICU_EXTERNAL_1 (4)
99:   FUNC GLOBAL DEFAULT UND uloc_forLanguageTag_andro@LIBANDROIDICU_EXTERNAL_1 (4)
100:   FUNC GLOBAL DEFAULT UND utext_close_android@LIBANDROIDICU_EXTERNAL_1 (4)
101:   FUNC GLOBAL DEFAULT UND utext_openUChars_android@LIBANDROIDICU_EXTERNAL_1 (4)
102:   FUNC WEAK DEFAULT UND android_set_abort_message@LIBC (2)
103:   FUNC GLOBAL DEFAULT UND write@LIBC (2)
104:   FUNC WEAK DEFAULT 14 _ZNSt3__112__hash_tableIP
105:   FUNC GLOBAL DEFAULT 14 _ZN7minikin12MeasuredText
106:   FUNC GLOBAL DEFAULT 14 _ZN7minikin13getRunAdvanc
107:   FUNC GLOBAL DEFAULT 14 _ZNK7minikin14FontCollect
108:   FUNC WEAK DEFAULT 14 _ZN7android8LruCacheIN7mi
109:   FUNC WEAK DEFAULT 14 _ZNSt3__112__hash_tableIN
110:   FUNC GLOBAL DEFAULT 14 _ZNK7minikin14FontCollect
111:   FUNC GLOBAL DEFAULT 14 _ZN7minikin6Locale21scrip
112:   FUNC GLOBAL DEFAULT 14 _ZN7minikin17emojiBidiOve
113:   FUNC WEAK DEFAULT 14 _ZNSt3__112__hash_tableIN
114:   FUNC WEAK DEFAULT 14 _ZNSt3__120__shared_ptr_p
115:   FUNC WEAK DEFAULT 14 _ZNSt3__16vectorI14hb_var
116:   FUNC WEAK DEFAULT 14 _ZNSt3__112__hash_tableIN
117:   FUNC GLOBAL DEFAULT 14 _ZNK7minikin8StyleRun12ap
118:   FUNC GLOBAL DEFAULT 14 _ZN7minikin16getTablePrio
119:   FUNC WEAK DEFAULT 14 _ZNSt3__16__treeINS_12__v
120:   FUNC GLOBAL DEFAULT 14 _ZN7minikin6Layout17doLay
121:   OBJECT GLOBAL DEFAULT 11 _ZN7minikin15LocaleListCa
122:   FUNC WEAK DEFAULT 14 _ZNSt3__112__hash_tableIN
123:   OBJECT WEAK DEFAULT 18 _ZTVNSt3__120__shared_ptr
124:   FUNC GLOBAL DEFAULT 14 _ZNK7minikin10Hyphenator1
125:   FUNC GLOBAL DEFAULT 14 _ZN7minikin11isWordSpaceE
126:   FUNC GLOBAL DEFAULT 14 _ZN7minikin12MeasuredText
127:   FUNC WEAK DEFAULT 14 _ZNSt3__112__hash_tableIN
128:   FUNC GLOBAL DEFAULT 14 _ZN7minikin11WordBreaker1
129:   FUNC GLOBAL DEFAULT 14 _ZN7minikin12SparseBitSet
130:   FUNC GLOBAL DEFAULT 14 _ZN7minikin16breakLineOpt
131:   FUNC WEAK DEFAULT 14 _ZNSt3__112__hash_tableIj
132:   FUNC WEAK DEFAULT 14 _ZN7android8LruCacheIN7mi
133:   FUNC WEAK DEFAULT 14 _ZNSt3__16vectorIN7miniki
134:   FUNC WEAK DEFAULT 14 _ZNSt3__16vectorINS_10uni
135:   FUNC GLOBAL DEFAULT 14 _ZN7minikin6Layout16dumpM
136:   FUNC GLOBAL DEFAULT 14 _ZN7minikin6Locale17resol
137:   FUNC WEAK DEFAULT 14 _ZNSt3__16vectorIN7miniki
138:   FUNC WEAK DEFAULT 14 _ZNSt3__16vectorIN7miniki
139:   FUNC GLOBAL DEFAULT 14 _ZN7minikin15isEmojiModif
140:   FUNC GLOBAL DEFAULT 14 _ZN7minikin10FontFamilyC2
141:   FUNC WEAK DEFAULT 14 _ZNSt3__16vectorIN7miniki
142:   FUNC GLOBAL DEFAULT 14 _ZN7minikin6Locale18scrip
143:   FUNC GLOBAL DEFAULT 14 _ZNK7minikin6Locale9getSt
144:   FUNC GLOBAL DEFAULT 14 _ZNK7minikin8StyleRun18me
145:   FUNC GLOBAL DEFAULT 14 _ZN7minikin14FontCollecti
146:   FUNC GLOBAL DEFAULT 14 _ZN7minikin14FontCollecti
147:   FUNC GLOBAL DEFAULT 14 _ZN7minikin10HyphenatorC2
148:   FUNC WEAK DEFAULT 14 _ZNSt3__112__hash_tableIP
149:   FUNC WEAK DEFAULT 14 _ZNSt3__16vectorIfNS_9all
150:   FUNC GLOBAL DEFAULT 14 _ZN7minikin8BidiTextC2ERK
151:   FUNC GLOBAL DEFAULT 14 _ZN7minikin11isEmojiBaseE
152:   FUNC GLOBAL DEFAULT 14 _ZNK7minikin11WordBreaker
153:   FUNC GLOBAL DEFAULT 14 _ZN7minikin10LocaleListC2
154:   FUNC WEAK DEFAULT 14 _ZNKSt3__112__hash_tableI
155:   FUNC GLOBAL DEFAULT 14 _ZN7minikin12SparseBitSet
156:   FUNC GLOBAL DEFAULT 14 _ZN7minikin12SparseBitSet
157:   FUNC GLOBAL DEFAULT 14 _ZN7minikin13HyphenatorMa
158:   FUNC GLOBAL DEFAULT 14 _ZN7minikin18addHyphenato
159:   FUNC WEAK DEFAULT 14 _ZNSt3__16vectorIN7miniki
160:   FUNC WEAK DEFAULT 14 _ZNSt3__112__hash_tableIN
161:   FUNC WEAK DEFAULT 14 _ZNSt3__16vectorIjNS_9all
162:   FUNC GLOBAL DEFAULT 14 _ZN7minikin10FontFamilyC1
163:   FUNC GLOBAL DEFAULT 14 _ZN7minikin10Hyphenator10
164:   FUNC GLOBAL DEFAULT 14 _ZNK7minikin13HyphenatorM
165:   FUNC GLOBAL DEFAULT 14 _ZN7minikin15LocaleListCa
166:   FUNC GLOBAL DEFAULT 14 _ZN7minikin11WordBreakerC
167:   FUNC GLOBAL DEFAULT 14 _ZNK7minikin11WordBreaker
168:   OBJECT GLOBAL DEFAULT 18 _ZTVN7minikin22ICULineBre
169:   FUNC GLOBAL DEFAULT 14 _ZN7minikin11analyzeAxesE
170:   FUNC GLOBAL DEFAULT 14 _ZNK7minikin10Hyphenator9
171:   FUNC WEAK DEFAULT 14 _ZNSt3__127__tree_balance
172:   FUNC WEAK DEFAULT 14 _ZNSt3__16vectorIPK18hb_l
173:   FUNC WEAK DEFAULT 14 _ZNSt3__16vectorIN7miniki
174:   FUNC WEAK DEFAULT 14 _ZNSt3__16__treeINS_12__v
175:   FUNC GLOBAL DEFAULT 14 _ZNK7minikin13HyphenatorM
176:   FUNC WEAK DEFAULT 14 _ZNSt3__16vectorI12hb_fea
177:   FUNC WEAK DEFAULT 14 _ZNSt3__16vectorIfNS_9all
178:   FUNC WEAK DEFAULT 14 _ZNSt3__16vectorIN7miniki
179:   FUNC GLOBAL DEFAULT 14 _ZNK7minikin11SystemFonts
180:   FUNC GLOBAL DEFAULT 14 _ZN7minikin19isVariationS
181:   FUNC GLOBAL DEFAULT 14 _ZN7minikin28tailoredGrap
182:   FUNC WEAK DEFAULT 14 _ZNSt3__16vectorIfNS_9all
183:   FUNC WEAK DEFAULT 14 _ZNSt3__16vectorIfNS_9all
184:   FUNC GLOBAL DEFAULT 14 _ZN7minikin10FontFamilyC1
185:   FUNC GLOBAL DEFAULT 14 _ZNK7minikin4Font16getSup
186:   FUNC GLOBAL DEFAULT 14 _ZN7minikin11WordBreaker4
187:   FUNC GLOBAL DEFAULT 14 _ZN7minikin11LayoutPieceC
188:   FUNC GLOBAL DEFAULT 14 _ZN7minikin10LocaleListC1
189:   FUNC GLOBAL DEFAULT 14 _ZN7minikin15LocaleListCa
190:   FUNC GLOBAL DEFAULT 14 _ZNK7minikin14FontCollect
191:   FUNC WEAK DEFAULT 14 _ZNSt3__16vectorIhNS_9all
192:   FUNC GLOBAL DEFAULT 14 _ZNK7minikin6Locale16supp
193:   FUNC WEAK DEFAULT 14 _ZNSt3__112__hash_tableIN
194:   FUNC GLOBAL DEFAULT 14 _ZN7minikin14FontCollecti
195:   FUNC GLOBAL DEFAULT 14 _ZN7minikin14FontCollecti
196:   FUNC GLOBAL DEFAULT 14 _ZN7minikin10FontFamilyC2
197:   FUNC WEAK DEFAULT 14 _ZNSt3__112__hash_tableIP
198:   OBJECT WEAK DEFAULT 18 _ZTVN7android8LruCacheIN7
199:   FUNC GLOBAL DEFAULT 14 _ZN7minikin11WordBreaker1
200:   FUNC GLOBAL DEFAULT 14 _ZN7minikin9hyphenateERKN
201:   FUNC GLOBAL DEFAULT 14 _ZNK7minikin6Locale16getP
202:   FUNC WEAK DEFAULT 14 _ZNSt3__16vectorINS_10uni
203:   FUNC WEAK DEFAULT 14 _ZNSt3__16vectorIN7miniki
204:   FUNC WEAK DEFAULT 14 _ZNSt3__112__hash_tableIN
205:   FUNC GLOBAL DEFAULT 14 _ZN7minikin10FontFamily15
206:   OBJECT WEAK DEFAULT 18 _ZTVN7minikin11LayoutCach
207:   FUNC GLOBAL DEFAULT 14 _ZN7minikin6Locale23resol
208:   FUNC GLOBAL DEFAULT 14 _ZN7minikin11WordBreakerC
209:   FUNC GLOBAL DEFAULT 14 _ZN7minikin14FontCollecti
210:   FUNC WEAK DEFAULT 14 _ZNSt3__16vectorIN7miniki
211:   FUNC GLOBAL DEFAULT 14 _ZN7minikin8BidiTextC1ERK
212:   FUNC WEAK DEFAULT 14 _ZNSt3__16vectorIjNS_9all
213:   OBJECT WEAK DEFAULT 18 _ZTVNSt3__120__shared_ptr
214:   FUNC GLOBAL DEFAULT 14 _ZN7minikin13HyphenatorMa
215:   FUNC GLOBAL DEFAULT 14 _ZN7minikin6LocaleC1ERKNS
216:   FUNC GLOBAL DEFAULT 14 _ZN7minikin6Locale21resol
217:   FUNC WEAK DEFAULT 14 _ZNSt3__112__hash_tableIm
218:   FUNC WEAK DEFAULT 14 _ZNSt3__112__hash_tableIj
219:   OBJECT WEAK DEFAULT 18 _ZTVN7minikin11WordBreake
220:   OBJECT WEAK DEFAULT 22 _ZZN7minikin11LayoutCache
221:   FUNC WEAK DEFAULT 14 _ZNSt3__16vectorINS_10uni
222:   FUNC GLOBAL DEFAULT 14 _ZNK7minikin14FontCollect
223:   FUNC GLOBAL DEFAULT 14 _ZN7minikin12isPureKiller
224:   FUNC GLOBAL DEFAULT 14 _ZN7minikin11WordBreaker7
225:   FUNC GLOBAL DEFAULT 14 _ZN7minikin6Layout12appen
226:   OBJECT WEAK DEFAULT 18 _ZTVN7minikin11SystemFont
227:   FUNC GLOBAL DEFAULT 14 _ZN7minikin15LocaleListCa
228:   FUNC GLOBAL DEFAULT 14 _ZNK7minikin6Locale13isEq
229:   FUNC WEAK DEFAULT 14 _ZN7android8LruCacheIN7mi
230:   FUNC GLOBAL DEFAULT 14 _ZNK7minikin8StyleRun9get
231:   FUNC WEAK DEFAULT 14 _ZNSt3__112__hash_tableIN
232:   FUNC WEAK DEFAULT 14 _ZNSt3__112__hash_tableIN
233:   FUNC WEAK DEFAULT 14 _ZNKSt3__16__treeINS_12__
234:   FUNC WEAK DEFAULT 14 _ZNSt3__120__shared_ptr_p
235:   FUNC WEAK DEFAULT 14 _ZNSt3__16vectorINS_10sha
236:   FUNC WEAK DEFAULT 14 _ZNSt3__16vectorIhNS_9all
237:   FUNC WEAK DEFAULT 14 _ZNSt3__16vectorIjNS_9all
238:   FUNC WEAK DEFAULT 14 _ZNSt3__120__shared_ptr_p
239:   FUNC WEAK DEFAULT 14 _ZNSt3__16vectorIN7miniki
240:   OBJECT WEAK DEFAULT 22 _ZGVZN7minikin22ICULineBr
241:   FUNC GLOBAL DEFAULT 14 _ZN7minikin11WordBreaker1
242:   FUNC GLOBAL DEFAULT 14 _ZNK7minikin6Locale12calc
243:   FUNC GLOBAL DEFAULT 14 _ZN7minikin13HyphenatorMa
244:   FUNC WEAK DEFAULT 14 _ZNSt3__16vectorIN7miniki
245:   FUNC WEAK DEFAULT 14 _ZNSt3__112__hash_tableIN
246:   FUNC GLOBAL DEFAULT 14 _ZN7minikin7isEmojiEj
247:   FUNC GLOBAL DEFAULT 14 _ZN7minikin14FontCollecti
248:   FUNC GLOBAL DEFAULT 14 _ZNK7minikin10FontFamily2
249:   FUNC GLOBAL DEFAULT 14 _ZNK7minikin12SparseBitSe
250:   FUNC GLOBAL DEFAULT 14 _ZN7minikin15editForThisL
251:   FUNC GLOBAL DEFAULT 14 _ZN7minikin13HyphenatorMa
252:   FUNC WEAK DEFAULT 14 _ZNSt3__16vectorIN7miniki
253:   FUNC GLOBAL DEFAULT 14 _ZN7minikin19getOffsetFor
254:   FUNC WEAK DEFAULT 14 _ZNSt3__16vectorIjNS_9all
255:   FUNC GLOBAL DEFAULT 14 _ZNK7minikin10FontFamily1
256:   FUNC GLOBAL DEFAULT 14 _ZN7minikin18registerLoca
257:   FUNC GLOBAL DEFAULT 14 _ZN7minikin10getVsIndexEj
258:   OBJECT WEAK DEFAULT 22 _ZGVZN7minikin15LocaleLis
259:   FUNC GLOBAL DEFAULT 14 _ZNK7minikin14FontCollect
260:   FUNC GLOBAL DEFAULT 14 _ZN7minikin24getPrevWordB
261:   FUNC GLOBAL DEFAULT 14 _ZNK7minikin11WordBreaker
262:   OBJECT WEAK DEFAULT 22 _ZZN7minikin22ICULineBrea
263:   FUNC WEAK DEFAULT 14 _ZN7android8LruCacheIN7mi
264:   FUNC GLOBAL DEFAULT 14 _ZN7minikin6Layout8doLayo
265:   FUNC GLOBAL DEFAULT 14 _ZN7minikin6Locale14suppo
266:   FUNC WEAK DEFAULT 14 _ZNSt3__112__hash_tableIm
267:   FUNC GLOBAL DEFAULT 14 _ZN7minikin10FontFamilyC1
268:   FUNC GLOBAL DEFAULT 14 _ZN7minikin4Font12analyze
269:   FUNC GLOBAL DEFAULT 14 _ZN7minikin13GraphemeBrea
270:   OBJECT WEAK DEFAULT 22 _ZZN7minikin13HyphenatorM
271:   FUNC GLOBAL DEFAULT 14 _ZN7minikin10isNewEmojiEj
272:   FUNC GLOBAL DEFAULT 14 _ZN7minikin14FontCollecti
273:   FUNC GLOBAL DEFAULT 14 _ZN7minikin11WordBreaker6
274:   FUNC WEAK DEFAULT 14 _ZNSt3__16vectorIPK18hb_l
275:   FUNC WEAK DEFAULT 14 _ZNSt3__112__hash_tableIm
276:   FUNC GLOBAL DEFAULT 14 _ZN7minikin11SystemFonts1
277:   FUNC GLOBAL DEFAULT 14 _ZN7minikin4Font11prepare
278:   FUNC WEAK DEFAULT 14 _ZNSt3__120__shared_ptr_p
279:   FUNC GLOBAL DEFAULT 14 _ZN7minikin11LayoutPieceC
280:   FUNC WEAK DEFAULT 14 _ZNSt3__16vectorIN7miniki
281:   FUNC GLOBAL DEFAULT 14 _ZN7minikin13HyphenatorMa
282:   OBJECT WEAK DEFAULT 18 _ZTVN7android8LruCacheIN7
283:   FUNC WEAK DEFAULT 14 _ZNSt3__114__split_buffer
284:   FUNC WEAK DEFAULT 14 _ZNSt3__16vectorIN7miniki
285:   FUNC GLOBAL DEFAULT 14 _ZN7minikin11WordBreakerC
286:   FUNC WEAK DEFAULT 14 _ZNSt3__16__treeINS_12__v
287:   FUNC GLOBAL DEFAULT 14 _ZNK7minikin10Hyphenator2
288:   OBJECT WEAK DEFAULT 22 _ZGVZN7minikin11LayoutCac
289:   FUNC GLOBAL DEFAULT 14 _ZNK7minikin12MeasuredTex
290:   FUNC GLOBAL DEFAULT 14 _ZNK7minikin8StyleRun9get
291:   FUNC WEAK DEFAULT 14 _ZNSt3__16vectorIN7miniki
292:   FUNC WEAK DEFAULT 14 _ZNSt3__16vectorI14hb_var
293:   FUNC GLOBAL DEFAULT 14 _ZN7minikin13HyphenatorMa
294:   FUNC GLOBAL DEFAULT 14 _ZN7minikin10HyphenatorC1
295:   FUNC GLOBAL DEFAULT 14 _ZN7minikin14FontCollecti
296:   FUNC GLOBAL DEFAULT 14 _ZN7minikin15LocaleListCa
297:   FUNC WEAK DEFAULT 14 _ZNSt3__16__treeINS_12__v
298:   FUNC GLOBAL DEFAULT 14 _ZN7minikin6Layout11purge
299:   FUNC GLOBAL DEFAULT 14 _ZN7minikin6LocaleC2ERKNS
300:   FUNC WEAK DEFAULT 14 _ZNSt3__16vectorIN7miniki
301:   FUNC GLOBAL DEFAULT 14 _ZN7minikin22ICULineBreak
302:   FUNC GLOBAL DEFAULT 14 _ZN7minikin10FontFamilyC2
303:   FUNC GLOBAL DEFAULT 14 _ZN7minikin14FontCollecti
304:   FUNC WEAK DEFAULT 14 _ZNSt3__112__hash_tableIj
305:   FUNC GLOBAL DEFAULT 14 _ZN7minikin12analyzeStyle
306:   FUNC GLOBAL DEFAULT 14 _ZN7minikin15editForNextL
307:   FUNC GLOBAL DEFAULT 14 _ZN7minikin10Hyphenator20
308:   FUNC WEAK DEFAULT 14 _ZNSt3__112__hash_tableIP
309:   OBJECT GLOBAL DEFAULT 18 _ZTVN7minikin8StyleRunE
310:   OBJECT GLOBAL DEFAULT 11 _ZN7minikin12SparseBitSet
311:   FUNC GLOBAL DEFAULT 14 _ZN7minikin12CmapCoverage
312:   FUNC GLOBAL DEFAULT 14 _ZN7minikin6Layout11measu
313:   OBJECT WEAK DEFAULT 18 _ZTVN7android8LruCacheIN7
314:   FUNC WEAK DEFAULT 14 _ZNSt3__16vectorIN7miniki
315:   FUNC GLOBAL DEFAULT 14 _ZNK7minikin8StyleRun10ge
316:   FUNC WEAK DEFAULT 14 _ZNSt3__112__hash_tableIN
317:   FUNC GLOBAL DEFAULT 14 _ZN7minikin22ICULineBreak
318:   FUNC WEAK DEFAULT 14 _ZNSt3__112__hash_tableIN
319:   FUNC GLOBAL DEFAULT 14 _ZNK7minikin8BidiText12ge
320:   FUNC GLOBAL DEFAULT 14 _ZN7minikin13addHyphenato
321:   FUNC GLOBAL DEFAULT 14 _ZNK7minikin10FontFamily8
322:   FUNC GLOBAL DEFAULT 14 _ZN7minikin15breakLineGre
323:   FUNC WEAK DEFAULT 14 _ZNSt3__16vectorIiNS_9all
324:   FUNC GLOBAL DEFAULT 14 _ZN7minikin6Layout12doLay
325:   FUNC WEAK DEFAULT 14 _ZNSt3__112__hash_tableIP
326:   FUNC GLOBAL DEFAULT 14 _ZN7minikin14breakIntoLin
327:   FUNC WEAK DEFAULT 14 _ZNSt3__16vectorIN7miniki
328:   FUNC WEAK DEFAULT 14 _ZNSt3__16vectorIjNS_9all
329:   FUNC GLOBAL DEFAULT 14 _ZN7minikin13GraphemeBrea
330:   FUNC GLOBAL DEFAULT 14 _ZNK7minikin10Hyphenator1
331:   FUNC WEAK DEFAULT 14 _ZN7android8LruCacheIN7mi
332:   FUNC GLOBAL DEFAULT 14 _ZN7minikin24getNextWordB
333:   FUNC GLOBAL DEFAULT 14 _ZN7minikin11WordBreaker2
334:   OBJECT WEAK DEFAULT 22 _ZZN7minikin15LocaleListC
335:   FUNC GLOBAL DEFAULT 14 _ZN7minikin4Font7Builder5
336:   FUNC GLOBAL DEFAULT 14 _ZNK7minikin12MeasuredTex
337:   FUNC WEAK DEFAULT 14 _ZNSt3__112__hash_tableIN
338:   FUNC GLOBAL DEFAULT 14 _ZNK7minikin14FontCollect
339:   OBJECT WEAK DEFAULT 22 _ZGVZN7minikin13Hyphenato
340:   FUNC GLOBAL DEFAULT 14 _ZN7minikin11WordBreakerC
341:   FUNC GLOBAL DEFAULT 14 _ZNK7minikin11WordBreaker
