 0x000000000000000e (SONAME)             Library soname: [libmediadrmmetrics_lite.so]
  
Symbol   contains 361 entries:
Num:   Type Bind Vis Ndx Name
0:   NOTYPE LOCAL DEFAULT UND
1:   FUNC GLOBAL DEFAULT UND __cxa_finalize@LIBC (2)
2:   FUNC GLOBAL DEFAULT UND _ZN6google8protobuf5Arena
3:   FUNC GLOBAL DEFAULT UND _ZN6google8protobuf5Arena
4:   FUNC GLOBAL DEFAULT UND _ZN6google8protobuf8inter
5:   FUNC GLOBAL DEFAULT UND _ZN6google8protobuf8inter
6:   FUNC GLOBAL DEFAULT UND _ZN6google8protobuf8inter
7:   FUNC GLOBAL DEFAULT UND _ZN6google8protobuf8inter
8:   FUNC GLOBAL DEFAULT UND _ZN6google8protobuf8inter
9:   FUNC GLOBAL DEFAULT UND _ZN7android2os17Persistab
10:   FUNC GLOBAL DEFAULT UND _ZN7android2os17Persistab
11:   FUNC GLOBAL DEFAULT UND _ZN7android2os17Persistab
12:   FUNC GLOBAL DEFAULT UND _ZN7android2os17Persistab
13:   FUNC GLOBAL DEFAULT UND _ZN7android2os17Persistab
14:   FUNC GLOBAL DEFAULT UND _ZN7android7String8C1Ev
15:   FUNC GLOBAL DEFAULT UND _ZN7android7String8D1Ev
16:   FUNC GLOBAL DEFAULT UND _ZN7android8String16C1EPK
17:   FUNC GLOBAL DEFAULT UND _ZN7android8String16C1EPK
18:   FUNC GLOBAL DEFAULT UND _ZN7android8String16C1ERK
19:   FUNC GLOBAL DEFAULT UND _ZN7android8String16D1Ev
20:   FUNC GLOBAL DEFAULT UND _ZNK6google8protobuf11Mes
21:   FUNC GLOBAL DEFAULT UND _ZNK7android2os17Persista
22:   FUNC GLOBAL DEFAULT UND _ZNK7android2os17Persista
23:   FUNC GLOBAL DEFAULT UND _ZNK7android8String164siz
24:   FUNC GLOBAL DEFAULT UND _ZNK7android8hardware11hi
25:   FUNC GLOBAL DEFAULT UND _ZNKSt3__120__vector_base
26:   FUNC GLOBAL DEFAULT UND _ZNKSt3__121__basic_strin
27:   FUNC GLOBAL DEFAULT UND _ZNSt3__112basic_stringIc
28:   FUNC GLOBAL DEFAULT UND _ZNSt3__112basic_stringIc
29:   FUNC GLOBAL DEFAULT UND _ZNSt3__112basic_stringIc
30:   FUNC GLOBAL DEFAULT UND _ZNSt3__112basic_stringIc
31:   FUNC GLOBAL DEFAULT UND _ZNSt3__112basic_stringIc
32:   FUNC GLOBAL DEFAULT UND _ZNSt3__112basic_stringIc
33:   FUNC GLOBAL DEFAULT UND _ZNSt3__113basic_ostreamI
34:   FUNC GLOBAL DEFAULT UND _ZNSt3__113basic_ostreamI
35:   FUNC GLOBAL DEFAULT UND _ZNSt3__113basic_ostreamI
36:   FUNC GLOBAL DEFAULT UND _ZNSt3__113basic_ostreamI
37:   FUNC GLOBAL DEFAULT UND _ZNSt3__115basic_streambu
38:   FUNC GLOBAL DEFAULT UND _ZNSt3__115basic_streambu
39:   FUNC GLOBAL DEFAULT UND _ZNSt3__115basic_streambu
40:   FUNC GLOBAL DEFAULT UND _ZNSt3__115basic_streambu
41:   FUNC GLOBAL DEFAULT UND _ZNSt3__115basic_streambu
42:   FUNC GLOBAL DEFAULT UND _ZNSt3__115basic_streambu
43:   FUNC GLOBAL DEFAULT UND _ZNSt3__115basic_streambu
44:   FUNC GLOBAL DEFAULT UND _ZNSt3__115basic_streambu
45:   FUNC GLOBAL DEFAULT UND _ZNSt3__115basic_streambu
46:   FUNC GLOBAL DEFAULT UND _ZNSt3__18ios_base4initEP
47:   FUNC GLOBAL DEFAULT UND _ZNSt3__19basic_iosIcNS_1
48:   FUNC GLOBAL DEFAULT UND _ZNSt3__19to_stringEj
49:   OBJECT GLOBAL DEFAULT UND _ZTVN7android2os17Persist
50:   FUNC GLOBAL DEFAULT UND _ZTv0_n24_NSt3__113basic_
51:   FUNC GLOBAL DEFAULT UND _ZTv0_n24_NSt3__113basic_
52:   FUNC GLOBAL DEFAULT UND _ZdlPv
53:   FUNC GLOBAL DEFAULT UND _Znwm
54:   FUNC GLOBAL DEFAULT UND __android_log_print@LIBLOG (3)
55:   FUNC GLOBAL DEFAULT UND __stack_chk_fail@LIBC (2)
56:   FUNC GLOBAL DEFAULT UND abort@LIBC (2)
57:   FUNC GLOBAL DEFAULT UND free@LIBC (2)
58:   FUNC GLOBAL DEFAULT UND gettimeofday@LIBC (2)
59:   FUNC GLOBAL DEFAULT UND malloc@LIBC (2)
60:   FUNC GLOBAL DEFAULT UND memcmp@LIBC (2)
61:   FUNC GLOBAL DEFAULT UND memcpy@LIBC (2)
62:   FUNC GLOBAL DEFAULT UND memset@LIBC (2)
63:   FUNC GLOBAL DEFAULT UND strlen@LIBC (2)
64:   FUNC GLOBAL DEFAULT UND strzcmp16
65:   FUNC GLOBAL DEFAULT UND _ZN7android18MediaAnalyti
66:   FUNC GLOBAL DEFAULT UND _ZN7android18MediaAnalyti
67:   FUNC GLOBAL DEFAULT UND _ZN7android18MediaAnalyti
68:   FUNC GLOBAL DEFAULT UND _ZN7android18MediaAnalyti
69:   FUNC GLOBAL DEFAULT UND _ZN7android18MediaAnalyti
70:   FUNC GLOBAL DEFAULT UND _ZN7android18MediaAnalyti
71:   FUNC GLOBAL DEFAULT UND _ZN7android7String86appen
72:   FUNC GLOBAL DEFAULT UND _ZN7android7String86forma
73:   FUNC GLOBAL DEFAULT UND _ZNK7android18MediaAnalyt
74:   FUNC GLOBAL DEFAULT UND _ZNK7android7String86leng
75:   FUNC GLOBAL DEFAULT UND _ZN6google8protobuf11Mess
76:   FUNC GLOBAL DEFAULT UND _ZN6google8protobuf18Goog
77:   FUNC GLOBAL DEFAULT UND _ZN6google8protobuf2io16C
78:   FUNC GLOBAL DEFAULT UND _ZN6google8protobuf2io16C
79:   FUNC GLOBAL DEFAULT UND _ZN6google8protobuf2io16C
80:   FUNC GLOBAL DEFAULT UND _ZN6google8protobuf2io16C
81:   FUNC GLOBAL DEFAULT UND _ZN6google8protobuf2io16C
82:   FUNC GLOBAL DEFAULT UND _ZN6google8protobuf2io16C
83:   FUNC GLOBAL DEFAULT UND _ZN6google8protobuf2io16C
84:   FUNC GLOBAL DEFAULT UND _ZN6google8protobuf2io16C
85:   FUNC GLOBAL DEFAULT UND _ZN6google8protobuf2io16C
86:   FUNC GLOBAL DEFAULT UND _ZN6google8protobuf2io17C
87:   FUNC GLOBAL DEFAULT UND _ZN6google8protobuf2io17C
88:   FUNC GLOBAL DEFAULT UND _ZN6google8protobuf2io17C
89:   FUNC GLOBAL DEFAULT UND _ZN6google8protobuf2io17C
90:   FUNC GLOBAL DEFAULT UND _ZN6google8protobuf2io17C
91:   FUNC GLOBAL DEFAULT UND _ZN6google8protobuf2io17C
92:   FUNC GLOBAL DEFAULT UND _ZN6google8protobuf2io22L
93:   FUNC GLOBAL DEFAULT UND _ZN6google8protobuf2io22L
94:   FUNC GLOBAL DEFAULT UND _ZN6google8protobuf8inter
95:   FUNC GLOBAL DEFAULT UND _ZN6google8protobuf8inter
96:   FUNC GLOBAL DEFAULT UND _ZN6google8protobuf8inter
97:   OBJECT GLOBAL DEFAULT UND _ZN6google8protobuf8inter
98:   FUNC GLOBAL DEFAULT UND _ZN6google8protobuf8inter
99:   FUNC GLOBAL DEFAULT UND _ZN6google8protobuf8inter
100:   FUNC GLOBAL DEFAULT UND _ZN6google8protobuf8inter
101:   FUNC GLOBAL DEFAULT UND _ZN6google8protobuf8inter
102:   FUNC GLOBAL DEFAULT UND _ZN6google8protobuf8inter
103:   FUNC GLOBAL DEFAULT UND _ZN6google8protobuf8inter
104:   FUNC GLOBAL DEFAULT UND _ZN6google8protobuf8inter
105:   FUNC GLOBAL DEFAULT UND _ZN6google8protobuf8inter
106:   FUNC GLOBAL DEFAULT UND _ZN6google8protobuf8inter
107:   FUNC GLOBAL DEFAULT UND _ZN6google8protobuf8inter
108:   FUNC GLOBAL DEFAULT UND _ZN6google8protobuf8inter
109:   FUNC GLOBAL DEFAULT UND _ZN6google8protobuf8inter
110:   FUNC GLOBAL DEFAULT UND _ZN6google8protobuf8inter
111:   FUNC GLOBAL DEFAULT UND _ZN6google8protobuf8inter
112:   OBJECT GLOBAL DEFAULT UND _ZN6google8protobuf8inter
113:   FUNC GLOBAL DEFAULT UND _ZNK6google8protobuf11Mes
114:   FUNC GLOBAL DEFAULT UND _ZNK6google8protobuf11Mes
115:   OBJECT GLOBAL DEFAULT UND _ZTVN6google8protobuf8int
116:   FUNC GLOBAL DEFAULT UND _ZdaPv
117:   FUNC WEAK DEFAULT 14 _ZN6google8protobuf8inter
118:   FUNC WEAK DEFAULT 14 _ZNSt3__16__treeIPNS_12ba
119:   OBJECT WEAK DEFAULT 18 _ZTVNSt3__119basic_ostrin
120:   FUNC GLOBAL DEFAULT 14 _ZN7android11drm_metrics1
121:   FUNC GLOBAL DEFAULT 14 _ZN7android11drm_metrics3
122:   FUNC GLOBAL DEFAULT 14 _ZNK7android11drm_metrics
123:   OBJECT WEAK DEFAULT 18 _ZTVN6google8protobuf8int
124:   FUNC WEAK DEFAULT 14 _ZN6google8protobuf8inter
125:   FUNC WEAK DEFAULT 14 _ZN6google8protobuf8inter
126:   FUNC GLOBAL DEFAULT 14 _ZN7android11drm_metrics2
127:   OBJECT GLOBAL DEFAULT 11 _ZN7android11drm_metrics3
128:   FUNC GLOBAL DEFAULT 14 _ZNK7android11drm_metrics
129:   OBJECT WEAK DEFAULT 18 _ZTVN6google8protobuf8int
130:   FUNC WEAK DEFAULT 14 _ZNSt3__16__treeINS_12__v
131:   FUNC WEAK DEFAULT 14 _ZNSt3__16__treeIPNS_12ba
132:   FUNC WEAK DEFAULT 14 _ZN6google8protobuf8inter
133:   FUNC WEAK DEFAULT 14 _ZN6google8protobuf8inter
134:   OBJECT GLOBAL DEFAULT 11 _ZN7android11drm_metrics1
135:   FUNC GLOBAL DEFAULT 14 _ZN7android11drm_metrics3
136:   FUNC WEAK DEFAULT 14 _ZN6google8protobuf8inter
137:   OBJECT GLOBAL DEFAULT 11 _ZN7android11drm_metrics1
138:   OBJECT GLOBAL DEFAULT 11 _ZN7android11drm_metrics1
139:   FUNC GLOBAL DEFAULT 14 _ZN7android11drm_metrics2
140:   OBJECT GLOBAL DEFAULT 11 _ZN7android11drm_metrics3
141:   FUNC WEAK DEFAULT 14 _ZNSt3__16vectorIlNS_9all
142:   OBJECT GLOBAL DEFAULT 23 _ZN7android11drm_metrics1
143:   FUNC GLOBAL DEFAULT 14 _ZN7android11drm_metrics1
144:   OBJECT GLOBAL DEFAULT 23 _ZN7android11drm_metrics3
145:   FUNC GLOBAL DEFAULT 14 _ZN7android15MediaDrmMetr
146:   OBJECT GLOBAL DEFAULT 11 _ZN7android11drm_metrics1
147:   FUNC GLOBAL DEFAULT 14 _ZN7android11drm_metrics1
148:   FUNC GLOBAL DEFAULT 14 _ZN7android11drm_metrics3
149:   FUNC GLOBAL DEFAULT 14 _ZN7android11drm_metrics3
150:   FUNC GLOBAL DEFAULT 14 _ZNK7android11drm_metrics
151:   FUNC GLOBAL DEFAULT 14 _ZN7android11drm_metrics3
152:   FUNC GLOBAL DEFAULT 14 _ZN7android11drm_metrics3
153:   OBJECT GLOBAL DEFAULT 11 _ZN7android11drm_metrics1
154:   FUNC GLOBAL DEFAULT 14 _ZN7android11drm_metrics1
155:   OBJECT GLOBAL DEFAULT 18 _ZTVN7android11drm_metric
156:   FUNC WEAK DEFAULT 14 _ZNK6google8protobuf8inte
157:   FUNC WEAK DEFAULT 14 _ZNSt3__127__tree_balance
158:   FUNC WEAK DEFAULT 14 _ZN6google8protobuf8inter
159:   FUNC GLOBAL DEFAULT 14 _ZNK7android11drm_metrics
160:   FUNC GLOBAL DEFAULT 14 _ZN7android15MediaDrmMetr
161:   FUNC WEAK DEFAULT 14 _ZNSt3__115basic_stringbu
162:   FUNC GLOBAL DEFAULT 14 _ZN7android11drm_metrics2
163:   FUNC GLOBAL DEFAULT 14 _ZN7android15MediaDrmMetr
164:   FUNC GLOBAL DEFAULT 14 _ZN7android11drm_metrics3
165:   OBJECT GLOBAL DEFAULT 11 _ZN7android11drm_metrics3
166:   FUNC GLOBAL DEFAULT 14 _ZN7android11drm_metrics1
167:   OBJECT GLOBAL DEFAULT 11 _ZN7android11drm_metrics3
168:   FUNC GLOBAL DEFAULT 14 _ZN7android11drm_metrics3
169:   FUNC GLOBAL DEFAULT 14 _ZN7android11drm_metrics8
170:   FUNC GLOBAL DEFAULT 14 _ZN7android15MediaDrmMetr
171:   FUNC GLOBAL DEFAULT 14 _ZN7android11drm_metrics3
172:   FUNC GLOBAL DEFAULT 14 _ZN7android15MediaDrmMetr
173:   OBJECT GLOBAL DEFAULT 11 _ZN7android11drm_metrics3
174:   FUNC WEAK DEFAULT 14 _ZNSt3__16__treeINS_12__v
175:   FUNC WEAK DEFAULT 14 _ZN6google8protobuf8inter
176:   FUNC WEAK DEFAULT 14 _ZN6google8protobuf8inter
177:   FUNC GLOBAL DEFAULT 14 _ZN7android11drm_metrics3
178:   OBJECT GLOBAL DEFAULT 23 _ZN7android11drm_metrics3
179:   FUNC GLOBAL DEFAULT 14 _ZNK7android11drm_metrics
180:   FUNC WEAK DEFAULT 14 _ZNSt3__16__treeINS_12__v
181:   OBJECT WEAK DEFAULT 18 _ZTVN6google8protobuf8int
182:   FUNC WEAK DEFAULT 14 _ZNSt3__16__treeINS_12__v
183:   OBJECT WEAK DEFAULT 18 _ZTVNSt3__115basic_string
184:   OBJECT GLOBAL DEFAULT 23 _ZN7android11drm_metrics2
185:   FUNC GLOBAL DEFAULT 14 _ZN7android11drm_metrics2
186:   FUNC GLOBAL DEFAULT 14 _ZN7android11drm_metrics3
187:   FUNC WEAK DEFAULT 14 _ZNSt3__16__treeINS_12__v
188:   FUNC GLOBAL DEFAULT 14 _ZN7android11drm_metrics1
189:   FUNC GLOBAL DEFAULT 14 _ZN7android11drm_metrics3
190:   FUNC GLOBAL DEFAULT 14 _ZN7android11drm_metrics3
191:   FUNC GLOBAL DEFAULT 14 _ZNK7android11drm_metrics
192:   FUNC GLOBAL DEFAULT 14 _ZNK7android11drm_metrics
193:   FUNC GLOBAL DEFAULT 14 _ZNK7android11drm_metrics
194:   FUNC GLOBAL DEFAULT 14 _ZNK7android11drm_metrics
195:   FUNC GLOBAL DEFAULT 14 _ZN7android11drm_metrics2
196:   FUNC WEAK DEFAULT 14 _ZNSt3__113__tree_removeI
197:   OBJECT WEAK DEFAULT 18 _ZTVN6google8protobuf8int
198:   FUNC GLOBAL DEFAULT 14 _ZN7android15MediaDrmMetr
199:   FUNC GLOBAL DEFAULT 14 _ZN7android22reportDrmPlu
200:   OBJECT GLOBAL DEFAULT 11 _ZN7android11drm_metrics3
201:   FUNC GLOBAL DEFAULT 14 _ZNK7android11drm_metrics
202:   FUNC GLOBAL DEFAULT 14 _ZNK7android11drm_metrics
203:   FUNC WEAK DEFAULT 14 _ZN6google8protobuf8inter
204:   FUNC GLOBAL DEFAULT 14 _ZN7android11drm_metrics3
205:   FUNC GLOBAL DEFAULT 14 _ZN7android11drm_metrics3
206:   FUNC WEAK DEFAULT 14 _ZNSt3__16__treeINS_12__v
207:   FUNC WEAK DEFAULT 14 _ZNSt3__16__treeINS_12__v
208:   FUNC WEAK DEFAULT 14 _ZN6google8protobuf8inter
209:   FUNC GLOBAL DEFAULT 14 _ZN7android11drm_metrics2
210:   FUNC WEAK DEFAULT 14 _ZNKSt3__115basic_stringb
211:   FUNC GLOBAL DEFAULT 14 _ZN7android11drm_metrics3
212:   OBJECT GLOBAL DEFAULT 18 _ZTVN7android11drm_metric
213:   FUNC WEAK DEFAULT 14 _ZNSt3__115basic_stringbu
214:   FUNC WEAK DEFAULT 14 _ZNSt3__16__treeINS_12__v
215:   OBJECT WEAK DEFAULT 18 _ZTTNSt3__119basic_ostrin
216:   OBJECT GLOBAL DEFAULT 11 _ZN7android11drm_metrics1
217:   FUNC GLOBAL DEFAULT 14 _ZN7android11drm_metrics1
218:   FUNC GLOBAL DEFAULT 14 _ZN7android11drm_metrics2
219:   FUNC GLOBAL DEFAULT 14 _ZN7android11drm_metrics3
220:   FUNC WEAK DEFAULT 14 _ZNSt3__16__treeIPNS_12ba
221:   OBJECT GLOBAL DEFAULT 11 _ZN7android11drm_metrics3
222:   FUNC GLOBAL DEFAULT 14 _ZN7android11drm_metrics3
223:   FUNC GLOBAL DEFAULT 14 _ZN7android11drm_metrics3
224:   FUNC GLOBAL DEFAULT 14 _ZN7android15MediaDrmMetr
225:   FUNC WEAK DEFAULT 14 _ZN6google8protobuf8inter
226:   FUNC GLOBAL DEFAULT 14 _ZNK7android11drm_metrics
227:   FUNC WEAK DEFAULT 14 _ZNSt3__16__treeINS_12__v
228:   FUNC GLOBAL DEFAULT 14 _ZN7android11drm_metrics1
229:   FUNC GLOBAL DEFAULT 14 _ZN7android11drm_metrics2
230:   FUNC GLOBAL DEFAULT 14 _ZN7android11drm_metrics2
231:   OBJECT GLOBAL DEFAULT 11 _ZN7android11drm_metrics1
232:   FUNC GLOBAL DEFAULT 14 _ZN7android11drm_metrics3
233:   FUNC GLOBAL DEFAULT 14 _ZN7android11drm_metrics3
234:   FUNC WEAK DEFAULT 14 _ZNSt3__16__treeINS_12__v
235:   OBJECT GLOBAL DEFAULT 11 _ZN7android11drm_metrics3
236:   FUNC GLOBAL DEFAULT 14 _ZN7android11drm_metrics3
237:   FUNC GLOBAL DEFAULT 14 _ZNK7android11drm_metrics
238:   FUNC WEAK DEFAULT 14 _ZNSt3__16__treeINS_12__v
239:   FUNC GLOBAL DEFAULT 14 _ZN7android11drm_metrics2
240:   FUNC GLOBAL DEFAULT 14 _ZN7android11drm_metrics3
241:   FUNC WEAK DEFAULT 14 _ZNSt3__16__treeINS_12__v
242:   FUNC GLOBAL DEFAULT 14 _ZN7android11drm_metrics2
243:   FUNC GLOBAL DEFAULT 14 _ZN7android11drm_metrics3
244:   FUNC GLOBAL DEFAULT 14 _ZNK7android11drm_metrics
245:   FUNC WEAK DEFAULT 14 _ZN6google8protobuf8inter
246:   OBJECT WEAK DEFAULT 18 _ZTVN6google8protobuf8int
247:   OBJECT GLOBAL DEFAULT 18 _ZTVN7android11drm_metric
248:   FUNC GLOBAL DEFAULT 14 _ZN7android11drm_metrics1
249:   FUNC GLOBAL DEFAULT 14 _ZN7android11drm_metrics2
250:   FUNC GLOBAL DEFAULT 14 _ZN7android11drm_metrics3
251:   FUNC GLOBAL DEFAULT 14 _ZN7android11drm_metrics3
252:   FUNC WEAK DEFAULT 14 _ZNK6google8protobuf8inte
253:   FUNC WEAK DEFAULT 14 _ZNSt3__16__treeINS_12__v
254:   FUNC WEAK DEFAULT 14 _ZNSt3__115basic_stringbu
255:   FUNC WEAK DEFAULT 14 _ZNSt3__16__treeINS_12__v
256:   FUNC GLOBAL DEFAULT 14 _ZN7android11drm_metrics1
257:   FUNC GLOBAL DEFAULT 14 _ZNK7android11drm_metrics
258:   OBJECT GLOBAL DEFAULT 11 _ZN7android11drm_metrics2
259:   OBJECT GLOBAL DEFAULT 11 _ZN7android11drm_metrics2
260:   FUNC GLOBAL DEFAULT 14 _ZN7android11drm_metrics3
261:   FUNC GLOBAL DEFAULT 14 _ZN7android11drm_metrics3
262:   FUNC WEAK DEFAULT 14 _ZNK6google8protobuf8inte
263:   FUNC GLOBAL DEFAULT 14 _ZNK7android11drm_metrics
264:   FUNC GLOBAL DEFAULT 14 _ZNK7android11drm_metrics
265:   FUNC GLOBAL DEFAULT 14 _ZN7android11drm_metrics2
266:   FUNC WEAK DEFAULT 14 _ZNSt3__16__treeIPNS_12ba
267:   FUNC GLOBAL DEFAULT 14 _ZN7android11drm_metrics2
268:   FUNC GLOBAL DEFAULT 14 _ZN7android11drm_metrics3
269:   FUNC GLOBAL DEFAULT 14 _ZN7android11drm_metrics3
270:   FUNC GLOBAL DEFAULT 14 _ZNK7android11drm_metrics
271:   OBJECT GLOBAL DEFAULT 18 _ZTVN7android11drm_metric
272:   FUNC GLOBAL DEFAULT 14 _ZN7android11drm_metrics3
273:   FUNC GLOBAL DEFAULT 14 _ZNK7android11drm_metrics
274:   FUNC WEAK DEFAULT 14 _ZN6google8protobuf8inter
275:   FUNC WEAK DEFAULT 14 _ZN6google8protobuf8inter
276:   OBJECT GLOBAL DEFAULT 11 _ZN7android11drm_metrics3
277:   FUNC GLOBAL DEFAULT 14 _ZN7android11drm_metrics3
278:   FUNC WEAK DEFAULT 14 _ZNSt3__16__treeIPNS_12ba
279:   FUNC GLOBAL DEFAULT 14 _ZN7android11drm_metrics1
280:   FUNC GLOBAL DEFAULT 14 _ZN7android15MediaDrmMetr
281:   FUNC GLOBAL DEFAULT 14 _ZN7android11drm_metrics7
282:   FUNC WEAK DEFAULT 14 _ZNK6google8protobuf8inte
283:   FUNC WEAK DEFAULT 14 _ZNSt3__16__treeINS_12__v
284:   OBJECT GLOBAL DEFAULT 11 _ZN7android11drm_metrics1
285:   FUNC GLOBAL DEFAULT 14 _ZNK7android11drm_metrics
286:   FUNC WEAK DEFAULT 14 _ZN6google8protobuf8inter
287:   FUNC GLOBAL DEFAULT 14 _ZN7android11drm_metrics3
288:   FUNC GLOBAL DEFAULT 14 _ZN7android11drm_metrics3
289:   FUNC GLOBAL DEFAULT 14 _ZN7android11drm_metrics3
290:   FUNC GLOBAL DEFAULT 14 _ZN7android11drm_metrics3
291:   OBJECT WEAK DEFAULT 18 _ZTVN6google8protobuf8int
292:   FUNC GLOBAL DEFAULT 14 _ZN7android11drm_metrics3
293:   FUNC GLOBAL DEFAULT 14 _ZN7android11drm_metrics3
294:   FUNC GLOBAL DEFAULT 14 _ZN7android11drm_metrics3
295:   FUNC WEAK DEFAULT 14 _ZNSt3__16__treeINS_12__v
296:   FUNC GLOBAL DEFAULT 14 _ZN7android11drm_metrics2
297:   FUNC GLOBAL DEFAULT 14 _ZN7android11drm_metrics2
298:   FUNC GLOBAL DEFAULT 14 _ZN7android11drm_metrics3
299:   FUNC WEAK DEFAULT 14 _ZN6google8protobuf8inter
300:   FUNC GLOBAL DEFAULT 14 _ZN7android11drm_metrics1
301:   FUNC GLOBAL DEFAULT 14 _ZNK7android11drm_metrics
302:   FUNC GLOBAL DEFAULT 14 _ZN7android11drm_metrics1
303:   FUNC GLOBAL DEFAULT 14 _ZN7android11drm_metrics1
304:   FUNC WEAK DEFAULT 14 _ZN6google8protobuf8inter
305:   FUNC WEAK DEFAULT 14 _ZN6google8protobuf8inter
306:   FUNC GLOBAL DEFAULT 14 _ZN7android11drm_metrics1
307:   FUNC WEAK DEFAULT 14 _ZN6google8protobuf8inter
308:   FUNC GLOBAL DEFAULT 14 _ZNK7android11drm_metrics
309:   FUNC WEAK DEFAULT 14 _ZNSt3__16__treeINS_12__v
310:   FUNC WEAK DEFAULT 14 _ZNSt3__16__treeINS_12__v
311:   FUNC WEAK DEFAULT 14 _ZNSt3__16__treeINS_12__v
312:   OBJECT GLOBAL DEFAULT 23 _ZN7android11drm_metrics3
313:   FUNC GLOBAL DEFAULT 14 _ZNK7android11drm_metrics
314:   FUNC WEAK DEFAULT 14 _ZNSt3__16__treeINS_12__v
315:   FUNC GLOBAL DEFAULT 14 _ZN7android11drm_metrics3
316:   FUNC GLOBAL DEFAULT 14 _ZNK7android11drm_metrics
317:   FUNC WEAK DEFAULT 14 _ZNSt3__16__treeINS_12__v
318:   FUNC GLOBAL DEFAULT 14 _ZN7android11drm_metrics3
319:   FUNC GLOBAL DEFAULT 14 _ZN7android11drm_metrics3
320:   FUNC GLOBAL DEFAULT 14 _ZN7android11drm_metrics3
321:   OBJECT GLOBAL DEFAULT 23 _ZN7android11drm_metrics9
322:   FUNC GLOBAL DEFAULT 14 _ZNK7android11drm_metrics
323:   OBJECT WEAK DEFAULT 18 _ZTCNSt3__119basic_ostrin
324:   FUNC GLOBAL DEFAULT 14 _ZN7android11drm_metrics3
325:   FUNC GLOBAL DEFAULT 14 _ZN7android11drm_metrics3
326:   FUNC WEAK DEFAULT 14 _ZN6google8protobuf8inter
327:   OBJECT GLOBAL DEFAULT 11 _ZN7android11drm_metrics1
328:   FUNC GLOBAL DEFAULT 14 _ZN7android11drm_metrics3
329:   OBJECT WEAK DEFAULT 18 _ZTVN6google8protobuf8int
330:   OBJECT GLOBAL DEFAULT 11 _ZN7android11drm_metrics1
331:   OBJECT GLOBAL DEFAULT 11 _ZN7android11drm_metrics3
332:   FUNC GLOBAL DEFAULT 14 _ZN7android11drm_metrics3
333:   FUNC GLOBAL DEFAULT 14 _ZNK7android11drm_metrics
334:   FUNC WEAK DEFAULT 14 _ZN6google8protobuf8inter
335:   FUNC GLOBAL DEFAULT 14 _ZN7android11drm_metrics3
336:   FUNC GLOBAL DEFAULT 14 _ZNK7android11drm_metrics
337:   FUNC GLOBAL DEFAULT 14 _ZN7android11drm_metrics1
338:   FUNC WEAK DEFAULT 14 _ZNSt3__16__treeINS_12__v
339:   FUNC WEAK DEFAULT 14 _ZNSt3__16__treeIPNS_12ba
340:   FUNC WEAK DEFAULT 14 _ZN6google8protobuf8inter
341:   FUNC GLOBAL DEFAULT 14 _ZN7android11drm_metrics1
342:   FUNC GLOBAL DEFAULT 14 _ZN7android11drm_metrics3
343:   FUNC GLOBAL DEFAULT 14 _ZNK7android11drm_metrics
344:   FUNC WEAK DEFAULT 14 _ZNSt3__16__treeINS_12__v
345:   FUNC WEAK DEFAULT 14 _ZN6google8protobuf8inter
346:   FUNC GLOBAL DEFAULT 14 _ZN7android11drm_metrics1
347:   FUNC GLOBAL DEFAULT 14 _ZN7android11drm_metrics2
348:   OBJECT WEAK DEFAULT 18 _ZTVN6google8protobuf8int
349:   OBJECT GLOBAL DEFAULT 18 _ZTVN7android11drm_metric
350:   FUNC GLOBAL DEFAULT 14 _ZN7android11drm_metrics3
351:   FUNC GLOBAL DEFAULT 14 _ZNK7android11drm_metrics
352:   FUNC WEAK DEFAULT 14 _ZNSt3__115basic_stringbu
353:   OBJECT GLOBAL DEFAULT 18 _ZTVN7android15MediaDrmMe
354:   FUNC GLOBAL DEFAULT 14 _ZN7android11drm_metrics2
355:   FUNC GLOBAL DEFAULT 14 _ZN7android11drm_metrics3
356:   FUNC WEAK DEFAULT 14 _ZN6google8protobuf8inter
357:   FUNC GLOBAL DEFAULT 14 _ZN7android11drm_metrics3
358:   FUNC GLOBAL DEFAULT 14 _ZN7android11drm_metrics3
359:   OBJECT GLOBAL DEFAULT 11 _ZN7android11drm_metrics3
360:   FUNC GLOBAL DEFAULT 14 _ZNK7android11drm_metrics
