 0x000000000000000e (SONAME)             Library soname: [android.hardware.bluetooth@1.0.so]
  
Symbol   contains 319 entries:
Num:   Type Bind Vis Ndx Name
0:   NOTYPE LOCAL DEFAULT UND
1:   FUNC GLOBAL DEFAULT UND __cxa_finalize@LIBC (2)
2:   FUNC GLOBAL DEFAULT UND _ZN7android14sp_report_ra
3:   FUNC GLOBAL DEFAULT UND _ZN7android21report_syspr
4:   OBJECT GLOBAL DEFAULT UND _ZN7android4hidl4base4V1_
5:   FUNC GLOBAL DEFAULT UND _ZN7android4hidl4base4V1_
6:   FUNC GLOBAL DEFAULT UND _ZN7android4hidl4base4V1_
7:   FUNC GLOBAL DEFAULT UND _ZN7android4hidl4base4V1_
8:   FUNC GLOBAL DEFAULT UND _ZN7android4hidl4base4V1_
9:   FUNC GLOBAL DEFAULT UND _ZN7android4hidl4base4V1_
10:   FUNC GLOBAL DEFAULT UND _ZN7android4hidl4base4V1_
11:   FUNC GLOBAL DEFAULT UND _ZN7android4hidl4base4V1_
12:   FUNC GLOBAL DEFAULT UND _ZN7android4hidl4base4V1_
13:   FUNC GLOBAL DEFAULT UND _ZN7android4hidl4base4V1_
14:   FUNC GLOBAL DEFAULT UND _ZN7android4hidl4base4V1_
15:   FUNC GLOBAL DEFAULT UND _ZN7android4hidl4base4V1_
16:   FUNC GLOBAL DEFAULT UND _ZN7android4hidl4base4V1_
17:   FUNC GLOBAL DEFAULT UND _ZN7android4hidl4base4V1_
18:   FUNC GLOBAL DEFAULT UND _ZN7android4hidl4base4V1_
19:   FUNC GLOBAL DEFAULT UND _ZN7android4hidl4base4V1_
20:   FUNC GLOBAL DEFAULT UND _ZN7android4hidl4base4V1_
21:   FUNC GLOBAL DEFAULT UND _ZN7android4hidl4base4V1_
22:   FUNC GLOBAL DEFAULT UND _ZN7android4hidl4base4V1_
23:   FUNC GLOBAL DEFAULT UND _ZN7android4hidl4base4V1_
24:   FUNC GLOBAL DEFAULT UND _ZN7android4hidl4base4V1_
25:   FUNC GLOBAL DEFAULT UND _ZN7android4hidl4base4V1_
26:   FUNC GLOBAL DEFAULT UND _ZN7android4hidl4base4V1_
27:   FUNC GLOBAL DEFAULT UND _ZN7android4hidl4base4V1_
28:   FUNC GLOBAL DEFAULT UND _ZN7android7RefBase10onFi
29:   FUNC GLOBAL DEFAULT UND _ZN7android7RefBase12weak
30:   FUNC GLOBAL DEFAULT UND _ZN7android7RefBase13onLa
31:   FUNC GLOBAL DEFAULT UND _ZN7android7RefBase15onLa
32:   FUNC GLOBAL DEFAULT UND _ZN7android7RefBase20onIn
33:   FUNC GLOBAL DEFAULT UND _ZN7android7RefBaseC2Ev
34:   FUNC GLOBAL DEFAULT UND _ZN7android7RefBaseD2Ev
35:   FUNC GLOBAL DEFAULT UND _ZN7android8hardware10IIn
36:   FUNC GLOBAL DEFAULT UND _ZN7android8hardware10IIn
37:   FUNC GLOBAL DEFAULT UND _ZN7android8hardware10IIn
38:   FUNC GLOBAL DEFAULT UND _ZN7android8hardware10IIn
39:   FUNC GLOBAL DEFAULT UND _ZN7android8hardware10IIn
40:   FUNC GLOBAL DEFAULT UND _ZN7android8hardware11BpH
41:   FUNC GLOBAL DEFAULT UND _ZN7android8hardware11BpH
42:   FUNC GLOBAL DEFAULT UND _ZN7android8hardware11BpH
43:   FUNC GLOBAL DEFAULT UND _ZN7android8hardware11BpH
44:   FUNC GLOBAL DEFAULT UND _ZN7android8hardware11BpH
45:   FUNC GLOBAL DEFAULT UND _ZN7android8hardware11BpH
46:   FUNC GLOBAL DEFAULT UND _ZN7android8hardware11BpH
47:   FUNC GLOBAL DEFAULT UND _ZN7android8hardware11hid
48:   FUNC GLOBAL DEFAULT UND _ZN7android8hardware11hid
49:   FUNC GLOBAL DEFAULT UND _ZN7android8hardware11hid
50:   FUNC GLOBAL DEFAULT UND _ZN7android8hardware11hid
51:   FUNC GLOBAL DEFAULT UND _ZN7android8hardware11hid
52:   FUNC GLOBAL DEFAULT UND _ZN7android8hardware12Pro
53:   FUNC GLOBAL DEFAULT UND _ZN7android8hardware12Pro
54:   FUNC GLOBAL DEFAULT UND _ZN7android8hardware13wri
55:   FUNC GLOBAL DEFAULT UND _ZN7android8hardware14rea
56:   FUNC GLOBAL DEFAULT UND _ZN7android8hardware21def
57:   FUNC GLOBAL DEFAULT UND _ZN7android8hardware23get
58:   FUNC GLOBAL DEFAULT UND _ZN7android8hardware27hid
59:   FUNC GLOBAL DEFAULT UND _ZN7android8hardware27hid
60:   FUNC GLOBAL DEFAULT UND _ZN7android8hardware6Parc
61:   FUNC GLOBAL DEFAULT UND _ZN7android8hardware6Parc
62:   FUNC GLOBAL DEFAULT UND _ZN7android8hardware6Parc
63:   FUNC GLOBAL DEFAULT UND _ZN7android8hardware6Parc
64:   FUNC GLOBAL DEFAULT UND _ZN7android8hardware6Parc
65:   FUNC GLOBAL DEFAULT UND _ZN7android8hardware6Parc
66:   FUNC GLOBAL DEFAULT UND _ZN7android8hardware6Stat
67:   FUNC GLOBAL DEFAULT UND _ZN7android8hardware6Stat
68:   FUNC GLOBAL DEFAULT UND _ZN7android8hardware6Stat
69:   FUNC GLOBAL DEFAULT UND _ZN7android8hardware6Stat
70:   FUNC GLOBAL DEFAULT UND _ZN7android8hardware7IBin
71:   FUNC GLOBAL DEFAULT UND _ZN7android8hardware7IBin
72:   FUNC GLOBAL DEFAULT UND _ZN7android8hardware7IBin
73:   FUNC GLOBAL DEFAULT UND _ZN7android8hardware7IBin
74:   FUNC GLOBAL DEFAULT UND _ZN7android8hardware7deta
75:   FUNC GLOBAL DEFAULT UND _ZN7android8hardware7deta
76:   FUNC GLOBAL DEFAULT UND _ZN7android8hardware7deta
77:   FUNC GLOBAL DEFAULT UND _ZN7android8hardware7deta
78:   FUNC GLOBAL DEFAULT UND _ZN7android8hardware7deta
79:   FUNC GLOBAL DEFAULT UND _ZN7android8hardware7deta
80:   FUNC GLOBAL DEFAULT UND _ZN7android8hardware7deta
81:   OBJECT GLOBAL DEFAULT UND _ZN7android8hardware7deta
82:   FUNC GLOBAL DEFAULT UND _ZN7android8hardware7deta
83:   OBJECT GLOBAL DEFAULT UND _ZN7android8hardware7deta
84:   FUNC GLOBAL DEFAULT UND _ZN7android8hardware7deta
85:   FUNC GLOBAL DEFAULT UND _ZN7android8hardware7deta
86:   FUNC GLOBAL DEFAULT UND _ZN7android8hardware7deta
87:   FUNC GLOBAL DEFAULT UND _ZN7android8hardware7deta
88:   FUNC GLOBAL DEFAULT UND _ZN7android8hardware7deta
89:   FUNC GLOBAL DEFAULT UND _ZN7android8hardware7deta
90:   FUNC GLOBAL DEFAULT UND _ZN7android8hardware7deta
91:   FUNC GLOBAL DEFAULT UND _ZN7android8hardware7deta
92:   FUNC GLOBAL DEFAULT UND _ZN7android8hardware7deta
93:   FUNC GLOBAL DEFAULT UND _ZN7android8hardware7deta
94:   OBJECT GLOBAL DEFAULT UND _ZN7android8hardware7deta
95:   FUNC GLOBAL DEFAULT UND _ZN7android8hardware9BHwB
96:   FUNC GLOBAL DEFAULT UND _ZN7android8hardware9BHwB
97:   FUNC GLOBAL DEFAULT UND _ZN7android8hardware9BHwB
98:   FUNC GLOBAL DEFAULT UND _ZN7android8hardware9BHwB
99:   FUNC GLOBAL DEFAULT UND _ZN7android8hardware9BHwB
100:   FUNC GLOBAL DEFAULT UND _ZN7android8hardware9BHwB
101:   FUNC GLOBAL DEFAULT UND _ZN7android8hardware9BHwB
102:   FUNC GLOBAL DEFAULT UND _ZN7android8hardware9BHwB
103:   FUNC GLOBAL DEFAULT UND _ZN7android8hardware9BHwB
104:   FUNC GLOBAL DEFAULT UND _ZN7android8hardware9BHwB
105:   FUNC GLOBAL DEFAULT UND _ZNK7android7RefBase10cre
106:   FUNC GLOBAL DEFAULT UND _ZNK7android7RefBase11get
107:   FUNC GLOBAL DEFAULT UND _ZNK7android7RefBase9decS
108:   FUNC GLOBAL DEFAULT UND _ZNK7android7RefBase9incS
109:   FUNC GLOBAL DEFAULT UND _ZNK7android8hardware6Par
110:   FUNC GLOBAL DEFAULT UND _ZNK7android8hardware6Par
111:   FUNC GLOBAL DEFAULT UND _ZNK7android8hardware6Par
112:   FUNC GLOBAL DEFAULT UND _ZNK7android8hardware6Par
113:   FUNC GLOBAL DEFAULT UND _ZNK7android8hardware7IBi
114:   FUNC GLOBAL DEFAULT UND _ZNK7android8hardware7det
115:   FUNC GLOBAL DEFAULT UND _ZNK7android8hardware9BHw
116:   FUNC GLOBAL DEFAULT UND _ZNKSt3__120__vector_base
117:   FUNC GLOBAL DEFAULT UND _ZNKSt3__121__basic_strin
118:   FUNC GLOBAL DEFAULT UND _ZNSt3__112basic_stringIc
119:   FUNC GLOBAL DEFAULT UND _ZNSt3__15mutex4lockEv
120:   FUNC GLOBAL DEFAULT UND _ZNSt3__15mutex6unlockEv
121:   FUNC GLOBAL DEFAULT UND _ZNSt3__15mutexD1Ev
122:   FUNC GLOBAL DEFAULT UND _ZTv0_n24_N7android4hidl4
123:   FUNC GLOBAL DEFAULT UND _ZTv0_n24_N7android4hidl4
124:   FUNC GLOBAL DEFAULT UND _ZTv0_n24_N7android8hardw
125:   FUNC GLOBAL DEFAULT UND _ZTv0_n24_N7android8hardw
126:   FUNC GLOBAL DEFAULT UND _ZTv0_n24_N7android8hardw
127:   FUNC GLOBAL DEFAULT UND _ZTv0_n24_N7android8hardw
128:   FUNC GLOBAL DEFAULT UND _ZTv0_n24_N7android8hardw
129:   FUNC GLOBAL DEFAULT UND _ZTv0_n24_N7android8hardw
130:   FUNC GLOBAL DEFAULT UND _ZTv0_n24_N7android8hardw
131:   FUNC GLOBAL DEFAULT UND _ZTv0_n24_N7android8hardw
132:   FUNC GLOBAL DEFAULT UND _ZTv0_n32_N7android8hardw
133:   FUNC GLOBAL DEFAULT UND _ZTv0_n40_N7android8hardw
134:   FUNC GLOBAL DEFAULT UND _ZTv0_n48_N7android8hardw
135:   FUNC GLOBAL DEFAULT UND _ZdaPv
136:   FUNC GLOBAL DEFAULT UND _ZdlPv
137:   FUNC GLOBAL DEFAULT UND _Znam
138:   FUNC GLOBAL DEFAULT UND _Znwm
139:   FUNC GLOBAL DEFAULT UND __cxa_pure_virtual
140:   FUNC GLOBAL DEFAULT UND __stack_chk_fail@LIBC (2)
141:   FUNC GLOBAL DEFAULT UND abort@LIBC (2)
142:   FUNC GLOBAL DEFAULT UND atrace_begin_body
143:   OBJECT GLOBAL DEFAULT UND atrace_enabled_tags
144:   FUNC GLOBAL DEFAULT UND atrace_end_body
145:   OBJECT GLOBAL DEFAULT UND atrace_is_ready
146:   FUNC GLOBAL DEFAULT UND atrace_setup
147:   FUNC GLOBAL DEFAULT UND memcmp@LIBC (2)
148:   FUNC GLOBAL DEFAULT UND memcpy@LIBC (2)
149:   FUNC GLOBAL DEFAULT UND memset@LIBC (2)
150:   FUNC GLOBAL DEFAULT UND strlen@LIBC (2)
151:   FUNC GLOBAL DEFAULT UND _ZN7android8hardware6Parc
152:   FUNC GLOBAL DEFAULT UND _ZNK7android8hardware6Par
153:   OBJECT GLOBAL DEFAULT 18 _ZTCN7android8hardware9bl
154:   FUNC GLOBAL DEFAULT 14 _ZN7android8hardware9blue
155:   FUNC GLOBAL DEFAULT 14 _ZN7android8hardware9blue
156:   OBJECT GLOBAL DEFAULT 18 _ZTVN7android8hardware9bl
157:   FUNC GLOBAL DEFAULT 14 _ZTv0_n24_N7android8hardw
158:   FUNC GLOBAL DEFAULT 14 _ZN7android8hardware9blue
159:   FUNC GLOBAL DEFAULT 14 _ZN7android8hardware9blue
160:   OBJECT GLOBAL DEFAULT 18 _ZTTN7android8hardware9bl
161:   OBJECT GLOBAL DEFAULT 18 _ZTVN7android8hardware9bl
162:   FUNC WEAK DEFAULT 14 _ZN7android8hardware10fro
163:   FUNC GLOBAL DEFAULT 14 _ZN7android8hardware9blue
164:   OBJECT GLOBAL DEFAULT 18 _ZTVN7android8hardware9bl
165:   FUNC GLOBAL DEFAULT 14 _ZN7android8hardware9blue
166:   FUNC GLOBAL DEFAULT 14 _ZN7android8hardware9blue
167:   FUNC GLOBAL DEFAULT 14 _ZN7android8hardware9blue
168:   FUNC GLOBAL DEFAULT 14 _ZN7android8hardware9blue
169:   FUNC GLOBAL DEFAULT 14 _ZN7android8hardware9blue
170:   OBJECT GLOBAL DEFAULT 18 _ZTCN7android8hardware9bl
171:   OBJECT GLOBAL DEFAULT 18 _ZTVN7android8hardware9bl
172:   FUNC GLOBAL DEFAULT 14 _ZN7android8hardware9blue
173:   FUNC GLOBAL DEFAULT 14 _ZN7android8hardware9blue
174:   FUNC GLOBAL DEFAULT 14 _ZN7android8hardware9blue
175:   OBJECT GLOBAL DEFAULT 18 _ZTCN7android8hardware9bl
176:   OBJECT GLOBAL DEFAULT 18 _ZTVN7android8hardware9bl
177:   FUNC GLOBAL DEFAULT 14 _ZN7android8hardware9blue
178:   FUNC GLOBAL DEFAULT 14 _ZN7android8hardware9blue
179:   FUNC WEAK DEFAULT 14 _ZNSt3__16__treeINS_12__v
180:   FUNC WEAK DEFAULT 14 _ZN7android8hardware7deta
181:   FUNC GLOBAL DEFAULT 14 _ZN7android8hardware9blue
182:   FUNC GLOBAL DEFAULT 14 _ZN7android8hardware9blue
183:   FUNC GLOBAL DEFAULT 14 _ZN7android8hardware9blue
184:   OBJECT GLOBAL DEFAULT 18 _ZTCN7android8hardware9bl
185:   OBJECT GLOBAL DEFAULT 18 _ZTCN7android8hardware9bl
186:   OBJECT GLOBAL DEFAULT 18 _ZTTN7android8hardware9bl
187:   FUNC WEAK DEFAULT 14 _ZN7android8hardware7deta
188:   FUNC GLOBAL DEFAULT 14 _ZN7android8hardware9blue
189:   OBJECT GLOBAL DEFAULT 16 _ZN7android8hardware9blue
190:   FUNC GLOBAL DEFAULT 14 _ZN7android8hardware9blue
191:   FUNC GLOBAL DEFAULT 14 _ZN7android8hardware9blue
192:   FUNC GLOBAL DEFAULT 14 _ZN7android8hardware9blue
193:   OBJECT GLOBAL DEFAULT 18 _ZTTN7android8hardware9bl
194:   FUNC GLOBAL DEFAULT 14 _ZN7android8hardware9blue
195:   FUNC WEAK DEFAULT 14 _ZNSt3__16vectorIPvNS_9al
196:   FUNC GLOBAL DEFAULT 14 _ZN7android8hardware9blue
197:   OBJECT WEAK DEFAULT 18 _ZTCN7android8hardware9bl
198:   FUNC GLOBAL DEFAULT 14 _ZN7android8hardware9blue
199:   FUNC GLOBAL DEFAULT 14 _ZN7android8hardware9blue
200:   FUNC GLOBAL DEFAULT 14 _ZN7android8hardware9blue
201:   FUNC GLOBAL DEFAULT 14 _ZN7android8hardware9blue
202:   FUNC GLOBAL DEFAULT 14 _ZN7android8hardware9blue
203:   FUNC GLOBAL DEFAULT 14 _ZN7android8hardware9blue
204:   FUNC GLOBAL DEFAULT 14 _ZN7android8hardware9blue
205:   FUNC GLOBAL DEFAULT 14 _ZN7android8hardware9blue
206:   FUNC GLOBAL DEFAULT 14 _ZN7android8hardware9blue
207:   FUNC GLOBAL DEFAULT 14 _ZN7android8hardware9blue
208:   FUNC GLOBAL DEFAULT 14 _ZN7android8hardware9blue
209:   OBJECT GLOBAL DEFAULT 18 _ZTCN7android8hardware9bl
210:   FUNC WEAK DEFAULT 14 _ZN7android8hardware7deta
211:   FUNC GLOBAL DEFAULT 14 _ZN7android8hardware9blue
212:   FUNC GLOBAL DEFAULT 14 _ZN7android8hardware9blue
213:   FUNC GLOBAL DEFAULT 14 _ZN7android8hardware9blue
214:   FUNC GLOBAL DEFAULT 14 _ZN7android8hardware9blue
215:   FUNC GLOBAL DEFAULT 14 _ZN7android8hardware9blue
216:   FUNC GLOBAL DEFAULT 14 _ZN7android8hardware9blue
217:   FUNC GLOBAL DEFAULT 14 _ZN7android8hardware9blue
218:   FUNC GLOBAL DEFAULT 14 _ZN7android8hardware9blue
219:   FUNC GLOBAL DEFAULT 14 _ZN7android8hardware9blue
220:   FUNC WEAK DEFAULT 14 _ZNSt3__113__tree_removeI
221:   FUNC GLOBAL DEFAULT 14 _ZN7android8hardware9blue
222:   FUNC GLOBAL DEFAULT 14 _ZThn32_N7android8hardwar
223:   FUNC GLOBAL DEFAULT 14 _ZN7android8hardware9blue
224:   FUNC WEAK DEFAULT 14 _ZNSt3__16__treeINS_12__v
225:   FUNC GLOBAL DEFAULT 14 _ZN7android8hardware9blue
226:   FUNC GLOBAL DEFAULT 14 _ZN7android8hardware9blue
227:   FUNC GLOBAL DEFAULT 14 _ZN7android8hardware9blue
228:   OBJECT GLOBAL DEFAULT 18 _ZTCN7android8hardware9bl
229:   FUNC GLOBAL DEFAULT 14 _ZTv0_n24_N7android8hardw
230:   FUNC WEAK DEFAULT 14 _ZNSt3__16__treeINS_12__v
231:   OBJECT GLOBAL DEFAULT 18 _ZTCN7android8hardware9bl
232:   FUNC GLOBAL DEFAULT 14 _ZN7android8hardware9blue
233:   FUNC GLOBAL DEFAULT 14 _ZN7android8hardware9blue
234:   OBJECT WEAK DEFAULT 18 _ZTVN7android8hardware9bl
235:   FUNC GLOBAL DEFAULT 14 _ZN7android8hardware9blue
236:   FUNC WEAK DEFAULT 14 _ZNSt3__127__tree_balance
237:   FUNC WEAK DEFAULT 14 _ZNSt3__16__treeINS_12__v
238:   FUNC GLOBAL DEFAULT 14 _ZThn32_N7android8hardwar
239:   OBJECT GLOBAL DEFAULT 18 _ZTCN7android8hardware9bl
240:   FUNC GLOBAL DEFAULT 14 _ZN7android8hardware9blue
241:   OBJECT GLOBAL DEFAULT 18 _ZTTN7android8hardware9bl
242:   FUNC GLOBAL DEFAULT 14 _ZN7android8hardware9blue
243:   FUNC GLOBAL DEFAULT 14 _ZN7android8hardware9blue
244:   FUNC GLOBAL DEFAULT 14 _ZN7android8hardware9blue
245:   FUNC GLOBAL DEFAULT 14 _ZN7android8hardware9blue
246:   FUNC GLOBAL DEFAULT 14 _ZN7android8hardware9blue
247:   FUNC GLOBAL DEFAULT 14 _ZN7android8hardware9blue
248:   FUNC GLOBAL DEFAULT 14 _ZN7android8hardware9blue
249:   FUNC GLOBAL DEFAULT 14 _ZN7android8hardware9blue
250:   FUNC GLOBAL DEFAULT 14 _ZN7android8hardware9blue
251:   FUNC GLOBAL DEFAULT 14 _ZN7android8hardware9blue
252:   FUNC GLOBAL DEFAULT 14 _ZN7android8hardware9blue
253:   FUNC GLOBAL DEFAULT 14 _ZN7android8hardware9blue
254:   FUNC GLOBAL DEFAULT 14 _ZTv0_n24_N7android8hardw
255:   FUNC GLOBAL DEFAULT 14 _ZN7android8hardware9blue
256:   OBJECT GLOBAL DEFAULT 18 _ZTCN7android8hardware9bl
257:   FUNC GLOBAL DEFAULT 14 _ZN7android8hardware9blue
258:   FUNC GLOBAL DEFAULT 14 _ZN7android8hardware9blue
259:   FUNC WEAK DEFAULT 14 _ZNSt3__16vectorINS_8func
260:   OBJECT GLOBAL DEFAULT 18 _ZTCN7android8hardware9bl
261:   FUNC GLOBAL DEFAULT 14 _ZN7android8hardware9blue
262:   OBJECT GLOBAL DEFAULT 16 _ZN7android8hardware9blue
263:   FUNC GLOBAL DEFAULT 14 _ZN7android8hardware9blue
264:   FUNC GLOBAL DEFAULT 14 _ZN7android8hardware9blue
265:   FUNC GLOBAL DEFAULT 14 _ZN7android8hardware9blue
266:   FUNC GLOBAL DEFAULT 14 _ZN7android8hardware9blue
267:   OBJECT GLOBAL DEFAULT 18 _ZTCN7android8hardware9bl
268:   FUNC WEAK DEFAULT 14 _ZN7android8hardware7deta
269:   FUNC GLOBAL DEFAULT 14 _ZN7android8hardware9blue
270:   FUNC GLOBAL DEFAULT 14 _ZN7android8hardware9blue
271:   FUNC GLOBAL DEFAULT 14 _ZN7android8hardware9blue
272:   FUNC WEAK DEFAULT 14 _ZNSt3__16__treeINS_12__v
273:   FUNC GLOBAL DEFAULT 14 _ZN7android8hardware9blue
274:   FUNC GLOBAL DEFAULT 14 _ZN7android8hardware9blue
275:   OBJECT WEAK DEFAULT 18 _ZTVN7android8hardware9bl
276:   FUNC GLOBAL DEFAULT 14 _ZN7android8hardware9blue
277:   FUNC GLOBAL DEFAULT 14 _ZN7android8hardware9blue
278:   OBJECT GLOBAL DEFAULT 18 _ZTCN7android8hardware9bl
279:   FUNC GLOBAL DEFAULT 14 _ZN7android8hardware9blue
280:   FUNC GLOBAL DEFAULT 14 _ZN7android8hardware9blue
281:   OBJECT WEAK DEFAULT 18 _ZTCN7android8hardware9bl
282:   FUNC GLOBAL DEFAULT 14 _ZN7android8hardware9blue
283:   FUNC GLOBAL DEFAULT 14 _ZN7android8hardware9blue
284:   FUNC GLOBAL DEFAULT 14 _ZN7android8hardware9blue
285:   FUNC GLOBAL DEFAULT 14 _ZN7android8hardware9blue
286:   FUNC GLOBAL DEFAULT 14 _ZN7android8hardware9blue
287:   FUNC GLOBAL DEFAULT 14 _ZN7android8hardware9blue
288:   FUNC GLOBAL DEFAULT 14 _ZN7android8hardware9blue
289:   OBJECT GLOBAL DEFAULT 18 _ZTCN7android8hardware9bl
290:   FUNC GLOBAL DEFAULT 14 _ZN7android8hardware9blue
291:   FUNC GLOBAL DEFAULT 14 _ZN7android8hardware9blue
292:   OBJECT GLOBAL DEFAULT 18 _ZTCN7android8hardware9bl
293:   FUNC GLOBAL DEFAULT 14 _ZN7android8hardware9blue
294:   FUNC GLOBAL DEFAULT 14 _ZN7android8hardware9blue
295:   FUNC GLOBAL DEFAULT 14 _ZN7android8hardware9blue
296:   FUNC GLOBAL DEFAULT 14 _ZN7android8hardware9blue
297:   FUNC GLOBAL DEFAULT 14 _ZTv0_n24_N7android8hardw
298:   FUNC WEAK DEFAULT 14 _ZN7android8hardware7deta
299:   FUNC GLOBAL DEFAULT 14 _ZN7android8hardware9blue
300:   FUNC GLOBAL DEFAULT 14 _ZN7android8hardware9blue
301:   FUNC WEAK DEFAULT 14 _ZNSt3__16vectorIN7androi
302:   FUNC GLOBAL DEFAULT 14 _ZN7android8hardware9blue
303:   OBJECT GLOBAL DEFAULT 18 _ZTCN7android8hardware9bl
304:   OBJECT GLOBAL DEFAULT 18 _ZTCN7android8hardware9bl
305:   OBJECT GLOBAL DEFAULT 18 _ZTTN7android8hardware9bl
306:   FUNC GLOBAL DEFAULT 14 _ZN7android8hardware9blue
307:   FUNC GLOBAL DEFAULT 14 _ZThn32_N7android8hardwar
308:   FUNC GLOBAL DEFAULT 14 _ZN7android8hardware9blue
309:   FUNC GLOBAL DEFAULT 14 _ZN7android8hardware9blue
310:   FUNC GLOBAL DEFAULT 14 _ZN7android8hardware9blue
311:   OBJECT GLOBAL DEFAULT 18 _ZTCN7android8hardware9bl
312:   FUNC GLOBAL DEFAULT 14 _ZThn32_N7android8hardwar
313:   FUNC GLOBAL DEFAULT 14 _ZN7android8hardware9blue
314:   FUNC GLOBAL DEFAULT 14 _ZN7android8hardware9blue
315:   FUNC WEAK DEFAULT 14 _ZNSt3__16__treeINS_12__v
316:   OBJECT GLOBAL DEFAULT 18 _ZTTN7android8hardware9bl
317:   OBJECT GLOBAL DEFAULT 18 _ZTVN7android8hardware9bl
318:   FUNC GLOBAL DEFAULT 14 _ZN7android8hardware9blue
