 0x0000000e (SONAME)                     Library soname: [libinputreader.so]
  
Symbol   contains 732 entries:
Num:   Type Bind Vis Ndx Name
0:   NOTYPE LOCAL DEFAULT UND
1:   FUNC GLOBAL DEFAULT UND __cxa_finalize@LIBC (2)
2:   FUNC GLOBAL DEFAULT UND SHA1_Final
3:   FUNC GLOBAL DEFAULT UND SHA1_Init
4:   FUNC GLOBAL DEFAULT UND SHA1_Update
5:   FUNC GLOBAL DEFAULT UND _ZN7android10VectorImpl13
6:   FUNC GLOBAL DEFAULT UND _ZN7android11PropertyMap4
7:   FUNC GLOBAL DEFAULT UND _ZN7android11PropertyMap5
8:   FUNC GLOBAL DEFAULT UND _ZN7android11PropertyMapD
9:   FUNC GLOBAL DEFAULT UND _ZN7android13VirtualKeyMa
10:   FUNC GLOBAL DEFAULT UND _ZN7android13VirtualKeyMa
11:   FUNC GLOBAL DEFAULT UND _ZN7android14sp_report_ra
12:   FUNC GLOBAL DEFAULT UND _ZN7android15KeyCharacter
13:   FUNC GLOBAL DEFAULT UND _ZN7android16SortedVector
14:   FUNC GLOBAL DEFAULT UND _ZN7android16SortedVector
15:   FUNC GLOBAL DEFAULT UND _ZN7android16SortedVector
16:   FUNC GLOBAL DEFAULT UND _ZN7android16SortedVector
17:   FUNC GLOBAL DEFAULT UND _ZN7android16SortedVector
18:   FUNC GLOBAL DEFAULT UND _ZN7android25isEligibleBu
19:   FUNC GLOBAL DEFAULT UND _ZN7android4base12StringP
20:   FUNC GLOBAL DEFAULT UND _ZN7android53getInputDevi
21:   FUNC GLOBAL DEFAULT UND _ZN7android6KeyMap4loadER
22:   FUNC GLOBAL DEFAULT UND _ZN7android6KeyMapC1Ev
23:   FUNC GLOBAL DEFAULT UND _ZN7android6KeyMapD1Ev
24:   FUNC GLOBAL DEFAULT UND _ZN7android7RefBase10onFi
25:   FUNC GLOBAL DEFAULT UND _ZN7android7RefBase13onLa
26:   FUNC GLOBAL DEFAULT UND _ZN7android7RefBase15onLa
27:   FUNC GLOBAL DEFAULT UND _ZN7android7RefBase20onIn
28:   FUNC GLOBAL DEFAULT UND _ZN7android7RefBaseC2Ev
29:   FUNC GLOBAL DEFAULT UND _ZN7android7RefBaseD2Ev
30:   FUNC GLOBAL DEFAULT UND _ZN7android7String8C1EPKc
31:   FUNC GLOBAL DEFAULT UND _ZN7android7String8C1Ev
32:   FUNC GLOBAL DEFAULT UND _ZN7android7String8D1Ev
33:   FUNC GLOBAL DEFAULT UND _ZNK7android11PropertyMap
34:   FUNC GLOBAL DEFAULT UND _ZNK7android11PropertyMap
35:   FUNC GLOBAL DEFAULT UND _ZNK7android12KeyLayoutMa
36:   FUNC GLOBAL DEFAULT UND _ZNK7android12KeyLayoutMa
37:   FUNC GLOBAL DEFAULT UND _ZNK7android12KeyLayoutMa
38:   FUNC GLOBAL DEFAULT UND _ZNK7android12KeyLayoutMa
39:   FUNC GLOBAL DEFAULT UND _ZNK7android15KeyCharacte
40:   FUNC GLOBAL DEFAULT UND _ZNK7android15KeyCharacte
41:   FUNC GLOBAL DEFAULT UND _ZNK7android16SortedVecto
42:   FUNC GLOBAL DEFAULT UND _ZNK7android21InputDevice
43:   FUNC GLOBAL DEFAULT UND _ZNK7android7RefBase9decS
44:   FUNC GLOBAL DEFAULT UND _ZNK7android7RefBase9incS
45:   FUNC GLOBAL DEFAULT UND _ZNKSt3__112basic_stringI
46:   FUNC GLOBAL DEFAULT UND _ZNKSt3__120__vector_base
47:   FUNC GLOBAL DEFAULT UND _ZNKSt3__121__basic_strin
48:   FUNC GLOBAL DEFAULT UND _ZNSt3__112basic_stringIc
49:   FUNC GLOBAL DEFAULT UND _ZNSt3__112basic_stringIc
50:   FUNC GLOBAL DEFAULT UND _ZNSt3__112basic_stringIc
51:   FUNC GLOBAL DEFAULT UND _ZNSt3__112basic_stringIc
52:   FUNC GLOBAL DEFAULT UND _ZNSt3__112basic_stringIc
53:   FUNC GLOBAL DEFAULT UND _ZNSt3__112basic_stringIc
54:   FUNC GLOBAL DEFAULT UND _ZdlPv
55:   FUNC GLOBAL DEFAULT UND _Znwj
56:   FUNC GLOBAL DEFAULT UND __android_log_assert@LIBLOG (3)
57:   FUNC GLOBAL DEFAULT UND __android_log_print@LIBLOG (3)
58:   FUNC GLOBAL DEFAULT UND __cxa_pure_virtual
59:   FUNC GLOBAL DEFAULT UND __errno@LIBC (2)
60:   FUNC GLOBAL DEFAULT UND __open_2@LIBC (2)
61:   FUNC GLOBAL DEFAULT UND __read_chk@LIBC (2)
62:   FUNC GLOBAL DEFAULT UND __stack_chk_fail@LIBC (2)
63:   OBJECT GLOBAL DEFAULT UND __stack_chk_guard@LIBC (2)
64:   FUNC GLOBAL DEFAULT UND __strcpy_chk@LIBC (2)
65:   FUNC GLOBAL DEFAULT UND __strlen_chk@LIBC (2)
66:   FUNC GLOBAL DEFAULT UND __write_chk@LIBC_N (4)
67:   FUNC GLOBAL DEFAULT UND abort@LIBC (2)
68:   FUNC GLOBAL DEFAULT UND access@LIBC (2)
69:   FUNC GLOBAL DEFAULT UND acquire_wake_lock
70:   FUNC GLOBAL DEFAULT UND close@LIBC (2)
71:   FUNC GLOBAL DEFAULT UND closedir@LIBC (2)
72:   FUNC GLOBAL DEFAULT UND epoll_create1@LIBC (2)
73:   FUNC GLOBAL DEFAULT UND epoll_ctl@LIBC (2)
74:   FUNC GLOBAL DEFAULT UND epoll_wait@LIBC (2)
75:   FUNC GLOBAL DEFAULT UND fcntl@LIBC (2)
76:   FUNC GLOBAL DEFAULT UND inotify_add_watch@LIBC (2)
77:   FUNC GLOBAL DEFAULT UND inotify_init@LIBC (2)
78:   FUNC GLOBAL DEFAULT UND ioctl@LIBC (2)
79:   FUNC GLOBAL DEFAULT UND memcmp@LIBC (2)
80:   FUNC GLOBAL DEFAULT UND opendir@LIBC (2)
81:   FUNC GLOBAL DEFAULT UND pipe@LIBC (2)
82:   FUNC GLOBAL DEFAULT UND property_get_bool
83:   FUNC GLOBAL DEFAULT UND pthread_mutex_destroy@LIBC (2)
84:   FUNC GLOBAL DEFAULT UND pthread_mutex_init@LIBC (2)
85:   FUNC GLOBAL DEFAULT UND pthread_mutex_lock@LIBC (2)
86:   FUNC GLOBAL DEFAULT UND pthread_mutex_unlock@LIBC (2)
87:   FUNC GLOBAL DEFAULT UND read@LIBC (2)
88:   FUNC GLOBAL DEFAULT UND readdir@LIBC (2)
89:   FUNC GLOBAL DEFAULT UND release_wake_lock
90:   FUNC GLOBAL DEFAULT UND sscanf@LIBC (2)
91:   FUNC GLOBAL DEFAULT UND strcmp@LIBC (2)
92:   FUNC GLOBAL DEFAULT UND strcpy@LIBC (2)
93:   FUNC GLOBAL DEFAULT UND strerror@LIBC (2)
94:   FUNC GLOBAL DEFAULT UND strlen@LIBC (2)
95:   FUNC GLOBAL DEFAULT UND strncmp@LIBC (2)
96:   FUNC GLOBAL DEFAULT UND systemTime
97:   FUNC GLOBAL DEFAULT UND uname@LIBC (2)
98:   FUNC GLOBAL DEFAULT UND usleep@LIBC (2)
99:   FUNC GLOBAL DEFAULT UND _ZN7android10VectorImpl13
100:   FUNC GLOBAL DEFAULT UND _ZN7android10VectorImpl16
101:   FUNC GLOBAL DEFAULT UND _ZN7android11PropertyMapC
102:   FUNC GLOBAL DEFAULT UND _ZN7android13NotifyKeyArg
103:   FUNC GLOBAL DEFAULT UND _ZN7android13PointerCoord
104:   FUNC GLOBAL DEFAULT UND _ZN7android13PointerCoord
105:   FUNC GLOBAL DEFAULT UND _ZN7android15InputDeviceI
106:   FUNC GLOBAL DEFAULT UND _ZN7android15InputDeviceI
107:   FUNC GLOBAL DEFAULT UND _ZN7android15InputDeviceI
108:   FUNC GLOBAL DEFAULT UND _ZN7android15InputDeviceI
109:   FUNC GLOBAL DEFAULT UND _ZN7android15InputDeviceI
110:   FUNC GLOBAL DEFAULT UND _ZN7android15InputDeviceI
111:   FUNC GLOBAL DEFAULT UND _ZN7android15InputDeviceI
112:   FUNC GLOBAL DEFAULT UND _ZN7android15TouchVideoFr
113:   FUNC GLOBAL DEFAULT UND _ZN7android15VelocityCont
114:   FUNC GLOBAL DEFAULT UND _ZN7android15VelocityCont
115:   FUNC GLOBAL DEFAULT UND _ZN7android15VelocityCont
116:   FUNC GLOBAL DEFAULT UND _ZN7android15VelocityCont
117:   FUNC GLOBAL DEFAULT UND _ZN7android15VelocityTrac
118:   FUNC GLOBAL DEFAULT UND _ZN7android15VelocityTrac
119:   FUNC GLOBAL DEFAULT UND _ZN7android15VelocityTrac
120:   FUNC GLOBAL DEFAULT UND _ZN7android15VelocityTrac
121:   FUNC GLOBAL DEFAULT UND _ZN7android15updateMetaSt
122:   FUNC GLOBAL DEFAULT UND _ZN7android16NotifyMotion
123:   FUNC GLOBAL DEFAULT UND _ZN7android16NotifySwitch
124:   FUNC GLOBAL DEFAULT UND _ZN7android17PointerPrope
125:   FUNC GLOBAL DEFAULT UND _ZN7android19QueuedInputL
126:   FUNC GLOBAL DEFAULT UND _ZN7android19QueuedInputL
127:   FUNC GLOBAL DEFAULT UND _ZN7android21NotifyDevice
128:   FUNC GLOBAL DEFAULT UND _ZN7android30NotifyConfig
129:   FUNC GLOBAL DEFAULT UND _ZN7android4util11stats_w
130:   FUNC GLOBAL DEFAULT UND _ZNK7android11PropertyMap
131:   FUNC GLOBAL DEFAULT UND _ZNK7android11PropertyMap
132:   FUNC GLOBAL DEFAULT UND _ZNK7android13PointerCoor
133:   FUNC GLOBAL DEFAULT UND _ZNK7android13PointerCoor
134:   FUNC GLOBAL DEFAULT UND _ZNK7android15VelocityTra
135:   FUNC GLOBAL DEFAULT UND _ZNK7android17PointerProp
136:   FUNC GLOBAL DEFAULT UND _ZNK7android24InputReader
137:   FUNC GLOBAL DEFAULT UND _ZNK7android24InputReader
138:   FUNC GLOBAL DEFAULT UND _ZNK7android24InputReader
139:   FUNC GLOBAL DEFAULT UND _ZNK7android24InputReader
140:   FUNC GLOBAL DEFAULT UND _ZNK7android25TouchAffine
141:   FUNC GLOBAL DEFAULT UND _ZNSt3__112__next_primeEj
142:   OBJECT GLOBAL DEFAULT UND _ZTVN7android16NotifyMoti
143:   FUNC GLOBAL DEFAULT UND _ZdaPv
144:   FUNC GLOBAL DEFAULT UND _Znaj
145:   FUNC GLOBAL DEFAULT UND __vsnprintf_chk@LIBC (2)
146:   FUNC GLOBAL DEFAULT UND acosf@LIBC (5)
147:   FUNC GLOBAL DEFAULT UND atan2f@LIBC (5)
148:   FUNC GLOBAL DEFAULT UND cosf@LIBC (5)
149:   FUNC GLOBAL DEFAULT UND hypotf@LIBC (5)
150:   FUNC GLOBAL DEFAULT UND pthread_cond_broadcast@LIBC (2)
151:   FUNC GLOBAL DEFAULT UND pthread_cond_destroy@LIBC (2)
152:   FUNC GLOBAL DEFAULT UND pthread_cond_init@LIBC (2)
153:   FUNC GLOBAL DEFAULT UND pthread_cond_wait@LIBC (2)
154:   FUNC GLOBAL DEFAULT UND pthread_condattr_destroy@LIBC (2)
155:   FUNC GLOBAL DEFAULT UND pthread_condattr_init@LIBC (2)
156:   FUNC GLOBAL DEFAULT UND pthread_condattr_setclock@LIBC (2)
157:   FUNC GLOBAL DEFAULT UND sinf@LIBC (5)
158:   FUNC GLOBAL DEFAULT UND strncpy@LIBC (2)
159:   FUNC GLOBAL DEFAULT UND toMillisecondTimeoutDelay
160:   FUNC GLOBAL DEFAULT UND _ZN7android15TouchVideoFr
161:   FUNC WEAK DEFAULT UND android_fdsan_close_with_@LIBC_Q (6)
162:   FUNC WEAK DEFAULT UND android_fdsan_create_owne@LIBC_Q (6)
163:   FUNC WEAK DEFAULT UND android_fdsan_exchange_ow@LIBC_Q (6)
164:   FUNC GLOBAL DEFAULT UND mmap@LIBC (2)
165:   FUNC GLOBAL DEFAULT UND munmap@LIBC (2)
166:   FUNC GLOBAL DEFAULT UND memcpy@LIBC (2)
167:   FUNC GLOBAL DEFAULT UND memmove@LIBC (2)
168:   FUNC GLOBAL DEFAULT UND memset@LIBC (2)
169:   FUNC GLOBAL DEFAULT 14 _ZN7android22SingleTouchI
170:   FUNC GLOBAL DEFAULT 14 _ZN7android28SingleTouchM
171:   FUNC WEAK DEFAULT 14 _ZNK7android12SortedVecto
172:   FUNC GLOBAL DEFAULT 14 _ZN7android16TouchVideoDe
173:   FUNC GLOBAL DEFAULT 14 _ZN7android11InputMapperD
174:   FUNC GLOBAL DEFAULT 14 _ZN7android19JoystickInpu
175:   FUNC GLOBAL DEFAULT 14 _ZN7android19KeyboardInpu
176:   FUNC GLOBAL DEFAULT 14 _ZN7android25ExternalStyl
177:   FUNC GLOBAL DEFAULT 14 _ZNK7android22TouchButton
178:   FUNC GLOBAL DEFAULT 14 _ZNK7android8EventHub16ge
179:   FUNC GLOBAL DEFAULT 14 _ZN7android19KeyboardInpu
180:   FUNC WEAK DEFAULT 14 _ZNSt3__16vectorINS_10uni
181:   FUNC GLOBAL DEFAULT 14 _ZN7android11InputReader1
182:   FUNC GLOBAL DEFAULT 14 _ZN7android16TouchInputMa
183:   FUNC WEAK DEFAULT 14 _ZNSt3__112__hash_tableIN
184:   FUNC GLOBAL DEFAULT 14 _ZN7android8EventHub16loa
185:   FUNC GLOBAL DEFAULT 14 _ZN7android8EventHub18dev
186:   FUNC GLOBAL DEFAULT 14 _ZN7android8EventHub6Devi
187:   FUNC GLOBAL DEFAULT 14 _ZN7android8EventHubC2Ev
188:   FUNC GLOBAL DEFAULT 14 _ZN7android11InputReader1
189:   FUNC GLOBAL DEFAULT 14 _ZN7android19JoystickInpu
190:   FUNC GLOBAL DEFAULT 14 _ZN7android23CursorScroll
191:   FUNC GLOBAL DEFAULT 14 _ZN7android27MultiTouchMo
192:   FUNC GLOBAL DEFAULT 14 _ZNK7android16TouchInputM
193:   FUNC GLOBAL DEFAULT 14 _ZN7android8EventHub28clo
194:   FUNC GLOBAL DEFAULT 14 _ZN7android11InputMapper1
195:   FUNC GLOBAL DEFAULT 14 _ZN7android11InputReader2
196:   FUNC GLOBAL DEFAULT 14 _ZN7android17CookedPointe
197:   FUNC GLOBAL DEFAULT 14 _ZN7android17SwitchInputM
198:   FUNC GLOBAL DEFAULT 14 _ZN7android19KeyboardInpu
199:   FUNC GLOBAL DEFAULT 14 _ZN7android22SingleTouchI
200:   FUNC GLOBAL DEFAULT 14 _ZN7android23CursorMotion
201:   FUNC GLOBAL DEFAULT 14 _ZN7android25ExternalStyl
202:   FUNC WEAK DEFAULT 14 _ZNSt3__16vectorIN7androi
203:   FUNC GLOBAL DEFAULT 14 _ZN7android8EventHub23loa
204:   FUNC GLOBAL DEFAULT 14 _ZN7android11InputReader2
205:   FUNC GLOBAL DEFAULT 14 _ZN7android19KeyboardInpu
206:   FUNC GLOBAL DEFAULT 14 __aeabi_memclr4
207:   FUNC GLOBAL DEFAULT 14 _ZN7android24RotaryEncode
208:   OBJECT GLOBAL DEFAULT 18 _ZTVN7android22SingleTouc
209:   FUNC GLOBAL DEFAULT 14 _ZNK7android8EventHub19ge
210:   FUNC GLOBAL DEFAULT 14 _ZN7android16TouchInputMa
211:   FUNC GLOBAL DEFAULT 14 _ZN7android16TouchInputMa
212:   FUNC GLOBAL DEFAULT 14 _ZN7android22SingleTouchI
213:   FUNC GLOBAL DEFAULT 14 _ZN7android11InputMapper2
214:   FUNC GLOBAL DEFAULT 14 _ZN7android11InputReader3
215:   FUNC GLOBAL DEFAULT 14 _ZN7android11InputReader7
216:   FUNC GLOBAL DEFAULT 14 _ZN7android16TouchInputMa
217:   FUNC GLOBAL DEFAULT 14 _ZN7android19JoystickInpu
218:   FUNC GLOBAL DEFAULT 14 _ZN7android24RotaryEncode
219:   FUNC GLOBAL DEFAULT 14 _ZN7android17CursorInputM
220:   FUNC GLOBAL DEFAULT 14 _ZN7android17CursorInputM
221:   FUNC GLOBAL DEFAULT 14 _ZNK7android16TouchInputM
222:   FUNC GLOBAL DEFAULT 14 __aeabi_memclr8
223:   FUNC GLOBAL DEFAULT 14 _ZN7android8EventHub14get
224:   FUNC GLOBAL DEFAULT 14 _ZN7android16TouchInputMa
225:   FUNC GLOBAL DEFAULT 14 _ZN7android17CursorInputM
226:   FUNC GLOBAL DEFAULT 14 _ZN7android19KeyboardInpu
227:   OBJECT WEAK DEFAULT 18 _ZTVN7android12SortedVect
228:   FUNC GLOBAL DEFAULT 14 _ZTv0_n12_N7android8Event
229:   FUNC GLOBAL DEFAULT 14 _ZN7android11InputDevice7
230:   FUNC GLOBAL DEFAULT 14 _ZN7android16TouchInputMa
231:   FUNC GLOBAL DEFAULT 14 _ZN7android19JoystickInpu
232:   FUNC GLOBAL DEFAULT 14 _ZN7android21MultiTouchIn
233:   FUNC GLOBAL DEFAULT 14 _ZN7android19VibratorInpu
234:   FUNC GLOBAL DEFAULT 14 _ZN7android11InputDevice1
235:   FUNC GLOBAL DEFAULT 14 _ZN7android11InputReader2
236:   FUNC GLOBAL DEFAULT 14 _ZN7android19JoystickInpu
237:   FUNC GLOBAL DEFAULT 14 _ZN7android19KeyboardInpu
238:   FUNC GLOBAL DEFAULT 14 _ZN7android25ExternalStyl
239:   FUNC GLOBAL DEFAULT 14 __floatdidf
240:   FUNC GLOBAL DEFAULT 14 _ZN7android16TouchVideoDe
241:   FUNC WEAK DEFAULT 14 _ZNSt3__16vectorINS_10uni
242:   FUNC GLOBAL DEFAULT 14 _ZN7android14RawPointerDa
243:   FUNC WEAK DEFAULT 14 _ZNK7android12SortedVecto
244:   FUNC GLOBAL DEFAULT 14 _ZN7android11InputDevice2
245:   FUNC GLOBAL DEFAULT 14 _ZN7android11InputReaderD
246:   FUNC GLOBAL DEFAULT 14 _ZN7android27MultiTouchMo
247:   FUNC GLOBAL DEFAULT 14 _ZNK7android22TouchButton
248:   FUNC GLOBAL DEFAULT 14 _ZN7android8EventHub21clo
249:   FUNC GLOBAL DEFAULT 14 _ZN7android8EventHub7moni
250:   FUNC GLOBAL DEFAULT 14 _ZNK7android8EventHub19ge
251:   FUNC GLOBAL DEFAULT 14 _ZN7android11InputMapper1
252:   FUNC GLOBAL DEFAULT 14 _ZN7android21MultiTouchIn
253:   FUNC WEAK DEFAULT 14 _ZNK7android12SortedVecto
254:   FUNC GLOBAL DEFAULT 14 _ZN7android19KeyboardInpu
255:   FUNC GLOBAL DEFAULT 14 _ZN7android22SingleTouchI
256:   FUNC GLOBAL DEFAULT 14 _ZNK7android22TouchButton
257:   FUNC GLOBAL DEFAULT 14 _ZN7android8EventHub6Devi
258:   FUNC GLOBAL DEFAULT 14 _ZNK7android8EventHub27ge
259:   FUNC GLOBAL DEFAULT 14 _ZN7android11InputDevice9
260:   FUNC GLOBAL DEFAULT 14 _ZN7android11InputReader1
261:   FUNC GLOBAL DEFAULT 14 _ZNK7android22SingleTouch
262:   FUNC GLOBAL DEFAULT 14 _ZN7android8EventHub13can
263:   FUNC GLOBAL DEFAULT 14 _ZN7android16TouchInputMa
264:   FUNC GLOBAL DEFAULT 14 _ZN7android16TouchInputMa
265:   FUNC GLOBAL DEFAULT 14 _ZN7android17CursorInputM
266:   FUNC GLOBAL DEFAULT 14 _ZN7android11InputDevice1
267:   FUNC GLOBAL DEFAULT 14 _ZN7android16TouchInputMa
268:   FUNC GLOBAL DEFAULT 14 _ZN7android16TouchInputMa
269:   FUNC GLOBAL DEFAULT 14 _ZN7android17CursorInputM
270:   FUNC GLOBAL DEFAULT 14 _ZN7android19KeyboardInpu
271:   FUNC GLOBAL DEFAULT 14 _ZN7android19KeyboardInpu
272:   FUNC GLOBAL DEFAULT 14 _ZN7android19VibratorInpu
273:   FUNC GLOBAL DEFAULT 14 _ZNK7android23CursorButto
274:   FUNC GLOBAL DEFAULT 14 __aeabi_memset
275:   FUNC GLOBAL DEFAULT 14 __aeabi_memset4
276:   FUNC GLOBAL DEFAULT 14 _ZN7android8EventHubD0Ev
277:   FUNC GLOBAL DEFAULT 14 _ZN7android16TouchInputMa
278:   FUNC GLOBAL DEFAULT 14 _ZN7android19KeyboardInpu
279:   FUNC GLOBAL DEFAULT 14 _ZN7android23CursorMotion
280:   FUNC GLOBAL DEFAULT 14 _ZN7android23CursorMotion
281:   OBJECT GLOBAL DEFAULT 18 _ZTVN7android11InputReade
282:   FUNC GLOBAL DEFAULT 14 _ZN7android16TouchInputMa
283:   FUNC GLOBAL DEFAULT 14 _ZN7android25ExternalStyl
284:   FUNC GLOBAL DEFAULT 14 _ZN7android11InputReader1
285:   FUNC GLOBAL DEFAULT 14 _ZN7android11InputReader7
286:   FUNC GLOBAL DEFAULT 14 _ZN7android11InputReaderC
287:   FUNC WEAK DEFAULT 14 _ZNK7android12SortedVecto
288:   FUNC GLOBAL DEFAULT 14 _ZN7android22TouchButtonA
289:   FUNC GLOBAL DEFAULT 14 __udivmodsi4
290:   FUNC GLOBAL DEFAULT 14 __aeabi_memset8
291:   FUNC WEAK DEFAULT 14 _ZNK7android12SortedVecto
292:   FUNC GLOBAL DEFAULT 14 _ZN7android11InputMapper1
293:   FUNC GLOBAL DEFAULT 14 _ZN7android17CursorInputM
294:   FUNC GLOBAL DEFAULT 14 _ZN7android19JoystickInpu
295:   FUNC GLOBAL DEFAULT 14 _ZN7android8EventHub18sca
296:   FUNC GLOBAL DEFAULT 14 _ZN7android8EventHub36unr
297:   FUNC GLOBAL DEFAULT 14 _ZNK7android8EventHub19ge
298:   FUNC GLOBAL DEFAULT 14 _ZN7android11InputDevice8
299:   FUNC GLOBAL DEFAULT 14 _ZN7android11InputMapper1
300:   FUNC GLOBAL DEFAULT 14 _ZN7android19JoystickInpu
301:   FUNC GLOBAL DEFAULT 14 _ZN7android25ExternalStyl
302:   OBJECT GLOBAL DEFAULT 18 _ZTVN7android24RotaryEnco
303:   FUNC GLOBAL DEFAULT 14 _ZN7android16TouchVideoDe
304:   FUNC GLOBAL DEFAULT 14 _ZN7android8EventHub15isD
305:   FUNC GLOBAL DEFAULT 14 _ZN7android16TouchInputMa
306:   FUNC GLOBAL DEFAULT 14 _ZN7android19KeyboardInpu
307:   FUNC GLOBAL DEFAULT 14 _ZN7android8EventHub28reg
308:   FUNC GLOBAL DEFAULT 14 _ZN7android27MultiTouchMo
309:   FUNC GLOBAL DEFAULT 14 _ZN7android8EventHub18reg
310:   FUNC GLOBAL DEFAULT 14 _ZN7android19JoystickInpu
311:   FUNC GLOBAL DEFAULT 14 _ZN7android22TouchButtonA
312:   FUNC GLOBAL DEFAULT 14 _ZN7android23CursorButton
313:   FUNC WEAK DEFAULT 14 _ZNK7android12SortedVecto
314:   FUNC GLOBAL DEFAULT 14 __aeabi_l2d
315:   FUNC WEAK DEFAULT 14 _ZNK7android12SortedVecto
316:   FUNC GLOBAL DEFAULT 14 _ZN7android16TouchInputMa
317:   FUNC GLOBAL DEFAULT 14 _ZN7android8EventHubC1Ev
318:   FUNC GLOBAL DEFAULT 14 _ZN7android16TouchInputMa
319:   FUNC GLOBAL DEFAULT 14 _ZN7android19KeyboardInpu
320:   FUNC GLOBAL DEFAULT 14 _ZN7android27MultiTouchMo
321:   FUNC GLOBAL DEFAULT 14 __aeabi_l2f
322:   FUNC GLOBAL DEFAULT 14 _ZN7android11InputDevice1
323:   FUNC GLOBAL DEFAULT 14 _ZN7android16TouchInputMa
324:   FUNC GLOBAL DEFAULT 14 _ZN7android8EventHub29get
325:   FUNC GLOBAL DEFAULT 14 _ZN7android17SwitchInputM
326:   FUNC GLOBAL DEFAULT 14 _ZN7android19KeyboardInpu
327:   FUNC WEAK DEFAULT 14 _ZNK7android12SortedVecto
328:   OBJECT GLOBAL DEFAULT 18 _ZTVN7android17CursorInpu
329:   OBJECT GLOBAL DEFAULT 18 _ZTVN7android25ExternalSt
330:   FUNC GLOBAL DEFAULT 14 __aeabi_memmove4
331:   FUNC GLOBAL DEFAULT 14 _ZN7android8EventHub20req
332:   FUNC GLOBAL DEFAULT 14 _ZN7android11InputReader1
333:   FUNC GLOBAL DEFAULT 14 _ZN7android24RotaryEncode
334:   FUNC GLOBAL DEFAULT 14 _ZN7android27MultiTouchMo
335:   FUNC WEAK DEFAULT 14 _ZNK7android12SortedVecto
336:   FUNC GLOBAL DEFAULT 14 _ZN7android14RawPointerAx
337:   FUNC GLOBAL DEFAULT 14 _ZN7android17SwitchInputM
338:   FUNC GLOBAL DEFAULT 14 _ZN7android19JoystickInpu
339:   FUNC GLOBAL DEFAULT 14 _ZN7android8EventHub12ena
340:   FUNC GLOBAL DEFAULT 14 _ZN7android11InputDevice1
341:   FUNC GLOBAL DEFAULT 14 _ZN7android19VibratorInpu
342:   FUNC GLOBAL DEFAULT 14 _ZN7android22SingleTouchI
343:   FUNC WEAK DEFAULT 14 _ZNK7android12SortedVecto
344:   FUNC GLOBAL DEFAULT 14 _ZN7android16TouchInputMa
345:   FUNC GLOBAL DEFAULT 14 _ZN7android19JoystickInpu
346:   FUNC GLOBAL DEFAULT 14 __aeabi_memmove8
347:   FUNC GLOBAL DEFAULT 14 _ZNK7android8EventHub7map
348:   FUNC GLOBAL DEFAULT 14 _ZN7android11InputReader1
349:   FUNC WEAK DEFAULT 14 _ZNSt3__16vectorIN7androi
350:   FUNC WEAK DEFAULT 14 _ZNSt3__16vectorIN7androi
351:   OBJECT GLOBAL DEFAULT 18 _ZTVN7android19VibratorIn
352:   FUNC GLOBAL DEFAULT 14 _ZN7android11InputReader1
353:   FUNC GLOBAL DEFAULT 14 _ZN7android19KeyboardInpu
354:   FUNC GLOBAL DEFAULT 14 _ZN7android21MultiTouchIn
355:   FUNC GLOBAL DEFAULT 14 _ZN7android23CursorScroll
356:   FUNC GLOBAL DEFAULT 14 _ZN7android25ExternalStyl
357:   FUNC GLOBAL DEFAULT 14 _ZTv0_n12_N7android8Event
358:   FUNC GLOBAL DEFAULT 14 _ZN7android16TouchInputMa
359:   FUNC GLOBAL DEFAULT 14 _ZN7android16TouchInputMa
360:   FUNC GLOBAL DEFAULT 14 _ZN7android16TouchInputMa
361:   FUNC GLOBAL DEFAULT 14 _ZN7android16TouchInputMa
362:   FUNC GLOBAL DEFAULT 14 _ZN7android21MultiTouchIn
363:   FUNC GLOBAL DEFAULT 14 _ZNK7android8EventHub15ha
364:   FUNC GLOBAL DEFAULT 14 _ZN7android11InputMapper1
365:   FUNC GLOBAL DEFAULT 14 _ZN7android16TouchInputMa
366:   FUNC GLOBAL DEFAULT 14 _ZN7android16TouchInputMa
367:   OBJECT GLOBAL DEFAULT 18 _ZTVN7android17SwitchInpu
368:   FUNC GLOBAL DEFAULT 14 __aeabi_memcpy
369:   FUNC GLOBAL DEFAULT 14 _ZN7android22TouchButtonA
370:   FUNC GLOBAL DEFAULT 14 _ZN7android23CursorButton
371:   OBJECT GLOBAL DEFAULT 18 _ZTVN7android19KeyboardIn
372:   OBJECT GLOBAL DEFAULT 18 _ZTVN7android8EventHubE
373:   FUNC GLOBAL DEFAULT 14 _ZN7android17CookedPointe
374:   FUNC GLOBAL DEFAULT 14 _ZN7android24RotaryEncode
375:   FUNC WEAK DEFAULT 14 _ZNK7android12SortedVecto
376:   FUNC GLOBAL DEFAULT 14 __aeabi_memclr
377:   FUNC GLOBAL DEFAULT 14 _ZN7android8EventHub22ass
378:   FUNC GLOBAL DEFAULT 14 _ZN7android11InputMapper1
379:   FUNC GLOBAL DEFAULT 14 _ZN7android11InputReaderD
380:   FUNC GLOBAL DEFAULT 14 _ZN7android19KeyboardInpu
381:   OBJECT GLOBAL DEFAULT 18 _ZTVN7android11InputReade
382:   OBJECT GLOBAL DEFAULT 18 _ZTVN7android21MultiTouch
383:   OBJECT WEAK DEFAULT 18 _ZTVN7android12SortedVect
384:   FUNC GLOBAL DEFAULT 14 _ZN7android16TouchInputMa
385:   FUNC GLOBAL DEFAULT 14 _ZN7android17CursorInputM
386:   FUNC GLOBAL DEFAULT 14 _ZN7android17CursorInputM
387:   FUNC GLOBAL DEFAULT 14 _ZN7android25ExternalStyl
388:   FUNC WEAK DEFAULT 14 _ZNK7android12SortedVecto
389:   FUNC GLOBAL DEFAULT 14 _ZN7android16TouchInputMa
390:   FUNC GLOBAL DEFAULT 14 _ZN7android17CursorInputM
391:   FUNC GLOBAL DEFAULT 14 _ZN7android19KeyboardInpu
392:   FUNC GLOBAL DEFAULT 14 _ZN7android19VibratorInpu
393:   FUNC GLOBAL DEFAULT 14 _ZN7android28SingleTouchM
394:   FUNC WEAK DEFAULT 14 _ZNK7android12SortedVecto
395:   FUNC WEAK DEFAULT 14 _ZNK7android12SortedVecto
396:   FUNC GLOBAL DEFAULT 14 _ZN7android11InputReader1
397:   FUNC GLOBAL DEFAULT 14 _ZN7android16TouchInputMa
398:   FUNC GLOBAL DEFAULT 14 _ZN7android11InputDevice9
399:   FUNC GLOBAL DEFAULT 14 _ZN7android11InputReader1
400:   FUNC GLOBAL DEFAULT 14 _ZN7android16TouchInputMa
401:   FUNC GLOBAL DEFAULT 14 _ZN7android19VibratorInpu
402:   FUNC GLOBAL DEFAULT 14 _ZNK7android8EventHub6has
403:   FUNC GLOBAL DEFAULT 14 _ZN7android11InputReader1
404:   FUNC GLOBAL DEFAULT 14 _ZN7android17CursorInputM
405:   FUNC WEAK DEFAULT 14 _ZNSt3__16vectorIN7androi
406:   FUNC GLOBAL DEFAULT 14 _ZN7android8EventHub21ope
407:   FUNC WEAK DEFAULT 14 _ZNSt3__16vectorIN7androi
408:   FUNC GLOBAL DEFAULT 14 _ZN7android17SwitchInputM
409:   FUNC GLOBAL DEFAULT 14 _ZN7android8EventHub6Devi
410:   FUNC GLOBAL DEFAULT 14 _ZN7android11InputMapper1
411:   FUNC WEAK DEFAULT 14 _ZNSt3__16vectorIN7androi
412:   FUNC GLOBAL DEFAULT 14 _ZN7android11InputReader1
413:   FUNC GLOBAL DEFAULT 14 _ZN7android11InputDevice1
414:   FUNC GLOBAL DEFAULT 14 _ZN7android19JoystickInpu
415:   FUNC GLOBAL DEFAULT 14 _ZN7android22TouchButtonA
416:   FUNC GLOBAL DEFAULT 14 _ZN7android24RotaryEncode
417:   FUNC GLOBAL DEFAULT 14 _ZNK7android8EventHub16ge
418:   OBJECT GLOBAL DEFAULT 18 _ZTCN7android8EventHubE0_
419:   FUNC GLOBAL DEFAULT 14 _ZN7android16TouchInputMa
420:   OBJECT WEAK DEFAULT 18 _ZTVN7android12SortedVect
421:   FUNC GLOBAL DEFAULT 14 _ZN7android19KeyboardInpu
422:   FUNC GLOBAL DEFAULT 14 _ZN7android19KeyboardInpu
423:   FUNC GLOBAL DEFAULT 14 _ZN7android16TouchVideoDe
424:   FUNC GLOBAL DEFAULT 14 _ZN7android16TouchInputMa
425:   FUNC GLOBAL DEFAULT 14 _ZN7android24RotaryEncode
426:   FUNC GLOBAL DEFAULT 14 _ZN7android8EventHub22isE
427:   FUNC GLOBAL DEFAULT 14 _ZN7android19VibratorInpu
428:   FUNC GLOBAL DEFAULT 14 _ZTv0_n12_N7android11Inpu
429:   FUNC GLOBAL DEFAULT 14 __aeabi_ldivmod
430:   FUNC GLOBAL DEFAULT 14 _ZN7android11InputReader1
431:   FUNC GLOBAL DEFAULT 14 _ZN7android17SwitchInputM
432:   FUNC GLOBAL DEFAULT 14 _ZN7android19JoystickInpu
433:   FUNC GLOBAL DEFAULT 14 _ZN7android8EventHub33reg
434:   FUNC GLOBAL DEFAULT 14 _ZN7android16TouchInputMa
435:   FUNC WEAK DEFAULT 14 _ZNSt3__16vectorIN7androi
436:   FUNC GLOBAL DEFAULT 14 _ZN7android8EventHub17clo
437:   FUNC GLOBAL DEFAULT 14 _ZN7android11InputDevice4
438:   FUNC GLOBAL DEFAULT 14 _ZN7android11InputReader1
439:   FUNC GLOBAL DEFAULT 14 _ZN7android11InputReader2
440:   FUNC GLOBAL DEFAULT 14 _ZN7android19KeyboardInpu
441:   FUNC GLOBAL DEFAULT 14 _ZN7android23CursorMotion
442:   FUNC WEAK DEFAULT 14 _ZNK7android12SortedVecto
443:   FUNC GLOBAL DEFAULT 14 _ZN7android8EventHub16rea
444:   FUNC WEAK DEFAULT 14 _ZNSt3__16vectorINS_12bas
445:   FUNC GLOBAL DEFAULT 14 _ZN7android11InputDevice9
446:   FUNC GLOBAL DEFAULT 14 _ZN7android19JoystickInpu
447:   FUNC GLOBAL DEFAULT 14 _ZN7android19VibratorInpu
448:   FUNC WEAK DEFAULT 14 _ZNK7android12SortedVecto
449:   FUNC GLOBAL DEFAULT 14 __udivsi3
450:   FUNC GLOBAL DEFAULT 14 _ZN7android8EventHub27cre
451:   FUNC GLOBAL DEFAULT 14 _ZN7android8EventHub31unr
452:   FUNC GLOBAL DEFAULT 14 _ZNK7android8EventHub16ha
453:   FUNC GLOBAL DEFAULT 14 _ZN7android16TouchInputMa
454:   FUNC GLOBAL DEFAULT 14 _ZN7android21MultiTouchIn
455:   FUNC GLOBAL DEFAULT 14 _ZN7android27MultiTouchMo
456:   FUNC WEAK DEFAULT 14 _ZNSt3__16vectorIsNS_9all
457:   FUNC GLOBAL DEFAULT 14 _ZN7android11InputMapper5
458:   FUNC GLOBAL DEFAULT 14 _ZN7android16TouchInputMa
459:   FUNC GLOBAL DEFAULT 14 _ZN7android19VibratorInpu
460:   FUNC WEAK DEFAULT 14 _ZNSt3__16vectorIN7androi
461:   FUNC GLOBAL DEFAULT 14 _ZN7android16TouchInputMa
462:   FUNC GLOBAL DEFAULT 14 _ZNK7android8EventHub15ge
463:   FUNC GLOBAL DEFAULT 14 _ZN7android11InputDevice1
464:   FUNC GLOBAL DEFAULT 14 _ZN7android27MultiTouchMo
465:   FUNC WEAK DEFAULT 14 _ZNSt3__16vectorIN7androi
466:   FUNC GLOBAL DEFAULT 14 _ZN7android16TouchInputMa
467:   FUNC GLOBAL DEFAULT 14 _ZN7android16TouchInputMa
468:   FUNC GLOBAL DEFAULT 14 __udivmoddi4
469:   FUNC GLOBAL DEFAULT 14 _ZN7android8EventHub6Devi
470:   FUNC GLOBAL DEFAULT 14 _ZN7android15getAbsAxisUs
471:   FUNC GLOBAL DEFAULT 14 _ZN7android11InputReader1
472:   OBJECT GLOBAL DEFAULT 18 _ZTVN7android16TouchInput
473:   FUNC GLOBAL DEFAULT 14 _ZN7android8EventHub6Devi
474:   FUNC GLOBAL DEFAULT 14 _ZNK7android8EventHub20ge
475:   FUNC GLOBAL DEFAULT 14 _ZN7android16TouchInputMa
476:   FUNC GLOBAL DEFAULT 14 _ZN7android19VibratorInpu
477:   FUNC GLOBAL DEFAULT 14 _ZN7android19JoystickInpu
478:   FUNC WEAK DEFAULT 14 _ZNK7android12SortedVecto
479:   FUNC GLOBAL DEFAULT 14 _ZN7android11InputReader1
480:   FUNC GLOBAL DEFAULT 14 _ZN7android23CursorScroll
481:   FUNC GLOBAL DEFAULT 14 _ZNK7android21MultiTouchI
482:   OBJECT GLOBAL DEFAULT 13 _ZN7android8EventHub16EPO
483:   FUNC GLOBAL DEFAULT 14 _ZNK7android8EventHub15ge
484:   OBJECT GLOBAL DEFAULT 18 _ZTTN7android8EventHubE
485:   FUNC GLOBAL DEFAULT 14 _ZN7android11InputDeviceC
486:   FUNC GLOBAL DEFAULT 14 _ZN7android11InputReader1
487:   FUNC GLOBAL DEFAULT 14 _ZN7android22TouchButtonA
488:   OBJECT GLOBAL DEFAULT 18 _ZTVN7android19JoystickIn
489:   FUNC GLOBAL DEFAULT 14 _ZN7android11InputDeviceD
490:   FUNC GLOBAL DEFAULT 14 _ZN7android17CookedPointe
491:   OBJECT GLOBAL DEFAULT 18 _ZTCN7android11InputReade
492:   FUNC GLOBAL DEFAULT 14 _ZN7android8EventHub29rel
493:   FUNC GLOBAL DEFAULT 14 _ZN7android8EventHub4wake
494:   FUNC GLOBAL DEFAULT 14 _ZN7android11InputMapperD
495:   FUNC GLOBAL DEFAULT 14 _ZN7android11InputReader1
496:   FUNC GLOBAL DEFAULT 14 _ZN7android11InputReaderD
497:   FUNC GLOBAL DEFAULT 14 _ZN7android16TouchInputMa
498:   FUNC GLOBAL DEFAULT 14 _ZN7android16TouchInputMa
499:   FUNC GLOBAL DEFAULT 14 _ZN7android19VibratorInpu
500:   FUNC WEAK DEFAULT 14 _ZNK7android12SortedVecto
501:   FUNC GLOBAL DEFAULT 14 _ZNK7android27MultiTouchM
502:   FUNC GLOBAL DEFAULT 14 _ZN7android11InputDevice1
503:   FUNC GLOBAL DEFAULT 14 _ZN7android11InputMapper2
504:   FUNC GLOBAL DEFAULT 14 _ZN7android23CursorScroll
505:   FUNC GLOBAL DEFAULT 14 _ZN7android28SingleTouchM
506:   FUNC GLOBAL DEFAULT 14 _ZN7android11InputDevice2
507:   FUNC GLOBAL DEFAULT 14 _ZN7android11InputReader1
508:   FUNC GLOBAL DEFAULT 14 _ZN7android21MultiTouchIn
509:   FUNC GLOBAL DEFAULT 14 _ZN7android25ExternalStyl
510:   FUNC WEAK DEFAULT 14 _ZNSt3__16vectorIPN7andro
511:   FUNC GLOBAL DEFAULT 14 _ZNK7android8EventHub21ma
512:   FUNC GLOBAL DEFAULT 14 _ZN7android16TouchInputMa
513:   FUNC GLOBAL DEFAULT 14 _ZN7android23CursorButton
514:   FUNC WEAK DEFAULT 14 _ZNSt3__16vectorIN7androi
515:   FUNC GLOBAL DEFAULT 14 _ZN7android8EventHub9getE
516:   FUNC GLOBAL DEFAULT 14 _ZNK7android8EventHub24ge
517:   FUNC GLOBAL DEFAULT 14 _ZN7android16TouchInputMa
518:   FUNC GLOBAL DEFAULT 14 _ZN7android19KeyboardInpu
519:   FUNC GLOBAL DEFAULT 14 _ZN7android21MultiTouchIn
520:   FUNC WEAK DEFAULT 14 _ZNK7android12SortedVecto
521:   FUNC WEAK DEFAULT 14 _ZNK7android12SortedVecto
522:   FUNC GLOBAL DEFAULT 14 _ZNK7android8EventHub25ge
523:   FUNC GLOBAL DEFAULT 14 __aeabi_memmove
524:   FUNC GLOBAL DEFAULT 14 _ZN7android16TouchInputMa
525:   FUNC GLOBAL DEFAULT 14 _ZN7android8EventHub13dis
526:   FUNC GLOBAL DEFAULT 14 _ZN7android8EventHub16ope
527:   FUNC GLOBAL DEFAULT 14 _ZN7android8EventHub6Devi
528:   FUNC GLOBAL DEFAULT 14 _ZN7android11InputDevice7
529:   FUNC GLOBAL DEFAULT 14 _ZN7android22SingleTouchI
530:   FUNC GLOBAL DEFAULT 14 _ZN7android11InputReader1
531:   FUNC GLOBAL DEFAULT 14 _ZN7android16TouchInputMa
532:   FUNC GLOBAL DEFAULT 14 _ZN7android24RotaryEncode
533:   FUNC GLOBAL DEFAULT 14 _ZN7android11InputReader2
534:   FUNC GLOBAL DEFAULT 14 _ZN7android17SwitchInputM
535:   FUNC GLOBAL DEFAULT 14 _ZN7android11InputReader7
536:   FUNC GLOBAL DEFAULT 14 _ZN7android14RawPointerDa
537:   FUNC GLOBAL DEFAULT 14 _ZN7android16TouchInputMa
538:   FUNC GLOBAL DEFAULT 14 _ZN7android16TouchInputMa
539:   FUNC GLOBAL DEFAULT 14 _ZN7android17createInputR
540:   FUNC GLOBAL DEFAULT 14 _ZN7android17CookedPointe
541:   FUNC GLOBAL DEFAULT 14 _ZN7android19KeyboardInpu
542:   FUNC GLOBAL DEFAULT 14 __floatdisf
543:   FUNC GLOBAL DEFAULT 14 _ZN7android11InputReader1
544:   FUNC GLOBAL DEFAULT 14 _ZN7android19JoystickInpu
545:   FUNC GLOBAL DEFAULT 14 _ZN7android24RotaryEncode
546:   FUNC GLOBAL DEFAULT 14 _ZN7android27MultiTouchMo
547:   FUNC GLOBAL DEFAULT 14 _ZN7android28SingleTouchM
548:   FUNC WEAK DEFAULT 14 _ZNSt3__112__hash_tableIN
549:   FUNC GLOBAL DEFAULT 14 _ZN7android8EventHub23clo
550:   FUNC GLOBAL DEFAULT 14 _ZN7android11InputReader1
551:   FUNC GLOBAL DEFAULT 14 _ZN7android16TouchInputMa
552:   FUNC GLOBAL DEFAULT 14 _ZTv0_n12_N7android11Inpu
553:   FUNC GLOBAL DEFAULT 14 _ZN7android8EventHub15add
554:   FUNC GLOBAL DEFAULT 14 _ZN7android11InputMapper4
555:   FUNC GLOBAL DEFAULT 14 _ZN7android17CursorInputM
556:   FUNC GLOBAL DEFAULT 14 _ZN7android17SwitchInputM
557:   FUNC GLOBAL DEFAULT 14 _ZN7android19JoystickInpu
558:   FUNC GLOBAL DEFAULT 14 _ZNK7android8EventHub18ge
559:   FUNC GLOBAL DEFAULT 14 _ZN7android17CursorInputM
560:   FUNC GLOBAL DEFAULT 14 _ZN7android16TouchVideoDe
561:   FUNC GLOBAL DEFAULT 14 __divmoddi4
562:   FUNC GLOBAL DEFAULT 14 _ZNK7android8EventHub21ge
563:   FUNC GLOBAL DEFAULT 14 _ZNK7android8EventHub6map
564:   FUNC GLOBAL DEFAULT 14 _ZN7android16TouchInputMa
565:   FUNC GLOBAL DEFAULT 14 _ZNK7android8EventHub11ha
566:   FUNC GLOBAL DEFAULT 14 _ZN7android14RawPointerAx
567:   FUNC GLOBAL DEFAULT 14 _ZN7android11InputMapper1
568:   FUNC GLOBAL DEFAULT 14 _ZN7android17SwitchInputM
569:   FUNC GLOBAL DEFAULT 14 _ZN7android11InputReader3
570:   FUNC GLOBAL DEFAULT 14 _ZN7android16TouchInputMa
571:   FUNC WEAK DEFAULT 14 _ZNSt3__16vectorIN7androi
572:   FUNC GLOBAL DEFAULT 14 _ZN7android11InputDevice1
573:   FUNC GLOBAL DEFAULT 14 _ZN7android11InputMapper1
574:   FUNC WEAK DEFAULT 14 _ZNSt3__112__hash_tableIN
575:   FUNC GLOBAL DEFAULT 14 _ZN7android16TouchInputMa
576:   FUNC GLOBAL DEFAULT 14 _ZN7android19VibratorInpu
577:   FUNC GLOBAL DEFAULT 14 _ZN7android23CursorScroll
578:   FUNC GLOBAL DEFAULT 14 _ZN7android8EventHub17sca
579:   FUNC GLOBAL DEFAULT 14 _ZN7android8EventHubD2Ev
580:   FUNC WEAK DEFAULT 14 _ZNK7android12SortedVecto
581:   FUNC GLOBAL DEFAULT 14 _ZN7android25ExternalStyl
582:   FUNC GLOBAL DEFAULT 14 _ZN7android27MultiTouchMo
583:   FUNC GLOBAL DEFAULT 14 _ZN7android8EventHub7vibr
584:   FUNC GLOBAL DEFAULT 14 _ZN7android11InputMapper7
585:   FUNC GLOBAL DEFAULT 14 _ZN7android16TouchInputMa
586:   FUNC WEAK DEFAULT 14 _ZNKSt3__112__hash_tableI
587:   FUNC GLOBAL DEFAULT 14 _ZN7android16TouchVideoDe
588:   FUNC GLOBAL DEFAULT 14 _ZN7android8EventHub17set
589:   FUNC GLOBAL DEFAULT 14 _ZN7android19KeyboardInpu
590:   FUNC GLOBAL DEFAULT 14 _ZN7android23CursorMotion
591:   FUNC WEAK DEFAULT 14 _ZNSt3__112__hash_tableIN
592:   FUNC GLOBAL DEFAULT 14 _ZN7android11InputReader2
593:   FUNC GLOBAL DEFAULT 14 _ZN7android16TouchInputMa
594:   FUNC GLOBAL DEFAULT 14 _ZN7android24RotaryEncode
595:   OBJECT WEAK DEFAULT 18 _ZTVN7android12SortedVect
596:   FUNC GLOBAL DEFAULT 14 __aeabi_uidiv
597:   FUNC GLOBAL DEFAULT 14 _ZN7android11InputDevice1
598:   FUNC GLOBAL DEFAULT 14 _ZN7android11InputDevice1
599:   FUNC GLOBAL DEFAULT 14 _ZN7android11InputReader1
600:   FUNC GLOBAL DEFAULT 14 _ZN7android16TouchInputMa
601:   FUNC GLOBAL DEFAULT 14 _ZN7android17CursorInputM
602:   FUNC GLOBAL DEFAULT 14 _ZN7android19KeyboardInpu
603:   FUNC GLOBAL DEFAULT 14 __divdi3
604:   FUNC GLOBAL DEFAULT 14 _ZN7android23CursorButton
605:   FUNC GLOBAL DEFAULT 14 _ZN7android11InputReader1
606:   FUNC GLOBAL DEFAULT 14 _ZN7android16TouchInputMa
607:   FUNC GLOBAL DEFAULT 14 _ZN7android16TouchInputMa
608:   FUNC GLOBAL DEFAULT 14 _ZN7android16TouchInputMa
609:   FUNC GLOBAL DEFAULT 14 _ZN7android17CursorInputM
610:   FUNC GLOBAL DEFAULT 14 _ZN7android19VibratorInpu
611:   FUNC GLOBAL DEFAULT 14 _ZN7android27MultiTouchMo
612:   FUNC GLOBAL DEFAULT 14 _ZNK7android14RawPointerD
613:   FUNC GLOBAL DEFAULT 14 _ZN7android11InputReader2
614:   FUNC GLOBAL DEFAULT 14 _ZN7android16TouchInputMa
615:   FUNC GLOBAL DEFAULT 14 _ZN7android8EventHub23loa
616:   FUNC GLOBAL DEFAULT 14 _ZNK7android8EventHub16ha
617:   FUNC GLOBAL DEFAULT 14 _ZN7android11InputDevice1
618:   FUNC GLOBAL DEFAULT 14 _ZN7android11InputDeviceD
619:   FUNC GLOBAL DEFAULT 14 _ZN7android11InputMapper9
620:   FUNC GLOBAL DEFAULT 14 _ZN7android11InputMapperD
621:   FUNC GLOBAL DEFAULT 14 _ZN7android17CursorInputM
622:   FUNC GLOBAL DEFAULT 14 _ZN7android8EventHub6Devi
623:   FUNC GLOBAL DEFAULT 14 _ZN7android11InputReader2
624:   FUNC GLOBAL DEFAULT 14 _ZN7android28SingleTouchM
625:   FUNC GLOBAL DEFAULT 14 _ZN7android8EventHub11set
626:   FUNC GLOBAL DEFAULT 14 _ZN7android11InputReader2
627:   FUNC GLOBAL DEFAULT 14 _ZN7android16TouchInputMa
628:   FUNC GLOBAL DEFAULT 14 _ZN7android23CursorScroll
629:   FUNC GLOBAL DEFAULT 14 _ZN7android16TouchInputMa
630:   FUNC GLOBAL DEFAULT 14 _ZN7android21MultiTouchIn
631:   FUNC WEAK DEFAULT 14 _ZNK7android12SortedVecto
632:   FUNC GLOBAL DEFAULT 14 __aeabi_memcpy4
633:   FUNC GLOBAL DEFAULT 14 _ZN7android11InputMapperC
634:   FUNC GLOBAL DEFAULT 14 _ZN7android11InputReader4
635:   FUNC GLOBAL DEFAULT 14 _ZN7android16TouchInputMa
636:   FUNC GLOBAL DEFAULT 14 _ZN7android17SwitchInputM
637:   FUNC GLOBAL DEFAULT 14 _ZN7android11InputDevice2
638:   FUNC GLOBAL DEFAULT 14 _ZN7android11InputMapper1
639:   FUNC WEAK DEFAULT 14 _ZNK7android12SortedVecto
640:   FUNC GLOBAL DEFAULT 14 _ZN7android11InputDeviceC
641:   FUNC GLOBAL DEFAULT 14 _ZN7android11InputReader1
642:   FUNC GLOBAL DEFAULT 14 _ZN7android11InputReader2
643:   FUNC GLOBAL DEFAULT 14 _ZN7android17SwitchInputM
644:   FUNC GLOBAL DEFAULT 14 _ZN7android19KeyboardInpu
645:   FUNC GLOBAL DEFAULT 14 _ZN7android22SingleTouchI
646:   FUNC GLOBAL DEFAULT 14 _ZNK7android22TouchButton
647:   FUNC GLOBAL DEFAULT 14 __aeabi_memcpy8
648:   FUNC WEAK DEFAULT 14 _ZNK7android12SortedVecto
649:   FUNC GLOBAL DEFAULT 14 _ZN7android11InputReader2
650:   FUNC GLOBAL DEFAULT 14 _ZN7android16TouchInputMa
651:   FUNC GLOBAL DEFAULT 14 _ZN7android19KeyboardInpu
652:   FUNC GLOBAL DEFAULT 14 _ZN7android19KeyboardInpu
653:   FUNC GLOBAL DEFAULT 14 _ZN7android27MultiTouchMo
654:   FUNC GLOBAL DEFAULT 14 _ZN7android11InputDevice1
655:   FUNC GLOBAL DEFAULT 14 _ZN7android11InputReaderC
656:   FUNC GLOBAL DEFAULT 14 _ZN7android14RawPointerDa
657:   FUNC GLOBAL DEFAULT 14 _ZN7android16TouchInputMa
658:   FUNC GLOBAL DEFAULT 14 _ZN7android8EventHub25set
659:   FUNC GLOBAL DEFAULT 14 _ZN7android19JoystickInpu
660:   FUNC GLOBAL DEFAULT 14 _ZN7android23CursorScroll
661:   OBJECT GLOBAL DEFAULT 18 _ZTTN7android11InputReade
662:   FUNC GLOBAL DEFAULT 14 _ZN7android8EventHub11con
663:   FUNC GLOBAL DEFAULT 14 _ZN7android8EventHub18set
664:   FUNC GLOBAL DEFAULT 14 _ZN7android8EventHub6Devi
665:   FUNC GLOBAL DEFAULT 14 _ZN7android11InputMapper1
666:   FUNC GLOBAL DEFAULT 14 _ZN7android16TouchInputMa
667:   FUNC GLOBAL DEFAULT 14 _ZN7android16TouchInputMa
668:   FUNC GLOBAL DEFAULT 14 _ZN7android16TouchInputMa
669:   FUNC GLOBAL DEFAULT 14 _ZN7android19JoystickInpu
670:   FUNC GLOBAL DEFAULT 14 _ZN7android21MultiTouchIn
671:   FUNC GLOBAL DEFAULT 14 _ZN7android22SingleTouchI
672:   FUNC GLOBAL DEFAULT 14 _ZN7android24RotaryEncode
673:   FUNC WEAK DEFAULT 14 _ZNK7android12SortedVecto
674:   FUNC GLOBAL DEFAULT 14 _ZNK7android22TouchButton
675:   FUNC GLOBAL DEFAULT 14 _ZN7android16TouchVideoDe
676:   FUNC WEAK DEFAULT 14 _ZNK7android12SortedVecto
677:   FUNC GLOBAL DEFAULT 14 _ZN7android11InputMapper1
678:   FUNC WEAK DEFAULT 14 _ZNSt3__16vectorIN7androi
679:   FUNC GLOBAL DEFAULT 14 __aeabi_uidivmod
680:   FUNC GLOBAL DEFAULT 14 _ZN7android16TouchVideoDe
681:   FUNC GLOBAL DEFAULT 14 _ZN7android11InputMapper1
682:   FUNC GLOBAL DEFAULT 14 _ZN7android19JoystickInpu
683:   FUNC GLOBAL DEFAULT 14 _ZN7android22TouchButtonA
684:   FUNC GLOBAL DEFAULT 14 _ZN7android8EventHub21unr
685:   FUNC GLOBAL DEFAULT 14 _ZN7android14RawPointerAx
686:   FUNC GLOBAL DEFAULT 14 _ZNK7android16TouchVideoD
687:   FUNC GLOBAL DEFAULT 14 _ZN7android11InputReader2
688:   FUNC GLOBAL DEFAULT 14 _ZN7android11InputReader2
689:   FUNC GLOBAL DEFAULT 14 _ZN7android16TouchInputMa
690:   FUNC GLOBAL DEFAULT 14 _ZN7android19KeyboardInpu
691:   FUNC GLOBAL DEFAULT 14 _ZN7android8EventHub13sca
692:   FUNC GLOBAL DEFAULT 14 _ZN7android8EventHub24set
693:   FUNC GLOBAL DEFAULT 14 _ZN7android11InputReader1
694:   FUNC GLOBAL DEFAULT 14 _ZN7android11InputReader1
695:   FUNC GLOBAL DEFAULT 14 _ZN7android16TouchInputMa
696:   FUNC GLOBAL DEFAULT 14 _ZN7android16TouchInputMa
697:   FUNC GLOBAL DEFAULT 14 _ZNK7android8EventHub14ge
698:   FUNC GLOBAL DEFAULT 14 _ZNK7android8EventHub6map
699:   FUNC GLOBAL DEFAULT 14 _ZN7android11InputMapper2
700:   FUNC GLOBAL DEFAULT 14 _ZN7android19JoystickInpu
701:   FUNC GLOBAL DEFAULT 14 _ZN7android24RotaryEncode
702:   FUNC WEAK DEFAULT 14 _ZNK7android12SortedVecto
703:   FUNC GLOBAL DEFAULT 14 _ZN7android8EventHub4dump
704:   FUNC GLOBAL DEFAULT 14 _ZN7android11InputDevice1
705:   FUNC GLOBAL DEFAULT 14 _ZN7android11InputReader1
706:   FUNC GLOBAL DEFAULT 14 _ZN7android19VibratorInpu
707:   FUNC GLOBAL DEFAULT 14 _ZN7android8EventHubD1Ev
708:   FUNC GLOBAL DEFAULT 14 _ZN7android17CursorInputM
709:   FUNC GLOBAL DEFAULT 14 _ZN7android23CursorMotion
710:   FUNC GLOBAL DEFAULT 14 _ZN7android27MultiTouchMo
711:   FUNC GLOBAL DEFAULT 14 _ZN7android11InputReader2
712:   FUNC GLOBAL DEFAULT 14 _ZN7android16TouchInputMa
713:   FUNC GLOBAL DEFAULT 14 _ZN7android16TouchVideoDe
714:   FUNC GLOBAL DEFAULT 14 _ZN7android11InputDevice5
715:   FUNC GLOBAL DEFAULT 14 _ZN7android11InputReader8
716:   FUNC GLOBAL DEFAULT 14 _ZN7android17SwitchInputM
717:   FUNC GLOBAL DEFAULT 14 _ZN7android19KeyboardInpu
718:   FUNC GLOBAL DEFAULT 14 _ZN7android11InputReader2
719:   FUNC GLOBAL DEFAULT 14 _ZN7android11InputReader3
720:   FUNC WEAK DEFAULT 14 _ZNK7android12SortedVecto
721:   FUNC GLOBAL DEFAULT 14 _ZN7android14RawPointerDa
722:   FUNC GLOBAL DEFAULT 14 _ZN7android16TouchInputMa
723:   FUNC GLOBAL DEFAULT 14 _ZN7android22SingleTouchI
724:   FUNC GLOBAL DEFAULT 14 _ZN7android23CursorButton
725:   OBJECT GLOBAL DEFAULT 18 _ZTVN7android11InputMappe
726:   FUNC GLOBAL DEFAULT 14 _ZNK7android8EventHub16ge
727:   FUNC GLOBAL DEFAULT 14 _ZN7android17CursorInputM
728:   FUNC GLOBAL DEFAULT 14 _ZN7android19JoystickInpu
729:   FUNC GLOBAL DEFAULT 14 _ZN7android19KeyboardInpu
730:   FUNC GLOBAL DEFAULT 14 _ZN7android19VibratorInpu
731:   FUNC GLOBAL DEFAULT 14 _ZN7android24RotaryEncode
