 0x000000000000000e (SONAME)             Library soname: [libmedia.so]
  
Symbol   contains 1553 entries:
Num:   Type Bind Vis Ndx Name
0:   NOTYPE LOCAL DEFAULT UND
1:   FUNC GLOBAL DEFAULT UND __cxa_finalize@LIBC (2)
2:   FUNC GLOBAL DEFAULT UND __cxa_atexit@LIBC (2)
3:   FUNC GLOBAL DEFAULT UND _ZN7android10IInterface8a
4:   FUNC GLOBAL DEFAULT UND _ZN7android10IInterfaceC2
5:   FUNC GLOBAL DEFAULT UND _ZN7android10IInterfaceD0
6:   FUNC GLOBAL DEFAULT UND _ZN7android10IInterfaceD1
7:   FUNC GLOBAL DEFAULT UND _ZN7android10IInterfaceD2
8:   FUNC GLOBAL DEFAULT UND _ZN7android10VectorImpl13
9:   FUNC GLOBAL DEFAULT UND _ZN7android14sp_report_ra
10:   FUNC GLOBAL DEFAULT UND _ZN7android16SortedVector
11:   FUNC GLOBAL DEFAULT UND _ZN7android16SortedVector
12:   FUNC GLOBAL DEFAULT UND _ZN7android16SortedVector
13:   FUNC GLOBAL DEFAULT UND _ZN7android6Parcel10write
14:   FUNC GLOBAL DEFAULT UND _ZN7android6Parcel10write
15:   FUNC GLOBAL DEFAULT UND _ZN7android6Parcel11write
16:   FUNC GLOBAL DEFAULT UND _ZN7android6Parcel12write
17:   FUNC GLOBAL DEFAULT UND _ZN7android6Parcel12write
18:   FUNC GLOBAL DEFAULT UND _ZN7android6Parcel17write
19:   FUNC GLOBAL DEFAULT UND _ZN7android6Parcel19write
20:   FUNC GLOBAL DEFAULT UND _ZN7android6ParcelC1Ev
21:   FUNC GLOBAL DEFAULT UND _ZN7android6ParcelD1Ev
22:   FUNC GLOBAL DEFAULT UND _ZN7android7BBinder10onTr
23:   FUNC GLOBAL DEFAULT UND _ZN7android7BBinder10ping
24:   FUNC GLOBAL DEFAULT UND _ZN7android7BBinder11link
25:   FUNC GLOBAL DEFAULT UND _ZN7android7BBinder11loca
26:   FUNC GLOBAL DEFAULT UND _ZN7android7BBinder12atta
27:   FUNC GLOBAL DEFAULT UND _ZN7android7BBinder12deta
28:   FUNC GLOBAL DEFAULT UND _ZN7android7BBinder13unli
29:   FUNC GLOBAL DEFAULT UND _ZN7android7BBinder4dumpE
30:   FUNC GLOBAL DEFAULT UND _ZN7android7BBinder8trans
31:   FUNC GLOBAL DEFAULT UND _ZN7android7BBinderD0Ev
32:   FUNC GLOBAL DEFAULT UND _ZN7android7BBinderD1Ev
33:   FUNC GLOBAL DEFAULT UND _ZN7android7IBinder11loca
34:   FUNC GLOBAL DEFAULT UND _ZN7android7IBinder12remo
35:   FUNC GLOBAL DEFAULT UND _ZN7android7IBinder19quer
36:   FUNC GLOBAL DEFAULT UND _ZN7android7IBinderD0Ev
37:   FUNC GLOBAL DEFAULT UND _ZN7android7IBinderD1Ev
38:   FUNC GLOBAL DEFAULT UND _ZN7android7IMemory11asIn
39:   FUNC GLOBAL DEFAULT UND _ZN7android7RefBase10onFi
40:   FUNC GLOBAL DEFAULT UND _ZN7android7RefBase13onLa
41:   FUNC GLOBAL DEFAULT UND _ZN7android7RefBase15onLa
42:   FUNC GLOBAL DEFAULT UND _ZN7android7RefBase20onIn
43:   FUNC GLOBAL DEFAULT UND _ZN7android7RefBaseC2Ev
44:   FUNC GLOBAL DEFAULT UND _ZN7android7RefBaseD2Ev
45:   FUNC GLOBAL DEFAULT UND _ZN7android7String85setTo
46:   FUNC GLOBAL DEFAULT UND _ZN7android7String8C1EPKc
47:   FUNC GLOBAL DEFAULT UND _ZN7android7String8C1ERKS
48:   FUNC GLOBAL DEFAULT UND _ZN7android7String8C1Ev
49:   FUNC GLOBAL DEFAULT UND _ZN7android7String8D1Ev
50:   FUNC GLOBAL DEFAULT UND _ZN7android8String16C1EPK
51:   FUNC GLOBAL DEFAULT UND _ZN7android8String16D1Ev
52:   FUNC GLOBAL DEFAULT UND _ZN7android9BpRefBase10on
53:   FUNC GLOBAL DEFAULT UND _ZN7android9BpRefBase15on
54:   FUNC GLOBAL DEFAULT UND _ZN7android9BpRefBase20on
55:   FUNC GLOBAL DEFAULT UND _ZN7android9BpRefBaseC2ER
56:   FUNC GLOBAL DEFAULT UND _ZN7android9BpRefBaseD0Ev
57:   FUNC GLOBAL DEFAULT UND _ZN7android9BpRefBaseD1Ev
58:   FUNC GLOBAL DEFAULT UND _ZN7android9BpRefBaseD2Ev
59:   FUNC GLOBAL DEFAULT UND _ZNK7android6Parcel10read
60:   FUNC GLOBAL DEFAULT UND _ZNK7android6Parcel11read
61:   FUNC GLOBAL DEFAULT UND _ZNK7android6Parcel11read
62:   FUNC GLOBAL DEFAULT UND _ZNK7android6Parcel14chec
63:   FUNC GLOBAL DEFAULT UND _ZNK7android6Parcel16read
64:   FUNC GLOBAL DEFAULT UND _ZNK7android6Parcel9dataA
65:   FUNC GLOBAL DEFAULT UND _ZNK7android6Parcel9readI
66:   FUNC GLOBAL DEFAULT UND _ZNK7android6Parcel9readI
67:   FUNC GLOBAL DEFAULT UND _ZNK7android6Parcel9readI
68:   FUNC GLOBAL DEFAULT UND _ZNK7android7BBinder10fin
69:   FUNC GLOBAL DEFAULT UND _ZNK7android7BBinder13isB
70:   FUNC GLOBAL DEFAULT UND _ZNK7android7BBinder22get
71:   FUNC GLOBAL DEFAULT UND _ZNK7android7IBinder13che
72:   FUNC GLOBAL DEFAULT UND _ZNK7android7RefBase9decS
73:   FUNC GLOBAL DEFAULT UND _ZNK7android7RefBase9incS
74:   FUNC GLOBAL DEFAULT UND _ZNK7android8String164siz
75:   FUNC GLOBAL DEFAULT UND _ZTv0_n24_N7android10IInt
76:   FUNC GLOBAL DEFAULT UND _ZTv0_n24_N7android10IInt
77:   FUNC GLOBAL DEFAULT UND _ZTv0_n24_N7android7BBind
78:   FUNC GLOBAL DEFAULT UND _ZTv0_n24_N7android7BBind
79:   FUNC GLOBAL DEFAULT UND _ZTv0_n24_N7android7IBind
80:   FUNC GLOBAL DEFAULT UND _ZTv0_n24_N7android7IBind
81:   FUNC GLOBAL DEFAULT UND _ZTv0_n24_N7android9BpRef
82:   FUNC GLOBAL DEFAULT UND _ZTv0_n24_N7android9BpRef
83:   FUNC GLOBAL DEFAULT UND _ZTv0_n32_N7android9BpRef
84:   FUNC GLOBAL DEFAULT UND _ZTv0_n40_N7android9BpRef
85:   FUNC GLOBAL DEFAULT UND _ZTv0_n48_N7android9BpRef
86:   FUNC GLOBAL DEFAULT UND _ZdlPv
87:   FUNC GLOBAL DEFAULT UND _Znwm
88:   FUNC GLOBAL DEFAULT UND __cxa_pure_virtual
89:   FUNC GLOBAL DEFAULT UND __stack_chk_fail@LIBC (2)
90:   FUNC GLOBAL DEFAULT UND abort@LIBC (2)
91:   FUNC GLOBAL DEFAULT UND memmove@LIBC (2)
92:   FUNC GLOBAL DEFAULT UND strcmp@LIBC (2)
93:   FUNC GLOBAL DEFAULT UND strzcmp16
94:   FUNC GLOBAL DEFAULT UND _ZN7android7String812appe
95:   FUNC GLOBAL DEFAULT UND _ZN7android11AudioSystem1
96:   FUNC GLOBAL DEFAULT UND _ZN7android11AudioSystem2
97:   FUNC GLOBAL DEFAULT UND _ZN7android11AudioSystem2
98:   FUNC GLOBAL DEFAULT UND _ZN7android14IPCThreadSta
99:   FUNC GLOBAL DEFAULT UND _ZN7android14IPCThreadSta
100:   FUNC GLOBAL DEFAULT UND _ZN7android6Parcel10appen
101:   FUNC GLOBAL DEFAULT UND _ZN7android7BBinderC2Ev
102:   FUNC GLOBAL DEFAULT UND _ZN7android7BBinderD2Ev
103:   FUNC GLOBAL DEFAULT UND _ZN7android7RefBase12weak
104:   FUNC GLOBAL DEFAULT UND _ZNK7android6Parcel8dataS
105:   FUNC GLOBAL DEFAULT UND _ZNK7android7RefBase10cre
106:   FUNC GLOBAL DEFAULT UND __android_log_print@LIBLOG (3)
107:   FUNC GLOBAL DEFAULT UND androidGetThreadId
108:   FUNC GLOBAL DEFAULT UND inet_aton@LIBC (2)
109:   FUNC GLOBAL DEFAULT UND pthread_cond_destroy@LIBC (2)
110:   FUNC GLOBAL DEFAULT UND pthread_cond_init@LIBC (2)
111:   FUNC GLOBAL DEFAULT UND pthread_cond_signal@LIBC (2)
112:   FUNC GLOBAL DEFAULT UND pthread_cond_wait@LIBC (2)
113:   FUNC GLOBAL DEFAULT UND pthread_condattr_destroy@LIBC (2)
114:   FUNC GLOBAL DEFAULT UND pthread_condattr_init@LIBC (2)
115:   FUNC GLOBAL DEFAULT UND pthread_condattr_setclock@LIBC (2)
116:   FUNC GLOBAL DEFAULT UND pthread_mutex_destroy@LIBC (2)
117:   FUNC GLOBAL DEFAULT UND pthread_mutex_init@LIBC (2)
118:   FUNC GLOBAL DEFAULT UND pthread_mutex_lock@LIBC (2)
119:   FUNC GLOBAL DEFAULT UND pthread_mutex_unlock@LIBC (2)
120:   FUNC GLOBAL DEFAULT UND _ZN7android6Parcel13write
121:   FUNC GLOBAL DEFAULT UND _ZN7android7String8C1ERKN
122:   FUNC GLOBAL DEFAULT UND _ZN7android8String165setT
123:   FUNC GLOBAL DEFAULT UND _ZN7android8String166appe
124:   FUNC GLOBAL DEFAULT UND _ZNK7android6Parcel12read
125:   FUNC GLOBAL DEFAULT UND _ZNK7android6Parcel17read
126:   FUNC GLOBAL DEFAULT UND _ZNK7android7IMemory4size
127:   FUNC GLOBAL DEFAULT UND _ZNK7android7IMemory7poin
128:   FUNC GLOBAL DEFAULT UND memcpy@LIBC (2)
129:   FUNC GLOBAL DEFAULT UND _ZN7android10VectorImpl16
130:   FUNC GLOBAL DEFAULT UND _ZN7android10VectorImpl6r
131:   FUNC GLOBAL DEFAULT UND _ZN7android10VectorImpl8i
132:   FUNC GLOBAL DEFAULT UND _ZN7android10VectorImplC2
133:   FUNC GLOBAL DEFAULT UND _ZN7android10VectorImplC2
134:   FUNC GLOBAL DEFAULT UND _ZN7android10VectorImplD2
135:   FUNC GLOBAL DEFAULT UND _ZN7android12MetaDataBase
136:   FUNC GLOBAL DEFAULT UND _ZN7android15PermissionCa
137:   FUNC GLOBAL DEFAULT UND _ZN7android6Parcel15write
138:   FUNC GLOBAL DEFAULT UND _ZN7android7RefBase10rena
139:   FUNC GLOBAL DEFAULT UND _ZN7android7RefBase11rena
140:   FUNC GLOBAL DEFAULT UND _ZN7android7RefBase12weak
141:   FUNC GLOBAL DEFAULT UND _ZN7android7RefBase12weak
142:   FUNC GLOBAL DEFAULT UND _ZN7android7String85setTo
143:   FUNC GLOBAL DEFAULT UND _ZN7android7String86appen
144:   FUNC GLOBAL DEFAULT UND _ZN7android7String86appen
145:   FUNC GLOBAL DEFAULT UND _ZN7android7String86forma
146:   FUNC GLOBAL DEFAULT UND _ZN7android8MetaData16cre
147:   FUNC GLOBAL DEFAULT UND _ZNK7android12MetaDataBas
148:   FUNC GLOBAL DEFAULT UND _ZNK7android14IPCThreadSt
149:   FUNC GLOBAL DEFAULT UND _ZNK7android14IPCThreadSt
150:   FUNC GLOBAL DEFAULT UND _ZNK7android6Parcel10read
151:   FUNC GLOBAL DEFAULT UND _ZNK7android6Parcel14read
152:   FUNC GLOBAL DEFAULT UND _ZNK7android7String86leng
153:   FUNC GLOBAL DEFAULT UND localtime@LIBC (2)
154:   FUNC GLOBAL DEFAULT UND memset@LIBC (2)
155:   FUNC GLOBAL DEFAULT UND strftime@LIBC (2)
156:   FUNC GLOBAL DEFAULT UND time@LIBC (2)
157:   FUNC GLOBAL DEFAULT UND write@LIBC (2)
158:   OBJECT GLOBAL DEFAULT UND _ZN7android11MediaBuffer1
159:   FUNC GLOBAL DEFAULT UND _ZN7android6Parcel19write
160:   FUNC GLOBAL DEFAULT UND _ZNK7android6Parcel16read
161:   FUNC GLOBAL DEFAULT UND _ZNK7android6Parcel18read
162:   FUNC GLOBAL DEFAULT UND _ZNKSt3__121__basic_strin
163:   FUNC GLOBAL DEFAULT UND _ZNSt3__112__next_primeEm
164:   FUNC GLOBAL DEFAULT UND close@LIBC (2)
165:   FUNC GLOBAL DEFAULT UND dup@LIBC (2)
166:   FUNC GLOBAL DEFAULT UND memcmp@LIBC (2)
167:   FUNC GLOBAL DEFAULT UND strlen@LIBC (2)
168:   FUNC GLOBAL DEFAULT UND _ZN7android15IMediaCodecL
169:   FUNC GLOBAL DEFAULT UND _ZNK7android6Parcel12data
170:   FUNC GLOBAL DEFAULT UND _ZN7android10VectorImpl13
171:   FUNC GLOBAL DEFAULT UND _ZN7android10VectorImpl8i
172:   FUNC GLOBAL DEFAULT UND _ZN7android22IGraphicBuff
173:   FUNC GLOBAL DEFAULT UND _ZN7android6Parcel10write
174:   FUNC GLOBAL DEFAULT UND _ZN7android6Parcel11write
175:   FUNC GLOBAL DEFAULT UND _ZN7android6Parcel5writeE
176:   FUNC GLOBAL DEFAULT UND _ZN7android6Parcel9writeB
177:   FUNC GLOBAL DEFAULT UND _ZNK7android6Parcel10read
178:   FUNC GLOBAL DEFAULT UND _ZNK7android6Parcel15setD
179:   FUNC GLOBAL DEFAULT UND _ZNK7android6Parcel4readE
180:   FUNC GLOBAL DEFAULT UND _ZNK7android6Parcel8readB
181:   FUNC GLOBAL DEFAULT UND _ZNK7android6Parcel9readF
182:   FUNC GLOBAL DEFAULT UND _ZNK7android6Parcel9readF
183:   FUNC GLOBAL DEFAULT UND _ZNK7android6Parcel9readI
184:   FUNC GLOBAL DEFAULT UND _ZN7android10VectorImpl5c
185:   FUNC GLOBAL DEFAULT UND _ZN7android14createHalTok
186:   FUNC GLOBAL DEFAULT UND _ZN7android14deleteHalTok
187:   FUNC GLOBAL DEFAULT UND _ZN7android20IGraphicBuff
188:   FUNC GLOBAL DEFAULT UND _ZN7android20retrieveHalI
189:   FUNC GLOBAL DEFAULT UND _ZN7android21ICameraRecor
190:   FUNC GLOBAL DEFAULT UND _ZN7android6Parcel14write
191:   FUNC GLOBAL DEFAULT UND _ZN7android6Parcel15write
192:   FUNC GLOBAL DEFAULT UND _ZN7android6Parcel16write
193:   FUNC GLOBAL DEFAULT UND _ZN7android6Parcel16write
194:   FUNC GLOBAL DEFAULT UND _ZN7android8String16C1ERK
195:   FUNC GLOBAL DEFAULT UND _ZN7android8String16C1Ev
196:   FUNC GLOBAL DEFAULT UND _ZN7android8hardware7ICam
197:   FUNC GLOBAL DEFAULT UND _ZNK7android6Parcel12read
198:   FUNC GLOBAL DEFAULT UND _ZNK7android6Parcel14read
199:   FUNC GLOBAL DEFAULT UND _ZNK7android6Parcel15read
200:   FUNC GLOBAL DEFAULT UND _ZNK7android6Parcel15read
201:   FUNC GLOBAL DEFAULT UND _ZNK7android6Parcel8readB
202:   FUNC GLOBAL DEFAULT UND _ZNKSt3__120__vector_base
203:   FUNC GLOBAL DEFAULT UND _ZdaPv
204:   FUNC GLOBAL DEFAULT UND _Znam
205:   FUNC GLOBAL DEFAULT UND _ZN7android11MediaBuffer1
206:   FUNC GLOBAL DEFAULT UND _ZN7android11MediaBuffer5
207:   FUNC GLOBAL DEFAULT UND _ZN7android11MediaBuffer7
208:   FUNC GLOBAL DEFAULT UND _ZN7android11MediaBuffer7
209:   FUNC GLOBAL DEFAULT UND _ZN7android11MediaBuffer9
210:   FUNC GLOBAL DEFAULT UND _ZN7android11MediaBuffer9
211:   FUNC GLOBAL DEFAULT UND _ZN7android11MediaBufferC
212:   FUNC GLOBAL DEFAULT UND _ZN7android11MediaBufferC
213:   FUNC GLOBAL DEFAULT UND _ZN7android11MediaBufferD
214:   FUNC GLOBAL DEFAULT UND _ZN7android12MetaDataBase
215:   FUNC GLOBAL DEFAULT UND _ZN7android16MediaBufferG
216:   FUNC GLOBAL DEFAULT UND _ZN7android16MediaBufferG
217:   FUNC GLOBAL DEFAULT UND _ZN7android16MediaBufferG
218:   FUNC GLOBAL DEFAULT UND _ZN7android16MediaBufferG
219:   FUNC GLOBAL DEFAULT UND _ZN7android6Parcel11write
220:   FUNC GLOBAL DEFAULT UND _ZNK7android11MediaBuffer
221:   FUNC GLOBAL DEFAULT UND _ZNK7android11MediaBuffer
222:   FUNC GLOBAL DEFAULT UND _ZNK7android11MediaBuffer
223:   FUNC GLOBAL DEFAULT UND _ZNK7android11MediaBuffer
224:   FUNC GLOBAL DEFAULT UND _ZNK7android12MetaDataBas
225:   FUNC GLOBAL DEFAULT UND _ZNK7android6Parcel10read
226:   FUNC GLOBAL DEFAULT UND __android_log_assert@LIBLOG (3)
227:   FUNC GLOBAL DEFAULT UND _ZN7android10VectorImpl3a
228:   FUNC GLOBAL DEFAULT UND _ZN7android10VectorImpl4p
229:   FUNC GLOBAL DEFAULT UND _ZN7android7RefBase11rena
230:   FUNC GLOBAL DEFAULT UND _ZN7android8AMessage10Fro
231:   FUNC GLOBAL DEFAULT UND _ZNK7android8AMessage13wr
232:   NOTYPE WEAK DEFAULT UND __scudo_set_rss_limit
233:   FUNC GLOBAL DEFAULT UND android_mallopt@LIBC_Q (4)
234:   FUNC GLOBAL DEFAULT UND property_get_int64
235:   FUNC GLOBAL DEFAULT UND sysconf@LIBC (2)
236:   FUNC GLOBAL DEFAULT UND __errno@LIBC (2)
237:   FUNC GLOBAL DEFAULT UND fcntl@LIBC (2)
238:   FUNC GLOBAL DEFAULT UND strerror@LIBC (2)
239:   FUNC GLOBAL DEFAULT UND _ZN7android16SortedVector
240:   FUNC GLOBAL DEFAULT UND _ZNK7android16SortedVecto
241:   FUNC GLOBAL DEFAULT UND get_sched_policy
242:   FUNC GLOBAL DEFAULT UND gettid@LIBC (2)
243:   FUNC GLOBAL DEFAULT UND set_sched_policy
244:   FUNC GLOBAL DEFAULT UND _ZN7android21defaultServi
245:   FUNC GLOBAL DEFAULT UND usleep@LIBC (2)
246:   FUNC GLOBAL DEFAULT UND _ZN7android2os17Persistab
247:   FUNC GLOBAL DEFAULT UND _ZN7android6Parcel19write
248:   FUNC GLOBAL DEFAULT UND _ZNK7android2os17Persista
249:   FUNC GLOBAL DEFAULT UND _ZNK7android2os17Persista
250:   FUNC GLOBAL DEFAULT UND _ZNK7android6Parcel18read
251:   OBJECT GLOBAL DEFAULT UND _ZTVN7android2os17Persist
252:   FUNC GLOBAL DEFAULT UND EAS_Config
253:   FUNC GLOBAL DEFAULT UND EAS_Init
254:   FUNC GLOBAL DEFAULT UND EAS_Render
255:   FUNC GLOBAL DEFAULT UND EAS_Shutdown
256:   FUNC GLOBAL DEFAULT UND JET_Clear_Queue
257:   FUNC GLOBAL DEFAULT UND JET_CloseFile
258:   FUNC GLOBAL DEFAULT UND JET_GetEvent
259:   FUNC GLOBAL DEFAULT UND JET_Init
260:   FUNC GLOBAL DEFAULT UND JET_OpenFile
261:   FUNC GLOBAL DEFAULT UND JET_Pause
262:   FUNC GLOBAL DEFAULT UND JET_Play
263:   FUNC GLOBAL DEFAULT UND JET_QueueSegment
264:   FUNC GLOBAL DEFAULT UND JET_SetMuteFlag
265:   FUNC GLOBAL DEFAULT UND JET_SetMuteFlags
266:   FUNC GLOBAL DEFAULT UND JET_Shutdown
267:   FUNC GLOBAL DEFAULT UND JET_Status
268:   FUNC GLOBAL DEFAULT UND JET_TriggerClip
269:   FUNC GLOBAL DEFAULT UND _ZN7android10AudioTrack3s
270:   FUNC GLOBAL DEFAULT UND _ZN7android10AudioTrack4s
271:   FUNC GLOBAL DEFAULT UND _ZN7android10AudioTrack5f
272:   FUNC GLOBAL DEFAULT UND _ZN7android10AudioTrack5p
273:   FUNC GLOBAL DEFAULT UND _ZN7android10AudioTrack5s
274:   FUNC GLOBAL DEFAULT UND _ZN7android10AudioTrack5w
275:   FUNC GLOBAL DEFAULT UND _ZN7android10AudioTrackC1
276:   FUNC GLOBAL DEFAULT UND _ZN7android6Thread10ready
277:   FUNC GLOBAL DEFAULT UND _ZN7android6Thread11reque
278:   FUNC GLOBAL DEFAULT UND _ZN7android6Thread3runEPK
279:   FUNC GLOBAL DEFAULT UND _ZN7android6ThreadC2Eb
280:   FUNC GLOBAL DEFAULT UND _ZN7android6ThreadD0Ev
281:   FUNC GLOBAL DEFAULT UND _ZN7android6ThreadD1Ev
282:   FUNC GLOBAL DEFAULT UND _ZN7android6ThreadD2Ev
283:   FUNC GLOBAL DEFAULT UND _ZTv0_n24_N7android6Threa
284:   FUNC GLOBAL DEFAULT UND _ZTv0_n24_N7android6Threa
285:   FUNC GLOBAL DEFAULT UND __strcat_chk@LIBC (2)
286:   FUNC GLOBAL DEFAULT UND __strcpy_chk@LIBC (2)
287:   FUNC GLOBAL DEFAULT UND access@LIBC (2)
288:   FUNC GLOBAL DEFAULT UND closedir@LIBC (2)
289:   FUNC GLOBAL DEFAULT UND free@LIBC (2)
290:   FUNC GLOBAL DEFAULT UND malloc@LIBC (2)
291:   FUNC GLOBAL DEFAULT UND opendir@LIBC (2)
292:   FUNC GLOBAL DEFAULT UND property_get
293:   FUNC GLOBAL DEFAULT UND readdir@LIBC (2)
294:   FUNC GLOBAL DEFAULT UND stat@LIBC (2)
295:   FUNC GLOBAL DEFAULT UND strcpy@LIBC (2)
296:   FUNC GLOBAL DEFAULT UND strdup@LIBC (2)
297:   FUNC GLOBAL DEFAULT UND strncmp@LIBC (2)
298:   FUNC GLOBAL DEFAULT UND strtok@LIBC (2)
299:   FUNC GLOBAL DEFAULT UND __strlcat_chk@LIBC (2)
300:   FUNC GLOBAL DEFAULT UND __strlen_chk@LIBC (2)
301:   FUNC GLOBAL DEFAULT UND strnlen@LIBC (2)
302:   FUNC GLOBAL DEFAULT UND ucnv_close_android@LIBANDROIDICU_EXTERNAL_1 (5)
303:   FUNC GLOBAL DEFAULT UND ucnv_convertEx_android@LIBANDROIDICU_EXTERNAL_1 (5)
304:   FUNC GLOBAL DEFAULT UND ucnv_getNextUChar_android@LIBANDROIDICU_EXTERNAL_1 (5)
305:   FUNC GLOBAL DEFAULT UND ucnv_open_android@LIBANDROIDICU_EXTERNAL_1 (5)
306:   FUNC GLOBAL DEFAULT UND ucsdet_close_android@LIBANDROIDICU_EXTERNAL_1 (5)
307:   FUNC GLOBAL DEFAULT UND ucsdet_detectAll_android@LIBANDROIDICU_EXTERNAL_1 (5)
308:   FUNC GLOBAL DEFAULT UND ucsdet_detect_android@LIBANDROIDICU_EXTERNAL_1 (5)
309:   FUNC GLOBAL DEFAULT UND ucsdet_getConfidence_andr@LIBANDROIDICU_EXTERNAL_1 (5)
310:   FUNC GLOBAL DEFAULT UND ucsdet_getName_android@LIBANDROIDICU_EXTERNAL_1 (5)
311:   FUNC GLOBAL DEFAULT UND ucsdet_open_android@LIBANDROIDICU_EXTERNAL_1 (5)
312:   FUNC GLOBAL DEFAULT UND ucsdet_setText_android@LIBANDROIDICU_EXTERNAL_1 (5)
313:   FUNC GLOBAL DEFAULT UND _ZN7android16SortedVector
314:   FUNC GLOBAL DEFAULT UND XML_GetBuffer
315:   FUNC GLOBAL DEFAULT UND XML_ParseBuffer
316:   FUNC GLOBAL DEFAULT UND XML_ParserCreate
317:   FUNC GLOBAL DEFAULT UND XML_ParserFree
318:   FUNC GLOBAL DEFAULT UND XML_SetElementHandler
319:   FUNC GLOBAL DEFAULT UND XML_SetUserData
320:   FUNC GLOBAL DEFAULT UND _ZN7android10VectorImplaS
321:   FUNC GLOBAL DEFAULT UND atoi@LIBC (2)
322:   FUNC GLOBAL DEFAULT UND fclose@LIBC (2)
323:   FUNC GLOBAL DEFAULT UND fopen@LIBC (2)
324:   FUNC GLOBAL DEFAULT UND fread@LIBC (2)
325:   FUNC GLOBAL DEFAULT UND _ZN7android11AudioEffect1
326:   FUNC GLOBAL DEFAULT UND _ZN7android11AudioEffect1
327:   FUNC GLOBAL DEFAULT UND _ZN7android11AudioEffect1
328:   FUNC GLOBAL DEFAULT UND _ZN7android11AudioEffect1
329:   FUNC GLOBAL DEFAULT UND _ZN7android11AudioEffect1
330:   FUNC GLOBAL DEFAULT UND _ZN7android11AudioEffect1
331:   FUNC GLOBAL DEFAULT UND _ZN7android11AudioEffect2
332:   FUNC GLOBAL DEFAULT UND _ZN7android11AudioEffect2
333:   FUNC GLOBAL DEFAULT UND _ZN7android11AudioEffect7
334:   FUNC GLOBAL DEFAULT UND _ZN7android11AudioEffectC
335:   FUNC GLOBAL DEFAULT UND _ZN7android11AudioEffectD
336:   FUNC GLOBAL DEFAULT UND _ZN7android6Thread18reque
337:   FUNC GLOBAL DEFAULT UND _ZNK7android6Thread11exit
338:   FUNC GLOBAL DEFAULT UND fixed_fft_real
339:   FUNC GLOBAL DEFAULT UND qsort@LIBC (2)
340:   FUNC GLOBAL DEFAULT UND _ZN7android8AMessageC1Ev
341:   FUNC WEAK DEFAULT UND android_set_abort_message@LIBC (2)
342:   FUNC GLOBAL DEFAULT UND __open_2@LIBC (2)
343:   FUNC GLOBAL DEFAULT UND lseek@LIBC (2)
344:   FUNC GLOBAL DEFAULT UND read@LIBC (2)
345:   FUNC GLOBAL DEFAULT 14 _ZN7android11MediaPlayer1
346:   FUNC GLOBAL DEFAULT 14 _ZN7android17IMediaHTTPSe
347:   FUNC WEAK DEFAULT 14 _ZNK7android6VectorIfE15d
348:   OBJECT WEAK DEFAULT 18 _ZTCN7android13BpMediaSou
349:   OBJECT GLOBAL DEFAULT 18 _ZTCN7android16BnStreamLi
350:   OBJECT GLOBAL DEFAULT 18 _ZN7android13MediaProfile
351:   FUNC GLOBAL DEFAULT 14 _ZN7android14IMediaRecord
352:   OBJECT WEAK DEFAULT 18 _ZTVN7android6VectorIPNS_
353:   FUNC GLOBAL DEFAULT 14 _ZN7android15IStreamListe
354:   FUNC WEAK DEFAULT 14 _ZNK7android6VectorIPNS_1
355:   FUNC GLOBAL DEFAULT 14 _ZN7android11MediaPlayer2
356:   OBJECT GLOBAL DEFAULT 18 _ZTCN7android21BnMediaRec
357:   OBJECT GLOBAL DEFAULT 18 _ZTCN7android13BnMediaPla
358:   FUNC GLOBAL DEFAULT 14 _ZTv0_n24_N7android14IMed
359:   FUNC WEAK DEFAULT 14 _ZNK7android6VectorINS_13
360:   FUNC GLOBAL DEFAULT 14 _ZTv0_n24_N7android13IStr
361:   FUNC GLOBAL DEFAULT 14 _ZN7android13MediaResourc
362:   OBJECT GLOBAL DEFAULT 18 _ZTCN7android11MediaPlaye
363:   OBJECT GLOBAL DEFAULT 18 _ZTCN7android24BnResource
364:   FUNC WEAK DEFAULT 14 _ZNK7android6VectorINS_17
365:   FUNC GLOBAL DEFAULT 14 _ZN7android12IMediaSource
366:   FUNC GLOBAL DEFAULT 14 _ZN7android20IRemoteDispl
367:   FUNC WEAK DEFAULT 14 _ZNK7android12SortedVecto
368:   OBJECT WEAK DEFAULT 18 _ZTCN7android23BpMediaExt
369:   OBJECT WEAK DEFAULT 18 _ZTVN7android19BpMediaPla
370:   FUNC GLOBAL DEFAULT 14 _ZN7android12IMediaSource
371:   FUNC GLOBAL DEFAULT 14 _ZTv0_n24_N7android15IStr
372:   OBJECT GLOBAL DEFAULT 18 _ZTTN7android11MediaPlaye
373:   OBJECT WEAK DEFAULT 18 _ZTVN7android5media12Volu
374:   OBJECT WEAK DEFAULT 18 _ZTCN7android14BpStreamSo
375:   FUNC GLOBAL DEFAULT 14 _ZN7android5media4midi14M
376:   FUNC WEAK DEFAULT 14 _ZNK7android12SortedVecto
377:   OBJECT WEAK DEFAULT 18 _ZTVN7android24BpResource
378:   OBJECT WEAK DEFAULT 18 _ZTVN7android6VectorINS_1
379:   FUNC WEAK DEFAULT 14 _ZNK7android12SortedVecto
380:   FUNC GLOBAL DEFAULT 14 _ZN7android22IMediaExtrac
381:   FUNC GLOBAL DEFAULT 14 _ZThn8_N7android15BnMedia
382:   FUNC GLOBAL DEFAULT 14 _ZTv0_n24_N7android19IMed
383:   FUNC WEAK DEFAULT 14 _ZNK7android6VectorINS_13
384:   FUNC GLOBAL DEFAULT 14 _ZN7android11IDataSourceD
385:   FUNC GLOBAL DEFAULT 14 _ZN7android11MediaPlayer2
386:   OBJECT GLOBAL DEFAULT 18 _ZTVN7android19BnMediaPla
387:   FUNC WEAK DEFAULT 14 _ZNSt3__16__treeINS_12__v
388:   FUNC GLOBAL DEFAULT 14 _ZN7android11IDataSourceC
389:   FUNC GLOBAL DEFAULT 14 _ZN7android18IMediaPlayer
390:   OBJECT GLOBAL DEFAULT 23 _ZN7android19IMediaPlayer
391:   FUNC GLOBAL DEFAULT 14 _ZTv0_n24_N7android20IMed
392:   FUNC WEAK DEFAULT 14 _ZNK7android6VectorIhE10d
393:   FUNC GLOBAL DEFAULT 14 _ZN7android14IMediaRecord
394:   OBJECT WEAK DEFAULT 18 _ZTCN7android14BpStreamSo
395:   OBJECT GLOBAL DEFAULT 18 _ZTTN7android13IStreamSou
396:   FUNC GLOBAL DEFAULT 14 _ZN7android16BnMediaExtra
397:   FUNC WEAK DEFAULT 14 _ZNSt3__112__hash_tableIN
398:   OBJECT GLOBAL DEFAULT 23 _ZN7android20IMediaRecord
399:   OBJECT GLOBAL DEFAULT 23 _ZN7android13IStreamSourc
400:   FUNC GLOBAL DEFAULT 14 _ZN7android19IMediaDeathN
401:   FUNC GLOBAL DEFAULT 14 _ZN7android11MediaPlayer2
402:   OBJECT GLOBAL DEFAULT 18 _ZTCN7android20BnMediaPla
403:   FUNC WEAK DEFAULT 14 _ZNK7android6VectorIPNS_1
404:   OBJECT WEAK DEFAULT 18 _ZTVN7android6VectorIPNS_
405:   FUNC GLOBAL DEFAULT 14 _ZN7android11MediaPlayer2
406:   OBJECT WEAK DEFAULT 18 _ZTCN7android21BpMediaHTT
407:   FUNC GLOBAL DEFAULT 14 _ZN7android19MediaResourc
408:   OBJECT GLOBAL DEFAULT 18 _ZTTN7android11IDataSourc
409:   OBJECT GLOBAL DEFAULT 18 _ZTCN7android22MediaMetad
410:   FUNC WEAK DEFAULT 14 _ZNK7android6VectorIPNS_1
411:   OBJECT WEAK DEFAULT 18 _ZTCN7android18BpMediaHTT
412:   FUNC GLOBAL DEFAULT 14 _ZN7android13MediaRecorde
413:   FUNC GLOBAL DEFAULT 14 _ZThn8_N7android11MediaPl
414:   FUNC GLOBAL DEFAULT 14 _ZN7android13MediaProfile
415:   FUNC GLOBAL DEFAULT 14 _ZN7android18IMediaPlayer
416:   FUNC GLOBAL DEFAULT 14 _ZN7android14IMediaRecord
417:   FUNC GLOBAL DEFAULT 14 _ZN7android13MediaProfile
418:   OBJECT WEAK DEFAULT 18 _ZTVN7android6VectorINS_1
419:   OBJECT WEAK DEFAULT 18 _ZTVN7android6VectorIPNS_
420:   FUNC WEAK DEFAULT 14 _ZNK7android12SortedVecto
421:   FUNC GLOBAL DEFAULT 14 _ZN7android11MediaPlayer1
422:   OBJECT GLOBAL DEFAULT 18 _ZN7android5media4midi14M
423:   FUNC GLOBAL DEFAULT 14 _ZN7android11MediaPlayer1
424:   FUNC GLOBAL DEFAULT 14 _ZNK7android13MediaProfil
425:   FUNC WEAK DEFAULT 14 _ZNK7android6VectorIiE12d
426:   FUNC GLOBAL DEFAULT 14 _ZTv0_n24_N7android23IMed
427:   FUNC GLOBAL DEFAULT 14 _ZNK7android12MediaScanne
428:   FUNC GLOBAL DEFAULT 14 _ZN7android13MediaProfile
429:   FUNC WEAK DEFAULT 14 _ZN7android11BnInterfaceI
430:   OBJECT WEAK DEFAULT 18 _ZTVN7android6VectorIiEE
431:   FUNC GLOBAL DEFAULT 14 _ZN7android5media8Metadat
432:   OBJECT GLOBAL DEFAULT 18 _ZTCN7android13MediaRecor
433:   FUNC GLOBAL DEFAULT 14 _ZN7android20IMediaHTTPCo
434:   OBJECT WEAK DEFAULT 18 _ZTCN7android23BpMediaExt
435:   OBJECT GLOBAL DEFAULT 18 _ZTCN7android15IStreamLis
436:   FUNC GLOBAL DEFAULT 14 _ZN7android9JetPlayerC1EP
437:   FUNC GLOBAL DEFAULT 14 _ZN7android13MediaProfile
438:   FUNC GLOBAL DEFAULT 14 _ZN7android13MediaProfile
439:   FUNC WEAK DEFAULT 14 _ZNK7android6VectorINS_13
440:   FUNC GLOBAL DEFAULT 14 _ZN7android11MediaPlayer1
441:   FUNC GLOBAL DEFAULT 14 _ZN7android20IMediaHTTPCo
442:   OBJECT GLOBAL DEFAULT 23 _ZN7android17IMediaHTTPSe
443:   FUNC WEAK DEFAULT 14 _ZNSt3__16__treeINS_12__v
444:   FUNC WEAK DEFAULT 14 _ZNK7android6VectorINS_2s
445:   FUNC GLOBAL DEFAULT 14 _ZN7android10Visualizer20
446:   FUNC GLOBAL DEFAULT 14 _ZN7android11MediaPlayer2
447:   FUNC WEAK DEFAULT 14 _ZN7android11BnInterfaceI
448:   FUNC GLOBAL DEFAULT 14 _ZN7android13BnMediaSourc
449:   FUNC WEAK DEFAULT 14 _ZNK7android6VectorINS_2s
450:   OBJECT GLOBAL DEFAULT 18 _ZTCN7android14BnStreamSo
451:   FUNC WEAK DEFAULT 14 _ZNK7android6VectorINS_8S
452:   FUNC WEAK DEFAULT 14 _ZNK7android6VectorIPNS_1
453:   OBJECT GLOBAL DEFAULT 18 _ZTTN7android14IMediaReco
454:   OBJECT WEAK DEFAULT 18 _ZTCN7android14BpStreamSo
455:   FUNC GLOBAL DEFAULT 14 _ZN7android11MediaPlayer1
456:   OBJECT GLOBAL DEFAULT 18 _ZTCN7android21BnRemoteDi
457:   OBJECT GLOBAL DEFAULT 18 _ZTCN7android14BnStreamSo
458:   FUNC WEAK DEFAULT 14 _ZNK7android6VectorINS_13
459:   OBJECT GLOBAL DEFAULT 18 _ZTVN7android22IMediaExtr
460:   FUNC WEAK DEFAULT 14 _ZNSt3__16__treeINS_12__v
461:   FUNC GLOBAL DEFAULT 14 _ZN7android19MediaResourc
462:   OBJECT GLOBAL DEFAULT 18 _ZTTN7android20IMediaHTTP
463:   FUNC WEAK DEFAULT 14 _ZNK7android6VectorINS0_I
464:   FUNC WEAK DEFAULT 14 _ZNSt3__113__tree_removeI
465:   FUNC WEAK DEFAULT 14 _ZNK7android6VectorINS_13
466:   FUNC WEAK DEFAULT 14 _ZNK7android6VectorINS_17
467:   FUNC GLOBAL DEFAULT 14 _ZN7android14IRemoteDispl
468:   FUNC GLOBAL DEFAULT 14 _ZN7android11MediaPlayer1
469:   OBJECT WEAK DEFAULT 18 _ZTTN7android16BpMediaExt
470:   OBJECT GLOBAL DEFAULT 18 _ZTCN7android23BnResource
471:   FUNC GLOBAL DEFAULT 14 _ZN7android13MediaResourc
472:   OBJECT GLOBAL DEFAULT 18 _ZTCN7android15BnRemoteDi
473:   FUNC GLOBAL DEFAULT 14 _ZN7android13IStreamSourc
474:   FUNC GLOBAL DEFAULT 14 _ZThn8_N7android16BnStrea
475:   FUNC GLOBAL DEFAULT 14 _ZN7android5media8Metadat
476:   FUNC GLOBAL DEFAULT 14 _ZN7android13MediaRecorde
477:   FUNC WEAK DEFAULT 14 _ZNK7android12SortedVecto
478:   FUNC GLOBAL DEFAULT 14 _ZNK7android18IMediaPlaye
479:   OBJECT GLOBAL DEFAULT 18 _ZTVN7android11MediaPlaye
480:   FUNC GLOBAL DEFAULT 14 _ZTv0_n32_N7android11Medi
481:   OBJECT GLOBAL DEFAULT 18 _ZTCN7android19IMediaPlay
482:   OBJECT GLOBAL DEFAULT 18 _ZTCN7android12IMediaSour
483:   FUNC WEAK DEFAULT 14 _ZNK7android6VectorINS_13
484:   FUNC GLOBAL DEFAULT 14 _ZN7android11StringArray4
485:   FUNC WEAK DEFAULT 14 _ZNK7android12SortedVecto
486:   OBJECT WEAK DEFAULT 18 _ZTTN7android21BpMediaRec
487:   FUNC GLOBAL DEFAULT 14 _ZN7android22MediaMetadat
488:   OBJECT WEAK DEFAULT 18 _ZN7android13MediaProfile
489:   OBJECT GLOBAL DEFAULT 18 _ZTCN7android24BnResource
490:   FUNC GLOBAL DEFAULT 14 _ZN7android11StringArray1
491:   FUNC WEAK DEFAULT 14 _ZNK7android6VectorINS_17
492:   OBJECT GLOBAL DEFAULT 18 _ZTCN7android18IMediaPlay
493:   OBJECT WEAK DEFAULT 18 _ZTVN7android21BpMediaRec
494:   OBJECT GLOBAL DEFAULT 18 _ZTTN7android14BnStreamSo
495:   FUNC GLOBAL DEFAULT 14 _ZN7android13MediaAlbumAr
496:   OBJECT WEAK DEFAULT 18 _ZTCN7android18BpMediaHTT
497:   FUNC WEAK DEFAULT 14 _ZNK7android6VectorINS_2w
498:   OBJECT GLOBAL DEFAULT 18 _ZTCN7android16BnStreamLi
499:   FUNC GLOBAL DEFAULT 14 _ZN7android13MediaRecorde
500:   OBJECT GLOBAL DEFAULT 18 _ZTTN7android22MediaMetad
501:   OBJECT WEAK DEFAULT 18 _ZTVN7android9JetPlayer15
502:   FUNC GLOBAL DEFAULT 14 _ZN7android11MediaPlayer1
503:   OBJECT WEAK DEFAULT 18 _ZTTN7android15BpRemoteDi
504:   FUNC GLOBAL DEFAULT 14 _ZN7android11StringArrayD
505:   FUNC GLOBAL DEFAULT 14 _ZN7android11MediaPlayer1
506:   OBJECT GLOBAL DEFAULT 18 _ZTCN7android16BnMediaExt
507:   FUNC WEAK DEFAULT 14 _ZNSt3__127__tree_balance
508:   OBJECT WEAK DEFAULT 18 _ZTCN7android23BpResource
509:   FUNC WEAK DEFAULT 14 _ZNK7android6VectorINS_2w
510:   FUNC GLOBAL DEFAULT 14 _ZTv0_n24_N7android12IMed
511:   FUNC GLOBAL DEFAULT 14 _ZN7android12IMediaSource
512:   OBJECT GLOBAL DEFAULT 18 _ZTTN7android13BnMediaSou
513:   FUNC WEAK DEFAULT 14 _ZNK7android6VectorIPNS_1
514:   OBJECT WEAK DEFAULT 18 _ZTCN7android12BpDataSour
515:   OBJECT GLOBAL DEFAULT 18 _ZTVN7android11IDataSourc
516:   OBJECT GLOBAL DEFAULT 18 _ZTTN7android13MediaRecor
517:   FUNC WEAK DEFAULT 14 _ZNK7android12SortedVecto
518:   OBJECT WEAK DEFAULT 18 _ZTVN7android12SortedVect
519:   OBJECT WEAK DEFAULT 18 _ZTVN7android6VectorINS_2
520:   OBJECT GLOBAL DEFAULT 18 _ZTVN7android22MediaMetad
521:   OBJECT GLOBAL DEFAULT 18 _ZN7android5media4midi14M
522:   FUNC GLOBAL DEFAULT 14 _ZN7android12BnDataSource
523:   FUNC GLOBAL DEFAULT 14 _ZN7android11MediaPlayer9
524:   FUNC GLOBAL DEFAULT 14 _ZN7android15IMediaExtrac
525:   FUNC GLOBAL DEFAULT 14 _ZN7android12IMediaPlayer
526:   FUNC WEAK DEFAULT 14 _ZN7android11BnInterfaceI
527:   FUNC GLOBAL DEFAULT 14 _ZNK7android13MediaProfil
528:   OBJECT WEAK DEFAULT 18 _ZTCN7android16BpMediaExt
529:   OBJECT GLOBAL DEFAULT 18 _ZTVN7android22IResourceM
530:   FUNC GLOBAL DEFAULT 14 _ZN7android13MediaResourc
531:   OBJECT WEAK DEFAULT 18 _ZTTN7android16BpStreamLi
532:   OBJECT GLOBAL DEFAULT 18 _ZN7android13MediaProfile
533:   FUNC WEAK DEFAULT 14 _ZNK7android6VectorIPNS_1
534:   OBJECT WEAK DEFAULT 18 _ZTCN7android20BpMediaPla
535:   FUNC WEAK DEFAULT 14 _ZN7android11BnInterfaceI
536:   FUNC GLOBAL DEFAULT 14 _ZNK7android13MediaResour
537:   FUNC GLOBAL DEFAULT 14 _ZN7android5media4midi14M
538:   FUNC GLOBAL DEFAULT 14 _ZN7android13MediaRecorde
539:   OBJECT WEAK DEFAULT 18 _ZTCN7android24BpMediaMet
540:   FUNC GLOBAL DEFAULT 14 _ZN7android22MediaMetadat
541:   FUNC GLOBAL DEFAULT 14 _ZN7android10Visualizer6g
542:   OBJECT GLOBAL DEFAULT 18 _ZTTN7android12BnDataSour
543:   OBJECT WEAK DEFAULT 18 _ZTCN7android19BpMediaPla
544:   FUNC GLOBAL DEFAULT 14 _ZN7android22MediaMetadat
545:   OBJECT WEAK DEFAULT 18 _ZTCN7android21BpMediaRec
546:   FUNC GLOBAL DEFAULT 14 _ZN7android13MediaProfile
547:   OBJECT GLOBAL DEFAULT 18 _ZTCN7android11MediaPlaye
548:   OBJECT GLOBAL DEFAULT 18 _ZTVN7android14IRemoteDis
549:   FUNC WEAK DEFAULT 14 _ZNSt3__115__equal_aligne
550:   FUNC WEAK DEFAULT 14 _ZNK7android6VectorINS_13
551:   OBJECT WEAK DEFAULT 18 _ZTVN7android6VectorIPNS_
552:   FUNC GLOBAL DEFAULT 14 _ZNK7android20IMediaRecor
553:   FUNC GLOBAL DEFAULT 14 _ZN7android12MediaScanner
554:   FUNC GLOBAL DEFAULT 14 _ZN7android11MediaPlayer1
555:   OBJECT WEAK DEFAULT 18 _ZTVN7android14BpStreamSo
556:   FUNC GLOBAL DEFAULT 14 _ZN7android13MediaRecorde
557:   FUNC WEAK DEFAULT 14 _ZNK7android6VectorIPNS_1
558:   OBJECT GLOBAL DEFAULT 23 _ZN7android20IMediaHTTPCo
559:   FUNC GLOBAL DEFAULT 14 _ZN7android20IMediaRecord
560:   FUNC WEAK DEFAULT 14 _ZNK7android6VectorINS_13
561:   FUNC WEAK DEFAULT 14 _ZNSt3__16__treeINS_12__v
562:   OBJECT WEAK DEFAULT 18 _ZTVN7android19DataSource
563:   OBJECT GLOBAL DEFAULT 18 _ZTTN7android18IMediaPlay
564:   FUNC GLOBAL DEFAULT 14 _ZN7android19IMediaPlayer
565:   FUNC WEAK DEFAULT 14 _ZNK7android6VectorINS_13
566:   OBJECT WEAK DEFAULT 18 _ZTVN7android6VectorIPNS_
567:   FUNC GLOBAL DEFAULT 14 _ZN7android22IResourceMan
568:   FUNC GLOBAL DEFAULT 14 _ZN7android14BnStreamSour
569:   FUNC GLOBAL DEFAULT 14 _ZNK7android23IMediaMetad
570:   OBJECT GLOBAL DEFAULT 18 _ZTCN7android24BnMediaMet
571:   OBJECT GLOBAL DEFAULT 11 _ZN7android39kPolicySuppo
572:   FUNC GLOBAL DEFAULT 14 _ZN7android12IMediaPlayer
573:   FUNC WEAK DEFAULT 14 _ZNK7android6VectorINS0_I
574:   OBJECT WEAK DEFAULT 18 _ZTVN7android6VectorINS_1
575:   OBJECT GLOBAL DEFAULT 23 _ZN7android15IMediaExtrac
576:   FUNC WEAK DEFAULT 14 _ZNK7android6VectorINS_7S
577:   FUNC GLOBAL DEFAULT 14 _ZN7android9JetPlayer12lo
578:   FUNC GLOBAL DEFAULT 14 _ZThn8_N7android20IMediaH
579:   FUNC GLOBAL DEFAULT 14 _ZN7android18MediaScanner
580:   OBJECT WEAK DEFAULT 18 _ZTVN7android5media14Micr
581:   FUNC GLOBAL DEFAULT 14 _ZTv0_n24_N7android23IRes
582:   FUNC GLOBAL DEFAULT 14 _ZN7android19IMediaDeathN
583:   OBJECT WEAK DEFAULT 18 _ZTCN7android21BpMediaRec
584:   OBJECT GLOBAL DEFAULT 18 _ZTCN7android24BnMediaMet
585:   FUNC WEAK DEFAULT 14 _ZNK7android6VectorIPNS_1
586:   OBJECT GLOBAL DEFAULT 18 _ZTCN7android16BnMediaExt
587:   FUNC GLOBAL DEFAULT 14 _ZN7android12IMediaPlayer
588:   FUNC GLOBAL DEFAULT 14 _ZN7android14IMediaRecord
589:   FUNC GLOBAL DEFAULT 14 _ZThn8_N7android13BnMedia
590:   OBJECT GLOBAL DEFAULT 18 _ZTCN7android20IRemoteDis
591:   FUNC GLOBAL DEFAULT 14 _ZNK7android5media4midi14
592:   FUNC GLOBAL DEFAULT 14 _ZN7android14IMediaRecord
593:   FUNC GLOBAL DEFAULT 14 _ZN7android13MediaResourc
594:   FUNC GLOBAL DEFAULT 14 _ZN7android20AMediaFormat
595:   FUNC GLOBAL DEFAULT 14 _ZN7android11MediaPlayer1
596:   OBJECT GLOBAL DEFAULT 23 _ZN7android18IMediaPlayer
597:   FUNC GLOBAL DEFAULT 14 _ZNK7android20IMediaHTTPC
598:   OBJECT GLOBAL DEFAULT 23 _ZN7android22IMediaExtrac
599:   OBJECT WEAK DEFAULT 18 _ZTVN7android6VectorINS0_
600:   FUNC GLOBAL DEFAULT 14 _ZN7android15IStreamListe
601:   FUNC GLOBAL DEFAULT 14 _ZN7android5media8Metadat
602:   FUNC GLOBAL DEFAULT 14 _ZN7android13MediaRecorde
603:   OBJECT WEAK DEFAULT 18 _ZTVN7android6VectorINS_1
604:   FUNC GLOBAL DEFAULT 14 _ZN7android10Visualizer15
605:   FUNC GLOBAL DEFAULT 14 _ZN7android10Visualizer15
606:   FUNC GLOBAL DEFAULT 14 _ZN7android12MediaScanner
607:   FUNC WEAK DEFAULT 14 _ZNK7android6VectorIPNS_1
608:   FUNC GLOBAL DEFAULT 14 _ZN7android21BnRemoteDisp
609:   FUNC WEAK DEFAULT 14 _ZNK7android12SortedVecto
610:   FUNC WEAK DEFAULT 14 _ZNK7android6VectorINS_13
611:   FUNC WEAK DEFAULT 14 _ZNK7android6VectorIPNS_1
612:   FUNC GLOBAL DEFAULT 14 _ZN7android10VisualizerD1
613:   FUNC WEAK DEFAULT 14 _ZNK7android6VectorIiE7do
614:   OBJECT WEAK DEFAULT 18 _ZTCN7android13BpMediaSou
615:   FUNC WEAK DEFAULT 14 _ZNK7android12SortedVecto
616:   OBJECT GLOBAL DEFAULT 23 _ZN7android13IStreamSourc
617:   FUNC GLOBAL DEFAULT 14 _ZN7android13MediaRecorde
618:   FUNC GLOBAL DEFAULT 14 _ZN7android25CharacterEnc
619:   OBJECT GLOBAL DEFAULT 23 _ZN7android22IMediaExtrac
620:   FUNC GLOBAL DEFAULT 14 _ZN7android20IRemoteDispl
621:   FUNC GLOBAL DEFAULT 14 _ZN7android25CharacterEnc
622:   FUNC GLOBAL DEFAULT 14 _ZN7android13MediaProfile
623:   OBJECT WEAK DEFAULT 18 _ZTCN7android20BpMediaPla
624:   OBJECT GLOBAL DEFAULT 18 _ZTVN7android15BnRemoteDi
625:   FUNC WEAK DEFAULT 14 _ZN7android11BnInterfaceI
626:   FUNC GLOBAL DEFAULT 14 _ZTv0_n24_N7android22IRes
627:   FUNC GLOBAL DEFAULT 14 _ZN7android13MediaRecorde
628:   FUNC GLOBAL DEFAULT 14 _ZThn8_N7android13MediaRe
629:   FUNC GLOBAL DEFAULT 14 _ZN7android18MediaScanner
630:   FUNC GLOBAL DEFAULT 14 _ZN7android11MediaPlayer4
631:   OBJECT GLOBAL DEFAULT 23 _ZN7android12IMediaPlayer
632:   FUNC GLOBAL DEFAULT 14 _ZTv0_n24_N7android14IRem
633:   FUNC GLOBAL DEFAULT 14 _ZN7android22IResourceMan
634:   FUNC WEAK DEFAULT 14 _ZNK7android6VectorIPNS_1
635:   FUNC WEAK DEFAULT 14 _ZNK7android6VectorINS_2w
636:   FUNC GLOBAL DEFAULT 14 _ZN7android14IRemoteDispl
637:   OBJECT GLOBAL DEFAULT 18 _ZTCN7android21BnRemoteDi
638:   OBJECT GLOBAL DEFAULT 18 _ZTVN7android20IRemoteDis
639:   FUNC GLOBAL DEFAULT 14 _ZN7android23IMediaMetada
640:   FUNC WEAK DEFAULT 14 _ZNK7android6VectorINS_8S
641:   FUNC GLOBAL DEFAULT 14 _ZN7android11IDataSource1
642:   FUNC GLOBAL DEFAULT 14 _ZN7android20IMediaRecord
643:   OBJECT GLOBAL DEFAULT 18 _ZTCN7android23BnResource
644:   FUNC GLOBAL DEFAULT 14 _ZThn8_N7android14BnStrea
645:   FUNC WEAK DEFAULT 14 _ZNK7android6VectorINS_13
646:   FUNC GLOBAL DEFAULT 14 _ZN7android15IMediaExtrac
647:   FUNC WEAK DEFAULT 14 _ZNK7android6VectorINS_17
648:   FUNC WEAK DEFAULT 14 _ZNK7android6VectorIiE15d
649:   FUNC GLOBAL DEFAULT 14 _ZN7android22MediaMetadat
650:   FUNC GLOBAL DEFAULT 14 _ZTv0_n40_N7android11Medi
651:   FUNC GLOBAL DEFAULT 14 _ZN7android19registerMedi
652:   FUNC GLOBAL DEFAULT 14 _ZThn8_N7android21BnMedia
653:   OBJECT WEAK DEFAULT 18 _ZTCN7android15BpRemoteDi
654:   FUNC GLOBAL DEFAULT 14 _ZNK7android13MediaProfil
655:   FUNC WEAK DEFAULT 14 _ZNK7android12SortedVecto
656:   OBJECT WEAK DEFAULT 18 _ZTCN7android21BpMediaHTT
657:   OBJECT GLOBAL DEFAULT 18 _ZTVN7android13BnMediaPla
658:   OBJECT WEAK DEFAULT 18 _ZTVN7android6VectorIfEE
659:   FUNC GLOBAL DEFAULT 14 _ZN7android22MediaMetadat
660:   FUNC WEAK DEFAULT 14 _ZNK7android6VectorIPK13U
661:   FUNC GLOBAL DEFAULT 14 _ZN7android11MediaPlayer1
662:   FUNC GLOBAL DEFAULT 14 _ZN7android15BnMediaRecor
663:   FUNC WEAK DEFAULT 14 _ZNK7android12SortedVecto
664:   OBJECT GLOBAL DEFAULT 23 _ZN7android13MediaProfile
665:   FUNC GLOBAL DEFAULT 14 _ZN7android13MediaProfile
666:   FUNC WEAK DEFAULT 14 _ZNK7android6VectorIPNS_1
667:   OBJECT GLOBAL DEFAULT 18 _ZTCN7android12BnDataSour
668:   FUNC GLOBAL DEFAULT 14 _ZTv0_n24_N7android20IMed
669:   FUNC WEAK DEFAULT 14 _ZNSt3__112__hash_tableIN
670:   OBJECT GLOBAL DEFAULT 18 _ZTCN7android21BnMediaRec
671:   OBJECT GLOBAL DEFAULT 18 _ZTTN7android12IMediaPlay
672:   FUNC GLOBAL DEFAULT 14 _ZNK7android19MediaResour
673:   OBJECT GLOBAL DEFAULT 18 _ZTCN7android11MediaPlaye
674:   FUNC GLOBAL DEFAULT 14 _ZN7android15IMediaExtrac
675:   OBJECT WEAK DEFAULT 18 _ZTVN7android17Persistent
676:   FUNC WEAK DEFAULT 14 _ZNK7android12SortedVecto
677:   FUNC GLOBAL DEFAULT 14 _ZNK7android13MediaProfil
678:   OBJECT GLOBAL DEFAULT 18 _ZTVN7android19IMediaPlay
679:   OBJECT GLOBAL DEFAULT 18 _ZTCN7android19BnMediaPla
680:   FUNC GLOBAL DEFAULT 14 _ZN7android13IStreamSourc
681:   FUNC GLOBAL DEFAULT 14 _ZN7android13MediaRecorde
682:   FUNC GLOBAL DEFAULT 14 _ZN7android9JetPlayer24fi
683:   FUNC WEAK DEFAULT 14 _ZNK7android12SortedVecto
684:   FUNC GLOBAL DEFAULT 14 _ZN7android13MediaProfile
685:   OBJECT GLOBAL DEFAULT 18 _ZTVN7android5media4midi1
686:   FUNC GLOBAL DEFAULT 14 _ZN7android13MediaProfile
687:   OBJECT WEAK DEFAULT 18 _ZTCN7android13BpMediaSou
688:   FUNC GLOBAL DEFAULT 14 _ZN7android20IRemoteDispl
689:   FUNC GLOBAL DEFAULT 14 _ZN7android15IStreamListe
690:   OBJECT GLOBAL DEFAULT 18 _ZTCN7android13MediaRecor
691:   FUNC GLOBAL DEFAULT 14 _ZN7android5media4midieqE
692:   FUNC GLOBAL DEFAULT 14 _ZN7android11MediaPlayer6
693:   FUNC GLOBAL DEFAULT 14 _ZN7android12IMediaSource
694:   OBJECT GLOBAL DEFAULT 18 _ZTTN7android20IMediaReco
695:   FUNC GLOBAL DEFAULT 14 _ZN7android12IMediaSource
696:   FUNC WEAK DEFAULT 14 _ZNK7android6VectorINS_19
697:   OBJECT GLOBAL DEFAULT 23 _ZN7android23IMediaMetada
698:   FUNC WEAK DEFAULT 14 _ZNK7android6VectorINS_13
699:   FUNC GLOBAL DEFAULT 14 _ZN7android19IMediaDeathN
700:   FUNC GLOBAL DEFAULT 14 _ZNK7android22IMediaExtra
701:   FUNC WEAK DEFAULT 14 _ZNK7android6Parcel20read
702:   FUNC GLOBAL DEFAULT 14 _ZN7android13MediaRecorde
703:   OBJECT WEAK DEFAULT 18 _ZTCN7android18BpMediaHTT
704:   FUNC GLOBAL DEFAULT 14 _ZNK7android19MediaResour
705:   FUNC GLOBAL DEFAULT 14 _ZN7android11MediaPlayer4
706:   FUNC GLOBAL DEFAULT 14 _ZN7android9JetPlayer12qu
707:   FUNC GLOBAL DEFAULT 14 _ZNK7android13MediaResour
708:   FUNC GLOBAL DEFAULT 14 _ZN7android10Visualizer18
709:   OBJECT WEAK DEFAULT 18 _ZTVN7android15BpMediaRec
710:   FUNC GLOBAL DEFAULT 14 _ZN7android15IMediaExtrac
711:   OBJECT WEAK DEFAULT 18 _ZTCN7android13BpMediaPla
712:   FUNC GLOBAL DEFAULT 14 _ZN7android13BnMediaSourc
713:   FUNC GLOBAL DEFAULT 14 _ZN7android13MediaRecorde
714:   OBJECT GLOBAL DEFAULT 18 _ZTCN7android13MediaRecor
715:   FUNC WEAK DEFAULT 14 _ZNK7android6VectorIPK13U
716:   FUNC WEAK DEFAULT 14 _ZNK7android6VectorINS_13
717:   FUNC GLOBAL DEFAULT 14 _ZTv0_n24_N7android11Medi
718:   FUNC GLOBAL DEFAULT 14 _ZN7android13BnMediaSourc
719:   OBJECT WEAK DEFAULT 18 _ZTVN7android6VectorIPNS_
720:   OBJECT GLOBAL DEFAULT 18 _ZTCN7android17IMediaHTTP
721:   FUNC GLOBAL DEFAULT 14 _ZN7android9JetPlayerD2Ev
722:   FUNC GLOBAL DEFAULT 14 _ZNK7android13MediaProfil
723:   FUNC WEAK DEFAULT 14 _ZNK7android6VectorINS_17
724:   FUNC WEAK DEFAULT 14 _ZNSt3__16__treeINS_12__v
725:   OBJECT WEAK DEFAULT 18 _ZTCN7android15BpRemoteDi
726:   OBJECT GLOBAL DEFAULT 18 _ZTCN7android12BnDataSour
727:   OBJECT GLOBAL DEFAULT 18 _ZTCN7android20IMediaHTTP
728:   FUNC GLOBAL DEFAULT 14 _ZN7android17IMediaHTTPSe
729:   FUNC WEAK DEFAULT 14 _ZNSt3__112__hash_tableIN
730:   OBJECT GLOBAL DEFAULT 18 _ZTCN7android23IMediaMeta
731:   OBJECT GLOBAL DEFAULT 18 _ZTCN7android24BnMediaMet
732:   FUNC GLOBAL DEFAULT 14 _ZN7android9JetPlayer4dum
733:   OBJECT WEAK DEFAULT 18 _ZTCN7android21BpMediaRec
734:   FUNC GLOBAL DEFAULT 14 _ZNK7android12IMediaPlaye
735:   FUNC GLOBAL DEFAULT 14 _ZN7android18MediaScanner
736:   OBJECT WEAK DEFAULT 18 _ZTVN7android16BpMediaExt
737:   OBJECT WEAK DEFAULT 18 _ZTCN7android15BpMediaRec
738:   OBJECT GLOBAL DEFAULT 23 _ZN7android23IMediaMetada
739:   OBJECT GLOBAL DEFAULT 23 _ZN7android22MediaMetadat
740:   FUNC WEAK DEFAULT 14 _ZNSt3__16__treeINS_12__v
741:   FUNC GLOBAL DEFAULT 14 _ZN7android13IStreamSourc
742:   OBJECT WEAK DEFAULT 18 _ZTCN7android16BpMediaExt
743:   FUNC GLOBAL DEFAULT 14 _ZN7android13IStreamSourc
744:   FUNC WEAK DEFAULT 14 _ZNK7android6VectorINS_13
745:   FUNC WEAK DEFAULT 14 _ZNK7android6VectorINS_13
746:   FUNC GLOBAL DEFAULT 14 _ZN7android11MediaPlayerD
747:   OBJECT GLOBAL DEFAULT 18 _ZTCN7android14IRemoteDis
748:   FUNC GLOBAL DEFAULT 14 _ZN7android13MediaRecorde
749:   FUNC GLOBAL DEFAULT 14 _ZN7android12MediaScanner
750:   FUNC GLOBAL DEFAULT 14 _ZN7android11MediaPlayerC
751:   OBJECT GLOBAL DEFAULT 18 _ZTCN7android23BnMediaExt
752:   OBJECT GLOBAL DEFAULT 18 _ZTCN7android24BnMediaMet
753:   OBJECT GLOBAL DEFAULT 18 _ZTCN7android22IMediaExtr
754:   OBJECT WEAK DEFAULT 18 _ZTCN7android9JetPlayer15
755:   FUNC GLOBAL DEFAULT 14 _ZN7android13MediaProfile
756:   FUNC GLOBAL DEFAULT 14 _ZN7android11StringArrayD
757:   FUNC WEAK DEFAULT 14 _ZNK7android6VectorIPNS_1
758:   OBJECT GLOBAL DEFAULT 11 _ZN7android35kPolicySuppo
759:   FUNC GLOBAL DEFAULT 14 _ZN7android11StringArrayC
760:   FUNC GLOBAL DEFAULT 14 _ZN7android17BufferingSet
761:   FUNC WEAK DEFAULT 14 _ZNK7android6VectorINS_13
762:   OBJECT WEAK DEFAULT 18 _ZTCN7android23BpMediaExt
763:   FUNC WEAK DEFAULT 14 _ZNK7android6VectorIPNS_1
764:   OBJECT GLOBAL DEFAULT 18 _ZTCN7android13MediaRecor
765:   FUNC GLOBAL DEFAULT 14 _ZN7android12MediaScanner
766:   OBJECT WEAK DEFAULT 18 _ZTCN7android21BpMediaHTT
767:   OBJECT WEAK DEFAULT 18 _ZTVN7android6VectorINS_7
768:   OBJECT GLOBAL DEFAULT 18 _ZTCN7android20IMediaReco
769:   FUNC GLOBAL DEFAULT 14 _ZTv0_n24_N7android12IMed
770:   FUNC GLOBAL DEFAULT 14 _ZN7android5media8Metadat
771:   OBJECT GLOBAL DEFAULT 18 _ZTCN7android10Visualizer
772:   FUNC WEAK DEFAULT 14 _ZNSt3__16vectorIfNS_9all
773:   FUNC GLOBAL DEFAULT 14 _ZN7android13MediaRecorde
774:   OBJECT GLOBAL DEFAULT 18 _ZTVN7android12MediaScann
775:   FUNC GLOBAL DEFAULT 14 _ZNK7android13MediaProfil
776:   FUNC WEAK DEFAULT 14 _ZNK7android6VectorIPNS_1
777:   FUNC GLOBAL DEFAULT 14 _ZN7android5media8Metadat
778:   OBJECT WEAK DEFAULT 18 _ZTTN7android13BpMediaSou
779:   OBJECT WEAK DEFAULT 18 _ZTCN7android21BpRemoteDi
780:   OBJECT WEAK DEFAULT 18 _ZTVN7android16BpStreamLi
781:   FUNC GLOBAL DEFAULT 14 _ZTv0_n24_N7android22Medi
782:   FUNC GLOBAL DEFAULT 14 _ZN7android13MediaResourc
783:   OBJECT GLOBAL DEFAULT 18 _ZTCN7android16BnMediaExt
784:   FUNC WEAK DEFAULT 14 _ZNK7android6VectorIPNS_1
785:   FUNC GLOBAL DEFAULT 14 _ZN7android10Visualizer18
786:   OBJECT WEAK DEFAULT 18 _ZTVN7android18BpMediaHTT
787:   FUNC GLOBAL DEFAULT 14 _ZN7android23IResourceMan
788:   FUNC GLOBAL DEFAULT 14 _ZN7android19IMediaDeathN
789:   FUNC WEAK DEFAULT 14 _ZNK7android6VectorINS_13
790:   OBJECT GLOBAL DEFAULT 18 _ZTVN7android11StringArra
791:   OBJECT GLOBAL DEFAULT 18 _ZTCN7android19BnMediaPla
792:   FUNC GLOBAL DEFAULT 14 _ZTv0_n24_N7android13BnMe
793:   FUNC GLOBAL DEFAULT 14 _ZN7android13MediaRecorde
794:   FUNC WEAK DEFAULT 14 _ZNK7android12SortedVecto
795:   FUNC WEAK DEFAULT 14 _ZNK7android12SortedVecto
796:   FUNC WEAK DEFAULT 14 _ZNK7android6VectorINS_13
797:   FUNC GLOBAL DEFAULT 14 _ZTv0_n24_N7android15IMed
798:   FUNC GLOBAL DEFAULT 14 _ZN7android13MediaRecorde
799:   FUNC GLOBAL DEFAULT 14 _ZN7android17IMediaHTTPSe
800:   FUNC GLOBAL DEFAULT 14 _ZN7android13MediaProfile
801:   FUNC WEAK DEFAULT 14 _ZNK7android6VectorINS_13
802:   FUNC WEAK DEFAULT 14 _ZNK7android6VectorINS_13
803:   FUNC GLOBAL DEFAULT 14 _ZN7android11MediaPlayer1
804:   OBJECT WEAK DEFAULT 18 _ZTCN7android15BpMediaRec
805:   FUNC WEAK DEFAULT 14 _ZNK7android6VectorIPNS_1
806:   FUNC GLOBAL DEFAULT 14 _ZN7android13MediaResourc
807:   FUNC WEAK DEFAULT 14 _ZNK7android6VectorIiE8do
808:   FUNC WEAK DEFAULT 14 _ZN7android2spINS_19IMedi
809:   OBJECT GLOBAL DEFAULT 18 _ZTVN7android12BnDataSour
810:   OBJECT WEAK DEFAULT 18 _ZTTN7android21BpRemoteDi
811:   FUNC GLOBAL DEFAULT 14 _ZN7android13MediaProfile
812:   FUNC GLOBAL DEFAULT 14 _ZN7android19IMediaPlayer
813:   OBJECT GLOBAL DEFAULT 18 _ZTCN7android23BnResource
814:   FUNC GLOBAL DEFAULT 14 _ZThn8_N7android24BnResou
815:   FUNC WEAK DEFAULT 14 _ZNK7android6VectorIPNS_1
816:   FUNC GLOBAL DEFAULT 14 _ZN7android11MediaPlayer1
817:   FUNC GLOBAL DEFAULT 14 _ZN7android19IMediaPlayer
818:   OBJECT GLOBAL DEFAULT 18 _ZTCN7android19BnMediaPla
819:   FUNC GLOBAL DEFAULT 14 _ZTv0_n24_N7android14IMed
820:   FUNC GLOBAL DEFAULT 14 _ZTv0_n24_N7android13IStr
821:   FUNC GLOBAL DEFAULT 14 _ZTv0_n24_N7android11IDat
822:   FUNC GLOBAL DEFAULT 14 _ZN7android12IMediaPlayer
823:   OBJECT GLOBAL DEFAULT 18 _ZTCN7android15BnMediaRec
824:   FUNC GLOBAL DEFAULT 14 _ZTv0_n24_N7android13Medi
825:   FUNC GLOBAL DEFAULT 14 _ZN7android11MediaPlayer1
826:   FUNC GLOBAL DEFAULT 14 _ZN7android12IMediaPlayer
827:   FUNC GLOBAL DEFAULT 14 _ZN7android12IMediaSource
828:   FUNC GLOBAL DEFAULT 14 _ZN7android20IRemoteDispl
829:   OBJECT WEAK DEFAULT 18 _ZTCN7android24BpResource
830:   FUNC GLOBAL DEFAULT 14 _ZN7android13MediaRecorde
831:   FUNC WEAK DEFAULT 14 _ZNSt3__16__treeINS_12__v
832:   FUNC GLOBAL DEFAULT 14 _ZN7android13MediaProfile
833:   FUNC GLOBAL DEFAULT 14 _ZN7android10Visualizer5d
834:   FUNC GLOBAL DEFAULT 14 _ZN7android11MediaPlayer1
835:   FUNC GLOBAL DEFAULT 14 _ZTv0_n24_N7android15IStr
836:   FUNC GLOBAL DEFAULT 14 _ZN7android9JetPlayer10lo
837:   FUNC GLOBAL DEFAULT 14 _ZN7android9JetPlayer6ren
838:   OBJECT GLOBAL DEFAULT 18 _ZTCN7android12BnDataSour
839:   OBJECT GLOBAL DEFAULT 18 _ZTCN7android14IMediaReco
840:   OBJECT WEAK DEFAULT 18 _ZTVN7android21BpRemoteDi
841:   FUNC WEAK DEFAULT 14 _ZNK7android6VectorINS_13
842:   FUNC WEAK DEFAULT 14 _ZNK7android6VectorINS_13
843:   FUNC GLOBAL DEFAULT 14 _ZTv0_n24_N7android22IMed
844:   FUNC GLOBAL DEFAULT 14 _ZN7android13MediaRecorde
845:   FUNC GLOBAL DEFAULT 14 _ZN7android9JetPlayer16se
846:   FUNC WEAK DEFAULT 14 _ZNK7android12SortedVecto
847:   FUNC GLOBAL DEFAULT 14 _ZN7android22IMediaExtrac
848:   OBJECT GLOBAL DEFAULT 18 _ZTCN7android13BnMediaPla
849:   OBJECT GLOBAL DEFAULT 18 _ZTCN7android13BnMediaSou
850:   FUNC GLOBAL DEFAULT 14 _ZN7android13MediaRecorde
851:   FUNC WEAK DEFAULT 14 _ZNSt3__16__treeINS_12__v
852:   FUNC WEAK DEFAULT 14 _ZNK7android6VectorINS_13
853:   FUNC GLOBAL DEFAULT 14 _ZN7android11IDataSourceD
854:   FUNC GLOBAL DEFAULT 14 _ZN7android11MediaPlayer2
855:   FUNC GLOBAL DEFAULT 14 _ZThn8_N7android20BnMedia
856:   OBJECT WEAK DEFAULT 18 _ZTVN7android6VectorIPNS_
857:   FUNC GLOBAL DEFAULT 14 _ZTv0_n24_N7android20IRem
858:   FUNC GLOBAL DEFAULT 14 _ZNK7android13IStreamSour
859:   OBJECT GLOBAL DEFAULT 18 _ZTVN7android19IMediaDeat
860:   FUNC WEAK DEFAULT 14 _ZNK7android6VectorIPNS_1
861:   OBJECT WEAK DEFAULT 18 _ZTVN7android20BpMediaPla
862:   OBJECT GLOBAL DEFAULT 23 _ZN7android19IMediaDeathN
863:   FUNC WEAK DEFAULT 14 _ZNK7android6VectorINS_13
864:   FUNC GLOBAL DEFAULT 14 _ZN7android10Visualizer11
865:   OBJECT GLOBAL DEFAULT 18 _ZTCN7android11MediaPlaye
866:   FUNC WEAK DEFAULT 14 _ZNK7android12SortedVecto
867:   FUNC GLOBAL DEFAULT 14 _ZN7android13IStreamSourc
868:   FUNC GLOBAL DEFAULT 14 _ZN7android19IMediaDeathN
869:   OBJECT WEAK DEFAULT 18 _ZTCN7android13BpMediaSou
870:   FUNC WEAK DEFAULT 14 _ZNK7android12SortedVecto
871:   OBJECT WEAK DEFAULT 18 _ZTCN7android19BpMediaPla
872:   FUNC WEAK DEFAULT 14 _ZNK7android6VectorINS0_I
873:   OBJECT GLOBAL DEFAULT 18 _ZTTN7android15BnRemoteDi
874:   OBJECT WEAK DEFAULT 18 _ZTVN7android6VectorINS_1
875:   OBJECT GLOBAL DEFAULT 18 _ZTCN7android16BnStreamLi
876:   FUNC WEAK DEFAULT 14 _ZNK7android6VectorINS_13
877:   OBJECT WEAK DEFAULT 18 _ZTTN7android12BpDataSour
878:   FUNC WEAK DEFAULT 14 _ZNK7android6VectorINS_2w
879:   FUNC WEAK DEFAULT 14 _ZNK7android6VectorIPNS_1
880:   FUNC GLOBAL DEFAULT 14 _ZN7android22IResourceMan
881:   FUNC GLOBAL DEFAULT 14 _ZN7android15IStreamListe
882:   FUNC GLOBAL DEFAULT 14 _ZN7android13MediaProfile
883:   FUNC GLOBAL DEFAULT 14 _ZN7android13MediaProfile
884:   OBJECT GLOBAL DEFAULT 18 _ZTVN7android15IMediaExtr
885:   FUNC GLOBAL DEFAULT 14 _ZN7android22IResourceMan
886:   FUNC GLOBAL DEFAULT 14 _ZN7android18IMediaPlayer
887:   OBJECT GLOBAL DEFAULT 18 _ZTTN7android19BnMediaPla
888:   OBJECT WEAK DEFAULT 18 _ZTTN7android19BpMediaPla
889:   FUNC GLOBAL DEFAULT 14 _ZN7android14IRemoteDispl
890:   FUNC GLOBAL DEFAULT 14 _ZN7android22IResourceMan
891:   OBJECT GLOBAL DEFAULT 23 _ZN7android11IDataSource1
892:   FUNC GLOBAL DEFAULT 14 _ZN7android14IRemoteDispl
893:   FUNC GLOBAL DEFAULT 14 _ZN7android22IResourceMan
894:   OBJECT GLOBAL DEFAULT 18 _ZTCN7android22IResourceM
895:   FUNC GLOBAL DEFAULT 14 _ZN7android13MediaRecorde
896:   FUNC GLOBAL DEFAULT 14 _Z15translate_errori
897:   FUNC GLOBAL DEFAULT 14 _ZN7android11MediaPlayer2
898:   FUNC GLOBAL DEFAULT 14 _ZN7android19IMediaPlayer
899:   OBJECT GLOBAL DEFAULT 18 _ZTCN7android14BnStreamSo
900:   FUNC GLOBAL DEFAULT 14 _ZN7android13MediaRecorde
901:   OBJECT WEAK DEFAULT 18 _ZTCN7android16BpStreamLi
902:   FUNC GLOBAL DEFAULT 14 _ZN7android13MediaRecorde
903:   FUNC GLOBAL DEFAULT 14 _ZTv0_n24_N7android23IMed
904:   FUNC GLOBAL DEFAULT 14 _ZN7android22MediaMetadat
905:   FUNC GLOBAL DEFAULT 14 _ZN7android13MediaProfile
906:   FUNC GLOBAL DEFAULT 14 _ZN7android13MediaProfile
907:   FUNC WEAK DEFAULT 14 _ZN7android11BnInterfaceI
908:   FUNC GLOBAL DEFAULT 14 _ZN7android18limitProcess
909:   FUNC WEAK DEFAULT 14 _ZNK7android6VectorIPNS_1
910:   OBJECT WEAK DEFAULT 18 _ZTCN7android12BpDataSour
911:   FUNC GLOBAL DEFAULT 14 _ZN7android11MediaPlayer1
912:   FUNC GLOBAL DEFAULT 14 _ZN7android11MediaPlayer1
913:   OBJECT WEAK DEFAULT 18 _ZTVN7android6VectorIhEE
914:   FUNC GLOBAL DEFAULT 14 _ZN7android22MediaMetadat
915:   FUNC GLOBAL DEFAULT 14 _ZN7android25CharacterEnc
916:   FUNC WEAK DEFAULT 14 _ZNK7android12SortedVecto
917:   FUNC GLOBAL DEFAULT 14 _ZN7android11MediaPlayer7
918:   FUNC GLOBAL DEFAULT 14 _ZN7android20IMediaHTTPCo
919:   FUNC GLOBAL DEFAULT 14 _ZN7android22MediaMetadat
920:   FUNC GLOBAL DEFAULT 14 _ZN7android9JetPlayerC2EP
921:   FUNC WEAK DEFAULT 14 _ZNK7android6VectorINS_13
922:   FUNC GLOBAL DEFAULT 14 _ZNK7android13MediaResour
923:   FUNC GLOBAL DEFAULT 14 _ZThn8_N7android12BnDataS
924:   FUNC GLOBAL DEFAULT 14 _ZTv0_n24_N7android18IMed
925:   FUNC GLOBAL DEFAULT 14 _ZN7android19MediaResourc
926:   OBJECT GLOBAL DEFAULT 18 _ZTVN7android10Visualizer
927:   OBJECT GLOBAL DEFAULT 18 _ZTCN7android12BnDataSour
928:   FUNC GLOBAL DEFAULT 14 _ZN7android22registerMedi
929:   OBJECT GLOBAL DEFAULT 18 _ZTCN7android19BnMediaPla
930:   OBJECT WEAK DEFAULT 18 _ZTVN7android13BpMediaPla
931:   FUNC GLOBAL DEFAULT 14 _ZNK7android14IMediaRecor
932:   FUNC GLOBAL DEFAULT 14 _ZThn8_N7android15BnRemot
933:   FUNC GLOBAL DEFAULT 14 _ZN7android22MediaMetadat
934:   FUNC GLOBAL DEFAULT 14 _ZN7android9JetPlayer4ini
935:   FUNC GLOBAL DEFAULT 14 _ZN7android13MediaProfile
936:   OBJECT GLOBAL DEFAULT 18 _ZTTN7android10Visualizer
937:   FUNC GLOBAL DEFAULT 14 _ZNK7android15IMediaExtra
938:   FUNC WEAK DEFAULT 14 _ZNK7android12SortedVecto
939:   FUNC GLOBAL DEFAULT 14 _ZN7android15IStreamListe
940:   OBJECT WEAK DEFAULT 18 _ZTVN7android6VectorINS_2
941:   FUNC GLOBAL DEFAULT 14 _ZN7android10Visualizer14
942:   FUNC GLOBAL DEFAULT 14 _ZN7android11IDataSource1
943:   OBJECT GLOBAL DEFAULT 23 _ZN7android12IMediaPlayer
944:   FUNC WEAK DEFAULT 14 _ZNK7android6VectorIfE16d
945:   OBJECT GLOBAL DEFAULT 23 _ZN7android12IMediaSource
946:   FUNC GLOBAL DEFAULT 14 _ZN7android15IStreamListe
947:   FUNC GLOBAL DEFAULT 14 _ZN7android13MediaRecorde
948:   FUNC WEAK DEFAULT 14 _ZNK7android12SortedVecto
949:   FUNC GLOBAL DEFAULT 14 _ZN7android11MediaPlayer6
950:   OBJECT GLOBAL DEFAULT 18 _ZTTN7android16BnMediaExt
951:   FUNC WEAK DEFAULT 14 _ZNK7android6VectorIhE15d
952:   OBJECT GLOBAL DEFAULT 18 _ZTVN7android12IMediaPlay
953:   OBJECT GLOBAL DEFAULT 18 _ZTVN7android15IStreamLis
954:   OBJECT GLOBAL DEFAULT 18 _ZTCN7android23BnMediaExt
955:   OBJECT WEAK DEFAULT 18 _ZTTN7android15BpMediaRec
956:   OBJECT GLOBAL DEFAULT 18 _ZN7android13MediaProfile
957:   FUNC GLOBAL DEFAULT 14 _ZN7android14dumpExtracto
958:   FUNC WEAK DEFAULT 14 _ZNSt3__16__treeINS_12__v
959:   FUNC WEAK DEFAULT 14 _ZNK7android6VectorIPNS_1
960:   FUNC WEAK DEFAULT 14 _ZNK7android12SortedVecto
961:   FUNC GLOBAL DEFAULT 14 _ZTv0_n32_N7android11Medi
962:   OBJECT WEAK DEFAULT 18 _ZTCN7android20BpMediaPla
963:   OBJECT WEAK DEFAULT 18 _ZTVN7android6VectorINS_1
964:   FUNC GLOBAL DEFAULT 14 _ZN7android20IMediaHTTPCo
965:   FUNC WEAK DEFAULT 14 _ZNK7android6VectorINS_7S
966:   OBJECT GLOBAL DEFAULT 18 _ZTCN7android16BnMediaExt
967:   FUNC GLOBAL DEFAULT 14 _ZN7android14IRemoteDispl
968:   FUNC WEAK DEFAULT 14 _ZNK7android6VectorIPNS_1
969:   FUNC GLOBAL DEFAULT 14 _ZN7android19IMediaDeathN
970:   FUNC GLOBAL DEFAULT 14 _ZTv0_n32_N7android13Medi
971:   OBJECT WEAK DEFAULT 18 _ZTCN7android13BpMediaPla
972:   OBJECT WEAK DEFAULT 18 _ZTCN7android24BpResource
973:   FUNC WEAK DEFAULT 14 _ZNK7android6VectorINS_2s
974:   OBJECT GLOBAL DEFAULT 18 _ZTTN7android23IMediaMeta
975:   FUNC GLOBAL DEFAULT 14 _ZN7android9JetPlayer4pla
976:   FUNC WEAK DEFAULT 14 _ZNK7android6VectorIPK13U
977:   OBJECT GLOBAL DEFAULT 23 _ZN7android23IResourceMan
978:   FUNC GLOBAL DEFAULT 14 _ZN7android13MediaRecorde
979:   FUNC GLOBAL DEFAULT 14 _ZN7android13MediaProfile
980:   FUNC WEAK DEFAULT 14 _ZNK7android6VectorIPNS_1
981:   FUNC GLOBAL DEFAULT 14 _ZN7android19MediaResourc
982:   FUNC GLOBAL DEFAULT 14 _ZN7android11IDataSource1
983:   FUNC GLOBAL DEFAULT 14 _ZTv0_n24_N7android17IMed
984:   FUNC GLOBAL DEFAULT 14 _ZN7android16BnStreamList
985:   FUNC WEAK DEFAULT 14 _ZNK7android6VectorINS_13
986:   OBJECT GLOBAL DEFAULT 18 _ZTCN7android19BnMediaPla
987:   FUNC GLOBAL DEFAULT 14 _ZN7android18MediaScanner
988:   OBJECT WEAK DEFAULT 18 _ZTCN7android21BpRemoteDi
989:   FUNC GLOBAL DEFAULT 14 _ZN7android18MediaScanner
990:   FUNC GLOBAL DEFAULT 14 _ZTv0_n24_N7android19IMed
991:   FUNC WEAK DEFAULT 14 _ZNSt3__16__treeINS_12__v
992:   FUNC GLOBAL DEFAULT 14 _ZN7android11MediaPlayer6
993:   OBJECT GLOBAL DEFAULT 18 _ZTCN7android21BnMediaRec
994:   FUNC GLOBAL DEFAULT 14 _ZN7android22MediaMetadat
995:   FUNC GLOBAL DEFAULT 14 _ZN7android25CharacterEnc
996:   OBJECT WEAK DEFAULT 18 _ZTTN7android23BpMediaExt
997:   FUNC WEAK DEFAULT 14 _ZNK7android6VectorINS0_I
998:   OBJECT GLOBAL DEFAULT 18 _ZTVN7android14IMediaReco
999:   FUNC GLOBAL DEFAULT 14 _ZNK7android22IResourceMa
1000:   OBJECT GLOBAL DEFAULT 18 _ZTVN7android13IStreamSou
1001:   FUNC WEAK DEFAULT 14 _ZNK7android6VectorINS_13
1002:   FUNC WEAK DEFAULT 14 _ZNK7android6VectorIPNS_1
1003:   OBJECT GLOBAL DEFAULT 18 _ZTTN7android16BnStreamLi
1004:   FUNC GLOBAL DEFAULT 14 _ZN7android13MediaRecorde
1005:   OBJECT WEAK DEFAULT 18 _ZTCN7android24BpMediaMet
1006:   FUNC GLOBAL DEFAULT 14 _ZN7android5media4midi14M
1007:   FUNC GLOBAL DEFAULT 14 _ZN7android13MediaProfile
1008:   FUNC GLOBAL DEFAULT 14 _ZN7android10Visualizer18
1009:   OBJECT GLOBAL DEFAULT 18 _ZTCN7android11MediaPlaye
1010:   OBJECT GLOBAL DEFAULT 23 _ZN7android19IMediaPlayer
1011:   FUNC GLOBAL DEFAULT 14 _ZN7android13MediaRecorde
1012:   OBJECT GLOBAL DEFAULT 18 _ZTCN7android23BnMediaExt
1013:   OBJECT WEAK DEFAULT 18 _ZTCN7android19BpMediaPla
1014:   FUNC GLOBAL DEFAULT 14 _ZThn8_N7android21BnRemot
1015:   FUNC GLOBAL DEFAULT 14 _ZN7android13MediaProfile
1016:   FUNC WEAK DEFAULT 14 _ZNK7android6VectorIPNS_1
1017:   FUNC GLOBAL DEFAULT 14 _ZN7android17IMediaHTTPSe
1018:   FUNC GLOBAL DEFAULT 14 _ZN7android5media8Metadat
1019:   FUNC GLOBAL DEFAULT 14 _ZN7android13MediaRecorde
1020:   OBJECT WEAK DEFAULT 18 _ZTCN7android14BpStreamSo
1021:   FUNC GLOBAL DEFAULT 14 _ZN7android22MediaMetadat
1022:   FUNC GLOBAL DEFAULT 14 _ZN7android11MediaPlayer1
1023:   OBJECT GLOBAL DEFAULT 18 _ZTTN7android23BnMediaExt
1024:   FUNC GLOBAL DEFAULT 14 _ZThn8_N7android13BnMedia
1025:   FUNC GLOBAL DEFAULT 14 _ZThn8_N7android19BnMedia
1026:   FUNC GLOBAL DEFAULT 14 _ZN7android12MediaScanner
1027:   FUNC GLOBAL DEFAULT 14 _ZThn8_N7android17IMediaH
1028:   FUNC GLOBAL DEFAULT 14 _ZNK7android17ExtractorIn
1029:   FUNC GLOBAL DEFAULT 14 _ZN7android23IMediaMetada
1030:   FUNC GLOBAL DEFAULT 14 _ZN7android24BnResourceMa
1031:   FUNC GLOBAL DEFAULT 14 _ZN7android13MediaRecorde
1032:   FUNC GLOBAL DEFAULT 14 _ZN7android12MediaScanner
1033:   OBJECT GLOBAL DEFAULT 18 _ZTCN7android13BnMediaPla
1034:   OBJECT GLOBAL DEFAULT 18 _ZTCN7android13BnMediaSou
1035:   OBJECT GLOBAL DEFAULT 18 _ZTTN7android19IMediaDeat
1036:   OBJECT GLOBAL DEFAULT 23 _ZN7android13MediaProfile
1037:   OBJECT WEAK DEFAULT 18 _ZTVN7android12SortedVect
1038:   OBJECT GLOBAL DEFAULT 18 _ZTTN7android20IRemoteDis
1039:   OBJECT GLOBAL DEFAULT 18 _ZTCN7android23IResourceM
1040:   OBJECT GLOBAL DEFAULT 18 _ZTVN7android14BnStreamSo
1041:   FUNC WEAK DEFAULT 14 _ZNK7android6VectorIPNS_1
1042:   FUNC WEAK DEFAULT 14 _ZN7android11BnInterfaceI
1043:   OBJECT GLOBAL DEFAULT 18 _ZN7android5media4midi14M
1044:   FUNC GLOBAL DEFAULT 14 _ZN7android20IMediaHTTPCo
1045:   FUNC WEAK DEFAULT 14 _ZNK7android6VectorINS_7S
1046:   OBJECT GLOBAL DEFAULT 18 _ZTTN7android23IResourceM
1047:   FUNC GLOBAL DEFAULT 14 _ZN7android13MediaRecorde
1048:   OBJECT GLOBAL DEFAULT 18 _ZN7android5media4midi14M
1049:   OBJECT GLOBAL DEFAULT 23 _ZN7android20IRemoteDispl
1050:   OBJECT GLOBAL DEFAULT 18 _ZTVN7android20BnMediaPla
1051:   FUNC GLOBAL DEFAULT 14 _ZN7android23IResourceMan
1052:   FUNC WEAK DEFAULT 14 _ZNK7android6VectorINS_2s
1053:   FUNC GLOBAL DEFAULT 14 _ZN7android13MediaProfile
1054:   FUNC GLOBAL DEFAULT 14 _ZNK7android11IDataSource
1055:   FUNC GLOBAL DEFAULT 14 _ZN7android20IMediaRecord
1056:   OBJECT GLOBAL DEFAULT 18 _ZTCN7android21BnRemoteDi
1057:   FUNC GLOBAL DEFAULT 14 _ZN7android23IResourceMan
1058:   FUNC GLOBAL DEFAULT 14 _ZN7android12MediaScanner
1059:   FUNC GLOBAL DEFAULT 14 _ZThn8_N7android20IMediaH
1060:   OBJECT WEAK DEFAULT 18 _ZTVN7android12SortedVect
1061:   FUNC GLOBAL DEFAULT 14 _ZN7android13MediaProfile
1062:   FUNC GLOBAL DEFAULT 14 _ZN7android11MediaPlayer1
1063:   FUNC WEAK DEFAULT 14 _ZNK7android6VectorINS_2w
1064:   OBJECT GLOBAL DEFAULT 23 _ZN7android14IMediaRecord
1065:   FUNC WEAK DEFAULT 14 _ZNK7android6VectorIiE10d
1066:   OBJECT WEAK DEFAULT 18 _ZTVN7android24RemoteMedi
1067:   OBJECT WEAK DEFAULT 18 _ZTTN7android23BpResource
1068:   FUNC GLOBAL DEFAULT 14 _ZN7android13MediaProfile
1069:   OBJECT WEAK DEFAULT 18 _ZTCN7android23BpMediaExt
1070:   FUNC GLOBAL DEFAULT 14 _ZN7android10Visualizer14
1071:   FUNC GLOBAL DEFAULT 14 _ZN7android14IMediaRecord
1072:   FUNC WEAK DEFAULT 14 _ZNSt3__16__treeINS_12__v
1073:   FUNC WEAK DEFAULT 14 _ZNK7android6VectorIPNS_1
1074:   OBJECT GLOBAL DEFAULT 18 _ZTTN7android17IMediaHTTP
1075:   OBJECT GLOBAL DEFAULT 18 _ZTVN7android15BnMediaRec
1076:   FUNC GLOBAL DEFAULT 14 _ZN7android13MediaResourc
1077:   FUNC GLOBAL DEFAULT 14 _ZN7android13MediaRecorde
1078:   FUNC GLOBAL DEFAULT 14 _ZTv0_n40_N7android13Medi
1079:   FUNC WEAK DEFAULT 14 _ZNK7android6VectorIPNS_1
1080:   OBJECT GLOBAL DEFAULT 18 _ZTCN7android21BnMediaRec
1081:   OBJECT GLOBAL DEFAULT 18 _ZTCN7android13BnMediaSou
1082:   FUNC GLOBAL DEFAULT 14 _ZN7android5media8Metadat
1083:   OBJECT GLOBAL DEFAULT 23 _ZN7android20IMediaHTTPCo
1084:   FUNC GLOBAL DEFAULT 14 _ZThn8_N7android16BnMedia
1085:   OBJECT GLOBAL DEFAULT 18 _ZTTN7android21BnMediaRec
1086:   OBJECT GLOBAL DEFAULT 23 _ZN7android22IResourceMan
1087:   FUNC GLOBAL DEFAULT 14 _ZNK7android20IRemoteDisp
1088:   OBJECT GLOBAL DEFAULT 18 _ZTTN7android23BnResource
1089:   OBJECT GLOBAL DEFAULT 23 _ZN7android19IMediaDeathN
1090:   FUNC WEAK DEFAULT 14 _ZNK7android6VectorINS_13
1091:   FUNC GLOBAL DEFAULT 14 _ZN7android10VisualizerD0
1092:   FUNC GLOBAL DEFAULT 14 _ZN7android20IMediaHTTPCo
1093:   FUNC GLOBAL DEFAULT 14 _ZN7android20IRemoteDispl
1094:   FUNC GLOBAL DEFAULT 14 _ZN7android11StringArray5
1095:   FUNC GLOBAL DEFAULT 14 _ZNK7android13MediaProfil
1096:   FUNC GLOBAL DEFAULT 14 _ZN7android20IRemoteDispl
1097:   FUNC WEAK DEFAULT 14 _ZNK7android6VectorINS_19
1098:   FUNC GLOBAL DEFAULT 14 _ZN7android13MediaRecorde
1099:   FUNC GLOBAL DEFAULT 14 _ZN7android13MediaProfile
1100:   OBJECT GLOBAL DEFAULT 18 _ZTVN7android10Visualizer
1101:   OBJECT GLOBAL DEFAULT 18 _ZTCN7android17IMediaHTTP
1102:   OBJECT GLOBAL DEFAULT 18 _ZTCN7android20BnMediaPla
1103:   FUNC GLOBAL DEFAULT 14 _ZNK7android15IStreamList
1104:   FUNC GLOBAL DEFAULT 14 _ZN7android22MediaMetadat
1105:   FUNC GLOBAL DEFAULT 14 _ZTv0_n24_N7android22IRes
1106:   FUNC GLOBAL DEFAULT 14 _ZThn8_N7android13MediaRe
1107:   OBJECT GLOBAL DEFAULT 18 _ZN7android13MediaProfile
1108:   FUNC WEAK DEFAULT 14 _ZN7android11BnInterfaceI
1109:   FUNC GLOBAL DEFAULT 14 _ZN7android22IMediaExtrac
1110:   FUNC GLOBAL DEFAULT 14 _ZN7android22IMediaExtrac
1111:   OBJECT GLOBAL DEFAULT 18 _ZTVN7android21BnMediaRec
1112:   FUNC WEAK DEFAULT 14 _ZNK7android6VectorIfE7do
1113:   FUNC GLOBAL DEFAULT 14 _ZTv0_n24_N7android14IRem
1114:   FUNC GLOBAL DEFAULT 14 _ZN7android20IRemoteDispl
1115:   OBJECT GLOBAL DEFAULT 18 _ZTVN7android13MediaRecor
1116:   FUNC GLOBAL DEFAULT 14 _ZTv0_n24_N7android19IMed
1117:   FUNC GLOBAL DEFAULT 14 _ZN7android13MediaProfile
1118:   FUNC GLOBAL DEFAULT 14 _ZN7android22IMediaExtrac
1119:   FUNC GLOBAL DEFAULT 14 _ZN7android22IMediaExtrac
1120:   OBJECT WEAK DEFAULT 18 _ZTCN7android15BpRemoteDi
1121:   FUNC GLOBAL DEFAULT 14 _ZN7android23BnResourceMa
1122:   FUNC GLOBAL DEFAULT 14 _ZN7android13MediaRecorde
1123:   FUNC GLOBAL DEFAULT 14 _ZN7android23IMediaMetada
1124:   OBJECT GLOBAL DEFAULT 18 _ZTTN7android22IMediaExtr
1125:   FUNC GLOBAL DEFAULT 14 _ZN7android20IMediaRecord
1126:   OBJECT GLOBAL DEFAULT 18 _ZTCN7android15BnRemoteDi
1127:   FUNC WEAK DEFAULT 14 _ZNK7android6VectorINS_13
1128:   FUNC WEAK DEFAULT 14 _ZNK7android6VectorIPNS_1
1129:   FUNC GLOBAL DEFAULT 14 _ZN7android15IMediaExtrac
1130:   FUNC GLOBAL DEFAULT 14 _ZTv0_n24_N7android20IMed
1131:   OBJECT GLOBAL DEFAULT 18 _ZTVN7android13BnMediaSou
1132:   FUNC GLOBAL DEFAULT 14 _ZN7android10Visualizer10
1133:   OBJECT GLOBAL DEFAULT 18 _ZTTN7android12IMediaSour
1134:   OBJECT WEAK DEFAULT 18 _ZTVN7android12SortedVect
1135:   FUNC GLOBAL DEFAULT 14 _ZN7android13MediaProfile
1136:   FUNC GLOBAL DEFAULT 14 _ZN7android20BnMediaPlaye
1137:   OBJECT GLOBAL DEFAULT 18 _ZTCN7android20BnMediaPla
1138:   OBJECT GLOBAL DEFAULT 23 _ZN7android15IStreamListe
1139:   OBJECT GLOBAL DEFAULT 18 _ZTTN7android15IMediaExtr
1140:   FUNC WEAK DEFAULT 14 _ZNK7android6VectorIhE12d
1141:   FUNC WEAK DEFAULT 14 _ZN7android11BnInterfaceI
1142:   FUNC GLOBAL DEFAULT 14 _ZN7android13MediaRecorde
1143:   FUNC GLOBAL DEFAULT 14 _ZN7android13MediaRecorde
1144:   FUNC GLOBAL DEFAULT 14 _ZN7android23IMediaMetada
1145:   FUNC WEAK DEFAULT 14 _ZNK7android6VectorIPK13U
1146:   FUNC GLOBAL DEFAULT 14 _ZN7android13MediaProfile
1147:   FUNC GLOBAL DEFAULT 14 _ZThn8_N7android23BnResou
1148:   FUNC GLOBAL DEFAULT 14 _ZNK7android13MediaProfil
1149:   FUNC GLOBAL DEFAULT 14 _ZN7android11MediaPlayer1
1150:   FUNC GLOBAL DEFAULT 14 _ZThn8_N7android11MediaPl
1151:   FUNC WEAK DEFAULT 14 _ZN7android11BnInterfaceI
1152:   FUNC GLOBAL DEFAULT 14 _ZN7android5media8Metadat
1153:   FUNC GLOBAL DEFAULT 14 _ZN7android13MediaRecorde
1154:   FUNC GLOBAL DEFAULT 14 _ZN7android13MediaProfile
1155:   FUNC WEAK DEFAULT 14 _ZNK7android12SortedVecto
1156:   OBJECT WEAK DEFAULT 18 _ZTVN7android12BpDataSour
1157:   FUNC GLOBAL DEFAULT 14 _ZN7android18IMediaPlayer
1158:   OBJECT GLOBAL DEFAULT 18 _ZTCN7android16BnStreamLi
1159:   OBJECT GLOBAL DEFAULT 23 _ZN7android19IMediaDeathN
1160:   FUNC GLOBAL DEFAULT 14 _ZN7android18IMediaPlayer
1161:   FUNC WEAK DEFAULT 14 _ZNK7android6VectorIiE16d
1162:   FUNC GLOBAL DEFAULT 14 _ZN7android11MediaPlayer1
1163:   FUNC GLOBAL DEFAULT 14 _ZN7android11MediaPlayer5
1164:   FUNC WEAK DEFAULT 14 _ZNK7android6VectorIPNS_1
1165:   FUNC GLOBAL DEFAULT 14 _ZN7android22MediaMetadat
1166:   FUNC GLOBAL DEFAULT 14 _ZN7android18MediaScanner
1167:   FUNC GLOBAL DEFAULT 14 _ZN7android11MediaPlayer8
1168:   OBJECT WEAK DEFAULT 18 _ZTCN7android13BpMediaPla
1169:   FUNC GLOBAL DEFAULT 14 _ZN7android11MediaPlayer2
1170:   FUNC GLOBAL DEFAULT 14 _ZN7android11MediaPlayer9
1171:   FUNC WEAK DEFAULT 14 _ZNSt3__16__treeINS_12__v
1172:   OBJECT WEAK DEFAULT 18 _ZTCN7android23BpResource
1173:   OBJECT GLOBAL DEFAULT 18 _ZTTN7android22IResourceM
1174:   FUNC GLOBAL DEFAULT 14 _ZNK7android13MediaRecord
1175:   OBJECT GLOBAL DEFAULT 18 _ZTCN7android21BnMediaRec
1176:   FUNC GLOBAL DEFAULT 14 _ZN7android13MediaRecorde
1177:   FUNC WEAK DEFAULT 14 _ZNSt3__16__treeINS_12__v
1178:   FUNC WEAK DEFAULT 14 _ZNK7android6VectorIPNS_1
1179:   OBJECT GLOBAL DEFAULT 18 _ZTVN7android18IMediaPlay
1180:   FUNC GLOBAL DEFAULT 14 _ZN7android13BnMediaSourc
1181:   FUNC GLOBAL DEFAULT 14 _ZN7android13MediaRecorde
1182:   FUNC WEAK DEFAULT 14 _ZNK7android6VectorIPNS_1
1183:   FUNC GLOBAL DEFAULT 14 _ZTv0_n24_N7android11Medi
1184:   OBJECT GLOBAL DEFAULT 18 _ZTTN7android19IMediaPlay
1185:   OBJECT GLOBAL DEFAULT 18 _ZTCN7android15BnMediaRec
1186:   OBJECT GLOBAL DEFAULT 23 _ZN7android19IMediaDeathN
1187:   FUNC GLOBAL DEFAULT 14 _ZN7android13MediaProfile
1188:   FUNC WEAK DEFAULT 14 _ZNK7android6VectorIPNS_1
1189:   FUNC WEAK DEFAULT 14 _ZNK7android6VectorIhE7do
1190:   FUNC WEAK DEFAULT 14 _ZNSt3__16vectorIiNS_9all
1191:   OBJECT WEAK DEFAULT 18 _ZTCN7android21BpRemoteDi
1192:   FUNC GLOBAL DEFAULT 14 _ZN7android9JetPlayerD1Ev
1193:   FUNC GLOBAL DEFAULT 14 _ZNK7android23IResourceMa
1194:   OBJECT GLOBAL DEFAULT 18 _ZTTN7android15IStreamLis
1195:   OBJECT WEAK DEFAULT 18 _ZTCN7android24BpMediaMet
1196:   FUNC GLOBAL DEFAULT 14 _ZN7android19MediaResourc
1197:   FUNC GLOBAL DEFAULT 14 _ZN7android15BnRemoteDisp
1198:   FUNC GLOBAL DEFAULT 14 _ZN7android11MediaPlayer1
1199:   OBJECT GLOBAL DEFAULT 18 _ZTVN7android16BnMediaExt
1200:   OBJECT GLOBAL DEFAULT 18 _ZTCN7android15BnRemoteDi
1201:   OBJECT WEAK DEFAULT 18 _ZTCN7android24BpMediaMet
1202:   OBJECT GLOBAL DEFAULT 18 _ZTVN7android22MediaMetad
1203:   FUNC GLOBAL DEFAULT 14 _ZThn8_N7android13BnMedia
1204:   FUNC WEAK DEFAULT 14 _ZNK7android6VectorIfE8do
1205:   FUNC WEAK DEFAULT 14 _ZNK7android12SortedVecto
1206:   FUNC GLOBAL DEFAULT 14 _ZN7android13IStreamSourc
1207:   FUNC GLOBAL DEFAULT 14 _ZNK7android13MediaResour
1208:   FUNC GLOBAL DEFAULT 14 _ZN7android11MediaPlayer1
1209:   FUNC GLOBAL DEFAULT 14 _ZN7android18IMediaPlayer
1210:   OBJECT GLOBAL DEFAULT 18 _ZTCN7android15BnMediaRec
1211:   OBJECT GLOBAL DEFAULT 18 _ZTTN7android14IRemoteDis
1212:   OBJECT GLOBAL DEFAULT 18 _ZTCN7android23BnResource
1213:   FUNC WEAK DEFAULT 14 _ZNK7android12SortedVecto
1214:   FUNC WEAK DEFAULT 14 _ZNK7android6VectorINS_7S
1215:   OBJECT WEAK DEFAULT 18 _ZTCN7android15BpMediaRec
1216:   FUNC WEAK DEFAULT 14 _ZNK7android6VectorINS_19
1217:   FUNC GLOBAL DEFAULT 14 _ZN7android9JetPlayer7rel
1218:   FUNC GLOBAL DEFAULT 14 _ZN7android25CharacterEnc
1219:   FUNC WEAK DEFAULT 14 _ZNK7android6VectorIPNS_1
1220:   FUNC WEAK DEFAULT 14 _ZNK7android12SortedVecto
1221:   OBJECT WEAK DEFAULT 18 _ZTTN7android14BpStreamSo
1222:   FUNC GLOBAL DEFAULT 14 _ZN7android5media8Metadat
1223:   FUNC GLOBAL DEFAULT 14 _ZN7android9JetPlayer22fi
1224:   FUNC WEAK DEFAULT 14 _ZNK7android6VectorIPK13U
1225:   FUNC GLOBAL DEFAULT 14 _ZN7android11MediaPlayerD
1226:   OBJECT WEAK DEFAULT 18 _ZTCN7android16BpMediaExt
1227:   FUNC GLOBAL DEFAULT 14 _ZN7android12IMediaPlayer
1228:   OBJECT GLOBAL DEFAULT 18 _ZTCN7android15BnMediaRec
1229:   FUNC GLOBAL DEFAULT 14 _ZN7android23IResourceMan
1230:   OBJECT GLOBAL DEFAULT 18 _ZTVN7android17IMediaHTTP
1231:   OBJECT GLOBAL DEFAULT 18 _ZTCN7android20BnMediaPla
1232:   FUNC GLOBAL DEFAULT 14 _ZN7android13MediaRecorde
1233:   FUNC WEAK DEFAULT 14 _ZNK7android6VectorIPNS_1
1234:   OBJECT GLOBAL DEFAULT 18 _ZTCN7android15BnRemoteDi
1235:   OBJECT WEAK DEFAULT 18 _ZTCN7android15BpRemoteDi
1236:   OBJECT GLOBAL DEFAULT 18 _ZTCN7android24BnMediaMet
1237:   FUNC GLOBAL DEFAULT 14 _ZN7android12MediaScanner
1238:   FUNC GLOBAL DEFAULT 14 _ZN7android11StringArrayD
1239:   OBJECT WEAK DEFAULT 18 _ZTCN7android21BpMediaHTT
1240:   FUNC GLOBAL DEFAULT 14 _ZN7android13MediaRecorde
1241:   FUNC GLOBAL DEFAULT 14 _ZN7android23IMediaMetada
1242:   FUNC GLOBAL DEFAULT 14 _ZN7android11StringArrayC
1243:   FUNC GLOBAL DEFAULT 14 _ZN7android17BufferingSet
1244:   FUNC WEAK DEFAULT 14 _ZNSt3__16__treeINS_12__v
1245:   OBJECT GLOBAL DEFAULT 18 _ZTCN7android20IMediaHTTP
1246:   FUNC GLOBAL DEFAULT 14 _ZTv0_n24_N7android12IMed
1247:   FUNC GLOBAL DEFAULT 14 _ZThn8_N7android24BnMedia
1248:   FUNC GLOBAL DEFAULT 14 _ZN7android13MediaProfile
1249:   FUNC GLOBAL DEFAULT 14 _ZN7android17IMediaHTTPSe
1250:   FUNC GLOBAL DEFAULT 14 _ZTv0_n24_N7android12IMed
1251:   OBJECT GLOBAL DEFAULT 18 _ZTCN7android14BnStreamSo
1252:   FUNC GLOBAL DEFAULT 14 _ZN7android11MediaPlayer1
1253:   FUNC WEAK DEFAULT 14 _ZNSt3__16vectorIN7androi
1254:   FUNC GLOBAL DEFAULT 14 _ZN7android9JetPlayer9clo
1255:   OBJECT GLOBAL DEFAULT 18 _ZTCN7android11MediaPlaye
1256:   OBJECT GLOBAL DEFAULT 18 _ZTTN7android13BnMediaPla
1257:   OBJECT GLOBAL DEFAULT 18 _ZTVN7android16BnStreamLi
1258:   OBJECT WEAK DEFAULT 18 _ZTTN7android20BpMediaPla
1259:   FUNC GLOBAL DEFAULT 14 _ZN7android11MediaPlayer7
1260:   OBJECT WEAK DEFAULT 18 _ZTCN7android23BpResource
1261:   OBJECT GLOBAL DEFAULT 23 _ZN7android22MediaMetadat
1262:   OBJECT GLOBAL DEFAULT 18 _ZTVN7android20IMediaHTTP
1263:   OBJECT GLOBAL DEFAULT 18 _ZTCN7android15IMediaExtr
1264:   FUNC GLOBAL DEFAULT 14 _ZN7android18IMediaPlayer
1265:   FUNC GLOBAL DEFAULT 14 _ZN7android13MediaRecorde
1266:   FUNC GLOBAL DEFAULT 14 _ZN7android22MediaMetadat
1267:   FUNC WEAK DEFAULT 14 _ZNK7android6VectorINS_8S
1268:   FUNC GLOBAL DEFAULT 14 _ZTv0_n24_N7android15IMed
1269:   FUNC GLOBAL DEFAULT 14 _ZN7android17IMediaHTTPSe
1270:   OBJECT WEAK DEFAULT 18 _ZTCN7android20BpMediaPla
1271:   OBJECT GLOBAL DEFAULT 23 _ZN7android20IRemoteDispl
1272:   OBJECT WEAK DEFAULT 18 _ZTCN7android21BpRemoteDi
1273:   OBJECT GLOBAL DEFAULT 18 _ZTCN7android19IMediaDeat
1274:   OBJECT WEAK DEFAULT 18 _ZTVN7android13DecryptHan
1275:   FUNC GLOBAL DEFAULT 14 _ZNK7android14IRemoteDisp
1276:   FUNC WEAK DEFAULT 14 _ZNSt3__16vectorIN7androi
1277:   FUNC GLOBAL DEFAULT 14 _ZN7android18MediaScanner
1278:   OBJECT GLOBAL DEFAULT 23 _ZN7android11IDataSource1
1279:   FUNC GLOBAL DEFAULT 14 _ZN7android11MediaPlayer1
1280:   OBJECT WEAK DEFAULT 18 _ZTVN7android6VectorINS_8
1281:   FUNC GLOBAL DEFAULT 14 _ZN7android9JetPlayer10cl
1282:   OBJECT GLOBAL DEFAULT 18 _ZTVN7android18MediaScann
1283:   FUNC GLOBAL DEFAULT 14 _ZN7android10VisualizerC1
1284:   OBJECT GLOBAL DEFAULT 18 _ZTCN7android13BnMediaPla
1285:   FUNC WEAK DEFAULT 14 _ZNK7android6VectorINS_19
1286:   FUNC WEAK DEFAULT 14 _ZNSt3__16__treeINS_12__v
1287:   FUNC GLOBAL DEFAULT 14 _ZN7android19IMediaPlayer
1288:   OBJECT WEAK DEFAULT 18 _ZTCN7android24BpResource
1289:   FUNC WEAK DEFAULT 14 _ZNK7android6VectorINS_2s
1290:   FUNC GLOBAL DEFAULT 14 _ZN7android13MediaProfile
1291:   FUNC GLOBAL DEFAULT 14 _ZN7android10VisualizerC2
1292:   FUNC GLOBAL DEFAULT 14 _ZTv0_n24_N7android11IDat
1293:   FUNC GLOBAL DEFAULT 14 _ZNK7android17BufferingSe
1294:   FUNC GLOBAL DEFAULT 14 _ZN7android23BnMediaExtra
1295:   FUNC GLOBAL DEFAULT 14 _ZN7android12IMediaPlayer
1296:   FUNC WEAK DEFAULT 14 _ZNK7android6VectorINS_13
1297:   OBJECT GLOBAL DEFAULT 18 _ZTCN7android13IStreamSou
1298:   FUNC GLOBAL DEFAULT 14 _ZTv0_n24_N7android13Medi
1299:   FUNC WEAK DEFAULT 14 _ZNK7android12SortedVecto
1300:   FUNC GLOBAL DEFAULT 14 _ZN7android12IMediaSource
1301:   OBJECT GLOBAL DEFAULT 18 _ZTCN7android13MediaRecor
1302:   FUNC WEAK DEFAULT 14 _ZN7android2spINS_22Media
1303:   FUNC GLOBAL DEFAULT 14 _ZNK7android5media4midi14
1304:   FUNC GLOBAL DEFAULT 14 _ZN7android13MediaAlbumAr
1305:   FUNC WEAK DEFAULT 14 _ZNK7android12SortedVecto
1306:   FUNC GLOBAL DEFAULT 14 _ZN7android14IMediaRecord
1307:   FUNC GLOBAL DEFAULT 14 _ZN7android13IStreamSourc
1308:   FUNC GLOBAL DEFAULT 14 _ZN7android13BnMediaSourc
1309:   OBJECT GLOBAL DEFAULT 23 _ZN7android22IResourceMan
1310:   FUNC GLOBAL DEFAULT 14 _ZTv0_n24_N7android23IRes
1311:   OBJECT GLOBAL DEFAULT 18 _ZTCN7android12BnDataSour
1312:   FUNC GLOBAL DEFAULT 14 _ZTv0_n24_N7android22IMed
1313:   OBJECT GLOBAL DEFAULT 18 _ZTTN7android15BnMediaRec
1314:   FUNC GLOBAL DEFAULT 14 _ZNK7android12IMediaSourc
1315:   FUNC WEAK DEFAULT 14 _ZNK7android6VectorINS_2s
1316:   FUNC WEAK DEFAULT 14 _ZNK7android6VectorIPNS_1
1317:   FUNC GLOBAL DEFAULT 14 _ZN7android11MediaPlayer1
1318:   OBJECT WEAK DEFAULT 18 _ZTCN7android16BpMediaExt
1319:   FUNC GLOBAL DEFAULT 14 _ZThn8_N7android13BnMedia
1320:   FUNC GLOBAL DEFAULT 14 _ZN7android14IRemoteDispl
1321:   OBJECT GLOBAL DEFAULT 18 _ZTCN7android16BnStreamLi
1322:   FUNC GLOBAL DEFAULT 14 _ZN7android11IDataSourceD
1323:   OBJECT GLOBAL DEFAULT 18 _ZTCN7android11IDataSourc
1324:   FUNC GLOBAL DEFAULT 14 _ZTv0_n24_N7android20IRem
1325:   FUNC GLOBAL DEFAULT 14 _ZN7android13MediaRecorde
1326:   FUNC GLOBAL DEFAULT 14 _ZN7android12MediaScanner
1327:   FUNC GLOBAL DEFAULT 14 _ZN7android25CharacterEnc
1328:   FUNC GLOBAL DEFAULT 14 _ZNK7android17IMediaHTTPS
1329:   OBJECT GLOBAL DEFAULT 18 _ZTCN7android16BnMediaExt
1330:   OBJECT GLOBAL DEFAULT 18 _ZTCN7android21BnRemoteDi
1331:   OBJECT GLOBAL DEFAULT 18 _ZTVN7android23IMediaMeta
1332:   FUNC GLOBAL DEFAULT 14 _Z23reverse_translate_err
1333:   OBJECT GLOBAL DEFAULT 18 _ZN7android5media4midi14M
1334:   OBJECT GLOBAL DEFAULT 23 _ZN7android15IMediaExtrac
1335:   OBJECT GLOBAL DEFAULT 18 _ZTCN7android23BnMediaExt
1336:   FUNC WEAK DEFAULT 14 _ZNK7android6VectorIfE12d
1337:   OBJECT GLOBAL DEFAULT 23 _ZN7android14IRemoteDispl
1338:   FUNC WEAK DEFAULT 14 _ZNK7android6VectorINS_19
1339:   OBJECT GLOBAL DEFAULT 18 _ZTTN7android24BnMediaMet
1340:   FUNC WEAK DEFAULT 14 _ZNSt3__16__treeINS_12__v
1341:   FUNC GLOBAL DEFAULT 14 _ZN7android19IMediaDeathN
1342:   FUNC GLOBAL DEFAULT 14 _ZN7android10VisualizerD2
1343:   FUNC WEAK DEFAULT 14 _ZNK7android6VectorIhE8do
1344:   FUNC WEAK DEFAULT 14 _ZNSt3__16__treeINS_12__v
1345:   FUNC GLOBAL DEFAULT 14 _ZN7android22MediaMetadat
1346:   FUNC GLOBAL DEFAULT 14 _ZN7android13MediaProfile
1347:   FUNC GLOBAL DEFAULT 14 _ZThn8_N7android23BnMedia
1348:   OBJECT GLOBAL DEFAULT 18 _ZN7android5media4midi14M
1349:   FUNC GLOBAL DEFAULT 14 _ZN7android25CharacterEnc
1350:   FUNC GLOBAL DEFAULT 14 _ZN7android13MediaProfile
1351:   FUNC GLOBAL DEFAULT 14 _ZN7android22AMediaFormat
1352:   FUNC GLOBAL DEFAULT 14 _ZN7android25CharacterEnc
1353:   FUNC GLOBAL DEFAULT 14 _ZNK7android13MediaProfil
1354:   FUNC GLOBAL DEFAULT 14 _ZN7android11MediaPlayer1
1355:   OBJECT WEAK DEFAULT 18 _ZTVN7android23BpMediaExt
1356:   FUNC GLOBAL DEFAULT 14 _ZN7android22IResourceMan
1357:   FUNC GLOBAL DEFAULT 14 _ZN7android9JetPlayer5pau
1358:   FUNC WEAK DEFAULT 14 _ZNK7android6VectorIPNS_1
1359:   FUNC GLOBAL DEFAULT 14 _ZN7android11MediaPlayer5
1360:   OBJECT GLOBAL DEFAULT 23 _ZN7android18IMediaPlayer
1361:   OBJECT WEAK DEFAULT 18 _ZTVN7android5media12Volu
1362:   FUNC WEAK DEFAULT 14 _ZNK7android6VectorINS0_I
1363:   FUNC GLOBAL DEFAULT 14 _ZN7android14IRemoteDispl
1364:   FUNC GLOBAL DEFAULT 14 _ZN7android23IMediaMetada
1365:   FUNC WEAK DEFAULT 14 _ZNSt3__16__treeINS_12__v
1366:   FUNC GLOBAL DEFAULT 14 _ZN7android11StringArray8
1367:   FUNC GLOBAL DEFAULT 14 _ZN7android13MediaProfile
1368:   FUNC GLOBAL DEFAULT 14 _ZN7android13MediaProfile
1369:   FUNC GLOBAL DEFAULT 14 _ZN7android20IMediaRecord
1370:   FUNC GLOBAL DEFAULT 14 _ZN7android20IMediaRecord
1371:   OBJECT WEAK DEFAULT 18 _ZTCN7android15BpMediaRec
1372:   FUNC GLOBAL DEFAULT 14 _ZN7android23IMediaMetada
1373:   FUNC GLOBAL DEFAULT 14 _ZN7android13MediaAlbumAr
1374:   FUNC GLOBAL DEFAULT 14 _ZN7android15IMediaExtrac
1375:   FUNC GLOBAL DEFAULT 14 _ZN7android19IMediaPlayer
1376:   FUNC GLOBAL DEFAULT 14 _ZN7android20IMediaRecord
1377:   OBJECT GLOBAL DEFAULT 18 _ZTVN7android24BnMediaMet
1378:   FUNC GLOBAL DEFAULT 14 _ZN7android11MediaPlayer1
1379:   FUNC GLOBAL DEFAULT 14 _ZN7android15IMediaExtrac
1380:   OBJECT GLOBAL DEFAULT 23 _ZN7android20IMediaRecord
1381:   FUNC WEAK DEFAULT 14 _ZN7android11BnInterfaceI
1382:   FUNC WEAK DEFAULT 14 _ZNK7android6VectorINS_13
1383:   FUNC WEAK DEFAULT 14 _ZNK7android6VectorINS_13
1384:   OBJECT WEAK DEFAULT 18 _ZTVN7android12SortedVect
1385:   OBJECT WEAK DEFAULT 18 _ZTCN7android18BpMediaHTT
1386:   OBJECT GLOBAL DEFAULT 23 _ZN7android12IMediaSource
1387:   OBJECT GLOBAL DEFAULT 18 _ZTCN7android24BnResource
1388:   FUNC GLOBAL DEFAULT 14 _ZN7android22MediaMetadat
1389:   OBJECT GLOBAL DEFAULT 18 _ZTVN7android23BnMediaExt
1390:   FUNC GLOBAL DEFAULT 14 _ZNK7android19IMediaPlaye
1391:   FUNC WEAK DEFAULT 14 _ZNK7android6VectorINS_13
1392:   FUNC GLOBAL DEFAULT 14 _ZN7android22MediaMetadat
1393:   FUNC GLOBAL DEFAULT 14 _ZN7android20IMediaHTTPCo
1394:   OBJECT WEAK DEFAULT 18 _ZTCN7android18BpMediaHTT
1395:   OBJECT WEAK DEFAULT 18 _ZTCN7android19BpMediaPla
1396:   OBJECT WEAK DEFAULT 18 _ZTVN7android13BpMediaSou
1397:   FUNC GLOBAL DEFAULT 14 _ZN7android22MediaMetadat
1398:   FUNC WEAK DEFAULT 14 _ZNK7android12SortedVecto
1399:   FUNC GLOBAL DEFAULT 14 _ZN7android11MediaPlayer8
1400:   FUNC GLOBAL DEFAULT 14 _ZTv0_n24_N7android18IMed
1401:   FUNC GLOBAL DEFAULT 14 _ZTv0_n24_N7android20IMed
1402:   OBJECT GLOBAL DEFAULT 18 _ZTCN7android21BnRemoteDi
1403:   FUNC GLOBAL DEFAULT 14 _ZN7android5media8Metadat
1404:   OBJECT WEAK DEFAULT 18 _ZTCN7android24BpResource
1405:   OBJECT WEAK DEFAULT 18 _ZTCN7android16BpStreamLi
1406:   OBJECT GLOBAL DEFAULT 23 _ZN7android22MediaMetadat
1407:   FUNC GLOBAL DEFAULT 14 _ZN7android9JetPlayer11se
1408:   OBJECT GLOBAL DEFAULT 23 _ZN7android13MediaProfile
1409:   OBJECT WEAK DEFAULT 18 _ZTTN7android18BpMediaHTT
1410:   FUNC WEAK DEFAULT 14 _ZNK7android6VectorINS_2w
1411:   OBJECT GLOBAL DEFAULT 18 _ZTCN7android15BnMediaRec
1412:   FUNC WEAK DEFAULT 14 _ZNK7android6VectorIPNS_1
1413:   FUNC WEAK DEFAULT 14 _ZN7android11BnInterfaceI
1414:   OBJECT WEAK DEFAULT 18 _ZTCN7android21BpMediaHTT
1415:   OBJECT GLOBAL DEFAULT 18 _ZTCN7android20BnMediaPla
1416:   OBJECT GLOBAL DEFAULT 18 _ZTVN7android12IMediaSour
1417:   OBJECT GLOBAL DEFAULT 18 _ZTCN7android23BnResource
1418:   FUNC GLOBAL DEFAULT 14 _ZN7android13MediaRecorde
1419:   FUNC WEAK DEFAULT 14 _ZNK7android12SortedVecto
1420:   FUNC WEAK DEFAULT 14 _ZNK7android6VectorINS_8S
1421:   FUNC GLOBAL DEFAULT 14 _ZN7android13MediaProfile
1422:   OBJECT GLOBAL DEFAULT 18 _ZTVN7android23IResourceM
1423:   FUNC GLOBAL DEFAULT 14 _ZN7android15IStreamListe
1424:   OBJECT GLOBAL DEFAULT 18 _ZTCN7android13MediaRecor
1425:   FUNC WEAK DEFAULT 14 _ZNSt3__16vectorIN7androi
1426:   FUNC GLOBAL DEFAULT 14 _ZN7android13MediaProfile
1427:   OBJECT WEAK DEFAULT 18 _ZTVN7android23BpResource
1428:   OBJECT GLOBAL DEFAULT 18 _ZTTN7android24BnResource
1429:   FUNC GLOBAL DEFAULT 14 _ZN7android25CharacterEnc
1430:   FUNC GLOBAL DEFAULT 14 _ZN7android10Visualizer13
1431:   FUNC WEAK DEFAULT 14 _ZNK7android6VectorINS_17
1432:   FUNC WEAK DEFAULT 14 _ZN7android11BnInterfaceI
1433:   FUNC GLOBAL DEFAULT 14 _ZN7android25CharacterEnc
1434:   OBJECT GLOBAL DEFAULT 18 _ZN7android5media4midi14M
1435:   FUNC WEAK DEFAULT 14 _ZNK7android6VectorIPK13U
1436:   FUNC GLOBAL DEFAULT 14 _ZN7android11MediaPlayer1
1437:   FUNC GLOBAL DEFAULT 14 _ZN7android11MediaPlayer1
1438:   OBJECT WEAK DEFAULT 18 _ZTCN7android16BpStreamLi
1439:   FUNC WEAK DEFAULT 14 _ZNK7android6VectorINS_8S
1440:   OBJECT GLOBAL DEFAULT 18 _ZN7android13MediaProfile
1441:   OBJECT WEAK DEFAULT 18 _ZTVN7android6VectorINS_1
1442:   OBJECT GLOBAL DEFAULT 18 _ZTTN7android21BnRemoteDi
1443:   FUNC GLOBAL DEFAULT 14 _ZN7android10Visualizer13
1444:   OBJECT GLOBAL DEFAULT 18 _ZTCN7android13BnMediaPla
1445:   FUNC GLOBAL DEFAULT 14 _ZTv0_n32_N7android13Medi
1446:   FUNC GLOBAL DEFAULT 14 _ZN7android11MediaPlayer5
1447:   OBJECT GLOBAL DEFAULT 23 _ZN7android14IMediaRecord
1448:   OBJECT GLOBAL DEFAULT 18 _ZTVN7android21BnRemoteDi
1449:   OBJECT WEAK DEFAULT 18 _ZTVN7android6VectorINS_1
1450:   OBJECT GLOBAL DEFAULT 18 _ZTCN7android14BnStreamSo
1451:   FUNC GLOBAL DEFAULT 14 _ZNK7android13MediaProfil
1452:   FUNC WEAK DEFAULT 14 _ZNK7android6VectorINS_7S
1453:   FUNC GLOBAL DEFAULT 14 _ZN7android24BnMediaMetad
1454:   FUNC GLOBAL DEFAULT 14 _ZN7android9JetPlayer12se
1455:   FUNC GLOBAL DEFAULT 14 _ZN7android10Visualizer13
1456:   FUNC GLOBAL DEFAULT 14 _ZTv0_n24_N7android17IMed
1457:   FUNC GLOBAL DEFAULT 14 _ZN7android19IMediaPlayer
1458:   OBJECT GLOBAL DEFAULT 18 _ZTTN7android20BnMediaPla
1459:   FUNC WEAK DEFAULT 14 _ZNK7android6VectorIfE10d
1460:   FUNC WEAK DEFAULT 14 _ZNK7android12SortedVecto
1461:   OBJECT WEAK DEFAULT 18 _ZTTN7android21BpMediaHTT
1462:   OBJECT WEAK DEFAULT 18 _ZTCN7android23BpResource
1463:   OBJECT GLOBAL DEFAULT 18 _ZTVN7android23BnResource
1464:   OBJECT WEAK DEFAULT 18 _ZTTN7android24BpMediaMet
1465:   FUNC GLOBAL DEFAULT 14 _ZN7android18MediaScanner
1466:   FUNC WEAK DEFAULT 14 _ZNK7android6VectorIPNS_1
1467:   FUNC GLOBAL DEFAULT 14 _ZN7android11MediaPlayer1
1468:   OBJECT WEAK DEFAULT 18 _ZTCN7android21BpMediaRec
1469:   OBJECT WEAK DEFAULT 18 _ZTVN7android15BpRemoteDi
1470:   FUNC GLOBAL DEFAULT 14 _ZN7android22MediaMetadat
1471:   FUNC GLOBAL DEFAULT 14 _ZN7android13MediaProfile
1472:   FUNC GLOBAL DEFAULT 14 _ZNK7android13MediaProfil
1473:   OBJECT GLOBAL DEFAULT 23 _ZN7android17IMediaHTTPSe
1474:   FUNC WEAK DEFAULT 14 _ZNK7android6VectorINS_7S
1475:   FUNC GLOBAL DEFAULT 14 _ZN7android22IMediaExtrac
1476:   FUNC GLOBAL DEFAULT 14 _ZTv0_n24_N7android19IMed
1477:   OBJECT GLOBAL DEFAULT 18 _ZTCN7android13BnMediaSou
1478:   OBJECT GLOBAL DEFAULT 18 _ZTCN7android13MediaRecor
1479:   FUNC WEAK DEFAULT 14 _ZNK7android12SortedVecto
1480:   FUNC GLOBAL DEFAULT 14 _ZN7android11MediaPlayer7
1481:   FUNC WEAK DEFAULT 14 _ZNK7android6VectorINS_19
1482:   OBJECT GLOBAL DEFAULT 18 _ZTVN7android24BnResource
1483:   FUNC GLOBAL DEFAULT 14 _ZN7android9JetPlayer13du
1484:   FUNC WEAK DEFAULT 14 _ZNK7android6VectorIPNS_1
1485:   FUNC GLOBAL DEFAULT 14 _ZN7android11MediaPlayer1
1486:   OBJECT GLOBAL DEFAULT 18 _ZTCN7android24BnResource
1487:   FUNC WEAK DEFAULT 14 _ZNK7android12SortedVecto
1488:   FUNC GLOBAL DEFAULT 14 _ZN7android21BnMediaRecor
1489:   FUNC GLOBAL DEFAULT 14 _ZN7android9JetPlayer11tr
1490:   FUNC GLOBAL DEFAULT 14 _ZN7android11MediaPlayerD
1491:   OBJECT WEAK DEFAULT 18 _ZTVN7android21BpMediaHTT
1492:   OBJECT WEAK DEFAULT 18 _ZTCN7android13BpMediaPla
1493:   FUNC WEAK DEFAULT 14 _ZN7android11BnInterfaceI
1494:   OBJECT WEAK DEFAULT 18 _ZTCN7android16BpStreamLi
1495:   FUNC GLOBAL DEFAULT 14 _ZN7android13MediaProfile
1496:   FUNC GLOBAL DEFAULT 14 _ZN7android11MediaPlayerC
1497:   FUNC WEAK DEFAULT 14 _ZNK7android6VectorIhE16d
1498:   OBJECT GLOBAL DEFAULT 23 _ZN7android14IRemoteDispl
1499:   FUNC WEAK DEFAULT 14 _ZNK7android6VectorIPNS_1
1500:   OBJECT WEAK DEFAULT 18 _ZTVN7android5media12Volu
1501:   FUNC WEAK DEFAULT 14 _ZN7android11BnInterfaceI
1502:   FUNC GLOBAL DEFAULT 14 _ZN7android13MediaRecorde
1503:   FUNC GLOBAL DEFAULT 14 _ZN7android13MediaProfile
1504:   OBJECT WEAK DEFAULT 18 _ZTCN7android12BpDataSour
1505:   OBJECT GLOBAL DEFAULT 18 _ZTVN7android20IMediaReco
1506:   OBJECT GLOBAL DEFAULT 23 _ZN7android23IResourceMan
1507:   OBJECT GLOBAL DEFAULT 23 _ZN7android15IStreamListe
1508:   FUNC GLOBAL DEFAULT 14 _ZN7android11StringArray9
1509:   FUNC GLOBAL DEFAULT 14 _ZN7android19BnMediaPlaye
1510:   FUNC GLOBAL DEFAULT 14 _ZN7android23IResourceMan
1511:   FUNC GLOBAL DEFAULT 14 _ZN7android12MediaScanner
1512:   FUNC GLOBAL DEFAULT 14 _ZN7android13MediaProfile
1513:   FUNC WEAK DEFAULT 14 _ZNK7android6VectorINS_13
1514:   FUNC GLOBAL DEFAULT 14 _ZN7android11MediaPlayer1
1515:   FUNC GLOBAL DEFAULT 14 _ZThn8_N7android17IMediaH
1516:   FUNC GLOBAL DEFAULT 14 _ZN7android13BnMediaPlaye
1517:   OBJECT GLOBAL DEFAULT 18 _ZTCN7android13BnMediaSou
1518:   OBJECT GLOBAL DEFAULT 18 _ZTCN7android15BnRemoteDi
1519:   OBJECT WEAK DEFAULT 18 _ZTVN7android24BpMediaMet
1520:   FUNC GLOBAL DEFAULT 14 _ZN7android22MediaMetadat
1521:   OBJECT GLOBAL DEFAULT 18 _ZTCN7android11MediaPlaye
1522:   FUNC WEAK DEFAULT 14 _ZNK7android6VectorINS_8S
1523:   FUNC GLOBAL DEFAULT 14 _ZNK7android13MediaProfil
1524:   FUNC GLOBAL DEFAULT 14 _ZN7android23IResourceMan
1525:   FUNC WEAK DEFAULT 14 _ZNSt3__16__treeINS_12__v
1526:   FUNC WEAK DEFAULT 14 _ZN7android11BnInterfaceI
1527:   FUNC GLOBAL DEFAULT 14 _ZTv0_n24_N7android22Medi
1528:   FUNC GLOBAL DEFAULT 14 _ZN7android13MediaProfile
1529:   FUNC WEAK DEFAULT 14 _ZNK7android12SortedVecto
1530:   FUNC GLOBAL DEFAULT 14 _ZN7android11MediaPlayer2
1531:   OBJECT GLOBAL DEFAULT 18 _ZTCN7android12IMediaPlay
1532:   FUNC WEAK DEFAULT 14 _ZNK7android6VectorINS0_I
1533:   FUNC WEAK DEFAULT 14 _ZNK7android6VectorINS_13
1534:   OBJECT WEAK DEFAULT 18 _ZTTN7android9JetPlayer15
1535:   FUNC GLOBAL DEFAULT 14 _ZN7android13MediaProfile
1536:   FUNC GLOBAL DEFAULT 14 _ZN7android13MediaProfile
1537:   FUNC GLOBAL DEFAULT 14 _ZN7android13MediaRecorde
1538:   OBJECT WEAK DEFAULT 18 _ZTVN7android6VectorIPK13
1539:   OBJECT GLOBAL DEFAULT 18 _ZN7android13MediaProfile
1540:   FUNC GLOBAL DEFAULT 14 _ZNK7android13MediaProfil
1541:   FUNC WEAK DEFAULT 14 _ZNK7android12SortedVecto
1542:   OBJECT WEAK DEFAULT 18 _ZTCN7android12BpDataSour
1543:   OBJECT WEAK DEFAULT 18 _ZTTN7android13BpMediaPla
1544:   FUNC GLOBAL DEFAULT 14 _ZN7android23IResourceMan
1545:   FUNC WEAK DEFAULT 14 _ZN7android2spINS_19IMedi
1546:   FUNC GLOBAL DEFAULT 14 _ZN7android11MediaPlayer9
1547:   FUNC GLOBAL DEFAULT 14 _ZTv0_n24_N7android13BnMe
1548:   OBJECT GLOBAL DEFAULT 18 _ZTCN7android24BnResource
1549:   OBJECT WEAK DEFAULT 18 _ZTTN7android24BpResource
1550:   FUNC GLOBAL DEFAULT 14 _ZN7android10Visualizer7r
1551:   FUNC GLOBAL DEFAULT 14 _ZN7android17IMediaHTTPSe
1552:   OBJECT GLOBAL DEFAULT 18 _ZTCN7android23BnMediaExt
