 0x000000000000000e (SONAME)             Library soname: [suspend_control_aidl_interface-cpp.so]
  
Symbol   contains 164 entries:
Num:   Type Bind Vis Ndx Name
0:   NOTYPE LOCAL DEFAULT UND
1:   FUNC GLOBAL DEFAULT UND __cxa_finalize@LIBC (2)
2:   FUNC GLOBAL DEFAULT UND __cxa_atexit@LIBC (2)
3:   FUNC GLOBAL DEFAULT UND _ZN7android10IInterface8a
4:   FUNC GLOBAL DEFAULT UND _ZN7android10IInterfaceC2
5:   FUNC GLOBAL DEFAULT UND _ZN7android10IInterfaceD0
6:   FUNC GLOBAL DEFAULT UND _ZN7android10IInterfaceD1
7:   FUNC GLOBAL DEFAULT UND _ZN7android10IInterfaceD2
8:   FUNC GLOBAL DEFAULT UND _ZN7android14sp_report_ra
9:   FUNC GLOBAL DEFAULT UND _ZN7android6Parcel17write
10:   FUNC GLOBAL DEFAULT UND _ZN7android6Parcel19write
11:   FUNC GLOBAL DEFAULT UND _ZN7android6Parcel9writeB
12:   FUNC GLOBAL DEFAULT UND _ZN7android6ParcelC1Ev
13:   FUNC GLOBAL DEFAULT UND _ZN7android6ParcelD1Ev
14:   FUNC GLOBAL DEFAULT UND _ZN7android6binder6Status
15:   FUNC GLOBAL DEFAULT UND _ZN7android6binder6Status
16:   FUNC GLOBAL DEFAULT UND _ZN7android6binder6Status
17:   FUNC GLOBAL DEFAULT UND _ZN7android6binder6Status
18:   FUNC GLOBAL DEFAULT UND _ZN7android7BBinder10onTr
19:   FUNC GLOBAL DEFAULT UND _ZN7android7BBinder10ping
20:   FUNC GLOBAL DEFAULT UND _ZN7android7BBinder11link
21:   FUNC GLOBAL DEFAULT UND _ZN7android7BBinder11loca
22:   FUNC GLOBAL DEFAULT UND _ZN7android7BBinder12atta
23:   FUNC GLOBAL DEFAULT UND _ZN7android7BBinder12deta
24:   FUNC GLOBAL DEFAULT UND _ZN7android7BBinder13unli
25:   FUNC GLOBAL DEFAULT UND _ZN7android7BBinder4dumpE
26:   FUNC GLOBAL DEFAULT UND _ZN7android7BBinder8trans
27:   FUNC GLOBAL DEFAULT UND _ZN7android7BBinderD0Ev
28:   FUNC GLOBAL DEFAULT UND _ZN7android7BBinderD1Ev
29:   FUNC GLOBAL DEFAULT UND _ZN7android7IBinder11loca
30:   FUNC GLOBAL DEFAULT UND _ZN7android7IBinder12remo
31:   FUNC GLOBAL DEFAULT UND _ZN7android7IBinder19quer
32:   FUNC GLOBAL DEFAULT UND _ZN7android7IBinderD0Ev
33:   FUNC GLOBAL DEFAULT UND _ZN7android7IBinderD1Ev
34:   FUNC GLOBAL DEFAULT UND _ZN7android7RefBase10onFi
35:   FUNC GLOBAL DEFAULT UND _ZN7android7RefBase13onLa
36:   FUNC GLOBAL DEFAULT UND _ZN7android7RefBase15onLa
37:   FUNC GLOBAL DEFAULT UND _ZN7android7RefBase20onIn
38:   FUNC GLOBAL DEFAULT UND _ZN7android7RefBaseC2Ev
39:   FUNC GLOBAL DEFAULT UND _ZN7android7RefBaseD2Ev
40:   FUNC GLOBAL DEFAULT UND _ZN7android7String8C1ERKS
41:   FUNC GLOBAL DEFAULT UND _ZN7android7String8C1Ev
42:   FUNC GLOBAL DEFAULT UND _ZN7android7String8D1Ev
43:   FUNC GLOBAL DEFAULT UND _ZN7android8String16C1EPK
44:   FUNC GLOBAL DEFAULT UND _ZN7android8String16D1Ev
45:   FUNC GLOBAL DEFAULT UND _ZN7android9BpRefBase10on
46:   FUNC GLOBAL DEFAULT UND _ZN7android9BpRefBase15on
47:   FUNC GLOBAL DEFAULT UND _ZN7android9BpRefBase20on
48:   FUNC GLOBAL DEFAULT UND _ZN7android9BpRefBaseC2ER
49:   FUNC GLOBAL DEFAULT UND _ZN7android9BpRefBaseD0Ev
50:   FUNC GLOBAL DEFAULT UND _ZN7android9BpRefBaseD1Ev
51:   FUNC GLOBAL DEFAULT UND _ZN7android9BpRefBaseD2Ev
52:   FUNC GLOBAL DEFAULT UND _ZNK7android6Parcel14chec
53:   FUNC GLOBAL DEFAULT UND _ZNK7android6Parcel16read
54:   FUNC GLOBAL DEFAULT UND _ZNK7android6Parcel8readB
55:   FUNC GLOBAL DEFAULT UND _ZNK7android6binder6Statu
56:   FUNC GLOBAL DEFAULT UND _ZNK7android7BBinder10fin
57:   FUNC GLOBAL DEFAULT UND _ZNK7android7BBinder13isB
58:   FUNC GLOBAL DEFAULT UND _ZNK7android7BBinder22get
59:   FUNC GLOBAL DEFAULT UND _ZNK7android7IBinder13che
60:   FUNC GLOBAL DEFAULT UND _ZNK7android7RefBase9decS
61:   FUNC GLOBAL DEFAULT UND _ZNK7android7RefBase9incS
62:   FUNC GLOBAL DEFAULT UND _ZNK7android8String164siz
63:   FUNC GLOBAL DEFAULT UND _ZTv0_n24_N7android10IInt
64:   FUNC GLOBAL DEFAULT UND _ZTv0_n24_N7android10IInt
65:   FUNC GLOBAL DEFAULT UND _ZTv0_n24_N7android7BBind
66:   FUNC GLOBAL DEFAULT UND _ZTv0_n24_N7android7BBind
67:   FUNC GLOBAL DEFAULT UND _ZTv0_n24_N7android7IBind
68:   FUNC GLOBAL DEFAULT UND _ZTv0_n24_N7android7IBind
69:   FUNC GLOBAL DEFAULT UND _ZTv0_n24_N7android9BpRef
70:   FUNC GLOBAL DEFAULT UND _ZTv0_n24_N7android9BpRef
71:   FUNC GLOBAL DEFAULT UND _ZTv0_n32_N7android9BpRef
72:   FUNC GLOBAL DEFAULT UND _ZTv0_n40_N7android9BpRef
73:   FUNC GLOBAL DEFAULT UND _ZTv0_n48_N7android9BpRef
74:   FUNC GLOBAL DEFAULT UND _ZdlPv
75:   FUNC GLOBAL DEFAULT UND _Znwm
76:   FUNC GLOBAL DEFAULT UND __cxa_pure_virtual
77:   FUNC GLOBAL DEFAULT UND __stack_chk_fail@LIBC (2)
78:   FUNC GLOBAL DEFAULT UND strzcmp16
79:   FUNC GLOBAL DEFAULT 14 _ZN7android6system7suspen
80:   OBJECT GLOBAL DEFAULT 18 _ZTCN7android6system7susp
81:   FUNC GLOBAL DEFAULT 14 _ZN7android6system7suspen
82:   FUNC GLOBAL DEFAULT 14 _ZN7android6system7suspen
83:   OBJECT GLOBAL DEFAULT 18 _ZTCN7android6system7susp
84:   FUNC GLOBAL DEFAULT 14 _ZN7android6system7suspen
85:   FUNC GLOBAL DEFAULT 14 _ZNK7android6system7suspe
86:   FUNC GLOBAL DEFAULT 14 _ZN7android6system7suspen
87:   FUNC GLOBAL DEFAULT 14 _ZN7android6system7suspen
88:   OBJECT GLOBAL DEFAULT 18 _ZTTN7android6system7susp
89:   FUNC GLOBAL DEFAULT 14 _ZN7android6system7suspen
90:   OBJECT GLOBAL DEFAULT 18 _ZTCN7android6system7susp
91:   OBJECT GLOBAL DEFAULT 18 _ZTTN7android6system7susp
92:   FUNC GLOBAL DEFAULT 14 _ZN7android6system7suspen
93:   OBJECT GLOBAL DEFAULT 18 _ZTVN7android6system7susp
94:   FUNC GLOBAL DEFAULT 14 _ZN7android6system7suspen
95:   FUNC GLOBAL DEFAULT 14 _ZN7android6system7suspen
96:   FUNC GLOBAL DEFAULT 14 _ZN7android6system7suspen
97:   OBJECT GLOBAL DEFAULT 18 _ZTTN7android6system7susp
98:   FUNC GLOBAL DEFAULT 14 _ZThn8_N7android6system7s
99:   FUNC GLOBAL DEFAULT 14 _ZN7android6system7suspen
100:   OBJECT GLOBAL DEFAULT 18 _ZTCN7android6system7susp
101:   OBJECT GLOBAL DEFAULT 18 _ZTCN7android6system7susp
102:   OBJECT GLOBAL DEFAULT 18 _ZTCN7android6system7susp
103:   FUNC GLOBAL DEFAULT 14 _ZN7android6system7suspen
104:   FUNC GLOBAL DEFAULT 14 _ZN7android6system7suspen
105:   OBJECT GLOBAL DEFAULT 18 _ZTCN7android6system7susp
106:   FUNC GLOBAL DEFAULT 14 _ZN7android6system7suspen
107:   OBJECT GLOBAL DEFAULT 23 _ZN7android6system7suspen
108:   OBJECT GLOBAL DEFAULT 18 _ZTCN7android6system7susp
109:   FUNC GLOBAL DEFAULT 14 _ZN7android6system7suspen
110:   OBJECT GLOBAL DEFAULT 18 _ZTCN7android6system7susp
111:   FUNC GLOBAL DEFAULT 14 _ZN7android6system7suspen
112:   OBJECT GLOBAL DEFAULT 18 _ZTCN7android6system7susp
113:   OBJECT GLOBAL DEFAULT 18 _ZTCN7android6system7susp
114:   OBJECT GLOBAL DEFAULT 18 _ZTCN7android6system7susp
115:   OBJECT GLOBAL DEFAULT 23 _ZN7android6system7suspen
116:   FUNC GLOBAL DEFAULT 14 _ZNK7android6system7suspe
117:   OBJECT GLOBAL DEFAULT 18 _ZTVN7android6system7susp
118:   OBJECT GLOBAL DEFAULT 18 _ZTVN7android6system7susp
119:   OBJECT GLOBAL DEFAULT 18 _ZTVN7android6system7susp
120:   FUNC GLOBAL DEFAULT 14 _ZTv0_n24_N7android6syste
121:   OBJECT GLOBAL DEFAULT 18 _ZTCN7android6system7susp
122:   OBJECT GLOBAL DEFAULT 18 _ZTCN7android6system7susp
123:   FUNC GLOBAL DEFAULT 14 _ZN7android6system7suspen
124:   OBJECT GLOBAL DEFAULT 18 _ZTCN7android6system7susp
125:   OBJECT GLOBAL DEFAULT 18 _ZTCN7android6system7susp
126:   OBJECT GLOBAL DEFAULT 18 _ZTVN7android6system7susp
127:   FUNC GLOBAL DEFAULT 14 _ZThn8_N7android6system7s
128:   FUNC GLOBAL DEFAULT 14 _ZN7android6system7suspen
129:   OBJECT GLOBAL DEFAULT 18 _ZTCN7android6system7susp
130:   OBJECT GLOBAL DEFAULT 18 _ZTVN7android6system7susp
131:   OBJECT GLOBAL DEFAULT 18 _ZTVN7android6system7susp
132:   FUNC GLOBAL DEFAULT 14 _ZTv0_n24_N7android6syste
133:   FUNC GLOBAL DEFAULT 14 _ZN7android6system7suspen
134:   FUNC GLOBAL DEFAULT 14 _ZN7android6system7suspen
135:   OBJECT GLOBAL DEFAULT 18 _ZTTN7android6system7susp
136:   OBJECT GLOBAL DEFAULT 18 _ZTTN7android6system7susp
137:   OBJECT GLOBAL DEFAULT 23 _ZN7android6system7suspen
138:   FUNC GLOBAL DEFAULT 14 _ZN7android6system7suspen
139:   FUNC GLOBAL DEFAULT 14 _ZTv0_n24_N7android6syste
140:   FUNC GLOBAL DEFAULT 14 _ZN7android6system7suspen
141:   OBJECT GLOBAL DEFAULT 18 _ZTTN7android6system7susp
142:   OBJECT GLOBAL DEFAULT 18 _ZTCN7android6system7susp
143:   FUNC GLOBAL DEFAULT 14 _ZN7android6system7suspen
144:   FUNC GLOBAL DEFAULT 14 _ZTv0_n24_N7android6syste
145:   FUNC GLOBAL DEFAULT 14 _ZN7android6system7suspen
146:   OBJECT GLOBAL DEFAULT 18 _ZTCN7android6system7susp
147:   OBJECT GLOBAL DEFAULT 18 _ZTTN7android6system7susp
148:   OBJECT GLOBAL DEFAULT 18 _ZTTN7android6system7susp
149:   FUNC GLOBAL DEFAULT 14 _ZN7android6system7suspen
150:   FUNC GLOBAL DEFAULT 14 _ZN7android6system7suspen
151:   OBJECT GLOBAL DEFAULT 18 _ZTCN7android6system7susp
152:   OBJECT GLOBAL DEFAULT 18 _ZTCN7android6system7susp
153:   FUNC WEAK DEFAULT 14 _ZN7android11BnInterfaceI
154:   FUNC GLOBAL DEFAULT 14 _ZN7android6system7suspen
155:   OBJECT GLOBAL DEFAULT 18 _ZTCN7android6system7susp
156:   OBJECT GLOBAL DEFAULT 18 _ZTCN7android6system7susp
157:   OBJECT GLOBAL DEFAULT 18 _ZTVN7android6system7susp
158:   OBJECT GLOBAL DEFAULT 23 _ZN7android6system7suspen
159:   FUNC GLOBAL DEFAULT 14 _ZN7android6system7suspen
160:   FUNC WEAK DEFAULT 14 _ZNK7android6Parcel16read
161:   OBJECT GLOBAL DEFAULT 18 _ZTCN7android6system7susp
162:   FUNC WEAK DEFAULT 14 _ZN7android11BnInterfaceI
163:   FUNC GLOBAL DEFAULT 14 _ZN7android6system7suspen
