 0x000000000000000e (SONAME)             Library soname: [libstagefright_omx_utils.so]
  
Symbol   contains 50 entries:
Num:   Type Bind Vis Ndx Name
0:   NOTYPE LOCAL DEFAULT UND
1:   FUNC GLOBAL DEFAULT UND __cxa_finalize@LIBC (2)
2:   OBJECT GLOBAL DEFAULT UND _ZN7android24MEDIA_MIMETY
3:   OBJECT GLOBAL DEFAULT UND _ZN7android24MEDIA_MIMETY
4:   OBJECT GLOBAL DEFAULT UND _ZN7android24MEDIA_MIMETY
5:   OBJECT GLOBAL DEFAULT UND _ZN7android24MEDIA_MIMETY
6:   OBJECT GLOBAL DEFAULT UND _ZN7android24MEDIA_MIMETY
7:   OBJECT GLOBAL DEFAULT UND _ZN7android24MEDIA_MIMETY
8:   OBJECT GLOBAL DEFAULT UND _ZN7android24MEDIA_MIMETY
9:   OBJECT GLOBAL DEFAULT UND _ZN7android24MEDIA_MIMETY
10:   OBJECT GLOBAL DEFAULT UND _ZN7android25MEDIA_MIMETY
11:   OBJECT GLOBAL DEFAULT UND _ZN7android25MEDIA_MIMETY
12:   OBJECT GLOBAL DEFAULT UND _ZN7android25MEDIA_MIMETY
13:   OBJECT GLOBAL DEFAULT UND _ZN7android25MEDIA_MIMETY
14:   OBJECT GLOBAL DEFAULT UND _ZN7android25MEDIA_MIMETY
15:   OBJECT GLOBAL DEFAULT UND _ZN7android25MEDIA_MIMETY
16:   OBJECT GLOBAL DEFAULT UND _ZN7android26MEDIA_MIMETY
17:   OBJECT GLOBAL DEFAULT UND _ZN7android26MEDIA_MIMETY
18:   OBJECT GLOBAL DEFAULT UND _ZN7android26MEDIA_MIMETY
19:   OBJECT GLOBAL DEFAULT UND _ZN7android27MEDIA_MIMETY
20:   OBJECT GLOBAL DEFAULT UND _ZN7android27MEDIA_MIMETY
21:   OBJECT GLOBAL DEFAULT UND _ZN7android27MEDIA_MIMETY
22:   OBJECT GLOBAL DEFAULT UND _ZN7android29MEDIA_MIMETY
23:   OBJECT GLOBAL DEFAULT UND _ZN7android30MEDIA_MIMETY
24:   OBJECT GLOBAL DEFAULT UND _ZN7android30MEDIA_MIMETY
25:   OBJECT GLOBAL DEFAULT UND _ZN7android33MEDIA_MIMETY
26:   OBJECT GLOBAL DEFAULT UND _ZN7android33MEDIA_MIMETY
27:   OBJECT GLOBAL DEFAULT UND _ZN7android33MEDIA_MIMETY
28:   OBJECT GLOBAL DEFAULT UND _ZN7android34MEDIA_MIMETY
29:   FUNC GLOBAL DEFAULT UND __android_log_assert@LIBLOG (3)
30:   FUNC GLOBAL DEFAULT UND __android_log_print@LIBLOG (3)
31:   FUNC GLOBAL DEFAULT UND __cxa_guard_acquire
32:   FUNC GLOBAL DEFAULT UND __cxa_guard_release
33:   FUNC GLOBAL DEFAULT UND __stack_chk_fail@LIBC (2)
34:   FUNC GLOBAL DEFAULT UND strcasecmp@LIBC (2)
35:   FUNC GLOBAL DEFAULT UND strncpy@LIBC (2)
36:   FUNC GLOBAL DEFAULT UND abort@LIBC (2)
37:   FUNC WEAK DEFAULT UND android_set_abort_message@LIBC (2)
38:   FUNC GLOBAL DEFAULT UND strlen@LIBC (2)
39:   FUNC GLOBAL DEFAULT UND write@LIBC (2)
40:   FUNC GLOBAL DEFAULT 14 _ZN7android11MediaImage21
41:   FUNC GLOBAL DEFAULT 14 _ZN7android16SetComponent
42:   FUNC GLOBAL DEFAULT 14 _ZN7android21IsFlexibleCo
43:   FUNC GLOBAL DEFAULT 14 _ZN7android25DescribeColo
44:   FUNC GLOBAL DEFAULT 14 _ZN7android26DescribeColo
45:   FUNC GLOBAL DEFAULT 14 _ZN7android16GetComponent
46:   FUNC GLOBAL DEFAULT 14 _ZN7android18StatusFromOM
47:   FUNC GLOBAL DEFAULT 14 _ZN7android19DescribeColo
48:   FUNC GLOBAL DEFAULT 14 _ZN7android25DescribeColo
49:   FUNC GLOBAL DEFAULT 14 _ZN7android26DescribeDefa
