 0x000000000000000e (SONAME)             Library soname: [libkeystore_aidl.so]
  
Symbol   contains 452 entries:
Num:   Type Bind Vis Ndx Name
0:   NOTYPE LOCAL DEFAULT UND
1:   FUNC GLOBAL DEFAULT UND __cxa_finalize@LIBC (2)
2:   FUNC GLOBAL DEFAULT UND __cxa_atexit@LIBC (2)
3:   FUNC GLOBAL DEFAULT UND _ZN7android8String16C1EPK
4:   FUNC GLOBAL DEFAULT UND _ZN7android8String16D1Ev
5:   FUNC GLOBAL DEFAULT UND __cfi_slowpath@LIBC_OMR1 (3)
6:   FUNC GLOBAL DEFAULT UND _Znwm
7:   FUNC GLOBAL DEFAULT UND _ZN7android10IInterfaceC2
8:   FUNC GLOBAL DEFAULT UND _ZN7android10IInterfaceD2
9:   FUNC GLOBAL DEFAULT UND _ZN7android6binder6Status
10:   FUNC GLOBAL DEFAULT UND _ZN7android7RefBaseC2Ev
11:   FUNC GLOBAL DEFAULT UND _ZN7android6ParcelC1Ev
12:   FUNC GLOBAL DEFAULT UND _ZN7android6Parcel19write
13:   FUNC GLOBAL DEFAULT UND _ZN7android6Parcel10write
14:   FUNC GLOBAL DEFAULT UND _ZN7android6Parcel15write
15:   FUNC GLOBAL DEFAULT UND _ZN7android6binder6Status
16:   FUNC GLOBAL DEFAULT UND _ZN7android6ParcelD1Ev
17:   FUNC GLOBAL DEFAULT UND _ZNK7android6Parcel14chec
18:   FUNC GLOBAL DEFAULT UND _ZNK7android6Parcel9readI
19:   FUNC GLOBAL DEFAULT UND _ZNK7android6Parcel14read
20:   FUNC GLOBAL DEFAULT UND _ZN7android7BBinder10onTr
21:   FUNC GLOBAL DEFAULT UND _ZN7android6binder6Status
22:   FUNC GLOBAL DEFAULT UND _ZNK7android6binder6Statu
23:   FUNC GLOBAL DEFAULT UND _ZN7android10IInterfaceD1
24:   FUNC GLOBAL DEFAULT UND _ZN7android10IInterfaceD0
25:   FUNC GLOBAL DEFAULT UND __cxa_pure_virtual
26:   FUNC GLOBAL DEFAULT UND _ZTv0_n24_N7android10IInt
27:   FUNC GLOBAL DEFAULT UND _ZTv0_n24_N7android10IInt
28:   FUNC GLOBAL DEFAULT UND _ZN7android7RefBase10onFi
29:   FUNC GLOBAL DEFAULT UND _ZN7android7RefBase15onLa
30:   FUNC GLOBAL DEFAULT UND _ZN7android7RefBase20onIn
31:   FUNC GLOBAL DEFAULT UND _ZN7android7RefBase13onLa
32:   FUNC GLOBAL DEFAULT UND _ZN7android9BpRefBase10on
33:   FUNC GLOBAL DEFAULT UND _ZN7android9BpRefBase15on
34:   FUNC GLOBAL DEFAULT UND _ZN7android9BpRefBase20on
35:   FUNC GLOBAL DEFAULT UND _ZTv0_n32_N7android9BpRef
36:   FUNC GLOBAL DEFAULT UND _ZTv0_n40_N7android9BpRef
37:   FUNC GLOBAL DEFAULT UND _ZTv0_n48_N7android9BpRef
38:   FUNC GLOBAL DEFAULT UND _ZN7android9BpRefBaseD1Ev
39:   FUNC GLOBAL DEFAULT UND _ZN7android9BpRefBaseD0Ev
40:   FUNC GLOBAL DEFAULT UND _ZTv0_n24_N7android9BpRef
41:   FUNC GLOBAL DEFAULT UND _ZTv0_n24_N7android9BpRef
42:   FUNC GLOBAL DEFAULT UND _ZNK7android7BBinder13isB
43:   FUNC GLOBAL DEFAULT UND _ZN7android7BBinder10ping
44:   FUNC GLOBAL DEFAULT UND _ZN7android7BBinder4dumpE
45:   FUNC GLOBAL DEFAULT UND _ZN7android7BBinder8trans
46:   FUNC GLOBAL DEFAULT UND _ZN7android7BBinder11link
47:   FUNC GLOBAL DEFAULT UND _ZN7android7BBinder13unli
48:   FUNC GLOBAL DEFAULT UND _ZNK7android7IBinder13che
49:   FUNC GLOBAL DEFAULT UND _ZN7android7BBinder12atta
50:   FUNC GLOBAL DEFAULT UND _ZNK7android7BBinder10fin
51:   FUNC GLOBAL DEFAULT UND _ZN7android7BBinder12deta
52:   FUNC GLOBAL DEFAULT UND _ZN7android7BBinder11loca
53:   FUNC GLOBAL DEFAULT UND _ZN7android7IBinder12remo
54:   FUNC GLOBAL DEFAULT UND _ZN7android7IBinder19quer
55:   FUNC GLOBAL DEFAULT UND _ZNK7android7BBinder22get
56:   FUNC GLOBAL DEFAULT UND _ZN7android7BBinderD1Ev
57:   FUNC GLOBAL DEFAULT UND _ZN7android7BBinderD0Ev
58:   FUNC GLOBAL DEFAULT UND _ZTv0_n24_N7android7BBind
59:   FUNC GLOBAL DEFAULT UND _ZTv0_n24_N7android7BBind
60:   FUNC GLOBAL DEFAULT UND _ZN7android7IBinder11loca
61:   FUNC GLOBAL DEFAULT UND _ZN7android7IBinderD1Ev
62:   FUNC GLOBAL DEFAULT UND _ZN7android7IBinderD0Ev
63:   FUNC GLOBAL DEFAULT UND _ZTv0_n24_N7android7IBind
64:   FUNC GLOBAL DEFAULT UND _ZTv0_n24_N7android7IBind
65:   FUNC GLOBAL DEFAULT UND _ZN7android7String8C1Ev
66:   FUNC GLOBAL DEFAULT UND _ZN7android7String8C1ERKS
67:   FUNC GLOBAL DEFAULT UND _ZN7android7String8D1Ev
68:   FUNC GLOBAL DEFAULT UND _ZN7android7RefBaseD2Ev
69:   FUNC GLOBAL DEFAULT UND _ZdlPv
70:   FUNC GLOBAL DEFAULT UND _ZN7android9BpRefBaseD2Ev
71:   FUNC GLOBAL DEFAULT UND _ZNK7android7RefBase9decS
72:   FUNC GLOBAL DEFAULT UND _ZNK7android7RefBase9incS
73:   FUNC GLOBAL DEFAULT UND _ZN7android14sp_report_ra
74:   FUNC GLOBAL DEFAULT UND _ZN7android9BpRefBaseC2ER
75:   FUNC GLOBAL DEFAULT UND strzcmp16
76:   FUNC GLOBAL DEFAULT UND _ZNK7android8String164siz
77:   FUNC GLOBAL DEFAULT UND _ZN7android6Parcel15write
78:   FUNC GLOBAL DEFAULT UND _ZNK7android6Parcel14read
79:   FUNC GLOBAL DEFAULT UND _ZdaPv
80:   OBJECT GLOBAL DEFAULT UND _ZTVN7android8security8ke
81:   OBJECT GLOBAL DEFAULT UND _ZTVN7android8security9ke
82:   FUNC GLOBAL DEFAULT UND _ZN7android8security9keym
83:   FUNC GLOBAL DEFAULT UND _ZN7android8security9keym
84:   OBJECT GLOBAL DEFAULT UND _ZTVN7android8security9ke
85:   OBJECT GLOBAL DEFAULT UND _ZTVN7android8security9ke
86:   FUNC GLOBAL DEFAULT UND _ZN7android8security9keym
87:   OBJECT GLOBAL DEFAULT UND _ZTVN7android8security9ke
88:   FUNC GLOBAL DEFAULT UND _ZN7android6binder6Status
89:   FUNC GLOBAL DEFAULT UND _ZN7android6Parcel13write
90:   FUNC GLOBAL DEFAULT UND _ZNK7android6Parcel18read
91:   FUNC GLOBAL DEFAULT UND _ZNK7android6Parcel12read
92:   FUNC GLOBAL DEFAULT UND _ZNK7android6Parcel9readI
93:   FUNC GLOBAL DEFAULT UND _ZN7android6Parcel10write
94:   FUNC GLOBAL DEFAULT UND _ZN7android6Parcel17write
95:   FUNC GLOBAL DEFAULT UND _ZN7android10IInterface8a
96:   FUNC GLOBAL DEFAULT UND _ZN7android6Parcel9writeB
97:   FUNC GLOBAL DEFAULT UND _ZNK7android6Parcel8readB
98:   FUNC GLOBAL DEFAULT UND _ZNK7android6Parcel29read
99:   FUNC GLOBAL DEFAULT UND _ZN7android8String16C1Ev
100:   FUNC GLOBAL DEFAULT UND _ZN7android6Parcel19write
101:   FUNC GLOBAL DEFAULT UND _ZNK7android6Parcel16read
102:   FUNC GLOBAL DEFAULT UND _ZN7android6Parcel28write
103:   OBJECT GLOBAL DEFAULT UND _ZTVN7android8security9ke
104:   FUNC GLOBAL DEFAULT UND abort@LIBC (2)
105:   FUNC GLOBAL DEFAULT UND __stack_chk_fail@LIBC (2)
106:   FUNC GLOBAL DEFAULT 14 _ZN7android8security8keys
107:   OBJECT GLOBAL DEFAULT 19 _ZTCN7android8security8ke
108:   OBJECT GLOBAL DEFAULT 19 _ZTCN7android8security8ke
109:   FUNC GLOBAL DEFAULT 14 _ZN7android8security8keys
110:   OBJECT GLOBAL DEFAULT 23 _ZN7android8security8keys
111:   FUNC GLOBAL DEFAULT 14 _ZN7android8security8keys
112:   FUNC GLOBAL DEFAULT 14 _ZN7android8security8keys
113:   FUNC GLOBAL DEFAULT 14 _ZN7android8security8keys
114:   FUNC GLOBAL DEFAULT 14 _ZTv0_n24_N7android8secur
115:   OBJECT GLOBAL DEFAULT 19 _ZTCN7android8security8ke
116:   FUNC GLOBAL DEFAULT 14 _ZN7android8security8keys
117:   FUNC GLOBAL DEFAULT 14 _ZN7android8security8keys
118:   OBJECT GLOBAL DEFAULT 19 _ZTCN7android8security8ke
119:   OBJECT GLOBAL DEFAULT 19 _ZTVN7android8security8ke
120:   FUNC GLOBAL DEFAULT 14 _ZThn8_N7android8security
121:   FUNC GLOBAL DEFAULT 14 _ZN7android8security8keys
122:   FUNC GLOBAL DEFAULT 14 _ZN7android8security8keys
123:   OBJECT GLOBAL DEFAULT 19 _ZTCN7android8security8ke
124:   OBJECT GLOBAL DEFAULT 19 _ZTVN7android8security8ke
125:   FUNC GLOBAL DEFAULT 14 _ZN7android8security8keys
126:   FUNC GLOBAL DEFAULT 14 _ZN7android8security8keys
127:   FUNC GLOBAL DEFAULT 14 _ZN7android8security28BpC
128:   OBJECT GLOBAL DEFAULT 19 _ZTCN7android8security8ke
129:   FUNC GLOBAL DEFAULT 14 _ZN7android8security8keys
130:   OBJECT GLOBAL DEFAULT 23 _ZN7android8security8keys
131:   OBJECT GLOBAL DEFAULT 19 _ZTTN7android8security8ke
132:   FUNC GLOBAL DEFAULT 14 _ZN7android8security8keys
133:   OBJECT GLOBAL DEFAULT 19 _ZTTN7android8security27I
134:   OBJECT GLOBAL DEFAULT 19 _ZTCN7android8security28B
135:   OBJECT GLOBAL DEFAULT 19 _ZTTN7android8security8ke
136:   FUNC GLOBAL DEFAULT 14 _ZN7android8security8keys
137:   OBJECT GLOBAL DEFAULT 19 _ZTCN7android8security8ke
138:   FUNC GLOBAL DEFAULT 14 _ZNK7android8security8key
139:   FUNC GLOBAL DEFAULT 14 _ZN7android8security8keys
140:   OBJECT GLOBAL DEFAULT 19 _ZTTN7android8security8ke
141:   OBJECT GLOBAL DEFAULT 19 _ZTCN7android8security34I
142:   OBJECT GLOBAL DEFAULT 19 _ZTCN7android8security28B
143:   OBJECT GLOBAL DEFAULT 19 _ZTVN7android8security8ke
144:   FUNC GLOBAL DEFAULT 14 _ZN7android8security8keys
145:   FUNC GLOBAL DEFAULT 14 _ZN7android8security8keys
146:   OBJECT GLOBAL DEFAULT 19 _ZTTN7android8security28B
147:   FUNC GLOBAL DEFAULT 14 _ZN7android8security8keys
148:   OBJECT GLOBAL DEFAULT 19 _ZTVN7android8security8ke
149:   FUNC GLOBAL DEFAULT 14 _ZN7android8security8keys
150:   FUNC GLOBAL DEFAULT 14 _ZN7android8security8keys
151:   FUNC GLOBAL DEFAULT 14 _ZN7android8security8keys
152:   OBJECT GLOBAL DEFAULT 23 _ZN7android8security8keys
153:   FUNC GLOBAL DEFAULT 14 _ZN7android8security8keys
154:   OBJECT GLOBAL DEFAULT 19 _ZTCN7android8security8ke
155:   OBJECT GLOBAL DEFAULT 19 _ZTCN7android8security8ke
156:   FUNC GLOBAL DEFAULT 14 _ZN7android8security8keys
157:   FUNC GLOBAL DEFAULT 14 _ZN7android8security8keys
158:   FUNC GLOBAL DEFAULT 14 _ZN7android8security8keys
159:   FUNC GLOBAL DEFAULT 14 _ZN7android8security8keys
160:   OBJECT GLOBAL DEFAULT 19 _ZTVN7android8security27I
161:   FUNC GLOBAL DEFAULT 14 _ZN7android8security8keys
162:   OBJECT GLOBAL DEFAULT 19 _ZTVN7android8security8ke
163:   OBJECT GLOBAL DEFAULT 19 _ZTCN7android8security8ke
164:   FUNC GLOBAL DEFAULT 14 _ZN7android8security8keys
165:   FUNC GLOBAL DEFAULT 14 _ZN7android8security8keys
166:   FUNC GLOBAL DEFAULT 14 _ZN7android8security8keys
167:   FUNC GLOBAL DEFAULT 14 _ZTv0_n24_N7android8secur
168:   FUNC GLOBAL DEFAULT 14 _ZN7android8security8keys
169:   OBJECT GLOBAL DEFAULT 19 _ZTCN7android8security8ke
170:   OBJECT GLOBAL DEFAULT 19 _ZTCN7android8security8ke
171:   FUNC GLOBAL DEFAULT 14 _ZN7android8security8keys
172:   OBJECT GLOBAL DEFAULT 19 _ZTCN7android8security8ke
173:   FUNC GLOBAL DEFAULT 14 _ZN7android8security8keys
174:   FUNC GLOBAL DEFAULT 14 _ZN7android8security8keys
175:   FUNC GLOBAL DEFAULT 14 _ZNK7android8security27IC
176:   OBJECT GLOBAL DEFAULT 19 _ZTVN7android8security8ke
177:   OBJECT GLOBAL DEFAULT 19 _ZTCN7android8security8ke
178:   FUNC GLOBAL DEFAULT 14 _ZN7android8security8keys
179:   FUNC GLOBAL DEFAULT 14 _ZN7android8security8keys
180:   OBJECT GLOBAL DEFAULT 19 _ZTCN7android8security8ke
181:   OBJECT GLOBAL DEFAULT 19 _ZTCN7android8security8ke
182:   FUNC GLOBAL DEFAULT 14 _ZN7android8security8keys
183:   FUNC GLOBAL DEFAULT 14 _ZN7android8security8keys
184:   FUNC GLOBAL DEFAULT 14 _ZN7android8security28BnC
185:   OBJECT GLOBAL DEFAULT 19 _ZTTN7android8security8ke
186:   OBJECT GLOBAL DEFAULT 19 _ZTTN7android8security8ke
187:   FUNC GLOBAL DEFAULT 14 _ZN7android8security8keys
188:   FUNC GLOBAL DEFAULT 14 _ZN7android8security27ICo
189:   OBJECT GLOBAL DEFAULT 19 _ZTCN7android8security8ke
190:   OBJECT GLOBAL DEFAULT 19 _ZTVN7android8security8ke
191:   OBJECT GLOBAL DEFAULT 19 _ZTCN7android8security8ke
192:   FUNC GLOBAL DEFAULT 14 _ZN7android8security8keys
193:   OBJECT GLOBAL DEFAULT 19 _ZTTN7android8security8ke
194:   FUNC GLOBAL DEFAULT 14 _ZN7android8security8keys
195:   FUNC GLOBAL DEFAULT 14 _ZN7android8security8keys
196:   OBJECT GLOBAL DEFAULT 19 _ZTCN7android8security8ke
197:   FUNC GLOBAL DEFAULT 14 _ZTv0_n24_N7android8secur
198:   FUNC GLOBAL DEFAULT 14 _ZN7android8security8keys
199:   FUNC GLOBAL DEFAULT 14 _ZN7android8security8keys
200:   FUNC GLOBAL DEFAULT 14 _ZN7android8security8keys
201:   OBJECT GLOBAL DEFAULT 23 _ZN7android8security8keys
202:   FUNC GLOBAL DEFAULT 14 _ZTv0_n24_N7android8secur
203:   FUNC GLOBAL DEFAULT 14 _ZN7android8security8keys
204:   OBJECT GLOBAL DEFAULT 19 _ZTCN7android8security8ke
205:   FUNC GLOBAL DEFAULT 14 _ZN7android8security8keys
206:   FUNC GLOBAL DEFAULT 14 _ZN7android8security8keys
207:   FUNC GLOBAL DEFAULT 14 _ZNK7android8security8key
208:   OBJECT GLOBAL DEFAULT 23 _ZN7android8security8keys
209:   OBJECT GLOBAL DEFAULT 19 _ZTCN7android8security8ke
210:   FUNC GLOBAL DEFAULT 14 _ZN7android8security8keys
211:   OBJECT GLOBAL DEFAULT 19 _ZTCN7android8security8ke
212:   OBJECT GLOBAL DEFAULT 23 _ZN7android8security8keys
213:   FUNC GLOBAL DEFAULT 14 _ZThn8_N7android8security
214:   OBJECT GLOBAL DEFAULT 19 _ZTCN7android8security8ke
215:   FUNC GLOBAL DEFAULT 14 _ZN7android8security8keys
216:   OBJECT GLOBAL DEFAULT 19 _ZTCN7android8security8ke
217:   FUNC GLOBAL DEFAULT 14 _ZN7android8security8keys
218:   OBJECT GLOBAL DEFAULT 19 _ZTTN7android8security8ke
219:   FUNC GLOBAL DEFAULT 14 _ZThn8_N7android8security
220:   FUNC GLOBAL DEFAULT 14 _ZN7android8security8keys
221:   OBJECT GLOBAL DEFAULT 19 _ZTCN7android8security8ke
222:   FUNC GLOBAL DEFAULT 14 _ZN7android8security8keys
223:   OBJECT GLOBAL DEFAULT 19 _ZTVN7android8security8ke
224:   OBJECT GLOBAL DEFAULT 19 _ZTCN7android8security8ke
225:   FUNC GLOBAL DEFAULT 14 _ZN7android8security8keys
226:   FUNC GLOBAL DEFAULT 14 _ZN7android8security27ICo
227:   FUNC GLOBAL DEFAULT 14 _ZTv0_n24_N7android8secur
228:   OBJECT GLOBAL DEFAULT 19 _ZTTN7android8security8ke
229:   FUNC GLOBAL DEFAULT 14 _ZN7android8security8keys
230:   FUNC GLOBAL DEFAULT 14 _ZN7android8security8keys
231:   OBJECT GLOBAL DEFAULT 19 _ZTCN7android8security8ke
232:   FUNC GLOBAL DEFAULT 14 _ZN7android8security8keys
233:   OBJECT GLOBAL DEFAULT 19 _ZTCN7android8security8ke
234:   FUNC GLOBAL DEFAULT 14 _ZN7android8security8keys
235:   FUNC GLOBAL DEFAULT 14 _ZThn8_N7android8security
236:   OBJECT GLOBAL DEFAULT 23 _ZN7android8security8keys
237:   OBJECT GLOBAL DEFAULT 19 _ZTCN7android8security8ke
238:   OBJECT GLOBAL DEFAULT 19 _ZTCN7android8security8ke
239:   FUNC GLOBAL DEFAULT 14 _ZN7android8security8keys
240:   FUNC GLOBAL DEFAULT 14 _ZN7android8security8keys
241:   FUNC GLOBAL DEFAULT 14 _ZN7android8security8keys
242:   OBJECT GLOBAL DEFAULT 19 _ZTCN7android8security8ke
243:   FUNC GLOBAL DEFAULT 14 _ZN7android8security8keys
244:   FUNC GLOBAL DEFAULT 14 _ZN7android8security8keys
245:   OBJECT GLOBAL DEFAULT 23 _ZN7android8security27ICo
246:   OBJECT GLOBAL DEFAULT 19 _ZTTN7android8security8ke
247:   OBJECT GLOBAL DEFAULT 19 _ZTTN7android8security8ke
248:   FUNC GLOBAL DEFAULT 14 _ZN7android8security8keys
249:   OBJECT GLOBAL DEFAULT 19 _ZTVN7android8security28B
250:   FUNC GLOBAL DEFAULT 14 _ZN7android8security8keys
251:   OBJECT GLOBAL DEFAULT 19 _ZTCN7android8security8ke
252:   FUNC GLOBAL DEFAULT 14 _ZN7android8security8keys
253:   OBJECT GLOBAL DEFAULT 19 _ZTCN7android8security28B
254:   OBJECT GLOBAL DEFAULT 19 _ZTCN7android8security8ke
255:   FUNC GLOBAL DEFAULT 14 _ZN7android8security8keys
256:   OBJECT GLOBAL DEFAULT 19 _ZTVN7android8security8ke
257:   OBJECT GLOBAL DEFAULT 19 _ZTCN7android8security8ke
258:   OBJECT GLOBAL DEFAULT 19 _ZTCN7android8security28B
259:   OBJECT GLOBAL DEFAULT 19 _ZTCN7android8security8ke
260:   FUNC GLOBAL DEFAULT 14 _ZN7android8security8keys
261:   FUNC GLOBAL DEFAULT 14 _ZN7android8security8keys
262:   OBJECT GLOBAL DEFAULT 19 _ZTCN7android8security8ke
263:   FUNC GLOBAL DEFAULT 14 _ZN7android8security8keys
264:   OBJECT GLOBAL DEFAULT 19 _ZTCN7android8security8ke
265:   OBJECT GLOBAL DEFAULT 19 _ZTCN7android8security28B
266:   OBJECT GLOBAL DEFAULT 19 _ZTCN7android8security8ke
267:   OBJECT GLOBAL DEFAULT 19 _ZTCN7android8security8ke
268:   FUNC GLOBAL DEFAULT 14 _ZN7android8security8keys
269:   FUNC GLOBAL DEFAULT 14 _ZN7android8security27ICo
270:   FUNC GLOBAL DEFAULT 14 _ZN7android8security8keys
271:   OBJECT GLOBAL DEFAULT 19 _ZTTN7android8security8ke
272:   OBJECT GLOBAL DEFAULT 19 _ZTCN7android8security8ke
273:   FUNC GLOBAL DEFAULT 14 _ZN7android8security8keys
274:   FUNC GLOBAL DEFAULT 14 _ZN7android8security8keys
275:   OBJECT GLOBAL DEFAULT 19 _ZTTN7android8security8ke
276:   FUNC GLOBAL DEFAULT 14 _ZThn8_N7android8security
277:   FUNC GLOBAL DEFAULT 14 _ZN7android8security8keys
278:   FUNC GLOBAL DEFAULT 14 __cfi_check
279:   FUNC GLOBAL DEFAULT 14 _ZN7android8security8keys
280:   OBJECT GLOBAL DEFAULT 19 _ZTCN7android8security8ke
281:   OBJECT GLOBAL DEFAULT 19 _ZTCN7android8security8ke
282:   FUNC GLOBAL DEFAULT 14 _ZN7android8security27ICo
283:   OBJECT GLOBAL DEFAULT 19 _ZTCN7android8security8ke
284:   OBJECT GLOBAL DEFAULT 19 _ZTTN7android8security28B
285:   OBJECT GLOBAL DEFAULT 19 _ZTCN7android8security27I
286:   OBJECT GLOBAL DEFAULT 19 _ZTCN7android8security8ke
287:   FUNC GLOBAL DEFAULT 14 _ZN7android8security27ICo
288:   FUNC GLOBAL DEFAULT 14 _ZN7android8security8keys
289:   FUNC GLOBAL DEFAULT 14 _ZN7android8security8keys
290:   FUNC GLOBAL DEFAULT 14 _ZNK7android8security8key
291:   FUNC GLOBAL DEFAULT 14 _ZN7android8security8keys
292:   OBJECT GLOBAL DEFAULT 19 _ZTCN7android8security8ke
293:   FUNC GLOBAL DEFAULT 14 _ZNK7android8security8key
294:   FUNC GLOBAL DEFAULT 14 _ZN7android8security8keys
295:   FUNC GLOBAL DEFAULT 14 _ZTv0_n24_N7android8secur
296:   FUNC GLOBAL DEFAULT 14 _ZN7android8security27ICo
297:   OBJECT GLOBAL DEFAULT 23 _ZN7android8security27ICo
298:   FUNC GLOBAL DEFAULT 14 _ZTv0_n24_N7android8secur
299:   FUNC GLOBAL DEFAULT 14 _ZNK7android8security8key
300:   FUNC GLOBAL DEFAULT 14 _ZN7android8security8keys
301:   OBJECT GLOBAL DEFAULT 23 _ZN7android8security8keys
302:   FUNC GLOBAL DEFAULT 14 _ZN7android8security8keys
303:   OBJECT GLOBAL DEFAULT 19 _ZTCN7android8security8ke
304:   FUNC GLOBAL DEFAULT 14 _ZN7android8security8keys
305:   FUNC GLOBAL DEFAULT 14 _ZN7android8security8keys
306:   OBJECT GLOBAL DEFAULT 19 _ZTCN7android8security8ke
307:   OBJECT GLOBAL DEFAULT 19 _ZTCN7android8security8ke
308:   OBJECT GLOBAL DEFAULT 19 _ZTVN7android8security8ke
309:   OBJECT GLOBAL DEFAULT 19 _ZTCN7android8security8ke
310:   FUNC GLOBAL DEFAULT 14 _ZTv0_n24_N7android8secur
311:   FUNC GLOBAL DEFAULT 14 _ZN7android8security8keys
312:   FUNC GLOBAL DEFAULT 14 _ZN7android8security8keys
313:   OBJECT GLOBAL DEFAULT 19 _ZTCN7android8security8ke
314:   OBJECT GLOBAL DEFAULT 19 _ZTTN7android8security8ke
315:   OBJECT GLOBAL DEFAULT 19 _ZTTN7android8security8ke
316:   FUNC GLOBAL DEFAULT 14 _ZN7android8security8keys
317:   OBJECT GLOBAL DEFAULT 19 _ZTCN7android8security8ke
318:   FUNC GLOBAL DEFAULT 14 _ZN7android8security8keys
319:   FUNC GLOBAL DEFAULT 14 _ZN7android8security8keys
320:   FUNC GLOBAL DEFAULT 14 _ZN7android8security28BpC
321:   FUNC GLOBAL DEFAULT 14 _ZN7android8security8keys
322:   FUNC GLOBAL DEFAULT 14 _ZTv0_n24_N7android8secur
323:   FUNC GLOBAL DEFAULT 14 _ZN7android8security8keys
324:   OBJECT GLOBAL DEFAULT 19 _ZTTN7android8security8ke
325:   FUNC GLOBAL DEFAULT 14 _ZN7android8security8keys
326:   FUNC GLOBAL DEFAULT 14 _ZN7android8security8keys
327:   FUNC GLOBAL DEFAULT 14 _ZN7android8security8keys
328:   OBJECT GLOBAL DEFAULT 19 _ZTTN7android8security8ke
329:   OBJECT GLOBAL DEFAULT 19 _ZTCN7android8security34I
330:   FUNC GLOBAL DEFAULT 14 _ZN7android8security8keys
331:   OBJECT GLOBAL DEFAULT 19 _ZTCN7android8security8ke
332:   OBJECT GLOBAL DEFAULT 19 _ZTCN7android8security8ke
333:   FUNC GLOBAL DEFAULT 14 _ZN7android8security8keys
334:   OBJECT GLOBAL DEFAULT 19 _ZTVN7android8security8ke
335:   FUNC GLOBAL DEFAULT 14 _ZN7android8security8keys
336:   FUNC GLOBAL DEFAULT 14 _ZN7android8security8keys
337:   FUNC GLOBAL DEFAULT 14 _ZN7android8security8keys
338:   FUNC GLOBAL DEFAULT 14 _ZTv0_n24_N7android8secur
339:   OBJECT GLOBAL DEFAULT 19 _ZTTN7android8security34I
340:   FUNC GLOBAL DEFAULT 14 _ZN7android8security8keys
341:   OBJECT GLOBAL DEFAULT 19 _ZTVN7android8security8ke
342:   OBJECT GLOBAL DEFAULT 23 _ZN7android8security8keys
343:   OBJECT GLOBAL DEFAULT 19 _ZTCN7android8security8ke
344:   FUNC GLOBAL DEFAULT 14 _ZN7android8security8keys
345:   FUNC GLOBAL DEFAULT 14 _ZN7android8security8keys
346:   FUNC GLOBAL DEFAULT 14 _ZN7android8security8keys
347:   FUNC GLOBAL DEFAULT 14 _ZN7android8security8keys
348:   FUNC GLOBAL DEFAULT 14 _ZN7android8security8keys
349:   FUNC GLOBAL DEFAULT 14 _ZN7android8security34ICo
350:   FUNC GLOBAL DEFAULT 14 _ZN7android8security8keys
351:   FUNC GLOBAL DEFAULT 14 _ZN7android8security8keys
352:   OBJECT GLOBAL DEFAULT 19 _ZTCN7android8security8ke
353:   OBJECT GLOBAL DEFAULT 19 _ZTVN7android8security8ke
354:   FUNC GLOBAL DEFAULT 14 _ZN7android8security8keys
355:   FUNC GLOBAL DEFAULT 14 _ZN7android8security8keys
356:   FUNC GLOBAL DEFAULT 14 _ZThn8_N7android8security
357:   OBJECT GLOBAL DEFAULT 19 _ZTCN7android8security8ke
358:   OBJECT GLOBAL DEFAULT 19 _ZTTN7android8security8ke
359:   FUNC GLOBAL DEFAULT 14 _ZN7android8security8keys
360:   FUNC GLOBAL DEFAULT 14 _ZN7android8security8keys
361:   OBJECT GLOBAL DEFAULT 19 _ZTVN7android8security8ke
362:   OBJECT GLOBAL DEFAULT 19 _ZTVN7android8security8ke
363:   OBJECT GLOBAL DEFAULT 19 _ZTTN7android8security8ke
364:   FUNC GLOBAL DEFAULT 14 _ZN7android8security8keys
365:   OBJECT GLOBAL DEFAULT 19 _ZTCN7android8security8ke
366:   FUNC GLOBAL DEFAULT 14 _ZN7android8security8keys
367:   OBJECT GLOBAL DEFAULT 19 _ZTCN7android8security8ke
368:   OBJECT GLOBAL DEFAULT 19 _ZTCN7android8security28B
369:   OBJECT GLOBAL DEFAULT 19 _ZTVN7android8security8ke
370:   OBJECT GLOBAL DEFAULT 19 _ZTVN7android8security8ke
371:   OBJECT GLOBAL DEFAULT 19 _ZTTN7android8security8ke
372:   FUNC GLOBAL DEFAULT 14 _ZN7android8security8keys
373:   FUNC GLOBAL DEFAULT 14 _ZN7android8security8keys
374:   OBJECT GLOBAL DEFAULT 19 _ZTVN7android8security8ke
375:   FUNC GLOBAL DEFAULT 14 _ZN7android8security8keys
376:   OBJECT GLOBAL DEFAULT 19 _ZTCN7android8security8ke
377:   FUNC GLOBAL DEFAULT 14 _ZN7android8security8keys
378:   OBJECT GLOBAL DEFAULT 19 _ZTVN7android8security8ke
379:   OBJECT GLOBAL DEFAULT 19 _ZTCN7android8security8ke
380:   FUNC GLOBAL DEFAULT 14 _ZN7android8security8keys
381:   OBJECT GLOBAL DEFAULT 19 _ZTCN7android8security28B
382:   OBJECT GLOBAL DEFAULT 19 _ZTCN7android8security8ke
383:   FUNC GLOBAL DEFAULT 14 _ZN7android8security8keys
384:   FUNC GLOBAL DEFAULT 14 _ZTv0_n24_N7android8secur
385:   OBJECT GLOBAL DEFAULT 23 _ZN7android8security8keys
386:   FUNC GLOBAL DEFAULT 14 _ZN7android8security8keys
387:   FUNC GLOBAL DEFAULT 14 _ZN7android8security8keys
388:   OBJECT GLOBAL DEFAULT 19 _ZTCN7android8security8ke
389:   FUNC GLOBAL DEFAULT 14 _ZN7android8security8keys
390:   OBJECT GLOBAL DEFAULT 19 _ZTVN7android8security28B
391:   FUNC GLOBAL DEFAULT 14 _ZN7android8security8keys
392:   FUNC GLOBAL DEFAULT 14 _ZN7android8security8keys
393:   FUNC GLOBAL DEFAULT 14 _ZN7android8security8keys
394:   FUNC GLOBAL DEFAULT 14 _ZN7android8security8keys
395:   OBJECT GLOBAL DEFAULT 23 _ZN7android8security8keys
396:   OBJECT GLOBAL DEFAULT 19 _ZTVN7android8security8ke
397:   OBJECT GLOBAL DEFAULT 19 _ZTVN7android8security8ke
398:   FUNC GLOBAL DEFAULT 14 _ZN7android8security8keys
399:   FUNC GLOBAL DEFAULT 14 _ZN7android8security28BpC
400:   OBJECT GLOBAL DEFAULT 19 _ZTTN7android8security8ke
401:   FUNC GLOBAL DEFAULT 14 _ZN7android8security8keys
402:   FUNC GLOBAL DEFAULT 14 _ZN7android8security8keys
403:   OBJECT GLOBAL DEFAULT 19 _ZTCN7android8security8ke
404:   FUNC GLOBAL DEFAULT 14 _ZN7android8security8keys
405:   FUNC GLOBAL DEFAULT 14 _ZN7android8security27ICo
406:   OBJECT GLOBAL DEFAULT 19 _ZTVN7android8security8ke
407:   FUNC GLOBAL DEFAULT 14 _ZN7android8security8keys
408:   OBJECT GLOBAL DEFAULT 19 _ZTCN7android8security8ke
409:   FUNC GLOBAL DEFAULT 14 _ZN7android8security34ICo
410:   OBJECT GLOBAL DEFAULT 19 _ZTTN7android8security8ke
411:   OBJECT GLOBAL DEFAULT 19 _ZTCN7android8security8ke
412:   OBJECT GLOBAL DEFAULT 19 _ZTTN7android8security8ke
413:   FUNC GLOBAL DEFAULT 14 _ZN7android8security8keys
414:   FUNC GLOBAL DEFAULT 14 _ZN7android8security8keys
415:   OBJECT GLOBAL DEFAULT 19 _ZTCN7android8security8ke
416:   OBJECT GLOBAL DEFAULT 19 _ZTVN7android8security8ke
417:   OBJECT GLOBAL DEFAULT 19 _ZTTN7android8security8ke
418:   FUNC GLOBAL DEFAULT 14 _ZN7android8security8keys
419:   OBJECT GLOBAL DEFAULT 19 _ZTVN7android8security34I
420:   OBJECT GLOBAL DEFAULT 19 _ZTCN7android8security28B
421:   FUNC GLOBAL DEFAULT 14 _ZN7android8security8keys
422:   FUNC GLOBAL DEFAULT 14 _ZN7android8security8keys
423:   FUNC GLOBAL DEFAULT 14 _ZN7android8security8keys
424:   FUNC GLOBAL DEFAULT 14 _ZN7android8security8keys
425:   OBJECT GLOBAL DEFAULT 19 _ZTCN7android8security28B
426:   FUNC GLOBAL DEFAULT 14 _ZTv0_n24_N7android8secur
427:   FUNC GLOBAL DEFAULT 14 _ZN7android8security8keys
428:   OBJECT GLOBAL DEFAULT 19 _ZTCN7android8security8ke
429:   FUNC GLOBAL DEFAULT 14 _ZN7android8security8keys
430:   OBJECT GLOBAL DEFAULT 19 _ZTVN7android8security8ke
431:   FUNC GLOBAL DEFAULT 14 _ZN7android8security8keys
432:   OBJECT GLOBAL DEFAULT 19 _ZTCN7android8security8ke
433:   OBJECT GLOBAL DEFAULT 23 _ZN7android8security8keys
434:   FUNC GLOBAL DEFAULT 14 _ZNK7android8security8key
435:   FUNC GLOBAL DEFAULT 14 _ZN7android8security8keys
436:   FUNC GLOBAL DEFAULT 14 _ZN7android8security8keys
437:   OBJECT GLOBAL DEFAULT 19 _ZTTN7android8security8ke
438:   FUNC GLOBAL DEFAULT 14 _ZN7android8security8keys
439:   FUNC GLOBAL DEFAULT 14 _ZTv0_n24_N7android8secur
440:   OBJECT GLOBAL DEFAULT 19 _ZTCN7android8security8ke
441:   FUNC GLOBAL DEFAULT 14 _ZN7android8security8keys
442:   FUNC GLOBAL DEFAULT 14 _ZN7android8security8keys
443:   FUNC GLOBAL DEFAULT 14 _ZN7android8security8keys
444:   OBJECT GLOBAL DEFAULT 19 _ZTCN7android8security8ke
445:   FUNC GLOBAL DEFAULT 14 _ZN7android8security8keys
446:   OBJECT GLOBAL DEFAULT 19 _ZTCN7android8security8ke
447:   OBJECT GLOBAL DEFAULT 19 _ZTCN7android8security8ke
448:   FUNC GLOBAL DEFAULT 14 _ZTv0_n24_N7android8secur
449:   FUNC GLOBAL DEFAULT 14 _ZN7android8security8keys
450:   FUNC GLOBAL DEFAULT 14 _ZN7android8security8keys
451:   FUNC GLOBAL DEFAULT 14 _ZThn8_N7android8security
