 0x000000000000000e (SONAME)             Library soname: [libsensorprivacy.so]
  
Symbol   contains 183 entries:
Num:   Type Bind Vis Ndx Name
0:   NOTYPE LOCAL DEFAULT UND
1:   FUNC GLOBAL DEFAULT UND __cxa_finalize@LIBC (2)
2:   FUNC GLOBAL DEFAULT UND __cxa_atexit@LIBC (2)
3:   FUNC GLOBAL DEFAULT UND _ZN7android10IInterfaceC2
4:   FUNC GLOBAL DEFAULT UND _ZN7android10IInterfaceD0
5:   FUNC GLOBAL DEFAULT UND _ZN7android10IInterfaceD1
6:   FUNC GLOBAL DEFAULT UND _ZN7android10IInterfaceD2
7:   FUNC GLOBAL DEFAULT UND _ZN7android14sp_report_ra
8:   FUNC GLOBAL DEFAULT UND _ZN7android6Parcel19write
9:   FUNC GLOBAL DEFAULT UND _ZN7android6Parcel9writeB
10:   FUNC GLOBAL DEFAULT UND _ZN7android6ParcelC1Ev
11:   FUNC GLOBAL DEFAULT UND _ZN7android6ParcelD1Ev
12:   FUNC GLOBAL DEFAULT UND _ZN7android6binder6Status
13:   FUNC GLOBAL DEFAULT UND _ZN7android6binder6Status
14:   FUNC GLOBAL DEFAULT UND _ZN7android6binder6Status
15:   FUNC GLOBAL DEFAULT UND _ZN7android7BBinder10onTr
16:   FUNC GLOBAL DEFAULT UND _ZN7android7BBinder10ping
17:   FUNC GLOBAL DEFAULT UND _ZN7android7BBinder11link
18:   FUNC GLOBAL DEFAULT UND _ZN7android7BBinder11loca
19:   FUNC GLOBAL DEFAULT UND _ZN7android7BBinder12atta
20:   FUNC GLOBAL DEFAULT UND _ZN7android7BBinder12deta
21:   FUNC GLOBAL DEFAULT UND _ZN7android7BBinder13unli
22:   FUNC GLOBAL DEFAULT UND _ZN7android7BBinder4dumpE
23:   FUNC GLOBAL DEFAULT UND _ZN7android7BBinder8trans
24:   FUNC GLOBAL DEFAULT UND _ZN7android7BBinderD0Ev
25:   FUNC GLOBAL DEFAULT UND _ZN7android7BBinderD1Ev
26:   FUNC GLOBAL DEFAULT UND _ZN7android7IBinder11loca
27:   FUNC GLOBAL DEFAULT UND _ZN7android7IBinder12remo
28:   FUNC GLOBAL DEFAULT UND _ZN7android7IBinder19quer
29:   FUNC GLOBAL DEFAULT UND _ZN7android7IBinderD0Ev
30:   FUNC GLOBAL DEFAULT UND _ZN7android7IBinderD1Ev
31:   FUNC GLOBAL DEFAULT UND _ZN7android7RefBase10onFi
32:   FUNC GLOBAL DEFAULT UND _ZN7android7RefBase13onLa
33:   FUNC GLOBAL DEFAULT UND _ZN7android7RefBase15onLa
34:   FUNC GLOBAL DEFAULT UND _ZN7android7RefBase20onIn
35:   FUNC GLOBAL DEFAULT UND _ZN7android7RefBaseC2Ev
36:   FUNC GLOBAL DEFAULT UND _ZN7android7RefBaseD2Ev
37:   FUNC GLOBAL DEFAULT UND _ZN7android7String8C1ERKS
38:   FUNC GLOBAL DEFAULT UND _ZN7android7String8C1Ev
39:   FUNC GLOBAL DEFAULT UND _ZN7android7String8D1Ev
40:   FUNC GLOBAL DEFAULT UND _ZN7android8String16C1EPK
41:   FUNC GLOBAL DEFAULT UND _ZN7android8String16D1Ev
42:   FUNC GLOBAL DEFAULT UND _ZN7android9BpRefBase10on
43:   FUNC GLOBAL DEFAULT UND _ZN7android9BpRefBase15on
44:   FUNC GLOBAL DEFAULT UND _ZN7android9BpRefBase20on
45:   FUNC GLOBAL DEFAULT UND _ZN7android9BpRefBaseC2ER
46:   FUNC GLOBAL DEFAULT UND _ZN7android9BpRefBaseD0Ev
47:   FUNC GLOBAL DEFAULT UND _ZN7android9BpRefBaseD1Ev
48:   FUNC GLOBAL DEFAULT UND _ZN7android9BpRefBaseD2Ev
49:   FUNC GLOBAL DEFAULT UND _ZNK7android6Parcel14chec
50:   FUNC GLOBAL DEFAULT UND _ZNK7android6Parcel8readB
51:   FUNC GLOBAL DEFAULT UND _ZNK7android6binder6Statu
52:   FUNC GLOBAL DEFAULT UND _ZNK7android7BBinder10fin
53:   FUNC GLOBAL DEFAULT UND _ZNK7android7BBinder13isB
54:   FUNC GLOBAL DEFAULT UND _ZNK7android7BBinder22get
55:   FUNC GLOBAL DEFAULT UND _ZNK7android7IBinder13che
56:   FUNC GLOBAL DEFAULT UND _ZNK7android7RefBase9decS
57:   FUNC GLOBAL DEFAULT UND _ZNK7android7RefBase9incS
58:   FUNC GLOBAL DEFAULT UND _ZNK7android8String164siz
59:   FUNC GLOBAL DEFAULT UND _ZTv0_n24_N7android10IInt
60:   FUNC GLOBAL DEFAULT UND _ZTv0_n24_N7android10IInt
61:   FUNC GLOBAL DEFAULT UND _ZTv0_n24_N7android7BBind
62:   FUNC GLOBAL DEFAULT UND _ZTv0_n24_N7android7BBind
63:   FUNC GLOBAL DEFAULT UND _ZTv0_n24_N7android7IBind
64:   FUNC GLOBAL DEFAULT UND _ZTv0_n24_N7android7IBind
65:   FUNC GLOBAL DEFAULT UND _ZTv0_n24_N7android9BpRef
66:   FUNC GLOBAL DEFAULT UND _ZTv0_n24_N7android9BpRef
67:   FUNC GLOBAL DEFAULT UND _ZTv0_n32_N7android9BpRef
68:   FUNC GLOBAL DEFAULT UND _ZTv0_n40_N7android9BpRef
69:   FUNC GLOBAL DEFAULT UND _ZTv0_n48_N7android9BpRef
70:   FUNC GLOBAL DEFAULT UND _ZdlPv
71:   FUNC GLOBAL DEFAULT UND _Znwm
72:   FUNC GLOBAL DEFAULT UND __cxa_pure_virtual
73:   FUNC GLOBAL DEFAULT UND __stack_chk_fail@LIBC (2)
74:   FUNC GLOBAL DEFAULT UND strzcmp16
75:   FUNC GLOBAL DEFAULT UND _ZN7android10IInterface8a
76:   FUNC GLOBAL DEFAULT UND _ZN7android6Parcel17write
77:   FUNC GLOBAL DEFAULT UND _ZN7android6binder6Status
78:   FUNC GLOBAL DEFAULT UND _ZNK7android6Parcel16read
79:   FUNC GLOBAL DEFAULT UND _ZN7android12uptimeMillis
80:   FUNC GLOBAL DEFAULT UND _ZN7android21defaultServi
81:   FUNC GLOBAL DEFAULT UND _ZN7android7RefBase12weak
82:   FUNC GLOBAL DEFAULT UND _ZNK7android7RefBase10cre
83:   FUNC GLOBAL DEFAULT UND __android_log_print@LIBLOG (3)
84:   FUNC GLOBAL DEFAULT UND pthread_mutex_init@LIBC (2)
85:   FUNC GLOBAL DEFAULT UND pthread_mutex_lock@LIBC (2)
86:   FUNC GLOBAL DEFAULT UND pthread_mutex_unlock@LIBC (2)
87:   FUNC GLOBAL DEFAULT UND usleep@LIBC (2)
88:   FUNC GLOBAL DEFAULT 14 _ZN7android8hardware22ISe
89:   FUNC GLOBAL DEFAULT 14 _ZN7android8hardware21ISe
90:   OBJECT GLOBAL DEFAULT 18 _ZTCN7android8hardware22B
91:   OBJECT GLOBAL DEFAULT 18 _ZTTN7android8hardware28I
92:   OBJECT GLOBAL DEFAULT 18 _ZTVN7android8hardware21I
93:   OBJECT GLOBAL DEFAULT 18 _ZTVN7android8hardware28I
94:   FUNC GLOBAL DEFAULT 14 _ZN7android8hardware22ISe
95:   FUNC GLOBAL DEFAULT 14 _ZN7android8hardware22ISe
96:   OBJECT GLOBAL DEFAULT 18 _ZTCN7android8hardware28I
97:   FUNC GLOBAL DEFAULT 14 _ZNK7android8hardware22IS
98:   FUNC GLOBAL DEFAULT 14 _ZNK7android8hardware21IS
99:   OBJECT GLOBAL DEFAULT 18 _ZTCN7android8hardware22B
100:   OBJECT GLOBAL DEFAULT 18 _ZTCN7android8hardware22B
101:   FUNC GLOBAL DEFAULT 14 _ZN7android8hardware29ISe
102:   OBJECT GLOBAL DEFAULT 18 _ZTTN7android8hardware23B
103:   FUNC GLOBAL DEFAULT 14 _ZTv0_n24_N7android8hardw
104:   FUNC GLOBAL DEFAULT 14 _ZN7android8hardware22BpS
105:   FUNC GLOBAL DEFAULT 14 _ZN7android8hardware29ISe
106:   FUNC GLOBAL DEFAULT 14 _ZN7android8hardware22BpS
107:   FUNC GLOBAL DEFAULT 14 _ZN7android8hardware22BpS
108:   OBJECT GLOBAL DEFAULT 18 _ZTCN7android8hardware22B
109:   OBJECT GLOBAL DEFAULT 18 _ZTTN7android8hardware22B
110:   FUNC GLOBAL DEFAULT 14 _ZN7android8hardware23BpS
111:   OBJECT GLOBAL DEFAULT 18 _ZTCN7android8hardware23B
112:   FUNC GLOBAL DEFAULT 14 _ZN7android8hardware21ISe
113:   OBJECT GLOBAL DEFAULT 18 _ZTTN7android8hardware21I
114:   OBJECT GLOBAL DEFAULT 18 _ZTTN7android8hardware22B
115:   FUNC GLOBAL DEFAULT 14 _ZN7android8hardware22ISe
116:   OBJECT GLOBAL DEFAULT 18 _ZTCN7android8hardware23B
117:   OBJECT GLOBAL DEFAULT 18 _ZTTN7android8hardware29I
118:   OBJECT GLOBAL DEFAULT 18 _ZTVN7android8hardware23B
119:   OBJECT GLOBAL DEFAULT 18 _ZTVN7android8hardware23B
120:   FUNC GLOBAL DEFAULT 14 _ZN7android8hardware28ISe
121:   OBJECT GLOBAL DEFAULT 18 _ZTCN7android8hardware21I
122:   OBJECT GLOBAL DEFAULT 18 _ZTCN7android8hardware22B
123:   OBJECT GLOBAL DEFAULT 23 _ZN7android8hardware22ISe
124:   FUNC GLOBAL DEFAULT 14 _ZThn8_N7android8hardware
125:   FUNC WEAK DEFAULT 14 _ZN7android11BnInterfaceI
126:   FUNC GLOBAL DEFAULT 14 _ZN7android8hardware21ISe
127:   FUNC GLOBAL DEFAULT 14 _ZN7android20SensorPrivac
128:   OBJECT GLOBAL DEFAULT 18 _ZTCN7android8hardware23B
129:   OBJECT GLOBAL DEFAULT 18 _ZTCN7android8hardware29I
130:   OBJECT GLOBAL DEFAULT 18 _ZTTN7android8hardware22I
131:   FUNC GLOBAL DEFAULT 14 _ZN7android8hardware21ISe
132:   OBJECT GLOBAL DEFAULT 18 _ZTCN7android8hardware22B
133:   FUNC GLOBAL DEFAULT 14 _ZN7android20SensorPrivac
134:   OBJECT GLOBAL DEFAULT 18 _ZTCN7android8hardware23B
135:   OBJECT GLOBAL DEFAULT 18 _ZTCN7android8hardware23B
136:   OBJECT GLOBAL DEFAULT 18 _ZTCN7android8hardware23B
137:   FUNC GLOBAL DEFAULT 14 _ZTv0_n24_N7android8hardw
138:   FUNC GLOBAL DEFAULT 14 _ZN7android8hardware28ISe
139:   FUNC GLOBAL DEFAULT 14 _ZN7android20SensorPrivac
140:   FUNC WEAK DEFAULT 14 _ZN7android11BnInterfaceI
141:   FUNC GLOBAL DEFAULT 14 _ZN7android8hardware22ISe
142:   FUNC GLOBAL DEFAULT 14 _ZN7android8hardware22ISe
143:   OBJECT GLOBAL DEFAULT 23 _ZN7android8hardware21ISe
144:   OBJECT GLOBAL DEFAULT 18 _ZTCN7android8hardware22B
145:   FUNC GLOBAL DEFAULT 14 _ZTv0_n24_N7android8hardw
146:   FUNC GLOBAL DEFAULT 14 _ZN7android20SensorPrivac
147:   FUNC GLOBAL DEFAULT 14 _ZN7android8hardware23BpS
148:   FUNC GLOBAL DEFAULT 14 _ZN7android8hardware22BnS
149:   FUNC GLOBAL DEFAULT 14 _ZN7android8hardware28ISe
150:   OBJECT GLOBAL DEFAULT 18 _ZTCN7android8hardware22B
151:   FUNC GLOBAL DEFAULT 14 _ZN7android8hardware23BpS
152:   OBJECT GLOBAL DEFAULT 18 _ZTTN7android8hardware23B
153:   FUNC GLOBAL DEFAULT 14 _ZN7android8hardware22ISe
154:   FUNC GLOBAL DEFAULT 14 _ZN7android8hardware21ISe
155:   FUNC GLOBAL DEFAULT 14 _ZThn8_N7android8hardware
156:   OBJECT GLOBAL DEFAULT 18 _ZTCN7android8hardware23B
157:   FUNC GLOBAL DEFAULT 14 _ZN7android8hardware22BpS
158:   OBJECT GLOBAL DEFAULT 18 _ZTCN7android8hardware23B
159:   OBJECT GLOBAL DEFAULT 18 _ZTVN7android8hardware29I
160:   OBJECT GLOBAL DEFAULT 18 _ZTVN7android8hardware22B
161:   FUNC GLOBAL DEFAULT 14 _ZN7android20SensorPrivac
162:   OBJECT GLOBAL DEFAULT 18 _ZTCN7android8hardware23B
163:   FUNC GLOBAL DEFAULT 14 _ZN7android8hardware28ISe
164:   OBJECT GLOBAL DEFAULT 18 _ZTVN7android8hardware22B
165:   OBJECT GLOBAL DEFAULT 18 _ZTCN7android8hardware29I
166:   FUNC GLOBAL DEFAULT 14 _ZN7android8hardware21ISe
167:   FUNC GLOBAL DEFAULT 14 _ZN7android8hardware22BpS
168:   FUNC GLOBAL DEFAULT 14 _ZN7android8hardware28ISe
169:   FUNC WEAK DEFAULT 14 _ZNK7android6Parcel16read
170:   FUNC GLOBAL DEFAULT 14 _ZTv0_n24_N7android8hardw
171:   OBJECT GLOBAL DEFAULT 23 _ZN7android8hardware22ISe
172:   OBJECT GLOBAL DEFAULT 18 _ZTVN7android8hardware22I
173:   FUNC GLOBAL DEFAULT 14 _ZN7android20SensorPrivac
174:   FUNC GLOBAL DEFAULT 14 _ZN7android8hardware23BnS
175:   OBJECT GLOBAL DEFAULT 18 _ZTCN7android8hardware22I
176:   OBJECT GLOBAL DEFAULT 23 _ZN7android8hardware21ISe
177:   FUNC GLOBAL DEFAULT 14 _ZN7android8hardware21ISe
178:   FUNC GLOBAL DEFAULT 14 _ZN7android8hardware22BpS
179:   OBJECT GLOBAL DEFAULT 18 _ZTCN7android8hardware22B
180:   OBJECT GLOBAL DEFAULT 18 _ZTCN7android8hardware28I
181:   FUNC GLOBAL DEFAULT 14 _ZN7android20SensorPrivac
182:   FUNC GLOBAL DEFAULT 14 _ZN7android20SensorPrivac
