 0x0000000e (SONAME)                     Library soname: [libcodec2_hidl_client@1.0.so]
  
Symbol   contains 207 entries:
Num:   Type Bind Vis Ndx Name
0:   NOTYPE LOCAL DEFAULT UND
1:   FUNC GLOBAL DEFAULT UND __cxa_finalize@LIBC (2)
2:   FUNC GLOBAL DEFAULT UND _ZN15_C2BlockFactory18Get
3:   FUNC GLOBAL DEFAULT UND _ZN15_C2BlockFactory23Get
4:   FUNC GLOBAL DEFAULT UND _ZN15_C2BlockFactory24Hol
5:   FUNC GLOBAL DEFAULT UND _ZN15_C2BlockFactory27End
6:   FUNC GLOBAL DEFAULT UND _ZN15_C2BlockFactory29Beg
7:   FUNC GLOBAL DEFAULT UND _ZN7android13GraphicBuffe
8:   FUNC GLOBAL DEFAULT UND _ZN7android14sp_report_ra
9:   FUNC GLOBAL DEFAULT UND _ZN7android31UnwrapNative
10:   FUNC GLOBAL DEFAULT UND _ZN7android34_UnwrapNativ
11:   FUNC GLOBAL DEFAULT UND _ZN7android4base10LogMess
12:   FUNC GLOBAL DEFAULT UND _ZN7android4base10LogMess
13:   FUNC GLOBAL DEFAULT UND _ZN7android4base10LogMess
14:   FUNC GLOBAL DEFAULT UND _ZN7android4base21GetMini
15:   OBJECT GLOBAL DEFAULT UND _ZN7android5Fence8NO_FENC
16:   FUNC GLOBAL DEFAULT UND _ZN7android8hardware8grap
17:   FUNC GLOBAL DEFAULT UND _ZNK12C2BufferData13graph
18:   FUNC GLOBAL DEFAULT UND _ZNK7android7RefBase9decS
19:   FUNC GLOBAL DEFAULT UND _ZNK7android7RefBase9incS
20:   FUNC GLOBAL DEFAULT UND _ZNK8C2Buffer4dataEv
21:   FUNC GLOBAL DEFAULT UND _ZNK9C2Block2D6handleEv
22:   FUNC GLOBAL DEFAULT UND _ZNKSt3__119__shared_weak
23:   FUNC GLOBAL DEFAULT UND _ZNKSt3__16locale9use_fac
24:   FUNC GLOBAL DEFAULT UND _ZNKSt3__18ios_base6getlo
25:   FUNC GLOBAL DEFAULT UND _ZNSt3__113basic_ostreamI
26:   FUNC GLOBAL DEFAULT UND _ZNSt3__113basic_ostreamI
27:   FUNC GLOBAL DEFAULT UND _ZNSt3__113basic_ostreamI
28:   FUNC GLOBAL DEFAULT UND _ZNSt3__113basic_ostreamI
29:   FUNC GLOBAL DEFAULT UND _ZNSt3__113basic_ostreamI
30:   FUNC GLOBAL DEFAULT UND _ZNSt3__119__shared_weak_
31:   FUNC GLOBAL DEFAULT UND _ZNSt3__119__shared_weak_
32:   FUNC GLOBAL DEFAULT UND _ZNSt3__119__shared_weak_
33:   OBJECT GLOBAL DEFAULT UND _ZNSt3__15ctypeIcE2idE
34:   FUNC GLOBAL DEFAULT UND _ZNSt3__15mutex4lockEv
35:   FUNC GLOBAL DEFAULT UND _ZNSt3__15mutex6unlockEv
36:   FUNC GLOBAL DEFAULT UND _ZNSt3__15mutexD1Ev
37:   FUNC GLOBAL DEFAULT UND _ZNSt3__16localeD1Ev
38:   FUNC GLOBAL DEFAULT UND _ZNSt3__18ios_base5clearE
39:   FUNC GLOBAL DEFAULT UND _ZdlPv
40:   FUNC GLOBAL DEFAULT UND _Znwj
41:   FUNC GLOBAL DEFAULT UND __android_log_print@LIBLOG (3)
42:   FUNC GLOBAL DEFAULT UND __errno@LIBC (2)
43:   FUNC GLOBAL DEFAULT UND __stack_chk_fail@LIBC (2)
44:   OBJECT GLOBAL DEFAULT UND __stack_chk_guard@LIBC (2)
45:   FUNC GLOBAL DEFAULT UND native_handle_delete
46:   FUNC GLOBAL DEFAULT UND _Z8asString11c2_status_tP
47:   FUNC GLOBAL DEFAULT UND _ZN12C2ParamUtils10ParseF
48:   FUNC GLOBAL DEFAULT UND _ZN13C2LinearBlock5shareE
49:   FUNC GLOBAL DEFAULT UND _ZN14C2GraphicBlock5share
50:   FUNC GLOBAL DEFAULT UND _ZN15_C2BlockFactory17Cre
51:   FUNC GLOBAL DEFAULT UND _ZN15_C2BlockFactory17Cre
52:   FUNC GLOBAL DEFAULT UND _ZN15_C2BlockFactory17Get
53:   FUNC GLOBAL DEFAULT UND _ZN15_C2BlockFactory18Cre
54:   FUNC GLOBAL DEFAULT UND _ZN15_C2BlockFactory18Cre
55:   FUNC GLOBAL DEFAULT UND _ZN15_C2BlockFactory22Get
56:   FUNC GLOBAL DEFAULT UND _ZN15_C2BlockFactory24End
57:   FUNC GLOBAL DEFAULT UND _ZN15_C2BlockFactory25Dis
58:   FUNC GLOBAL DEFAULT UND _ZN15_C2BlockFactory26Beg
59:   FUNC GLOBAL DEFAULT UND _ZN7android32MigrateNativ
60:   FUNC GLOBAL DEFAULT UND _ZN7android8hardware11hid
61:   FUNC GLOBAL DEFAULT UND _ZN7android8hardware11hid
62:   FUNC GLOBAL DEFAULT UND _ZN7android8hardware11hid
63:   FUNC GLOBAL DEFAULT UND _ZN7android8hardware11hid
64:   FUNC GLOBAL DEFAULT UND _ZN7android8hardware11hid
65:   FUNC GLOBAL DEFAULT UND _ZN7android8hardware11hid
66:   FUNC GLOBAL DEFAULT UND _ZN7android8hardware11hid
67:   FUNC GLOBAL DEFAULT UND _ZN7android8hardware11hid
68:   FUNC GLOBAL DEFAULT UND _ZN7android8hardware11hid
69:   FUNC GLOBAL DEFAULT UND _ZN7android8hardware11hid
70:   FUNC GLOBAL DEFAULT UND _ZN7android8hardware11hid
71:   FUNC GLOBAL DEFAULT UND _ZN7android8hardware5medi
72:   FUNC GLOBAL DEFAULT UND _ZN7android8hardware5medi
73:   FUNC GLOBAL DEFAULT UND _ZN7android8hardware5medi
74:   FUNC GLOBAL DEFAULT UND _ZN7android8hardware5medi
75:   FUNC GLOBAL DEFAULT UND _ZN7android8hardware5medi
76:   FUNC GLOBAL DEFAULT UND _ZN7android8hardware5medi
77:   FUNC GLOBAL DEFAULT UND _ZN7android8hardware5medi
78:   FUNC GLOBAL DEFAULT UND _ZN7android8hardware5medi
79:   FUNC GLOBAL DEFAULT UND _ZN7android8hardware5medi
80:   FUNC GLOBAL DEFAULT UND _ZN7android8hardware5medi
81:   FUNC GLOBAL DEFAULT UND _ZN7android8hardware5medi
82:   FUNC GLOBAL DEFAULT UND _ZN7android8hardware5medi
83:   FUNC GLOBAL DEFAULT UND _ZN7android8hardware5medi
84:   FUNC GLOBAL DEFAULT UND _ZN7android8hardware5medi
85:   FUNC GLOBAL DEFAULT UND _ZN7android8hardware5medi
86:   FUNC GLOBAL DEFAULT UND _ZN7android8hardware5medi
87:   FUNC GLOBAL DEFAULT UND _ZN8C2Buffer18CreateLinea
88:   FUNC GLOBAL DEFAULT UND _ZN8C2Buffer19CreateGraph
89:   FUNC GLOBAL DEFAULT UND _ZN8C2Buffer7setInfoERKNS
90:   FUNC GLOBAL DEFAULT UND _ZNK12C2BufferData12linea
91:   FUNC GLOBAL DEFAULT UND _ZNK7android8hardware11hi
92:   FUNC GLOBAL DEFAULT UND _ZNK7android8hardware11hi
93:   FUNC GLOBAL DEFAULT UND _ZNK7android8hardware11hi
94:   FUNC GLOBAL DEFAULT UND _ZNK7android8hardware5med
95:   FUNC GLOBAL DEFAULT UND _ZNK7android8hardware5med
96:   FUNC GLOBAL DEFAULT UND _ZNK7android8hardware5med
97:   FUNC GLOBAL DEFAULT UND _ZNK7android8hardware5med
98:   FUNC GLOBAL DEFAULT UND _ZNK7android8hardware5med
99:   FUNC GLOBAL DEFAULT UND _ZNK7android8hardware5med
100:   FUNC GLOBAL DEFAULT UND _ZNK7android8hardware5med
101:   FUNC GLOBAL DEFAULT UND _ZNK8C2Buffer4infoEv
102:   FUNC GLOBAL DEFAULT UND _ZNK9C2Block1D6handleEv
103:   FUNC GLOBAL DEFAULT UND _ZNKSt3__120__vector_base
104:   FUNC GLOBAL DEFAULT UND _ZNKSt3__121__basic_strin
105:   FUNC GLOBAL DEFAULT UND _ZNSt3__112__next_primeEj
106:   FUNC GLOBAL DEFAULT UND _ZNSt3__112basic_stringIc
107:   FUNC GLOBAL DEFAULT UND _ZNSt3__112basic_stringIc
108:   FUNC GLOBAL DEFAULT UND _ZNSt3__16chrono12steady_
109:   FUNC GLOBAL DEFAULT UND _ZdaPv
110:   FUNC GLOBAL DEFAULT UND _Znaj
111:   FUNC GLOBAL DEFAULT UND abort@LIBC (2)
112:   FUNC GLOBAL DEFAULT UND native_handle_clone
113:   FUNC GLOBAL DEFAULT UND native_handle_close
114:   FUNC GLOBAL DEFAULT UND strlen@LIBC (2)
115:   FUNC GLOBAL DEFAULT UND memcpy@LIBC (2)
116:   FUNC GLOBAL DEFAULT UND memmove@LIBC (2)
117:   FUNC GLOBAL DEFAULT UND memset@LIBC (2)
118:   FUNC GLOBAL DEFAULT 14 _ZN7android8hardware5medi
119:   FUNC GLOBAL DEFAULT 14 _ZN7android8hardware5medi
120:   FUNC GLOBAL DEFAULT 14 _ZN7android8hardware5medi
121:   FUNC WEAK DEFAULT 14 _ZNSt3__124__put_characte
122:   FUNC WEAK DEFAULT 14 _ZNSt3__16vectorI18C2Para
123:   FUNC WEAK DEFAULT 14 _ZNSt3__16vectorI18C2Para
124:   FUNC WEAK DEFAULT 14 _ZNSt3__16vectorIN7C2Para
125:   FUNC WEAK DEFAULT 14 _ZNSt3__16vectorINS_10uni
126:   FUNC GLOBAL DEFAULT 14 __aeabi_memclr8
127:   FUNC GLOBAL DEFAULT 14 _ZN7android8hardware5medi
128:   FUNC GLOBAL DEFAULT 14 _ZN7android8hardware5medi
129:   FUNC GLOBAL DEFAULT 14 _ZN7android8hardware5medi
130:   FUNC WEAK DEFAULT 14 _ZNSt3__16vectorIP7C2Para
131:   FUNC GLOBAL DEFAULT 14 _ZN7android8hardware5medi
132:   FUNC WEAK DEFAULT 14 _ZNSt3__16vectorI17C2Fiel
133:   FUNC GLOBAL DEFAULT 14 _ZN7android8hardware5medi
134:   FUNC WEAK DEFAULT 14 _ZNSt3__16vectorINS_10sha
135:   FUNC GLOBAL DEFAULT 14 __aeabi_memcpy
136:   FUNC GLOBAL DEFAULT 14 _ZN7android8hardware5medi
137:   FUNC GLOBAL DEFAULT 14 _ZN7android8hardware5medi
138:   FUNC WEAK DEFAULT 14 _ZNSt3__16__treeINS_12__v
139:   FUNC WEAK DEFAULT 14 _ZNSt3__16vectorINS_4pair
140:   OBJECT WEAK DEFAULT 18 _ZTVNSt3__120__shared_ptr
141:   FUNC GLOBAL DEFAULT 14 _ZN7android8hardware5medi
142:   FUNC WEAK DEFAULT 14 _ZNSt3__120__shared_ptr_p
143:   FUNC WEAK DEFAULT 14 _ZNSt3__16vectorINS_10uni
144:   FUNC WEAK DEFAULT 14 _ZNSt3__16vectorINS_12bas
145:   FUNC WEAK DEFAULT 14 _ZNSt3__16vectorINS_4pair
146:   FUNC GLOBAL DEFAULT 14 _ZN7android8hardware5medi
147:   FUNC WEAK DEFAULT 14 _ZNSt3__120__shared_ptr_e
148:   FUNC GLOBAL DEFAULT 14 _ZN7android8hardware5medi
149:   FUNC GLOBAL DEFAULT 14 _ZN7android8hardware5medi
150:   FUNC GLOBAL DEFAULT 14 _ZN7android8hardware5medi
151:   FUNC WEAK DEFAULT 14 _ZNSt3__112__hash_tableIN
152:   FUNC WEAK DEFAULT 14 _ZNSt3__120__shared_ptr_p
153:   FUNC WEAK DEFAULT 14 _ZNSt3__16vectorI17C2Fiel
154:   FUNC WEAK DEFAULT 14 _ZNSt3__16vectorINS_10uni
155:   FUNC GLOBAL DEFAULT 14 _ZN7android8hardware5medi
156:   FUNC GLOBAL DEFAULT 14 _ZN7android8hardware5medi
157:   FUNC WEAK DEFAULT 14 _ZNSt3__120__shared_ptr_e
158:   FUNC GLOBAL DEFAULT 14 __aeabi_memcpy4
159:   FUNC GLOBAL DEFAULT 14 __aeabi_memset4
160:   FUNC GLOBAL DEFAULT 14 _ZN7android8hardware5medi
161:   FUNC GLOBAL DEFAULT 14 _ZN7android8hardware5medi
162:   FUNC GLOBAL DEFAULT 14 _ZN7android8hardware5medi
163:   OBJECT GLOBAL DEFAULT 18 _ZTVN7android8hardware5me
164:   FUNC GLOBAL DEFAULT 14 __aeabi_memmove4
165:   FUNC GLOBAL DEFAULT 14 _ZN7android8hardware5medi
166:   FUNC WEAK DEFAULT 14 _ZNSt3__120__shared_ptr_e
167:   FUNC GLOBAL DEFAULT 14 __aeabi_memset
168:   FUNC GLOBAL DEFAULT 14 _ZN7android8hardware5medi
169:   FUNC GLOBAL DEFAULT 14 _ZN7android8hardware5medi
170:   FUNC GLOBAL DEFAULT 14 _ZN7android8hardware5medi
171:   FUNC WEAK DEFAULT 14 _ZNSt3__114__split_buffer
172:   FUNC WEAK DEFAULT 14 _ZNSt3__16vectorINS_10uni
173:   OBJECT WEAK DEFAULT 18 _ZTVNSt3__120__shared_ptr
174:   FUNC GLOBAL DEFAULT 14 __aeabi_memcpy8
175:   FUNC GLOBAL DEFAULT 14 __aeabi_memset8
176:   FUNC GLOBAL DEFAULT 14 _ZN7android8hardware5medi
177:   FUNC GLOBAL DEFAULT 14 _ZN7android8hardware5medi
178:   FUNC GLOBAL DEFAULT 14 _ZN7android8hardware5medi
179:   FUNC GLOBAL DEFAULT 14 _ZN7android8hardware5medi
180:   FUNC WEAK DEFAULT 14 _ZNSt3__16__treeINS_12__v
181:   FUNC GLOBAL DEFAULT 14 __aeabi_memmove
182:   FUNC GLOBAL DEFAULT 14 __aeabi_memmove8
183:   FUNC GLOBAL DEFAULT 14 _ZN7android8hardware5medi
184:   FUNC WEAK DEFAULT 14 _ZNSt3__112__hash_tableIN
185:   FUNC WEAK DEFAULT 14 _ZNSt3__16vectorINS_10sha
186:   FUNC GLOBAL DEFAULT 14 _ZN7android8hardware5medi
187:   FUNC GLOBAL DEFAULT 14 _ZN7android8hardware5medi
188:   FUNC GLOBAL DEFAULT 14 _ZN7android8hardware5medi
189:   FUNC GLOBAL DEFAULT 14 _ZN7android8hardware5medi
190:   FUNC WEAK DEFAULT 14 _ZNSt3__112__hash_tableIN
191:   OBJECT WEAK DEFAULT 18 _ZTVNSt3__120__shared_ptr
192:   FUNC GLOBAL DEFAULT 14 _ZN7android8hardware5medi
193:   FUNC GLOBAL DEFAULT 14 _ZN7android8hardware5medi
194:   FUNC WEAK DEFAULT 14 _ZNSt3__120__shared_ptr_e
195:   FUNC WEAK DEFAULT 14 _ZNSt3__127__tree_balance
196:   FUNC WEAK DEFAULT 14 _ZNSt3__16vectorINS_10uni
197:   FUNC GLOBAL DEFAULT 14 _ZN7android8hardware5medi
198:   FUNC GLOBAL DEFAULT 14 _ZN7android8hardware5medi
199:   FUNC GLOBAL DEFAULT 14 _ZN7android8hardware5medi
200:   FUNC GLOBAL DEFAULT 14 _ZN7android8hardware5medi
201:   FUNC GLOBAL DEFAULT 14 _ZN7android8hardware5medi
202:   FUNC WEAK DEFAULT 14 _ZNSt3__16vectorIN7C2Valu
203:   FUNC GLOBAL DEFAULT 14 __aeabi_memclr
204:   FUNC GLOBAL DEFAULT 14 __aeabi_memclr4
205:   FUNC GLOBAL DEFAULT 14 _ZN7android8hardware5medi
206:   FUNC WEAK DEFAULT 14 _ZNSt3__16__treeINS_12__v
