 0x0000000e (SONAME)                     Library soname: [libfmq.so]
  
Symbol   contains 58 entries:
Num:   Type Bind Vis Ndx Name
0:   NOTYPE LOCAL DEFAULT UND
1:   FUNC GLOBAL DEFAULT UND __cxa_finalize@LIBC (2)
2:   FUNC GLOBAL DEFAULT UND _ZN7android19elapsedRealt
3:   OBJECT GLOBAL DEFAULT UND _ZSt7nothrow
4:   FUNC GLOBAL DEFAULT UND _ZdlPv
5:   FUNC GLOBAL DEFAULT UND _ZnwjRKSt9nothrow_t
6:   FUNC GLOBAL DEFAULT UND __android_log_print@LIBLOG (3)
7:   FUNC GLOBAL DEFAULT UND __errno@LIBC (2)
8:   FUNC GLOBAL DEFAULT UND __stack_chk_fail@LIBC (2)
9:   OBJECT GLOBAL DEFAULT UND __stack_chk_guard@LIBC (2)
10:   FUNC GLOBAL DEFAULT UND clock_gettime@LIBC (2)
11:   FUNC GLOBAL DEFAULT UND mmap@LIBC (2)
12:   FUNC GLOBAL DEFAULT UND munmap@LIBC (2)
13:   FUNC GLOBAL DEFAULT UND strerror@LIBC (2)
14:   FUNC GLOBAL DEFAULT UND syscall@LIBC (2)
15:   FUNC GLOBAL DEFAULT UND _ZN7android4base10LogMess
16:   FUNC GLOBAL DEFAULT UND _ZN7android4base10LogMess
17:   FUNC GLOBAL DEFAULT UND _ZN7android4base10LogMess
18:   FUNC GLOBAL DEFAULT UND _ZN7android4base21GetMini
19:   FUNC GLOBAL DEFAULT UND _ZNKSt3__16locale9use_fac
20:   FUNC GLOBAL DEFAULT UND _ZNKSt3__18ios_base6getlo
21:   FUNC GLOBAL DEFAULT UND _ZNSt3__113basic_ostreamI
22:   FUNC GLOBAL DEFAULT UND _ZNSt3__113basic_ostreamI
23:   OBJECT GLOBAL DEFAULT UND _ZNSt3__15ctypeIcE2idE
24:   FUNC GLOBAL DEFAULT UND _ZNSt3__16localeD1Ev
25:   FUNC GLOBAL DEFAULT UND _ZNSt3__18ios_base5clearE
26:   FUNC GLOBAL DEFAULT UND _Znwj
27:   FUNC GLOBAL DEFAULT UND memset@LIBC (2)
28:   FUNC GLOBAL DEFAULT 13 _ZN7android8hardware9Even
29:   FUNC GLOBAL DEFAULT 13 _ZN7android8hardware9Even
30:   FUNC GLOBAL DEFAULT 13 __aeabi_ldivmod
31:   FUNC WEAK DEFAULT 13 _ZNSt3__124__put_characte
32:   FUNC GLOBAL DEFAULT 13 __aeabi_uidiv
33:   FUNC GLOBAL DEFAULT 13 _ZN7android8hardware9Even
34:   FUNC GLOBAL DEFAULT 13 _ZN7android8hardware9Even
35:   FUNC GLOBAL DEFAULT 13 _ZN7android8hardware9Even
36:   FUNC GLOBAL DEFAULT 13 __divdi3
37:   FUNC GLOBAL DEFAULT 13 __aeabi_memclr4
38:   FUNC GLOBAL DEFAULT 13 _ZN7android8hardware9Even
39:   FUNC GLOBAL DEFAULT 13 _ZN7android8hardware9Even
40:   FUNC GLOBAL DEFAULT 13 _ZN7android8hardware9Even
41:   FUNC GLOBAL DEFAULT 13 __aeabi_memset
42:   FUNC GLOBAL DEFAULT 13 __udivmoddi4
43:   FUNC GLOBAL DEFAULT 13 __aeabi_memset4
44:   FUNC GLOBAL DEFAULT 13 _ZN7android8hardware7deta
45:   FUNC GLOBAL DEFAULT 13 _ZN7android8hardware7deta
46:   FUNC GLOBAL DEFAULT 13 __udivsi3
47:   FUNC GLOBAL DEFAULT 13 _ZN7android8hardware9Even
48:   FUNC GLOBAL DEFAULT 13 _ZN7android8hardware9Even
49:   FUNC GLOBAL DEFAULT 13 _ZN7android8hardware9Even
50:   FUNC GLOBAL DEFAULT 13 __divmoddi4
51:   FUNC GLOBAL DEFAULT 13 _ZN7android8hardware9Even
52:   FUNC GLOBAL DEFAULT 13 __aeabi_memclr8
53:   FUNC GLOBAL DEFAULT 13 _ZN7android8hardware9Even
54:   FUNC GLOBAL DEFAULT 13 __aeabi_memclr
55:   FUNC GLOBAL DEFAULT 13 __udivmodsi4
56:   FUNC GLOBAL DEFAULT 13 __aeabi_uidivmod
57:   FUNC GLOBAL DEFAULT 13 __aeabi_memset8
