 0x0000000e (SONAME)                     Library soname: [libmemunreachable.so]
  
Symbol   contains 366 entries:
Num:   Type Bind Vis Ndx Name
0:   NOTYPE LOCAL DEFAULT UND
1:   FUNC GLOBAL DEFAULT UND __cxa_atexit@LIBC (2)
2:   FUNC GLOBAL DEFAULT UND __cxa_finalize@LIBC (2)
3:   FUNC GLOBAL DEFAULT UND _ZNSt3__15alignEjjRPvRj
4:   FUNC GLOBAL DEFAULT UND _ZNSt3__15mutex4lockEv
5:   FUNC GLOBAL DEFAULT UND _ZNSt3__15mutex6unlockEv
6:   FUNC GLOBAL DEFAULT UND _ZNSt3__15mutexD1Ev
7:   FUNC GLOBAL DEFAULT UND __stack_chk_fail@LIBC (2)
8:   OBJECT GLOBAL DEFAULT UND __stack_chk_guard@LIBC (2)
9:   FUNC GLOBAL DEFAULT UND abort@LIBC (2)
10:   FUNC GLOBAL DEFAULT UND mmap@LIBC (2)
11:   FUNC GLOBAL DEFAULT UND munmap@LIBC (2)
12:   FUNC GLOBAL DEFAULT UND prctl@LIBC (2)
13:   FUNC GLOBAL DEFAULT UND _ZNKSt3__120__vector_base
14:   FUNC GLOBAL DEFAULT UND _ZdlPv
15:   FUNC GLOBAL DEFAULT UND _Znwj
16:   NOTYPE WEAK DEFAULT UND getBinderKernelReferences
17:   NOTYPE WEAK DEFAULT UND getHWBinderKernelReferenc
18:   FUNC GLOBAL DEFAULT UND __errno@LIBC (2)
19:   FUNC GLOBAL DEFAULT UND sigaction@LIBC (2)
20:   FUNC GLOBAL DEFAULT UND strerror@LIBC (2)
21:   FUNC GLOBAL DEFAULT UND sysconf@LIBC (2)
22:   FUNC GLOBAL DEFAULT UND recvmsg@LIBC (2)
23:   FUNC GLOBAL DEFAULT UND sendmsg@LIBC (2)
24:   FUNC GLOBAL DEFAULT UND _ZNKSt3__121__basic_strin
25:   FUNC GLOBAL DEFAULT UND _ZNKSt3__16locale9use_fac
26:   FUNC GLOBAL DEFAULT UND _ZNKSt3__18ios_base6getlo
27:   FUNC GLOBAL DEFAULT UND _ZNSt3__112__next_primeEj
28:   FUNC GLOBAL DEFAULT UND _ZNSt3__112basic_stringIc
29:   FUNC GLOBAL DEFAULT UND _ZNSt3__112basic_stringIc
30:   FUNC GLOBAL DEFAULT UND _ZNSt3__113basic_ostreamI
31:   FUNC GLOBAL DEFAULT UND _ZNSt3__113basic_ostreamI
32:   FUNC GLOBAL DEFAULT UND _ZNSt3__113basic_ostreamI
33:   FUNC GLOBAL DEFAULT UND _ZNSt3__113basic_ostreamI
34:   FUNC GLOBAL DEFAULT UND _ZNSt3__113basic_ostreamI
35:   FUNC GLOBAL DEFAULT UND _ZNSt3__113basic_ostreamI
36:   FUNC GLOBAL DEFAULT UND _ZNSt3__113basic_ostreamI
37:   FUNC GLOBAL DEFAULT UND _ZNSt3__113basic_ostreamI
38:   FUNC GLOBAL DEFAULT UND _ZNSt3__113basic_ostreamI
39:   FUNC GLOBAL DEFAULT UND _ZNSt3__115basic_streambu
40:   FUNC GLOBAL DEFAULT UND _ZNSt3__115basic_streambu
41:   FUNC GLOBAL DEFAULT UND _ZNSt3__115basic_streambu
42:   FUNC GLOBAL DEFAULT UND _ZNSt3__115basic_streambu
43:   FUNC GLOBAL DEFAULT UND _ZNSt3__115basic_streambu
44:   FUNC GLOBAL DEFAULT UND _ZNSt3__115basic_streambu
45:   FUNC GLOBAL DEFAULT UND _ZNSt3__115basic_streambu
46:   FUNC GLOBAL DEFAULT UND _ZNSt3__115basic_streambu
47:   FUNC GLOBAL DEFAULT UND _ZNSt3__115basic_streambu
48:   FUNC GLOBAL DEFAULT UND _ZNSt3__118condition_vari
49:   FUNC GLOBAL DEFAULT UND _ZNSt3__118condition_vari
50:   FUNC GLOBAL DEFAULT UND _ZNSt3__118condition_vari
51:   OBJECT GLOBAL DEFAULT UND _ZNSt3__15ctypeIcE2idE
52:   FUNC GLOBAL DEFAULT UND _ZNSt3__16chrono12steady_
53:   FUNC GLOBAL DEFAULT UND _ZNSt3__16chrono12system_
54:   FUNC GLOBAL DEFAULT UND _ZNSt3__16localeD1Ev
55:   FUNC GLOBAL DEFAULT UND _ZNSt3__18ios_base4initEP
56:   FUNC GLOBAL DEFAULT UND _ZNSt3__18ios_base5clearE
57:   FUNC GLOBAL DEFAULT UND _ZNSt3__19basic_iosIcNS_1
58:   FUNC GLOBAL DEFAULT UND _ZTv0_n12_NSt3__113basic_
59:   FUNC GLOBAL DEFAULT UND _ZTv0_n12_NSt3__113basic_
60:   FUNC GLOBAL DEFAULT UND __strlen_chk@LIBC (2)
61:   FUNC GLOBAL DEFAULT UND _exit@LIBC (2)
62:   FUNC GLOBAL DEFAULT UND close@LIBC (2)
63:   FUNC GLOBAL DEFAULT UND fork@LIBC (2)
64:   FUNC GLOBAL DEFAULT UND getpid@LIBC (2)
65:   FUNC GLOBAL DEFAULT UND gettid@LIBC (2)
66:   FUNC GLOBAL DEFAULT UND malloc_backtrace@LIBC_Q (3)
67:   FUNC GLOBAL DEFAULT UND malloc_disable@LIBC_Q (3)
68:   FUNC GLOBAL DEFAULT UND malloc_enable@LIBC_Q (3)
69:   FUNC GLOBAL DEFAULT UND malloc_iterate@LIBC_Q (3)
70:   FUNC GLOBAL DEFAULT UND memcmp@LIBC (2)
71:   FUNC GLOBAL DEFAULT UND pipe2@LIBC (2)
72:   FUNC GLOBAL DEFAULT UND read@LIBC (2)
73:   FUNC GLOBAL DEFAULT UND socketpair@LIBC (2)
74:   FUNC GLOBAL DEFAULT UND strlen@LIBC (2)
75:   FUNC GLOBAL DEFAULT UND write@LIBC (2)
76:   FUNC GLOBAL DEFAULT UND __open_2@LIBC (2)
77:   FUNC GLOBAL DEFAULT UND __read_chk@LIBC (2)
78:   FUNC GLOBAL DEFAULT UND __vsnprintf_chk@LIBC (2)
79:   FUNC WEAK DEFAULT UND android_fdsan_close_with_@LIBC_Q (3)
80:   FUNC WEAK DEFAULT UND android_fdsan_create_owne@LIBC_Q (3)
81:   FUNC WEAK DEFAULT UND android_fdsan_exchange_ow@LIBC_Q (3)
82:   FUNC GLOBAL DEFAULT UND isxdigit@LIBC (2)
83:   FUNC GLOBAL DEFAULT UND strchr@LIBC (2)
84:   FUNC GLOBAL DEFAULT UND strlcpy@LIBC (2)
85:   FUNC GLOBAL DEFAULT UND strtoull@LIBC (2)
86:   FUNC GLOBAL DEFAULT UND _ZNSt3__120__throw_system
87:   FUNC GLOBAL DEFAULT UND clone@LIBC (2)
88:   FUNC GLOBAL DEFAULT UND mprotect@LIBC (2)
89:   FUNC GLOBAL DEFAULT UND syscall@LIBC (2)
90:   FUNC GLOBAL DEFAULT UND waitpid@LIBC (2)
91:   FUNC GLOBAL DEFAULT UND __strlcat_chk@LIBC (2)
92:   FUNC GLOBAL DEFAULT UND atoi@LIBC (2)
93:   FUNC GLOBAL DEFAULT UND ptrace@LIBC (2)
94:   FUNC GLOBAL DEFAULT UND __assert@LIBC (2)
95:   FUNC GLOBAL DEFAULT UND __memcpy_chk@LIBC (2)
96:   FUNC GLOBAL DEFAULT UND __strlcpy_chk@LIBC (2)
97:   FUNC GLOBAL DEFAULT UND android_set_abort_message@LIBC (2)
98:   FUNC GLOBAL DEFAULT UND clock_gettime@LIBC (2)
99:   FUNC GLOBAL DEFAULT UND connect@LIBC (2)
100:   FUNC GLOBAL DEFAULT UND socket@LIBC (2)
101:   FUNC GLOBAL DEFAULT UND writev@LIBC (2)
102:   FUNC GLOBAL DEFAULT UND _ZNKSt3__112basic_stringI
103:   FUNC GLOBAL DEFAULT UND _ZNSt3__112basic_stringIc
104:   FUNC GLOBAL DEFAULT UND _ZNSt3__112basic_stringIc
105:   FUNC GLOBAL DEFAULT UND _ZNSt3__112basic_stringIc
106:   FUNC GLOBAL DEFAULT UND _ZNSt3__112basic_stringIc
107:   FUNC GLOBAL DEFAULT UND _ZNSt3__112basic_stringIc
108:   FUNC GLOBAL DEFAULT UND _ZNSt3__112basic_stringIc
109:   FUNC GLOBAL DEFAULT UND _ZNSt3__112basic_stringIc
110:   FUNC GLOBAL DEFAULT UND _ZNSt3__1plIcNS_11char_tr
111:   FUNC GLOBAL DEFAULT UND islower@LIBC (2)
112:   FUNC GLOBAL DEFAULT UND isupper@LIBC (2)
113:   FUNC GLOBAL DEFAULT UND strcmp@LIBC (2)
114:   FUNC GLOBAL DEFAULT UND strtoul@LIBC (2)
115:   FUNC GLOBAL DEFAULT UND dladdr@LIBC (4)
116:   FUNC GLOBAL DEFAULT UND __fgets_chk@LIBC (2)
117:   FUNC GLOBAL DEFAULT UND fclose@LIBC (2)
118:   FUNC GLOBAL DEFAULT UND fopen@LIBC (2)
119:   FUNC GLOBAL DEFAULT UND sscanf@LIBC (2)
120:   OBJECT GLOBAL DEFAULT UND __sF@LIBC (2)
121:   FUNC GLOBAL DEFAULT UND fflush@LIBC (2)
122:   FUNC GLOBAL DEFAULT UND fprintf@LIBC (2)
123:   FUNC GLOBAL DEFAULT UND dl_iterate_phdr@LIBC (4)
124:   FUNC GLOBAL DEFAULT UND memcpy@LIBC (2)
125:   FUNC GLOBAL DEFAULT UND memmove@LIBC (2)
126:   FUNC GLOBAL DEFAULT UND memset@LIBC (2)
127:   FUNC WEAK DEFAULT 14 _ZNSt3__115basic_stringbu
128:   FUNC WEAK DEFAULT 14 _ZNSt3__16__treeINS_12__v
129:   FUNC GLOBAL DEFAULT 14 _ZN7MapData8ReadMapsEv
130:   OBJECT GLOBAL DEFAULT 23 _ZN7android10heap_countE
131:   FUNC GLOBAL DEFAULT 14 _ZN7android8LeakPipe6Send
132:   FUNC WEAK DEFAULT 14 _ZNSt3__113__tree_removeI
133:   FUNC WEAK DEFAULT 14 _ZNSt3__114__split_buffer
134:   FUNC GLOBAL DEFAULT 14 __aeabi_memmove8
135:   FUNC GLOBAL DEFAULT 14 _ZN7android13PtracerThrea
136:   FUNC WEAK DEFAULT 14 _ZNSt3__113__vector_baseI
137:   FUNC GLOBAL DEFAULT 14 _ZN7android13PtracerThrea
138:   FUNC WEAK DEFAULT 14 _ZNSt3__114__split_buffer
139:   FUNC WEAK DEFAULT 14 _ZNKSt3__110__function6__
140:   FUNC GLOBAL DEFAULT 14 _ZN9Demangler17ParseFunct
141:   FUNC GLOBAL DEFAULT 14 _Z18backtrace_shutdownv
142:   FUNC WEAK DEFAULT 14 _ZNSt3__16vectorIPN7andro
143:   FUNC GLOBAL DEFAULT 14 _ZN9Demangler24ParseArgum
144:   FUNC GLOBAL DEFAULT 14 _ZN7android5Chunk5PurgeEv
145:   OBJECT WEAK DEFAULT 18 _ZTVNSt3__119basic_ostrin
146:   FUNC GLOBAL DEFAULT 14 _ZN7android13PtracerThrea
147:   FUNC GLOBAL DEFAULT 14 _ZN7android17ThreadCaptur
148:   FUNC GLOBAL DEFAULT 14 _ZN7android17ThreadCaptur
149:   FUNC GLOBAL DEFAULT 14 _ZN9Demangler30ParseFunct
150:   FUNC GLOBAL DEFAULT 14 _ZN7android8HeapImpl7MapF
151:   FUNC GLOBAL DEFAULT 14 async_safe_fatal_no_abort
152:   FUNC WEAK DEFAULT 14 _ZNSt3__16__treeIPN7andro
153:   FUNC GLOBAL DEFAULT 14 _ZN7android5ChunkC2EPNS_8
154:   FUNC GLOBAL DEFAULT 14 _ZN7android8HeapImpl11All
155:   FUNC GLOBAL DEFAULT 14 _ZN7android21UnreachableM
156:   FUNC GLOBAL DEFAULT 14 __aeabi_memcpy4
157:   FUNC WEAK DEFAULT 14 _ZNSt3__111unique_lockINS
158:   FUNC GLOBAL DEFAULT 14 _ZN9Demangler18GetArgumen
159:   FUNC GLOBAL DEFAULT 14 _ZN9Demangler21ParseFunct
160:   FUNC GLOBAL DEFAULT 14 _ZN7android8HeapImpl14Mov
161:   FUNC GLOBAL DEFAULT 14 async_safe_format_fd
162:   FUNC GLOBAL DEFAULT 14 _ZN7android17ThreadCaptur
163:   FUNC GLOBAL DEFAULT 14 __aeabi_uldivmod
164:   FUNC WEAK DEFAULT 14 _ZNSt3__1plIcNS_11char_tr
165:   OBJECT GLOBAL DEFAULT 12 _ZN7android4Leak15content
166:   OBJECT WEAK DEFAULT 18 _ZTCNSt3__119basic_ostrin
167:   FUNC GLOBAL DEFAULT 14 async_safe_write_log
168:   FUNC GLOBAL DEFAULT 14 _ZN7MapDataD2Ev
169:   FUNC GLOBAL DEFAULT 14 _ZN7android8HeapImpl10Mov
170:   FUNC GLOBAL DEFAULT 14 _ZN7android8HeapImplC1Ev
171:   FUNC GLOBAL DEFAULT 14 __aeabi_memcpy
172:   FUNC GLOBAL DEFAULT 14 __aeabi_memcpy8
173:   FUNC GLOBAL DEFAULT 14 __aeabi_uidivmod
174:   FUNC GLOBAL DEFAULT 14 _ZN7android5ChunknwEj
175:   FUNC GLOBAL DEFAULT 14 _ZN7MapData4findEjPj
176:   FUNC GLOBAL DEFAULT 14 _ZN7android8HeapImpl5Allo
177:   FUNC GLOBAL DEFAULT 14 _ZN7android10HeapWalker10
178:   FUNC GLOBAL DEFAULT 14 _Z16backtrace_stringPKjj
179:   FUNC GLOBAL DEFAULT 14 _ZN7android13ThreadCaptur
180:   FUNC GLOBAL DEFAULT 14 _Z8demanglePKc
181:   FUNC WEAK DEFAULT 14 _ZN7android15TarjanAlgori
182:   FUNC GLOBAL DEFAULT 14 _ZNK7android4Leak8ToStrin
183:   FUNC WEAK DEFAULT 14 _ZNSt3__112__hash_tableIN
184:   FUNC GLOBAL DEFAULT 14 _ZN7android4HeapC2Ev
185:   FUNC GLOBAL DEFAULT 14 _ZN7android5ChunkdlEPv
186:   FUNC WEAK DEFAULT 14 _ZNSt3__16vectorIjN7andro
187:   FUNC GLOBAL DEFAULT 14 _ZN9Demangler19GetStringF
188:   FUNC GLOBAL DEFAULT 14 __aeabi_memset
189:   FUNC GLOBAL DEFAULT 14 _ZN7android10HeapWalker15
190:   FUNC GLOBAL DEFAULT 14 _ZN7android10HeapWalker25
191:   FUNC GLOBAL DEFAULT 14 _ZN7android14MemUnreachab
192:   FUNC GLOBAL DEFAULT 14 _ZN7android13ThreadCaptur
193:   FUNC GLOBAL DEFAULT 14 __udivsi3
194:   FUNC GLOBAL DEFAULT 14 _ZN7android8HeapImplD1Ev
195:   FUNC WEAK DEFAULT 14 _ZNSt3__127__tree_balance
196:   FUNC WEAK DEFAULT 14 _ZNSt3__16vectorIN7androi
197:   FUNC WEAK DEFAULT 14 _ZNSt3__114__split_buffer
198:   FUNC GLOBAL DEFAULT 14 _ZN7android4Heap10dealloc
199:   FUNC GLOBAL DEFAULT 14 _ZN7android5Chunk5AllocEv
200:   FUNC WEAK DEFAULT 14 _ZNSt3__110__function6__f
201:   FUNC GLOBAL DEFAULT 14 _ZN7android11LeakFolding1
202:   FUNC WEAK DEFAULT 14 _ZNSt3__16vectorIN7androi
203:   FUNC WEAK DEFAULT 14 _ZNSt3__16vectorIjN7andro
204:   FUNC GLOBAL DEFAULT 14 _ZN7android13PtracerThrea
205:   FUNC GLOBAL DEFAULT 14 _ZN7android13ThreadCaptur
206:   FUNC GLOBAL DEFAULT 14 _Z13backtrace_getPjj
207:   FUNC GLOBAL DEFAULT 14 _ZN7android4Heap8allocate
208:   FUNC GLOBAL DEFAULT 14 _ZN7android8HeapImpl14Mov
209:   FUNC WEAK DEFAULT 14 _ZNSt3__16__treeIPN7andro
210:   FUNC GLOBAL DEFAULT 14 __aeabi_l2d
211:   FUNC WEAK DEFAULT 14 _ZNSt3__16vectorIN7androi
212:   FUNC GLOBAL DEFAULT 14 _ZN9Demangler18ParseCompl
213:   FUNC GLOBAL DEFAULT 14 _ZN7android4HeapD2Ev
214:   FUNC GLOBAL DEFAULT 14 _ZN7android8LeakPipe9Rece
215:   FUNC GLOBAL DEFAULT 14 _ZN9Demangler4SaveERKNSt3
216:   FUNC WEAK DEFAULT 14 _ZNSt3__16vectorINS_12bas
217:   FUNC GLOBAL DEFAULT 14 __aeabi_memclr4
218:   FUNC WEAK DEFAULT 14 _ZNSt3__16vectorIN7androi
219:   FUNC WEAK DEFAULT 14 _ZNSt3__16vectorIjN7andro
220:   FUNC GLOBAL DEFAULT 14 _ZN7android8HeapImplnwEj
221:   FUNC WEAK DEFAULT 14 _ZN7android6TarjanINS_11L
222:   FUNC GLOBAL DEFAULT 14 _ZN7android15ProcessMappi
223:   FUNC WEAK DEFAULT 14 _ZNSt3__112__hash_tableIN
224:   FUNC GLOBAL DEFAULT 14 _ZN7android17ThreadCaptur
225:   FUNC WEAK DEFAULT 14 _ZNSt3__16vectorIiN7andro
226:   FUNC GLOBAL DEFAULT 14 _ZN7android8HeapImpl8MapA
227:   FUNC GLOBAL DEFAULT 14 _ZN7android13ThreadCaptur
228:   FUNC WEAK DEFAULT 14 _ZNKSt3__115basic_stringb
229:   FUNC WEAK DEFAULT 14 _ZN7android8procinfo18Rea
230:   FUNC GLOBAL DEFAULT 14 _ZN9Demangler13AppendCurr
231:   FUNC GLOBAL DEFAULT 14 _ZN9Demangler6ParseSEPKc
232:   FUNC GLOBAL DEFAULT 14 async_safe_format_log_va_
233:   FUNC GLOBAL DEFAULT 14 _ZN7android14MemUnreachab
234:   FUNC GLOBAL DEFAULT 14 _ZN7android20GetUnreachab
235:   FUNC GLOBAL DEFAULT 14 __aeabi_memclr8
236:   FUNC WEAK DEFAULT 14 _ZNSt3__16vectorIjN7andro
237:   FUNC WEAK DEFAULT 14 _ZNSt3__112__hash_tableIN
238:   FUNC GLOBAL DEFAULT 14 _ZN7android17ThreadCaptur
239:   FUNC GLOBAL DEFAULT 14 _Z13backtrace_logPKjj
240:   FUNC WEAK DEFAULT 14 _ZNSt3__112__hash_tableIN
241:   FUNC WEAK DEFAULT 14 _ZNSt3__16vectorIN7androi
242:   FUNC GLOBAL DEFAULT 14 _ZN7android13PtracerThrea
243:   FUNC GLOBAL DEFAULT 14 _ZN7android17ThreadCaptur
244:   FUNC WEAK DEFAULT 14 _ZNSt3__16vectorIN7androi
245:   OBJECT WEAK DEFAULT 18 _ZN9Demangler6kTypesE
246:   FUNC WEAK DEFAULT 14 _ZNSt3__112__hash_tableIN
247:   FUNC GLOBAL DEFAULT 14 LogUnreachableMemory
248:   FUNC WEAK DEFAULT 14 _ZNSt3__112basic_stringIc
249:   FUNC GLOBAL DEFAULT 14 _ZN7android13PtracerThrea
250:   FUNC WEAK DEFAULT 14 _ZNKSt3__18functionIFivEE
251:   FUNC WEAK DEFAULT 14 _ZNSt3__114__split_buffer
252:   FUNC WEAK DEFAULT 14 _ZNSt3__1plIcNS_11char_tr
253:   FUNC GLOBAL DEFAULT 14 __floatdidf
254:   FUNC GLOBAL DEFAULT 14 _ZN7android5Chunk4FreeEPv
255:   OBJECT WEAK DEFAULT 18 _ZTTNSt3__119basic_ostrin
256:   FUNC WEAK DEFAULT 14 _ZNSt3__112__hash_tableIN
257:   FUNC WEAK DEFAULT 14 _ZNSt3__115basic_stringbu
258:   FUNC GLOBAL DEFAULT 14 _ZN7android13ThreadCaptur
259:   FUNC GLOBAL DEFAULT 14 _ZN7android17ThreadCaptur
260:   FUNC WEAK DEFAULT 14 _ZNKSt3__110__function6__
261:   FUNC GLOBAL DEFAULT 14 _ZNK7android21Unreachable
262:   FUNC WEAK DEFAULT 14 _ZNSt3__124__put_characte
263:   FUNC GLOBAL DEFAULT 14 async_safe_format_fd_va_l
264:   FUNC GLOBAL DEFAULT 14 _ZN9Demangler14ParseArgum
265:   OBJECT WEAK DEFAULT 18 _ZTVNSt3__110__function6_
266:   FUNC WEAK DEFAULT 14 _ZNSt3__16vectorIPN7andro
267:   FUNC GLOBAL DEFAULT 14 _ZN7android17ThreadCaptur
268:   FUNC WEAK DEFAULT 14 _ZNSt3__16vectorIN7androi
269:   FUNC WEAK DEFAULT 14 _ZNSt3__16vectorIjN7andro
270:   FUNC GLOBAL DEFAULT 14 __udivmodsi4
271:   OBJECT GLOBAL DEFAULT 23 _ZN7android19ScopedSignal
272:   FUNC WEAK DEFAULT 14 _ZNSt3__112__hash_tableIN
273:   FUNC WEAK DEFAULT 14 _ZNSt3__16__treeINS_12__v
274:   FUNC GLOBAL DEFAULT 14 _ZN9Demangler25ParseFunct
275:   FUNC WEAK DEFAULT 14 _ZNSt3__15dequeIN9Demangl
276:   FUNC GLOBAL DEFAULT 14 _Z17backtrace_startupv
277:   FUNC GLOBAL DEFAULT 14 _ZN7android5Chunk5EmptyEv
278:   FUNC WEAK DEFAULT 14 _ZNSt3__16vectorIPN7andro
279:   FUNC GLOBAL DEFAULT 14 _ZN9Demangler20ParseTempl
280:   FUNC WEAK DEFAULT 14 _ZNSt3__112__deque_baseIN
281:   FUNC GLOBAL DEFAULT 14 _ZN7android4Heap5emptyEv
282:   FUNC GLOBAL DEFAULT 14 _ZN7android8HeapImpl4Free
283:   FUNC GLOBAL DEFAULT 14 _ZN7android8HeapImplC2Ev
284:   FUNC GLOBAL DEFAULT 14 _ZN7android11LeakFolding9
285:   FUNC GLOBAL DEFAULT 14 _ZN7android14MemUnreachab
286:   FUNC GLOBAL DEFAULT 14 async_safe_fatal_va_list
287:   FUNC GLOBAL DEFAULT 14 async_safe_format_buffer_
288:   FUNC GLOBAL DEFAULT 14 _ZN7android10HeapWalker6L
289:   FUNC GLOBAL DEFAULT 14 _ZN7android21UnreachableM
290:   FUNC GLOBAL DEFAULT 14 _ZN7android17ThreadCaptur
291:   FUNC GLOBAL DEFAULT 14 _ZN9Demangler14AppendArgu
292:   FUNC WEAK DEFAULT 14 _ZNSt3__16__treeIP8MapEnt
293:   FUNC GLOBAL DEFAULT 14 _ZN7android8HeapImpldlEPv
294:   FUNC GLOBAL DEFAULT 14 _ZN7android13ThreadCaptur
295:   FUNC GLOBAL DEFAULT 14 _ZN9Demangler29ParseTempl
296:   FUNC GLOBAL DEFAULT 14 _ZN7android5ChunkC1EPNS_8
297:   FUNC WEAK DEFAULT 14 _ZNSt3__16vectorIN7androi
298:   FUNC WEAK DEFAULT 14 _ZN7android15TarjanAlgori
299:   FUNC WEAK DEFAULT 14 _ZNSt3__16__treeINS_12__v
300:   FUNC GLOBAL DEFAULT 14 _ZN7android26GetUnreachab
301:   FUNC GLOBAL DEFAULT 14 _ZN7android8HeapImpl10Fre
302:   FUNC GLOBAL DEFAULT 14 _ZN9Demangler20AppendOper
303:   FUNC GLOBAL DEFAULT 14 _ZN9Demangler20ParseCompl
304:   FUNC GLOBAL DEFAULT 14 _ZN9Demangler5ParseEPKcj
305:   FUNC GLOBAL DEFAULT 14 _ZN7MapDataD1Ev
306:   FUNC GLOBAL DEFAULT 14 _ZN7android4Heap10dealloc
307:   FUNC WEAK DEFAULT 14 _ZNSt3__16__treeINS_12__v
308:   FUNC GLOBAL DEFAULT 14 _ZN9Demangler13AppendCurr
309:   OBJECT WEAK DEFAULT 18 _ZN9Demangler7kSTypesE
310:   FUNC WEAK DEFAULT 14 _ZNSt3__16vectorINS_12bas
311:   FUNC GLOBAL DEFAULT 14 __udivmoddi4
312:   FUNC GLOBAL DEFAULT 14 _ZN7android8HeapImpl5Empt
313:   FUNC GLOBAL DEFAULT 14 _ZN7android8HeapImplD2Ev
314:   FUNC WEAK DEFAULT 14 _ZNSt3__16vectorINS_10uni
315:   FUNC GLOBAL DEFAULT 14 _ZN7android10HeapWalker4R
316:   FUNC GLOBAL DEFAULT 14 NoLeaks
317:   FUNC GLOBAL DEFAULT 14 _ZN7android13ThreadCaptur
318:   FUNC GLOBAL DEFAULT 14 _ZN9Demangler6ParseTEPKc
319:   FUNC WEAK DEFAULT 14 _ZNSt3__16vectorIM9Demang
320:   FUNC GLOBAL DEFAULT 14 _ZN7android16BinderRefere
321:   FUNC GLOBAL DEFAULT 14 _ZN7android10HeapWalker11
322:   FUNC GLOBAL DEFAULT 14 _ZN7android13ThreadCaptur
323:   FUNC WEAK DEFAULT 14 _ZNSt3__112__hash_tableIN
324:   FUNC WEAK DEFAULT 14 _ZNSt3__16vectorIN7androi
325:   FUNC GLOBAL DEFAULT 14 _ZN7android4HeapC1Ev
326:   FUNC WEAK DEFAULT 14 _ZNSt3__16vectorINS0_IPN7
327:   FUNC GLOBAL DEFAULT 14 _ZN9Demangler16FindFuncti
328:   FUNC WEAK DEFAULT 14 _ZNSt3__112basic_stringIc
329:   FUNC GLOBAL DEFAULT 14 _ZN7android17ThreadCaptur
330:   FUNC GLOBAL DEFAULT 14 _ZN9Demangler16FinalizeTe
331:   FUNC GLOBAL DEFAULT 14 __aeabi_memmove
332:   FUNC GLOBAL DEFAULT 14 _ZN7android10HeapWalker11
333:   FUNC GLOBAL DEFAULT 14 _ZN7android10HeapWalker14
334:   FUNC GLOBAL DEFAULT 14 _ZN7android11LeakFolding1
335:   FUNC GLOBAL DEFAULT 14 _ZN7android13PtracerThrea
336:   FUNC GLOBAL DEFAULT 14 _ZN7android13ThreadCaptur
337:   FUNC WEAK DEFAULT 14 _ZNSt3__115basic_stringbu
338:   OBJECT WEAK DEFAULT 18 _ZTVNSt3__115basic_string
339:   FUNC GLOBAL DEFAULT 14 __aeabi_memclr
340:   FUNC GLOBAL DEFAULT 14 _ZN7android17ThreadCaptur
341:   FUNC GLOBAL DEFAULT 14 _ZN7android17ThreadCaptur
342:   FUNC GLOBAL DEFAULT 14 _ZN7android10HeapWalker11
343:   FUNC GLOBAL DEFAULT 14 _ZN7android13PtracerThrea
344:   FUNC WEAK DEFAULT 14 _ZNSt3__115basic_stringbu
345:   FUNC WEAK DEFAULT 14 _ZNSt3__1plIcNS_11char_tr
346:   FUNC GLOBAL DEFAULT 14 _ZN9Demangler22ParseTempl
347:   FUNC GLOBAL DEFAULT 14 _ZN7android4HeapD1Ev
348:   FUNC GLOBAL DEFAULT 14 _ZN7android10HeapWalker4R
349:   OBJECT WEAK DEFAULT 18 _ZN9Demangler7kDTypesE
350:   FUNC WEAK DEFAULT 14 _ZNSt3__110__function6__f
351:   FUNC WEAK DEFAULT 14 _ZNSt3__110__function6__f
352:   FUNC GLOBAL DEFAULT 14 async_safe_format_log
353:   FUNC GLOBAL DEFAULT 14 async_safe_format_buffer
354:   FUNC GLOBAL DEFAULT 14 __aeabi_memset4
355:   FUNC GLOBAL DEFAULT 14 __aeabi_uidiv
356:   FUNC GLOBAL DEFAULT 14 _ZN7android10HeapWalker7M
357:   FUNC WEAK DEFAULT 14 _ZNSt3__112__hash_tableIN
358:   FUNC GLOBAL DEFAULT 14 __aeabi_memmove4
359:   FUNC GLOBAL DEFAULT 14 _ZN7android11LeakFolding6
360:   FUNC GLOBAL DEFAULT 14 _ZN7android13PtracerThrea
361:   FUNC WEAK DEFAULT 14 _ZNSt3__16vectorIM9Demang
362:   FUNC GLOBAL DEFAULT 14 _ZN7android13ThreadCaptur
363:   FUNC WEAK DEFAULT 14 _ZNSt3__16vectorINS_12bas
364:   FUNC WEAK DEFAULT 14 _ZNSt3__16vectorINS_12bas
365:   FUNC GLOBAL DEFAULT 14 __aeabi_memset8
