 0x000000000000000e (SONAME)             Library soname: [libaudiohal_deathhandler.so]
  
Symbol   contains 50 entries:
Num:   Type Bind Vis Ndx Name
0:   NOTYPE LOCAL DEFAULT UND
1:   FUNC GLOBAL DEFAULT UND __cxa_finalize@LIBC (2)
2:   FUNC GLOBAL DEFAULT UND __cxa_atexit@LIBC (2)
3:   FUNC GLOBAL DEFAULT UND _Znwm
4:   FUNC GLOBAL DEFAULT UND _ZN7android7RefBaseC2Ev
5:   FUNC GLOBAL DEFAULT UND _ZNSt3__15mutexD1Ev
6:   FUNC GLOBAL DEFAULT UND _ZN7android7RefBaseD2Ev
7:   FUNC GLOBAL DEFAULT UND _ZdlPv
8:   FUNC GLOBAL DEFAULT UND __android_log_print@LIBLOG (3)
9:   FUNC GLOBAL DEFAULT UND _exit@LIBC (2)
10:   FUNC GLOBAL DEFAULT UND __cxa_pure_virtual
11:   FUNC GLOBAL DEFAULT UND _ZN7android7RefBase10onFi
12:   FUNC GLOBAL DEFAULT UND _ZN7android7RefBase15onLa
13:   FUNC GLOBAL DEFAULT UND _ZN7android7RefBase20onIn
14:   FUNC GLOBAL DEFAULT UND _ZN7android7RefBase13onLa
15:   FUNC GLOBAL DEFAULT UND pthread_mutex_lock@LIBC (2)
16:   FUNC GLOBAL DEFAULT UND pthread_mutex_unlock@LIBC (2)
17:   FUNC GLOBAL DEFAULT UND pthread_mutex_init@LIBC (2)
18:   FUNC GLOBAL DEFAULT UND pthread_mutex_destroy@LIBC (2)
19:   FUNC GLOBAL DEFAULT UND __cfi_slowpath@LIBC_OMR1 (4)
20:   FUNC GLOBAL DEFAULT UND _ZNK7android7RefBase9incS
21:   FUNC GLOBAL DEFAULT UND _ZNK7android7RefBase9decS
22:   FUNC GLOBAL DEFAULT UND _ZNSt3__15mutex4lockEv
23:   FUNC GLOBAL DEFAULT UND _ZNSt3__15mutex6unlockEv
24:   FUNC GLOBAL DEFAULT UND abort@LIBC (2)
25:   FUNC GLOBAL DEFAULT UND _ZNSt3__112__next_primeEm
26:   FUNC GLOBAL DEFAULT UND __stack_chk_fail@LIBC (2)
27:   FUNC WEAK DEFAULT 14 _ZN7android9SingletonINS_
28:   FUNC GLOBAL DEFAULT 14 _ZN7android15HalDeathHand
29:   FUNC GLOBAL DEFAULT 14 _ZN7android15HalDeathHand
30:   FUNC GLOBAL DEFAULT 14 _ZTv0_n24_N7android15HalD
31:   OBJECT GLOBAL DEFAULT 19 _ZTVN7android15HalDeathHa
32:   FUNC WEAK DEFAULT 14 _ZN7android9SingletonINS_
33:   FUNC GLOBAL DEFAULT 14 _ZN7android15HalDeathHand
34:   FUNC GLOBAL DEFAULT 14 _ZN7android15HalDeathHand
35:   OBJECT GLOBAL DEFAULT 23 _ZN7android9SingletonINS_
36:   FUNC WEAK DEFAULT 14 _ZN7android9SingletonINS_
37:   FUNC GLOBAL DEFAULT 14 _ZN7android15HalDeathHand
38:   FUNC GLOBAL DEFAULT 14 _ZN7android15HalDeathHand
39:   FUNC GLOBAL DEFAULT 14 __cfi_check
40:   OBJECT GLOBAL DEFAULT 19 _ZTTN7android15HalDeathHa
41:   OBJECT GLOBAL DEFAULT 19 _ZTCN7android15HalDeathHa
42:   FUNC WEAK DEFAULT 14 _ZN7android9SingletonINS_
43:   FUNC WEAK DEFAULT 14 _ZN7android9SingletonINS_
44:   FUNC GLOBAL DEFAULT 14 _ZN7android15HalDeathHand
45:   FUNC GLOBAL DEFAULT 14 _ZN7android15HalDeathHand
46:   FUNC GLOBAL DEFAULT 14 _ZN7android15HalDeathHand
47:   FUNC GLOBAL DEFAULT 14 _ZTv0_n24_N7android15HalD
48:   OBJECT GLOBAL DEFAULT 23 _ZN7android9SingletonINS_
49:   FUNC WEAK DEFAULT 14 _ZN7android9SingletonINS_
