 0x000000000000000e (SONAME)             Library soname: [libRScpp.so]
  
Symbol   contains 445 entries:
Num:   Type Bind Vis Ndx Name
0:   NOTYPE LOCAL DEFAULT UND
1:   FUNC GLOBAL DEFAULT UND __cxa_finalize@LIBC (2)
2:   FUNC GLOBAL DEFAULT UND _ZdlPv
3:   FUNC GLOBAL DEFAULT UND _Znwm
4:   FUNC GLOBAL DEFAULT UND __android_log_print@LIBLOG (3)
5:   FUNC GLOBAL DEFAULT UND __stack_chk_fail@LIBC (2)
6:   FUNC GLOBAL DEFAULT UND dlerror@LIBC (4)
7:   FUNC GLOBAL DEFAULT UND dlopen@LIBC (4)
8:   FUNC GLOBAL DEFAULT UND free@LIBC (2)
9:   FUNC GLOBAL DEFAULT UND malloc@LIBC (2)
10:   FUNC GLOBAL DEFAULT UND memcpy@LIBC (2)
11:   FUNC GLOBAL DEFAULT UND memset@LIBC (2)
12:   FUNC GLOBAL DEFAULT UND pthread_create@LIBC (2)
13:   FUNC GLOBAL DEFAULT UND pthread_join@LIBC (2)
14:   FUNC GLOBAL DEFAULT UND pthread_mutex_lock@LIBC (2)
15:   FUNC GLOBAL DEFAULT UND pthread_mutex_unlock@LIBC (2)
16:   FUNC GLOBAL DEFAULT UND realloc@LIBC (2)
17:   FUNC GLOBAL DEFAULT UND strlen@LIBC (2)
18:   FUNC GLOBAL DEFAULT UND usleep@LIBC (2)
19:   FUNC GLOBAL DEFAULT UND __strlen_chk@LIBC (2)
20:   FUNC GLOBAL DEFAULT UND calloc@LIBC (2)
21:   FUNC GLOBAL DEFAULT UND memcmp@LIBC (2)
22:   FUNC GLOBAL DEFAULT UND _ZNK7android7RefBase9decS
23:   FUNC GLOBAL DEFAULT UND _ZNK7android7RefBase9incS
24:   FUNC GLOBAL DEFAULT UND _ZdaPv
25:   FUNC GLOBAL DEFAULT UND _Znam
26:   FUNC GLOBAL DEFAULT UND _ZNSt3__112basic_stringIc
27:   FUNC GLOBAL DEFAULT UND __errno@LIBC (2)
28:   FUNC GLOBAL DEFAULT UND __system_property_get@LIBC (2)
29:   FUNC GLOBAL DEFAULT UND abort@LIBC (2)
30:   FUNC GLOBAL DEFAULT UND execv@LIBC (2)
31:   FUNC GLOBAL DEFAULT UND fork@LIBC (2)
32:   FUNC GLOBAL DEFAULT UND setpgid@LIBC (2)
33:   FUNC GLOBAL DEFAULT UND strerror@LIBC (2)
34:   FUNC GLOBAL DEFAULT UND strndup@LIBC (2)
35:   FUNC GLOBAL DEFAULT UND waitpid@LIBC (2)
36:   FUNC GLOBAL DEFAULT UND dlsym@LIBC (4)
37:   FUNC GLOBAL DEFAULT 14 _ZN7android3RSC7Element5F
38:   FUNC GLOBAL DEFAULT 14 _ZN7android3RSC4Type7Buil
39:   FUNC GLOBAL DEFAULT 14 _ZN7android3RSC23ScriptIn
40:   OBJECT GLOBAL DEFAULT 18 _ZTVN7android3RSC15Script
41:   FUNC GLOBAL DEFAULT 14 _ZN7android3RSC19ScriptIn
42:   FUNC GLOBAL DEFAULT 14 _ZN7android3RSC19ScriptIn
43:   FUNC GLOBAL DEFAULT 14 _ZN7android3RSC18ScriptIn
44:   FUNC GLOBAL DEFAULT 14 _ZN7android3RSC19ScriptIn
45:   FUNC GLOBAL DEFAULT 14 _ZN7android3RSC21ScriptIn
46:   FUNC GLOBAL DEFAULT 14 _ZN7android3RSC19ScriptIn
47:   FUNC GLOBAL DEFAULT 14 _ZN7android3RSC2RS12initD
48:   FUNC GLOBAL DEFAULT 14 _ZN7android3RSC7Element2I
49:   OBJECT WEAK DEFAULT 18 _ZTVN7android3RSC7ScriptC
50:   FUNC GLOBAL DEFAULT 14 _ZN7android3RSC19ScriptIn
51:   FUNC GLOBAL DEFAULT 14 _ZN7android3RSC7Sampler22
52:   FUNC GLOBAL DEFAULT 14 _ZN7android3RSC7BaseObj10
53:   FUNC GLOBAL DEFAULT 14 _ZN7android3RSC4Type7Buil
54:   FUNC GLOBAL DEFAULT 14 _ZN7android3RSC4Type7Buil
55:   FUNC GLOBAL DEFAULT 14 _ZN7android3RSC26ScriptIn
56:   FUNC GLOBAL DEFAULT 14 _ZN7android3RSC19ScriptIn
57:   OBJECT WEAK DEFAULT 18 _ZTVN7android3RSC21Script
58:   FUNC GLOBAL DEFAULT 14 _ZN7android3RSC19ScriptIn
59:   OBJECT GLOBAL DEFAULT 22 _ZN7android3RSC2RS10gInit
60:   FUNC GLOBAL DEFAULT 14 _ZN7android3RSC7BaseObjD1
61:   FUNC GLOBAL DEFAULT 14 _ZN7android3RSC7Element5I
62:   FUNC GLOBAL DEFAULT 14 _ZN7android3RSC26ScriptIn
63:   FUNC GLOBAL DEFAULT 14 _ZN7android3RSC10Allocati
64:   FUNC GLOBAL DEFAULT 14 _ZN7android3RSC19ScriptIn
65:   OBJECT WEAK DEFAULT 18 _ZTVN7android3RSC7Sampler
66:   FUNC GLOBAL DEFAULT 14 _ZN7android3RSC4Type7Buil
67:   FUNC GLOBAL DEFAULT 14 _ZNK7android3RSC6Script6i
68:   FUNC GLOBAL DEFAULT 14 _ZN7android3RSC20ScriptIn
69:   OBJECT WEAK DEFAULT 18 _ZTVN7android3RSC26Script
70:   FUNC GLOBAL DEFAULT 14 _ZN7android3RSC19ScriptIn
71:   FUNC GLOBAL DEFAULT 14 _ZN7android3RSC19ScriptIn
72:   FUNC GLOBAL DEFAULT 14 _ZN7android3RSC7Element5I
73:   FUNC GLOBAL DEFAULT 14 _ZN7android3RSC7Element7B
74:   FUNC GLOBAL DEFAULT 14 _ZN7android3RSC20ScriptIn
75:   FUNC GLOBAL DEFAULT 14 _ZN7android3RSC23ScriptIn
76:   FUNC GLOBAL DEFAULT 14 _ZN7android3RSC19ScriptIn
77:   FUNC GLOBAL DEFAULT 14 _ZN7android3RSC19ScriptIn
78:   FUNC GLOBAL DEFAULT 14 _ZN7android3RSC19ScriptIn
79:   FUNC GLOBAL DEFAULT 14 _ZN7android3RSC7Element12
80:   FUNC GLOBAL DEFAULT 14 _ZN7android3RSC7Element4T
81:   FUNC GLOBAL DEFAULT 14 _ZN7android3RSC10Allocati
82:   FUNC GLOBAL DEFAULT 14 _ZN7android3RSC19ScriptIn
83:   FUNC GLOBAL DEFAULT 14 _ZN7android3RSC7SamplerC1
84:   FUNC GLOBAL DEFAULT 14 _ZN7android12renderscript
85:   FUNC GLOBAL DEFAULT 14 _ZN7android3RSC7BaseObj6e
86:   FUNC GLOBAL DEFAULT 14 _ZN7android3RSC7Element5F
87:   FUNC GLOBAL DEFAULT 14 _ZN7android3RSC7Element5I
88:   FUNC GLOBAL DEFAULT 14 _ZN7android3RSC10Allocati
89:   FUNC GLOBAL DEFAULT 14 _ZN7android3RSC10Allocati
90:   FUNC GLOBAL DEFAULT 14 _ZN7android3RSC7Sampler33
91:   FUNC GLOBAL DEFAULT 14 _ZN7android3RSC2RS4initEP
92:   OBJECT GLOBAL DEFAULT 18 _ZTVN7android3RSC4TypeE
93:   FUNC GLOBAL DEFAULT 14 _ZN7android3RSC10Allocati
94:   FUNC GLOBAL DEFAULT 14 _ZN7android3RSC10Allocati
95:   FUNC GLOBAL DEFAULT 14 _ZN7android3RSC20ScriptIn
96:   FUNC GLOBAL DEFAULT 14 _ZN7android3RSC19ScriptIn
97:   FUNC GLOBAL DEFAULT 14 _ZN7android3RSC10Allocati
98:   FUNC GLOBAL DEFAULT 14 _ZN7android3RSC18ScriptIn
99:   FUNC GLOBAL DEFAULT 14 _ZN7android3RSC19ScriptIn
100:   FUNC GLOBAL DEFAULT 14 _ZN7android3RSC7Element9R
101:   FUNC GLOBAL DEFAULT 14 _ZN7android3RSC7Element9R
102:   FUNC GLOBAL DEFAULT 14 _ZN7android3RSC15ScriptIn
103:   FUNC GLOBAL DEFAULT 14 _ZN7android3RSC20ScriptIn
104:   FUNC GLOBAL DEFAULT 14 _ZN7android3RSC19ScriptIn
105:   FUNC GLOBAL DEFAULT 14 _ZN7android3RSC19ScriptIn
106:   OBJECT GLOBAL DEFAULT 22 _ZN7android3RSC2RS12gInit
107:   FUNC GLOBAL DEFAULT 14 _ZN7android3RSC2RS17setMe
108:   FUNC GLOBAL DEFAULT 14 _ZN7android3RSC4TypeC2EPv
109:   FUNC GLOBAL DEFAULT 14 _ZN7android3RSC26ScriptIn
110:   FUNC GLOBAL DEFAULT 14 _ZN7android3RSC19ScriptIn
111:   FUNC GLOBAL DEFAULT 14 _ZN7android3RSC19ScriptIn
112:   FUNC GLOBAL DEFAULT 14 _ZN7android3RSC10Allocati
113:   FUNC GLOBAL DEFAULT 14 _ZN7android3RSC7BaseObjC1
114:   FUNC GLOBAL DEFAULT 14 _ZN7android3RSC7ElementD0
115:   OBJECT GLOBAL DEFAULT 18 _ZTVN7android3RSC7Element
116:   FUNC GLOBAL DEFAULT 14 _ZN7android3RSC20ScriptIn
117:   FUNC GLOBAL DEFAULT 14 _ZN7android3RSC19ScriptIn
118:   FUNC GLOBAL DEFAULT 14 _ZN7android3RSC7Element16
119:   FUNC GLOBAL DEFAULT 14 _ZN7android3RSC7Element3Y
120:   FUNC GLOBAL DEFAULT 14 _ZN7android3RSC19ScriptIn
121:   FUNC GLOBAL DEFAULT 14 _ZN7android3RSC19ScriptIn
122:   FUNC GLOBAL DEFAULT 14 _ZN7android3RSC7Sampler8g
123:   FUNC GLOBAL DEFAULT 14 _ZN7android3RSC2RSC1Ev
124:   FUNC GLOBAL DEFAULT 14 _ZN7android3RSC2RSD2Ev
125:   FUNC GLOBAL DEFAULT 14 _ZN7android3RSC19ScriptIn
126:   FUNC GLOBAL DEFAULT 14 _ZN7android3RSC19ScriptIn
127:   FUNC GLOBAL DEFAULT 14 _ZN7android3RSC7Element5I
128:   FUNC GLOBAL DEFAULT 14 _ZN7android3RSC18ScriptIn
129:   FUNC GLOBAL DEFAULT 14 _ZN7android3RSC19ScriptIn
130:   OBJECT GLOBAL DEFAULT 18 _ZTVN7android3RSC7BaseObj
131:   FUNC GLOBAL DEFAULT 14 _ZN7android3RSC7Element6S
132:   FUNC GLOBAL DEFAULT 14 _ZN7android3RSC10Allocati
133:   FUNC GLOBAL DEFAULT 14 _ZN7android3RSC7Sampler12
134:   OBJECT GLOBAL DEFAULT 22 _ZN7android3RSC2RS8dispat
135:   FUNC GLOBAL DEFAULT 14 _ZN7android3RSC7Element10
136:   FUNC GLOBAL DEFAULT 14 _ZN7android3RSC7ElementC1
137:   FUNC GLOBAL DEFAULT 14 _ZN7android3RSC20ScriptIn
138:   FUNC GLOBAL DEFAULT 14 _ZN7android3RSC19ScriptIn
139:   FUNC GLOBAL DEFAULT 14 _ZN7android3RSC19ScriptIn
140:   FUNC GLOBAL DEFAULT 14 _ZN7android3RSC7Sampler23
141:   FUNC GLOBAL DEFAULT 14 _ZN7android3RSC7SamplerC2
142:   FUNC GLOBAL DEFAULT 14 _ZN7android12renderscript
143:   FUNC GLOBAL DEFAULT 14 _ZN7android3RSC7Element17
144:   FUNC GLOBAL DEFAULT 14 _ZN7android3RSC7Element7B
145:   FUNC GLOBAL DEFAULT 14 _ZN7android3RSC19ScriptIn
146:   FUNC GLOBAL DEFAULT 14 _ZN7android3RSC7Element10
147:   FUNC GLOBAL DEFAULT 14 _ZN7android3RSC7Element7B
148:   FUNC GLOBAL DEFAULT 14 _ZN7android3RSC20ScriptIn
149:   FUNC GLOBAL DEFAULT 14 _ZN7android3RSC7BaseObjC2
150:   FUNC GLOBAL DEFAULT 14 _ZN7android3RSC7Element5F
151:   FUNC GLOBAL DEFAULT 14 _ZN7android3RSC4Type7Buil
152:   FUNC GLOBAL DEFAULT 14 _ZN7android3RSC10Allocati
153:   FUNC GLOBAL DEFAULT 14 _ZNK7android3RSC6Script6s
154:   FUNC GLOBAL DEFAULT 14 _ZN7android3RSC19ScriptIn
155:   FUNC GLOBAL DEFAULT 14 _ZN7android3RSC7Element9R
156:   FUNC GLOBAL DEFAULT 14 _ZN7android3RSC24ScriptIn
157:   OBJECT GLOBAL DEFAULT 18 _ZTVN7android3RSC18Script
158:   FUNC GLOBAL DEFAULT 14 _ZN7android3RSC19ScriptIn
159:   FUNC GLOBAL DEFAULT 14 _ZN7android3RSC19ScriptIn
160:   FUNC GLOBAL DEFAULT 14 _ZN7android3RSC10Allocati
161:   FUNC GLOBAL DEFAULT 14 _ZN7android3RSC10Allocati
162:   FUNC GLOBAL DEFAULT 14 _ZN7android3RSC24ScriptIn
163:   FUNC GLOBAL DEFAULT 14 _ZN7android3RSC19ScriptIn
164:   FUNC GLOBAL DEFAULT 14 _ZN7android3RSC10Allocati
165:   FUNC GLOBAL DEFAULT 14 _ZNK7android3RSC6Script7f
166:   FUNC GLOBAL DEFAULT 14 _ZN7android3RSC18ScriptIn
167:   FUNC GLOBAL DEFAULT 14 _ZN7android3RSC19ScriptIn
168:   FUNC GLOBAL DEFAULT 14 _ZN7android3RSC7Element3F
169:   FUNC GLOBAL DEFAULT 14 _ZN7android3RSC20ScriptIn
170:   FUNC GLOBAL DEFAULT 14 _ZN7android3RSC20ScriptIn
171:   FUNC GLOBAL DEFAULT 14 _ZN7android3RSC26ScriptIn
172:   FUNC GLOBAL DEFAULT 14 _ZN7android3RSC19ScriptIn
173:   FUNC GLOBAL DEFAULT 14 _ZN7android12renderscript
174:   OBJECT GLOBAL DEFAULT 22 _ZN7android3RSC2RS11using
175:   FUNC GLOBAL DEFAULT 14 _ZN7android3RSC7Element3U
176:   FUNC GLOBAL DEFAULT 14 _ZN7android3RSC7ElementC1
177:   FUNC GLOBAL DEFAULT 14 _ZN7android3RSC19ScriptIn
178:   FUNC GLOBAL DEFAULT 14 _ZN7android3RSC19ScriptIn
179:   FUNC GLOBAL DEFAULT 14 _ZN7android3RSC19ScriptIn
180:   FUNC GLOBAL DEFAULT 14 _ZN7android3RSC2RS6finish
181:   FUNC GLOBAL DEFAULT 14 _ZN7android3RSC7Element5I
182:   FUNC GLOBAL DEFAULT 14 _ZN7android3RSC4Type7Buil
183:   FUNC GLOBAL DEFAULT 14 _ZN7android3RSC20ScriptIn
184:   FUNC GLOBAL DEFAULT 14 _ZN7android3RSC26ScriptIn
185:   FUNC GLOBAL DEFAULT 14 _ZN7android3RSC26ScriptIn
186:   OBJECT GLOBAL DEFAULT 18 _ZTVN7android3RSC10Alloca
187:   FUNC GLOBAL DEFAULT 14 _ZN7android3RSC7ScriptCC1
188:   FUNC GLOBAL DEFAULT 14 _ZN7android3RSC19ScriptIn
189:   FUNC GLOBAL DEFAULT 14 _ZN7android3RSC7BaseObj16
190:   FUNC GLOBAL DEFAULT 14 _ZN7android3RSC7Element3F
191:   FUNC GLOBAL DEFAULT 14 _ZN7android3RSC19ScriptIn
192:   FUNC GLOBAL DEFAULT 14 _ZN7android3RSC7BaseObjD0
193:   FUNC GLOBAL DEFAULT 14 _ZN7android3RSC7Element5I
194:   FUNC GLOBAL DEFAULT 14 _ZN7android3RSC7ElementC2
195:   FUNC GLOBAL DEFAULT 14 _ZN7android3RSC10Allocati
196:   FUNC GLOBAL DEFAULT 14 _ZN7android3RSC10Allocati
197:   FUNC GLOBAL DEFAULT 14 _ZN7android3RSC19ScriptIn
198:   OBJECT WEAK DEFAULT 18 _ZTVN7android3RSC26Script
199:   FUNC GLOBAL DEFAULT 14 _ZN7android3RSC19ScriptIn
200:   FUNC GLOBAL DEFAULT 14 _ZN7android3RSC19ScriptIn
201:   FUNC GLOBAL DEFAULT 14 _ZN7android3RSC19ScriptIn
202:   FUNC GLOBAL DEFAULT 14 _ZN7android3RSC7Element5U
203:   FUNC GLOBAL DEFAULT 14 _ZN7android3RSC7Element7B
204:   FUNC GLOBAL DEFAULT 14 _ZN7android3RSC10Allocati
205:   FUNC GLOBAL DEFAULT 14 _ZN7android3RSC10Allocati
206:   FUNC GLOBAL DEFAULT 14 _ZN7android3RSC18ScriptIn
207:   FUNC GLOBAL DEFAULT 14 _ZN7android3RSC26ScriptIn
208:   FUNC GLOBAL DEFAULT 14 _ZN7android3RSC23ScriptIn
209:   FUNC GLOBAL DEFAULT 14 _ZN7android3RSC7Sampler16
210:   FUNC GLOBAL DEFAULT 14 _ZN7android3RSC7Element5U
211:   FUNC GLOBAL DEFAULT 14 _ZN7android3RSC7ScriptCC2
212:   FUNC GLOBAL DEFAULT 14 _ZN7android3RSC19ScriptIn
213:   FUNC GLOBAL DEFAULT 14 _ZN7android3RSC19ScriptIn
214:   FUNC GLOBAL DEFAULT 14 _ZN7android3RSC2RS8getErr
215:   FUNC GLOBAL DEFAULT 14 _ZN7android3RSC7Element24
216:   FUNC GLOBAL DEFAULT 14 _ZN7android3RSC7Element3I
217:   FUNC GLOBAL DEFAULT 14 _ZN7android3RSC7Element4U
218:   FUNC GLOBAL DEFAULT 14 _ZN7android3RSC7Element5F
219:   FUNC GLOBAL DEFAULT 14 _ZN7android3RSC10Allocati
220:   FUNC GLOBAL DEFAULT 14 _ZN7android3RSC19ScriptIn
221:   FUNC GLOBAL DEFAULT 14 _ZN7android12renderscript
222:   FUNC GLOBAL DEFAULT 14 _ZNK7android3RSC7BaseObj5
223:   FUNC GLOBAL DEFAULT 14 _ZN7android3RSC18ScriptIn
224:   FUNC GLOBAL DEFAULT 14 _ZN7android3RSC20ScriptIn
225:   FUNC GLOBAL DEFAULT 14 _ZN7android3RSC21ScriptIn
226:   FUNC GLOBAL DEFAULT 14 _ZN7android3RSC26ScriptIn
227:   FUNC GLOBAL DEFAULT 14 _ZN7android3RSC19ScriptIn
228:   FUNC GLOBAL DEFAULT 14 _ZN7android3RSC19ScriptIn
229:   FUNC GLOBAL DEFAULT 14 _ZN7android3RSC7Sampler12
230:   FUNC GLOBAL DEFAULT 14 _ZN7android3RSC7ElementC1
231:   FUNC GLOBAL DEFAULT 14 _ZNK7android3RSC6Script14
232:   FUNC GLOBAL DEFAULT 14 _ZN7android3RSC15ScriptIn
233:   OBJECT WEAK DEFAULT 18 _ZTVN7android3RSC23Script
234:   FUNC GLOBAL DEFAULT 14 _ZN7android3RSC19ScriptIn
235:   FUNC GLOBAL DEFAULT 14 _ZN7android3RSC19ScriptIn
236:   FUNC GLOBAL DEFAULT 14 _ZN7android3RSC19ScriptIn
237:   FUNC GLOBAL DEFAULT 14 _ZN7android3RSC19ScriptIn
238:   FUNC GLOBAL DEFAULT 14 _ZN7android3RSC7Sampler13
239:   FUNC GLOBAL DEFAULT 14 _ZN7android3RSC7Element7B
240:   FUNC GLOBAL DEFAULT 14 _ZN7android3RSC7Element5I
241:   FUNC GLOBAL DEFAULT 14 _ZN7android3RSC10Allocati
242:   FUNC GLOBAL DEFAULT 14 _ZN7android3RSC19ScriptIn
243:   FUNC GLOBAL DEFAULT 14 _ZN7android3RSC7Element10
244:   FUNC GLOBAL DEFAULT 14 _ZN7android3RSC7Element2U
245:   FUNC GLOBAL DEFAULT 14 _ZN7android3RSC7Element5I
246:   FUNC GLOBAL DEFAULT 14 _ZN7android3RSC7Element5U
247:   FUNC GLOBAL DEFAULT 14 _ZN7android3RSC18ScriptIn
248:   FUNC GLOBAL DEFAULT 14 _ZN7android3RSC24ScriptIn
249:   FUNC GLOBAL DEFAULT 14 _ZN7android3RSC19ScriptIn
250:   FUNC GLOBAL DEFAULT 14 _ZN7android3RSC7Element10
251:   FUNC GLOBAL DEFAULT 14 _ZN7android3RSC7ElementD2
252:   FUNC GLOBAL DEFAULT 14 _ZNK7android3RSC10Allocat
253:   OBJECT WEAK DEFAULT 18 _ZTVN7android3RSC6ScriptE
254:   FUNC GLOBAL DEFAULT 14 _ZN7android3RSC2RSD1Ev
255:   FUNC GLOBAL DEFAULT 14 _ZN7android3RSC10Allocati
256:   FUNC GLOBAL DEFAULT 14 _ZN7android3RSC20ScriptIn
257:   FUNC GLOBAL DEFAULT 14 _ZN7android3RSC26ScriptIn
258:   FUNC GLOBAL DEFAULT 14 _ZN7android3RSC19ScriptIn
259:   FUNC GLOBAL DEFAULT 14 _ZN7android3RSC7Sampler22
260:   FUNC GLOBAL DEFAULT 14 _ZN7android3RSC7Element5U
261:   FUNC GLOBAL DEFAULT 14 _ZN7android3RSC10Allocati
262:   OBJECT WEAK DEFAULT 18 _ZTVN7android3RSC19Script
263:   FUNC GLOBAL DEFAULT 14 _ZN7android3RSC19ScriptIn
264:   FUNC GLOBAL DEFAULT 14 _ZN7android3RSC19ScriptIn
265:   FUNC GLOBAL DEFAULT 14 _ZN7android3RSC19ScriptIn
266:   FUNC GLOBAL DEFAULT 14 _ZN7android3RSC7Element4U
267:   FUNC GLOBAL DEFAULT 14 _ZN7android3RSC4Type7Buil
268:   FUNC GLOBAL DEFAULT 14 _ZN7android3RSC4TypeC1EPv
269:   FUNC GLOBAL DEFAULT 14 _ZN7android3RSC15ScriptIn
270:   FUNC GLOBAL DEFAULT 14 _ZN7android3RSC26ScriptIn
271:   FUNC GLOBAL DEFAULT 14 _ZN7android3RSC19ScriptIn
272:   FUNC GLOBAL DEFAULT 14 _ZN7android3RSC7Element5U
273:   FUNC GLOBAL DEFAULT 14 _ZN7android3RSC20ScriptIn
274:   FUNC GLOBAL DEFAULT 14 _ZN7android3RSC24ScriptIn
275:   FUNC GLOBAL DEFAULT 14 _ZN7android3RSC19ScriptIn
276:   FUNC GLOBAL DEFAULT 14 _ZN7android3RSC19ScriptIn
277:   FUNC GLOBAL DEFAULT 14 _ZN7android3RSC24ScriptIn
278:   FUNC GLOBAL DEFAULT 14 _ZN7android3RSC19ScriptIn
279:   FUNC GLOBAL DEFAULT 14 _ZN7android3RSC19ScriptIn
280:   FUNC GLOBAL DEFAULT 14 _ZN7android3RSC19ScriptIn
281:   FUNC GLOBAL DEFAULT 14 _ZN7android3RSC7Element22
282:   FUNC GLOBAL DEFAULT 14 _ZN7android3RSC7Element4I
283:   FUNC GLOBAL DEFAULT 14 _ZN7android3RSC7Element7R
284:   FUNC GLOBAL DEFAULT 14 _ZN7android3RSC10Allocati
285:   FUNC GLOBAL DEFAULT 14 _ZN7android3RSC26ScriptIn
286:   FUNC GLOBAL DEFAULT 14 _ZN7android3RSC7Sampler13
287:   FUNC GLOBAL DEFAULT 14 _ZN7android3RSC4Type16cal
288:   FUNC GLOBAL DEFAULT 14 _ZN7android3RSC10Allocati
289:   FUNC GLOBAL DEFAULT 14 _ZN7android3RSC10Allocati
290:   FUNC GLOBAL DEFAULT 14 _ZN7android3RSC26ScriptIn
291:   FUNC GLOBAL DEFAULT 14 _ZN7android3RSC2RS15setEr
292:   FUNC GLOBAL DEFAULT 14 _ZN7android3RSC10Allocati
293:   FUNC GLOBAL DEFAULT 14 _ZN7android3RSC20ScriptIn
294:   FUNC GLOBAL DEFAULT 14 _ZN7android3RSC19ScriptIn
295:   FUNC GLOBAL DEFAULT 14 _ZN7android3RSC19ScriptIn
296:   FUNC GLOBAL DEFAULT 14 _ZN7android3RSC19ScriptIn
297:   FUNC GLOBAL DEFAULT 14 _ZN7android3RSC10Allocati
298:   FUNC GLOBAL DEFAULT 14 _ZN7android3RSC10Allocati
299:   FUNC GLOBAL DEFAULT 14 _ZN7android3RSC23ScriptIn
300:   FUNC GLOBAL DEFAULT 14 _ZN7android3RSC26ScriptIn
301:   FUNC GLOBAL DEFAULT 14 _ZN7android3RSC19ScriptIn
302:   FUNC GLOBAL DEFAULT 14 _ZN7android3RSC19ScriptIn
303:   FUNC GLOBAL DEFAULT 14 _ZN7android3RSC4Type7Buil
304:   FUNC GLOBAL DEFAULT 14 _ZN7android3RSC19ScriptIn
305:   FUNC GLOBAL DEFAULT 14 _ZN7android3RSC19ScriptIn
306:   FUNC GLOBAL DEFAULT 14 _ZN7android3RSC19ScriptIn
307:   FUNC GLOBAL DEFAULT 14 _ZN7android12renderscript
308:   FUNC GLOBAL DEFAULT 14 _ZN7android3RSC7Element7E
309:   FUNC GLOBAL DEFAULT 14 _ZN7android3RSC19ScriptIn
310:   FUNC GLOBAL DEFAULT 14 _ZN7android3RSC19ScriptIn
311:   FUNC GLOBAL DEFAULT 14 _ZN7android3RSC2RS4initEP
312:   FUNC GLOBAL DEFAULT 14 _ZN7android3RSC4Type16upd
313:   FUNC GLOBAL DEFAULT 14 _ZN7android3RSC26ScriptIn
314:   FUNC GLOBAL DEFAULT 14 _ZN7android3RSC7Element5U
315:   FUNC GLOBAL DEFAULT 14 _ZN7android3RSC10Allocati
316:   FUNC GLOBAL DEFAULT 14 _ZN7android3RSC10Allocati
317:   FUNC GLOBAL DEFAULT 14 _ZN7android3RSC26ScriptIn
318:   FUNC GLOBAL DEFAULT 14 _ZN7android3RSC19ScriptIn
319:   FUNC GLOBAL DEFAULT 14 _ZN7android3RSC19ScriptIn
320:   OBJECT GLOBAL DEFAULT 18 _ZTVN7android3RSC2RSE
321:   FUNC GLOBAL DEFAULT 14 _ZN7android3RSC4Type7Buil
322:   FUNC GLOBAL DEFAULT 14 _ZN7android3RSC10Allocati
323:   FUNC GLOBAL DEFAULT 14 _ZN7android3RSC10Allocati
324:   FUNC GLOBAL DEFAULT 14 _ZN7android3RSC18ScriptIn
325:   FUNC GLOBAL DEFAULT 14 _ZN7android3RSC19ScriptIn
326:   FUNC GLOBAL DEFAULT 14 _ZN7android3RSC7Element4I
327:   FUNC GLOBAL DEFAULT 14 _ZNK7android3RSC7Element1
328:   FUNC GLOBAL DEFAULT 14 _ZN7android3RSC23ScriptIn
329:   OBJECT WEAK DEFAULT 18 _ZTVN7android3RSC26Script
330:   FUNC GLOBAL DEFAULT 14 _ZN7android3RSC7Sampler6c
331:   FUNC GLOBAL DEFAULT 14 _ZN7android3RSC7Element7R
332:   FUNC GLOBAL DEFAULT 14 _ZN7android3RSC10Allocati
333:   FUNC GLOBAL DEFAULT 14 _ZN7android3RSC7Element3U
334:   FUNC GLOBAL DEFAULT 14 _ZN7android3RSC20ScriptIn
335:   FUNC GLOBAL DEFAULT 14 _ZN7android3RSC6ScriptC1E
336:   FUNC GLOBAL DEFAULT 14 _ZN7android3RSC19ScriptIn
337:   FUNC GLOBAL DEFAULT 14 _ZN7android3RSC7Sampler15
338:   FUNC GLOBAL DEFAULT 14 _ZN7android3RSC2RS10threa
339:   FUNC GLOBAL DEFAULT 14 _ZN7android3RSC7Element7B
340:   FUNC GLOBAL DEFAULT 14 _ZN7android3RSC19ScriptIn
341:   FUNC GLOBAL DEFAULT 14 _ZN7android3RSC19ScriptIn
342:   FUNC GLOBAL DEFAULT 14 _ZN7android3RSC19ScriptIn
343:   FUNC GLOBAL DEFAULT 14 _ZN7android3RSC7BaseObjD2
344:   FUNC GLOBAL DEFAULT 14 _ZN7android3RSC7Element5F
345:   FUNC GLOBAL DEFAULT 14 _ZN7android3RSC19ScriptIn
346:   FUNC GLOBAL DEFAULT 14 _ZN7android3RSC19ScriptIn
347:   FUNC GLOBAL DEFAULT 14 _ZN7android3RSC19ScriptIn
348:   FUNC GLOBAL DEFAULT 14 _ZN7android3RSC19ScriptIn
349:   FUNC GLOBAL DEFAULT 14 _ZN7android3RSC10Allocati
350:   FUNC GLOBAL DEFAULT 14 _ZN7android3RSC20ScriptIn
351:   FUNC GLOBAL DEFAULT 14 _ZN7android3RSC7Element3U
352:   FUNC GLOBAL DEFAULT 14 _ZN7android3RSC21ScriptIn
353:   FUNC GLOBAL DEFAULT 14 _ZN7android3RSC19ScriptIn
354:   FUNC GLOBAL DEFAULT 14 _ZN7android3RSC10Allocati
355:   OBJECT WEAK DEFAULT 18 _ZTVN7android3RSC20Script
356:   FUNC GLOBAL DEFAULT 14 _ZN7android3RSC7Element7S
357:   FUNC GLOBAL DEFAULT 14 _ZN7android3RSC10Allocati
358:   FUNC GLOBAL DEFAULT 14 _ZN7android3RSC19ScriptIn
359:   FUNC GLOBAL DEFAULT 14 _ZN7android3RSC19ScriptIn
360:   FUNC GLOBAL DEFAULT 14 _ZN7android3RSC19ScriptIn
361:   FUNC GLOBAL DEFAULT 14 _ZN7android3RSC15ScriptIn
362:   FUNC GLOBAL DEFAULT 14 _ZN7android3RSC26ScriptIn
363:   FUNC GLOBAL DEFAULT 14 _ZN7android3RSC19ScriptIn
364:   FUNC GLOBAL DEFAULT 14 _ZN7android3RSC7Element24
365:   FUNC GLOBAL DEFAULT 14 _ZN7android3RSC18ScriptIn
366:   FUNC GLOBAL DEFAULT 14 _ZN7android3RSC18ScriptIn
367:   FUNC GLOBAL DEFAULT 14 _Z11loadSymbolsPvR13dispa
368:   FUNC GLOBAL DEFAULT 14 _ZN7android3RSC7Element3I
369:   FUNC GLOBAL DEFAULT 14 _ZN7android3RSC7Element5U
370:   FUNC GLOBAL DEFAULT 14 _ZN7android3RSC18ScriptIn
371:   FUNC GLOBAL DEFAULT 14 _ZN7android3RSC20ScriptIn
372:   FUNC GLOBAL DEFAULT 14 _ZN7android3RSC19ScriptIn
373:   FUNC GLOBAL DEFAULT 14 _ZN7android3RSC7Element13
374:   FUNC GLOBAL DEFAULT 14 _ZN7android3RSC19ScriptIn
375:   FUNC GLOBAL DEFAULT 14 _ZN7android3RSC19ScriptIn
376:   FUNC GLOBAL DEFAULT 14 _ZN7android3RSC7SamplerC1
377:   FUNC GLOBAL DEFAULT 14 _ZN7android3RSC6ScriptC2E
378:   FUNC GLOBAL DEFAULT 14 _ZN7android3RSC7Sampler11
379:   FUNC GLOBAL DEFAULT 14 _ZN7android3RSC7Element5U
380:   FUNC GLOBAL DEFAULT 14 _ZN7android3RSC10Allocati
381:   FUNC GLOBAL DEFAULT 14 _ZN7android3RSC15ScriptIn
382:   FUNC GLOBAL DEFAULT 14 _ZN7android3RSC7Element4U
383:   FUNC GLOBAL DEFAULT 14 _ZN7android3RSC7Element5F
384:   FUNC GLOBAL DEFAULT 14 _ZN7android3RSC7ElementD1
385:   FUNC GLOBAL DEFAULT 14 _ZN7android3RSC20ScriptIn
386:   FUNC GLOBAL DEFAULT 14 _ZN7android3RSC7Sampler23
387:   FUNC GLOBAL DEFAULT 14 _ZN7android3RSC2RSD0Ev
388:   FUNC GLOBAL DEFAULT 14 _ZN7android3RSC7Element3I
389:   FUNC GLOBAL DEFAULT 14 _ZN7android3RSC10Allocati
390:   FUNC GLOBAL DEFAULT 14 _ZNK7android3RSC6Script6s
391:   FUNC GLOBAL DEFAULT 14 _ZN7android3RSC20ScriptIn
392:   FUNC GLOBAL DEFAULT 14 _ZN7android3RSC26ScriptIn
393:   FUNC GLOBAL DEFAULT 14 _ZN7android3RSC26ScriptIn
394:   OBJECT WEAK DEFAULT 18 _ZTVN7android3RSC20Script
395:   FUNC GLOBAL DEFAULT 14 _ZN7android3RSC7Element7B
396:   FUNC GLOBAL DEFAULT 14 _ZN7android3RSC7Element5F
397:   FUNC GLOBAL DEFAULT 14 _ZN7android3RSC10Allocati
398:   FUNC GLOBAL DEFAULT 14 _ZN7android3RSC7Sampler8g
399:   FUNC GLOBAL DEFAULT 14 _Z14loadIOSuppSymsPvR8ioS
400:   FUNC GLOBAL DEFAULT 14 _ZN7android3RSC2RSC2Ev
401:   FUNC GLOBAL DEFAULT 14 _ZN7android3RSC7Element10
402:   FUNC GLOBAL DEFAULT 14 _ZN7android3RSC4Type6crea
403:   FUNC GLOBAL DEFAULT 14 _ZN7android3RSC24ScriptIn
404:   FUNC GLOBAL DEFAULT 14 _ZN7android3RSC26ScriptIn
405:   FUNC GLOBAL DEFAULT 14 _ZN7android3RSC26ScriptIn
406:   FUNC GLOBAL DEFAULT 14 _ZN7android3RSC7Element5F
407:   FUNC GLOBAL DEFAULT 14 _ZN7android3RSC10Allocati
408:   FUNC GLOBAL DEFAULT 14 _ZN7android3RSC19ScriptIn
409:   FUNC GLOBAL DEFAULT 14 _ZN7android3RSC19ScriptIn
410:   FUNC GLOBAL DEFAULT 14 _ZN7android3RSC7Element11
411:   FUNC GLOBAL DEFAULT 14 _ZN7android3RSC20ScriptIn
412:   FUNC GLOBAL DEFAULT 14 _ZN7android3RSC20ScriptIn
413:   FUNC GLOBAL DEFAULT 14 _ZN7android3RSC21ScriptIn
414:   FUNC GLOBAL DEFAULT 14 _ZN7android3RSC26ScriptIn
415:   FUNC GLOBAL DEFAULT 14 _ZN7android3RSC2RS10throw
416:   FUNC GLOBAL DEFAULT 14 _ZN7android3RSC7Element3A
417:   FUNC GLOBAL DEFAULT 14 _ZN7android3RSC7ElementC2
418:   FUNC GLOBAL DEFAULT 14 _ZN7android3RSC19ScriptIn
419:   FUNC GLOBAL DEFAULT 14 _ZN7android3RSC20ScriptIn
420:   FUNC GLOBAL DEFAULT 14 _ZN7android3RSC26ScriptIn
421:   OBJECT WEAK DEFAULT 18 _ZTVN7android3RSC24Script
422:   FUNC GLOBAL DEFAULT 14 _ZN7android3RSC7SamplerC2
423:   FUNC GLOBAL DEFAULT 14 _ZN7android3RSC24ScriptIn
424:   FUNC GLOBAL DEFAULT 14 _ZN7android3RSC19ScriptIn
425:   FUNC GLOBAL DEFAULT 14 _ZN7android3RSC7BaseObj8g
426:   FUNC GLOBAL DEFAULT 14 _ZN7android3RSC7ElementC2
427:   FUNC GLOBAL DEFAULT 14 _ZN7android3RSC20ScriptIn
428:   FUNC GLOBAL DEFAULT 14 _ZN7android3RSC7Element5I
429:   FUNC GLOBAL DEFAULT 14 _ZN7android3RSC19ScriptIn
430:   FUNC GLOBAL DEFAULT 14 _ZN7android3RSC19ScriptIn
431:   FUNC GLOBAL DEFAULT 14 _ZN7android3RSC7Element3F
432:   FUNC GLOBAL DEFAULT 14 _ZN7android3RSC7Element5U
433:   FUNC GLOBAL DEFAULT 14 _ZN7android3RSC19ScriptIn
434:   FUNC GLOBAL DEFAULT 14 _ZN7android3RSC19ScriptIn
435:   FUNC GLOBAL DEFAULT 14 _ZN7android3RSC7Element4I
436:   FUNC GLOBAL DEFAULT 14 _ZN7android3RSC7Element5F
437:   FUNC GLOBAL DEFAULT 14 _ZN7android3RSC6Script9Fi
438:   FUNC GLOBAL DEFAULT 14 _ZN7android3RSC18ScriptIn
439:   FUNC GLOBAL DEFAULT 14 _ZN7android3RSC21ScriptIn
440:   FUNC GLOBAL DEFAULT 14 _ZN7android3RSC19ScriptIn
441:   FUNC GLOBAL DEFAULT 14 _ZN7android3RSC19ScriptIn
442:   OBJECT WEAK DEFAULT 18 _ZTVN7android3RSC19Script
443:   FUNC GLOBAL DEFAULT 14 _ZN7android3RSC19ScriptIn
444:   FUNC GLOBAL DEFAULT 14 _ZN7android3RSC19ScriptIn
