 0x000000000000000e (SONAME)             Library soname: [android.hardware.wifi.hostapd@1.0.so]
  
Symbol   contains 240 entries:
Num:   Type Bind Vis Ndx Name
0:   NOTYPE LOCAL DEFAULT UND
1:   FUNC GLOBAL DEFAULT UND __cxa_finalize@LIBC (2)
2:   FUNC GLOBAL DEFAULT UND _ZN7android14sp_report_ra
3:   FUNC GLOBAL DEFAULT UND _ZN7android21report_syspr
4:   OBJECT GLOBAL DEFAULT UND _ZN7android4hidl4base4V1_
5:   FUNC GLOBAL DEFAULT UND _ZN7android4hidl4base4V1_
6:   FUNC GLOBAL DEFAULT UND _ZN7android4hidl4base4V1_
7:   FUNC GLOBAL DEFAULT UND _ZN7android4hidl4base4V1_
8:   FUNC GLOBAL DEFAULT UND _ZN7android4hidl4base4V1_
9:   FUNC GLOBAL DEFAULT UND _ZN7android4hidl4base4V1_
10:   FUNC GLOBAL DEFAULT UND _ZN7android4hidl4base4V1_
11:   FUNC GLOBAL DEFAULT UND _ZN7android4hidl4base4V1_
12:   FUNC GLOBAL DEFAULT UND _ZN7android4hidl4base4V1_
13:   FUNC GLOBAL DEFAULT UND _ZN7android4hidl4base4V1_
14:   FUNC GLOBAL DEFAULT UND _ZN7android4hidl4base4V1_
15:   FUNC GLOBAL DEFAULT UND _ZN7android4hidl4base4V1_
16:   FUNC GLOBAL DEFAULT UND _ZN7android4hidl4base4V1_
17:   FUNC GLOBAL DEFAULT UND _ZN7android4hidl4base4V1_
18:   FUNC GLOBAL DEFAULT UND _ZN7android4hidl4base4V1_
19:   FUNC GLOBAL DEFAULT UND _ZN7android4hidl4base4V1_
20:   FUNC GLOBAL DEFAULT UND _ZN7android4hidl4base4V1_
21:   FUNC GLOBAL DEFAULT UND _ZN7android4hidl4base4V1_
22:   FUNC GLOBAL DEFAULT UND _ZN7android4hidl4base4V1_
23:   FUNC GLOBAL DEFAULT UND _ZN7android4hidl4base4V1_
24:   FUNC GLOBAL DEFAULT UND _ZN7android4hidl4base4V1_
25:   FUNC GLOBAL DEFAULT UND _ZN7android4hidl4base4V1_
26:   FUNC GLOBAL DEFAULT UND _ZN7android4hidl4base4V1_
27:   FUNC GLOBAL DEFAULT UND _ZN7android4hidl4base4V1_
28:   FUNC GLOBAL DEFAULT UND _ZN7android7RefBase10onFi
29:   FUNC GLOBAL DEFAULT UND _ZN7android7RefBase12weak
30:   FUNC GLOBAL DEFAULT UND _ZN7android7RefBase13onLa
31:   FUNC GLOBAL DEFAULT UND _ZN7android7RefBase15onLa
32:   FUNC GLOBAL DEFAULT UND _ZN7android7RefBase20onIn
33:   FUNC GLOBAL DEFAULT UND _ZN7android7RefBaseC2Ev
34:   FUNC GLOBAL DEFAULT UND _ZN7android7RefBaseD2Ev
35:   FUNC GLOBAL DEFAULT UND _ZN7android8hardware10IIn
36:   FUNC GLOBAL DEFAULT UND _ZN7android8hardware10IIn
37:   FUNC GLOBAL DEFAULT UND _ZN7android8hardware10IIn
38:   FUNC GLOBAL DEFAULT UND _ZN7android8hardware10IIn
39:   FUNC GLOBAL DEFAULT UND _ZN7android8hardware10IIn
40:   FUNC GLOBAL DEFAULT UND _ZN7android8hardware11BpH
41:   FUNC GLOBAL DEFAULT UND _ZN7android8hardware11BpH
42:   FUNC GLOBAL DEFAULT UND _ZN7android8hardware11BpH
43:   FUNC GLOBAL DEFAULT UND _ZN7android8hardware11BpH
44:   FUNC GLOBAL DEFAULT UND _ZN7android8hardware11BpH
45:   FUNC GLOBAL DEFAULT UND _ZN7android8hardware11BpH
46:   FUNC GLOBAL DEFAULT UND _ZN7android8hardware11BpH
47:   FUNC GLOBAL DEFAULT UND _ZN7android8hardware11hid
48:   FUNC GLOBAL DEFAULT UND _ZN7android8hardware11hid
49:   FUNC GLOBAL DEFAULT UND _ZN7android8hardware11hid
50:   FUNC GLOBAL DEFAULT UND _ZN7android8hardware11hid
51:   FUNC GLOBAL DEFAULT UND _ZN7android8hardware11hid
52:   FUNC GLOBAL DEFAULT UND _ZN7android8hardware12Pro
53:   FUNC GLOBAL DEFAULT UND _ZN7android8hardware12Pro
54:   FUNC GLOBAL DEFAULT UND _ZN7android8hardware13wri
55:   FUNC GLOBAL DEFAULT UND _ZN7android8hardware14rea
56:   FUNC GLOBAL DEFAULT UND _ZN7android8hardware21def
57:   FUNC GLOBAL DEFAULT UND _ZN7android8hardware21wri
58:   FUNC GLOBAL DEFAULT UND _ZN7android8hardware22rea
59:   FUNC GLOBAL DEFAULT UND _ZN7android8hardware23get
60:   FUNC GLOBAL DEFAULT UND _ZN7android8hardware27hid
61:   FUNC GLOBAL DEFAULT UND _ZN7android8hardware27hid
62:   FUNC GLOBAL DEFAULT UND _ZN7android8hardware6Parc
63:   FUNC GLOBAL DEFAULT UND _ZN7android8hardware6Parc
64:   FUNC GLOBAL DEFAULT UND _ZN7android8hardware6Parc
65:   FUNC GLOBAL DEFAULT UND _ZN7android8hardware6Parc
66:   FUNC GLOBAL DEFAULT UND _ZN7android8hardware6Parc
67:   FUNC GLOBAL DEFAULT UND _ZN7android8hardware6Stat
68:   FUNC GLOBAL DEFAULT UND _ZN7android8hardware6Stat
69:   FUNC GLOBAL DEFAULT UND _ZN7android8hardware6Stat
70:   FUNC GLOBAL DEFAULT UND _ZN7android8hardware6Stat
71:   FUNC GLOBAL DEFAULT UND _ZN7android8hardware7IBin
72:   FUNC GLOBAL DEFAULT UND _ZN7android8hardware7IBin
73:   FUNC GLOBAL DEFAULT UND _ZN7android8hardware7IBin
74:   FUNC GLOBAL DEFAULT UND _ZN7android8hardware7IBin
75:   FUNC GLOBAL DEFAULT UND _ZN7android8hardware7deta
76:   FUNC GLOBAL DEFAULT UND _ZN7android8hardware7deta
77:   FUNC GLOBAL DEFAULT UND _ZN7android8hardware7deta
78:   FUNC GLOBAL DEFAULT UND _ZN7android8hardware7deta
79:   FUNC GLOBAL DEFAULT UND _ZN7android8hardware7deta
80:   FUNC GLOBAL DEFAULT UND _ZN7android8hardware7deta
81:   FUNC GLOBAL DEFAULT UND _ZN7android8hardware7deta
82:   OBJECT GLOBAL DEFAULT UND _ZN7android8hardware7deta
83:   FUNC GLOBAL DEFAULT UND _ZN7android8hardware7deta
84:   OBJECT GLOBAL DEFAULT UND _ZN7android8hardware7deta
85:   FUNC GLOBAL DEFAULT UND _ZN7android8hardware7deta
86:   FUNC GLOBAL DEFAULT UND _ZN7android8hardware7deta
87:   FUNC GLOBAL DEFAULT UND _ZN7android8hardware7deta
88:   FUNC GLOBAL DEFAULT UND _ZN7android8hardware7deta
89:   FUNC GLOBAL DEFAULT UND _ZN7android8hardware7deta
90:   FUNC GLOBAL DEFAULT UND _ZN7android8hardware7deta
91:   FUNC GLOBAL DEFAULT UND _ZN7android8hardware7deta
92:   FUNC GLOBAL DEFAULT UND _ZN7android8hardware7deta
93:   FUNC GLOBAL DEFAULT UND _ZN7android8hardware7deta
94:   OBJECT GLOBAL DEFAULT UND _ZN7android8hardware7deta
95:   FUNC GLOBAL DEFAULT UND _ZN7android8hardware9BHwB
96:   FUNC GLOBAL DEFAULT UND _ZN7android8hardware9BHwB
97:   FUNC GLOBAL DEFAULT UND _ZN7android8hardware9BHwB
98:   FUNC GLOBAL DEFAULT UND _ZN7android8hardware9BHwB
99:   FUNC GLOBAL DEFAULT UND _ZN7android8hardware9BHwB
100:   FUNC GLOBAL DEFAULT UND _ZN7android8hardware9BHwB
101:   FUNC GLOBAL DEFAULT UND _ZN7android8hardware9BHwB
102:   FUNC GLOBAL DEFAULT UND _ZN7android8hardware9BHwB
103:   FUNC GLOBAL DEFAULT UND _ZN7android8hardware9BHwB
104:   FUNC GLOBAL DEFAULT UND _ZN7android8hardware9BHwB
105:   FUNC GLOBAL DEFAULT UND _ZNK7android7RefBase10cre
106:   FUNC GLOBAL DEFAULT UND _ZNK7android7RefBase11get
107:   FUNC GLOBAL DEFAULT UND _ZNK7android7RefBase9decS
108:   FUNC GLOBAL DEFAULT UND _ZNK7android7RefBase9incS
109:   FUNC GLOBAL DEFAULT UND _ZNK7android8hardware6Par
110:   FUNC GLOBAL DEFAULT UND _ZNK7android8hardware6Par
111:   FUNC GLOBAL DEFAULT UND _ZNK7android8hardware6Par
112:   FUNC GLOBAL DEFAULT UND _ZNK7android8hardware7IBi
113:   FUNC GLOBAL DEFAULT UND _ZNK7android8hardware7det
114:   FUNC GLOBAL DEFAULT UND _ZNK7android8hardware9BHw
115:   FUNC GLOBAL DEFAULT UND _ZNKSt3__120__vector_base
116:   FUNC GLOBAL DEFAULT UND _ZNKSt3__121__basic_strin
117:   FUNC GLOBAL DEFAULT UND _ZNSt3__112basic_stringIc
118:   FUNC GLOBAL DEFAULT UND _ZNSt3__15mutex4lockEv
119:   FUNC GLOBAL DEFAULT UND _ZNSt3__15mutex6unlockEv
120:   FUNC GLOBAL DEFAULT UND _ZNSt3__15mutexD1Ev
121:   FUNC GLOBAL DEFAULT UND _ZTv0_n24_N7android4hidl4
122:   FUNC GLOBAL DEFAULT UND _ZTv0_n24_N7android4hidl4
123:   FUNC GLOBAL DEFAULT UND _ZTv0_n24_N7android8hardw
124:   FUNC GLOBAL DEFAULT UND _ZTv0_n24_N7android8hardw
125:   FUNC GLOBAL DEFAULT UND _ZTv0_n24_N7android8hardw
126:   FUNC GLOBAL DEFAULT UND _ZTv0_n24_N7android8hardw
127:   FUNC GLOBAL DEFAULT UND _ZTv0_n24_N7android8hardw
128:   FUNC GLOBAL DEFAULT UND _ZTv0_n24_N7android8hardw
129:   FUNC GLOBAL DEFAULT UND _ZTv0_n24_N7android8hardw
130:   FUNC GLOBAL DEFAULT UND _ZTv0_n24_N7android8hardw
131:   FUNC GLOBAL DEFAULT UND _ZTv0_n32_N7android8hardw
132:   FUNC GLOBAL DEFAULT UND _ZTv0_n40_N7android8hardw
133:   FUNC GLOBAL DEFAULT UND _ZTv0_n48_N7android8hardw
134:   FUNC GLOBAL DEFAULT UND _ZdaPv
135:   FUNC GLOBAL DEFAULT UND _ZdlPv
136:   FUNC GLOBAL DEFAULT UND _Znam
137:   FUNC GLOBAL DEFAULT UND _Znwm
138:   FUNC GLOBAL DEFAULT UND __android_log_assert@LIBLOG (3)
139:   FUNC GLOBAL DEFAULT UND __cxa_pure_virtual
140:   FUNC GLOBAL DEFAULT UND __stack_chk_fail@LIBC (2)
141:   FUNC GLOBAL DEFAULT UND abort@LIBC (2)
142:   FUNC GLOBAL DEFAULT UND atrace_begin_body
143:   OBJECT GLOBAL DEFAULT UND atrace_enabled_tags
144:   FUNC GLOBAL DEFAULT UND atrace_end_body
145:   OBJECT GLOBAL DEFAULT UND atrace_is_ready
146:   FUNC GLOBAL DEFAULT UND atrace_setup
147:   FUNC GLOBAL DEFAULT UND memcmp@LIBC (2)
148:   FUNC GLOBAL DEFAULT UND memcpy@LIBC (2)
149:   FUNC GLOBAL DEFAULT UND memset@LIBC (2)
150:   FUNC GLOBAL DEFAULT UND strlen@LIBC (2)
151:   FUNC GLOBAL DEFAULT 14 _ZN7android8hardware4wifi
152:   FUNC GLOBAL DEFAULT 14 _ZN7android8hardware4wifi
153:   FUNC GLOBAL DEFAULT 14 _ZN7android8hardware4wifi
154:   FUNC GLOBAL DEFAULT 14 _ZN7android8hardware4wifi
155:   FUNC GLOBAL DEFAULT 14 _ZN7android8hardware4wifi
156:   FUNC GLOBAL DEFAULT 14 _ZN7android8hardware4wifi
157:   FUNC GLOBAL DEFAULT 14 _ZN7android8hardware4wifi
158:   FUNC GLOBAL DEFAULT 14 _ZN7android8hardware4wifi
159:   FUNC GLOBAL DEFAULT 14 _ZN7android8hardware4wifi
160:   FUNC GLOBAL DEFAULT 14 _ZN7android8hardware4wifi
161:   FUNC GLOBAL DEFAULT 14 _ZN7android8hardware4wifi
162:   OBJECT GLOBAL DEFAULT 16 _ZN7android8hardware4wifi
163:   FUNC GLOBAL DEFAULT 14 _ZN7android8hardware4wifi
164:   FUNC GLOBAL DEFAULT 14 _ZN7android8hardware4wifi
165:   FUNC GLOBAL DEFAULT 14 _ZN7android8hardware4wifi
166:   FUNC WEAK DEFAULT 14 _ZNSt3__16vectorIN7androi
167:   OBJECT GLOBAL DEFAULT 18 _ZTCN7android8hardware4wi
168:   OBJECT GLOBAL DEFAULT 18 _ZTCN7android8hardware4wi
169:   FUNC GLOBAL DEFAULT 14 _ZN7android8hardware4wifi
170:   FUNC GLOBAL DEFAULT 14 _ZN7android8hardware4wifi
171:   FUNC GLOBAL DEFAULT 14 _ZN7android8hardware4wifi
172:   OBJECT GLOBAL DEFAULT 18 _ZTCN7android8hardware4wi
173:   FUNC GLOBAL DEFAULT 14 _ZTv0_n24_N7android8hardw
174:   FUNC GLOBAL DEFAULT 14 _ZN7android8hardware4wifi
175:   FUNC GLOBAL DEFAULT 14 _ZN7android8hardware4wifi
176:   FUNC WEAK DEFAULT 14 _ZNSt3__16vectorIPvNS_9al
177:   FUNC GLOBAL DEFAULT 14 _ZN7android8hardware4wifi
178:   FUNC GLOBAL DEFAULT 14 _ZN7android8hardware4wifi
179:   FUNC GLOBAL DEFAULT 14 _ZN7android8hardware4wifi
180:   FUNC GLOBAL DEFAULT 14 _ZN7android8hardware4wifi
181:   FUNC WEAK DEFAULT 14 _ZNSt3__16__treeINS_12__v
182:   FUNC GLOBAL DEFAULT 14 _ZThn32_N7android8hardwar
183:   FUNC GLOBAL DEFAULT 14 _ZN7android8hardware4wifi
184:   FUNC GLOBAL DEFAULT 14 _ZN7android8hardware4wifi
185:   FUNC GLOBAL DEFAULT 14 _ZN7android8hardware4wifi
186:   FUNC GLOBAL DEFAULT 14 _ZN7android8hardware4wifi
187:   FUNC GLOBAL DEFAULT 14 _ZN7android8hardware4wifi
188:   FUNC WEAK DEFAULT 14 _ZN7android8hardware7deta
189:   FUNC WEAK DEFAULT 14 _ZNSt3__16__treeINS_12__v
190:   FUNC GLOBAL DEFAULT 14 _ZN7android8hardware4wifi
191:   FUNC GLOBAL DEFAULT 14 _ZN7android8hardware4wifi
192:   FUNC GLOBAL DEFAULT 14 _ZN7android8hardware4wifi
193:   FUNC GLOBAL DEFAULT 14 _ZN7android8hardware4wifi
194:   FUNC WEAK DEFAULT 14 _ZNSt3__16vectorINS_8func
195:   FUNC GLOBAL DEFAULT 14 _ZN7android8hardware4wifi
196:   FUNC GLOBAL DEFAULT 14 _ZN7android8hardware4wifi
197:   FUNC WEAK DEFAULT 14 _ZN7android8hardware7deta
198:   FUNC GLOBAL DEFAULT 14 _ZN7android8hardware4wifi
199:   FUNC WEAK DEFAULT 14 _ZNSt3__16__treeINS_12__v
200:   OBJECT WEAK DEFAULT 18 _ZTCN7android8hardware4wi
201:   FUNC GLOBAL DEFAULT 14 _ZN7android8hardware4wifi
202:   FUNC WEAK DEFAULT 14 _ZNSt3__16__treeINS_12__v
203:   FUNC WEAK DEFAULT 14 _ZNSt3__16__treeINS_12__v
204:   OBJECT GLOBAL DEFAULT 18 _ZTCN7android8hardware4wi
205:   FUNC GLOBAL DEFAULT 14 _ZN7android8hardware4wifi
206:   FUNC GLOBAL DEFAULT 14 _ZN7android8hardware4wifi
207:   FUNC GLOBAL DEFAULT 14 _ZN7android8hardware4wifi
208:   OBJECT GLOBAL DEFAULT 18 _ZTCN7android8hardware4wi
209:   FUNC GLOBAL DEFAULT 14 _ZN7android8hardware4wifi
210:   OBJECT GLOBAL DEFAULT 18 _ZTCN7android8hardware4wi
211:   OBJECT GLOBAL DEFAULT 18 _ZTTN7android8hardware4wi
212:   OBJECT GLOBAL DEFAULT 18 _ZTTN7android8hardware4wi
213:   FUNC GLOBAL DEFAULT 14 _ZN7android8hardware4wifi
214:   OBJECT WEAK DEFAULT 18 _ZTVN7android8hardware4wi
215:   FUNC GLOBAL DEFAULT 14 _ZTv0_n24_N7android8hardw
216:   FUNC GLOBAL DEFAULT 14 _ZN7android8hardware4wifi
217:   FUNC GLOBAL DEFAULT 14 _ZN7android8hardware4wifi
218:   FUNC GLOBAL DEFAULT 14 _ZN7android8hardware4wifi
219:   FUNC GLOBAL DEFAULT 14 _ZN7android8hardware4wifi
220:   OBJECT GLOBAL DEFAULT 18 _ZTVN7android8hardware4wi
221:   FUNC GLOBAL DEFAULT 14 _ZN7android8hardware4wifi
222:   FUNC GLOBAL DEFAULT 14 _ZN7android8hardware4wifi
223:   FUNC GLOBAL DEFAULT 14 _ZN7android8hardware4wifi
224:   FUNC GLOBAL DEFAULT 14 _ZN7android8hardware4wifi
225:   FUNC WEAK DEFAULT 14 _ZNSt3__16__treeINS_12__v
226:   OBJECT GLOBAL DEFAULT 18 _ZTCN7android8hardware4wi
227:   FUNC GLOBAL DEFAULT 14 _ZThn32_N7android8hardwar
228:   FUNC GLOBAL DEFAULT 14 _ZN7android8hardware4wifi
229:   FUNC GLOBAL DEFAULT 14 _ZN7android8hardware4wifi
230:   FUNC GLOBAL DEFAULT 14 _ZN7android8hardware4wifi
231:   FUNC WEAK DEFAULT 14 _ZNSt3__127__tree_balance
232:   OBJECT GLOBAL DEFAULT 18 _ZTTN7android8hardware4wi
233:   OBJECT GLOBAL DEFAULT 18 _ZTVN7android8hardware4wi
234:   FUNC GLOBAL DEFAULT 14 _ZN7android8hardware4wifi
235:   FUNC GLOBAL DEFAULT 14 _ZN7android8hardware4wifi
236:   FUNC WEAK DEFAULT 14 _ZNSt3__113__tree_removeI
237:   OBJECT GLOBAL DEFAULT 18 _ZTCN7android8hardware4wi
238:   OBJECT GLOBAL DEFAULT 18 _ZTCN7android8hardware4wi
239:   OBJECT GLOBAL DEFAULT 18 _ZTVN7android8hardware4wi
