 0x0000000e (SONAME)                     Library soname: [libsensor.so]
  
Symbol   contains 381 entries:
Num:   Type Bind Vis Ndx Name
0:   NOTYPE LOCAL DEFAULT UND
1:   FUNC GLOBAL DEFAULT UND __cxa_atexit@LIBC (2)
2:   FUNC GLOBAL DEFAULT UND __cxa_finalize@LIBC (2)
3:   FUNC GLOBAL DEFAULT UND _ZN7android6Parcel22write
4:   FUNC GLOBAL DEFAULT UND _ZN7android7RefBase10onFi
5:   FUNC GLOBAL DEFAULT UND _ZN7android7RefBase13onLa
6:   FUNC GLOBAL DEFAULT UND _ZN7android7RefBase15onLa
7:   FUNC GLOBAL DEFAULT UND _ZN7android7RefBase20onIn
8:   FUNC GLOBAL DEFAULT UND _ZN7android7RefBaseC2Ev
9:   FUNC GLOBAL DEFAULT UND _ZN7android7RefBaseD2Ev
10:   FUNC GLOBAL DEFAULT UND _ZNK7android6Parcel18read
11:   FUNC GLOBAL DEFAULT UND _ZdlPv
12:   FUNC GLOBAL DEFAULT UND __android_log_assert@LIBLOG (3)
13:   FUNC GLOBAL DEFAULT UND __android_log_print@LIBLOG (3)
14:   FUNC GLOBAL DEFAULT UND __errno@LIBC (2)
15:   FUNC GLOBAL DEFAULT UND __stack_chk_fail@LIBC (2)
16:   OBJECT GLOBAL DEFAULT UND __stack_chk_guard@LIBC (2)
17:   FUNC GLOBAL DEFAULT UND close@LIBC (2)
18:   FUNC GLOBAL DEFAULT UND dup@LIBC (2)
19:   FUNC GLOBAL DEFAULT UND fcntl@LIBC (2)
20:   FUNC GLOBAL DEFAULT UND recvfrom@LIBC (2)
21:   FUNC GLOBAL DEFAULT UND sendto@LIBC (2)
22:   FUNC GLOBAL DEFAULT UND setsockopt@LIBC (2)
23:   FUNC GLOBAL DEFAULT UND socketpair@LIBC (2)
24:   FUNC GLOBAL DEFAULT UND strerror@LIBC (2)
25:   FUNC GLOBAL DEFAULT UND _ZN7android10IInterfaceC2
26:   FUNC GLOBAL DEFAULT UND _ZN7android10IInterfaceD0
27:   FUNC GLOBAL DEFAULT UND _ZN7android10IInterfaceD1
28:   FUNC GLOBAL DEFAULT UND _ZN7android10IInterfaceD2
29:   FUNC GLOBAL DEFAULT UND _ZN7android14sp_report_ra
30:   FUNC GLOBAL DEFAULT UND _ZN7android6Parcel10write
31:   FUNC GLOBAL DEFAULT UND _ZN7android6Parcel10write
32:   FUNC GLOBAL DEFAULT UND _ZN7android6Parcel19write
33:   FUNC GLOBAL DEFAULT UND _ZN7android6ParcelC1Ev
34:   FUNC GLOBAL DEFAULT UND _ZN7android6ParcelD1Ev
35:   FUNC GLOBAL DEFAULT UND _ZN7android7BBinder10onTr
36:   FUNC GLOBAL DEFAULT UND _ZN7android7BBinder10ping
37:   FUNC GLOBAL DEFAULT UND _ZN7android7BBinder11link
38:   FUNC GLOBAL DEFAULT UND _ZN7android7BBinder11loca
39:   FUNC GLOBAL DEFAULT UND _ZN7android7BBinder12atta
40:   FUNC GLOBAL DEFAULT UND _ZN7android7BBinder12deta
41:   FUNC GLOBAL DEFAULT UND _ZN7android7BBinder13unli
42:   FUNC GLOBAL DEFAULT UND _ZN7android7BBinder4dumpE
43:   FUNC GLOBAL DEFAULT UND _ZN7android7BBinder8trans
44:   FUNC GLOBAL DEFAULT UND _ZN7android7BBinderD0Ev
45:   FUNC GLOBAL DEFAULT UND _ZN7android7BBinderD1Ev
46:   FUNC GLOBAL DEFAULT UND _ZN7android7IBinder11loca
47:   FUNC GLOBAL DEFAULT UND _ZN7android7IBinder12remo
48:   FUNC GLOBAL DEFAULT UND _ZN7android7IBinder19quer
49:   FUNC GLOBAL DEFAULT UND _ZN7android7IBinderD0Ev
50:   FUNC GLOBAL DEFAULT UND _ZN7android7IBinderD1Ev
51:   FUNC GLOBAL DEFAULT UND _ZN7android8String16C1EPK
52:   FUNC GLOBAL DEFAULT UND _ZN7android8String16D1Ev
53:   FUNC GLOBAL DEFAULT UND _ZN7android9BpRefBase10on
54:   FUNC GLOBAL DEFAULT UND _ZN7android9BpRefBase15on
55:   FUNC GLOBAL DEFAULT UND _ZN7android9BpRefBase20on
56:   FUNC GLOBAL DEFAULT UND _ZN7android9BpRefBaseC2ER
57:   FUNC GLOBAL DEFAULT UND _ZN7android9BpRefBaseD0Ev
58:   FUNC GLOBAL DEFAULT UND _ZN7android9BpRefBaseD1Ev
59:   FUNC GLOBAL DEFAULT UND _ZN7android9BpRefBaseD2Ev
60:   FUNC GLOBAL DEFAULT UND _ZNK7android6Parcel14chec
61:   FUNC GLOBAL DEFAULT UND _ZNK7android6Parcel9readI
62:   FUNC GLOBAL DEFAULT UND _ZNK7android6Parcel9readI
63:   FUNC GLOBAL DEFAULT UND _ZNK7android7BBinder10fin
64:   FUNC GLOBAL DEFAULT UND _ZNK7android7BBinder13isB
65:   FUNC GLOBAL DEFAULT UND _ZNK7android7BBinder22get
66:   FUNC GLOBAL DEFAULT UND _ZNK7android7IBinder13che
67:   FUNC GLOBAL DEFAULT UND _ZNK7android7RefBase9decS
68:   FUNC GLOBAL DEFAULT UND _ZNK7android7RefBase9incS
69:   FUNC GLOBAL DEFAULT UND _ZNK7android8String164siz
70:   FUNC GLOBAL DEFAULT UND _ZTv0_n12_N7android10IInt
71:   FUNC GLOBAL DEFAULT UND _ZTv0_n12_N7android10IInt
72:   FUNC GLOBAL DEFAULT UND _ZTv0_n12_N7android7BBind
73:   FUNC GLOBAL DEFAULT UND _ZTv0_n12_N7android7BBind
74:   FUNC GLOBAL DEFAULT UND _ZTv0_n12_N7android7IBind
75:   FUNC GLOBAL DEFAULT UND _ZTv0_n12_N7android7IBind
76:   FUNC GLOBAL DEFAULT UND _ZTv0_n12_N7android9BpRef
77:   FUNC GLOBAL DEFAULT UND _ZTv0_n12_N7android9BpRef
78:   FUNC GLOBAL DEFAULT UND _ZTv0_n16_N7android9BpRef
79:   FUNC GLOBAL DEFAULT UND _ZTv0_n20_N7android9BpRef
80:   FUNC GLOBAL DEFAULT UND _ZTv0_n24_N7android9BpRef
81:   FUNC GLOBAL DEFAULT UND _Znwj
82:   FUNC GLOBAL DEFAULT UND __cxa_pure_virtual
83:   FUNC GLOBAL DEFAULT UND strzcmp16
84:   FUNC GLOBAL DEFAULT UND _ZN7android10IInterface8a
85:   FUNC GLOBAL DEFAULT UND _ZN7android10VectorImpl11
86:   FUNC GLOBAL DEFAULT UND _ZN7android10VectorImpl13
87:   FUNC GLOBAL DEFAULT UND _ZN7android10VectorImpl13
88:   FUNC GLOBAL DEFAULT UND _ZN7android10VectorImpl3a
89:   FUNC GLOBAL DEFAULT UND _ZN7android10VectorImpl6r
90:   FUNC GLOBAL DEFAULT UND _ZN7android10VectorImplC2
91:   FUNC GLOBAL DEFAULT UND _ZN7android10VectorImplD2
92:   FUNC GLOBAL DEFAULT UND _ZN7android15IResultRecei
93:   FUNC GLOBAL DEFAULT UND _ZN7android6Parcel10write
94:   FUNC GLOBAL DEFAULT UND _ZN7android6Parcel11write
95:   FUNC GLOBAL DEFAULT UND _ZN7android6Parcel12write
96:   FUNC GLOBAL DEFAULT UND _ZN7android6Parcel12write
97:   FUNC GLOBAL DEFAULT UND _ZN7android6Parcel13write
98:   FUNC GLOBAL DEFAULT UND _ZN7android6Parcel17write
99:   FUNC GLOBAL DEFAULT UND _ZN7android6Parcel17write
100:   FUNC GLOBAL DEFAULT UND _ZN7android7String8C1ERKS
101:   FUNC GLOBAL DEFAULT UND _ZN7android7String8D1Ev
102:   FUNC GLOBAL DEFAULT UND _ZN7android8String16C1ERK
103:   FUNC GLOBAL DEFAULT UND _ZN7android8String16C1Ev
104:   FUNC GLOBAL DEFAULT UND _ZNK7android6Parcel10read
105:   FUNC GLOBAL DEFAULT UND _ZNK7android6Parcel11read
106:   FUNC GLOBAL DEFAULT UND _ZNK7android6Parcel11read
107:   FUNC GLOBAL DEFAULT UND _ZNK7android6Parcel12read
108:   FUNC GLOBAL DEFAULT UND _ZNK7android6Parcel16read
109:   FUNC GLOBAL DEFAULT UND _ZNK7android6Parcel16read
110:   FUNC GLOBAL DEFAULT UND _ZNK7android6Parcel24read
111:   FUNC GLOBAL DEFAULT UND _ZNK7android6Parcel9dataA
112:   FUNC GLOBAL DEFAULT UND _ZNK7android6Parcel9readF
113:   FUNC GLOBAL DEFAULT UND _ZNK7android6Parcel9readI
114:   FUNC GLOBAL DEFAULT UND native_handle_close
115:   FUNC GLOBAL DEFAULT UND native_handle_delete
116:   FUNC GLOBAL DEFAULT UND _ZN7android13AppOpsManage
117:   FUNC GLOBAL DEFAULT UND _ZN7android13AppOpsManage
118:   FUNC GLOBAL DEFAULT UND _ZN7android21IPermissionC
119:   FUNC GLOBAL DEFAULT UND _ZN7android21defaultServi
120:   FUNC GLOBAL DEFAULT UND _ZN7android7String85setTo
121:   FUNC GLOBAL DEFAULT UND _ZN7android7String85setTo
122:   FUNC GLOBAL DEFAULT UND _ZN7android7String8C1EPKc
123:   FUNC GLOBAL DEFAULT UND _ZN7android7String8C1Ev
124:   FUNC GLOBAL DEFAULT UND _ZN7android8String16C1ERK
125:   FUNC GLOBAL DEFAULT UND _ZNK7android7String86leng
126:   FUNC GLOBAL DEFAULT UND pthread_mutex_destroy@LIBC (2)
127:   FUNC GLOBAL DEFAULT UND strcmp@LIBC (2)
128:   FUNC GLOBAL DEFAULT UND _ZN7android6Looper4wakeEv
129:   FUNC GLOBAL DEFAULT UND _ZN7android6Looper5addFdE
130:   FUNC GLOBAL DEFAULT UND _ZN7android6Looper8pollOn
131:   FUNC GLOBAL DEFAULT UND _ZN7android6LooperC1Eb
132:   FUNC GLOBAL DEFAULT UND _ZdaPv
133:   FUNC GLOBAL DEFAULT UND _Znaj
134:   FUNC GLOBAL DEFAULT UND pthread_mutex_init@LIBC (2)
135:   FUNC GLOBAL DEFAULT UND pthread_mutex_lock@LIBC (2)
136:   FUNC GLOBAL DEFAULT UND pthread_mutex_unlock@LIBC (2)
137:   FUNC GLOBAL DEFAULT UND usleep@LIBC (2)
138:   FUNC GLOBAL DEFAULT UND _ZN7android10VectorImpl5c
139:   FUNC GLOBAL DEFAULT UND _ZN7android10VectorImplaS
140:   FUNC GLOBAL DEFAULT UND _ZN7android14IPCThreadSta
141:   FUNC GLOBAL DEFAULT UND _ZN7android8String165setT
142:   FUNC GLOBAL DEFAULT UND _ZNK7android14IPCThreadSt
143:   FUNC GLOBAL DEFAULT UND _ZNSt3__112__next_primeEj
144:   FUNC GLOBAL DEFAULT UND abort@LIBC (2)
145:   FUNC GLOBAL DEFAULT UND free@LIBC (2)
146:   FUNC GLOBAL DEFAULT UND malloc@LIBC (2)
147:   FUNC GLOBAL DEFAULT UND sleep@LIBC (2)
148:   FUNC GLOBAL DEFAULT UND memcpy@LIBC (2)
149:   FUNC GLOBAL DEFAULT UND memmove@LIBC (2)
150:   FUNC GLOBAL DEFAULT UND memset@LIBC (2)
151:   FUNC GLOBAL DEFAULT 14 _ZN7android22ISensorEvent
152:   OBJECT GLOBAL DEFAULT 18 _ZTVN7android14BpSensorSe
153:   FUNC GLOBAL DEFAULT 14 _ZNK7android6Sensor11getM
154:   FUNC GLOBAL DEFAULT 14 _ZN7android16SensorEventQ
155:   FUNC WEAK DEFAULT 14 _ZNSt3__112__hash_tableIN
156:   FUNC GLOBAL DEFAULT 14 _ZN7android7BitTube11recv
157:   OBJECT WEAK DEFAULT 18 _ZTVN7android6VectorINS_6
158:   FUNC GLOBAL DEFAULT 14 _ZNK7android6Sensor11getM
159:   FUNC GLOBAL DEFAULT 14 _ZN7android16SensorEventQ
160:   FUNC GLOBAL DEFAULT 14 _ZNK7android6Sensor8getFl
161:   FUNC GLOBAL DEFAULT 14 _ZNK7android16SensorEvent
162:   FUNC GLOBAL DEFAULT 14 _ZN7android7BitTubeD1Ev
163:   OBJECT GLOBAL DEFAULT 18 _ZTCN7android14BnSensorSe
164:   FUNC GLOBAL DEFAULT 14 _ZN7android13SensorManage
165:   FUNC GLOBAL DEFAULT 14 _ZN7android22ISensorEvent
166:   FUNC GLOBAL DEFAULT 14 _ZN7android13SensorManage
167:   OBJECT GLOBAL DEFAULT 18 _ZTCN7android22ISensorEve
168:   FUNC GLOBAL DEFAULT 14 _ZN7android13ISensorServe
169:   FUNC WEAK DEFAULT 14 _ZNK7android6VectorINS_8S
170:   FUNC WEAK DEFAULT 14 _ZNK7android6VectorIfE16d
171:   FUNC GLOBAL DEFAULT 14 _ZNK7android6Sensor28isDi
172:   FUNC GLOBAL DEFAULT 14 _ZNK7android6Sensor9getVe
173:   FUNC WEAK DEFAULT 14 _ZNSt3__112__hash_tableIN
174:   FUNC GLOBAL DEFAULT 14 __aeabi_memcpy4
175:   OBJECT GLOBAL DEFAULT 18 _ZTCN7android23BpSensorEv
176:   FUNC WEAK DEFAULT 14 _ZNK7android6VectorIfE12d
177:   FUNC WEAK DEFAULT 14 _ZNK7android6VectorIiE12d
178:   FUNC GLOBAL DEFAULT 14 _ZN7android6Sensor14flatt
179:   FUNC WEAK DEFAULT 14 _ZN7android11BnInterfaceI
180:   FUNC GLOBAL DEFAULT 14 _ZNK7android6Sensor5getId
181:   OBJECT GLOBAL DEFAULT 18 _ZTCN7android14BpSensorSe
182:   FUNC GLOBAL DEFAULT 14 _ZN7android6Sensor16unfla
183:   FUNC GLOBAL DEFAULT 14 _ZN7android7BitTubeD2Ev
184:   OBJECT GLOBAL DEFAULT 18 _ZTCN7android14BnSensorSe
185:   FUNC GLOBAL DEFAULT 14 __aeabi_memcpy8
186:   OBJECT GLOBAL DEFAULT 18 _ZTTN7android23BpSensorEv
187:   OBJECT GLOBAL DEFAULT 23 _ZN7android13ISensorServe
188:   FUNC WEAK DEFAULT 14 _ZNK7android6VectorINS_6S
189:   FUNC GLOBAL DEFAULT 14 _ZN7android16SensorEventQ
190:   FUNC GLOBAL DEFAULT 14 _ZNK7android16SensorEvent
191:   FUNC GLOBAL DEFAULT 14 _ZN7android13SensorManage
192:   FUNC WEAK DEFAULT 14 _ZNSt3__16__treeINS_12__v
193:   FUNC GLOBAL DEFAULT 14 _ZN7android13ISensorServe
194:   OBJECT GLOBAL DEFAULT 18 _ZTTN7android14BnSensorSe
195:   FUNC GLOBAL DEFAULT 14 _ZN7android6SensorC2ERK8s
196:   FUNC GLOBAL DEFAULT 14 _ZNK7android6Sensor16getR
197:   FUNC GLOBAL DEFAULT 14 _ZNK7android6Sensor31getH
198:   FUNC GLOBAL DEFAULT 14 _ZNK7android16SensorEvent
199:   OBJECT GLOBAL DEFAULT 23 _ZN7android13SensorManage
200:   FUNC GLOBAL DEFAULT 14 _ZThn4_N7android23BnSenso
201:   FUNC WEAK DEFAULT 14 _ZNK7android6VectorINS_6S
202:   FUNC GLOBAL DEFAULT 14 _ZNK7android6Sensor7getUu
203:   FUNC GLOBAL DEFAULT 14 _ZN7android16SensorEventQ
204:   FUNC GLOBAL DEFAULT 14 _ZNK7android7BitTube5getF
205:   FUNC WEAK DEFAULT 14 _ZNK7android6VectorIiE16d
206:   OBJECT GLOBAL DEFAULT 18 _ZTCN7android23BnSensorEv
207:   FUNC GLOBAL DEFAULT 14 __aeabi_memcpy
208:   OBJECT GLOBAL DEFAULT 18 _ZTVN7android13ISensorSer
209:   FUNC GLOBAL DEFAULT 14 _ZN7android6SensorC2EPKc
210:   FUNC GLOBAL DEFAULT 14 _ZN7android13ISensorServe
211:   FUNC GLOBAL DEFAULT 14 _ZN7android14BpSensorServ
212:   FUNC WEAK DEFAULT 14 _ZNK7android6VectorINS_8S
213:   FUNC WEAK DEFAULT 14 _ZNK7android6VectorIfE7do
214:   OBJECT GLOBAL DEFAULT 18 _ZTVN7android14BnSensorSe
215:   FUNC GLOBAL DEFAULT 14 _ZThn4_N7android14BnSenso
216:   FUNC GLOBAL DEFAULT 14 _ZThn4_N7android23BpSenso
217:   FUNC WEAK DEFAULT 14 _ZNK7android6VectorINS_6S
218:   FUNC GLOBAL DEFAULT 14 _ZNK7android6Sensor7flatt
219:   FUNC WEAK DEFAULT 14 _ZNK7android6VectorINS_8S
220:   FUNC GLOBAL DEFAULT 14 _ZNK7android6Sensor27isRe
221:   FUNC GLOBAL DEFAULT 14 _ZNK7android6Sensor7getTy
222:   FUNC WEAK DEFAULT 14 _ZNK7android6VectorINS_6S
223:   OBJECT GLOBAL DEFAULT 18 _ZTCN7android14BnSensorSe
224:   FUNC GLOBAL DEFAULT 14 _ZN7android13SensorManage
225:   FUNC GLOBAL DEFAULT 14 _ZN7android7BitTubeC1Ej
226:   OBJECT GLOBAL DEFAULT 18 _ZTVN7android23BpSensorEv
227:   FUNC GLOBAL DEFAULT 14 _ZTv0_n12_N7android22ISen
228:   FUNC WEAK DEFAULT 14 _ZNK7android6VectorINS_8S
229:   FUNC GLOBAL DEFAULT 14 _ZThn4_N7android14BpSenso
230:   FUNC GLOBAL DEFAULT 14 _ZNK7android6Sensor13getP
231:   FUNC GLOBAL DEFAULT 14 _ZN7android22ISensorEvent
232:   FUNC GLOBAL DEFAULT 14 _ZN7android13ISensorServe
233:   FUNC GLOBAL DEFAULT 14 _ZNK7android6Sensor16getR
234:   FUNC GLOBAL DEFAULT 14 _ZNK7android16SensorEvent
235:   FUNC WEAK DEFAULT 14 _ZN7android11BnInterfaceI
236:   FUNC GLOBAL DEFAULT 14 _ZN7android14BnSensorServ
237:   FUNC GLOBAL DEFAULT 14 _ZN7android14BpSensorServ
238:   OBJECT GLOBAL DEFAULT 18 _ZTCN7android14BpSensorSe
239:   FUNC GLOBAL DEFAULT 14 _ZTv0_n12_N7android13ISen
240:   FUNC GLOBAL DEFAULT 14 _ZN7android6SensorC1EPK8s
241:   FUNC GLOBAL DEFAULT 14 _ZNK7android16SensorEvent
242:   OBJECT GLOBAL DEFAULT 18 _ZTCN7android23BpSensorEv
243:   FUNC GLOBAL DEFAULT 14 _ZThn4_N7android23BpSenso
244:   FUNC WEAK DEFAULT 14 _ZNK7android6VectorINS_8S
245:   FUNC WEAK DEFAULT 14 _ZNK7android6VectorIiE15d
246:   FUNC WEAK DEFAULT 14 _ZNK7android6VectorIiE7do
247:   OBJECT GLOBAL DEFAULT 18 _ZTCN7android14BpSensorSe
248:   FUNC GLOBAL DEFAULT 14 _ZN7android13SensorManage
249:   FUNC GLOBAL DEFAULT 14 _ZN7android23BpSensorEven
250:   FUNC GLOBAL DEFAULT 14 _ZTv0_n12_N7android23BpSe
251:   FUNC GLOBAL DEFAULT 14 _ZN7android13ISensorServe
252:   OBJECT GLOBAL DEFAULT 18 _ZTCN7android14BpSensorSe
253:   FUNC GLOBAL DEFAULT 14 _ZN7android7BitTubeC2Ej
254:   FUNC GLOBAL DEFAULT 14 _ZTv0_n12_N7android22ISen
255:   FUNC GLOBAL DEFAULT 14 _ZThn4_N7android14BpSenso
256:   FUNC GLOBAL DEFAULT 14 _ZNK7android6Sensor21getR
257:   OBJECT GLOBAL DEFAULT 18 _ZTCN7android23BnSensorEv
258:   FUNC GLOBAL DEFAULT 14 _ZN7android6Sensor9unflat
259:   FUNC WEAK DEFAULT 14 _ZNK7android6VectorINS_8S
260:   OBJECT WEAK DEFAULT 18 _ZTVN7android6VectorIfEE
261:   FUNC GLOBAL DEFAULT 14 _ZNK7android6Sensor14isWa
262:   FUNC GLOBAL DEFAULT 14 _ZNK7android16SensorEvent
263:   FUNC GLOBAL DEFAULT 14 _ZN7android13SensorManage
264:   FUNC GLOBAL DEFAULT 14 __aeabi_memset
265:   FUNC GLOBAL DEFAULT 14 _ZN7android14BpSensorServ
266:   FUNC GLOBAL DEFAULT 14 _ZTv0_n12_N7android13ISen
267:   FUNC GLOBAL DEFAULT 14 _ZN7android13SensorManage
268:   OBJECT GLOBAL DEFAULT 18 _ZTTN7android23BnSensorEv
269:   FUNC GLOBAL DEFAULT 14 _ZNK7android6Sensor24isDa
270:   FUNC GLOBAL DEFAULT 14 _ZNK7android16SensorEvent
271:   FUNC GLOBAL DEFAULT 14 _ZN7android7BitTube11send
272:   OBJECT GLOBAL DEFAULT 18 _ZTCN7android14BnSensorSe
273:   FUNC GLOBAL DEFAULT 14 _ZN7android16SensorEventQ
274:   FUNC WEAK DEFAULT 14 _ZNSt3__112__hash_tableIN
275:   FUNC GLOBAL DEFAULT 14 _ZNK7android7BitTube9init
276:   OBJECT GLOBAL DEFAULT 18 _ZTVN7android7BitTubeE
277:   FUNC GLOBAL DEFAULT 14 _ZN7android23BpSensorEven
278:   FUNC GLOBAL DEFAULT 14 _ZTv0_n12_N7android23BpSe
279:   FUNC GLOBAL DEFAULT 14 _ZN7android13SensorManage
280:   FUNC GLOBAL DEFAULT 14 _ZN7android7BitTubeC1Ev
281:   FUNC GLOBAL DEFAULT 14 _ZNK7android6Sensor25getF
282:   OBJECT GLOBAL DEFAULT 18 _ZTCN7android23BnSensorEv
283:   FUNC GLOBAL DEFAULT 14 _ZN7android16SensorEventQ
284:   FUNC GLOBAL DEFAULT 14 _ZNK7android16SensorEvent
285:   FUNC GLOBAL DEFAULT 14 _ZN7android13SensorManage
286:   FUNC WEAK DEFAULT 14 _ZNSt3__112__hash_tableIN
287:   FUNC GLOBAL DEFAULT 14 __aeabi_memclr4
288:   FUNC GLOBAL DEFAULT 14 __aeabi_memset4
289:   FUNC GLOBAL DEFAULT 14 _ZN7android7BitTube4initE
290:   FUNC WEAK DEFAULT 14 _ZNK7android6VectorIfE15d
291:   FUNC GLOBAL DEFAULT 14 _ZNK7android6Sensor13getS
292:   FUNC GLOBAL DEFAULT 14 _ZN7android7BitTube5write
293:   FUNC GLOBAL DEFAULT 14 _ZNK7android7BitTube9getS
294:   FUNC GLOBAL DEFAULT 14 _ZN7android22ISensorEvent
295:   OBJECT GLOBAL DEFAULT 18 _ZTCN7android23BpSensorEv
296:   FUNC GLOBAL DEFAULT 14 _ZN7android6SensorC1EPKc
297:   OBJECT GLOBAL DEFAULT 18 _ZTCN7android14BnSensorSe
298:   FUNC GLOBAL DEFAULT 14 _ZNK7android6Sensor10getV
299:   FUNC GLOBAL DEFAULT 14 _ZNK7android6Sensor15isDy
300:   FUNC GLOBAL DEFAULT 14 _ZN7android13SensorManage
301:   FUNC GLOBAL DEFAULT 14 _ZN7android23BpSensorEven
302:   FUNC WEAK DEFAULT 14 _ZNK7android6Parcel24read
303:   FUNC WEAK DEFAULT 14 _ZNK7android6VectorINS_6S
304:   FUNC GLOBAL DEFAULT 14 _ZN7android6Sensor5setIdE
305:   FUNC GLOBAL DEFAULT 14 _ZNK7android6Sensor17hasA
306:   FUNC GLOBAL DEFAULT 14 _ZNK7android16SensorEvent
307:   FUNC GLOBAL DEFAULT 14 _ZNK7android16SensorEvent
308:   FUNC GLOBAL DEFAULT 14 _ZNK7android16SensorEvent
309:   FUNC GLOBAL DEFAULT 14 _ZN7android13SensorManage
310:   FUNC GLOBAL DEFAULT 14 _ZN7android7BitTubeC2Ev
311:   FUNC GLOBAL DEFAULT 14 __aeabi_memclr8
312:   FUNC GLOBAL DEFAULT 14 __aeabi_memset8
313:   FUNC GLOBAL DEFAULT 14 _ZTv0_n12_N7android14BpSe
314:   FUNC GLOBAL DEFAULT 14 _ZNK7android6Sensor7getNa
315:   FUNC WEAK DEFAULT 14 _ZNSt3__127__tree_balance
316:   OBJECT GLOBAL DEFAULT 18 _ZTVN7android23BnSensorEv
317:   FUNC WEAK DEFAULT 14 _ZNK7android6VectorIfE8do
318:   FUNC WEAK DEFAULT 14 _ZNK7android6VectorIiE8do
319:   FUNC GLOBAL DEFAULT 14 _ZN7android16SensorEventQ
320:   FUNC GLOBAL DEFAULT 14 _ZN7android13SensorManage
321:   FUNC GLOBAL DEFAULT 14 _ZNK7android6Sensor20getF
322:   FUNC GLOBAL DEFAULT 14 _ZN7android13SensorManage
323:   FUNC GLOBAL DEFAULT 14 _ZN7android22ISensorEvent
324:   OBJECT GLOBAL DEFAULT 18 _ZTCN7android23BnSensorEv
325:   OBJECT GLOBAL DEFAULT 18 _ZTCN7android23BpSensorEv
326:   FUNC WEAK DEFAULT 14 _ZNK7android6VectorIfE10d
327:   FUNC WEAK DEFAULT 14 _ZNK7android6VectorIiE10d
328:   FUNC GLOBAL DEFAULT 14 _ZN7android6SensorC2EPK8s
329:   OBJECT GLOBAL DEFAULT 18 _ZTTN7android22ISensorEve
330:   FUNC GLOBAL DEFAULT 14 _ZN7android6SensorC1ERK8s
331:   OBJECT GLOBAL DEFAULT 23 _ZN7android22ISensorEvent
332:   OBJECT GLOBAL DEFAULT 23 _ZN7android13ISensorServe
333:   FUNC GLOBAL DEFAULT 14 _ZNK7android6Sensor13getM
334:   FUNC GLOBAL DEFAULT 14 _ZN7android16SensorEventQ
335:   FUNC GLOBAL DEFAULT 14 _ZN7android13SensorManage
336:   OBJECT WEAK DEFAULT 18 _ZTVN7android6VectorIiEE
337:   FUNC GLOBAL DEFAULT 14 _ZTv0_n12_N7android14BpSe
338:   FUNC GLOBAL DEFAULT 14 _ZNK7android6Sensor9getHa
339:   FUNC GLOBAL DEFAULT 14 _ZN7android7BitTube4readE
340:   OBJECT GLOBAL DEFAULT 18 _ZTCN7android23BnSensorEv
341:   OBJECT GLOBAL DEFAULT 18 _ZTVN7android22ISensorEve
342:   FUNC GLOBAL DEFAULT 14 _ZN7android13ISensorServe
343:   FUNC GLOBAL DEFAULT 14 _ZN7android6SensorD1Ev
344:   FUNC GLOBAL DEFAULT 14 _ZNK7android13ISensorServ
345:   FUNC GLOBAL DEFAULT 14 __aeabi_memclr
346:   FUNC GLOBAL DEFAULT 14 _ZN7android16SensorEventQ
347:   FUNC WEAK DEFAULT 14 _ZN7android10getServiceIN
348:   FUNC WEAK DEFAULT 14 _ZNSt3__112__hash_tableIN
349:   FUNC GLOBAL DEFAULT 14 _ZNK7android6Sensor16getF
350:   OBJECT GLOBAL DEFAULT 18 _ZTCN7android13ISensorSer
351:   FUNC GLOBAL DEFAULT 14 __aeabi_memmove
352:   FUNC WEAK DEFAULT 14 _ZNSt3__16__treeINS_12__v
353:   FUNC GLOBAL DEFAULT 14 _ZN7android22ISensorEvent
354:   OBJECT GLOBAL DEFAULT 18 _ZTTN7android13ISensorSer
355:   FUNC GLOBAL DEFAULT 14 _ZN7android13SensorManage
356:   FUNC GLOBAL DEFAULT 14 __aeabi_memmove4
357:   FUNC GLOBAL DEFAULT 14 _ZN7android22ISensorEvent
358:   FUNC WEAK DEFAULT 14 _ZNSt3__16__treeINS_12__v
359:   FUNC GLOBAL DEFAULT 14 _ZN7android7BitTubeC1ERKN
360:   OBJECT GLOBAL DEFAULT 23 _ZN7android22ISensorEvent
361:   OBJECT GLOBAL DEFAULT 18 _ZTTN7android14BpSensorSe
362:   FUNC GLOBAL DEFAULT 14 _ZNK7android6Sensor11getM
363:   FUNC WEAK DEFAULT 14 _ZNK7android6VectorINS_6S
364:   FUNC GLOBAL DEFAULT 14 _ZNK7android6Sensor11getM
365:   OBJECT GLOBAL DEFAULT 18 _ZTVN7android16SensorEven
366:   OBJECT GLOBAL DEFAULT 23 _ZN7android13SensorManage
367:   FUNC GLOBAL DEFAULT 14 _ZN7android13SensorManage
368:   FUNC GLOBAL DEFAULT 14 _ZN7android23BnSensorEven
369:   FUNC GLOBAL DEFAULT 14 _ZN7android6SensorD2Ev
370:   FUNC GLOBAL DEFAULT 14 _ZN7android16SensorEventQ
371:   FUNC GLOBAL DEFAULT 14 _ZNK7android16SensorEvent
372:   FUNC GLOBAL DEFAULT 14 __aeabi_memmove8
373:   FUNC GLOBAL DEFAULT 14 _ZN7android7BitTubeD0Ev
374:   FUNC GLOBAL DEFAULT 14 _ZN7android7BitTubeC2ERKN
375:   FUNC GLOBAL DEFAULT 14 _ZNK7android7BitTube13wri
376:   FUNC GLOBAL DEFAULT 14 _ZNK7android22ISensorEven
377:   FUNC GLOBAL DEFAULT 14 _ZNK7android6Sensor13getR
378:   FUNC GLOBAL DEFAULT 14 _ZN7android13ISensorServe
379:   OBJECT WEAK DEFAULT 18 _ZTVN7android6VectorINS_8
380:   FUNC GLOBAL DEFAULT 14 _ZN7android13SensorManage
