 0x000000000000000e (SONAME)             Library soname: [netd_event_listener_interface-cpp.so]
  
Symbol   contains 146 entries:
Num:   Type Bind Vis Ndx Name
0:   NOTYPE LOCAL DEFAULT UND
1:   FUNC GLOBAL DEFAULT UND __cxa_finalize@LIBC (2)
2:   FUNC GLOBAL DEFAULT UND __cxa_atexit@LIBC (2)
3:   FUNC GLOBAL DEFAULT UND _ZN7android10IInterfaceC2
4:   FUNC GLOBAL DEFAULT UND _ZN7android10IInterfaceD0
5:   FUNC GLOBAL DEFAULT UND _ZN7android10IInterfaceD1
6:   FUNC GLOBAL DEFAULT UND _ZN7android10IInterfaceD2
7:   FUNC GLOBAL DEFAULT UND _ZN7android14sp_report_ra
8:   FUNC GLOBAL DEFAULT UND _ZN7android6Parcel10write
9:   FUNC GLOBAL DEFAULT UND _ZN7android6Parcel10write
10:   FUNC GLOBAL DEFAULT UND _ZN7android6Parcel13write
11:   FUNC GLOBAL DEFAULT UND _ZN7android6Parcel15write
12:   FUNC GLOBAL DEFAULT UND _ZN7android6Parcel16write
13:   FUNC GLOBAL DEFAULT UND _ZN7android6Parcel16write
14:   FUNC GLOBAL DEFAULT UND _ZN7android6Parcel16write
15:   FUNC GLOBAL DEFAULT UND _ZN7android6Parcel19write
16:   FUNC GLOBAL DEFAULT UND _ZN7android6Parcel28write
17:   FUNC GLOBAL DEFAULT UND _ZN7android6Parcel9writeB
18:   FUNC GLOBAL DEFAULT UND _ZN7android6ParcelC1Ev
19:   FUNC GLOBAL DEFAULT UND _ZN7android6ParcelD1Ev
20:   FUNC GLOBAL DEFAULT UND _ZN7android6binder6Status
21:   FUNC GLOBAL DEFAULT UND _ZN7android6binder6Status
22:   FUNC GLOBAL DEFAULT UND _ZN7android6binder6Status
23:   FUNC GLOBAL DEFAULT UND _ZN7android6binder6Status
24:   FUNC GLOBAL DEFAULT UND _ZN7android7BBinder10onTr
25:   FUNC GLOBAL DEFAULT UND _ZN7android7BBinder10ping
26:   FUNC GLOBAL DEFAULT UND _ZN7android7BBinder11link
27:   FUNC GLOBAL DEFAULT UND _ZN7android7BBinder11loca
28:   FUNC GLOBAL DEFAULT UND _ZN7android7BBinder12atta
29:   FUNC GLOBAL DEFAULT UND _ZN7android7BBinder12deta
30:   FUNC GLOBAL DEFAULT UND _ZN7android7BBinder13unli
31:   FUNC GLOBAL DEFAULT UND _ZN7android7BBinder4dumpE
32:   FUNC GLOBAL DEFAULT UND _ZN7android7BBinder8trans
33:   FUNC GLOBAL DEFAULT UND _ZN7android7BBinderD0Ev
34:   FUNC GLOBAL DEFAULT UND _ZN7android7BBinderD1Ev
35:   FUNC GLOBAL DEFAULT UND _ZN7android7IBinder11loca
36:   FUNC GLOBAL DEFAULT UND _ZN7android7IBinder12remo
37:   FUNC GLOBAL DEFAULT UND _ZN7android7IBinder19quer
38:   FUNC GLOBAL DEFAULT UND _ZN7android7IBinderD0Ev
39:   FUNC GLOBAL DEFAULT UND _ZN7android7IBinderD1Ev
40:   FUNC GLOBAL DEFAULT UND _ZN7android7RefBase10onFi
41:   FUNC GLOBAL DEFAULT UND _ZN7android7RefBase13onLa
42:   FUNC GLOBAL DEFAULT UND _ZN7android7RefBase15onLa
43:   FUNC GLOBAL DEFAULT UND _ZN7android7RefBase20onIn
44:   FUNC GLOBAL DEFAULT UND _ZN7android7RefBaseC2Ev
45:   FUNC GLOBAL DEFAULT UND _ZN7android7RefBaseD2Ev
46:   FUNC GLOBAL DEFAULT UND _ZN7android7String8C1ERKS
47:   FUNC GLOBAL DEFAULT UND _ZN7android7String8C1Ev
48:   FUNC GLOBAL DEFAULT UND _ZN7android7String8D1Ev
49:   FUNC GLOBAL DEFAULT UND _ZN7android8String16C1EPK
50:   FUNC GLOBAL DEFAULT UND _ZN7android8String16C1Ev
51:   FUNC GLOBAL DEFAULT UND _ZN7android8String16D1Ev
52:   FUNC GLOBAL DEFAULT UND _ZN7android9BpRefBase10on
53:   FUNC GLOBAL DEFAULT UND _ZN7android9BpRefBase15on
54:   FUNC GLOBAL DEFAULT UND _ZN7android9BpRefBase20on
55:   FUNC GLOBAL DEFAULT UND _ZN7android9BpRefBaseC2ER
56:   FUNC GLOBAL DEFAULT UND _ZN7android9BpRefBaseD0Ev
57:   FUNC GLOBAL DEFAULT UND _ZN7android9BpRefBaseD1Ev
58:   FUNC GLOBAL DEFAULT UND _ZN7android9BpRefBaseD2Ev
59:   FUNC GLOBAL DEFAULT UND _ZNK7android6Parcel12read
60:   FUNC GLOBAL DEFAULT UND _ZNK7android6Parcel14chec
61:   FUNC GLOBAL DEFAULT UND _ZNK7android6Parcel14read
62:   FUNC GLOBAL DEFAULT UND _ZNK7android6Parcel15read
63:   FUNC GLOBAL DEFAULT UND _ZNK7android6Parcel17read
64:   FUNC GLOBAL DEFAULT UND _ZNK7android6Parcel29read
65:   FUNC GLOBAL DEFAULT UND _ZNK7android6Parcel8readB
66:   FUNC GLOBAL DEFAULT UND _ZNK7android6Parcel9readI
67:   FUNC GLOBAL DEFAULT UND _ZNK7android6Parcel9readI
68:   FUNC GLOBAL DEFAULT UND _ZNK7android6Parcel9readI
69:   FUNC GLOBAL DEFAULT UND _ZNK7android6binder6Statu
70:   FUNC GLOBAL DEFAULT UND _ZNK7android7BBinder10fin
71:   FUNC GLOBAL DEFAULT UND _ZNK7android7BBinder13isB
72:   FUNC GLOBAL DEFAULT UND _ZNK7android7BBinder22get
73:   FUNC GLOBAL DEFAULT UND _ZNK7android7IBinder13che
74:   FUNC GLOBAL DEFAULT UND _ZNK7android7RefBase9decS
75:   FUNC GLOBAL DEFAULT UND _ZNK7android7RefBase9incS
76:   FUNC GLOBAL DEFAULT UND _ZNK7android8String164siz
77:   FUNC GLOBAL DEFAULT UND _ZTv0_n24_N7android10IInt
78:   FUNC GLOBAL DEFAULT UND _ZTv0_n24_N7android10IInt
79:   FUNC GLOBAL DEFAULT UND _ZTv0_n24_N7android7BBind
80:   FUNC GLOBAL DEFAULT UND _ZTv0_n24_N7android7BBind
81:   FUNC GLOBAL DEFAULT UND _ZTv0_n24_N7android7IBind
82:   FUNC GLOBAL DEFAULT UND _ZTv0_n24_N7android7IBind
83:   FUNC GLOBAL DEFAULT UND _ZTv0_n24_N7android9BpRef
84:   FUNC GLOBAL DEFAULT UND _ZTv0_n24_N7android9BpRef
85:   FUNC GLOBAL DEFAULT UND _ZTv0_n32_N7android9BpRef
86:   FUNC GLOBAL DEFAULT UND _ZTv0_n40_N7android9BpRef
87:   FUNC GLOBAL DEFAULT UND _ZTv0_n48_N7android9BpRef
88:   FUNC GLOBAL DEFAULT UND _ZdlPv
89:   FUNC GLOBAL DEFAULT UND _Znwm
90:   FUNC GLOBAL DEFAULT UND __cxa_pure_virtual
91:   FUNC GLOBAL DEFAULT UND __stack_chk_fail@LIBC (2)
92:   FUNC GLOBAL DEFAULT UND strzcmp16
93:   FUNC GLOBAL DEFAULT 14 _ZN7android3net7metrics19
94:   FUNC GLOBAL DEFAULT 14 _ZN7android3net7metrics19
95:   OBJECT GLOBAL DEFAULT 18 _ZTCN7android3net7metrics
96:   OBJECT GLOBAL DEFAULT 18 _ZTTN7android3net7metrics
97:   OBJECT GLOBAL DEFAULT 18 _ZTTN7android3net7metrics
98:   OBJECT GLOBAL DEFAULT 18 _ZTTN7android3net7metrics
99:   FUNC GLOBAL DEFAULT 14 _ZThn16_N7android3net7met
100:   FUNC GLOBAL DEFAULT 14 _ZN7android3net7metrics18
101:   FUNC GLOBAL DEFAULT 14 _ZN7android3net7metrics19
102:   FUNC GLOBAL DEFAULT 14 _ZN7android3net7metrics19
103:   OBJECT GLOBAL DEFAULT 18 _ZTCN7android3net7metrics
104:   OBJECT GLOBAL DEFAULT 18 _ZTCN7android3net7metrics
105:   FUNC WEAK DEFAULT 14 _ZN7android11BnInterfaceI
106:   OBJECT GLOBAL DEFAULT 18 _ZTCN7android3net7metrics
107:   OBJECT GLOBAL DEFAULT 18 _ZTCN7android3net7metrics
108:   FUNC GLOBAL DEFAULT 14 _ZN7android3net7metrics18
109:   FUNC GLOBAL DEFAULT 14 _ZN7android3net7metrics18
110:   FUNC GLOBAL DEFAULT 14 _ZNK7android3net7metrics1
111:   OBJECT GLOBAL DEFAULT 18 _ZTCN7android3net7metrics
112:   OBJECT GLOBAL DEFAULT 18 _ZTVN7android3net7metrics
113:   OBJECT GLOBAL DEFAULT 23 _ZN7android3net7metrics18
114:   FUNC GLOBAL DEFAULT 14 _ZN7android3net7metrics19
115:   FUNC GLOBAL DEFAULT 14 _ZN7android3net7metrics25
116:   OBJECT GLOBAL DEFAULT 18 _ZTCN7android3net7metrics
117:   OBJECT GLOBAL DEFAULT 18 _ZTCN7android3net7metrics
118:   OBJECT GLOBAL DEFAULT 18 _ZTCN7android3net7metrics
119:   FUNC GLOBAL DEFAULT 14 _ZN7android3net7metrics18
120:   FUNC GLOBAL DEFAULT 14 _ZN7android3net7metrics25
121:   OBJECT GLOBAL DEFAULT 18 _ZTTN7android3net7metrics
122:   FUNC GLOBAL DEFAULT 14 _ZTv0_n24_N7android3net7m
123:   FUNC GLOBAL DEFAULT 14 _ZN7android3net7metrics18
124:   FUNC GLOBAL DEFAULT 14 _ZN7android3net7metrics19
125:   FUNC GLOBAL DEFAULT 14 _ZN7android3net7metrics25
126:   FUNC GLOBAL DEFAULT 14 _ZN7android3net7metrics25
127:   OBJECT GLOBAL DEFAULT 18 _ZTVN7android3net7metrics
128:   FUNC GLOBAL DEFAULT 14 _ZN7android3net7metrics19
129:   FUNC GLOBAL DEFAULT 14 _ZN7android3net7metrics25
130:   FUNC GLOBAL DEFAULT 14 _ZN7android3net7metrics25
131:   OBJECT GLOBAL DEFAULT 18 _ZTCN7android3net7metrics
132:   OBJECT GLOBAL DEFAULT 18 _ZTCN7android3net7metrics
133:   OBJECT GLOBAL DEFAULT 18 _ZTVN7android3net7metrics
134:   OBJECT GLOBAL DEFAULT 23 _ZN7android3net7metrics18
135:   FUNC GLOBAL DEFAULT 14 _ZN7android3net7metrics18
136:   FUNC GLOBAL DEFAULT 14 _ZN7android3net7metrics19
137:   FUNC GLOBAL DEFAULT 14 _ZN7android3net7metrics25
138:   FUNC GLOBAL DEFAULT 14 _ZN7android3net7metrics25
139:   FUNC GLOBAL DEFAULT 14 _ZTv0_n24_N7android3net7m
140:   FUNC GLOBAL DEFAULT 14 _ZN7android3net7metrics19
141:   FUNC GLOBAL DEFAULT 14 _ZN7android3net7metrics19
142:   OBJECT GLOBAL DEFAULT 18 _ZTCN7android3net7metrics
143:   OBJECT GLOBAL DEFAULT 18 _ZTVN7android3net7metrics
144:   FUNC GLOBAL DEFAULT 14 _ZN7android3net7metrics18
145:   FUNC GLOBAL DEFAULT 14 _ZN7android3net7metrics19
