 0x000000000000000e (SONAME)             Library soname: [libartbased.so]
  
Symbol   contains 954 entries:
Num:   Type Bind Vis Ndx Name
0:   NOTYPE LOCAL DEFAULT UND
1:   FUNC GLOBAL DEFAULT UND __cxa_finalize@LIBC (3)
2:   FUNC GLOBAL DEFAULT UND __cxa_atexit@LIBC (3)
3:   FUNC GLOBAL DEFAULT UND _ZN7android4base10LogMess
4:   FUNC GLOBAL DEFAULT UND _ZN7android4base10LogMess
5:   FUNC GLOBAL DEFAULT UND _ZN7android4base10LogMess
6:   FUNC GLOBAL DEFAULT UND _ZN7android4base21GetMini
7:   FUNC GLOBAL DEFAULT UND _ZNKSt3__16locale9use_fac
8:   FUNC GLOBAL DEFAULT UND _ZNKSt3__18ios_base6getlo
9:   FUNC GLOBAL DEFAULT UND _ZNSt3__113basic_ostreamI
10:   FUNC GLOBAL DEFAULT UND _ZNSt3__113basic_ostreamI
11:   OBJECT GLOBAL DEFAULT UND _ZNSt3__15ctypeIcE2idE
12:   FUNC GLOBAL DEFAULT UND _ZNSt3__16localeD1Ev
13:   FUNC GLOBAL DEFAULT UND _ZNSt3__18ios_base5clearE
14:   FUNC GLOBAL DEFAULT UND _ZdlPv
15:   FUNC GLOBAL DEFAULT UND _Znwm
16:   FUNC GLOBAL DEFAULT UND __errno@LIBC (3)
17:   FUNC GLOBAL DEFAULT UND __stack_chk_fail@LIBC (3)
18:   FUNC GLOBAL DEFAULT UND memset@LIBC (3)
19:   FUNC GLOBAL DEFAULT UND strcmp@LIBC (3)
20:   FUNC GLOBAL DEFAULT UND strlen@LIBC (3)
21:   FUNC GLOBAL DEFAULT UND calloc@LIBC (3)
22:   FUNC GLOBAL DEFAULT UND free@LIBC (3)
23:   FUNC GLOBAL DEFAULT UND _ZNSt3__113basic_ostreamI
24:   FUNC GLOBAL DEFAULT UND _ZNSt3__113basic_ostreamI
25:   FUNC GLOBAL DEFAULT UND _ZNSt3__113basic_ostreamI
26:   FUNC GLOBAL DEFAULT UND _ZNKSt3__121__basic_strin
27:   FUNC GLOBAL DEFAULT UND _ZNSt3__112basic_stringIc
28:   FUNC GLOBAL DEFAULT UND _ZNSt3__112basic_stringIc
29:   FUNC GLOBAL DEFAULT UND _ZNSt3__113basic_ostreamI
30:   FUNC GLOBAL DEFAULT UND _ZNSt3__113basic_ostreamI
31:   FUNC GLOBAL DEFAULT UND _ZNSt3__113basic_ostreamI
32:   FUNC GLOBAL DEFAULT UND _ZNSt3__113basic_ostreamI
33:   FUNC GLOBAL DEFAULT UND _ZNSt3__113basic_ostreamI
34:   FUNC GLOBAL DEFAULT UND _ZNSt3__113basic_ostreamI
35:   FUNC GLOBAL DEFAULT UND _ZNSt3__115basic_streambu
36:   FUNC GLOBAL DEFAULT UND _ZNSt3__115basic_streambu
37:   FUNC GLOBAL DEFAULT UND _ZNSt3__115basic_streambu
38:   FUNC GLOBAL DEFAULT UND _ZNSt3__115basic_streambu
39:   FUNC GLOBAL DEFAULT UND _ZNSt3__115basic_streambu
40:   FUNC GLOBAL DEFAULT UND _ZNSt3__115basic_streambu
41:   FUNC GLOBAL DEFAULT UND _ZNSt3__115basic_streambu
42:   FUNC GLOBAL DEFAULT UND _ZNSt3__115basic_streambu
43:   FUNC GLOBAL DEFAULT UND _ZNSt3__115basic_streambu
44:   FUNC GLOBAL DEFAULT UND _ZNSt3__18ios_base4initEP
45:   FUNC GLOBAL DEFAULT UND _ZNSt3__19basic_iosIcNS_1
46:   FUNC GLOBAL DEFAULT UND _ZTv0_n24_NSt3__113basic_
47:   FUNC GLOBAL DEFAULT UND _ZTv0_n24_NSt3__113basic_
48:   FUNC GLOBAL DEFAULT UND memcmp@LIBC (3)
49:   FUNC GLOBAL DEFAULT UND memcpy@LIBC (3)
50:   FUNC GLOBAL DEFAULT UND _ZNSt3__113basic_ostreamI
51:   FUNC GLOBAL DEFAULT UND _ZN7android4base12StringP
52:   FUNC GLOBAL DEFAULT UND lseek@LIBC (3)
53:   FUNC GLOBAL DEFAULT UND read@LIBC (3)
54:   FUNC GLOBAL DEFAULT UND strerror@LIBC (3)
55:   FUNC GLOBAL DEFAULT UND _ZN7android4base10StartsW
56:   FUNC GLOBAL DEFAULT UND _ZN7android4base8EndsWith
57:   FUNC GLOBAL DEFAULT UND _ZNKSt3__112basic_stringI
58:   FUNC GLOBAL DEFAULT UND _ZNKSt3__112basic_stringI
59:   FUNC GLOBAL DEFAULT UND _ZNSt3__112basic_stringIc
60:   FUNC GLOBAL DEFAULT UND _ZNSt3__112basic_stringIc
61:   FUNC GLOBAL DEFAULT UND _ZNSt3__112basic_stringIc
62:   FUNC GLOBAL DEFAULT UND _ZNSt3__112basic_stringIc
63:   FUNC GLOBAL DEFAULT UND _ZNSt3__112basic_stringIc
64:   FUNC GLOBAL DEFAULT UND _ZNSt3__112basic_stringIc
65:   FUNC GLOBAL DEFAULT UND __read_chk@LIBC (3)
66:   FUNC GLOBAL DEFAULT UND dirname@LIBC (3)
67:   FUNC GLOBAL DEFAULT UND dladdr@LIBC (4)
68:   FUNC GLOBAL DEFAULT UND fcntl@LIBC (3)
69:   FUNC GLOBAL DEFAULT UND getenv@LIBC (3)
70:   FUNC GLOBAL DEFAULT UND mkdir@LIBC (3)
71:   FUNC GLOBAL DEFAULT UND realpath@LIBC (3)
72:   FUNC GLOBAL DEFAULT UND strdup@LIBC (3)
73:   FUNC GLOBAL DEFAULT UND _ZN7android4base10LogdLog
74:   FUNC GLOBAL DEFAULT UND _ZN7android4base10LogdLog
75:   FUNC GLOBAL DEFAULT UND _ZN7android4base11InitLog
76:   FUNC GLOBAL DEFAULT UND __android_log_write@LIBLOG (5)
77:   FUNC GLOBAL DEFAULT UND __memmove_chk@LIBC (3)
78:   FUNC GLOBAL DEFAULT UND __vsnprintf_chk@LIBC (3)
79:   FUNC GLOBAL DEFAULT UND malloc@LIBC (3)
80:   FUNC GLOBAL DEFAULT UND strrchr@LIBC (3)
81:   FUNC GLOBAL DEFAULT UND _ZNSt3__15mutex4lockEv
82:   FUNC GLOBAL DEFAULT UND _ZNSt3__15mutex6unlockEv
83:   FUNC GLOBAL DEFAULT UND _ZNSt3__15mutexD1Ev
84:   FUNC GLOBAL DEFAULT UND __cxa_guard_acquire
85:   FUNC GLOBAL DEFAULT UND __cxa_guard_release
86:   FUNC GLOBAL DEFAULT UND android_get_device_api_le@LIBC_Q (6)
87:   FUNC GLOBAL DEFAULT UND syscall@LIBC (3)
88:   FUNC GLOBAL DEFAULT UND sscanf@LIBC (3)
89:   FUNC GLOBAL DEFAULT UND uname@LIBC (3)
90:   FUNC GLOBAL DEFAULT UND memmove@LIBC (3)
91:   FUNC GLOBAL DEFAULT UND _ZNSt3__112basic_stringIc
92:   FUNC WEAK DEFAULT UND android_fdsan_close_with_@LIBC_Q (6)
93:   FUNC WEAK DEFAULT UND android_fdsan_create_owne@LIBC_Q (6)
94:   FUNC GLOBAL DEFAULT UND arc4random_buf@LIBC (3)
95:   FUNC GLOBAL DEFAULT UND close@LIBC (3)
96:   FUNC GLOBAL DEFAULT UND madvise@LIBC (3)
97:   FUNC GLOBAL DEFAULT UND mprotect@LIBC (3)
98:   FUNC GLOBAL DEFAULT UND mremap@LIBC (3)
99:   FUNC GLOBAL DEFAULT UND msync@LIBC (3)
100:   FUNC GLOBAL DEFAULT UND prctl@LIBC (3)
101:   FUNC GLOBAL DEFAULT UND stat@LIBC (3)
102:   FUNC GLOBAL DEFAULT UND unlink@LIBC (3)
103:   FUNC GLOBAL DEFAULT UND _ZNKSt3__120__vector_base
104:   FUNC GLOBAL DEFAULT UND abort@LIBC (3)
105:   FUNC GLOBAL DEFAULT UND getpid@LIBC (3)
106:   FUNC GLOBAL DEFAULT UND process_vm_readv@LIBC (3)
107:   FUNC GLOBAL DEFAULT UND flock@LIBC (3)
108:   FUNC GLOBAL DEFAULT UND fstat@LIBC (3)
109:   FUNC GLOBAL DEFAULT UND getpwnam@LIBC (3)
110:   FUNC GLOBAL DEFAULT UND getsockopt@LIBC (3)
111:   FUNC GLOBAL DEFAULT UND _ZNSt3__113basic_ostreamI
112:   FUNC GLOBAL DEFAULT UND clock_gettime@LIBC (3)
113:   FUNC GLOBAL DEFAULT UND localtime_r@LIBC (3)
114:   FUNC GLOBAL DEFAULT UND nanosleep@LIBC (3)
115:   FUNC GLOBAL DEFAULT UND time@LIBC (3)
116:   FUNC GLOBAL DEFAULT UND _ZNSt3__112basic_stringIc
117:   FUNC GLOBAL DEFAULT UND _ZdaPv
118:   FUNC GLOBAL DEFAULT UND _Znam
119:   FUNC GLOBAL DEFAULT UND __open_2@LIBC (3)
120:   FUNC WEAK DEFAULT UND android_fdsan_exchange_ow@LIBC_Q (6)
121:   FUNC GLOBAL DEFAULT UND fdatasync@LIBC (3)
122:   FUNC GLOBAL DEFAULT UND ftruncate64@LIBC (3)
123:   FUNC GLOBAL DEFAULT UND open@LIBC (3)
124:   FUNC GLOBAL DEFAULT UND pread@LIBC (3)
125:   FUNC GLOBAL DEFAULT UND pread64@LIBC (3)
126:   FUNC GLOBAL DEFAULT UND pwrite@LIBC (3)
127:   FUNC GLOBAL DEFAULT UND pwrite64@LIBC (3)
128:   FUNC GLOBAL DEFAULT UND sendfile@LIBC (3)
129:   FUNC GLOBAL DEFAULT UND write@LIBC (3)
130:   FUNC GLOBAL DEFAULT UND _ZN7android4base16ReadFil
131:   FUNC GLOBAL DEFAULT UND _ZNKSt3__112basic_stringI
132:   FUNC GLOBAL DEFAULT UND _ZNKSt3__121__basic_strin
133:   FUNC GLOBAL DEFAULT UND _ZNKSt3__16locale9has_fac
134:   FUNC GLOBAL DEFAULT UND _ZNSt3__113basic_istreamI
135:   FUNC GLOBAL DEFAULT UND _ZNSt3__113basic_istreamI
136:   FUNC GLOBAL DEFAULT UND _ZNSt3__113basic_istreamI
137:   FUNC GLOBAL DEFAULT UND _ZNSt3__113basic_istreamI
138:   FUNC GLOBAL DEFAULT UND _ZNSt3__16localeC1ERKS0_
139:   OBJECT GLOBAL DEFAULT UND _ZNSt3__17codecvtIcc9mbst
140:   FUNC GLOBAL DEFAULT UND _ZTv0_n24_NSt3__113basic_
141:   FUNC GLOBAL DEFAULT UND _ZTv0_n24_NSt3__113basic_
142:   FUNC GLOBAL DEFAULT UND fclose@LIBC (3)
143:   FUNC GLOBAL DEFAULT UND fflush@LIBC (3)
144:   FUNC GLOBAL DEFAULT UND fopen@LIBC (3)
145:   FUNC GLOBAL DEFAULT UND fread@LIBC (3)
146:   FUNC GLOBAL DEFAULT UND fseeko@LIBC (3)
147:   FUNC GLOBAL DEFAULT UND ftello@LIBC (3)
148:   FUNC GLOBAL DEFAULT UND fwrite@LIBC (3)
149:   FUNC GLOBAL DEFAULT UND gettid@LIBC (3)
150:   FUNC GLOBAL DEFAULT UND pthread_self@LIBC (3)
151:   FUNC GLOBAL DEFAULT UND pthread_setname_np@LIBC (3)
152:   FUNC GLOBAL DEFAULT UND strncmp@LIBC (3)
153:   FUNC GLOBAL DEFAULT UND strncpy@LIBC (3)
154:   FUNC GLOBAL DEFAULT UND strtoull@LIBC (3)
155:   FUNC GLOBAL DEFAULT UND usleep@LIBC (3)
156:   FUNC GLOBAL DEFAULT UND mmap@LIBC (3)
157:   FUNC GLOBAL DEFAULT UND munmap@LIBC (3)
158:   FUNC GLOBAL DEFAULT UND ferror@LIBC (3)
159:   FUNC GLOBAL DEFAULT UND fseek@LIBC (3)
160:   FUNC GLOBAL DEFAULT UND ftell@LIBC (3)
161:   FUNC GLOBAL DEFAULT UND _ZN7android4base10MappedF
162:   FUNC GLOBAL DEFAULT UND _ZN7android4base10MappedF
163:   FUNC GLOBAL DEFAULT UND _ZN7android4base10WriteFu
164:   FUNC GLOBAL DEFAULT UND _ZN7android4base17ReadFul
165:   FUNC GLOBAL DEFAULT UND __android_log_error_write@LIBLOG_M (7)
166:   FUNC GLOBAL DEFAULT UND __android_log_print@LIBLOG (5)
167:   FUNC GLOBAL DEFAULT UND __cxa_pure_virtual
168:   FUNC GLOBAL DEFAULT UND __memcpy_chk@LIBC (3)
169:   FUNC GLOBAL DEFAULT UND fallocate@LIBC (3)
170:   FUNC GLOBAL DEFAULT UND ftruncate@LIBC (3)
171:   FUNC GLOBAL DEFAULT UND lseek64@LIBC (3)
172:   FUNC WEAK DEFAULT UND android_set_abort_message@LIBC (3)
173:   FUNC GLOBAL PROTECTED 15 _ZN3art20ScopedArenaAlloc
174:   FUNC GLOBAL PROTECTED 15 _ZN9unix_file8CopyFileERK
175:   FUNC GLOBAL DEFAULT 15 LZ4_createStream
176:   FUNC GLOBAL DEFAULT 15 LZ4F_createCDict
177:   FUNC GLOBAL DEFAULT 15 MatchFinder_CreateVTable
178:   OBJECT WEAK DEFAULT 19 _ZTVNSt3__115basic_string
179:   FUNC GLOBAL PROTECTED 15 _ZN3art18LocationIsOnSyst
180:   FUNC GLOBAL DEFAULT 15 Xz_GetUnpackSize
181:   FUNC WEAK PROTECTED 15 _ZNSt3__110__function6__f
182:   FUNC GLOBAL PROTECTED 15 _ZN9unix_file6FdFile4Open
183:   FUNC GLOBAL DEFAULT 15 LZ4_freeStreamHC
184:   FUNC GLOBAL DEFAULT 15 Aes_SetKey_Dec
185:   FUNC GLOBAL PROTECTED 15 _ZN9unix_file6FdFile11Pwr
186:   FUNC GLOBAL DEFAULT 15 LzmaDec_InitDicAndState
187:   FUNC GLOBAL DEFAULT 15 XzUnpacker_SetOutBuf
188:   FUNC GLOBAL PROTECTED 15 _ZN3art10ZipArchive10Open
189:   FUNC GLOBAL PROTECTED 15 _ZN3art8ZipEntry14IsUncom
190:   FUNC GLOBAL DEFAULT 15 LZ4_compress_default
191:   FUNC GLOBAL DEFAULT 15 Ppmd7z_RangeEnc_Init
192:   FUNC GLOBAL PROTECTED 15 _ZN3art14ArenaAllocator26
193:   FUNC GLOBAL PROTECTED 15 _ZN3art14ArenaBitVectorC2
194:   FUNC WEAK PROTECTED 15 _ZNSt3__115basic_stringbu
195:   FUNC GLOBAL DEFAULT 15 FileSeqInStream_CreateVTa
196:   FUNC GLOBAL DEFAULT 15 inflateSyncPoint
197:   FUNC GLOBAL PROTECTED 15 _ZN3art2OS16GetFileSizeBy
198:   FUNC GLOBAL PROTECTED 15 _ZN3art20ScopedArenaAlloc
199:   FUNC GLOBAL DEFAULT 15 LZ4_attach_dictionary
200:   FUNC GLOBAL DEFAULT 15 LZ4_decompress_fast_withP
201:   OBJECT GLOBAL DEFAULT 24 g_CrcTable
202:   FUNC GLOBAL DEFAULT 15 Sha256_Init
203:   FUNC GLOBAL PROTECTED 15 _ZN3art10GetCmdLineEv
204:   FUNC GLOBAL DEFAULT 15 inflateResetKeep
205:   FUNC GLOBAL PROTECTED 15 _ZN3art8MemStatsC2EPKcPKN
206:   FUNC GLOBAL DEFAULT 15 _Z11OpenArchivePKcPP10Zip
207:   OBJECT GLOBAL DEFAULT 24 g_CrcUpdateT4
208:   FUNC GLOBAL DEFAULT 15 Xz_ReadHeader
209:   FUNC GLOBAL PROTECTED 15 _ZN3art9BitVectorC2EbPNS_
210:   FUNC GLOBAL DEFAULT 15 LZ4_compressHC_limitedOut
211:   FUNC GLOBAL PROTECTED 15 _ZN3art5ArenaC1Ev
212:   FUNC GLOBAL PROTECTED 15 _ZNK3art8MemStats4DumpERN
213:   FUNC WEAK PROTECTED 15 _ZNKSt3__110__function6__
214:   FUNC GLOBAL PROTECTED 15 _ZN9unix_file6FdFileC1EiR
215:   FUNC GLOBAL DEFAULT 15 LZ4_sizeofStateHC
216:   FUNC GLOBAL DEFAULT 15 LzmaDec_Free
217:   FUNC GLOBAL PROTECTED 15 _ZN3art6MemMap10RemapAtEn
218:   FUNC GLOBAL PROTECTED 15 _ZN9unix_file6FdFile10Pre
219:   FUNC GLOBAL DEFAULT 15 LZ4_sizeofState
220:   FUNC GLOBAL DEFAULT 15 _ZN10ZipArchiveC1Eib
221:   FUNC WEAK PROTECTED 15 _ZNSt3__124__put_characte
222:   FUNC GLOBAL PROTECTED 15 _ZN3art6MemMap15TryMemMap
223:   FUNC GLOBAL PROTECTED 15 _ZN3art6MemMap22MadviseDo
224:   FUNC GLOBAL DEFAULT 15 _ZN9ZipStringC1EPKc
225:   OBJECT GLOBAL DEFAULT 24 g_CrcUpdateT8
226:   FUNC GLOBAL PROTECTED 15 _ZNK3art9BitVector12GetAl
227:   FUNC GLOBAL PROTECTED 15 _ZN3art27GetDefaultBootIm
228:   FUNC GLOBAL PROTECTED 15 _ZN3art8ZipEntry20MapDire
229:   FUNC GLOBAL DEFAULT 15 LZ4_compressHC
230:   FUNC GLOBAL DEFAULT 15 LZ4_resetStreamHC_fast
231:   FUNC GLOBAL DEFAULT 15 InFile_Open
232:   FUNC GLOBAL DEFAULT 15 LookInStream_LookRead
233:   FUNC GLOBAL DEFAULT 15 crc32_z
234:   FUNC GLOBAL PROTECTED 15 _ZN3art24ArenaAllocatorMe
235:   FUNC GLOBAL PROTECTED 15 _ZN9unix_file6FdFileD0Ev
236:   FUNC GLOBAL DEFAULT 15 LZ4F_compressFrame_usingC
237:   FUNC GLOBAL DEFAULT 15 MatchFinder_Free
238:   OBJECT WEAK DEFAULT 19 _ZTV10FileWriter
239:   FUNC GLOBAL PROTECTED 15 _ZN3artlsERNSt3__113basic
240:   FUNC WEAK PROTECTED 15 _ZN3art23ArenaAllocatorSt
241:   FUNC GLOBAL PROTECTED 15 _ZN3art9BitVectorD0Ev
242:   OBJECT WEAK DEFAULT 19 _ZTTNSt3__114basic_ifstre
243:   FUNC GLOBAL DEFAULT 15 LZ4_decompress_safe_using
244:   FUNC GLOBAL DEFAULT 15 LZ4F_isError
245:   FUNC WEAK PROTECTED 15 _ZNKSt3__110__function6__
246:   FUNC GLOBAL PROTECTED 15 _ZNK3art8ZipEntry11IsAlig
247:   FUNC GLOBAL DEFAULT 15 LZ4_compress_HC
248:   FUNC GLOBAL DEFAULT 15 Buf_Create
249:   FUNC GLOBAL DEFAULT 15 inflateSetDictionary
250:   FUNC GLOBAL PROTECTED 15 _ZN3art6MemMapD2Ev
251:   FUNC GLOBAL DEFAULT 15 LZ4_resetStream_fast
252:   FUNC GLOBAL PROTECTED 15 _ZN3art14ArenaBitVectorC1
253:   FUNC GLOBAL PROTECTED 15 _ZN9unix_file6FdFileC2EOS
254:   FUNC GLOBAL DEFAULT 15 LookToRead2_CreateVTable
255:   OBJECT GLOBAL DEFAULT 19 _ZTVN11zip_archive6Writer
256:   FUNC GLOBAL PROTECTED 15 _ZN3art24ArenaAllocatorMe
257:   FUNC GLOBAL DEFAULT 15 _ZNK13MappedZipFile17GetF
258:   FUNC GLOBAL PROTECTED 15 _ZN3art9BitVector10NumSet
259:   FUNC GLOBAL PROTECTED 15 _ZN3art22GetSystemImageFi
260:   FUNC GLOBAL PROTECTED 15 _ZN3art6MemMap10RemapAtEn
261:   FUNC GLOBAL PROTECTED 15 _ZN3art10ArenaStack19Allo
262:   FUNC GLOBAL PROTECTED 15 _ZN9unix_file6FdFile11Res
263:   FUNC GLOBAL PROTECTED 15 _ZN3art6MemMap14TargetMMa
264:   FUNC GLOBAL PROTECTED 15 _ZN3art10ArenaStackD2Ev
265:   FUNC GLOBAL DEFAULT 15 LZ4_decoderRingBufferSize
266:   FUNC GLOBAL DEFAULT 15 LZ4_versionString
267:   FUNC GLOBAL DEFAULT 15 SzAllocTemp
268:   FUNC GLOBAL DEFAULT 15 SzAr_GetFolderUnpackSize
269:   FUNC GLOBAL PROTECTED 15 _ZN3art17ReadMagicAndRese
270:   FUNC GLOBAL PROTECTED 15 _ZN3art25LocationIsOnRunt
271:   FUNC GLOBAL PROTECTED 15 _ZNK9unix_file6FdFile10Ch
272:   FUNC GLOBAL DEFAULT 15 AesCbc_Encode_Intel
273:   OBJECT WEAK DEFAULT 19 _ZTV13ProcessWriter
274:   FUNC GLOBAL DEFAULT 15 zcalloc
275:   FUNC GLOBAL PROTECTED 15 _ZN3art8MemStatsC1EPKcPKN
276:   FUNC WEAK PROTECTED 15 _ZNK3art23ArenaAllocatorS
277:   FUNC GLOBAL DEFAULT 15 LZ4_versionNumber
278:   FUNC GLOBAL DEFAULT 15 LZ4_resetStreamStateHC
279:   FUNC GLOBAL DEFAULT 15 Aes_SetKey_Enc
280:   FUNC GLOBAL DEFAULT 15 Lzma2Enc_SetDataSize
281:   FUNC GLOBAL DEFAULT 15 LzmaEnc_SetDataSize
282:   FUNC GLOBAL DEFAULT 15 _Z4NextPvP8ZipEntryP9ZipS
283:   FUNC GLOBAL PROTECTED 15 _ZN3art15MallocArenaPool1
284:   FUNC GLOBAL DEFAULT 15 LZ4F_compressUpdate
285:   OBJECT GLOBAL DEFAULT 19 z_errmsg
286:   OBJECT WEAK DEFAULT 19 _ZTCNSt3__119basic_ostrin
287:   FUNC GLOBAL PROTECTED 15 _ZN3art14ArenaAllocator20
288:   OBJECT GLOBAL PROTECTED 24 _ZN3art6MemMap14mem_maps_
289:   FUNC GLOBAL PROTECTED 15 _ZN9unix_file6FdFile5Rese
290:   FUNC GLOBAL DEFAULT 15 LZ4_setCompressionLevel
291:   FUNC GLOBAL DEFAULT 15 LZ4F_getErrorName
292:   FUNC GLOBAL DEFAULT 15 IA64_Convert
293:   FUNC GLOBAL PROTECTED 15 _ZN3art5Arena5ResetEv
294:   FUNC GLOBAL PROTECTED 15 _ZN3art6MemMap12TargetMUn
295:   FUNC GLOBAL PROTECTED 15 _ZN3art9MicroTimeEv
296:   FUNC GLOBAL PROTECTED 15 _ZN3art14FlushCpuCachesEP
297:   FUNC GLOBAL DEFAULT 15 LZ4_compress_limitedOutpu
298:   FUNC GLOBAL DEFAULT 15 Xz_GetPackSize
299:   FUNC GLOBAL PROTECTED 15 _ZN3art20ReplaceFileExten
300:   FUNC GLOBAL PROTECTED 15 _ZN3art20ScopedArenaAlloc
301:   OBJECT GLOBAL PROTECTED 24 _ZN3art17TrackedAllocator
302:   FUNC GLOBAL DEFAULT 15 XzUnpacker_CodeFull
303:   FUNC GLOBAL DEFAULT 15 XzEnc_Destroy
304:   FUNC GLOBAL DEFAULT 15 _Z21OpenArchiveFromMemory
305:   FUNC GLOBAL PROTECTED 15 _ZN3art9BitVector9Interse
306:   FUNC GLOBAL DEFAULT 15 LZ4F_createDecompressionC
307:   FUNC GLOBAL DEFAULT 15 LZ4F_decompress_usingDict
308:   FUNC GLOBAL DEFAULT 15 SzArEx_Extract
309:   FUNC GLOBAL DEFAULT 15 ARM_Convert
310:   FUNC GLOBAL DEFAULT 15 Lzma2Dec_Parse
311:   OBJECT WEAK PROTECTED 12 _ZN3art9hiddenapi7ApiList
312:   FUNC WEAK PROTECTED 15 _ZNSt3__16vectorIPbNS_9al
313:   FUNC GLOBAL PROTECTED 15 _ZN9unix_file6FdFile10Wri
314:   FUNC GLOBAL DEFAULT 15 LZ4_createStreamHC
315:   FUNC GLOBAL PROTECTED 15 _ZN3art22GetDalvikCacheFi
316:   FUNC GLOBAL DEFAULT 15 LZ4_compress_withState
317:   FUNC GLOBAL DEFAULT 15 LZ4_create
318:   FUNC GLOBAL DEFAULT 15 Lzma86_Decode
319:   FUNC GLOBAL DEFAULT 15 LzmaEnc_Construct
320:   FUNC GLOBAL DEFAULT 15 Ppmd7z_RangeDec_CreateVTa
321:   FUNC GLOBAL DEFAULT 15 Hc3Zip_MatchFinder_Skip
322:   FUNC GLOBAL PROTECTED 15 _ZN9unix_file6FdFile6Unli
323:   OBJECT WEAK DEFAULT 19 _ZTVNSt3__113basic_filebu
324:   FUNC GLOBAL DEFAULT 15 LZ4_decompress_safe_withP
325:   FUNC GLOBAL PROTECTED 15 _ZN3art15MallocArenaPool1
326:   FUNC GLOBAL DEFAULT 15 _ZN10ZipArchiveC1EPvm
327:   FUNC GLOBAL PROTECTED 15 _ZN3art27LocationIsOnCons
328:   FUNC WEAK PROTECTED 15 _ZNSt3__113basic_filebufI
329:   FUNC GLOBAL DEFAULT 15 LZ4F_compressBegin_usingC
330:   FUNC GLOBAL DEFAULT 15 OutFile_Open
331:   FUNC GLOBAL DEFAULT 15 Lzma2Decode
332:   FUNC GLOBAL DEFAULT 15 _ZN11zip_archive6ReaderD0
333:   FUNC GLOBAL PROTECTED 15 _ZN9unix_file6FdFileC1EiR
334:   FUNC GLOBAL DEFAULT 15 LZ4_decompress_safe_conti
335:   FUNC GLOBAL DEFAULT 15 LzmaEnc_InitPrices
336:   FUNC GLOBAL DEFAULT 15 inflateEnd
337:   FUNC GLOBAL PROTECTED 15 _ZN3art9BitVector12UnionI
338:   FUNC GLOBAL PROTECTED 15 _ZN3art6MemMap16MapFileAt
339:   FUNC GLOBAL PROTECTED 15 _ZN9unix_file6FdFile13Mar
340:   FUNC GLOBAL DEFAULT 15 LZ4_compress_fast_force
341:   FUNC GLOBAL PROTECTED 15 _ZN9unix_filelsERNSt3__11
342:   FUNC GLOBAL DEFAULT 15 XXH64_hashFromCanonical
343:   FUNC GLOBAL DEFAULT 15 File_Read
344:   FUNC GLOBAL DEFAULT 15 SecToRead_CreateVTable
345:   FUNC GLOBAL PROTECTED 15 _ZN3art20ScopedArenaAlloc
346:   FUNC WEAK PROTECTED 15 _ZNSt3__113basic_filebufI
347:   FUNC GLOBAL DEFAULT 15 SzArEx_Open
348:   FUNC GLOBAL DEFAULT 15 Lzma2Dec_AllocateProbs
349:   FUNC GLOBAL DEFAULT 15 File_Seek
350:   FUNC GLOBAL DEFAULT 15 crc32
351:   FUNC GLOBAL PROTECTED 15 _ZN3art9BitVector14SetIni
352:   FUNC GLOBAL PROTECTED 15 _ZN3art16OpenAndReadMagic
353:   FUNC GLOBAL DEFAULT 15 XzDecMt_Decode
354:   OBJECT WEAK PROTECTED 19 _ZTVN3art14ArenaBitVector
355:   FUNC GLOBAL PROTECTED 15 _ZN9unix_file6FdFile17Flu
356:   FUNC GLOBAL DEFAULT 15 LzmaEnc_SetProps
357:   FUNC GLOBAL PROTECTED 15 _ZN3art9Allocator18GetMal
358:   FUNC GLOBAL PROTECTED 15 _ZN3art6MemMap18GetLarges
359:   FUNC GLOBAL PROTECTED 15 _ZN3art6MemMap7ProtectEi
360:   FUNC GLOBAL DEFAULT 15 LzmaEncProps_Init
361:   OBJECT GLOBAL PROTECTED 19 _ZTVN3art11MallocArenaE
362:   FUNC GLOBAL DEFAULT 15 MatchFinder_Init_HighHash
363:   FUNC GLOBAL DEFAULT 15 LzmaUncompress
364:   FUNC GLOBAL PROTECTED 15 _ZN9unix_file6FdFile5Writ
365:   FUNC GLOBAL DEFAULT 15 LZ4_resetStream
366:   FUNC GLOBAL DEFAULT 15 XXH64
367:   FUNC GLOBAL DEFAULT 15 AesCtr_Code_Intel
368:   FUNC GLOBAL PROTECTED 15 _ZN3art27GetInstructionSe
369:   FUNC GLOBAL PROTECTED 15 _ZN9unix_file6FdFile6move
370:   FUNC GLOBAL DEFAULT 15 LZ4F_compressFrameBound
371:   FUNC GLOBAL PROTECTED 15 _ZN3art14ArenaAllocator19
372:   FUNC GLOBAL PROTECTED 15 _ZN3art14ArenaAllocatorD1
373:   FUNC WEAK PROTECTED 15 _ZNSt3__115basic_stringbu
374:   FUNC GLOBAL PROTECTED 15 _ZN3art11MallocArenaD1Ev
375:   FUNC GLOBAL PROTECTED 15 _ZN9unix_file6FdFileD2Ev
376:   FUNC GLOBAL PROTECTED 15 _ZN3art8ZipEntryD0Ev
377:   FUNC GLOBAL DEFAULT 15 AesCbc_Decode_Intel
378:   FUNC GLOBAL DEFAULT 15 Crc64Calc
379:   FUNC GLOBAL DEFAULT 15 XzFilterProps_Init
380:   OBJECT WEAK PROTECTED 19 _ZTVN3art15MallocAllocato
381:   FUNC GLOBAL PROTECTED 15 _ZN3art9BitVectorD2Ev
382:   FUNC GLOBAL PROTECTED 15 _ZNK3art9BitVector10DumpH
383:   OBJECT GLOBAL PROTECTED 24 _ZN3art6MemMap13next_mem_
384:   FUNC GLOBAL PROTECTED 15 _ZN3art9NanoSleepEm
385:   FUNC GLOBAL PROTECTED 15 _ZN9unix_file6FdFileC1Eib
386:   FUNC GLOBAL DEFAULT 15 DynBuf_Write
387:   FUNC GLOBAL DEFAULT 15 x86_Convert
388:   FUNC GLOBAL DEFAULT 15 LZ4_createHC
389:   FUNC GLOBAL DEFAULT 15 adler32
390:   FUNC GLOBAL DEFAULT 15 Lzma2Enc_WriteProperties
391:   FUNC GLOBAL PROTECTED 15 _ZN3art20ScopedArenaAlloc
392:   OBJECT WEAK DEFAULT 19 _ZTV12MemoryWriter
393:   FUNC GLOBAL PROTECTED 15 _ZN9unix_file6FdFile9SetL
394:   FUNC GLOBAL PROTECTED 15 _ZN3art17ThreadCpuNanoTim
395:   FUNC GLOBAL DEFAULT 15 XXH32_freeState
396:   FUNC GLOBAL PROTECTED 15 _ZNK3art14ArenaAllocator1
397:   OBJECT WEAK PROTECTED 19 _ZTVN3art5ArenaE
398:   FUNC GLOBAL PROTECTED 15 _ZN3art14ArenaBitVectorC2
399:   FUNC GLOBAL PROTECTED 15 _ZN3art16LocationIsOnApex
400:   FUNC GLOBAL DEFAULT 15 Delta_Decode
401:   FUNC GLOBAL DEFAULT 15 SeqInStream_Read2
402:   FUNC GLOBAL DEFAULT 15 LzmaEncProps_Normalize
403:   FUNC WEAK PROTECTED 15 _ZNSt3__110__function6__f
404:   FUNC WEAK PROTECTED 15 _ZNSt3__113basic_filebufI
405:   FUNC GLOBAL DEFAULT 15 LZ4F_freeDecompressionCon
406:   FUNC WEAK PROTECTED 15 _ZNKSt3__110__function6__
407:   FUNC GLOBAL DEFAULT 15 File_Write
408:   FUNC GLOBAL DEFAULT 15 XzBlock_ReadHeader
409:   FUNC WEAK PROTECTED 15 _ZNSt3__110__function6__f
410:   FUNC GLOBAL PROTECTED 15 _ZN3art15MallocArenaPoolC
411:   FUNC GLOBAL DEFAULT 15 LZ4_compressHC_limitedOut
412:   FUNC GLOBAL DEFAULT 15 Lzma2EncProps_Normalize
413:   FUNC GLOBAL DEFAULT 15 LzmaEnc_Finish
414:   FUNC GLOBAL DEFAULT 15 DynBuf_SeekToBeg
415:   FUNC GLOBAL DEFAULT 15 XzFlags_GetCheckSize
416:   FUNC GLOBAL DEFAULT 15 _ZN11zip_archive6WriterD1
417:   FUNC GLOBAL DEFAULT 15 _ZNK8ZipEntry19GetModific
418:   FUNC WEAK PROTECTED 15 _ZNSt3__16vectorINS_12bas
419:   FUNC GLOBAL PROTECTED 15 _ZN3art8ZipEntry21GetUnco
420:   FUNC GLOBAL DEFAULT 15 LZ4F_compressionLevel_max
421:   FUNC GLOBAL DEFAULT 15 LZ4F_getVersion
422:   FUNC GLOBAL DEFAULT 15 XXH32_canonicalFromHash
423:   OBJECT GLOBAL DEFAULT 24 g_CrcUpdate
424:   FUNC GLOBAL DEFAULT 15 Lzma86_Encode
425:   FUNC GLOBAL DEFAULT 15 Ppmd7_Update1
426:   FUNC GLOBAL DEFAULT 15 Ppmd7z_RangeDec_Init
427:   OBJECT GLOBAL PROTECTED 24 _ZN3art17TrackedAllocator
428:   FUNC GLOBAL PROTECTED 15 _ZN3art10IsZipMagicEj
429:   FUNC WEAK PROTECTED 15 _ZNSt3__17getlineIcNS_11c
430:   FUNC GLOBAL DEFAULT 15 FileInStream_CreateVTable
431:   FUNC GLOBAL DEFAULT 15 MatchFinder_NeedMove
432:   FUNC GLOBAL DEFAULT 15 Ppmd7_Update2
433:   FUNC GLOBAL PROTECTED 15 _ZN3art15GetVdexFilenameE
434:   FUNC GLOBAL PROTECTED 15 _ZN3art6MemMap16CheckRese
435:   FUNC GLOBAL DEFAULT 15 LookInStream_Read2
436:   FUNC GLOBAL DEFAULT 15 SzBitUi32s_Free
437:   FUNC GLOBAL DEFAULT 15 Delta_Init
438:   FUNC GLOBAL PROTECTED 15 _ZN3art8ZipEntry19MapDire
439:   FUNC GLOBAL DEFAULT 15 LZ4_compress_fast_continu
440:   FUNC GLOBAL DEFAULT 15 LZ4_attach_HC_dictionary
441:   FUNC GLOBAL DEFAULT 15 LZ4F_compressFrame
442:   FUNC GLOBAL DEFAULT 15 LzmaEncProps_GetDictSize
443:   FUNC GLOBAL DEFAULT 15 LZ4_saveDict
444:   FUNC WEAK PROTECTED 15 _ZN3art23ArenaAllocatorSt
445:   FUNC GLOBAL PROTECTED 15 _ZN3art14PrintFileToLogER
446:   FUNC GLOBAL DEFAULT 15 LZ4F_decompress
447:   FUNC GLOBAL DEFAULT 15 XXH64_freeState
448:   FUNC GLOBAL DEFAULT 15 XXH64_update
449:   OBJECT WEAK PROTECTED 19 _ZTVN3art23ArenaBitVector
450:   FUNC GLOBAL PROTECTED 15 _ZN3art9BitVector5UnionEP
451:   OBJECT WEAK PROTECTED 19 _ZTVN3art10LockedFileE
452:   FUNC GLOBAL PROTECTED 15 _ZN3art13SetThreadNameEPK
453:   FUNC GLOBAL DEFAULT 15 LZ4_compress_limitedOutpu
454:   FUNC GLOBAL PROTECTED 15 _ZN3art17TrackedAllocator
455:   FUNC WEAK PROTECTED 15 _ZNSt3__127__tree_balance
456:   FUNC GLOBAL DEFAULT 15 LZ4_decompress_fast
457:   FUNC GLOBAL DEFAULT 15 LzmaDec_Init
458:   FUNC GLOBAL DEFAULT 15 Xzs_ReadBackward
459:   FUNC GLOBAL DEFAULT 15 adler32_combine
460:   FUNC GLOBAL PROTECTED 15 _ZNK9unix_file6FdFile8IsO
461:   FUNC GLOBAL PROTECTED 15 _ZN3art18ProcessCpuNanoTi
462:   FUNC GLOBAL DEFAULT 15 _ZN10ZipArchiveC2Eib
463:   FUNC GLOBAL DEFAULT 15 zlibVersion
464:   FUNC GLOBAL PROTECTED 15 _ZN3art14ArenaBitVectorC1
465:   FUNC GLOBAL PROTECTED 15 _ZN3art9BitVector4CopyEPK
466:   FUNC GLOBAL PROTECTED 15 _ZN3art10ZipArchiveD2Ev
467:   FUNC GLOBAL DEFAULT 15 LZ4F_flush
468:   FUNC GLOBAL DEFAULT 15 _ZN11zip_archive6ReaderD2
469:   OBJECT GLOBAL PROTECTED 19 _ZTVN3art15MallocArenaPoo
470:   FUNC GLOBAL PROTECTED 15 _ZN3art6MemMapC1ERKNSt3__
471:   FUNC GLOBAL DEFAULT 15 LzmaEnc_RestoreState
472:   FUNC GLOBAL DEFAULT 15 Ppmd7_Free
473:   FUNC GLOBAL PROTECTED 15 _ZNK3art9BitVector16GetHi
474:   FUNC GLOBAL DEFAULT 15 MatchFinder_Init
475:   FUNC GLOBAL DEFAULT 15 Lzma2Dec_DecodeToBuf
476:   OBJECT GLOBAL DEFAULT 19 _ZTVN11zip_archive6Reader
477:   FUNC GLOBAL DEFAULT 15 zlibCompileFlags
478:   FUNC GLOBAL DEFAULT 15 LZ4_saveDictHC
479:   FUNC GLOBAL DEFAULT 15 LZ4F_freeCompressionConte
480:   FUNC GLOBAL DEFAULT 15 XzUnpacker_IsStreamWasFin
481:   FUNC GLOBAL DEFAULT 15 _Z11GetOwnerTagPK10ZipArc
482:   FUNC WEAK PROTECTED 15 _ZNSt3__110__function6__f
483:   FUNC GLOBAL PROTECTED 15 _ZNK9unix_file6FdFile4Rea
484:   FUNC GLOBAL DEFAULT 15 SzGetNextFolderItem
485:   FUNC GLOBAL DEFAULT 15 CrcGenerateTable
486:   FUNC GLOBAL DEFAULT 15 MyFree
487:   FUNC GLOBAL DEFAULT 15 MatchFinder_MoveBlock
488:   FUNC GLOBAL DEFAULT 15 LzmaEnc_Init
489:   FUNC GLOBAL PROTECTED 15 _ZN3art14ArenaAllocatorC2
490:   FUNC GLOBAL PROTECTED 15 _ZNK3art9BitVector10NumSe
491:   FUNC GLOBAL PROTECTED 15 _ZN3art6MemMap21ReleaseRe
492:   FUNC GLOBAL DEFAULT 15 _Z17GetFileDescriptorP10Z
493:   FUNC GLOBAL DEFAULT 15 LZ4_slideInputBuffer
494:   FUNC GLOBAL DEFAULT 15 Lzma2Enc_SetProps
495:   FUNC GLOBAL DEFAULT 15 XzUnpacker_GetExtraSize
496:   FUNC GLOBAL DEFAULT 15 LZ4_compress_HC_extStateH
497:   OBJECT WEAK PROTECTED 19 _ZN3art9hiddenapi7ApiList
498:   FUNC GLOBAL PROTECTED 15 _ZN3art10GetIsoDateEv
499:   FUNC GLOBAL DEFAULT 15 LZ4_decompress_fast_conti
500:   FUNC GLOBAL DEFAULT 15 LZ4_compress_HC_extStateH
501:   FUNC GLOBAL DEFAULT 15 inflatePrime
502:   FUNC GLOBAL PROTECTED 15 _ZN3art6MemMap4swapERS0_
503:   FUNC GLOBAL PROTECTED 15 _ZN3art27SetRuntimeDebugF
504:   FUNC GLOBAL DEFAULT 15 LookInStream_SeekTo
505:   FUNC GLOBAL DEFAULT 15 XzDecMt_Create
506:   OBJECT WEAK PROTECTED 19 _ZTVN3art23ArenaBitVector
507:   FUNC GLOBAL DEFAULT 15 Lzma86_GetUnpackSize
508:   FUNC GLOBAL PROTECTED 15 _ZNK3art7HexDump4DumpERNS
509:   FUNC GLOBAL DEFAULT 15 XzBlock_Parse
510:   OBJECT GLOBAL DEFAULT 12 inflate_copyright
511:   FUNC GLOBAL PROTECTED 15 _ZN3art15MallocArenaPoolD
512:   FUNC GLOBAL PROTECTED 15 _ZN3art14CreateStartPosEm
513:   FUNC GLOBAL PROTECTED 15 _ZN3art6MemMap7SetSizeEm
514:   FUNC GLOBAL PROTECTED 15 _ZN3art10ArenaStack5Reset
515:   FUNC GLOBAL PROTECTED 15 _ZN3art8ZipEntryD2Ev
516:   FUNC GLOBAL DEFAULT 15 Bcj2Dec_Init
517:   FUNC GLOBAL DEFAULT 15 AesCtr_Code
518:   FUNC GLOBAL DEFAULT 15 Delta_Encode
519:   FUNC WEAK PROTECTED 15 _ZNKSt3__115basic_stringb
520:   FUNC GLOBAL PROTECTED 15 _ZN3art10ZipArchive4OpenE
521:   FUNC GLOBAL DEFAULT 15 BraState_SetFromMethod
522:   FUNC GLOBAL PROTECTED 15 _ZN9unix_file6FdFile7Dest
523:   FUNC GLOBAL DEFAULT 15 LzmaDec_AllocateProbs
524:   FUNC GLOBAL PROTECTED 15 _ZN3art6MemMap9HasMemMapE
525:   FUNC GLOBAL DEFAULT 15 SzAr_DecodeFolder
526:   FUNC GLOBAL DEFAULT 15 LzmaEnc_PrepareForLzma2
527:   FUNC GLOBAL DEFAULT 15 adler32_z
528:   FUNC GLOBAL PROTECTED 15 _ZN3art14ArenaAllocatorC1
529:   FUNC GLOBAL PROTECTED 15 _ZN3art9MilliTimeEv
530:   FUNC WEAK PROTECTED 15 _ZN3art23ArenaAllocatorSt
531:   FUNC GLOBAL PROTECTED 15 _ZNK3art9BitVector10NumSe
532:   FUNC GLOBAL PROTECTED 15 _ZN3art6MemMap11CheckNoGa
533:   FUNC GLOBAL PROTECTED 15 _ZN9unix_file6FdFile4Copy
534:   FUNC GLOBAL DEFAULT 15 LZ4_uncompress
535:   FUNC GLOBAL DEFAULT 15 XXH64_digest
536:   FUNC GLOBAL DEFAULT 15 Lzma2Enc_Create
537:   FUNC GLOBAL DEFAULT 15 XzEnc_SetProps
538:   FUNC GLOBAL PROTECTED 15 _ZNK9unix_file6FdFile2FdE
539:   OBJECT WEAK PROTECTED 19 _ZN3art9hiddenapi7ApiList
540:   FUNC GLOBAL PROTECTED 15 _ZN3art10membarrierENS_17
541:   FUNC WEAK PROTECTED 15 _ZN9unix_file6FdFile17Wri
542:   FUNC GLOBAL DEFAULT 15 SzFreeTemp
543:   FUNC GLOBAL DEFAULT 15 MatchFinder_Init_3
544:   FUNC GLOBAL DEFAULT 15 inflateCodesUsed
545:   FUNC GLOBAL PROTECTED 15 _ZN3artlsERNSt3__113basic
546:   FUNC GLOBAL DEFAULT 15 inflateReset
547:   FUNC GLOBAL DEFAULT 15 LZ4_compressHC_continue
548:   OBJECT GLOBAL PROTECTED 19 _ZTVN9unix_file6FdFileE
549:   FUNC GLOBAL PROTECTED 15 _ZN3art2OS17OpenFileWithF
550:   FUNC GLOBAL PROTECTED 15 _ZN9unix_file6FdFile5Clos
551:   FUNC GLOBAL DEFAULT 15 LZ4_compress_HC_continue
552:   FUNC GLOBAL DEFAULT 15 inflateValidate
553:   FUNC WEAK PROTECTED 15 _ZNSt3__113basic_filebufI
554:   FUNC GLOBAL PROTECTED 15 _ZN3art23GetInstructionSe
555:   FUNC GLOBAL PROTECTED 15 _ZN3art14FormatDurationEm
556:   FUNC WEAK PROTECTED 15 _ZNSt3__113basic_filebufI
557:   FUNC GLOBAL DEFAULT 15 _Z13OpenArchiveFdiPKcPP10
558:   FUNC GLOBAL DEFAULT 15 Ppmd7_EncodeSymbol
559:   FUNC GLOBAL DEFAULT 15 XzUnpacker_Construct
560:   FUNC GLOBAL PROTECTED 15 _ZN3art20ScopedArenaAlloc
561:   FUNC GLOBAL DEFAULT 15 XXH64_createState
562:   FUNC GLOBAL DEFAULT 15 SPARC_Convert
563:   FUNC GLOBAL DEFAULT 15 AlignOffsetAlloc_CreateVT
564:   FUNC GLOBAL DEFAULT 15 _ZN10ZipArchive26Initiali
565:   FUNC GLOBAL PROTECTED 15 _ZN3art11MallocArenaC2Em
566:   FUNC GLOBAL PROTECTED 15 _ZN3art10LockedFile4OpenE
567:   FUNC GLOBAL PROTECTED 15 _ZN9unix_file6FdFile6move
568:   FUNC GLOBAL PROTECTED 15 _ZN3art8ZipEntry8GetCrc32
569:   FUNC GLOBAL DEFAULT 15 Lzma2Dec_DecodeToDic
570:   FUNC GLOBAL DEFAULT 15 Ppmd7_Construct
571:   FUNC GLOBAL DEFAULT 15 inflate_table
572:   FUNC GLOBAL PROTECTED 15 _ZNK9unix_file6FdFile9Get
573:   FUNC GLOBAL DEFAULT 15 MatchFinder_Init_LowHash
574:   FUNC GLOBAL DEFAULT 15 Xz_Construct
575:   FUNC GLOBAL PROTECTED 15 _ZN3art9BitVector8Subtrac
576:   FUNC GLOBAL DEFAULT 15 _ZNK13MappedZipFile10GetB
577:   FUNC GLOBAL PROTECTED 15 _ZN3art6MemMapD1Ev
578:   FUNC GLOBAL DEFAULT 15 LZ4_compressBound
579:   FUNC GLOBAL DEFAULT 15 XzUnpacker_Free
580:   OBJECT WEAK PROTECTED 19 _ZTVNSt3__110__function6_
581:   FUNC GLOBAL DEFAULT 15 _Z18ExtractEntryToFileP10
582:   FUNC GLOBAL DEFAULT 15 SzAlloc
583:   FUNC GLOBAL DEFAULT 15 LzmaDecode
584:   FUNC GLOBAL DEFAULT 15 LzmaEnc_IsWriteEndMark
585:   FUNC GLOBAL DEFAULT 15 HeapSort
586:   FUNC GLOBAL DEFAULT 15 inflateUndermine
587:   FUNC GLOBAL PROTECTED 15 _ZN3art8SafeCopyEPvPKvm
588:   FUNC GLOBAL DEFAULT 15 XXH64_canonicalFromHash
589:   FUNC GLOBAL DEFAULT 15 LzmaEnc_CodeOneMemBlock
590:   FUNC GLOBAL PROTECTED 15 _ZN3art22GetNsToTimeUnitD
591:   FUNC GLOBAL DEFAULT 15 LZ4_compress_limitedOutpu
592:   FUNC GLOBAL DEFAULT 15 LZ4_resetStreamState
593:   FUNC GLOBAL DEFAULT 15 inflateInit2_
594:   OBJECT WEAK DEFAULT 19 _ZTTNSt3__119basic_ostrin
595:   FUNC WEAK PROTECTED 15 _ZNKSt3__110__function6__
596:   FUNC GLOBAL PROTECTED 15 _ZN3art10ArenaStackD1Ev
597:   FUNC GLOBAL PROTECTED 15 _ZN3art10LockedFile4OpenE
598:   FUNC GLOBAL DEFAULT 15 XzDecMtProps_Init
599:   FUNC GLOBAL PROTECTED 15 _ZN3art16GetProcessStatus
600:   FUNC GLOBAL DEFAULT 15 __clear_cache
601:   FUNC GLOBAL PROTECTED 15 _ZN3art6MemMap8DumpMapsER
602:   FUNC GLOBAL PROTECTED 15 _ZN3art2OS24CreateEmptyFi
603:   FUNC GLOBAL DEFAULT 15 LZ4F_getFrameInfo
604:   FUNC GLOBAL DEFAULT 15 inflateCopy
605:   FUNC WEAK PROTECTED 15 _ZNSt3__16__treeINS_12__v
606:   FUNC GLOBAL PROTECTED 15 _ZN3art24RegisterRuntimeD
607:   FUNC GLOBAL PROTECTED 15 _ZN9unix_file6FdFileC2Eib
608:   FUNC WEAK PROTECTED 15 _ZNSt3__113basic_filebufI
609:   FUNC GLOBAL DEFAULT 15 inflateMark
610:   FUNC GLOBAL PROTECTED 15 _ZN3art18GetAndroidRootSa
611:   FUNC GLOBAL DEFAULT 15 LZ4F_resetDecompressionCo
612:   FUNC GLOBAL DEFAULT 15 DynBuf_Construct
613:   FUNC GLOBAL DEFAULT 15 XzProps_Init
614:   FUNC GLOBAL PROTECTED 15 _ZN3art26ProgramInvocatio
615:   FUNC GLOBAL PROTECTED 15 _ZNK3art15MallocArenaPool
616:   FUNC GLOBAL PROTECTED 15 _ZN3art6MemMap4SyncEv
617:   FUNC GLOBAL PROTECTED 15 _ZN3art6MemMapC1EOS0_
618:   OBJECT GLOBAL PROTECTED 19 _ZTVN3art8ZipEntryE
619:   FUNC GLOBAL DEFAULT 15 LzmaDec_Allocate
620:   FUNC GLOBAL DEFAULT 15 LzmaEnc_WriteProperties
621:   FUNC GLOBAL DEFAULT 15 Sha256_Final
622:   FUNC GLOBAL DEFAULT 15 _ZN10ZipArchiveD2Ev
623:   FUNC WEAK PROTECTED 15 _ZNSt3__16__treeINS_12__v
624:   OBJECT GLOBAL PROTECTED 19 _ZTVN3art9BitVectorE
625:   OBJECT WEAK DEFAULT 19 _ZTVNSt3__114basic_ifstre
626:   FUNC GLOBAL DEFAULT 15 Sha256_Update
627:   FUNC GLOBAL PROTECTED 15 _ZN9unix_file6FdFile5Eras
628:   OBJECT WEAK DEFAULT 19 _ZTCNSt3__114basic_ifstre
629:   FUNC GLOBAL DEFAULT 15 LzmaEnc_GetNumAvailableBy
630:   FUNC GLOBAL PROTECTED 15 _ZN3art15MallocArenaPoolD
631:   FUNC GLOBAL DEFAULT 15 LZ4_compressHC2_limitedOu
632:   FUNC GLOBAL DEFAULT 15 LZ4F_getErrorCode
633:   FUNC GLOBAL DEFAULT 15 LzmaProps_Decode
634:   FUNC GLOBAL DEFAULT 15 File_Construct
635:   FUNC GLOBAL DEFAULT 15 Xzs_Free
636:   FUNC GLOBAL PROTECTED 15 _ZN9unix_file6FdFileC1ERK
637:   FUNC GLOBAL PROTECTED 15 _ZN3art10ArenaStackC2EPNS
638:   FUNC WEAK PROTECTED 15 _ZNSt3__113basic_filebufI
639:   FUNC GLOBAL PROTECTED 15 _ZN3art8ZipEntry15Extract
640:   FUNC GLOBAL DEFAULT 15 LZ4_compress_fast_extStat
641:   FUNC GLOBAL DEFAULT 15 LZ4_loadDictHC
642:   FUNC GLOBAL DEFAULT 15 XXH32_copyState
643:   FUNC GLOBAL DEFAULT 15 Xz_WriteVarInt
644:   FUNC GLOBAL DEFAULT 15 LZ4_compressHC_limitedOut
645:   FUNC GLOBAL DEFAULT 15 LZ4_compress_HC_destSize
646:   FUNC GLOBAL DEFAULT 15 Ppmd7_DecodeSymbol
647:   FUNC GLOBAL DEFAULT 15 XzEnc_Encode
648:   OBJECT WEAK DEFAULT 19 _ZTV11EntryReader
649:   FUNC GLOBAL PROTECTED 15 _ZN3art6MemMap7AlignByEm
650:   FUNC GLOBAL PROTECTED 15 _ZN3art10ArenaStack20Upda
651:   FUNC GLOBAL DEFAULT 15 LzmaEnc_MemEncode
652:   FUNC GLOBAL DEFAULT 15 Xz_Free
653:   FUNC GLOBAL DEFAULT 15 _ZN16CentralDirectory10In
654:   FUNC GLOBAL DEFAULT 15 inflateSync
655:   FUNC GLOBAL DEFAULT 15 LZ4_compress_forceExtDict
656:   FUNC GLOBAL DEFAULT 15 DynBuf_Free
657:   FUNC GLOBAL DEFAULT 15 LzmaEnc_Destruct
658:   FUNC GLOBAL DEFAULT 15 Crc64GenerateTable
659:   FUNC GLOBAL PROTECTED 15 _ZNK3art14ArenaAllocator9
660:   FUNC GLOBAL PROTECTED 15 _ZN3art12memfd_createEPKc
661:   FUNC GLOBAL PROTECTED 15 _ZN3art19ZeroAndReleasePa
662:   FUNC GLOBAL PROTECTED 15 _ZN3art6MemMap11MapIntern
663:   FUNC GLOBAL DEFAULT 15 Buf_Free
664:   OBJECT GLOBAL DEFAULT 24 g_Crc64Table
665:   FUNC GLOBAL DEFAULT 15 zError
666:   FUNC GLOBAL PROTECTED 15 _ZN3art21GetAndroidRuntim
667:   FUNC GLOBAL PROTECTED 15 _ZN3art15MallocArenaPool8
668:   FUNC GLOBAL PROTECTED 15 _ZNK3art12MemoryRegion8Co
669:   FUNC WEAK PROTECTED 15 _ZNSt3__113__tree_removeI
670:   FUNC GLOBAL PROTECTED 15 _ZN3art2OS18OpenFileForRe
671:   FUNC GLOBAL DEFAULT 15 ARMT_Convert
672:   FUNC GLOBAL DEFAULT 15 AesCbc_Init
673:   FUNC GLOBAL DEFAULT 15 Hc3Zip_MatchFinder_GetMat
674:   FUNC GLOBAL DEFAULT 15 MatchFinder_Create
675:   FUNC GLOBAL DEFAULT 15 XzStatInfo_Clear
676:   OBJECT GLOBAL PROTECTED 24 _ZN3art17TrackedAllocator
677:   FUNC GLOBAL PROTECTED 15 _ZN3art14ArenaAllocator31
678:   FUNC GLOBAL PROTECTED 15 _ZN3art19SocketPeerIsTrus
679:   FUNC GLOBAL PROTECTED 15 _ZN3art5ArenaC2Ev
680:   FUNC GLOBAL PROTECTED 15 _ZN3art6MemMap12SetDebugN
681:   FUNC WEAK PROTECTED 15 _ZNSt3__113basic_filebufI
682:   FUNC GLOBAL DEFAULT 15 XXH_versionNumber
683:   FUNC GLOBAL PROTECTED 15 _ZN3art6MemMap10Invalidat
684:   FUNC GLOBAL PROTECTED 15 _ZN3art6MemMap8MapDummyEP
685:   FUNC GLOBAL PROTECTED 15 _ZN3art2OS15CreateEmptyFi
686:   FUNC GLOBAL PROTECTED 15 _ZN9unix_file6FdFile9Read
687:   FUNC GLOBAL DEFAULT 15 LZ4_decompress_safe_parti
688:   FUNC GLOBAL DEFAULT 15 LZ4_compressHC2_continue
689:   FUNC GLOBAL DEFAULT 15 LZ4_resetStreamHC
690:   FUNC GLOBAL DEFAULT 15 inflate
691:   FUNC GLOBAL PROTECTED 15 _ZN3art10ArenaStack21Allo
692:   FUNC GLOBAL PROTECTED 15 _ZN3art10ArenaStackC1EPNS
693:   FUNC GLOBAL PROTECTED 15 _ZNK3art10ArenaStack12Get
694:   FUNC GLOBAL PROTECTED 15 _ZN3art22GetAppropriateTi
695:   FUNC GLOBAL PROTECTED 15 _ZNK3art10ZipArchive4Find
696:   FUNC GLOBAL DEFAULT 15 LzmaEnc_GetCurBuf
697:   FUNC GLOBAL DEFAULT 15 LzmaEncode
698:   FUNC GLOBAL DEFAULT 15 Ppmd7_MakeEscFreq
699:   FUNC GLOBAL DEFAULT 15 XzEnc_Create
700:   FUNC GLOBAL PROTECTED 15 _ZN3art6MemMap8ShutdownEv
701:   FUNC GLOBAL DEFAULT 15 Ppmd7_Init
702:   FUNC GLOBAL PROTECTED 15 _ZN9unix_file6FdFileD1Ev
703:   FUNC GLOBAL PROTECTED 15 _ZN3art11InitLoggingEPPcR
704:   FUNC GLOBAL PROTECTED 15 _ZN3art11MallocArenaD0Ev
705:   FUNC GLOBAL PROTECTED 15 _ZN3art15MallocArenaPool1
706:   FUNC GLOBAL PROTECTED 15 _ZN3art10LockedFile5DupOf
707:   FUNC GLOBAL DEFAULT 15 SeqInStream_ReadByte
708:   FUNC GLOBAL PROTECTED 15 _ZN3art9BitVectorD1Ev
709:   FUNC GLOBAL PROTECTED 15 _ZN3artlsERNSt3__113basic
710:   FUNC GLOBAL PROTECTED 15 _ZN3art6MemMapC2ERKNSt3__
711:   FUNC GLOBAL PROTECTED 15 _ZN3art6GetTidEv
712:   FUNC GLOBAL DEFAULT 15 LZ4_createStreamDecode
713:   FUNC GLOBAL DEFAULT 15 XzUnpacker_IsBlockFinishe
714:   FUNC GLOBAL PROTECTED 15 _ZN3art20ScopedArenaAlloc
715:   FUNC GLOBAL DEFAULT 15 LzmaDec_DecodeToBuf
716:   FUNC GLOBAL DEFAULT 15 Xzs_GetNumBlocks
717:   FUNC GLOBAL DEFAULT 15 _Z15ExtractToWriterP10Zip
718:   FUNC GLOBAL PROTECTED 15 _ZN3art6MemMap7DoResetEv
719:   FUNC GLOBAL PROTECTED 15 _ZN9unix_file6FdFile7Comp
720:   FUNC GLOBAL PROTECTED 15 _ZN3art23instruction_set_
721:   FUNC GLOBAL DEFAULT 15 LZ4_favorDecompressionSpe
722:   FUNC GLOBAL DEFAULT 15 _Z15ExtractToMemoryP10Zip
723:   FUNC GLOBAL DEFAULT 15 Lzma2Enc_Destroy
724:   FUNC GLOBAL PROTECTED 15 _ZN3art21ProgramInvocatio
725:   FUNC GLOBAL PROTECTED 15 _ZN3art6MemMap4InitEv
726:   FUNC GLOBAL PROTECTED 15 _ZN3artlsERNSt3__113basic
727:   FUNC GLOBAL DEFAULT 15 SzArEx_Free
728:   FUNC GLOBAL DEFAULT 15 CrcUpdateT1
729:   FUNC GLOBAL DEFAULT 15 Xz_ReadVarInt
730:   FUNC GLOBAL PROTECTED 15 _ZN3art2OS15DirectoryExis
731:   FUNC GLOBAL PROTECTED 15 _ZN3art15MallocArenaPoolC
732:   FUNC GLOBAL PROTECTED 15 _ZN3art13GetGMapsEntryERK
733:   FUNC GLOBAL DEFAULT 15 LZ4_compressHC2
734:   FUNC GLOBAL DEFAULT 15 LZ4_compressHC_withStateH
735:   FUNC GLOBAL DEFAULT 15 PPC_Convert
736:   FUNC GLOBAL DEFAULT 15 XzUnpacker_Code
737:   FUNC GLOBAL DEFAULT 15 inflateGetHeader
738:   FUNC GLOBAL DEFAULT 15 inflateReset2
739:   FUNC GLOBAL PROTECTED 15 _ZN3art6MemMap12MapAnonym
740:   FUNC GLOBAL DEFAULT 15 _ZN11zip_archive6WriterD0
741:   FUNC GLOBAL DEFAULT 15 _ZN9ZipStringC2EPKc
742:   FUNC GLOBAL PROTECTED 15 _ZN9unix_file6FdFile12Cle
743:   FUNC WEAK PROTECTED 15 _ZNSt3__113basic_filebufI
744:   FUNC GLOBAL DEFAULT 15 XXH32
745:   FUNC GLOBAL DEFAULT 15 SzArEx_GetFileNameUtf16
746:   FUNC GLOBAL DEFAULT 15 CrcUpdateT4
747:   FUNC GLOBAL PROTECTED 15 _ZN3art6MemMap11ReplaceWi
748:   FUNC GLOBAL PROTECTED 15 _ZN3art10LockedFile11Rele
749:   FUNC GLOBAL DEFAULT 15 LZ4F_compressBound
750:   FUNC GLOBAL PROTECTED 15 _ZNK3art14ArenaAllocator1
751:   FUNC GLOBAL DEFAULT 15 CrcUpdate
752:   FUNC GLOBAL DEFAULT 15 Lzma2Dec_Allocate
753:   FUNC GLOBAL PROTECTED 15 _ZNK3art9BitVector4DumpER
754:   FUNC GLOBAL DEFAULT 15 LZ4_sizeofStreamState
755:   FUNC GLOBAL DEFAULT 15 LZ4_sizeofStreamStateHC
756:   FUNC GLOBAL DEFAULT 15 XzDecMt_Destroy
757:   FUNC GLOBAL DEFAULT 15 XzUnpacker_PrepareToRando
758:   OBJECT WEAK PROTECTED 19 _ZTVN3art13NoopAllocatorE
759:   FUNC GLOBAL DEFAULT 15 CrcUpdateT8
760:   FUNC GLOBAL DEFAULT 15 Lzma2Dec_Init
761:   FUNC GLOBAL DEFAULT 15 XzCrc64UpdateT4
762:   FUNC GLOBAL DEFAULT 15 XzEnc_SetDataSize
763:   FUNC WEAK PROTECTED 15 _ZNK3art23ArenaAllocatorS
764:   FUNC GLOBAL PROTECTED 15 _ZN3art14GetAndroidDataEv
765:   FUNC GLOBAL DEFAULT 15 LZ4F_createCompressionCon
766:   FUNC GLOBAL DEFAULT 15 LZ4F_freeCDict
767:   OBJECT GLOBAL DEFAULT 24 g_AesCtr_Code
768:   FUNC GLOBAL DEFAULT 15 zcfree
769:   FUNC GLOBAL DEFAULT 15 Crc64Update
770:   FUNC WEAK PROTECTED 15 _ZN3art23ArenaAllocatorSt
771:   FUNC GLOBAL PROTECTED 15 _ZNK3art9BitVector10IsSub
772:   FUNC GLOBAL DEFAULT 15 SzBitUi64s_Free
773:   FUNC GLOBAL PROTECTED 15 _ZN3art9Allocator16GetNoo
774:   FUNC GLOBAL PROTECTED 15 _ZN3art24ArenaAllocatorMe
775:   FUNC WEAK PROTECTED 15 _ZNSt3__115basic_stringbu
776:   FUNC WEAK PROTECTED 15 _ZNSt3__113basic_filebufI
777:   FUNC GLOBAL DEFAULT 15 LZ4_compress_HC_continue_
778:   OBJECT GLOBAL DEFAULT 24 g_AesCbc_Decode
779:   FUNC GLOBAL PROTECTED 15 _ZN9unix_file6FdFile5Flus
780:   FUNC GLOBAL DEFAULT 15 LZ4_compressHC2_limitedOu
781:   FUNC GLOBAL DEFAULT 15 Xz_EncodeEmpty
782:   FUNC GLOBAL PROTECTED 15 _ZN9unix_file6FdFileC1EOS
783:   FUNC GLOBAL PROTECTED 15 _ZN3art10ZipArchiveD1Ev
784:   FUNC GLOBAL DEFAULT 15 XXH32_reset
785:   FUNC GLOBAL DEFAULT 15 HeapSort64
786:   FUNC GLOBAL DEFAULT 15 Xz_ParseHeader
787:   FUNC GLOBAL DEFAULT 15 _ZN11zip_archive6ReaderD1
788:   FUNC GLOBAL PROTECTED 15 _ZN3art6MemMap10TargetMMa
789:   FUNC WEAK PROTECTED 15 _ZNSt3__16__treeINS_12__v
790:   FUNC GLOBAL DEFAULT 15 MatchFinder_Normalize3
791:   FUNC GLOBAL DEFAULT 15 XzCheck_Update
792:   FUNC GLOBAL PROTECTED 15 _ZN3art9BitVectorC1EbPNS_
793:   FUNC GLOBAL PROTECTED 15 _ZN3art9BitVectorC2ERKS0_
794:   FUNC GLOBAL PROTECTED 15 _ZN3art14GetDalvikCacheEP
795:   FUNC WEAK PROTECTED 15 _ZNSt3__16__treeINS_12__v
796:   FUNC GLOBAL PROTECTED 15 _ZN3art12SleepForeverEv
797:   FUNC GLOBAL DEFAULT 15 LZ4_uncompress_unknownOut
798:   FUNC GLOBAL DEFAULT 15 Ppmd7_UpdateBin
799:   FUNC WEAK PROTECTED 15 _ZNSt3__115basic_stringbu
800:   FUNC GLOBAL PROTECTED 15 _ZN9unix_file6FdFileaSEOS
801:   FUNC GLOBAL PROTECTED 15 _ZN3art8NanoTimeEv
802:   FUNC GLOBAL DEFAULT 15 _Z23ProcessZipEntryConten
803:   FUNC WEAK PROTECTED 15 _ZNSt3__110__function6__f
804:   FUNC GLOBAL PROTECTED 15 _ZN9unix_file6FdFile10Flu
805:   FUNC GLOBAL DEFAULT 15 LZ4_compress
806:   FUNC GLOBAL DEFAULT 15 MatchFinder_ReduceOffsets
807:   FUNC GLOBAL DEFAULT 15 XzUnpacker_Init
808:   FUNC GLOBAL DEFAULT 15 LZ4_freeStreamDecode
809:   FUNC GLOBAL DEFAULT 15 LzmaDec_DecodeToDic
810:   FUNC GLOBAL DEFAULT 15 LZ4_compress_fast_extStat
811:   FUNC GLOBAL DEFAULT 15 LZ4_slideInputBufferHC
812:   FUNC GLOBAL DEFAULT 15 XXH32_createState
813:   FUNC WEAK PROTECTED 15 _ZNK3art23ArenaAllocatorS
814:   FUNC GLOBAL PROTECTED 15 _ZN3art10ArenaStack25Upda
815:   FUNC GLOBAL DEFAULT 15 SecToLook_CreateVTable
816:   FUNC GLOBAL DEFAULT 15 XzCheck_Init
817:   FUNC GLOBAL PROTECTED 15 _ZNK3art14ArenaAllocator8
818:   FUNC WEAK PROTECTED 15 _ZN9unix_file6FdFile17Wri
819:   FUNC GLOBAL DEFAULT 15 _Z9FindEntryP10ZipArchive
820:   FUNC GLOBAL DEFAULT 15 LZ4F_compressBegin
821:   FUNC GLOBAL DEFAULT 15 Xz_Encode
822:   OBJECT GLOBAL PROTECTED 17 _ZN3art18g_malloc_allocat
823:   FUNC GLOBAL PROTECTED 15 _ZN3art14ArenaAllocatorD2
824:   FUNC GLOBAL PROTECTED 15 _ZN3art11MallocArenaD2Ev
825:   FUNC GLOBAL PROTECTED 15 _ZN9unix_file6FdFileC2EiR
826:   FUNC GLOBAL PROTECTED 15 _ZN3art8ZipEntryD1Ev
827:   FUNC GLOBAL DEFAULT 15 LZ4_compressHC2_limitedOu
828:   FUNC GLOBAL DEFAULT 15 LzmaDec_FreeProbs
829:   FUNC GLOBAL DEFAULT 15 AesGenTables
830:   FUNC GLOBAL DEFAULT 15 GetMatchesSpec1
831:   FUNC GLOBAL DEFAULT 15 _ZN10ZipArchiveC2EPvm
832:   FUNC GLOBAL DEFAULT 15 AesCbc_Decode
833:   FUNC GLOBAL DEFAULT 15 Ppmd7_Update1_0
834:   FUNC GLOBAL PROTECTED 15 _ZN3art9BitVectorC1EjbPNS
835:   FUNC GLOBAL DEFAULT 15 Bt3Zip_MatchFinder_GetMat
836:   FUNC GLOBAL DEFAULT 15 LzmaEnc_MemPrepare
837:   FUNC GLOBAL DEFAULT 15 _ZN11zip_archive7InflateE
838:   OBJECT WEAK PROTECTED 19 _ZN3art23ArenaAllocatorSt
839:   FUNC GLOBAL PROTECTED 15 _ZN3art5SplitERKNSt3__112
840:   FUNC GLOBAL DEFAULT 15 MyAlloc
841:   FUNC GLOBAL PROTECTED 15 _ZN3art14GetDalvikCacheEP
842:   FUNC GLOBAL PROTECTED 15 _ZN3art40RuntimeModuleRoo
843:   FUNC GLOBAL DEFAULT 15 LZ4_compress_fast
844:   FUNC GLOBAL DEFAULT 15 Bcj2Dec_Decode
845:   OBJECT WEAK DEFAULT 19 _ZTVNSt3__119basic_ostrin
846:   FUNC GLOBAL PROTECTED 15 _ZN3art12InitTimeSpecEbil
847:   FUNC GLOBAL PROTECTED 15 _ZN3art10PrettySizeEl
848:   FUNC GLOBAL PROTECTED 15 _ZN3art8ZipEntry13Extract
849:   FUNC GLOBAL DEFAULT 15 LZ4_freeHC
850:   FUNC GLOBAL DEFAULT 15 inflateInit_
851:   FUNC GLOBAL DEFAULT 15 _ZNK13MappedZipFile12Read
852:   FUNC GLOBAL DEFAULT 15 _Z12CloseArchiveP10ZipArc
853:   FUNC GLOBAL DEFAULT 15 LZ4_compress_continue
854:   FUNC GLOBAL DEFAULT 15 _Z12EndIterationPv
855:   FUNC GLOBAL PROTECTED 15 _ZN3art9BitVectorC2EjbPNS
856:   FUNC GLOBAL PROTECTED 15 _ZN3art12GetTaskStatsEiPc
857:   FUNC GLOBAL PROTECTED 15 _ZN3artlsERNSt3__113basic
858:   FUNC GLOBAL DEFAULT 15 LZ4_decompress_safe
859:   FUNC GLOBAL DEFAULT 15 FileOutStream_CreateVTabl
860:   FUNC GLOBAL DEFAULT 15 MatchFinder_Construct
861:   FUNC WEAK PROTECTED 15 _ZNSt3__110__function6__f
862:   FUNC GLOBAL PROTECTED 15 _ZN9unix_file6FdFileC2EiR
863:   FUNC WEAK PROTECTED 15 _ZNSt3__113basic_filebufI
864:   FUNC GLOBAL DEFAULT 15 LZ4_setStreamDecode
865:   FUNC GLOBAL DEFAULT 15 XXH32_update
866:   FUNC GLOBAL DEFAULT 15 _Z14StartIterationP10ZipA
867:   FUNC GLOBAL DEFAULT 15 _ZN11zip_archive6WriterD2
868:   FUNC GLOBAL PROTECTED 15 _ZN3art6MemMap26Contained
869:   FUNC GLOBAL PROTECTED 15 _ZN3art6MemMapC2EOS0_
870:   FUNC GLOBAL PROTECTED 15 _ZN3art20ScopedArenaAlloc
871:   FUNC GLOBAL PROTECTED 15 _ZN3art6MemMap14DumpMapsL
872:   FUNC GLOBAL DEFAULT 15 XXH64_reset
873:   FUNC GLOBAL DEFAULT 15 Lzma2EncProps_Init
874:   FUNC GLOBAL PROTECTED 15 _ZN3art27GetDefaultBootIm
875:   FUNC GLOBAL PROTECTED 15 _ZN3art6MemMap15CheckMapR
876:   FUNC GLOBAL PROTECTED 15 _ZN3art6MemMap18TakeReser
877:   FUNC GLOBAL DEFAULT 15 LookInStream_Read
878:   FUNC GLOBAL PROTECTED 15 _ZN3art26GetInstructionSe
879:   FUNC GLOBAL DEFAULT 15 _Z15ErrorCodeStringi
880:   OBJECT GLOBAL DEFAULT 24 g_AesCbc_Encode
881:   FUNC GLOBAL DEFAULT 15 LzmaEnc_Destroy
882:   FUNC GLOBAL DEFAULT 15 Ppmd7_Alloc
883:   FUNC GLOBAL DEFAULT 15 inflateGetDictionary
884:   FUNC GLOBAL PROTECTED 15 _ZN3art11MallocArenaC1Em
885:   FUNC GLOBAL DEFAULT 15 MatchFinder_GetNumAvailab
886:   FUNC GLOBAL DEFAULT 15 LzmaEnc_FreeLits
887:   FUNC GLOBAL DEFAULT 15 Xzs_Construct
888:   FUNC GLOBAL DEFAULT 15 get_crc_table
889:   FUNC GLOBAL PROTECTED 15 _ZN3art25GetAndroidRuntim
890:   FUNC GLOBAL PROTECTED 15 _ZN3art15MallocArenaPool1
891:   FUNC GLOBAL PROTECTED 15 _ZN9unix_file6FdFile7Rele
892:   FUNC GLOBAL DEFAULT 15 LZ4_decompress_safe_force
893:   FUNC GLOBAL DEFAULT 15 Lzma2Enc_Encode2
894:   FUNC GLOBAL DEFAULT 15 adler32_combine64
895:   FUNC GLOBAL PROTECTED 15 _ZN3art14ArenaAllocator17
896:   FUNC GLOBAL PROTECTED 15 _ZNK3art9BitVector11SameB
897:   FUNC GLOBAL PROTECTED 15 _ZN9unix_file6FdFileC2ERK
898:   FUNC GLOBAL PROTECTED 15 _ZN3art10DupCloexecEi
899:   OBJECT GLOBAL PROTECTED 24 _ZN3art13gLogVerbosityE
900:   FUNC GLOBAL PROTECTED 15 _ZN3art9LogHelper15LogLin
901:   FUNC GLOBAL DEFAULT 15 Buf_Init
902:   FUNC GLOBAL DEFAULT 15 Bt3Zip_MatchFinder_Skip
903:   FUNC GLOBAL DEFAULT 15 _ZNK13MappedZipFile13GetF
904:   FUNC GLOBAL DEFAULT 15 LZ4_freeStream
905:   FUNC GLOBAL DEFAULT 15 MatchFinder_ReadIfRequire
906:   FUNC GLOBAL PROTECTED 15 _ZNK9unix_file6FdFile12Re
907:   FUNC GLOBAL PROTECTED 15 _ZN3art19InstructionSetAb
908:   FUNC GLOBAL PROTECTED 15 _ZN3art9BitVector10Ensure
909:   FUNC GLOBAL PROTECTED 15 _ZN3art2OS10FileExistsEPK
910:   FUNC GLOBAL DEFAULT 15 MatchFinder_GetPointerToC
911:   FUNC GLOBAL DEFAULT 15 Ppmd7z_RangeEnc_FlushData
912:   FUNC GLOBAL PROTECTED 15 _ZN3art6MemMap11TryReadab
913:   FUNC GLOBAL PROTECTED 15 _ZN3art13GetThreadNameEi
914:   FUNC GLOBAL DEFAULT 15 LzmaEnc_Encode
915:   FUNC GLOBAL PROTECTED 15 _ZN9unix_file6FdFile4Open
916:   FUNC GLOBAL DEFAULT 15 File_GetLength
917:   FUNC GLOBAL DEFAULT 15 crc32_combine
918:   FUNC GLOBAL PROTECTED 15 _ZN3art6MemMap11SwapMembe
919:   FUNC GLOBAL DEFAULT 15 File_Close
920:   FUNC GLOBAL DEFAULT 15 LzmaCompress
921:   FUNC GLOBAL PROTECTED 15 _ZN3art2OS17OpenFileReadW
922:   FUNC GLOBAL DEFAULT 15 LZ4_compressHC2_withState
923:   FUNC GLOBAL DEFAULT 15 CrcCalc
924:   OBJECT GLOBAL PROTECTED 17 _ZN3art16g_noop_allocator
925:   FUNC GLOBAL PROTECTED 15 _ZN3art14GetAndroidRootEv
926:   OBJECT WEAK PROTECTED 19 _ZTVNSt3__110__function6_
927:   FUNC GLOBAL PROTECTED 15 _ZN3art14PrettyDurationEm
928:   FUNC GLOBAL DEFAULT 15 LZ4F_compressEnd
929:   FUNC GLOBAL DEFAULT 15 crc32_combine64
930:   FUNC GLOBAL DEFAULT 15 SzFree
931:   FUNC GLOBAL PROTECTED 15 _ZN3art27LocationIsOnSyst
932:   FUNC GLOBAL DEFAULT 15 XXH64_copyState
933:   FUNC GLOBAL DEFAULT 15 AesCbc_Encode
934:   FUNC GLOBAL DEFAULT 15 Xzs_GetUnpackSize
935:   FUNC GLOBAL PROTECTED 15 _ZN3art16ReadFileToString
936:   FUNC GLOBAL PROTECTED 15 _ZN3art18GetAndroidDataSa
937:   FUNC GLOBAL DEFAULT 15 XzCheck_Final
938:   FUNC GLOBAL DEFAULT 15 _ZN10ZipArchiveD1Ev
939:   FUNC WEAK PROTECTED 15 _ZNSt3__1plIcNS_11char_tr
940:   FUNC GLOBAL DEFAULT 15 XXH32_digest
941:   FUNC GLOBAL DEFAULT 15 LzmaEnc_Create
942:   OBJECT GLOBAL PROTECTED 24 _ZN3art9gAbortingE
943:   FUNC GLOBAL PROTECTED 15 _ZN3art9BitVectorC1ERKS0_
944:   FUNC GLOBAL DEFAULT 15 LZ4_decompress_fast_using
945:   FUNC GLOBAL DEFAULT 15 LZ4_loadDict
946:   FUNC GLOBAL DEFAULT 15 XXH32_hashFromCanonical
947:   FUNC GLOBAL DEFAULT 15 SzArEx_Init
948:   FUNC GLOBAL DEFAULT 15 inflate_fast
949:   FUNC GLOBAL PROTECTED 15 _ZN3art15MallocArenaPoolD
950:   FUNC GLOBAL PROTECTED 15 _ZN3art6MemMap29MapIntern
951:   FUNC GLOBAL DEFAULT 15 LZ4_compress_destSize
952:   FUNC GLOBAL DEFAULT 15 SeqInStream_Read
953:   FUNC GLOBAL DEFAULT 15 LzmaEnc_SaveState
