 0x0000000e (SONAME)                     Library soname: [libvibrator.so]
  
Symbol   contains 195 entries:
Num:   Type Bind Vis Ndx Name
0:   NOTYPE LOCAL DEFAULT UND
1:   FUNC GLOBAL DEFAULT UND __cxa_atexit@LIBC (2)
2:   FUNC GLOBAL DEFAULT UND __cxa_finalize@LIBC (2)
3:   FUNC GLOBAL DEFAULT UND _ZN7android10IInterfaceC2
4:   FUNC GLOBAL DEFAULT UND _ZN7android10IInterfaceD0
5:   FUNC GLOBAL DEFAULT UND _ZN7android10IInterfaceD1
6:   FUNC GLOBAL DEFAULT UND _ZN7android10IInterfaceD2
7:   FUNC GLOBAL DEFAULT UND _ZN7android14sp_report_ra
8:   FUNC GLOBAL DEFAULT UND _ZN7android6Parcel19write
9:   FUNC GLOBAL DEFAULT UND _ZN7android6Parcel9writeB
10:   FUNC GLOBAL DEFAULT UND _ZN7android6ParcelC1Ev
11:   FUNC GLOBAL DEFAULT UND _ZN7android6ParcelD1Ev
12:   FUNC GLOBAL DEFAULT UND _ZN7android6binder6Status
13:   FUNC GLOBAL DEFAULT UND _ZN7android6binder6Status
14:   FUNC GLOBAL DEFAULT UND _ZN7android6binder6Status
15:   FUNC GLOBAL DEFAULT UND _ZN7android6binder6Status
16:   FUNC GLOBAL DEFAULT UND _ZN7android7BBinder10onTr
17:   FUNC GLOBAL DEFAULT UND _ZN7android7BBinder10ping
18:   FUNC GLOBAL DEFAULT UND _ZN7android7BBinder11link
19:   FUNC GLOBAL DEFAULT UND _ZN7android7BBinder11loca
20:   FUNC GLOBAL DEFAULT UND _ZN7android7BBinder12atta
21:   FUNC GLOBAL DEFAULT UND _ZN7android7BBinder12deta
22:   FUNC GLOBAL DEFAULT UND _ZN7android7BBinder13unli
23:   FUNC GLOBAL DEFAULT UND _ZN7android7BBinder4dumpE
24:   FUNC GLOBAL DEFAULT UND _ZN7android7BBinder8trans
25:   FUNC GLOBAL DEFAULT UND _ZN7android7BBinderD0Ev
26:   FUNC GLOBAL DEFAULT UND _ZN7android7BBinderD1Ev
27:   FUNC GLOBAL DEFAULT UND _ZN7android7IBinder11loca
28:   FUNC GLOBAL DEFAULT UND _ZN7android7IBinder12remo
29:   FUNC GLOBAL DEFAULT UND _ZN7android7IBinder19quer
30:   FUNC GLOBAL DEFAULT UND _ZN7android7IBinderD0Ev
31:   FUNC GLOBAL DEFAULT UND _ZN7android7IBinderD1Ev
32:   FUNC GLOBAL DEFAULT UND _ZN7android7RefBase10onFi
33:   FUNC GLOBAL DEFAULT UND _ZN7android7RefBase13onLa
34:   FUNC GLOBAL DEFAULT UND _ZN7android7RefBase15onLa
35:   FUNC GLOBAL DEFAULT UND _ZN7android7RefBase20onIn
36:   FUNC GLOBAL DEFAULT UND _ZN7android7RefBaseC2Ev
37:   FUNC GLOBAL DEFAULT UND _ZN7android7RefBaseD2Ev
38:   FUNC GLOBAL DEFAULT UND _ZN7android7String8C1ERKS
39:   FUNC GLOBAL DEFAULT UND _ZN7android7String8C1Ev
40:   FUNC GLOBAL DEFAULT UND _ZN7android7String8D1Ev
41:   FUNC GLOBAL DEFAULT UND _ZN7android8String16C1EPK
42:   FUNC GLOBAL DEFAULT UND _ZN7android8String16D1Ev
43:   FUNC GLOBAL DEFAULT UND _ZN7android9BpRefBase10on
44:   FUNC GLOBAL DEFAULT UND _ZN7android9BpRefBase15on
45:   FUNC GLOBAL DEFAULT UND _ZN7android9BpRefBase20on
46:   FUNC GLOBAL DEFAULT UND _ZN7android9BpRefBaseC2ER
47:   FUNC GLOBAL DEFAULT UND _ZN7android9BpRefBaseD0Ev
48:   FUNC GLOBAL DEFAULT UND _ZN7android9BpRefBaseD1Ev
49:   FUNC GLOBAL DEFAULT UND _ZN7android9BpRefBaseD2Ev
50:   FUNC GLOBAL DEFAULT UND _ZNK7android6Parcel14chec
51:   FUNC GLOBAL DEFAULT UND _ZNK7android6Parcel8readB
52:   FUNC GLOBAL DEFAULT UND _ZNK7android6binder6Statu
53:   FUNC GLOBAL DEFAULT UND _ZNK7android7BBinder10fin
54:   FUNC GLOBAL DEFAULT UND _ZNK7android7BBinder13isB
55:   FUNC GLOBAL DEFAULT UND _ZNK7android7BBinder22get
56:   FUNC GLOBAL DEFAULT UND _ZNK7android7IBinder13che
57:   FUNC GLOBAL DEFAULT UND _ZNK7android7RefBase9decS
58:   FUNC GLOBAL DEFAULT UND _ZNK7android7RefBase9incS
59:   FUNC GLOBAL DEFAULT UND _ZNK7android8String164siz
60:   FUNC GLOBAL DEFAULT UND _ZTv0_n12_N7android10IInt
61:   FUNC GLOBAL DEFAULT UND _ZTv0_n12_N7android10IInt
62:   FUNC GLOBAL DEFAULT UND _ZTv0_n12_N7android7BBind
63:   FUNC GLOBAL DEFAULT UND _ZTv0_n12_N7android7BBind
64:   FUNC GLOBAL DEFAULT UND _ZTv0_n12_N7android7IBind
65:   FUNC GLOBAL DEFAULT UND _ZTv0_n12_N7android7IBind
66:   FUNC GLOBAL DEFAULT UND _ZTv0_n12_N7android9BpRef
67:   FUNC GLOBAL DEFAULT UND _ZTv0_n12_N7android9BpRef
68:   FUNC GLOBAL DEFAULT UND _ZTv0_n16_N7android9BpRef
69:   FUNC GLOBAL DEFAULT UND _ZTv0_n20_N7android9BpRef
70:   FUNC GLOBAL DEFAULT UND _ZTv0_n24_N7android9BpRef
71:   FUNC GLOBAL DEFAULT UND _ZdlPv
72:   FUNC GLOBAL DEFAULT UND _Znwj
73:   FUNC GLOBAL DEFAULT UND __cxa_pure_virtual
74:   FUNC GLOBAL DEFAULT UND __stack_chk_fail@LIBC (2)
75:   OBJECT GLOBAL DEFAULT UND __stack_chk_guard@LIBC (2)
76:   FUNC GLOBAL DEFAULT UND strzcmp16
77:   FUNC GLOBAL DEFAULT UND _ZN7android6Parcel10write
78:   FUNC GLOBAL DEFAULT UND _ZN7android6Parcel15write
79:   FUNC GLOBAL DEFAULT UND _ZN7android7BBinderC1Ev
80:   FUNC GLOBAL DEFAULT UND _ZNK7android6Parcel14read
81:   FUNC GLOBAL DEFAULT UND _ZNK7android6Parcel9readI
82:   FUNC GLOBAL DEFAULT UND _ZN7android10IInterface8a
83:   FUNC GLOBAL DEFAULT UND _ZN7android6Parcel13write
84:   FUNC GLOBAL DEFAULT UND _ZN7android6Parcel17write
85:   FUNC GLOBAL DEFAULT UND _ZN7android7String8C1ERKN
86:   FUNC GLOBAL DEFAULT UND _ZNK7android6Parcel12read
87:   FUNC GLOBAL DEFAULT UND _ZNK7android6Parcel16read
88:   FUNC GLOBAL DEFAULT UND _ZNK7android6Parcel9readI
89:   FUNC GLOBAL DEFAULT UND _ZNSt3__112basic_stringIc
90:   FUNC GLOBAL DEFAULT UND _ZNSt3__112basic_stringIc
91:   FUNC GLOBAL DEFAULT UND memcpy@LIBC (2)
92:   FUNC GLOBAL DEFAULT UND memset@LIBC (2)
93:   OBJECT GLOBAL DEFAULT 17 _ZTVN7android2os28IExtern
94:   FUNC GLOBAL DEFAULT 13 _ZN7android2os17ExternalV
95:   OBJECT GLOBAL DEFAULT 17 _ZTCN7android2os29BpExter
96:   FUNC GLOBAL DEFAULT 13 _ZN7android2os24IExternal
97:   OBJECT GLOBAL DEFAULT 17 _ZTVN7android2os31IExtern
98:   FUNC GLOBAL DEFAULT 13 _ZN7android2os35IExternal
99:   OBJECT GLOBAL DEFAULT 17 _ZTVN7android2os25BnExter
100:   FUNC GLOBAL DEFAULT 13 __aeabi_memclr8
101:   FUNC WEAK DEFAULT 13 _ZN7android11BnInterfaceI
102:   FUNC GLOBAL DEFAULT 13 _ZN7android2os24IExternal
103:   FUNC GLOBAL DEFAULT 13 _ZN7android2os25BpExterna
104:   OBJECT GLOBAL DEFAULT 17 _ZTCN7android2os25BpExter
105:   OBJECT GLOBAL DEFAULT 17 _ZTVN7android2os17Externa
106:   FUNC GLOBAL DEFAULT 13 _Z20writeAudioAttributesR
107:   FUNC GLOBAL DEFAULT 13 __aeabi_memset
108:   OBJECT GLOBAL DEFAULT 17 _ZTCN7android2os25BnExter
109:   OBJECT GLOBAL DEFAULT 17 _ZTTN7android2os31IExtern
110:   OBJECT GLOBAL DEFAULT 17 _ZTTN7android2os28IExtern
111:   FUNC GLOBAL DEFAULT 13 _ZTv0_n12_N7android2os28I
112:   FUNC GLOBAL DEFAULT 13 _ZN7android2os24IExternal
113:   FUNC GLOBAL DEFAULT 13 _ZN7android2os29BpExterna
114:   FUNC GLOBAL DEFAULT 13 _ZN7android2os25BpExterna
115:   OBJECT GLOBAL DEFAULT 17 _ZTCN7android2os31IExtern
116:   FUNC GLOBAL DEFAULT 13 _ZTv0_n12_N7android2os24I
117:   OBJECT WEAK DEFAULT 17 _ZTVN7android10Parcelable
118:   FUNC GLOBAL DEFAULT 13 _ZN7android2os29BpExterna
119:   OBJECT GLOBAL DEFAULT 17 _ZTCN7android2os29BpExter
120:   FUNC WEAK DEFAULT 13 _ZN7android11BnInterfaceI
121:   FUNC GLOBAL DEFAULT 13 _ZN7android2os28IExternal
122:   OBJECT GLOBAL DEFAULT 17 _ZTVN7android2os35IExtern
123:   FUNC GLOBAL DEFAULT 13 _ZN7android2os25BnExterna
124:   OBJECT GLOBAL DEFAULT 17 _ZTTN7android2os25BpExter
125:   FUNC GLOBAL DEFAULT 13 __aeabi_memclr
126:   FUNC GLOBAL DEFAULT 13 __aeabi_memset4
127:   OBJECT GLOBAL DEFAULT 17 _ZTCN7android2os29BpExter
128:   OBJECT GLOBAL DEFAULT 17 _ZTCN7android2os35IExtern
129:   FUNC GLOBAL DEFAULT 13 _ZN7android2os31IExternal
130:   FUNC GLOBAL DEFAULT 13 _ZN7android2os28IExternal
131:   FUNC GLOBAL DEFAULT 13 _ZN7android2os24IExternal
132:   FUNC GLOBAL DEFAULT 13 _ZN7android2os25BpExterna
133:   FUNC GLOBAL DEFAULT 13 _ZN7android2os31IExternal
134:   FUNC GLOBAL DEFAULT 13 __aeabi_memcpy4
135:   FUNC GLOBAL DEFAULT 13 _ZN7android2os28IExternal
136:   OBJECT GLOBAL DEFAULT 17 _ZTVN7android2os29BnExter
137:   OBJECT GLOBAL DEFAULT 17 _ZTCN7android2os25BpExter
138:   FUNC GLOBAL DEFAULT 13 _ZN7android2os17ExternalV
139:   FUNC GLOBAL DEFAULT 13 __aeabi_memset8
140:   OBJECT GLOBAL DEFAULT 22 _ZN7android2os28IExternal
141:   FUNC GLOBAL DEFAULT 13 _ZN7android2os29BpExterna
142:   OBJECT GLOBAL DEFAULT 17 _ZTCN7android2os35IExtern
143:   OBJECT GLOBAL DEFAULT 22 _ZN7android2os24IExternal
144:   FUNC GLOBAL DEFAULT 13 _ZN7android2os24IExternal
145:   OBJECT GLOBAL DEFAULT 17 _ZTVN7android2os24IExtern
146:   OBJECT GLOBAL DEFAULT 17 _ZTCN7android2os29BnExter
147:   OBJECT GLOBAL DEFAULT 17 _ZTCN7android2os29BnExter
148:   OBJECT GLOBAL DEFAULT 22 _ZN7android2os24IExternal
149:   FUNC GLOBAL DEFAULT 13 _ZN7android2os24IExternal
150:   FUNC GLOBAL DEFAULT 13 _ZN7android2os31IExternal
151:   OBJECT GLOBAL DEFAULT 17 _ZTCN7android2os25BnExter
152:   OBJECT GLOBAL DEFAULT 17 _ZTCN7android2os25BpExter
153:   FUNC GLOBAL DEFAULT 13 _ZN7android2os17ExternalV
154:   FUNC GLOBAL DEFAULT 13 __aeabi_memcpy8
155:   FUNC GLOBAL DEFAULT 13 _ZN7android2os29BnExterna
156:   OBJECT GLOBAL DEFAULT 17 _ZTVN7android2os29BpExter
157:   OBJECT GLOBAL DEFAULT 17 _ZTVN7android2os25BpExter
158:   FUNC GLOBAL DEFAULT 13 _ZNK7android2os17External
159:   OBJECT GLOBAL DEFAULT 17 _ZTCN7android2os28IExtern
160:   FUNC GLOBAL DEFAULT 13 _ZTv0_n12_N7android2os28I
161:   FUNC GLOBAL DEFAULT 13 _ZNK7android2os24IExterna
162:   OBJECT GLOBAL DEFAULT 17 _ZTCN7android2os25BnExter
163:   OBJECT GLOBAL DEFAULT 17 _ZTCN7android2os25BpExter
164:   FUNC GLOBAL DEFAULT 13 _ZThn4_N7android2os25BnEx
165:   OBJECT GLOBAL DEFAULT 17 _ZTCN7android2os29BnExter
166:   FUNC GLOBAL DEFAULT 13 _ZN7android2os28IExternal
167:   FUNC GLOBAL DEFAULT 13 _ZN7android2os35IExternal
168:   OBJECT GLOBAL DEFAULT 17 _ZTCN7android2os29BpExter
169:   OBJECT GLOBAL DEFAULT 17 _ZTTN7android2os35IExtern
170:   OBJECT GLOBAL DEFAULT 17 _ZTCN7android2os24IExtern
171:   OBJECT GLOBAL DEFAULT 17 _ZTCN7android2os25BnExter
172:   OBJECT GLOBAL DEFAULT 17 _ZTCN7android2os29BnExter
173:   OBJECT GLOBAL DEFAULT 17 _ZTTN7android2os17Externa
174:   FUNC GLOBAL DEFAULT 13 _ZTv0_n12_N7android2os24I
175:   FUNC GLOBAL DEFAULT 13 _ZN7android2os35IExternal
176:   OBJECT GLOBAL DEFAULT 17 _ZTCN7android2os31IExtern
177:   OBJECT GLOBAL DEFAULT 22 _ZN7android2os28IExternal
178:   FUNC GLOBAL DEFAULT 13 _ZN7android2os28IExternal
179:   FUNC GLOBAL DEFAULT 13 _ZNK7android2os28IExterna
180:   OBJECT GLOBAL DEFAULT 17 _ZTTN7android2os29BpExter
181:   FUNC GLOBAL DEFAULT 13 _ZN7android2os25BpExterna
182:   OBJECT GLOBAL DEFAULT 17 _ZTCN7android2os25BnExter
183:   OBJECT GLOBAL DEFAULT 17 _ZTTN7android2os24IExtern
184:   FUNC GLOBAL DEFAULT 13 _Z19readAudioAttributesP1
185:   FUNC GLOBAL DEFAULT 13 __aeabi_memcpy
186:   FUNC GLOBAL DEFAULT 13 _ZN7android2os28IExternal
187:   FUNC GLOBAL DEFAULT 13 _ZN7android2os29BpExterna
188:   OBJECT GLOBAL DEFAULT 17 _ZTTN7android2os29BnExter
189:   FUNC GLOBAL DEFAULT 13 __aeabi_memclr4
190:   FUNC GLOBAL DEFAULT 13 _ZN7android2os28IExternal
191:   OBJECT GLOBAL DEFAULT 17 _ZTCN7android2os29BnExter
192:   FUNC GLOBAL DEFAULT 13 _ZThn4_N7android2os29BnEx
193:   FUNC GLOBAL DEFAULT 13 _ZN7android2os24IExternal
194:   OBJECT GLOBAL DEFAULT 17 _ZTTN7android2os25BnExter
