 0x000000000000000e (SONAME)             Library soname: [libmedia_helper.so]
  
Symbol   contains 252 entries:
Num:   Type Bind Vis Ndx Name
0:   NOTYPE LOCAL DEFAULT UND
1:   FUNC GLOBAL DEFAULT UND __cxa_finalize@LIBC (2)
2:   FUNC GLOBAL DEFAULT UND _ZN7android10VectorImpl13
3:   FUNC GLOBAL DEFAULT UND _ZN7android10VectorImpl5c
4:   FUNC GLOBAL DEFAULT UND _ZN7android16SortedVector
5:   FUNC GLOBAL DEFAULT UND _ZN7android16SortedVector
6:   FUNC GLOBAL DEFAULT UND _ZN7android16SortedVector
7:   FUNC GLOBAL DEFAULT UND _ZN7android16SortedVector
8:   FUNC GLOBAL DEFAULT UND _ZN7android7String85setTo
9:   FUNC GLOBAL DEFAULT UND _ZN7android7String86appen
10:   FUNC GLOBAL DEFAULT UND _ZN7android7String86appen
11:   FUNC GLOBAL DEFAULT UND _ZN7android7String8C1EPKc
12:   FUNC GLOBAL DEFAULT UND _ZN7android7String8C1EPKc
13:   FUNC GLOBAL DEFAULT UND _ZN7android7String8C1ERKS
14:   FUNC GLOBAL DEFAULT UND _ZN7android7String8C1Ev
15:   FUNC GLOBAL DEFAULT UND _ZN7android7String8D1Ev
16:   FUNC GLOBAL DEFAULT UND _ZNK7android16SortedVecto
17:   FUNC GLOBAL DEFAULT UND _ZNK7android7String86leng
18:   FUNC GLOBAL DEFAULT UND _ZdaPv
19:   FUNC GLOBAL DEFAULT UND _ZdlPv
20:   FUNC GLOBAL DEFAULT UND _Znam
21:   FUNC GLOBAL DEFAULT UND __android_log_assert@LIBLOG (3)
22:   FUNC GLOBAL DEFAULT UND __stack_chk_fail@LIBC (2)
23:   FUNC GLOBAL DEFAULT UND __vsnprintf_chk@LIBC (2)
24:   FUNC GLOBAL DEFAULT UND memmove@LIBC (2)
25:   FUNC GLOBAL DEFAULT UND sscanf@LIBC (2)
26:   FUNC GLOBAL DEFAULT UND strcmp@LIBC (2)
27:   FUNC GLOBAL DEFAULT UND strcpy@LIBC (2)
28:   FUNC GLOBAL DEFAULT UND strcspn@LIBC (2)
29:   FUNC GLOBAL DEFAULT UND strlen@LIBC (2)
30:   FUNC GLOBAL DEFAULT UND strtok_r@LIBC (2)
31:   FUNC GLOBAL DEFAULT UND _ZN7android10VectorImpl3a
32:   FUNC GLOBAL DEFAULT UND _ZN7android10VectorImplC2
33:   FUNC GLOBAL DEFAULT UND _ZN7android10VectorImplD2
34:   FUNC GLOBAL DEFAULT UND _ZNKSt3__112basic_stringI
35:   FUNC GLOBAL DEFAULT UND _ZNKSt3__112basic_stringI
36:   FUNC GLOBAL DEFAULT UND _ZNKSt3__120__vector_base
37:   FUNC GLOBAL DEFAULT UND _ZNKSt3__121__basic_strin
38:   FUNC GLOBAL DEFAULT UND _ZNSt3__112basic_stringIc
39:   FUNC GLOBAL DEFAULT UND _ZNSt3__112basic_stringIc
40:   FUNC GLOBAL DEFAULT UND _ZNSt3__112basic_stringIc
41:   FUNC GLOBAL DEFAULT UND _ZNSt3__112basic_stringIc
42:   FUNC GLOBAL DEFAULT UND _ZNSt3__112basic_stringIc
43:   FUNC GLOBAL DEFAULT UND _ZNSt3__112basic_stringIc
44:   FUNC GLOBAL DEFAULT UND _ZNSt3__113basic_istreamI
45:   FUNC GLOBAL DEFAULT UND _ZNSt3__113basic_istreamI
46:   FUNC GLOBAL DEFAULT UND _ZNSt3__113basic_istreamI
47:   FUNC GLOBAL DEFAULT UND _ZNSt3__113basic_ostreamI
48:   FUNC GLOBAL DEFAULT UND _ZNSt3__113basic_ostreamI
49:   FUNC GLOBAL DEFAULT UND _ZNSt3__114basic_iostream
50:   FUNC GLOBAL DEFAULT UND _ZNSt3__114basic_iostream
51:   FUNC GLOBAL DEFAULT UND _ZNSt3__114basic_iostream
52:   FUNC GLOBAL DEFAULT UND _ZNSt3__115basic_streambu
53:   FUNC GLOBAL DEFAULT UND _ZNSt3__115basic_streambu
54:   FUNC GLOBAL DEFAULT UND _ZNSt3__115basic_streambu
55:   FUNC GLOBAL DEFAULT UND _ZNSt3__115basic_streambu
56:   FUNC GLOBAL DEFAULT UND _ZNSt3__115basic_streambu
57:   FUNC GLOBAL DEFAULT UND _ZNSt3__115basic_streambu
58:   FUNC GLOBAL DEFAULT UND _ZNSt3__115basic_streambu
59:   FUNC GLOBAL DEFAULT UND _ZNSt3__115basic_streambu
60:   FUNC GLOBAL DEFAULT UND _ZNSt3__115basic_streambu
61:   FUNC GLOBAL DEFAULT UND _ZNSt3__18ios_base4initEP
62:   FUNC GLOBAL DEFAULT UND _ZNSt3__19basic_iosIcNS_1
63:   FUNC GLOBAL DEFAULT UND _ZThn16_NSt3__114basic_io
64:   FUNC GLOBAL DEFAULT UND _ZThn16_NSt3__114basic_io
65:   FUNC GLOBAL DEFAULT UND _ZTv0_n24_NSt3__113basic_
66:   FUNC GLOBAL DEFAULT UND _ZTv0_n24_NSt3__113basic_
67:   FUNC GLOBAL DEFAULT UND _ZTv0_n24_NSt3__113basic_
68:   FUNC GLOBAL DEFAULT UND _ZTv0_n24_NSt3__113basic_
69:   FUNC GLOBAL DEFAULT UND _ZTv0_n24_NSt3__114basic_
70:   FUNC GLOBAL DEFAULT UND _ZTv0_n24_NSt3__114basic_
71:   FUNC GLOBAL DEFAULT UND _Znwm
72:   FUNC GLOBAL DEFAULT UND abort@LIBC (2)
73:   FUNC GLOBAL DEFAULT UND free@LIBC (2)
74:   FUNC GLOBAL DEFAULT UND memcpy@LIBC (2)
75:   FUNC GLOBAL DEFAULT UND strdup@LIBC (2)
76:   FUNC GLOBAL DEFAULT UND strtok@LIBC (2)
77:   FUNC WEAK DEFAULT 14 _ZN7android13TypeConverte
78:   FUNC WEAK DEFAULT 14 _ZNK7android6VectorI14aud
79:   FUNC WEAK DEFAULT 14 _ZN7android13TypeConverte
80:   OBJECT GLOBAL DEFAULT 18 _ZN7android14AudioParamet
81:   FUNC WEAK DEFAULT 14 _ZN7android13TypeConverte
82:   FUNC WEAK DEFAULT 14 _ZN7android13TypeConverte
83:   FUNC WEAK DEFAULT 14 _ZN7android13TypeConverte
84:   OBJECT GLOBAL DEFAULT 18 _ZN7android14AudioParamet
85:   FUNC GLOBAL DEFAULT 14 _ZN7android14AudioParamet
86:   FUNC GLOBAL DEFAULT 14 _ZN7android14AudioParamet
87:   FUNC WEAK DEFAULT 14 _ZN7android13TypeConverte
88:   OBJECT GLOBAL DEFAULT 18 _ZN7android14AudioParamet
89:   FUNC WEAK DEFAULT 14 _ZNK7android12SortedVecto
90:   FUNC GLOBAL DEFAULT 14 _ZNK7android14AudioParame
91:   OBJECT GLOBAL DEFAULT 18 _ZTVN7android14AudioParam
92:   FUNC WEAK DEFAULT 14 _ZN7android13TypeConverte
93:   FUNC WEAK DEFAULT 14 _ZN7android13TypeConverte
94:   FUNC WEAK DEFAULT 14 _ZNSt3__115basic_stringbu
95:   OBJECT GLOBAL DEFAULT 18 _ZN7android13TypeConverte
96:   FUNC WEAK DEFAULT 14 _ZNK7android12SortedVecto
97:   FUNC WEAK DEFAULT 14 _ZN7android13TypeConverte
98:   OBJECT GLOBAL DEFAULT 18 _ZN7android13TypeConverte
99:   FUNC WEAK DEFAULT 14 _ZNSt3__16vectorI19audio_
100:   FUNC WEAK DEFAULT 14 _ZNK7android12SortedVecto
101:   FUNC WEAK DEFAULT 14 _ZN7android13TypeConverte
102:   OBJECT GLOBAL DEFAULT 18 _ZN7android13TypeConverte
103:   FUNC WEAK DEFAULT 14 _ZN7android13TypeConverte
104:   FUNC WEAK DEFAULT 14 _ZN7android13TypeConverte
105:   FUNC WEAK DEFAULT 14 _ZN7android13TypeConverte
106:   FUNC GLOBAL DEFAULT 14 _ZN7android17formatsFromS
107:   FUNC WEAK DEFAULT 14 _ZNSt3__115basic_stringbu
108:   OBJECT GLOBAL DEFAULT 18 _ZN7android14AudioParamet
109:   FUNC WEAK DEFAULT 14 _ZN7android13TypeConverte
110:   FUNC WEAK DEFAULT 14 _ZN7android13TypeConverte
111:   FUNC GLOBAL DEFAULT 14 _ZNK7android14AudioParame
112:   FUNC WEAK DEFAULT 14 _ZN7android13TypeConverte
113:   FUNC WEAK DEFAULT 14 _ZN7android13TypeConverte
114:   OBJECT GLOBAL DEFAULT 18 _ZN7android14AudioParamet
115:   FUNC WEAK DEFAULT 14 _ZN7android13TypeConverte
116:   OBJECT GLOBAL DEFAULT 18 _ZN7android13TypeConverte
117:   FUNC WEAK DEFAULT 14 _ZN7android13TypeConverte
118:   FUNC WEAK DEFAULT 14 _ZNK7android6VectorI14aud
119:   OBJECT GLOBAL DEFAULT 18 _ZN7android14AudioParamet
120:   FUNC WEAK DEFAULT 14 _ZNK7android12SortedVecto
121:   FUNC WEAK DEFAULT 14 _ZN7android13TypeConverte
122:   FUNC WEAK DEFAULT 14 _ZN7android13TypeConverte
123:   FUNC GLOBAL DEFAULT 14 _ZN7android16formatFromSt
124:   OBJECT GLOBAL DEFAULT 18 _ZN7android14AudioParamet
125:   OBJECT GLOBAL DEFAULT 18 _ZN7android14AudioParamet
126:   OBJECT GLOBAL DEFAULT 18 _ZN7android14AudioParamet
127:   FUNC WEAK DEFAULT 14 _ZN7android13TypeConverte
128:   FUNC WEAK DEFAULT 14 _ZN7android13TypeConverte
129:   OBJECT GLOBAL DEFAULT 18 _ZN7android13TypeConverte
130:   FUNC GLOBAL DEFAULT 14 _ZN7android21channelMaskF
131:   OBJECT GLOBAL DEFAULT 18 _ZN7android14AudioParamet
132:   FUNC WEAK DEFAULT 14 _ZN7android13TypeConverte
133:   OBJECT GLOBAL DEFAULT 18 _ZN7android13TypeConverte
134:   FUNC WEAK DEFAULT 14 _ZNK7android12SortedVecto
135:   OBJECT GLOBAL DEFAULT 18 _ZN7android13TypeConverte
136:   FUNC WEAK DEFAULT 14 _ZN7android13TypeConverte
137:   FUNC GLOBAL DEFAULT 14 _ZN7android16deviceFromSt
138:   FUNC WEAK DEFAULT 14 _ZNSt3__16vectorI20audio_
139:   OBJECT WEAK DEFAULT 18 _ZTVNSt3__118basic_string
140:   OBJECT GLOBAL DEFAULT 18 _ZN7android14AudioParamet
141:   FUNC WEAK DEFAULT 14 _ZNSt3__16vectorI14audio_
142:   FUNC GLOBAL DEFAULT 14 _ZN7android14AudioParamet
143:   FUNC GLOBAL DEFAULT 14 _ZNK7android14AudioParame
144:   FUNC WEAK DEFAULT 14 _ZN7android13TypeConverte
145:   FUNC WEAK DEFAULT 14 _ZN7android13TypeConverte
146:   OBJECT GLOBAL DEFAULT 18 _ZN7android13TypeConverte
147:   FUNC WEAK DEFAULT 14 _ZN7android13TypeConverte
148:   FUNC WEAK DEFAULT 14 _ZN7android13TypeConverte
149:   FUNC WEAK DEFAULT 14 _ZNSt3__16vectorI19audio_
150:   OBJECT GLOBAL DEFAULT 18 _ZN7android14AudioParamet
151:   FUNC GLOBAL DEFAULT 14 _ZNK7android14AudioParame
152:   FUNC WEAK DEFAULT 14 _ZN7android13TypeConverte
153:   OBJECT WEAK DEFAULT 18 _ZTTNSt3__118basic_string
154:   OBJECT WEAK DEFAULT 18 _ZTVN7android12SortedVect
155:   FUNC GLOBAL DEFAULT 14 _ZN7android14AudioParamet
156:   FUNC WEAK DEFAULT 14 _ZNK7android12SortedVecto
157:   FUNC WEAK DEFAULT 14 _ZN7android13TypeConverte
158:   FUNC WEAK DEFAULT 14 _ZN7android13TypeConverte
159:   FUNC WEAK DEFAULT 14 _ZN7android13TypeConverte
160:   FUNC WEAK DEFAULT 14 _ZNK7android6VectorI14aud
161:   OBJECT GLOBAL DEFAULT 18 _ZN7android14AudioParamet
162:   OBJECT GLOBAL DEFAULT 18 _ZN7android14AudioParamet
163:   OBJECT GLOBAL DEFAULT 18 _ZN7android14AudioParamet
164:   OBJECT GLOBAL DEFAULT 18 _ZN7android14AudioParamet
165:   FUNC WEAK DEFAULT 14 _ZN7android13TypeConverte
166:   FUNC WEAK DEFAULT 14 _ZNSt3__16vectorI13audio_
167:   OBJECT WEAK DEFAULT 18 _ZTVN7android12SortedVect
168:   FUNC WEAK DEFAULT 14 _ZN7android13TypeConverte
169:   FUNC WEAK DEFAULT 14 _ZNK7android12SortedVecto
170:   FUNC WEAK DEFAULT 14 _ZNK7android12SortedVecto
171:   OBJECT WEAK DEFAULT 18 _ZTVNSt3__115basic_string
172:   OBJECT GLOBAL DEFAULT 18 _ZN7android13TypeConverte
173:   FUNC WEAK DEFAULT 14 _ZN7android13TypeConverte
174:   FUNC WEAK DEFAULT 14 _ZN7android13TypeConverte
175:   OBJECT GLOBAL DEFAULT 18 _ZN7android14AudioParamet
176:   FUNC WEAK DEFAULT 14 _ZNK7android12SortedVecto
177:   FUNC GLOBAL DEFAULT 14 _ZNK7android14AudioParame
178:   FUNC WEAK DEFAULT 14 _ZN7android13TypeConverte
179:   FUNC WEAK DEFAULT 14 _ZN7android13TypeConverte
180:   FUNC GLOBAL DEFAULT 14 _ZNK7android14AudioParame
181:   FUNC WEAK DEFAULT 14 _ZNK7android12SortedVecto
182:   OBJECT GLOBAL DEFAULT 18 _ZN7android14AudioParamet
183:   FUNC WEAK DEFAULT 14 _ZNK7android12SortedVecto
184:   OBJECT GLOBAL DEFAULT 18 _ZN7android13TypeConverte
185:   FUNC WEAK DEFAULT 14 _ZN7android13TypeConverte
186:   FUNC WEAK DEFAULT 14 _ZN7android13TypeConverte
187:   FUNC WEAK DEFAULT 14 _ZN7android13TypeConverte
188:   FUNC WEAK DEFAULT 14 _ZNSt3__115basic_stringbu
189:   OBJECT WEAK DEFAULT 18 _ZTCNSt3__118basic_string
190:   FUNC GLOBAL DEFAULT 14 _ZN7android14AudioParamet
191:   FUNC GLOBAL DEFAULT 14 _ZN7android14AudioParamet
192:   OBJECT GLOBAL DEFAULT 18 _ZN7android13TypeConverte
193:   OBJECT GLOBAL DEFAULT 18 _ZN7android14AudioParamet
194:   FUNC WEAK DEFAULT 14 _ZN7android13TypeConverte
195:   FUNC GLOBAL DEFAULT 14 _ZN7android23samplingRate
196:   FUNC WEAK DEFAULT 14 _ZNSt3__16vectorI12audio_
197:   OBJECT WEAK DEFAULT 18 _ZTCNSt3__118basic_string
198:   OBJECT GLOBAL DEFAULT 18 _ZN7android13TypeConverte
199:   FUNC WEAK DEFAULT 14 _ZN7android13TypeConverte
200:   FUNC WEAK DEFAULT 14 _ZN7android13TypeConverte
201:   FUNC WEAK DEFAULT 14 _ZN7android13TypeConverte
202:   OBJECT GLOBAL DEFAULT 18 _ZN7android14AudioParamet
203:   FUNC WEAK DEFAULT 14 _ZN7android13TypeConverte
204:   FUNC WEAK DEFAULT 14 _ZN7android13TypeConverte
205:   OBJECT GLOBAL DEFAULT 18 _ZN7android13TypeConverte
206:   OBJECT WEAK DEFAULT 18 _ZTCNSt3__118basic_string
207:   FUNC GLOBAL DEFAULT 14 _ZN7android14AudioParamet
208:   FUNC WEAK DEFAULT 14 _ZN7android13TypeConverte
209:   FUNC WEAK DEFAULT 14 _ZN7android13TypeConverte
210:   FUNC WEAK DEFAULT 14 _ZN7android13TypeConverte
211:   FUNC WEAK DEFAULT 14 _ZNK7android6VectorI14aud
212:   FUNC WEAK DEFAULT 14 _ZNK7android6VectorI14aud
213:   FUNC WEAK DEFAULT 14 _ZNSt3__115basic_stringbu
214:   FUNC WEAK DEFAULT 14 _ZNSt3__16vectorIjNS_9all
215:   OBJECT GLOBAL DEFAULT 18 _ZN7android14AudioParamet
216:   FUNC GLOBAL DEFAULT 14 _ZN7android14AudioParamet
217:   FUNC WEAK DEFAULT 14 _ZN7android13TypeConverte
218:   FUNC WEAK DEFAULT 14 _ZN7android13TypeConverte
219:   FUNC WEAK DEFAULT 14 _ZN7android13TypeConverte
220:   FUNC WEAK DEFAULT 14 _ZN7android13TypeConverte
221:   FUNC WEAK DEFAULT 14 _ZN7android13TypeConverte
222:   FUNC WEAK DEFAULT 14 _ZN7android13TypeConverte
223:   OBJECT GLOBAL DEFAULT 18 _ZN7android13TypeConverte
224:   FUNC WEAK DEFAULT 14 _ZNK7android12SortedVecto
225:   FUNC WEAK DEFAULT 14 _ZNK7android12SortedVecto
226:   OBJECT WEAK DEFAULT 18 _ZTVN7android6VectorI14au
227:   OBJECT GLOBAL DEFAULT 18 _ZN7android14AudioParamet
228:   FUNC WEAK DEFAULT 14 _ZN7android13TypeConverte
229:   OBJECT GLOBAL DEFAULT 18 _ZN7android14AudioParamet
230:   FUNC GLOBAL DEFAULT 14 _ZN7android14AudioParamet
231:   FUNC WEAK DEFAULT 14 _ZN7android13TypeConverte
232:   FUNC WEAK DEFAULT 14 _ZN7android13TypeConverte
233:   FUNC GLOBAL DEFAULT 14 _ZN7android27inputChannel
234:   FUNC GLOBAL DEFAULT 14 _ZN7android14AudioParamet
235:   FUNC WEAK DEFAULT 14 _ZN7android13TypeConverte
236:   FUNC WEAK DEFAULT 14 _ZNK7android12SortedVecto
237:   FUNC WEAK DEFAULT 14 _ZNSt3__115basic_stringbu
238:   FUNC GLOBAL DEFAULT 14 _ZN7android28outputChanne
239:   OBJECT GLOBAL DEFAULT 18 _ZN7android14AudioParamet
240:   FUNC WEAK DEFAULT 14 _ZN7android13TypeConverte
241:   FUNC WEAK DEFAULT 14 _ZN7android13TypeConverte
242:   FUNC WEAK DEFAULT 14 _ZN7android13TypeConverte
243:   FUNC WEAK DEFAULT 14 _ZN7android13TypeConverte
244:   FUNC WEAK DEFAULT 14 _ZN7android13TypeConverte
245:   FUNC WEAK DEFAULT 14 _ZN7android13TypeConverte
246:   OBJECT GLOBAL DEFAULT 18 _ZN7android13TypeConverte
247:   FUNC WEAK DEFAULT 14 _ZN7android13TypeConverte
248:   FUNC WEAK DEFAULT 14 _ZN7android13TypeConverte
249:   FUNC WEAK DEFAULT 14 _ZN7android13TypeConverte
250:   FUNC GLOBAL DEFAULT 14 _ZN7android22channelMasks
251:   FUNC WEAK DEFAULT 14 _ZNK7android6VectorI14aud
