 0x000000000000000e (SONAME)             Library soname: [android.hardware.renderscript@1.0.so]
  
Symbol   contains 539 entries:
Num:   Type Bind Vis Ndx Name
0:   NOTYPE LOCAL DEFAULT UND
1:   FUNC GLOBAL DEFAULT UND __cxa_finalize@LIBC (2)
2:   FUNC GLOBAL DEFAULT UND _ZN7android14sp_report_ra
3:   FUNC GLOBAL DEFAULT UND _ZN7android21report_syspr
4:   OBJECT GLOBAL DEFAULT UND _ZN7android4hidl4base4V1_
5:   FUNC GLOBAL DEFAULT UND _ZN7android4hidl4base4V1_
6:   FUNC GLOBAL DEFAULT UND _ZN7android4hidl4base4V1_
7:   FUNC GLOBAL DEFAULT UND _ZN7android4hidl4base4V1_
8:   FUNC GLOBAL DEFAULT UND _ZN7android4hidl4base4V1_
9:   FUNC GLOBAL DEFAULT UND _ZN7android4hidl4base4V1_
10:   FUNC GLOBAL DEFAULT UND _ZN7android4hidl4base4V1_
11:   FUNC GLOBAL DEFAULT UND _ZN7android4hidl4base4V1_
12:   FUNC GLOBAL DEFAULT UND _ZN7android4hidl4base4V1_
13:   FUNC GLOBAL DEFAULT UND _ZN7android4hidl4base4V1_
14:   FUNC GLOBAL DEFAULT UND _ZN7android4hidl4base4V1_
15:   FUNC GLOBAL DEFAULT UND _ZN7android4hidl4base4V1_
16:   FUNC GLOBAL DEFAULT UND _ZN7android4hidl4base4V1_
17:   FUNC GLOBAL DEFAULT UND _ZN7android4hidl4base4V1_
18:   FUNC GLOBAL DEFAULT UND _ZN7android4hidl4base4V1_
19:   FUNC GLOBAL DEFAULT UND _ZN7android4hidl4base4V1_
20:   FUNC GLOBAL DEFAULT UND _ZN7android4hidl4base4V1_
21:   FUNC GLOBAL DEFAULT UND _ZN7android4hidl4base4V1_
22:   FUNC GLOBAL DEFAULT UND _ZN7android4hidl4base4V1_
23:   FUNC GLOBAL DEFAULT UND _ZN7android4hidl4base4V1_
24:   FUNC GLOBAL DEFAULT UND _ZN7android4hidl4base4V1_
25:   FUNC GLOBAL DEFAULT UND _ZN7android4hidl4base4V1_
26:   FUNC GLOBAL DEFAULT UND _ZN7android4hidl4base4V1_
27:   FUNC GLOBAL DEFAULT UND _ZN7android4hidl4base4V1_
28:   FUNC GLOBAL DEFAULT UND _ZN7android7RefBase10onFi
29:   FUNC GLOBAL DEFAULT UND _ZN7android7RefBase12weak
30:   FUNC GLOBAL DEFAULT UND _ZN7android7RefBase13onLa
31:   FUNC GLOBAL DEFAULT UND _ZN7android7RefBase15onLa
32:   FUNC GLOBAL DEFAULT UND _ZN7android7RefBase20onIn
33:   FUNC GLOBAL DEFAULT UND _ZN7android7RefBaseC2Ev
34:   FUNC GLOBAL DEFAULT UND _ZN7android7RefBaseD2Ev
35:   FUNC GLOBAL DEFAULT UND _ZN7android8hardware10IIn
36:   FUNC GLOBAL DEFAULT UND _ZN7android8hardware10IIn
37:   FUNC GLOBAL DEFAULT UND _ZN7android8hardware10IIn
38:   FUNC GLOBAL DEFAULT UND _ZN7android8hardware10IIn
39:   FUNC GLOBAL DEFAULT UND _ZN7android8hardware10IIn
40:   FUNC GLOBAL DEFAULT UND _ZN7android8hardware11BpH
41:   FUNC GLOBAL DEFAULT UND _ZN7android8hardware11BpH
42:   FUNC GLOBAL DEFAULT UND _ZN7android8hardware11BpH
43:   FUNC GLOBAL DEFAULT UND _ZN7android8hardware11BpH
44:   FUNC GLOBAL DEFAULT UND _ZN7android8hardware11BpH
45:   FUNC GLOBAL DEFAULT UND _ZN7android8hardware11BpH
46:   FUNC GLOBAL DEFAULT UND _ZN7android8hardware11BpH
47:   FUNC GLOBAL DEFAULT UND _ZN7android8hardware11hid
48:   FUNC GLOBAL DEFAULT UND _ZN7android8hardware11hid
49:   FUNC GLOBAL DEFAULT UND _ZN7android8hardware11hid
50:   FUNC GLOBAL DEFAULT UND _ZN7android8hardware11hid
51:   FUNC GLOBAL DEFAULT UND _ZN7android8hardware11hid
52:   FUNC GLOBAL DEFAULT UND _ZN7android8hardware12Pro
53:   FUNC GLOBAL DEFAULT UND _ZN7android8hardware12Pro
54:   FUNC GLOBAL DEFAULT UND _ZN7android8hardware13wri
55:   FUNC GLOBAL DEFAULT UND _ZN7android8hardware14rea
56:   FUNC GLOBAL DEFAULT UND _ZN7android8hardware21def
57:   FUNC GLOBAL DEFAULT UND _ZN7android8hardware21wri
58:   FUNC GLOBAL DEFAULT UND _ZN7android8hardware22rea
59:   FUNC GLOBAL DEFAULT UND _ZN7android8hardware23get
60:   FUNC GLOBAL DEFAULT UND _ZN7android8hardware27hid
61:   FUNC GLOBAL DEFAULT UND _ZN7android8hardware27hid
62:   FUNC GLOBAL DEFAULT UND _ZN7android8hardware6Parc
63:   FUNC GLOBAL DEFAULT UND _ZN7android8hardware6Parc
64:   FUNC GLOBAL DEFAULT UND _ZN7android8hardware6Parc
65:   FUNC GLOBAL DEFAULT UND _ZN7android8hardware6Parc
66:   FUNC GLOBAL DEFAULT UND _ZN7android8hardware6Parc
67:   FUNC GLOBAL DEFAULT UND _ZN7android8hardware6Parc
68:   FUNC GLOBAL DEFAULT UND _ZN7android8hardware6Parc
69:   FUNC GLOBAL DEFAULT UND _ZN7android8hardware6Parc
70:   FUNC GLOBAL DEFAULT UND _ZN7android8hardware6Parc
71:   FUNC GLOBAL DEFAULT UND _ZN7android8hardware6Parc
72:   FUNC GLOBAL DEFAULT UND _ZN7android8hardware6Parc
73:   FUNC GLOBAL DEFAULT UND _ZN7android8hardware6Parc
74:   FUNC GLOBAL DEFAULT UND _ZN7android8hardware6Stat
75:   FUNC GLOBAL DEFAULT UND _ZN7android8hardware6Stat
76:   FUNC GLOBAL DEFAULT UND _ZN7android8hardware6Stat
77:   FUNC GLOBAL DEFAULT UND _ZN7android8hardware6Stat
78:   FUNC GLOBAL DEFAULT UND _ZN7android8hardware7IBin
79:   FUNC GLOBAL DEFAULT UND _ZN7android8hardware7IBin
80:   FUNC GLOBAL DEFAULT UND _ZN7android8hardware7IBin
81:   FUNC GLOBAL DEFAULT UND _ZN7android8hardware7IBin
82:   FUNC GLOBAL DEFAULT UND _ZN7android8hardware7deta
83:   FUNC GLOBAL DEFAULT UND _ZN7android8hardware7deta
84:   FUNC GLOBAL DEFAULT UND _ZN7android8hardware7deta
85:   FUNC GLOBAL DEFAULT UND _ZN7android8hardware7deta
86:   FUNC GLOBAL DEFAULT UND _ZN7android8hardware7deta
87:   FUNC GLOBAL DEFAULT UND _ZN7android8hardware7deta
88:   FUNC GLOBAL DEFAULT UND _ZN7android8hardware7deta
89:   OBJECT GLOBAL DEFAULT UND _ZN7android8hardware7deta
90:   FUNC GLOBAL DEFAULT UND _ZN7android8hardware7deta
91:   OBJECT GLOBAL DEFAULT UND _ZN7android8hardware7deta
92:   FUNC GLOBAL DEFAULT UND _ZN7android8hardware7deta
93:   FUNC GLOBAL DEFAULT UND _ZN7android8hardware7deta
94:   FUNC GLOBAL DEFAULT UND _ZN7android8hardware7deta
95:   FUNC GLOBAL DEFAULT UND _ZN7android8hardware7deta
96:   FUNC GLOBAL DEFAULT UND _ZN7android8hardware7deta
97:   FUNC GLOBAL DEFAULT UND _ZN7android8hardware7deta
98:   FUNC GLOBAL DEFAULT UND _ZN7android8hardware7deta
99:   FUNC GLOBAL DEFAULT UND _ZN7android8hardware7deta
100:   FUNC GLOBAL DEFAULT UND _ZN7android8hardware7deta
101:   OBJECT GLOBAL DEFAULT UND _ZN7android8hardware7deta
102:   FUNC GLOBAL DEFAULT UND _ZN7android8hardware9BHwB
103:   FUNC GLOBAL DEFAULT UND _ZN7android8hardware9BHwB
104:   FUNC GLOBAL DEFAULT UND _ZN7android8hardware9BHwB
105:   FUNC GLOBAL DEFAULT UND _ZN7android8hardware9BHwB
106:   FUNC GLOBAL DEFAULT UND _ZN7android8hardware9BHwB
107:   FUNC GLOBAL DEFAULT UND _ZN7android8hardware9BHwB
108:   FUNC GLOBAL DEFAULT UND _ZN7android8hardware9BHwB
109:   FUNC GLOBAL DEFAULT UND _ZN7android8hardware9BHwB
110:   FUNC GLOBAL DEFAULT UND _ZN7android8hardware9BHwB
111:   FUNC GLOBAL DEFAULT UND _ZN7android8hardware9BHwB
112:   FUNC GLOBAL DEFAULT UND _ZNK7android7RefBase10cre
113:   FUNC GLOBAL DEFAULT UND _ZNK7android7RefBase11get
114:   FUNC GLOBAL DEFAULT UND _ZNK7android7RefBase9decS
115:   FUNC GLOBAL DEFAULT UND _ZNK7android7RefBase9incS
116:   FUNC GLOBAL DEFAULT UND _ZNK7android8hardware6Par
117:   FUNC GLOBAL DEFAULT UND _ZNK7android8hardware6Par
118:   FUNC GLOBAL DEFAULT UND _ZNK7android8hardware6Par
119:   FUNC GLOBAL DEFAULT UND _ZNK7android8hardware6Par
120:   FUNC GLOBAL DEFAULT UND _ZNK7android8hardware6Par
121:   FUNC GLOBAL DEFAULT UND _ZNK7android8hardware6Par
122:   FUNC GLOBAL DEFAULT UND _ZNK7android8hardware6Par
123:   FUNC GLOBAL DEFAULT UND _ZNK7android8hardware6Par
124:   FUNC GLOBAL DEFAULT UND _ZNK7android8hardware6Par
125:   FUNC GLOBAL DEFAULT UND _ZNK7android8hardware6Par
126:   FUNC GLOBAL DEFAULT UND _ZNK7android8hardware7IBi
127:   FUNC GLOBAL DEFAULT UND _ZNK7android8hardware7det
128:   FUNC GLOBAL DEFAULT UND _ZNK7android8hardware9BHw
129:   FUNC GLOBAL DEFAULT UND _ZNKSt3__120__vector_base
130:   FUNC GLOBAL DEFAULT UND _ZNKSt3__121__basic_strin
131:   FUNC GLOBAL DEFAULT UND _ZNSt3__112basic_stringIc
132:   FUNC GLOBAL DEFAULT UND _ZNSt3__15mutex4lockEv
133:   FUNC GLOBAL DEFAULT UND _ZNSt3__15mutex6unlockEv
134:   FUNC GLOBAL DEFAULT UND _ZNSt3__15mutexD1Ev
135:   FUNC GLOBAL DEFAULT UND _ZTv0_n24_N7android4hidl4
136:   FUNC GLOBAL DEFAULT UND _ZTv0_n24_N7android4hidl4
137:   FUNC GLOBAL DEFAULT UND _ZTv0_n24_N7android8hardw
138:   FUNC GLOBAL DEFAULT UND _ZTv0_n24_N7android8hardw
139:   FUNC GLOBAL DEFAULT UND _ZTv0_n24_N7android8hardw
140:   FUNC GLOBAL DEFAULT UND _ZTv0_n24_N7android8hardw
141:   FUNC GLOBAL DEFAULT UND _ZTv0_n24_N7android8hardw
142:   FUNC GLOBAL DEFAULT UND _ZTv0_n24_N7android8hardw
143:   FUNC GLOBAL DEFAULT UND _ZTv0_n24_N7android8hardw
144:   FUNC GLOBAL DEFAULT UND _ZTv0_n24_N7android8hardw
145:   FUNC GLOBAL DEFAULT UND _ZTv0_n32_N7android8hardw
146:   FUNC GLOBAL DEFAULT UND _ZTv0_n40_N7android8hardw
147:   FUNC GLOBAL DEFAULT UND _ZTv0_n48_N7android8hardw
148:   FUNC GLOBAL DEFAULT UND _ZdaPv
149:   FUNC GLOBAL DEFAULT UND _ZdlPv
150:   FUNC GLOBAL DEFAULT UND _Znam
151:   FUNC GLOBAL DEFAULT UND _Znwm
152:   FUNC GLOBAL DEFAULT UND __android_log_assert@LIBLOG (3)
153:   FUNC GLOBAL DEFAULT UND __cxa_pure_virtual
154:   FUNC GLOBAL DEFAULT UND __stack_chk_fail@LIBC (2)
155:   FUNC GLOBAL DEFAULT UND abort@LIBC (2)
156:   FUNC GLOBAL DEFAULT UND atrace_begin_body
157:   OBJECT GLOBAL DEFAULT UND atrace_enabled_tags
158:   FUNC GLOBAL DEFAULT UND atrace_end_body
159:   OBJECT GLOBAL DEFAULT UND atrace_is_ready
160:   FUNC GLOBAL DEFAULT UND atrace_setup
161:   FUNC GLOBAL DEFAULT UND memcmp@LIBC (2)
162:   FUNC GLOBAL DEFAULT UND memcpy@LIBC (2)
163:   FUNC GLOBAL DEFAULT UND memset@LIBC (2)
164:   FUNC GLOBAL DEFAULT UND strlen@LIBC (2)
165:   FUNC GLOBAL DEFAULT UND _ZN7android8hardware6Parc
166:   FUNC GLOBAL DEFAULT UND _ZN7android8hardware7deta
167:   FUNC GLOBAL DEFAULT UND _ZNK7android8hardware6Par
168:   FUNC GLOBAL DEFAULT UND _ZNSt3__112basic_stringIc
169:   FUNC GLOBAL DEFAULT 14 _ZN7android8hardware12ren
170:   FUNC GLOBAL DEFAULT 14 _ZN7android8hardware12ren
171:   FUNC GLOBAL DEFAULT 14 _ZN7android8hardware12ren
172:   FUNC GLOBAL DEFAULT 14 _ZN7android8hardware12ren
173:   FUNC GLOBAL DEFAULT 14 _ZN7android8hardware12ren
174:   FUNC GLOBAL DEFAULT 14 _ZN7android8hardware12ren
175:   FUNC GLOBAL DEFAULT 14 _ZN7android8hardware12ren
176:   FUNC GLOBAL DEFAULT 14 _ZN7android8hardware12ren
177:   FUNC GLOBAL DEFAULT 14 _ZN7android8hardware12ren
178:   FUNC GLOBAL DEFAULT 14 _ZN7android8hardware12ren
179:   FUNC GLOBAL DEFAULT 14 _ZN7android8hardware12ren
180:   FUNC GLOBAL DEFAULT 14 _ZN7android8hardware12ren
181:   FUNC GLOBAL DEFAULT 14 _ZN7android8hardware12ren
182:   FUNC GLOBAL DEFAULT 14 _ZN7android8hardware12ren
183:   FUNC GLOBAL DEFAULT 14 _ZN7android8hardware12ren
184:   OBJECT WEAK DEFAULT 18 _ZTCN7android8hardware12r
185:   FUNC GLOBAL DEFAULT 14 _ZN7android8hardware12ren
186:   FUNC GLOBAL DEFAULT 14 _ZN7android8hardware12ren
187:   FUNC GLOBAL DEFAULT 14 _ZN7android8hardware12ren
188:   FUNC GLOBAL DEFAULT 14 _ZN7android8hardware12ren
189:   FUNC GLOBAL DEFAULT 14 _ZN7android8hardware12ren
190:   FUNC GLOBAL DEFAULT 14 _ZN7android8hardware12ren
191:   FUNC WEAK DEFAULT 14 _ZN7android8hardware10fro
192:   FUNC GLOBAL DEFAULT 14 _ZTv0_n24_N7android8hardw
193:   FUNC GLOBAL DEFAULT 14 _ZN7android8hardware12ren
194:   FUNC GLOBAL DEFAULT 14 _ZN7android8hardware12ren
195:   FUNC GLOBAL DEFAULT 14 _ZN7android8hardware12ren
196:   FUNC GLOBAL DEFAULT 14 _ZN7android8hardware12ren
197:   FUNC GLOBAL DEFAULT 14 _ZN7android8hardware12ren
198:   FUNC GLOBAL DEFAULT 14 _ZN7android8hardware12ren
199:   FUNC WEAK DEFAULT 14 _ZNSt3__16__treeINS_12__v
200:   OBJECT GLOBAL DEFAULT 18 _ZTCN7android8hardware12r
201:   FUNC GLOBAL DEFAULT 14 _ZN7android8hardware12ren
202:   FUNC GLOBAL DEFAULT 14 _ZN7android8hardware12ren
203:   FUNC GLOBAL DEFAULT 14 _ZN7android8hardware12ren
204:   OBJECT GLOBAL DEFAULT 18 _ZTCN7android8hardware12r
205:   FUNC GLOBAL DEFAULT 14 _ZN7android8hardware12ren
206:   FUNC GLOBAL DEFAULT 14 _ZN7android8hardware12ren
207:   FUNC GLOBAL DEFAULT 14 _ZN7android8hardware12ren
208:   FUNC GLOBAL DEFAULT 14 _ZN7android8hardware12ren
209:   FUNC GLOBAL DEFAULT 14 _ZN7android8hardware12ren
210:   OBJECT GLOBAL DEFAULT 18 _ZTCN7android8hardware12r
211:   FUNC GLOBAL DEFAULT 14 _ZN7android8hardware12ren
212:   FUNC GLOBAL DEFAULT 14 _ZN7android8hardware12ren
213:   FUNC GLOBAL DEFAULT 14 _ZN7android8hardware12ren
214:   OBJECT GLOBAL DEFAULT 18 _ZTTN7android8hardware12r
215:   FUNC GLOBAL DEFAULT 14 _ZThn32_N7android8hardwar
216:   FUNC GLOBAL DEFAULT 14 _ZN7android8hardware12ren
217:   FUNC GLOBAL DEFAULT 14 _ZN7android8hardware12ren
218:   FUNC GLOBAL DEFAULT 14 _ZN7android8hardware12ren
219:   FUNC GLOBAL DEFAULT 14 _ZN7android8hardware12ren
220:   FUNC GLOBAL DEFAULT 14 _ZN7android8hardware12ren
221:   FUNC GLOBAL DEFAULT 14 _ZN7android8hardware12ren
222:   FUNC GLOBAL DEFAULT 14 _ZN7android8hardware12ren
223:   FUNC GLOBAL DEFAULT 14 _ZThn32_N7android8hardwar
224:   FUNC GLOBAL DEFAULT 14 _ZN7android8hardware12ren
225:   FUNC GLOBAL DEFAULT 14 _ZN7android8hardware12ren
226:   FUNC GLOBAL DEFAULT 14 _ZN7android8hardware12ren
227:   FUNC GLOBAL DEFAULT 14 _ZN7android8hardware12ren
228:   FUNC GLOBAL DEFAULT 14 _ZN7android8hardware12ren
229:   FUNC GLOBAL DEFAULT 14 _ZN7android8hardware12ren
230:   FUNC GLOBAL DEFAULT 14 _ZN7android8hardware12ren
231:   FUNC GLOBAL DEFAULT 14 _ZN7android8hardware12ren
232:   FUNC GLOBAL DEFAULT 14 _ZN7android8hardware12ren
233:   FUNC GLOBAL DEFAULT 14 _ZN7android8hardware12ren
234:   FUNC GLOBAL DEFAULT 14 _ZN7android8hardware12ren
235:   OBJECT GLOBAL DEFAULT 18 _ZTVN7android8hardware12r
236:   FUNC GLOBAL DEFAULT 14 _ZN7android8hardware12ren
237:   FUNC GLOBAL DEFAULT 14 _ZN7android8hardware12ren
238:   FUNC GLOBAL DEFAULT 14 _ZN7android8hardware12ren
239:   FUNC GLOBAL DEFAULT 14 _ZN7android8hardware12ren
240:   FUNC GLOBAL DEFAULT 14 _ZN7android8hardware12ren
241:   FUNC GLOBAL DEFAULT 14 _ZN7android8hardware12ren
242:   FUNC GLOBAL DEFAULT 14 _ZN7android8hardware12ren
243:   FUNC GLOBAL DEFAULT 14 _ZN7android8hardware12ren
244:   FUNC GLOBAL DEFAULT 14 _ZN7android8hardware12ren
245:   FUNC GLOBAL DEFAULT 14 _ZN7android8hardware12ren
246:   OBJECT GLOBAL DEFAULT 18 _ZTCN7android8hardware12r
247:   FUNC GLOBAL DEFAULT 14 _ZN7android8hardware12ren
248:   FUNC GLOBAL DEFAULT 14 _ZN7android8hardware12ren
249:   FUNC GLOBAL DEFAULT 14 _ZN7android8hardware12ren
250:   FUNC GLOBAL DEFAULT 14 _ZN7android8hardware12ren
251:   FUNC WEAK DEFAULT 14 _ZN7android8hardware7deta
252:   FUNC GLOBAL DEFAULT 14 _ZN7android8hardware12ren
253:   FUNC GLOBAL DEFAULT 14 _ZN7android8hardware12ren
254:   OBJECT GLOBAL DEFAULT 18 _ZTCN7android8hardware12r
255:   FUNC GLOBAL DEFAULT 14 _ZN7android8hardware12ren
256:   FUNC GLOBAL DEFAULT 14 _ZN7android8hardware12ren
257:   FUNC GLOBAL DEFAULT 14 _ZTv0_n24_N7android8hardw
258:   FUNC GLOBAL DEFAULT 14 _ZN7android8hardware12ren
259:   FUNC GLOBAL DEFAULT 14 _ZN7android8hardware12ren
260:   FUNC GLOBAL DEFAULT 14 _ZN7android8hardware12ren
261:   FUNC GLOBAL DEFAULT 14 _ZN7android8hardware12ren
262:   FUNC WEAK DEFAULT 14 _ZNSt3__16vectorIN7androi
263:   FUNC GLOBAL DEFAULT 14 _ZN7android8hardware12ren
264:   FUNC GLOBAL DEFAULT 14 _ZN7android8hardware12ren
265:   FUNC GLOBAL DEFAULT 14 _ZN7android8hardware12ren
266:   FUNC GLOBAL DEFAULT 14 _ZN7android8hardware12ren
267:   FUNC GLOBAL DEFAULT 14 _ZN7android8hardware12ren
268:   FUNC GLOBAL DEFAULT 14 _ZN7android8hardware12ren
269:   FUNC GLOBAL DEFAULT 14 _ZN7android8hardware12ren
270:   FUNC GLOBAL DEFAULT 14 _ZN7android8hardware12ren
271:   OBJECT GLOBAL DEFAULT 18 _ZTTN7android8hardware12r
272:   OBJECT GLOBAL DEFAULT 18 _ZTTN7android8hardware12r
273:   FUNC GLOBAL DEFAULT 14 _ZN7android8hardware12ren
274:   FUNC GLOBAL DEFAULT 14 _ZN7android8hardware12ren
275:   FUNC GLOBAL DEFAULT 14 _ZN7android8hardware12ren
276:   FUNC GLOBAL DEFAULT 14 _ZN7android8hardware12ren
277:   OBJECT WEAK DEFAULT 18 _ZTVN7android8hardware12r
278:   FUNC GLOBAL DEFAULT 14 _ZN7android8hardware12ren
279:   FUNC GLOBAL DEFAULT 14 _ZN7android8hardware12ren
280:   FUNC GLOBAL DEFAULT 14 _ZN7android8hardware12ren
281:   FUNC GLOBAL DEFAULT 14 _ZN7android8hardware12ren
282:   FUNC GLOBAL DEFAULT 14 _ZN7android8hardware12ren
283:   FUNC GLOBAL DEFAULT 14 _ZN7android8hardware12ren
284:   FUNC WEAK DEFAULT 14 _ZNSt3__16__treeINS_12__v
285:   OBJECT GLOBAL DEFAULT 18 _ZTVN7android8hardware12r
286:   FUNC GLOBAL DEFAULT 14 _ZN7android8hardware12ren
287:   FUNC GLOBAL DEFAULT 14 _ZN7android8hardware12ren
288:   FUNC GLOBAL DEFAULT 14 _ZN7android8hardware12ren
289:   FUNC GLOBAL DEFAULT 14 _ZN7android8hardware12ren
290:   FUNC GLOBAL DEFAULT 14 _ZN7android8hardware12ren
291:   FUNC WEAK DEFAULT 14 _ZNSt3__16vectorINS_8func
292:   FUNC GLOBAL DEFAULT 14 _ZN7android8hardware12ren
293:   FUNC GLOBAL DEFAULT 14 _ZN7android8hardware12ren
294:   FUNC GLOBAL DEFAULT 14 _ZTv0_n24_N7android8hardw
295:   FUNC GLOBAL DEFAULT 14 _ZN7android8hardware12ren
296:   FUNC GLOBAL DEFAULT 14 _ZN7android8hardware12ren
297:   FUNC GLOBAL DEFAULT 14 _ZN7android8hardware12ren
298:   FUNC GLOBAL DEFAULT 14 _ZN7android8hardware12ren
299:   FUNC GLOBAL DEFAULT 14 _ZN7android8hardware12ren
300:   FUNC GLOBAL DEFAULT 14 _ZN7android8hardware12ren
301:   OBJECT GLOBAL DEFAULT 16 _ZN7android8hardware12ren
302:   FUNC GLOBAL DEFAULT 14 _ZN7android8hardware12ren
303:   FUNC GLOBAL DEFAULT 14 _ZN7android8hardware12ren
304:   FUNC GLOBAL DEFAULT 14 _ZN7android8hardware12ren
305:   FUNC GLOBAL DEFAULT 14 _ZN7android8hardware12ren
306:   FUNC GLOBAL DEFAULT 14 _ZN7android8hardware12ren
307:   FUNC GLOBAL DEFAULT 14 _ZN7android8hardware12ren
308:   FUNC WEAK DEFAULT 14 _ZNSt3__16__treeINS_12__v
309:   FUNC GLOBAL DEFAULT 14 _ZN7android8hardware12ren
310:   FUNC GLOBAL DEFAULT 14 _ZN7android8hardware12ren
311:   FUNC GLOBAL DEFAULT 14 _ZN7android8hardware12ren
312:   FUNC WEAK DEFAULT 14 _ZNSt3__16__treeINS_12__v
313:   FUNC GLOBAL DEFAULT 14 _ZN7android8hardware12ren
314:   FUNC GLOBAL DEFAULT 14 _ZN7android8hardware12ren
315:   FUNC GLOBAL DEFAULT 14 _ZN7android8hardware12ren
316:   FUNC GLOBAL DEFAULT 14 _ZN7android8hardware12ren
317:   FUNC WEAK DEFAULT 14 _ZNSt3__16__treeINS_12__v
318:   FUNC GLOBAL DEFAULT 14 _ZN7android8hardware12ren
319:   FUNC GLOBAL DEFAULT 14 _ZN7android8hardware12ren
320:   FUNC GLOBAL DEFAULT 14 _ZN7android8hardware12ren
321:   FUNC GLOBAL DEFAULT 14 _ZN7android8hardware12ren
322:   OBJECT GLOBAL DEFAULT 18 _ZTTN7android8hardware12r
323:   FUNC GLOBAL DEFAULT 14 _ZN7android8hardware12ren
324:   FUNC GLOBAL DEFAULT 14 _ZN7android8hardware12ren
325:   OBJECT GLOBAL DEFAULT 18 _ZTCN7android8hardware12r
326:   FUNC GLOBAL DEFAULT 14 _ZN7android8hardware12ren
327:   FUNC GLOBAL DEFAULT 14 _ZN7android8hardware12ren
328:   FUNC GLOBAL DEFAULT 14 _ZN7android8hardware12ren
329:   FUNC GLOBAL DEFAULT 14 _ZN7android8hardware12ren
330:   FUNC GLOBAL DEFAULT 14 _ZN7android8hardware12ren
331:   FUNC GLOBAL DEFAULT 14 _ZN7android8hardware12ren
332:   FUNC GLOBAL DEFAULT 14 _ZN7android8hardware12ren
333:   FUNC GLOBAL DEFAULT 14 _ZN7android8hardware12ren
334:   FUNC GLOBAL DEFAULT 14 _ZN7android8hardware12ren
335:   FUNC GLOBAL DEFAULT 14 _ZN7android8hardware12ren
336:   FUNC GLOBAL DEFAULT 14 _ZN7android8hardware12ren
337:   FUNC GLOBAL DEFAULT 14 _ZN7android8hardware12ren
338:   FUNC GLOBAL DEFAULT 14 _ZN7android8hardware12ren
339:   FUNC GLOBAL DEFAULT 14 _ZN7android8hardware12ren
340:   FUNC GLOBAL DEFAULT 14 _ZN7android8hardware12ren
341:   FUNC WEAK DEFAULT 14 _ZNSt3__127__tree_balance
342:   FUNC GLOBAL DEFAULT 14 _ZN7android8hardware12ren
343:   FUNC GLOBAL DEFAULT 14 _ZN7android8hardware12ren
344:   FUNC GLOBAL DEFAULT 14 _ZN7android8hardware12ren
345:   FUNC GLOBAL DEFAULT 14 _ZN7android8hardware12ren
346:   FUNC GLOBAL DEFAULT 14 _ZN7android8hardware12ren
347:   FUNC GLOBAL DEFAULT 14 _ZN7android8hardware12ren
348:   FUNC GLOBAL DEFAULT 14 _ZN7android8hardware12ren
349:   FUNC GLOBAL DEFAULT 14 _ZN7android8hardware12ren
350:   OBJECT GLOBAL DEFAULT 18 _ZTCN7android8hardware12r
351:   OBJECT GLOBAL DEFAULT 18 _ZTCN7android8hardware12r
352:   FUNC GLOBAL DEFAULT 14 _ZN7android8hardware12ren
353:   FUNC GLOBAL DEFAULT 14 _ZN7android8hardware12ren
354:   FUNC GLOBAL DEFAULT 14 _ZN7android8hardware12ren
355:   FUNC GLOBAL DEFAULT 14 _ZN7android8hardware12ren
356:   FUNC GLOBAL DEFAULT 14 _ZTv0_n24_N7android8hardw
357:   FUNC GLOBAL DEFAULT 14 _ZN7android8hardware12ren
358:   FUNC GLOBAL DEFAULT 14 _ZN7android8hardware12ren
359:   FUNC GLOBAL DEFAULT 14 _ZN7android8hardware12ren
360:   FUNC GLOBAL DEFAULT 14 _ZN7android8hardware12ren
361:   FUNC GLOBAL DEFAULT 14 _ZN7android8hardware12ren
362:   FUNC GLOBAL DEFAULT 14 _ZN7android8hardware12ren
363:   FUNC GLOBAL DEFAULT 14 _ZN7android8hardware12ren
364:   FUNC GLOBAL DEFAULT 14 _ZN7android8hardware12ren
365:   FUNC GLOBAL DEFAULT 14 _ZN7android8hardware12ren
366:   FUNC GLOBAL DEFAULT 14 _ZN7android8hardware12ren
367:   FUNC GLOBAL DEFAULT 14 _ZN7android8hardware12ren
368:   FUNC GLOBAL DEFAULT 14 _ZN7android8hardware12ren
369:   FUNC GLOBAL DEFAULT 14 _ZN7android8hardware12ren
370:   FUNC GLOBAL DEFAULT 14 _ZN7android8hardware12ren
371:   FUNC GLOBAL DEFAULT 14 _ZN7android8hardware12ren
372:   FUNC GLOBAL DEFAULT 14 _ZN7android8hardware12ren
373:   FUNC GLOBAL DEFAULT 14 _ZN7android8hardware12ren
374:   FUNC GLOBAL DEFAULT 14 _ZN7android8hardware12ren
375:   FUNC GLOBAL DEFAULT 14 _ZN7android8hardware12ren
376:   FUNC GLOBAL DEFAULT 14 _ZN7android8hardware12ren
377:   FUNC GLOBAL DEFAULT 14 _ZN7android8hardware12ren
378:   FUNC GLOBAL DEFAULT 14 _ZN7android8hardware12ren
379:   FUNC GLOBAL DEFAULT 14 _ZN7android8hardware12ren
380:   FUNC GLOBAL DEFAULT 14 _ZN7android8hardware12ren
381:   FUNC GLOBAL DEFAULT 14 _ZN7android8hardware12ren
382:   FUNC GLOBAL DEFAULT 14 _ZN7android8hardware12ren
383:   FUNC GLOBAL DEFAULT 14 _ZN7android8hardware12ren
384:   FUNC GLOBAL DEFAULT 14 _ZN7android8hardware12ren
385:   FUNC GLOBAL DEFAULT 14 _ZN7android8hardware12ren
386:   OBJECT GLOBAL DEFAULT 18 _ZTCN7android8hardware12r
387:   FUNC GLOBAL DEFAULT 14 _ZN7android8hardware12ren
388:   FUNC GLOBAL DEFAULT 14 _ZN7android8hardware12ren
389:   OBJECT GLOBAL DEFAULT 18 _ZTCN7android8hardware12r
390:   FUNC GLOBAL DEFAULT 14 _ZN7android8hardware12ren
391:   FUNC GLOBAL DEFAULT 14 _ZN7android8hardware12ren
392:   FUNC GLOBAL DEFAULT 14 _ZN7android8hardware12ren
393:   FUNC GLOBAL DEFAULT 14 _ZN7android8hardware12ren
394:   FUNC GLOBAL DEFAULT 14 _ZN7android8hardware12ren
395:   FUNC GLOBAL DEFAULT 14 _ZN7android8hardware12ren
396:   FUNC GLOBAL DEFAULT 14 _ZN7android8hardware12ren
397:   FUNC GLOBAL DEFAULT 14 _ZN7android8hardware12ren
398:   FUNC GLOBAL DEFAULT 14 _ZN7android8hardware12ren
399:   OBJECT GLOBAL DEFAULT 18 _ZTVN7android8hardware12r
400:   FUNC GLOBAL DEFAULT 14 _ZN7android8hardware12ren
401:   FUNC GLOBAL DEFAULT 14 _ZN7android8hardware12ren
402:   FUNC GLOBAL DEFAULT 14 _ZN7android8hardware12ren
403:   FUNC GLOBAL DEFAULT 14 _ZN7android8hardware12ren
404:   FUNC GLOBAL DEFAULT 14 _ZN7android8hardware12ren
405:   FUNC GLOBAL DEFAULT 14 _ZN7android8hardware12ren
406:   FUNC GLOBAL DEFAULT 14 _ZN7android8hardware12ren
407:   FUNC GLOBAL DEFAULT 14 _ZN7android8hardware12ren
408:   FUNC GLOBAL DEFAULT 14 _ZN7android8hardware12ren
409:   FUNC GLOBAL DEFAULT 14 _ZN7android8hardware12ren
410:   FUNC GLOBAL DEFAULT 14 _ZN7android8hardware12ren
411:   OBJECT GLOBAL DEFAULT 18 _ZTCN7android8hardware12r
412:   FUNC GLOBAL DEFAULT 14 _ZN7android8hardware12ren
413:   FUNC GLOBAL DEFAULT 14 _ZN7android8hardware12ren
414:   FUNC WEAK DEFAULT 14 _ZNSt3__16vectorIPvNS_9al
415:   FUNC GLOBAL DEFAULT 14 _ZN7android8hardware12ren
416:   FUNC GLOBAL DEFAULT 14 _ZN7android8hardware12ren
417:   FUNC GLOBAL DEFAULT 14 _ZN7android8hardware12ren
418:   FUNC GLOBAL DEFAULT 14 _ZN7android8hardware12ren
419:   OBJECT WEAK DEFAULT 18 _ZTVN7android8hardware12r
420:   FUNC GLOBAL DEFAULT 14 _ZN7android8hardware12ren
421:   FUNC GLOBAL DEFAULT 14 _ZN7android8hardware12ren
422:   FUNC GLOBAL DEFAULT 14 _ZN7android8hardware12ren
423:   FUNC GLOBAL DEFAULT 14 _ZN7android8hardware12ren
424:   OBJECT GLOBAL DEFAULT 18 _ZTCN7android8hardware12r
425:   FUNC GLOBAL DEFAULT 14 _ZN7android8hardware12ren
426:   FUNC WEAK DEFAULT 14 _ZNSt3__113__tree_removeI
427:   FUNC GLOBAL DEFAULT 14 _ZN7android8hardware12ren
428:   FUNC GLOBAL DEFAULT 14 _ZN7android8hardware12ren
429:   FUNC GLOBAL DEFAULT 14 _ZN7android8hardware12ren
430:   FUNC GLOBAL DEFAULT 14 _ZN7android8hardware12ren
431:   FUNC GLOBAL DEFAULT 14 _ZN7android8hardware12ren
432:   FUNC GLOBAL DEFAULT 14 _ZN7android8hardware12ren
433:   FUNC GLOBAL DEFAULT 14 _ZN7android8hardware12ren
434:   OBJECT GLOBAL DEFAULT 16 _ZN7android8hardware12ren
435:   FUNC GLOBAL DEFAULT 14 _ZN7android8hardware12ren
436:   FUNC GLOBAL DEFAULT 14 _ZN7android8hardware12ren
437:   FUNC WEAK DEFAULT 14 _ZN7android8hardware7deta
438:   FUNC GLOBAL DEFAULT 14 _ZN7android8hardware12ren
439:   FUNC GLOBAL DEFAULT 14 _ZN7android8hardware12ren
440:   FUNC GLOBAL DEFAULT 14 _ZN7android8hardware12ren
441:   FUNC GLOBAL DEFAULT 14 _ZN7android8hardware12ren
442:   FUNC GLOBAL DEFAULT 14 _ZN7android8hardware12ren
443:   FUNC GLOBAL DEFAULT 14 _ZN7android8hardware12ren
444:   FUNC GLOBAL DEFAULT 14 _ZN7android8hardware12ren
445:   FUNC GLOBAL DEFAULT 14 _ZN7android8hardware12ren
446:   FUNC GLOBAL DEFAULT 14 _ZN7android8hardware12ren
447:   FUNC GLOBAL DEFAULT 14 _ZN7android8hardware12ren
448:   FUNC GLOBAL DEFAULT 14 _ZN7android8hardware12ren
449:   FUNC GLOBAL DEFAULT 14 _ZN7android8hardware12ren
450:   FUNC GLOBAL DEFAULT 14 _ZN7android8hardware12ren
451:   FUNC GLOBAL DEFAULT 14 _ZN7android8hardware12ren
452:   OBJECT GLOBAL DEFAULT 18 _ZTCN7android8hardware12r
453:   OBJECT GLOBAL DEFAULT 18 _ZTCN7android8hardware12r
454:   FUNC GLOBAL DEFAULT 14 _ZN7android8hardware12ren
455:   FUNC GLOBAL DEFAULT 14 _ZN7android8hardware12ren
456:   FUNC GLOBAL DEFAULT 14 _ZN7android8hardware12ren
457:   FUNC GLOBAL DEFAULT 14 _ZN7android8hardware12ren
458:   OBJECT GLOBAL DEFAULT 18 _ZTVN7android8hardware12r
459:   FUNC WEAK DEFAULT 14 _ZN7android8hardware7deta
460:   FUNC GLOBAL DEFAULT 14 _ZN7android8hardware12ren
461:   FUNC GLOBAL DEFAULT 14 _ZN7android8hardware12ren
462:   FUNC GLOBAL DEFAULT 14 _ZN7android8hardware12ren
463:   FUNC GLOBAL DEFAULT 14 _ZN7android8hardware12ren
464:   FUNC GLOBAL DEFAULT 14 _ZN7android8hardware12ren
465:   FUNC GLOBAL DEFAULT 14 _ZN7android8hardware12ren
466:   FUNC GLOBAL DEFAULT 14 _ZN7android8hardware12ren
467:   OBJECT GLOBAL DEFAULT 18 _ZTCN7android8hardware12r
468:   FUNC GLOBAL DEFAULT 14 _ZN7android8hardware12ren
469:   FUNC GLOBAL DEFAULT 14 _ZN7android8hardware12ren
470:   FUNC GLOBAL DEFAULT 14 _ZN7android8hardware12ren
471:   FUNC GLOBAL DEFAULT 14 _ZN7android8hardware12ren
472:   FUNC GLOBAL DEFAULT 14 _ZN7android8hardware12ren
473:   FUNC GLOBAL DEFAULT 14 _ZN7android8hardware12ren
474:   FUNC GLOBAL DEFAULT 14 _ZN7android8hardware12ren
475:   FUNC GLOBAL DEFAULT 14 _ZN7android8hardware12ren
476:   FUNC GLOBAL DEFAULT 14 _ZN7android8hardware12ren
477:   OBJECT GLOBAL DEFAULT 18 _ZTCN7android8hardware12r
478:   FUNC GLOBAL DEFAULT 14 _ZN7android8hardware12ren
479:   FUNC GLOBAL DEFAULT 14 _ZN7android8hardware12ren
480:   FUNC WEAK DEFAULT 14 _ZN7android8hardware7deta
481:   FUNC WEAK DEFAULT 14 _ZNSt3__16__treeINS_12__v
482:   FUNC GLOBAL DEFAULT 14 _ZN7android8hardware12ren
483:   FUNC GLOBAL DEFAULT 14 _ZN7android8hardware12ren
484:   FUNC GLOBAL DEFAULT 14 _ZN7android8hardware12ren
485:   FUNC GLOBAL DEFAULT 14 _ZN7android8hardware12ren
486:   FUNC GLOBAL DEFAULT 14 _ZN7android8hardware12ren
487:   FUNC GLOBAL DEFAULT 14 _ZN7android8hardware12ren
488:   FUNC GLOBAL DEFAULT 14 _ZN7android8hardware12ren
489:   FUNC GLOBAL DEFAULT 14 _ZN7android8hardware12ren
490:   FUNC GLOBAL DEFAULT 14 _ZN7android8hardware12ren
491:   FUNC GLOBAL DEFAULT 14 _ZN7android8hardware12ren
492:   FUNC GLOBAL DEFAULT 14 _ZN7android8hardware12ren
493:   FUNC GLOBAL DEFAULT 14 _ZN7android8hardware12ren
494:   FUNC GLOBAL DEFAULT 14 _ZN7android8hardware12ren
495:   FUNC GLOBAL DEFAULT 14 _ZN7android8hardware12ren
496:   FUNC GLOBAL DEFAULT 14 _ZN7android8hardware12ren
497:   FUNC GLOBAL DEFAULT 14 _ZN7android8hardware12ren
498:   FUNC GLOBAL DEFAULT 14 _ZN7android8hardware12ren
499:   FUNC GLOBAL DEFAULT 14 _ZN7android8hardware12ren
500:   FUNC GLOBAL DEFAULT 14 _ZN7android8hardware12ren
501:   FUNC GLOBAL DEFAULT 14 _ZN7android8hardware12ren
502:   FUNC GLOBAL DEFAULT 14 _ZN7android8hardware12ren
503:   FUNC GLOBAL DEFAULT 14 _ZN7android8hardware12ren
504:   FUNC GLOBAL DEFAULT 14 _ZN7android8hardware12ren
505:   FUNC GLOBAL DEFAULT 14 _ZN7android8hardware12ren
506:   FUNC GLOBAL DEFAULT 14 _ZN7android8hardware12ren
507:   FUNC GLOBAL DEFAULT 14 _ZN7android8hardware12ren
508:   FUNC GLOBAL DEFAULT 14 _ZN7android8hardware12ren
509:   FUNC GLOBAL DEFAULT 14 _ZN7android8hardware12ren
510:   OBJECT GLOBAL DEFAULT 18 _ZTVN7android8hardware12r
511:   FUNC GLOBAL DEFAULT 14 _ZN7android8hardware12ren
512:   FUNC GLOBAL DEFAULT 14 _ZN7android8hardware12ren
513:   FUNC GLOBAL DEFAULT 14 _ZN7android8hardware12ren
514:   FUNC GLOBAL DEFAULT 14 _ZThn32_N7android8hardwar
515:   FUNC GLOBAL DEFAULT 14 _ZN7android8hardware12ren
516:   FUNC GLOBAL DEFAULT 14 _ZN7android8hardware12ren
517:   OBJECT GLOBAL DEFAULT 18 _ZTTN7android8hardware12r
518:   OBJECT GLOBAL DEFAULT 18 _ZTVN7android8hardware12r
519:   FUNC GLOBAL DEFAULT 14 _ZN7android8hardware12ren
520:   FUNC GLOBAL DEFAULT 14 _ZN7android8hardware12ren
521:   FUNC GLOBAL DEFAULT 14 _ZThn32_N7android8hardwar
522:   FUNC GLOBAL DEFAULT 14 _ZN7android8hardware12ren
523:   FUNC GLOBAL DEFAULT 14 _ZN7android8hardware12ren
524:   FUNC GLOBAL DEFAULT 14 _ZN7android8hardware12ren
525:   FUNC WEAK DEFAULT 14 _ZN7android8hardware7deta
526:   OBJECT GLOBAL DEFAULT 18 _ZTCN7android8hardware12r
527:   OBJECT GLOBAL DEFAULT 18 _ZTCN7android8hardware12r
528:   OBJECT GLOBAL DEFAULT 18 _ZTTN7android8hardware12r
529:   FUNC GLOBAL DEFAULT 14 _ZN7android8hardware12ren
530:   FUNC GLOBAL DEFAULT 14 _ZN7android8hardware12ren
531:   FUNC GLOBAL DEFAULT 14 _ZN7android8hardware12ren
532:   FUNC GLOBAL DEFAULT 14 _ZN7android8hardware12ren
533:   FUNC GLOBAL DEFAULT 14 _ZN7android8hardware12ren
534:   FUNC GLOBAL DEFAULT 14 _ZN7android8hardware12ren
535:   FUNC GLOBAL DEFAULT 14 _ZN7android8hardware12ren
536:   FUNC GLOBAL DEFAULT 14 _ZN7android8hardware12ren
537:   FUNC GLOBAL DEFAULT 14 _ZN7android8hardware12ren
538:   OBJECT WEAK DEFAULT 18 _ZTCN7android8hardware12r
