 0x000000000000000e (SONAME)             Library soname: [libziparchive.so]
  
Symbol   contains 144 entries:
Num:   Type Bind Vis Ndx Name
0:   NOTYPE LOCAL DEFAULT UND
1:   FUNC GLOBAL DEFAULT UND __cxa_finalize@LIBC (2)
2:   FUNC WEAK DEFAULT UND android_fdsan_create_owne@LIBC_Q (3)
3:   FUNC WEAK DEFAULT UND android_fdsan_exchange_ow@LIBC_Q (3)
4:   FUNC WEAK DEFAULT UND android_fdsan_close_with_@LIBC_Q (3)
5:   FUNC GLOBAL DEFAULT UND free@LIBC (2)
6:   FUNC GLOBAL DEFAULT UND _Znwm
7:   FUNC GLOBAL DEFAULT UND __android_log_print@LIBLOG (4)
8:   FUNC GLOBAL DEFAULT UND strerror@LIBC (2)
9:   FUNC GLOBAL DEFAULT UND __errno@LIBC (2)
10:   FUNC GLOBAL DEFAULT UND _ZdlPv
11:   FUNC GLOBAL DEFAULT UND __cfi_slowpath@LIBC_OMR1 (5)
12:   FUNC GLOBAL DEFAULT UND inflate
13:   FUNC GLOBAL DEFAULT UND crc32
14:   FUNC GLOBAL DEFAULT UND _ZN7android4base10LogMess
15:   FUNC GLOBAL DEFAULT UND _ZN7android4base10LogMess
16:   FUNC GLOBAL DEFAULT UND _ZNSt3__113basic_ostreamI
17:   FUNC GLOBAL DEFAULT UND _ZN7android4base10LogMess
18:   FUNC GLOBAL DEFAULT UND _ZNSt3__113basic_ostreamI
19:   FUNC GLOBAL DEFAULT UND lseek64@LIBC (2)
20:   FUNC GLOBAL DEFAULT UND _ZN7android4base17ReadFul
21:   FUNC GLOBAL DEFAULT UND _ZN7android4base10MappedF
22:   FUNC GLOBAL DEFAULT UND __cxa_pure_virtual
23:   FUNC GLOBAL DEFAULT UND calloc@LIBC (2)
24:   FUNC GLOBAL DEFAULT UND __android_log_error_write@LIBLOG_M (6)
25:   FUNC GLOBAL DEFAULT UND memcmp@LIBC (2)
26:   FUNC GLOBAL DEFAULT UND _ZNSt3__113basic_ostreamI
27:   FUNC GLOBAL DEFAULT UND open@LIBC (2)
28:   FUNC GLOBAL DEFAULT UND _Znam
29:   FUNC GLOBAL DEFAULT UND _ZdaPv
30:   FUNC GLOBAL DEFAULT UND inflateInit2_
31:   FUNC GLOBAL DEFAULT UND fallocate@LIBC (2)
32:   FUNC GLOBAL DEFAULT UND fstat@LIBC (2)
33:   FUNC GLOBAL DEFAULT UND ftruncate@LIBC (2)
34:   FUNC GLOBAL DEFAULT UND _ZN7android4base10WriteFu
35:   FUNC GLOBAL DEFAULT UND strlen@LIBC (2)
36:   FUNC GLOBAL DEFAULT UND __memcpy_chk@LIBC (2)
37:   FUNC GLOBAL DEFAULT UND _ZNSt3__113basic_ostreamI
38:   FUNC GLOBAL DEFAULT UND _ZNSt3__113basic_ostreamI
39:   FUNC GLOBAL DEFAULT UND _ZNKSt3__18ios_base6getlo
40:   FUNC GLOBAL DEFAULT UND _ZNSt3__16localeD1Ev
41:   FUNC GLOBAL DEFAULT UND _ZNKSt3__16locale9use_fac
42:   FUNC GLOBAL DEFAULT UND _ZNSt3__18ios_base5clearE
43:   FUNC GLOBAL DEFAULT UND _ZN7android4base10MappedF
44:   FUNC GLOBAL DEFAULT UND inflateEnd
45:   OBJECT GLOBAL DEFAULT UND _ZNSt3__15ctypeIcE2idE
46:   FUNC GLOBAL DEFAULT UND _ZNKSt3__120__vector_base
47:   FUNC GLOBAL DEFAULT UND fileno@LIBC (2)
48:   FUNC GLOBAL DEFAULT UND fseeko@LIBC (2)
49:   FUNC GLOBAL DEFAULT UND deflateInit2_
50:   FUNC GLOBAL DEFAULT UND _ZN7android4base21GetMini
51:   FUNC GLOBAL DEFAULT UND deflate
52:   FUNC GLOBAL DEFAULT UND fflush@LIBC (2)
53:   FUNC GLOBAL DEFAULT UND deflateEnd
54:   FUNC GLOBAL DEFAULT UND localtime_r@LIBC (2)
55:   FUNC GLOBAL DEFAULT UND fwrite@LIBC (2)
56:   FUNC GLOBAL DEFAULT UND __fwrite_chk@LIBC_N (7)
57:   FUNC GLOBAL DEFAULT UND _ZNSt3__112basic_stringIc
58:   FUNC GLOBAL DEFAULT UND abort@LIBC (2)
59:   FUNC GLOBAL DEFAULT UND _ZNSt3__112basic_stringIc
60:   FUNC WEAK DEFAULT UND android_set_abort_message@LIBC (2)
61:   FUNC GLOBAL DEFAULT UND write@LIBC (2)
62:   FUNC GLOBAL DEFAULT UND __stack_chk_fail@LIBC (2)
63:   FUNC GLOBAL DEFAULT UND memcpy@LIBC (2)
64:   FUNC GLOBAL DEFAULT UND memset@LIBC (2)
65:   FUNC GLOBAL DEFAULT 14 _ZN10ZipArchiveC2Eib
66:   FUNC GLOBAL DEFAULT 14 _ZN11zip_archive6ReaderD0
67:   FUNC GLOBAL DEFAULT 14 _ZN11zip_archive6WriterD1
68:   FUNC GLOBAL DEFAULT 14 _ZN31ZipArchiveStreamEntr
69:   FUNC GLOBAL DEFAULT 14 _ZN9ZipWriter14PrepareDef
70:   FUNC GLOBAL DEFAULT 14 _ZN9ZipWriter13CompressBy
71:   FUNC GLOBAL DEFAULT 14 _Z15ExtractToMemoryP10Zip
72:   FUNC GLOBAL DEFAULT 14 _Z15ExtractToWriterP10Zip
73:   OBJECT GLOBAL DEFAULT 18 _ZTV31ZipArchiveStreamEnt
74:   OBJECT GLOBAL DEFAULT 18 _ZTV21ZipArchiveStreamEnt
75:   FUNC GLOBAL DEFAULT 14 _ZN9ZipWriter17StartAlign
76:   FUNC GLOBAL DEFAULT 14 _Z14StartIterationP10ZipA
77:   FUNC GLOBAL DEFAULT 14 _ZN9ZipWriter16DiscardLas
78:   FUNC GLOBAL DEFAULT 14 _ZN9ZipWriter12GetLastEnt
79:   FUNC GLOBAL DEFAULT 14 _ZN9ZipWriter10WriteBytes
80:   FUNC GLOBAL DEFAULT 14 _Z13OpenArchiveFdiPKcPP10
81:   OBJECT GLOBAL DEFAULT 18 _ZTV33ZipArchiveStreamEnt
82:   OBJECT GLOBAL DEFAULT 18 _ZTV34ZipArchiveStreamEnt
83:   FUNC GLOBAL DEFAULT 14 _ZN10ZipArchiveD1Ev
84:   FUNC GLOBAL DEFAULT 14 _ZN31ZipArchiveStreamEntr
85:   FUNC GLOBAL DEFAULT 14 _ZN9ZipWriter18StartEntry
86:   FUNC GLOBAL DEFAULT 14 _ZN11zip_archive6WriterD2
87:   FUNC GLOBAL DEFAULT 14 _ZNK13MappedZipFile10GetB
88:   FUNC GLOBAL DEFAULT 14 _ZNK13MappedZipFile12Read
89:   FUNC GLOBAL DEFAULT 14 _ZN11zip_archive6ReaderD1
90:   FUNC GLOBAL DEFAULT 14 _ZN31ZipArchiveStreamEntr
91:   FUNC GLOBAL DEFAULT 14 _ZN9ZipWriter11FinishEntr
92:   FUNC GLOBAL DEFAULT 14 _Z11OpenArchivePKcPP10Zip
93:   FUNC GLOBAL DEFAULT 14 _ZN11zip_archive7InflateE
94:   FUNC GLOBAL DEFAULT 14 _ZNK13MappedZipFile17GetF
95:   FUNC GLOBAL DEFAULT 14 _ZN33ZipArchiveStreamEntr
96:   FUNC GLOBAL DEFAULT 14 _ZN9ZipWriter10StoreBytes
97:   FUNC GLOBAL DEFAULT 14 _ZN10ZipArchiveC2EPvm
98:   FUNC GLOBAL DEFAULT 14 _Z21OpenArchiveFromMemory
99:   FUNC GLOBAL DEFAULT 14 _Z17GetFileDescriptorP10Z
100:   FUNC WEAK DEFAULT 14 _ZNSt3__124__put_characte
101:   FUNC GLOBAL DEFAULT 14 _ZN31ZipArchiveStreamEntr
102:   FUNC GLOBAL DEFAULT 14 _ZN9ZipWriterC2EOS_
103:   FUNC GLOBAL DEFAULT 14 _ZN9ZipWriter11HandleErro
104:   FUNC GLOBAL DEFAULT 14 _Z12EndIterationPv
105:   FUNC GLOBAL DEFAULT 14 _ZN16CentralDirectory10In
106:   FUNC GLOBAL DEFAULT 14 _ZN10ZipArchive26Initiali
107:   OBJECT GLOBAL DEFAULT 18 _ZTVN11zip_archive6Writer
108:   FUNC GLOBAL DEFAULT 14 _ZN9ZipWriter20FlushCompr
109:   FUNC GLOBAL DEFAULT 14 _ZN10ZipArchiveD2Ev
110:   FUNC GLOBAL DEFAULT 14 _Z23ProcessZipEntryConten
111:   OBJECT GLOBAL DEFAULT 18 _ZTVN11zip_archive6Reader
112:   FUNC GLOBAL DEFAULT 14 _ZN10ZipArchiveC1Eib
113:   FUNC GLOBAL DEFAULT 14 _ZN10ZipArchiveC1EPvm
114:   FUNC GLOBAL DEFAULT 14 _ZN9ZipWriterC1EP7__sFILE
115:   FUNC GLOBAL DEFAULT 14 _ZN9ZipWriterC1EOS_
116:   FUNC GLOBAL DEFAULT 14 _Z9FindEntryP10ZipArchive
117:   FUNC GLOBAL DEFAULT 14 _Z15ErrorCodeStringi
118:   FUNC GLOBAL DEFAULT 14 _ZN11zip_archive6ReaderD2
119:   FUNC GLOBAL DEFAULT 14 __cfi_check
120:   FUNC GLOBAL DEFAULT 14 _ZN21ZipArchiveStreamEntr
121:   FUNC GLOBAL DEFAULT 14 _ZN9ZipWriterC2EP7__sFILE
122:   FUNC GLOBAL DEFAULT 14 _ZN9ZipWriter10StartEntry
123:   FUNC GLOBAL DEFAULT 14 _Z4NextPvP8ZipEntryP9ZipS
124:   FUNC GLOBAL DEFAULT 14 _ZN11zip_archive6WriterD0
125:   FUNC GLOBAL DEFAULT 14 _ZN31ZipArchiveStreamEntr
126:   FUNC GLOBAL DEFAULT 14 _ZN9ZipStringC2EPKc
127:   FUNC GLOBAL DEFAULT 14 _ZN9ZipWriteraSEOS_
128:   FUNC GLOBAL DEFAULT 14 _Z18ExtractEntryToFileP10
129:   FUNC GLOBAL DEFAULT 14 _ZNK8ZipEntry19GetModific
130:   FUNC GLOBAL DEFAULT 14 _Z11GetOwnerTagPK10ZipArc
131:   FUNC GLOBAL DEFAULT 14 _Z12CloseArchiveP10ZipArc
132:   FUNC GLOBAL DEFAULT 14 _ZN9ZipStringC1EPKc
133:   FUNC GLOBAL DEFAULT 14 _ZN31ZipArchiveStreamEntr
134:   FUNC GLOBAL DEFAULT 14 _ZN9ZipWriter25StartAlign
135:   FUNC GLOBAL DEFAULT 14 _ZNK13MappedZipFile13GetF
136:   FUNC GLOBAL DEFAULT 14 _ZN21ZipArchiveStreamEntr
137:   FUNC GLOBAL DEFAULT 14 _ZN33ZipArchiveStreamEntr
138:   FUNC GLOBAL DEFAULT 14 _ZN33ZipArchiveStreamEntr
139:   FUNC GLOBAL DEFAULT 14 _ZN34ZipArchiveStreamEntr
140:   FUNC GLOBAL DEFAULT 14 _ZN34ZipArchiveStreamEntr
141:   FUNC GLOBAL DEFAULT 14 _ZN21ZipArchiveStreamEntr
142:   FUNC GLOBAL DEFAULT 14 _ZN9ZipWriter15ErrorCodeS
143:   FUNC GLOBAL DEFAULT 14 _ZN9ZipWriter6FinishEv
