 0x000000000000000e (SONAME)             Library soname: [libsparse-host.so]
  
Symbol   contains 118 entries:
Num:   Type Bind Vis Ndx Name
0:   NOTYPE LOCAL DEFAULT UND
1:   NOTYPE WEAK DEFAULT UND __gmon_start__
2:   NOTYPE WEAK DEFAULT UND _ITM_deregisterTMCloneTab
3:   NOTYPE WEAK DEFAULT UND _ITM_registerTMCloneTable
4:   FUNC WEAK DEFAULT UND __cxa_finalize@GLIBC_2.2.5 (2)
5:   NOTYPE WEAK DEFAULT UND _Jv_RegisterClasses
6:   FUNC GLOBAL DEFAULT UND calloc@GLIBC_2.2.5 (2)
7:   FUNC GLOBAL DEFAULT UND free@GLIBC_2.2.5 (2)
8:   FUNC GLOBAL DEFAULT UND malloc@GLIBC_2.2.5 (2)
9:   FUNC GLOBAL DEFAULT UND strcmp@GLIBC_2.2.5 (2)
10:   FUNC GLOBAL DEFAULT UND strdup@GLIBC_2.2.5 (2)
11:   FUNC GLOBAL DEFAULT UND __errno_location@GLIBC_2.2.5 (3)
12:   FUNC GLOBAL DEFAULT UND __stack_chk_fail@GLIBC_2.4 (4)
13:   FUNC GLOBAL DEFAULT UND close@GLIBC_2.2.5 (3)
14:   FUNC GLOBAL DEFAULT UND fprintf@GLIBC_2.2.5 (2)
15:   FUNC GLOBAL DEFAULT UND ftruncate64@GLIBC_2.2.5 (2)
16:   FUNC GLOBAL DEFAULT UND gzclose
17:   FUNC GLOBAL DEFAULT UND gzdopen
18:   FUNC GLOBAL DEFAULT UND gzerror
19:   FUNC GLOBAL DEFAULT UND gzseek64
20:   FUNC GLOBAL DEFAULT UND gztell64
21:   FUNC GLOBAL DEFAULT UND gzwrite
22:   FUNC GLOBAL DEFAULT UND lseek64@GLIBC_2.2.5 (3)
23:   FUNC GLOBAL DEFAULT UND mmap64@GLIBC_2.2.5 (2)
24:   FUNC GLOBAL DEFAULT UND munmap@GLIBC_2.2.5 (2)
25:   FUNC GLOBAL DEFAULT UND open64@GLIBC_2.2.5 (3)
26:   FUNC GLOBAL DEFAULT UND read@GLIBC_2.2.5 (3)
27:   OBJECT GLOBAL DEFAULT UND stderr@GLIBC_2.2.5 (2)
28:   FUNC GLOBAL DEFAULT UND strerror@GLIBC_2.2.5 (2)
29:   FUNC GLOBAL DEFAULT UND write@GLIBC_2.2.5 (3)
30:   FUNC GLOBAL DEFAULT UND __vfprintf_chk@GLIBC_2.3.4 (5)
31:   FUNC GLOBAL DEFAULT UND _ZN7android4base12StringP
32:   FUNC GLOBAL DEFAULT UND _ZN7android4base13StringA
33:   FUNC GLOBAL DEFAULT UND _ZNSt3__112basic_stringIc
34:   OBJECT GLOBAL DEFAULT UND _ZTVN10__cxxabiv117__clas
35:   OBJECT GLOBAL DEFAULT UND _ZTVN10__cxxabiv120__si_c
36:   FUNC GLOBAL DEFAULT UND _ZdlPv
37:   FUNC GLOBAL DEFAULT UND _Znwm
38:   FUNC GLOBAL DEFAULT UND memcpy@GLIBC_2.14 (6)
39:   FUNC GLOBAL DEFAULT UND memset@GLIBC_2.2.5 (2)
40:   FUNC GLOBAL DEFAULT 12 _Z15backed_block_fdP12bac
41:   FUNC GLOBAL DEFAULT 13 _init
42:   FUNC GLOBAL DEFAULT 12 _Z17backed_block_typeP12b
43:   FUNC GLOBAL DEFAULT 12 _Z21backed_block_list_new
44:   FUNC GLOBAL DEFAULT 12 _Z22backed_block_iter_nex
45:   FUNC GLOBAL DEFAULT 12 sparse_file_destroy
46:   FUNC GLOBAL DEFAULT 12 _Z20backed_block_destroyP
47:   FUNC GLOBAL DEFAULT 12 _Z21backed_block_filename
48:   FUNC WEAK DEFAULT 12 _ZN18SparseFileFdSource15
49:   FUNC GLOBAL DEFAULT 12 sparse_file_read
50:   FUNC GLOBAL DEFAULT 12 _Z17backed_block_dataP12b
51:   FUNC GLOBAL DEFAULT 12 write_data_chunk
52:   FUNC GLOBAL DEFAULT 12 _Z19sparse_count_chunksP1
53:   FUNC GLOBAL DEFAULT 12 sparse_file_add_file
54:   OBJECT GLOBAL DEFAULT 16 sparse_print_error
55:   FUNC GLOBAL DEFAULT 12 _Z22backed_block_list_mov
56:   FUNC GLOBAL DEFAULT 12 _Z22write_sparse_end_chun
57:   FUNC GLOBAL DEFAULT 12 sparse_file_write
58:   FUNC WEAK DEFAULT 12 _ZN18SparseFileFdSource9G
59:   FUNC WEAK DEFAULT 12 _ZN19SparseFileBufSource9
60:   FUNC WEAK DEFAULT 12 _ZN19SparseFileBufSource9
61:   FUNC GLOBAL DEFAULT 12 sparse_file_verbose
62:   FUNC WEAK DEFAULT 12 _ZN18SparseFileFdSource8G
63:   FUNC WEAK DEFAULT 12 _ZN19SparseFileBufSource4
64:   FUNC WEAK DEFAULT 12 _ZN19SparseFileBufSource9
65:   OBJECT WEAK DEFAULT 21 _ZTI16SparseFileSource
66:   OBJECT WEAK DEFAULT 9 _ZTS19SparseFileBufSource
67:   FUNC GLOBAL DEFAULT 12 sparse_file_read_buf
68:   FUNC GLOBAL DEFAULT 14 _fini
69:   FUNC WEAK DEFAULT 12 _ZN18SparseFileFdSourceD0
70:   OBJECT WEAK DEFAULT 21 _ZTV19SparseFileBufSource
71:   FUNC GLOBAL DEFAULT 12 _Z21backed_block_fill_val
72:   FUNC GLOBAL DEFAULT 12 _Z22write_normal_end_chun
73:   FUNC GLOBAL DEFAULT 12 read_all
74:   OBJECT WEAK DEFAULT 9 _ZTS18SparseFileFdSource
75:   FUNC GLOBAL DEFAULT 12 sparse_file_add_data
76:   FUNC GLOBAL DEFAULT 12 sparse_file_add_fill
77:   FUNC GLOBAL DEFAULT 12 _Z20sparse_default_printP
78:   OBJECT WEAK DEFAULT 9 _ZTS16SparseFileSource
79:   FUNC GLOBAL DEFAULT 12 _Z18backed_block_blockP12
80:   FUNC GLOBAL DEFAULT 12 _Z21backed_block_add_file
81:   FUNC GLOBAL DEFAULT 12 output_file_close
82:   FUNC GLOBAL DEFAULT 12 write_fd_chunk
83:   FUNC WEAK DEFAULT 12 _ZN19SparseFileBufSource1
84:   OBJECT WEAK DEFAULT 21 _ZTI18SparseFileFdSource
85:   FUNC GLOBAL DEFAULT 12 _Z25backed_block_list_des
86:   FUNC GLOBAL DEFAULT 12 output_file_open_fd
87:   FUNC GLOBAL DEFAULT 12 write_fill_chunk
88:   FUNC WEAK DEFAULT 12 _ZN19SparseFileBufSource8
89:   OBJECT WEAK DEFAULT 21 _ZTI19SparseFileBufSource
90:   FUNC GLOBAL DEFAULT 12 _Z16backed_block_lenP12ba
91:   FUNC GLOBAL DEFAULT 12 write_file_chunk
92:   FUNC GLOBAL DEFAULT 12 sparse_file_block_size
93:   FUNC GLOBAL DEFAULT 12 sparse_file_callback
94:   FUNC GLOBAL DEFAULT 12 sparse_file_foreach_chunk
95:   FUNC GLOBAL DEFAULT 12 sparse_file_import_buf
96:   OBJECT WEAK DEFAULT 21 _ZTV18SparseFileFdSource
97:   FUNC GLOBAL DEFAULT 12 output_file_open_callback
98:   FUNC GLOBAL DEFAULT 12 _Z19backed_block_add_fdP1
99:   FUNC GLOBAL DEFAULT 12 _Z21backed_block_iter_new
100:   FUNC GLOBAL DEFAULT 12 _Z24backed_block_file_off
101:   FUNC GLOBAL DEFAULT 12 sparse_file_len
102:   FUNC GLOBAL DEFAULT 12 sparse_file_resparse
103:   FUNC GLOBAL DEFAULT 12 _Z18backed_block_splitP17
104:   FUNC GLOBAL DEFAULT 12 _Z12sparse_crc32jPKvm
105:   FUNC GLOBAL DEFAULT 12 write_skip_chunk
106:   FUNC GLOBAL DEFAULT 12 sparse_file_add_fd
107:   OBJECT GLOBAL DEFAULT 16 sparse_print_verbose
108:   FUNC WEAK DEFAULT 12 _ZN18SparseFileFdSource4S
109:   FUNC WEAK DEFAULT 12 _ZN18SparseFileFdSource9S
110:   FUNC GLOBAL DEFAULT 12 _Z21backed_block_add_data
111:   FUNC GLOBAL DEFAULT 12 _Z21backed_block_add_fill
112:   FUNC GLOBAL DEFAULT 12 sparse_file_new
113:   FUNC WEAK DEFAULT 12 _ZN16SparseFileSourceD2Ev
114:   FUNC WEAK DEFAULT 12 _ZN18SparseFileFdSource9R
115:   FUNC WEAK DEFAULT 12 _ZN19SparseFileBufSourceD
116:   FUNC GLOBAL DEFAULT 12 sparse_file_import
117:   FUNC GLOBAL DEFAULT 12 sparse_file_import_auto
