 0x0000000e (SONAME)                     Library soname: [libinputflinger.so]
  
Symbol   contains 684 entries:
Num:   Type Bind Vis Ndx Name
0:   NOTYPE LOCAL DEFAULT UND
1:   FUNC GLOBAL DEFAULT UND __cxa_finalize@LIBC (2)
2:   FUNC GLOBAL DEFAULT UND _ZN7android16NotifyMotion
3:   FUNC GLOBAL DEFAULT UND _ZN7android21NotifyDevice
4:   FUNC GLOBAL DEFAULT UND _ZN7android28motionClassi
5:   FUNC GLOBAL DEFAULT UND _ZN7android4base12StringP
6:   FUNC GLOBAL DEFAULT UND _ZN7android7RefBase10onFi
7:   FUNC GLOBAL DEFAULT UND _ZN7android7RefBase12weak
8:   FUNC GLOBAL DEFAULT UND _ZN7android7RefBase13onLa
9:   FUNC GLOBAL DEFAULT UND _ZN7android7RefBase15onLa
10:   FUNC GLOBAL DEFAULT UND _ZN7android7RefBase20onIn
11:   FUNC GLOBAL DEFAULT UND _ZN7android7RefBaseC2Ev
12:   FUNC GLOBAL DEFAULT UND _ZN7android7RefBaseD2Ev
13:   FUNC GLOBAL DEFAULT UND _ZN7android8hardware5inpu
14:   FUNC GLOBAL DEFAULT UND _ZN7android8hardware7deta
15:   FUNC GLOBAL DEFAULT UND _ZNK7android7RefBase9decS
16:   FUNC GLOBAL DEFAULT UND _ZNK7android7RefBase9incS
17:   FUNC GLOBAL DEFAULT UND _ZNK7android8hardware7det
18:   FUNC GLOBAL DEFAULT UND _ZNKSt3__120__vector_base
19:   FUNC GLOBAL DEFAULT UND _ZNSt3__112__next_primeEj
20:   FUNC GLOBAL DEFAULT UND _ZNSt3__112basic_stringIc
21:   FUNC GLOBAL DEFAULT UND _ZNSt3__112basic_stringIc
22:   FUNC GLOBAL DEFAULT UND _ZNSt3__115__thread_struc
23:   FUNC GLOBAL DEFAULT UND _ZNSt3__115__thread_struc
24:   FUNC GLOBAL DEFAULT UND _ZNSt3__118condition_vari
25:   FUNC GLOBAL DEFAULT UND _ZNSt3__118condition_vari
26:   FUNC GLOBAL DEFAULT UND _ZNSt3__118condition_vari
27:   FUNC GLOBAL DEFAULT UND _ZNSt3__119__thread_local
28:   FUNC GLOBAL DEFAULT UND _ZNSt3__120__throw_system
29:   FUNC GLOBAL DEFAULT UND _ZNSt3__15mutex4lockEv
30:   FUNC GLOBAL DEFAULT UND _ZNSt3__15mutex6unlockEv
31:   FUNC GLOBAL DEFAULT UND _ZNSt3__15mutexD1Ev
32:   FUNC GLOBAL DEFAULT UND _ZNSt3__16thread4joinEv
33:   FUNC GLOBAL DEFAULT UND _ZNSt3__16threadD1Ev
34:   FUNC GLOBAL DEFAULT UND _ZSt9terminatev
35:   OBJECT GLOBAL DEFAULT UND _ZTVN7android16NotifyMoti
36:   FUNC GLOBAL DEFAULT UND _ZdaPv
37:   FUNC GLOBAL DEFAULT UND _ZdlPv
38:   FUNC GLOBAL DEFAULT UND _Znwj
39:   FUNC GLOBAL DEFAULT UND __android_log_print@LIBLOG (3)
40:   FUNC GLOBAL DEFAULT UND __cxa_pure_virtual
41:   FUNC GLOBAL DEFAULT UND __stack_chk_fail@LIBC (2)
42:   OBJECT GLOBAL DEFAULT UND __stack_chk_guard@LIBC (2)
43:   FUNC GLOBAL DEFAULT UND abort@LIBC (2)
44:   FUNC GLOBAL DEFAULT UND pthread_create@LIBC (2)
45:   FUNC GLOBAL DEFAULT UND pthread_setname_np@LIBC (2)
46:   FUNC GLOBAL DEFAULT UND pthread_setspecific@LIBC (2)
47:   FUNC GLOBAL DEFAULT UND _ZNK7android15TouchVideoF
48:   FUNC GLOBAL DEFAULT UND _ZNK7android15TouchVideoF
49:   FUNC GLOBAL DEFAULT UND _ZNK7android15TouchVideoF
50:   FUNC GLOBAL DEFAULT UND _ZNK7android15TouchVideoF
51:   FUNC GLOBAL DEFAULT UND _Znaj
52:   FUNC GLOBAL DEFAULT UND _ZN7android10VectorImpl13
53:   FUNC GLOBAL DEFAULT UND _ZN7android10VectorImpl13
54:   FUNC GLOBAL DEFAULT UND _ZN7android10VectorImpl16
55:   FUNC GLOBAL DEFAULT UND _ZN7android10VectorImpl5c
56:   FUNC GLOBAL DEFAULT UND _ZN7android10VectorImplC2
57:   FUNC GLOBAL DEFAULT UND _ZN7android10VectorImplD2
58:   FUNC GLOBAL DEFAULT UND _ZN7android11MotionEvent1
59:   FUNC GLOBAL DEFAULT UND _ZN7android11MotionEvent1
60:   FUNC GLOBAL DEFAULT UND _ZN7android13PointerCoord
61:   FUNC GLOBAL DEFAULT UND _ZN7android13PointerCoord
62:   FUNC GLOBAL DEFAULT UND _ZN7android13PointerCoord
63:   FUNC GLOBAL DEFAULT UND _ZN7android14InputPublish
64:   FUNC GLOBAL DEFAULT UND _ZN7android14InputPublish
65:   FUNC GLOBAL DEFAULT UND _ZN7android14InputPublish
66:   FUNC GLOBAL DEFAULT UND _ZN7android14InputPublish
67:   FUNC GLOBAL DEFAULT UND _ZN7android14InputPublish
68:   FUNC GLOBAL DEFAULT UND _ZN7android14sp_report_ra
69:   FUNC GLOBAL DEFAULT UND _ZN7android16SortedVector
70:   FUNC GLOBAL DEFAULT UND _ZN7android16SortedVector
71:   FUNC GLOBAL DEFAULT UND _ZN7android16SortedVector
72:   FUNC GLOBAL DEFAULT UND _ZN7android16SortedVector
73:   FUNC GLOBAL DEFAULT UND _ZN7android17InputWindowH
74:   FUNC GLOBAL DEFAULT UND _ZN7android17InputWindowH
75:   FUNC GLOBAL DEFAULT UND _ZN7android17PointerPrope
76:   FUNC GLOBAL DEFAULT UND _ZN7android19createInputR
77:   FUNC GLOBAL DEFAULT UND _ZN7android4base10boot_cl
78:   FUNC GLOBAL DEFAULT UND _ZN7android6Looper4wakeEv
79:   FUNC GLOBAL DEFAULT UND _ZN7android6Looper5addFdE
80:   FUNC GLOBAL DEFAULT UND _ZN7android6Looper8pollOn
81:   FUNC GLOBAL DEFAULT UND _ZN7android6Looper8remove
82:   FUNC GLOBAL DEFAULT UND _ZN7android6LooperC1Eb
83:   FUNC GLOBAL DEFAULT UND _ZN7android6Thread10ready
84:   FUNC GLOBAL DEFAULT UND _ZN7android6Thread11reque
85:   FUNC GLOBAL DEFAULT UND _ZN7android6Thread3runEPK
86:   FUNC GLOBAL DEFAULT UND _ZN7android6ThreadC2Eb
87:   FUNC GLOBAL DEFAULT UND _ZN7android6ThreadD0Ev
88:   FUNC GLOBAL DEFAULT UND _ZN7android6ThreadD1Ev
89:   FUNC GLOBAL DEFAULT UND _ZN7android6ThreadD2Ev
90:   FUNC GLOBAL DEFAULT UND _ZN7android8KeyEvent10ini
91:   FUNC GLOBAL DEFAULT UND _ZN7android8KeyEvent10ini
92:   FUNC GLOBAL DEFAULT UND _ZNK7android12InputChanne
93:   FUNC GLOBAL DEFAULT UND _ZNK7android13PointerCoor
94:   FUNC GLOBAL DEFAULT UND _ZNK7android15InputWindow
95:   FUNC GLOBAL DEFAULT UND _ZNK7android15InputWindow
96:   FUNC GLOBAL DEFAULT UND _ZNK7android15InputWindow
97:   FUNC GLOBAL DEFAULT UND _ZNK7android15InputWindow
98:   FUNC GLOBAL DEFAULT UND _ZNK7android15InputWindow
99:   FUNC GLOBAL DEFAULT UND _ZNK7android16SortedVecto
100:   FUNC GLOBAL DEFAULT UND _ZNK7android17InputWindow
101:   FUNC GLOBAL DEFAULT UND _ZNK7android6Region3endEv
102:   FUNC GLOBAL DEFAULT UND _ZNK7android6Region5begin
103:   FUNC GLOBAL DEFAULT UND _ZNSt3__112basic_stringIc
104:   FUNC GLOBAL DEFAULT UND _ZNSt3__112basic_stringIc
105:   FUNC GLOBAL DEFAULT UND _ZNSt3__112basic_stringIc
106:   FUNC GLOBAL DEFAULT UND _ZNSt3__112basic_stringIc
107:   FUNC GLOBAL DEFAULT UND _ZNSt3__112basic_stringIc
108:   FUNC GLOBAL DEFAULT UND _ZNSt3__113basic_istreamI
109:   FUNC GLOBAL DEFAULT UND _ZNSt3__113basic_istreamI
110:   FUNC GLOBAL DEFAULT UND _ZNSt3__113basic_istreamI
111:   FUNC GLOBAL DEFAULT UND _ZNSt3__113basic_istreamI
112:   FUNC GLOBAL DEFAULT UND _ZNSt3__115basic_streambu
113:   FUNC GLOBAL DEFAULT UND _ZNSt3__115basic_streambu
114:   FUNC GLOBAL DEFAULT UND _ZNSt3__115basic_streambu
115:   FUNC GLOBAL DEFAULT UND _ZNSt3__115basic_streambu
116:   FUNC GLOBAL DEFAULT UND _ZNSt3__115basic_streambu
117:   FUNC GLOBAL DEFAULT UND _ZNSt3__115basic_streambu
118:   FUNC GLOBAL DEFAULT UND _ZNSt3__115basic_streambu
119:   FUNC GLOBAL DEFAULT UND _ZNSt3__115basic_streambu
120:   FUNC GLOBAL DEFAULT UND _ZNSt3__115basic_streambu
121:   FUNC GLOBAL DEFAULT UND _ZNSt3__118condition_vari
122:   FUNC GLOBAL DEFAULT UND _ZNSt3__118condition_vari
123:   FUNC GLOBAL DEFAULT UND _ZNSt3__16chrono12steady_
124:   FUNC GLOBAL DEFAULT UND _ZNSt3__16chrono12system_
125:   FUNC GLOBAL DEFAULT UND _ZNSt3__18ios_base4initEP
126:   FUNC GLOBAL DEFAULT UND _ZNSt3__18ios_base5clearE
127:   FUNC GLOBAL DEFAULT UND _ZNSt3__19basic_iosIcNS_1
128:   FUNC GLOBAL DEFAULT UND _ZNSt3__19to_stringEx
129:   FUNC GLOBAL DEFAULT UND _ZTv0_n12_N7android6Threa
130:   FUNC GLOBAL DEFAULT UND _ZTv0_n12_N7android6Threa
131:   FUNC GLOBAL DEFAULT UND _ZTv0_n12_NSt3__113basic_
132:   FUNC GLOBAL DEFAULT UND _ZTv0_n12_NSt3__113basic_
133:   FUNC GLOBAL DEFAULT UND __android_log_assert@LIBLOG (3)
134:   FUNC GLOBAL DEFAULT UND __vsnprintf_chk@LIBC (2)
135:   FUNC GLOBAL DEFAULT UND atrace_begin_body
136:   OBJECT GLOBAL DEFAULT UND atrace_enabled_tags
137:   FUNC GLOBAL DEFAULT UND atrace_end_body
138:   FUNC GLOBAL DEFAULT UND atrace_int_body
139:   OBJECT GLOBAL DEFAULT UND atrace_is_ready
140:   FUNC GLOBAL DEFAULT UND atrace_setup
141:   FUNC GLOBAL DEFAULT UND localtime_r@LIBC (2)
142:   FUNC GLOBAL DEFAULT UND strftime@LIBC (2)
143:   FUNC GLOBAL DEFAULT UND systemTime
144:   FUNC GLOBAL DEFAULT UND time@LIBC (2)
145:   FUNC GLOBAL DEFAULT UND toMillisecondTimeoutDelay
146:   FUNC GLOBAL DEFAULT UND _ZN7android10IInterfaceD0
147:   FUNC GLOBAL DEFAULT UND _ZN7android10IInterfaceD1
148:   OBJECT GLOBAL DEFAULT UND _ZN7android13IInputFlinge
149:   FUNC GLOBAL DEFAULT UND _ZN7android13IInputFlinge
150:   FUNC GLOBAL DEFAULT UND _ZN7android13IInputFlinge
151:   FUNC GLOBAL DEFAULT UND _ZN7android13IInputFlinge
152:   FUNC GLOBAL DEFAULT UND _ZN7android13IInputFlinge
153:   FUNC GLOBAL DEFAULT UND _ZN7android14BnInputFling
154:   FUNC GLOBAL DEFAULT UND _ZN7android14IPCThreadSta
155:   FUNC GLOBAL DEFAULT UND _ZN7android17InputReaderT
156:   FUNC GLOBAL DEFAULT UND _ZN7android17InputWindowH
157:   FUNC GLOBAL DEFAULT UND _ZN7android17InputWindowH
158:   FUNC GLOBAL DEFAULT UND _ZN7android17createInputR
159:   FUNC GLOBAL DEFAULT UND _ZN7android6RegionaSERKS0
160:   FUNC GLOBAL DEFAULT UND _ZN7android6Thread18reque
161:   FUNC GLOBAL DEFAULT UND _ZN7android7BBinder10onTr
162:   FUNC GLOBAL DEFAULT UND _ZN7android7BBinder10ping
163:   FUNC GLOBAL DEFAULT UND _ZN7android7BBinder11link
164:   FUNC GLOBAL DEFAULT UND _ZN7android7BBinder11loca
165:   FUNC GLOBAL DEFAULT UND _ZN7android7BBinder12atta
166:   FUNC GLOBAL DEFAULT UND _ZN7android7BBinder12deta
167:   FUNC GLOBAL DEFAULT UND _ZN7android7BBinder13unli
168:   FUNC GLOBAL DEFAULT UND _ZN7android7BBinder4dumpE
169:   FUNC GLOBAL DEFAULT UND _ZN7android7BBinder8trans
170:   FUNC GLOBAL DEFAULT UND _ZN7android7BBinderC2Ev
171:   FUNC GLOBAL DEFAULT UND _ZN7android7BBinderD0Ev
172:   FUNC GLOBAL DEFAULT UND _ZN7android7BBinderD1Ev
173:   FUNC GLOBAL DEFAULT UND _ZN7android7BBinderD2Ev
174:   FUNC GLOBAL DEFAULT UND _ZN7android7IBinder11loca
175:   FUNC GLOBAL DEFAULT UND _ZN7android7IBinder12remo
176:   FUNC GLOBAL DEFAULT UND _ZN7android7IBinder19quer
177:   FUNC GLOBAL DEFAULT UND _ZN7android7IBinderD0Ev
178:   FUNC GLOBAL DEFAULT UND _ZN7android7IBinderD1Ev
179:   FUNC GLOBAL DEFAULT UND _ZN7android7RefBase12weak
180:   FUNC GLOBAL DEFAULT UND _ZN7android7RefBase12weak
181:   FUNC GLOBAL DEFAULT UND _ZNK7android13IInputFling
182:   FUNC GLOBAL DEFAULT UND _ZNK7android14IPCThreadSt
183:   FUNC GLOBAL DEFAULT UND _ZNK7android14IPCThreadSt
184:   FUNC GLOBAL DEFAULT UND _ZNK7android7BBinder10fin
185:   FUNC GLOBAL DEFAULT UND _ZNK7android7BBinder13isB
186:   FUNC GLOBAL DEFAULT UND _ZNK7android7BBinder22get
187:   FUNC GLOBAL DEFAULT UND _ZNK7android7IBinder13che
188:   FUNC GLOBAL DEFAULT UND _ZNK7android8String164siz
189:   FUNC GLOBAL DEFAULT UND _ZThn4_N7android14BnInput
190:   FUNC GLOBAL DEFAULT UND _ZTv0_n12_N7android10IInt
191:   FUNC GLOBAL DEFAULT UND _ZTv0_n12_N7android10IInt
192:   FUNC GLOBAL DEFAULT UND _ZTv0_n12_N7android13IInp
193:   FUNC GLOBAL DEFAULT UND _ZTv0_n12_N7android13IInp
194:   FUNC GLOBAL DEFAULT UND _ZTv0_n12_N7android7BBind
195:   FUNC GLOBAL DEFAULT UND _ZTv0_n12_N7android7BBind
196:   FUNC GLOBAL DEFAULT UND _ZTv0_n12_N7android7IBind
197:   FUNC GLOBAL DEFAULT UND _ZTv0_n12_N7android7IBind
198:   FUNC GLOBAL DEFAULT UND strzcmp16
199:   FUNC GLOBAL DEFAULT UND memcpy@LIBC (2)
200:   FUNC GLOBAL DEFAULT UND memmove@LIBC (2)
201:   FUNC GLOBAL DEFAULT UND memset@LIBC (2)
202:   FUNC WEAK DEFAULT 14 _ZNSt3__112__hash_tableIN
203:   OBJECT GLOBAL DEFAULT 18 _ZTVN7android15InputDispa
204:   FUNC GLOBAL DEFAULT 14 _ZN7android15InputDispatc
205:   FUNC GLOBAL DEFAULT 14 _ZN7android15InputDispatc
206:   FUNC GLOBAL DEFAULT 14 _ZN7android15InputDispatc
207:   FUNC GLOBAL DEFAULT 14 _ZNK7android15InputDispat
208:   FUNC GLOBAL DEFAULT 14 _ZN7android15ClassifierEv
209:   FUNC WEAK DEFAULT 14 _ZNSt3__112__hash_tableIN
210:   OBJECT GLOBAL DEFAULT 18 _ZTVN7android15InputDispa
211:   OBJECT GLOBAL DEFAULT 18 _ZTCN7android12InputManag
212:   FUNC GLOBAL DEFAULT 14 __aeabi_memmove8
213:   FUNC GLOBAL DEFAULT 14 _ZN7android15InputClassif
214:   FUNC GLOBAL DEFAULT 14 _ZN7android15InputDispatc
215:   FUNC GLOBAL DEFAULT 14 _ZN7android15InputDispatc
216:   FUNC GLOBAL DEFAULT 14 _ZN7android15InputDispatc
217:   FUNC WEAK DEFAULT 14 _ZNK7android12SortedVecto
218:   FUNC GLOBAL DEFAULT 14 _ZThn8_N7android12InputMa
219:   FUNC GLOBAL DEFAULT 14 _ZTv0_n12_N7android12Inpu
220:   FUNC WEAK DEFAULT 14 _ZNK7android12SortedVecto
221:   FUNC WEAK DEFAULT 14 _ZNK7android12SortedVecto
222:   FUNC GLOBAL DEFAULT 14 _ZN7android15InputDispatc
223:   FUNC WEAK DEFAULT 14 _ZNK7android6VectorINS_17
224:   OBJECT WEAK DEFAULT 18 _ZTVN7android12SortedVect
225:   FUNC GLOBAL DEFAULT 14 __aeabi_uidivmod
226:   FUNC GLOBAL DEFAULT 14 _ZN7android15InputDispatc
227:   FUNC GLOBAL DEFAULT 14 _ZNK7android15InputDispat
228:   FUNC GLOBAL DEFAULT 14 __divdi3
229:   FUNC GLOBAL DEFAULT 14 _ZN7android15InputDispatc
230:   FUNC WEAK DEFAULT 14 _ZNSt3__16vectorIN7androi
231:   FUNC WEAK DEFAULT 14 _ZN7android11BnInterfaceI
232:   FUNC GLOBAL DEFAULT 14 _ZThn4_N7android12InputMa
233:   FUNC WEAK DEFAULT 14 _ZNSt3__16vectorIN7androi
234:   FUNC GLOBAL DEFAULT 14 __aeabi_memclr4
235:   FUNC GLOBAL DEFAULT 14 _ZN7android15InputDispatc
236:   FUNC GLOBAL DEFAULT 14 _ZN7android15InputDispatc
237:   FUNC GLOBAL DEFAULT 14 _ZNK7android15InputDispat
238:   FUNC GLOBAL DEFAULT 14 _ZN7android15InputDispatc
239:   FUNC GLOBAL DEFAULT 14 _ZN7android15InputDispatc
240:   FUNC WEAK DEFAULT 14 _ZNSt3__16vectorIN7androi
241:   FUNC GLOBAL DEFAULT 14 _ZN7android12InputManager
242:   OBJECT GLOBAL DEFAULT 18 _ZTTN7android15InputClass
243:   FUNC WEAK DEFAULT 14 _ZNK7android12SortedVecto
244:   FUNC GLOBAL DEFAULT 14 _ZNK7android15InputDispat
245:   FUNC GLOBAL DEFAULT 14 _ZN7android15InputDispatc
246:   FUNC GLOBAL DEFAULT 14 _ZN7android15InputDispatc
247:   FUNC GLOBAL DEFAULT 14 _ZN7android15InputDispatc
248:   OBJECT GLOBAL DEFAULT 18 _ZTVN7android15InputClass
249:   FUNC GLOBAL DEFAULT 14 __aeabi_memclr8
250:   FUNC GLOBAL DEFAULT 14 _ZN7android15InputDispatc
251:   FUNC GLOBAL DEFAULT 14 _ZN7android15InputDispatc
252:   FUNC GLOBAL DEFAULT 14 _ZN7android15InputDispatc
253:   FUNC GLOBAL DEFAULT 14 _ZN7android21InputDispatc
254:   OBJECT WEAK DEFAULT 18 _ZTVN7android18BinderWind
255:   OBJECT GLOBAL DEFAULT 18 _ZTVN7android16MotionClas
256:   FUNC GLOBAL DEFAULT 14 _ZN7android15InputDispatc
257:   FUNC GLOBAL DEFAULT 14 _ZN7android15InputDispatc
258:   OBJECT WEAK DEFAULT 18 _ZTVN7android6VectorINS_1
259:   FUNC GLOBAL DEFAULT 14 _ZN7android16MotionClassi
260:   FUNC GLOBAL DEFAULT 14 _ZN7android15InputDispatc
261:   FUNC GLOBAL DEFAULT 14 _ZN7android15InputDispatc
262:   FUNC WEAK DEFAULT 14 _ZNSt3__16vectorIN7androi
263:   FUNC GLOBAL DEFAULT 14 _ZN7android15InputDispatc
264:   FUNC GLOBAL DEFAULT 14 _ZN7android15InputClassif
265:   FUNC WEAK DEFAULT 14 _ZNSt3__112__hash_tableIN
266:   FUNC GLOBAL DEFAULT 14 _ZN7android15InputDispatc
267:   FUNC WEAK DEFAULT 14 _ZNSt3__112__hash_tableIN
268:   FUNC GLOBAL DEFAULT 14 _ZN7android15InputDispatc
269:   FUNC WEAK DEFAULT 14 _ZNSt3__112__hash_tableIN
270:   FUNC GLOBAL DEFAULT 14 _ZN7android12InputManager
271:   FUNC GLOBAL DEFAULT 14 _ZN7android15InputDispatc
272:   FUNC GLOBAL DEFAULT 14 _ZN7android15InputDispatc
273:   FUNC GLOBAL DEFAULT 14 _ZN7android15InputDispatc
274:   FUNC GLOBAL DEFAULT 14 _ZN7android15InputDispatc
275:   FUNC GLOBAL DEFAULT 14 _ZNK7android15InputDispat
276:   FUNC GLOBAL DEFAULT 14 _ZN7android12InputManager
277:   FUNC GLOBAL DEFAULT 14 _ZN7android12InputManager
278:   FUNC GLOBAL DEFAULT 14 _ZN7android15InputDispatc
279:   FUNC WEAK DEFAULT 14 _ZNK7android6VectorINS_17
280:   OBJECT GLOBAL DEFAULT 18 _ZTVN7android15InputDispa
281:   FUNC GLOBAL DEFAULT 14 _ZN7android15InputDispatc
282:   FUNC GLOBAL DEFAULT 14 _ZN7android15InputDispatc
283:   FUNC GLOBAL DEFAULT 14 _ZN7android15InputDispatc
284:   FUNC WEAK DEFAULT 14 _ZNK7android12SortedVecto
285:   FUNC GLOBAL DEFAULT 14 _ZN7android12InputManager
286:   FUNC GLOBAL DEFAULT 14 _ZN7android16MotionClassi
287:   FUNC GLOBAL DEFAULT 14 _ZN7android15InputDispatc
288:   FUNC GLOBAL DEFAULT 14 _ZNK7android15InputDispat
289:   FUNC WEAK DEFAULT 14 _ZNK7android6VectorIxE12d
290:   OBJECT WEAK DEFAULT 18 _ZTVN7android11MotionEven
291:   OBJECT GLOBAL DEFAULT 18 _ZTVN7android15InputClass
292:   FUNC GLOBAL DEFAULT 14 _ZN7android15InputDispatc
293:   FUNC GLOBAL DEFAULT 14 _ZN7android15InputDispatc
294:   FUNC GLOBAL DEFAULT 14 _ZN7android15InputDispatc
295:   FUNC WEAK DEFAULT 14 _ZNK7android12SortedVecto
296:   OBJECT WEAK DEFAULT 18 _ZTTNSt3__119basic_istrin
297:   OBJECT WEAK DEFAULT 18 _ZTVN7android8KeyEventE
298:   FUNC GLOBAL DEFAULT 14 _ZThn4_N7android12InputMa
299:   FUNC WEAK DEFAULT 14 _ZNSt3__16vectorIN7androi
300:   FUNC GLOBAL DEFAULT 14 _ZN7android15InputDispatc
301:   FUNC WEAK DEFAULT 14 _ZNSt3__112__hash_tableIN
302:   FUNC GLOBAL DEFAULT 14 _ZN7android15InputDispatc
303:   FUNC GLOBAL DEFAULT 14 _ZN7android15InputDispatc
304:   FUNC WEAK DEFAULT 14 _ZNSt3__112__hash_tableIN
305:   FUNC WEAK DEFAULT 14 _ZNSt3__112__hash_tableIN
306:   FUNC GLOBAL DEFAULT 14 _ZN7android16MotionClassi
307:   FUNC WEAK DEFAULT 14 _ZNSt3__16vectorIN7androi
308:   FUNC GLOBAL DEFAULT 14 _ZN7android15InputDispatc
309:   FUNC GLOBAL DEFAULT 14 _ZN7android15InputDispatc
310:   FUNC WEAK DEFAULT 14 _ZNK7android12SortedVecto
311:   FUNC GLOBAL DEFAULT 14 _ZNK7android15InputDispat
312:   FUNC WEAK DEFAULT 14 _ZNSt3__112__hash_tableIN
313:   FUNC GLOBAL DEFAULT 14 _ZN7android15InputDispatc
314:   FUNC GLOBAL DEFAULT 14 _ZN7android15InputDispatc
315:   FUNC WEAK DEFAULT 14 _ZNK7android6VectorINS_17
316:   FUNC WEAK DEFAULT 14 _ZNSt3__112__hash_tableIN
317:   FUNC GLOBAL DEFAULT 14 _ZN7android12InputManager
318:   OBJECT GLOBAL DEFAULT 18 _ZTCN7android12InputManag
319:   FUNC GLOBAL DEFAULT 14 _ZN7android15ClassifierEv
320:   FUNC GLOBAL DEFAULT 14 _ZN7android15InputDispatc
321:   FUNC GLOBAL DEFAULT 14 _ZN7android15InputDispatc
322:   FUNC GLOBAL DEFAULT 14 _ZN7android15InputDispatc
323:   FUNC GLOBAL DEFAULT 14 _ZNK7android15InputDispat
324:   FUNC WEAK DEFAULT 14 _ZNK7android6VectorINS_13
325:   FUNC WEAK DEFAULT 14 _ZNK7android6VectorINS_17
326:   FUNC GLOBAL DEFAULT 14 _ZN7android12InputManager
327:   FUNC GLOBAL DEFAULT 14 _ZN7android15ClassifierEv
328:   FUNC GLOBAL DEFAULT 14 _ZN7android15InputDispatc
329:   FUNC GLOBAL DEFAULT 14 _ZN7android15InputDispatc
330:   FUNC GLOBAL DEFAULT 14 _ZN7android15InputDispatc
331:   FUNC GLOBAL DEFAULT 14 _ZN7android21InputDispatc
332:   FUNC WEAK DEFAULT 14 _ZNK7android6VectorINS_17
333:   FUNC GLOBAL DEFAULT 14 _ZN7android16MotionClassi
334:   FUNC GLOBAL DEFAULT 14 _ZN7android15InputDispatc
335:   FUNC GLOBAL DEFAULT 14 _ZN7android32notifyMotion
336:   FUNC GLOBAL DEFAULT 14 _ZN7android15InputDispatc
337:   FUNC WEAK DEFAULT 14 _ZNSt3__112__hash_tableIN
338:   OBJECT GLOBAL DEFAULT 18 _ZTCN7android15InputDispa
339:   FUNC GLOBAL DEFAULT 14 _ZThn4_N7android12InputMa
340:   FUNC GLOBAL DEFAULT 14 _ZN7android15InputDispatc
341:   FUNC GLOBAL DEFAULT 14 _ZN7android15InputDispatc
342:   FUNC WEAK DEFAULT 14 _ZNSt3__112__hash_tableIN
343:   FUNC GLOBAL DEFAULT 14 _ZN7android15InputClassif
344:   FUNC GLOBAL DEFAULT 14 _ZN7android15InputDispatc
345:   FUNC WEAK DEFAULT 14 _ZNK7android12SortedVecto
346:   FUNC WEAK DEFAULT 14 _ZNK7android6VectorINS_13
347:   FUNC WEAK DEFAULT 14 _ZNSt3__115basic_stringbu
348:   FUNC GLOBAL DEFAULT 14 _ZN7android15InputClassif
349:   FUNC GLOBAL DEFAULT 14 _ZN7android15InputDispatc
350:   FUNC GLOBAL DEFAULT 14 _ZN7android15InputDispatc
351:   FUNC GLOBAL DEFAULT 14 _ZN7android15InputDispatc
352:   FUNC GLOBAL DEFAULT 14 _ZN7android15InputDispatc
353:   FUNC GLOBAL DEFAULT 14 _ZN7android15InputDispatc
354:   FUNC WEAK DEFAULT 14 _ZNSt3__16vectorIN7androi
355:   OBJECT GLOBAL DEFAULT 18 _ZTTN7android21InputDispa
356:   FUNC GLOBAL DEFAULT 14 _ZN7android12InputManager
357:   FUNC GLOBAL DEFAULT 14 __aeabi_memcpy4
358:   FUNC GLOBAL DEFAULT 14 _ZN7android15InputDispatc
359:   FUNC GLOBAL DEFAULT 14 _ZN7android15InputDispatc
360:   FUNC GLOBAL DEFAULT 14 _ZN7android15InputDispatc
361:   FUNC WEAK DEFAULT 14 _ZNK7android12SortedVecto
362:   FUNC GLOBAL DEFAULT 14 _ZNK7android15InputDispat
363:   FUNC GLOBAL DEFAULT 14 _ZN7android15InputDispatc
364:   FUNC GLOBAL DEFAULT 14 _ZN7android15InputDispatc
365:   FUNC GLOBAL DEFAULT 14 _ZN7android15InputDispatc
366:   FUNC GLOBAL DEFAULT 14 _ZNK7android15InputDispat
367:   FUNC GLOBAL DEFAULT 14 _ZN7android15ClassifierEv
368:   FUNC GLOBAL DEFAULT 14 _ZN7android16MotionClassi
369:   FUNC GLOBAL DEFAULT 14 _ZN7android15InputDispatc
370:   FUNC GLOBAL DEFAULT 14 _ZN7android15InputDispatc
371:   FUNC GLOBAL DEFAULT 14 _ZN7android21InputDispatc
372:   FUNC WEAK DEFAULT 14 _ZNSt3__16vectorIN7androi
373:   OBJECT WEAK DEFAULT 18 _ZTVN7android6VectorINS_1
374:   OBJECT GLOBAL DEFAULT 18 _ZTCN7android12InputManag
375:   FUNC GLOBAL DEFAULT 14 _ZN7android15ClassifierEv
376:   FUNC GLOBAL DEFAULT 14 _ZN7android16MotionClassi
377:   FUNC GLOBAL DEFAULT 14 _ZN7android15InputDispatc
378:   FUNC GLOBAL DEFAULT 14 _ZN7android15InputDispatc
379:   FUNC GLOBAL DEFAULT 14 _ZN7android15InputDispatc
380:   FUNC WEAK DEFAULT 14 _ZNSt3__16vectorIN7androi
381:   FUNC GLOBAL DEFAULT 14 __aeabi_memcpy8
382:   OBJECT GLOBAL DEFAULT 18 _ZTCN7android12InputManag
383:   OBJECT GLOBAL DEFAULT 18 _ZTTN7android12InputManag
384:   FUNC GLOBAL DEFAULT 14 _ZN7android15InputDispatc
385:   FUNC GLOBAL DEFAULT 14 _ZN7android15InputDispatc
386:   FUNC GLOBAL DEFAULT 14 _ZN7android15InputClassif
387:   FUNC GLOBAL DEFAULT 14 _ZN7android15InputDispatc
388:   FUNC GLOBAL DEFAULT 14 _ZN7android15InputDispatc
389:   FUNC GLOBAL DEFAULT 14 _ZN7android16MotionClassi
390:   FUNC WEAK DEFAULT 14 _ZNSt3__112__hash_tableIN
391:   FUNC GLOBAL DEFAULT 14 _ZN7android15InputDispatc
392:   FUNC GLOBAL DEFAULT 14 _ZN7android15InputDispatc
393:   FUNC GLOBAL DEFAULT 14 _ZN7android15InputDispatc
394:   FUNC GLOBAL DEFAULT 14 _ZN7android12InputManager
395:   FUNC GLOBAL DEFAULT 14 _ZN7android15InputClassif
396:   FUNC GLOBAL DEFAULT 14 _ZN7android15InputDispatc
397:   FUNC GLOBAL DEFAULT 14 _ZN7android15InputDispatc
398:   FUNC GLOBAL DEFAULT 14 _ZN7android15InputDispatc
399:   FUNC GLOBAL DEFAULT 14 _ZN7android15InputDispatc
400:   FUNC GLOBAL DEFAULT 14 _ZN7android15InputClassif
401:   FUNC GLOBAL DEFAULT 14 _ZN7android15InputDispatc
402:   FUNC GLOBAL DEFAULT 14 _ZN7android15InputDispatc
403:   FUNC GLOBAL DEFAULT 14 _ZN7android15InputDispatc
404:   FUNC WEAK DEFAULT 14 _ZNK7android12SortedVecto
405:   FUNC WEAK DEFAULT 14 _ZNK7android12SortedVecto
406:   FUNC GLOBAL DEFAULT 14 _ZN7android15InputDispatc
407:   FUNC GLOBAL DEFAULT 14 _ZN7android21InputDispatc
408:   FUNC WEAK DEFAULT 14 _ZNK7android12SortedVecto
409:   FUNC WEAK DEFAULT 14 _ZNSt3__115basic_stringbu
410:   FUNC GLOBAL DEFAULT 14 _ZN7android15ClassifierEv
411:   FUNC WEAK DEFAULT 14 _ZNK7android12SortedVecto
412:   FUNC WEAK DEFAULT 14 _ZNK7android6VectorIxE7do
413:   FUNC GLOBAL DEFAULT 14 _ZN7android16MotionClassi
414:   FUNC GLOBAL DEFAULT 14 _ZNK7android15InputDispat
415:   OBJECT GLOBAL DEFAULT 18 _ZTCN7android15InputClass
416:   FUNC GLOBAL DEFAULT 14 _ZN7android15InputDispatc
417:   FUNC GLOBAL DEFAULT 14 _ZN7android15InputDispatc
418:   FUNC GLOBAL DEFAULT 14 _ZThn4_N7android12InputMa
419:   OBJECT GLOBAL DEFAULT 18 _ZTCN7android15InputClass
420:   FUNC GLOBAL DEFAULT 14 _ZN7android15InputDispatc
421:   FUNC WEAK DEFAULT 14 _ZNSt3__112__hash_tableIN
422:   FUNC GLOBAL DEFAULT 14 _ZN7android15InputDispatc
423:   FUNC WEAK DEFAULT 14 _ZNSt3__112__hash_tableIN
424:   OBJECT GLOBAL DEFAULT 18 _ZTVN7android15InputDispa
425:   FUNC GLOBAL DEFAULT 14 __udivmoddi4
426:   FUNC GLOBAL DEFAULT 14 _ZN7android16MotionClassi
427:   FUNC WEAK DEFAULT 14 _ZNSt3__112__hash_tableIN
428:   FUNC GLOBAL DEFAULT 14 _ZN7android16MotionClassi
429:   FUNC GLOBAL DEFAULT 14 _ZN7android15InputDispatc
430:   FUNC GLOBAL DEFAULT 14 _ZN7android15InputDispatc
431:   FUNC GLOBAL DEFAULT 14 _ZN7android15InputDispatc
432:   FUNC GLOBAL DEFAULT 14 _ZN7android15InputDispatc
433:   FUNC GLOBAL DEFAULT 14 _ZN7android15InputDispatc
434:   FUNC WEAK DEFAULT 14 _ZNK7android12SortedVecto
435:   FUNC WEAK DEFAULT 14 _ZNSt3__112__hash_tableIi
436:   FUNC GLOBAL DEFAULT 14 _ZN7android15InputDispatc
437:   FUNC GLOBAL DEFAULT 14 _ZNK7android15InputDispat
438:   FUNC WEAK DEFAULT 14 _ZNSt3__112__hash_tableIN
439:   OBJECT WEAK DEFAULT 18 _ZTVNSt3__119basic_istrin
440:   OBJECT GLOBAL DEFAULT 18 _ZTCN7android12InputManag
441:   FUNC GLOBAL DEFAULT 14 __floatdidf
442:   FUNC WEAK DEFAULT 14 _ZNSt3__112__hash_tableIi
443:   OBJECT GLOBAL DEFAULT 18 _ZTCN7android12InputManag
444:   FUNC GLOBAL DEFAULT 14 _ZN7android15InputDispatc
445:   FUNC GLOBAL DEFAULT 14 _ZN7android15InputDispatc
446:   FUNC GLOBAL DEFAULT 14 _ZN7android15InputDispatc
447:   FUNC GLOBAL DEFAULT 14 _ZN7android15InputDispatc
448:   FUNC WEAK DEFAULT 14 _ZNK7android12SortedVecto
449:   FUNC WEAK DEFAULT 14 _ZNK7android12SortedVecto
450:   OBJECT WEAK DEFAULT 18 _ZTVN7android6VectorIxEE
451:   FUNC GLOBAL DEFAULT 14 _ZN7android15ClassifierEv
452:   FUNC WEAK DEFAULT 14 _ZNSt3__112__hash_tableIN
453:   FUNC GLOBAL DEFAULT 14 _ZN7android15InputDispatc
454:   FUNC GLOBAL DEFAULT 14 _ZN7android15InputDispatc
455:   FUNC GLOBAL DEFAULT 14 _ZN7android15ClassifierEv
456:   FUNC GLOBAL DEFAULT 14 _ZN7android15InputDispatc
457:   FUNC WEAK DEFAULT 14 _ZNK7android6VectorINS_13
458:   FUNC GLOBAL DEFAULT 14 _ZN7android15InputDispatc
459:   FUNC GLOBAL DEFAULT 14 _ZN7android15InputDispatc
460:   FUNC WEAK DEFAULT 14 _ZNK7android12SortedVecto
461:   FUNC GLOBAL DEFAULT 14 _ZN7android15InputDispatc
462:   FUNC GLOBAL DEFAULT 14 _ZNK7android15InputDispat
463:   FUNC WEAK DEFAULT 14 _ZNSt3__16vectorIN7androi
464:   OBJECT GLOBAL DEFAULT 18 _ZTTN7android15InputDispa
465:   FUNC GLOBAL DEFAULT 14 _ZN7android15ClassifierEv
466:   FUNC GLOBAL DEFAULT 14 _ZN7android15InputDispatc
467:   FUNC GLOBAL DEFAULT 14 _ZN7android12InputManager
468:   FUNC GLOBAL DEFAULT 14 _ZN7android15InputDispatc
469:   OBJECT GLOBAL DEFAULT 22 _ZN7android15InputDispatc
470:   FUNC GLOBAL DEFAULT 14 _ZN7android15InputDispatc
471:   FUNC GLOBAL DEFAULT 14 _ZN7android15InputDispatc
472:   FUNC GLOBAL DEFAULT 14 _ZN7android15InputDispatc
473:   FUNC GLOBAL DEFAULT 14 _ZN7android15InputDispatc
474:   FUNC GLOBAL DEFAULT 14 _ZN7android15InputDispatc
475:   FUNC WEAK DEFAULT 14 _ZNK7android6VectorIxE16d
476:   FUNC GLOBAL DEFAULT 14 __aeabi_memmove
477:   FUNC GLOBAL DEFAULT 14 _ZN7android15InputDispatc
478:   FUNC GLOBAL DEFAULT 14 __udivmodsi4
479:   FUNC GLOBAL DEFAULT 14 __aeabi_memclr
480:   FUNC GLOBAL DEFAULT 14 _ZN7android15InputDispatc
481:   FUNC WEAK DEFAULT 14 _ZNSt3__16vectorIN7androi
482:   OBJECT GLOBAL DEFAULT 18 _ZTCN7android21InputDispa
483:   FUNC GLOBAL DEFAULT 14 _ZN7android15InputDispatc
484:   FUNC WEAK DEFAULT 14 _ZNK7android12SortedVecto
485:   FUNC WEAK DEFAULT 14 _ZNK7android12SortedVecto
486:   FUNC WEAK DEFAULT 14 _ZNK7android6VectorINS_13
487:   FUNC WEAK DEFAULT 14 _ZNSt3__16vectorIPN7andro
488:   FUNC WEAK DEFAULT 14 _ZNSt3__112__hash_tableIN
489:   FUNC GLOBAL DEFAULT 14 _ZNK7android15InputDispat
490:   FUNC WEAK DEFAULT 14 _ZNSt3__112__hash_tableIN
491:   FUNC GLOBAL DEFAULT 14 __floatdisf
492:   FUNC GLOBAL DEFAULT 14 _ZN7android15InputDispatc
493:   FUNC GLOBAL DEFAULT 14 _ZN7android15InputDispatc
494:   FUNC WEAK DEFAULT 14 _ZNSt3__112__hash_tableIN
495:   FUNC GLOBAL DEFAULT 14 _ZN7android12InputManager
496:   FUNC GLOBAL DEFAULT 14 _ZN7android15InputClassif
497:   FUNC GLOBAL DEFAULT 14 _ZN7android16MotionClassi
498:   FUNC GLOBAL DEFAULT 14 _ZN7android15InputDispatc
499:   FUNC GLOBAL DEFAULT 14 _ZN7android15InputDispatc
500:   FUNC WEAK DEFAULT 14 _ZNSt3__16vectorIN7androi
501:   OBJECT GLOBAL DEFAULT 18 _ZTVN7android12InputManag
502:   FUNC GLOBAL DEFAULT 14 _ZN7android15InputDispatc
503:   FUNC GLOBAL DEFAULT 14 _ZN7android15InputDispatc
504:   FUNC GLOBAL DEFAULT 14 _ZN7android15InputDispatc
505:   FUNC GLOBAL DEFAULT 14 _ZN7android15InputDispatc
506:   FUNC WEAK DEFAULT 14 _ZNK7android12SortedVecto
507:   FUNC GLOBAL DEFAULT 14 _ZN7android15InputDispatc
508:   FUNC GLOBAL DEFAULT 14 _ZN7android15InputDispatc
509:   FUNC WEAK DEFAULT 14 _ZNSt3__112__hash_tableIN
510:   FUNC WEAK DEFAULT 14 _ZNSt3__112__hash_tableIN
511:   FUNC WEAK DEFAULT 14 _ZNSt3__112__hash_tableIN
512:   FUNC WEAK DEFAULT 14 _ZNSt3__17getlineIcNS_11c
513:   FUNC GLOBAL DEFAULT 14 _ZN7android15ClassifierEv
514:   OBJECT GLOBAL DEFAULT 18 _ZTCN7android15InputDispa
515:   OBJECT WEAK DEFAULT 18 _ZTVNSt3__115basic_string
516:   FUNC GLOBAL DEFAULT 14 _ZN7android15ClassifierEv
517:   FUNC GLOBAL DEFAULT 14 _ZN7android15InputDispatc
518:   FUNC GLOBAL DEFAULT 14 _ZN7android15InputClassif
519:   FUNC GLOBAL DEFAULT 14 _ZN7android15InputDispatc
520:   OBJECT WEAK DEFAULT 18 _ZTVN7android12SortedVect
521:   FUNC GLOBAL DEFAULT 14 _ZN7android15InputDispatc
522:   FUNC GLOBAL DEFAULT 14 _ZN7android15InputDispatc
523:   FUNC GLOBAL DEFAULT 14 _ZN7android15InputDispatc
524:   FUNC GLOBAL DEFAULT 14 _ZN7android15InputDispatc
525:   FUNC WEAK DEFAULT 14 _ZNK7android12SortedVecto
526:   FUNC WEAK DEFAULT 14 _ZNSt3__112__hash_tableIN
527:   FUNC GLOBAL DEFAULT 14 _ZN7android16MotionClassi
528:   FUNC GLOBAL DEFAULT 14 _ZN7android15InputDispatc
529:   FUNC GLOBAL DEFAULT 14 _ZN7android15InputDispatc
530:   FUNC GLOBAL DEFAULT 14 _ZN7android21InputDispatc
531:   FUNC WEAK DEFAULT 14 _ZNK7android12SortedVecto
532:   FUNC WEAK DEFAULT 14 _ZNSt3__112__hash_tableIN
533:   FUNC GLOBAL DEFAULT 14 _ZN7android15InputDispatc
534:   OBJECT GLOBAL DEFAULT 18 _ZTVN7android15InputDispa
535:   FUNC GLOBAL DEFAULT 14 _ZN7android15InputDispatc
536:   FUNC GLOBAL DEFAULT 14 _ZN7android15InputDispatc
537:   FUNC GLOBAL DEFAULT 14 _ZN7android15InputDispatc
538:   FUNC GLOBAL DEFAULT 14 _ZN7android15InputDispatc
539:   FUNC WEAK DEFAULT 14 _ZNSt3__112__hash_tableIN
540:   FUNC GLOBAL DEFAULT 14 __aeabi_ldivmod
541:   FUNC GLOBAL DEFAULT 14 _ZN7android15InputDispatc
542:   FUNC GLOBAL DEFAULT 14 _ZN7android15InputDispatc
543:   FUNC WEAK DEFAULT 14 _ZNK7android12SortedVecto
544:   FUNC WEAK DEFAULT 14 _ZNK7android12SortedVecto
545:   OBJECT GLOBAL DEFAULT 18 _ZTVN7android15InputDispa
546:   FUNC GLOBAL DEFAULT 14 __aeabi_memset4
547:   OBJECT GLOBAL DEFAULT 18 _ZTTN7android15InputClass
548:   FUNC GLOBAL DEFAULT 14 _ZN7android15InputDispatc
549:   FUNC GLOBAL DEFAULT 14 _ZN7android15InputDispatc
550:   FUNC GLOBAL DEFAULT 14 _ZN7android15InputDispatc
551:   FUNC GLOBAL DEFAULT 14 _ZN7android15InputDispatc
552:   FUNC GLOBAL DEFAULT 14 _ZN7android16MotionClassi
553:   FUNC GLOBAL DEFAULT 14 _ZN7android15InputDispatc
554:   FUNC GLOBAL DEFAULT 14 _ZN7android15InputDispatc
555:   FUNC WEAK DEFAULT 14 _ZNSt3__112__hash_tableIN
556:   OBJECT GLOBAL DEFAULT 18 _ZTVN7android21InputDispa
557:   FUNC GLOBAL DEFAULT 14 __aeabi_uidiv
558:   FUNC WEAK DEFAULT 14 _ZNK7android6VectorINS_13
559:   FUNC GLOBAL DEFAULT 14 _ZN7android15InputClassif
560:   FUNC GLOBAL DEFAULT 14 _ZTv0_n12_N7android15Inpu
561:   FUNC GLOBAL DEFAULT 14 __aeabi_memcpy
562:   FUNC GLOBAL DEFAULT 14 _ZN7android15InputDispatc
563:   FUNC WEAK DEFAULT 14 _ZNK7android12SortedVecto
564:   FUNC WEAK DEFAULT 14 _ZNSt3__112__hash_tableIN
565:   OBJECT WEAK DEFAULT 18 _ZTVN7android12SortedVect
566:   FUNC GLOBAL DEFAULT 14 __aeabi_memset8
567:   FUNC GLOBAL DEFAULT 14 _ZN7android15InputDispatc
568:   FUNC WEAK DEFAULT 14 _ZNSt3__16vectorIN7androi
569:   FUNC GLOBAL DEFAULT 14 _ZN7android15InputDispatc
570:   FUNC GLOBAL DEFAULT 14 _ZN7android15InputDispatc
571:   FUNC GLOBAL DEFAULT 14 _ZN7android15InputDispatc
572:   FUNC GLOBAL DEFAULT 14 _ZN7android15InputDispatc
573:   FUNC GLOBAL DEFAULT 14 _ZN7android15InputDispatc
574:   FUNC WEAK DEFAULT 14 _ZNK7android12SortedVecto
575:   FUNC GLOBAL DEFAULT 14 _ZNK7android15InputDispat
576:   FUNC GLOBAL DEFAULT 14 _ZTv0_n12_N7android15Inpu
577:   OBJECT GLOBAL DEFAULT 18 _ZTCN7android12InputManag
578:   FUNC GLOBAL DEFAULT 14 _ZThn4_N7android12InputMa
579:   FUNC GLOBAL DEFAULT 14 _ZN7android15InputClassif
580:   FUNC GLOBAL DEFAULT 14 _ZN7android16MotionClassi
581:   FUNC GLOBAL DEFAULT 14 _ZN7android15InputDispatc
582:   FUNC GLOBAL DEFAULT 14 _ZN7android15InputDispatc
583:   FUNC WEAK DEFAULT 14 _ZNK7android6VectorIxE8do
584:   FUNC WEAK DEFAULT 14 _ZNSt3__112__hash_tableIN
585:   FUNC GLOBAL DEFAULT 14 _ZN7android15InputDispatc
586:   FUNC GLOBAL DEFAULT 14 _ZN7android15InputDispatc
587:   FUNC GLOBAL DEFAULT 14 _ZN7android16MotionClassi
588:   OBJECT GLOBAL DEFAULT 18 _ZTCN7android15InputClass
589:   FUNC GLOBAL DEFAULT 14 _ZN7android15InputDispatc
590:   FUNC GLOBAL DEFAULT 14 _ZN7android15InputDispatc
591:   FUNC WEAK DEFAULT 14 _ZNSt3__112__hash_tableIN
592:   FUNC GLOBAL DEFAULT 14 _ZN7android15InputDispatc
593:   FUNC GLOBAL DEFAULT 14 _ZN7android15InputDispatc
594:   FUNC GLOBAL DEFAULT 14 _ZTv0_n12_N7android21Inpu
595:   FUNC GLOBAL DEFAULT 14 __aeabi_l2d
596:   FUNC WEAK DEFAULT 14 _ZNSt3__115basic_stringbu
597:   FUNC GLOBAL DEFAULT 14 _ZN7android12InputManager
598:   FUNC GLOBAL DEFAULT 14 __divmoddi4
599:   FUNC GLOBAL DEFAULT 14 _ZN7android15InputClassif
600:   FUNC GLOBAL DEFAULT 14 _ZTv0_n12_N7android15Inpu
601:   FUNC GLOBAL DEFAULT 14 _ZN7android15InputDispatc
602:   FUNC GLOBAL DEFAULT 14 _ZNK7android15InputDispat
603:   FUNC GLOBAL DEFAULT 14 __aeabi_l2f
604:   FUNC GLOBAL DEFAULT 14 _ZN7android12InputManager
605:   FUNC GLOBAL DEFAULT 14 _ZN7android15InputClassif
606:   FUNC WEAK DEFAULT 14 _ZNSt3__16vectorIN7androi
607:   FUNC GLOBAL DEFAULT 14 _ZN7android15InputDispatc
608:   FUNC GLOBAL DEFAULT 14 _ZN7android15InputDispatc
609:   FUNC GLOBAL DEFAULT 14 _ZTv0_n12_N7android15Inpu
610:   FUNC GLOBAL DEFAULT 14 _ZN7android15InputDispatc
611:   FUNC GLOBAL DEFAULT 14 _ZN7android15InputDispatc
612:   FUNC GLOBAL DEFAULT 14 _ZN7android15InputDispatc
613:   FUNC GLOBAL DEFAULT 14 _ZN7android16MotionClassi
614:   FUNC WEAK DEFAULT 14 _ZNK7android6VectorINS_13
615:   FUNC WEAK DEFAULT 14 _ZNSt3__16vectorIN7androi
616:   FUNC GLOBAL DEFAULT 14 _ZN7android15InputDispatc
617:   FUNC WEAK DEFAULT 14 _ZNK7android12SortedVecto
618:   OBJECT GLOBAL DEFAULT 18 _ZTVN7android15InputDispa
619:   FUNC GLOBAL DEFAULT 14 _ZN7android12InputManager
620:   FUNC GLOBAL DEFAULT 14 _ZN7android15InputDispatc
621:   FUNC GLOBAL DEFAULT 14 _ZN7android15InputDispatc
622:   FUNC WEAK DEFAULT 14 _ZNSt3__16vectorIN7androi
623:   FUNC GLOBAL DEFAULT 14 _ZN7android15InputDispatc
624:   FUNC WEAK DEFAULT 14 _ZNSt3__16vectorIN7androi
625:   FUNC GLOBAL DEFAULT 14 _ZTv0_n12_N7android21Inpu
626:   FUNC GLOBAL DEFAULT 14 __aeabi_memset
627:   FUNC GLOBAL DEFAULT 14 _ZN7android15InputDispatc
628:   FUNC GLOBAL DEFAULT 14 _ZN7android15InputDispatc
629:   FUNC GLOBAL DEFAULT 14 _ZN7android15InputDispatc
630:   FUNC GLOBAL DEFAULT 14 _ZN7android15InputDispatc
631:   FUNC GLOBAL DEFAULT 14 _ZNK7android15InputDispat
632:   FUNC WEAK DEFAULT 14 _ZNK7android6VectorINS_17
633:   FUNC WEAK DEFAULT 14 _ZNK7android6VectorIxE10d
634:   FUNC WEAK DEFAULT 14 _ZNSt3__112__hash_tableIN
635:   OBJECT WEAK DEFAULT 18 _ZTCNSt3__119basic_istrin
636:   FUNC GLOBAL DEFAULT 14 _ZN7android15InputClassif
637:   FUNC GLOBAL DEFAULT 14 _ZN7android16MotionClassi
638:   FUNC GLOBAL DEFAULT 14 _ZNK7android15InputDispat
639:   FUNC WEAK DEFAULT 14 _ZNSt3__112__hash_tableIN
640:   FUNC GLOBAL DEFAULT 14 __udivsi3
641:   FUNC WEAK DEFAULT 14 _ZNK7android12SortedVecto
642:   FUNC GLOBAL DEFAULT 14 _ZNK7android15InputDispat
643:   FUNC GLOBAL DEFAULT 14 _ZN7android15InputClassif
644:   FUNC GLOBAL DEFAULT 14 _ZN7android16MotionClassi
645:   FUNC WEAK DEFAULT 14 _ZNSt3__114__thread_proxy
646:   FUNC GLOBAL DEFAULT 14 _ZN7android15InputDispatc
647:   FUNC GLOBAL DEFAULT 14 _ZN7android15InputDispatc
648:   FUNC GLOBAL DEFAULT 14 _ZNK7android15ClassifierE
649:   FUNC GLOBAL DEFAULT 14 _ZN7android15InputDispatc
650:   FUNC WEAK DEFAULT 14 _ZNSt3__115basic_stringbu
651:   FUNC WEAK DEFAULT 14 _ZNSt3__16vectorIN7androi
652:   FUNC GLOBAL DEFAULT 14 _ZN7android15InputDispatc
653:   FUNC GLOBAL DEFAULT 14 _ZN7android21InputDispatc
654:   FUNC WEAK DEFAULT 14 _ZNK7android6VectorIxE15d
655:   FUNC WEAK DEFAULT 14 _ZNSt3__112__hash_tableIi
656:   FUNC GLOBAL DEFAULT 14 _ZN7android15InputDispatc
657:   FUNC GLOBAL DEFAULT 14 _ZN7android15InputDispatc
658:   FUNC WEAK DEFAULT 14 _ZNSt3__112__hash_tableIN
659:   FUNC GLOBAL DEFAULT 14 _ZN7android16MotionClassi
660:   OBJECT WEAK DEFAULT 18 _ZTVN7android12SortedVect
661:   FUNC GLOBAL DEFAULT 14 _ZN7android15InputDispatc
662:   FUNC GLOBAL DEFAULT 14 _ZN7android15InputDispatc
663:   FUNC GLOBAL DEFAULT 14 _ZNK7android15InputDispat
664:   FUNC GLOBAL DEFAULT 14 _ZThn8_N7android12InputMa
665:   FUNC GLOBAL DEFAULT 14 _ZTv0_n12_N7android12Inpu
666:   FUNC GLOBAL DEFAULT 14 _ZN7android15InputDispatc
667:   FUNC GLOBAL DEFAULT 14 _ZN7android15InputDispatc
668:   FUNC WEAK DEFAULT 14 _ZNSt3__112__hash_tableIN
669:   FUNC WEAK DEFAULT 14 _ZNSt3__112__hash_tableIN
670:   FUNC GLOBAL DEFAULT 14 _ZN7android15InputDispatc
671:   FUNC GLOBAL DEFAULT 14 _ZN7android15InputDispatc
672:   FUNC GLOBAL DEFAULT 14 _ZN7android15InputDispatc
673:   FUNC GLOBAL DEFAULT 14 _ZN7android15InputDispatc
674:   FUNC GLOBAL DEFAULT 14 _ZN7android15InputDispatc
675:   FUNC GLOBAL DEFAULT 14 _ZN7android15InputDispatc
676:   FUNC GLOBAL DEFAULT 14 _ZN7android15InputClassif
677:   FUNC GLOBAL DEFAULT 14 _ZN7android15InputDispatc
678:   FUNC GLOBAL DEFAULT 14 _ZN7android15InputDispatc
679:   FUNC WEAK DEFAULT 14 _ZNSt3__112__hash_tableIN
680:   FUNC WEAK DEFAULT 14 _ZNSt3__115basic_stringbu
681:   FUNC WEAK DEFAULT 14 _ZNSt3__16vectorIN7androi
682:   FUNC GLOBAL DEFAULT 14 _ZN7android12InputManager
683:   FUNC GLOBAL DEFAULT 14 __aeabi_memmove4
