 0x000000000000000e (SONAME)             Library soname: [libbcinfo.so]
  
Symbol   contains 609 entries:
Num:   Type Bind Vis Ndx Name
0:   NOTYPE LOCAL DEFAULT UND
1:   NOTYPE WEAK DEFAULT UND __gmon_start__
2:   NOTYPE WEAK DEFAULT UND _ITM_deregisterTMCloneTab
3:   NOTYPE WEAK DEFAULT UND _ITM_registerTMCloneTable
4:   FUNC WEAK DEFAULT UND __cxa_finalize@GLIBC_2.2.5 (2)
5:   NOTYPE WEAK DEFAULT UND _Jv_RegisterClasses
6:   NOTYPE GLOBAL DEFAULT UND _ZN4llvm11LLVMContextC1Ev
7:   NOTYPE GLOBAL DEFAULT UND _ZN4llvm11LLVMContextD1Ev
8:   NOTYPE GLOBAL DEFAULT UND _ZN4llvm11raw_ostream14fl
9:   NOTYPE GLOBAL DEFAULT UND _ZN4llvm12MemoryBuffer12g
10:   NOTYPE GLOBAL DEFAULT UND _ZN4llvm18raw_string_ostr
11:   NOTYPE GLOBAL DEFAULT UND _ZNK4llvm12MemoryBuffer15
12:   FUNC GLOBAL DEFAULT UND _ZNKSt3__110error_code7me
13:   FUNC GLOBAL DEFAULT UND _ZNSt3__115system_categor
14:   NOTYPE GLOBAL DEFAULT UND _ZTVN4llvm18raw_string_os
15:   FUNC GLOBAL DEFAULT UND _ZdaPv
16:   FUNC GLOBAL DEFAULT UND _ZdlPv
17:   FUNC GLOBAL DEFAULT UND _Znam
18:   FUNC GLOBAL DEFAULT UND _Znwm
19:   FUNC GLOBAL DEFAULT UND __stack_chk_fail@GLIBC_2.4 (3)
20:   FUNC GLOBAL DEFAULT UND memcpy@GLIBC_2.14 (4)
21:   NOTYPE GLOBAL DEFAULT UND _ZN4llvm16parseBitcodeFil
22:   NOTYPE GLOBAL DEFAULT UND _ZN4llvm20getAsUnsignedIn
23:   NOTYPE GLOBAL DEFAULT UND _ZN4llvm6ModuleD1Ev
24:   NOTYPE GLOBAL DEFAULT UND _ZNK4llvm11NamedMDNode10g
25:   NOTYPE GLOBAL DEFAULT UND _ZNK4llvm11NamedMDNode14g
26:   NOTYPE GLOBAL DEFAULT UND _ZNK4llvm6Module11getFunc
27:   NOTYPE GLOBAL DEFAULT UND _ZNK4llvm6Module16getName
28:   NOTYPE GLOBAL DEFAULT UND _ZNK4llvm8Function13getRe
29:   NOTYPE GLOBAL DEFAULT UND _ZNK4llvm8Function8arg_si
30:   NOTYPE GLOBAL DEFAULT UND _ZNK4llvm8MDString9getStr
31:   FUNC GLOBAL DEFAULT UND _ZNKSt3__112basic_stringI
32:   FUNC GLOBAL DEFAULT UND memset@GLIBC_2.2.5 (2)
33:   FUNC GLOBAL DEFAULT UND strlen@GLIBC_2.2.5 (2)
34:   FUNC GLOBAL DEFAULT UND pthread_mutex_lock@GLIBC_2.2.5 (5)
35:   FUNC GLOBAL DEFAULT UND pthread_mutex_trylock@GLIBC_2.2.5 (5)
36:   FUNC GLOBAL DEFAULT UND pthread_mutex_unlock@GLIBC_2.2.5 (5)
37:   FUNC GLOBAL DEFAULT UND __errno_location@GLIBC_2.2.5 (5)
38:   FUNC GLOBAL DEFAULT UND __vsnprintf_chk@GLIBC_2.3.4 (6)
39:   FUNC GLOBAL DEFAULT UND abort@GLIBC_2.2.5 (2)
40:   FUNC GLOBAL DEFAULT UND gettimeofday@GLIBC_2.2.5 (2)
41:   FUNC GLOBAL DEFAULT UND snprintf@GLIBC_2.2.5 (2)
42:   FUNC GLOBAL DEFAULT UND strcmp@GLIBC_2.2.5 (2)
43:   FUNC GLOBAL DEFAULT UND strncmp@GLIBC_2.2.5 (2)
44:   FUNC GLOBAL DEFAULT UND write@GLIBC_2.2.5 (5)
45:   FUNC GLOBAL DEFAULT UND __ctype_b_loc@GLIBC_2.3 (7)
46:   FUNC GLOBAL DEFAULT UND __ctype_tolower_loc@GLIBC_2.3 (7)
47:   FUNC GLOBAL DEFAULT UND __strcat_chk@GLIBC_2.3.4 (6)
48:   FUNC GLOBAL DEFAULT UND __strcpy_chk@GLIBC_2.3.4 (6)
49:   FUNC GLOBAL DEFAULT UND __strncat_chk@GLIBC_2.3.4 (6)
50:   FUNC GLOBAL DEFAULT UND __strncpy_chk@GLIBC_2.3.4 (6)
51:   FUNC GLOBAL DEFAULT UND calloc@GLIBC_2.2.5 (2)
52:   FUNC GLOBAL DEFAULT UND fprintf@GLIBC_2.2.5 (2)
53:   FUNC GLOBAL DEFAULT UND free@GLIBC_2.2.5 (2)
54:   FUNC GLOBAL DEFAULT UND fwrite@GLIBC_2.2.5 (2)
55:   FUNC GLOBAL DEFAULT UND getenv@GLIBC_2.2.5 (2)
56:   FUNC GLOBAL DEFAULT UND getpwuid@GLIBC_2.2.5 (2)
57:   FUNC GLOBAL DEFAULT UND localtime_r@GLIBC_2.2.5 (2)
58:   FUNC GLOBAL DEFAULT UND malloc@GLIBC_2.2.5 (2)
59:   FUNC GLOBAL DEFAULT UND setenv@GLIBC_2.2.5 (2)
60:   OBJECT GLOBAL DEFAULT UND stderr@GLIBC_2.2.5 (2)
61:   FUNC GLOBAL DEFAULT UND strcasecmp@GLIBC_2.2.5 (2)
62:   FUNC GLOBAL DEFAULT UND strchr@GLIBC_2.2.5 (2)
63:   FUNC GLOBAL DEFAULT UND strcpy@GLIBC_2.2.5 (2)
64:   FUNC GLOBAL DEFAULT UND strcspn@GLIBC_2.2.5 (2)
65:   FUNC GLOBAL DEFAULT UND strdup@GLIBC_2.2.5 (2)
66:   FUNC GLOBAL DEFAULT UND strftime@GLIBC_2.2.5 (2)
67:   FUNC GLOBAL DEFAULT UND strsep@GLIBC_2.2.5 (2)
68:   OBJECT GLOBAL DEFAULT UND tzname@GLIBC_2.2.5 (2)
69:   FUNC GLOBAL DEFAULT UND tzset@GLIBC_2.2.5 (2)
70:   FUNC GLOBAL DEFAULT UND unsetenv@GLIBC_2.2.5 (2)
71:   FUNC GLOBAL DEFAULT UND fileno@GLIBC_2.2.5 (2)
72:   FUNC GLOBAL DEFAULT UND getpid@GLIBC_2.2.5 (2)
73:   FUNC GLOBAL DEFAULT UND getuid@GLIBC_2.2.5 (2)
74:   FUNC GLOBAL DEFAULT UND strtok_r@GLIBC_2.2.5 (2)
75:   FUNC GLOBAL DEFAULT UND strrchr@GLIBC_2.2.5 (2)
76:   FUNC GLOBAL DEFAULT UND strncpy@GLIBC_2.2.5 (2)
77:   FUNC GLOBAL DEFAULT UND strtol@GLIBC_2.2.5 (2)
78:   FUNC GLOBAL DEFAULT UND time@GLIBC_2.2.5 (2)
79:   FUNC GLOBAL DEFAULT UND writev@GLIBC_2.2.5 (2)
80:   FUNC GLOBAL DEFAULT UND _ZNKSt3__120__vector_base
81:   FUNC GLOBAL DEFAULT UND fputc@GLIBC_2.2.5 (2)
82:   OBJECT GLOBAL DEFAULT UND _ZTVN10__cxxabiv117__clas
83:   OBJECT GLOBAL DEFAULT UND _ZTVN10__cxxabiv120__si_c
84:   NOTYPE GLOBAL DEFAULT UND _ZN4llvm10AllocaInstC1EPN
85:   NOTYPE GLOBAL DEFAULT UND _ZN4llvm10BasicBlockC1ERN
86:   NOTYPE GLOBAL DEFAULT UND _ZN4llvm10BranchInstC1EPN
87:   NOTYPE GLOBAL DEFAULT UND _ZN4llvm10BranchInstC1EPN
88:   NOTYPE GLOBAL DEFAULT UND _ZN4llvm10ConstantFP3getE
89:   NOTYPE GLOBAL DEFAULT UND _ZN4llvm10InvokeInst4init
90:   NOTYPE GLOBAL DEFAULT UND _ZN4llvm10ResumeInstC1EPN
91:   NOTYPE GLOBAL DEFAULT UND _ZN4llvm10ReturnInstC1ERN
92:   NOTYPE GLOBAL DEFAULT UND _ZN4llvm10StructType3getE
93:   NOTYPE GLOBAL DEFAULT UND _ZN4llvm10StructType3getE
94:   NOTYPE GLOBAL DEFAULT UND _ZN4llvm10StructType6crea
95:   NOTYPE GLOBAL DEFAULT UND _ZN4llvm10StructType6crea
96:   NOTYPE GLOBAL DEFAULT UND _ZN4llvm10StructType7setB
97:   NOTYPE GLOBAL DEFAULT UND _ZN4llvm10StructType7setN
98:   NOTYPE GLOBAL DEFAULT UND _ZN4llvm10SwitchInst7addC
99:   NOTYPE GLOBAL DEFAULT UND _ZN4llvm10SwitchInstC1EPN
100:   NOTYPE GLOBAL DEFAULT UND _ZN4llvm10UndefValue3getE
101:   NOTYPE GLOBAL DEFAULT UND _ZN4llvm10VectorType3getE
102:   NOTYPE GLOBAL DEFAULT UND _ZN4llvm11AttrBuilder11ad
103:   NOTYPE GLOBAL DEFAULT UND _ZN4llvm11AttrBuilder16ad
104:   NOTYPE GLOBAL DEFAULT UND _ZN4llvm11ConstantInt3get
105:   NOTYPE GLOBAL DEFAULT UND _ZN4llvm11ConstantInt3get
106:   NOTYPE GLOBAL DEFAULT UND _ZN4llvm11GlobalAlias10se
107:   NOTYPE GLOBAL DEFAULT UND _ZN4llvm11GlobalAlias6cre
108:   NOTYPE GLOBAL DEFAULT UND _ZN4llvm11Instruction10se
109:   NOTYPE GLOBAL DEFAULT UND _ZN4llvm11Instruction11se
110:   NOTYPE GLOBAL DEFAULT UND _ZN4llvm11Instruction15er
111:   NOTYPE GLOBAL DEFAULT UND _ZN4llvm11Instruction18se
112:   NOTYPE GLOBAL DEFAULT UND _ZN4llvm11Instruction20se
113:   NOTYPE GLOBAL DEFAULT UND _ZN4llvm11InstructionC2EP
114:   NOTYPE GLOBAL DEFAULT UND _ZN4llvm11InstructionD2Ev
115:   NOTYPE GLOBAL DEFAULT UND _ZN4llvm11IntegerType3get
116:   NOTYPE GLOBAL DEFAULT UND _ZN4llvm11LLVMContext8dia
117:   NOTYPE GLOBAL DEFAULT UND _ZN4llvm11NamedMDNode10ad
118:   NOTYPE GLOBAL DEFAULT UND _ZN4llvm11PointerType3get
119:   NOTYPE GLOBAL DEFAULT UND _ZN4llvm12AttributeSet3ge
120:   NOTYPE GLOBAL DEFAULT UND _ZN4llvm12AttributeSet3ge
121:   NOTYPE GLOBAL DEFAULT UND _ZN4llvm12BlockAddress3ge
122:   NOTYPE GLOBAL DEFAULT UND _ZN4llvm12ConstantExpr16g
123:   NOTYPE GLOBAL DEFAULT UND _ZN4llvm12ConstantExpr16g
124:   NOTYPE GLOBAL DEFAULT UND _ZN4llvm12ConstantExpr16g
125:   NOTYPE GLOBAL DEFAULT UND _ZN4llvm12ConstantExpr17g
126:   NOTYPE GLOBAL DEFAULT UND _ZN4llvm12ConstantExpr17g
127:   NOTYPE GLOBAL DEFAULT UND _ZN4llvm12ConstantExpr3ge
128:   NOTYPE GLOBAL DEFAULT UND _ZN4llvm12ConstantExpr7ge
129:   NOTYPE GLOBAL DEFAULT UND _ZN4llvm12ConstantExpr7ge
130:   NOTYPE GLOBAL DEFAULT UND _ZN4llvm12ConstantExpr7ge
131:   NOTYPE GLOBAL DEFAULT UND _ZN4llvm12ConstantExpr9ge
132:   NOTYPE GLOBAL DEFAULT UND _ZN4llvm12ConstantExpr9ge
133:   NOTYPE GLOBAL DEFAULT UND _ZN4llvm12FunctionType3ge
134:   NOTYPE GLOBAL DEFAULT UND _ZN4llvm12GlobalObject10s
135:   NOTYPE GLOBAL DEFAULT UND _ZN4llvm12GlobalObject12s
136:   NOTYPE GLOBAL DEFAULT UND _ZN4llvm12MemoryBuffer12g
137:   NOTYPE GLOBAL DEFAULT UND _ZN4llvm13ConstantArray3g
138:   NOTYPE GLOBAL DEFAULT UND _ZN4llvm14BinaryOperator6
139:   NOTYPE GLOBAL DEFAULT UND _ZN4llvm14ConstantStruct3
140:   NOTYPE GLOBAL DEFAULT UND _ZN4llvm14ConstantVector3
141:   NOTYPE GLOBAL DEFAULT UND _ZN4llvm14GVMaterializerD
142:   NOTYPE GLOBAL DEFAULT UND _ZN4llvm14GlobalVariable1
143:   NOTYPE GLOBAL DEFAULT UND _ZN4llvm14GlobalVariableC
144:   NOTYPE GLOBAL DEFAULT UND _ZN4llvm14IndirectBrInst1
145:   NOTYPE GLOBAL DEFAULT UND _ZN4llvm14IndirectBrInstC
146:   NOTYPE GLOBAL DEFAULT UND _ZN4llvm14LandingPadInst6
147:   NOTYPE GLOBAL DEFAULT UND _ZN4llvm15BitstreamCursor
148:   NOTYPE GLOBAL DEFAULT UND _ZN4llvm15BitstreamCursor
149:   NOTYPE GLOBAL DEFAULT UND _ZN4llvm15BitstreamCursor
150:   NOTYPE GLOBAL DEFAULT UND _ZN4llvm15BitstreamCursor
151:   NOTYPE GLOBAL DEFAULT UND _ZN4llvm15BitstreamCursor
152:   NOTYPE GLOBAL DEFAULT UND _ZN4llvm15BitstreamCursor
153:   NOTYPE GLOBAL DEFAULT UND _ZN4llvm15InsertValueInst
154:   NOTYPE GLOBAL DEFAULT UND _ZN4llvm15MetadataAsValue
155:   NOTYPE GLOBAL DEFAULT UND _ZN4llvm15SmallVectorBase
156:   NOTYPE GLOBAL DEFAULT UND _ZN4llvm15UnreachableInst
157:   NOTYPE GLOBAL DEFAULT UND _ZN4llvm15ValueAsMetadata
158:   NOTYPE GLOBAL DEFAULT UND _ZN4llvm15ValueHandleBase
159:   NOTYPE GLOBAL DEFAULT UND _ZN4llvm15ValueHandleBase
160:   NOTYPE GLOBAL DEFAULT UND _ZN4llvm15ValueHandleBase
161:   NOTYPE GLOBAL DEFAULT UND _ZN4llvm16ExtractValueIns
162:   NOTYPE GLOBAL DEFAULT UND _ZN4llvm16ExtractValueIns
163:   NOTYPE GLOBAL DEFAULT UND _ZN4llvm16MetadataTrackin
164:   NOTYPE GLOBAL DEFAULT UND _ZN4llvm16MetadataTrackin
165:   NOTYPE GLOBAL DEFAULT UND _ZN4llvm16MetadataTrackin
166:   NOTYPE GLOBAL DEFAULT UND _ZN4llvm16UnaryInstructio
167:   NOTYPE GLOBAL DEFAULT UND _ZN4llvm17GetElementPtrIn
168:   NOTYPE GLOBAL DEFAULT UND _ZN4llvm17GetElementPtrIn
169:   NOTYPE GLOBAL DEFAULT UND _ZN4llvm17GetElementPtrIn
170:   NOTYPE GLOBAL DEFAULT UND _ZN4llvm17InsertElementIn
171:   NOTYPE GLOBAL DEFAULT UND _ZN4llvm17ShuffleVectorIn
172:   NOTYPE GLOBAL DEFAULT UND _ZN4llvm18ExtractElementI
173:   NOTYPE GLOBAL DEFAULT UND _ZN4llvm18report_fatal_er
174:   NOTYPE GLOBAL DEFAULT UND _ZN4llvm20BitcodeErrorCat
175:   NOTYPE GLOBAL DEFAULT UND _ZN4llvm20UpgradeIntrinsi
176:   NOTYPE GLOBAL DEFAULT UND _ZN4llvm21BitcodeDiagnost
177:   NOTYPE GLOBAL DEFAULT UND _ZN4llvm21StreamingMemory
178:   NOTYPE GLOBAL DEFAULT UND _ZN4llvm21StreamingMemory
179:   NOTYPE GLOBAL DEFAULT UND _ZN4llvm21StreamingMemory
180:   NOTYPE GLOBAL DEFAULT UND _ZN4llvm21SymbolTableList
181:   NOTYPE GLOBAL DEFAULT UND _ZN4llvm21UpgradeGlobalVa
182:   NOTYPE GLOBAL DEFAULT UND _ZN4llvm23ReplaceableMeta
183:   NOTYPE GLOBAL DEFAULT UND _ZN4llvm24UpgradeIntrinsi
184:   NOTYPE GLOBAL DEFAULT UND _ZN4llvm26getNonStreamedM
185:   NOTYPE GLOBAL DEFAULT UND _ZN4llvm4Type10getFP128Ty
186:   NOTYPE GLOBAL DEFAULT UND _ZN4llvm4Type10getFloatTy
187:   NOTYPE GLOBAL DEFAULT UND _ZN4llvm4Type10getInt32Ty
188:   NOTYPE GLOBAL DEFAULT UND _ZN4llvm4Type10getLabelTy
189:   NOTYPE GLOBAL DEFAULT UND _ZN4llvm4Type11getDoubleT
190:   NOTYPE GLOBAL DEFAULT UND _ZN4llvm4Type12getInt8Ptr
191:   NOTYPE GLOBAL DEFAULT UND _ZN4llvm4Type12getX86_MMX
192:   NOTYPE GLOBAL DEFAULT UND _ZN4llvm4Type13getMetadat
193:   NOTYPE GLOBAL DEFAULT UND _ZN4llvm4Type13getX86_FP8
194:   NOTYPE GLOBAL DEFAULT UND _ZN4llvm4Type14getPPC_FP1
195:   NOTYPE GLOBAL DEFAULT UND _ZN4llvm4Type9getHalfTyER
196:   NOTYPE GLOBAL DEFAULT UND _ZN4llvm4Type9getInt1TyER
197:   NOTYPE GLOBAL DEFAULT UND _ZN4llvm4Type9getInt8TyER
198:   NOTYPE GLOBAL DEFAULT UND _ZN4llvm4Type9getVoidTyER
199:   NOTYPE GLOBAL DEFAULT UND _ZN4llvm4User16allocHungo
200:   NOTYPE GLOBAL DEFAULT UND _ZN4llvm4User6anchorEv
201:   NOTYPE GLOBAL DEFAULT UND _ZN4llvm4UserdlEPv
202:   NOTYPE GLOBAL DEFAULT UND _ZN4llvm4UsernwEm
203:   NOTYPE GLOBAL DEFAULT UND _ZN4llvm4UsernwEmj
204:   NOTYPE GLOBAL DEFAULT UND _ZN4llvm4UsernwEmjj
205:   NOTYPE GLOBAL DEFAULT UND _ZN4llvm5APIntC1EjNS_8Arr
206:   NOTYPE GLOBAL DEFAULT UND _ZN4llvm5Value18replaceAl
207:   NOTYPE GLOBAL DEFAULT UND _ZN4llvm5Value7setNameERK
208:   NOTYPE GLOBAL DEFAULT UND _ZN4llvm5ValueC2EPNS_4Typ
209:   NOTYPE GLOBAL DEFAULT UND _ZN4llvm5ValueD2Ev
210:   NOTYPE GLOBAL DEFAULT UND _ZN4llvm6MDNode15deleteTe
211:   NOTYPE GLOBAL DEFAULT UND _ZN4llvm6Module13setDataL
212:   NOTYPE GLOBAL DEFAULT UND _ZN4llvm6Module14material
213:   NOTYPE GLOBAL DEFAULT UND _ZN4llvm6Module15setMater
214:   NOTYPE GLOBAL DEFAULT UND _ZN4llvm6Module24getOrIns
215:   NOTYPE GLOBAL DEFAULT UND _ZN4llvm6ModuleC1ENS_9Str
216:   NOTYPE GLOBAL DEFAULT UND _ZN4llvm7APFloat10IEEEdou
217:   NOTYPE GLOBAL DEFAULT UND _ZN4llvm7APFloat10IEEEsin
218:   NOTYPE GLOBAL DEFAULT UND _ZN4llvm7APFloat15PPCDoub
219:   NOTYPE GLOBAL DEFAULT UND _ZN4llvm7APFloat17x87Doub
220:   NOTYPE GLOBAL DEFAULT UND _ZN4llvm7APFloat8IEEEhalf
221:   NOTYPE GLOBAL DEFAULT UND _ZN4llvm7APFloat8IEEEquad
222:   NOTYPE GLOBAL DEFAULT UND _ZN4llvm7APFloatC1ERKNS_1
223:   NOTYPE GLOBAL DEFAULT UND _ZN4llvm7APFloatD1Ev
224:   NOTYPE GLOBAL DEFAULT UND _ZN4llvm7CmpInst6anchorEv
225:   NOTYPE GLOBAL DEFAULT UND _ZN4llvm7CmpInstC2EPNS_4T
226:   NOTYPE GLOBAL DEFAULT UND _ZN4llvm7MDTuple7getImplE
227:   NOTYPE GLOBAL DEFAULT UND _ZN4llvm7PHINode12growOpe
228:   NOTYPE GLOBAL DEFAULT UND _ZN4llvm8ArgumentC1EPNS_4
229:   NOTYPE GLOBAL DEFAULT UND _ZN4llvm8CallInst10Create
230:   NOTYPE GLOBAL DEFAULT UND _ZN4llvm8CallInst12Create
231:   NOTYPE GLOBAL DEFAULT UND _ZN4llvm8CallInst4initEPN
232:   NOTYPE GLOBAL DEFAULT UND _ZN4llvm8CastInst6CreateE
233:   NOTYPE GLOBAL DEFAULT UND _ZN4llvm8Constant12getNul
234:   NOTYPE GLOBAL DEFAULT UND _ZN4llvm8Constant15destro
235:   NOTYPE GLOBAL DEFAULT UND _ZN4llvm8Constant6anchorE
236:   NOTYPE GLOBAL DEFAULT UND _ZN4llvm8DebugLoc3getEjjP
237:   NOTYPE GLOBAL DEFAULT UND _ZN4llvm8Function19setIsM
238:   NOTYPE GLOBAL DEFAULT UND _ZN4llvm8Function5setGCEN
239:   NOTYPE GLOBAL DEFAULT UND _ZN4llvm8FunctionC1EPNS_1
240:   NOTYPE GLOBAL DEFAULT UND _ZN4llvm8LoadInstC2EPNS_4
241:   NOTYPE GLOBAL DEFAULT UND _ZN4llvm8MDString3getERNS
242:   NOTYPE GLOBAL DEFAULT UND _ZN4llvm9ArrayType3getEPN
243:   NOTYPE GLOBAL DEFAULT UND _ZN4llvm9InlineAsm3getEPN
244:   NOTYPE GLOBAL DEFAULT UND _ZN4llvm9StoreInstC1EPNS_
245:   NOTYPE GLOBAL DEFAULT UND _ZNK4llvm10BasicBlock10ge
246:   NOTYPE GLOBAL DEFAULT UND _ZNK4llvm12ConstantExpr15
247:   NOTYPE GLOBAL DEFAULT UND _ZNK4llvm3Use7getUserEv
248:   NOTYPE GLOBAL DEFAULT UND _ZNK4llvm4Type13getScalar
249:   NOTYPE GLOBAL DEFAULT UND _ZNK4llvm5Value26assertMo
250:   NOTYPE GLOBAL DEFAULT UND _ZNK4llvm6Module11getMDKi
251:   NOTYPE GLOBAL DEFAULT UND _ZNK4llvm8Function16isMat
252:   NOTYPE GLOBAL DEFAULT UND _ZNK4llvm8Function18Build
253:   FUNC GLOBAL DEFAULT UND _ZNKSt3__121__basic_strin
254:   FUNC GLOBAL DEFAULT UND _ZNSt3__112basic_stringIc
255:   FUNC GLOBAL DEFAULT UND _ZNSt3__112basic_stringIc
256:   FUNC GLOBAL DEFAULT UND _ZNSt3__112basic_stringIc
257:   NOTYPE GLOBAL DEFAULT UND _ZTVN4llvm10InvokeInstE
258:   NOTYPE GLOBAL DEFAULT UND _ZTVN4llvm16UnaryInstruct
259:   NOTYPE GLOBAL DEFAULT UND _ZTVN4llvm17GetElementPtr
260:   NOTYPE GLOBAL DEFAULT UND _ZTVN4llvm7PHINodeE
261:   NOTYPE GLOBAL DEFAULT UND _ZTVN4llvm8CallInstE
262:   NOTYPE GLOBAL DEFAULT UND _ZTVN4llvm8ICmpInstE
263:   NOTYPE GLOBAL DEFAULT UND _ZN4llvm10AllocaInstC1EPN
264:   NOTYPE GLOBAL DEFAULT UND _ZN4llvm10BasicBlock13get
265:   NOTYPE GLOBAL DEFAULT UND _ZN4llvm10BasicBlock19get
266:   NOTYPE GLOBAL DEFAULT UND _ZN4llvm10BasicBlock20get
267:   NOTYPE GLOBAL DEFAULT UND _ZN4llvm10BranchInstC1EPN
268:   NOTYPE GLOBAL DEFAULT UND _ZN4llvm12ConstantExpr14g
269:   NOTYPE GLOBAL DEFAULT UND _ZN4llvm12ConstantExpr15g
270:   NOTYPE GLOBAL DEFAULT UND _ZN4llvm13AtomicRMWInstC1
271:   NOTYPE GLOBAL DEFAULT UND _ZN4llvm14LandingPadInst9
272:   NOTYPE GLOBAL DEFAULT UND _ZN4llvm17AtomicCmpXchgIn
273:   NOTYPE GLOBAL DEFAULT UND _ZN4llvm19SmallPtrSetImpl
274:   NOTYPE GLOBAL DEFAULT UND _ZN4llvm4User13getDescrip
275:   NOTYPE GLOBAL DEFAULT UND _ZN4llvm8LoadInstC2EPNS_4
276:   NOTYPE GLOBAL DEFAULT UND _ZN4llvm8LoadInstC2EPNS_4
277:   NOTYPE GLOBAL DEFAULT UND _ZN4llvm9FenceInstC1ERNS_
278:   NOTYPE GLOBAL DEFAULT UND _ZN4llvm9StoreInstC1EPNS_
279:   NOTYPE GLOBAL DEFAULT UND _ZN4llvm9StoreInstC1EPNS_
280:   NOTYPE GLOBAL DEFAULT UND _ZNK4llvm10BasicBlock12is
281:   NOTYPE GLOBAL DEFAULT UND _ZNK4llvm5Value10getConte
282:   NOTYPE GLOBAL DEFAULT UND _ZNK4llvm5Value7getNameEv
283:   NOTYPE GLOBAL DEFAULT UND _ZN4llvm11raw_ostream5wri
284:   NOTYPE GLOBAL DEFAULT UND _ZN4llvm6TripleC1ERKNS_5T
285:   NOTYPE GLOBAL DEFAULT UND _ZNK4llvm10StructType7get
286:   NOTYPE GLOBAL DEFAULT UND _ZNK4llvm11GlobalValue10g
287:   NOTYPE GLOBAL DEFAULT UND _ZNK4llvm11GlobalValue12g
288:   NOTYPE GLOBAL DEFAULT UND _ZNK4llvm11GlobalValue13i
289:   NOTYPE GLOBAL DEFAULT UND _ZNK4llvm11Instruction35g
290:   NOTYPE GLOBAL DEFAULT UND _ZNK4llvm11Instruction8is
291:   NOTYPE GLOBAL DEFAULT UND _ZNK4llvm11NamedMDNode7ge
292:   NOTYPE GLOBAL DEFAULT UND _ZNK4llvm12AttributeSet11
293:   NOTYPE GLOBAL DEFAULT UND _ZNK4llvm12AttributeSet12
294:   NOTYPE GLOBAL DEFAULT UND _ZNK4llvm12AttributeSet12
295:   NOTYPE GLOBAL DEFAULT UND _ZNK4llvm12AttributeSet17
296:   NOTYPE GLOBAL DEFAULT UND _ZNK4llvm12AttributeSet3R
297:   NOTYPE GLOBAL DEFAULT UND _ZNK4llvm12ConstantExpr12
298:   NOTYPE GLOBAL DEFAULT UND _ZNK4llvm22ConstantDataSe
299:   NOTYPE GLOBAL DEFAULT UND _ZNK4llvm22ConstantDataSe
300:   NOTYPE GLOBAL DEFAULT UND _ZNK4llvm22ConstantDataSe
301:   NOTYPE GLOBAL DEFAULT UND _ZNK4llvm22ConstantDataSe
302:   NOTYPE GLOBAL DEFAULT UND _ZNK4llvm22ConstantDataSe
303:   NOTYPE GLOBAL DEFAULT UND _ZNK4llvm5APInt25countLea
304:   NOTYPE GLOBAL DEFAULT UND _ZNK4llvm6Module14getMDKi
305:   NOTYPE GLOBAL DEFAULT UND _ZNK4llvm7APFloat14bitcas
306:   NOTYPE GLOBAL DEFAULT UND _ZNK4llvm8Constant11isNul
307:   NOTYPE GLOBAL DEFAULT UND _ZNK4llvm8DebugLoc3getEv
308:   NOTYPE GLOBAL DEFAULT UND _ZNK4llvm8Function5getGCE
309:   FUNC GLOBAL DEFAULT UND memcmp@GLIBC_2.2.5 (2)
310:   FUNC GLOBAL DEFAULT UND memmove@GLIBC_2.2.5 (2)
311:   NOTYPE GLOBAL DEFAULT UND _ZN4llvm11raw_ostream5wri
312:   NOTYPE GLOBAL DEFAULT UND _ZN4llvm11raw_ostreamlsEl
313:   NOTYPE GLOBAL DEFAULT UND _ZN4llvm11raw_ostreamlsEm
314:   NOTYPE GLOBAL DEFAULT UND _ZN4llvm4dbgsEv
315:   NOTYPE GLOBAL DEFAULT UND _ZNK4llvm12AttributeSet17
316:   NOTYPE GLOBAL DEFAULT UND _ZNK4llvm22ConstantDataSe
317:   NOTYPE GLOBAL DEFAULT UND _ZNK4llvm5Value4dumpEv
318:   NOTYPE GLOBAL DEFAULT UND _ZNK4llvm8Metadata5printE
319:   OBJECT GLOBAL DEFAULT UND _ZSt7nothrow
320:   FUNC GLOBAL DEFAULT UND _ZnwmRKSt9nothrow_t
321:   NOTYPE GLOBAL DEFAULT UND _ZN4llvm11AttrBuilder12ad
322:   NOTYPE GLOBAL DEFAULT UND _ZN4llvm8Argument10remove
323:   NOTYPE GLOBAL DEFAULT UND _ZNK4llvm12AttributeSet15
324:   NOTYPE GLOBAL DEFAULT UND _ZNK4llvm8Argument15onlyR
325:   NOTYPE GLOBAL DEFAULT UND _ZNK4llvm8Argument8getArg
326:   NOTYPE GLOBAL DEFAULT UND _ZNK4llvm8Function10getCo
327:   FUNC GLOBAL DEFAULT 12 _ZN6bcinfo14BitcodeWrappe
328:   FUNC GLOBAL DEFAULT 12 _ZN20InMemoryWrapperInput
329:   FUNC WEAK DEFAULT 12 _ZNSt3__16__sortIRNS_6__l
330:   FUNC WEAK DEFAULT 12 _ZNSt3__16vectorINS_4pair
331:   FUNC GLOBAL DEFAULT 12 _ZN8llvm_3_215ValueEnumer
332:   FUNC GLOBAL DEFAULT 12 __android_log_bwrite
333:   FUNC WEAK DEFAULT 12 _ZNSt3__17__sort3IRNS_6__
334:   FUNC WEAK DEFAULT 12 _ZN4llvm15BitstreamWriter
335:   FUNC WEAK DEFAULT 12 _ZN4llvm8DenseMapIPKNS_10
336:   FUNC WEAK DEFAULT 12 _ZN4llvm8DenseMapIPKNS_5V
337:   FUNC GLOBAL DEFAULT 12 _ZN6bcinfo17MetadataExtra
338:   FUNC GLOBAL DEFAULT 12 android_set_log_transport
339:   FUNC GLOBAL DEFAULT 12 android_log_format_new
340:   FUNC GLOBAL DEFAULT 12 _ZN16BitcodeWrapperer11Ca
341:   FUNC GLOBAL DEFAULT 12 _ZN16BitcodeWrapperer26Ge
342:   FUNC GLOBAL DEFAULT 12 _ZN20InMemoryWrapperInput
343:   FUNC WEAK DEFAULT 12 _ZN4llvm8DenseMapIjjNS_12
344:   FUNC WEAK DEFAULT 12 _ZNSt3__127__tree_balance
345:   FUNC WEAK DEFAULT 12 _ZNSt3__16__treeINS_12__v
346:   FUNC WEAK DEFAULT 12 _ZN4llvm9IRBuilderINS_14C
347:   FUNC GLOBAL DEFAULT 12 __android_log_buf_write
348:   FUNC GLOBAL DEFAULT 12 _ZNK8llvm_3_215ValueEnume
349:   FUNC GLOBAL DEFAULT 12 _ZN6bcinfo17MetadataExtra
350:   FUNC GLOBAL DEFAULT 12 android_get_log_transport
351:   FUNC WEAK DEFAULT 12 _ZN4llvm15BitstreamWriter
352:   OBJECT GLOBAL DEFAULT 16 __android_log_transport_w
353:   FUNC WEAK DEFAULT 12 _ZN4llvm16ExtractValueIns
354:   FUNC WEAK DEFAULT 12 _ZN4llvm6Module15setTarge
355:   FUNC WEAK DEFAULT 12 _ZN4llvm12DenseMapBaseINS
356:   FUNC WEAK DEFAULT 12 _ZNSt3__16vectorIPKN4llvm
357:   FUNC WEAK DEFAULT 12 _ZN4llvm8DenseMapIPNS_11G
358:   FUNC WEAK DEFAULT 12 _ZNSt3__16vectorIPKN4llvm
359:   FUNC WEAK DEFAULT 12 utf8_character_length
360:   FUNC WEAK DEFAULT 12 _ZNSt3__16vectorIN4llvm6W
361:   FUNC WEAK DEFAULT 12 _ZNSt3__16vectorINS_4pair
362:   FUNC WEAK DEFAULT 12 _ZN4llvm17GetElementPtrIn
363:   FUNC WEAK DEFAULT 12 _ZN4llvm15BitstreamWriter
364:   FUNC GLOBAL DEFAULT 12 android_log_addFilterRule
365:   FUNC GLOBAL DEFAULT 12 _ZN6bcinfo14BitcodeWrappe
366:   OBJECT GLOBAL DEFAULT 9 _ZTS20InMemoryWrapperInpu
367:   FUNC WEAK DEFAULT 12 _ZN4llvm12DenseMapBaseINS
368:   FUNC GLOBAL DEFAULT 12 __android_log_vprint
369:   FUNC GLOBAL DEFAULT 12 _ZN16BitcodeWrapperer17Bu
370:   FUNC WEAK DEFAULT 12 _ZN4llvm6Module18setModul
371:   FUNC GLOBAL DEFAULT 12 _ZN8llvm_3_218WriteBitcod
372:   FUNC GLOBAL DEFAULT 12 _ZN16BitcodeWrappererD2Ev
373:   FUNC WEAK DEFAULT 12 _ZN4llvm16ExtractValueIns
374:   FUNC WEAK DEFAULT 12 _ZN4llvm23SmallVectorTemp
375:   FUNC WEAK DEFAULT 12 _ZNSt3__16vectorIN4llvm18
376:   FUNC WEAK DEFAULT 12 _ZN4llvm12DenseMapBaseINS
377:   OBJECT WEAK DEFAULT 21 _ZTVN4llvm16ExtractValueI
378:   FUNC WEAK DEFAULT 12 _ZNSt3__16__treeINS_12__v
379:   FUNC GLOBAL DEFAULT 12 _ZN8llvm_2_716parseBitcod
380:   FUNC WEAK DEFAULT 12 _ZN4llvm12DenseMapBaseINS
381:   FUNC WEAK DEFAULT 12 _ZN4llvm9VAArgInstD0Ev
382:   FUNC WEAK DEFAULT 12 _ZNSt3__16vectorIPN4llvm4
383:   FUNC WEAK DEFAULT 12 _ZN4llvm15BitstreamWriter
384:   FUNC WEAK DEFAULT 12 _ZN4llvm8DenseMapIPNS_8Fu
385:   FUNC GLOBAL DEFAULT 12 _ZN8llvm_3_215ValueEnumer
386:   FUNC GLOBAL DEFAULT 12 _ZN6bcinfo17MetadataExtra
387:   FUNC GLOBAL DEFAULT 12 __android_log_stats_bwrit
388:   FUNC WEAK DEFAULT 12 _ZNSt3__16vectorIN4llvm15
389:   FUNC WEAK DEFAULT 12 _ZNSt3__16vectorIPN4llvm8
390:   FUNC GLOBAL DEFAULT 12 _ZNK8llvm_3_215ValueEnume
391:   FUNC WEAK DEFAULT 12 _ZN4llvm15BitstreamWriter
392:   FUNC WEAK DEFAULT 12 _ZN4llvm15BitstreamWriter
393:   FUNC GLOBAL DEFAULT 12 _ZNK8llvm_3_215ValueEnume
394:   FUNC WEAK DEFAULT 12 _ZNSt3__16vectorINS_4pair
395:   FUNC GLOBAL DEFAULT 12 _ZN16BitcodeWrapperer21Is
396:   FUNC GLOBAL DEFAULT 12 __android_log_close
397:   FUNC GLOBAL DEFAULT 12 _ZN16BitcodeWrapperer18Pr
398:   FUNC GLOBAL DEFAULT 12 _ZN16BitcodeWrapperer25Wr
399:   FUNC WEAK DEFAULT 12 _ZN4llvm9IRBuilderINS_14C
400:   FUNC GLOBAL DEFAULT 12 _ZN8llvm_3_215ValueEnumer
401:   FUNC GLOBAL DEFAULT 12 _ZNK8llvm_3_215ValueEnume
402:   FUNC GLOBAL DEFAULT 12 __android_log_buf_print
403:   FUNC GLOBAL DEFAULT 12 __android_log_write
404:   FUNC WEAK DEFAULT 12 _ZNSt3__16vectorIhNS_9all
405:   FUNC WEAK DEFAULT 12 _ZN4llvm10SelectInstD0Ev
406:   FUNC GLOBAL DEFAULT 12 _ZN6bcinfo17MetadataExtra
407:   FUNC WEAK DEFAULT 12 _ZN4llvm16ExtractValueIns
408:   FUNC WEAK DEFAULT 12 _ZNSt3__16vectorIPN4llvm1
409:   FUNC WEAK DEFAULT 12 _ZN4llvm12DenseMapBaseINS
410:   FUNC WEAK DEFAULT 12 _ZN4llvm8DenseMapIPNS_4Ty
411:   FUNC GLOBAL DEFAULT 12 _ZN6bcinfo17BitcodeTransl
412:   FUNC GLOBAL DEFAULT 12 _ZN16BitcodeWrapperer18Is
413:   FUNC GLOBAL DEFAULT 12 android_log_id_to_name
414:   FUNC GLOBAL DEFAULT 12 __android_log_dev_availab
415:   FUNC GLOBAL DEFAULT 12 _ZN16BitcodeWrapperer14Ad
416:   FUNC WEAK DEFAULT 12 _ZN4llvm15BitstreamWriter
417:   FUNC GLOBAL DEFAULT 12 _ZNK8llvm_3_215ValueEnume
418:   NOTYPE GLOBAL DEFAULT 24 _edata
419:   FUNC GLOBAL DEFAULT 12 __android_log_unlock
420:   FUNC WEAK DEFAULT 12 _ZNSt3__16__treeINS_12__v
421:   FUNC WEAK DEFAULT 12 _ZNSt3__16vectorIPKN4llvm
422:   OBJECT GLOBAL DEFAULT 9 _ZN6bcinfo17MetadataExtra
423:   FUNC WEAK DEFAULT 12 _ZN6bcinfo17MetadataExtra
424:   FUNC GLOBAL DEFAULT 12 __android_log_lock
425:   FUNC WEAK DEFAULT 12 _ZN4llvm12DenseMapBaseINS
426:   FUNC WEAK DEFAULT 12 _ZN4llvm8DenseMapIPNS_8Fu
427:   FUNC GLOBAL DEFAULT 12 android_log_setPrintForma
428:   FUNC WEAK DEFAULT 12 _ZN4llvm10InvokeInst6Crea
429:   FUNC WEAK DEFAULT 12 _ZN4llvm17GetElementPtrIn
430:   FUNC WEAK DEFAULT 12 _ZN4llvm8FCmpInstD0Ev
431:   FUNC GLOBAL DEFAULT 12 _ZN6bcinfo17BitcodeTransl
432:   FUNC WEAK DEFAULT 12 _ZNSt3__16vectorINS_4pair
433:   FUNC WEAK DEFAULT 12 _ZN4llvm15BitstreamWriter
434:   FUNC GLOBAL DEFAULT 12 _ZN8llvm_3_215ValueEnumer
435:   FUNC GLOBAL DEFAULT 12 _ZN8llvm_3_215ValueEnumer
436:   FUNC GLOBAL DEFAULT 12 _ZN6bcinfo17MetadataExtra
437:   FUNC GLOBAL DEFAULT 12 _ZN6bcinfo17MetadataExtra
438:   OBJECT GLOBAL DEFAULT 16 __android_log_transport_r
439:   FUNC GLOBAL DEFAULT 12 _ZN16BitcodeWrapperer9Wri
440:   FUNC WEAK DEFAULT 12 _ZN4llvm15BitstreamCursor
441:   FUNC WEAK DEFAULT 12 _ZN4llvm15BitstreamCursor
442:   FUNC WEAK DEFAULT 12 _ZN4llvm12DenseMapBaseINS
443:   FUNC GLOBAL DEFAULT 12 android_log_formatLogLine
444:   FUNC GLOBAL DEFAULT 12 _ZN16BitcodeWrapperer22Ge
445:   OBJECT WEAK DEFAULT 21 _ZTI12WrapperInput
446:   FUNC WEAK DEFAULT 12 _ZNSt3__16vectorINS_4pair
447:   FUNC WEAK DEFAULT 12 _ZNSt3__16vectorIN4llvm12
448:   OBJECT WEAK DEFAULT 21 _ZTVN4llvm8FCmpInstE
449:   FUNC GLOBAL DEFAULT 12 _ZN20InMemoryWrapperInput
450:   FUNC GLOBAL DEFAULT 12 _ZN6bcinfo17MetadataExtra
451:   FUNC GLOBAL DEFAULT 12 _ZN6bcinfo17MetadataExtra
452:   FUNC WEAK DEFAULT 12 _ZN4llvm15BitstreamWriter
453:   FUNC GLOBAL DEFAULT 12 _ZN5slang22stripUnknownAt
454:   FUNC GLOBAL DEFAULT 12 _ZN6bcinfo17MetadataExtra
455:   FUNC GLOBAL DEFAULT 12 __android_log_assert
456:   FUNC WEAK DEFAULT 12 _ZN4llvm8DenseMapIPKNS_8M
457:   FUNC GLOBAL DEFAULT 12 __android_log_config_writ
458:   FUNC GLOBAL DEFAULT 12 _ZN8llvm_3_020getLazyBitc
459:   FUNC GLOBAL DEFAULT 12 android_log_processBinary
460:   FUNC WEAK DEFAULT 12 _ZNSt3__127__insertion_so
461:   FUNC WEAK DEFAULT 12 _ZNSt3__16vectorIN4llvm13
462:   FUNC WEAK DEFAULT 12 _ZNSt3__16vectorINS_4pair
463:   OBJECT GLOBAL DEFAULT 25 __android_log_transport
464:   FUNC WEAK DEFAULT 12 _ZN4llvm8DenseMapIjjNS_12
465:   FUNC WEAK DEFAULT 12 _ZN4llvm13IRBuilderBase14
466:   FUNC WEAK DEFAULT 12 _ZN4llvm12DenseMapBaseINS
467:   FUNC GLOBAL DEFAULT 12 fakeLogClose
468:   FUNC WEAK DEFAULT 12 _ZNSt3__16vectorINS_4pair
469:   FUNC WEAK DEFAULT 12 _ZN4llvm15SmallVectorImpl
470:   FUNC GLOBAL DEFAULT 12 _ZN8llvm_3_215ValueEnumer
471:   FUNC GLOBAL DEFAULT 12 __android_log_security_bs
472:   FUNC GLOBAL DEFAULT 12 fakeLogWritev
473:   FUNC WEAK DEFAULT 12 _ZNSt3__16vectorINS_12bas
474:   FUNC GLOBAL DEFAULT 13 _init
475:   FUNC GLOBAL DEFAULT 12 _ZN8llvm_3_016parseBitcod
476:   FUNC WEAK DEFAULT 12 _ZN4llvm8CallInst6CreateE
477:   FUNC WEAK DEFAULT 12 _ZNSt3__16vectorIPN4llvm1
478:   FUNC WEAK DEFAULT 12 _ZN4llvm9IRBuilderINS_14C
479:   FUNC WEAK DEFAULT 12 _ZNSt3__16vectorIN4llvm15
480:   FUNC GLOBAL DEFAULT 12 _ZN6bcinfo14BitcodeWrappe
481:   FUNC GLOBAL DEFAULT 12 _ZN6bcinfo14BitcodeWrappe
482:   FUNC GLOBAL DEFAULT 12 _ZN6bcinfo17MetadataExtra
483:   FUNC GLOBAL DEFAULT 12 __android_log_bswrite
484:   FUNC GLOBAL DEFAULT 12 _ZN8llvm_2_722getBitcodeT
485:   FUNC WEAK DEFAULT 12 _ZNSt3__16vectorINS_4pair
486:   OBJECT WEAK DEFAULT 21 _ZTVN4llvm9VAArgInstE
487:   FUNC WEAK DEFAULT 12 _ZN8llvm_3_215ValueEnumer
488:   FUNC GLOBAL DEFAULT 12 __android_log_print
489:   FUNC GLOBAL DEFAULT 12 _ZN16BitcodeWrappererD1Ev
490:   FUNC GLOBAL DEFAULT 12 _ZN6bcinfo17MetadataExtra
491:   FUNC GLOBAL DEFAULT 12 __android_log_trylock
492:   FUNC WEAK DEFAULT 12 _ZN4llvm15SmallVectorImpl
493:   FUNC GLOBAL DEFAULT 12 android_name_to_log_id
494:   FUNC GLOBAL DEFAULT 12 __android_log_btwrite
495:   FUNC GLOBAL DEFAULT 12 android_log_processLogBuf
496:   FUNC GLOBAL DEFAULT 12 __android_log_is_debuggab
497:   FUNC WEAK DEFAULT 12 _ZN13BCHeaderField5PrintE
498:   FUNC GLOBAL DEFAULT 12 _ZN20InMemoryWrapperInput
499:   FUNC WEAK DEFAULT 12 _ZNSt3__16vectorIN4llvm6W
500:   OBJECT WEAK DEFAULT 21 _ZTVN4llvm10SelectInstE
501:   FUNC WEAK DEFAULT 12 _ZN4llvm15BitstreamWriter
502:   FUNC WEAK DEFAULT 12 _ZN4llvm15BitstreamWriter
503:   FUNC GLOBAL DEFAULT 12 _ZN8llvm_3_215ValueEnumer
504:   FUNC WEAK DEFAULT 12 _ZNSt3__16vectorIPKN4llvm
505:   FUNC WEAK DEFAULT 12 _ZNSt3__16vectorIN4llvm18
506:   FUNC WEAK DEFAULT 12 _ZN4llvm15BitstreamWriter
507:   FUNC GLOBAL DEFAULT 12 _ZN6bcinfo17BitcodeTransl
508:   FUNC WEAK DEFAULT 12 _ZN4llvm12DenseMapBaseINS
509:   FUNC GLOBAL DEFAULT 12 _ZN16BitcodeWrappererC1EP
510:   OBJECT GLOBAL DEFAULT 16 __android_log_persist_wri
511:   FUNC GLOBAL DEFAULT 12 _ZN16BitcodeWrapperer10Fi
512:   OBJECT WEAK DEFAULT 21 _ZTVN4llvm15InsertValueIn
513:   FUNC GLOBAL DEFAULT 12 _ZNK8llvm_3_215ValueEnume
514:   FUNC WEAK DEFAULT 12 _ZN4llvm12DenseMapBaseINS
515:   OBJECT GLOBAL DEFAULT 16 __android_log_persist_rea
516:   FUNC GLOBAL DEFAULT 12 __android_log_config_writ
517:   FUNC WEAK DEFAULT 12 _ZN4llvm12DenseMapBaseINS
518:   FUNC WEAK DEFAULT 12 _ZN4llvm15BitstreamWriter
519:   FUNC WEAK DEFAULT 12 _ZNSt3__16vectorIPhNS_9al
520:   FUNC GLOBAL DEFAULT 12 _ZN20InMemoryWrapperInput
521:   FUNC WEAK DEFAULT 12 _ZN4llvm7PHINode11addInco
522:   FUNC GLOBAL DEFAULT 12 _ZN8llvm_3_215ValueEnumer
523:   FUNC GLOBAL DEFAULT 12 _ZN8llvm_3_215ValueEnumer
524:   FUNC WEAK DEFAULT 12 _ZN4llvm15InsertValueInst
525:   FUNC WEAK DEFAULT 12 _ZN4llvm15BitstreamWriter
526:   FUNC GLOBAL DEFAULT 12 _ZN6bcinfo17BitcodeTransl
527:   FUNC GLOBAL DEFAULT 12 __android_log_is_loggable
528:   FUNC GLOBAL DEFAULT 12 _ZN16BitcodeWrapperer4See
529:   FUNC GLOBAL DEFAULT 12 _ZN20InMemoryWrapperInput
530:   FUNC GLOBAL DEFAULT 12 __android_log_config_read
531:   FUNC WEAK DEFAULT 12 _ZN4llvm15BitstreamWriter
532:   FUNC WEAK DEFAULT 12 _ZN4llvm15BitstreamWriter
533:   FUNC WEAK DEFAULT 12 _ZN4llvm12DenseMapBaseINS
534:   FUNC GLOBAL DEFAULT 12 _ZN8llvm_3_215ValueEnumer
535:   FUNC GLOBAL DEFAULT 12 _ZN8llvm_3_215ValueEnumer
536:   FUNC WEAK DEFAULT 12 _ZN4llvm10SelectInst4init
537:   FUNC WEAK DEFAULT 12 _ZN4llvm12DenseMapBaseINS
538:   FUNC WEAK DEFAULT 12 _ZN4llvm21SimpleBitstream
539:   FUNC WEAK DEFAULT 12 _ZNSt3__16vectorIN4llvm13
540:   FUNC WEAK DEFAULT 12 _ZNSt3__16vectorIPN4llvm4
541:   FUNC GLOBAL DEFAULT 12 android_log_printLogLine
542:   FUNC GLOBAL DEFAULT 12 _ZN16BitcodeWrappererC2EP
543:   FUNC GLOBAL DEFAULT 14 _fini
544:   FUNC GLOBAL DEFAULT 12 fakeLogOpen
545:   OBJECT GLOBAL DEFAULT 21 _ZTI20InMemoryWrapperInpu
546:   FUNC WEAK DEFAULT 12 _ZNSt3__16vectorINS_4pair
547:   FUNC WEAK DEFAULT 12 _ZN4llvm9IRBuilderINS_14C
548:   FUNC WEAK DEFAULT 12 _ZN4llvm15BitstreamWriter
549:   FUNC GLOBAL DEFAULT 12 _ZN8llvm_3_215ValueEnumer
550:   OBJECT GLOBAL DEFAULT 16 fakeLoggerWrite
551:   OBJECT GLOBAL DEFAULT 21 _ZTV20InMemoryWrapperInpu
552:   FUNC WEAK DEFAULT 12 _ZNSt3__17__sort4IRNS_6__
553:   FUNC WEAK DEFAULT 12 _ZN4llvm15BitstreamWriter
554:   FUNC WEAK DEFAULT 12 _ZN4llvm12DenseMapBaseINS
555:   FUNC GLOBAL DEFAULT 12 __android_log_is_loggable
556:   FUNC WEAK DEFAULT 12 _ZN4llvm15InsertValueInst
557:   FUNC WEAK DEFAULT 12 _ZN4llvm8DenseMapIPNS_8Fu
558:   FUNC WEAK DEFAULT 12 _ZN4llvm15BitstreamWriter
559:   FUNC WEAK DEFAULT 12 _ZN4llvm12DenseMapBaseINS
560:   NOTYPE GLOBAL DEFAULT 25 __bss_start
561:   FUNC GLOBAL DEFAULT 12 _ZN8llvm_2_720getLazyBitc
562:   FUNC WEAK DEFAULT 12 _ZN4llvm12DenseMapBaseINS
563:   FUNC WEAK DEFAULT 12 _ZN4llvm8DenseMapIPNS_10I
564:   FUNC WEAK DEFAULT 12 _ZN4llvm8DenseMapIPKNS_11
565:   OBJECT GLOBAL DEFAULT 16 stderrLoggerWrite
566:   FUNC GLOBAL DEFAULT 12 __android_log_security_bw
567:   FUNC GLOBAL DEFAULT 12 android_log_format_free
568:   FUNC GLOBAL DEFAULT 12 _ZN20InMemoryWrapperInput
569:   FUNC WEAK DEFAULT 12 _ZN4llvm15BitstreamReader
570:   FUNC WEAK DEFAULT 12 _ZN4llvm8DenseMapIPNS_8Fu
571:   FUNC GLOBAL DEFAULT 12 _ZN8llvm_3_022getBitcodeT
572:   FUNC WEAK DEFAULT 12 _ZN4llvm9IRBuilderINS_14C
573:   FUNC WEAK DEFAULT 12 _ZN4llvm8DenseMapINS_12At
574:   FUNC GLOBAL DEFAULT 12 __android_log_config_read
575:   FUNC GLOBAL DEFAULT 12 _ZN16BitcodeWrapperer18Pa
576:   FUNC GLOBAL DEFAULT 12 _ZN16BitcodeWrapperer19Wr
577:   FUNC GLOBAL DEFAULT 12 _ZN16BitcodeWrapperer8Rea
578:   FUNC GLOBAL DEFAULT 12 _ZN20InMemoryWrapperInput
579:   FUNC WEAK DEFAULT 12 _ZN4llvm15BitstreamWriter
580:   FUNC WEAK DEFAULT 12 _ZN4llvm12DenseMapBaseINS
581:   FUNC WEAK DEFAULT 12 _ZN4llvm12DenseMapBaseINS
582:   FUNC GLOBAL DEFAULT 12 _ZN8llvm_3_215ValueEnumer
583:   FUNC GLOBAL DEFAULT 12 _ZN6bcinfo17MetadataExtra
584:   OBJECT WEAK DEFAULT 9 _ZTS12WrapperInput
585:   FUNC WEAK DEFAULT 12 _ZN4llvm12DenseMapBaseINS
586:   FUNC GLOBAL DEFAULT 12 _ZN8llvm_3_215ValueEnumer
587:   FUNC WEAK DEFAULT 12 _ZNSt3__16__treeINS_12__v
588:   FUNC GLOBAL DEFAULT 12 _ZN8llvm_3_215ValueEnumer
589:   FUNC GLOBAL DEFAULT 12 android_log_addFilterStri
590:   FUNC GLOBAL DEFAULT 12 android_log_formatFromStr
591:   FUNC GLOBAL DEFAULT 12 android_log_shouldPrintLi
592:   FUNC WEAK DEFAULT 12 _ZN4llvm12DenseMapBaseINS
593:   FUNC GLOBAL DEFAULT 12 _ZN6bcinfo14BitcodeWrappe
594:   FUNC GLOBAL DEFAULT 12 _ZN20InMemoryWrapperInput
595:   FUNC GLOBAL DEFAULT 12 _ZN6bcinfo17MetadataExtra
596:   FUNC GLOBAL DEFAULT 12 _ZN16BitcodeWrapperer11Cl
597:   FUNC WEAK DEFAULT 12 _ZN4llvm15BitstreamCursor
598:   FUNC WEAK DEFAULT 12 _ZN4llvm15BitstreamCursor
599:   FUNC WEAK DEFAULT 12 _ZNSt3__16vectorIPN4llvm8
600:   FUNC WEAK DEFAULT 12 _ZN4llvm12DenseMapBaseINS
601:   FUNC GLOBAL DEFAULT 12 _ZN6bcinfo17BitcodeTransl
602:   FUNC GLOBAL DEFAULT 12 __send_log_msg
603:   FUNC WEAK DEFAULT 12 _ZNSt3__16vectorIN4llvm12
604:   FUNC WEAK DEFAULT 12 _ZN4llvm15BitstreamWriter
605:   FUNC GLOBAL DEFAULT 12 _ZN8llvm_3_215ValueEnumer
606:   FUNC GLOBAL DEFAULT 12 _ZN6bcinfo17MetadataExtra
607:   FUNC WEAK DEFAULT 12 _ZNSt3__16vectorIN4llvm18
608:   NOTYPE GLOBAL DEFAULT 25 _end
