 0x000000000000000e (SONAME)             Library soname: [libSurfaceFlingerProp.so]
  
Symbol   contains 259 entries:
Num:   Type Bind Vis Ndx Name
0:   NOTYPE LOCAL DEFAULT UND
1:   FUNC GLOBAL DEFAULT UND __cxa_finalize@LIBC (2)
2:   FUNC GLOBAL DEFAULT UND __cxa_atexit@LIBC (2)
3:   FUNC GLOBAL DEFAULT UND _ZN7android8hardware11con
4:   FUNC GLOBAL DEFAULT UND _ZN7android8hardware11con
5:   FUNC GLOBAL DEFAULT UND _ZN7android8hardware7deta
6:   FUNC GLOBAL DEFAULT UND _ZN7android8hardware7deta
7:   FUNC GLOBAL DEFAULT UND _ZN7android8hardware7deta
8:   FUNC GLOBAL DEFAULT UND _ZN7android8hardware7deta
9:   FUNC GLOBAL DEFAULT UND _ZNK7android7RefBase9decS
10:   FUNC GLOBAL DEFAULT UND _ZNK7android7RefBase9incS
11:   FUNC GLOBAL DEFAULT UND _ZNK7android8hardware6Sta
12:   FUNC GLOBAL DEFAULT UND _ZNKSt3__120__vector_base
13:   FUNC GLOBAL DEFAULT UND _ZNKSt3__121__basic_strin
14:   FUNC GLOBAL DEFAULT UND _ZNKSt3__16locale9use_fac
15:   FUNC GLOBAL DEFAULT UND _ZNKSt3__18ios_base6getlo
16:   FUNC GLOBAL DEFAULT UND _ZNSt3__112basic_stringIc
17:   FUNC GLOBAL DEFAULT UND _ZNSt3__112basic_stringIc
18:   FUNC GLOBAL DEFAULT UND _ZNSt3__112basic_stringIc
19:   FUNC GLOBAL DEFAULT UND _ZNSt3__112basic_stringIc
20:   FUNC GLOBAL DEFAULT UND _ZNSt3__112basic_stringIc
21:   FUNC GLOBAL DEFAULT UND _ZNSt3__113basic_ostreamI
22:   FUNC GLOBAL DEFAULT UND _ZNSt3__113basic_ostreamI
23:   FUNC GLOBAL DEFAULT UND _ZNSt3__113basic_ostreamI
24:   FUNC GLOBAL DEFAULT UND _ZNSt3__113basic_ostreamI
25:   FUNC GLOBAL DEFAULT UND _ZNSt3__113basic_ostreamI
26:   FUNC GLOBAL DEFAULT UND _ZNSt3__113basic_ostreamI
27:   FUNC GLOBAL DEFAULT UND _ZNSt3__113basic_ostreamI
28:   FUNC GLOBAL DEFAULT UND _ZNSt3__113basic_ostreamI
29:   FUNC GLOBAL DEFAULT UND _ZNSt3__113basic_ostreamI
30:   FUNC GLOBAL DEFAULT UND _ZNSt3__115basic_streambu
31:   FUNC GLOBAL DEFAULT UND _ZNSt3__115basic_streambu
32:   FUNC GLOBAL DEFAULT UND _ZNSt3__115basic_streambu
33:   FUNC GLOBAL DEFAULT UND _ZNSt3__115basic_streambu
34:   FUNC GLOBAL DEFAULT UND _ZNSt3__115basic_streambu
35:   FUNC GLOBAL DEFAULT UND _ZNSt3__115basic_streambu
36:   FUNC GLOBAL DEFAULT UND _ZNSt3__115basic_streambu
37:   FUNC GLOBAL DEFAULT UND _ZNSt3__115basic_streambu
38:   FUNC GLOBAL DEFAULT UND _ZNSt3__115basic_streambu
39:   OBJECT GLOBAL DEFAULT UND _ZNSt3__15ctypeIcE2idE
40:   FUNC GLOBAL DEFAULT UND _ZNSt3__16localeD1Ev
41:   FUNC GLOBAL DEFAULT UND _ZNSt3__18ios_base4initEP
42:   FUNC GLOBAL DEFAULT UND _ZNSt3__18ios_base5clearE
43:   FUNC GLOBAL DEFAULT UND _ZNSt3__19basic_iosIcNS_1
44:   FUNC GLOBAL DEFAULT UND _ZTv0_n24_NSt3__113basic_
45:   FUNC GLOBAL DEFAULT UND _ZTv0_n24_NSt3__113basic_
46:   FUNC GLOBAL DEFAULT UND _ZdlPv
47:   FUNC GLOBAL DEFAULT UND _Znwm
48:   FUNC GLOBAL DEFAULT UND __cxa_guard_acquire
49:   FUNC GLOBAL DEFAULT UND __cxa_guard_release
50:   FUNC GLOBAL DEFAULT UND __stack_chk_fail@LIBC (2)
51:   FUNC GLOBAL DEFAULT UND abort@LIBC (2)
52:   FUNC GLOBAL DEFAULT UND memchr@LIBC (2)
53:   FUNC GLOBAL DEFAULT UND memcmp@LIBC (2)
54:   FUNC GLOBAL DEFAULT UND memcpy@LIBC (2)
55:   FUNC GLOBAL DEFAULT UND memset@LIBC (2)
56:   FUNC GLOBAL DEFAULT UND strlen@LIBC (2)
57:   FUNC GLOBAL DEFAULT UND __errno@LIBC (2)
58:   FUNC GLOBAL DEFAULT UND __system_property_find@LIBC (2)
59:   FUNC GLOBAL DEFAULT UND __system_property_read_ca@LIBC_O (3)
60:   FUNC GLOBAL DEFAULT UND isspace@LIBC (2)
61:   FUNC GLOBAL DEFAULT UND strcasecmp@LIBC (2)
62:   FUNC GLOBAL DEFAULT UND strcmp@LIBC (2)
63:   FUNC GLOBAL DEFAULT UND strtod@LIBC (2)
64:   FUNC GLOBAL DEFAULT UND strtoll@LIBC (2)
65:   OBJECT WEAK DEFAULT 22 _ZGVZN7android8hardware11
66:   FUNC WEAK DEFAULT 14 _ZNSt3__110__function6__f
67:   FUNC GLOBAL DEFAULT 14 _ZN7android7sysprop24Surf
68:   FUNC GLOBAL DEFAULT 14 _ZN7android7sysprop32defa
69:   FUNC WEAK DEFAULT 14 _ZNKSt3__110__function6__
70:   FUNC WEAK DEFAULT 14 _ZNSt3__110__function6__f
71:   FUNC WEAK DEFAULT 14 _ZNSt3__16vectorINS_8opti
72:   FUNC WEAK DEFAULT 14 _ZN7android8hardware11con
73:   FUNC WEAK DEFAULT 14 _ZNSt3__110__function6__f
74:   OBJECT WEAK DEFAULT 22 _ZGVZN7android8hardware11
75:   FUNC GLOBAL DEFAULT 14 _ZN7android7sysprop24Surf
76:   FUNC WEAK DEFAULT 14 _ZN7android8hardware11con
77:   FUNC WEAK DEFAULT 14 _ZNSt3__110__function6__f
78:   OBJECT WEAK DEFAULT 18 _ZTCNSt3__119basic_ostrin
79:   FUNC GLOBAL DEFAULT 14 _ZN7android7sysprop24Surf
80:   FUNC GLOBAL DEFAULT 14 _ZN7android7sysprop32star
81:   FUNC WEAK DEFAULT 14 _ZN7android8hardware11con
82:   FUNC WEAK DEFAULT 14 _ZNKSt3__110__function6__
83:   FUNC WEAK DEFAULT 14 _ZNSt3__110__function6__f
84:   OBJECT WEAK DEFAULT 22 _ZZN7android8hardware11co
85:   FUNC GLOBAL DEFAULT 14 _ZN7android7sysprop20use_
86:   FUNC WEAK DEFAULT 14 _ZNKSt3__110__function6__
87:   FUNC WEAK DEFAULT 14 _ZNKSt3__110__function6__
88:   FUNC WEAK DEFAULT 14 _ZNKSt3__110__function6__
89:   FUNC WEAK DEFAULT 14 _ZNSt3__110__function6__f
90:   FUNC WEAK DEFAULT 14 _ZNSt3__110__function6__f
91:   FUNC WEAK DEFAULT 14 _ZNSt3__110__function6__f
92:   OBJECT WEAK DEFAULT 22 _ZZN7android8hardware11co
93:   OBJECT WEAK DEFAULT 22 _ZGVZN7android8hardware11
94:   FUNC WEAK DEFAULT 14 _ZNKSt3__110__function6__
95:   FUNC WEAK DEFAULT 14 _ZNSt3__110__function6__f
96:   OBJECT WEAK DEFAULT 22 _ZGVZN7android8hardware11
97:   FUNC WEAK DEFAULT 14 _ZN7android8hardware11con
98:   FUNC WEAK DEFAULT 14 _ZNKSt3__110__function6__
99:   FUNC WEAK DEFAULT 14 _ZNSt3__110__function6__f
100:   FUNC GLOBAL DEFAULT 14 _ZN7android7sysprop17set_
101:   FUNC GLOBAL DEFAULT 14 _ZN7android7sysprop24Surf
102:   FUNC GLOBAL DEFAULT 14 _ZN7android7sysprop24Surf
103:   FUNC WEAK DEFAULT 14 _ZNKSt3__110__function6__
104:   FUNC WEAK DEFAULT 14 _ZNKSt3__110__function6__
105:   FUNC WEAK DEFAULT 14 _ZNSt3__110__function6__f
106:   OBJECT WEAK DEFAULT 22 _ZZN7android8hardware11co
107:   OBJECT WEAK DEFAULT 22 _ZGVZN7android8hardware11
108:   FUNC WEAK DEFAULT 14 _ZN7android8hardware11con
109:   OBJECT WEAK DEFAULT 18 _ZTVNSt3__110__function6_
110:   FUNC WEAK DEFAULT 14 _ZNSt3__110__function6__f
111:   FUNC WEAK DEFAULT 14 _ZNSt3__110__function6__f
112:   OBJECT WEAK DEFAULT 18 _ZTTNSt3__119basic_ostrin
113:   OBJECT WEAK DEFAULT 18 _ZTVNSt3__110__function6_
114:   FUNC GLOBAL DEFAULT 14 _ZN7android7sysprop22has_
115:   FUNC GLOBAL DEFAULT 14 _ZN7android7sysprop24Surf
116:   FUNC GLOBAL DEFAULT 14 _ZN7android7sysprop24Surf
117:   FUNC GLOBAL DEFAULT 14 _ZN7android7sysprop24Surf
118:   FUNC GLOBAL DEFAULT 14 _ZN7android7sysprop29max_
119:   FUNC WEAK DEFAULT 14 _ZNKSt3__110__function6__
120:   FUNC GLOBAL DEFAULT 14 _ZN7android7sysprop24Surf
121:   FUNC WEAK DEFAULT 14 _ZNKSt3__110__function6__
122:   OBJECT WEAK DEFAULT 22 _ZZN7android8hardware11co
123:   OBJECT WEAK DEFAULT 22 _ZGVZN7android8hardware11
124:   FUNC GLOBAL DEFAULT 14 _ZN7android7sysprop22refr
125:   FUNC GLOBAL DEFAULT 14 _ZN7android7sysprop27prim
126:   FUNC WEAK DEFAULT 14 _ZNKSt3__115basic_stringb
127:   FUNC WEAK DEFAULT 14 _ZNSt3__110__function6__f
128:   OBJECT WEAK DEFAULT 18 _ZTVNSt3__110__function6_
129:   FUNC GLOBAL DEFAULT 14 _ZN7android7sysprop14use_
130:   FUNC GLOBAL DEFAULT 14 _ZN7android7sysprop24Surf
131:   FUNC GLOBAL DEFAULT 14 _ZN7android7sysprop30vsyn
132:   FUNC WEAK DEFAULT 14 _ZN7android8hardware11con
133:   FUNC WEAK DEFAULT 14 _ZNSt3__110__function6__f
134:   FUNC WEAK DEFAULT 14 _ZNSt3__110__function6__f
135:   FUNC WEAK DEFAULT 14 _ZNSt3__110__function6__f
136:   OBJECT WEAK DEFAULT 22 _ZZN7android8hardware11co
137:   OBJECT WEAK DEFAULT 22 _ZGVZN7android8hardware11
138:   FUNC GLOBAL DEFAULT 14 _ZN7android7sysprop25supp
139:   FUNC WEAK DEFAULT 14 _ZNKSt3__110__function6__
140:   OBJECT WEAK DEFAULT 22 _ZZN7android8hardware11co
141:   OBJECT WEAK DEFAULT 22 _ZGVZN7android8hardware11
142:   FUNC GLOBAL DEFAULT 14 _ZN7android7sysprop33max_
143:   OBJECT WEAK DEFAULT 22 _ZGVZN7android8hardware11
144:   FUNC WEAK DEFAULT 14 _ZNKSt3__110__function6__
145:   OBJECT WEAK DEFAULT 18 _ZTVNSt3__110__function6_
146:   FUNC GLOBAL DEFAULT 14 _ZN7android7sysprop15has_
147:   FUNC GLOBAL DEFAULT 14 _ZN7android7sysprop24Surf
148:   FUNC GLOBAL DEFAULT 14 _ZN7android7sysprop25enab
149:   FUNC GLOBAL DEFAULT 14 _ZN7android7sysprop25getD
150:   FUNC WEAK DEFAULT 14 _ZN7android8hardware11con
151:   FUNC WEAK DEFAULT 14 _ZNKSt3__110__function6__
152:   FUNC WEAK DEFAULT 14 _ZNSt3__110__function6__f
153:   FUNC WEAK DEFAULT 14 _ZNSt3__115basic_stringbu
154:   FUNC WEAK DEFAULT 14 _ZNSt3__115basic_stringbu
155:   OBJECT WEAK DEFAULT 18 _ZTVNSt3__110__function6_
156:   FUNC WEAK DEFAULT 14 _ZN7android8hardware11con
157:   FUNC WEAK DEFAULT 14 _ZNKSt3__110__function6__
158:   FUNC WEAK DEFAULT 14 _ZNSt3__110__function6__f
159:   FUNC WEAK DEFAULT 14 _ZNSt3__110__function6__f
160:   OBJECT WEAK DEFAULT 22 _ZZN7android8hardware11co
161:   FUNC GLOBAL DEFAULT 14 _ZN7android7sysprop24Surf
162:   FUNC GLOBAL DEFAULT 14 _ZN7android7sysprop24Surf
163:   FUNC WEAK DEFAULT 14 _ZNKSt3__110__function6__
164:   FUNC WEAK DEFAULT 14 _ZNSt3__110__function6__f
165:   FUNC WEAK DEFAULT 14 _ZNSt3__110__function6__f
166:   OBJECT WEAK DEFAULT 18 _ZTVNSt3__110__function6_
167:   OBJECT WEAK DEFAULT 22 _ZZN7android8hardware11co
168:   FUNC WEAK DEFAULT 14 _ZNKSt3__110__function6__
169:   FUNC GLOBAL DEFAULT 14 _ZN7android7sysprop20use_
170:   FUNC WEAK DEFAULT 14 _ZNSt3__110__function6__f
171:   OBJECT WEAK DEFAULT 22 _ZZN7android8hardware11co
172:   OBJECT WEAK DEFAULT 22 _ZZN7android8hardware11co
173:   FUNC GLOBAL DEFAULT 14 _ZN7android7sysprop24Surf
174:   FUNC WEAK DEFAULT 14 _ZN7android8hardware11con
175:   FUNC WEAK DEFAULT 14 _ZN7android8hardware11con
176:   FUNC WEAK DEFAULT 14 _ZNKSt3__110__function6__
177:   FUNC WEAK DEFAULT 14 _ZNSt3__110__function6__f
178:   OBJECT WEAK DEFAULT 18 _ZTVNSt3__115basic_string
179:   FUNC GLOBAL DEFAULT 14 _ZN7android7sysprop22use_
180:   FUNC WEAK DEFAULT 14 _ZNKSt3__110__function6__
181:   FUNC WEAK DEFAULT 14 _ZNSt3__110__function6__f
182:   FUNC WEAK DEFAULT 14 _ZNSt3__110__function6__f
183:   OBJECT WEAK DEFAULT 18 _ZTVNSt3__110__function6_
184:   OBJECT WEAK DEFAULT 22 _ZZN7android8hardware11co
185:   FUNC GLOBAL DEFAULT 14 _ZN7android7sysprop25wcg_
186:   FUNC WEAK DEFAULT 14 _ZNSt3__110__function6__f
187:   OBJECT WEAK DEFAULT 22 _ZZN7android8hardware11co
188:   FUNC GLOBAL DEFAULT 14 _ZN7android7sysprop18set_
189:   FUNC GLOBAL DEFAULT 14 _ZN7android7sysprop24Surf
190:   FUNC GLOBAL DEFAULT 14 _ZN7android7sysprop27vsyn
191:   FUNC WEAK DEFAULT 14 _ZN7android8hardware11con
192:   OBJECT WEAK DEFAULT 18 _ZTVNSt3__110__function6_
193:   FUNC WEAK DEFAULT 14 _ZNSt3__16vectorINS_8opti
194:   FUNC GLOBAL DEFAULT 14 _ZN7android7sysprop24Surf
195:   FUNC WEAK DEFAULT 14 _ZN7android8hardware11con
196:   FUNC WEAK DEFAULT 14 _ZNSt3__110__function6__f
197:   OBJECT WEAK DEFAULT 18 _ZTVNSt3__110__function6_
198:   FUNC GLOBAL DEFAULT 14 _ZN7android7sysprop24Surf
199:   FUNC WEAK DEFAULT 14 _ZN7android8hardware11con
200:   FUNC WEAK DEFAULT 14 _ZNKSt3__110__function6__
201:   FUNC WEAK DEFAULT 14 _ZNSt3__110__function6__f
202:   FUNC WEAK DEFAULT 14 _ZNSt3__115basic_stringbu
203:   OBJECT WEAK DEFAULT 22 _ZGVZN7android8hardware11
204:   FUNC GLOBAL DEFAULT 14 _ZN7android7sysprop24Surf
205:   FUNC GLOBAL DEFAULT 14 _ZN7android7sysprop30runn
206:   FUNC WEAK DEFAULT 14 _ZN7android8hardware11con
207:   FUNC WEAK DEFAULT 14 _ZNKSt3__110__function6__
208:   FUNC GLOBAL DEFAULT 14 _ZN7android7sysprop28wcg_
209:   FUNC WEAK DEFAULT 14 _ZNSt3__110__function6__f
210:   FUNC GLOBAL DEFAULT 14 _ZN7android7sysprop24Surf
211:   FUNC WEAK DEFAULT 14 _ZNKSt3__110__function6__
212:   FUNC WEAK DEFAULT 14 _ZNSt3__110__function6__f
213:   FUNC WEAK DEFAULT 14 _ZNSt3__110__function6__f
214:   OBJECT WEAK DEFAULT 18 _ZTVNSt3__110__function6_
215:   FUNC GLOBAL DEFAULT 14 _ZN7android7sysprop24Surf
216:   FUNC WEAK DEFAULT 14 _ZNSt3__110__function6__f
217:   FUNC WEAK DEFAULT 14 _ZNSt3__110__function6__f
218:   FUNC WEAK DEFAULT 14 _ZNSt3__110__function6__f
219:   OBJECT WEAK DEFAULT 22 _ZGVZN7android8hardware11
220:   FUNC GLOBAL DEFAULT 14 _ZN7android7sysprop24Surf
221:   FUNC GLOBAL DEFAULT 14 _ZN7android7sysprop24Surf
222:   FUNC GLOBAL DEFAULT 14 _ZN7android7sysprop29defa
223:   FUNC WEAK DEFAULT 14 _ZNSt3__110__function6__f
224:   OBJECT WEAK DEFAULT 22 _ZGVZN7android8hardware11
225:   FUNC GLOBAL DEFAULT 14 _ZN7android7sysprop30colo
226:   FUNC WEAK DEFAULT 14 _ZNKSt3__110__function6__
227:   OBJECT WEAK DEFAULT 22 _ZZN7android8hardware11co
228:   OBJECT WEAK DEFAULT 22 _ZZN7android8hardware11co
229:   OBJECT WEAK DEFAULT 22 _ZGVZN7android8hardware11
230:   FUNC WEAK DEFAULT 14 _ZN7android2spINS_8hardwa
231:   FUNC GLOBAL DEFAULT 14 _ZN7android7sysprop24Surf
232:   FUNC GLOBAL DEFAULT 14 _ZN7android7sysprop35forc
233:   OBJECT WEAK DEFAULT 18 _ZTVNSt3__110__function6_
234:   FUNC WEAK DEFAULT 14 _ZN7android2spINS_8hardwa
235:   FUNC WEAK DEFAULT 14 _ZNSt3__110__function6__f
236:   FUNC WEAK DEFAULT 14 _ZNSt3__110__function6__f
237:   OBJECT WEAK DEFAULT 18 _ZTVNSt3__110__function6_
238:   OBJECT WEAK DEFAULT 22 _ZGVZN7android8hardware11
239:   FUNC GLOBAL DEFAULT 14 _ZN7android7sysprop24Surf
240:   FUNC GLOBAL DEFAULT 14 _ZN7android7sysprop24Surf
241:   FUNC WEAK DEFAULT 14 _ZNSt3__124__put_characte
242:   OBJECT WEAK DEFAULT 18 _ZTVNSt3__110__function6_
243:   OBJECT WEAK DEFAULT 22 _ZZN7android8hardware11co
244:   OBJECT WEAK DEFAULT 22 _ZGVZN7android8hardware11
245:   FUNC GLOBAL DEFAULT 14 _ZN7android7sysprop24Surf
246:   FUNC WEAK DEFAULT 14 _ZNKSt3__110__function6__
247:   FUNC GLOBAL DEFAULT 14 _ZN7android7sysprop24Surf
248:   FUNC GLOBAL DEFAULT 14 _ZN7android7sysprop33pres
249:   FUNC GLOBAL DEFAULT 14 _ZN7android7sysprop24Surf
250:   FUNC GLOBAL DEFAULT 14 _ZN7android7sysprop26set_
251:   FUNC WEAK DEFAULT 14 _ZN7android8hardware11con
252:   FUNC WEAK DEFAULT 14 _ZNKSt3__110__function6__
253:   FUNC WEAK DEFAULT 14 _ZNSt3__110__function6__f
254:   FUNC WEAK DEFAULT 14 _ZNKSt3__110__function6__
255:   FUNC WEAK DEFAULT 14 _ZNSt3__115basic_stringbu
256:   OBJECT WEAK DEFAULT 18 _ZTVNSt3__119basic_ostrin
257:   FUNC GLOBAL DEFAULT 14 _ZN7android7sysprop24Surf
258:   FUNC GLOBAL DEFAULT 14 _ZN7android7sysprop24Surf
