 0x000000000000000e (SONAME)             Library soname: [libstagefright_xmlparser.so]
  
Symbol   contains 168 entries:
Num:   Type Bind Vis Ndx Name
0:   NOTYPE LOCAL DEFAULT UND
1:   FUNC GLOBAL DEFAULT UND __cxa_finalize@LIBC (2)
2:   FUNC GLOBAL DEFAULT UND XML_ErrorString
3:   FUNC GLOBAL DEFAULT UND XML_GetBuffer
4:   FUNC GLOBAL DEFAULT UND XML_GetCurrentLineNumber
5:   FUNC GLOBAL DEFAULT UND XML_GetErrorCode
6:   FUNC GLOBAL DEFAULT UND XML_ParseBuffer
7:   FUNC GLOBAL DEFAULT UND XML_ParserCreate
8:   FUNC GLOBAL DEFAULT UND XML_ParserFree
9:   FUNC GLOBAL DEFAULT UND XML_SetElementHandler
10:   FUNC GLOBAL DEFAULT UND XML_SetUserData
11:   FUNC GLOBAL DEFAULT UND _ZN7android16GetComponent
12:   FUNC GLOBAL DEFAULT UND _ZN7android4base10LogMess
13:   FUNC GLOBAL DEFAULT UND _ZN7android4base10LogMess
14:   FUNC GLOBAL DEFAULT UND _ZN7android4base10LogMess
15:   FUNC GLOBAL DEFAULT UND _ZNKSt3__112basic_stringI
16:   FUNC GLOBAL DEFAULT UND _ZNKSt3__112basic_stringI
17:   FUNC GLOBAL DEFAULT UND _ZNKSt3__112basic_stringI
18:   FUNC GLOBAL DEFAULT UND _ZNKSt3__119__shared_weak
19:   FUNC GLOBAL DEFAULT UND _ZNKSt3__120__vector_base
20:   FUNC GLOBAL DEFAULT UND _ZNKSt3__121__basic_strin
21:   FUNC GLOBAL DEFAULT UND _ZNKSt3__16locale9use_fac
22:   FUNC GLOBAL DEFAULT UND _ZNKSt3__18ios_base6getlo
23:   FUNC GLOBAL DEFAULT UND _ZNSt3__112basic_stringIc
24:   FUNC GLOBAL DEFAULT UND _ZNSt3__112basic_stringIc
25:   FUNC GLOBAL DEFAULT UND _ZNSt3__112basic_stringIc
26:   FUNC GLOBAL DEFAULT UND _ZNSt3__112basic_stringIc
27:   FUNC GLOBAL DEFAULT UND _ZNSt3__112basic_stringIc
28:   FUNC GLOBAL DEFAULT UND _ZNSt3__112basic_stringIc
29:   FUNC GLOBAL DEFAULT UND _ZNSt3__112basic_stringIc
30:   FUNC GLOBAL DEFAULT UND _ZNSt3__112basic_stringIc
31:   FUNC GLOBAL DEFAULT UND _ZNSt3__112basic_stringIc
32:   FUNC GLOBAL DEFAULT UND _ZNSt3__112basic_stringIc
33:   FUNC GLOBAL DEFAULT UND _ZNSt3__113basic_ostreamI
34:   FUNC GLOBAL DEFAULT UND _ZNSt3__113basic_ostreamI
35:   FUNC GLOBAL DEFAULT UND _ZNSt3__113basic_ostreamI
36:   FUNC GLOBAL DEFAULT UND _ZNSt3__119__shared_weak_
37:   FUNC GLOBAL DEFAULT UND _ZNSt3__119__shared_weak_
38:   OBJECT GLOBAL DEFAULT UND _ZNSt3__15ctypeIcE2idE
39:   FUNC GLOBAL DEFAULT UND _ZNSt3__15mutex4lockEv
40:   FUNC GLOBAL DEFAULT UND _ZNSt3__15mutex6unlockEv
41:   FUNC GLOBAL DEFAULT UND _ZNSt3__15mutexD1Ev
42:   FUNC GLOBAL DEFAULT UND _ZNSt3__16localeD1Ev
43:   FUNC GLOBAL DEFAULT UND _ZNSt3__18ios_base5clearE
44:   FUNC GLOBAL DEFAULT UND _ZNSt3__1plIcNS_11char_tr
45:   FUNC GLOBAL DEFAULT UND _ZdlPv
46:   FUNC GLOBAL DEFAULT UND _Znwm
47:   FUNC GLOBAL DEFAULT UND __android_log_assert@LIBLOG (3)
48:   FUNC GLOBAL DEFAULT UND __android_log_print@LIBLOG (3)
49:   FUNC GLOBAL DEFAULT UND __memcpy_chk@LIBC (2)
50:   FUNC GLOBAL DEFAULT UND __stack_chk_fail@LIBC (2)
51:   FUNC GLOBAL DEFAULT UND __strlen_chk@LIBC (2)
52:   FUNC GLOBAL DEFAULT UND abort@LIBC (2)
53:   FUNC GLOBAL DEFAULT UND fclose@LIBC (2)
54:   FUNC GLOBAL DEFAULT UND fopen@LIBC (2)
55:   FUNC GLOBAL DEFAULT UND fread@LIBC (2)
56:   FUNC GLOBAL DEFAULT UND memcmp@LIBC (2)
57:   FUNC GLOBAL DEFAULT UND memcpy@LIBC (2)
58:   FUNC GLOBAL DEFAULT UND memmove@LIBC (2)
59:   FUNC GLOBAL DEFAULT UND memset@LIBC (2)
60:   FUNC GLOBAL DEFAULT UND stat@LIBC (2)
61:   FUNC GLOBAL DEFAULT UND strcasecmp@LIBC (2)
62:   FUNC GLOBAL DEFAULT UND strchrnul@LIBC_N (4)
63:   FUNC GLOBAL DEFAULT UND strcmp@LIBC (2)
64:   FUNC GLOBAL DEFAULT UND strlen@LIBC (2)
65:   FUNC GLOBAL DEFAULT UND strncmp@LIBC (2)
66:   FUNC WEAK DEFAULT UND android_set_abort_message@LIBC (2)
67:   FUNC GLOBAL DEFAULT UND write@LIBC (2)
68:   FUNC GLOBAL DEFAULT 14 _ZN7android20MediaCodecsX
69:   FUNC GLOBAL DEFAULT 14 _ZN7android20MediaCodecsX
70:   FUNC GLOBAL DEFAULT 14 _ZNK7android20MediaCodecs
71:   FUNC GLOBAL DEFAULT 14 _ZNK7android20MediaCodecs
72:   FUNC WEAK DEFAULT 14 _ZNSt3__16__treeINS_12__v
73:   FUNC GLOBAL DEFAULT 14 _ZN7android20MediaCodecsX
74:   FUNC WEAK DEFAULT 14 _ZNSt3__16__treeINS_12__v
75:   FUNC WEAK DEFAULT 14 _ZNSt3__16__treeINS_12bas
76:   FUNC GLOBAL DEFAULT 14 _ZNK7android20MediaCodecs
77:   FUNC GLOBAL DEFAULT 14 _ZNK7android20MediaCodecs
78:   FUNC WEAK DEFAULT 14 _ZNSt3__127__tree_balance
79:   FUNC WEAK DEFAULT 14 _ZNSt3__16__treeINS_12bas
80:   FUNC GLOBAL DEFAULT 14 _ZN7android20MediaCodecsX
81:   FUNC GLOBAL DEFAULT 14 _ZN7android20MediaCodecsX
82:   FUNC GLOBAL DEFAULT 14 _ZN7android20MediaCodecsX
83:   FUNC WEAK DEFAULT 14 _ZNSt3__16__treeINS_12bas
84:   FUNC WEAK DEFAULT 14 _ZNSt3__16vectorINS_12bas
85:   FUNC GLOBAL DEFAULT 14 _ZN7android20MediaCodecsX
86:   FUNC GLOBAL DEFAULT 14 _ZN7android20MediaCodecsX
87:   FUNC GLOBAL DEFAULT 14 _ZN7android20MediaCodecsX
88:   FUNC GLOBAL DEFAULT 14 _ZN7android20MediaCodecsX
89:   FUNC WEAK DEFAULT 14 _ZNSt3__16__treeINS_12__v
90:   FUNC WEAK DEFAULT 14 _ZNSt3__16__treeINS_12__v
91:   FUNC WEAK DEFAULT 14 _ZNSt3__16__treeINS_12bas
92:   FUNC GLOBAL DEFAULT 14 _ZN7android20MediaCodecsX
93:   FUNC GLOBAL DEFAULT 14 _ZNK7android20MediaCodecs
94:   FUNC GLOBAL DEFAULT 14 _ZNK7android20MediaCodecs
95:   FUNC WEAK DEFAULT 14 _ZNSt3__16__treeINS_12__v
96:   FUNC WEAK DEFAULT 14 _ZNSt3__16__treeINS_12__v
97:   FUNC WEAK DEFAULT 14 _ZNSt3__16__treeINS_12__v
98:   FUNC WEAK DEFAULT 14 _ZNSt3__16vectorIN7androi
99:   FUNC GLOBAL DEFAULT 14 _ZN7android20MediaCodecsX
100:   FUNC GLOBAL DEFAULT 14 _ZN7android20MediaCodecsX
101:   FUNC GLOBAL DEFAULT 14 _ZN7android20MediaCodecsX
102:   FUNC WEAK DEFAULT 14 _ZNSt3__113__vector_baseI
103:   FUNC WEAK DEFAULT 14 _ZNSt3__16__treeINS_12__v
104:   FUNC WEAK DEFAULT 14 _ZNSt3__16__treeINS_12__v
105:   FUNC WEAK DEFAULT 14 _ZNSt3__16__treeINS_12__v
106:   FUNC WEAK DEFAULT 14 _ZNSt3__16__treeINS_12bas
107:   FUNC WEAK DEFAULT 14 _ZNSt3__16__treeINS_12bas
108:   OBJECT WEAK DEFAULT 18 _ZN7android20MediaCodecsX
109:   FUNC GLOBAL DEFAULT 14 _ZN7android20MediaCodecsX
110:   FUNC GLOBAL DEFAULT 14 _ZN7android20MediaCodecsX
111:   FUNC GLOBAL DEFAULT 14 _ZNK7android20MediaCodecs
112:   FUNC WEAK DEFAULT 14 _ZNSt3__16__treeINS_12__v
113:   FUNC WEAK DEFAULT 14 _ZNSt3__16vectorIN7androi
114:   FUNC WEAK DEFAULT 14 _ZNSt3__16vectorIN7androi
115:   FUNC WEAK DEFAULT 14 _ZNSt3__16vectorINS_12bas
116:   FUNC GLOBAL DEFAULT 14 _ZN7android20MediaCodecsX
117:   FUNC GLOBAL DEFAULT 14 _ZN7android20MediaCodecsX
118:   FUNC GLOBAL DEFAULT 14 _ZN7android20MediaCodecsX
119:   FUNC WEAK DEFAULT 14 _ZNSt3__120__shared_ptr_p
120:   FUNC WEAK DEFAULT 14 _ZNSt3__16__treeINS_12__v
121:   FUNC WEAK DEFAULT 14 _ZNSt3__16__treeINS_12__v
122:   FUNC WEAK DEFAULT 14 _ZNSt3__16__treeINS_12__v
123:   FUNC WEAK DEFAULT 14 _ZNSt3__16__treeINS_12bas
124:   FUNC WEAK DEFAULT 14 _ZNSt3__16vectorINS_12bas
125:   FUNC WEAK DEFAULT 14 _ZNKSt3__16__treeINS_12ba
126:   FUNC WEAK DEFAULT 14 _ZNSt3__113__tree_removeI
127:   FUNC WEAK DEFAULT 14 _ZNSt3__120__shared_ptr_p
128:   FUNC WEAK DEFAULT 14 _ZNSt3__16__treeINS_12__v
129:   FUNC GLOBAL DEFAULT 14 _ZN7android20MediaCodecsX
130:   FUNC GLOBAL DEFAULT 14 _ZN7android20MediaCodecsX
131:   FUNC GLOBAL DEFAULT 14 _ZNK7android20MediaCodecs
132:   FUNC WEAK DEFAULT 14 _ZNSt3__16__treeINS_12bas
133:   FUNC WEAK DEFAULT 14 _ZNSt3__16vectorINS_3setI
134:   FUNC GLOBAL DEFAULT 14 _ZN7android20MediaCodecsX
135:   FUNC WEAK DEFAULT 14 _ZNSt3__16__treeINS_12bas
136:   FUNC GLOBAL DEFAULT 14 _ZN7android20MediaCodecsX
137:   FUNC WEAK DEFAULT 14 _ZNSt3__16vectorINS_3setI
138:   FUNC GLOBAL DEFAULT 14 _ZN7android20MediaCodecsX
139:   FUNC GLOBAL DEFAULT 14 _ZNK7android20MediaCodecs
140:   FUNC WEAK DEFAULT 14 _ZNSt3__16__treeINS_12bas
141:   FUNC WEAK DEFAULT 14 _ZNSt3__16vectorIN7androi
142:   FUNC WEAK DEFAULT 14 _ZNSt3__16vectorINS_4pair
143:   FUNC GLOBAL DEFAULT 14 _ZN7android20MediaCodecsX
144:   FUNC GLOBAL DEFAULT 14 _ZN7android20MediaCodecsX
145:   FUNC GLOBAL DEFAULT 14 _ZNK7android20MediaCodecs
146:   FUNC WEAK DEFAULT 14 _ZNSt3__16vectorIN7androi
147:   FUNC WEAK DEFAULT 14 _ZNSt3__16vectorINS_4pair
148:   FUNC GLOBAL DEFAULT 14 _ZN7android20MediaCodecsX
149:   FUNC WEAK DEFAULT 14 _ZNSt3__16__treeINS_12__v
150:   FUNC WEAK DEFAULT 14 _ZNSt3__16__treeINS_12__v
151:   FUNC GLOBAL DEFAULT 14 _ZN7android20MediaCodecsX
152:   FUNC GLOBAL DEFAULT 14 _ZN7android20MediaCodecsX
153:   FUNC WEAK DEFAULT 14 _ZNSt3__16__treeINS_12__v
154:   FUNC GLOBAL DEFAULT 14 _ZN7android20MediaCodecsX
155:   FUNC WEAK DEFAULT 14 _ZNSt3__124__put_characte
156:   FUNC WEAK DEFAULT 14 _ZNSt3__16__treeINS_12__v
157:   OBJECT WEAK DEFAULT 18 _ZTVNSt3__120__shared_ptr
158:   FUNC GLOBAL DEFAULT 14 _ZN7android20MediaCodecsX
159:   FUNC GLOBAL DEFAULT 14 _ZN7android20MediaCodecsX
160:   FUNC GLOBAL DEFAULT 14 _ZN7android20MediaCodecsX
161:   FUNC GLOBAL DEFAULT 14 _ZNK7android20MediaCodecs
162:   FUNC WEAK DEFAULT 14 _ZNSt3__16vectorINS_4pair
163:   FUNC WEAK DEFAULT 14 _ZNSt3__16__treeINS_12__v
164:   FUNC WEAK DEFAULT 14 _ZNSt3__16__treeINS_12__v
165:   FUNC WEAK DEFAULT 14 _ZNSt3__16__treeINS_12bas
166:   FUNC WEAK DEFAULT 14 _ZNSt3__16__treeINS_12bas
167:   FUNC WEAK DEFAULT 14 _ZNSt3__16vectorIN7androi
