 0x000000000000000e (SONAME)             Library soname: [libaudioutils.so]
  
Symbol   contains 269 entries:
Num:   Type Bind Vis Ndx Name
0:   NOTYPE LOCAL DEFAULT UND
1:   FUNC GLOBAL DEFAULT UND __cxa_finalize@LIBC (2)
2:   FUNC GLOBAL DEFAULT UND _ZNKSt3__120__vector_base
3:   FUNC GLOBAL DEFAULT UND _ZNKSt3__121__basic_strin
4:   FUNC GLOBAL DEFAULT UND _ZNKSt3__16locale9use_fac
5:   FUNC GLOBAL DEFAULT UND _ZNKSt3__18ios_base6getlo
6:   FUNC GLOBAL DEFAULT UND _ZNSt3__112basic_stringIc
7:   FUNC GLOBAL DEFAULT UND _ZNSt3__112basic_stringIc
8:   FUNC GLOBAL DEFAULT UND _ZNSt3__113basic_istreamI
9:   FUNC GLOBAL DEFAULT UND _ZNSt3__113basic_istreamI
10:   FUNC GLOBAL DEFAULT UND _ZNSt3__113basic_ostreamI
11:   FUNC GLOBAL DEFAULT UND _ZNSt3__113basic_ostreamI
12:   FUNC GLOBAL DEFAULT UND _ZNSt3__113basic_ostreamI
13:   FUNC GLOBAL DEFAULT UND _ZNSt3__113basic_ostreamI
14:   FUNC GLOBAL DEFAULT UND _ZNSt3__113basic_ostreamI
15:   FUNC GLOBAL DEFAULT UND _ZNSt3__113basic_ostreamI
16:   FUNC GLOBAL DEFAULT UND _ZNSt3__114basic_iostream
17:   FUNC GLOBAL DEFAULT UND _ZNSt3__114basic_iostream
18:   FUNC GLOBAL DEFAULT UND _ZNSt3__114basic_iostream
19:   FUNC GLOBAL DEFAULT UND _ZNSt3__115basic_streambu
20:   FUNC GLOBAL DEFAULT UND _ZNSt3__115basic_streambu
21:   FUNC GLOBAL DEFAULT UND _ZNSt3__115basic_streambu
22:   FUNC GLOBAL DEFAULT UND _ZNSt3__115basic_streambu
23:   FUNC GLOBAL DEFAULT UND _ZNSt3__115basic_streambu
24:   FUNC GLOBAL DEFAULT UND _ZNSt3__115basic_streambu
25:   FUNC GLOBAL DEFAULT UND _ZNSt3__115basic_streambu
26:   FUNC GLOBAL DEFAULT UND _ZNSt3__115basic_streambu
27:   FUNC GLOBAL DEFAULT UND _ZNSt3__115basic_streambu
28:   OBJECT GLOBAL DEFAULT UND _ZNSt3__15ctypeIcE2idE
29:   FUNC GLOBAL DEFAULT UND _ZNSt3__16localeD1Ev
30:   FUNC GLOBAL DEFAULT UND _ZNSt3__18ios_base4initEP
31:   FUNC GLOBAL DEFAULT UND _ZNSt3__18ios_base5clearE
32:   FUNC GLOBAL DEFAULT UND _ZNSt3__19basic_iosIcNS_1
33:   FUNC GLOBAL DEFAULT UND _ZThn16_NSt3__114basic_io
34:   FUNC GLOBAL DEFAULT UND _ZThn16_NSt3__114basic_io
35:   FUNC GLOBAL DEFAULT UND _ZTv0_n24_NSt3__113basic_
36:   FUNC GLOBAL DEFAULT UND _ZTv0_n24_NSt3__113basic_
37:   FUNC GLOBAL DEFAULT UND _ZTv0_n24_NSt3__113basic_
38:   FUNC GLOBAL DEFAULT UND _ZTv0_n24_NSt3__113basic_
39:   FUNC GLOBAL DEFAULT UND _ZTv0_n24_NSt3__114basic_
40:   FUNC GLOBAL DEFAULT UND _ZTv0_n24_NSt3__114basic_
41:   FUNC GLOBAL DEFAULT UND _ZdlPv
42:   FUNC GLOBAL DEFAULT UND _Znwm
43:   FUNC GLOBAL DEFAULT UND __stack_chk_fail@LIBC (2)
44:   FUNC GLOBAL DEFAULT UND abort@LIBC (2)
45:   FUNC GLOBAL DEFAULT UND memcpy@LIBC (2)
46:   FUNC GLOBAL DEFAULT UND memmove@LIBC (2)
47:   FUNC GLOBAL DEFAULT UND memset@LIBC (2)
48:   FUNC GLOBAL DEFAULT UND _ZNSt3__113basic_ostreamI
49:   FUNC GLOBAL DEFAULT UND _ZNSt3__113basic_ostreamI
50:   FUNC GLOBAL DEFAULT UND _ZNSt3__113basic_ostreamI
51:   FUNC GLOBAL DEFAULT UND _ZNSt3__15mutex4lockEv
52:   FUNC GLOBAL DEFAULT UND _ZNSt3__15mutex6unlockEv
53:   FUNC GLOBAL DEFAULT UND _ZNSt3__15mutexD1Ev
54:   OBJECT GLOBAL DEFAULT UND _ZSt7nothrow
55:   FUNC GLOBAL DEFAULT UND _ZnwmRKSt9nothrow_t
56:   FUNC GLOBAL DEFAULT UND __errno@LIBC (2)
57:   FUNC GLOBAL DEFAULT UND __vsnprintf_chk@LIBC (2)
58:   FUNC GLOBAL DEFAULT UND __write_chk@LIBC_N (3)
59:   FUNC GLOBAL DEFAULT UND localtime_r@LIBC (2)
60:   FUNC GLOBAL DEFAULT UND strlen@LIBC (2)
61:   FUNC GLOBAL DEFAULT UND write@LIBC (2)
62:   FUNC GLOBAL DEFAULT UND __android_log_assert@LIBLOG (4)
63:   FUNC GLOBAL DEFAULT UND __android_log_print@LIBLOG (4)
64:   FUNC GLOBAL DEFAULT UND __cxa_pure_virtual
65:   FUNC GLOBAL DEFAULT UND clock_nanosleep@LIBC (2)
66:   FUNC GLOBAL DEFAULT UND syscall@LIBC (2)
67:   FUNC GLOBAL DEFAULT UND frexpf@LIBC (5)
68:   FUNC GLOBAL DEFAULT UND ldexpf@LIBC (5)
69:   FUNC GLOBAL DEFAULT UND log10f@LIBC (5)
70:   FUNC GLOBAL DEFAULT UND calloc@LIBC (2)
71:   FUNC GLOBAL DEFAULT UND free@LIBC (2)
72:   FUNC GLOBAL DEFAULT UND realloc@LIBC (2)
73:   FUNC GLOBAL DEFAULT UND speex_resampler_destroy
74:   FUNC GLOBAL DEFAULT UND speex_resampler_get_input
75:   FUNC GLOBAL DEFAULT UND speex_resampler_get_outpu
76:   FUNC GLOBAL DEFAULT UND speex_resampler_init
77:   FUNC GLOBAL DEFAULT UND speex_resampler_process_i
78:   FUNC GLOBAL DEFAULT UND speex_resampler_process_i
79:   FUNC GLOBAL DEFAULT UND speex_resampler_reset_mem
80:   FUNC GLOBAL DEFAULT UND speex_resampler_strerror
81:   FUNC GLOBAL DEFAULT UND clock_gettime@LIBC (2)
82:   FUNC GLOBAL DEFAULT UND pthread_cond_signal@LIBC (2)
83:   FUNC GLOBAL DEFAULT UND pthread_cond_timedwait@LIBC (2)
84:   FUNC GLOBAL DEFAULT UND pthread_mutex_lock@LIBC (2)
85:   FUNC GLOBAL DEFAULT UND pthread_mutex_unlock@LIBC (2)
86:   FUNC GLOBAL DEFAULT 14 memcpy_to_float_from_p24
87:   FUNC GLOBAL DEFAULT 14 memcpy_to_p24_from_q8_23
88:   FUNC GLOBAL DEFAULT 14 memcpy_to_u8_from_float
89:   FUNC GLOBAL DEFAULT 14 _ZN7android11audio_utils7
90:   FUNC GLOBAL DEFAULT 14 _ZN23audio_utils_fifo_rea
91:   FUNC GLOBAL DEFAULT 14 _ZNK21audio_utils_fifo_ba
92:   FUNC GLOBAL DEFAULT 14 _ZNK21audio_utils_fifo_ba
93:   FUNC WEAK DEFAULT 14 _ZNSt3__115basic_stringbu
94:   FUNC GLOBAL DEFAULT 14 _ZN21audio_utils_fifo_bas
95:   OBJECT GLOBAL DEFAULT 18 _ZTV23audio_utils_fifo_re
96:   FUNC GLOBAL DEFAULT 14 _ZN25audio_utils_fifo_wri
97:   FUNC GLOBAL DEFAULT 14 memcpy_to_i32_from_float
98:   FUNC GLOBAL DEFAULT 14 _ZN37RefIndexCachedLoadAc
99:   FUNC GLOBAL DEFAULT 14 memcpy_to_i32_from_p24
100:   FUNC GLOBAL DEFAULT 14 accumulate_i32
101:   FUNC GLOBAL DEFAULT 14 ditherAndClamp
102:   FUNC GLOBAL DEFAULT 14 _ZN21audio_utils_fifo_bas
103:   FUNC GLOBAL DEFAULT 14 _ZN22audio_utils_fifo_ind
104:   FUNC GLOBAL DEFAULT 14 _ZN23audio_utils_fifo_wri
105:   FUNC GLOBAL DEFAULT 14 _ZN23audio_utils_fifo_wri
106:   FUNC GLOBAL DEFAULT 14 memcpy_to_i16_from_q8_23
107:   FUNC GLOBAL DEFAULT 14 _ZN7android8PowerLogC1Ejj
108:   FUNC GLOBAL DEFAULT 14 memcpy_by_channel_mask
109:   FUNC GLOBAL DEFAULT 14 mono_blend
110:   FUNC WEAK DEFAULT 14 _ZNSt3__115basic_stringbu
111:   FUNC GLOBAL DEFAULT 14 _ZN22audio_utils_fifo_ind
112:   FUNC GLOBAL DEFAULT 14 _ZN40RefIndexDeferredStor
113:   FUNC GLOBAL DEFAULT 14 memcpy_to_i16_from_u8
114:   FUNC WEAK DEFAULT 14 _Z20audio_utils_log_plotI
115:   FUNC GLOBAL DEFAULT 14 memcpy_to_float_from_q4_2
116:   FUNC GLOBAL DEFAULT 14 nonZeroMono16
117:   FUNC GLOBAL DEFAULT 14 float_from_sample
118:   OBJECT WEAK DEFAULT 18 _ZTCNSt3__118basic_string
119:   FUNC GLOBAL DEFAULT 14 error_log_create
120:   FUNC GLOBAL DEFAULT 14 _ZN16audio_utils_fifoC1Ej
121:   FUNC GLOBAL DEFAULT 14 _ZN21audio_utils_fifo_bas
122:   FUNC GLOBAL DEFAULT 14 _ZN7android8PowerLog3logE
123:   FUNC GLOBAL DEFAULT 14 nonZeroStereo16
124:   FUNC GLOBAL DEFAULT 14 adjust_selected_channels
125:   FUNC GLOBAL DEFAULT 14 _ZN40RefIndexDeferredStor
126:   FUNC GLOBAL DEFAULT 14 _ZN40RefIndexDeferredStor
127:   FUNC GLOBAL DEFAULT 14 memcpy_by_audio_format
128:   FUNC GLOBAL DEFAULT 14 accumulate_float
129:   FUNC GLOBAL DEFAULT 14 upmix_to_stereo_i16_from_
130:   FUNC GLOBAL DEFAULT 14 _ZN23audio_utils_fifo_rea
131:   FUNC GLOBAL DEFAULT 14 echo_reference_release_bu
132:   FUNC GLOBAL DEFAULT 14 _ZN7android11audio_utils7
133:   FUNC GLOBAL DEFAULT 14 _ZN23audio_utils_fifo_rea
134:   FUNC GLOBAL DEFAULT 14 memcpy_to_i16_from_p24
135:   FUNC GLOBAL DEFAULT 14 memcpy_to_p24_from_i32
136:   FUNC GLOBAL DEFAULT 14 float_from_gain
137:   FUNC WEAK DEFAULT 14 _ZNSt3__16vectorIiNS_9all
138:   FUNC GLOBAL DEFAULT 14 _ZN23audio_utils_fifo_wri
139:   FUNC GLOBAL DEFAULT 14 _ZN37RefIndexCachedLoadAc
140:   FUNC GLOBAL DEFAULT 14 limiter
141:   FUNC GLOBAL DEFAULT 14 _ZNK7android8PowerLog12du
142:   FUNC WEAK DEFAULT 14 _ZNSt3__124__put_characte
143:   FUNC GLOBAL DEFAULT 14 _ZN23audio_utils_fifo_rea
144:   FUNC GLOBAL DEFAULT 14 release_resampler
145:   FUNC GLOBAL DEFAULT 14 adjust_channels_non_destr
146:   FUNC GLOBAL DEFAULT 14 _ZN22audio_utils_fifo_ind
147:   FUNC GLOBAL DEFAULT 14 _ZN23audio_utils_fifo_wri
148:   FUNC GLOBAL DEFAULT 14 memcpy_to_float_from_i32
149:   FUNC GLOBAL DEFAULT 14 echo_reference_get_next_b
150:   FUNC GLOBAL DEFAULT 14 _ZN16audio_utils_fifoC2Ej
151:   FUNC GLOBAL DEFAULT 14 _ZN23audio_utils_fifo_rea
152:   FUNC GLOBAL DEFAULT 14 memcpy_to_q8_23_from_floa
153:   FUNC GLOBAL DEFAULT 14 power_log_destroy
154:   FUNC GLOBAL DEFAULT 14 _ZN40RefIndexDeferredStor
155:   FUNC GLOBAL DEFAULT 14 _ZN25audio_utils_fifo_wri
156:   FUNC GLOBAL DEFAULT 14 power_log_create
157:   FUNC GLOBAL DEFAULT 14 memcpy_to_float_from_floa
158:   FUNC GLOBAL DEFAULT 14 resampler_resample_from_i
159:   OBJECT WEAK DEFAULT 18 _ZTVNSt3__115basic_string
160:   FUNC GLOBAL DEFAULT 14 _ZN16audio_utils_fifoC2Ej
161:   FUNC GLOBAL DEFAULT 14 _ZNK23audio_utils_fifo_wr
162:   FUNC GLOBAL DEFAULT 14 roundup
163:   FUNC GLOBAL DEFAULT 14 _ZNK7android8PowerLog4dum
164:   FUNC GLOBAL DEFAULT 14 resampler_resample_from_p
165:   FUNC WEAK DEFAULT 14 _ZNSt3__16vectorIfNS_9all
166:   OBJECT WEAK DEFAULT 18 _ZTVNSt3__118basic_string
167:   FUNC GLOBAL DEFAULT 14 _ZN25audio_utils_fifo_pro
168:   FUNC GLOBAL DEFAULT 14 _ZN40RefIndexDeferredStor
169:   FUNC GLOBAL DEFAULT 14 audio_utils_is_compute_po
170:   FUNC GLOBAL DEFAULT 14 _ZN23audio_utils_fifo_rea
171:   FUNC GLOBAL DEFAULT 14 _ZN23audio_utils_fifo_rea
172:   FUNC GLOBAL DEFAULT 14 _ZN23audio_utils_fifo_wri
173:   FUNC GLOBAL DEFAULT 14 memcpy_to_float_from_q8_2
174:   FUNC GLOBAL DEFAULT 14 memcpy_to_u8_from_i16
175:   FUNC GLOBAL DEFAULT 14 _ZN16audio_utils_fifoD1Ev
176:   OBJECT GLOBAL DEFAULT 18 _ZTV23audio_utils_fifo_wr
177:   FUNC GLOBAL DEFAULT 14 _ZN37RefIndexCachedLoadAc
178:   FUNC GLOBAL DEFAULT 14 release_echo_reference
179:   OBJECT WEAK DEFAULT 18 _ZTCNSt3__118basic_string
180:   FUNC GLOBAL DEFAULT 14 memcpy_to_float_from_u8
181:   FUNC GLOBAL DEFAULT 14 power_log_log
182:   OBJECT GLOBAL DEFAULT 18 _ZTV25audio_utils_fifo_pr
183:   FUNC GLOBAL DEFAULT 14 _ZN40RefIndexDeferredStor
184:   FUNC GLOBAL DEFAULT 14 nonZeroMono32
185:   FUNC GLOBAL DEFAULT 14 _ZN37RefIndexCachedLoadAc
186:   FUNC GLOBAL DEFAULT 14 _ZN25audio_utils_fifo_wri
187:   FUNC GLOBAL DEFAULT 14 memcpy_to_i16_from_i32
188:   FUNC GLOBAL DEFAULT 14 memcpy_to_p24_from_float
189:   FUNC GLOBAL DEFAULT 14 _Z9fixed_fftiPi
190:   FUNC GLOBAL DEFAULT 14 fixed_fft_real
191:   FUNC GLOBAL DEFAULT 14 _ZN23audio_utils_fifo_rea
192:   FUNC GLOBAL DEFAULT 14 nonZeroStereo32
193:   FUNC GLOBAL DEFAULT 14 create_echo_reference
194:   FUNC WEAK DEFAULT 14 _ZNSt3__16vectorIfNS_9all
195:   OBJECT WEAK DEFAULT 18 _ZTCNSt3__118basic_string
196:   FUNC GLOBAL DEFAULT 14 _ZN23audio_utils_fifo_wri
197:   FUNC GLOBAL DEFAULT 14 _ZN40RefIndexDeferredStor
198:   FUNC GLOBAL DEFAULT 14 audio_utils_compute_power
199:   FUNC GLOBAL DEFAULT 14 _ZNK7android11audio_utils
200:   FUNC GLOBAL DEFAULT 14 _ZN23audio_utils_fifo_wri
201:   OBJECT WEAK DEFAULT 18 _ZTTNSt3__118basic_string
202:   FUNC GLOBAL DEFAULT 14 error_log_destroy
203:   FUNC GLOBAL DEFAULT 14 _ZN23audio_utils_fifo_rea
204:   FUNC GLOBAL DEFAULT 14 _ZN25audio_utils_fifo_pro
205:   FUNC GLOBAL DEFAULT 14 _ZNK23audio_utils_fifo_re
206:   FUNC GLOBAL DEFAULT 14 _ZN40RefIndexDeferredStor
207:   FUNC GLOBAL DEFAULT 14 memcpy_to_i16_from_float
208:   FUNC GLOBAL DEFAULT 14 _ZN23audio_utils_fifo_rea
209:   FUNC GLOBAL DEFAULT 14 gain_from_float
210:   FUNC GLOBAL DEFAULT 14 _ZN16audio_utils_fifoD2Ev
211:   FUNC GLOBAL DEFAULT 14 _ZN7android8PowerLogC2Ejj
212:   FUNC WEAK DEFAULT 14 _ZNSt3__16vectorINS_4pair
213:   FUNC GLOBAL DEFAULT 14 accumulate_q8_23
214:   FUNC GLOBAL DEFAULT 14 power_log_dump
215:   FUNC GLOBAL DEFAULT 14 accumulate_i16
216:   FUNC GLOBAL DEFAULT 14 _ZNK21audio_utils_fifo_ba
217:   FUNC GLOBAL DEFAULT 14 memcpy_by_index_array_ini
218:   FUNC GLOBAL DEFAULT 14 memcpy_to_q8_23_from_i16
219:   FUNC GLOBAL DEFAULT 14 _ZN7android11audio_utils7
220:   FUNC WEAK DEFAULT 14 _ZNSt3__115basic_stringbu
221:   FUNC GLOBAL DEFAULT 14 error_log_log
222:   FUNC GLOBAL DEFAULT 14 _ZN23audio_utils_fifo_rea
223:   FUNC GLOBAL DEFAULT 14 _ZNK23audio_utils_fifo_wr
224:   FUNC GLOBAL DEFAULT 14 _ZN25audio_utils_fifo_wri
225:   FUNC GLOBAL DEFAULT 14 accumulate_u8
226:   FUNC GLOBAL DEFAULT 14 _ZN22audio_utils_fifo_ind
227:   FUNC GLOBAL DEFAULT 14 memcpy_by_index_array_ini
228:   FUNC GLOBAL DEFAULT 14 accumulate_p24
229:   FUNC GLOBAL DEFAULT 14 memcpy_to_i16_from_q4_27
230:   FUNC GLOBAL DEFAULT 14 sample_from_float
231:   FUNC WEAK DEFAULT 14 _ZNKSt3__115basic_stringb
232:   FUNC GLOBAL DEFAULT 14 _ZN16audio_utils_fifoC1Ej
233:   FUNC GLOBAL DEFAULT 14 _ZN23audio_utils_fifo_wri
234:   FUNC GLOBAL DEFAULT 14 _ZN25audio_utils_fifo_pro
235:   FUNC GLOBAL DEFAULT 14 _ZN37RefIndexCachedLoadAc
236:   FUNC GLOBAL DEFAULT 14 memcpy_to_q8_23_from_p24
237:   FUNC GLOBAL DEFAULT 14 upmix_to_stereo_float_fro
238:   FUNC GLOBAL DEFAULT 14 adjust_channels
239:   FUNC GLOBAL DEFAULT 14 _ZN23audio_utils_fifo_rea
240:   FUNC GLOBAL DEFAULT 14 _ZN40RefIndexDeferredStor
241:   FUNC GLOBAL DEFAULT 14 memcpy_to_q4_27_from_floa
242:   FUNC GLOBAL DEFAULT 14 create_resampler
243:   FUNC GLOBAL DEFAULT 14 _ZN21audio_utils_fifo_bas
244:   FUNC GLOBAL DEFAULT 14 _ZN22audio_utils_fifo_ind
245:   FUNC GLOBAL DEFAULT 14 _ZN25audio_utils_fifo_pro
246:   FUNC GLOBAL DEFAULT 14 memcpy_to_p24_from_i16
247:   FUNC GLOBAL DEFAULT 14 _ZN23audio_utils_fifo_rea
248:   FUNC GLOBAL DEFAULT 14 _ZN23audio_utils_fifo_wri
249:   FUNC GLOBAL DEFAULT 14 _ZN37RefIndexCachedLoadAc
250:   FUNC WEAK DEFAULT 14 _ZNSt3__16vectorINS_4pair
251:   FUNC GLOBAL DEFAULT 14 downmix_to_mono_float_fro
252:   FUNC GLOBAL DEFAULT 14 _ZNK7android11audio_utils
253:   FUNC GLOBAL DEFAULT 14 _ZN23audio_utils_fifo_wri
254:   FUNC GLOBAL DEFAULT 14 memcpy_to_i32_from_u8
255:   FUNC GLOBAL DEFAULT 14 _ZN40RefIndexDeferredStor
256:   FUNC GLOBAL DEFAULT 14 memcpy_to_float_from_i16
257:   FUNC GLOBAL DEFAULT 14 _ZN23audio_utils_fifo_wri
258:   FUNC GLOBAL DEFAULT 14 _ZN37RefIndexCachedLoadAc
259:   FUNC GLOBAL DEFAULT 14 memcpy_by_index_array
260:   FUNC WEAK DEFAULT 14 _ZNSt3__115basic_stringbu
261:   FUNC GLOBAL DEFAULT 14 error_log_dump
262:   FUNC GLOBAL DEFAULT 14 _ZN25audio_utils_fifo_wri
263:   FUNC GLOBAL DEFAULT 14 memcpy_by_index_array_ini
264:   FUNC GLOBAL DEFAULT 14 downmix_to_mono_i16_from_
265:   FUNC GLOBAL DEFAULT 14 _ZN37RefIndexCachedLoadAc
266:   FUNC GLOBAL DEFAULT 14 memcpy_by_index_array_ini
267:   FUNC GLOBAL DEFAULT 14 memcpy_to_i32_from_i16
268:   FUNC GLOBAL DEFAULT 14 audio_utils_compute_energ
