 0x0000000e (SONAME)                     Library soname: [ld-android.so]
  
Symbol   contains 25 entries:
Num:   Type Bind Vis Ndx Name
0:   NOTYPE LOCAL DEFAULT UND
1:   FUNC GLOBAL DEFAULT 6 __loader_android_get_LD_L
2:   FUNC GLOBAL DEFAULT 6 __loader_android_set_appl
3:   FUNC GLOBAL DEFAULT 6 __loader_dl_unwind_find_e
4:   FUNC GLOBAL DEFAULT 6 __loader_dladdr
5:   FUNC GLOBAL DEFAULT 6 __loader_dlclose
6:   FUNC GLOBAL DEFAULT 6 __loader_android_get_appl
7:   FUNC GLOBAL DEFAULT 6 __loader_cfi_fail
8:   FUNC GLOBAL DEFAULT 6 __loader_android_dlopen_e
9:   FUNC GLOBAL DEFAULT 6 __loader_android_dlwarnin
10:   FUNC GLOBAL DEFAULT 6 __loader_android_init_ano
11:   FUNC GLOBAL DEFAULT 6 __loader_dl_iterate_phdr
12:   FUNC GLOBAL DEFAULT 6 __loader_shared_globals
13:   FUNC GLOBAL DEFAULT 6 __loader_android_link_nam
14:   FUNC GLOBAL DEFAULT 6 __loader_dlsym
15:   FUNC GLOBAL DEFAULT 6 __loader_dlvsym
16:   FUNC GLOBAL DEFAULT 6 __loader_remove_thread_lo
17:   FUNC GLOBAL DEFAULT 6 rtld_db_dlactivity
18:   FUNC GLOBAL DEFAULT 6 __loader_add_thread_local
19:   FUNC GLOBAL DEFAULT 6 __loader_android_create_n
20:   FUNC GLOBAL DEFAULT 6 __loader_android_get_expo
21:   FUNC GLOBAL DEFAULT 6 __loader_android_link_nam
22:   FUNC GLOBAL DEFAULT 6 __loader_android_update_L
23:   FUNC GLOBAL DEFAULT 6 __loader_dlerror
24:   FUNC GLOBAL DEFAULT 6 __loader_dlopen
