 0x000000000000000e (SONAME)             Library soname: [android.hardware.media.bufferpool@2.0.so]
  
Symbol   contains 448 entries:
Num:   Type Bind Vis Ndx Name
0:   NOTYPE LOCAL DEFAULT UND
1:   FUNC GLOBAL DEFAULT UND __cxa_finalize@LIBC (2)
2:   FUNC GLOBAL DEFAULT UND _ZN7android14sp_report_ra
3:   FUNC GLOBAL DEFAULT UND _ZN7android21report_syspr
4:   OBJECT GLOBAL DEFAULT UND _ZN7android4hidl4base4V1_
5:   FUNC GLOBAL DEFAULT UND _ZN7android4hidl4base4V1_
6:   FUNC GLOBAL DEFAULT UND _ZN7android4hidl4base4V1_
7:   FUNC GLOBAL DEFAULT UND _ZN7android4hidl4base4V1_
8:   FUNC GLOBAL DEFAULT UND _ZN7android4hidl4base4V1_
9:   FUNC GLOBAL DEFAULT UND _ZN7android4hidl4base4V1_
10:   FUNC GLOBAL DEFAULT UND _ZN7android4hidl4base4V1_
11:   FUNC GLOBAL DEFAULT UND _ZN7android4hidl4base4V1_
12:   FUNC GLOBAL DEFAULT UND _ZN7android4hidl4base4V1_
13:   FUNC GLOBAL DEFAULT UND _ZN7android4hidl4base4V1_
14:   FUNC GLOBAL DEFAULT UND _ZN7android4hidl4base4V1_
15:   FUNC GLOBAL DEFAULT UND _ZN7android4hidl4base4V1_
16:   FUNC GLOBAL DEFAULT UND _ZN7android4hidl4base4V1_
17:   FUNC GLOBAL DEFAULT UND _ZN7android4hidl4base4V1_
18:   FUNC GLOBAL DEFAULT UND _ZN7android4hidl4base4V1_
19:   FUNC GLOBAL DEFAULT UND _ZN7android4hidl4base4V1_
20:   FUNC GLOBAL DEFAULT UND _ZN7android4hidl4base4V1_
21:   FUNC GLOBAL DEFAULT UND _ZN7android4hidl4base4V1_
22:   FUNC GLOBAL DEFAULT UND _ZN7android4hidl4base4V1_
23:   FUNC GLOBAL DEFAULT UND _ZN7android4hidl4base4V1_
24:   FUNC GLOBAL DEFAULT UND _ZN7android4hidl4base4V1_
25:   FUNC GLOBAL DEFAULT UND _ZN7android4hidl4base4V1_
26:   FUNC GLOBAL DEFAULT UND _ZN7android4hidl4base4V1_
27:   FUNC GLOBAL DEFAULT UND _ZN7android4hidl4base4V1_
28:   FUNC GLOBAL DEFAULT UND _ZN7android7RefBase10onFi
29:   FUNC GLOBAL DEFAULT UND _ZN7android7RefBase12weak
30:   FUNC GLOBAL DEFAULT UND _ZN7android7RefBase13onLa
31:   FUNC GLOBAL DEFAULT UND _ZN7android7RefBase15onLa
32:   FUNC GLOBAL DEFAULT UND _ZN7android7RefBase20onIn
33:   FUNC GLOBAL DEFAULT UND _ZN7android7RefBaseC2Ev
34:   FUNC GLOBAL DEFAULT UND _ZN7android7RefBaseD2Ev
35:   FUNC GLOBAL DEFAULT UND _ZN7android8hardware10IIn
36:   FUNC GLOBAL DEFAULT UND _ZN7android8hardware10IIn
37:   FUNC GLOBAL DEFAULT UND _ZN7android8hardware10IIn
38:   FUNC GLOBAL DEFAULT UND _ZN7android8hardware10IIn
39:   FUNC GLOBAL DEFAULT UND _ZN7android8hardware10IIn
40:   FUNC GLOBAL DEFAULT UND _ZN7android8hardware11BpH
41:   FUNC GLOBAL DEFAULT UND _ZN7android8hardware11BpH
42:   FUNC GLOBAL DEFAULT UND _ZN7android8hardware11BpH
43:   FUNC GLOBAL DEFAULT UND _ZN7android8hardware11BpH
44:   FUNC GLOBAL DEFAULT UND _ZN7android8hardware11BpH
45:   FUNC GLOBAL DEFAULT UND _ZN7android8hardware11BpH
46:   FUNC GLOBAL DEFAULT UND _ZN7android8hardware11BpH
47:   FUNC GLOBAL DEFAULT UND _ZN7android8hardware11hid
48:   FUNC GLOBAL DEFAULT UND _ZN7android8hardware11hid
49:   FUNC GLOBAL DEFAULT UND _ZN7android8hardware11hid
50:   FUNC GLOBAL DEFAULT UND _ZN7android8hardware11hid
51:   FUNC GLOBAL DEFAULT UND _ZN7android8hardware11hid
52:   FUNC GLOBAL DEFAULT UND _ZN7android8hardware12Pro
53:   FUNC GLOBAL DEFAULT UND _ZN7android8hardware12Pro
54:   FUNC GLOBAL DEFAULT UND _ZN7android8hardware13wri
55:   FUNC GLOBAL DEFAULT UND _ZN7android8hardware14rea
56:   FUNC GLOBAL DEFAULT UND _ZN7android8hardware21def
57:   FUNC GLOBAL DEFAULT UND _ZN7android8hardware23get
58:   FUNC GLOBAL DEFAULT UND _ZN7android8hardware27hid
59:   FUNC GLOBAL DEFAULT UND _ZN7android8hardware27hid
60:   FUNC GLOBAL DEFAULT UND _ZN7android8hardware6Parc
61:   FUNC GLOBAL DEFAULT UND _ZN7android8hardware6Parc
62:   FUNC GLOBAL DEFAULT UND _ZN7android8hardware6Parc
63:   FUNC GLOBAL DEFAULT UND _ZN7android8hardware6Parc
64:   FUNC GLOBAL DEFAULT UND _ZN7android8hardware6Parc
65:   FUNC GLOBAL DEFAULT UND _ZN7android8hardware6Parc
66:   FUNC GLOBAL DEFAULT UND _ZN7android8hardware6Parc
67:   FUNC GLOBAL DEFAULT UND _ZN7android8hardware6Parc
68:   FUNC GLOBAL DEFAULT UND _ZN7android8hardware6Parc
69:   FUNC GLOBAL DEFAULT UND _ZN7android8hardware6Parc
70:   FUNC GLOBAL DEFAULT UND _ZN7android8hardware6Stat
71:   FUNC GLOBAL DEFAULT UND _ZN7android8hardware6Stat
72:   FUNC GLOBAL DEFAULT UND _ZN7android8hardware6Stat
73:   FUNC GLOBAL DEFAULT UND _ZN7android8hardware6Stat
74:   FUNC GLOBAL DEFAULT UND _ZN7android8hardware7IBin
75:   FUNC GLOBAL DEFAULT UND _ZN7android8hardware7IBin
76:   FUNC GLOBAL DEFAULT UND _ZN7android8hardware7IBin
77:   FUNC GLOBAL DEFAULT UND _ZN7android8hardware7IBin
78:   FUNC GLOBAL DEFAULT UND _ZN7android8hardware7deta
79:   FUNC GLOBAL DEFAULT UND _ZN7android8hardware7deta
80:   FUNC GLOBAL DEFAULT UND _ZN7android8hardware7deta
81:   FUNC GLOBAL DEFAULT UND _ZN7android8hardware7deta
82:   FUNC GLOBAL DEFAULT UND _ZN7android8hardware7deta
83:   FUNC GLOBAL DEFAULT UND _ZN7android8hardware7deta
84:   FUNC GLOBAL DEFAULT UND _ZN7android8hardware7deta
85:   OBJECT GLOBAL DEFAULT UND _ZN7android8hardware7deta
86:   FUNC GLOBAL DEFAULT UND _ZN7android8hardware7deta
87:   OBJECT GLOBAL DEFAULT UND _ZN7android8hardware7deta
88:   FUNC GLOBAL DEFAULT UND _ZN7android8hardware7deta
89:   FUNC GLOBAL DEFAULT UND _ZN7android8hardware7deta
90:   FUNC GLOBAL DEFAULT UND _ZN7android8hardware7deta
91:   FUNC GLOBAL DEFAULT UND _ZN7android8hardware7deta
92:   FUNC GLOBAL DEFAULT UND _ZN7android8hardware7deta
93:   FUNC GLOBAL DEFAULT UND _ZN7android8hardware7deta
94:   FUNC GLOBAL DEFAULT UND _ZN7android8hardware7deta
95:   FUNC GLOBAL DEFAULT UND _ZN7android8hardware7deta
96:   FUNC GLOBAL DEFAULT UND _ZN7android8hardware7deta
97:   FUNC GLOBAL DEFAULT UND _ZN7android8hardware7deta
98:   OBJECT GLOBAL DEFAULT UND _ZN7android8hardware7deta
99:   FUNC GLOBAL DEFAULT UND _ZN7android8hardware9BHwB
100:   FUNC GLOBAL DEFAULT UND _ZN7android8hardware9BHwB
101:   FUNC GLOBAL DEFAULT UND _ZN7android8hardware9BHwB
102:   FUNC GLOBAL DEFAULT UND _ZN7android8hardware9BHwB
103:   FUNC GLOBAL DEFAULT UND _ZN7android8hardware9BHwB
104:   FUNC GLOBAL DEFAULT UND _ZN7android8hardware9BHwB
105:   FUNC GLOBAL DEFAULT UND _ZN7android8hardware9BHwB
106:   FUNC GLOBAL DEFAULT UND _ZN7android8hardware9BHwB
107:   FUNC GLOBAL DEFAULT UND _ZN7android8hardware9BHwB
108:   FUNC GLOBAL DEFAULT UND _ZN7android8hardware9BHwB
109:   FUNC GLOBAL DEFAULT UND _ZNK7android7RefBase10cre
110:   FUNC GLOBAL DEFAULT UND _ZNK7android7RefBase11get
111:   FUNC GLOBAL DEFAULT UND _ZNK7android7RefBase9decS
112:   FUNC GLOBAL DEFAULT UND _ZNK7android7RefBase9incS
113:   FUNC GLOBAL DEFAULT UND _ZNK7android8hardware6Par
114:   FUNC GLOBAL DEFAULT UND _ZNK7android8hardware6Par
115:   FUNC GLOBAL DEFAULT UND _ZNK7android8hardware6Par
116:   FUNC GLOBAL DEFAULT UND _ZNK7android8hardware6Par
117:   FUNC GLOBAL DEFAULT UND _ZNK7android8hardware6Par
118:   FUNC GLOBAL DEFAULT UND _ZNK7android8hardware6Par
119:   FUNC GLOBAL DEFAULT UND _ZNK7android8hardware6Par
120:   FUNC GLOBAL DEFAULT UND _ZNK7android8hardware6Par
121:   FUNC GLOBAL DEFAULT UND _ZNK7android8hardware7IBi
122:   FUNC GLOBAL DEFAULT UND _ZNK7android8hardware7det
123:   FUNC GLOBAL DEFAULT UND _ZNK7android8hardware9BHw
124:   FUNC GLOBAL DEFAULT UND _ZNKSt3__120__vector_base
125:   FUNC GLOBAL DEFAULT UND _ZNKSt3__121__basic_strin
126:   FUNC GLOBAL DEFAULT UND _ZNSt3__112basic_stringIc
127:   FUNC GLOBAL DEFAULT UND _ZNSt3__112basic_stringIc
128:   FUNC GLOBAL DEFAULT UND _ZNSt3__15mutex4lockEv
129:   FUNC GLOBAL DEFAULT UND _ZNSt3__15mutex6unlockEv
130:   FUNC GLOBAL DEFAULT UND _ZNSt3__15mutexD1Ev
131:   FUNC GLOBAL DEFAULT UND _ZTv0_n24_N7android4hidl4
132:   FUNC GLOBAL DEFAULT UND _ZTv0_n24_N7android4hidl4
133:   FUNC GLOBAL DEFAULT UND _ZTv0_n24_N7android8hardw
134:   FUNC GLOBAL DEFAULT UND _ZTv0_n24_N7android8hardw
135:   FUNC GLOBAL DEFAULT UND _ZTv0_n24_N7android8hardw
136:   FUNC GLOBAL DEFAULT UND _ZTv0_n24_N7android8hardw
137:   FUNC GLOBAL DEFAULT UND _ZTv0_n24_N7android8hardw
138:   FUNC GLOBAL DEFAULT UND _ZTv0_n24_N7android8hardw
139:   FUNC GLOBAL DEFAULT UND _ZTv0_n24_N7android8hardw
140:   FUNC GLOBAL DEFAULT UND _ZTv0_n24_N7android8hardw
141:   FUNC GLOBAL DEFAULT UND _ZTv0_n32_N7android8hardw
142:   FUNC GLOBAL DEFAULT UND _ZTv0_n40_N7android8hardw
143:   FUNC GLOBAL DEFAULT UND _ZTv0_n48_N7android8hardw
144:   FUNC GLOBAL DEFAULT UND _ZdaPv
145:   FUNC GLOBAL DEFAULT UND _ZdlPv
146:   FUNC GLOBAL DEFAULT UND _Znam
147:   FUNC GLOBAL DEFAULT UND _Znwm
148:   FUNC GLOBAL DEFAULT UND __android_log_assert@LIBLOG (3)
149:   FUNC GLOBAL DEFAULT UND __cxa_pure_virtual
150:   FUNC GLOBAL DEFAULT UND __stack_chk_fail@LIBC (2)
151:   FUNC GLOBAL DEFAULT UND abort@LIBC (2)
152:   FUNC GLOBAL DEFAULT UND atrace_begin_body
153:   OBJECT GLOBAL DEFAULT UND atrace_enabled_tags
154:   FUNC GLOBAL DEFAULT UND atrace_end_body
155:   OBJECT GLOBAL DEFAULT UND atrace_is_ready
156:   FUNC GLOBAL DEFAULT UND atrace_setup
157:   FUNC GLOBAL DEFAULT UND memcmp@LIBC (2)
158:   FUNC GLOBAL DEFAULT UND memcpy@LIBC (2)
159:   FUNC GLOBAL DEFAULT UND memset@LIBC (2)
160:   FUNC GLOBAL DEFAULT UND strlen@LIBC (2)
161:   FUNC GLOBAL DEFAULT UND _ZN7android8hardware6Parc
162:   FUNC GLOBAL DEFAULT UND _ZNK7android8hardware6Par
163:   FUNC GLOBAL DEFAULT UND _ZN7android8hardware21wri
164:   FUNC GLOBAL DEFAULT UND _ZN7android8hardware22rea
165:   FUNC GLOBAL DEFAULT 14 _ZN7android8hardware5medi
166:   FUNC GLOBAL DEFAULT 14 _ZN7android8hardware5medi
167:   FUNC GLOBAL DEFAULT 14 _ZThn32_N7android8hardwar
168:   FUNC GLOBAL DEFAULT 14 _ZN7android8hardware5medi
169:   FUNC GLOBAL DEFAULT 14 _ZN7android8hardware5medi
170:   FUNC GLOBAL DEFAULT 14 _ZN7android8hardware5medi
171:   FUNC WEAK DEFAULT 14 _ZNSt3__127__tree_balance
172:   FUNC GLOBAL DEFAULT 14 _ZN7android8hardware5medi
173:   FUNC GLOBAL DEFAULT 14 _ZN7android8hardware5medi
174:   FUNC GLOBAL DEFAULT 14 _ZN7android8hardware5medi
175:   FUNC GLOBAL DEFAULT 14 _ZN7android8hardware5medi
176:   FUNC GLOBAL DEFAULT 14 _ZN7android8hardware5medi
177:   OBJECT GLOBAL DEFAULT 18 _ZTTN7android8hardware5me
178:   FUNC GLOBAL DEFAULT 14 _ZN7android8hardware5medi
179:   OBJECT GLOBAL DEFAULT 18 _ZTTN7android8hardware5me
180:   FUNC GLOBAL DEFAULT 14 _ZThn32_N7android8hardwar
181:   FUNC GLOBAL DEFAULT 14 _ZN7android8hardware5medi
182:   FUNC GLOBAL DEFAULT 14 _ZN7android8hardware5medi
183:   FUNC GLOBAL DEFAULT 14 _ZN7android8hardware5medi
184:   FUNC WEAK DEFAULT 14 _ZNSt3__16vectorIN7androi
185:   FUNC GLOBAL DEFAULT 14 _ZN7android8hardware5medi
186:   FUNC GLOBAL DEFAULT 14 _ZN7android8hardware5medi
187:   FUNC GLOBAL DEFAULT 14 _ZN7android8hardware5medi
188:   FUNC GLOBAL DEFAULT 14 _ZN7android8hardware5medi
189:   OBJECT GLOBAL DEFAULT 18 _ZTCN7android8hardware5me
190:   OBJECT GLOBAL DEFAULT 18 _ZTVN7android8hardware5me
191:   OBJECT GLOBAL DEFAULT 18 _ZTTN7android8hardware5me
192:   FUNC GLOBAL DEFAULT 14 _ZN7android8hardware5medi
193:   FUNC GLOBAL DEFAULT 14 _ZN7android8hardware5medi
194:   OBJECT GLOBAL DEFAULT 18 _ZTCN7android8hardware5me
195:   OBJECT GLOBAL DEFAULT 18 _ZTCN7android8hardware5me
196:   FUNC GLOBAL DEFAULT 14 _ZN7android8hardware5medi
197:   OBJECT GLOBAL DEFAULT 18 _ZTCN7android8hardware5me
198:   FUNC GLOBAL DEFAULT 14 _ZTv0_n24_N7android8hardw
199:   FUNC GLOBAL DEFAULT 14 _ZN7android8hardware5medi
200:   OBJECT GLOBAL DEFAULT 18 _ZTTN7android8hardware5me
201:   OBJECT GLOBAL DEFAULT 18 _ZTTN7android8hardware5me
202:   FUNC WEAK DEFAULT 14 _ZN7android8hardware7deta
203:   OBJECT GLOBAL DEFAULT 18 _ZTCN7android8hardware5me
204:   FUNC GLOBAL DEFAULT 14 _ZN7android8hardware5medi
205:   OBJECT GLOBAL DEFAULT 16 _ZN7android8hardware5medi
206:   FUNC GLOBAL DEFAULT 14 _ZN7android8hardware5medi
207:   FUNC WEAK DEFAULT 14 _ZN7android8hardware7deta
208:   FUNC GLOBAL DEFAULT 14 _ZThn32_N7android8hardwar
209:   FUNC GLOBAL DEFAULT 14 _ZN7android8hardware5medi
210:   FUNC GLOBAL DEFAULT 14 _ZN7android8hardware5medi
211:   FUNC GLOBAL DEFAULT 14 _ZN7android8hardware5medi
212:   FUNC GLOBAL DEFAULT 14 _ZN7android8hardware5medi
213:   FUNC GLOBAL DEFAULT 14 _ZN7android8hardware5medi
214:   OBJECT GLOBAL DEFAULT 18 _ZTVN7android8hardware5me
215:   FUNC GLOBAL DEFAULT 14 _ZN7android8hardware5medi
216:   OBJECT GLOBAL DEFAULT 16 _ZN7android8hardware5medi
217:   FUNC GLOBAL DEFAULT 14 _ZN7android8hardware5medi
218:   FUNC GLOBAL DEFAULT 14 _ZN7android8hardware5medi
219:   OBJECT WEAK DEFAULT 18 _ZTCN7android8hardware5me
220:   FUNC GLOBAL DEFAULT 14 _ZN7android8hardware5medi
221:   FUNC GLOBAL DEFAULT 14 _ZN7android8hardware5medi
222:   OBJECT GLOBAL DEFAULT 18 _ZTVN7android8hardware5me
223:   FUNC GLOBAL DEFAULT 14 _ZN7android8hardware5medi
224:   FUNC WEAK DEFAULT 14 _ZN7android8hardware7deta
225:   OBJECT GLOBAL DEFAULT 18 _ZTVN7android8hardware5me
226:   FUNC GLOBAL DEFAULT 14 _ZN7android8hardware5medi
227:   OBJECT WEAK DEFAULT 18 _ZTCN7android8hardware5me
228:   FUNC GLOBAL DEFAULT 14 _ZN7android8hardware5medi
229:   FUNC GLOBAL DEFAULT 14 _ZN7android8hardware5medi
230:   FUNC GLOBAL DEFAULT 14 _ZTv0_n24_N7android8hardw
231:   FUNC GLOBAL DEFAULT 14 _ZN7android8hardware5medi
232:   OBJECT WEAK DEFAULT 18 _ZTVN7android8hardware5me
233:   FUNC GLOBAL DEFAULT 14 _ZN7android8hardware5medi
234:   FUNC WEAK DEFAULT 14 _ZNSt3__16vectorINS_8func
235:   FUNC GLOBAL DEFAULT 14 _ZN7android8hardware5medi
236:   FUNC GLOBAL DEFAULT 14 _ZN7android8hardware5medi
237:   OBJECT GLOBAL DEFAULT 18 _ZTVN7android8hardware5me
238:   FUNC GLOBAL DEFAULT 14 _ZN7android8hardware5medi
239:   OBJECT GLOBAL DEFAULT 18 _ZTCN7android8hardware5me
240:   FUNC GLOBAL DEFAULT 14 _ZN7android8hardware5medi
241:   FUNC GLOBAL DEFAULT 14 _ZN7android8hardware5medi
242:   FUNC WEAK DEFAULT 14 _ZNSt3__16__treeINS_12__v
243:   OBJECT GLOBAL DEFAULT 18 _ZTCN7android8hardware5me
244:   FUNC GLOBAL DEFAULT 14 _ZN7android8hardware5medi
245:   FUNC GLOBAL DEFAULT 14 _ZN7android8hardware5medi
246:   FUNC GLOBAL DEFAULT 14 _ZTv0_n24_N7android8hardw
247:   FUNC GLOBAL DEFAULT 14 _ZN7android8hardware5medi
248:   FUNC GLOBAL DEFAULT 14 _ZN7android8hardware5medi
249:   FUNC WEAK DEFAULT 14 _ZN7android8hardware7deta
250:   FUNC GLOBAL DEFAULT 14 _ZN7android8hardware5medi
251:   FUNC GLOBAL DEFAULT 14 _ZN7android8hardware5medi
252:   FUNC GLOBAL DEFAULT 14 _ZThn32_N7android8hardwar
253:   FUNC GLOBAL DEFAULT 14 _ZN7android8hardware5medi
254:   OBJECT WEAK DEFAULT 18 _ZTVN7android8hardware5me
255:   FUNC GLOBAL DEFAULT 14 _ZN7android8hardware5medi
256:   OBJECT GLOBAL DEFAULT 18 _ZTVN7android8hardware5me
257:   FUNC GLOBAL DEFAULT 14 _ZN7android8hardware5medi
258:   OBJECT GLOBAL DEFAULT 18 _ZTCN7android8hardware5me
259:   FUNC GLOBAL DEFAULT 14 _ZN7android8hardware5medi
260:   FUNC GLOBAL DEFAULT 14 _ZN7android8hardware5medi
261:   FUNC GLOBAL DEFAULT 14 _ZN7android8hardware5medi
262:   OBJECT WEAK DEFAULT 18 _ZTVN7android8hardware5me
263:   FUNC WEAK DEFAULT 14 _ZN7android8hardware10fro
264:   FUNC GLOBAL DEFAULT 14 _ZN7android8hardware5medi
265:   FUNC GLOBAL DEFAULT 14 _ZN7android8hardware5medi
266:   FUNC GLOBAL DEFAULT 14 _ZTv0_n24_N7android8hardw
267:   FUNC GLOBAL DEFAULT 14 _ZN7android8hardware5medi
268:   FUNC GLOBAL DEFAULT 14 _ZN7android8hardware5medi
269:   FUNC GLOBAL DEFAULT 14 _ZN7android8hardware5medi
270:   OBJECT GLOBAL DEFAULT 18 _ZTVN7android8hardware5me
271:   FUNC GLOBAL DEFAULT 14 _ZN7android8hardware5medi
272:   FUNC GLOBAL DEFAULT 14 _ZN7android8hardware5medi
273:   OBJECT GLOBAL DEFAULT 18 _ZTCN7android8hardware5me
274:   FUNC WEAK DEFAULT 14 _ZN7android8hardware7deta
275:   FUNC GLOBAL DEFAULT 14 _ZN7android8hardware5medi
276:   FUNC WEAK DEFAULT 14 _ZNSt3__16__treeINS_12__v
277:   FUNC GLOBAL DEFAULT 14 _ZN7android8hardware5medi
278:   FUNC GLOBAL DEFAULT 14 _ZN7android8hardware5medi
279:   OBJECT GLOBAL DEFAULT 18 _ZTCN7android8hardware5me
280:   FUNC GLOBAL DEFAULT 14 _ZN7android8hardware5medi
281:   FUNC GLOBAL DEFAULT 14 _ZN7android8hardware5medi
282:   FUNC WEAK DEFAULT 14 _ZNSt3__113__tree_removeI
283:   FUNC WEAK DEFAULT 14 _ZNSt3__16__treeINS_12__v
284:   FUNC GLOBAL DEFAULT 14 _ZN7android8hardware5medi
285:   OBJECT GLOBAL DEFAULT 18 _ZTCN7android8hardware5me
286:   FUNC GLOBAL DEFAULT 14 _ZN7android8hardware5medi
287:   OBJECT WEAK DEFAULT 18 _ZTCN7android8hardware5me
288:   FUNC GLOBAL DEFAULT 14 _ZN7android8hardware5medi
289:   OBJECT GLOBAL DEFAULT 18 _ZTCN7android8hardware5me
290:   FUNC GLOBAL DEFAULT 14 _ZN7android8hardware5medi
291:   FUNC GLOBAL DEFAULT 14 _ZThn32_N7android8hardwar
292:   OBJECT GLOBAL DEFAULT 18 _ZTCN7android8hardware5me
293:   FUNC GLOBAL DEFAULT 14 _ZN7android8hardware5medi
294:   FUNC GLOBAL DEFAULT 14 _ZN7android8hardware5medi
295:   OBJECT GLOBAL DEFAULT 18 _ZTCN7android8hardware5me
296:   FUNC GLOBAL DEFAULT 14 _ZN7android8hardware5medi
297:   OBJECT GLOBAL DEFAULT 18 _ZTCN7android8hardware5me
298:   FUNC GLOBAL DEFAULT 14 _ZN7android8hardware5medi
299:   FUNC GLOBAL DEFAULT 14 _ZN7android8hardware5medi
300:   FUNC GLOBAL DEFAULT 14 _ZN7android8hardware5medi
301:   OBJECT GLOBAL DEFAULT 18 _ZTCN7android8hardware5me
302:   OBJECT GLOBAL DEFAULT 18 _ZTCN7android8hardware5me
303:   FUNC GLOBAL DEFAULT 14 _ZN7android8hardware5medi
304:   FUNC GLOBAL DEFAULT 14 _ZN7android8hardware5medi
305:   FUNC WEAK DEFAULT 14 _ZN7android8hardware7deta
306:   FUNC GLOBAL DEFAULT 14 _ZTv0_n24_N7android8hardw
307:   FUNC GLOBAL DEFAULT 14 _ZThn32_N7android8hardwar
308:   OBJECT GLOBAL DEFAULT 18 _ZTTN7android8hardware5me
309:   FUNC GLOBAL DEFAULT 14 _ZN7android8hardware5medi
310:   FUNC GLOBAL DEFAULT 14 _ZN7android8hardware5medi
311:   FUNC WEAK DEFAULT 14 _ZNSt3__16__treeINS_12__v
312:   OBJECT GLOBAL DEFAULT 18 _ZTCN7android8hardware5me
313:   FUNC GLOBAL DEFAULT 14 _ZN7android8hardware5medi
314:   FUNC GLOBAL DEFAULT 14 _ZN7android8hardware5medi
315:   OBJECT GLOBAL DEFAULT 18 _ZTVN7android8hardware5me
316:   FUNC GLOBAL DEFAULT 14 _ZN7android8hardware5medi
317:   FUNC GLOBAL DEFAULT 14 _ZN7android8hardware5medi
318:   OBJECT GLOBAL DEFAULT 18 _ZTCN7android8hardware5me
319:   FUNC GLOBAL DEFAULT 14 _ZN7android8hardware5medi
320:   OBJECT GLOBAL DEFAULT 18 _ZTCN7android8hardware5me
321:   FUNC GLOBAL DEFAULT 14 _ZThn32_N7android8hardwar
322:   FUNC GLOBAL DEFAULT 14 _ZN7android8hardware5medi
323:   FUNC WEAK DEFAULT 14 _ZNSt3__16vectorIPvNS_9al
324:   FUNC GLOBAL DEFAULT 14 _ZN7android8hardware5medi
325:   FUNC GLOBAL DEFAULT 14 _ZN7android8hardware5medi
326:   FUNC GLOBAL DEFAULT 14 _ZN7android8hardware5medi
327:   FUNC GLOBAL DEFAULT 14 _ZN7android8hardware5medi
328:   OBJECT GLOBAL DEFAULT 18 _ZTCN7android8hardware5me
329:   FUNC GLOBAL DEFAULT 14 _ZN7android8hardware5medi
330:   FUNC GLOBAL DEFAULT 14 _ZN7android8hardware5medi
331:   OBJECT WEAK DEFAULT 18 _ZTCN7android8hardware5me
332:   OBJECT GLOBAL DEFAULT 18 _ZTTN7android8hardware5me
333:   FUNC GLOBAL DEFAULT 14 _ZN7android8hardware5medi
334:   FUNC GLOBAL DEFAULT 14 _ZN7android8hardware5medi
335:   FUNC GLOBAL DEFAULT 14 _ZN7android8hardware5medi
336:   FUNC GLOBAL DEFAULT 14 _ZN7android8hardware5medi
337:   FUNC GLOBAL DEFAULT 14 _ZN7android8hardware5medi
338:   OBJECT GLOBAL DEFAULT 18 _ZTVN7android8hardware5me
339:   FUNC WEAK DEFAULT 14 _ZN7android8hardware10fro
340:   OBJECT GLOBAL DEFAULT 18 _ZTTN7android8hardware5me
341:   FUNC GLOBAL DEFAULT 14 _ZN7android8hardware5medi
342:   OBJECT GLOBAL DEFAULT 16 _ZN7android8hardware5medi
343:   FUNC GLOBAL DEFAULT 14 _ZN7android8hardware5medi
344:   FUNC GLOBAL DEFAULT 14 _ZN7android8hardware5medi
345:   FUNC GLOBAL DEFAULT 14 _ZN7android8hardware5medi
346:   FUNC GLOBAL DEFAULT 14 _ZN7android8hardware5medi
347:   FUNC GLOBAL DEFAULT 14 _ZN7android8hardware5medi
348:   FUNC GLOBAL DEFAULT 14 _ZN7android8hardware5medi
349:   OBJECT GLOBAL DEFAULT 18 _ZTVN7android8hardware5me
350:   FUNC GLOBAL DEFAULT 14 _ZN7android8hardware5medi
351:   FUNC WEAK DEFAULT 14 _ZN7android8hardware10fro
352:   FUNC GLOBAL DEFAULT 14 _ZN7android8hardware5medi
353:   OBJECT GLOBAL DEFAULT 18 _ZTCN7android8hardware5me
354:   OBJECT GLOBAL DEFAULT 18 _ZTCN7android8hardware5me
355:   FUNC GLOBAL DEFAULT 14 _ZN7android8hardware5medi
356:   FUNC WEAK DEFAULT 14 _ZN7android8hardware7deta
357:   FUNC GLOBAL DEFAULT 14 _ZN7android8hardware5medi
358:   FUNC GLOBAL DEFAULT 14 _ZN7android8hardware5medi
359:   FUNC GLOBAL DEFAULT 14 _ZN7android8hardware5medi
360:   FUNC GLOBAL DEFAULT 14 _ZN7android8hardware5medi
361:   FUNC GLOBAL DEFAULT 14 _ZN7android8hardware5medi
362:   OBJECT GLOBAL DEFAULT 18 _ZTCN7android8hardware5me
363:   FUNC GLOBAL DEFAULT 14 _ZN7android8hardware5medi
364:   FUNC GLOBAL DEFAULT 14 _ZN7android8hardware5medi
365:   FUNC WEAK DEFAULT 14 _ZN7android8hardware7deta
366:   OBJECT GLOBAL DEFAULT 16 _ZN7android8hardware5medi
367:   FUNC GLOBAL DEFAULT 14 _ZN7android8hardware5medi
368:   FUNC GLOBAL DEFAULT 14 _ZN7android8hardware5medi
369:   OBJECT GLOBAL DEFAULT 18 _ZTCN7android8hardware5me
370:   FUNC GLOBAL DEFAULT 14 _ZN7android8hardware5medi
371:   FUNC WEAK DEFAULT 14 _ZN7android8hardware7deta
372:   FUNC GLOBAL DEFAULT 14 _ZN7android8hardware5medi
373:   FUNC GLOBAL DEFAULT 14 _ZN7android8hardware5medi
374:   FUNC WEAK DEFAULT 14 _ZNSt3__16__treeINS_12__v
375:   FUNC GLOBAL DEFAULT 14 _ZThn32_N7android8hardwar
376:   OBJECT GLOBAL DEFAULT 18 _ZTCN7android8hardware5me
377:   FUNC GLOBAL DEFAULT 14 _ZN7android8hardware5medi
378:   FUNC GLOBAL DEFAULT 14 _ZTv0_n24_N7android8hardw
379:   FUNC GLOBAL DEFAULT 14 _ZN7android8hardware5medi
380:   FUNC GLOBAL DEFAULT 14 _ZN7android8hardware5medi
381:   FUNC WEAK DEFAULT 14 _ZN7android8hardware7deta
382:   OBJECT GLOBAL DEFAULT 18 _ZTTN7android8hardware5me
383:   FUNC GLOBAL DEFAULT 14 _ZN7android8hardware5medi
384:   OBJECT WEAK DEFAULT 18 _ZTVN7android8hardware5me
385:   FUNC GLOBAL DEFAULT 14 _ZN7android8hardware5medi
386:   OBJECT GLOBAL DEFAULT 18 _ZTTN7android8hardware5me
387:   FUNC GLOBAL DEFAULT 14 _ZN7android8hardware5medi
388:   FUNC GLOBAL DEFAULT 14 _ZN7android8hardware5medi
389:   FUNC GLOBAL DEFAULT 14 _ZN7android8hardware5medi
390:   OBJECT GLOBAL DEFAULT 18 _ZTCN7android8hardware5me
391:   FUNC GLOBAL DEFAULT 14 _ZN7android8hardware5medi
392:   FUNC GLOBAL DEFAULT 14 _ZN7android8hardware5medi
393:   FUNC GLOBAL DEFAULT 14 _ZN7android8hardware5medi
394:   FUNC GLOBAL DEFAULT 14 _ZN7android8hardware5medi
395:   FUNC GLOBAL DEFAULT 14 _ZN7android8hardware5medi
396:   OBJECT GLOBAL DEFAULT 18 _ZTCN7android8hardware5me
397:   FUNC GLOBAL DEFAULT 14 _ZTv0_n24_N7android8hardw
398:   FUNC GLOBAL DEFAULT 14 _ZN7android8hardware5medi
399:   FUNC GLOBAL DEFAULT 14 _ZN7android8hardware5medi
400:   OBJECT GLOBAL DEFAULT 18 _ZTCN7android8hardware5me
401:   FUNC GLOBAL DEFAULT 14 _ZN7android8hardware5medi
402:   OBJECT GLOBAL DEFAULT 18 _ZTTN7android8hardware5me
403:   OBJECT GLOBAL DEFAULT 18 _ZTVN7android8hardware5me
404:   FUNC GLOBAL DEFAULT 14 _ZN7android8hardware5medi
405:   FUNC GLOBAL DEFAULT 14 _ZN7android8hardware5medi
406:   OBJECT GLOBAL DEFAULT 18 _ZTCN7android8hardware5me
407:   FUNC GLOBAL DEFAULT 14 _ZN7android8hardware5medi
408:   FUNC GLOBAL DEFAULT 14 _ZTv0_n24_N7android8hardw
409:   FUNC GLOBAL DEFAULT 14 _ZN7android8hardware5medi
410:   FUNC WEAK DEFAULT 14 _ZN7android8hardware7deta
411:   FUNC WEAK DEFAULT 14 _ZNSt3__16__treeINS_12__v
412:   OBJECT GLOBAL DEFAULT 18 _ZTCN7android8hardware5me
413:   FUNC GLOBAL DEFAULT 14 _ZN7android8hardware5medi
414:   FUNC GLOBAL DEFAULT 14 _ZN7android8hardware5medi
415:   FUNC GLOBAL DEFAULT 14 _ZN7android8hardware5medi
416:   OBJECT GLOBAL DEFAULT 18 _ZTTN7android8hardware5me
417:   OBJECT GLOBAL DEFAULT 18 _ZTVN7android8hardware5me
418:   FUNC GLOBAL DEFAULT 14 _ZN7android8hardware5medi
419:   OBJECT GLOBAL DEFAULT 18 _ZTCN7android8hardware5me
420:   FUNC GLOBAL DEFAULT 14 _ZN7android8hardware5medi
421:   OBJECT GLOBAL DEFAULT 18 _ZTCN7android8hardware5me
422:   FUNC GLOBAL DEFAULT 14 _ZN7android8hardware5medi
423:   FUNC GLOBAL DEFAULT 14 _ZN7android8hardware5medi
424:   FUNC GLOBAL DEFAULT 14 _ZN7android8hardware5medi
425:   FUNC GLOBAL DEFAULT 14 _ZN7android8hardware5medi
426:   FUNC GLOBAL DEFAULT 14 _ZN7android8hardware5medi
427:   OBJECT GLOBAL DEFAULT 18 _ZTCN7android8hardware5me
428:   FUNC GLOBAL DEFAULT 14 _ZN7android8hardware5medi
429:   FUNC GLOBAL DEFAULT 14 _ZN7android8hardware5medi
430:   FUNC GLOBAL DEFAULT 14 _ZN7android8hardware5medi
431:   FUNC GLOBAL DEFAULT 14 _ZN7android8hardware5medi
432:   FUNC GLOBAL DEFAULT 14 _ZN7android8hardware5medi
433:   OBJECT GLOBAL DEFAULT 18 _ZTCN7android8hardware5me
434:   FUNC GLOBAL DEFAULT 14 _ZN7android8hardware5medi
435:   FUNC GLOBAL DEFAULT 14 _ZN7android8hardware5medi
436:   FUNC GLOBAL DEFAULT 14 _ZN7android8hardware5medi
437:   FUNC GLOBAL DEFAULT 14 _ZN7android8hardware5medi
438:   FUNC GLOBAL DEFAULT 14 _ZN7android8hardware5medi
439:   FUNC GLOBAL DEFAULT 14 _ZN7android8hardware5medi
440:   FUNC GLOBAL DEFAULT 14 _ZN7android8hardware5medi
441:   FUNC GLOBAL DEFAULT 14 _ZN7android8hardware5medi
442:   FUNC GLOBAL DEFAULT 14 _ZN7android8hardware5medi
443:   FUNC GLOBAL DEFAULT 14 _ZN7android8hardware5medi
444:   FUNC GLOBAL DEFAULT 14 _ZN7android8hardware5medi
445:   OBJECT GLOBAL DEFAULT 18 _ZTCN7android8hardware5me
446:   FUNC GLOBAL DEFAULT 14 _ZN7android8hardware5medi
447:   FUNC GLOBAL DEFAULT 14 _ZN7android8hardware5medi
