 0x000000000000000e (SONAME)             Library soname: [android.hardware.wifi.supplicant@1.1.so]
  
Symbol   contains 957 entries:
Num:   Type Bind Vis Ndx Name
0:   NOTYPE LOCAL DEFAULT UND
1:   FUNC GLOBAL DEFAULT UND __cxa_finalize@LIBC (2)
2:   FUNC GLOBAL DEFAULT UND _ZN7android14sp_report_ra
3:   FUNC GLOBAL DEFAULT UND _ZN7android21report_syspr
4:   OBJECT GLOBAL DEFAULT UND _ZN7android4hidl4base4V1_
5:   FUNC GLOBAL DEFAULT UND _ZN7android4hidl4base4V1_
6:   FUNC GLOBAL DEFAULT UND _ZN7android4hidl4base4V1_
7:   FUNC GLOBAL DEFAULT UND _ZN7android4hidl4base4V1_
8:   FUNC GLOBAL DEFAULT UND _ZN7android4hidl4base4V1_
9:   FUNC GLOBAL DEFAULT UND _ZN7android4hidl4base4V1_
10:   FUNC GLOBAL DEFAULT UND _ZN7android4hidl4base4V1_
11:   FUNC GLOBAL DEFAULT UND _ZN7android4hidl4base4V1_
12:   FUNC GLOBAL DEFAULT UND _ZN7android4hidl4base4V1_
13:   FUNC GLOBAL DEFAULT UND _ZN7android4hidl4base4V1_
14:   FUNC GLOBAL DEFAULT UND _ZN7android4hidl4base4V1_
15:   FUNC GLOBAL DEFAULT UND _ZN7android4hidl4base4V1_
16:   FUNC GLOBAL DEFAULT UND _ZN7android4hidl4base4V1_
17:   FUNC GLOBAL DEFAULT UND _ZN7android4hidl4base4V1_
18:   FUNC GLOBAL DEFAULT UND _ZN7android4hidl4base4V1_
19:   FUNC GLOBAL DEFAULT UND _ZN7android4hidl4base4V1_
20:   FUNC GLOBAL DEFAULT UND _ZN7android4hidl4base4V1_
21:   FUNC GLOBAL DEFAULT UND _ZN7android4hidl4base4V1_
22:   FUNC GLOBAL DEFAULT UND _ZN7android4hidl4base4V1_
23:   FUNC GLOBAL DEFAULT UND _ZN7android4hidl4base4V1_
24:   FUNC GLOBAL DEFAULT UND _ZN7android4hidl4base4V1_
25:   FUNC GLOBAL DEFAULT UND _ZN7android4hidl4base4V1_
26:   FUNC GLOBAL DEFAULT UND _ZN7android4hidl4base4V1_
27:   FUNC GLOBAL DEFAULT UND _ZN7android4hidl4base4V1_
28:   FUNC GLOBAL DEFAULT UND _ZN7android7RefBase10onFi
29:   FUNC GLOBAL DEFAULT UND _ZN7android7RefBase12weak
30:   FUNC GLOBAL DEFAULT UND _ZN7android7RefBase13onLa
31:   FUNC GLOBAL DEFAULT UND _ZN7android7RefBase15onLa
32:   FUNC GLOBAL DEFAULT UND _ZN7android7RefBase20onIn
33:   FUNC GLOBAL DEFAULT UND _ZN7android7RefBaseC2Ev
34:   FUNC GLOBAL DEFAULT UND _ZN7android7RefBaseD2Ev
35:   FUNC GLOBAL DEFAULT UND _ZN7android8hardware10IIn
36:   FUNC GLOBAL DEFAULT UND _ZN7android8hardware10IIn
37:   FUNC GLOBAL DEFAULT UND _ZN7android8hardware10IIn
38:   FUNC GLOBAL DEFAULT UND _ZN7android8hardware10IIn
39:   FUNC GLOBAL DEFAULT UND _ZN7android8hardware10IIn
40:   FUNC GLOBAL DEFAULT UND _ZN7android8hardware11BpH
41:   FUNC GLOBAL DEFAULT UND _ZN7android8hardware11BpH
42:   FUNC GLOBAL DEFAULT UND _ZN7android8hardware11BpH
43:   FUNC GLOBAL DEFAULT UND _ZN7android8hardware11BpH
44:   FUNC GLOBAL DEFAULT UND _ZN7android8hardware11BpH
45:   FUNC GLOBAL DEFAULT UND _ZN7android8hardware11BpH
46:   FUNC GLOBAL DEFAULT UND _ZN7android8hardware11BpH
47:   FUNC GLOBAL DEFAULT UND _ZN7android8hardware11hid
48:   FUNC GLOBAL DEFAULT UND _ZN7android8hardware11hid
49:   FUNC GLOBAL DEFAULT UND _ZN7android8hardware11hid
50:   FUNC GLOBAL DEFAULT UND _ZN7android8hardware11hid
51:   FUNC GLOBAL DEFAULT UND _ZN7android8hardware11hid
52:   FUNC GLOBAL DEFAULT UND _ZN7android8hardware12Pro
53:   FUNC GLOBAL DEFAULT UND _ZN7android8hardware12Pro
54:   FUNC GLOBAL DEFAULT UND _ZN7android8hardware13wri
55:   FUNC GLOBAL DEFAULT UND _ZN7android8hardware14rea
56:   FUNC GLOBAL DEFAULT UND _ZN7android8hardware21def
57:   FUNC GLOBAL DEFAULT UND _ZN7android8hardware23get
58:   FUNC GLOBAL DEFAULT UND _ZN7android8hardware27hid
59:   FUNC GLOBAL DEFAULT UND _ZN7android8hardware27hid
60:   OBJECT GLOBAL DEFAULT UND _ZN7android8hardware4wifi
61:   FUNC GLOBAL DEFAULT UND _ZN7android8hardware4wifi
62:   FUNC GLOBAL DEFAULT UND _ZN7android8hardware4wifi
63:   FUNC GLOBAL DEFAULT UND _ZN7android8hardware4wifi
64:   FUNC GLOBAL DEFAULT UND _ZN7android8hardware4wifi
65:   FUNC GLOBAL DEFAULT UND _ZN7android8hardware4wifi
66:   FUNC GLOBAL DEFAULT UND _ZN7android8hardware4wifi
67:   FUNC GLOBAL DEFAULT UND _ZN7android8hardware4wifi
68:   FUNC GLOBAL DEFAULT UND _ZN7android8hardware4wifi
69:   FUNC GLOBAL DEFAULT UND _ZN7android8hardware4wifi
70:   FUNC GLOBAL DEFAULT UND _ZN7android8hardware4wifi
71:   FUNC GLOBAL DEFAULT UND _ZN7android8hardware4wifi
72:   FUNC GLOBAL DEFAULT UND _ZN7android8hardware4wifi
73:   FUNC GLOBAL DEFAULT UND _ZN7android8hardware4wifi
74:   FUNC GLOBAL DEFAULT UND _ZN7android8hardware4wifi
75:   FUNC GLOBAL DEFAULT UND _ZN7android8hardware4wifi
76:   FUNC GLOBAL DEFAULT UND _ZN7android8hardware4wifi
77:   FUNC GLOBAL DEFAULT UND _ZN7android8hardware4wifi
78:   FUNC GLOBAL DEFAULT UND _ZN7android8hardware4wifi
79:   FUNC GLOBAL DEFAULT UND _ZN7android8hardware4wifi
80:   FUNC GLOBAL DEFAULT UND _ZN7android8hardware4wifi
81:   FUNC GLOBAL DEFAULT UND _ZN7android8hardware4wifi
82:   FUNC GLOBAL DEFAULT UND _ZN7android8hardware4wifi
83:   FUNC GLOBAL DEFAULT UND _ZN7android8hardware4wifi
84:   FUNC GLOBAL DEFAULT UND _ZN7android8hardware4wifi
85:   FUNC GLOBAL DEFAULT UND _ZN7android8hardware4wifi
86:   FUNC GLOBAL DEFAULT UND _ZN7android8hardware4wifi
87:   OBJECT GLOBAL DEFAULT UND _ZN7android8hardware4wifi
88:   FUNC GLOBAL DEFAULT UND _ZN7android8hardware4wifi
89:   FUNC GLOBAL DEFAULT UND _ZN7android8hardware4wifi
90:   FUNC GLOBAL DEFAULT UND _ZN7android8hardware4wifi
91:   FUNC GLOBAL DEFAULT UND _ZN7android8hardware4wifi
92:   FUNC GLOBAL DEFAULT UND _ZN7android8hardware4wifi
93:   FUNC GLOBAL DEFAULT UND _ZN7android8hardware6Parc
94:   FUNC GLOBAL DEFAULT UND _ZN7android8hardware6Parc
95:   FUNC GLOBAL DEFAULT UND _ZN7android8hardware6Parc
96:   FUNC GLOBAL DEFAULT UND _ZN7android8hardware6Parc
97:   FUNC GLOBAL DEFAULT UND _ZN7android8hardware6Parc
98:   FUNC GLOBAL DEFAULT UND _ZN7android8hardware6Stat
99:   FUNC GLOBAL DEFAULT UND _ZN7android8hardware6Stat
100:   FUNC GLOBAL DEFAULT UND _ZN7android8hardware6Stat
101:   FUNC GLOBAL DEFAULT UND _ZN7android8hardware6Stat
102:   FUNC GLOBAL DEFAULT UND _ZN7android8hardware7IBin
103:   FUNC GLOBAL DEFAULT UND _ZN7android8hardware7IBin
104:   FUNC GLOBAL DEFAULT UND _ZN7android8hardware7IBin
105:   FUNC GLOBAL DEFAULT UND _ZN7android8hardware7IBin
106:   FUNC GLOBAL DEFAULT UND _ZN7android8hardware7deta
107:   FUNC GLOBAL DEFAULT UND _ZN7android8hardware7deta
108:   FUNC GLOBAL DEFAULT UND _ZN7android8hardware7deta
109:   FUNC GLOBAL DEFAULT UND _ZN7android8hardware7deta
110:   FUNC GLOBAL DEFAULT UND _ZN7android8hardware7deta
111:   FUNC GLOBAL DEFAULT UND _ZN7android8hardware7deta
112:   FUNC GLOBAL DEFAULT UND _ZN7android8hardware7deta
113:   OBJECT GLOBAL DEFAULT UND _ZN7android8hardware7deta
114:   FUNC GLOBAL DEFAULT UND _ZN7android8hardware7deta
115:   OBJECT GLOBAL DEFAULT UND _ZN7android8hardware7deta
116:   FUNC GLOBAL DEFAULT UND _ZN7android8hardware7deta
117:   FUNC GLOBAL DEFAULT UND _ZN7android8hardware7deta
118:   FUNC GLOBAL DEFAULT UND _ZN7android8hardware7deta
119:   FUNC GLOBAL DEFAULT UND _ZN7android8hardware7deta
120:   FUNC GLOBAL DEFAULT UND _ZN7android8hardware7deta
121:   FUNC GLOBAL DEFAULT UND _ZN7android8hardware7deta
122:   FUNC GLOBAL DEFAULT UND _ZN7android8hardware7deta
123:   FUNC GLOBAL DEFAULT UND _ZN7android8hardware7deta
124:   FUNC GLOBAL DEFAULT UND _ZN7android8hardware7deta
125:   FUNC GLOBAL DEFAULT UND _ZN7android8hardware7deta
126:   OBJECT GLOBAL DEFAULT UND _ZN7android8hardware7deta
127:   FUNC GLOBAL DEFAULT UND _ZN7android8hardware9BHwB
128:   FUNC GLOBAL DEFAULT UND _ZN7android8hardware9BHwB
129:   FUNC GLOBAL DEFAULT UND _ZN7android8hardware9BHwB
130:   FUNC GLOBAL DEFAULT UND _ZN7android8hardware9BHwB
131:   FUNC GLOBAL DEFAULT UND _ZN7android8hardware9BHwB
132:   FUNC GLOBAL DEFAULT UND _ZN7android8hardware9BHwB
133:   FUNC GLOBAL DEFAULT UND _ZN7android8hardware9BHwB
134:   FUNC GLOBAL DEFAULT UND _ZN7android8hardware9BHwB
135:   FUNC GLOBAL DEFAULT UND _ZN7android8hardware9BHwB
136:   FUNC GLOBAL DEFAULT UND _ZN7android8hardware9BHwB
137:   FUNC GLOBAL DEFAULT UND _ZNK7android7RefBase10cre
138:   FUNC GLOBAL DEFAULT UND _ZNK7android7RefBase11get
139:   FUNC GLOBAL DEFAULT UND _ZNK7android7RefBase9decS
140:   FUNC GLOBAL DEFAULT UND _ZNK7android7RefBase9incS
141:   FUNC GLOBAL DEFAULT UND _ZNK7android8hardware6Par
142:   FUNC GLOBAL DEFAULT UND _ZNK7android8hardware6Par
143:   FUNC GLOBAL DEFAULT UND _ZNK7android8hardware6Par
144:   FUNC GLOBAL DEFAULT UND _ZNK7android8hardware7IBi
145:   FUNC GLOBAL DEFAULT UND _ZNK7android8hardware7det
146:   FUNC GLOBAL DEFAULT UND _ZNK7android8hardware9BHw
147:   FUNC GLOBAL DEFAULT UND _ZNKSt3__120__vector_base
148:   FUNC GLOBAL DEFAULT UND _ZNKSt3__121__basic_strin
149:   FUNC GLOBAL DEFAULT UND _ZNSt3__112basic_stringIc
150:   FUNC GLOBAL DEFAULT UND _ZNSt3__112basic_stringIc
151:   FUNC GLOBAL DEFAULT UND _ZNSt3__15mutex4lockEv
152:   FUNC GLOBAL DEFAULT UND _ZNSt3__15mutex6unlockEv
153:   FUNC GLOBAL DEFAULT UND _ZNSt3__15mutexD1Ev
154:   FUNC GLOBAL DEFAULT UND _ZTv0_n24_N7android4hidl4
155:   FUNC GLOBAL DEFAULT UND _ZTv0_n24_N7android4hidl4
156:   FUNC GLOBAL DEFAULT UND _ZTv0_n24_N7android8hardw
157:   FUNC GLOBAL DEFAULT UND _ZTv0_n24_N7android8hardw
158:   FUNC GLOBAL DEFAULT UND _ZTv0_n24_N7android8hardw
159:   FUNC GLOBAL DEFAULT UND _ZTv0_n24_N7android8hardw
160:   FUNC GLOBAL DEFAULT UND _ZTv0_n24_N7android8hardw
161:   FUNC GLOBAL DEFAULT UND _ZTv0_n24_N7android8hardw
162:   FUNC GLOBAL DEFAULT UND _ZTv0_n24_N7android8hardw
163:   FUNC GLOBAL DEFAULT UND _ZTv0_n24_N7android8hardw
164:   FUNC GLOBAL DEFAULT UND _ZTv0_n32_N7android8hardw
165:   FUNC GLOBAL DEFAULT UND _ZTv0_n40_N7android8hardw
166:   FUNC GLOBAL DEFAULT UND _ZTv0_n48_N7android8hardw
167:   FUNC GLOBAL DEFAULT UND _ZdaPv
168:   FUNC GLOBAL DEFAULT UND _ZdlPv
169:   FUNC GLOBAL DEFAULT UND _Znam
170:   FUNC GLOBAL DEFAULT UND _Znwm
171:   FUNC GLOBAL DEFAULT UND __android_log_assert@LIBLOG (3)
172:   FUNC GLOBAL DEFAULT UND __cxa_pure_virtual
173:   FUNC GLOBAL DEFAULT UND __stack_chk_fail@LIBC (2)
174:   FUNC GLOBAL DEFAULT UND abort@LIBC (2)
175:   FUNC GLOBAL DEFAULT UND atrace_begin_body
176:   OBJECT GLOBAL DEFAULT UND atrace_enabled_tags
177:   FUNC GLOBAL DEFAULT UND atrace_end_body
178:   OBJECT GLOBAL DEFAULT UND atrace_is_ready
179:   FUNC GLOBAL DEFAULT UND atrace_setup
180:   FUNC GLOBAL DEFAULT UND memcmp@LIBC (2)
181:   FUNC GLOBAL DEFAULT UND memcpy@LIBC (2)
182:   FUNC GLOBAL DEFAULT UND memset@LIBC (2)
183:   FUNC GLOBAL DEFAULT UND strlen@LIBC (2)
184:   FUNC GLOBAL DEFAULT UND _ZN7android8hardware4wifi
185:   FUNC GLOBAL DEFAULT UND _ZN7android8hardware4wifi
186:   FUNC GLOBAL DEFAULT UND _ZN7android8hardware4wifi
187:   FUNC GLOBAL DEFAULT UND _ZN7android8hardware4wifi
188:   FUNC GLOBAL DEFAULT UND _ZN7android8hardware4wifi
189:   FUNC GLOBAL DEFAULT UND _ZN7android8hardware4wifi
190:   FUNC GLOBAL DEFAULT UND _ZN7android8hardware4wifi
191:   FUNC GLOBAL DEFAULT UND _ZN7android8hardware4wifi
192:   FUNC GLOBAL DEFAULT UND _ZN7android8hardware4wifi
193:   FUNC GLOBAL DEFAULT UND _ZN7android8hardware4wifi
194:   FUNC GLOBAL DEFAULT UND _ZN7android8hardware4wifi
195:   FUNC GLOBAL DEFAULT UND _ZN7android8hardware4wifi
196:   FUNC GLOBAL DEFAULT UND _ZN7android8hardware4wifi
197:   FUNC GLOBAL DEFAULT UND _ZN7android8hardware4wifi
198:   FUNC GLOBAL DEFAULT UND _ZN7android8hardware4wifi
199:   FUNC GLOBAL DEFAULT UND _ZN7android8hardware4wifi
200:   FUNC GLOBAL DEFAULT UND _ZN7android8hardware4wifi
201:   FUNC GLOBAL DEFAULT UND _ZN7android8hardware4wifi
202:   FUNC GLOBAL DEFAULT UND _ZN7android8hardware4wifi
203:   FUNC GLOBAL DEFAULT UND _ZN7android8hardware4wifi
204:   FUNC GLOBAL DEFAULT UND _ZN7android8hardware4wifi
205:   FUNC GLOBAL DEFAULT UND _ZN7android8hardware4wifi
206:   FUNC GLOBAL DEFAULT UND _ZN7android8hardware4wifi
207:   FUNC GLOBAL DEFAULT UND _ZN7android8hardware4wifi
208:   FUNC GLOBAL DEFAULT UND _ZN7android8hardware4wifi
209:   FUNC GLOBAL DEFAULT UND _ZN7android8hardware4wifi
210:   FUNC GLOBAL DEFAULT UND _ZN7android8hardware4wifi
211:   FUNC GLOBAL DEFAULT UND _ZN7android8hardware4wifi
212:   FUNC GLOBAL DEFAULT UND _ZN7android8hardware4wifi
213:   FUNC GLOBAL DEFAULT UND _ZN7android8hardware4wifi
214:   FUNC GLOBAL DEFAULT UND _ZN7android8hardware4wifi
215:   FUNC GLOBAL DEFAULT UND _ZN7android8hardware4wifi
216:   FUNC GLOBAL DEFAULT UND _ZN7android8hardware4wifi
217:   FUNC GLOBAL DEFAULT UND _ZN7android8hardware4wifi
218:   FUNC GLOBAL DEFAULT UND _ZN7android8hardware4wifi
219:   FUNC GLOBAL DEFAULT UND _ZN7android8hardware4wifi
220:   OBJECT GLOBAL DEFAULT UND _ZN7android8hardware4wifi
221:   FUNC GLOBAL DEFAULT UND _ZN7android8hardware4wifi
222:   FUNC GLOBAL DEFAULT UND _ZN7android8hardware4wifi
223:   FUNC GLOBAL DEFAULT UND _ZN7android8hardware4wifi
224:   FUNC GLOBAL DEFAULT UND _ZN7android8hardware4wifi
225:   FUNC GLOBAL DEFAULT UND _ZN7android8hardware4wifi
226:   FUNC GLOBAL DEFAULT UND _ZN7android8hardware4wifi
227:   FUNC GLOBAL DEFAULT UND _ZN7android8hardware4wifi
228:   FUNC GLOBAL DEFAULT UND _ZN7android8hardware4wifi
229:   FUNC GLOBAL DEFAULT UND _ZN7android8hardware4wifi
230:   FUNC GLOBAL DEFAULT UND _ZN7android8hardware4wifi
231:   FUNC GLOBAL DEFAULT UND _ZN7android8hardware4wifi
232:   FUNC GLOBAL DEFAULT UND _ZN7android8hardware4wifi
233:   FUNC GLOBAL DEFAULT UND _ZN7android8hardware4wifi
234:   FUNC GLOBAL DEFAULT UND _ZN7android8hardware4wifi
235:   FUNC GLOBAL DEFAULT UND _ZN7android8hardware4wifi
236:   FUNC GLOBAL DEFAULT UND _ZN7android8hardware4wifi
237:   FUNC GLOBAL DEFAULT UND _ZN7android8hardware4wifi
238:   FUNC GLOBAL DEFAULT UND _ZN7android8hardware4wifi
239:   FUNC GLOBAL DEFAULT UND _ZN7android8hardware4wifi
240:   FUNC GLOBAL DEFAULT UND _ZN7android8hardware4wifi
241:   FUNC GLOBAL DEFAULT UND _ZN7android8hardware4wifi
242:   FUNC GLOBAL DEFAULT UND _ZN7android8hardware4wifi
243:   FUNC GLOBAL DEFAULT UND _ZN7android8hardware4wifi
244:   FUNC GLOBAL DEFAULT UND _ZN7android8hardware4wifi
245:   FUNC GLOBAL DEFAULT UND _ZN7android8hardware4wifi
246:   FUNC GLOBAL DEFAULT UND _ZN7android8hardware4wifi
247:   FUNC GLOBAL DEFAULT UND _ZN7android8hardware4wifi
248:   FUNC GLOBAL DEFAULT UND _ZN7android8hardware4wifi
249:   FUNC GLOBAL DEFAULT UND _ZN7android8hardware4wifi
250:   FUNC GLOBAL DEFAULT UND _ZN7android8hardware4wifi
251:   FUNC GLOBAL DEFAULT UND _ZN7android8hardware4wifi
252:   FUNC GLOBAL DEFAULT UND _ZN7android8hardware4wifi
253:   FUNC GLOBAL DEFAULT UND _ZN7android8hardware4wifi
254:   FUNC GLOBAL DEFAULT UND _ZN7android8hardware4wifi
255:   FUNC GLOBAL DEFAULT UND _ZN7android8hardware4wifi
256:   FUNC GLOBAL DEFAULT UND _ZN7android8hardware4wifi
257:   FUNC GLOBAL DEFAULT UND _ZN7android8hardware4wifi
258:   FUNC GLOBAL DEFAULT UND _ZN7android8hardware4wifi
259:   FUNC GLOBAL DEFAULT UND _ZN7android8hardware4wifi
260:   FUNC GLOBAL DEFAULT UND _ZN7android8hardware4wifi
261:   FUNC GLOBAL DEFAULT UND _ZN7android8hardware4wifi
262:   FUNC GLOBAL DEFAULT UND _ZN7android8hardware4wifi
263:   FUNC GLOBAL DEFAULT UND _ZN7android8hardware4wifi
264:   FUNC GLOBAL DEFAULT UND _ZN7android8hardware4wifi
265:   FUNC GLOBAL DEFAULT UND _ZN7android8hardware4wifi
266:   FUNC GLOBAL DEFAULT UND _ZN7android8hardware4wifi
267:   FUNC GLOBAL DEFAULT UND _ZN7android8hardware4wifi
268:   FUNC GLOBAL DEFAULT UND _ZN7android8hardware4wifi
269:   FUNC GLOBAL DEFAULT UND _ZN7android8hardware4wifi
270:   FUNC GLOBAL DEFAULT UND _ZN7android8hardware4wifi
271:   FUNC GLOBAL DEFAULT UND _ZN7android8hardware4wifi
272:   FUNC GLOBAL DEFAULT UND _ZN7android8hardware4wifi
273:   FUNC GLOBAL DEFAULT UND _ZN7android8hardware4wifi
274:   FUNC GLOBAL DEFAULT UND _ZN7android8hardware4wifi
275:   FUNC GLOBAL DEFAULT UND _ZN7android8hardware4wifi
276:   FUNC GLOBAL DEFAULT UND _ZN7android8hardware4wifi
277:   FUNC GLOBAL DEFAULT UND _ZN7android8hardware4wifi
278:   FUNC GLOBAL DEFAULT UND _ZN7android8hardware4wifi
279:   FUNC GLOBAL DEFAULT UND _ZN7android8hardware4wifi
280:   FUNC GLOBAL DEFAULT UND _ZN7android8hardware4wifi
281:   FUNC GLOBAL DEFAULT UND _ZN7android8hardware4wifi
282:   FUNC GLOBAL DEFAULT UND _ZN7android8hardware4wifi
283:   FUNC GLOBAL DEFAULT UND _ZN7android8hardware4wifi
284:   FUNC GLOBAL DEFAULT UND _ZN7android8hardware4wifi
285:   FUNC GLOBAL DEFAULT UND _ZN7android8hardware4wifi
286:   FUNC GLOBAL DEFAULT UND _ZN7android8hardware4wifi
287:   FUNC GLOBAL DEFAULT UND _ZN7android8hardware11hid
288:   OBJECT GLOBAL DEFAULT UND _ZN7android8hardware4wifi
289:   FUNC GLOBAL DEFAULT UND _ZN7android8hardware4wifi
290:   FUNC GLOBAL DEFAULT UND _ZN7android8hardware4wifi
291:   FUNC GLOBAL DEFAULT UND _ZN7android8hardware4wifi
292:   FUNC GLOBAL DEFAULT UND _ZN7android8hardware4wifi
293:   FUNC GLOBAL DEFAULT UND _ZN7android8hardware4wifi
294:   FUNC GLOBAL DEFAULT UND _ZN7android8hardware4wifi
295:   FUNC GLOBAL DEFAULT UND _ZN7android8hardware4wifi
296:   FUNC GLOBAL DEFAULT UND _ZN7android8hardware4wifi
297:   FUNC GLOBAL DEFAULT UND _ZN7android8hardware4wifi
298:   FUNC GLOBAL DEFAULT UND _ZN7android8hardware4wifi
299:   FUNC GLOBAL DEFAULT UND _ZN7android8hardware4wifi
300:   FUNC GLOBAL DEFAULT UND _ZN7android8hardware4wifi
301:   FUNC GLOBAL DEFAULT UND _ZN7android8hardware4wifi
302:   FUNC GLOBAL DEFAULT UND _ZN7android8hardware4wifi
303:   FUNC GLOBAL DEFAULT UND _ZN7android8hardware4wifi
304:   FUNC GLOBAL DEFAULT UND _ZN7android8hardware4wifi
305:   FUNC GLOBAL DEFAULT UND _ZN7android8hardware4wifi
306:   FUNC GLOBAL DEFAULT UND _ZN7android8hardware4wifi
307:   FUNC GLOBAL DEFAULT UND _ZN7android8hardware4wifi
308:   FUNC GLOBAL DEFAULT UND _ZN7android8hardware4wifi
309:   FUNC GLOBAL DEFAULT UND _ZN7android8hardware4wifi
310:   FUNC GLOBAL DEFAULT UND _ZN7android8hardware4wifi
311:   FUNC GLOBAL DEFAULT UND _ZN7android8hardware4wifi
312:   FUNC GLOBAL DEFAULT UND _ZN7android8hardware4wifi
313:   FUNC GLOBAL DEFAULT UND _ZN7android8hardware4wifi
314:   FUNC GLOBAL DEFAULT UND _ZN7android8hardware4wifi
315:   FUNC GLOBAL DEFAULT UND _ZN7android8hardware4wifi
316:   FUNC GLOBAL DEFAULT UND _ZN7android8hardware4wifi
317:   FUNC GLOBAL DEFAULT UND _ZN7android8hardware4wifi
318:   FUNC GLOBAL DEFAULT UND _ZN7android8hardware4wifi
319:   FUNC GLOBAL DEFAULT UND _ZN7android8hardware4wifi
320:   FUNC GLOBAL DEFAULT UND _ZN7android8hardware4wifi
321:   FUNC GLOBAL DEFAULT UND _ZN7android8hardware4wifi
322:   FUNC GLOBAL DEFAULT UND _ZN7android8hardware4wifi
323:   FUNC GLOBAL DEFAULT UND _ZN7android8hardware4wifi
324:   FUNC GLOBAL DEFAULT UND _ZN7android8hardware4wifi
325:   FUNC GLOBAL DEFAULT UND _ZN7android8hardware4wifi
326:   FUNC GLOBAL DEFAULT UND _ZN7android8hardware4wifi
327:   FUNC GLOBAL DEFAULT UND _ZN7android8hardware4wifi
328:   FUNC GLOBAL DEFAULT UND _ZN7android8hardware4wifi
329:   FUNC GLOBAL DEFAULT UND _ZN7android8hardware4wifi
330:   FUNC GLOBAL DEFAULT UND _ZN7android8hardware4wifi
331:   FUNC GLOBAL DEFAULT UND _ZN7android8hardware4wifi
332:   FUNC GLOBAL DEFAULT UND _ZN7android8hardware4wifi
333:   FUNC GLOBAL DEFAULT UND _ZN7android8hardware6Parc
334:   FUNC GLOBAL DEFAULT UND _ZNK7android8hardware6Par
335:   OBJECT GLOBAL DEFAULT UND _ZN7android8hardware4wifi
336:   FUNC GLOBAL DEFAULT UND _ZN7android8hardware4wifi
337:   FUNC GLOBAL DEFAULT UND _ZN7android8hardware4wifi
338:   FUNC GLOBAL DEFAULT UND _ZN7android8hardware4wifi
339:   FUNC GLOBAL DEFAULT UND _ZN7android8hardware4wifi
340:   FUNC GLOBAL DEFAULT UND _ZN7android8hardware4wifi
341:   FUNC GLOBAL DEFAULT UND _ZN7android8hardware4wifi
342:   FUNC GLOBAL DEFAULT UND _ZN7android8hardware4wifi
343:   FUNC GLOBAL DEFAULT UND _ZN7android8hardware4wifi
344:   FUNC GLOBAL DEFAULT UND _ZN7android8hardware4wifi
345:   FUNC GLOBAL DEFAULT UND _ZN7android8hardware4wifi
346:   FUNC GLOBAL DEFAULT UND _ZN7android8hardware4wifi
347:   FUNC GLOBAL DEFAULT UND _ZN7android8hardware4wifi
348:   FUNC GLOBAL DEFAULT UND _ZN7android8hardware4wifi
349:   FUNC GLOBAL DEFAULT UND _ZN7android8hardware4wifi
350:   FUNC GLOBAL DEFAULT UND _ZN7android8hardware4wifi
351:   FUNC GLOBAL DEFAULT UND _ZN7android8hardware4wifi
352:   OBJECT GLOBAL DEFAULT UND _ZN7android8hardware4wifi
353:   FUNC GLOBAL DEFAULT UND _ZN7android8hardware4wifi
354:   FUNC GLOBAL DEFAULT UND _ZN7android8hardware4wifi
355:   FUNC GLOBAL DEFAULT UND _ZN7android8hardware4wifi
356:   FUNC GLOBAL DEFAULT UND _ZN7android8hardware4wifi
357:   FUNC GLOBAL DEFAULT UND _ZN7android8hardware4wifi
358:   FUNC GLOBAL DEFAULT UND _ZN7android8hardware4wifi
359:   FUNC GLOBAL DEFAULT UND _ZN7android8hardware4wifi
360:   FUNC GLOBAL DEFAULT UND _ZN7android8hardware4wifi
361:   FUNC GLOBAL DEFAULT UND _ZN7android8hardware4wifi
362:   FUNC GLOBAL DEFAULT UND _ZN7android8hardware4wifi
363:   FUNC GLOBAL DEFAULT UND _ZN7android8hardware4wifi
364:   FUNC GLOBAL DEFAULT UND _ZN7android8hardware4wifi
365:   FUNC GLOBAL DEFAULT UND _ZN7android8hardware4wifi
366:   FUNC GLOBAL DEFAULT UND _ZN7android8hardware4wifi
367:   FUNC GLOBAL DEFAULT UND _ZN7android8hardware4wifi
368:   FUNC GLOBAL DEFAULT UND _ZN7android8hardware4wifi
369:   FUNC GLOBAL DEFAULT UND _ZN7android8hardware4wifi
370:   FUNC GLOBAL DEFAULT UND _ZN7android8hardware4wifi
371:   FUNC GLOBAL DEFAULT UND _ZN7android8hardware4wifi
372:   FUNC GLOBAL DEFAULT UND _ZN7android8hardware4wifi
373:   FUNC GLOBAL DEFAULT UND _ZN7android8hardware4wifi
374:   FUNC GLOBAL DEFAULT UND _ZN7android8hardware4wifi
375:   FUNC GLOBAL DEFAULT UND _ZN7android8hardware4wifi
376:   FUNC GLOBAL DEFAULT UND _ZN7android8hardware4wifi
377:   FUNC GLOBAL DEFAULT UND _ZN7android8hardware4wifi
378:   FUNC GLOBAL DEFAULT UND _ZN7android8hardware4wifi
379:   FUNC GLOBAL DEFAULT UND _ZN7android8hardware4wifi
380:   FUNC GLOBAL DEFAULT UND _ZN7android8hardware4wifi
381:   FUNC GLOBAL DEFAULT UND _ZN7android8hardware4wifi
382:   FUNC GLOBAL DEFAULT UND _ZN7android8hardware4wifi
383:   FUNC GLOBAL DEFAULT UND _ZN7android8hardware4wifi
384:   FUNC GLOBAL DEFAULT UND _ZN7android8hardware4wifi
385:   FUNC GLOBAL DEFAULT UND _ZN7android8hardware4wifi
386:   FUNC GLOBAL DEFAULT UND _ZN7android8hardware4wifi
387:   FUNC GLOBAL DEFAULT UND _ZN7android8hardware4wifi
388:   FUNC GLOBAL DEFAULT UND _ZN7android8hardware4wifi
389:   FUNC GLOBAL DEFAULT UND _ZN7android8hardware4wifi
390:   FUNC GLOBAL DEFAULT UND _ZN7android8hardware4wifi
391:   FUNC GLOBAL DEFAULT UND _ZN7android8hardware4wifi
392:   FUNC GLOBAL DEFAULT UND _ZN7android8hardware4wifi
393:   FUNC GLOBAL DEFAULT UND _ZN7android8hardware4wifi
394:   FUNC GLOBAL DEFAULT UND _ZN7android8hardware4wifi
395:   FUNC GLOBAL DEFAULT UND _ZN7android8hardware4wifi
396:   FUNC GLOBAL DEFAULT UND _ZN7android8hardware4wifi
397:   FUNC GLOBAL DEFAULT UND _ZN7android8hardware4wifi
398:   FUNC GLOBAL DEFAULT UND _ZN7android8hardware4wifi
399:   FUNC GLOBAL DEFAULT UND _ZN7android8hardware4wifi
400:   FUNC GLOBAL DEFAULT UND _ZN7android8hardware4wifi
401:   FUNC GLOBAL DEFAULT UND _ZN7android8hardware4wifi
402:   FUNC GLOBAL DEFAULT UND _ZN7android8hardware4wifi
403:   FUNC GLOBAL DEFAULT UND _ZN7android8hardware4wifi
404:   FUNC GLOBAL DEFAULT UND _ZN7android8hardware4wifi
405:   FUNC GLOBAL DEFAULT UND _ZN7android8hardware4wifi
406:   FUNC GLOBAL DEFAULT UND _ZN7android8hardware4wifi
407:   FUNC GLOBAL DEFAULT UND _ZN7android8hardware4wifi
408:   FUNC GLOBAL DEFAULT UND _ZN7android8hardware4wifi
409:   FUNC GLOBAL DEFAULT UND _ZN7android8hardware4wifi
410:   FUNC GLOBAL DEFAULT UND _ZN7android8hardware4wifi
411:   FUNC GLOBAL DEFAULT UND _ZN7android8hardware4wifi
412:   FUNC GLOBAL DEFAULT UND _ZN7android8hardware4wifi
413:   FUNC GLOBAL DEFAULT UND _ZN7android8hardware4wifi
414:   FUNC GLOBAL DEFAULT UND _ZN7android8hardware4wifi
415:   FUNC GLOBAL DEFAULT UND _ZN7android8hardware4wifi
416:   FUNC GLOBAL DEFAULT UND _ZN7android8hardware4wifi
417:   FUNC GLOBAL DEFAULT UND _ZN7android8hardware4wifi
418:   FUNC GLOBAL DEFAULT UND _ZN7android8hardware4wifi
419:   FUNC GLOBAL DEFAULT UND _ZN7android8hardware4wifi
420:   FUNC GLOBAL DEFAULT UND _ZN7android8hardware4wifi
421:   FUNC GLOBAL DEFAULT UND _ZN7android8hardware4wifi
422:   FUNC GLOBAL DEFAULT UND _ZN7android8hardware4wifi
423:   FUNC GLOBAL DEFAULT UND _ZN7android8hardware4wifi
424:   FUNC GLOBAL DEFAULT UND _ZN7android8hardware4wifi
425:   FUNC GLOBAL DEFAULT UND _ZN7android8hardware4wifi
426:   FUNC GLOBAL DEFAULT UND _ZN7android8hardware4wifi
427:   FUNC GLOBAL DEFAULT UND _ZN7android8hardware4wifi
428:   FUNC GLOBAL DEFAULT UND _ZN7android8hardware4wifi
429:   FUNC GLOBAL DEFAULT UND _ZN7android8hardware4wifi
430:   FUNC GLOBAL DEFAULT UND _ZN7android8hardware4wifi
431:   FUNC GLOBAL DEFAULT UND _ZN7android8hardware4wifi
432:   FUNC GLOBAL DEFAULT UND _ZN7android8hardware4wifi
433:   FUNC GLOBAL DEFAULT UND _ZN7android8hardware4wifi
434:   FUNC GLOBAL DEFAULT UND _ZN7android8hardware4wifi
435:   FUNC GLOBAL DEFAULT UND _ZN7android8hardware4wifi
436:   FUNC GLOBAL DEFAULT UND _ZN7android8hardware4wifi
437:   FUNC GLOBAL DEFAULT UND _ZN7android8hardware4wifi
438:   FUNC GLOBAL DEFAULT UND _ZN7android8hardware4wifi
439:   FUNC GLOBAL DEFAULT UND _ZN7android8hardware4wifi
440:   FUNC GLOBAL DEFAULT UND _ZN7android8hardware4wifi
441:   FUNC GLOBAL DEFAULT UND _ZN7android8hardware4wifi
442:   FUNC GLOBAL DEFAULT UND _ZN7android8hardware4wifi
443:   FUNC GLOBAL DEFAULT UND _ZN7android8hardware4wifi
444:   FUNC GLOBAL DEFAULT UND _ZN7android8hardware4wifi
445:   FUNC GLOBAL DEFAULT UND _ZN7android8hardware4wifi
446:   FUNC GLOBAL DEFAULT UND _ZN7android8hardware4wifi
447:   FUNC GLOBAL DEFAULT UND _ZN7android8hardware4wifi
448:   FUNC GLOBAL DEFAULT UND _ZN7android8hardware4wifi
449:   FUNC GLOBAL DEFAULT UND _ZN7android8hardware4wifi
450:   FUNC GLOBAL DEFAULT UND _ZN7android8hardware4wifi
451:   FUNC GLOBAL DEFAULT UND _ZN7android8hardware4wifi
452:   FUNC GLOBAL DEFAULT UND _ZN7android8hardware4wifi
453:   FUNC GLOBAL DEFAULT UND _ZN7android8hardware4wifi
454:   FUNC GLOBAL DEFAULT UND _ZN7android8hardware4wifi
455:   FUNC GLOBAL DEFAULT UND _ZN7android8hardware4wifi
456:   FUNC GLOBAL DEFAULT UND _ZN7android8hardware4wifi
457:   FUNC GLOBAL DEFAULT UND _ZN7android8hardware4wifi
458:   FUNC GLOBAL DEFAULT UND _ZN7android8hardware4wifi
459:   FUNC GLOBAL DEFAULT UND _ZN7android8hardware4wifi
460:   FUNC GLOBAL DEFAULT UND _ZN7android8hardware4wifi
461:   FUNC GLOBAL DEFAULT UND _ZN7android8hardware4wifi
462:   FUNC GLOBAL DEFAULT UND _ZN7android8hardware4wifi
463:   FUNC GLOBAL DEFAULT UND _ZN7android8hardware4wifi
464:   FUNC GLOBAL DEFAULT UND _ZN7android8hardware4wifi
465:   FUNC GLOBAL DEFAULT UND _ZN7android8hardware4wifi
466:   FUNC GLOBAL DEFAULT UND _ZN7android8hardware4wifi
467:   FUNC GLOBAL DEFAULT UND _ZN7android8hardware4wifi
468:   FUNC GLOBAL DEFAULT UND _ZN7android8hardware4wifi
469:   FUNC GLOBAL DEFAULT UND _ZN7android8hardware4wifi
470:   FUNC GLOBAL DEFAULT UND _ZN7android8hardware4wifi
471:   FUNC GLOBAL DEFAULT UND _ZN7android8hardware4wifi
472:   FUNC GLOBAL DEFAULT UND _ZN7android8hardware4wifi
473:   FUNC GLOBAL DEFAULT UND _ZN7android8hardware4wifi
474:   FUNC GLOBAL DEFAULT UND _ZN7android8hardware4wifi
475:   FUNC GLOBAL DEFAULT UND _ZN7android8hardware4wifi
476:   FUNC GLOBAL DEFAULT UND _ZN7android8hardware4wifi
477:   FUNC GLOBAL DEFAULT UND _ZN7android8hardware4wifi
478:   FUNC GLOBAL DEFAULT UND _ZN7android8hardware4wifi
479:   FUNC GLOBAL DEFAULT UND _ZN7android8hardware4wifi
480:   FUNC GLOBAL DEFAULT UND _ZN7android8hardware4wifi
481:   FUNC GLOBAL DEFAULT UND _ZN7android8hardware4wifi
482:   FUNC GLOBAL DEFAULT UND _ZN7android8hardware4wifi
483:   FUNC GLOBAL DEFAULT UND _ZN7android8hardware4wifi
484:   FUNC GLOBAL DEFAULT UND _ZN7android8hardware4wifi
485:   FUNC GLOBAL DEFAULT UND _ZN7android8hardware4wifi
486:   FUNC GLOBAL DEFAULT UND _ZN7android8hardware4wifi
487:   FUNC GLOBAL DEFAULT UND _ZN7android8hardware4wifi
488:   FUNC GLOBAL DEFAULT UND _ZN7android8hardware4wifi
489:   FUNC GLOBAL DEFAULT UND _ZN7android8hardware4wifi
490:   FUNC GLOBAL DEFAULT UND _ZN7android8hardware4wifi
491:   FUNC GLOBAL DEFAULT UND _ZN7android8hardware4wifi
492:   FUNC GLOBAL DEFAULT UND _ZN7android8hardware4wifi
493:   FUNC GLOBAL DEFAULT UND _ZN7android8hardware4wifi
494:   FUNC GLOBAL DEFAULT UND _ZN7android8hardware4wifi
495:   FUNC GLOBAL DEFAULT UND _ZN7android8hardware4wifi
496:   FUNC GLOBAL DEFAULT UND _ZN7android8hardware4wifi
497:   FUNC GLOBAL DEFAULT UND _ZN7android8hardware4wifi
498:   FUNC GLOBAL DEFAULT UND _ZN7android8hardware4wifi
499:   FUNC GLOBAL DEFAULT UND _ZN7android8hardware4wifi
500:   FUNC GLOBAL DEFAULT UND _ZN7android8hardware4wifi
501:   FUNC GLOBAL DEFAULT UND _ZN7android8hardware6Parc
502:   FUNC GLOBAL DEFAULT UND _ZNK7android8hardware6Par
503:   FUNC WEAK DEFAULT 14 _ZN7android8hardware7deta
504:   FUNC GLOBAL DEFAULT 14 _ZThn32_N7android8hardwar
505:   FUNC GLOBAL DEFAULT 14 _ZN7android8hardware4wifi
506:   FUNC GLOBAL DEFAULT 14 _ZN7android8hardware4wifi
507:   FUNC GLOBAL DEFAULT 14 _ZN7android8hardware4wifi
508:   OBJECT GLOBAL DEFAULT 18 _ZTCN7android8hardware4wi
509:   FUNC GLOBAL DEFAULT 14 _ZN7android8hardware4wifi
510:   FUNC GLOBAL DEFAULT 14 _ZN7android8hardware4wifi
511:   OBJECT GLOBAL DEFAULT 16 _ZN7android8hardware4wifi
512:   FUNC GLOBAL DEFAULT 14 _ZN7android8hardware4wifi
513:   FUNC GLOBAL DEFAULT 14 _ZN7android8hardware4wifi
514:   FUNC GLOBAL DEFAULT 14 _ZN7android8hardware4wifi
515:   FUNC GLOBAL DEFAULT 14 _ZN7android8hardware4wifi
516:   FUNC GLOBAL DEFAULT 14 _ZN7android8hardware4wifi
517:   FUNC GLOBAL DEFAULT 14 _ZN7android8hardware4wifi
518:   FUNC GLOBAL DEFAULT 14 _ZN7android8hardware4wifi
519:   FUNC GLOBAL DEFAULT 14 _ZN7android8hardware4wifi
520:   FUNC GLOBAL DEFAULT 14 _ZN7android8hardware4wifi
521:   FUNC GLOBAL DEFAULT 14 _ZN7android8hardware4wifi
522:   OBJECT GLOBAL DEFAULT 18 _ZTCN7android8hardware4wi
523:   OBJECT GLOBAL DEFAULT 18 _ZTTN7android8hardware4wi
524:   FUNC GLOBAL DEFAULT 14 _ZN7android8hardware4wifi
525:   OBJECT GLOBAL DEFAULT 18 _ZTVN7android8hardware4wi
526:   OBJECT GLOBAL DEFAULT 18 _ZTTN7android8hardware4wi
527:   FUNC GLOBAL DEFAULT 14 _ZN7android8hardware4wifi
528:   FUNC WEAK DEFAULT 14 _ZNSt3__16__treeINS_12__v
529:   FUNC GLOBAL DEFAULT 14 _ZN7android8hardware4wifi
530:   FUNC GLOBAL DEFAULT 14 _ZN7android8hardware4wifi
531:   FUNC GLOBAL DEFAULT 14 _ZTv0_n24_N7android8hardw
532:   OBJECT GLOBAL DEFAULT 18 _ZTTN7android8hardware4wi
533:   FUNC GLOBAL DEFAULT 14 _ZN7android8hardware4wifi
534:   FUNC WEAK DEFAULT 14 _ZNSt3__16__treeINS_12__v
535:   FUNC GLOBAL DEFAULT 14 _ZN7android8hardware4wifi
536:   OBJECT GLOBAL DEFAULT 18 _ZTTN7android8hardware4wi
537:   FUNC GLOBAL DEFAULT 14 _ZN7android8hardware4wifi
538:   FUNC GLOBAL DEFAULT 14 _ZN7android8hardware4wifi
539:   FUNC GLOBAL DEFAULT 14 _ZN7android8hardware4wifi
540:   OBJECT GLOBAL DEFAULT 18 _ZTTN7android8hardware4wi
541:   FUNC GLOBAL DEFAULT 14 _ZN7android8hardware4wifi
542:   OBJECT GLOBAL DEFAULT 18 _ZTCN7android8hardware4wi
543:   FUNC GLOBAL DEFAULT 14 _ZN7android8hardware4wifi
544:   FUNC GLOBAL DEFAULT 14 _ZN7android8hardware4wifi
545:   FUNC GLOBAL DEFAULT 14 _ZN7android8hardware4wifi
546:   FUNC GLOBAL DEFAULT 14 _ZN7android8hardware4wifi
547:   FUNC WEAK DEFAULT 14 _ZNSt3__16__treeINS_12__v
548:   FUNC GLOBAL DEFAULT 14 _ZN7android8hardware4wifi
549:   FUNC GLOBAL DEFAULT 14 _ZN7android8hardware4wifi
550:   FUNC GLOBAL DEFAULT 14 _ZN7android8hardware4wifi
551:   FUNC GLOBAL DEFAULT 14 _ZN7android8hardware4wifi
552:   FUNC GLOBAL DEFAULT 14 _ZN7android8hardware4wifi
553:   FUNC GLOBAL DEFAULT 14 _ZN7android8hardware4wifi
554:   FUNC GLOBAL DEFAULT 14 _ZTv0_n24_N7android8hardw
555:   OBJECT GLOBAL DEFAULT 18 _ZTCN7android8hardware4wi
556:   FUNC GLOBAL DEFAULT 14 _ZN7android8hardware4wifi
557:   FUNC GLOBAL DEFAULT 14 _ZN7android8hardware4wifi
558:   FUNC GLOBAL DEFAULT 14 _ZN7android8hardware4wifi
559:   FUNC GLOBAL DEFAULT 14 _ZN7android8hardware4wifi
560:   FUNC GLOBAL DEFAULT 14 _ZN7android8hardware4wifi
561:   FUNC GLOBAL DEFAULT 14 _ZN7android8hardware4wifi
562:   FUNC WEAK DEFAULT 14 _ZN7android8hardware7deta
563:   FUNC GLOBAL DEFAULT 14 _ZN7android8hardware4wifi
564:   FUNC WEAK DEFAULT 14 _ZNSt3__16vectorINS_8func
565:   FUNC GLOBAL DEFAULT 14 _ZN7android8hardware4wifi
566:   FUNC GLOBAL DEFAULT 14 _ZN7android8hardware4wifi
567:   FUNC GLOBAL DEFAULT 14 _ZN7android8hardware4wifi
568:   FUNC WEAK DEFAULT 14 _ZN7android8hardware7deta
569:   FUNC GLOBAL DEFAULT 14 _ZN7android8hardware4wifi
570:   FUNC GLOBAL DEFAULT 14 _ZN7android8hardware4wifi
571:   FUNC GLOBAL DEFAULT 14 _ZN7android8hardware4wifi
572:   OBJECT GLOBAL DEFAULT 18 _ZTCN7android8hardware4wi
573:   FUNC GLOBAL DEFAULT 14 _ZN7android8hardware4wifi
574:   FUNC GLOBAL DEFAULT 14 _ZN7android8hardware4wifi
575:   OBJECT GLOBAL DEFAULT 18 _ZTCN7android8hardware4wi
576:   FUNC GLOBAL DEFAULT 14 _ZN7android8hardware4wifi
577:   FUNC GLOBAL DEFAULT 14 _ZN7android8hardware4wifi
578:   FUNC GLOBAL DEFAULT 14 _ZN7android8hardware4wifi
579:   FUNC WEAK DEFAULT 14 _ZN7android8hardware7deta
580:   FUNC GLOBAL DEFAULT 14 _ZN7android8hardware4wifi
581:   FUNC GLOBAL DEFAULT 14 _ZN7android8hardware4wifi
582:   FUNC GLOBAL DEFAULT 14 _ZN7android8hardware4wifi
583:   FUNC GLOBAL DEFAULT 14 _ZN7android8hardware4wifi
584:   FUNC GLOBAL DEFAULT 14 _ZN7android8hardware4wifi
585:   FUNC GLOBAL DEFAULT 14 _ZN7android8hardware4wifi
586:   OBJECT GLOBAL DEFAULT 18 _ZTCN7android8hardware4wi
587:   FUNC GLOBAL DEFAULT 14 _ZN7android8hardware4wifi
588:   FUNC GLOBAL DEFAULT 14 _ZN7android8hardware4wifi
589:   FUNC GLOBAL DEFAULT 14 _ZN7android8hardware4wifi
590:   OBJECT GLOBAL DEFAULT 18 _ZTTN7android8hardware4wi
591:   FUNC GLOBAL DEFAULT 14 _ZN7android8hardware4wifi
592:   FUNC GLOBAL DEFAULT 14 _ZN7android8hardware4wifi
593:   FUNC GLOBAL DEFAULT 14 _ZN7android8hardware4wifi
594:   FUNC GLOBAL DEFAULT 14 _ZN7android8hardware4wifi
595:   OBJECT GLOBAL DEFAULT 18 _ZTCN7android8hardware4wi
596:   OBJECT GLOBAL DEFAULT 18 _ZTVN7android8hardware4wi
597:   FUNC GLOBAL DEFAULT 14 _ZN7android8hardware4wifi
598:   FUNC GLOBAL DEFAULT 14 _ZN7android8hardware4wifi
599:   FUNC GLOBAL DEFAULT 14 _ZN7android8hardware4wifi
600:   FUNC GLOBAL DEFAULT 14 _ZN7android8hardware4wifi
601:   OBJECT GLOBAL DEFAULT 18 _ZTCN7android8hardware4wi
602:   FUNC GLOBAL DEFAULT 14 _ZN7android8hardware4wifi
603:   FUNC GLOBAL DEFAULT 14 _ZN7android8hardware4wifi
604:   FUNC GLOBAL DEFAULT 14 _ZN7android8hardware4wifi
605:   FUNC GLOBAL DEFAULT 14 _ZN7android8hardware4wifi
606:   FUNC GLOBAL DEFAULT 14 _ZN7android8hardware4wifi
607:   FUNC GLOBAL DEFAULT 14 _ZN7android8hardware4wifi
608:   FUNC GLOBAL DEFAULT 14 _ZN7android8hardware4wifi
609:   FUNC GLOBAL DEFAULT 14 _ZN7android8hardware4wifi
610:   FUNC GLOBAL DEFAULT 14 _ZN7android8hardware4wifi
611:   FUNC GLOBAL DEFAULT 14 _ZN7android8hardware4wifi
612:   OBJECT GLOBAL DEFAULT 18 _ZTCN7android8hardware4wi
613:   FUNC GLOBAL DEFAULT 14 _ZN7android8hardware4wifi
614:   OBJECT GLOBAL DEFAULT 18 _ZTCN7android8hardware4wi
615:   FUNC GLOBAL DEFAULT 14 _ZN7android8hardware4wifi
616:   OBJECT GLOBAL DEFAULT 18 _ZTCN7android8hardware4wi
617:   FUNC GLOBAL DEFAULT 14 _ZThn32_N7android8hardwar
618:   FUNC GLOBAL DEFAULT 14 _ZN7android8hardware4wifi
619:   FUNC GLOBAL DEFAULT 14 _ZN7android8hardware4wifi
620:   FUNC WEAK DEFAULT 14 _ZN7android8hardware7deta
621:   FUNC GLOBAL DEFAULT 14 _ZN7android8hardware4wifi
622:   FUNC GLOBAL DEFAULT 14 _ZN7android8hardware4wifi
623:   FUNC GLOBAL DEFAULT 14 _ZTv0_n24_N7android8hardw
624:   FUNC GLOBAL DEFAULT 14 _ZN7android8hardware4wifi
625:   FUNC GLOBAL DEFAULT 14 _ZN7android8hardware4wifi
626:   FUNC WEAK DEFAULT 14 _ZN7android8hardware7deta
627:   OBJECT GLOBAL DEFAULT 16 _ZN7android8hardware4wifi
628:   FUNC GLOBAL DEFAULT 14 _ZN7android8hardware4wifi
629:   OBJECT GLOBAL DEFAULT 18 _ZTCN7android8hardware4wi
630:   FUNC GLOBAL DEFAULT 14 _ZN7android8hardware4wifi
631:   OBJECT GLOBAL DEFAULT 18 _ZTVN7android8hardware4wi
632:   FUNC GLOBAL DEFAULT 14 _ZN7android8hardware4wifi
633:   FUNC GLOBAL DEFAULT 14 _ZN7android8hardware4wifi
634:   OBJECT GLOBAL DEFAULT 18 _ZTTN7android8hardware4wi
635:   OBJECT WEAK DEFAULT 18 _ZTCN7android8hardware4wi
636:   OBJECT GLOBAL DEFAULT 18 _ZTCN7android8hardware4wi
637:   FUNC GLOBAL DEFAULT 14 _ZN7android8hardware4wifi
638:   FUNC GLOBAL DEFAULT 14 _ZN7android8hardware4wifi
639:   FUNC GLOBAL DEFAULT 14 _ZN7android8hardware4wifi
640:   FUNC GLOBAL DEFAULT 14 _ZN7android8hardware4wifi
641:   FUNC WEAK DEFAULT 14 _ZN7android8hardware7deta
642:   OBJECT GLOBAL DEFAULT 18 _ZTCN7android8hardware4wi
643:   FUNC GLOBAL DEFAULT 14 _ZN7android8hardware4wifi
644:   FUNC GLOBAL DEFAULT 14 _ZN7android8hardware4wifi
645:   FUNC GLOBAL DEFAULT 14 _ZN7android8hardware4wifi
646:   FUNC WEAK DEFAULT 14 _ZN7android8hardware7deta
647:   OBJECT GLOBAL DEFAULT 18 _ZTCN7android8hardware4wi
648:   OBJECT GLOBAL DEFAULT 18 _ZTCN7android8hardware4wi
649:   FUNC WEAK DEFAULT 14 _ZNSt3__16vectorIN7androi
650:   FUNC GLOBAL DEFAULT 14 _ZN7android8hardware4wifi
651:   OBJECT GLOBAL DEFAULT 18 _ZTTN7android8hardware4wi
652:   FUNC GLOBAL DEFAULT 14 _ZN7android8hardware4wifi
653:   FUNC GLOBAL DEFAULT 14 _ZN7android8hardware4wifi
654:   FUNC GLOBAL DEFAULT 14 _ZTv0_n24_N7android8hardw
655:   FUNC GLOBAL DEFAULT 14 _ZN7android8hardware4wifi
656:   FUNC GLOBAL DEFAULT 14 _ZN7android8hardware4wifi
657:   FUNC GLOBAL DEFAULT 14 _ZN7android8hardware4wifi
658:   FUNC GLOBAL DEFAULT 14 _ZN7android8hardware4wifi
659:   FUNC GLOBAL DEFAULT 14 _ZN7android8hardware4wifi
660:   FUNC GLOBAL DEFAULT 14 _ZN7android8hardware4wifi
661:   OBJECT GLOBAL DEFAULT 18 _ZTCN7android8hardware4wi
662:   OBJECT GLOBAL DEFAULT 18 _ZTCN7android8hardware4wi
663:   OBJECT GLOBAL DEFAULT 18 _ZTCN7android8hardware4wi
664:   FUNC GLOBAL DEFAULT 14 _ZN7android8hardware4wifi
665:   FUNC GLOBAL DEFAULT 14 _ZN7android8hardware4wifi
666:   FUNC GLOBAL DEFAULT 14 _ZN7android8hardware4wifi
667:   FUNC GLOBAL DEFAULT 14 _ZN7android8hardware4wifi
668:   FUNC GLOBAL DEFAULT 14 _ZN7android8hardware4wifi
669:   FUNC GLOBAL DEFAULT 14 _ZN7android8hardware4wifi
670:   FUNC GLOBAL DEFAULT 14 _ZN7android8hardware4wifi
671:   FUNC GLOBAL DEFAULT 14 _ZN7android8hardware4wifi
672:   FUNC GLOBAL DEFAULT 14 _ZN7android8hardware4wifi
673:   OBJECT GLOBAL DEFAULT 18 _ZTCN7android8hardware4wi
674:   FUNC GLOBAL DEFAULT 14 _ZN7android8hardware4wifi
675:   OBJECT GLOBAL DEFAULT 18 _ZTCN7android8hardware4wi
676:   FUNC GLOBAL DEFAULT 14 _ZN7android8hardware4wifi
677:   FUNC GLOBAL DEFAULT 14 _ZN7android8hardware4wifi
678:   FUNC GLOBAL DEFAULT 14 _ZN7android8hardware4wifi
679:   FUNC GLOBAL DEFAULT 14 _ZN7android8hardware4wifi
680:   FUNC GLOBAL DEFAULT 14 _ZN7android8hardware4wifi
681:   OBJECT GLOBAL DEFAULT 18 _ZTCN7android8hardware4wi
682:   FUNC GLOBAL DEFAULT 14 _ZN7android8hardware4wifi
683:   FUNC GLOBAL DEFAULT 14 _ZN7android8hardware4wifi
684:   FUNC GLOBAL DEFAULT 14 _ZN7android8hardware4wifi
685:   FUNC GLOBAL DEFAULT 14 _ZN7android8hardware4wifi
686:   OBJECT GLOBAL DEFAULT 18 _ZTCN7android8hardware4wi
687:   FUNC GLOBAL DEFAULT 14 _ZN7android8hardware4wifi
688:   FUNC GLOBAL DEFAULT 14 _ZN7android8hardware4wifi
689:   FUNC GLOBAL DEFAULT 14 _ZN7android8hardware4wifi
690:   FUNC GLOBAL DEFAULT 14 _ZN7android8hardware4wifi
691:   FUNC GLOBAL DEFAULT 14 _ZN7android8hardware4wifi
692:   FUNC GLOBAL DEFAULT 14 _ZN7android8hardware4wifi
693:   FUNC GLOBAL DEFAULT 14 _ZN7android8hardware4wifi
694:   FUNC GLOBAL DEFAULT 14 _ZTv0_n24_N7android8hardw
695:   FUNC GLOBAL DEFAULT 14 _ZN7android8hardware4wifi
696:   FUNC GLOBAL DEFAULT 14 _ZN7android8hardware4wifi
697:   FUNC GLOBAL DEFAULT 14 _ZN7android8hardware4wifi
698:   FUNC GLOBAL DEFAULT 14 _ZN7android8hardware4wifi
699:   FUNC GLOBAL DEFAULT 14 _ZN7android8hardware4wifi
700:   FUNC GLOBAL DEFAULT 14 _ZN7android8hardware4wifi
701:   FUNC GLOBAL DEFAULT 14 _ZThn32_N7android8hardwar
702:   FUNC GLOBAL DEFAULT 14 _ZN7android8hardware4wifi
703:   OBJECT GLOBAL DEFAULT 18 _ZTCN7android8hardware4wi
704:   FUNC GLOBAL DEFAULT 14 _ZN7android8hardware4wifi
705:   OBJECT GLOBAL DEFAULT 18 _ZTCN7android8hardware4wi
706:   FUNC GLOBAL DEFAULT 14 _ZN7android8hardware4wifi
707:   FUNC GLOBAL DEFAULT 14 _ZN7android8hardware4wifi
708:   OBJECT GLOBAL DEFAULT 16 _ZN7android8hardware4wifi
709:   FUNC GLOBAL DEFAULT 14 _ZN7android8hardware4wifi
710:   OBJECT WEAK DEFAULT 18 _ZTCN7android8hardware4wi
711:   FUNC GLOBAL DEFAULT 14 _ZN7android8hardware4wifi
712:   FUNC GLOBAL DEFAULT 14 _ZN7android8hardware4wifi
713:   FUNC GLOBAL DEFAULT 14 _ZN7android8hardware4wifi
714:   FUNC GLOBAL DEFAULT 14 _ZN7android8hardware4wifi
715:   OBJECT GLOBAL DEFAULT 18 _ZTCN7android8hardware4wi
716:   FUNC GLOBAL DEFAULT 14 _ZN7android8hardware4wifi
717:   FUNC GLOBAL DEFAULT 14 _ZN7android8hardware4wifi
718:   FUNC GLOBAL DEFAULT 14 _ZN7android8hardware4wifi
719:   FUNC GLOBAL DEFAULT 14 _ZN7android8hardware4wifi
720:   FUNC GLOBAL DEFAULT 14 _ZN7android8hardware4wifi
721:   FUNC GLOBAL DEFAULT 14 _ZN7android8hardware4wifi
722:   FUNC GLOBAL DEFAULT 14 _ZN7android8hardware4wifi
723:   FUNC GLOBAL DEFAULT 14 _ZN7android8hardware4wifi
724:   FUNC GLOBAL DEFAULT 14 _ZN7android8hardware4wifi
725:   FUNC GLOBAL DEFAULT 14 _ZN7android8hardware4wifi
726:   FUNC GLOBAL DEFAULT 14 _ZN7android8hardware4wifi
727:   FUNC WEAK DEFAULT 14 _ZN7android8hardware7deta
728:   OBJECT GLOBAL DEFAULT 18 _ZTVN7android8hardware4wi
729:   FUNC GLOBAL DEFAULT 14 _ZN7android8hardware4wifi
730:   FUNC GLOBAL DEFAULT 14 _ZN7android8hardware4wifi
731:   FUNC WEAK DEFAULT 14 _ZN7android8hardware7deta
732:   FUNC GLOBAL DEFAULT 14 _ZN7android8hardware4wifi
733:   FUNC GLOBAL DEFAULT 14 _ZN7android8hardware4wifi
734:   FUNC WEAK DEFAULT 14 _ZN7android8hardware7deta
735:   FUNC GLOBAL DEFAULT 14 _ZN7android8hardware4wifi
736:   FUNC GLOBAL DEFAULT 14 _ZN7android8hardware4wifi
737:   FUNC GLOBAL DEFAULT 14 _ZN7android8hardware4wifi
738:   FUNC GLOBAL DEFAULT 14 _ZN7android8hardware4wifi
739:   FUNC GLOBAL DEFAULT 14 _ZN7android8hardware4wifi
740:   FUNC GLOBAL DEFAULT 14 _ZN7android8hardware4wifi
741:   FUNC GLOBAL DEFAULT 14 _ZN7android8hardware4wifi
742:   FUNC GLOBAL DEFAULT 14 _ZN7android8hardware4wifi
743:   OBJECT WEAK DEFAULT 18 _ZTVN7android8hardware4wi
744:   FUNC WEAK DEFAULT 14 _ZNSt3__16__treeINS_12__v
745:   FUNC GLOBAL DEFAULT 14 _ZN7android8hardware4wifi
746:   FUNC GLOBAL DEFAULT 14 _ZN7android8hardware4wifi
747:   OBJECT GLOBAL DEFAULT 18 _ZTCN7android8hardware4wi
748:   FUNC GLOBAL DEFAULT 14 _ZN7android8hardware4wifi
749:   FUNC GLOBAL DEFAULT 14 _ZThn32_N7android8hardwar
750:   FUNC GLOBAL DEFAULT 14 _ZN7android8hardware4wifi
751:   FUNC GLOBAL DEFAULT 14 _ZN7android8hardware4wifi
752:   FUNC GLOBAL DEFAULT 14 _ZN7android8hardware4wifi
753:   FUNC GLOBAL DEFAULT 14 _ZN7android8hardware4wifi
754:   OBJECT GLOBAL DEFAULT 18 _ZTCN7android8hardware4wi
755:   FUNC GLOBAL DEFAULT 14 _ZN7android8hardware4wifi
756:   OBJECT GLOBAL DEFAULT 18 _ZTVN7android8hardware4wi
757:   FUNC GLOBAL DEFAULT 14 _ZN7android8hardware4wifi
758:   FUNC WEAK DEFAULT 14 _ZN7android8hardware7deta
759:   FUNC GLOBAL DEFAULT 14 _ZN7android8hardware4wifi
760:   FUNC GLOBAL DEFAULT 14 _ZN7android8hardware4wifi
761:   FUNC GLOBAL DEFAULT 14 _ZN7android8hardware4wifi
762:   OBJECT GLOBAL DEFAULT 18 _ZTVN7android8hardware4wi
763:   FUNC GLOBAL DEFAULT 14 _ZN7android8hardware4wifi
764:   FUNC GLOBAL DEFAULT 14 _ZN7android8hardware4wifi
765:   FUNC GLOBAL DEFAULT 14 _ZN7android8hardware4wifi
766:   FUNC GLOBAL DEFAULT 14 _ZN7android8hardware4wifi
767:   FUNC GLOBAL DEFAULT 14 _ZN7android8hardware4wifi
768:   FUNC GLOBAL DEFAULT 14 _ZN7android8hardware4wifi
769:   FUNC GLOBAL DEFAULT 14 _ZN7android8hardware4wifi
770:   FUNC GLOBAL DEFAULT 14 _ZN7android8hardware4wifi
771:   FUNC GLOBAL DEFAULT 14 _ZN7android8hardware4wifi
772:   FUNC GLOBAL DEFAULT 14 _ZN7android8hardware4wifi
773:   FUNC GLOBAL DEFAULT 14 _ZN7android8hardware4wifi
774:   OBJECT GLOBAL DEFAULT 18 _ZTCN7android8hardware4wi
775:   FUNC GLOBAL DEFAULT 14 _ZN7android8hardware4wifi
776:   FUNC GLOBAL DEFAULT 14 _ZN7android8hardware4wifi
777:   FUNC WEAK DEFAULT 14 _ZN7android8hardware10fro
778:   FUNC GLOBAL DEFAULT 14 _ZTv0_n24_N7android8hardw
779:   FUNC GLOBAL DEFAULT 14 _ZN7android8hardware4wifi
780:   FUNC GLOBAL DEFAULT 14 _ZN7android8hardware4wifi
781:   FUNC GLOBAL DEFAULT 14 _ZN7android8hardware4wifi
782:   FUNC GLOBAL DEFAULT 14 _ZN7android8hardware4wifi
783:   FUNC GLOBAL DEFAULT 14 _ZN7android8hardware4wifi
784:   OBJECT GLOBAL DEFAULT 18 _ZTVN7android8hardware4wi
785:   FUNC GLOBAL DEFAULT 14 _ZThn32_N7android8hardwar
786:   FUNC GLOBAL DEFAULT 14 _ZN7android8hardware4wifi
787:   FUNC GLOBAL DEFAULT 14 _ZN7android8hardware4wifi
788:   FUNC WEAK DEFAULT 14 _ZNSt3__127__tree_balance
789:   FUNC WEAK DEFAULT 14 _ZNSt3__16__treeINS_12__v
790:   FUNC GLOBAL DEFAULT 14 _ZN7android8hardware4wifi
791:   OBJECT GLOBAL DEFAULT 18 _ZTVN7android8hardware4wi
792:   OBJECT GLOBAL DEFAULT 18 _ZTVN7android8hardware4wi
793:   FUNC GLOBAL DEFAULT 14 _ZN7android8hardware4wifi
794:   FUNC GLOBAL DEFAULT 14 _ZN7android8hardware4wifi
795:   FUNC GLOBAL DEFAULT 14 _ZN7android8hardware4wifi
796:   FUNC GLOBAL DEFAULT 14 _ZN7android8hardware4wifi
797:   FUNC GLOBAL DEFAULT 14 _ZN7android8hardware4wifi
798:   FUNC GLOBAL DEFAULT 14 _ZN7android8hardware4wifi
799:   FUNC GLOBAL DEFAULT 14 _ZN7android8hardware4wifi
800:   OBJECT GLOBAL DEFAULT 18 _ZTCN7android8hardware4wi
801:   OBJECT WEAK DEFAULT 18 _ZTCN7android8hardware4wi
802:   FUNC GLOBAL DEFAULT 14 _ZN7android8hardware4wifi
803:   FUNC GLOBAL DEFAULT 14 _ZN7android8hardware4wifi
804:   FUNC GLOBAL DEFAULT 14 _ZN7android8hardware4wifi
805:   FUNC GLOBAL DEFAULT 14 _ZN7android8hardware4wifi
806:   FUNC GLOBAL DEFAULT 14 _ZN7android8hardware4wifi
807:   FUNC GLOBAL DEFAULT 14 _ZN7android8hardware4wifi
808:   FUNC GLOBAL DEFAULT 14 _ZN7android8hardware4wifi
809:   FUNC GLOBAL DEFAULT 14 _ZN7android8hardware4wifi
810:   FUNC GLOBAL DEFAULT 14 _ZN7android8hardware4wifi
811:   FUNC GLOBAL DEFAULT 14 _ZN7android8hardware4wifi
812:   OBJECT GLOBAL DEFAULT 18 _ZTTN7android8hardware4wi
813:   FUNC GLOBAL DEFAULT 14 _ZN7android8hardware4wifi
814:   OBJECT GLOBAL DEFAULT 18 _ZTCN7android8hardware4wi
815:   FUNC GLOBAL DEFAULT 14 _ZN7android8hardware4wifi
816:   OBJECT GLOBAL DEFAULT 18 _ZTCN7android8hardware4wi
817:   OBJECT GLOBAL DEFAULT 18 _ZTCN7android8hardware4wi
818:   FUNC GLOBAL DEFAULT 14 _ZN7android8hardware4wifi
819:   FUNC GLOBAL DEFAULT 14 _ZN7android8hardware4wifi
820:   FUNC WEAK DEFAULT 14 _ZN7android8hardware10fro
821:   FUNC GLOBAL DEFAULT 14 _ZN7android8hardware4wifi
822:   FUNC GLOBAL DEFAULT 14 _ZN7android8hardware4wifi
823:   FUNC WEAK DEFAULT 14 _ZNSt3__16vectorIPvNS_9al
824:   FUNC GLOBAL DEFAULT 14 _ZN7android8hardware4wifi
825:   FUNC GLOBAL DEFAULT 14 _ZN7android8hardware4wifi
826:   FUNC GLOBAL DEFAULT 14 _ZN7android8hardware4wifi
827:   FUNC GLOBAL DEFAULT 14 _ZN7android8hardware4wifi
828:   FUNC WEAK DEFAULT 14 _ZN7android8hardware7deta
829:   FUNC GLOBAL DEFAULT 14 _ZN7android8hardware4wifi
830:   FUNC GLOBAL DEFAULT 14 _ZTv0_n24_N7android8hardw
831:   FUNC GLOBAL DEFAULT 14 _ZN7android8hardware4wifi
832:   FUNC GLOBAL DEFAULT 14 _ZN7android8hardware4wifi
833:   OBJECT GLOBAL DEFAULT 18 _ZTCN7android8hardware4wi
834:   FUNC GLOBAL DEFAULT 14 _ZN7android8hardware4wifi
835:   FUNC GLOBAL DEFAULT 14 _ZN7android8hardware4wifi
836:   FUNC GLOBAL DEFAULT 14 _ZN7android8hardware4wifi
837:   OBJECT GLOBAL DEFAULT 18 _ZTCN7android8hardware4wi
838:   FUNC GLOBAL DEFAULT 14 _ZN7android8hardware4wifi
839:   FUNC GLOBAL DEFAULT 14 _ZN7android8hardware4wifi
840:   FUNC GLOBAL DEFAULT 14 _ZN7android8hardware4wifi
841:   FUNC GLOBAL DEFAULT 14 _ZN7android8hardware4wifi
842:   FUNC GLOBAL DEFAULT 14 _ZN7android8hardware4wifi
843:   FUNC GLOBAL DEFAULT 14 _ZN7android8hardware4wifi
844:   FUNC GLOBAL DEFAULT 14 _ZN7android8hardware4wifi
845:   FUNC GLOBAL DEFAULT 14 _ZN7android8hardware4wifi
846:   FUNC GLOBAL DEFAULT 14 _ZN7android8hardware4wifi
847:   OBJECT GLOBAL DEFAULT 18 _ZTTN7android8hardware4wi
848:   FUNC WEAK DEFAULT 14 _ZN7android8hardware7deta
849:   FUNC GLOBAL DEFAULT 14 _ZN7android8hardware4wifi
850:   OBJECT GLOBAL DEFAULT 18 _ZTCN7android8hardware4wi
851:   OBJECT WEAK DEFAULT 18 _ZTVN7android8hardware4wi
852:   FUNC WEAK DEFAULT 14 _ZN7android8hardware7deta
853:   FUNC GLOBAL DEFAULT 14 _ZN7android8hardware4wifi
854:   FUNC GLOBAL DEFAULT 14 _ZN7android8hardware4wifi
855:   FUNC GLOBAL DEFAULT 14 _ZThn32_N7android8hardwar
856:   FUNC GLOBAL DEFAULT 14 _ZN7android8hardware4wifi
857:   FUNC WEAK DEFAULT 14 _ZN7android8hardware7deta
858:   FUNC GLOBAL DEFAULT 14 _ZN7android8hardware4wifi
859:   FUNC GLOBAL DEFAULT 14 _ZN7android8hardware4wifi
860:   FUNC GLOBAL DEFAULT 14 _ZN7android8hardware4wifi
861:   FUNC GLOBAL DEFAULT 14 _ZN7android8hardware4wifi
862:   FUNC GLOBAL DEFAULT 14 _ZN7android8hardware4wifi
863:   FUNC GLOBAL DEFAULT 14 _ZN7android8hardware4wifi
864:   FUNC GLOBAL DEFAULT 14 _ZN7android8hardware4wifi
865:   FUNC GLOBAL DEFAULT 14 _ZN7android8hardware4wifi
866:   FUNC GLOBAL DEFAULT 14 _ZN7android8hardware4wifi
867:   FUNC GLOBAL DEFAULT 14 _ZN7android8hardware4wifi
868:   FUNC GLOBAL DEFAULT 14 _ZN7android8hardware4wifi
869:   FUNC GLOBAL DEFAULT 14 _ZN7android8hardware4wifi
870:   FUNC GLOBAL DEFAULT 14 _ZN7android8hardware4wifi
871:   FUNC GLOBAL DEFAULT 14 _ZN7android8hardware4wifi
872:   OBJECT GLOBAL DEFAULT 18 _ZTCN7android8hardware4wi
873:   OBJECT GLOBAL DEFAULT 18 _ZTTN7android8hardware4wi
874:   OBJECT GLOBAL DEFAULT 18 _ZTCN7android8hardware4wi
875:   OBJECT GLOBAL DEFAULT 18 _ZTCN7android8hardware4wi
876:   OBJECT GLOBAL DEFAULT 16 _ZN7android8hardware4wifi
877:   FUNC GLOBAL DEFAULT 14 _ZN7android8hardware4wifi
878:   FUNC GLOBAL DEFAULT 14 _ZN7android8hardware4wifi
879:   FUNC GLOBAL DEFAULT 14 _ZN7android8hardware4wifi
880:   FUNC GLOBAL DEFAULT 14 _ZN7android8hardware4wifi
881:   OBJECT GLOBAL DEFAULT 18 _ZTCN7android8hardware4wi
882:   OBJECT WEAK DEFAULT 18 _ZTCN7android8hardware4wi
883:   FUNC GLOBAL DEFAULT 14 _ZN7android8hardware4wifi
884:   FUNC GLOBAL DEFAULT 14 _ZN7android8hardware4wifi
885:   OBJECT GLOBAL DEFAULT 18 _ZTCN7android8hardware4wi
886:   FUNC GLOBAL DEFAULT 14 _ZN7android8hardware4wifi
887:   FUNC GLOBAL DEFAULT 14 _ZN7android8hardware4wifi
888:   OBJECT GLOBAL DEFAULT 18 _ZTCN7android8hardware4wi
889:   OBJECT GLOBAL DEFAULT 18 _ZTTN7android8hardware4wi
890:   FUNC GLOBAL DEFAULT 14 _ZN7android8hardware4wifi
891:   FUNC WEAK DEFAULT 14 _ZN7android8hardware7deta
892:   FUNC GLOBAL DEFAULT 14 _ZN7android8hardware4wifi
893:   OBJECT GLOBAL DEFAULT 18 _ZTVN7android8hardware4wi
894:   FUNC GLOBAL DEFAULT 14 _ZN7android8hardware4wifi
895:   FUNC GLOBAL DEFAULT 14 _ZN7android8hardware4wifi
896:   FUNC GLOBAL DEFAULT 14 _ZN7android8hardware4wifi
897:   FUNC GLOBAL DEFAULT 14 _ZN7android8hardware4wifi
898:   FUNC GLOBAL DEFAULT 14 _ZN7android8hardware4wifi
899:   FUNC GLOBAL DEFAULT 14 _ZThn32_N7android8hardwar
900:   FUNC WEAK DEFAULT 14 _ZN7android8hardware7deta
901:   FUNC GLOBAL DEFAULT 14 _ZN7android8hardware4wifi
902:   OBJECT GLOBAL DEFAULT 18 _ZTCN7android8hardware4wi
903:   OBJECT WEAK DEFAULT 18 _ZTVN7android8hardware4wi
904:   FUNC GLOBAL DEFAULT 14 _ZN7android8hardware4wifi
905:   FUNC GLOBAL DEFAULT 14 _ZN7android8hardware4wifi
906:   FUNC GLOBAL DEFAULT 14 _ZN7android8hardware4wifi
907:   FUNC WEAK DEFAULT 14 _ZN7android8hardware7deta
908:   FUNC GLOBAL DEFAULT 14 _ZN7android8hardware4wifi
909:   FUNC GLOBAL DEFAULT 14 _ZN7android8hardware4wifi
910:   OBJECT GLOBAL DEFAULT 18 _ZTVN7android8hardware4wi
911:   FUNC GLOBAL DEFAULT 14 _ZN7android8hardware4wifi
912:   FUNC GLOBAL DEFAULT 14 _ZN7android8hardware4wifi
913:   FUNC GLOBAL DEFAULT 14 _ZN7android8hardware4wifi
914:   OBJECT GLOBAL DEFAULT 18 _ZTCN7android8hardware4wi
915:   FUNC GLOBAL DEFAULT 14 _ZN7android8hardware4wifi
916:   FUNC GLOBAL DEFAULT 14 _ZThn32_N7android8hardwar
917:   FUNC GLOBAL DEFAULT 14 _ZN7android8hardware4wifi
918:   FUNC GLOBAL DEFAULT 14 _ZN7android8hardware4wifi
919:   FUNC GLOBAL DEFAULT 14 _ZN7android8hardware4wifi
920:   OBJECT WEAK DEFAULT 18 _ZTVN7android8hardware4wi
921:   FUNC GLOBAL DEFAULT 14 _ZN7android8hardware4wifi
922:   FUNC GLOBAL DEFAULT 14 _ZN7android8hardware4wifi
923:   FUNC GLOBAL DEFAULT 14 _ZN7android8hardware4wifi
924:   FUNC GLOBAL DEFAULT 14 _ZN7android8hardware4wifi
925:   FUNC GLOBAL DEFAULT 14 _ZN7android8hardware4wifi
926:   FUNC GLOBAL DEFAULT 14 _ZN7android8hardware4wifi
927:   FUNC WEAK DEFAULT 14 _ZNSt3__113__tree_removeI
928:   FUNC GLOBAL DEFAULT 14 _ZN7android8hardware4wifi
929:   OBJECT GLOBAL DEFAULT 18 _ZTVN7android8hardware4wi
930:   FUNC GLOBAL DEFAULT 14 _ZN7android8hardware4wifi
931:   OBJECT GLOBAL DEFAULT 18 _ZTCN7android8hardware4wi
932:   FUNC GLOBAL DEFAULT 14 _ZN7android8hardware4wifi
933:   FUNC GLOBAL DEFAULT 14 _ZN7android8hardware4wifi
934:   FUNC GLOBAL DEFAULT 14 _ZN7android8hardware4wifi
935:   FUNC GLOBAL DEFAULT 14 _ZN7android8hardware4wifi
936:   FUNC GLOBAL DEFAULT 14 _ZN7android8hardware4wifi
937:   FUNC GLOBAL DEFAULT 14 _ZN7android8hardware4wifi
938:   FUNC GLOBAL DEFAULT 14 _ZN7android8hardware4wifi
939:   FUNC GLOBAL DEFAULT 14 _ZN7android8hardware4wifi
940:   FUNC GLOBAL DEFAULT 14 _ZN7android8hardware4wifi
941:   FUNC GLOBAL DEFAULT 14 _ZTv0_n24_N7android8hardw
942:   FUNC GLOBAL DEFAULT 14 _ZN7android8hardware4wifi
943:   FUNC GLOBAL DEFAULT 14 _ZN7android8hardware4wifi
944:   FUNC GLOBAL DEFAULT 14 _ZN7android8hardware4wifi
945:   FUNC GLOBAL DEFAULT 14 _ZN7android8hardware4wifi
946:   FUNC WEAK DEFAULT 14 _ZNSt3__16__treeINS_12__v
947:   FUNC GLOBAL DEFAULT 14 _ZN7android8hardware4wifi
948:   FUNC GLOBAL DEFAULT 14 _ZN7android8hardware4wifi
949:   FUNC WEAK DEFAULT 14 _ZN7android8hardware7deta
950:   OBJECT GLOBAL DEFAULT 18 _ZTCN7android8hardware4wi
951:   FUNC GLOBAL DEFAULT 14 _ZN7android8hardware4wifi
952:   FUNC GLOBAL DEFAULT 14 _ZN7android8hardware4wifi
953:   FUNC GLOBAL DEFAULT 14 _ZN7android8hardware4wifi
954:   FUNC GLOBAL DEFAULT 14 _ZN7android8hardware4wifi
955:   FUNC GLOBAL DEFAULT 14 _ZN7android8hardware4wifi
956:   OBJECT GLOBAL DEFAULT 18 _ZTCN7android8hardware4wi
