 0x0000000e (SONAME)                     Library soname: [libstagefright_httplive.so]
  
Symbol   contains 958 entries:
Num:   Type Bind Vis Ndx Name
0:   NOTYPE LOCAL DEFAULT UND
1:   FUNC GLOBAL DEFAULT UND __cxa_finalize@LIBC (2)
2:   FUNC GLOBAL DEFAULT UND MD5_Final
3:   FUNC GLOBAL DEFAULT UND MD5_Init
4:   FUNC GLOBAL DEFAULT UND MD5_Update
5:   FUNC GLOBAL DEFAULT UND _ZN7android10VectorImpl13
6:   FUNC GLOBAL DEFAULT UND _ZN7android10VectorImplC2
7:   FUNC GLOBAL DEFAULT UND _ZN7android13AStringPrint
8:   FUNC GLOBAL DEFAULT UND _ZN7android14ClearMediaHT
9:   FUNC GLOBAL DEFAULT UND _ZN7android14sp_report_ra
10:   FUNC GLOBAL DEFAULT UND _ZN7android15ClearFileSou
11:   FUNC GLOBAL DEFAULT UND _ZN7android16SortedVector
12:   FUNC GLOBAL DEFAULT UND _ZN7android16SortedVector
13:   FUNC GLOBAL DEFAULT UND _ZN7android7ABuffer8setRa
14:   FUNC GLOBAL DEFAULT UND _ZN7android7ABufferC1Ej
15:   FUNC GLOBAL DEFAULT UND _ZN7android7AStringD1Ev
16:   FUNC GLOBAL DEFAULT UND _ZN7android7RefBase10onFi
17:   FUNC GLOBAL DEFAULT UND _ZN7android7RefBase13onLa
18:   FUNC GLOBAL DEFAULT UND _ZN7android7RefBase15onLa
19:   FUNC GLOBAL DEFAULT UND _ZN7android7RefBase20onIn
20:   FUNC GLOBAL DEFAULT UND _ZN7android7RefBaseC2Ev
21:   FUNC GLOBAL DEFAULT UND _ZN7android7RefBaseD2Ev
22:   FUNC GLOBAL DEFAULT UND _ZN7android7String85setTo
23:   FUNC GLOBAL DEFAULT UND _ZN7android7String85setTo
24:   FUNC GLOBAL DEFAULT UND _ZN7android7String8C1EPKc
25:   FUNC GLOBAL DEFAULT UND _ZN7android7String8C1ERKS
26:   FUNC GLOBAL DEFAULT UND _ZN7android7String8C1Ev
27:   FUNC GLOBAL DEFAULT UND _ZN7android7String8D1Ev
28:   FUNC GLOBAL DEFAULT UND _ZNK7android7AString5c_st
29:   FUNC GLOBAL DEFAULT UND _ZNK7android7RefBase9decS
30:   FUNC GLOBAL DEFAULT UND _ZNK7android7RefBase9incS
31:   FUNC GLOBAL DEFAULT UND _ZNK7android7String86leng
32:   FUNC GLOBAL DEFAULT UND _ZdlPv
33:   FUNC GLOBAL DEFAULT UND _Znwj
34:   FUNC GLOBAL DEFAULT UND __android_log_error_write@LIBLOG_M (3)
35:   FUNC GLOBAL DEFAULT UND __android_log_print@LIBLOG (4)
36:   FUNC GLOBAL DEFAULT UND __stack_chk_fail@LIBC (2)
37:   OBJECT GLOBAL DEFAULT UND __stack_chk_guard@LIBC (2)
38:   FUNC GLOBAL DEFAULT UND memcmp@LIBC (2)
39:   FUNC GLOBAL DEFAULT UND pthread_mutex_destroy@LIBC (2)
40:   FUNC GLOBAL DEFAULT UND pthread_mutex_init@LIBC (2)
41:   FUNC GLOBAL DEFAULT UND pthread_mutex_lock@LIBC (2)
42:   FUNC GLOBAL DEFAULT UND pthread_mutex_unlock@LIBC (2)
43:   FUNC GLOBAL DEFAULT UND strcmp@LIBC (2)
44:   FUNC GLOBAL DEFAULT UND strncasecmp@LIBC (2)
45:   FUNC GLOBAL DEFAULT UND _ZN7android7AString6appen
46:   FUNC GLOBAL DEFAULT UND _ZN7android7AString6appen
47:   FUNC GLOBAL DEFAULT UND _ZN7android7AStringC1EPKc
48:   FUNC GLOBAL DEFAULT UND _ZdaPv
49:   FUNC GLOBAL DEFAULT UND _Znaj
50:   FUNC GLOBAL DEFAULT UND __android_log_assert@LIBLOG (4)
51:   FUNC GLOBAL DEFAULT UND __cxa_pure_virtual
52:   FUNC GLOBAL DEFAULT UND __vsnprintf_chk@LIBC (2)
53:   FUNC GLOBAL DEFAULT UND abort@LIBC (2)
54:   FUNC GLOBAL DEFAULT UND fclose@LIBC (2)
55:   FUNC GLOBAL DEFAULT UND pthread_cond_broadcast@LIBC (2)
56:   FUNC GLOBAL DEFAULT UND pthread_cond_destroy@LIBC (2)
57:   FUNC GLOBAL DEFAULT UND pthread_cond_init@LIBC (2)
58:   FUNC GLOBAL DEFAULT UND pthread_cond_wait@LIBC (2)
59:   FUNC GLOBAL DEFAULT UND pthread_condattr_destroy@LIBC (2)
60:   FUNC GLOBAL DEFAULT UND pthread_condattr_init@LIBC (2)
61:   FUNC GLOBAL DEFAULT UND pthread_condattr_setclock@LIBC (2)
62:   FUNC GLOBAL DEFAULT UND _ZN7android10VectorImpl13
63:   FUNC GLOBAL DEFAULT UND _ZN7android10VectorImpl16
64:   FUNC GLOBAL DEFAULT UND _ZN7android10VectorImpl4p
65:   FUNC GLOBAL DEFAULT UND _ZN7android10VectorImpl4s
66:   FUNC GLOBAL DEFAULT UND _ZN7android10VectorImpl5c
67:   FUNC GLOBAL DEFAULT UND _ZN7android10VectorImplC2
68:   FUNC GLOBAL DEFAULT UND _ZN7android10VectorImplD2
69:   FUNC GLOBAL DEFAULT UND _ZN7android12MetaDataBase
70:   FUNC GLOBAL DEFAULT UND _ZN7android14uriDebugStri
71:   FUNC GLOBAL DEFAULT UND _ZN7android15writeToAMess
72:   FUNC GLOBAL DEFAULT UND _ZN7android16SortedVector
73:   FUNC GLOBAL DEFAULT UND _ZN7android16SortedVector
74:   FUNC GLOBAL DEFAULT UND _ZN7android16readFromAMes
75:   FUNC GLOBAL DEFAULT UND _ZN7android17BufferingSet
76:   OBJECT GLOBAL DEFAULT UND _ZN7android29MEDIA_MIMETY
77:   FUNC GLOBAL DEFAULT UND _ZN7android7ABuffer4metaE
78:   FUNC GLOBAL DEFAULT UND _ZN7android7ALooper15regi
79:   FUNC GLOBAL DEFAULT UND _ZN7android7ALooper17unre
80:   FUNC GLOBAL DEFAULT UND _ZN7android7ALooper4stopE
81:   FUNC GLOBAL DEFAULT UND _ZN7android7ALooper5start
82:   FUNC GLOBAL DEFAULT UND _ZN7android7ALooper7setNa
83:   FUNC GLOBAL DEFAULT UND _ZN7android7ALooper8GetNo
84:   FUNC GLOBAL DEFAULT UND _ZN7android7ALooperC1Ev
85:   FUNC GLOBAL DEFAULT UND _ZN7android7AString5clear
86:   FUNC GLOBAL DEFAULT UND _ZN7android7AString6appen
87:   FUNC GLOBAL DEFAULT UND _ZN7android7AStringC1ERKS
88:   FUNC GLOBAL DEFAULT UND _ZN7android7AStringC1Ev
89:   FUNC GLOBAL DEFAULT UND _ZN7android7AStringaSERKS
90:   FUNC GLOBAL DEFAULT UND _ZN7android7HLSTimeC1ERKN
91:   FUNC GLOBAL DEFAULT UND _ZN7android7RefBase12weak
92:   FUNC GLOBAL DEFAULT UND _ZN7android8AMessage10set
93:   FUNC GLOBAL DEFAULT UND _ZN7android8AMessage10set
94:   FUNC GLOBAL DEFAULT UND _ZN7android8AMessage20pos
95:   FUNC GLOBAL DEFAULT UND _ZN7android8AMessage20sen
96:   FUNC GLOBAL DEFAULT UND _ZN7android8AMessage4post
97:   FUNC GLOBAL DEFAULT UND _ZN7android8AMessage7setW
98:   FUNC GLOBAL DEFAULT UND _ZN7android8AMessage8setI
99:   FUNC GLOBAL DEFAULT UND _ZN7android8AMessage8setI
100:   FUNC GLOBAL DEFAULT UND _ZN7android8AMessage9post
101:   FUNC GLOBAL DEFAULT UND _ZN7android8AMessage9setS
102:   FUNC GLOBAL DEFAULT UND _ZN7android8AMessage9setT
103:   FUNC GLOBAL DEFAULT UND _ZN7android8AMessageC1EjR
104:   FUNC GLOBAL DEFAULT UND _ZN7android8AMessageC1Ev
105:   FUNC GLOBAL DEFAULT UND _ZN7androidltERKNS_7HLSTi
106:   FUNC GLOBAL DEFAULT UND _ZNK7android16SortedVecto
107:   FUNC GLOBAL DEFAULT UND _ZNK7android7AString5empt
108:   FUNC GLOBAL DEFAULT UND _ZNK7android7AStringeqERK
109:   FUNC GLOBAL DEFAULT UND _ZNK7android7AStringltERK
110:   FUNC GLOBAL DEFAULT UND _ZNK7android7HLSTime16get
111:   FUNC GLOBAL DEFAULT UND _ZNK7android8AMessage10fi
112:   FUNC GLOBAL DEFAULT UND _ZNK7android8AMessage10fi
113:   FUNC GLOBAL DEFAULT UND _ZNK7android8AMessage11de
114:   FUNC GLOBAL DEFAULT UND _ZNK7android8AMessage11fi
115:   FUNC GLOBAL DEFAULT UND _ZNK7android8AMessage11fi
116:   FUNC GLOBAL DEFAULT UND _ZNK7android8AMessage3dup
117:   FUNC GLOBAL DEFAULT UND _ZNK7android8AMessage4wha
118:   FUNC GLOBAL DEFAULT UND _ZNK7android8AMessage9fin
119:   FUNC GLOBAL DEFAULT UND _ZNK7android8AMessage9fin
120:   FUNC GLOBAL DEFAULT UND property_get
121:   FUNC GLOBAL DEFAULT UND strtol@LIBC (2)
122:   FUNC GLOBAL DEFAULT UND strtoul@LIBC (2)
123:   FUNC GLOBAL DEFAULT UND _ZN7android10VectorImpl4p
124:   OBJECT GLOBAL DEFAULT UND _ZN7android23MEDIA_MIMETY
125:   FUNC GLOBAL DEFAULT UND _ZN7android7AString4trimE
126:   FUNC GLOBAL DEFAULT UND _ZN7android7AString5setTo
127:   FUNC GLOBAL DEFAULT UND _ZN7android7AString5setTo
128:   FUNC GLOBAL DEFAULT UND _ZN7android7AString5setTo
129:   FUNC GLOBAL DEFAULT UND _ZN7android7AString6appen
130:   FUNC GLOBAL DEFAULT UND _ZN7android7AString6inser
131:   FUNC GLOBAL DEFAULT UND _ZN7android7AString7tolow
132:   FUNC GLOBAL DEFAULT UND _ZN7android7AStringC1ERKS
133:   FUNC GLOBAL DEFAULT UND _ZNK7android7AString10sta
134:   FUNC GLOBAL DEFAULT UND _ZNK7android7AString4find
135:   FUNC GLOBAL DEFAULT UND _ZNK7android7AString4size
136:   FUNC GLOBAL DEFAULT UND strcasecmp@LIBC (2)
137:   FUNC GLOBAL DEFAULT UND strchr@LIBC (2)
138:   FUNC GLOBAL DEFAULT UND strlen@LIBC (2)
139:   FUNC GLOBAL DEFAULT UND strstr@LIBC (2)
140:   FUNC GLOBAL DEFAULT UND strtod@LIBC (2)
141:   FUNC GLOBAL DEFAULT UND strtoull@LIBC (2)
142:   FUNC GLOBAL DEFAULT UND AES_cbc_encrypt
143:   FUNC GLOBAL DEFAULT UND AES_set_decrypt_key
144:   FUNC GLOBAL DEFAULT UND _ZN7android10ABitReader7g
145:   FUNC GLOBAL DEFAULT UND _ZN7android10ABitReader8s
146:   FUNC GLOBAL DEFAULT UND _ZN7android10ABitReaderC1
147:   FUNC GLOBAL DEFAULT UND _ZN7android10ABitReaderD1
148:   FUNC GLOBAL DEFAULT UND _ZN7android13DataURISourc
149:   FUNC GLOBAL DEFAULT UND _ZN7android16SortedVector
150:   OBJECT GLOBAL DEFAULT UND _ZN7android24MEDIA_MIMETY
151:   OBJECT GLOBAL DEFAULT UND _ZN7android24kATSParserKe
152:   OBJECT GLOBAL DEFAULT UND _ZN7android30kATSParserKe
153:   FUNC GLOBAL DEFAULT UND _ZN7android5IsIDREPKhj
154:   FUNC GLOBAL DEFAULT UND _ZN7android6U64_ATEPKh
155:   FUNC GLOBAL DEFAULT UND _ZN7android7ABuffer12Crea
156:   FUNC GLOBAL DEFAULT UND _ZN7android7ABufferC1EPvj
157:   FUNC GLOBAL DEFAULT UND _ZN7android7AString6appen
158:   FUNC GLOBAL DEFAULT UND _ZN7android7AString6inser
159:   FUNC GLOBAL DEFAULT UND _ZN7android8AMessage9setB
160:   FUNC GLOBAL DEFAULT UND _ZN7android8AMessage9setO
161:   FUNC GLOBAL DEFAULT UND _ZN7android8AMessage9setS
162:   FUNC GLOBAL DEFAULT UND _ZN7android8MetaDataC1Ev
163:   FUNC GLOBAL DEFAULT UND _ZNK7android12MetaDataBas
164:   FUNC GLOBAL DEFAULT UND _ZNK7android12MetaDataBas
165:   FUNC GLOBAL DEFAULT UND __cxa_guard_acquire
166:   FUNC GLOBAL DEFAULT UND __cxa_guard_release
167:   FUNC GLOBAL DEFAULT UND __strlen_chk@LIBC (2)
168:   FUNC GLOBAL DEFAULT UND isxdigit@LIBC (2)
169:   FUNC GLOBAL DEFAULT UND strncmp@LIBC (2)
170:   FUNC GLOBAL DEFAULT UND tolower@LIBC (2)
171:   FUNC WEAK DEFAULT UND android_set_abort_message@LIBC (2)
172:   FUNC GLOBAL DEFAULT UND write@LIBC (2)
173:   OBJECT GLOBAL DEFAULT UND AMEDIAFORMAT_KEY_ALBUM@LIBMEDIANDK (5)
174:   OBJECT GLOBAL DEFAULT UND AMEDIAFORMAT_KEY_ALBUMART@LIBMEDIANDK (5)
175:   OBJECT GLOBAL DEFAULT UND AMEDIAFORMAT_KEY_ALBUMART@LIBMEDIANDK (5)
176:   OBJECT GLOBAL DEFAULT UND AMEDIAFORMAT_KEY_ARTIST@LIBMEDIANDK (5)
177:   OBJECT GLOBAL DEFAULT UND AMEDIAFORMAT_KEY_AUTHOR@LIBMEDIANDK (5)
178:   OBJECT GLOBAL DEFAULT UND AMEDIAFORMAT_KEY_CDTRACKN@LIBMEDIANDK (5)
179:   OBJECT GLOBAL DEFAULT UND AMEDIAFORMAT_KEY_CHANNEL_@LIBMEDIANDK (5)
180:   OBJECT GLOBAL DEFAULT UND AMEDIAFORMAT_KEY_COMPILAT@LIBMEDIANDK (5)
181:   OBJECT GLOBAL DEFAULT UND AMEDIAFORMAT_KEY_COMPOSER@LIBMEDIANDK (5)
182:   OBJECT GLOBAL DEFAULT UND AMEDIAFORMAT_KEY_CSD_0@LIBMEDIANDK (5)
183:   OBJECT GLOBAL DEFAULT UND AMEDIAFORMAT_KEY_CSD_AVC@LIBMEDIANDK (5)
184:   OBJECT GLOBAL DEFAULT UND AMEDIAFORMAT_KEY_DATE@LIBMEDIANDK (5)
185:   OBJECT GLOBAL DEFAULT UND AMEDIAFORMAT_KEY_DISCNUMB@LIBMEDIANDK (5)
186:   OBJECT GLOBAL DEFAULT UND AMEDIAFORMAT_KEY_GENRE@LIBMEDIANDK (5)
187:   OBJECT GLOBAL DEFAULT UND AMEDIAFORMAT_KEY_HAPTIC_C@LIBMEDIANDK (5)
188:   OBJECT GLOBAL DEFAULT UND AMEDIAFORMAT_KEY_HEIGHT@LIBMEDIANDK (5)
189:   OBJECT GLOBAL DEFAULT UND AMEDIAFORMAT_KEY_LOOP@LIBMEDIANDK (5)
190:   OBJECT GLOBAL DEFAULT UND AMEDIAFORMAT_KEY_LYRICIST@LIBMEDIANDK (5)
191:   OBJECT GLOBAL DEFAULT UND AMEDIAFORMAT_KEY_MIME@LIBMEDIANDK (5)
192:   OBJECT GLOBAL DEFAULT UND AMEDIAFORMAT_KEY_SAMPLE_R@LIBMEDIANDK (5)
193:   OBJECT GLOBAL DEFAULT UND AMEDIAFORMAT_KEY_SAR_HEIG@LIBMEDIANDK (5)
194:   OBJECT GLOBAL DEFAULT UND AMEDIAFORMAT_KEY_SAR_WIDT@LIBMEDIANDK (5)
195:   OBJECT GLOBAL DEFAULT UND AMEDIAFORMAT_KEY_TITLE@LIBMEDIANDK (5)
196:   OBJECT GLOBAL DEFAULT UND AMEDIAFORMAT_KEY_WIDTH@LIBMEDIANDK (5)
197:   OBJECT GLOBAL DEFAULT UND AMEDIAFORMAT_KEY_YEAR@LIBMEDIANDK (5)
198:   FUNC GLOBAL DEFAULT UND AMediaFormat_setBuffer@LIBMEDIANDK (5)
199:   FUNC GLOBAL DEFAULT UND AMediaFormat_setInt32@LIBMEDIANDK (5)
200:   FUNC GLOBAL DEFAULT UND AMediaFormat_setString@LIBMEDIANDK (5)
201:   FUNC GLOBAL DEFAULT UND _ZN7android12MetaDataBase
202:   FUNC GLOBAL DEFAULT UND _ZN7android12MetaDataBase
203:   FUNC GLOBAL DEFAULT UND _ZN7android12decodeBase64
204:   OBJECT GLOBAL DEFAULT UND _ZN7android24MEDIA_MIMETY
205:   FUNC GLOBAL DEFAULT UND _ZN7android24MakeAVCCodec
206:   FUNC GLOBAL DEFAULT UND _ZN7android6U32_ATEPKh
207:   FUNC GLOBAL DEFAULT UND __errno@LIBC (2)
208:   FUNC GLOBAL DEFAULT UND __memcpy_chk@LIBC (2)
209:   FUNC GLOBAL DEFAULT UND strnlen@LIBC (2)
210:   FUNC GLOBAL DEFAULT UND _ZN7android11MediaBufferC
211:   FUNC GLOBAL DEFAULT UND _ZN7android11MediaSourceC
212:   FUNC GLOBAL DEFAULT UND _ZN7android11MediaSourceD
213:   FUNC GLOBAL DEFAULT UND _ZN7android11MediaSourceD
214:   FUNC GLOBAL DEFAULT UND _ZN7android11MediaSourceD
215:   FUNC GLOBAL DEFAULT UND _ZN7android12MetaDataBase
216:   FUNC GLOBAL DEFAULT UND _ZNK7android8AMessage10fi
217:   FUNC GLOBAL DEFAULT UND _ZTv0_n12_N7android11Medi
218:   FUNC GLOBAL DEFAULT UND _ZTv0_n12_N7android11Medi
219:   FUNC GLOBAL DEFAULT UND pthread_cond_signal@LIBC (2)
220:   FUNC GLOBAL DEFAULT UND _ZN7android10VectorImpl13
221:   FUNC GLOBAL DEFAULT UND _ZN7android10VectorImpl8i
222:   OBJECT GLOBAL DEFAULT UND _ZN7android24kATSParserKe
223:   FUNC GLOBAL DEFAULT UND _ZN7android27serializeAud
224:   OBJECT GLOBAL DEFAULT UND _ZN7android30MEDIA_MIMETY
225:   OBJECT GLOBAL DEFAULT UND _ZN7android30MEDIA_MIMETY
226:   FUNC GLOBAL DEFAULT UND _ZN7android4hidl9allocato
227:   FUNC GLOBAL DEFAULT UND _ZN7android6U16_ATEPKh
228:   FUNC GLOBAL DEFAULT UND _ZN7android7RefBase10rena
229:   FUNC GLOBAL DEFAULT UND _ZN7android7RefBase11rena
230:   FUNC GLOBAL DEFAULT UND _ZN7android8hardware11hid
231:   FUNC GLOBAL DEFAULT UND _ZN7android8hardware11hid
232:   FUNC GLOBAL DEFAULT UND _ZN7android8hardware11hid
233:   FUNC GLOBAL DEFAULT UND _ZN7android8hardware11hid
234:   FUNC GLOBAL DEFAULT UND _ZN7android8hardware11hid
235:   FUNC GLOBAL DEFAULT UND _ZN7android8hardware11hid
236:   FUNC GLOBAL DEFAULT UND _ZN7android8hardware11hid
237:   FUNC GLOBAL DEFAULT UND _ZN7android8hardware11hid
238:   FUNC GLOBAL DEFAULT UND _ZN7android8hardware7deta
239:   FUNC GLOBAL DEFAULT UND _ZN7android8hardware9mapM
240:   FUNC GLOBAL DEFAULT UND _ZNK7android10ABitReader1
241:   FUNC GLOBAL DEFAULT UND _ZNK7android10ABitReader4
242:   FUNC GLOBAL DEFAULT UND _ZNK7android8hardware6Sta
243:   FUNC GLOBAL DEFAULT UND _ZNK7android8hardware7det
244:   FUNC GLOBAL DEFAULT UND _ZNKSt3__120__vector_base
245:   FUNC GLOBAL DEFAULT UND _ZNKSt3__121__basic_strin
246:   FUNC GLOBAL DEFAULT UND _ZNSt3__112basic_stringIc
247:   FUNC GLOBAL DEFAULT UND _ZNSt3__112basic_stringIc
248:   FUNC GLOBAL DEFAULT UND _ZNSt3__112basic_stringIc
249:   FUNC GLOBAL DEFAULT UND _ZNSt3__112basic_stringIc
250:   FUNC GLOBAL DEFAULT UND _ZNSt3__112basic_stringIc
251:   FUNC GLOBAL DEFAULT UND _ZNSt3__113basic_ostreamI
252:   FUNC GLOBAL DEFAULT UND _ZNSt3__113basic_ostreamI
253:   FUNC GLOBAL DEFAULT UND _ZNSt3__113basic_ostreamI
254:   FUNC GLOBAL DEFAULT UND _ZNSt3__115basic_streambu
255:   FUNC GLOBAL DEFAULT UND _ZNSt3__115basic_streambu
256:   FUNC GLOBAL DEFAULT UND _ZNSt3__115basic_streambu
257:   FUNC GLOBAL DEFAULT UND _ZNSt3__115basic_streambu
258:   FUNC GLOBAL DEFAULT UND _ZNSt3__115basic_streambu
259:   FUNC GLOBAL DEFAULT UND _ZNSt3__115basic_streambu
260:   FUNC GLOBAL DEFAULT UND _ZNSt3__115basic_streambu
261:   FUNC GLOBAL DEFAULT UND _ZNSt3__115basic_streambu
262:   FUNC GLOBAL DEFAULT UND _ZNSt3__115basic_streambu
263:   FUNC GLOBAL DEFAULT UND _ZNSt3__18ios_base4initEP
264:   FUNC GLOBAL DEFAULT UND _ZNSt3__19basic_iosIcNS_1
265:   FUNC GLOBAL DEFAULT UND _ZTv0_n12_NSt3__113basic_
266:   FUNC GLOBAL DEFAULT UND _ZTv0_n12_NSt3__113basic_
267:   FUNC GLOBAL DEFAULT UND _ZN7android8hardware3cas4
268:   FUNC GLOBAL DEFAULT UND _ZN7android8hardware3cas6
269:   FUNC GLOBAL DEFAULT UND _ZN7android8hardware7deta
270:   FUNC GLOBAL DEFAULT UND _ZN7android10VectorImpl3a
271:   FUNC GLOBAL DEFAULT UND _ZN7android14getNextNALUn
272:   FUNC GLOBAL DEFAULT UND _ZN7android21GetMPEGAudio
273:   OBJECT GLOBAL DEFAULT UND _ZN7android24MEDIA_MIMETY
274:   OBJECT GLOBAL DEFAULT UND _ZN7android24MEDIA_MIMETY
275:   OBJECT GLOBAL DEFAULT UND _ZN7android24MEDIA_MIMETY
276:   OBJECT GLOBAL DEFAULT UND _ZN7android25MEDIA_MIMETY
277:   OBJECT GLOBAL DEFAULT UND _ZN7android25MEDIA_MIMETY
278:   OBJECT GLOBAL DEFAULT UND _ZN7android26MEDIA_MIMETY
279:   OBJECT GLOBAL DEFAULT UND _ZN7android26MEDIA_MIMETY
280:   FUNC GLOBAL DEFAULT UND _ZN7android30ExtractDimen
281:   OBJECT GLOBAL DEFAULT UND _ZN7android33MEDIA_MIMETY
282:   OBJECT GLOBAL DEFAULT UND _ZN7android34MEDIA_MIMETY
283:   FUNC GLOBAL DEFAULT UND _ZN7android7parseUEEPNS_1
284:   FUNC GLOBAL DEFAULT UND _ZN7android7String85setTo
285:   FUNC GLOBAL DEFAULT UND _ZN7android7String85setTo
286:   OBJECT GLOBAL DEFAULT UND _ZSt7nothrow
287:   FUNC GLOBAL DEFAULT UND _ZnajRKSt9nothrow_t
288:   FUNC GLOBAL DEFAULT UND _ZnwjRKSt9nothrow_t
289:   FUNC GLOBAL DEFAULT UND free@LIBC (2)
290:   FUNC GLOBAL DEFAULT UND malloc@LIBC (2)
291:   FUNC GLOBAL DEFAULT UND strdup@LIBC (2)
292:   FUNC GLOBAL DEFAULT UND memcpy@LIBC (2)
293:   FUNC GLOBAL DEFAULT UND memmove@LIBC (2)
294:   FUNC GLOBAL DEFAULT UND memset@LIBC (2)
295:   FUNC GLOBAL DEFAULT 14 _ZN7android14LiveDataSour
296:   FUNC WEAK DEFAULT 14 _ZNK7android12SortedVecto
297:   FUNC GLOBAL DEFAULT 14 _ZNK7android19AnotherPack
298:   FUNC GLOBAL DEFAULT 14 _ZN7android9ATSParser10PS
299:   FUNC GLOBAL DEFAULT 14 _ZNK7android11LiveSession
300:   FUNC GLOBAL DEFAULT 14 _ZNK7android9ATSParser10P
301:   OBJECT WEAK DEFAULT 18 _ZTVN7android4ListINS_9AT
302:   FUNC GLOBAL DEFAULT 14 _ZTv0_n12_N7android14Live
303:   FUNC GLOBAL DEFAULT 14 _ZN7android9M3UParser10Me
304:   OBJECT WEAK DEFAULT 18 _ZTVN7android6VectorINS_9
305:   FUNC WEAK DEFAULT 14 _ZNK7android12SortedVecto
306:   FUNC GLOBAL DEFAULT 14 _ZN7android11LiveSession2
307:   FUNC GLOBAL DEFAULT 14 _ZN7android19AnotherPacke
308:   FUNC WEAK DEFAULT 14 _ZNK7android12SortedVecto
309:   FUNC GLOBAL DEFAULT 14 _ZN7android9ATSParser6Str
310:   FUNC WEAK DEFAULT 14 _ZNK7android12SortedVecto
311:   FUNC GLOBAL DEFAULT 14 __aeabi_l2d
312:   FUNC GLOBAL DEFAULT 14 _ZN7android19AnotherPacke
313:   FUNC WEAK DEFAULT 14 _ZNK7android12SortedVecto
314:   FUNC GLOBAL DEFAULT 14 _ZN7android11LiveSession2
315:   FUNC GLOBAL DEFAULT 14 _ZN7android9M3UParser11se
316:   FUNC GLOBAL DEFAULT 14 _ZN7android9ATSParser6Str
317:   FUNC GLOBAL DEFAULT 14 _ZNK7android9ATSParser10P
318:   FUNC GLOBAL DEFAULT 14 _ZNK7android3ID38Iterator
319:   FUNC GLOBAL DEFAULT 14 __aeabi_l2f
320:   OBJECT WEAK DEFAULT 18 _ZTVN7android4ListINS_21E
321:   FUNC GLOBAL DEFAULT 14 _ZN7android19AnotherPacke
322:   FUNC WEAK DEFAULT 14 _ZNK7android12SortedVecto
323:   FUNC WEAK DEFAULT 14 _ZNSt3__127__tree_balance
324:   FUNC WEAK DEFAULT 14 _ZNSt3__16vectorIN7androi
325:   FUNC GLOBAL DEFAULT 14 _ZN7android21ElementarySt
326:   FUNC GLOBAL DEFAULT 14 _ZN7android18HlsSampleDec
327:   FUNC GLOBAL DEFAULT 14 _ZN7android3ID38IteratorC
328:   FUNC GLOBAL DEFAULT 14 __udivmodsi4
329:   FUNC GLOBAL DEFAULT 14 __udivmoddi4
330:   FUNC GLOBAL DEFAULT 14 _ZN7android11LiveSession1
331:   FUNC GLOBAL DEFAULT 14 _ZN7android15PlaylistFetc
332:   FUNC WEAK DEFAULT 14 _ZNSt3__16vectorIhNS_9all
333:   FUNC GLOBAL DEFAULT 14 _ZN7android18HlsSampleDec
334:   FUNC GLOBAL DEFAULT 14 _ZN7android9M3UParser10Me
335:   FUNC GLOBAL DEFAULT 14 _ZN7android9ATSParser6Str
336:   FUNC WEAK DEFAULT 14 _ZNK7android6VectorINS_9A
337:   FUNC WEAK DEFAULT 14 _ZNK7android6VectorINS_11
338:   FUNC WEAK DEFAULT 14 _ZNK7android6VectorIjE10d
339:   FUNC GLOBAL DEFAULT 14 _ZN7android11LiveSession2
340:   FUNC WEAK DEFAULT 14 _ZNK7android12SortedVecto
341:   FUNC WEAK DEFAULT 14 _ZNK7android12SortedVecto
342:   FUNC WEAK DEFAULT 14 _ZNK7android12SortedVecto
343:   FUNC GLOBAL DEFAULT 14 _ZN7android9M3UParser13un
344:   FUNC GLOBAL DEFAULT 14 _ZN7android19AnotherPacke
345:   FUNC GLOBAL DEFAULT 14 _ZNK7android9ATSParser7Pr
346:   FUNC GLOBAL DEFAULT 14 _ZN7android11LiveSession1
347:   FUNC GLOBAL DEFAULT 14 _ZN7android11LiveSessionD
348:   FUNC GLOBAL DEFAULT 14 _ZN7android9M3UParser20pi
349:   FUNC WEAK DEFAULT 14 _ZNK7android12SortedVecto
350:   FUNC GLOBAL DEFAULT 14 _ZN7android15PlaylistFetc
351:   FUNC GLOBAL DEFAULT 14 _ZNK7android3ID38Iterator
352:   FUNC GLOBAL DEFAULT 14 _ZN7android9ATSParser10Ca
353:   FUNC GLOBAL DEFAULT 14 _ZN7android9ATSParserC2Ej
354:   FUNC GLOBAL DEFAULT 14 _ZN7android11LiveSession1
355:   FUNC GLOBAL DEFAULT 14 _ZNK7android9M3UParser4It
356:   FUNC GLOBAL DEFAULT 14 _ZN7android15PlaylistFetc
357:   FUNC GLOBAL DEFAULT 14 _ZN7android15PlaylistFetc
358:   OBJECT WEAK DEFAULT 18 _ZTVN7android12SortedVect
359:   OBJECT WEAK DEFAULT 18 _ZTVN7android12SortedVect
360:   FUNC GLOBAL DEFAULT 14 _ZN7android9ATSParser10PS
361:   FUNC GLOBAL DEFAULT 14 _ZN7android3ID327removeUn
362:   FUNC GLOBAL DEFAULT 14 _ZN7android14LiveDataSour
363:   FUNC GLOBAL DEFAULT 14 _ZN7android11LiveSession2
364:   OBJECT WEAK DEFAULT 18 _ZTVN7android4ListINS_11L
365:   FUNC WEAK DEFAULT 14 _ZNK7android12SortedVecto
366:   FUNC WEAK DEFAULT 14 _ZNK7android12SortedVecto
367:   FUNC WEAK DEFAULT 14 _ZNK7android12SortedVecto
368:   OBJECT WEAK DEFAULT 18 _ZTVN7android19DataSource
369:   FUNC WEAK DEFAULT 14 _ZNK7android12SortedVecto
370:   FUNC WEAK DEFAULT 14 _ZNK7android6VectorINS_9M
371:   FUNC WEAK DEFAULT 14 _ZNK7android12SortedVecto
372:   FUNC GLOBAL DEFAULT 14 _ZN7android21ElementarySt
373:   FUNC GLOBAL DEFAULT 14 _ZN7android11LiveSession1
374:   FUNC GLOBAL DEFAULT 14 _ZN7android15PlaylistFetc
375:   FUNC GLOBAL DEFAULT 14 _ZN7android9M3UParser13pa
376:   FUNC GLOBAL DEFAULT 14 __fixunsdfdi
377:   FUNC GLOBAL DEFAULT 14 __fixunssfdi
378:   FUNC GLOBAL DEFAULT 14 __aeabi_memcpy4
379:   FUNC GLOBAL DEFAULT 14 _ZN7android19AnotherPacke
380:   OBJECT WEAK DEFAULT 18 _ZTVN7android12SortedVect
381:   FUNC GLOBAL DEFAULT 14 _ZN7android11LiveSession1
382:   FUNC WEAK DEFAULT 14 _ZNK7android12SortedVecto
383:   FUNC GLOBAL DEFAULT 14 __mulodi4
384:   FUNC GLOBAL DEFAULT 14 _ZNK7android15PlaylistFet
385:   FUNC GLOBAL DEFAULT 14 _ZN7android19AnotherPacke
386:   FUNC WEAK DEFAULT 14 _ZNK7android12SortedVecto
387:   FUNC WEAK DEFAULT 14 _ZNK7android6VectorINS_11
388:   FUNC GLOBAL DEFAULT 14 _ZN7android9M3UParser21pa
389:   OBJECT GLOBAL DEFAULT 16 _ZN7android9ATSParser10PS
390:   FUNC GLOBAL DEFAULT 14 _ZN7android9ATSParser9Syn
391:   FUNC WEAK DEFAULT 14 _ZNK7android12SortedVecto
392:   FUNC GLOBAL DEFAULT 14 __aeabi_memcpy8
393:   FUNC WEAK DEFAULT 14 _ZNK7android12SortedVecto
394:   FUNC WEAK DEFAULT 14 _ZNK7android12SortedVecto
395:   FUNC WEAK DEFAULT 14 _ZNK7android12SortedVecto
396:   FUNC GLOBAL DEFAULT 14 __aeabi_uidiv
397:   FUNC GLOBAL DEFAULT 14 _ZN7android9M3UParserC1EP
398:   FUNC WEAK DEFAULT 14 _ZNK7android12SortedVecto
399:   FUNC GLOBAL DEFAULT 14 _ZN7android9ATSParser7Pro
400:   FUNC GLOBAL DEFAULT 14 __floatdidf
401:   FUNC GLOBAL DEFAULT 14 __floatdisf
402:   FUNC GLOBAL DEFAULT 14 __aeabi_memcpy
403:   FUNC GLOBAL DEFAULT 14 _ZN7android11LiveSession1
404:   FUNC GLOBAL DEFAULT 14 _ZNK7android9M3UParser7ha
405:   FUNC WEAK DEFAULT 14 _ZNK7android12SortedVecto
406:   FUNC GLOBAL DEFAULT 14 _ZN7android15PlaylistFetc
407:   FUNC GLOBAL DEFAULT 14 _ZN7android15PlaylistFetc
408:   OBJECT WEAK DEFAULT 18 _ZTTNSt3__119basic_ostrin
409:   FUNC GLOBAL DEFAULT 14 _ZNK7android3ID38Iterator
410:   OBJECT WEAK DEFAULT 18 _ZTVN7android4ListINS_2sp
411:   FUNC GLOBAL DEFAULT 14 _ZN7android15PlaylistFetc
412:   FUNC GLOBAL DEFAULT 14 _ZN7android18HlsSampleDec
413:   FUNC GLOBAL DEFAULT 14 _ZN7android9ATSParser10Ca
414:   FUNC GLOBAL DEFAULT 14 _ZN7android18HlsSampleDec
415:   FUNC GLOBAL DEFAULT 14 __aeabi_d2ulz
416:   FUNC GLOBAL DEFAULT 14 _ZN7android11LiveSession1
417:   OBJECT WEAK DEFAULT 18 _ZTVN7android4ListIiEE
418:   OBJECT WEAK DEFAULT 18 _ZTVN7android12SortedVect
419:   FUNC WEAK DEFAULT 14 _ZNK7android12SortedVecto
420:   OBJECT WEAK DEFAULT 18 _ZTVN7android4ListIxEE
421:   FUNC GLOBAL DEFAULT 14 __aeabi_uldivmod
422:   FUNC GLOBAL DEFAULT 14 _ZN7android24MakeAACCodec
423:   FUNC WEAK DEFAULT 14 _ZNK7android12SortedVecto
424:   FUNC GLOBAL DEFAULT 14 _ZNK7android18HlsSampleDe
425:   FUNC GLOBAL DEFAULT 14 _ZN7android9ATSParser7Pro
426:   OBJECT WEAK DEFAULT 18 _ZTVN7android6VectorINS_1
427:   FUNC GLOBAL DEFAULT 14 _ZN7android14LiveDataSour
428:   OBJECT GLOBAL DEFAULT 18 _ZTCN7android14LiveDataSo
429:   FUNC GLOBAL DEFAULT 14 _ZN7android15PlaylistFetc
430:   FUNC GLOBAL DEFAULT 14 _ZN7android19AnotherPacke
431:   FUNC WEAK DEFAULT 14 _ZNK7android12SortedVecto
432:   FUNC GLOBAL DEFAULT 14 _ZN7android9ATSParser10PS
433:   FUNC WEAK DEFAULT 14 _ZNK7android6VectorINS_2s
434:   OBJECT WEAK DEFAULT 18 _ZTVN7android18HlsSampleD
435:   FUNC GLOBAL DEFAULT 14 _ZN7android14HTTPDownload
436:   OBJECT GLOBAL DEFAULT 18 _ZTVN7android14LiveDataSo
437:   FUNC GLOBAL DEFAULT 14 _ZN7android11LiveSession2
438:   FUNC GLOBAL DEFAULT 14 _ZN7android19AnotherPacke
439:   FUNC GLOBAL DEFAULT 14 _ZN7android19AnotherPacke
440:   FUNC GLOBAL DEFAULT 14 _ZN7android9M3UParserC2EP
441:   FUNC WEAK DEFAULT 14 _ZNK7android12SortedVecto
442:   FUNC WEAK DEFAULT 14 _ZNK7android12SortedVecto
443:   FUNC WEAK DEFAULT 14 _ZNK7android6VectorINS_11
444:   FUNC GLOBAL DEFAULT 14 __divmoddi4
445:   FUNC GLOBAL DEFAULT 14 __aeabi_uidivmod
446:   FUNC GLOBAL DEFAULT 14 __aeabi_memmove
447:   FUNC WEAK DEFAULT 14 _ZNK7android6VectorINS_9M
448:   FUNC GLOBAL DEFAULT 14 _ZN7android21ElementarySt
449:   FUNC GLOBAL DEFAULT 14 _ZN7android9ATSParser7Pro
450:   FUNC WEAK DEFAULT 14 _ZNK7android12SortedVecto
451:   FUNC WEAK DEFAULT 14 _ZNK7android12SortedVecto
452:   FUNC WEAK DEFAULT 14 _ZNK7android6VectorINS_9A
453:   FUNC GLOBAL DEFAULT 14 _ZN7android21ElementarySt
454:   FUNC WEAK DEFAULT 14 _ZNK7android12SortedVecto
455:   FUNC WEAK DEFAULT 14 _ZNK7android12SortedVecto
456:   FUNC GLOBAL DEFAULT 14 _ZN7android15PlaylistFetc
457:   FUNC GLOBAL DEFAULT 14 _ZN7android9ATSParser7Pro
458:   FUNC WEAK DEFAULT 14 _ZNK7android12SortedVecto
459:   FUNC WEAK DEFAULT 14 _ZNK7android12SortedVecto
460:   FUNC GLOBAL DEFAULT 14 _ZN7android19AnotherPacke
461:   FUNC GLOBAL DEFAULT 14 _ZN7android9M3UParser14pa
462:   FUNC GLOBAL DEFAULT 14 _ZN7android9M3UParserD0Ev
463:   FUNC GLOBAL DEFAULT 14 _ZN7android15PlaylistFetc
464:   FUNC WEAK DEFAULT 14 _ZNK7android6VectorIiE15d
465:   OBJECT WEAK DEFAULT 18 _ZTVN7android6VectorINS_2
466:   FUNC WEAK DEFAULT 14 _ZNK7android12SortedVecto
467:   FUNC GLOBAL DEFAULT 14 _ZN7android11LiveSession1
468:   FUNC GLOBAL DEFAULT 14 _ZNK7android11LiveSession
469:   FUNC GLOBAL DEFAULT 14 _ZN7android15PlaylistFetc
470:   FUNC WEAK DEFAULT 14 _ZNK7android12SortedVecto
471:   FUNC GLOBAL DEFAULT 14 _ZN7android9ATSParser23PT
472:   FUNC GLOBAL DEFAULT 14 _ZN7android9ATSParser7Pro
473:   FUNC GLOBAL DEFAULT 14 _ZNK7android9M3UParser17g
474:   FUNC GLOBAL DEFAULT 14 _ZNK7android3ID38Iterator
475:   FUNC GLOBAL DEFAULT 14 _ZN7android19AnotherPacke
476:   FUNC WEAK DEFAULT 14 _ZNK7android12SortedVecto
477:   FUNC WEAK DEFAULT 14 _ZNK7android12SortedVecto
478:   FUNC GLOBAL DEFAULT 14 _ZN7android3ID3C1EPNS_14D
479:   FUNC WEAK DEFAULT 14 _ZNK7android12SortedVecto
480:   OBJECT WEAK DEFAULT 18 _ZTVN7android6VectorIiEE
481:   FUNC GLOBAL DEFAULT 14 __aeabi_memmove4
482:   FUNC WEAK DEFAULT 14 _ZNK7android12SortedVecto
483:   FUNC GLOBAL DEFAULT 14 _ZN7android15PlaylistFetc
484:   FUNC WEAK DEFAULT 14 _ZNK7android12SortedVecto
485:   FUNC GLOBAL DEFAULT 14 _ZN7android15PlaylistFetc
486:   FUNC GLOBAL DEFAULT 14 _ZN7android19AnotherPacke
487:   OBJECT WEAK DEFAULT 18 _ZTVN7android11LiveSessio
488:   FUNC GLOBAL DEFAULT 14 __aeabi_f2lz
489:   OBJECT WEAK DEFAULT 18 _ZTVN7android12SortedVect
490:   FUNC GLOBAL DEFAULT 14 _ZN7android15PlaylistFetc
491:   FUNC WEAK DEFAULT 14 _ZNK7android12SortedVecto
492:   FUNC GLOBAL DEFAULT 14 _ZNK7android9M3UParser10M
493:   FUNC GLOBAL DEFAULT 14 _ZN7android9ATSParser6Str
494:   FUNC WEAK DEFAULT 14 _ZNK7android6VectorIjE15d
495:   FUNC GLOBAL DEFAULT 14 __udivsi3
496:   FUNC GLOBAL DEFAULT 14 _ZN7android9ATSParser10Ca
497:   FUNC GLOBAL DEFAULT 14 _ZN7android9ATSParser6Str
498:   FUNC GLOBAL DEFAULT 14 _ZNK7android9ATSParser6St
499:   FUNC GLOBAL DEFAULT 14 __aeabi_memmove8
500:   FUNC WEAK DEFAULT 14 _ZNK7android12SortedVecto
501:   FUNC GLOBAL DEFAULT 14 _ZN7android3ID3D1Ev
502:   OBJECT WEAK DEFAULT 18 _ZTVN7android12SortedVect
503:   FUNC GLOBAL DEFAULT 14 _ZTv0_n12_N7android19Anot
504:   FUNC GLOBAL DEFAULT 14 _ZN7android11LiveSession1
505:   FUNC GLOBAL DEFAULT 14 _ZN7android15PlaylistFetc
506:   FUNC GLOBAL DEFAULT 14 _ZN7android9ATSParser10Ca
507:   FUNC GLOBAL DEFAULT 14 _ZN7android14HTTPDownload
508:   FUNC GLOBAL DEFAULT 14 _ZN7android9ATSParser6Str
509:   FUNC WEAK DEFAULT 14 _ZNK7android6VectorINS_9A
510:   FUNC WEAK DEFAULT 14 _ZNK7android12SortedVecto
511:   FUNC GLOBAL DEFAULT 14 _ZN7android15PlaylistFetc
512:   FUNC GLOBAL DEFAULT 14 _ZN7android9ATSParser9get
513:   FUNC GLOBAL DEFAULT 14 _ZN7android9ATSParser6Str
514:   FUNC WEAK DEFAULT 14 _ZNK7android12SortedVecto
515:   FUNC WEAK DEFAULT 14 _ZNK7android12SortedVecto
516:   FUNC GLOBAL DEFAULT 14 _ZNK7android11LiveSession
517:   FUNC GLOBAL DEFAULT 14 _ZNK7android9M3UParser12g
518:   FUNC WEAK DEFAULT 14 _ZNSt3__16__treeINS_12__v
519:   FUNC GLOBAL DEFAULT 14 _ZN7android9ATSParser10Ca
520:   FUNC GLOBAL DEFAULT 14 _ZN7android21ElementarySt
521:   FUNC WEAK DEFAULT 14 _ZNSt3__16vectorIN7androi
522:   FUNC GLOBAL DEFAULT 14 __aeabi_memclr4
523:   OBJECT WEAK DEFAULT 18 _ZTVN7android12SortedVect
524:   FUNC GLOBAL DEFAULT 14 __aeabi_memclr
525:   FUNC GLOBAL DEFAULT 14 __aeabi_memset4
526:   FUNC WEAK DEFAULT 14 _ZNK7android12SortedVecto
527:   FUNC GLOBAL DEFAULT 14 _ZN7android11LiveSession1
528:   FUNC GLOBAL DEFAULT 14 _ZN7android24MakeAACCodec
529:   FUNC GLOBAL DEFAULT 14 _ZN7android14HTTPDownload
530:   FUNC GLOBAL DEFAULT 14 _ZN7android11LiveSession1
531:   FUNC GLOBAL DEFAULT 14 _ZN7android9M3UParser10Me
532:   FUNC GLOBAL DEFAULT 14 _ZN7android9ATSParser7Pro
533:   OBJECT WEAK DEFAULT 18 _ZTVN7android12SortedVect
534:   FUNC GLOBAL DEFAULT 14 _ZN7android15PlaylistFetc
535:   FUNC GLOBAL DEFAULT 14 _ZN7android9ATSParser19si
536:   FUNC GLOBAL DEFAULT 14 _ZNK7android9ATSParser10C
537:   FUNC WEAK DEFAULT 14 _ZNSt3__16__treeINS_12__v
538:   FUNC GLOBAL DEFAULT 14 __aeabi_memclr8
539:   FUNC GLOBAL DEFAULT 14 __aeabi_memset8
540:   FUNC WEAK DEFAULT 14 _ZNK7android6VectorINS_9M
541:   OBJECT WEAK DEFAULT 18 _ZTVN7android15PlaylistFe
542:   FUNC GLOBAL DEFAULT 14 _ZN7android19AnotherPacke
543:   FUNC GLOBAL DEFAULT 14 _ZN7android9ATSParser7Pro
544:   FUNC GLOBAL DEFAULT 14 _ZN7android9ATSParserD1Ev
545:   FUNC WEAK DEFAULT 14 _ZNSt3__115basic_stringbu
546:   FUNC WEAK DEFAULT 14 _ZNSt3__16__treeINS_12__v
547:   FUNC GLOBAL DEFAULT 14 _ZN7android9ATSParser10Ca
548:   FUNC GLOBAL DEFAULT 14 _ZN7android18HlsSampleDec
549:   OBJECT GLOBAL DEFAULT 18 _ZTVN7android11LiveSessio
550:   FUNC WEAK DEFAULT 14 _ZNK7android12SortedVecto
551:   FUNC GLOBAL DEFAULT 14 _ZN7android9M3UParser26pa
552:   FUNC GLOBAL DEFAULT 14 _ZN7android9ATSParser6Str
553:   FUNC WEAK DEFAULT 14 _ZNK7android12SortedVecto
554:   FUNC GLOBAL DEFAULT 14 _ZNK7android9M3UParser10M
555:   FUNC GLOBAL DEFAULT 14 _ZNK7android9M3UParser17g
556:   FUNC GLOBAL DEFAULT 14 _ZN7android9ATSParser20pa
557:   FUNC WEAK DEFAULT 14 _ZNSt3__16__treeINS_12__v
558:   FUNC GLOBAL DEFAULT 14 _ZN7android9ATSParser10Ca
559:   FUNC GLOBAL DEFAULT 14 _ZN7android14LiveDataSour
560:   FUNC GLOBAL DEFAULT 14 _ZN7android11LiveSession1
561:   FUNC WEAK DEFAULT 14 _ZNK7android12SortedVecto
562:   FUNC WEAK DEFAULT 14 _ZNK7android6VectorINS_2s
563:   FUNC GLOBAL DEFAULT 14 _ZN7android21ElementarySt
564:   FUNC GLOBAL DEFAULT 14 _ZN7android21ElementarySt
565:   FUNC GLOBAL DEFAULT 14 _ZN7android9M3UParser10pa
566:   FUNC GLOBAL DEFAULT 14 _ZNK7android9M3UParser17g
567:   FUNC GLOBAL DEFAULT 14 _ZN7android9ATSParser12fe
568:   FUNC WEAK DEFAULT 14 _ZNK7android12SortedVecto
569:   FUNC GLOBAL DEFAULT 14 _ZN7android21ElementarySt
570:   FUNC WEAK DEFAULT 14 _ZNK7android12SortedVecto
571:   FUNC WEAK DEFAULT 14 _ZNK7android12SortedVecto
572:   OBJECT GLOBAL DEFAULT 18 _ZTVN7android9ATSParser10
573:   FUNC GLOBAL DEFAULT 14 _ZN7android14HTTPDownload
574:   FUNC GLOBAL DEFAULT 14 _ZN7android14LiveDataSour
575:   FUNC WEAK DEFAULT 14 _ZNK7android12SortedVecto
576:   FUNC GLOBAL DEFAULT 14 _ZN7android9ATSParser10PS
577:   FUNC WEAK DEFAULT 14 _ZNKSt3__115basic_stringb
578:   FUNC GLOBAL DEFAULT 14 _ZN7android21ElementarySt
579:   FUNC GLOBAL DEFAULT 14 _ZN7android3ID3C2EPNS_14D
580:   FUNC GLOBAL DEFAULT 14 _ZN7android14HTTPDownload
581:   FUNC GLOBAL DEFAULT 14 _ZN7android11LiveSession2
582:   FUNC GLOBAL DEFAULT 14 _ZN7android19AnotherPacke
583:   FUNC GLOBAL DEFAULT 14 _ZN7android19AnotherPacke
584:   FUNC WEAK DEFAULT 14 _ZNK7android12SortedVecto
585:   FUNC GLOBAL DEFAULT 14 _ZN7android9ATSParser7Pro
586:   FUNC GLOBAL DEFAULT 14 _ZN7android21ElementarySt
587:   FUNC WEAK DEFAULT 14 _ZNK7android12SortedVecto
588:   FUNC GLOBAL DEFAULT 14 _ZN7android11LiveSession2
589:   FUNC GLOBAL DEFAULT 14 _ZNK7android9M3UParser10g
590:   FUNC GLOBAL DEFAULT 14 __aeabi_ldivmod
591:   FUNC GLOBAL DEFAULT 14 _ZN7android9M3UParser10Me
592:   FUNC WEAK DEFAULT 14 _ZNK7android6VectorINS_9M
593:   FUNC GLOBAL DEFAULT 14 _ZNK7android15PlaylistFet
594:   FUNC GLOBAL DEFAULT 14 _ZN7android9ATSParser10Ca
595:   FUNC GLOBAL DEFAULT 14 _ZNK7android9ATSParser6St
596:   OBJECT WEAK DEFAULT 18 _ZTVN7android14DataSource
597:   FUNC GLOBAL DEFAULT 14 _ZN7android9M3UParserD2Ev
598:   FUNC WEAK DEFAULT 14 _ZNK7android6VectorINS_9M
599:   FUNC GLOBAL DEFAULT 14 _ZNK7android9ATSParser10P
600:   FUNC GLOBAL DEFAULT 14 _ZN7android11LiveSession2
601:   FUNC GLOBAL DEFAULT 14 _ZN7android19AnotherPacke
602:   FUNC GLOBAL DEFAULT 14 _ZN7android9M3UParser11Pa
603:   FUNC WEAK DEFAULT 14 _ZNK7android6VectorINS_9M
604:   FUNC GLOBAL DEFAULT 14 _ZN7android15PlaylistFetc
605:   FUNC GLOBAL DEFAULT 14 _ZN7android21ElementarySt
606:   FUNC GLOBAL DEFAULT 14 _ZN7android9M3UParser10Pa
607:   OBJECT GLOBAL DEFAULT 18 _ZTVN7android9M3UParserE
608:   OBJECT GLOBAL DEFAULT 12 _ZN7android15PlaylistFetc
609:   FUNC WEAK DEFAULT 14 _ZNK7android6VectorINS_9A
610:   FUNC GLOBAL DEFAULT 14 _ZNK7android9ATSParser10P
611:   FUNC GLOBAL DEFAULT 14 _ZN7android21ElementarySt
612:   FUNC GLOBAL DEFAULT 14 _ZN7android11LiveSession1
613:   FUNC GLOBAL DEFAULT 14 _ZN7android9M3UParser15pa
614:   FUNC WEAK DEFAULT 14 _ZNK7android12SortedVecto
615:   FUNC GLOBAL DEFAULT 14 _ZNK7android15PlaylistFet
616:   OBJECT WEAK DEFAULT 18 _ZTVNSt3__115basic_string
617:   OBJECT WEAK DEFAULT 18 _ZTVN7android12SortedVect
618:   FUNC WEAK DEFAULT 14 _ZNK7android12SortedVecto
619:   OBJECT GLOBAL DEFAULT 18 _ZTTN7android19AnotherPac
620:   FUNC GLOBAL DEFAULT 14 _ZN7android9ATSParser6Str
621:   FUNC GLOBAL DEFAULT 14 _ZN7android3ID3C2EPNS_16D
622:   FUNC GLOBAL DEFAULT 14 _ZN7android11LiveSessionD
623:   FUNC WEAK DEFAULT 14 _ZNSt3__115basic_stringbu
624:   FUNC WEAK DEFAULT 14 _ZNK7android12SortedVecto
625:   FUNC GLOBAL DEFAULT 14 _ZN7android9ATSParserC1Ej
626:   FUNC GLOBAL DEFAULT 14 _ZN7android19AnotherPacke
627:   FUNC GLOBAL DEFAULT 14 _ZN7android9ATSParser10Ca
628:   FUNC WEAK DEFAULT 14 _ZNK7android12SortedVecto
629:   FUNC WEAK DEFAULT 14 _ZNK7android12SortedVecto
630:   OBJECT WEAK DEFAULT 18 _ZTVN7android12SortedVect
631:   FUNC GLOBAL DEFAULT 14 _ZN7android19AnotherPacke
632:   FUNC GLOBAL DEFAULT 14 _ZN7android9ATSParser7Pro
633:   FUNC GLOBAL DEFAULT 14 _ZNK7android19AnotherPack
634:   FUNC GLOBAL DEFAULT 14 _ZN7android15PlaylistFetc
635:   OBJECT WEAK DEFAULT 18 _ZTVN7android12SortedVect
636:   FUNC GLOBAL DEFAULT 14 _ZN7android24MakeAVCCodec
637:   FUNC GLOBAL DEFAULT 14 _ZN7android9ATSParser6Str
638:   OBJECT WEAK DEFAULT 18 _ZTVN7android12SortedVect
639:   FUNC GLOBAL DEFAULT 14 _ZN7android11LiveSession1
640:   OBJECT WEAK DEFAULT 18 _ZTVN7android12SortedVect
641:   OBJECT WEAK DEFAULT 18 _ZTVN7android8AHandlerE
642:   FUNC GLOBAL DEFAULT 14 _ZN7android9M3UParser14is
643:   FUNC GLOBAL DEFAULT 14 _ZN7android18parseVorbisC
644:   FUNC WEAK DEFAULT 14 _ZNSt3__16vectorIhNS_9all
645:   OBJECT WEAK DEFAULT 18 _ZTCNSt3__119basic_ostrin
646:   OBJECT WEAK DEFAULT 18 _ZTVN7android12SortedVect
647:   FUNC GLOBAL DEFAULT 14 _ZN7android11LiveSession9
648:   FUNC GLOBAL DEFAULT 14 _ZN7android15PlaylistFetc
649:   FUNC WEAK DEFAULT 14 _ZNK7android6VectorIjE16d
650:   FUNC GLOBAL DEFAULT 14 _ZN7android11LiveSession1
651:   FUNC GLOBAL DEFAULT 14 _ZN7android11LiveSession2
652:   FUNC GLOBAL DEFAULT 14 _ZN7android19AnotherPacke
653:   FUNC GLOBAL DEFAULT 14 _ZNK7android11LiveSession
654:   OBJECT GLOBAL DEFAULT 18 _ZTVN7android9ATSParserE
655:   FUNC WEAK DEFAULT 14 _ZNK7android12SortedVecto
656:   FUNC GLOBAL DEFAULT 14 _ZN7android9ATSParser8par
657:   FUNC GLOBAL DEFAULT 14 __aeabi_memset
658:   FUNC GLOBAL DEFAULT 14 _ZN7android11LiveSession1
659:   FUNC GLOBAL DEFAULT 14 _ZN7android11LiveSession1
660:   OBJECT WEAK DEFAULT 18 _ZTVN7android4ListINS_21E
661:   FUNC GLOBAL DEFAULT 14 _ZN7android3ID38IteratorD
662:   FUNC GLOBAL DEFAULT 14 _ZNK7android3ID38Iterator
663:   OBJECT WEAK DEFAULT 18 _ZTVN7android6VectorINS_9
664:   FUNC GLOBAL DEFAULT 14 _ZN7android15PlaylistFetc
665:   OBJECT WEAK DEFAULT 18 _ZTVN7android4ListINS_19A
666:   FUNC GLOBAL DEFAULT 14 _ZNK7android9M3UParser16g
667:   FUNC GLOBAL DEFAULT 14 _ZNK7android9M3UParser10M
668:   FUNC GLOBAL DEFAULT 14 _ZN7android19AnotherPacke
669:   FUNC WEAK DEFAULT 14 _ZNK7android12SortedVecto
670:   FUNC GLOBAL DEFAULT 14 _ZN7android21ElementarySt
671:   FUNC GLOBAL DEFAULT 14 _ZN7android14HTTPDownload
672:   FUNC GLOBAL DEFAULT 14 _ZN7android14LiveDataSour
673:   FUNC GLOBAL DEFAULT 14 _ZNK7android9M3UParser10M
674:   FUNC WEAK DEFAULT 14 _ZNK7android12SortedVecto
675:   FUNC GLOBAL DEFAULT 14 _ZN7android11LiveSession1
676:   FUNC WEAK DEFAULT 14 _ZNK7android12SortedVecto
677:   FUNC WEAK DEFAULT 14 _ZNK7android12SortedVecto
678:   FUNC GLOBAL DEFAULT 14 _ZN7android9ATSParser6Str
679:   FUNC WEAK DEFAULT 14 _ZNK7android6VectorINS_2s
680:   FUNC WEAK DEFAULT 14 _ZNK7android6VectorINS_11
681:   FUNC GLOBAL DEFAULT 14 _ZN7android9ATSParser6Str
682:   FUNC WEAK DEFAULT 14 _ZNK7android12SortedVecto
683:   FUNC GLOBAL DEFAULT 14 _ZN7android14HTTPDownload
684:   FUNC WEAK DEFAULT 14 _ZNSt3__115basic_stringbu
685:   FUNC WEAK DEFAULT 14 _ZNSt3__16__treeINS_12__v
686:   FUNC GLOBAL DEFAULT 14 _ZN7android9ATSParser10Ca
687:   FUNC GLOBAL DEFAULT 14 _ZN7android18HlsSampleDec
688:   FUNC WEAK DEFAULT 14 _ZNK7android6VectorINS_11
689:   FUNC GLOBAL DEFAULT 14 _ZNK7android14LiveDataSou
690:   FUNC GLOBAL DEFAULT 14 _ZN7android11LiveSession1
691:   FUNC GLOBAL DEFAULT 14 _ZN7android15PlaylistFetc
692:   FUNC GLOBAL DEFAULT 14 _ZN7android15PlaylistFetc
693:   FUNC WEAK DEFAULT 14 _ZNK7android12SortedVecto
694:   FUNC GLOBAL DEFAULT 14 _ZN7android18HlsSampleDec
695:   FUNC GLOBAL DEFAULT 14 _ZN7android14LiveDataSour
696:   FUNC GLOBAL DEFAULT 14 _ZN7android15PlaylistFetc
697:   FUNC GLOBAL DEFAULT 14 _ZN7android9ATSParser10PS
698:   FUNC GLOBAL DEFAULT 14 _ZNK7android18HlsSampleDe
699:   FUNC GLOBAL DEFAULT 14 _ZN7android11LiveSession1
700:   FUNC GLOBAL DEFAULT 14 _ZN7android3ID38IteratorC
701:   FUNC GLOBAL DEFAULT 14 _ZTv0_n12_N7android14Live
702:   FUNC GLOBAL DEFAULT 14 _ZN7android9ATSParser10Ca
703:   FUNC GLOBAL DEFAULT 14 _ZN7android9M3UParser11co
704:   FUNC GLOBAL DEFAULT 14 _ZN7android14HTTPDownload
705:   FUNC GLOBAL DEFAULT 14 _ZN7android9M3UParser4siz
706:   FUNC GLOBAL DEFAULT 14 _ZN7android9M3UParser4met
707:   FUNC GLOBAL DEFAULT 14 _ZN7android15PlaylistFetc
708:   FUNC GLOBAL DEFAULT 14 _ZN7android15PlaylistFetc
709:   FUNC WEAK DEFAULT 14 _ZNK7android12SortedVecto
710:   FUNC GLOBAL DEFAULT 14 _ZNK7android9M3UParser7is
711:   FUNC GLOBAL DEFAULT 14 _ZNK7android15PlaylistFet
712:   FUNC GLOBAL DEFAULT 14 _ZN7android9ATSParser7Pro
713:   FUNC WEAK DEFAULT 14 _ZNK7android6VectorIiE8do
714:   FUNC GLOBAL DEFAULT 14 _ZN7android9M3UParser6ite
715:   FUNC GLOBAL DEFAULT 14 _ZNK7android15PlaylistFet
716:   FUNC GLOBAL DEFAULT 14 _ZNK7android3ID37isValidE
717:   FUNC GLOBAL DEFAULT 14 _ZN7android9ATSParser11se
718:   FUNC WEAK DEFAULT 14 _ZNK7android12SortedVecto
719:   FUNC GLOBAL DEFAULT 14 _ZNK7android9M3UParser16g
720:   FUNC GLOBAL DEFAULT 14 _ZN7android15PlaylistFetc
721:   FUNC GLOBAL DEFAULT 14 _ZN7android9ATSParser7Pro
722:   FUNC GLOBAL DEFAULT 14 _ZN7android11LiveSession9
723:   FUNC GLOBAL DEFAULT 14 _ZN7android18HlsSampleDec
724:   FUNC GLOBAL DEFAULT 14 _ZN7android3ID37parseV1EP
725:   FUNC WEAK DEFAULT 14 _ZNK7android12SortedVecto
726:   FUNC GLOBAL DEFAULT 14 _ZN7android11LiveSession1
727:   OBJECT GLOBAL DEFAULT 18 _ZTVN7android9M3UParser10
728:   FUNC GLOBAL DEFAULT 14 _ZNK7android9ATSParser6St
729:   FUNC WEAK DEFAULT 14 _ZNK7android12SortedVecto
730:   FUNC WEAK DEFAULT 14 _ZNK7android12SortedVecto
731:   FUNC GLOBAL DEFAULT 14 _ZN7android9ATSParser9Syn
732:   FUNC WEAK DEFAULT 14 _ZNK7android12SortedVecto
733:   FUNC GLOBAL DEFAULT 14 _ZNK7android9ATSParser10C
734:   FUNC GLOBAL DEFAULT 14 _ZN7android11LiveSession2
735:   FUNC GLOBAL DEFAULT 14 _ZN7android11LiveSession2
736:   FUNC WEAK DEFAULT 14 _ZNK7android6VectorINS_9M
737:   FUNC GLOBAL DEFAULT 14 _ZN7android9ATSParser9Syn
738:   OBJECT GLOBAL DEFAULT 18 _ZTVN7android9ATSParser10
739:   FUNC WEAK DEFAULT 14 _ZNSt3__16__treeIjNS_4les
740:   FUNC WEAK DEFAULT 14 _ZNK7android6VectorINS_11
741:   FUNC GLOBAL DEFAULT 14 _ZN7android11LiveSessionD
742:   FUNC GLOBAL DEFAULT 14 _ZN7android15PlaylistFetc
743:   FUNC GLOBAL DEFAULT 14 _ZNK7android11LiveSession
744:   OBJECT WEAK DEFAULT 18 _ZTVN7android6VectorINS_1
745:   FUNC GLOBAL DEFAULT 14 __aeabi_d2lz
746:   FUNC WEAK DEFAULT 14 _ZNK7android12SortedVecto
747:   FUNC WEAK DEFAULT 14 _ZNK7android12SortedVecto
748:   FUNC GLOBAL DEFAULT 14 _ZN7android11LiveSession1
749:   FUNC WEAK DEFAULT 14 _ZNK7android6VectorINS_9M
750:   FUNC WEAK DEFAULT 14 _ZNK7android12SortedVecto
751:   FUNC GLOBAL DEFAULT 14 _ZN7android18HlsSampleDec
752:   OBJECT WEAK DEFAULT 18 _ZTVN7android14HTTPDownlo
753:   FUNC WEAK DEFAULT 14 _ZNK7android6VectorINS_9M
754:   FUNC GLOBAL DEFAULT 14 _ZN7android15PlaylistFetc
755:   FUNC GLOBAL DEFAULT 14 _ZN7android9ATSParser9upd
756:   OBJECT GLOBAL DEFAULT 12 _ZN7android11LiveSession1
757:   FUNC GLOBAL DEFAULT 14 _ZNK7android3ID38Iterator
758:   FUNC GLOBAL DEFAULT 14 _ZNK7android9M3UParser9in
759:   FUNC GLOBAL DEFAULT 14 _ZNK7android9M3UParser8is
760:   FUNC WEAK DEFAULT 14 _ZNK7android6VectorINS_11
761:   FUNC GLOBAL DEFAULT 14 __fixdfdi
762:   FUNC GLOBAL DEFAULT 14 __fixsfdi
763:   FUNC GLOBAL DEFAULT 14 _ZN7android11LiveSession2
764:   FUNC GLOBAL DEFAULT 14 _ZNK7android9M3UParser14p
765:   FUNC GLOBAL DEFAULT 14 _ZN7android24MakeAVCCodec
766:   FUNC WEAK DEFAULT 14 _ZNK7android12SortedVecto
767:   FUNC WEAK DEFAULT 14 _ZNK7android12SortedVecto
768:   FUNC GLOBAL DEFAULT 14 _ZN7android11LiveSession1
769:   FUNC GLOBAL DEFAULT 14 _ZNK7android9M3UParser13g
770:   FUNC GLOBAL DEFAULT 14 _ZNK7android9M3UParser19g
771:   FUNC GLOBAL DEFAULT 14 _ZN7android9ATSParser7Pro
772:   FUNC WEAK DEFAULT 14 _ZNK7android6VectorINS_9A
773:   FUNC WEAK DEFAULT 14 _ZNK7android6VectorIiE10d
774:   OBJECT GLOBAL DEFAULT 18 _ZTTN7android14LiveDataSo
775:   FUNC GLOBAL DEFAULT 14 _ZN7android9M3UParser10Me
776:   FUNC GLOBAL DEFAULT 14 _ZN7android15PlaylistFetc
777:   FUNC GLOBAL DEFAULT 14 _ZN7android9ATSParser6Str
778:   FUNC WEAK DEFAULT 14 _ZNK7android12SortedVecto
779:   OBJECT GLOBAL DEFAULT 18 _ZTCN7android19AnotherPac
780:   FUNC GLOBAL DEFAULT 14 _ZN7android11LiveSession2
781:   FUNC GLOBAL DEFAULT 14 _ZN7android19AnotherPacke
782:   FUNC GLOBAL DEFAULT 14 _ZN7android9ATSParser6Str
783:   FUNC WEAK DEFAULT 14 _ZNSt3__16__treeINS_12__v
784:   FUNC GLOBAL DEFAULT 14 _ZN7android21ElementarySt
785:   FUNC WEAK DEFAULT 14 _ZNK7android6VectorIjE7do
786:   FUNC WEAK DEFAULT 14 _ZNK7android12SortedVecto
787:   FUNC GLOBAL DEFAULT 14 _ZN7android15PlaylistFetc
788:   FUNC GLOBAL DEFAULT 14 _ZN7android9ATSParser9Syn
789:   FUNC GLOBAL DEFAULT 14 _ZNK7android9ATSParser10P
790:   FUNC GLOBAL DEFAULT 14 _ZNK7android3ID311getAlbu
791:   FUNC WEAK DEFAULT 14 _ZNK7android6VectorIiE12d
792:   FUNC GLOBAL DEFAULT 14 _ZN7android3ID3C2EPKhjb
793:   FUNC GLOBAL DEFAULT 14 _ZN7android11LiveSession2
794:   FUNC GLOBAL DEFAULT 14 _ZNK7android11LiveSession
795:   FUNC GLOBAL DEFAULT 14 _ZN7android9ATSParserD0Ev
796:   FUNC WEAK DEFAULT 14 _ZNK7android12SortedVecto
797:   FUNC GLOBAL DEFAULT 14 _ZN7android21ElementarySt
798:   FUNC GLOBAL DEFAULT 14 _ZN7android11LiveSession2
799:   FUNC GLOBAL DEFAULT 14 _ZN7android19AnotherPacke
800:   FUNC GLOBAL DEFAULT 14 _ZNK7android21ElementaryS
801:   FUNC WEAK DEFAULT 14 _ZNK7android12SortedVecto
802:   FUNC GLOBAL DEFAULT 14 _ZN7android14LiveDataSour
803:   FUNC GLOBAL DEFAULT 14 _ZN7android11LiveSession1
804:   FUNC WEAK DEFAULT 14 _ZNK7android6VectorINS_2s
805:   FUNC GLOBAL DEFAULT 14 _ZN7android9ATSParser10Ca
806:   FUNC GLOBAL DEFAULT 14 _ZN7android3ID323removeUn
807:   FUNC GLOBAL DEFAULT 14 _ZN7android11LiveSession6
808:   FUNC WEAK DEFAULT 14 _ZNK7android12SortedVecto
809:   FUNC GLOBAL DEFAULT 14 _ZN7android3ID37parseV2EP
810:   FUNC GLOBAL DEFAULT 14 _ZN7android9M3UParser10Me
811:   FUNC GLOBAL DEFAULT 14 _ZNK7android15PlaylistFet
812:   FUNC GLOBAL DEFAULT 14 _ZN7android9ATSParser10Ca
813:   FUNC WEAK DEFAULT 14 _ZNK7android12SortedVecto
814:   FUNC GLOBAL DEFAULT 14 _ZN7android11LiveSessionC
815:   FUNC WEAK DEFAULT 14 _ZNK7android12SortedVecto
816:   OBJECT GLOBAL DEFAULT 18 _ZTVN7android19AnotherPac
817:   FUNC WEAK DEFAULT 14 _ZNSt3__16vectorIN7androi
818:   OBJECT WEAK DEFAULT 18 _ZTVN7android12MemorySour
819:   FUNC GLOBAL DEFAULT 14 _ZN7android19AnotherPacke
820:   FUNC GLOBAL DEFAULT 14 _ZN7android9ATSParser6Str
821:   FUNC WEAK DEFAULT 14 _ZNK7android12SortedVecto
822:   FUNC WEAK DEFAULT 14 _ZNK7android12SortedVecto
823:   FUNC GLOBAL DEFAULT 14 _ZN7android14LiveDataSour
824:   FUNC GLOBAL DEFAULT 14 _ZN7android11LiveSession1
825:   FUNC GLOBAL DEFAULT 14 _ZN7android9ATSParser10PS
826:   FUNC GLOBAL DEFAULT 14 _ZN7android9ATSParser10Ca
827:   FUNC WEAK DEFAULT 14 _ZNK7android12SortedVecto
828:   FUNC WEAK DEFAULT 14 _ZNK7android12SortedVecto
829:   FUNC WEAK DEFAULT 14 _ZNK7android6VectorINS_11
830:   FUNC WEAK DEFAULT 14 _ZNK7android6VectorINS_11
831:   FUNC GLOBAL DEFAULT 14 _ZN7android9M3UParser10Me
832:   FUNC GLOBAL DEFAULT 14 _ZN7android3ID3C1EPNS_16D
833:   FUNC GLOBAL DEFAULT 14 _ZNK7android3ID37versionE
834:   OBJECT GLOBAL DEFAULT 12 _ZN7android11LiveSession1
835:   FUNC GLOBAL DEFAULT 14 _ZNK7android9M3UParser10i
836:   FUNC WEAK DEFAULT 14 _ZNK7android12SortedVecto
837:   FUNC GLOBAL DEFAULT 14 _ZN7android9ATSParser10Ca
838:   OBJECT WEAK DEFAULT 18 _ZTVN7android9ATSParser10
839:   FUNC GLOBAL DEFAULT 14 _ZN7android14LiveDataSour
840:   OBJECT GLOBAL DEFAULT 12 _ZN7android11LiveSession1
841:   OBJECT WEAK DEFAULT 18 _ZTVNSt3__119basic_ostrin
842:   FUNC GLOBAL DEFAULT 14 _ZN7android11LiveSession1
843:   FUNC GLOBAL DEFAULT 14 _ZN7android19AnotherPacke
844:   FUNC GLOBAL DEFAULT 14 _ZN7android9M3UParserD1Ev
845:   FUNC WEAK DEFAULT 14 _ZNK7android6VectorINS_9M
846:   FUNC GLOBAL DEFAULT 14 _ZN7android15PlaylistFetc
847:   FUNC GLOBAL DEFAULT 14 _ZN7android9ATSParser7par
848:   FUNC WEAK DEFAULT 14 _ZNSt3__115basic_stringbu
849:   FUNC WEAK DEFAULT 14 _ZNK7android12SortedVecto
850:   FUNC GLOBAL DEFAULT 14 _ZNK7android9M3UParser17i
851:   FUNC GLOBAL DEFAULT 14 _ZN7android15PlaylistFetc
852:   FUNC GLOBAL DEFAULT 14 _ZN7android9ATSParser6Str
853:   FUNC WEAK DEFAULT 14 _ZNK7android12SortedVecto
854:   FUNC GLOBAL DEFAULT 14 _ZN7android18HlsSampleDec
855:   FUNC GLOBAL DEFAULT 14 _ZN7android9ATSParser9sig
856:   FUNC WEAK DEFAULT 14 _ZNK7android6VectorINS_2s
857:   FUNC GLOBAL DEFAULT 14 _ZN7android11LiveSession2
858:   FUNC GLOBAL DEFAULT 14 _ZN7android15PlaylistFetc
859:   FUNC GLOBAL DEFAULT 14 _ZNK7android11LiveSession
860:   FUNC GLOBAL DEFAULT 14 _ZN7android15PlaylistFetc
861:   FUNC GLOBAL DEFAULT 14 _ZN7android21ElementarySt
862:   FUNC WEAK DEFAULT 14 _ZNK7android6VectorINS_2s
863:   FUNC WEAK DEFAULT 14 _ZNSt3__16vectorIN7androi
864:   FUNC WEAK DEFAULT 14 _ZNK7android12SortedVecto
865:   FUNC GLOBAL DEFAULT 14 _ZN7android3ID38Iterator9
866:   FUNC GLOBAL DEFAULT 14 _ZN7android9ATSParser6Str
867:   OBJECT WEAK DEFAULT 18 _ZTVN7android6VectorIjEE
868:   FUNC GLOBAL DEFAULT 14 _ZN7android3ID320ParseSyn
869:   FUNC GLOBAL DEFAULT 14 _ZN7android14LiveDataSour
870:   FUNC GLOBAL DEFAULT 14 _ZN7android11LiveSession1
871:   OBJECT GLOBAL DEFAULT 12 _ZN7android11LiveSession1
872:   FUNC WEAK DEFAULT 14 _ZNK7android12SortedVecto
873:   FUNC GLOBAL DEFAULT 14 _ZN7android21ElementarySt
874:   FUNC WEAK DEFAULT 14 _ZNK7android12SortedVecto
875:   FUNC WEAK DEFAULT 14 _ZNK7android6VectorIiE16d
876:   FUNC WEAK DEFAULT 14 _ZNK7android6VectorINS_9M
877:   FUNC GLOBAL DEFAULT 14 _ZN7android11LiveSession6
878:   FUNC GLOBAL DEFAULT 14 _ZN7android9M3UParser5par
879:   FUNC GLOBAL DEFAULT 14 _ZN7android9ATSParser7Pro
880:   FUNC WEAK DEFAULT 14 _ZNK7android6VectorINS_11
881:   FUNC GLOBAL DEFAULT 14 _ZN7android24MakeAACCodec
882:   OBJECT GLOBAL DEFAULT 18 _ZTVN7android15PlaylistFe
883:   FUNC GLOBAL DEFAULT 14 _ZN7android19AnotherPacke
884:   FUNC GLOBAL DEFAULT 14 _ZN7android11LiveSession2
885:   FUNC WEAK DEFAULT 14 _ZNK7android12SortedVecto
886:   FUNC WEAK DEFAULT 14 _ZNK7android12SortedVecto
887:   FUNC WEAK DEFAULT 14 _ZNK7android12SortedVecto
888:   FUNC WEAK DEFAULT 14 _ZNK7android12SortedVecto
889:   FUNC GLOBAL DEFAULT 14 _ZTv0_n12_N7android19Anot
890:   FUNC GLOBAL DEFAULT 14 _ZN7android21ElementarySt
891:   FUNC GLOBAL DEFAULT 14 _ZN7android3ID3D2Ev
892:   FUNC GLOBAL DEFAULT 14 _ZN7android3ID38Iterator4
893:   OBJECT WEAK DEFAULT 18 _ZTVN7android9ATSParser7P
894:   FUNC GLOBAL DEFAULT 14 _ZN7android9ATSParser10Ca
895:   FUNC WEAK DEFAULT 14 _ZNK7android12SortedVecto
896:   FUNC GLOBAL DEFAULT 14 _ZN7android11LiveSession1
897:   FUNC GLOBAL DEFAULT 14 _ZN7android19AnotherPacke
898:   FUNC GLOBAL DEFAULT 14 _ZN7android15PlaylistFetc
899:   FUNC WEAK DEFAULT 14 _ZNK7android12SortedVecto
900:   FUNC GLOBAL DEFAULT 14 _ZN7android9ATSParser7Pro
901:   FUNC WEAK DEFAULT 14 _ZNK7android12SortedVecto
902:   FUNC WEAK DEFAULT 14 _ZNK7android12SortedVecto
903:   FUNC GLOBAL DEFAULT 14 _ZN7android11LiveSession1
904:   FUNC WEAK DEFAULT 14 _ZNK7android6VectorINS_9M
905:   FUNC GLOBAL DEFAULT 14 _ZN7android24MakeAACCodec
906:   FUNC GLOBAL DEFAULT 14 _ZN7android21ElementarySt
907:   FUNC GLOBAL DEFAULT 14 _ZNK7android11LiveSession
908:   FUNC GLOBAL DEFAULT 14 _ZNK7android15PlaylistFet
909:   FUNC GLOBAL DEFAULT 14 _ZN7android9ATSParser10Ca
910:   FUNC WEAK DEFAULT 14 _ZNK7android6VectorINS_9A
911:   FUNC GLOBAL DEFAULT 14 _ZN7android11LiveSession1
912:   FUNC GLOBAL DEFAULT 14 _ZN7android15PlaylistFetc
913:   FUNC GLOBAL DEFAULT 14 _ZN7android14LiveDataSour
914:   FUNC GLOBAL DEFAULT 14 _ZN7android19AnotherPacke
915:   FUNC GLOBAL DEFAULT 14 _ZN7android15PlaylistFetc
916:   FUNC GLOBAL DEFAULT 14 _ZN7android3ID38IteratorD
917:   FUNC GLOBAL DEFAULT 14 _ZN7android9ATSParser10PS
918:   OBJECT GLOBAL DEFAULT 18 _ZTVN7android9ATSParser6S
919:   FUNC GLOBAL DEFAULT 14 _ZN7android15PlaylistFetc
920:   FUNC GLOBAL DEFAULT 14 __divdi3
921:   FUNC GLOBAL DEFAULT 14 _ZN7android11LiveSessionC
922:   FUNC GLOBAL DEFAULT 14 _ZN7android19AnotherPacke
923:   FUNC GLOBAL DEFAULT 14 _ZN7android9ATSParser28pa
924:   FUNC GLOBAL DEFAULT 14 _ZN7android9ATSParserD2Ev
925:   FUNC GLOBAL DEFAULT 14 _ZN7android9ATSParser10Ca
926:   FUNC GLOBAL DEFAULT 14 _ZN7android15PlaylistFetc
927:   FUNC GLOBAL DEFAULT 14 _ZNK7android9ATSParser9ha
928:   OBJECT WEAK DEFAULT 18 _ZTVN7android12SortedVect
929:   FUNC WEAK DEFAULT 14 _ZNK7android6VectorINS_11
930:   FUNC GLOBAL DEFAULT 14 _ZN7android9M3UParser10Me
931:   FUNC GLOBAL DEFAULT 14 _ZN7android9ATSParser6Str
932:   FUNC GLOBAL DEFAULT 14 _ZN7android11LiveSession2
933:   FUNC WEAK DEFAULT 14 _ZNK7android6VectorINS_11
934:   OBJECT GLOBAL DEFAULT 12 _ZN7android15PlaylistFetc
935:   FUNC GLOBAL DEFAULT 14 _ZN7android3ID3C1EPKhjb
936:   FUNC GLOBAL DEFAULT 14 _ZN7android21ElementarySt
937:   FUNC GLOBAL DEFAULT 14 _ZN7android9ATSParser17ge
938:   FUNC GLOBAL DEFAULT 14 _ZN7android9ATSParser10Ca
939:   FUNC WEAK DEFAULT 14 _ZNK7android12SortedVecto
940:   FUNC WEAK DEFAULT 14 _ZNSt3__16__treeIjNS_4les
941:   FUNC WEAK DEFAULT 14 _ZNK7android6VectorIjE8do
942:   FUNC GLOBAL DEFAULT 14 _ZNK7android11LiveSession
943:   OBJECT GLOBAL DEFAULT 12 _ZN7android15PlaylistFetc
944:   FUNC GLOBAL DEFAULT 14 _ZN7android15PlaylistFetc
945:   OBJECT WEAK DEFAULT 18 _ZTVN7android6VectorINS_9
946:   FUNC GLOBAL DEFAULT 14 _ZN7android9ATSParser10Ca
947:   FUNC GLOBAL DEFAULT 14 __aeabi_f2ulz
948:   FUNC GLOBAL DEFAULT 14 _ZN7android15PlaylistFetc
949:   FUNC GLOBAL DEFAULT 14 _ZN7android15PlaylistFetc
950:   FUNC GLOBAL DEFAULT 14 _ZN7android9ATSParser21si
951:   FUNC GLOBAL DEFAULT 14 _ZN7android9ATSParser10PS
952:   FUNC GLOBAL DEFAULT 14 _ZN7android9ATSParser6Str
953:   FUNC WEAK DEFAULT 14 _ZNK7android6VectorIiE7do
954:   FUNC GLOBAL DEFAULT 14 _ZNK7android9M3UParser10M
955:   FUNC GLOBAL DEFAULT 14 _ZN7android21ElementarySt
956:   FUNC WEAK DEFAULT 14 _ZNK7android6VectorIjE12d
957:   FUNC GLOBAL DEFAULT 14 _ZN7android15PlaylistFetc
