 0x0000000e (SONAME)                     Library soname: [android.hardware.broadcastradio@1.0.so]
  
Symbol   contains 501 entries:
Num:   Type Bind Vis Ndx Name
0:   NOTYPE LOCAL DEFAULT UND
1:   FUNC GLOBAL DEFAULT UND __cxa_finalize@LIBC (2)
2:   FUNC GLOBAL DEFAULT UND _ZN7android14sp_report_ra
3:   FUNC GLOBAL DEFAULT UND _ZN7android21report_syspr
4:   OBJECT GLOBAL DEFAULT UND _ZN7android4hidl4base4V1_
5:   FUNC GLOBAL DEFAULT UND _ZN7android4hidl4base4V1_
6:   FUNC GLOBAL DEFAULT UND _ZN7android4hidl4base4V1_
7:   FUNC GLOBAL DEFAULT UND _ZN7android4hidl4base4V1_
8:   FUNC GLOBAL DEFAULT UND _ZN7android4hidl4base4V1_
9:   FUNC GLOBAL DEFAULT UND _ZN7android4hidl4base4V1_
10:   FUNC GLOBAL DEFAULT UND _ZN7android4hidl4base4V1_
11:   FUNC GLOBAL DEFAULT UND _ZN7android4hidl4base4V1_
12:   FUNC GLOBAL DEFAULT UND _ZN7android4hidl4base4V1_
13:   FUNC GLOBAL DEFAULT UND _ZN7android4hidl4base4V1_
14:   FUNC GLOBAL DEFAULT UND _ZN7android4hidl4base4V1_
15:   FUNC GLOBAL DEFAULT UND _ZN7android4hidl4base4V1_
16:   FUNC GLOBAL DEFAULT UND _ZN7android4hidl4base4V1_
17:   FUNC GLOBAL DEFAULT UND _ZN7android4hidl4base4V1_
18:   FUNC GLOBAL DEFAULT UND _ZN7android4hidl4base4V1_
19:   FUNC GLOBAL DEFAULT UND _ZN7android4hidl4base4V1_
20:   FUNC GLOBAL DEFAULT UND _ZN7android4hidl4base4V1_
21:   FUNC GLOBAL DEFAULT UND _ZN7android4hidl4base4V1_
22:   FUNC GLOBAL DEFAULT UND _ZN7android4hidl4base4V1_
23:   FUNC GLOBAL DEFAULT UND _ZN7android4hidl4base4V1_
24:   FUNC GLOBAL DEFAULT UND _ZN7android4hidl4base4V1_
25:   FUNC GLOBAL DEFAULT UND _ZN7android4hidl4base4V1_
26:   FUNC GLOBAL DEFAULT UND _ZN7android4hidl4base4V1_
27:   FUNC GLOBAL DEFAULT UND _ZN7android4hidl4base4V1_
28:   FUNC GLOBAL DEFAULT UND _ZN7android7RefBase10onFi
29:   FUNC GLOBAL DEFAULT UND _ZN7android7RefBase12weak
30:   FUNC GLOBAL DEFAULT UND _ZN7android7RefBase13onLa
31:   FUNC GLOBAL DEFAULT UND _ZN7android7RefBase15onLa
32:   FUNC GLOBAL DEFAULT UND _ZN7android7RefBase20onIn
33:   FUNC GLOBAL DEFAULT UND _ZN7android7RefBaseC2Ev
34:   FUNC GLOBAL DEFAULT UND _ZN7android7RefBaseD2Ev
35:   FUNC GLOBAL DEFAULT UND _ZN7android8hardware10IIn
36:   FUNC GLOBAL DEFAULT UND _ZN7android8hardware10IIn
37:   FUNC GLOBAL DEFAULT UND _ZN7android8hardware10IIn
38:   FUNC GLOBAL DEFAULT UND _ZN7android8hardware10IIn
39:   FUNC GLOBAL DEFAULT UND _ZN7android8hardware10IIn
40:   FUNC GLOBAL DEFAULT UND _ZN7android8hardware11BpH
41:   FUNC GLOBAL DEFAULT UND _ZN7android8hardware11BpH
42:   FUNC GLOBAL DEFAULT UND _ZN7android8hardware11BpH
43:   FUNC GLOBAL DEFAULT UND _ZN7android8hardware11BpH
44:   FUNC GLOBAL DEFAULT UND _ZN7android8hardware11BpH
45:   FUNC GLOBAL DEFAULT UND _ZN7android8hardware11BpH
46:   FUNC GLOBAL DEFAULT UND _ZN7android8hardware11BpH
47:   FUNC GLOBAL DEFAULT UND _ZN7android8hardware11hid
48:   FUNC GLOBAL DEFAULT UND _ZN7android8hardware11hid
49:   FUNC GLOBAL DEFAULT UND _ZN7android8hardware11hid
50:   FUNC GLOBAL DEFAULT UND _ZN7android8hardware11hid
51:   FUNC GLOBAL DEFAULT UND _ZN7android8hardware11hid
52:   FUNC GLOBAL DEFAULT UND _ZN7android8hardware12Pro
53:   FUNC GLOBAL DEFAULT UND _ZN7android8hardware12Pro
54:   FUNC GLOBAL DEFAULT UND _ZN7android8hardware13wri
55:   FUNC GLOBAL DEFAULT UND _ZN7android8hardware14rea
56:   FUNC GLOBAL DEFAULT UND _ZN7android8hardware21def
57:   FUNC GLOBAL DEFAULT UND _ZN7android8hardware23get
58:   FUNC GLOBAL DEFAULT UND _ZN7android8hardware27hid
59:   FUNC GLOBAL DEFAULT UND _ZN7android8hardware27hid
60:   FUNC GLOBAL DEFAULT UND _ZN7android8hardware6Parc
61:   FUNC GLOBAL DEFAULT UND _ZN7android8hardware6Parc
62:   FUNC GLOBAL DEFAULT UND _ZN7android8hardware6Parc
63:   FUNC GLOBAL DEFAULT UND _ZN7android8hardware6Parc
64:   FUNC GLOBAL DEFAULT UND _ZN7android8hardware6Parc
65:   FUNC GLOBAL DEFAULT UND _ZN7android8hardware6Parc
66:   FUNC GLOBAL DEFAULT UND _ZN7android8hardware6Parc
67:   FUNC GLOBAL DEFAULT UND _ZN7android8hardware6Stat
68:   FUNC GLOBAL DEFAULT UND _ZN7android8hardware6Stat
69:   FUNC GLOBAL DEFAULT UND _ZN7android8hardware6Stat
70:   FUNC GLOBAL DEFAULT UND _ZN7android8hardware6Stat
71:   FUNC GLOBAL DEFAULT UND _ZN7android8hardware7IBin
72:   FUNC GLOBAL DEFAULT UND _ZN7android8hardware7IBin
73:   FUNC GLOBAL DEFAULT UND _ZN7android8hardware7IBin
74:   FUNC GLOBAL DEFAULT UND _ZN7android8hardware7IBin
75:   FUNC GLOBAL DEFAULT UND _ZN7android8hardware7deta
76:   FUNC GLOBAL DEFAULT UND _ZN7android8hardware7deta
77:   FUNC GLOBAL DEFAULT UND _ZN7android8hardware7deta
78:   FUNC GLOBAL DEFAULT UND _ZN7android8hardware7deta
79:   FUNC GLOBAL DEFAULT UND _ZN7android8hardware7deta
80:   FUNC GLOBAL DEFAULT UND _ZN7android8hardware7deta
81:   FUNC GLOBAL DEFAULT UND _ZN7android8hardware7deta
82:   OBJECT GLOBAL DEFAULT UND _ZN7android8hardware7deta
83:   OBJECT GLOBAL DEFAULT UND _ZN7android8hardware7deta
84:   FUNC GLOBAL DEFAULT UND _ZN7android8hardware7deta
85:   FUNC GLOBAL DEFAULT UND _ZN7android8hardware7deta
86:   FUNC GLOBAL DEFAULT UND _ZN7android8hardware7deta
87:   FUNC GLOBAL DEFAULT UND _ZN7android8hardware7deta
88:   FUNC GLOBAL DEFAULT UND _ZN7android8hardware7deta
89:   FUNC GLOBAL DEFAULT UND _ZN7android8hardware7deta
90:   FUNC GLOBAL DEFAULT UND _ZN7android8hardware7deta
91:   FUNC GLOBAL DEFAULT UND _ZN7android8hardware7deta
92:   FUNC GLOBAL DEFAULT UND _ZN7android8hardware7deta
93:   FUNC GLOBAL DEFAULT UND _ZN7android8hardware7deta
94:   OBJECT GLOBAL DEFAULT UND _ZN7android8hardware7deta
95:   FUNC GLOBAL DEFAULT UND _ZN7android8hardware9BHwB
96:   FUNC GLOBAL DEFAULT UND _ZN7android8hardware9BHwB
97:   FUNC GLOBAL DEFAULT UND _ZN7android8hardware9BHwB
98:   FUNC GLOBAL DEFAULT UND _ZN7android8hardware9BHwB
99:   FUNC GLOBAL DEFAULT UND _ZN7android8hardware9BHwB
100:   FUNC GLOBAL DEFAULT UND _ZN7android8hardware9BHwB
101:   FUNC GLOBAL DEFAULT UND _ZN7android8hardware9BHwB
102:   FUNC GLOBAL DEFAULT UND _ZN7android8hardware9BHwB
103:   FUNC GLOBAL DEFAULT UND _ZN7android8hardware9BHwB
104:   FUNC GLOBAL DEFAULT UND _ZN7android8hardware9BHwB
105:   FUNC GLOBAL DEFAULT UND _ZNK7android7RefBase10cre
106:   FUNC GLOBAL DEFAULT UND _ZNK7android7RefBase11get
107:   FUNC GLOBAL DEFAULT UND _ZNK7android7RefBase9decS
108:   FUNC GLOBAL DEFAULT UND _ZNK7android7RefBase9incS
109:   FUNC GLOBAL DEFAULT UND _ZNK7android8hardware6Par
110:   FUNC GLOBAL DEFAULT UND _ZNK7android8hardware6Par
111:   FUNC GLOBAL DEFAULT UND _ZNK7android8hardware6Par
112:   FUNC GLOBAL DEFAULT UND _ZNK7android8hardware6Par
113:   FUNC GLOBAL DEFAULT UND _ZNK7android8hardware6Par
114:   FUNC GLOBAL DEFAULT UND _ZNK7android8hardware7IBi
115:   FUNC GLOBAL DEFAULT UND _ZNK7android8hardware7det
116:   FUNC GLOBAL DEFAULT UND _ZNK7android8hardware9BHw
117:   FUNC GLOBAL DEFAULT UND _ZNKSt3__120__vector_base
118:   FUNC GLOBAL DEFAULT UND _ZNKSt3__121__basic_strin
119:   FUNC GLOBAL DEFAULT UND _ZNSt3__112basic_stringIc
120:   FUNC GLOBAL DEFAULT UND _ZNSt3__112basic_stringIc
121:   FUNC GLOBAL DEFAULT UND _ZNSt3__15mutex4lockEv
122:   FUNC GLOBAL DEFAULT UND _ZNSt3__15mutex6unlockEv
123:   FUNC GLOBAL DEFAULT UND _ZNSt3__15mutexD1Ev
124:   FUNC GLOBAL DEFAULT UND _ZTv0_n12_N7android4hidl4
125:   FUNC GLOBAL DEFAULT UND _ZTv0_n12_N7android4hidl4
126:   FUNC GLOBAL DEFAULT UND _ZTv0_n12_N7android8hardw
127:   FUNC GLOBAL DEFAULT UND _ZTv0_n12_N7android8hardw
128:   FUNC GLOBAL DEFAULT UND _ZTv0_n12_N7android8hardw
129:   FUNC GLOBAL DEFAULT UND _ZTv0_n12_N7android8hardw
130:   FUNC GLOBAL DEFAULT UND _ZTv0_n12_N7android8hardw
131:   FUNC GLOBAL DEFAULT UND _ZTv0_n12_N7android8hardw
132:   FUNC GLOBAL DEFAULT UND _ZTv0_n12_N7android8hardw
133:   FUNC GLOBAL DEFAULT UND _ZTv0_n12_N7android8hardw
134:   FUNC GLOBAL DEFAULT UND _ZTv0_n16_N7android8hardw
135:   FUNC GLOBAL DEFAULT UND _ZTv0_n20_N7android8hardw
136:   FUNC GLOBAL DEFAULT UND _ZTv0_n24_N7android8hardw
137:   FUNC GLOBAL DEFAULT UND _ZdaPv
138:   FUNC GLOBAL DEFAULT UND _ZdlPv
139:   FUNC GLOBAL DEFAULT UND _Znaj
140:   FUNC GLOBAL DEFAULT UND _Znwj
141:   FUNC GLOBAL DEFAULT UND __android_log_assert@LIBLOG (3)
142:   FUNC GLOBAL DEFAULT UND __cxa_pure_virtual
143:   FUNC GLOBAL DEFAULT UND __stack_chk_fail@LIBC (2)
144:   OBJECT GLOBAL DEFAULT UND __stack_chk_guard@LIBC (2)
145:   FUNC GLOBAL DEFAULT UND abort@LIBC (2)
146:   FUNC GLOBAL DEFAULT UND atrace_begin_body
147:   OBJECT GLOBAL DEFAULT UND atrace_enabled_tags
148:   FUNC GLOBAL DEFAULT UND atrace_end_body
149:   OBJECT GLOBAL DEFAULT UND atrace_is_ready
150:   FUNC GLOBAL DEFAULT UND atrace_setup
151:   FUNC GLOBAL DEFAULT UND memcmp@LIBC (2)
152:   FUNC GLOBAL DEFAULT UND strlen@LIBC (2)
153:   FUNC GLOBAL DEFAULT UND _ZN7android8hardware6Parc
154:   FUNC GLOBAL DEFAULT UND _ZNK7android8hardware6Par
155:   FUNC GLOBAL DEFAULT UND _ZN7android8hardware6Parc
156:   FUNC GLOBAL DEFAULT UND _ZNK7android8hardware6Par
157:   FUNC GLOBAL DEFAULT UND _ZN7android8hardware21wri
158:   FUNC GLOBAL DEFAULT UND _ZN7android8hardware22rea
159:   FUNC GLOBAL DEFAULT UND memcpy@LIBC (2)
160:   FUNC GLOBAL DEFAULT UND memset@LIBC (2)
161:   OBJECT GLOBAL DEFAULT 16 _ZN7android8hardware14bro
162:   FUNC GLOBAL DEFAULT 14 _ZN7android8hardware14bro
163:   FUNC GLOBAL DEFAULT 14 _ZN7android8hardware14bro
164:   FUNC GLOBAL DEFAULT 14 _ZN7android8hardware14bro
165:   FUNC GLOBAL DEFAULT 14 _ZN7android8hardware14bro
166:   FUNC GLOBAL DEFAULT 14 _ZN7android8hardware14bro
167:   OBJECT GLOBAL DEFAULT 18 _ZTCN7android8hardware14b
168:   FUNC GLOBAL DEFAULT 14 _ZN7android8hardware14bro
169:   FUNC GLOBAL DEFAULT 14 _ZN7android8hardware14bro
170:   OBJECT GLOBAL DEFAULT 18 _ZTCN7android8hardware14b
171:   OBJECT GLOBAL DEFAULT 16 _ZN7android8hardware14bro
172:   FUNC GLOBAL DEFAULT 14 _ZN7android8hardware14bro
173:   FUNC GLOBAL DEFAULT 14 _ZN7android8hardware14bro
174:   FUNC GLOBAL DEFAULT 14 _ZN7android8hardware14bro
175:   FUNC GLOBAL DEFAULT 14 _ZN7android8hardware14bro
176:   FUNC WEAK DEFAULT 14 _ZN7android8hardware7deta
177:   OBJECT WEAK DEFAULT 18 _ZTCN7android8hardware14b
178:   FUNC GLOBAL DEFAULT 14 _ZN7android8hardware14bro
179:   FUNC WEAK DEFAULT 14 _ZN7android8hardware10fro
180:   FUNC GLOBAL DEFAULT 14 _ZN7android8hardware14bro
181:   FUNC GLOBAL DEFAULT 14 _ZN7android8hardware14bro
182:   FUNC GLOBAL DEFAULT 14 _ZN7android8hardware14bro
183:   FUNC GLOBAL DEFAULT 14 _ZN7android8hardware14bro
184:   FUNC GLOBAL DEFAULT 14 _ZN7android8hardware14bro
185:   FUNC GLOBAL DEFAULT 14 _ZN7android8hardware14bro
186:   FUNC GLOBAL DEFAULT 14 _ZN7android8hardware14bro
187:   FUNC GLOBAL DEFAULT 14 _ZThn20_N7android8hardwar
188:   FUNC GLOBAL DEFAULT 14 _ZN7android8hardware14bro
189:   FUNC GLOBAL DEFAULT 14 _ZN7android8hardware14bro
190:   FUNC GLOBAL DEFAULT 14 _ZN7android8hardware14bro
191:   FUNC GLOBAL DEFAULT 14 _ZN7android8hardware14bro
192:   FUNC GLOBAL DEFAULT 14 _ZN7android8hardware14bro
193:   OBJECT GLOBAL DEFAULT 18 _ZTCN7android8hardware14b
194:   OBJECT GLOBAL DEFAULT 18 _ZTTN7android8hardware14b
195:   FUNC GLOBAL DEFAULT 14 _ZN7android8hardware14bro
196:   OBJECT GLOBAL DEFAULT 18 _ZTCN7android8hardware14b
197:   FUNC GLOBAL DEFAULT 14 _ZN7android8hardware14bro
198:   FUNC GLOBAL DEFAULT 14 _ZN7android8hardware14bro
199:   FUNC GLOBAL DEFAULT 14 _ZN7android8hardware14bro
200:   FUNC GLOBAL DEFAULT 14 _ZN7android8hardware14bro
201:   FUNC GLOBAL DEFAULT 14 _ZN7android8hardware14bro
202:   FUNC GLOBAL DEFAULT 14 _ZN7android8hardware14bro
203:   OBJECT WEAK DEFAULT 18 _ZTVN7android8hardware14b
204:   FUNC GLOBAL DEFAULT 14 _ZN7android8hardware14bro
205:   FUNC GLOBAL DEFAULT 14 _ZN7android8hardware14bro
206:   FUNC GLOBAL DEFAULT 14 __aeabi_memcpy4
207:   OBJECT GLOBAL DEFAULT 18 _ZTTN7android8hardware14b
208:   OBJECT GLOBAL DEFAULT 18 _ZTTN7android8hardware14b
209:   FUNC WEAK DEFAULT 14 _ZNSt3__16__treeINS_12__v
210:   OBJECT GLOBAL DEFAULT 18 _ZTVN7android8hardware14b
211:   FUNC GLOBAL DEFAULT 14 _ZN7android8hardware14bro
212:   OBJECT GLOBAL DEFAULT 18 _ZTCN7android8hardware14b
213:   FUNC GLOBAL DEFAULT 14 _ZN7android8hardware14bro
214:   FUNC GLOBAL DEFAULT 14 _ZN7android8hardware14bro
215:   FUNC GLOBAL DEFAULT 14 _ZN7android8hardware14bro
216:   FUNC GLOBAL DEFAULT 14 __aeabi_memclr4
217:   FUNC GLOBAL DEFAULT 14 _ZN7android8hardware14bro
218:   OBJECT GLOBAL DEFAULT 18 _ZTCN7android8hardware14b
219:   FUNC GLOBAL DEFAULT 14 _ZN7android8hardware14bro
220:   FUNC GLOBAL DEFAULT 14 _ZN7android8hardware14bro
221:   FUNC GLOBAL DEFAULT 14 __aeabi_memcpy8
222:   FUNC GLOBAL DEFAULT 14 _ZN7android8hardware14bro
223:   FUNC GLOBAL DEFAULT 14 _ZN7android8hardware14bro
224:   FUNC GLOBAL DEFAULT 14 _ZN7android8hardware14bro
225:   FUNC GLOBAL DEFAULT 14 _ZN7android8hardware14bro
226:   FUNC GLOBAL DEFAULT 14 _ZN7android8hardware14bro
227:   FUNC GLOBAL DEFAULT 14 _ZN7android8hardware14bro
228:   OBJECT GLOBAL DEFAULT 18 _ZTCN7android8hardware14b
229:   FUNC GLOBAL DEFAULT 14 __aeabi_memcpy
230:   FUNC GLOBAL DEFAULT 14 _ZN7android8hardware14bro
231:   FUNC GLOBAL DEFAULT 14 _ZN7android8hardware14bro
232:   FUNC GLOBAL DEFAULT 14 _ZN7android8hardware14bro
233:   FUNC GLOBAL DEFAULT 14 __aeabi_memclr8
234:   FUNC GLOBAL DEFAULT 14 _ZN7android8hardware14bro
235:   FUNC GLOBAL DEFAULT 14 _ZN7android8hardware14bro
236:   FUNC GLOBAL DEFAULT 14 _ZN7android8hardware14bro
237:   FUNC GLOBAL DEFAULT 14 _ZN7android8hardware14bro
238:   FUNC GLOBAL DEFAULT 14 _ZN7android8hardware14bro
239:   FUNC GLOBAL DEFAULT 14 _ZN7android8hardware14bro
240:   FUNC GLOBAL DEFAULT 14 _ZN7android8hardware14bro
241:   FUNC GLOBAL DEFAULT 14 _ZN7android8hardware14bro
242:   OBJECT GLOBAL DEFAULT 18 _ZTCN7android8hardware14b
243:   FUNC GLOBAL DEFAULT 14 _ZN7android8hardware14bro
244:   OBJECT GLOBAL DEFAULT 18 _ZTCN7android8hardware14b
245:   FUNC GLOBAL DEFAULT 14 _ZN7android8hardware14bro
246:   FUNC GLOBAL DEFAULT 14 _ZN7android8hardware14bro
247:   FUNC GLOBAL DEFAULT 14 _ZN7android8hardware14bro
248:   FUNC GLOBAL DEFAULT 14 _ZN7android8hardware14bro
249:   FUNC GLOBAL DEFAULT 14 _ZN7android8hardware14bro
250:   FUNC GLOBAL DEFAULT 14 _ZN7android8hardware14bro
251:   FUNC GLOBAL DEFAULT 14 _ZN7android8hardware14bro
252:   FUNC GLOBAL DEFAULT 14 _ZN7android8hardware14bro
253:   FUNC GLOBAL DEFAULT 14 _ZN7android8hardware14bro
254:   OBJECT WEAK DEFAULT 18 _ZTCN7android8hardware14b
255:   FUNC GLOBAL DEFAULT 14 _ZN7android8hardware14bro
256:   FUNC WEAK DEFAULT 14 _ZN7android8hardware7deta
257:   OBJECT GLOBAL DEFAULT 18 _ZTTN7android8hardware14b
258:   FUNC GLOBAL DEFAULT 14 _ZTv0_n12_N7android8hardw
259:   FUNC GLOBAL DEFAULT 14 _ZN7android8hardware14bro
260:   FUNC GLOBAL DEFAULT 14 _ZN7android8hardware14bro
261:   FUNC GLOBAL DEFAULT 14 _ZN7android8hardware14bro
262:   FUNC GLOBAL DEFAULT 14 _ZN7android8hardware14bro
263:   FUNC GLOBAL DEFAULT 14 _ZN7android8hardware14bro
264:   FUNC GLOBAL DEFAULT 14 _ZN7android8hardware14bro
265:   FUNC GLOBAL DEFAULT 14 _ZN7android8hardware14bro
266:   FUNC GLOBAL DEFAULT 14 _ZN7android8hardware14bro
267:   FUNC GLOBAL DEFAULT 14 _ZN7android8hardware14bro
268:   FUNC GLOBAL DEFAULT 14 _ZTv0_n12_N7android8hardw
269:   FUNC WEAK DEFAULT 14 _ZNSt3__16__treeINS_12__v
270:   OBJECT GLOBAL DEFAULT 18 _ZTTN7android8hardware14b
271:   FUNC GLOBAL DEFAULT 14 _ZN7android8hardware14bro
272:   FUNC GLOBAL DEFAULT 14 _ZN7android8hardware14bro
273:   FUNC GLOBAL DEFAULT 14 _ZN7android8hardware14bro
274:   OBJECT GLOBAL DEFAULT 18 _ZTVN7android8hardware14b
275:   FUNC GLOBAL DEFAULT 14 _ZN7android8hardware14bro
276:   FUNC GLOBAL DEFAULT 14 _ZN7android8hardware14bro
277:   OBJECT GLOBAL DEFAULT 18 _ZTTN7android8hardware14b
278:   FUNC GLOBAL DEFAULT 14 _ZN7android8hardware14bro
279:   FUNC GLOBAL DEFAULT 14 _ZN7android8hardware14bro
280:   FUNC GLOBAL DEFAULT 14 _ZN7android8hardware14bro
281:   FUNC GLOBAL DEFAULT 14 _ZN7android8hardware14bro
282:   FUNC GLOBAL DEFAULT 14 _ZN7android8hardware14bro
283:   OBJECT GLOBAL DEFAULT 18 _ZTCN7android8hardware14b
284:   FUNC GLOBAL DEFAULT 14 _ZN7android8hardware14bro
285:   FUNC WEAK DEFAULT 14 _ZNSt3__16vectorIPvNS_9al
286:   OBJECT GLOBAL DEFAULT 18 _ZTTN7android8hardware14b
287:   FUNC GLOBAL DEFAULT 14 _ZN7android8hardware14bro
288:   FUNC GLOBAL DEFAULT 14 _ZN7android8hardware14bro
289:   FUNC WEAK DEFAULT 14 _ZNSt3__16vectorIN7androi
290:   FUNC GLOBAL DEFAULT 14 _ZN7android8hardware14bro
291:   FUNC GLOBAL DEFAULT 14 _ZN7android8hardware14bro
292:   OBJECT GLOBAL DEFAULT 18 _ZTCN7android8hardware14b
293:   OBJECT GLOBAL DEFAULT 18 _ZTVN7android8hardware14b
294:   FUNC GLOBAL DEFAULT 14 _ZN7android8hardware14bro
295:   FUNC GLOBAL DEFAULT 14 _ZN7android8hardware14bro
296:   FUNC GLOBAL DEFAULT 14 _ZN7android8hardware14bro
297:   FUNC GLOBAL DEFAULT 14 _ZN7android8hardware14bro
298:   FUNC GLOBAL DEFAULT 14 _ZN7android8hardware14bro
299:   FUNC WEAK DEFAULT 14 _ZNSt3__113__tree_removeI
300:   FUNC GLOBAL DEFAULT 14 _ZN7android8hardware14bro
301:   FUNC WEAK DEFAULT 14 _ZNSt3__16__treeINS_12__v
302:   FUNC GLOBAL DEFAULT 14 _ZN7android8hardware14bro
303:   OBJECT GLOBAL DEFAULT 18 _ZTTN7android8hardware14b
304:   FUNC WEAK DEFAULT 14 _ZN7android8hardware10fro
305:   FUNC GLOBAL DEFAULT 14 _ZN7android8hardware14bro
306:   FUNC GLOBAL DEFAULT 14 _ZN7android8hardware14bro
307:   FUNC GLOBAL DEFAULT 14 _ZN7android8hardware14bro
308:   FUNC GLOBAL DEFAULT 14 _ZN7android8hardware14bro
309:   FUNC GLOBAL DEFAULT 14 _ZN7android8hardware14bro
310:   OBJECT GLOBAL DEFAULT 18 _ZTVN7android8hardware14b
311:   FUNC GLOBAL DEFAULT 14 _ZN7android8hardware14bro
312:   FUNC GLOBAL DEFAULT 14 _ZN7android8hardware14bro
313:   OBJECT GLOBAL DEFAULT 18 _ZTCN7android8hardware14b
314:   FUNC GLOBAL DEFAULT 14 _ZN7android8hardware14bro
315:   FUNC GLOBAL DEFAULT 14 _ZN7android8hardware14bro
316:   FUNC GLOBAL DEFAULT 14 _ZN7android8hardware14bro
317:   OBJECT GLOBAL DEFAULT 18 _ZTVN7android8hardware14b
318:   FUNC GLOBAL DEFAULT 14 _ZTv0_n12_N7android8hardw
319:   FUNC GLOBAL DEFAULT 14 _ZN7android8hardware14bro
320:   FUNC GLOBAL DEFAULT 14 _ZN7android8hardware14bro
321:   FUNC GLOBAL DEFAULT 14 _ZN7android8hardware14bro
322:   FUNC GLOBAL DEFAULT 14 _ZN7android8hardware14bro
323:   FUNC GLOBAL DEFAULT 14 _ZN7android8hardware14bro
324:   FUNC GLOBAL DEFAULT 14 _ZN7android8hardware14bro
325:   OBJECT GLOBAL DEFAULT 18 _ZTTN7android8hardware14b
326:   OBJECT GLOBAL DEFAULT 18 _ZTVN7android8hardware14b
327:   FUNC WEAK DEFAULT 14 _ZN7android8hardware7deta
328:   FUNC GLOBAL DEFAULT 14 _ZN7android8hardware14bro
329:   FUNC GLOBAL DEFAULT 14 _ZN7android8hardware14bro
330:   FUNC GLOBAL DEFAULT 14 _ZN7android8hardware14bro
331:   FUNC GLOBAL DEFAULT 14 _ZN7android8hardware14bro
332:   FUNC GLOBAL DEFAULT 14 _ZN7android8hardware14bro
333:   FUNC GLOBAL DEFAULT 14 _ZTv0_n12_N7android8hardw
334:   FUNC GLOBAL DEFAULT 14 _ZTv0_n12_N7android8hardw
335:   FUNC GLOBAL DEFAULT 14 _ZN7android8hardware14bro
336:   FUNC GLOBAL DEFAULT 14 _ZN7android8hardware14bro
337:   FUNC WEAK DEFAULT 14 _ZNSt3__16__treeINS_12__v
338:   FUNC GLOBAL DEFAULT 14 _ZN7android8hardware14bro
339:   FUNC GLOBAL DEFAULT 14 _ZN7android8hardware14bro
340:   FUNC GLOBAL DEFAULT 14 _ZThn20_N7android8hardwar
341:   OBJECT WEAK DEFAULT 18 _ZTVN7android8hardware14b
342:   FUNC GLOBAL DEFAULT 14 _ZN7android8hardware14bro
343:   OBJECT GLOBAL DEFAULT 18 _ZTCN7android8hardware14b
344:   FUNC GLOBAL DEFAULT 14 _ZN7android8hardware14bro
345:   OBJECT GLOBAL DEFAULT 18 _ZTCN7android8hardware14b
346:   FUNC GLOBAL DEFAULT 14 __aeabi_memclr
347:   FUNC GLOBAL DEFAULT 14 _ZThn20_N7android8hardwar
348:   FUNC GLOBAL DEFAULT 14 _ZN7android8hardware14bro
349:   OBJECT GLOBAL DEFAULT 18 _ZTCN7android8hardware14b
350:   OBJECT GLOBAL DEFAULT 18 _ZTVN7android8hardware14b
351:   FUNC WEAK DEFAULT 14 _ZN7android8hardware7deta
352:   FUNC GLOBAL DEFAULT 14 _ZN7android8hardware14bro
353:   FUNC GLOBAL DEFAULT 14 _ZN7android8hardware14bro
354:   FUNC GLOBAL DEFAULT 14 _ZN7android8hardware14bro
355:   FUNC WEAK DEFAULT 14 _ZN7android8hardware7deta
356:   FUNC GLOBAL DEFAULT 14 _ZN7android8hardware14bro
357:   FUNC GLOBAL DEFAULT 14 _ZN7android8hardware14bro
358:   FUNC GLOBAL DEFAULT 14 _ZN7android8hardware14bro
359:   FUNC GLOBAL DEFAULT 14 _ZN7android8hardware14bro
360:   OBJECT GLOBAL DEFAULT 18 _ZTCN7android8hardware14b
361:   OBJECT GLOBAL DEFAULT 16 _ZN7android8hardware14bro
362:   FUNC GLOBAL DEFAULT 14 _ZN7android8hardware14bro
363:   FUNC GLOBAL DEFAULT 14 _ZN7android8hardware14bro
364:   FUNC GLOBAL DEFAULT 14 _ZN7android8hardware14bro
365:   OBJECT GLOBAL DEFAULT 18 _ZTCN7android8hardware14b
366:   OBJECT GLOBAL DEFAULT 18 _ZTCN7android8hardware14b
367:   FUNC GLOBAL DEFAULT 14 _ZN7android8hardware14bro
368:   FUNC GLOBAL DEFAULT 14 _ZN7android8hardware14bro
369:   OBJECT GLOBAL DEFAULT 18 _ZTCN7android8hardware14b
370:   FUNC WEAK DEFAULT 14 _ZNSt3__16__treeINS_12__v
371:   FUNC WEAK DEFAULT 14 _ZNSt3__16__treeINS_12__v
372:   FUNC GLOBAL DEFAULT 14 _ZN7android8hardware14bro
373:   OBJECT GLOBAL DEFAULT 18 _ZTVN7android8hardware14b
374:   OBJECT GLOBAL DEFAULT 18 _ZTCN7android8hardware14b
375:   FUNC WEAK DEFAULT 14 _ZNSt3__127__tree_balance
376:   FUNC GLOBAL DEFAULT 14 _ZN7android8hardware14bro
377:   FUNC GLOBAL DEFAULT 14 _ZN7android8hardware14bro
378:   OBJECT GLOBAL DEFAULT 16 _ZN7android8hardware14bro
379:   FUNC GLOBAL DEFAULT 14 _ZN7android8hardware14bro
380:   FUNC GLOBAL DEFAULT 14 _ZN7android8hardware14bro
381:   FUNC GLOBAL DEFAULT 14 _ZN7android8hardware14bro
382:   OBJECT GLOBAL DEFAULT 18 _ZTCN7android8hardware14b
383:   FUNC GLOBAL DEFAULT 14 _ZN7android8hardware14bro
384:   FUNC GLOBAL DEFAULT 14 _ZThn20_N7android8hardwar
385:   FUNC GLOBAL DEFAULT 14 _ZN7android8hardware14bro
386:   FUNC GLOBAL DEFAULT 14 _ZN7android8hardware14bro
387:   FUNC GLOBAL DEFAULT 14 _ZN7android8hardware14bro
388:   FUNC GLOBAL DEFAULT 14 _ZN7android8hardware14bro
389:   FUNC GLOBAL DEFAULT 14 _ZN7android8hardware14bro
390:   FUNC GLOBAL DEFAULT 14 _ZN7android8hardware14bro
391:   FUNC GLOBAL DEFAULT 14 _ZN7android8hardware14bro
392:   OBJECT GLOBAL DEFAULT 18 _ZTCN7android8hardware14b
393:   OBJECT GLOBAL DEFAULT 18 _ZTCN7android8hardware14b
394:   FUNC GLOBAL DEFAULT 14 _ZN7android8hardware14bro
395:   FUNC GLOBAL DEFAULT 14 _ZN7android8hardware14bro
396:   OBJECT GLOBAL DEFAULT 18 _ZTCN7android8hardware14b
397:   OBJECT GLOBAL DEFAULT 18 _ZTVN7android8hardware14b
398:   FUNC GLOBAL DEFAULT 14 _ZN7android8hardware14bro
399:   FUNC GLOBAL DEFAULT 14 _ZTv0_n12_N7android8hardw
400:   FUNC GLOBAL DEFAULT 14 _ZN7android8hardware14bro
401:   FUNC GLOBAL DEFAULT 14 _ZN7android8hardware14bro
402:   FUNC GLOBAL DEFAULT 14 _ZN7android8hardware14bro
403:   OBJECT GLOBAL DEFAULT 18 _ZTCN7android8hardware14b
404:   FUNC GLOBAL DEFAULT 14 _ZN7android8hardware14bro
405:   OBJECT GLOBAL DEFAULT 18 _ZTVN7android8hardware14b
406:   FUNC GLOBAL DEFAULT 14 _ZN7android8hardware14bro
407:   FUNC GLOBAL DEFAULT 14 _ZThn20_N7android8hardwar
408:   FUNC GLOBAL DEFAULT 14 _ZN7android8hardware14bro
409:   FUNC GLOBAL DEFAULT 14 _ZN7android8hardware14bro
410:   FUNC GLOBAL DEFAULT 14 _ZN7android8hardware14bro
411:   FUNC GLOBAL DEFAULT 14 _ZN7android8hardware14bro
412:   FUNC GLOBAL DEFAULT 14 _ZN7android8hardware14bro
413:   FUNC GLOBAL DEFAULT 14 _ZN7android8hardware14bro
414:   FUNC GLOBAL DEFAULT 14 _ZN7android8hardware14bro
415:   OBJECT GLOBAL DEFAULT 18 _ZTTN7android8hardware14b
416:   FUNC GLOBAL DEFAULT 14 _ZThn20_N7android8hardwar
417:   FUNC GLOBAL DEFAULT 14 _ZN7android8hardware14bro
418:   FUNC GLOBAL DEFAULT 14 _ZN7android8hardware14bro
419:   FUNC WEAK DEFAULT 14 _ZN7android8hardware7deta
420:   FUNC WEAK DEFAULT 14 _ZN7android8hardware10fro
421:   FUNC GLOBAL DEFAULT 14 _ZN7android8hardware14bro
422:   OBJECT GLOBAL DEFAULT 18 _ZTCN7android8hardware14b
423:   FUNC GLOBAL DEFAULT 14 _ZN7android8hardware14bro
424:   FUNC GLOBAL DEFAULT 14 _ZTv0_n12_N7android8hardw
425:   FUNC GLOBAL DEFAULT 14 _ZN7android8hardware14bro
426:   FUNC GLOBAL DEFAULT 14 _ZN7android8hardware14bro
427:   FUNC GLOBAL DEFAULT 14 _ZN7android8hardware14bro
428:   FUNC GLOBAL DEFAULT 14 _ZN7android8hardware14bro
429:   FUNC GLOBAL DEFAULT 14 _ZN7android8hardware14bro
430:   FUNC GLOBAL DEFAULT 14 _ZN7android8hardware14bro
431:   FUNC GLOBAL DEFAULT 14 _ZN7android8hardware14bro
432:   FUNC GLOBAL DEFAULT 14 _ZN7android8hardware14bro
433:   FUNC GLOBAL DEFAULT 14 _ZN7android8hardware14bro
434:   FUNC GLOBAL DEFAULT 14 _ZN7android8hardware14bro
435:   FUNC GLOBAL DEFAULT 14 _ZN7android8hardware14bro
436:   FUNC GLOBAL DEFAULT 14 _ZN7android8hardware14bro
437:   FUNC WEAK DEFAULT 14 _ZN7android8hardware7deta
438:   OBJECT GLOBAL DEFAULT 18 _ZTTN7android8hardware14b
439:   FUNC GLOBAL DEFAULT 14 _ZN7android8hardware14bro
440:   FUNC GLOBAL DEFAULT 14 _ZN7android8hardware14bro
441:   FUNC GLOBAL DEFAULT 14 _ZN7android8hardware14bro
442:   FUNC GLOBAL DEFAULT 14 _ZN7android8hardware14bro
443:   OBJECT WEAK DEFAULT 18 _ZTCN7android8hardware14b
444:   OBJECT GLOBAL DEFAULT 18 _ZTCN7android8hardware14b
445:   FUNC GLOBAL DEFAULT 14 _ZN7android8hardware14bro
446:   OBJECT GLOBAL DEFAULT 18 _ZTCN7android8hardware14b
447:   FUNC GLOBAL DEFAULT 14 _ZN7android8hardware14bro
448:   OBJECT GLOBAL DEFAULT 18 _ZTCN7android8hardware14b
449:   FUNC WEAK DEFAULT 14 _ZN7android8hardware7deta
450:   OBJECT GLOBAL DEFAULT 18 _ZTCN7android8hardware14b
451:   FUNC GLOBAL DEFAULT 14 _ZN7android8hardware14bro
452:   OBJECT WEAK DEFAULT 18 _ZTVN7android8hardware14b
453:   OBJECT GLOBAL DEFAULT 18 _ZTCN7android8hardware14b
454:   FUNC GLOBAL DEFAULT 14 _ZN7android8hardware14bro
455:   FUNC GLOBAL DEFAULT 14 __aeabi_memset
456:   FUNC GLOBAL DEFAULT 14 __aeabi_memset4
457:   FUNC GLOBAL DEFAULT 14 _ZN7android8hardware14bro
458:   FUNC GLOBAL DEFAULT 14 _ZThn20_N7android8hardwar
459:   FUNC GLOBAL DEFAULT 14 _ZN7android8hardware14bro
460:   FUNC GLOBAL DEFAULT 14 _ZThn20_N7android8hardwar
461:   FUNC GLOBAL DEFAULT 14 _ZN7android8hardware14bro
462:   FUNC GLOBAL DEFAULT 14 _ZN7android8hardware14bro
463:   FUNC GLOBAL DEFAULT 14 _ZN7android8hardware14bro
464:   FUNC GLOBAL DEFAULT 14 _ZN7android8hardware14bro
465:   OBJECT GLOBAL DEFAULT 18 _ZTCN7android8hardware14b
466:   FUNC GLOBAL DEFAULT 14 _ZN7android8hardware14bro
467:   OBJECT GLOBAL DEFAULT 18 _ZTCN7android8hardware14b
468:   FUNC GLOBAL DEFAULT 14 _ZN7android8hardware14bro
469:   FUNC GLOBAL DEFAULT 14 _ZN7android8hardware14bro
470:   FUNC GLOBAL DEFAULT 14 __aeabi_memset8
471:   FUNC GLOBAL DEFAULT 14 _ZN7android8hardware14bro
472:   FUNC GLOBAL DEFAULT 14 _ZN7android8hardware14bro
473:   FUNC WEAK DEFAULT 14 _ZNSt3__16vectorINS_8func
474:   FUNC GLOBAL DEFAULT 14 _ZN7android8hardware14bro
475:   FUNC GLOBAL DEFAULT 14 _ZN7android8hardware14bro
476:   FUNC GLOBAL DEFAULT 14 _ZN7android8hardware14bro
477:   OBJECT GLOBAL DEFAULT 18 _ZTCN7android8hardware14b
478:   FUNC GLOBAL DEFAULT 14 _ZN7android8hardware14bro
479:   OBJECT GLOBAL DEFAULT 18 _ZTVN7android8hardware14b
480:   OBJECT WEAK DEFAULT 18 _ZTVN7android8hardware14b
481:   OBJECT GLOBAL DEFAULT 18 _ZTCN7android8hardware14b
482:   FUNC WEAK DEFAULT 14 _ZN7android8hardware7deta
483:   FUNC GLOBAL DEFAULT 14 _ZN7android8hardware14bro
484:   FUNC GLOBAL DEFAULT 14 _ZN7android8hardware14bro
485:   OBJECT GLOBAL DEFAULT 18 _ZTTN7android8hardware14b
486:   FUNC WEAK DEFAULT 14 _ZN7android8hardware7deta
487:   FUNC GLOBAL DEFAULT 14 _ZTv0_n12_N7android8hardw
488:   FUNC GLOBAL DEFAULT 14 _ZN7android8hardware14bro
489:   FUNC WEAK DEFAULT 14 _ZN7android8hardware7deta
490:   FUNC GLOBAL DEFAULT 14 _ZN7android8hardware14bro
491:   FUNC GLOBAL DEFAULT 14 _ZN7android8hardware14bro
492:   FUNC GLOBAL DEFAULT 14 _ZN7android8hardware14bro
493:   FUNC GLOBAL DEFAULT 14 _ZN7android8hardware14bro
494:   FUNC GLOBAL DEFAULT 14 _ZN7android8hardware14bro
495:   FUNC GLOBAL DEFAULT 14 _ZN7android8hardware14bro
496:   OBJECT GLOBAL DEFAULT 18 _ZTVN7android8hardware14b
497:   FUNC GLOBAL DEFAULT 14 _ZN7android8hardware14bro
498:   FUNC GLOBAL DEFAULT 14 _ZN7android8hardware14bro
499:   OBJECT GLOBAL DEFAULT 18 _ZTCN7android8hardware14b
500:   OBJECT WEAK DEFAULT 18 _ZTCN7android8hardware14b
