 0x000000000000000e (SONAME)             Library soname: [android.hardware.graphics.bufferqueue@1.0.so]
  
Symbol   contains 398 entries:
Num:   Type Bind Vis Ndx Name
0:   NOTYPE LOCAL DEFAULT UND
1:   FUNC GLOBAL DEFAULT UND __cxa_finalize@LIBC (2)
2:   FUNC GLOBAL DEFAULT UND _ZN7android14sp_report_ra
3:   FUNC GLOBAL DEFAULT UND _ZN7android21report_syspr
4:   OBJECT GLOBAL DEFAULT UND _ZN7android4hidl4base4V1_
5:   FUNC GLOBAL DEFAULT UND _ZN7android4hidl4base4V1_
6:   FUNC GLOBAL DEFAULT UND _ZN7android4hidl4base4V1_
7:   FUNC GLOBAL DEFAULT UND _ZN7android4hidl4base4V1_
8:   FUNC GLOBAL DEFAULT UND _ZN7android4hidl4base4V1_
9:   FUNC GLOBAL DEFAULT UND _ZN7android4hidl4base4V1_
10:   FUNC GLOBAL DEFAULT UND _ZN7android4hidl4base4V1_
11:   FUNC GLOBAL DEFAULT UND _ZN7android4hidl4base4V1_
12:   FUNC GLOBAL DEFAULT UND _ZN7android4hidl4base4V1_
13:   FUNC GLOBAL DEFAULT UND _ZN7android4hidl4base4V1_
14:   FUNC GLOBAL DEFAULT UND _ZN7android4hidl4base4V1_
15:   FUNC GLOBAL DEFAULT UND _ZN7android4hidl4base4V1_
16:   FUNC GLOBAL DEFAULT UND _ZN7android4hidl4base4V1_
17:   FUNC GLOBAL DEFAULT UND _ZN7android4hidl4base4V1_
18:   FUNC GLOBAL DEFAULT UND _ZN7android4hidl4base4V1_
19:   FUNC GLOBAL DEFAULT UND _ZN7android4hidl4base4V1_
20:   FUNC GLOBAL DEFAULT UND _ZN7android4hidl4base4V1_
21:   FUNC GLOBAL DEFAULT UND _ZN7android4hidl4base4V1_
22:   FUNC GLOBAL DEFAULT UND _ZN7android4hidl4base4V1_
23:   FUNC GLOBAL DEFAULT UND _ZN7android4hidl4base4V1_
24:   FUNC GLOBAL DEFAULT UND _ZN7android4hidl4base4V1_
25:   FUNC GLOBAL DEFAULT UND _ZN7android4hidl4base4V1_
26:   FUNC GLOBAL DEFAULT UND _ZN7android4hidl4base4V1_
27:   FUNC GLOBAL DEFAULT UND _ZN7android4hidl4base4V1_
28:   FUNC GLOBAL DEFAULT UND _ZN7android7RefBase10onFi
29:   FUNC GLOBAL DEFAULT UND _ZN7android7RefBase12weak
30:   FUNC GLOBAL DEFAULT UND _ZN7android7RefBase13onLa
31:   FUNC GLOBAL DEFAULT UND _ZN7android7RefBase15onLa
32:   FUNC GLOBAL DEFAULT UND _ZN7android7RefBase20onIn
33:   FUNC GLOBAL DEFAULT UND _ZN7android7RefBaseC2Ev
34:   FUNC GLOBAL DEFAULT UND _ZN7android7RefBaseD2Ev
35:   FUNC GLOBAL DEFAULT UND _ZN7android8hardware10IIn
36:   FUNC GLOBAL DEFAULT UND _ZN7android8hardware10IIn
37:   FUNC GLOBAL DEFAULT UND _ZN7android8hardware10IIn
38:   FUNC GLOBAL DEFAULT UND _ZN7android8hardware10IIn
39:   FUNC GLOBAL DEFAULT UND _ZN7android8hardware10IIn
40:   FUNC GLOBAL DEFAULT UND _ZN7android8hardware11BpH
41:   FUNC GLOBAL DEFAULT UND _ZN7android8hardware11BpH
42:   FUNC GLOBAL DEFAULT UND _ZN7android8hardware11BpH
43:   FUNC GLOBAL DEFAULT UND _ZN7android8hardware11BpH
44:   FUNC GLOBAL DEFAULT UND _ZN7android8hardware11BpH
45:   FUNC GLOBAL DEFAULT UND _ZN7android8hardware11BpH
46:   FUNC GLOBAL DEFAULT UND _ZN7android8hardware11BpH
47:   FUNC GLOBAL DEFAULT UND _ZN7android8hardware11hid
48:   FUNC GLOBAL DEFAULT UND _ZN7android8hardware11hid
49:   FUNC GLOBAL DEFAULT UND _ZN7android8hardware11hid
50:   FUNC GLOBAL DEFAULT UND _ZN7android8hardware11hid
51:   FUNC GLOBAL DEFAULT UND _ZN7android8hardware11hid
52:   FUNC GLOBAL DEFAULT UND _ZN7android8hardware11hid
53:   FUNC GLOBAL DEFAULT UND _ZN7android8hardware11hid
54:   FUNC GLOBAL DEFAULT UND _ZN7android8hardware11hid
55:   FUNC GLOBAL DEFAULT UND _ZN7android8hardware12Pro
56:   FUNC GLOBAL DEFAULT UND _ZN7android8hardware12Pro
57:   FUNC GLOBAL DEFAULT UND _ZN7android8hardware13wri
58:   FUNC GLOBAL DEFAULT UND _ZN7android8hardware14rea
59:   FUNC GLOBAL DEFAULT UND _ZN7android8hardware21def
60:   FUNC GLOBAL DEFAULT UND _ZN7android8hardware21wri
61:   FUNC GLOBAL DEFAULT UND _ZN7android8hardware21wri
62:   FUNC GLOBAL DEFAULT UND _ZN7android8hardware22rea
63:   FUNC GLOBAL DEFAULT UND _ZN7android8hardware22rea
64:   FUNC GLOBAL DEFAULT UND _ZN7android8hardware23get
65:   FUNC GLOBAL DEFAULT UND _ZN7android8hardware27hid
66:   FUNC GLOBAL DEFAULT UND _ZN7android8hardware27hid
67:   FUNC GLOBAL DEFAULT UND _ZN7android8hardware5medi
68:   FUNC GLOBAL DEFAULT UND _ZN7android8hardware5medi
69:   FUNC GLOBAL DEFAULT UND _ZN7android8hardware6Parc
70:   FUNC GLOBAL DEFAULT UND _ZN7android8hardware6Parc
71:   FUNC GLOBAL DEFAULT UND _ZN7android8hardware6Parc
72:   FUNC GLOBAL DEFAULT UND _ZN7android8hardware6Parc
73:   FUNC GLOBAL DEFAULT UND _ZN7android8hardware6Parc
74:   FUNC GLOBAL DEFAULT UND _ZN7android8hardware6Parc
75:   FUNC GLOBAL DEFAULT UND _ZN7android8hardware6Parc
76:   FUNC GLOBAL DEFAULT UND _ZN7android8hardware6Parc
77:   FUNC GLOBAL DEFAULT UND _ZN7android8hardware6Parc
78:   FUNC GLOBAL DEFAULT UND _ZN7android8hardware6Parc
79:   FUNC GLOBAL DEFAULT UND _ZN7android8hardware6Parc
80:   FUNC GLOBAL DEFAULT UND _ZN7android8hardware6Parc
81:   FUNC GLOBAL DEFAULT UND _ZN7android8hardware6Stat
82:   FUNC GLOBAL DEFAULT UND _ZN7android8hardware6Stat
83:   FUNC GLOBAL DEFAULT UND _ZN7android8hardware6Stat
84:   FUNC GLOBAL DEFAULT UND _ZN7android8hardware6Stat
85:   FUNC GLOBAL DEFAULT UND _ZN7android8hardware7IBin
86:   FUNC GLOBAL DEFAULT UND _ZN7android8hardware7IBin
87:   FUNC GLOBAL DEFAULT UND _ZN7android8hardware7IBin
88:   FUNC GLOBAL DEFAULT UND _ZN7android8hardware7IBin
89:   FUNC GLOBAL DEFAULT UND _ZN7android8hardware7deta
90:   FUNC GLOBAL DEFAULT UND _ZN7android8hardware7deta
91:   FUNC GLOBAL DEFAULT UND _ZN7android8hardware7deta
92:   FUNC GLOBAL DEFAULT UND _ZN7android8hardware7deta
93:   FUNC GLOBAL DEFAULT UND _ZN7android8hardware7deta
94:   FUNC GLOBAL DEFAULT UND _ZN7android8hardware7deta
95:   FUNC GLOBAL DEFAULT UND _ZN7android8hardware7deta
96:   OBJECT GLOBAL DEFAULT UND _ZN7android8hardware7deta
97:   FUNC GLOBAL DEFAULT UND _ZN7android8hardware7deta
98:   OBJECT GLOBAL DEFAULT UND _ZN7android8hardware7deta
99:   FUNC GLOBAL DEFAULT UND _ZN7android8hardware7deta
100:   FUNC GLOBAL DEFAULT UND _ZN7android8hardware7deta
101:   FUNC GLOBAL DEFAULT UND _ZN7android8hardware7deta
102:   FUNC GLOBAL DEFAULT UND _ZN7android8hardware7deta
103:   FUNC GLOBAL DEFAULT UND _ZN7android8hardware7deta
104:   FUNC GLOBAL DEFAULT UND _ZN7android8hardware7deta
105:   FUNC GLOBAL DEFAULT UND _ZN7android8hardware7deta
106:   FUNC GLOBAL DEFAULT UND _ZN7android8hardware7deta
107:   FUNC GLOBAL DEFAULT UND _ZN7android8hardware7deta
108:   FUNC GLOBAL DEFAULT UND _ZN7android8hardware7deta
109:   OBJECT GLOBAL DEFAULT UND _ZN7android8hardware7deta
110:   FUNC GLOBAL DEFAULT UND _ZN7android8hardware9BHwB
111:   FUNC GLOBAL DEFAULT UND _ZN7android8hardware9BHwB
112:   FUNC GLOBAL DEFAULT UND _ZN7android8hardware9BHwB
113:   FUNC GLOBAL DEFAULT UND _ZN7android8hardware9BHwB
114:   FUNC GLOBAL DEFAULT UND _ZN7android8hardware9BHwB
115:   FUNC GLOBAL DEFAULT UND _ZN7android8hardware9BHwB
116:   FUNC GLOBAL DEFAULT UND _ZN7android8hardware9BHwB
117:   FUNC GLOBAL DEFAULT UND _ZN7android8hardware9BHwB
118:   FUNC GLOBAL DEFAULT UND _ZN7android8hardware9BHwB
119:   FUNC GLOBAL DEFAULT UND _ZN7android8hardware9BHwB
120:   FUNC GLOBAL DEFAULT UND _ZNK7android7RefBase10cre
121:   FUNC GLOBAL DEFAULT UND _ZNK7android7RefBase11get
122:   FUNC GLOBAL DEFAULT UND _ZNK7android7RefBase9decS
123:   FUNC GLOBAL DEFAULT UND _ZNK7android7RefBase9incS
124:   FUNC GLOBAL DEFAULT UND _ZNK7android8hardware11hi
125:   FUNC GLOBAL DEFAULT UND _ZNK7android8hardware6Par
126:   FUNC GLOBAL DEFAULT UND _ZNK7android8hardware6Par
127:   FUNC GLOBAL DEFAULT UND _ZNK7android8hardware6Par
128:   FUNC GLOBAL DEFAULT UND _ZNK7android8hardware6Par
129:   FUNC GLOBAL DEFAULT UND _ZNK7android8hardware6Par
130:   FUNC GLOBAL DEFAULT UND _ZNK7android8hardware6Par
131:   FUNC GLOBAL DEFAULT UND _ZNK7android8hardware6Par
132:   FUNC GLOBAL DEFAULT UND _ZNK7android8hardware6Par
133:   FUNC GLOBAL DEFAULT UND _ZNK7android8hardware6Par
134:   FUNC GLOBAL DEFAULT UND _ZNK7android8hardware6Par
135:   FUNC GLOBAL DEFAULT UND _ZNK7android8hardware7IBi
136:   FUNC GLOBAL DEFAULT UND _ZNK7android8hardware7det
137:   FUNC GLOBAL DEFAULT UND _ZNK7android8hardware9BHw
138:   FUNC GLOBAL DEFAULT UND _ZNKSt3__120__vector_base
139:   FUNC GLOBAL DEFAULT UND _ZNKSt3__121__basic_strin
140:   FUNC GLOBAL DEFAULT UND _ZNSt3__112basic_stringIc
141:   FUNC GLOBAL DEFAULT UND _ZNSt3__15mutex4lockEv
142:   FUNC GLOBAL DEFAULT UND _ZNSt3__15mutex6unlockEv
143:   FUNC GLOBAL DEFAULT UND _ZNSt3__15mutexD1Ev
144:   FUNC GLOBAL DEFAULT UND _ZTv0_n24_N7android4hidl4
145:   FUNC GLOBAL DEFAULT UND _ZTv0_n24_N7android4hidl4
146:   FUNC GLOBAL DEFAULT UND _ZTv0_n24_N7android8hardw
147:   FUNC GLOBAL DEFAULT UND _ZTv0_n24_N7android8hardw
148:   FUNC GLOBAL DEFAULT UND _ZTv0_n24_N7android8hardw
149:   FUNC GLOBAL DEFAULT UND _ZTv0_n24_N7android8hardw
150:   FUNC GLOBAL DEFAULT UND _ZTv0_n24_N7android8hardw
151:   FUNC GLOBAL DEFAULT UND _ZTv0_n24_N7android8hardw
152:   FUNC GLOBAL DEFAULT UND _ZTv0_n24_N7android8hardw
153:   FUNC GLOBAL DEFAULT UND _ZTv0_n24_N7android8hardw
154:   FUNC GLOBAL DEFAULT UND _ZTv0_n32_N7android8hardw
155:   FUNC GLOBAL DEFAULT UND _ZTv0_n40_N7android8hardw
156:   FUNC GLOBAL DEFAULT UND _ZTv0_n48_N7android8hardw
157:   FUNC GLOBAL DEFAULT UND _ZdaPv
158:   FUNC GLOBAL DEFAULT UND _ZdlPv
159:   FUNC GLOBAL DEFAULT UND _Znam
160:   FUNC GLOBAL DEFAULT UND _Znwm
161:   FUNC GLOBAL DEFAULT UND __android_log_assert@LIBLOG (3)
162:   FUNC GLOBAL DEFAULT UND __cxa_pure_virtual
163:   FUNC GLOBAL DEFAULT UND __stack_chk_fail@LIBC (2)
164:   FUNC GLOBAL DEFAULT UND abort@LIBC (2)
165:   FUNC GLOBAL DEFAULT UND atrace_begin_body
166:   OBJECT GLOBAL DEFAULT UND atrace_enabled_tags
167:   FUNC GLOBAL DEFAULT UND atrace_end_body
168:   OBJECT GLOBAL DEFAULT UND atrace_is_ready
169:   FUNC GLOBAL DEFAULT UND atrace_setup
170:   FUNC GLOBAL DEFAULT UND memcmp@LIBC (2)
171:   FUNC GLOBAL DEFAULT UND memcpy@LIBC (2)
172:   FUNC GLOBAL DEFAULT UND memset@LIBC (2)
173:   FUNC GLOBAL DEFAULT UND strlen@LIBC (2)
174:   FUNC WEAK DEFAULT 14 _ZN7android8hardware7deta
175:   FUNC GLOBAL DEFAULT 14 _ZN7android8hardware8grap
176:   FUNC GLOBAL DEFAULT 14 _ZN7android8hardware8grap
177:   FUNC GLOBAL DEFAULT 14 _ZN7android8hardware8grap
178:   FUNC GLOBAL DEFAULT 14 _ZN7android8hardware8grap
179:   FUNC WEAK DEFAULT 14 _ZNSt3__16vectorIPvNS_9al
180:   OBJECT GLOBAL DEFAULT 18 _ZTCN7android8hardware8gr
181:   FUNC GLOBAL DEFAULT 14 _ZN7android8hardware8grap
182:   FUNC GLOBAL DEFAULT 14 _ZN7android8hardware8grap
183:   FUNC GLOBAL DEFAULT 14 _ZN7android8hardware8grap
184:   FUNC GLOBAL DEFAULT 14 _ZN7android8hardware8grap
185:   OBJECT GLOBAL DEFAULT 18 _ZTCN7android8hardware8gr
186:   OBJECT WEAK DEFAULT 18 _ZTVN7android8hardware8gr
187:   FUNC GLOBAL DEFAULT 14 _ZN7android8hardware8grap
188:   FUNC GLOBAL DEFAULT 14 _ZN7android8hardware8grap
189:   FUNC WEAK DEFAULT 14 _ZN7android8hardware7deta
190:   FUNC GLOBAL DEFAULT 14 _ZN7android8hardware8grap
191:   FUNC GLOBAL DEFAULT 14 _ZN7android8hardware8grap
192:   FUNC GLOBAL DEFAULT 14 _ZN7android8hardware8grap
193:   FUNC WEAK DEFAULT 14 _ZNSt3__113__tree_removeI
194:   FUNC GLOBAL DEFAULT 14 _ZN7android8hardware8grap
195:   FUNC GLOBAL DEFAULT 14 _ZN7android8hardware8grap
196:   FUNC GLOBAL DEFAULT 14 _ZN7android8hardware8grap
197:   FUNC GLOBAL DEFAULT 14 _ZN7android8hardware8grap
198:   FUNC GLOBAL DEFAULT 14 _ZN7android8hardware8grap
199:   FUNC GLOBAL DEFAULT 14 _ZN7android8hardware8grap
200:   OBJECT WEAK DEFAULT 18 _ZTVN7android8hardware8gr
201:   FUNC GLOBAL DEFAULT 14 _ZN7android8hardware8grap
202:   FUNC GLOBAL DEFAULT 14 _ZN7android8hardware8grap
203:   FUNC GLOBAL DEFAULT 14 _ZN7android8hardware8grap
204:   FUNC GLOBAL DEFAULT 14 _ZN7android8hardware8grap
205:   FUNC GLOBAL DEFAULT 14 _ZN7android8hardware8grap
206:   FUNC GLOBAL DEFAULT 14 _ZN7android8hardware8grap
207:   FUNC GLOBAL DEFAULT 14 _ZN7android8hardware8grap
208:   FUNC GLOBAL DEFAULT 14 _ZN7android8hardware8grap
209:   OBJECT GLOBAL DEFAULT 18 _ZTCN7android8hardware8gr
210:   OBJECT GLOBAL DEFAULT 18 _ZTVN7android8hardware8gr
211:   FUNC GLOBAL DEFAULT 14 _ZThn32_N7android8hardwar
212:   FUNC GLOBAL DEFAULT 14 _ZN7android8hardware8grap
213:   FUNC GLOBAL DEFAULT 14 _ZN7android8hardware8grap
214:   FUNC GLOBAL DEFAULT 14 _ZN7android8hardware8grap
215:   FUNC GLOBAL DEFAULT 14 _ZN7android8hardware8grap
216:   OBJECT GLOBAL DEFAULT 18 _ZTCN7android8hardware8gr
217:   FUNC GLOBAL DEFAULT 14 _ZN7android8hardware8grap
218:   FUNC GLOBAL DEFAULT 14 _ZN7android8hardware8grap
219:   FUNC GLOBAL DEFAULT 14 _ZN7android8hardware8grap
220:   OBJECT GLOBAL DEFAULT 18 _ZTVN7android8hardware8gr
221:   FUNC GLOBAL DEFAULT 14 _ZN7android8hardware8grap
222:   FUNC GLOBAL DEFAULT 14 _ZN7android8hardware8grap
223:   FUNC GLOBAL DEFAULT 14 _ZN7android8hardware8grap
224:   OBJECT GLOBAL DEFAULT 18 _ZTVN7android8hardware8gr
225:   FUNC GLOBAL DEFAULT 14 _ZN7android8hardware8grap
226:   OBJECT GLOBAL DEFAULT 18 _ZTCN7android8hardware8gr
227:   FUNC GLOBAL DEFAULT 14 _ZN7android8hardware8grap
228:   FUNC GLOBAL DEFAULT 14 _ZN7android8hardware8grap
229:   OBJECT GLOBAL DEFAULT 16 _ZN7android8hardware8grap
230:   FUNC GLOBAL DEFAULT 14 _ZN7android8hardware8grap
231:   FUNC GLOBAL DEFAULT 14 _ZN7android8hardware8grap
232:   OBJECT GLOBAL DEFAULT 18 _ZTTN7android8hardware8gr
233:   FUNC GLOBAL DEFAULT 14 _ZTv0_n24_N7android8hardw
234:   FUNC WEAK DEFAULT 14 _ZN7android8hardware7deta
235:   OBJECT WEAK DEFAULT 18 _ZTCN7android8hardware8gr
236:   FUNC GLOBAL DEFAULT 14 _ZN7android8hardware8grap
237:   FUNC GLOBAL DEFAULT 14 _ZN7android8hardware8grap
238:   FUNC WEAK DEFAULT 14 _ZNSt3__16__treeINS_12__v
239:   FUNC GLOBAL DEFAULT 14 _ZN7android8hardware8grap
240:   OBJECT GLOBAL DEFAULT 18 _ZTCN7android8hardware8gr
241:   FUNC GLOBAL DEFAULT 14 _ZN7android8hardware8grap
242:   OBJECT GLOBAL DEFAULT 18 _ZTTN7android8hardware8gr
243:   FUNC GLOBAL DEFAULT 14 _ZN7android8hardware8grap
244:   FUNC GLOBAL DEFAULT 14 _ZN7android8hardware8grap
245:   FUNC WEAK DEFAULT 14 _ZN7android8hardware7deta
246:   FUNC WEAK DEFAULT 14 _ZN7android8hardware10fro
247:   FUNC GLOBAL DEFAULT 14 _ZN7android8hardware8grap
248:   FUNC GLOBAL DEFAULT 14 _ZN7android8hardware8grap
249:   FUNC WEAK DEFAULT 14 _ZNSt3__16__treeINS_12__v
250:   FUNC GLOBAL DEFAULT 14 _ZN7android8hardware8grap
251:   OBJECT GLOBAL DEFAULT 18 _ZTVN7android8hardware8gr
252:   FUNC GLOBAL DEFAULT 14 _ZN7android8hardware8grap
253:   FUNC GLOBAL DEFAULT 14 _ZN7android8hardware8grap
254:   FUNC GLOBAL DEFAULT 14 _ZN7android8hardware8grap
255:   FUNC GLOBAL DEFAULT 14 _ZN7android8hardware8grap
256:   OBJECT GLOBAL DEFAULT 18 _ZTCN7android8hardware8gr
257:   FUNC GLOBAL DEFAULT 14 _ZN7android8hardware8grap
258:   FUNC GLOBAL DEFAULT 14 _ZN7android8hardware8grap
259:   OBJECT GLOBAL DEFAULT 18 _ZTVN7android8hardware8gr
260:   FUNC GLOBAL DEFAULT 14 _ZN7android8hardware8grap
261:   FUNC GLOBAL DEFAULT 14 _ZN7android8hardware8grap
262:   FUNC GLOBAL DEFAULT 14 _ZN7android8hardware8grap
263:   FUNC WEAK DEFAULT 14 _ZNSt3__16__treeINS_12__v
264:   FUNC GLOBAL DEFAULT 14 _ZN7android8hardware8grap
265:   FUNC GLOBAL DEFAULT 14 _ZN7android8hardware8grap
266:   OBJECT GLOBAL DEFAULT 18 _ZTCN7android8hardware8gr
267:   OBJECT GLOBAL DEFAULT 18 _ZTTN7android8hardware8gr
268:   FUNC GLOBAL DEFAULT 14 _ZTv0_n24_N7android8hardw
269:   FUNC GLOBAL DEFAULT 14 _ZN7android8hardware8grap
270:   FUNC GLOBAL DEFAULT 14 _ZN7android8hardware8grap
271:   FUNC GLOBAL DEFAULT 14 _ZN7android8hardware8grap
272:   FUNC GLOBAL DEFAULT 14 _ZN7android8hardware8grap
273:   FUNC GLOBAL DEFAULT 14 _ZN7android8hardware8grap
274:   FUNC GLOBAL DEFAULT 14 _ZN7android8hardware8grap
275:   FUNC GLOBAL DEFAULT 14 _ZN7android8hardware8grap
276:   FUNC GLOBAL DEFAULT 14 _ZThn32_N7android8hardwar
277:   FUNC GLOBAL DEFAULT 14 _ZN7android8hardware8grap
278:   FUNC GLOBAL DEFAULT 14 _ZN7android8hardware8grap
279:   FUNC GLOBAL DEFAULT 14 _ZN7android8hardware8grap
280:   FUNC WEAK DEFAULT 14 _ZN7android8hardware7deta
281:   FUNC GLOBAL DEFAULT 14 _ZN7android8hardware8grap
282:   FUNC GLOBAL DEFAULT 14 _ZN7android8hardware8grap
283:   FUNC GLOBAL DEFAULT 14 _ZN7android8hardware8grap
284:   FUNC GLOBAL DEFAULT 14 _ZN7android8hardware8grap
285:   FUNC GLOBAL DEFAULT 14 _ZN7android8hardware8grap
286:   FUNC WEAK DEFAULT 14 _ZNSt3__16__treeINS_12__v
287:   FUNC GLOBAL DEFAULT 14 _ZN7android8hardware8grap
288:   FUNC GLOBAL DEFAULT 14 _ZN7android8hardware8grap
289:   FUNC GLOBAL DEFAULT 14 _ZN7android8hardware8grap
290:   FUNC GLOBAL DEFAULT 14 _ZN7android8hardware8grap
291:   FUNC GLOBAL DEFAULT 14 _ZN7android8hardware8grap
292:   FUNC GLOBAL DEFAULT 14 _ZN7android8hardware8grap
293:   FUNC GLOBAL DEFAULT 14 _ZN7android8hardware8grap
294:   FUNC GLOBAL DEFAULT 14 _ZN7android8hardware8grap
295:   FUNC GLOBAL DEFAULT 14 _ZN7android8hardware8grap
296:   FUNC GLOBAL DEFAULT 14 _ZN7android8hardware8grap
297:   FUNC GLOBAL DEFAULT 14 _ZN7android8hardware8grap
298:   FUNC GLOBAL DEFAULT 14 _ZN7android8hardware8grap
299:   FUNC GLOBAL DEFAULT 14 _ZN7android8hardware8grap
300:   FUNC GLOBAL DEFAULT 14 _ZN7android8hardware8grap
301:   FUNC WEAK DEFAULT 14 _ZNSt3__127__tree_balance
302:   OBJECT GLOBAL DEFAULT 18 _ZTCN7android8hardware8gr
303:   OBJECT GLOBAL DEFAULT 18 _ZTTN7android8hardware8gr
304:   FUNC GLOBAL DEFAULT 14 _ZN7android8hardware8grap
305:   FUNC GLOBAL DEFAULT 14 _ZN7android8hardware8grap
306:   FUNC GLOBAL DEFAULT 14 _ZN7android8hardware8grap
307:   FUNC GLOBAL DEFAULT 14 _ZN7android8hardware8grap
308:   FUNC GLOBAL DEFAULT 14 _ZN7android8hardware8grap
309:   FUNC WEAK DEFAULT 14 _ZNSt3__16vectorINS_8func
310:   FUNC GLOBAL DEFAULT 14 _ZN7android8hardware8grap
311:   FUNC GLOBAL DEFAULT 14 _ZN7android8hardware8grap
312:   FUNC GLOBAL DEFAULT 14 _ZN7android8hardware8grap
313:   FUNC GLOBAL DEFAULT 14 _ZN7android8hardware8grap
314:   FUNC GLOBAL DEFAULT 14 _ZN7android8hardware8grap
315:   FUNC GLOBAL DEFAULT 14 _ZN7android8hardware8grap
316:   FUNC WEAK DEFAULT 14 _ZNSt3__16vectorIN7androi
317:   FUNC GLOBAL DEFAULT 14 _ZN7android8hardware8grap
318:   FUNC GLOBAL DEFAULT 14 _ZN7android8hardware8grap
319:   FUNC GLOBAL DEFAULT 14 _ZN7android8hardware8grap
320:   FUNC GLOBAL DEFAULT 14 _ZN7android8hardware8grap
321:   FUNC GLOBAL DEFAULT 14 _ZN7android8hardware8grap
322:   FUNC GLOBAL DEFAULT 14 _ZN7android8hardware8grap
323:   FUNC GLOBAL DEFAULT 14 _ZN7android8hardware8grap
324:   FUNC GLOBAL DEFAULT 14 _ZN7android8hardware8grap
325:   FUNC GLOBAL DEFAULT 14 _ZN7android8hardware8grap
326:   FUNC GLOBAL DEFAULT 14 _ZN7android8hardware8grap
327:   FUNC GLOBAL DEFAULT 14 _ZN7android8hardware8grap
328:   FUNC GLOBAL DEFAULT 14 _ZN7android8hardware8grap
329:   FUNC GLOBAL DEFAULT 14 _ZN7android8hardware8grap
330:   FUNC GLOBAL DEFAULT 14 _ZN7android8hardware8grap
331:   FUNC GLOBAL DEFAULT 14 _ZN7android8hardware8grap
332:   FUNC GLOBAL DEFAULT 14 _ZN7android8hardware8grap
333:   FUNC GLOBAL DEFAULT 14 _ZThn32_N7android8hardwar
334:   OBJECT GLOBAL DEFAULT 18 _ZTCN7android8hardware8gr
335:   FUNC GLOBAL DEFAULT 14 _ZN7android8hardware8grap
336:   OBJECT GLOBAL DEFAULT 18 _ZTCN7android8hardware8gr
337:   FUNC GLOBAL DEFAULT 14 _ZN7android8hardware8grap
338:   FUNC GLOBAL DEFAULT 14 _ZN7android8hardware8grap
339:   FUNC GLOBAL DEFAULT 14 _ZN7android8hardware8grap
340:   FUNC GLOBAL DEFAULT 14 _ZN7android8hardware8grap
341:   FUNC GLOBAL DEFAULT 14 _ZN7android8hardware8grap
342:   FUNC GLOBAL DEFAULT 14 _ZN7android8hardware8grap
343:   OBJECT WEAK DEFAULT 18 _ZTCN7android8hardware8gr
344:   FUNC GLOBAL DEFAULT 14 _ZN7android8hardware8grap
345:   FUNC GLOBAL DEFAULT 14 _ZN7android8hardware8grap
346:   OBJECT GLOBAL DEFAULT 18 _ZTCN7android8hardware8gr
347:   OBJECT GLOBAL DEFAULT 18 _ZTTN7android8hardware8gr
348:   FUNC GLOBAL DEFAULT 14 _ZN7android8hardware8grap
349:   FUNC GLOBAL DEFAULT 14 _ZN7android8hardware8grap
350:   FUNC GLOBAL DEFAULT 14 _ZN7android8hardware8grap
351:   FUNC GLOBAL DEFAULT 14 _ZN7android8hardware8grap
352:   FUNC GLOBAL DEFAULT 14 _ZN7android8hardware8grap
353:   FUNC GLOBAL DEFAULT 14 _ZN7android8hardware8grap
354:   FUNC GLOBAL DEFAULT 14 _ZN7android8hardware8grap
355:   FUNC GLOBAL DEFAULT 14 _ZTv0_n24_N7android8hardw
356:   FUNC GLOBAL DEFAULT 14 _ZN7android8hardware8grap
357:   OBJECT GLOBAL DEFAULT 18 _ZTCN7android8hardware8gr
358:   FUNC GLOBAL DEFAULT 14 _ZN7android8hardware8grap
359:   FUNC GLOBAL DEFAULT 14 _ZN7android8hardware8grap
360:   OBJECT GLOBAL DEFAULT 18 _ZTCN7android8hardware8gr
361:   FUNC GLOBAL DEFAULT 14 _ZN7android8hardware8grap
362:   FUNC GLOBAL DEFAULT 14 _ZN7android8hardware8grap
363:   FUNC GLOBAL DEFAULT 14 _ZN7android8hardware8grap
364:   FUNC GLOBAL DEFAULT 14 _ZN7android8hardware8grap
365:   FUNC WEAK DEFAULT 14 _ZNSt3__16__treeINS_12__v
366:   FUNC GLOBAL DEFAULT 14 _ZN7android8hardware8grap
367:   FUNC GLOBAL DEFAULT 14 _ZN7android8hardware8grap
368:   OBJECT GLOBAL DEFAULT 18 _ZTCN7android8hardware8gr
369:   FUNC GLOBAL DEFAULT 14 _ZN7android8hardware8grap
370:   FUNC GLOBAL DEFAULT 14 _ZN7android8hardware8grap
371:   FUNC GLOBAL DEFAULT 14 _ZN7android8hardware8grap
372:   FUNC GLOBAL DEFAULT 14 _ZN7android8hardware8grap
373:   FUNC WEAK DEFAULT 14 _ZNSt3__16__treeINS_12__v
374:   OBJECT GLOBAL DEFAULT 18 _ZTCN7android8hardware8gr
375:   FUNC GLOBAL DEFAULT 14 _ZN7android8hardware8grap
376:   FUNC GLOBAL DEFAULT 14 _ZN7android8hardware8grap
377:   FUNC GLOBAL DEFAULT 14 _ZN7android8hardware8grap
378:   FUNC GLOBAL DEFAULT 14 _ZN7android8hardware8grap
379:   FUNC GLOBAL DEFAULT 14 _ZN7android8hardware8grap
380:   OBJECT GLOBAL DEFAULT 18 _ZTCN7android8hardware8gr
381:   FUNC GLOBAL DEFAULT 14 _ZN7android8hardware8grap
382:   FUNC GLOBAL DEFAULT 14 _ZTv0_n24_N7android8hardw
383:   FUNC GLOBAL DEFAULT 14 _ZN7android8hardware8grap
384:   FUNC GLOBAL DEFAULT 14 _ZN7android8hardware8grap
385:   OBJECT GLOBAL DEFAULT 16 _ZN7android8hardware8grap
386:   FUNC GLOBAL DEFAULT 14 _ZN7android8hardware8grap
387:   OBJECT GLOBAL DEFAULT 18 _ZTCN7android8hardware8gr
388:   FUNC GLOBAL DEFAULT 14 _ZN7android8hardware8grap
389:   FUNC GLOBAL DEFAULT 14 _ZN7android8hardware8grap
390:   FUNC GLOBAL DEFAULT 14 _ZThn32_N7android8hardwar
391:   FUNC GLOBAL DEFAULT 14 _ZN7android8hardware8grap
392:   FUNC GLOBAL DEFAULT 14 _ZN7android8hardware8grap
393:   FUNC GLOBAL DEFAULT 14 _ZN7android8hardware8grap
394:   FUNC GLOBAL DEFAULT 14 _ZN7android8hardware8grap
395:   FUNC GLOBAL DEFAULT 14 _ZN7android8hardware8grap
396:   OBJECT GLOBAL DEFAULT 18 _ZTTN7android8hardware8gr
397:   OBJECT GLOBAL DEFAULT 18 _ZTVN7android8hardware8gr
