 0x000000000000000e (SONAME)             Library soname: [libart-disassembler.so]
  
Symbol   contains 227 entries:
Num:   Type Bind Vis Ndx Name
0:   NOTYPE LOCAL DEFAULT UND
1:   FUNC GLOBAL DEFAULT UND __cxa_finalize@LIBC (2)
2:   FUNC GLOBAL DEFAULT UND _ZN4vixl7aarch6412Disasse
3:   FUNC GLOBAL DEFAULT UND _ZN4vixl7aarch6412Disasse
4:   FUNC GLOBAL DEFAULT UND _ZN4vixl7aarch647Decoder1
5:   FUNC GLOBAL DEFAULT UND _ZN7android4base10LogMess
6:   FUNC GLOBAL DEFAULT UND _ZN7android4base10LogMess
7:   FUNC GLOBAL DEFAULT UND _ZN7android4base10LogMess
8:   FUNC GLOBAL DEFAULT UND _ZN7android4base12StringP
9:   FUNC GLOBAL DEFAULT UND _ZN7android4base21GetMini
10:   FUNC GLOBAL DEFAULT UND _ZNKSt3__16locale9use_fac
11:   FUNC GLOBAL DEFAULT UND _ZNKSt3__18ios_base6getlo
12:   FUNC GLOBAL DEFAULT UND _ZNSt3__113basic_ostreamI
13:   FUNC GLOBAL DEFAULT UND _ZNSt3__113basic_ostreamI
14:   FUNC GLOBAL DEFAULT UND _ZNSt3__113basic_ostreamI
15:   OBJECT GLOBAL DEFAULT UND _ZNSt3__15ctypeIcE2idE
16:   FUNC GLOBAL DEFAULT UND _ZNSt3__16localeD1Ev
17:   FUNC GLOBAL DEFAULT UND _ZNSt3__18ios_base5clearE
18:   FUNC GLOBAL DEFAULT UND _ZdlPv
19:   FUNC GLOBAL DEFAULT UND _Znwm
20:   FUNC GLOBAL DEFAULT UND __cxa_pure_virtual
21:   FUNC GLOBAL DEFAULT UND __errno@LIBC (2)
22:   FUNC GLOBAL DEFAULT UND __stack_chk_fail@LIBC (2)
23:   FUNC GLOBAL DEFAULT UND memset@LIBC (2)
24:   FUNC GLOBAL DEFAULT UND _ZNKSt3__121__basic_strin
25:   FUNC GLOBAL DEFAULT UND _ZNSt3__112basic_stringIc
26:   FUNC GLOBAL DEFAULT UND _ZNSt3__112basic_stringIc
27:   FUNC GLOBAL DEFAULT UND _ZNSt3__112basic_stringIc
28:   FUNC GLOBAL DEFAULT UND _ZNSt3__112basic_stringIc
29:   FUNC GLOBAL DEFAULT UND _ZNSt3__113basic_ostreamI
30:   FUNC GLOBAL DEFAULT UND _ZNSt3__113basic_ostreamI
31:   FUNC GLOBAL DEFAULT UND _ZNSt3__113basic_ostreamI
32:   FUNC GLOBAL DEFAULT UND _ZNSt3__113basic_ostreamI
33:   FUNC GLOBAL DEFAULT UND _ZNSt3__113basic_ostreamI
34:   FUNC GLOBAL DEFAULT UND _ZNSt3__113basic_ostreamI
35:   FUNC GLOBAL DEFAULT UND _ZNSt3__115basic_streambu
36:   FUNC GLOBAL DEFAULT UND _ZNSt3__115basic_streambu
37:   FUNC GLOBAL DEFAULT UND _ZNSt3__115basic_streambu
38:   FUNC GLOBAL DEFAULT UND _ZNSt3__115basic_streambu
39:   FUNC GLOBAL DEFAULT UND _ZNSt3__115basic_streambu
40:   FUNC GLOBAL DEFAULT UND _ZNSt3__115basic_streambu
41:   FUNC GLOBAL DEFAULT UND _ZNSt3__115basic_streambu
42:   FUNC GLOBAL DEFAULT UND _ZNSt3__115basic_streambu
43:   FUNC GLOBAL DEFAULT UND _ZNSt3__115basic_streambu
44:   FUNC GLOBAL DEFAULT UND _ZNSt3__18ios_base4initEP
45:   FUNC GLOBAL DEFAULT UND _ZNSt3__19basic_iosIcNS_1
46:   FUNC GLOBAL DEFAULT UND _ZTv0_n24_NSt3__113basic_
47:   FUNC GLOBAL DEFAULT UND _ZTv0_n24_NSt3__113basic_
48:   FUNC GLOBAL DEFAULT UND strlen@LIBC (2)
49:   FUNC GLOBAL DEFAULT UND _ZNSt3__113basic_istreamI
50:   FUNC GLOBAL DEFAULT UND _ZNSt3__113basic_istreamI
51:   FUNC GLOBAL DEFAULT UND _ZNSt3__113basic_ostreamI
52:   FUNC GLOBAL DEFAULT UND _ZNSt3__114basic_iostream
53:   FUNC GLOBAL DEFAULT UND _ZNSt3__114basic_iostream
54:   FUNC GLOBAL DEFAULT UND _ZNSt3__114basic_iostream
55:   FUNC GLOBAL DEFAULT UND _ZThn16_NSt3__114basic_io
56:   FUNC GLOBAL DEFAULT UND _ZThn16_NSt3__114basic_io
57:   FUNC GLOBAL DEFAULT UND _ZTv0_n24_NSt3__113basic_
58:   FUNC GLOBAL DEFAULT UND _ZTv0_n24_NSt3__113basic_
59:   FUNC GLOBAL DEFAULT UND _ZTv0_n24_NSt3__114basic_
60:   FUNC GLOBAL DEFAULT UND _ZTv0_n24_NSt3__114basic_
61:   FUNC GLOBAL DEFAULT UND memcmp@LIBC (2)
62:   FUNC GLOBAL DEFAULT UND _ZN4vixl7aarch3212Disasse
63:   FUNC GLOBAL DEFAULT UND _ZN4vixl7aarch3217PrintDi
64:   FUNC GLOBAL DEFAULT UND _ZN4vixl7aarch3217PrintDi
65:   FUNC GLOBAL DEFAULT UND _ZN4vixl7aarch3217PrintDi
66:   FUNC GLOBAL DEFAULT UND _ZN4vixl7aarch3217PrintDi
67:   FUNC GLOBAL DEFAULT UND _ZN4vixl7aarch32lsERNSt3_
68:   FUNC GLOBAL DEFAULT UND _ZN4vixl7aarch32lsERNSt3_
69:   FUNC GLOBAL DEFAULT UND _ZN4vixl7aarch32lsERNSt3_
70:   FUNC GLOBAL DEFAULT UND _ZN4vixl7aarch32lsERNSt3_
71:   FUNC GLOBAL DEFAULT UND _ZN4vixl7aarch32lsERNSt3_
72:   FUNC GLOBAL DEFAULT UND _ZN4vixl7aarch32lsERNSt3_
73:   FUNC GLOBAL DEFAULT UND _ZNK4vixl7aarch3210Endian
74:   FUNC GLOBAL DEFAULT UND _ZNK4vixl7aarch3212Encodi
75:   FUNC GLOBAL DEFAULT UND _ZNK4vixl7aarch3213Memory
76:   FUNC GLOBAL DEFAULT UND _ZNK4vixl7aarch3214Banked
77:   FUNC GLOBAL DEFAULT UND _ZNK4vixl7aarch3214Interr
78:   FUNC GLOBAL DEFAULT UND _ZNK4vixl7aarch3215Specia
79:   FUNC GLOBAL DEFAULT UND _ZNK4vixl7aarch3217Specia
80:   FUNC GLOBAL DEFAULT UND _ZNK4vixl7aarch3221Masked
81:   FUNC GLOBAL DEFAULT UND _ZNK4vixl7aarch325Shift7G
82:   FUNC GLOBAL DEFAULT UND _ZNK4vixl7aarch328DataTyp
83:   FUNC GLOBAL DEFAULT UND _ZNK4vixl7aarch329Conditi
84:   FUNC GLOBAL DEFAULT UND _ZNSt3__112basic_stringIc
85:   FUNC GLOBAL DEFAULT UND _ZNSt3__113basic_ostreamI
86:   FUNC GLOBAL DEFAULT UND _ZNSt3__113basic_ostreamI
87:   FUNC GLOBAL DEFAULT UND _ZNSt3__113basic_ostreamI
88:   FUNC GLOBAL DEFAULT UND _ZNSt3__113basic_ostreamI
89:   FUNC GLOBAL DEFAULT UND _ZN4vixl7aarch6412Disasse
90:   FUNC GLOBAL DEFAULT UND _ZN4vixl7aarch6412Disasse
91:   FUNC GLOBAL DEFAULT UND _ZN4vixl7aarch6412Disasse
92:   FUNC GLOBAL DEFAULT UND _ZN4vixl7aarch6412Disasse
93:   FUNC GLOBAL DEFAULT UND _ZN4vixl7aarch6412Disasse
94:   FUNC GLOBAL DEFAULT UND _ZN4vixl7aarch6412Disasse
95:   FUNC GLOBAL DEFAULT UND _ZN4vixl7aarch6412Disasse
96:   FUNC GLOBAL DEFAULT UND _ZN4vixl7aarch6412Disasse
97:   FUNC GLOBAL DEFAULT UND _ZN4vixl7aarch6412Disasse
98:   FUNC GLOBAL DEFAULT UND _ZN4vixl7aarch6412Disasse
99:   FUNC GLOBAL DEFAULT UND _ZN4vixl7aarch6412Disasse
100:   FUNC GLOBAL DEFAULT UND _ZN4vixl7aarch6412Disasse
101:   FUNC GLOBAL DEFAULT UND _ZN4vixl7aarch6412Disasse
102:   FUNC GLOBAL DEFAULT UND _ZN4vixl7aarch6412Disasse
103:   FUNC GLOBAL DEFAULT UND _ZN4vixl7aarch6412Disasse
104:   FUNC GLOBAL DEFAULT UND _ZN4vixl7aarch6412Disasse
105:   FUNC GLOBAL DEFAULT UND _ZN4vixl7aarch6412Disasse
106:   FUNC GLOBAL DEFAULT UND _ZN4vixl7aarch6412Disasse
107:   FUNC GLOBAL DEFAULT UND _ZN4vixl7aarch6412Disasse
108:   FUNC GLOBAL DEFAULT UND _ZN4vixl7aarch6412Disasse
109:   FUNC GLOBAL DEFAULT UND _ZN4vixl7aarch6412Disasse
110:   FUNC GLOBAL DEFAULT UND _ZN4vixl7aarch6412Disasse
111:   FUNC GLOBAL DEFAULT UND _ZN4vixl7aarch6412Disasse
112:   FUNC GLOBAL DEFAULT UND _ZN4vixl7aarch6412Disasse
113:   FUNC GLOBAL DEFAULT UND _ZN4vixl7aarch6412Disasse
114:   FUNC GLOBAL DEFAULT UND _ZN4vixl7aarch6412Disasse
115:   FUNC GLOBAL DEFAULT UND _ZN4vixl7aarch6412Disasse
116:   FUNC GLOBAL DEFAULT UND _ZN4vixl7aarch6412Disasse
117:   FUNC GLOBAL DEFAULT UND _ZN4vixl7aarch6412Disasse
118:   FUNC GLOBAL DEFAULT UND _ZN4vixl7aarch6412Disasse
119:   FUNC GLOBAL DEFAULT UND _ZN4vixl7aarch6412Disasse
120:   FUNC GLOBAL DEFAULT UND _ZN4vixl7aarch6412Disasse
121:   FUNC GLOBAL DEFAULT UND _ZN4vixl7aarch6412Disasse
122:   FUNC GLOBAL DEFAULT UND _ZN4vixl7aarch6412Disasse
123:   FUNC GLOBAL DEFAULT UND _ZN4vixl7aarch6412Disasse
124:   FUNC GLOBAL DEFAULT UND _ZN4vixl7aarch6412Disasse
125:   FUNC GLOBAL DEFAULT UND _ZN4vixl7aarch6412Disasse
126:   FUNC GLOBAL DEFAULT UND _ZN4vixl7aarch6412Disasse
127:   FUNC GLOBAL DEFAULT UND _ZN4vixl7aarch6412Disasse
128:   FUNC GLOBAL DEFAULT UND _ZN4vixl7aarch6412Disasse
129:   FUNC GLOBAL DEFAULT UND _ZN4vixl7aarch6412Disasse
130:   FUNC GLOBAL DEFAULT UND _ZN4vixl7aarch6412Disasse
131:   FUNC GLOBAL DEFAULT UND _ZN4vixl7aarch6412Disasse
132:   FUNC GLOBAL DEFAULT UND _ZN4vixl7aarch6412Disasse
133:   FUNC GLOBAL DEFAULT UND _ZN4vixl7aarch6412Disasse
134:   FUNC GLOBAL DEFAULT UND _ZN4vixl7aarch6412Disasse
135:   FUNC GLOBAL DEFAULT UND _ZN4vixl7aarch6412Disasse
136:   FUNC GLOBAL DEFAULT UND _ZN4vixl7aarch6412Disasse
137:   FUNC GLOBAL DEFAULT UND _ZN4vixl7aarch6412Disasse
138:   FUNC GLOBAL DEFAULT UND _ZN4vixl7aarch6412Disasse
139:   FUNC GLOBAL DEFAULT UND _ZN4vixl7aarch6412Disasse
140:   FUNC GLOBAL DEFAULT UND _ZN4vixl7aarch6412Disasse
141:   FUNC GLOBAL DEFAULT UND _ZN4vixl7aarch6412Disasse
142:   FUNC GLOBAL DEFAULT UND _ZN4vixl7aarch6412Disasse
143:   FUNC GLOBAL DEFAULT UND _ZN4vixl7aarch6412Disasse
144:   FUNC GLOBAL DEFAULT UND _ZN4vixl7aarch6412Disasse
145:   FUNC GLOBAL DEFAULT UND _ZN4vixl7aarch6412Disasse
146:   FUNC GLOBAL DEFAULT UND _ZN4vixl7aarch6412Disasse
147:   FUNC GLOBAL DEFAULT UND _ZN4vixl7aarch6412Disasse
148:   FUNC GLOBAL DEFAULT UND _ZN4vixl7aarch6412Disasse
149:   FUNC GLOBAL DEFAULT UND _ZN4vixl7aarch6412Disasse
150:   FUNC GLOBAL DEFAULT UND _ZN4vixl7aarch6412Disasse
151:   FUNC GLOBAL DEFAULT UND _ZN4vixl7aarch6412Disasse
152:   FUNC GLOBAL DEFAULT UND _ZN4vixl7aarch6412Disasse
153:   FUNC GLOBAL DEFAULT UND _ZN4vixl7aarch6412Disasse
154:   FUNC GLOBAL DEFAULT UND _ZN4vixl7aarch6412Disasse
155:   FUNC GLOBAL DEFAULT UND _ZN4vixl7aarch6412Disasse
156:   FUNC GLOBAL DEFAULT UND _ZN4vixl7aarch6412Disasse
157:   FUNC GLOBAL DEFAULT UND _ZN4vixl7aarch6412Disasse
158:   FUNC GLOBAL DEFAULT UND _ZN4vixl7aarch6412Disasse
159:   FUNC GLOBAL DEFAULT UND _ZN4vixl7aarch6412Disasse
160:   FUNC GLOBAL DEFAULT UND _ZN4vixl7aarch6412Disasse
161:   FUNC GLOBAL DEFAULT UND _ZN4vixl7aarch6412Disasse
162:   FUNC GLOBAL DEFAULT UND _ZN4vixl7aarch6412Disasse
163:   FUNC GLOBAL DEFAULT UND _ZN4vixl7aarch6412Disasse
164:   FUNC GLOBAL DEFAULT UND _ZN4vixl7aarch6412Disasse
165:   FUNC GLOBAL DEFAULT UND _ZN4vixl7aarch6412Disasse
166:   FUNC GLOBAL DEFAULT UND _ZN4vixl7aarch6412Disasse
167:   FUNC GLOBAL DEFAULT UND _ZN4vixl7aarch6412Disasse
168:   FUNC GLOBAL DEFAULT UND _ZN4vixl7aarch6412Disasse
169:   FUNC GLOBAL DEFAULT UND _ZN4vixl7aarch6412Disasse
170:   FUNC GLOBAL DEFAULT UND _ZN4vixl7aarch6412Disasse
171:   FUNC GLOBAL DEFAULT UND _ZN4vixl7aarch6412Disasse
172:   FUNC GLOBAL DEFAULT UND _ZN4vixl7aarch6412Disasse
173:   FUNC GLOBAL DEFAULT UND _ZN4vixl7aarch6412Disasse
174:   FUNC GLOBAL DEFAULT UND _ZN4vixl7aarch6412Disasse
175:   FUNC GLOBAL DEFAULT UND _ZN4vixl7aarch6412Disasse
176:   FUNC GLOBAL DEFAULT UND _ZN4vixl7aarch6412Disasse
177:   FUNC GLOBAL DEFAULT UND _ZN4vixl7aarch6412Disasse
178:   FUNC GLOBAL DEFAULT UND _ZN4vixl7aarch6414CalcLSD
179:   FUNC GLOBAL DEFAULT UND _ZN4vixl7aarch647Decoder1
180:   FUNC WEAK PROTECTED 14 _ZNKSt3__115basic_stringb
181:   OBJECT WEAK PROTECTED 18 _ZTVN3art12DisassemblerE
182:   OBJECT GLOBAL PROTECTED 18 _ZTVN3art5arm6417Disassem
183:   FUNC GLOBAL PROTECTED 14 _ZN3art4mips16Disassemble
184:   FUNC WEAK PROTECTED 14 _ZNSt3__115basic_stringbu
185:   FUNC WEAK PROTECTED 14 _ZNSt3__115basic_stringbu
186:   OBJECT GLOBAL PROTECTED 18 _ZTVN3art3arm15Disassembl
187:   FUNC GLOBAL PROTECTED 14 _ZN3art12Disassembler24Fo
188:   FUNC GLOBAL PROTECTED 14 _ZN3art4mips16Disassemble
189:   FUNC GLOBAL PROTECTED 14 _ZN3art3x8615Disassembler
190:   FUNC GLOBAL PROTECTED 14 _ZN3art3x8615Disassembler
191:   OBJECT WEAK DEFAULT 18 _ZTCNSt3__118basic_string
192:   FUNC GLOBAL PROTECTED 14 _ZN3art3arm15Disassembler
193:   FUNC GLOBAL PROTECTED 14 _ZN3art5arm6418CustomDisa
194:   FUNC GLOBAL PROTECTED 14 _ZN3art3arm15Disassembler
195:   FUNC GLOBAL PROTECTED 14 create_disassembler
196:   FUNC WEAK PROTECTED 14 _ZNSt3__115basic_stringbu
197:   OBJECT GLOBAL PROTECTED 18 _ZTVN3art4mips16Disassemb
198:   OBJECT WEAK PROTECTED 18 _ZTVN3art3arm15Disassembl
199:   FUNC GLOBAL PROTECTED 14 _ZN3art5arm6417Disassembl
200:   FUNC GLOBAL PROTECTED 14 _ZN3art5arm6418CustomDisa
201:   FUNC GLOBAL PROTECTED 14 _ZN3art12Disassembler6Cre
202:   FUNC GLOBAL PROTECTED 14 _ZN3art12DisassemblerC2EP
203:   FUNC WEAK PROTECTED 14 _ZNSt3__124__put_characte
204:   OBJECT GLOBAL PROTECTED 18 _ZTVN3art5arm6418CustomDi
205:   OBJECT WEAK DEFAULT 18 _ZTVNSt3__119basic_ostrin
206:   FUNC WEAK PROTECTED 14 _ZNSt3__115basic_stringbu
207:   OBJECT WEAK DEFAULT 18 _ZTTNSt3__119basic_ostrin
208:   FUNC GLOBAL PROTECTED 14 _ZN3art3x8615Disassembler
209:   OBJECT WEAK DEFAULT 18 _ZTCNSt3__118basic_string
210:   OBJECT WEAK DEFAULT 18 _ZTCNSt3__118basic_string
211:   OBJECT WEAK PROTECTED 18 _ZTVN3art3arm15Disassembl
212:   FUNC GLOBAL PROTECTED 14 _ZN3art5arm6418CustomDisa
213:   FUNC GLOBAL PROTECTED 14 _ZN3art4mips16Disassemble
214:   FUNC GLOBAL PROTECTED 14 _ZN3art3x8615Disassembler
215:   FUNC GLOBAL PROTECTED 14 _ZN3art3arm15Disassembler
216:   FUNC WEAK PROTECTED 14 _ZNSt3__115basic_stringbu
217:   FUNC GLOBAL PROTECTED 14 _ZN3art3x8615Disassembler
218:   OBJECT GLOBAL PROTECTED 18 _ZTVN3art3x8615Disassembl
219:   OBJECT WEAK DEFAULT 18 _ZTCNSt3__119basic_ostrin
220:   OBJECT WEAK DEFAULT 18 _ZTVNSt3__118basic_string
221:   FUNC GLOBAL PROTECTED 14 _ZN3art3arm15Disassembler
222:   FUNC GLOBAL PROTECTED 14 _ZN3art5arm6417Disassembl
223:   OBJECT WEAK DEFAULT 18 _ZTTNSt3__118basic_string
224:   FUNC GLOBAL PROTECTED 14 _ZN3art3arm15Disassembler
225:   OBJECT WEAK DEFAULT 18 _ZTVNSt3__115basic_string
226:   OBJECT WEAK PROTECTED 18 _ZTVN4vixl7aarch3212Disas
