 0x000000000000000e (SONAME)             Library soname: [dnsresolver_aidl_interface-V2-cpp.so]
  
Symbol   contains 165 entries:
Num:   Type Bind Vis Ndx Name
0:   NOTYPE LOCAL DEFAULT UND
1:   FUNC GLOBAL DEFAULT UND __cxa_finalize@LIBC (2)
2:   FUNC GLOBAL DEFAULT UND __cxa_atexit@LIBC (2)
3:   FUNC GLOBAL DEFAULT UND _ZN7android10IInterface8a
4:   FUNC GLOBAL DEFAULT UND _ZN7android10IInterfaceC2
5:   FUNC GLOBAL DEFAULT UND _ZN7android10IInterfaceD0
6:   FUNC GLOBAL DEFAULT UND _ZN7android10IInterfaceD1
7:   FUNC GLOBAL DEFAULT UND _ZN7android10IInterfaceD2
8:   FUNC GLOBAL DEFAULT UND _ZN7android14sp_report_ra
9:   FUNC GLOBAL DEFAULT UND _ZN7android3net7metrics18
10:   FUNC GLOBAL DEFAULT UND _ZN7android6Parcel10write
11:   FUNC GLOBAL DEFAULT UND _ZN7android6Parcel15write
12:   FUNC GLOBAL DEFAULT UND _ZN7android6Parcel16write
13:   FUNC GLOBAL DEFAULT UND _ZN7android6Parcel16write
14:   FUNC GLOBAL DEFAULT UND _ZN7android6Parcel16write
15:   FUNC GLOBAL DEFAULT UND _ZN7android6Parcel17write
16:   FUNC GLOBAL DEFAULT UND _ZN7android6Parcel19write
17:   FUNC GLOBAL DEFAULT UND _ZN7android6Parcel28write
18:   FUNC GLOBAL DEFAULT UND _ZN7android6Parcel9writeB
19:   FUNC GLOBAL DEFAULT UND _ZN7android6ParcelC1Ev
20:   FUNC GLOBAL DEFAULT UND _ZN7android6ParcelD1Ev
21:   FUNC GLOBAL DEFAULT UND _ZN7android6binder6Status
22:   FUNC GLOBAL DEFAULT UND _ZN7android6binder6Status
23:   FUNC GLOBAL DEFAULT UND _ZN7android6binder6Status
24:   FUNC GLOBAL DEFAULT UND _ZN7android6binder6Status
25:   FUNC GLOBAL DEFAULT UND _ZN7android7BBinder10onTr
26:   FUNC GLOBAL DEFAULT UND _ZN7android7BBinder10ping
27:   FUNC GLOBAL DEFAULT UND _ZN7android7BBinder11link
28:   FUNC GLOBAL DEFAULT UND _ZN7android7BBinder11loca
29:   FUNC GLOBAL DEFAULT UND _ZN7android7BBinder12atta
30:   FUNC GLOBAL DEFAULT UND _ZN7android7BBinder12deta
31:   FUNC GLOBAL DEFAULT UND _ZN7android7BBinder13unli
32:   FUNC GLOBAL DEFAULT UND _ZN7android7BBinder4dumpE
33:   FUNC GLOBAL DEFAULT UND _ZN7android7BBinder8trans
34:   FUNC GLOBAL DEFAULT UND _ZN7android7BBinderD0Ev
35:   FUNC GLOBAL DEFAULT UND _ZN7android7BBinderD1Ev
36:   FUNC GLOBAL DEFAULT UND _ZN7android7IBinder11loca
37:   FUNC GLOBAL DEFAULT UND _ZN7android7IBinder12remo
38:   FUNC GLOBAL DEFAULT UND _ZN7android7IBinder19quer
39:   FUNC GLOBAL DEFAULT UND _ZN7android7IBinderD0Ev
40:   FUNC GLOBAL DEFAULT UND _ZN7android7IBinderD1Ev
41:   FUNC GLOBAL DEFAULT UND _ZN7android7RefBase10onFi
42:   FUNC GLOBAL DEFAULT UND _ZN7android7RefBase13onLa
43:   FUNC GLOBAL DEFAULT UND _ZN7android7RefBase15onLa
44:   FUNC GLOBAL DEFAULT UND _ZN7android7RefBase20onIn
45:   FUNC GLOBAL DEFAULT UND _ZN7android7RefBaseC2Ev
46:   FUNC GLOBAL DEFAULT UND _ZN7android7RefBaseD2Ev
47:   FUNC GLOBAL DEFAULT UND _ZN7android7String8C1ERKS
48:   FUNC GLOBAL DEFAULT UND _ZN7android7String8C1Ev
49:   FUNC GLOBAL DEFAULT UND _ZN7android7String8D1Ev
50:   FUNC GLOBAL DEFAULT UND _ZN7android8String16C1EPK
51:   FUNC GLOBAL DEFAULT UND _ZN7android8String16D1Ev
52:   FUNC GLOBAL DEFAULT UND _ZN7android9BpRefBase10on
53:   FUNC GLOBAL DEFAULT UND _ZN7android9BpRefBase15on
54:   FUNC GLOBAL DEFAULT UND _ZN7android9BpRefBase20on
55:   FUNC GLOBAL DEFAULT UND _ZN7android9BpRefBaseC2ER
56:   FUNC GLOBAL DEFAULT UND _ZN7android9BpRefBaseD0Ev
57:   FUNC GLOBAL DEFAULT UND _ZN7android9BpRefBaseD1Ev
58:   FUNC GLOBAL DEFAULT UND _ZN7android9BpRefBaseD2Ev
59:   FUNC GLOBAL DEFAULT UND _ZNK7android6Parcel14chec
60:   FUNC GLOBAL DEFAULT UND _ZNK7android6Parcel14read
61:   FUNC GLOBAL DEFAULT UND _ZNK7android6Parcel15read
62:   FUNC GLOBAL DEFAULT UND _ZNK7android6Parcel16read
63:   FUNC GLOBAL DEFAULT UND _ZNK7android6Parcel17read
64:   FUNC GLOBAL DEFAULT UND _ZNK7android6Parcel29read
65:   FUNC GLOBAL DEFAULT UND _ZNK7android6Parcel8readB
66:   FUNC GLOBAL DEFAULT UND _ZNK7android6Parcel9readI
67:   FUNC GLOBAL DEFAULT UND _ZNK7android6Parcel9readI
68:   FUNC GLOBAL DEFAULT UND _ZNK7android6binder6Statu
69:   FUNC GLOBAL DEFAULT UND _ZNK7android7BBinder10fin
70:   FUNC GLOBAL DEFAULT UND _ZNK7android7BBinder13isB
71:   FUNC GLOBAL DEFAULT UND _ZNK7android7BBinder22get
72:   FUNC GLOBAL DEFAULT UND _ZNK7android7IBinder13che
73:   FUNC GLOBAL DEFAULT UND _ZNK7android7RefBase9decS
74:   FUNC GLOBAL DEFAULT UND _ZNK7android7RefBase9incS
75:   FUNC GLOBAL DEFAULT UND _ZNK7android8String164siz
76:   FUNC GLOBAL DEFAULT UND _ZNKSt3__120__vector_base
77:   FUNC GLOBAL DEFAULT UND _ZTv0_n24_N7android10IInt
78:   FUNC GLOBAL DEFAULT UND _ZTv0_n24_N7android10IInt
79:   FUNC GLOBAL DEFAULT UND _ZTv0_n24_N7android7BBind
80:   FUNC GLOBAL DEFAULT UND _ZTv0_n24_N7android7BBind
81:   FUNC GLOBAL DEFAULT UND _ZTv0_n24_N7android7IBind
82:   FUNC GLOBAL DEFAULT UND _ZTv0_n24_N7android7IBind
83:   FUNC GLOBAL DEFAULT UND _ZTv0_n24_N7android9BpRef
84:   FUNC GLOBAL DEFAULT UND _ZTv0_n24_N7android9BpRef
85:   FUNC GLOBAL DEFAULT UND _ZTv0_n32_N7android9BpRef
86:   FUNC GLOBAL DEFAULT UND _ZTv0_n40_N7android9BpRef
87:   FUNC GLOBAL DEFAULT UND _ZTv0_n48_N7android9BpRef
88:   FUNC GLOBAL DEFAULT UND _ZdlPv
89:   FUNC GLOBAL DEFAULT UND _Znwm
90:   FUNC GLOBAL DEFAULT UND __cxa_pure_virtual
91:   FUNC GLOBAL DEFAULT UND __stack_chk_fail@LIBC (2)
92:   FUNC GLOBAL DEFAULT UND abort@LIBC (2)
93:   FUNC GLOBAL DEFAULT UND memcpy@LIBC (2)
94:   FUNC GLOBAL DEFAULT UND memset@LIBC (2)
95:   FUNC GLOBAL DEFAULT UND strzcmp16
96:   FUNC GLOBAL DEFAULT UND _ZNK7android6Parcel12data
97:   FUNC GLOBAL DEFAULT UND _ZNK7android6Parcel15setD
98:   FUNC GLOBAL DEFAULT 14 _ZN7android3net12IDnsReso
99:   OBJECT GLOBAL DEFAULT 18 _ZTCN7android3net19IDnsRe
100:   OBJECT GLOBAL DEFAULT 18 _ZTVN7android3net12IDnsRe
101:   FUNC GLOBAL DEFAULT 14 _ZN7android3net12IDnsReso
102:   FUNC GLOBAL DEFAULT 14 _ZN7android3net12IDnsReso
103:   FUNC GLOBAL DEFAULT 14 _ZN7android3net12IDnsReso
104:   FUNC GLOBAL DEFAULT 14 _ZN7android3net13BpDnsRes
105:   FUNC GLOBAL DEFAULT 14 _ZN7android3net13BpDnsRes
106:   OBJECT GLOBAL DEFAULT 18 _ZTCN7android3net13BnDnsR
107:   FUNC GLOBAL DEFAULT 14 _ZN7android3net13BnDnsRes
108:   FUNC GLOBAL DEFAULT 14 _ZN7android3net13BpDnsRes
109:   FUNC GLOBAL DEFAULT 14 _ZThn16_N7android3net13Bn
110:   FUNC GLOBAL DEFAULT 14 _ZN7android3net13BpDnsRes
111:   FUNC GLOBAL DEFAULT 14 _ZN7android3net13BpDnsRes
112:   FUNC GLOBAL DEFAULT 14 _ZN7android3net19IDnsReso
113:   OBJECT GLOBAL DEFAULT 18 _ZTCN7android3net13BnDnsR
114:   OBJECT GLOBAL DEFAULT 18 _ZTCN7android3net13BnDnsR
115:   FUNC GLOBAL DEFAULT 14 _ZN7android3net13BnDnsRes
116:   OBJECT GLOBAL DEFAULT 18 _ZTCN7android3net13BpDnsR
117:   OBJECT GLOBAL DEFAULT 23 _ZN7android3net12IDnsReso
118:   FUNC GLOBAL DEFAULT 14 _ZN7android3net13BpDnsRes
119:   FUNC GLOBAL DEFAULT 14 _ZN7android3net19IDnsReso
120:   FUNC GLOBAL DEFAULT 14 _ZN7android3net19IDnsReso
121:   OBJECT GLOBAL DEFAULT 18 _ZTCN7android3net13BpDnsR
122:   OBJECT GLOBAL DEFAULT 18 _ZTCN7android3net13BpDnsR
123:   OBJECT GLOBAL DEFAULT 18 _ZTTN7android3net13BnDnsR
124:   FUNC GLOBAL DEFAULT 14 _ZN7android3net13BpDnsRes
125:   FUNC GLOBAL DEFAULT 14 _ZN7android3net13BpDnsRes
126:   FUNC WEAK DEFAULT 14 _ZN7android11BnInterfaceI
127:   FUNC GLOBAL DEFAULT 14 _ZN7android3net12IDnsReso
128:   FUNC GLOBAL DEFAULT 14 _ZN7android3net19IDnsReso
129:   FUNC WEAK DEFAULT 14 _ZNSt3__16vectorINS_12bas
130:   OBJECT GLOBAL DEFAULT 18 _ZTCN7android3net19IDnsRe
131:   OBJECT GLOBAL DEFAULT 18 _ZTTN7android3net13BpDnsR
132:   OBJECT GLOBAL DEFAULT 18 _ZTVN7android3net13BnDnsR
133:   FUNC GLOBAL DEFAULT 14 _ZNK7android3net20Resolve
134:   FUNC GLOBAL DEFAULT 14 _ZN7android3net19IDnsReso
135:   FUNC GLOBAL DEFAULT 14 _ZN7android3net19IDnsReso
136:   FUNC WEAK DEFAULT 14 _ZNK7android6Parcel16read
137:   OBJECT GLOBAL DEFAULT 18 _ZTTN7android3net19IDnsRe
138:   OBJECT GLOBAL DEFAULT 18 _ZTVN7android3net13BpDnsR
139:   FUNC GLOBAL DEFAULT 14 _ZN7android3net12IDnsReso
140:   FUNC GLOBAL DEFAULT 14 _ZN7android3net13BpDnsRes
141:   FUNC GLOBAL DEFAULT 14 _ZN7android3net13BpDnsRes
142:   FUNC GLOBAL DEFAULT 14 _ZN7android3net13BpDnsRes
143:   FUNC GLOBAL DEFAULT 14 _ZNK7android3net12IDnsRes
144:   FUNC WEAK DEFAULT 14 _ZNSt3__16vectorIiNS_9all
145:   FUNC GLOBAL DEFAULT 14 _ZN7android3net20Resolver
146:   FUNC GLOBAL DEFAULT 14 _ZN7android3net12IDnsReso
147:   OBJECT GLOBAL DEFAULT 18 _ZTCN7android3net12IDnsRe
148:   OBJECT GLOBAL DEFAULT 18 _ZTCN7android3net13BnDnsR
149:   OBJECT GLOBAL DEFAULT 18 _ZTVN7android3net19IDnsRe
150:   OBJECT GLOBAL DEFAULT 18 _ZTVN7android3net20Resolv
151:   FUNC GLOBAL DEFAULT 14 _ZTv0_n24_N7android3net12
152:   FUNC GLOBAL DEFAULT 14 _ZN7android3net13BpDnsRes
153:   FUNC GLOBAL DEFAULT 14 _ZN7android3net13BpDnsRes
154:   FUNC GLOBAL DEFAULT 14 _ZN7android3net19IDnsReso
155:   FUNC GLOBAL DEFAULT 14 _ZN7android3net19IDnsReso
156:   FUNC GLOBAL DEFAULT 14 _ZN7android3net19IDnsReso
157:   OBJECT GLOBAL DEFAULT 18 _ZTCN7android3net13BnDnsR
158:   FUNC GLOBAL DEFAULT 14 _ZTv0_n24_N7android3net12
159:   FUNC GLOBAL DEFAULT 14 _ZN7android3net19IDnsReso
160:   OBJECT GLOBAL DEFAULT 18 _ZTCN7android3net13BpDnsR
161:   OBJECT GLOBAL DEFAULT 18 _ZTTN7android3net12IDnsRe
162:   OBJECT GLOBAL DEFAULT 23 _ZN7android3net12IDnsReso
163:   FUNC GLOBAL DEFAULT 14 _ZN7android3net19IDnsReso
164:   FUNC GLOBAL DEFAULT 14 _ZN7android3net19IDnsReso
