 0x0000000e (SONAME)                     Library soname: [android.hardware.camera.metadata@3.3.so]
  
Symbol   contains 11 entries:
Num:   Type Bind Vis Ndx Name
0:   NOTYPE LOCAL DEFAULT UND
1:   FUNC GLOBAL DEFAULT UND __cxa_finalize@LIBC (2)
2:   FUNC GLOBAL DEFAULT UND __stack_chk_fail@LIBC (2)
3:   OBJECT GLOBAL DEFAULT UND __stack_chk_guard@LIBC (2)
4:   FUNC GLOBAL DEFAULT UND memset@LIBC (2)
5:   FUNC GLOBAL DEFAULT 12 __aeabi_memclr
6:   FUNC GLOBAL DEFAULT 12 __aeabi_memclr4
7:   FUNC GLOBAL DEFAULT 12 __aeabi_memclr8
8:   FUNC GLOBAL DEFAULT 12 __aeabi_memset
9:   FUNC GLOBAL DEFAULT 12 __aeabi_memset4
10:   FUNC GLOBAL DEFAULT 12 __aeabi_memset8
