 0x0000000e (SONAME)                     Library soname: [libRScpp.so]
  
Symbol   contains 456 entries:
Num:   Type Bind Vis Ndx Name
0:   NOTYPE LOCAL DEFAULT UND
1:   FUNC GLOBAL DEFAULT UND __cxa_finalize@LIBC (2)
2:   FUNC GLOBAL DEFAULT UND _ZdlPv
3:   FUNC GLOBAL DEFAULT UND _Znwj
4:   FUNC GLOBAL DEFAULT UND __android_log_print@LIBLOG (3)
5:   FUNC GLOBAL DEFAULT UND __stack_chk_fail@LIBC (2)
6:   OBJECT GLOBAL DEFAULT UND __stack_chk_guard@LIBC (2)
7:   FUNC GLOBAL DEFAULT UND atoi@LIBC (2)
8:   FUNC GLOBAL DEFAULT UND dlerror@LIBC (4)
9:   FUNC GLOBAL DEFAULT UND dlopen@LIBC (4)
10:   FUNC GLOBAL DEFAULT UND free@LIBC (2)
11:   FUNC GLOBAL DEFAULT UND malloc@LIBC (2)
12:   FUNC GLOBAL DEFAULT UND pthread_create@LIBC (2)
13:   FUNC GLOBAL DEFAULT UND pthread_join@LIBC (2)
14:   FUNC GLOBAL DEFAULT UND pthread_mutex_lock@LIBC (2)
15:   FUNC GLOBAL DEFAULT UND pthread_mutex_unlock@LIBC (2)
16:   FUNC GLOBAL DEFAULT UND realloc@LIBC (2)
17:   FUNC GLOBAL DEFAULT UND strlen@LIBC (2)
18:   FUNC GLOBAL DEFAULT UND usleep@LIBC (2)
19:   FUNC GLOBAL DEFAULT UND __strlen_chk@LIBC (2)
20:   FUNC GLOBAL DEFAULT UND calloc@LIBC (2)
21:   FUNC GLOBAL DEFAULT UND memcmp@LIBC (2)
22:   FUNC GLOBAL DEFAULT UND _ZNK7android7RefBase9decS
23:   FUNC GLOBAL DEFAULT UND _ZNK7android7RefBase9incS
24:   FUNC GLOBAL DEFAULT UND _ZdaPv
25:   FUNC GLOBAL DEFAULT UND _Znaj
26:   FUNC GLOBAL DEFAULT UND _ZNSt3__112basic_stringIc
27:   FUNC GLOBAL DEFAULT UND __errno@LIBC (2)
28:   FUNC GLOBAL DEFAULT UND __system_property_get@LIBC (2)
29:   FUNC GLOBAL DEFAULT UND abort@LIBC (2)
30:   FUNC GLOBAL DEFAULT UND execv@LIBC (2)
31:   FUNC GLOBAL DEFAULT UND fork@LIBC (2)
32:   FUNC GLOBAL DEFAULT UND setpgid@LIBC (2)
33:   FUNC GLOBAL DEFAULT UND strerror@LIBC (2)
34:   FUNC GLOBAL DEFAULT UND strndup@LIBC (2)
35:   FUNC GLOBAL DEFAULT UND waitpid@LIBC (2)
36:   FUNC GLOBAL DEFAULT UND dlsym@LIBC (4)
37:   FUNC GLOBAL DEFAULT UND memcpy@LIBC (2)
38:   FUNC GLOBAL DEFAULT UND memset@LIBC (2)
39:   FUNC GLOBAL DEFAULT 14 _ZN7android3RSC7ElementC2
40:   FUNC GLOBAL DEFAULT 14 _ZN7android3RSC4TypeC1EPv
41:   FUNC GLOBAL DEFAULT 14 _ZN7android3RSC20ScriptIn
42:   FUNC GLOBAL DEFAULT 14 _ZN7android3RSC26ScriptIn
43:   FUNC GLOBAL DEFAULT 14 _ZN7android3RSC26ScriptIn
44:   FUNC GLOBAL DEFAULT 14 _ZN7android3RSC19ScriptIn
45:   FUNC GLOBAL DEFAULT 14 _ZN7android3RSC7Element22
46:   FUNC GLOBAL DEFAULT 14 _ZN7android3RSC19ScriptIn
47:   FUNC GLOBAL DEFAULT 14 _ZN7android3RSC20ScriptIn
48:   FUNC GLOBAL DEFAULT 14 _ZN7android3RSC7Sampler13
49:   FUNC GLOBAL DEFAULT 14 _ZN7android3RSC7Element5I
50:   FUNC GLOBAL DEFAULT 14 _ZN7android3RSC7Element7B
51:   FUNC GLOBAL DEFAULT 14 _ZN7android3RSC7Element9R
52:   FUNC GLOBAL DEFAULT 14 _ZN7android3RSC10Allocati
53:   FUNC GLOBAL DEFAULT 14 _ZN7android3RSC10Allocati
54:   FUNC GLOBAL DEFAULT 14 _ZN7android3RSC15ScriptIn
55:   FUNC GLOBAL DEFAULT 14 _ZN7android3RSC19ScriptIn
56:   FUNC GLOBAL DEFAULT 14 _ZN7android3RSC19ScriptIn
57:   FUNC GLOBAL DEFAULT 14 _ZN7android3RSC7Sampler8g
58:   FUNC GLOBAL DEFAULT 14 _ZN7android3RSC7Element5U
59:   FUNC GLOBAL DEFAULT 14 _ZN7android3RSC7Element7B
60:   FUNC GLOBAL DEFAULT 14 _ZN7android3RSC19ScriptIn
61:   FUNC GLOBAL DEFAULT 14 _ZN7android3RSC19ScriptIn
62:   FUNC GLOBAL DEFAULT 14 _ZN7android3RSC2RS4initEP
63:   FUNC GLOBAL DEFAULT 14 _ZN7android3RSC15ScriptIn
64:   FUNC GLOBAL DEFAULT 14 _ZN7android3RSC19ScriptIn
65:   FUNC GLOBAL DEFAULT 14 _ZN7android3RSC19ScriptIn
66:   FUNC GLOBAL DEFAULT 14 _ZN7android3RSC2RSC1Ev
67:   FUNC GLOBAL DEFAULT 14 _ZN7android3RSC20ScriptIn
68:   FUNC GLOBAL DEFAULT 14 _ZN7android3RSC19ScriptIn
69:   FUNC GLOBAL DEFAULT 14 _ZN7android3RSC19ScriptIn
70:   FUNC GLOBAL DEFAULT 14 _ZN7android3RSC18ScriptIn
71:   FUNC GLOBAL DEFAULT 14 _ZN7android3RSC24ScriptIn
72:   FUNC GLOBAL DEFAULT 14 _ZN7android3RSC19ScriptIn
73:   FUNC GLOBAL DEFAULT 14 _ZN7android3RSC2RSD2Ev
74:   FUNC GLOBAL DEFAULT 14 _ZN7android3RSC7Element10
75:   FUNC GLOBAL DEFAULT 14 _ZN7android3RSC7Element5I
76:   FUNC GLOBAL DEFAULT 14 _ZN7android3RSC10Allocati
77:   FUNC GLOBAL DEFAULT 14 _ZN7android3RSC10Allocati
78:   FUNC GLOBAL DEFAULT 14 _ZN7android3RSC7Sampler22
79:   FUNC GLOBAL DEFAULT 14 _ZN7android3RSC2RS6finish
80:   FUNC GLOBAL DEFAULT 14 _ZN7android3RSC7Element16
81:   FUNC GLOBAL DEFAULT 14 _ZN7android3RSC7Element5I
82:   FUNC GLOBAL DEFAULT 14 _ZN7android3RSC10Allocati
83:   FUNC GLOBAL DEFAULT 14 _ZN7android3RSC10Allocati
84:   FUNC GLOBAL DEFAULT 14 _ZN7android3RSC7Element24
85:   FUNC GLOBAL DEFAULT 14 _ZN7android3RSC7Element3A
86:   FUNC GLOBAL DEFAULT 14 _ZN7android3RSC7Element5U
87:   FUNC GLOBAL DEFAULT 14 _ZN7android3RSC10Allocati
88:   FUNC GLOBAL DEFAULT 14 _ZNK7android3RSC6Script6s
89:   FUNC GLOBAL DEFAULT 14 _ZN7android3RSC23ScriptIn
90:   FUNC GLOBAL DEFAULT 14 _ZN7android3RSC7Element5U
91:   FUNC GLOBAL DEFAULT 14 _ZN7android3RSC19ScriptIn
92:   FUNC GLOBAL DEFAULT 14 _ZN7android3RSC19ScriptIn
93:   FUNC GLOBAL DEFAULT 14 _ZN7android3RSC7Sampler13
94:   OBJECT GLOBAL DEFAULT 22 _ZN7android3RSC2RS8dispat
95:   FUNC GLOBAL DEFAULT 14 _ZN7android3RSC7Element10
96:   FUNC GLOBAL DEFAULT 14 _ZN7android3RSC7Element3U
97:   FUNC GLOBAL DEFAULT 14 _ZN7android3RSC26ScriptIn
98:   OBJECT WEAK DEFAULT 18 _ZTVN7android3RSC21Script
99:   FUNC GLOBAL DEFAULT 14 _ZN7android3RSC7Element3F
100:   FUNC GLOBAL DEFAULT 14 _ZN7android3RSC10Allocati
101:   OBJECT GLOBAL DEFAULT 18 _ZTVN7android3RSC18Script
102:   OBJECT WEAK DEFAULT 18 _ZTVN7android3RSC26Script
103:   FUNC GLOBAL DEFAULT 14 _ZN7android3RSC19ScriptIn
104:   FUNC GLOBAL DEFAULT 14 _ZN7android3RSC19ScriptIn
105:   FUNC GLOBAL DEFAULT 14 _ZN7android3RSC2RSD0Ev
106:   FUNC GLOBAL DEFAULT 14 _ZN7android3RSC7Element3Y
107:   FUNC GLOBAL DEFAULT 14 _ZN7android3RSC7Element5I
108:   FUNC GLOBAL DEFAULT 14 _ZN7android3RSC10Allocati
109:   FUNC GLOBAL DEFAULT 14 _ZN7android3RSC19ScriptIn
110:   FUNC GLOBAL DEFAULT 14 _ZN7android3RSC19ScriptIn
111:   FUNC GLOBAL DEFAULT 14 _ZN7android3RSC19ScriptIn
112:   FUNC GLOBAL DEFAULT 14 _ZN7android3RSC19ScriptIn
113:   FUNC GLOBAL DEFAULT 14 _ZN7android3RSC7Element11
114:   FUNC GLOBAL DEFAULT 14 _ZN7android3RSC7Element5I
115:   FUNC GLOBAL DEFAULT 14 _ZN7android3RSC7ElementC1
116:   OBJECT GLOBAL DEFAULT 18 _ZTVN7android3RSC7Element
117:   FUNC GLOBAL DEFAULT 14 _ZN7android3RSC26ScriptIn
118:   FUNC GLOBAL DEFAULT 14 _ZN7android3RSC19ScriptIn
119:   FUNC GLOBAL DEFAULT 14 _ZN7android3RSC19ScriptIn
120:   FUNC GLOBAL DEFAULT 14 _ZN7android3RSC4Type7Buil
121:   FUNC GLOBAL DEFAULT 14 _ZN7android3RSC26ScriptIn
122:   FUNC GLOBAL DEFAULT 14 _ZN7android3RSC19ScriptIn
123:   FUNC GLOBAL DEFAULT 14 _ZN7android3RSC7Element4U
124:   FUNC GLOBAL DEFAULT 14 _ZN7android3RSC7ElementD2
125:   FUNC GLOBAL DEFAULT 14 _ZN7android3RSC10Allocati
126:   FUNC GLOBAL DEFAULT 14 _ZN7android3RSC24ScriptIn
127:   FUNC GLOBAL DEFAULT 14 _ZN7android3RSC7Element4U
128:   FUNC GLOBAL DEFAULT 14 _ZN7android3RSC26ScriptIn
129:   FUNC GLOBAL DEFAULT 14 _ZN7android3RSC19ScriptIn
130:   FUNC GLOBAL DEFAULT 14 _ZN7android3RSC19ScriptIn
131:   FUNC GLOBAL DEFAULT 14 _ZN7android3RSC19ScriptIn
132:   FUNC GLOBAL DEFAULT 14 _ZN7android3RSC19ScriptIn
133:   FUNC GLOBAL DEFAULT 14 _ZN7android3RSC7BaseObjD2
134:   FUNC GLOBAL DEFAULT 14 _ZN7android3RSC4Type16upd
135:   FUNC GLOBAL DEFAULT 14 _ZN7android3RSC20ScriptIn
136:   FUNC GLOBAL DEFAULT 14 _ZN7android3RSC2RS10threa
137:   FUNC GLOBAL DEFAULT 14 _ZN7android3RSC7Element7B
138:   FUNC GLOBAL DEFAULT 14 _ZN7android3RSC10Allocati
139:   FUNC GLOBAL DEFAULT 14 _ZN7android3RSC7Element13
140:   FUNC GLOBAL DEFAULT 14 _ZN7android3RSC7ElementD0
141:   FUNC GLOBAL DEFAULT 14 _ZN7android3RSC10Allocati
142:   FUNC GLOBAL DEFAULT 14 _ZN7android3RSC10Allocati
143:   FUNC GLOBAL DEFAULT 14 _ZN7android3RSC19ScriptIn
144:   FUNC GLOBAL DEFAULT 14 _ZN7android3RSC19ScriptIn
145:   FUNC GLOBAL DEFAULT 14 _Z14loadIOSuppSymsPvR8ioS
146:   FUNC GLOBAL DEFAULT 14 _ZN7android3RSC18ScriptIn
147:   FUNC GLOBAL DEFAULT 14 _ZN7android3RSC24ScriptIn
148:   FUNC GLOBAL DEFAULT 14 _ZN7android3RSC26ScriptIn
149:   FUNC GLOBAL DEFAULT 14 _ZN7android3RSC26ScriptIn
150:   FUNC GLOBAL DEFAULT 14 _ZN7android3RSC19ScriptIn
151:   FUNC GLOBAL DEFAULT 14 _ZN7android3RSC19ScriptIn
152:   FUNC GLOBAL DEFAULT 14 _ZN7android3RSC7Element7S
153:   FUNC GLOBAL DEFAULT 14 _ZN7android12renderscript
154:   FUNC GLOBAL DEFAULT 14 _ZN7android3RSC7Element9R
155:   FUNC GLOBAL DEFAULT 14 _ZN7android3RSC7BaseObjD0
156:   FUNC GLOBAL DEFAULT 14 _ZN7android3RSC19ScriptIn
157:   FUNC GLOBAL DEFAULT 14 _ZN7android12renderscript
158:   FUNC GLOBAL DEFAULT 14 _ZN7android3RSC7Element10
159:   FUNC GLOBAL DEFAULT 14 _ZN7android3RSC10Allocati
160:   FUNC GLOBAL DEFAULT 14 _ZN7android3RSC26ScriptIn
161:   OBJECT GLOBAL DEFAULT 18 _ZTVN7android3RSC15Script
162:   FUNC GLOBAL DEFAULT 14 _ZN7android3RSC19ScriptIn
163:   FUNC GLOBAL DEFAULT 14 _ZN7android3RSC4Type16cal
164:   FUNC GLOBAL DEFAULT 14 _ZNK7android3RSC6Script14
165:   FUNC GLOBAL DEFAULT 14 _ZN7android3RSC26ScriptIn
166:   OBJECT WEAK DEFAULT 18 _ZTVN7android3RSC19Script
167:   FUNC GLOBAL DEFAULT 14 _ZN7android3RSC19ScriptIn
168:   FUNC GLOBAL DEFAULT 14 _ZN7android3RSC19ScriptIn
169:   FUNC GLOBAL DEFAULT 14 _ZN7android3RSC20ScriptIn
170:   FUNC GLOBAL DEFAULT 14 _ZN7android3RSC19ScriptIn
171:   FUNC GLOBAL DEFAULT 14 _ZN7android3RSC19ScriptIn
172:   FUNC GLOBAL DEFAULT 14 _ZN7android3RSC7SamplerC1
173:   FUNC GLOBAL DEFAULT 14 _ZN7android3RSC7BaseObjC1
174:   FUNC GLOBAL DEFAULT 14 _ZN7android3RSC7Element3I
175:   FUNC GLOBAL DEFAULT 14 _ZN7android3RSC7Element5F
176:   FUNC GLOBAL DEFAULT 14 _ZN7android3RSC10Allocati
177:   FUNC GLOBAL DEFAULT 14 _ZN7android3RSC19ScriptIn
178:   FUNC GLOBAL DEFAULT 14 _ZN7android3RSC7BaseObjC2
179:   FUNC GLOBAL DEFAULT 14 _ZN7android3RSC7Element3U
180:   FUNC GLOBAL DEFAULT 14 _ZN7android3RSC7Element5F
181:   FUNC GLOBAL DEFAULT 14 _ZN7android3RSC7Element10
182:   FUNC GLOBAL DEFAULT 14 _ZN7android3RSC7Element2I
183:   FUNC GLOBAL DEFAULT 14 _ZN7android3RSC7Element3F
184:   FUNC GLOBAL DEFAULT 14 _ZN7android3RSC10Allocati
185:   FUNC GLOBAL DEFAULT 14 _ZN7android3RSC10Allocati
186:   FUNC GLOBAL DEFAULT 14 _ZN7android3RSC20ScriptIn
187:   FUNC GLOBAL DEFAULT 14 _ZN7android3RSC20ScriptIn
188:   FUNC GLOBAL DEFAULT 14 _ZN7android3RSC23ScriptIn
189:   FUNC GLOBAL DEFAULT 14 _ZN7android3RSC26ScriptIn
190:   FUNC GLOBAL DEFAULT 14 _ZN7android3RSC19ScriptIn
191:   OBJECT GLOBAL DEFAULT 22 _ZN7android3RSC2RS11using
192:   FUNC GLOBAL DEFAULT 14 _ZN7android3RSC7Sampler12
193:   FUNC GLOBAL DEFAULT 14 _ZN7android3RSC7Sampler23
194:   OBJECT GLOBAL DEFAULT 18 _ZTVN7android3RSC7BaseObj
195:   FUNC GLOBAL DEFAULT 14 _ZN7android3RSC10Allocati
196:   FUNC GLOBAL DEFAULT 14 _ZNK7android3RSC6Script7f
197:   FUNC GLOBAL DEFAULT 14 _ZN7android3RSC7Element4I
198:   FUNC GLOBAL DEFAULT 14 _ZN7android3RSC7Element4T
199:   FUNC GLOBAL DEFAULT 14 _ZN7android3RSC7ElementC2
200:   FUNC GLOBAL DEFAULT 14 _ZN7android3RSC7Element5F
201:   FUNC GLOBAL DEFAULT 14 _ZN7android3RSC6ScriptC1E
202:   OBJECT WEAK DEFAULT 18 _ZTVN7android3RSC23Script
203:   FUNC GLOBAL DEFAULT 14 _ZN7android3RSC7BaseObj10
204:   FUNC GLOBAL DEFAULT 14 _ZN7android3RSC7Element5F
205:   FUNC GLOBAL DEFAULT 14 _ZN7android3RSC6ScriptC2E
206:   FUNC GLOBAL DEFAULT 14 _ZN7android3RSC19ScriptIn
207:   FUNC GLOBAL DEFAULT 14 _ZN7android3RSC20ScriptIn
208:   FUNC GLOBAL DEFAULT 14 _ZN7android3RSC26ScriptIn
209:   FUNC GLOBAL DEFAULT 14 _ZN7android3RSC19ScriptIn
210:   FUNC GLOBAL DEFAULT 14 _ZN7android3RSC19ScriptIn
211:   FUNC GLOBAL DEFAULT 14 _ZN7android3RSC7Sampler12
212:   FUNC GLOBAL DEFAULT 14 _ZN7android3RSC7ElementC2
213:   FUNC GLOBAL DEFAULT 14 _ZN7android3RSC18ScriptIn
214:   FUNC GLOBAL DEFAULT 14 _ZN7android3RSC19ScriptIn
215:   FUNC GLOBAL DEFAULT 14 _ZN7android3RSC19ScriptIn
216:   FUNC GLOBAL DEFAULT 14 _ZN7android3RSC19ScriptIn
217:   FUNC GLOBAL DEFAULT 14 _ZN7android3RSC7SamplerC2
218:   OBJECT WEAK DEFAULT 18 _ZTVN7android3RSC26Script
219:   FUNC GLOBAL DEFAULT 14 _ZNK7android3RSC10Allocat
220:   FUNC GLOBAL DEFAULT 14 _ZN7android3RSC19ScriptIn
221:   FUNC GLOBAL DEFAULT 14 _ZN7android3RSC19ScriptIn
222:   FUNC GLOBAL DEFAULT 14 _ZN7android3RSC19ScriptIn
223:   FUNC GLOBAL DEFAULT 14 _ZN7android3RSC19ScriptIn
224:   FUNC GLOBAL DEFAULT 14 _ZN7android3RSC19ScriptIn
225:   OBJECT GLOBAL DEFAULT 22 _ZN7android3RSC2RS10gInit
226:   FUNC GLOBAL DEFAULT 14 _ZN7android3RSC19ScriptIn
227:   FUNC GLOBAL DEFAULT 14 _ZN7android3RSC20ScriptIn
228:   FUNC GLOBAL DEFAULT 14 _ZN7android3RSC20ScriptIn
229:   FUNC GLOBAL DEFAULT 14 _ZN7android3RSC19ScriptIn
230:   OBJECT WEAK DEFAULT 18 _ZTVN7android3RSC19Script
231:   OBJECT GLOBAL DEFAULT 22 _ZN7android3RSC2RS12gInit
232:   FUNC GLOBAL DEFAULT 14 _ZN7android3RSC7Element7B
233:   FUNC GLOBAL DEFAULT 14 _ZN7android3RSC4Type7Buil
234:   FUNC GLOBAL DEFAULT 14 _ZN7android3RSC10Allocati
235:   FUNC GLOBAL DEFAULT 14 _ZN7android3RSC10Allocati
236:   FUNC GLOBAL DEFAULT 14 _ZN7android3RSC19ScriptIn
237:   FUNC GLOBAL DEFAULT 14 __aeabi_memclr
238:   FUNC GLOBAL DEFAULT 14 _ZN7android3RSC10Allocati
239:   FUNC GLOBAL DEFAULT 14 _ZN7android3RSC19ScriptIn
240:   FUNC GLOBAL DEFAULT 14 _ZN7android3RSC7Element10
241:   FUNC GLOBAL DEFAULT 14 _ZN7android3RSC7Element2U
242:   FUNC GLOBAL DEFAULT 14 _ZN7android3RSC7Element3U
243:   FUNC GLOBAL DEFAULT 14 _ZN7android3RSC10Allocati
244:   FUNC GLOBAL DEFAULT 14 _ZN7android3RSC7Sampler15
245:   FUNC GLOBAL DEFAULT 14 _ZN7android3RSC7Element3F
246:   FUNC GLOBAL DEFAULT 14 _ZN7android3RSC18ScriptIn
247:   FUNC GLOBAL DEFAULT 14 _ZN7android3RSC19ScriptIn
248:   FUNC GLOBAL DEFAULT 14 _ZN7android3RSC7Element7R
249:   FUNC GLOBAL DEFAULT 14 _ZN7android3RSC24ScriptIn
250:   FUNC GLOBAL DEFAULT 14 _ZN7android3RSC19ScriptIn
251:   OBJECT WEAK DEFAULT 18 _ZTVN7android3RSC6ScriptE
252:   FUNC GLOBAL DEFAULT 14 _ZN7android3RSC20ScriptIn
253:   FUNC GLOBAL DEFAULT 14 _ZN7android3RSC19ScriptIn
254:   FUNC GLOBAL DEFAULT 14 _ZN7android3RSC10Allocati
255:   FUNC GLOBAL DEFAULT 14 _ZN7android3RSC10Allocati
256:   FUNC GLOBAL DEFAULT 14 _ZN7android3RSC20ScriptIn
257:   FUNC GLOBAL DEFAULT 14 _ZN7android3RSC23ScriptIn
258:   FUNC GLOBAL DEFAULT 14 _ZN7android3RSC2RS4initEP
259:   FUNC GLOBAL DEFAULT 14 _ZN7android3RSC10Allocati
260:   FUNC GLOBAL DEFAULT 14 _ZN7android3RSC26ScriptIn
261:   FUNC GLOBAL DEFAULT 14 _ZN7android3RSC19ScriptIn
262:   FUNC GLOBAL DEFAULT 14 _ZN7android3RSC7Sampler8g
263:   FUNC GLOBAL DEFAULT 14 _ZN7android3RSC7Element3I
264:   FUNC GLOBAL DEFAULT 14 _ZN7android3RSC18ScriptIn
265:   FUNC GLOBAL DEFAULT 14 _ZN7android3RSC19ScriptIn
266:   FUNC GLOBAL DEFAULT 14 _ZN7android3RSC19ScriptIn
267:   OBJECT GLOBAL DEFAULT 18 _ZTVN7android3RSC2RSE
268:   FUNC GLOBAL DEFAULT 14 _ZN7android3RSC15ScriptIn
269:   FUNC GLOBAL DEFAULT 14 _ZN7android3RSC20ScriptIn
270:   FUNC GLOBAL DEFAULT 14 _ZN7android3RSC19ScriptIn
271:   FUNC GLOBAL DEFAULT 14 _ZN7android3RSC2RSC2Ev
272:   FUNC GLOBAL DEFAULT 14 _ZN7android3RSC26ScriptIn
273:   FUNC GLOBAL DEFAULT 14 _ZN7android3RSC19ScriptIn
274:   FUNC GLOBAL DEFAULT 14 _ZN7android3RSC7Element5U
275:   FUNC GLOBAL DEFAULT 14 _ZN7android3RSC7Element7E
276:   FUNC GLOBAL DEFAULT 14 _ZN7android3RSC10Allocati
277:   FUNC GLOBAL DEFAULT 14 _ZN7android3RSC21ScriptIn
278:   FUNC GLOBAL DEFAULT 14 _ZN7android3RSC7Element5U
279:   FUNC GLOBAL DEFAULT 14 _ZN7android3RSC7Element5U
280:   FUNC GLOBAL DEFAULT 14 _ZN7android3RSC4Type7Buil
281:   FUNC GLOBAL DEFAULT 14 _ZN7android3RSC20ScriptIn
282:   FUNC GLOBAL DEFAULT 14 _ZN7android3RSC19ScriptIn
283:   FUNC GLOBAL DEFAULT 14 _ZN7android3RSC19ScriptIn
284:   FUNC GLOBAL DEFAULT 14 _ZN7android3RSC19ScriptIn
285:   FUNC GLOBAL DEFAULT 14 _ZN7android3RSC4TypeC2EPv
286:   FUNC GLOBAL DEFAULT 14 _ZN7android3RSC10Allocati
287:   FUNC GLOBAL DEFAULT 14 _ZN7android3RSC19ScriptIn
288:   FUNC GLOBAL DEFAULT 14 _ZN7android3RSC2RS12initD
289:   FUNC GLOBAL DEFAULT 14 _ZN7android3RSC7Element5I
290:   FUNC GLOBAL DEFAULT 14 _ZN7android3RSC19ScriptIn
291:   FUNC GLOBAL DEFAULT 14 _ZN7android3RSC7Sampler33
292:   FUNC GLOBAL DEFAULT 14 _ZN7android3RSC7Element5I
293:   FUNC GLOBAL DEFAULT 14 _ZN7android3RSC7Element5I
294:   FUNC GLOBAL DEFAULT 14 _ZN7android3RSC7Element5U
295:   FUNC GLOBAL DEFAULT 14 _ZN7android3RSC7Element7B
296:   FUNC GLOBAL DEFAULT 14 _ZN7android3RSC26ScriptIn
297:   FUNC GLOBAL DEFAULT 14 _ZN7android12renderscript
298:   FUNC GLOBAL DEFAULT 14 _ZN7android3RSC7BaseObj6e
299:   FUNC GLOBAL DEFAULT 14 _ZN7android3RSC7Element5U
300:   FUNC GLOBAL DEFAULT 14 _ZN7android3RSC2RS15setEr
301:   FUNC GLOBAL DEFAULT 14 _ZN7android3RSC2RSD1Ev
302:   FUNC GLOBAL DEFAULT 14 _ZN7android3RSC19ScriptIn
303:   FUNC GLOBAL DEFAULT 14 _ZN7android3RSC7Sampler11
304:   FUNC GLOBAL DEFAULT 14 _ZN7android3RSC26ScriptIn
305:   FUNC GLOBAL DEFAULT 14 _ZN7android3RSC19ScriptIn
306:   FUNC GLOBAL DEFAULT 14 _ZN7android3RSC19ScriptIn
307:   FUNC GLOBAL DEFAULT 14 _ZN7android3RSC19ScriptIn
308:   FUNC GLOBAL DEFAULT 14 _ZN7android3RSC7Element4U
309:   FUNC GLOBAL DEFAULT 14 _ZN7android3RSC4Type7Buil
310:   FUNC GLOBAL DEFAULT 14 _ZN7android3RSC21ScriptIn
311:   FUNC GLOBAL DEFAULT 14 _ZN7android3RSC7Element3I
312:   FUNC GLOBAL DEFAULT 14 _ZN7android3RSC7Element5I
313:   FUNC GLOBAL DEFAULT 14 _ZN7android3RSC7Element6S
314:   FUNC GLOBAL DEFAULT 14 _ZNK7android3RSC6Script6i
315:   FUNC GLOBAL DEFAULT 14 _ZN7android3RSC18ScriptIn
316:   FUNC GLOBAL DEFAULT 14 _ZN7android3RSC18ScriptIn
317:   FUNC GLOBAL DEFAULT 14 _ZN7android3RSC26ScriptIn
318:   FUNC GLOBAL DEFAULT 14 _ZN7android3RSC18ScriptIn
319:   OBJECT WEAK DEFAULT 18 _ZTVN7android3RSC24Script
320:   FUNC GLOBAL DEFAULT 14 _ZN7android3RSC19ScriptIn
321:   FUNC GLOBAL DEFAULT 14 _ZN7android3RSC10Allocati
322:   OBJECT GLOBAL DEFAULT 18 _ZTVN7android3RSC4TypeE
323:   FUNC GLOBAL DEFAULT 14 _ZN7android3RSC19ScriptIn
324:   FUNC GLOBAL DEFAULT 14 _ZN7android3RSC19ScriptIn
325:   FUNC GLOBAL DEFAULT 14 _ZN7android3RSC7Element7B
326:   OBJECT WEAK DEFAULT 18 _ZTVN7android3RSC20Script
327:   FUNC GLOBAL DEFAULT 14 _ZN7android3RSC19ScriptIn
328:   FUNC GLOBAL DEFAULT 14 _ZN7android3RSC7SamplerC1
329:   FUNC GLOBAL DEFAULT 14 _ZN7android3RSC10Allocati
330:   FUNC GLOBAL DEFAULT 14 _ZN7android3RSC20ScriptIn
331:   FUNC GLOBAL DEFAULT 14 _ZN7android3RSC19ScriptIn
332:   FUNC GLOBAL DEFAULT 14 _ZN7android3RSC7SamplerC2
333:   FUNC GLOBAL DEFAULT 14 _ZN7android3RSC7Element7B
334:   FUNC GLOBAL DEFAULT 14 _ZN7android3RSC4Type7Buil
335:   FUNC GLOBAL DEFAULT 14 _ZN7android3RSC10Allocati
336:   FUNC GLOBAL DEFAULT 14 _ZN7android3RSC2RS17setMe
337:   FUNC GLOBAL DEFAULT 14 _ZN7android3RSC7ElementD1
338:   FUNC GLOBAL DEFAULT 14 _ZN7android3RSC20ScriptIn
339:   FUNC GLOBAL DEFAULT 14 _ZN7android3RSC19ScriptIn
340:   FUNC GLOBAL DEFAULT 14 _ZN7android3RSC19ScriptIn
341:   FUNC GLOBAL DEFAULT 14 _ZN7android3RSC19ScriptIn
342:   FUNC GLOBAL DEFAULT 14 _ZNK7android3RSC7Element1
343:   FUNC GLOBAL DEFAULT 14 _ZN7android3RSC20ScriptIn
344:   FUNC GLOBAL DEFAULT 14 _ZN7android3RSC19ScriptIn
345:   FUNC GLOBAL DEFAULT 14 _ZN7android3RSC19ScriptIn
346:   FUNC GLOBAL DEFAULT 14 _ZN7android3RSC2RS10throw
347:   FUNC GLOBAL DEFAULT 14 _ZN7android3RSC7ScriptCC2
348:   FUNC GLOBAL DEFAULT 14 _ZN7android3RSC7BaseObjD1
349:   FUNC GLOBAL DEFAULT 14 _ZN7android3RSC7Element12
350:   FUNC GLOBAL DEFAULT 14 _ZN7android3RSC7Element17
351:   FUNC GLOBAL DEFAULT 14 _ZN7android3RSC19ScriptIn
352:   FUNC GLOBAL DEFAULT 14 _ZN7android3RSC19ScriptIn
353:   FUNC GLOBAL DEFAULT 14 _ZN7android3RSC7Sampler16
354:   FUNC GLOBAL DEFAULT 14 _Z11loadSymbolsPvR13dispa
355:   FUNC GLOBAL DEFAULT 14 _ZN7android3RSC10Allocati
356:   FUNC GLOBAL DEFAULT 14 _ZN7android3RSC21ScriptIn
357:   FUNC GLOBAL DEFAULT 14 _ZN7android3RSC24ScriptIn
358:   FUNC GLOBAL DEFAULT 14 _ZN7android3RSC26ScriptIn
359:   FUNC GLOBAL DEFAULT 14 __aeabi_memcpy
360:   FUNC GLOBAL DEFAULT 14 _ZN7android3RSC7Element24
361:   FUNC GLOBAL DEFAULT 14 _ZN7android3RSC10Allocati
362:   FUNC GLOBAL DEFAULT 14 _ZN7android3RSC19ScriptIn
363:   FUNC GLOBAL DEFAULT 14 __aeabi_memset
364:   FUNC GLOBAL DEFAULT 14 __aeabi_memclr4
365:   FUNC GLOBAL DEFAULT 14 _ZN7android3RSC18ScriptIn
366:   FUNC GLOBAL DEFAULT 14 _ZN7android3RSC19ScriptIn
367:   FUNC GLOBAL DEFAULT 14 _ZN7android3RSC19ScriptIn
368:   FUNC GLOBAL DEFAULT 14 _ZN7android3RSC19ScriptIn
369:   FUNC GLOBAL DEFAULT 14 _ZN7android3RSC10Allocati
370:   FUNC GLOBAL DEFAULT 14 _ZN7android3RSC10Allocati
371:   FUNC GLOBAL DEFAULT 14 _ZN7android3RSC2RS8getErr
372:   FUNC GLOBAL DEFAULT 14 _ZN7android3RSC7ElementC1
373:   FUNC GLOBAL DEFAULT 14 _ZN7android3RSC20ScriptIn
374:   FUNC GLOBAL DEFAULT 14 _ZN7android3RSC19ScriptIn
375:   FUNC GLOBAL DEFAULT 14 _ZN7android3RSC7Sampler23
376:   FUNC GLOBAL DEFAULT 14 _ZN7android3RSC7Element5F
377:   OBJECT WEAK DEFAULT 18 _ZTVN7android3RSC20Script
378:   FUNC GLOBAL DEFAULT 14 _ZN7android3RSC19ScriptIn
379:   FUNC GLOBAL DEFAULT 14 __aeabi_memclr8
380:   FUNC GLOBAL DEFAULT 14 _ZN7android3RSC19ScriptIn
381:   FUNC GLOBAL DEFAULT 14 _ZN7android3RSC7Sampler6c
382:   FUNC GLOBAL DEFAULT 14 _ZN7android3RSC19ScriptIn
383:   FUNC GLOBAL DEFAULT 14 _ZN7android3RSC19ScriptIn
384:   FUNC GLOBAL DEFAULT 14 _ZN7android12renderscript
385:   FUNC GLOBAL DEFAULT 14 _ZN7android3RSC23ScriptIn
386:   FUNC GLOBAL DEFAULT 14 _ZN7android3RSC7Element5F
387:   FUNC GLOBAL DEFAULT 14 _ZN7android3RSC7Element5F
388:   FUNC GLOBAL DEFAULT 14 _ZN7android3RSC19ScriptIn
389:   FUNC GLOBAL DEFAULT 14 _ZN7android3RSC19ScriptIn
390:   OBJECT WEAK DEFAULT 18 _ZTVN7android3RSC7Sampler
391:   FUNC GLOBAL DEFAULT 14 _ZN7android3RSC7Element5F
392:   FUNC GLOBAL DEFAULT 14 _ZN7android3RSC7Element9R
393:   FUNC GLOBAL DEFAULT 14 _ZN7android3RSC10Allocati
394:   FUNC GLOBAL DEFAULT 14 _ZN7android3RSC7ScriptCC1
395:   FUNC GLOBAL DEFAULT 14 _ZN7android3RSC7Element5F
396:   FUNC GLOBAL DEFAULT 14 _ZN7android3RSC19ScriptIn
397:   FUNC GLOBAL DEFAULT 14 __aeabi_memcpy4
398:   FUNC GLOBAL DEFAULT 14 __aeabi_memset4
399:   FUNC GLOBAL DEFAULT 14 _ZN7android3RSC4Type7Buil
400:   FUNC GLOBAL DEFAULT 14 _ZN7android3RSC10Allocati
401:   FUNC GLOBAL DEFAULT 14 _ZN7android3RSC21ScriptIn
402:   FUNC GLOBAL DEFAULT 14 _ZN7android3RSC26ScriptIn
403:   FUNC GLOBAL DEFAULT 14 _ZN7android3RSC19ScriptIn
404:   FUNC GLOBAL DEFAULT 14 _ZN7android3RSC19ScriptIn
405:   FUNC GLOBAL DEFAULT 14 _ZN7android3RSC7Element4I
406:   OBJECT GLOBAL DEFAULT 18 _ZTVN7android3RSC10Alloca
407:   OBJECT WEAK DEFAULT 18 _ZTVN7android3RSC7ScriptC
408:   FUNC GLOBAL DEFAULT 14 _ZN7android3RSC19ScriptIn
409:   FUNC GLOBAL DEFAULT 14 _ZN7android3RSC19ScriptIn
410:   FUNC GLOBAL DEFAULT 14 _ZN7android3RSC7Element4I
411:   FUNC GLOBAL DEFAULT 14 _ZN7android3RSC20ScriptIn
412:   FUNC GLOBAL DEFAULT 14 _ZN7android3RSC26ScriptIn
413:   FUNC GLOBAL DEFAULT 14 _ZN7android3RSC19ScriptIn
414:   FUNC GLOBAL DEFAULT 14 _ZN7android3RSC19ScriptIn
415:   FUNC GLOBAL DEFAULT 14 _ZN7android3RSC19ScriptIn
416:   FUNC GLOBAL DEFAULT 14 _ZN7android3RSC7ElementC1
417:   FUNC GLOBAL DEFAULT 14 _ZN7android3RSC26ScriptIn
418:   FUNC GLOBAL DEFAULT 14 __aeabi_memcpy8
419:   FUNC GLOBAL DEFAULT 14 __aeabi_memset8
420:   FUNC GLOBAL DEFAULT 14 _ZN7android3RSC4Type7Buil
421:   FUNC GLOBAL DEFAULT 14 _ZN7android3RSC19ScriptIn
422:   FUNC GLOBAL DEFAULT 14 _ZN7android3RSC20ScriptIn
423:   FUNC GLOBAL DEFAULT 14 _ZN7android3RSC20ScriptIn
424:   FUNC GLOBAL DEFAULT 14 _ZN7android3RSC20ScriptIn
425:   FUNC GLOBAL DEFAULT 14 _ZN7android3RSC21ScriptIn
426:   FUNC GLOBAL DEFAULT 14 _ZN7android3RSC19ScriptIn
427:   FUNC GLOBAL DEFAULT 14 _ZN7android3RSC10Allocati
428:   FUNC GLOBAL DEFAULT 14 _ZN7android3RSC15ScriptIn
429:   FUNC GLOBAL DEFAULT 14 _ZN7android3RSC18ScriptIn
430:   FUNC GLOBAL DEFAULT 14 _ZN7android3RSC4Type7Buil
431:   FUNC GLOBAL DEFAULT 14 _ZNK7android3RSC6Script6s
432:   FUNC GLOBAL DEFAULT 14 _ZN7android3RSC18ScriptIn
433:   FUNC GLOBAL DEFAULT 14 _ZN7android3RSC20ScriptIn
434:   OBJECT WEAK DEFAULT 18 _ZTVN7android3RSC26Script
435:   FUNC GLOBAL DEFAULT 14 _ZN7android3RSC19ScriptIn
436:   FUNC GLOBAL DEFAULT 14 _ZN7android3RSC7Sampler22
437:   FUNC GLOBAL DEFAULT 14 _ZN7android3RSC23ScriptIn
438:   FUNC GLOBAL DEFAULT 14 _ZN7android3RSC19ScriptIn
439:   FUNC GLOBAL DEFAULT 14 _ZN7android3RSC7BaseObj16
440:   FUNC GLOBAL DEFAULT 14 _ZN7android3RSC7BaseObj8g
441:   FUNC GLOBAL DEFAULT 14 _ZNK7android3RSC7BaseObj5
442:   FUNC GLOBAL DEFAULT 14 _ZN7android3RSC6Script9Fi
443:   FUNC GLOBAL DEFAULT 14 _ZN7android3RSC26ScriptIn
444:   FUNC GLOBAL DEFAULT 14 _ZN7android12renderscript
445:   FUNC GLOBAL DEFAULT 14 _ZN7android3RSC10Allocati
446:   FUNC GLOBAL DEFAULT 14 _ZN7android3RSC18ScriptIn
447:   FUNC GLOBAL DEFAULT 14 _ZN7android3RSC7Element5U
448:   FUNC GLOBAL DEFAULT 14 _ZN7android3RSC4Type6crea
449:   FUNC GLOBAL DEFAULT 14 _ZN7android3RSC4Type7Buil
450:   FUNC GLOBAL DEFAULT 14 _ZN7android3RSC15ScriptIn
451:   FUNC GLOBAL DEFAULT 14 _ZN7android3RSC24ScriptIn
452:   FUNC GLOBAL DEFAULT 14 _ZN7android3RSC19ScriptIn
453:   FUNC GLOBAL DEFAULT 14 _ZN7android3RSC7Element7R
454:   FUNC GLOBAL DEFAULT 14 _ZN7android3RSC10Allocati
455:   FUNC GLOBAL DEFAULT 14 _ZN7android3RSC24ScriptIn
