 0x000000000000000e (SONAME)             Library soname: [libheif.so]
  
Symbol   contains 125 entries:
Num:   Type Bind Vis Ndx Name
0:   NOTYPE LOCAL DEFAULT UND
1:   FUNC GLOBAL DEFAULT UND __cxa_finalize@LIBC (2)
2:   FUNC GLOBAL DEFAULT UND _ZN7android10IInterfaceD0
3:   FUNC GLOBAL DEFAULT UND _ZN7android10IInterfaceD1
4:   OBJECT GLOBAL DEFAULT UND _ZN7android11IDataSource1
5:   FUNC GLOBAL DEFAULT UND _ZN7android11IDataSourceC
6:   FUNC GLOBAL DEFAULT UND _ZN7android11IDataSourceD
7:   FUNC GLOBAL DEFAULT UND _ZN7android11IDataSourceD
8:   FUNC GLOBAL DEFAULT UND _ZN7android11IDataSourceD
9:   FUNC GLOBAL DEFAULT UND _ZN7android12BnDataSource
10:   FUNC GLOBAL DEFAULT UND _ZN7android12MemoryDealer
11:   FUNC GLOBAL DEFAULT UND _ZN7android14sp_report_ra
12:   FUNC GLOBAL DEFAULT UND _ZN7android22MediaMetadat
13:   FUNC GLOBAL DEFAULT UND _ZN7android22MediaMetadat
14:   FUNC GLOBAL DEFAULT UND _ZN7android22MediaMetadat
15:   FUNC GLOBAL DEFAULT UND _ZN7android22MediaMetadat
16:   FUNC GLOBAL DEFAULT UND _ZN7android22MediaMetadat
17:   FUNC GLOBAL DEFAULT UND _ZN7android22MediaMetadat
18:   FUNC GLOBAL DEFAULT UND _ZN7android6Thread10ready
19:   FUNC GLOBAL DEFAULT UND _ZN7android6Thread11reque
20:   FUNC GLOBAL DEFAULT UND _ZN7android6Thread3runEPK
21:   FUNC GLOBAL DEFAULT UND _ZN7android6Thread4joinEv
22:   FUNC GLOBAL DEFAULT UND _ZN7android6ThreadC2Eb
23:   FUNC GLOBAL DEFAULT UND _ZN7android6ThreadD0Ev
24:   FUNC GLOBAL DEFAULT UND _ZN7android6ThreadD1Ev
25:   FUNC GLOBAL DEFAULT UND _ZN7android6ThreadD2Ev
26:   FUNC GLOBAL DEFAULT UND _ZN7android7BBinder10onTr
27:   FUNC GLOBAL DEFAULT UND _ZN7android7BBinder10ping
28:   FUNC GLOBAL DEFAULT UND _ZN7android7BBinder11link
29:   FUNC GLOBAL DEFAULT UND _ZN7android7BBinder11loca
30:   FUNC GLOBAL DEFAULT UND _ZN7android7BBinder12atta
31:   FUNC GLOBAL DEFAULT UND _ZN7android7BBinder12deta
32:   FUNC GLOBAL DEFAULT UND _ZN7android7BBinder13unli
33:   FUNC GLOBAL DEFAULT UND _ZN7android7BBinder4dumpE
34:   FUNC GLOBAL DEFAULT UND _ZN7android7BBinder8trans
35:   FUNC GLOBAL DEFAULT UND _ZN7android7BBinderC2Ev
36:   FUNC GLOBAL DEFAULT UND _ZN7android7BBinderD0Ev
37:   FUNC GLOBAL DEFAULT UND _ZN7android7BBinderD1Ev
38:   FUNC GLOBAL DEFAULT UND _ZN7android7BBinderD2Ev
39:   FUNC GLOBAL DEFAULT UND _ZN7android7IBinder11loca
40:   FUNC GLOBAL DEFAULT UND _ZN7android7IBinder12remo
41:   FUNC GLOBAL DEFAULT UND _ZN7android7IBinder19quer
42:   FUNC GLOBAL DEFAULT UND _ZN7android7IBinderD0Ev
43:   FUNC GLOBAL DEFAULT UND _ZN7android7IBinderD1Ev
44:   FUNC GLOBAL DEFAULT UND _ZN7android7RefBase10onFi
45:   FUNC GLOBAL DEFAULT UND _ZN7android7RefBase13onLa
46:   FUNC GLOBAL DEFAULT UND _ZN7android7RefBase15onLa
47:   FUNC GLOBAL DEFAULT UND _ZN7android7RefBase20onIn
48:   FUNC GLOBAL DEFAULT UND _ZN7android7RefBaseC2Ev
49:   FUNC GLOBAL DEFAULT UND _ZN7android7RefBaseD2Ev
50:   FUNC GLOBAL DEFAULT UND _ZN7android7String8C1EPKc
51:   FUNC GLOBAL DEFAULT UND _ZNK7android11IDataSource
52:   FUNC GLOBAL DEFAULT UND _ZNK7android7BBinder10fin
53:   FUNC GLOBAL DEFAULT UND _ZNK7android7BBinder13isB
54:   FUNC GLOBAL DEFAULT UND _ZNK7android7BBinder22get
55:   FUNC GLOBAL DEFAULT UND _ZNK7android7IBinder13che
56:   FUNC GLOBAL DEFAULT UND _ZNK7android7IMemory4size
57:   FUNC GLOBAL DEFAULT UND _ZNK7android7IMemory7poin
58:   FUNC GLOBAL DEFAULT UND _ZNK7android7RefBase9decS
59:   FUNC GLOBAL DEFAULT UND _ZNK7android7RefBase9incS
60:   FUNC GLOBAL DEFAULT UND _ZNK7android8String164siz
61:   FUNC GLOBAL DEFAULT UND _ZThn8_N7android12BnDataS
62:   FUNC GLOBAL DEFAULT UND _ZTv0_n24_N7android10IInt
63:   FUNC GLOBAL DEFAULT UND _ZTv0_n24_N7android10IInt
64:   FUNC GLOBAL DEFAULT UND _ZTv0_n24_N7android11IDat
65:   FUNC GLOBAL DEFAULT UND _ZTv0_n24_N7android11IDat
66:   FUNC GLOBAL DEFAULT UND _ZTv0_n24_N7android6Threa
67:   FUNC GLOBAL DEFAULT UND _ZTv0_n24_N7android6Threa
68:   FUNC GLOBAL DEFAULT UND _ZTv0_n24_N7android7BBind
69:   FUNC GLOBAL DEFAULT UND _ZTv0_n24_N7android7BBind
70:   FUNC GLOBAL DEFAULT UND _ZTv0_n24_N7android7IBind
71:   FUNC GLOBAL DEFAULT UND _ZTv0_n24_N7android7IBind
72:   FUNC GLOBAL DEFAULT UND _ZdaPv
73:   FUNC GLOBAL DEFAULT UND _ZdlPv
74:   FUNC GLOBAL DEFAULT UND _Znam
75:   FUNC GLOBAL DEFAULT UND _Znwm
76:   FUNC GLOBAL DEFAULT UND __android_log_assert@LIBLOG (3)
77:   FUNC GLOBAL DEFAULT UND __android_log_print@LIBLOG (3)
78:   FUNC GLOBAL DEFAULT UND __cxa_pure_virtual
79:   FUNC GLOBAL DEFAULT UND __stack_chk_fail@LIBC (2)
80:   FUNC GLOBAL DEFAULT UND memcpy@LIBC (2)
81:   FUNC GLOBAL DEFAULT UND pthread_cond_destroy@LIBC (2)
82:   FUNC GLOBAL DEFAULT UND pthread_cond_init@LIBC (2)
83:   FUNC GLOBAL DEFAULT UND pthread_cond_signal@LIBC (2)
84:   FUNC GLOBAL DEFAULT UND pthread_cond_wait@LIBC (2)
85:   FUNC GLOBAL DEFAULT UND pthread_condattr_destroy@LIBC (2)
86:   FUNC GLOBAL DEFAULT UND pthread_condattr_init@LIBC (2)
87:   FUNC GLOBAL DEFAULT UND pthread_condattr_setclock@LIBC (2)
88:   FUNC GLOBAL DEFAULT UND pthread_mutex_destroy@LIBC (2)
89:   FUNC GLOBAL DEFAULT UND pthread_mutex_init@LIBC (2)
90:   FUNC GLOBAL DEFAULT UND pthread_mutex_lock@LIBC (2)
91:   FUNC GLOBAL DEFAULT UND pthread_mutex_unlock@LIBC (2)
92:   FUNC GLOBAL DEFAULT UND strcasecmp@LIBC (2)
93:   FUNC GLOBAL DEFAULT UND strzcmp16
94:   FUNC GLOBAL DEFAULT 14 _ZN7android15HeifDecoderI
95:   FUNC GLOBAL DEFAULT 14 _ZN7android15HeifDecoderI
96:   FUNC GLOBAL DEFAULT 14 _ZN7android15HeifDecoderI
97:   OBJECT GLOBAL DEFAULT 18 _ZTCN7android14HeifDataSo
98:   FUNC GLOBAL DEFAULT 14 _Z17createHeifDecoderv
99:   FUNC WEAK DEFAULT 14 _ZN7android11BnInterfaceI
100:   FUNC GLOBAL DEFAULT 14 _ZN7android14HeifDataSour
101:   FUNC GLOBAL DEFAULT 14 _ZN7android15HeifDecoderI
102:   OBJECT GLOBAL DEFAULT 18 _ZTTN7android15HeifDecode
103:   FUNC GLOBAL DEFAULT 14 _ZN7android15HeifDecoderI
104:   FUNC GLOBAL DEFAULT 14 _ZNK7android15HeifDecoder
105:   FUNC GLOBAL DEFAULT 14 _ZN7android14HeifDataSour
106:   FUNC GLOBAL DEFAULT 14 _ZN7android15HeifDecoderI
107:   OBJECT GLOBAL DEFAULT 18 _ZTCN7android14HeifDataSo
108:   OBJECT GLOBAL DEFAULT 18 _ZTTN7android14HeifDataSo
109:   FUNC GLOBAL DEFAULT 14 _ZN7android14HeifDataSour
110:   FUNC GLOBAL DEFAULT 14 _ZN7android15HeifDecoderI
111:   FUNC GLOBAL DEFAULT 14 _ZN7android15HeifDecoderI
112:   OBJECT GLOBAL DEFAULT 18 _ZTVN7android15HeifDecode
113:   FUNC GLOBAL DEFAULT 14 _ZN7android15HeifDecoderI
114:   FUNC GLOBAL DEFAULT 14 _ZN7android15HeifDecoderI
115:   FUNC GLOBAL DEFAULT 14 _ZN7android15HeifDecoderI
116:   OBJECT GLOBAL DEFAULT 18 _ZTCN7android14HeifDataSo
117:   OBJECT GLOBAL DEFAULT 18 _ZTCN7android14HeifDataSo
118:   OBJECT GLOBAL DEFAULT 18 _ZTVN7android15HeifDecode
119:   FUNC GLOBAL DEFAULT 14 _ZN7android15HeifDecoderI
120:   FUNC GLOBAL DEFAULT 14 _ZN7android15HeifDecoderI
121:   OBJECT GLOBAL DEFAULT 18 _ZTCN7android14HeifDataSo
122:   OBJECT GLOBAL DEFAULT 18 _ZTCN7android14HeifDataSo
123:   OBJECT GLOBAL DEFAULT 18 _ZTCN7android15HeifDecode
124:   OBJECT GLOBAL DEFAULT 18 _ZTVN7android14HeifDataSo
