 0x000000000000000e (SONAME)             Library soname: [android.frameworks.schedulerservice@1.0.so]
  
Symbol   contains 228 entries:
Num:   Type Bind Vis Ndx Name
0:   NOTYPE LOCAL DEFAULT UND
1:   FUNC GLOBAL DEFAULT UND __cxa_finalize@LIBC (2)
2:   FUNC GLOBAL DEFAULT UND _ZN7android14sp_report_ra
3:   FUNC GLOBAL DEFAULT UND _ZN7android21report_syspr
4:   OBJECT GLOBAL DEFAULT UND _ZN7android4hidl4base4V1_
5:   FUNC GLOBAL DEFAULT UND _ZN7android4hidl4base4V1_
6:   FUNC GLOBAL DEFAULT UND _ZN7android4hidl4base4V1_
7:   FUNC GLOBAL DEFAULT UND _ZN7android4hidl4base4V1_
8:   FUNC GLOBAL DEFAULT UND _ZN7android4hidl4base4V1_
9:   FUNC GLOBAL DEFAULT UND _ZN7android4hidl4base4V1_
10:   FUNC GLOBAL DEFAULT UND _ZN7android4hidl4base4V1_
11:   FUNC GLOBAL DEFAULT UND _ZN7android4hidl4base4V1_
12:   FUNC GLOBAL DEFAULT UND _ZN7android4hidl4base4V1_
13:   FUNC GLOBAL DEFAULT UND _ZN7android4hidl4base4V1_
14:   FUNC GLOBAL DEFAULT UND _ZN7android4hidl4base4V1_
15:   FUNC GLOBAL DEFAULT UND _ZN7android4hidl4base4V1_
16:   FUNC GLOBAL DEFAULT UND _ZN7android4hidl4base4V1_
17:   FUNC GLOBAL DEFAULT UND _ZN7android4hidl4base4V1_
18:   FUNC GLOBAL DEFAULT UND _ZN7android4hidl4base4V1_
19:   FUNC GLOBAL DEFAULT UND _ZN7android4hidl4base4V1_
20:   FUNC GLOBAL DEFAULT UND _ZN7android4hidl4base4V1_
21:   FUNC GLOBAL DEFAULT UND _ZN7android4hidl4base4V1_
22:   FUNC GLOBAL DEFAULT UND _ZN7android4hidl4base4V1_
23:   FUNC GLOBAL DEFAULT UND _ZN7android4hidl4base4V1_
24:   FUNC GLOBAL DEFAULT UND _ZN7android4hidl4base4V1_
25:   FUNC GLOBAL DEFAULT UND _ZN7android4hidl4base4V1_
26:   FUNC GLOBAL DEFAULT UND _ZN7android4hidl4base4V1_
27:   FUNC GLOBAL DEFAULT UND _ZN7android4hidl4base4V1_
28:   FUNC GLOBAL DEFAULT UND _ZN7android7RefBase10onFi
29:   FUNC GLOBAL DEFAULT UND _ZN7android7RefBase12weak
30:   FUNC GLOBAL DEFAULT UND _ZN7android7RefBase13onLa
31:   FUNC GLOBAL DEFAULT UND _ZN7android7RefBase15onLa
32:   FUNC GLOBAL DEFAULT UND _ZN7android7RefBase20onIn
33:   FUNC GLOBAL DEFAULT UND _ZN7android7RefBaseC2Ev
34:   FUNC GLOBAL DEFAULT UND _ZN7android7RefBaseD2Ev
35:   FUNC GLOBAL DEFAULT UND _ZN7android8hardware10IIn
36:   FUNC GLOBAL DEFAULT UND _ZN7android8hardware10IIn
37:   FUNC GLOBAL DEFAULT UND _ZN7android8hardware10IIn
38:   FUNC GLOBAL DEFAULT UND _ZN7android8hardware10IIn
39:   FUNC GLOBAL DEFAULT UND _ZN7android8hardware10IIn
40:   FUNC GLOBAL DEFAULT UND _ZN7android8hardware11BpH
41:   FUNC GLOBAL DEFAULT UND _ZN7android8hardware11BpH
42:   FUNC GLOBAL DEFAULT UND _ZN7android8hardware11BpH
43:   FUNC GLOBAL DEFAULT UND _ZN7android8hardware11BpH
44:   FUNC GLOBAL DEFAULT UND _ZN7android8hardware11BpH
45:   FUNC GLOBAL DEFAULT UND _ZN7android8hardware11BpH
46:   FUNC GLOBAL DEFAULT UND _ZN7android8hardware11BpH
47:   FUNC GLOBAL DEFAULT UND _ZN7android8hardware11hid
48:   FUNC GLOBAL DEFAULT UND _ZN7android8hardware11hid
49:   FUNC GLOBAL DEFAULT UND _ZN7android8hardware11hid
50:   FUNC GLOBAL DEFAULT UND _ZN7android8hardware11hid
51:   FUNC GLOBAL DEFAULT UND _ZN7android8hardware11hid
52:   FUNC GLOBAL DEFAULT UND _ZN7android8hardware12Pro
53:   FUNC GLOBAL DEFAULT UND _ZN7android8hardware12Pro
54:   FUNC GLOBAL DEFAULT UND _ZN7android8hardware13wri
55:   FUNC GLOBAL DEFAULT UND _ZN7android8hardware14rea
56:   FUNC GLOBAL DEFAULT UND _ZN7android8hardware21def
57:   FUNC GLOBAL DEFAULT UND _ZN7android8hardware23get
58:   FUNC GLOBAL DEFAULT UND _ZN7android8hardware27hid
59:   FUNC GLOBAL DEFAULT UND _ZN7android8hardware27hid
60:   FUNC GLOBAL DEFAULT UND _ZN7android8hardware6Parc
61:   FUNC GLOBAL DEFAULT UND _ZN7android8hardware6Parc
62:   FUNC GLOBAL DEFAULT UND _ZN7android8hardware6Parc
63:   FUNC GLOBAL DEFAULT UND _ZN7android8hardware6Parc
64:   FUNC GLOBAL DEFAULT UND _ZN7android8hardware6Parc
65:   FUNC GLOBAL DEFAULT UND _ZN7android8hardware6Stat
66:   FUNC GLOBAL DEFAULT UND _ZN7android8hardware6Stat
67:   FUNC GLOBAL DEFAULT UND _ZN7android8hardware6Stat
68:   FUNC GLOBAL DEFAULT UND _ZN7android8hardware6Stat
69:   FUNC GLOBAL DEFAULT UND _ZN7android8hardware7IBin
70:   FUNC GLOBAL DEFAULT UND _ZN7android8hardware7IBin
71:   FUNC GLOBAL DEFAULT UND _ZN7android8hardware7IBin
72:   FUNC GLOBAL DEFAULT UND _ZN7android8hardware7IBin
73:   FUNC GLOBAL DEFAULT UND _ZN7android8hardware7deta
74:   FUNC GLOBAL DEFAULT UND _ZN7android8hardware7deta
75:   FUNC GLOBAL DEFAULT UND _ZN7android8hardware7deta
76:   FUNC GLOBAL DEFAULT UND _ZN7android8hardware7deta
77:   FUNC GLOBAL DEFAULT UND _ZN7android8hardware7deta
78:   FUNC GLOBAL DEFAULT UND _ZN7android8hardware7deta
79:   FUNC GLOBAL DEFAULT UND _ZN7android8hardware7deta
80:   OBJECT GLOBAL DEFAULT UND _ZN7android8hardware7deta
81:   FUNC GLOBAL DEFAULT UND _ZN7android8hardware7deta
82:   OBJECT GLOBAL DEFAULT UND _ZN7android8hardware7deta
83:   FUNC GLOBAL DEFAULT UND _ZN7android8hardware7deta
84:   FUNC GLOBAL DEFAULT UND _ZN7android8hardware7deta
85:   FUNC GLOBAL DEFAULT UND _ZN7android8hardware7deta
86:   FUNC GLOBAL DEFAULT UND _ZN7android8hardware7deta
87:   FUNC GLOBAL DEFAULT UND _ZN7android8hardware7deta
88:   FUNC GLOBAL DEFAULT UND _ZN7android8hardware7deta
89:   FUNC GLOBAL DEFAULT UND _ZN7android8hardware7deta
90:   FUNC GLOBAL DEFAULT UND _ZN7android8hardware7deta
91:   FUNC GLOBAL DEFAULT UND _ZN7android8hardware7deta
92:   OBJECT GLOBAL DEFAULT UND _ZN7android8hardware7deta
93:   FUNC GLOBAL DEFAULT UND _ZN7android8hardware9BHwB
94:   FUNC GLOBAL DEFAULT UND _ZN7android8hardware9BHwB
95:   FUNC GLOBAL DEFAULT UND _ZN7android8hardware9BHwB
96:   FUNC GLOBAL DEFAULT UND _ZN7android8hardware9BHwB
97:   FUNC GLOBAL DEFAULT UND _ZN7android8hardware9BHwB
98:   FUNC GLOBAL DEFAULT UND _ZN7android8hardware9BHwB
99:   FUNC GLOBAL DEFAULT UND _ZN7android8hardware9BHwB
100:   FUNC GLOBAL DEFAULT UND _ZN7android8hardware9BHwB
101:   FUNC GLOBAL DEFAULT UND _ZN7android8hardware9BHwB
102:   FUNC GLOBAL DEFAULT UND _ZN7android8hardware9BHwB
103:   FUNC GLOBAL DEFAULT UND _ZNK7android7RefBase10cre
104:   FUNC GLOBAL DEFAULT UND _ZNK7android7RefBase11get
105:   FUNC GLOBAL DEFAULT UND _ZNK7android7RefBase9decS
106:   FUNC GLOBAL DEFAULT UND _ZNK7android7RefBase9incS
107:   FUNC GLOBAL DEFAULT UND _ZNK7android8hardware6Par
108:   FUNC GLOBAL DEFAULT UND _ZNK7android8hardware6Par
109:   FUNC GLOBAL DEFAULT UND _ZNK7android8hardware6Par
110:   FUNC GLOBAL DEFAULT UND _ZNK7android8hardware7IBi
111:   FUNC GLOBAL DEFAULT UND _ZNK7android8hardware7det
112:   FUNC GLOBAL DEFAULT UND _ZNK7android8hardware9BHw
113:   FUNC GLOBAL DEFAULT UND _ZNKSt3__120__vector_base
114:   FUNC GLOBAL DEFAULT UND _ZNKSt3__121__basic_strin
115:   FUNC GLOBAL DEFAULT UND _ZNSt3__112basic_stringIc
116:   FUNC GLOBAL DEFAULT UND _ZNSt3__15mutex4lockEv
117:   FUNC GLOBAL DEFAULT UND _ZNSt3__15mutex6unlockEv
118:   FUNC GLOBAL DEFAULT UND _ZNSt3__15mutexD1Ev
119:   FUNC GLOBAL DEFAULT UND _ZTv0_n24_N7android4hidl4
120:   FUNC GLOBAL DEFAULT UND _ZTv0_n24_N7android4hidl4
121:   FUNC GLOBAL DEFAULT UND _ZTv0_n24_N7android8hardw
122:   FUNC GLOBAL DEFAULT UND _ZTv0_n24_N7android8hardw
123:   FUNC GLOBAL DEFAULT UND _ZTv0_n24_N7android8hardw
124:   FUNC GLOBAL DEFAULT UND _ZTv0_n24_N7android8hardw
125:   FUNC GLOBAL DEFAULT UND _ZTv0_n24_N7android8hardw
126:   FUNC GLOBAL DEFAULT UND _ZTv0_n24_N7android8hardw
127:   FUNC GLOBAL DEFAULT UND _ZTv0_n24_N7android8hardw
128:   FUNC GLOBAL DEFAULT UND _ZTv0_n24_N7android8hardw
129:   FUNC GLOBAL DEFAULT UND _ZTv0_n32_N7android8hardw
130:   FUNC GLOBAL DEFAULT UND _ZTv0_n40_N7android8hardw
131:   FUNC GLOBAL DEFAULT UND _ZTv0_n48_N7android8hardw
132:   FUNC GLOBAL DEFAULT UND _ZdaPv
133:   FUNC GLOBAL DEFAULT UND _ZdlPv
134:   FUNC GLOBAL DEFAULT UND _Znam
135:   FUNC GLOBAL DEFAULT UND _Znwm
136:   FUNC GLOBAL DEFAULT UND __cxa_pure_virtual
137:   FUNC GLOBAL DEFAULT UND __stack_chk_fail@LIBC (2)
138:   FUNC GLOBAL DEFAULT UND abort@LIBC (2)
139:   FUNC GLOBAL DEFAULT UND atrace_begin_body
140:   OBJECT GLOBAL DEFAULT UND atrace_enabled_tags
141:   FUNC GLOBAL DEFAULT UND atrace_end_body
142:   OBJECT GLOBAL DEFAULT UND atrace_is_ready
143:   FUNC GLOBAL DEFAULT UND atrace_setup
144:   FUNC GLOBAL DEFAULT UND memcmp@LIBC (2)
145:   FUNC GLOBAL DEFAULT UND memcpy@LIBC (2)
146:   FUNC GLOBAL DEFAULT UND memset@LIBC (2)
147:   FUNC GLOBAL DEFAULT UND strlen@LIBC (2)
148:   FUNC GLOBAL DEFAULT 14 _ZN7android10frameworks16
149:   FUNC WEAK DEFAULT 14 _ZNSt3__16__treeINS_12__v
150:   OBJECT GLOBAL DEFAULT 18 _ZTCN7android10frameworks
151:   OBJECT GLOBAL DEFAULT 18 _ZTVN7android10frameworks
152:   FUNC GLOBAL DEFAULT 14 _ZN7android10frameworks16
153:   FUNC GLOBAL DEFAULT 14 _ZN7android10frameworks16
154:   FUNC GLOBAL DEFAULT 14 _ZN7android10frameworks16
155:   FUNC GLOBAL DEFAULT 14 _ZN7android10frameworks16
156:   FUNC WEAK DEFAULT 14 _ZNSt3__16__treeINS_12__v
157:   FUNC GLOBAL DEFAULT 14 _ZN7android10frameworks16
158:   FUNC GLOBAL DEFAULT 14 _ZN7android10frameworks16
159:   FUNC WEAK DEFAULT 14 _ZN7android8hardware7deta
160:   FUNC WEAK DEFAULT 14 _ZNSt3__127__tree_balance
161:   FUNC WEAK DEFAULT 14 _ZNSt3__16__treeINS_12__v
162:   OBJECT WEAK DEFAULT 18 _ZTCN7android10frameworks
163:   OBJECT GLOBAL DEFAULT 18 _ZTCN7android10frameworks
164:   OBJECT GLOBAL DEFAULT 18 _ZTTN7android10frameworks
165:   FUNC GLOBAL DEFAULT 14 _ZN7android10frameworks16
166:   FUNC GLOBAL DEFAULT 14 _ZN7android10frameworks16
167:   FUNC GLOBAL DEFAULT 14 _ZN7android10frameworks16
168:   FUNC GLOBAL DEFAULT 14 _ZN7android10frameworks16
169:   FUNC GLOBAL DEFAULT 14 _ZN7android10frameworks16
170:   FUNC GLOBAL DEFAULT 14 _ZThn32_N7android10framew
171:   FUNC GLOBAL DEFAULT 14 _ZN7android10frameworks16
172:   FUNC GLOBAL DEFAULT 14 _ZN7android10frameworks16
173:   FUNC GLOBAL DEFAULT 14 _ZN7android10frameworks16
174:   FUNC GLOBAL DEFAULT 14 _ZN7android10frameworks16
175:   FUNC WEAK DEFAULT 14 _ZNSt3__16__treeINS_12__v
176:   FUNC WEAK DEFAULT 14 _ZNSt3__16vectorIN7androi
177:   OBJECT GLOBAL DEFAULT 18 _ZTTN7android10frameworks
178:   OBJECT GLOBAL DEFAULT 18 _ZTVN7android10frameworks
179:   OBJECT GLOBAL DEFAULT 18 _ZTCN7android10frameworks
180:   FUNC GLOBAL DEFAULT 14 _ZTv0_n24_N7android10fram
181:   FUNC GLOBAL DEFAULT 14 _ZN7android10frameworks16
182:   FUNC GLOBAL DEFAULT 14 _ZN7android10frameworks16
183:   FUNC GLOBAL DEFAULT 14 _ZN7android10frameworks16
184:   FUNC GLOBAL DEFAULT 14 _ZN7android10frameworks16
185:   FUNC GLOBAL DEFAULT 14 _ZN7android10frameworks16
186:   FUNC WEAK DEFAULT 14 _ZNSt3__16vectorINS_8func
187:   FUNC GLOBAL DEFAULT 14 _ZN7android10frameworks16
188:   FUNC GLOBAL DEFAULT 14 _ZN7android10frameworks16
189:   FUNC GLOBAL DEFAULT 14 _ZN7android10frameworks16
190:   FUNC GLOBAL DEFAULT 14 _ZN7android10frameworks16
191:   FUNC GLOBAL DEFAULT 14 _ZN7android10frameworks16
192:   OBJECT WEAK DEFAULT 18 _ZTVN7android10frameworks
193:   OBJECT GLOBAL DEFAULT 16 _ZN7android10frameworks16
194:   FUNC GLOBAL DEFAULT 14 _ZN7android10frameworks16
195:   FUNC GLOBAL DEFAULT 14 _ZN7android10frameworks16
196:   FUNC GLOBAL DEFAULT 14 _ZN7android10frameworks16
197:   FUNC WEAK DEFAULT 14 _ZNSt3__16__treeINS_12__v
198:   OBJECT GLOBAL DEFAULT 18 _ZTVN7android10frameworks
199:   FUNC GLOBAL DEFAULT 14 _ZN7android10frameworks16
200:   FUNC GLOBAL DEFAULT 14 _ZN7android10frameworks16
201:   FUNC WEAK DEFAULT 14 _ZNSt3__113__tree_removeI
202:   FUNC WEAK DEFAULT 14 _ZNSt3__16__treeINS_12__v
203:   OBJECT GLOBAL DEFAULT 18 _ZTCN7android10frameworks
204:   OBJECT GLOBAL DEFAULT 18 _ZTCN7android10frameworks
205:   FUNC GLOBAL DEFAULT 14 _ZThn32_N7android10framew
206:   FUNC GLOBAL DEFAULT 14 _ZN7android10frameworks16
207:   FUNC GLOBAL DEFAULT 14 _ZN7android10frameworks16
208:   FUNC GLOBAL DEFAULT 14 _ZN7android10frameworks16
209:   FUNC WEAK DEFAULT 14 _ZNSt3__16vectorIPvNS_9al
210:   FUNC GLOBAL DEFAULT 14 _ZN7android10frameworks16
211:   FUNC GLOBAL DEFAULT 14 _ZN7android10frameworks16
212:   OBJECT GLOBAL DEFAULT 18 _ZTCN7android10frameworks
213:   OBJECT GLOBAL DEFAULT 18 _ZTTN7android10frameworks
214:   FUNC GLOBAL DEFAULT 14 _ZN7android10frameworks16
215:   OBJECT GLOBAL DEFAULT 18 _ZTCN7android10frameworks
216:   FUNC GLOBAL DEFAULT 14 _ZN7android10frameworks16
217:   FUNC GLOBAL DEFAULT 14 _ZN7android10frameworks16
218:   FUNC WEAK DEFAULT 14 _ZN7android8hardware7deta
219:   OBJECT GLOBAL DEFAULT 18 _ZTCN7android10frameworks
220:   FUNC GLOBAL DEFAULT 14 _ZTv0_n24_N7android10fram
221:   FUNC GLOBAL DEFAULT 14 _ZN7android10frameworks16
222:   FUNC GLOBAL DEFAULT 14 _ZN7android10frameworks16
223:   FUNC GLOBAL DEFAULT 14 _ZN7android10frameworks16
224:   OBJECT GLOBAL DEFAULT 18 _ZTCN7android10frameworks
225:   FUNC GLOBAL DEFAULT 14 _ZN7android10frameworks16
226:   FUNC GLOBAL DEFAULT 14 _ZN7android10frameworks16
227:   FUNC GLOBAL DEFAULT 14 _ZN7android10frameworks16
