 0x0000000e (SONAME)                     Library soname: [libsigchain.so]
  
Symbol   contains 48 entries:
Num:   Type Bind Vis Ndx Name
0:   NOTYPE LOCAL DEFAULT UND
1:   FUNC GLOBAL DEFAULT UND __cxa_finalize@LIBC (2)
2:   FUNC GLOBAL DEFAULT UND abort@LIBC (2)
3:   FUNC GLOBAL DEFAULT UND __assert@LIBC (2)
4:   FUNC GLOBAL DEFAULT UND __errno@LIBC (2)
5:   FUNC GLOBAL DEFAULT UND __memcpy_chk@LIBC (2)
6:   FUNC GLOBAL DEFAULT UND __stack_chk_fail@LIBC (2)
7:   OBJECT GLOBAL DEFAULT UND __stack_chk_guard@LIBC (2)
8:   FUNC GLOBAL DEFAULT UND __strlcpy_chk@LIBC (2)
9:   FUNC GLOBAL DEFAULT UND __strlen_chk@LIBC (2)
10:   FUNC GLOBAL DEFAULT UND android_set_abort_message@LIBC (2)
11:   FUNC GLOBAL DEFAULT UND clock_gettime@LIBC (2)
12:   FUNC GLOBAL DEFAULT UND connect@LIBC (2)
13:   FUNC GLOBAL DEFAULT UND gettid@LIBC (2)
14:   FUNC GLOBAL DEFAULT UND socket@LIBC (2)
15:   FUNC GLOBAL DEFAULT UND strlen@LIBC (2)
16:   FUNC GLOBAL DEFAULT UND syscall@LIBC (2)
17:   FUNC GLOBAL DEFAULT UND write@LIBC (2)
18:   FUNC GLOBAL DEFAULT UND writev@LIBC (2)
19:   FUNC GLOBAL DEFAULT UND memcpy@LIBC (2)
20:   FUNC GLOBAL DEFAULT UND memset@LIBC (2)
21:   FUNC GLOBAL DEFAULT 14 async_safe_format_log
22:   FUNC GLOBAL DEFAULT 14 async_safe_format_buffer
23:   FUNC GLOBAL DEFAULT 14 async_safe_format_fd
24:   FUNC GLOBAL DEFAULT 14 __aeabi_memclr8
25:   FUNC GLOBAL DEFAULT 14 async_safe_fatal_no_abort
26:   FUNC GLOBAL DEFAULT 14 __udivmodsi4
27:   FUNC GLOBAL DEFAULT 14 __aeabi_uidiv
28:   FUNC GLOBAL DEFAULT 14 __aeabi_memset
29:   FUNC GLOBAL PROTECTED 14 EnsureFrontOfChain
30:   FUNC GLOBAL DEFAULT 14 __aeabi_memclr
31:   FUNC GLOBAL DEFAULT 14 __aeabi_memclr4
32:   FUNC GLOBAL PROTECTED 14 AddSpecialSignalHandlerFn
33:   FUNC GLOBAL DEFAULT 14 __aeabi_memcpy
34:   FUNC GLOBAL DEFAULT 14 async_safe_fatal_va_list
35:   FUNC GLOBAL DEFAULT 14 async_safe_format_buffer_
36:   FUNC GLOBAL DEFAULT 14 __aeabi_memcpy8
37:   FUNC GLOBAL DEFAULT 14 __aeabi_memset8
38:   FUNC GLOBAL PROTECTED 14 RemoveSpecialSignalHandle
39:   FUNC GLOBAL DEFAULT 14 __aeabi_uldivmod
40:   FUNC GLOBAL DEFAULT 14 async_safe_write_log
41:   FUNC GLOBAL DEFAULT 14 __udivsi3
42:   FUNC GLOBAL DEFAULT 14 __udivmoddi4
43:   FUNC GLOBAL DEFAULT 14 async_safe_format_fd_va_l
44:   FUNC GLOBAL DEFAULT 14 async_safe_format_log_va_
45:   FUNC GLOBAL DEFAULT 14 __aeabi_memcpy4
46:   FUNC GLOBAL DEFAULT 14 __aeabi_memset4
47:   FUNC GLOBAL DEFAULT 14 __aeabi_uidivmod
