 0x0000000e (SONAME)                     Library soname: [libkeymaster4support.so]
  
Symbol   contains 301 entries:
Num:   Type Bind Vis Ndx Name
0:   NOTYPE LOCAL DEFAULT UND
1:   FUNC GLOBAL DEFAULT UND __cxa_finalize@LIBC (2)
2:   OBJECT GLOBAL DEFAULT UND ASN1_BOOLEAN_it
3:   FUNC GLOBAL DEFAULT UND ASN1_ENUMERATED_get
4:   OBJECT GLOBAL DEFAULT UND ASN1_ENUMERATED_it
5:   FUNC GLOBAL DEFAULT UND ASN1_INTEGER_get
6:   OBJECT GLOBAL DEFAULT UND ASN1_INTEGER_it
7:   FUNC GLOBAL DEFAULT UND ASN1_INTEGER_to_BN
8:   OBJECT GLOBAL DEFAULT UND ASN1_NULL_it
9:   OBJECT GLOBAL DEFAULT UND ASN1_OCTET_STRING_it
10:   FUNC GLOBAL DEFAULT UND ASN1_item_d2i
11:   FUNC GLOBAL DEFAULT UND ASN1_item_free
12:   FUNC GLOBAL DEFAULT UND ASN1_item_i2d
13:   FUNC GLOBAL DEFAULT UND ASN1_item_new
14:   FUNC GLOBAL DEFAULT UND BN_CTX_free
15:   FUNC GLOBAL DEFAULT UND BN_CTX_new
16:   FUNC GLOBAL DEFAULT UND BN_div
17:   FUNC GLOBAL DEFAULT UND BN_free
18:   FUNC GLOBAL DEFAULT UND BN_get_word
19:   FUNC GLOBAL DEFAULT UND BN_lshift
20:   FUNC GLOBAL DEFAULT UND BN_new
21:   FUNC GLOBAL DEFAULT UND BN_one
22:   FUNC GLOBAL DEFAULT UND _ZN7android4base10LogMess
23:   FUNC GLOBAL DEFAULT UND _ZN7android4base10LogMess
24:   FUNC GLOBAL DEFAULT UND _ZN7android4base10LogMess
25:   FUNC GLOBAL DEFAULT UND _ZN7android4base21GetMini
26:   FUNC GLOBAL DEFAULT UND _ZNKSt3__120__vector_base
27:   FUNC GLOBAL DEFAULT UND _ZNKSt3__16locale9use_fac
28:   FUNC GLOBAL DEFAULT UND _ZNKSt3__18ios_base6getlo
29:   FUNC GLOBAL DEFAULT UND _ZNSt3__113basic_ostreamI
30:   FUNC GLOBAL DEFAULT UND _ZNSt3__113basic_ostreamI
31:   FUNC GLOBAL DEFAULT UND _ZNSt3__113basic_ostreamI
32:   OBJECT GLOBAL DEFAULT UND _ZNSt3__15ctypeIcE2idE
33:   FUNC GLOBAL DEFAULT UND _ZNSt3__16localeD1Ev
34:   FUNC GLOBAL DEFAULT UND _ZNSt3__18ios_base5clearE
35:   FUNC GLOBAL DEFAULT UND _ZdaPv
36:   FUNC GLOBAL DEFAULT UND _ZdlPv
37:   FUNC GLOBAL DEFAULT UND _Znaj
38:   FUNC GLOBAL DEFAULT UND _Znwj
39:   FUNC GLOBAL DEFAULT UND __errno@LIBC (2)
40:   FUNC GLOBAL DEFAULT UND __stack_chk_fail@LIBC (2)
41:   OBJECT GLOBAL DEFAULT UND __stack_chk_guard@LIBC (2)
42:   FUNC GLOBAL DEFAULT UND abort@LIBC (2)
43:   FUNC GLOBAL DEFAULT UND sk_num
44:   FUNC GLOBAL DEFAULT UND sk_value
45:   FUNC GLOBAL DEFAULT UND _ZNKSt3__121__basic_strin
46:   FUNC GLOBAL DEFAULT UND _ZNSt3__112basic_stringIc
47:   FUNC GLOBAL DEFAULT UND _ZNSt3__112basic_stringIc
48:   FUNC GLOBAL DEFAULT UND _ZNSt3__112basic_stringIc
49:   FUNC GLOBAL DEFAULT UND _ZNSt3__113basic_istreamI
50:   FUNC GLOBAL DEFAULT UND _ZNSt3__113basic_istreamI
51:   FUNC GLOBAL DEFAULT UND _ZNSt3__113basic_istreamI
52:   FUNC GLOBAL DEFAULT UND _ZNSt3__113basic_istreamI
53:   FUNC GLOBAL DEFAULT UND _ZNSt3__113basic_ostreamI
54:   FUNC GLOBAL DEFAULT UND _ZNSt3__113basic_ostreamI
55:   FUNC GLOBAL DEFAULT UND _ZNSt3__113basic_ostreamI
56:   FUNC GLOBAL DEFAULT UND _ZNSt3__113basic_ostreamI
57:   FUNC GLOBAL DEFAULT UND _ZNSt3__113basic_ostreamI
58:   FUNC GLOBAL DEFAULT UND _ZNSt3__114basic_iostream
59:   FUNC GLOBAL DEFAULT UND _ZNSt3__114basic_iostream
60:   FUNC GLOBAL DEFAULT UND _ZNSt3__114basic_iostream
61:   FUNC GLOBAL DEFAULT UND _ZNSt3__115basic_streambu
62:   FUNC GLOBAL DEFAULT UND _ZNSt3__115basic_streambu
63:   FUNC GLOBAL DEFAULT UND _ZNSt3__115basic_streambu
64:   FUNC GLOBAL DEFAULT UND _ZNSt3__115basic_streambu
65:   FUNC GLOBAL DEFAULT UND _ZNSt3__115basic_streambu
66:   FUNC GLOBAL DEFAULT UND _ZNSt3__115basic_streambu
67:   FUNC GLOBAL DEFAULT UND _ZNSt3__115basic_streambu
68:   FUNC GLOBAL DEFAULT UND _ZNSt3__115basic_streambu
69:   FUNC GLOBAL DEFAULT UND _ZNSt3__115basic_streambu
70:   FUNC GLOBAL DEFAULT UND _ZNSt3__18ios_base4initEP
71:   FUNC GLOBAL DEFAULT UND _ZNSt3__19basic_iosIcNS_1
72:   FUNC GLOBAL DEFAULT UND _ZThn8_NSt3__114basic_ios
73:   FUNC GLOBAL DEFAULT UND _ZThn8_NSt3__114basic_ios
74:   FUNC GLOBAL DEFAULT UND _ZTv0_n12_NSt3__113basic_
75:   FUNC GLOBAL DEFAULT UND _ZTv0_n12_NSt3__113basic_
76:   FUNC GLOBAL DEFAULT UND _ZTv0_n12_NSt3__113basic_
77:   FUNC GLOBAL DEFAULT UND _ZTv0_n12_NSt3__113basic_
78:   FUNC GLOBAL DEFAULT UND _ZTv0_n12_NSt3__114basic_
79:   FUNC GLOBAL DEFAULT UND _ZTv0_n12_NSt3__114basic_
80:   FUNC GLOBAL DEFAULT UND memcmp@LIBC (2)
81:   FUNC GLOBAL DEFAULT UND _ZNSt3__112basic_stringIc
82:   FUNC GLOBAL DEFAULT UND _ZNSt3__113basic_ostreamI
83:   FUNC GLOBAL DEFAULT UND _ZNSt3__113basic_ostreamI
84:   FUNC GLOBAL DEFAULT UND _ZNSt3__113basic_ostreamI
85:   FUNC GLOBAL DEFAULT UND _ZNSt3__113basic_ostreamI
86:   FUNC GLOBAL DEFAULT UND _ZN7android4hidl7manager4
87:   FUNC GLOBAL DEFAULT UND _ZN7android7RefBase10onFi
88:   FUNC GLOBAL DEFAULT UND _ZN7android7RefBase13onLa
89:   FUNC GLOBAL DEFAULT UND _ZN7android7RefBase15onLa
90:   FUNC GLOBAL DEFAULT UND _ZN7android7RefBase20onIn
91:   FUNC GLOBAL DEFAULT UND _ZN7android7RefBaseC2Ev
92:   FUNC GLOBAL DEFAULT UND _ZN7android7RefBaseD2Ev
93:   FUNC GLOBAL DEFAULT UND _ZN7android8hardware11hid
94:   FUNC GLOBAL DEFAULT UND _ZN7android8hardware11hid
95:   FUNC GLOBAL DEFAULT UND _ZN7android8hardware11hid
96:   FUNC GLOBAL DEFAULT UND _ZN7android8hardware11hid
97:   FUNC GLOBAL DEFAULT UND _ZN7android8hardware7deta
98:   OBJECT GLOBAL DEFAULT UND _ZN7android8hardware9keym
99:   FUNC GLOBAL DEFAULT UND _ZN7android8hardware9keym
100:   OBJECT GLOBAL DEFAULT UND _ZN7android8hardware9keym
101:   FUNC GLOBAL DEFAULT UND _ZN7android8hardware9keym
102:   FUNC GLOBAL DEFAULT UND _ZN7android8hardware9keym
103:   FUNC GLOBAL DEFAULT UND _ZN7android8hardware9keym
104:   FUNC GLOBAL DEFAULT UND _ZN7android8hardware9keym
105:   FUNC GLOBAL DEFAULT UND _ZN7android8hardware9keym
106:   FUNC GLOBAL DEFAULT UND _ZN7android8hardware9keym
107:   FUNC GLOBAL DEFAULT UND _ZN7android8hardware9keym
108:   FUNC GLOBAL DEFAULT UND _ZN7android8hardware9keym
109:   FUNC GLOBAL DEFAULT UND _ZN7android8hardware9keym
110:   FUNC GLOBAL DEFAULT UND _ZN7android8hardware9keym
111:   FUNC GLOBAL DEFAULT UND _ZN7android8hardware9keym
112:   FUNC GLOBAL DEFAULT UND _ZN7android8hardwarelsERN
113:   FUNC GLOBAL DEFAULT UND _ZNK7android7RefBase9decS
114:   FUNC GLOBAL DEFAULT UND _ZNK7android7RefBase9incS
115:   FUNC GLOBAL DEFAULT UND _ZNK7android8hardware11hi
116:   FUNC GLOBAL DEFAULT UND _ZNK7android8hardware6Sta
117:   FUNC GLOBAL DEFAULT UND __cxa_pure_virtual
118:   FUNC GLOBAL DEFAULT UND strcmp@LIBC (2)
119:   FUNC GLOBAL DEFAULT UND strlen@LIBC (2)
120:   FUNC GLOBAL DEFAULT UND _ZN7android4hidl4base4V1_
121:   FUNC GLOBAL DEFAULT UND _ZN7android4hidl4base4V1_
122:   FUNC GLOBAL DEFAULT UND _ZN7android4hidl4base4V1_
123:   FUNC GLOBAL DEFAULT UND _ZN7android4hidl4base4V1_
124:   FUNC GLOBAL DEFAULT UND _ZN7android4hidl4base4V1_
125:   FUNC GLOBAL DEFAULT UND _ZN7android4hidl4base4V1_
126:   FUNC GLOBAL DEFAULT UND _ZN7android4hidl4base4V1_
127:   FUNC GLOBAL DEFAULT UND _ZN7android4hidl4base4V1_
128:   FUNC GLOBAL DEFAULT UND _ZN7android4hidl4base4V1_
129:   FUNC GLOBAL DEFAULT UND _ZN7android4hidl4base4V1_
130:   FUNC GLOBAL DEFAULT UND _ZN7android8hardware11hid
131:   FUNC GLOBAL DEFAULT UND _ZN7android8hardware11hid
132:   FUNC GLOBAL DEFAULT UND _ZNK7android8hardware11hi
133:   FUNC GLOBAL DEFAULT UND _ZNK7android8hardware7det
134:   FUNC GLOBAL DEFAULT UND _ZNSt3__112basic_stringIc
135:   FUNC GLOBAL DEFAULT UND _ZNSt3__112basic_stringIc
136:   FUNC GLOBAL DEFAULT UND memcpy@LIBC (2)
137:   FUNC GLOBAL DEFAULT UND memset@LIBC (2)
138:   FUNC GLOBAL DEFAULT 14 _ZN7android8hardware9keym
139:   FUNC GLOBAL DEFAULT 14 _ZN7android8hardware9keym
140:   FUNC WEAK DEFAULT 14 _ZNSt3__16vectorIN7androi
141:   FUNC GLOBAL DEFAULT 14 _ZN7android8hardware9keym
142:   FUNC GLOBAL DEFAULT 14 _ZN7android8hardware9keym
143:   FUNC GLOBAL DEFAULT 14 _ZNK7android8hardware9key
144:   FUNC WEAK DEFAULT 14 _ZNSt3__16vectorINS_10uni
145:   FUNC GLOBAL DEFAULT 14 _ZN7android8hardware9keym
146:   FUNC GLOBAL DEFAULT 14 _ZN7android8hardware9keym
147:   FUNC GLOBAL DEFAULT 14 _ZN7android8hardware9keym
148:   FUNC GLOBAL DEFAULT 14 _ZN7android8hardware9keym
149:   FUNC WEAK DEFAULT 14 _ZNSt3__127__insertion_so
150:   FUNC WEAK DEFAULT 14 _ZNSt3__110__function6__f
151:   FUNC GLOBAL DEFAULT 14 _ZN7android8hardware9keym
152:   FUNC GLOBAL DEFAULT 14 _ZN7android8hardware9keym
153:   FUNC GLOBAL DEFAULT 14 _ZNK7android8hardware9key
154:   FUNC GLOBAL DEFAULT 14 __aeabi_memset4
155:   FUNC GLOBAL DEFAULT 14 _ZN7android8hardware9keym
156:   FUNC GLOBAL DEFAULT 14 _ZN7android8hardware9keym
157:   FUNC WEAK DEFAULT 14 _ZN7android8hardware9keym
158:   FUNC WEAK DEFAULT 14 _ZN7android8hardware9keym
159:   FUNC GLOBAL DEFAULT 14 _ZN7android8hardware9keym
160:   FUNC GLOBAL DEFAULT 14 _ZN7android8hardware9keym
161:   FUNC GLOBAL DEFAULT 14 _ZN7android8hardware9keym
162:   OBJECT WEAK DEFAULT 18 _ZTVNSt3__119basic_ostrin
163:   FUNC GLOBAL DEFAULT 14 _ZN7android8hardware9keym
164:   FUNC GLOBAL DEFAULT 14 __aeabi_memcpy
165:   FUNC GLOBAL DEFAULT 14 _ZN7android8hardware9keym
166:   FUNC WEAK DEFAULT 14 _ZNSt3__115basic_stringbu
167:   FUNC GLOBAL DEFAULT 14 _ZN7android8hardware9keym
168:   FUNC GLOBAL DEFAULT 14 _ZN7android8hardware9keym
169:   OBJECT GLOBAL DEFAULT 18 _ZTTN7android8hardware9ke
170:   FUNC GLOBAL DEFAULT 14 __aeabi_memset8
171:   FUNC GLOBAL DEFAULT 14 _ZN7android8hardware9keym
172:   FUNC GLOBAL DEFAULT 14 _ZN7android8hardware9keym
173:   FUNC GLOBAL DEFAULT 14 __aeabi_memclr4
174:   FUNC WEAK DEFAULT 14 _ZNSt3__118__insertion_so
175:   FUNC GLOBAL DEFAULT 14 _ZNK7android8hardware9key
176:   FUNC GLOBAL DEFAULT 14 _ZN7android8hardware9keym
177:   FUNC GLOBAL DEFAULT 14 _ZN7android8hardware9keym
178:   FUNC WEAK DEFAULT 14 _ZNSt3__16__sortIRPFbRKN7
179:   FUNC WEAK DEFAULT 14 _ZN7android8hardware9keym
180:   FUNC GLOBAL DEFAULT 14 _ZN7android8hardware9keym
181:   FUNC GLOBAL DEFAULT 14 _ZN7android8hardware9keym
182:   FUNC GLOBAL DEFAULT 14 _ZN7android8hardware9keym
183:   FUNC WEAK DEFAULT 14 _ZNKSt3__110__function6__
184:   FUNC WEAK DEFAULT 14 _ZNSt3__110__function6__f
185:   OBJECT GLOBAL DEFAULT 18 _ZTCN7android8hardware9ke
186:   FUNC WEAK DEFAULT 14 _ZN7android8hardware9keym
187:   FUNC WEAK DEFAULT 14 _ZNSt3__16vectorIN7androi
188:   FUNC GLOBAL DEFAULT 14 _ZN7android8hardware9keym
189:   FUNC GLOBAL DEFAULT 14 _ZN7android8hardware9keym
190:   FUNC WEAK DEFAULT 14 _ZNSt3__16vectorIN7androi
191:   OBJECT WEAK DEFAULT 18 _ZTTNSt3__118basic_string
192:   OBJECT WEAK DEFAULT 18 _ZTTNSt3__119basic_ostrin
193:   OBJECT WEAK DEFAULT 18 _ZTCN7android8hardware9ke
194:   FUNC GLOBAL DEFAULT 14 __aeabi_memclr8
195:   FUNC GLOBAL DEFAULT 14 _ZN7android8hardware9keym
196:   FUNC WEAK DEFAULT 14 _ZNSt3__17__sort4IRPFbRKN
197:   FUNC GLOBAL DEFAULT 14 _ZN7android8hardware9keym
198:   FUNC GLOBAL DEFAULT 14 _ZN7android8hardware9keym
199:   FUNC GLOBAL DEFAULT 14 _ZN7android8hardware9keym
200:   FUNC GLOBAL DEFAULT 14 _ZN7android8hardware9keym
201:   FUNC WEAK DEFAULT 14 _ZNSt3__16vectorIN7androi
202:   OBJECT WEAK DEFAULT 18 _ZTVNSt3__110__function6_
203:   FUNC GLOBAL DEFAULT 14 _ZN7android8hardware9keym
204:   FUNC GLOBAL DEFAULT 14 _ZN7android8hardware9keym
205:   FUNC WEAK DEFAULT 14 _ZNSt3__115basic_stringbu
206:   FUNC WEAK DEFAULT 14 _ZNSt3__17__sort3IRPFbRKN
207:   OBJECT WEAK DEFAULT 18 _ZTVNSt3__110__function6_
208:   FUNC GLOBAL DEFAULT 14 _ZN7android8hardware9keym
209:   FUNC GLOBAL DEFAULT 14 _ZN7android8hardware9keym
210:   FUNC GLOBAL DEFAULT 14 _ZN7android8hardware9keym
211:   FUNC GLOBAL DEFAULT 14 _ZN7android8hardwarelsERN
212:   FUNC GLOBAL DEFAULT 14 _ZN7android8hardware9keym
213:   FUNC GLOBAL DEFAULT 14 _ZN7android8hardware9keym
214:   FUNC GLOBAL DEFAULT 14 _ZN7android8hardware9keym
215:   FUNC GLOBAL DEFAULT 14 _ZN7android8hardware9keym
216:   FUNC WEAK DEFAULT 14 _ZNSt3__16vectorIN7androi
217:   FUNC GLOBAL DEFAULT 14 _ZN7android8hardware9keym
218:   FUNC GLOBAL DEFAULT 14 _ZN7android8hardware9keym
219:   OBJECT GLOBAL DEFAULT 18 _ZTCN7android8hardware9ke
220:   FUNC GLOBAL DEFAULT 14 _ZN7android8hardware9keym
221:   FUNC WEAK DEFAULT 14 _ZNKSt3__110__function6__
222:   FUNC WEAK DEFAULT 14 _ZNSt3__110__function6__f
223:   FUNC WEAK DEFAULT 14 _ZNSt3__118__insertion_so
224:   FUNC GLOBAL DEFAULT 14 _ZN7android8hardware9keym
225:   FUNC GLOBAL DEFAULT 14 _ZN7android8hardware9keym
226:   FUNC WEAK DEFAULT 14 _ZN7android8hardware9keym
227:   FUNC GLOBAL DEFAULT 14 _ZN7android8hardware9keym
228:   FUNC WEAK DEFAULT 14 _ZNSt3__16__sortIRNS_6__l
229:   FUNC GLOBAL DEFAULT 14 _ZN7android8hardware9keym
230:   FUNC GLOBAL DEFAULT 14 _ZN7android8hardware9keym
231:   OBJECT WEAK DEFAULT 18 _ZTCNSt3__118basic_string
232:   OBJECT WEAK DEFAULT 18 _ZTCNSt3__119basic_ostrin
233:   FUNC WEAK DEFAULT 14 _ZN7android8hardwarelsINS
234:   FUNC WEAK DEFAULT 14 _ZNKSt3__110__function6__
235:   FUNC GLOBAL DEFAULT 14 _ZN7android8hardware9keym
236:   FUNC GLOBAL DEFAULT 14 _ZN7android8hardware9keym
237:   FUNC GLOBAL DEFAULT 14 _ZN7android8hardware9keym
238:   FUNC WEAK DEFAULT 14 _ZN7android8hardware9keym
239:   FUNC GLOBAL DEFAULT 14 _ZNK7android8hardware9key
240:   OBJECT WEAK DEFAULT 18 _ZTCNSt3__118basic_string
241:   OBJECT WEAK DEFAULT 18 _ZTVNSt3__118basic_string
242:   FUNC WEAK DEFAULT 14 _ZN7android8hardware9keym
243:   FUNC GLOBAL DEFAULT 14 __aeabi_memset
244:   FUNC GLOBAL DEFAULT 14 _ZN7android8hardware9keym
245:   FUNC GLOBAL DEFAULT 14 _ZNK7android8hardware9key
246:   FUNC GLOBAL DEFAULT 14 _ZN7android8hardware9keym
247:   FUNC WEAK DEFAULT 14 _ZN7android8hardware9keym
248:   FUNC GLOBAL DEFAULT 14 _ZN7android8hardware9keym
249:   FUNC GLOBAL DEFAULT 14 _ZN7android8hardware9keym
250:   FUNC GLOBAL DEFAULT 14 _ZN7android8hardware9keym
251:   FUNC GLOBAL DEFAULT 14 _ZN7android8hardware9keym
252:   FUNC GLOBAL DEFAULT 14 _ZN7android8hardware9keym
253:   FUNC GLOBAL DEFAULT 14 _ZN7android8hardware9keym
254:   FUNC GLOBAL DEFAULT 14 _ZN7android8hardware9keym
255:   FUNC GLOBAL DEFAULT 14 _ZN7android8hardware9keym
256:   OBJECT GLOBAL DEFAULT 18 _ZTCN7android8hardware9ke
257:   FUNC WEAK DEFAULT 14 _ZNSt3__17__sort4IRNS_6__
258:   OBJECT WEAK DEFAULT 18 _ZTVN7android8hardware9ke
259:   FUNC WEAK DEFAULT 14 _ZN7android8hardware9keym
260:   FUNC WEAK DEFAULT 14 _ZNSt3__110__function6__f
261:   FUNC GLOBAL DEFAULT 14 _ZN7android8hardware9keym
262:   FUNC GLOBAL DEFAULT 14 __aeabi_memclr
263:   FUNC WEAK DEFAULT 14 _ZN7android8hardware9keym
264:   FUNC GLOBAL DEFAULT 14 _ZN7android8hardware9keym
265:   FUNC GLOBAL DEFAULT 14 _ZN7android8hardware9keym
266:   FUNC GLOBAL DEFAULT 14 _ZNK7android8hardware9key
267:   FUNC WEAK DEFAULT 14 _ZNSt3__16vectorINS_10uni
268:   FUNC GLOBAL DEFAULT 14 _ZN7android8hardware9keym
269:   FUNC WEAK DEFAULT 14 _ZNSt3__115basic_stringbu
270:   OBJECT WEAK DEFAULT 18 _ZTCNSt3__118basic_string
271:   FUNC WEAK DEFAULT 14 _ZNSt3__17__sort3IRNS_6__
272:   FUNC GLOBAL DEFAULT 14 _ZN7android8hardware9keym
273:   FUNC GLOBAL DEFAULT 14 _ZN7android8hardware9keym
274:   FUNC WEAK DEFAULT 14 _ZNKSt3__115basic_stringb
275:   FUNC GLOBAL DEFAULT 14 _ZN7android8hardware9keym
276:   FUNC GLOBAL DEFAULT 14 _ZN7android8hardware9keym
277:   FUNC GLOBAL DEFAULT 14 _ZN7android8hardware9keym
278:   FUNC GLOBAL DEFAULT 14 _ZN7android8hardware9keym
279:   FUNC GLOBAL DEFAULT 14 _ZN7android8hardware9keym
280:   FUNC WEAK DEFAULT 14 _ZNSt3__115basic_stringbu
281:   FUNC WEAK DEFAULT 14 _ZNKSt3__110__function6__
282:   OBJECT GLOBAL DEFAULT 18 _ZTVN7android8hardware9ke
283:   FUNC WEAK DEFAULT 14 _ZNSt3__16vectorIN7androi
284:   FUNC GLOBAL DEFAULT 14 _ZN7android8hardware9keym
285:   FUNC GLOBAL DEFAULT 14 _ZN7android8hardware9keym
286:   FUNC GLOBAL DEFAULT 14 _ZN7android8hardware9keym
287:   FUNC WEAK DEFAULT 14 _ZN7android8hardware9keym
288:   FUNC WEAK DEFAULT 14 _ZNSt3__110__function6__f
289:   FUNC WEAK DEFAULT 14 _ZNSt3__127__insertion_so
290:   FUNC GLOBAL DEFAULT 14 __aeabi_memcpy4
291:   FUNC GLOBAL DEFAULT 14 _ZN7android8hardware9keym
292:   OBJECT WEAK DEFAULT 18 _ZTVNSt3__115basic_string
293:   FUNC WEAK DEFAULT 14 _ZNSt3__110__function6__f
294:   FUNC GLOBAL DEFAULT 14 _ZN7android8hardware9keym
295:   FUNC WEAK DEFAULT 14 _ZNSt3__115basic_stringbu
296:   FUNC WEAK DEFAULT 14 _ZN7android8hardware9keym
297:   FUNC GLOBAL DEFAULT 14 _ZN7android8hardware9keym
298:   FUNC WEAK DEFAULT 14 _ZNSt3__124__put_characte
299:   FUNC WEAK DEFAULT 14 _ZNSt3__16vectorIN7androi
300:   FUNC GLOBAL DEFAULT 14 __aeabi_memcpy8
