 0x000000000000000e (SONAME)             Library soname: [libmediametrics.so]
  
Symbol   contains 240 entries:
Num:   Type Bind Vis Ndx Name
0:   NOTYPE LOCAL DEFAULT UND
1:   FUNC GLOBAL DEFAULT UND __cxa_finalize@LIBC (2)
2:   FUNC GLOBAL DEFAULT UND __cxa_atexit@LIBC (2)
3:   FUNC GLOBAL DEFAULT UND _ZN7android10IInterfaceC2
4:   FUNC GLOBAL DEFAULT UND _ZN7android10IInterfaceD0
5:   FUNC GLOBAL DEFAULT UND _ZN7android10IInterfaceD1
6:   FUNC GLOBAL DEFAULT UND _ZN7android10IInterfaceD2
7:   FUNC GLOBAL DEFAULT UND _ZN7android14IPCThreadSta
8:   FUNC GLOBAL DEFAULT UND _ZN7android14sp_report_ra
9:   FUNC GLOBAL DEFAULT UND _ZN7android6Parcel10write
10:   FUNC GLOBAL DEFAULT UND _ZN7android6Parcel19write
11:   FUNC GLOBAL DEFAULT UND _ZN7android6Parcel9writeB
12:   FUNC GLOBAL DEFAULT UND _ZN7android6ParcelC1Ev
13:   FUNC GLOBAL DEFAULT UND _ZN7android6ParcelD1Ev
14:   FUNC GLOBAL DEFAULT UND _ZN7android7BBinder10onTr
15:   FUNC GLOBAL DEFAULT UND _ZN7android7BBinder10ping
16:   FUNC GLOBAL DEFAULT UND _ZN7android7BBinder11link
17:   FUNC GLOBAL DEFAULT UND _ZN7android7BBinder11loca
18:   FUNC GLOBAL DEFAULT UND _ZN7android7BBinder12atta
19:   FUNC GLOBAL DEFAULT UND _ZN7android7BBinder12deta
20:   FUNC GLOBAL DEFAULT UND _ZN7android7BBinder13unli
21:   FUNC GLOBAL DEFAULT UND _ZN7android7BBinder4dumpE
22:   FUNC GLOBAL DEFAULT UND _ZN7android7BBinder8trans
23:   FUNC GLOBAL DEFAULT UND _ZN7android7BBinderD0Ev
24:   FUNC GLOBAL DEFAULT UND _ZN7android7BBinderD1Ev
25:   FUNC GLOBAL DEFAULT UND _ZN7android7IBinder11loca
26:   FUNC GLOBAL DEFAULT UND _ZN7android7IBinder12remo
27:   FUNC GLOBAL DEFAULT UND _ZN7android7IBinder19quer
28:   FUNC GLOBAL DEFAULT UND _ZN7android7IBinderD0Ev
29:   FUNC GLOBAL DEFAULT UND _ZN7android7IBinderD1Ev
30:   FUNC GLOBAL DEFAULT UND _ZN7android7RefBase10onFi
31:   FUNC GLOBAL DEFAULT UND _ZN7android7RefBase13onLa
32:   FUNC GLOBAL DEFAULT UND _ZN7android7RefBase15onLa
33:   FUNC GLOBAL DEFAULT UND _ZN7android7RefBase20onIn
34:   FUNC GLOBAL DEFAULT UND _ZN7android7RefBaseC2Ev
35:   FUNC GLOBAL DEFAULT UND _ZN7android7RefBaseD2Ev
36:   FUNC GLOBAL DEFAULT UND _ZN7android8String16C1EPK
37:   FUNC GLOBAL DEFAULT UND _ZN7android8String16D1Ev
38:   FUNC GLOBAL DEFAULT UND _ZN7android9BpRefBase10on
39:   FUNC GLOBAL DEFAULT UND _ZN7android9BpRefBase15on
40:   FUNC GLOBAL DEFAULT UND _ZN7android9BpRefBase20on
41:   FUNC GLOBAL DEFAULT UND _ZN7android9BpRefBaseC2ER
42:   FUNC GLOBAL DEFAULT UND _ZN7android9BpRefBaseD0Ev
43:   FUNC GLOBAL DEFAULT UND _ZN7android9BpRefBaseD1Ev
44:   FUNC GLOBAL DEFAULT UND _ZN7android9BpRefBaseD2Ev
45:   FUNC GLOBAL DEFAULT UND _ZNK7android14IPCThreadSt
46:   FUNC GLOBAL DEFAULT UND _ZNK7android6Parcel14chec
47:   FUNC GLOBAL DEFAULT UND _ZNK7android6Parcel8readB
48:   FUNC GLOBAL DEFAULT UND _ZNK7android6Parcel9readI
49:   FUNC GLOBAL DEFAULT UND _ZNK7android7BBinder10fin
50:   FUNC GLOBAL DEFAULT UND _ZNK7android7BBinder13isB
51:   FUNC GLOBAL DEFAULT UND _ZNK7android7BBinder22get
52:   FUNC GLOBAL DEFAULT UND _ZNK7android7IBinder13che
53:   FUNC GLOBAL DEFAULT UND _ZNK7android7RefBase9decS
54:   FUNC GLOBAL DEFAULT UND _ZNK7android7RefBase9incS
55:   FUNC GLOBAL DEFAULT UND _ZNK7android8String164siz
56:   FUNC GLOBAL DEFAULT UND _ZTv0_n24_N7android10IInt
57:   FUNC GLOBAL DEFAULT UND _ZTv0_n24_N7android10IInt
58:   FUNC GLOBAL DEFAULT UND _ZTv0_n24_N7android7BBind
59:   FUNC GLOBAL DEFAULT UND _ZTv0_n24_N7android7BBind
60:   FUNC GLOBAL DEFAULT UND _ZTv0_n24_N7android7IBind
61:   FUNC GLOBAL DEFAULT UND _ZTv0_n24_N7android7IBind
62:   FUNC GLOBAL DEFAULT UND _ZTv0_n24_N7android9BpRef
63:   FUNC GLOBAL DEFAULT UND _ZTv0_n24_N7android9BpRef
64:   FUNC GLOBAL DEFAULT UND _ZTv0_n32_N7android9BpRef
65:   FUNC GLOBAL DEFAULT UND _ZTv0_n40_N7android9BpRef
66:   FUNC GLOBAL DEFAULT UND _ZTv0_n48_N7android9BpRef
67:   FUNC GLOBAL DEFAULT UND _ZdlPv
68:   FUNC GLOBAL DEFAULT UND _Znwm
69:   FUNC GLOBAL DEFAULT UND __android_log_print@LIBLOG (3)
70:   FUNC GLOBAL DEFAULT UND __cxa_pure_virtual
71:   FUNC GLOBAL DEFAULT UND __stack_chk_fail@LIBC (2)
72:   FUNC GLOBAL DEFAULT UND abort@LIBC (2)
73:   FUNC GLOBAL DEFAULT UND strzcmp16
74:   FUNC GLOBAL DEFAULT UND _ZN7android21defaultServi
75:   FUNC GLOBAL DEFAULT UND _ZN7android6Parcel10write
76:   FUNC GLOBAL DEFAULT UND _ZN7android6Parcel11write
77:   FUNC GLOBAL DEFAULT UND _ZN7android6Parcel12write
78:   FUNC GLOBAL DEFAULT UND _ZNK7android6Parcel10read
79:   FUNC GLOBAL DEFAULT UND _ZNK7android6Parcel11read
80:   FUNC GLOBAL DEFAULT UND _ZNK7android6Parcel9readI
81:   FUNC GLOBAL DEFAULT UND _ZNKSt3__121__basic_strin
82:   FUNC GLOBAL DEFAULT UND _ZNSt3__112basic_stringIc
83:   FUNC GLOBAL DEFAULT UND _ZNSt3__112basic_stringIc
84:   FUNC GLOBAL DEFAULT UND _ZNSt3__112basic_stringIc
85:   FUNC GLOBAL DEFAULT UND _ZNSt3__112basic_stringIc
86:   FUNC GLOBAL DEFAULT UND _ZNSt3__112basic_stringIc
87:   FUNC GLOBAL DEFAULT UND _ZNSt3__112basic_stringIc
88:   FUNC GLOBAL DEFAULT UND __android_log_assert@LIBLOG (3)
89:   FUNC GLOBAL DEFAULT UND __vsnprintf_chk@LIBC (2)
90:   FUNC GLOBAL DEFAULT UND free@LIBC (2)
91:   FUNC GLOBAL DEFAULT UND getuid@LIBC (2)
92:   FUNC GLOBAL DEFAULT UND malloc@LIBC (2)
93:   FUNC GLOBAL DEFAULT UND memcmp@LIBC (2)
94:   FUNC GLOBAL DEFAULT UND memcpy@LIBC (2)
95:   FUNC GLOBAL DEFAULT UND memset@LIBC (2)
96:   FUNC GLOBAL DEFAULT UND property_get_int32
97:   FUNC GLOBAL DEFAULT UND pthread_mutex_destroy@LIBC (2)
98:   FUNC GLOBAL DEFAULT UND pthread_mutex_init@LIBC (2)
99:   FUNC GLOBAL DEFAULT UND pthread_mutex_lock@LIBC (2)
100:   FUNC GLOBAL DEFAULT UND pthread_mutex_unlock@LIBC (2)
101:   FUNC GLOBAL DEFAULT UND realloc@LIBC (2)
102:   FUNC GLOBAL DEFAULT UND strcmp@LIBC (2)
103:   FUNC GLOBAL DEFAULT UND strdup@LIBC (2)
104:   FUNC GLOBAL DEFAULT UND strlen@LIBC (2)
105:   FUNC WEAK DEFAULT UND android_set_abort_message@LIBC (2)
106:   FUNC GLOBAL DEFAULT UND write@LIBC (2)
107:   FUNC GLOBAL DEFAULT 14 _ZN7android18MediaAnalyti
108:   OBJECT WEAK DEFAULT 18 _ZTTN7android23BpMediaAna
109:   FUNC GLOBAL DEFAULT 14 _ZN7android18MediaAnalyti
110:   FUNC GLOBAL DEFAULT 14 _ZN7android18MediaAnalyti
111:   FUNC GLOBAL DEFAULT 14 mediametrics_setInt64
112:   OBJECT WEAK DEFAULT 18 _ZTVN7android25MediaMetri
113:   OBJECT WEAK DEFAULT 18 _ZTCN7android23BpMediaAna
114:   OBJECT WEAK DEFAULT 18 _ZTVN7android23BpMediaAna
115:   FUNC GLOBAL DEFAULT 14 _ZThn8_N7android23BnMedia
116:   FUNC GLOBAL DEFAULT 14 _ZN7android18MediaAnalyti
117:   FUNC GLOBAL DEFAULT 14 _ZN7android18MediaAnalyti
118:   FUNC GLOBAL DEFAULT 14 _ZN7android18MediaAnalyti
119:   FUNC GLOBAL DEFAULT 14 mediametrics_setRate
120:   OBJECT GLOBAL DEFAULT 18 _ZTCN7android23BnMediaAna
121:   FUNC GLOBAL DEFAULT 14 _ZN7android18MediaAnalyti
122:   FUNC GLOBAL DEFAULT 14 _ZN7android18MediaAnalyti
123:   FUNC GLOBAL DEFAULT 14 mediametrics_count
124:   OBJECT GLOBAL DEFAULT 18 _ZTVN7android22IMediaAnal
125:   FUNC GLOBAL DEFAULT 14 _ZTv0_n24_N7android22IMed
126:   FUNC GLOBAL DEFAULT 14 _ZTv0_n24_N7android22IMed
127:   FUNC GLOBAL DEFAULT 14 _ZN7android18MediaAnalyti
128:   FUNC GLOBAL DEFAULT 14 _ZN7android18MediaAnalyti
129:   FUNC GLOBAL DEFAULT 14 mediametrics_setCString
130:   FUNC GLOBAL DEFAULT 14 _ZNK7android22IMediaAnaly
131:   OBJECT GLOBAL DEFAULT 18 _ZTCN7android23BnMediaAna
132:   OBJECT GLOBAL DEFAULT 18 _ZTCN7android22IMediaAnal
133:   FUNC GLOBAL DEFAULT 14 _ZN7android18MediaAnalyti
134:   FUNC GLOBAL DEFAULT 14 _ZN7android18MediaAnalyti
135:   FUNC GLOBAL DEFAULT 14 _ZN7android18MediaAnalyti
136:   FUNC GLOBAL DEFAULT 14 _ZN7android18MediaAnalyti
137:   FUNC GLOBAL DEFAULT 14 _ZN7android18MediaAnalyti
138:   FUNC GLOBAL DEFAULT 14 _ZN7android18MediaAnalyti
139:   FUNC GLOBAL DEFAULT 14 _ZNK7android18MediaAnalyt
140:   FUNC GLOBAL DEFAULT 14 _ZNK7android18MediaAnalyt
141:   OBJECT GLOBAL DEFAULT 18 _ZTCN7android23BnMediaAna
142:   OBJECT WEAK DEFAULT 18 _ZTCN7android23BpMediaAna
143:   FUNC GLOBAL DEFAULT 14 _ZN7android18MediaAnalyti
144:   FUNC GLOBAL DEFAULT 14 _ZN7android18MediaAnalyti
145:   FUNC GLOBAL DEFAULT 14 _ZN7android18MediaAnalyti
146:   OBJECT GLOBAL DEFAULT 23 _ZN7android18MediaAnalyti
147:   FUNC GLOBAL DEFAULT 14 _ZN7android18MediaAnalyti
148:   FUNC GLOBAL DEFAULT 14 _ZN7android18MediaAnalyti
149:   FUNC GLOBAL DEFAULT 14 mediametrics_selfRecord
150:   FUNC GLOBAL DEFAULT 14 _ZN7android18MediaAnalyti
151:   FUNC GLOBAL DEFAULT 14 _ZN7android18MediaAnalyti
152:   FUNC GLOBAL DEFAULT 14 _ZNK7android18MediaAnalyt
153:   FUNC GLOBAL DEFAULT 14 mediametrics_isEnabled
154:   FUNC GLOBAL DEFAULT 14 _ZN7android22IMediaAnalyt
155:   FUNC GLOBAL DEFAULT 14 _ZN7android22IMediaAnalyt
156:   FUNC GLOBAL DEFAULT 14 _ZN7android22IMediaAnalyt
157:   FUNC GLOBAL DEFAULT 14 _ZN7android22IMediaAnalyt
158:   FUNC GLOBAL DEFAULT 14 _ZN7android18MediaAnalyti
159:   FUNC GLOBAL DEFAULT 14 _ZN7android18MediaAnalyti
160:   OBJECT GLOBAL DEFAULT 18 _ZN7android18MediaAnalyti
161:   FUNC GLOBAL DEFAULT 14 _ZN7android18MediaAnalyti
162:   FUNC GLOBAL DEFAULT 14 _ZN7android18MediaAnalyti
163:   FUNC GLOBAL DEFAULT 14 _ZN7android18MediaAnalyti
164:   FUNC GLOBAL DEFAULT 14 _ZN7android22IMediaAnalyt
165:   OBJECT GLOBAL DEFAULT 18 _ZN7android18MediaAnalyti
166:   FUNC GLOBAL DEFAULT 14 _ZN7android18MediaAnalyti
167:   FUNC GLOBAL DEFAULT 14 _ZN7android18MediaAnalyti
168:   FUNC GLOBAL DEFAULT 14 _ZNK7android18MediaAnalyt
169:   FUNC GLOBAL DEFAULT 14 mediametrics_getInt32
170:   FUNC GLOBAL DEFAULT 14 mediametrics_getKey
171:   FUNC GLOBAL DEFAULT 14 _ZN7android18MediaAnalyti
172:   FUNC WEAK DEFAULT 14 _ZN7android2spINS_22IMedi
173:   FUNC GLOBAL DEFAULT 14 mediametrics_getAttribute
174:   FUNC GLOBAL DEFAULT 14 _ZN7android18MediaAnalyti
175:   FUNC GLOBAL DEFAULT 14 _ZN7android18MediaAnalyti
176:   FUNC GLOBAL DEFAULT 14 mediametrics_getInt64
177:   FUNC GLOBAL DEFAULT 14 mediametrics_getRate
178:   OBJECT GLOBAL DEFAULT 18 _ZTCN7android23BnMediaAna
179:   FUNC GLOBAL DEFAULT 14 _ZN7android18MediaAnalyti
180:   FUNC GLOBAL DEFAULT 14 _ZN7android18MediaAnalyti
181:   FUNC GLOBAL DEFAULT 14 _ZN7android18MediaAnalyti
182:   FUNC GLOBAL DEFAULT 14 _ZN7android18MediaAnalyti
183:   FUNC GLOBAL DEFAULT 14 _ZN7android18MediaAnalyti
184:   FUNC GLOBAL DEFAULT 14 _ZN7android23BnMediaAnaly
185:   OBJECT GLOBAL DEFAULT 18 _ZTTN7android23BnMediaAna
186:   FUNC GLOBAL DEFAULT 14 _ZN7android18MediaAnalyti
187:   OBJECT GLOBAL DEFAULT 23 _ZN7android18MediaAnalyti
188:   FUNC GLOBAL DEFAULT 14 mediametrics_setDouble
189:   FUNC GLOBAL DEFAULT 14 _ZN7android18MediaAnalyti
190:   OBJECT GLOBAL DEFAULT 18 _ZTVN7android23BnMediaAna
191:   FUNC GLOBAL DEFAULT 14 _ZN7android18MediaAnalyti
192:   FUNC GLOBAL DEFAULT 14 _ZN7android18MediaAnalyti
193:   FUNC WEAK DEFAULT 14 _ZN7android2spINS_25Media
194:   OBJECT WEAK DEFAULT 18 _ZTCN7android23BpMediaAna
195:   FUNC GLOBAL DEFAULT 14 _ZNK7android18MediaAnalyt
196:   FUNC GLOBAL DEFAULT 14 _ZN7android18MediaAnalyti
197:   FUNC GLOBAL DEFAULT 14 _ZN7android18MediaAnalyti
198:   FUNC GLOBAL DEFAULT 14 _ZN7android18MediaAnalyti
199:   FUNC GLOBAL DEFAULT 14 _ZN7android18MediaAnalyti
200:   FUNC GLOBAL DEFAULT 14 _ZN7android18MediaAnalyti
201:   FUNC GLOBAL DEFAULT 14 mediametrics_addInt32
202:   FUNC GLOBAL DEFAULT 14 mediametrics_addRate
203:   FUNC GLOBAL DEFAULT 14 _ZN7android18MediaAnalyti
204:   FUNC GLOBAL DEFAULT 14 _ZN7android18MediaAnalyti
205:   FUNC GLOBAL DEFAULT 14 mediametrics_addInt64
206:   FUNC GLOBAL DEFAULT 14 mediametrics_readable
207:   OBJECT GLOBAL DEFAULT 23 _ZN7android22IMediaAnalyt
208:   OBJECT GLOBAL DEFAULT 18 _ZTCN7android23BnMediaAna
209:   FUNC GLOBAL DEFAULT 14 _ZN7android18MediaAnalyti
210:   OBJECT GLOBAL DEFAULT 11 _ZN7android18MediaAnalyti
211:   FUNC GLOBAL DEFAULT 14 _ZN7android18MediaAnalyti
212:   FUNC GLOBAL DEFAULT 14 mediametrics_setUid
213:   FUNC GLOBAL DEFAULT 14 mediametrics_addDouble
214:   FUNC GLOBAL DEFAULT 14 mediametrics_create
215:   FUNC GLOBAL DEFAULT 14 mediametrics_delete
216:   FUNC GLOBAL DEFAULT 14 _ZN7android18MediaAnalyti
217:   FUNC GLOBAL DEFAULT 14 _ZN7android22IMediaAnalyt
218:   FUNC GLOBAL DEFAULT 14 _ZN7android18MediaAnalyti
219:   FUNC GLOBAL DEFAULT 14 _ZN7android18MediaAnalyti
220:   FUNC GLOBAL DEFAULT 14 _ZN7android18MediaAnalyti
221:   FUNC GLOBAL DEFAULT 14 _ZN7android18MediaAnalyti
222:   OBJECT GLOBAL DEFAULT 23 _ZN7android18MediaAnalyti
223:   FUNC GLOBAL DEFAULT 14 _ZN7android18MediaAnalyti
224:   FUNC GLOBAL DEFAULT 14 _ZN7android18MediaAnalyti
225:   FUNC GLOBAL DEFAULT 14 _ZN7android22IMediaAnalyt
226:   OBJECT WEAK DEFAULT 18 _ZTCN7android23BpMediaAna
227:   FUNC GLOBAL DEFAULT 14 _ZN7android18MediaAnalyti
228:   FUNC GLOBAL DEFAULT 14 _ZNK7android18MediaAnalyt
229:   FUNC GLOBAL DEFAULT 14 mediametrics_getDouble
230:   FUNC WEAK DEFAULT 14 _ZN7android11BnInterfaceI
231:   FUNC GLOBAL DEFAULT 14 _ZN7android18MediaAnalyti
232:   OBJECT GLOBAL DEFAULT 23 _ZN7android22IMediaAnalyt
233:   OBJECT GLOBAL DEFAULT 18 _ZTTN7android22IMediaAnal
234:   FUNC GLOBAL DEFAULT 14 _ZN7android18MediaAnalyti
235:   FUNC GLOBAL DEFAULT 14 _ZN7android18MediaAnalyti
236:   FUNC GLOBAL DEFAULT 14 _ZN7android18MediaAnalyti
237:   FUNC GLOBAL DEFAULT 14 mediametrics_freeCString
238:   FUNC GLOBAL DEFAULT 14 mediametrics_getCString
239:   FUNC GLOBAL DEFAULT 14 mediametrics_setInt32
