 0x0000000e (SONAME)                     Library soname: [libnativewindow.so]
  
Symbol   contains 41 entries:
Num:   Type Bind Vis Ndx Name
0:   NOTYPE LOCAL DEFAULT UND
1:   FUNC GLOBAL DEFAULT 6 AHardwareBuffer_allocate
2:   FUNC GLOBAL DEFAULT 6 AHardwareBuffer_release
3:   FUNC GLOBAL DEFAULT 6 ANativeWindow_OemStorageG
4:   FUNC GLOBAL DEFAULT 6 ANativeWindow_setSwapInte
5:   FUNC GLOBAL DEFAULT 6 AHardwareBuffer_createFro
6:   FUNC GLOBAL DEFAULT 6 ANativeWindow_queueBuffer
7:   FUNC GLOBAL DEFAULT 6 ANativeWindow_release
8:   FUNC GLOBAL DEFAULT 6 ANativeWindow_setBuffersG
9:   FUNC GLOBAL DEFAULT 6 ANativeWindow_queryf
10:   FUNC GLOBAL DEFAULT 6 ANativeWindow_setBuffersF
11:   FUNC GLOBAL DEFAULT 6 ANativeWindow_setSharedBu
12:   FUNC GLOBAL DEFAULT 6 AHardwareBuffer_isSupport
13:   FUNC GLOBAL DEFAULT 6 AHardwareBuffer_lockPlane
14:   FUNC GLOBAL DEFAULT 6 AHardwareBuffer_sendHandl
15:   FUNC GLOBAL DEFAULT 6 AHardwareBuffer_unlock
16:   FUNC GLOBAL DEFAULT 6 ANativeWindow_getBuffersD
17:   FUNC GLOBAL DEFAULT 6 ANativeWindow_setBuffersT
18:   FUNC GLOBAL DEFAULT 6 ANativeWindow_setUsage
19:   FUNC GLOBAL DEFAULT 6 AHardwareBuffer_getNative
20:   FUNC GLOBAL DEFAULT 6 AHardwareBuffer_recvHandl
21:   FUNC GLOBAL DEFAULT 6 ANativeWindow_getWidth
22:   FUNC GLOBAL DEFAULT 6 ANativeWindow_setAutoRefr
23:   FUNC GLOBAL DEFAULT 6 ANativeWindow_setBuffersD
24:   FUNC GLOBAL DEFAULT 6 ANativeWindow_getFormat
25:   FUNC GLOBAL DEFAULT 6 ANativeWindow_getHeight
26:   FUNC GLOBAL DEFAULT 6 ANativeWindow_lock
27:   FUNC GLOBAL DEFAULT 6 ANativeWindow_setBufferCo
28:   FUNC GLOBAL DEFAULT 6 AHardwareBuffer_lock
29:   FUNC GLOBAL DEFAULT 6 ANativeWindow_dequeueBuff
30:   FUNC GLOBAL DEFAULT 6 ANativeWindow_query
31:   FUNC GLOBAL DEFAULT 6 AHardwareBuffer_acquire
32:   FUNC GLOBAL DEFAULT 6 AHardwareBuffer_lockAndGe
33:   FUNC GLOBAL DEFAULT 6 ANativeWindow_setBuffersD
34:   FUNC GLOBAL DEFAULT 6 ANativeWindow_setBuffersT
35:   FUNC GLOBAL DEFAULT 6 ANativeWindow_unlockAndPo
36:   FUNC GLOBAL DEFAULT 6 AHardwareBuffer_describe
37:   FUNC GLOBAL DEFAULT 6 ANativeWindowBuffer_getHa
38:   FUNC GLOBAL DEFAULT 6 ANativeWindow_OemStorageS
39:   FUNC GLOBAL DEFAULT 6 ANativeWindow_acquire
40:   FUNC GLOBAL DEFAULT 6 ANativeWindow_cancelBuffe
