 0x0000000e (SONAME)                     Library soname: [libartbase.so]
  
Symbol   contains 962 entries:
Num:   Type Bind Vis Ndx Name
0:   NOTYPE LOCAL DEFAULT UND
1:   FUNC GLOBAL DEFAULT UND __cxa_atexit@LIBC (3)
2:   FUNC GLOBAL DEFAULT UND __cxa_finalize@LIBC (3)
3:   FUNC GLOBAL DEFAULT UND _ZN7android4base10LogMess
4:   FUNC GLOBAL DEFAULT UND _ZN7android4base10LogMess
5:   FUNC GLOBAL DEFAULT UND _ZN7android4base10LogMess
6:   FUNC GLOBAL DEFAULT UND _ZN7android4base21GetMini
7:   FUNC GLOBAL DEFAULT UND _ZNKSt3__16locale9use_fac
8:   FUNC GLOBAL DEFAULT UND _ZNKSt3__18ios_base6getlo
9:   FUNC GLOBAL DEFAULT UND _ZNSt3__113basic_ostreamI
10:   FUNC GLOBAL DEFAULT UND _ZNSt3__113basic_ostreamI
11:   OBJECT GLOBAL DEFAULT UND _ZNSt3__15ctypeIcE2idE
12:   FUNC GLOBAL DEFAULT UND _ZNSt3__16localeD1Ev
13:   FUNC GLOBAL DEFAULT UND _ZNSt3__18ios_base5clearE
14:   FUNC GLOBAL DEFAULT UND _ZdlPv
15:   FUNC GLOBAL DEFAULT UND _Znwj
16:   FUNC GLOBAL DEFAULT UND __errno@LIBC (3)
17:   FUNC GLOBAL DEFAULT UND __stack_chk_fail@LIBC (3)
18:   OBJECT GLOBAL DEFAULT UND __stack_chk_guard@LIBC (3)
19:   FUNC GLOBAL DEFAULT UND strcmp@LIBC (3)
20:   FUNC GLOBAL DEFAULT UND strlen@LIBC (3)
21:   FUNC GLOBAL DEFAULT UND calloc@LIBC (3)
22:   FUNC GLOBAL DEFAULT UND free@LIBC (3)
23:   FUNC GLOBAL DEFAULT UND _ZNKSt3__121__basic_strin
24:   FUNC GLOBAL DEFAULT UND _ZNSt3__112basic_stringIc
25:   FUNC GLOBAL DEFAULT UND _ZNSt3__112basic_stringIc
26:   FUNC GLOBAL DEFAULT UND _ZNSt3__113basic_ostreamI
27:   FUNC GLOBAL DEFAULT UND _ZNSt3__113basic_ostreamI
28:   FUNC GLOBAL DEFAULT UND _ZNSt3__113basic_ostreamI
29:   FUNC GLOBAL DEFAULT UND _ZNSt3__113basic_ostreamI
30:   FUNC GLOBAL DEFAULT UND _ZNSt3__113basic_ostreamI
31:   FUNC GLOBAL DEFAULT UND _ZNSt3__113basic_ostreamI
32:   FUNC GLOBAL DEFAULT UND _ZNSt3__115basic_streambu
33:   FUNC GLOBAL DEFAULT UND _ZNSt3__115basic_streambu
34:   FUNC GLOBAL DEFAULT UND _ZNSt3__115basic_streambu
35:   FUNC GLOBAL DEFAULT UND _ZNSt3__115basic_streambu
36:   FUNC GLOBAL DEFAULT UND _ZNSt3__115basic_streambu
37:   FUNC GLOBAL DEFAULT UND _ZNSt3__115basic_streambu
38:   FUNC GLOBAL DEFAULT UND _ZNSt3__115basic_streambu
39:   FUNC GLOBAL DEFAULT UND _ZNSt3__115basic_streambu
40:   FUNC GLOBAL DEFAULT UND _ZNSt3__115basic_streambu
41:   FUNC GLOBAL DEFAULT UND _ZNSt3__18ios_base4initEP
42:   FUNC GLOBAL DEFAULT UND _ZNSt3__19basic_iosIcNS_1
43:   FUNC GLOBAL DEFAULT UND _ZTv0_n12_NSt3__113basic_
44:   FUNC GLOBAL DEFAULT UND _ZTv0_n12_NSt3__113basic_
45:   FUNC GLOBAL DEFAULT UND memcmp@LIBC (3)
46:   FUNC GLOBAL DEFAULT UND _ZNSt3__113basic_ostreamI
47:   FUNC GLOBAL DEFAULT UND _ZN7android4base12StringP
48:   FUNC GLOBAL DEFAULT UND lseek@LIBC (3)
49:   FUNC GLOBAL DEFAULT UND read@LIBC (3)
50:   FUNC GLOBAL DEFAULT UND strerror@LIBC (3)
51:   FUNC GLOBAL DEFAULT UND _ZN7android4base10StartsW
52:   FUNC GLOBAL DEFAULT UND _ZN7android4base8EndsWith
53:   FUNC GLOBAL DEFAULT UND _ZNKSt3__112basic_stringI
54:   FUNC GLOBAL DEFAULT UND _ZNKSt3__112basic_stringI
55:   FUNC GLOBAL DEFAULT UND _ZNSt3__112basic_stringIc
56:   FUNC GLOBAL DEFAULT UND _ZNSt3__112basic_stringIc
57:   FUNC GLOBAL DEFAULT UND _ZNSt3__112basic_stringIc
58:   FUNC GLOBAL DEFAULT UND _ZNSt3__112basic_stringIc
59:   FUNC GLOBAL DEFAULT UND _ZNSt3__112basic_stringIc
60:   FUNC GLOBAL DEFAULT UND _ZNSt3__112basic_stringIc
61:   FUNC GLOBAL DEFAULT UND _ZNSt3__113basic_ostreamI
62:   FUNC GLOBAL DEFAULT UND __read_chk@LIBC (3)
63:   FUNC GLOBAL DEFAULT UND dirname@LIBC (3)
64:   FUNC GLOBAL DEFAULT UND dladdr@LIBC (4)
65:   FUNC GLOBAL DEFAULT UND fcntl@LIBC (3)
66:   FUNC GLOBAL DEFAULT UND getenv@LIBC (3)
67:   FUNC GLOBAL DEFAULT UND memchr@LIBC (3)
68:   FUNC GLOBAL DEFAULT UND mkdir@LIBC (3)
69:   FUNC GLOBAL DEFAULT UND realpath@LIBC (3)
70:   FUNC GLOBAL DEFAULT UND strdup@LIBC (3)
71:   FUNC GLOBAL DEFAULT UND _ZN7android4base10LogdLog
72:   FUNC GLOBAL DEFAULT UND _ZN7android4base10LogdLog
73:   FUNC GLOBAL DEFAULT UND _ZN7android4base11InitLog
74:   FUNC GLOBAL DEFAULT UND __android_log_write@LIBLOG (5)
75:   FUNC GLOBAL DEFAULT UND __memmove_chk@LIBC (3)
76:   FUNC GLOBAL DEFAULT UND __vsnprintf_chk@LIBC (3)
77:   FUNC GLOBAL DEFAULT UND malloc@LIBC (3)
78:   FUNC GLOBAL DEFAULT UND strrchr@LIBC (3)
79:   FUNC GLOBAL DEFAULT UND _ZNSt3__15mutex4lockEv
80:   FUNC GLOBAL DEFAULT UND _ZNSt3__15mutex6unlockEv
81:   FUNC GLOBAL DEFAULT UND _ZNSt3__15mutexD1Ev
82:   FUNC GLOBAL DEFAULT UND __cxa_guard_acquire
83:   FUNC GLOBAL DEFAULT UND __cxa_guard_release
84:   FUNC GLOBAL DEFAULT UND android_get_device_api_le@LIBC_Q (6)
85:   FUNC GLOBAL DEFAULT UND syscall@LIBC (3)
86:   FUNC GLOBAL DEFAULT UND sscanf@LIBC (3)
87:   FUNC GLOBAL DEFAULT UND uname@LIBC (3)
88:   FUNC GLOBAL DEFAULT UND _ZNSt3__112basic_stringIc
89:   FUNC GLOBAL DEFAULT UND _ZNSt3__113basic_ostreamI
90:   FUNC WEAK DEFAULT UND android_fdsan_close_with_@LIBC_Q (6)
91:   FUNC WEAK DEFAULT UND android_fdsan_create_owne@LIBC_Q (6)
92:   FUNC GLOBAL DEFAULT UND close@LIBC (3)
93:   FUNC GLOBAL DEFAULT UND madvise@LIBC (3)
94:   FUNC GLOBAL DEFAULT UND mprotect@LIBC (3)
95:   FUNC GLOBAL DEFAULT UND mremap@LIBC (3)
96:   FUNC GLOBAL DEFAULT UND msync@LIBC (3)
97:   FUNC GLOBAL DEFAULT UND prctl@LIBC (3)
98:   FUNC GLOBAL DEFAULT UND stat@LIBC (3)
99:   FUNC GLOBAL DEFAULT UND unlink@LIBC (3)
100:   FUNC GLOBAL DEFAULT UND getpid@LIBC (3)
101:   FUNC GLOBAL DEFAULT UND process_vm_readv@LIBC (3)
102:   FUNC GLOBAL DEFAULT UND flock@LIBC (3)
103:   FUNC GLOBAL DEFAULT UND fstat@LIBC (3)
104:   FUNC GLOBAL DEFAULT UND getpwnam@LIBC (3)
105:   FUNC GLOBAL DEFAULT UND getsockopt@LIBC (3)
106:   FUNC GLOBAL DEFAULT UND _ZNSt3__113basic_ostreamI
107:   FUNC GLOBAL DEFAULT UND clock_gettime@LIBC (3)
108:   FUNC GLOBAL DEFAULT UND localtime_r@LIBC (3)
109:   FUNC GLOBAL DEFAULT UND nanosleep@LIBC (3)
110:   FUNC GLOBAL DEFAULT UND time@LIBC (3)
111:   FUNC GLOBAL DEFAULT UND _ZNSt3__112basic_stringIc
112:   FUNC GLOBAL DEFAULT UND _ZdaPv
113:   FUNC GLOBAL DEFAULT UND _Znaj
114:   FUNC GLOBAL DEFAULT UND __open_2@LIBC (3)
115:   FUNC WEAK DEFAULT UND android_fdsan_exchange_ow@LIBC_Q (6)
116:   FUNC GLOBAL DEFAULT UND fdatasync@LIBC (3)
117:   FUNC GLOBAL DEFAULT UND ftruncate64@LIBC (3)
118:   FUNC GLOBAL DEFAULT UND open@LIBC (3)
119:   FUNC GLOBAL DEFAULT UND pread@LIBC (3)
120:   FUNC GLOBAL DEFAULT UND pread64@LIBC (3)
121:   FUNC GLOBAL DEFAULT UND pwrite@LIBC (3)
122:   FUNC GLOBAL DEFAULT UND pwrite64@LIBC (3)
123:   FUNC GLOBAL DEFAULT UND sendfile@LIBC (3)
124:   FUNC GLOBAL DEFAULT UND write@LIBC (3)
125:   FUNC GLOBAL DEFAULT UND _ZN7android4base16ReadFil
126:   FUNC GLOBAL DEFAULT UND _ZNKSt3__112basic_stringI
127:   FUNC GLOBAL DEFAULT UND _ZNKSt3__120__vector_base
128:   FUNC GLOBAL DEFAULT UND _ZNKSt3__121__basic_strin
129:   FUNC GLOBAL DEFAULT UND _ZNKSt3__16locale9has_fac
130:   FUNC GLOBAL DEFAULT UND _ZNSt3__113basic_istreamI
131:   FUNC GLOBAL DEFAULT UND _ZNSt3__113basic_istreamI
132:   FUNC GLOBAL DEFAULT UND _ZNSt3__113basic_istreamI
133:   FUNC GLOBAL DEFAULT UND _ZNSt3__113basic_istreamI
134:   FUNC GLOBAL DEFAULT UND _ZNSt3__16localeC1ERKS0_
135:   OBJECT GLOBAL DEFAULT UND _ZNSt3__17codecvtIcc9mbst
136:   FUNC GLOBAL DEFAULT UND _ZTv0_n12_NSt3__113basic_
137:   FUNC GLOBAL DEFAULT UND _ZTv0_n12_NSt3__113basic_
138:   FUNC GLOBAL DEFAULT UND abort@LIBC (3)
139:   FUNC GLOBAL DEFAULT UND cacheflush@LIBC (3)
140:   FUNC GLOBAL DEFAULT UND fclose@LIBC (3)
141:   FUNC GLOBAL DEFAULT UND fflush@LIBC (3)
142:   FUNC GLOBAL DEFAULT UND fopen@LIBC (3)
143:   FUNC GLOBAL DEFAULT UND fread@LIBC (3)
144:   FUNC GLOBAL DEFAULT UND fseeko@LIBC (3)
145:   FUNC GLOBAL DEFAULT UND ftello@LIBC (3)
146:   FUNC GLOBAL DEFAULT UND fwrite@LIBC (3)
147:   FUNC GLOBAL DEFAULT UND gettid@LIBC (3)
148:   FUNC GLOBAL DEFAULT UND pthread_self@LIBC (3)
149:   FUNC GLOBAL DEFAULT UND pthread_setname_np@LIBC (3)
150:   FUNC GLOBAL DEFAULT UND strncmp@LIBC (3)
151:   FUNC GLOBAL DEFAULT UND strncpy@LIBC (3)
152:   FUNC GLOBAL DEFAULT UND strtoull@LIBC (3)
153:   FUNC GLOBAL DEFAULT UND usleep@LIBC (3)
154:   FUNC GLOBAL DEFAULT UND mmap@LIBC (3)
155:   FUNC GLOBAL DEFAULT UND munmap@LIBC (3)
156:   FUNC GLOBAL DEFAULT UND ferror@LIBC (3)
157:   FUNC GLOBAL DEFAULT UND fseek@LIBC (3)
158:   FUNC GLOBAL DEFAULT UND ftell@LIBC (3)
159:   FUNC GLOBAL DEFAULT UND _ZN7android4base10MappedF
160:   FUNC GLOBAL DEFAULT UND _ZN7android4base10MappedF
161:   FUNC GLOBAL DEFAULT UND _ZN7android4base10WriteFu
162:   FUNC GLOBAL DEFAULT UND _ZN7android4base17ReadFul
163:   FUNC GLOBAL DEFAULT UND __android_log_error_write@LIBLOG_M (7)
164:   FUNC GLOBAL DEFAULT UND __android_log_print@LIBLOG (5)
165:   FUNC GLOBAL DEFAULT UND __cxa_pure_virtual
166:   FUNC GLOBAL DEFAULT UND __memcpy_chk@LIBC (3)
167:   FUNC GLOBAL DEFAULT UND fallocate64@LIBC (3)
168:   FUNC GLOBAL DEFAULT UND lseek64@LIBC (3)
169:   FUNC GLOBAL DEFAULT UND memcpy@LIBC (3)
170:   FUNC GLOBAL DEFAULT UND memmove@LIBC (3)
171:   FUNC GLOBAL DEFAULT UND memset@LIBC (3)
172:   FUNC WEAK DEFAULT UND android_set_abort_message@LIBC (3)
173:   FUNC GLOBAL PROTECTED 15 _ZN3art10DupCloexecEi
174:   FUNC GLOBAL PROTECTED 15 _ZN3art12SleepForeverEv
175:   FUNC WEAK PROTECTED 15 _ZNSt3__113basic_filebufI
176:   FUNC GLOBAL DEFAULT 15 ARM_Convert
177:   FUNC GLOBAL DEFAULT 15 LookInStream_LookRead
178:   FUNC GLOBAL PROTECTED 15 _ZN3art5ArenaC2Ev
179:   FUNC GLOBAL PROTECTED 15 _ZN3art12InitTimeSpecEbix
180:   FUNC GLOBAL PROTECTED 15 _ZNK9unix_file6FdFile10Ch
181:   FUNC GLOBAL DEFAULT 15 LZ4_sizeofStreamState
182:   FUNC GLOBAL DEFAULT 15 LZ4_versionNumber
183:   FUNC GLOBAL DEFAULT 15 AesCtr_Code_Intel
184:   FUNC GLOBAL DEFAULT 15 Crc64Update
185:   FUNC WEAK PROTECTED 15 _ZNSt3__110__function6__f
186:   FUNC GLOBAL DEFAULT 15 _ZN9ZipStringC1EPKc
187:   FUNC GLOBAL DEFAULT 15 LookToRead2_CreateVTable
188:   FUNC GLOBAL DEFAULT 15 Lzma2Enc_Create
189:   FUNC GLOBAL DEFAULT 15 __udivmodsi4
190:   FUNC GLOBAL PROTECTED 15 _ZN9unix_file6FdFileaSEOS
191:   FUNC GLOBAL DEFAULT 15 AesCbc_Encode
192:   FUNC GLOBAL DEFAULT 15 Crc64Calc
193:   FUNC GLOBAL PROTECTED 15 _ZNK3art14ArenaAllocator9
194:   FUNC GLOBAL PROTECTED 15 _ZNK3art9BitVector4DumpER
195:   FUNC WEAK PROTECTED 15 _ZNKSt3__110__function6__
196:   FUNC GLOBAL PROTECTED 15 _ZN9unix_file6FdFileC2EiR
197:   FUNC GLOBAL DEFAULT 15 SzAlloc
198:   FUNC GLOBAL DEFAULT 15 AesCbc_Decode_Intel
199:   FUNC GLOBAL DEFAULT 15 Xz_Free
200:   FUNC WEAK PROTECTED 15 _ZNSt3__115basic_stringbu
201:   FUNC GLOBAL PROTECTED 15 _ZNK3art10ZipArchive4Find
202:   FUNC GLOBAL DEFAULT 15 XzDecMtProps_Init
203:   FUNC GLOBAL PROTECTED 15 _ZN9unix_file6FdFile7Rele
204:   FUNC GLOBAL PROTECTED 15 _ZN3art12GetTaskStatsEiPc
205:   FUNC GLOBAL DEFAULT 15 LzmaEnc_SetProps
206:   FUNC GLOBAL DEFAULT 15 Ppmd7_Free
207:   FUNC GLOBAL DEFAULT 15 XzBlock_ReadHeader
208:   FUNC WEAK PROTECTED 15 _ZNSt3__127__tree_balance
209:   FUNC WEAK PROTECTED 15 _ZN9unix_file6FdFile17Wri
210:   FUNC GLOBAL PROTECTED 15 _ZN9unix_file6FdFile4Open
211:   FUNC GLOBAL DEFAULT 15 MatchFinder_Normalize3
212:   OBJECT GLOBAL DEFAULT 24 g_Crc64Table
213:   FUNC GLOBAL DEFAULT 15 XzEnc_SetProps
214:   FUNC GLOBAL DEFAULT 15 zcalloc
215:   FUNC GLOBAL PROTECTED 15 _ZN3art15MallocArenaPool1
216:   FUNC GLOBAL DEFAULT 15 LZ4F_compressBegin
217:   FUNC GLOBAL PROTECTED 15 _ZNK3art9BitVector10NumSe
218:   FUNC GLOBAL PROTECTED 15 _ZN3artlsERNSt3__113basic
219:   FUNC GLOBAL PROTECTED 15 _ZNK3art8ZipEntry11IsAlig
220:   FUNC GLOBAL DEFAULT 15 LZ4_resetStreamStateHC
221:   FUNC GLOBAL DEFAULT 15 Ppmd7z_RangeDec_Init
222:   FUNC GLOBAL PROTECTED 15 _ZN3art9BitVectorD1Ev
223:   OBJECT WEAK PROTECTED 19 _ZN3art9hiddenapi7ApiList
224:   FUNC GLOBAL PROTECTED 15 _ZN3art26ProgramInvocatio
225:   FUNC GLOBAL PROTECTED 15 _ZN9unix_file8CopyFileERK
226:   FUNC GLOBAL DEFAULT 15 LZ4_compressHC2_limitedOu
227:   FUNC GLOBAL DEFAULT 15 LzmaCompress
228:   FUNC GLOBAL DEFAULT 15 Xz_WriteVarInt
229:   OBJECT GLOBAL DEFAULT 19 _ZTVN11zip_archive6Writer
230:   FUNC GLOBAL PROTECTED 15 _ZN3art14ArenaAllocator26
231:   FUNC GLOBAL DEFAULT 15 _ZN16CentralDirectory10In
232:   FUNC GLOBAL PROTECTED 15 _ZN3art23GetInstructionSe
233:   FUNC GLOBAL PROTECTED 15 _ZN3art6MemMap4InitEv
234:   FUNC GLOBAL DEFAULT 15 XzCheck_Init
235:   FUNC GLOBAL DEFAULT 15 _ZN10ZipArchiveC1EPvj
236:   FUNC GLOBAL PROTECTED 15 _ZN3art14ArenaAllocator20
237:   FUNC GLOBAL PROTECTED 15 _ZN3art6MemMap12MapAnonym
238:   FUNC GLOBAL DEFAULT 15 AesCbc_Decode
239:   FUNC GLOBAL DEFAULT 15 MatchFinder_Init_LowHash
240:   FUNC GLOBAL DEFAULT 15 XzProps_Init
241:   OBJECT WEAK DEFAULT 19 _ZTCNSt3__119basic_ostrin
242:   FUNC GLOBAL DEFAULT 15 SzGetNextFolderItem
243:   FUNC GLOBAL DEFAULT 15 MatchFinder_Init_3
244:   FUNC GLOBAL DEFAULT 15 Ppmd7_MakeEscFreq
245:   FUNC GLOBAL DEFAULT 15 __divdi3
246:   FUNC GLOBAL PROTECTED 15 _ZNK3art9BitVector10IsSub
247:   FUNC GLOBAL DEFAULT 15 XzBlock_Parse
248:   FUNC GLOBAL PROTECTED 15 _ZN3art6MemMap12SetDebugN
249:   FUNC WEAK PROTECTED 15 _ZNSt3__16__treeINS_12__v
250:   OBJECT GLOBAL DEFAULT 24 g_CrcUpdate
251:   FUNC GLOBAL PROTECTED 15 _ZN9unix_file6FdFileC1Eib
252:   FUNC GLOBAL DEFAULT 15 __udivmoddi4
253:   FUNC GLOBAL PROTECTED 15 _ZN3art24ArenaAllocatorMe
254:   FUNC GLOBAL DEFAULT 15 LZ4_compress_forceExtDict
255:   FUNC GLOBAL DEFAULT 15 FileSeqInStream_CreateVTa
256:   FUNC GLOBAL DEFAULT 15 LZ4_compress_limitedOutpu
257:   FUNC GLOBAL DEFAULT 15 LZ4_compress_HC_continue
258:   FUNC GLOBAL PROTECTED 15 _ZNK3art9BitVector10NumSe
259:   FUNC GLOBAL PROTECTED 15 _ZN9unix_file6FdFileC2EiR
260:   OBJECT WEAK PROTECTED 19 _ZTVN3art10LockedFileE
261:   FUNC GLOBAL PROTECTED 15 _ZN3art6MemMap10RemapAtEn
262:   FUNC GLOBAL PROTECTED 15 _ZN3art20ScopedArenaAlloc
263:   FUNC GLOBAL DEFAULT 15 XzCrc64UpdateT4
264:   FUNC GLOBAL PROTECTED 15 _ZN3art8ZipEntry15Extract
265:   FUNC GLOBAL DEFAULT 15 LZ4_resetStreamHC
266:   FUNC GLOBAL DEFAULT 15 _ZN11zip_archive6ReaderD1
267:   FUNC GLOBAL PROTECTED 15 _ZNK3art14ArenaAllocator8
268:   FUNC GLOBAL PROTECTED 15 _ZN3art6MemMapD1Ev
269:   FUNC GLOBAL PROTECTED 15 _ZN3art2OS10FileExistsEPK
270:   FUNC GLOBAL DEFAULT 15 __aeabi_memcpy4
271:   FUNC GLOBAL DEFAULT 15 XzFilterProps_Init
272:   FUNC GLOBAL DEFAULT 15 XzUnpacker_IsStreamWasFin
273:   FUNC GLOBAL PROTECTED 15 _ZN3art10ArenaStack21Allo
274:   FUNC GLOBAL DEFAULT 15 LookInStream_SeekTo
275:   FUNC GLOBAL DEFAULT 15 _ZN10ZipArchiveD2Ev
276:   FUNC GLOBAL PROTECTED 15 _ZN3art27GetDefaultBootIm
277:   FUNC GLOBAL PROTECTED 15 _ZN3art6MemMap7AlignByEj
278:   FUNC GLOBAL PROTECTED 15 _ZN3art2OS17OpenFileWithF
279:   FUNC GLOBAL PROTECTED 15 _ZN3art6MemMap11TryReadab
280:   FUNC GLOBAL PROTECTED 15 _ZN9unix_file6FdFile7Comp
281:   FUNC GLOBAL DEFAULT 15 LZ4F_createCDict
282:   FUNC GLOBAL DEFAULT 15 __aeabi_memcpy8
283:   FUNC GLOBAL DEFAULT 15 XzUnpacker_IsBlockFinishe
284:   FUNC GLOBAL PROTECTED 15 _ZN3art18GetAndroidDataSa
285:   FUNC WEAK PROTECTED 15 _ZNKSt3__110__function6__
286:   FUNC GLOBAL PROTECTED 15 _ZN3art6MemMapC1EOS0_
287:   FUNC GLOBAL DEFAULT 15 LZ4_decompress_fast_conti
288:   FUNC GLOBAL DEFAULT 15 Lzma2EncProps_Normalize
289:   FUNC WEAK PROTECTED 15 _ZNSt3__110__function6__f
290:   FUNC GLOBAL DEFAULT 15 MatchFinder_CreateVTable
291:   FUNC GLOBAL PROTECTED 15 _ZN9unix_file6FdFileC1EOS
292:   FUNC GLOBAL PROTECTED 15 _ZN3art15MallocArenaPool1
293:   FUNC GLOBAL PROTECTED 15 _ZN3art2OS24CreateEmptyFi
294:   FUNC GLOBAL PROTECTED 15 _ZN3art10ZipArchive10Open
295:   FUNC GLOBAL DEFAULT 15 __aeabi_memset
296:   FUNC GLOBAL PROTECTED 15 _ZNK9unix_file6FdFile9Get
297:   FUNC GLOBAL DEFAULT 15 LZ4F_getErrorName
298:   FUNC GLOBAL DEFAULT 15 AesGenTables
299:   OBJECT GLOBAL DEFAULT 24 g_AesCbc_Encode
300:   FUNC GLOBAL DEFAULT 15 XzEnc_Encode
301:   OBJECT WEAK PROTECTED 13 _ZN3art9hiddenapi7ApiList
302:   FUNC GLOBAL DEFAULT 15 __aeabi_uldivmod
303:   OBJECT GLOBAL DEFAULT 19 z_errmsg
304:   FUNC GLOBAL PROTECTED 15 _ZN3art9BitVector12UnionI
305:   FUNC GLOBAL PROTECTED 15 _ZN3art9BitVector4CopyEPK
306:   FUNC GLOBAL PROTECTED 15 _ZN9unix_file6FdFile12Cle
307:   FUNC GLOBAL DEFAULT 15 LZ4_saveDictHC
308:   FUNC GLOBAL DEFAULT 15 XXH32
309:   FUNC GLOBAL DEFAULT 15 AesCbc_Encode_Intel
310:   FUNC GLOBAL DEFAULT 15 XzDecMt_Destroy
311:   FUNC GLOBAL DEFAULT 15 Xz_GetPackSize
312:   OBJECT WEAK PROTECTED 19 _ZTVN3art23ArenaBitVector
313:   OBJECT WEAK DEFAULT 19 _ZTTNSt3__119basic_ostrin
314:   FUNC GLOBAL PROTECTED 15 _ZN3art18GetAndroidRootSa
315:   FUNC GLOBAL DEFAULT 15 LZ4_freeStreamHC
316:   FUNC GLOBAL DEFAULT 15 XzUnpacker_Construct
317:   FUNC GLOBAL PROTECTED 15 _ZN3art23instruction_set_
318:   FUNC GLOBAL PROTECTED 15 _ZN3art16ReadFileToString
319:   FUNC WEAK PROTECTED 15 _ZNSt3__16__treeINS_12__v
320:   FUNC GLOBAL PROTECTED 15 _ZN3art22GetAppropriateTi
321:   FUNC GLOBAL PROTECTED 15 _ZN9unix_file6FdFile11Res
322:   FUNC GLOBAL DEFAULT 15 MatchFinder_Init
323:   FUNC GLOBAL DEFAULT 15 XzEnc_Destroy
324:   FUNC GLOBAL PROTECTED 15 _ZN3art26GetInstructionSe
325:   FUNC WEAK PROTECTED 15 _ZNSt3__113__tree_removeI
326:   FUNC GLOBAL PROTECTED 15 _ZN9unix_file6FdFile6move
327:   FUNC GLOBAL DEFAULT 15 LzmaDec_DecodeToBuf
328:   FUNC GLOBAL PROTECTED 15 _ZN3art2OS15CreateEmptyFi
329:   FUNC GLOBAL PROTECTED 15 _ZN3art10ArenaStackD1Ev
330:   FUNC WEAK PROTECTED 15 _ZNSt3__113basic_filebufI
331:   FUNC GLOBAL DEFAULT 15 LZ4_compressHC
332:   FUNC GLOBAL DEFAULT 15 Lzma2Decode
333:   FUNC GLOBAL DEFAULT 15 LZ4_attach_dictionary
334:   FUNC GLOBAL DEFAULT 15 XXH64_createState
335:   FUNC GLOBAL DEFAULT 15 __aeabi_memset4
336:   FUNC GLOBAL PROTECTED 15 _ZN3art8ZipEntry19MapDire
337:   OBJECT GLOBAL DEFAULT 24 g_AesCbc_Decode
338:   FUNC GLOBAL DEFAULT 15 inflateValidate
339:   FUNC GLOBAL DEFAULT 15 LZ4_compress
340:   FUNC GLOBAL DEFAULT 15 LZ4_loadDictHC
341:   FUNC GLOBAL PROTECTED 15 _ZN3art18LocationIsOnSyst
342:   FUNC GLOBAL DEFAULT 15 LzmaDec_DecodeToDic
343:   FUNC GLOBAL DEFAULT 15 _Z12EndIterationPv
344:   FUNC GLOBAL PROTECTED 15 _ZN3art13GetGMapsEntryERK
345:   FUNC GLOBAL DEFAULT 15 XXH_versionNumber
346:   FUNC GLOBAL DEFAULT 15 __aeabi_memset8
347:   FUNC GLOBAL DEFAULT 15 LZ4_compress_withState
348:   FUNC GLOBAL DEFAULT 15 XXH32_canonicalFromHash
349:   FUNC GLOBAL PROTECTED 15 _ZN3art24ArenaAllocatorMe
350:   FUNC GLOBAL PROTECTED 15 _ZNK3art9BitVector11SameB
351:   FUNC GLOBAL PROTECTED 15 _ZN3art15MallocArenaPool8
352:   FUNC GLOBAL PROTECTED 15 _ZN9unix_file6FdFileD0Ev
353:   FUNC GLOBAL DEFAULT 15 LZ4_decompress_safe_parti
354:   FUNC GLOBAL DEFAULT 15 LZ4_decompress_safe_withP
355:   OBJECT WEAK PROTECTED 19 _ZTVN3art5ArenaE
356:   OBJECT GLOBAL PROTECTED 24 _ZN3art9gAbortingE
357:   FUNC GLOBAL PROTECTED 15 _ZN3art10ZipArchiveD1Ev
358:   FUNC GLOBAL DEFAULT 15 LzmaEnc_GetNumAvailableBy
359:   FUNC GLOBAL PROTECTED 15 _ZN3art16OpenAndReadMagic
360:   FUNC GLOBAL PROTECTED 15 _ZN9unix_file6FdFileC2ERK
361:   FUNC GLOBAL PROTECTED 15 _ZN3art10ArenaStack19Allo
362:   FUNC WEAK PROTECTED 15 _ZNSt3__113basic_filebufI
363:   FUNC GLOBAL DEFAULT 15 LZ4_sizeofState
364:   FUNC GLOBAL PROTECTED 15 _ZN3art6MemMap16MapFileAt
365:   FUNC GLOBAL PROTECTED 15 _ZN3art24RegisterRuntimeD
366:   FUNC GLOBAL PROTECTED 15 _ZN9unix_file6FdFile11Pwr
367:   FUNC GLOBAL PROTECTED 15 _ZNK9unix_file6FdFile8IsO
368:   FUNC GLOBAL DEFAULT 15 x86_Convert
369:   FUNC GLOBAL DEFAULT 15 Ppmd7z_RangeDec_CreateVTa
370:   FUNC GLOBAL DEFAULT 15 XzUnpacker_Init
371:   FUNC GLOBAL PROTECTED 15 _ZN3art10ZipArchive4OpenE
372:   FUNC GLOBAL PROTECTED 15 _ZN3art8ZipEntryD1Ev
373:   FUNC GLOBAL DEFAULT 15 Lzma2Dec_AllocateProbs
374:   FUNC GLOBAL DEFAULT 15 AesCbc_Init
375:   FUNC GLOBAL DEFAULT 15 MyAlloc
376:   FUNC GLOBAL DEFAULT 15 XzEnc_Create
377:   FUNC WEAK PROTECTED 15 _ZNSt3__113basic_filebufI
378:   FUNC GLOBAL PROTECTED 15 _ZN9unix_filelsERNSt3__11
379:   FUNC GLOBAL DEFAULT 15 LZ4_createStreamDecode
380:   FUNC GLOBAL DEFAULT 15 MatchFinder_ReduceOffsets
381:   FUNC GLOBAL DEFAULT 15 zlibCompileFlags
382:   FUNC GLOBAL PROTECTED 15 _ZNK3art12MemoryRegion8Co
383:   FUNC GLOBAL DEFAULT 15 LZ4_compressHC2_withState
384:   FUNC GLOBAL DEFAULT 15 LZ4_compress_HC_destSize
385:   FUNC GLOBAL DEFAULT 15 LZ4_compress_HC_extStateH
386:   FUNC GLOBAL DEFAULT 15 inflateInit2_
387:   FUNC GLOBAL DEFAULT 15 _Z11OpenArchivePKcPP10Zip
388:   FUNC GLOBAL DEFAULT 15 MatchFinder_Free
389:   FUNC GLOBAL PROTECTED 15 _ZN3art14ArenaAllocatorD1
390:   FUNC GLOBAL PROTECTED 15 _ZN3art14ArenaAllocator17
391:   FUNC GLOBAL PROTECTED 15 _ZN3art15MallocArenaPoolD
392:   FUNC GLOBAL PROTECTED 15 _ZN3art6MemMap4SyncEv
393:   FUNC GLOBAL PROTECTED 15 _ZN3art10LockedFile11Rele
394:   FUNC GLOBAL PROTECTED 15 _ZN9unix_file6FdFileD2Ev
395:   FUNC GLOBAL DEFAULT 15 LZ4F_isError
396:   FUNC GLOBAL DEFAULT 15 Lzma2Dec_DecodeToBuf
397:   FUNC GLOBAL DEFAULT 15 XzCheck_Final
398:   FUNC GLOBAL DEFAULT 15 inflatePrime
399:   FUNC GLOBAL PROTECTED 15 _ZN3art2OS16GetFileSizeBy
400:   FUNC GLOBAL DEFAULT 15 LZ4_resetStream
401:   FUNC GLOBAL DEFAULT 15 LZ4_compressHC_withStateH
402:   FUNC GLOBAL PROTECTED 15 _ZN3art9BitVectorC2EbPNS_
403:   FUNC GLOBAL PROTECTED 15 _ZNK9unix_file6FdFile4Rea
404:   FUNC GLOBAL DEFAULT 15 _Z13OpenArchiveFdiPKcPP10
405:   OBJECT GLOBAL PROTECTED 17 _ZN3art16g_noop_allocator
406:   FUNC GLOBAL PROTECTED 15 _ZN3art9BitVector8Subtrac
407:   FUNC GLOBAL PROTECTED 15 _ZN3art27LocationIsOnCons
408:   FUNC GLOBAL PROTECTED 15 _ZN3art6MemMap14TargetMMa
409:   FUNC WEAK PROTECTED 15 _ZNSt3__16__treeINS_12__v
410:   FUNC GLOBAL PROTECTED 15 _ZN3art22GetNsToTimeUnitD
411:   FUNC GLOBAL DEFAULT 15 Buf_Init
412:   FUNC GLOBAL DEFAULT 15 LzmaEnc_CodeOneMemBlock
413:   FUNC GLOBAL DEFAULT 15 LzmaEnc_Destroy
414:   FUNC GLOBAL DEFAULT 15 LZ4_compress_limitedOutpu
415:   FUNC GLOBAL DEFAULT 15 SzBitUi64s_Free
416:   FUNC GLOBAL DEFAULT 15 crc32
417:   FUNC GLOBAL DEFAULT 15 get_crc_table
418:   FUNC GLOBAL PROTECTED 15 _ZN3art10LockedFile4OpenE
419:   FUNC GLOBAL PROTECTED 15 _ZN3art5SplitERKNSt3__112
420:   FUNC GLOBAL DEFAULT 15 LZ4F_compressBegin_usingC
421:   FUNC GLOBAL DEFAULT 15 CrcUpdateT1
422:   FUNC GLOBAL DEFAULT 15 Crc64GenerateTable
423:   FUNC GLOBAL DEFAULT 15 zlibVersion
424:   FUNC GLOBAL DEFAULT 15 LZ4_sizeofStateHC
425:   FUNC GLOBAL DEFAULT 15 Lzma2Dec_DecodeToDic
426:   FUNC GLOBAL DEFAULT 15 _ZNK8ZipEntry19GetModific
427:   FUNC GLOBAL DEFAULT 15 inflate
428:   FUNC WEAK PROTECTED 15 _ZNSt3__110__function6__f
429:   OBJECT WEAK DEFAULT 19 _ZTVNSt3__114basic_ifstre
430:   FUNC GLOBAL DEFAULT 15 CrcCalc
431:   FUNC GLOBAL DEFAULT 15 Xzs_GetUnpackSize
432:   FUNC GLOBAL DEFAULT 15 _ZNK13MappedZipFile13GetF
433:   FUNC GLOBAL DEFAULT 15 zError
434:   FUNC GLOBAL PROTECTED 15 _ZN3art14GetDalvikCacheEP
435:   OBJECT GLOBAL PROTECTED 19 _ZTVN3art15MallocArenaPoo
436:   FUNC GLOBAL DEFAULT 15 LZ4_compressHC2_continue
437:   FUNC GLOBAL DEFAULT 15 CrcUpdateT4
438:   FUNC GLOBAL DEFAULT 15 LzmaEnc_SaveState
439:   OBJECT GLOBAL PROTECTED 17 _ZN3art18g_malloc_allocat
440:   FUNC GLOBAL PROTECTED 15 _ZN3art9Allocator18GetMal
441:   FUNC GLOBAL PROTECTED 15 _ZN3art9BitVector14SetIni
442:   FUNC WEAK PROTECTED 15 _ZNSt3__17getlineIcNS_11c
443:   FUNC GLOBAL DEFAULT 15 LZ4_compress_fast_force
444:   FUNC GLOBAL DEFAULT 15 SzArEx_Open
445:   FUNC GLOBAL DEFAULT 15 SzAr_GetFolderUnpackSize
446:   FUNC GLOBAL PROTECTED 15 _ZN3art6MemMap14DumpMapsL
447:   FUNC GLOBAL PROTECTED 15 _ZN3art20ScopedArenaAlloc
448:   FUNC GLOBAL DEFAULT 15 HeapSort64
449:   FUNC GLOBAL DEFAULT 15 XzUnpacker_Code
450:   FUNC GLOBAL PROTECTED 15 _ZN3art15MallocArenaPoolD
451:   FUNC GLOBAL PROTECTED 15 _ZN9unix_file6FdFile5Flus
452:   FUNC GLOBAL DEFAULT 15 LZ4_uncompress
453:   FUNC GLOBAL DEFAULT 15 XXH64_canonicalFromHash
454:   FUNC GLOBAL DEFAULT 15 OutFile_Open
455:   FUNC GLOBAL DEFAULT 15 LzmaEnc_RestoreState
456:   FUNC GLOBAL DEFAULT 15 XzEnc_SetDataSize
457:   FUNC GLOBAL DEFAULT 15 inflateGetDictionary
458:   FUNC GLOBAL DEFAULT 15 inflateSetDictionary
459:   FUNC GLOBAL DEFAULT 15 LZ4_resetStream_fast
460:   FUNC GLOBAL DEFAULT 15 CrcUpdateT8
461:   FUNC GLOBAL PROTECTED 15 _ZN3art6MemMap10TargetMMa
462:   FUNC WEAK PROTECTED 15 _ZNSt3__113basic_filebufI
463:   FUNC GLOBAL DEFAULT 15 CrcUpdate
464:   FUNC GLOBAL DEFAULT 15 LzmaEnc_Destruct
465:   FUNC GLOBAL DEFAULT 15 XzUnpacker_Free
466:   FUNC GLOBAL DEFAULT 15 LZ4_sizeofStreamStateHC
467:   FUNC GLOBAL DEFAULT 15 LZ4F_createDecompressionC
468:   FUNC GLOBAL DEFAULT 15 Xz_ParseHeader
469:   FUNC GLOBAL PROTECTED 15 _ZN3art14ArenaAllocator31
470:   FUNC GLOBAL PROTECTED 15 _ZN3art20ScopedArenaAlloc
471:   FUNC GLOBAL PROTECTED 15 _ZN3art15GetVdexFilenameE
472:   FUNC GLOBAL PROTECTED 15 _ZN3art11MallocArenaD1Ev
473:   FUNC GLOBAL PROTECTED 15 _ZN3art15MallocArenaPool1
474:   FUNC GLOBAL PROTECTED 15 _ZN3art6MemMap16CheckRese
475:   FUNC GLOBAL PROTECTED 15 _ZNK3art10ArenaStack12Get
476:   FUNC GLOBAL DEFAULT 15 LzmaEnc_WriteProperties
477:   FUNC GLOBAL PROTECTED 15 _ZN3art40RuntimeModuleRoo
478:   FUNC GLOBAL PROTECTED 15 _ZN3art20ScopedArenaAlloc
479:   FUNC GLOBAL DEFAULT 15 LZ4F_createCompressionCon
480:   FUNC GLOBAL DEFAULT 15 inflateResetKeep
481:   OBJECT GLOBAL PROTECTED 24 _ZN3art17TrackedAllocator
482:   FUNC GLOBAL PROTECTED 15 _ZN3art22GetSystemImageFi
483:   FUNC GLOBAL DEFAULT 15 AesCtr_Code
484:   FUNC GLOBAL PROTECTED 15 _ZN3art12memfd_createEPKc
485:   FUNC GLOBAL PROTECTED 15 _ZN3art10ArenaStackC1EPNS
486:   FUNC GLOBAL DEFAULT 15 MatchFinder_GetPointerToC
487:   FUNC GLOBAL DEFAULT 15 inflateSyncPoint
488:   FUNC GLOBAL PROTECTED 15 _ZN3art14ArenaBitVectorC2
489:   FUNC GLOBAL PROTECTED 15 _ZN3art20ScopedArenaAlloc
490:   FUNC GLOBAL DEFAULT 15 LzmaEnc_GetCurBuf
491:   FUNC GLOBAL DEFAULT 15 Ppmd7z_RangeEnc_FlushData
492:   FUNC GLOBAL PROTECTED 15 _ZN3art9BitVectorC2EjbPNS
493:   FUNC GLOBAL PROTECTED 15 _ZN3art15MallocArenaPoolC
494:   FUNC GLOBAL DEFAULT 15 _ZN10ZipArchiveC2Eib
495:   FUNC GLOBAL PROTECTED 15 _ZN3art14ArenaBitVectorC1
496:   FUNC GLOBAL PROTECTED 15 _ZN3art25LocationIsOnRunt
497:   FUNC GLOBAL PROTECTED 15 _ZN3art6MemMap11ReplaceWi
498:   FUNC GLOBAL PROTECTED 15 _ZN3art16GetProcessStatus
499:   FUNC GLOBAL DEFAULT 15 LZ4F_getErrorCode
500:   FUNC GLOBAL DEFAULT 15 XXH64_freeState
501:   FUNC GLOBAL DEFAULT 15 _ZN11zip_archive6WriterD1
502:   FUNC GLOBAL PROTECTED 15 _ZN3art14PrintFileToLogER
503:   FUNC GLOBAL DEFAULT 15 LZ4_compress_fast
504:   FUNC GLOBAL DEFAULT 15 Buf_Free
505:   FUNC GLOBAL DEFAULT 15 LzmaEnc_MemPrepare
506:   FUNC GLOBAL DEFAULT 15 _Z23ProcessZipEntryConten
507:   OBJECT GLOBAL DEFAULT 24 _ZN3art6MemMap14mem_maps_
508:   FUNC GLOBAL DEFAULT 15 XzCheck_Update
509:   OBJECT WEAK DEFAULT 19 _ZTV12MemoryWriter
510:   FUNC GLOBAL PROTECTED 15 _ZN3art11MallocArenaC2Ej
511:   FUNC GLOBAL DEFAULT 15 LZ4F_compressBound
512:   FUNC GLOBAL DEFAULT 15 IA64_Convert
513:   FUNC GLOBAL DEFAULT 15 crc32_combine64
514:   FUNC GLOBAL PROTECTED 15 _ZN3art14ArenaBitVectorC2
515:   FUNC GLOBAL PROTECTED 15 _ZN3art6MemMap26Contained
516:   FUNC GLOBAL PROTECTED 15 _ZN3art6MemMap7DoResetEv
517:   FUNC GLOBAL PROTECTED 15 _ZN9unix_file6FdFile7Dest
518:   FUNC GLOBAL DEFAULT 15 LZ4F_freeCompressionConte
519:   FUNC GLOBAL DEFAULT 15 Ppmd7_DecodeSymbol
520:   FUNC GLOBAL DEFAULT 15 inflateInit_
521:   FUNC GLOBAL PROTECTED 15 _ZN9unix_file6FdFileC1EiR
522:   FUNC WEAK PROTECTED 15 _ZNSt3__16vectorINS_12bas
523:   FUNC GLOBAL DEFAULT 15 LZ4_setStreamDecode
524:   FUNC GLOBAL DEFAULT 15 LZ4_versionString
525:   FUNC GLOBAL DEFAULT 15 Lzma2Enc_SetDataSize
526:   FUNC GLOBAL PROTECTED 15 _ZNK3art15MallocArenaPool
527:   FUNC GLOBAL DEFAULT 15 Buf_Create
528:   FUNC GLOBAL DEFAULT 15 File_Read
529:   FUNC GLOBAL PROTECTED 15 _ZN3art8MemStatsC2EPKcPKN
530:   FUNC WEAK PROTECTED 15 _ZNSt3__115basic_stringbu
531:   FUNC GLOBAL PROTECTED 15 _ZN3art25GetAndroidRuntim
532:   FUNC GLOBAL PROTECTED 15 _ZN3art10GetIsoDateEv
533:   FUNC GLOBAL PROTECTED 15 _ZN3art14ArenaAllocatorC1
534:   FUNC GLOBAL PROTECTED 15 _ZN9unix_file6FdFile10Flu
535:   FUNC GLOBAL DEFAULT 15 inflateSync
536:   FUNC GLOBAL DEFAULT 15 __aeabi_memmove4
537:   FUNC GLOBAL DEFAULT 15 SzArEx_Init
538:   FUNC GLOBAL DEFAULT 15 LZ4_compressHC_limitedOut
539:   FUNC GLOBAL PROTECTED 15 _ZN3art5ArenaC1Ev
540:   FUNC WEAK PROTECTED 15 _ZNSt3__1plIcNS_11char_tr
541:   FUNC GLOBAL DEFAULT 15 LZ4_createStreamHC
542:   FUNC GLOBAL DEFAULT 15 LzmaEncProps_Init
543:   FUNC GLOBAL PROTECTED 15 _ZN9unix_file6FdFile6move
544:   FUNC GLOBAL DEFAULT 15 __aeabi_memmove8
545:   FUNC GLOBAL PROTECTED 15 _ZNK3art9BitVector10DumpH
546:   FUNC GLOBAL PROTECTED 15 _ZN3art13SetThreadNameEPK
547:   FUNC GLOBAL DEFAULT 15 LZ4_create
548:   FUNC GLOBAL DEFAULT 15 LookInStream_Read
549:   FUNC GLOBAL DEFAULT 15 LzmaProps_Decode
550:   FUNC GLOBAL DEFAULT 15 Xzs_GetNumBlocks
551:   FUNC GLOBAL PROTECTED 15 _ZN3art9BitVectorC1ERKS0_
552:   FUNC GLOBAL PROTECTED 15 _ZN3art6MemMap8ShutdownEv
553:   FUNC GLOBAL DEFAULT 15 LZ4_slideInputBufferHC
554:   FUNC GLOBAL DEFAULT 15 Lzma2Dec_Init
555:   FUNC GLOBAL DEFAULT 15 MatchFinder_NeedMove
556:   FUNC GLOBAL DEFAULT 15 crc32_combine
557:   FUNC GLOBAL PROTECTED 15 _ZN3art9Allocator16GetNoo
558:   FUNC WEAK PROTECTED 15 _ZNSt3__110__function6__f
559:   FUNC GLOBAL PROTECTED 15 _ZN3art6MemMap12TargetMUn
560:   FUNC GLOBAL PROTECTED 15 _ZN3art2OS18OpenFileForRe
561:   FUNC GLOBAL PROTECTED 15 _ZN3art14FlushCpuCachesEP
562:   FUNC GLOBAL DEFAULT 15 LZ4_compress_default
563:   FUNC GLOBAL DEFAULT 15 Bcj2Dec_Decode
564:   FUNC GLOBAL DEFAULT 15 LzmaDec_Init
565:   FUNC GLOBAL DEFAULT 15 Lzma2Dec_Allocate
566:   FUNC GLOBAL DEFAULT 15 LzmaEnc_IsWriteEndMark
567:   FUNC WEAK PROTECTED 15 _ZNSt3__16__treeINS_12__v
568:   FUNC GLOBAL DEFAULT 15 LZ4_compress_fast_continu
569:   FUNC GLOBAL DEFAULT 15 DynBuf_SeekToBeg
570:   FUNC GLOBAL DEFAULT 15 Xz_Construct
571:   OBJECT GLOBAL DEFAULT 19 _ZTVN11zip_archive6Reader
572:   FUNC GLOBAL PROTECTED 15 _ZN3artlsERNSt3__113basic
573:   FUNC GLOBAL DEFAULT 15 LZ4_freeHC
574:   FUNC GLOBAL DEFAULT 15 LZ4F_compressFrameBound
575:   FUNC GLOBAL DEFAULT 15 FileInStream_CreateVTable
576:   FUNC GLOBAL DEFAULT 15 LzmaEncProps_GetDictSize
577:   FUNC GLOBAL DEFAULT 15 Xzs_Free
578:   FUNC GLOBAL PROTECTED 15 _ZN9unix_file6FdFileC2Eib
579:   FUNC GLOBAL DEFAULT 15 LZ4_resetStreamState
580:   FUNC GLOBAL DEFAULT 15 LZ4_compressHC_continue
581:   FUNC GLOBAL DEFAULT 15 BraState_SetFromMethod
582:   FUNC GLOBAL DEFAULT 15 Xzs_ReadBackward
583:   OBJECT GLOBAL DEFAULT 13 inflate_copyright
584:   FUNC WEAK PROTECTED 15 _ZNSt3__115basic_stringbu
585:   FUNC GLOBAL PROTECTED 15 _ZN3art19InstructionSetAb
586:   FUNC GLOBAL PROTECTED 15 _ZN3art9BitVectorD0Ev
587:   FUNC GLOBAL PROTECTED 15 _ZN3art6MemMap21ReleaseRe
588:   FUNC GLOBAL PROTECTED 15 _ZN9unix_file6FdFileC1ERK
589:   FUNC GLOBAL PROTECTED 15 _ZN3art20ScopedArenaAlloc
590:   FUNC GLOBAL DEFAULT 15 SzFree
591:   FUNC GLOBAL DEFAULT 15 Xz_ReadHeader
592:   FUNC GLOBAL DEFAULT 15 _ZN10ZipArchive26Initiali
593:   OBJECT WEAK PROTECTED 19 _ZTVN3art23ArenaBitVector
594:   FUNC GLOBAL PROTECTED 15 _ZN3art6MemMap11SwapMembe
595:   FUNC GLOBAL PROTECTED 15 _ZN3art10ArenaStack5Reset
596:   FUNC GLOBAL PROTECTED 15 _ZN9unix_file6FdFile17Flu
597:   FUNC GLOBAL PROTECTED 15 _ZN9unix_file6FdFile5Rese
598:   FUNC GLOBAL PROTECTED 15 _ZN3art8ZipEntry8GetCrc32
599:   FUNC GLOBAL DEFAULT 15 File_Write
600:   FUNC GLOBAL DEFAULT 15 Sha256_Final
601:   FUNC GLOBAL DEFAULT 15 Xzs_Construct
602:   FUNC GLOBAL PROTECTED 15 _ZN3art6MemMap11CheckNoGa
603:   FUNC GLOBAL PROTECTED 15 _ZN9unix_file6FdFile9Read
604:   FUNC GLOBAL DEFAULT 15 LZ4F_compressFrame_usingC
605:   FUNC GLOBAL DEFAULT 15 LZ4F_compressUpdate
606:   FUNC GLOBAL DEFAULT 15 SzAllocTemp
607:   FUNC GLOBAL DEFAULT 15 File_Construct
608:   FUNC GLOBAL DEFAULT 15 Lzma86_GetUnpackSize
609:   FUNC GLOBAL PROTECTED 15 _ZN3art9BitVector10NumSet
610:   FUNC WEAK PROTECTED 15 _ZNSt3__113basic_filebufI
611:   FUNC GLOBAL DEFAULT 15 Lzma2Enc_WriteProperties
612:   FUNC GLOBAL DEFAULT 15 __udivsi3
613:   FUNC GLOBAL PROTECTED 15 _ZN3art22GetDalvikCacheFi
614:   FUNC GLOBAL DEFAULT 15 __aeabi_memmove
615:   FUNC GLOBAL PROTECTED 15 _ZN3art10ArenaStack20Upda
616:   FUNC GLOBAL DEFAULT 15 Lzma2EncProps_Init
617:   FUNC GLOBAL DEFAULT 15 SzArEx_Extract
618:   FUNC GLOBAL DEFAULT 15 Lzma86_Encode
619:   FUNC GLOBAL DEFAULT 15 inflate_table
620:   FUNC GLOBAL DEFAULT 15 SzArEx_Free
621:   FUNC GLOBAL PROTECTED 15 _ZN3art9BitVectorC1EbPNS_
622:   OBJECT GLOBAL PROTECTED 19 _ZTVN9unix_file6FdFileE
623:   FUNC GLOBAL PROTECTED 15 _ZN3art21ProgramInvocatio
624:   FUNC GLOBAL PROTECTED 15 _ZN3art6MemMap29MapIntern
625:   FUNC GLOBAL DEFAULT 15 LZ4F_freeCDict
626:   FUNC GLOBAL PROTECTED 15 _ZN3art9BitVectorD2Ev
627:   FUNC GLOBAL DEFAULT 15 File_Seek
628:   FUNC GLOBAL PROTECTED 15 _ZN3art14ArenaAllocator19
629:   FUNC GLOBAL DEFAULT 15 LZ4_freeStream
630:   FUNC GLOBAL DEFAULT 15 __aeabi_memcpy
631:   FUNC WEAK PROTECTED 15 _ZNSt3__110__function6__f
632:   FUNC GLOBAL PROTECTED 15 _ZN3art20ScopedArenaAlloc
633:   FUNC GLOBAL PROTECTED 15 _ZN9unix_file6FdFile9SetL
634:   FUNC GLOBAL DEFAULT 15 LZ4F_compressFrame
635:   FUNC GLOBAL DEFAULT 15 SzArEx_GetFileNameUtf16
636:   FUNC GLOBAL DEFAULT 15 _ZN11zip_archive6ReaderD0
637:   FUNC GLOBAL PROTECTED 15 _ZN3artlsERNSt3__113basic
638:   OBJECT WEAK DEFAULT 19 _ZTVNSt3__115basic_string
639:   FUNC GLOBAL DEFAULT 15 SecToRead_CreateVTable
640:   FUNC GLOBAL DEFAULT 15 Ppmd7_EncodeSymbol
641:   OBJECT WEAK DEFAULT 19 _ZTV10FileWriter
642:   FUNC GLOBAL DEFAULT 15 _Z15ErrorCodeStringi
643:   FUNC GLOBAL DEFAULT 15 LZ4_decompress_fast
644:   FUNC GLOBAL DEFAULT 15 LZ4_decompress_fast_using
645:   FUNC GLOBAL DEFAULT 15 LzmaDec_Free
646:   FUNC GLOBAL DEFAULT 15 adler32
647:   FUNC GLOBAL PROTECTED 15 _ZN9unix_file6FdFile4Open
648:   FUNC GLOBAL DEFAULT 15 _Z17GetFileDescriptorP10Z
649:   FUNC GLOBAL DEFAULT 15 MatchFinder_GetNumAvailab
650:   FUNC GLOBAL DEFAULT 15 _ZN10ZipArchiveD1Ev
651:   FUNC GLOBAL PROTECTED 15 _ZN3art14GetAndroidDataEv
652:   FUNC WEAK PROTECTED 15 _ZN9unix_file6FdFile17Wri
653:   FUNC GLOBAL DEFAULT 15 Lzma86_Decode
654:   FUNC GLOBAL PROTECTED 15 _ZNK3art14ArenaAllocator1
655:   FUNC WEAK PROTECTED 15 _ZNKSt3__110__function6__
656:   FUNC GLOBAL PROTECTED 15 _ZN9unix_file6FdFile5Writ
657:   FUNC GLOBAL DEFAULT 15 LZ4_compress_fast_extStat
658:   FUNC GLOBAL DEFAULT 15 LZ4_decompress_safe_conti
659:   FUNC GLOBAL DEFAULT 15 LZ4F_flush
660:   FUNC GLOBAL DEFAULT 15 Bt3Zip_MatchFinder_GetMat
661:   FUNC GLOBAL DEFAULT 15 LzmaEnc_InitPrices
662:   FUNC GLOBAL PROTECTED 15 _ZN3art14GetAndroidRootEv
663:   FUNC GLOBAL PROTECTED 15 _ZN3art6MemMap7SetSizeEj
664:   FUNC GLOBAL DEFAULT 15 File_GetLength
665:   FUNC GLOBAL DEFAULT 15 Ppmd7_Construct
666:   FUNC GLOBAL DEFAULT 15 LZ4_compress_continue
667:   OBJECT WEAK PROTECTED 19 _ZTVNSt3__110__function6_
668:   FUNC GLOBAL DEFAULT 15 LZ4_compress_fast_extStat
669:   FUNC GLOBAL DEFAULT 15 LZ4_compress_limitedOutpu
670:   FUNC GLOBAL DEFAULT 15 LzmaEnc_MemEncode
671:   FUNC GLOBAL DEFAULT 15 inflateReset2
672:   FUNC GLOBAL PROTECTED 15 _ZN3art17ReadMagicAndRese
673:   FUNC GLOBAL DEFAULT 15 LZ4_setCompressionLevel
674:   FUNC GLOBAL PROTECTED 15 _ZN3art27LocationIsOnSyst
675:   FUNC GLOBAL DEFAULT 15 MatchFinder_Construct
676:   FUNC GLOBAL DEFAULT 15 _ZN11zip_archive6ReaderD2
677:   FUNC GLOBAL PROTECTED 15 _ZN3art8MemStatsC1EPKcPKN
678:   FUNC GLOBAL PROTECTED 15 _ZN3art16LocationIsOnApex
679:   OBJECT GLOBAL PROTECTED 24 _ZN3art13gLogVerbosityE
680:   FUNC GLOBAL PROTECTED 15 _ZN3art6MemMap18TakeReser
681:   FUNC GLOBAL PROTECTED 15 _ZN3art6MemMapD2Ev
682:   OBJECT WEAK DEFAULT 19 _ZTTNSt3__114basic_ifstre
683:   FUNC GLOBAL DEFAULT 15 LZ4_compressBound
684:   FUNC GLOBAL DEFAULT 15 Lzma2Enc_Encode2
685:   FUNC GLOBAL DEFAULT 15 LzmaEnc_Encode
686:   FUNC GLOBAL DEFAULT 15 inflateReset
687:   FUNC GLOBAL DEFAULT 15 zcfree
688:   FUNC GLOBAL PROTECTED 15 _ZN3art9BitVectorC1EjbPNS
689:   FUNC WEAK PROTECTED 15 _ZNKSt3__110__function6__
690:   OBJECT GLOBAL PROTECTED 19 _ZTVN3art9BitVectorE
691:   FUNC WEAK PROTECTED 15 _ZNSt3__113basic_filebufI
692:   FUNC GLOBAL DEFAULT 15 LzmaDec_FreeProbs
693:   FUNC GLOBAL DEFAULT 15 inflate_fast
694:   FUNC GLOBAL PROTECTED 15 _ZN3art9BitVector5UnionEP
695:   FUNC GLOBAL PROTECTED 15 _ZN3art6MemMap10Invalidat
696:   FUNC GLOBAL DEFAULT 15 LZ4_compressHC2_limitedOu
697:   FUNC GLOBAL DEFAULT 15 XXH64_copyState
698:   FUNC GLOBAL DEFAULT 15 Sha256_Init
699:   OBJECT GLOBAL PROTECTED 24 _ZN3art17TrackedAllocator
700:   FUNC GLOBAL DEFAULT 15 LZ4F_freeDecompressionCon
701:   OBJECT WEAK DEFAULT 19 _ZTV11EntryReader
702:   FUNC GLOBAL PROTECTED 15 _ZN3art11InitLoggingEPPcR
703:   FUNC GLOBAL DEFAULT 15 LzmaDec_InitDicAndState
704:   FUNC GLOBAL DEFAULT 15 XzUnpacker_CodeFull
705:   OBJECT WEAK DEFAULT 19 _ZTV13ProcessWriter
706:   OBJECT GLOBAL PROTECTED 19 _ZTVN3art8ZipEntryE
707:   FUNC GLOBAL DEFAULT 15 LZ4F_decompress_usingDict
708:   FUNC GLOBAL PROTECTED 15 _ZN3art15MallocArenaPool1
709:   FUNC GLOBAL DEFAULT 15 LZ4_freeStreamDecode
710:   FUNC GLOBAL DEFAULT 15 _ZNK13MappedZipFile12Read
711:   FUNC GLOBAL PROTECTED 15 _ZN3art27GetDefaultBootIm
712:   FUNC GLOBAL PROTECTED 15 _ZN3art8SafeCopyEPvPKvj
713:   FUNC GLOBAL PROTECTED 15 _ZN3art10ArenaStack25Upda
714:   FUNC GLOBAL DEFAULT 15 XXH32_reset
715:   FUNC GLOBAL DEFAULT 15 XXH64
716:   FUNC GLOBAL DEFAULT 15 CrcGenerateTable
717:   FUNC GLOBAL DEFAULT 15 SeqInStream_Read2
718:   FUNC GLOBAL PROTECTED 15 _ZN3art10IsZipMagicEj
719:   FUNC GLOBAL DEFAULT 15 LZ4F_decompress
720:   FUNC GLOBAL DEFAULT 15 SPARC_Convert
721:   FUNC GLOBAL DEFAULT 15 XzFlags_GetCheckSize
722:   FUNC GLOBAL PROTECTED 15 _ZN3art6MemMap15CheckMapR
723:   OBJECT WEAK PROTECTED 19 _ZTVN3art14ArenaBitVector
724:   FUNC GLOBAL DEFAULT 15 Delta_Encode
725:   FUNC GLOBAL DEFAULT 15 LzmaEncode
726:   FUNC GLOBAL DEFAULT 15 Sha256_Update
727:   FUNC GLOBAL DEFAULT 15 inflateCodesUsed
728:   FUNC GLOBAL PROTECTED 15 _ZN3art27SetRuntimeDebugF
729:   FUNC GLOBAL DEFAULT 15 __aeabi_ldivmod
730:   FUNC GLOBAL PROTECTED 15 _ZN3art8ZipEntry14IsUncom
731:   FUNC GLOBAL DEFAULT 15 __aeabi_uidivmod
732:   FUNC WEAK PROTECTED 15 _ZNSt3__124__put_characte
733:   OBJECT GLOBAL PROTECTED 19 _ZTVN3art11MallocArenaE
734:   FUNC GLOBAL DEFAULT 15 XXH32_copyState
735:   FUNC GLOBAL DEFAULT 15 MyFree
736:   FUNC GLOBAL DEFAULT 15 inflateGetHeader
737:   FUNC GLOBAL PROTECTED 15 _ZN3art24ArenaAllocatorMe
738:   FUNC GLOBAL PROTECTED 15 _ZN3art6MemMap7ProtectEi
739:   FUNC GLOBAL DEFAULT 15 Xz_EncodeEmpty
740:   OBJECT GLOBAL PROTECTED 24 _ZN3art17TrackedAllocator
741:   FUNC GLOBAL DEFAULT 15 LZ4_decompress_fast_withP
742:   FUNC GLOBAL DEFAULT 15 XzUnpacker_GetExtraSize
743:   FUNC GLOBAL PROTECTED 15 _ZN3art10ArenaStackD2Ev
744:   FUNC GLOBAL DEFAULT 15 LZ4_decompress_safe_using
745:   FUNC GLOBAL DEFAULT 15 LzmaDec_Allocate
746:   FUNC GLOBAL DEFAULT 15 HeapSort
747:   FUNC GLOBAL DEFAULT 15 crc32_z
748:   FUNC GLOBAL PROTECTED 15 _ZNK9unix_file6FdFile2FdE
749:   FUNC GLOBAL PROTECTED 15 _ZN3art10LockedFile4OpenE
750:   FUNC WEAK PROTECTED 15 _ZNSt3__113basic_filebufI
751:   FUNC GLOBAL DEFAULT 15 LZ4_decompress_safe_force
752:   FUNC GLOBAL DEFAULT 15 Hc3Zip_MatchFinder_Skip
753:   FUNC GLOBAL DEFAULT 15 _Z11GetOwnerTagPK10ZipArc
754:   FUNC GLOBAL DEFAULT 15 SeqInStream_Read
755:   FUNC GLOBAL DEFAULT 15 _ZNK13MappedZipFile17GetF
756:   FUNC GLOBAL DEFAULT 15 XXH64_update
757:   FUNC GLOBAL DEFAULT 15 Delta_Init
758:   FUNC GLOBAL DEFAULT 15 LzmaEnc_FreeLits
759:   OBJECT WEAK PROTECTED 19 _ZN3art9hiddenapi7ApiList
760:   FUNC GLOBAL PROTECTED 15 _ZN9unix_file6FdFile13Mar
761:   FUNC GLOBAL PROTECTED 15 _ZN3art8ZipEntryD0Ev
762:   FUNC GLOBAL DEFAULT 15 XXH32_hashFromCanonical
763:   FUNC GLOBAL DEFAULT 15 inflateUndermine
764:   FUNC GLOBAL DEFAULT 15 LZ4_resetStreamHC_fast
765:   FUNC GLOBAL DEFAULT 15 Delta_Decode
766:   FUNC GLOBAL DEFAULT 15 Bt3Zip_MatchFinder_Skip
767:   FUNC GLOBAL DEFAULT 15 GetMatchesSpec1
768:   FUNC GLOBAL DEFAULT 15 LzmaDecode
769:   FUNC GLOBAL DEFAULT 15 XzStatInfo_Clear
770:   FUNC GLOBAL PROTECTED 15 _ZN9unix_file6FdFile6Unli
771:   FUNC GLOBAL DEFAULT 15 LZ4_compressHC2
772:   FUNC GLOBAL DEFAULT 15 Lzma2Enc_Destroy
773:   FUNC GLOBAL DEFAULT 15 LzmaEnc_Create
774:   FUNC GLOBAL DEFAULT 15 _Z21OpenArchiveFromMemory
775:   FUNC WEAK PROTECTED 15 _ZNSt3__115basic_stringbu
776:   FUNC GLOBAL PROTECTED 15 _ZN3art10LockedFile5DupOf
777:   FUNC GLOBAL DEFAULT 15 XXH64_reset
778:   FUNC GLOBAL DEFAULT 15 Aes_SetKey_Dec
779:   FUNC GLOBAL PROTECTED 15 _ZN3art9BitVector9Interse
780:   FUNC GLOBAL PROTECTED 15 _ZN9unix_file6FdFileD1Ev
781:   OBJECT WEAK DEFAULT 19 _ZTCNSt3__114basic_ifstre
782:   FUNC GLOBAL DEFAULT 15 SzAr_DecodeFolder
783:   FUNC GLOBAL PROTECTED 15 _ZN3art13GetThreadNameEi
784:   FUNC GLOBAL PROTECTED 15 _ZN3art10ZipArchiveD2Ev
785:   FUNC GLOBAL DEFAULT 15 LZ4F_compressionLevel_max
786:   FUNC GLOBAL DEFAULT 15 XXH32_createState
787:   FUNC GLOBAL DEFAULT 15 Xz_ReadVarInt
788:   FUNC GLOBAL DEFAULT 15 adler32_combine64
789:   FUNC GLOBAL PROTECTED 15 _ZN9unix_file6FdFile10Pre
790:   FUNC GLOBAL DEFAULT 15 XzUnpacker_SetOutBuf
791:   OBJECT WEAK PROTECTED 19 _ZTVN3art13NoopAllocatorE
792:   FUNC WEAK PROTECTED 15 _ZNSt3__113basic_filebufI
793:   FUNC GLOBAL DEFAULT 15 LZ4_createStream
794:   FUNC GLOBAL DEFAULT 15 LZ4_decoderRingBufferSize
795:   FUNC GLOBAL DEFAULT 15 Ppmd7_UpdateBin
796:   FUNC GLOBAL DEFAULT 15 Lzma2Enc_SetProps
797:   FUNC GLOBAL DEFAULT 15 LZ4_saveDict
798:   FUNC GLOBAL DEFAULT 15 SzBitUi32s_Free
799:   FUNC GLOBAL DEFAULT 15 Aes_SetKey_Enc
800:   FUNC GLOBAL PROTECTED 15 _ZN3art6MemMap18GetLarges
801:   FUNC GLOBAL PROTECTED 15 _ZN3art8ZipEntryD2Ev
802:   FUNC GLOBAL DEFAULT 15 __aeabi_uidiv
803:   FUNC GLOBAL PROTECTED 15 _ZN3art8ZipEntry20MapDire
804:   FUNC GLOBAL DEFAULT 15 XXH64_digest
805:   FUNC GLOBAL DEFAULT 15 PPC_Convert
806:   FUNC GLOBAL DEFAULT 15 XzUnpacker_PrepareToRando
807:   FUNC GLOBAL DEFAULT 15 LZ4_compress_destSize
808:   FUNC GLOBAL PROTECTED 15 _ZN3art6MemMapC2ERKNSt3__
809:   FUNC GLOBAL PROTECTED 15 _ZN3art6GetTidEv
810:   FUNC GLOBAL DEFAULT 15 LZ4_decompress_safe
811:   FUNC GLOBAL PROTECTED 15 _ZN3art14ArenaAllocatorD2
812:   FUNC GLOBAL PROTECTED 15 _ZN3art9LogHelper15LogLin
813:   FUNC GLOBAL PROTECTED 15 _ZN3art10membarrierENS_17
814:   FUNC GLOBAL DEFAULT 15 LZ4_loadDict
815:   FUNC GLOBAL DEFAULT 15 LZ4_compress_HC
816:   FUNC GLOBAL DEFAULT 15 Ppmd7_Update1_0
817:   FUNC GLOBAL PROTECTED 15 _ZN3art15MallocArenaPoolD
818:   FUNC GLOBAL DEFAULT 15 LZ4_compress_HC_continue_
819:   FUNC GLOBAL DEFAULT 15 AlignOffsetAlloc_CreateVT
820:   FUNC GLOBAL PROTECTED 15 _ZNK3art9BitVector16GetHi
821:   FUNC GLOBAL PROTECTED 15 _ZN3art6MemMap10RemapAtEn
822:   FUNC GLOBAL PROTECTED 15 _ZN3artlsERNSt3__113basic
823:   FUNC GLOBAL DEFAULT 15 LZ4_attach_HC_dictionary
824:   FUNC GLOBAL DEFAULT 15 LZ4F_getVersion
825:   FUNC GLOBAL DEFAULT 15 MatchFinder_Create
826:   FUNC GLOBAL DEFAULT 15 __aeabi_memclr4
827:   FUNC GLOBAL PROTECTED 15 _ZN3art14FormatDurationEy
828:   FUNC GLOBAL DEFAULT 15 LZ4F_resetDecompressionCo
829:   FUNC GLOBAL DEFAULT 15 InFile_Open
830:   FUNC GLOBAL PROTECTED 15 _ZN3art17TrackedAllocator
831:   FUNC GLOBAL DEFAULT 15 LZ4_compressHC2_limitedOu
832:   FUNC GLOBAL PROTECTED 15 _ZN3art14ArenaBitVectorC1
833:   FUNC GLOBAL PROTECTED 15 _ZN3art5Arena5ResetEv
834:   FUNC GLOBAL DEFAULT 15 XXH32_update
835:   FUNC GLOBAL PROTECTED 15 _ZN3art11MallocArenaD0Ev
836:   FUNC GLOBAL DEFAULT 15 __aeabi_memclr8
837:   FUNC GLOBAL PROTECTED 15 _ZN3art9MilliTimeEv
838:   FUNC GLOBAL PROTECTED 15 _ZN3art8ZipEntry21GetUnco
839:   FUNC GLOBAL DEFAULT 15 LzmaEnc_Init
840:   FUNC GLOBAL DEFAULT 15 _ZNK13MappedZipFile10GetB
841:   FUNC GLOBAL PROTECTED 15 _ZN3art27GetInstructionSe
842:   FUNC GLOBAL PROTECTED 15 _ZN3art10ArenaStackC2EPNS
843:   FUNC GLOBAL DEFAULT 15 _Z9FindEntryP10ZipArchive
844:   FUNC GLOBAL PROTECTED 15 _ZN3art9BitVector10Ensure
845:   OBJECT WEAK PROTECTED 19 _ZTVNSt3__110__function6_
846:   FUNC GLOBAL PROTECTED 15 _ZN3art6MemMapC1ERKNSt3__
847:   FUNC GLOBAL DEFAULT 15 _Z14StartIterationP10ZipA
848:   FUNC GLOBAL DEFAULT 15 _ZN11zip_archive7InflateE
849:   FUNC GLOBAL PROTECTED 15 _ZN3art17ThreadCpuNanoTim
850:   OBJECT WEAK DEFAULT 19 _ZTVNSt3__113basic_filebu
851:   FUNC GLOBAL DEFAULT 15 XXH64_hashFromCanonical
852:   FUNC GLOBAL DEFAULT 15 LzmaUncompress
853:   FUNC GLOBAL DEFAULT 15 _Z4NextPvP8ZipEntryP9ZipS
854:   FUNC GLOBAL PROTECTED 15 _ZN3artlsERNSt3__113basic
855:   FUNC GLOBAL PROTECTED 15 _ZN3art6MemMap22MadviseDo
856:   FUNC GLOBAL PROTECTED 15 _ZN3art6MemMap9HasMemMapE
857:   FUNC GLOBAL DEFAULT 15 __aeabi_memclr
858:   FUNC WEAK PROTECTED 15 _ZNSt3__110__function6__f
859:   FUNC GLOBAL PROTECTED 15 _ZN3art9MicroTimeEv
860:   OBJECT WEAK PROTECTED 19 _ZTVN3art15MallocAllocato
861:   FUNC GLOBAL PROTECTED 15 _ZN3art6MemMap11MapIntern
862:   FUNC GLOBAL PROTECTED 15 _ZN3art10PrettySizeEx
863:   FUNC GLOBAL DEFAULT 15 LzmaEnc_SetDataSize
864:   FUNC GLOBAL DEFAULT 15 _ZN11zip_archive6WriterD0
865:   FUNC GLOBAL DEFAULT 15 inflateCopy
866:   FUNC GLOBAL PROTECTED 15 _ZNK3art7HexDump4DumpERNS
867:   FUNC GLOBAL PROTECTED 15 _ZN9unix_file6FdFile5Clos
868:   FUNC GLOBAL PROTECTED 15 _ZN3art8NanoTimeEv
869:   FUNC GLOBAL DEFAULT 15 LZ4_uncompress_unknownOut
870:   OBJECT WEAK DEFAULT 19 _ZTVNSt3__119basic_ostrin
871:   FUNC GLOBAL PROTECTED 15 _ZN3art8ZipEntry13Extract
872:   FUNC GLOBAL DEFAULT 15 FileOutStream_CreateVTabl
873:   FUNC GLOBAL DEFAULT 15 Ppmd7_Alloc
874:   FUNC GLOBAL DEFAULT 15 Ppmd7_Update1
875:   FUNC GLOBAL PROTECTED 15 _ZN3art9BitVectorC2ERKS0_
876:   FUNC GLOBAL PROTECTED 15 _ZN3art11MallocArenaC1Ej
877:   FUNC GLOBAL PROTECTED 15 _ZN3art6MemMap8DumpMapsER
878:   FUNC GLOBAL DEFAULT 15 LZ4_slideInputBuffer
879:   OBJECT GLOBAL DEFAULT 24 g_CrcUpdateT4
880:   FUNC GLOBAL DEFAULT 15 Ppmd7_Update2
881:   FUNC GLOBAL DEFAULT 15 adler32_combine
882:   FUNC GLOBAL PROTECTED 15 _ZNK3art8MemStats4DumpERN
883:   FUNC GLOBAL PROTECTED 15 _ZNK3art9BitVector12GetAl
884:   FUNC GLOBAL PROTECTED 15 _ZN3art6MemMap4swapERS0_
885:   FUNC GLOBAL PROTECTED 15 _ZN3art11MallocArenaD2Ev
886:   FUNC GLOBAL DEFAULT 15 LZ4_compressHC_limitedOut
887:   FUNC GLOBAL DEFAULT 15 XXH32_freeState
888:   FUNC GLOBAL DEFAULT 15 DynBuf_Write
889:   FUNC GLOBAL DEFAULT 15 Hc3Zip_MatchFinder_GetMat
890:   FUNC GLOBAL DEFAULT 15 LzmaEnc_Construct
891:   FUNC GLOBAL DEFAULT 15 _Z15ExtractToWriterP10Zip
892:   FUNC GLOBAL DEFAULT 15 _ZN9ZipStringC2EPKc
893:   FUNC GLOBAL PROTECTED 15 _ZN3art14GetDalvikCacheEP
894:   FUNC GLOBAL PROTECTED 15 _ZN3art14PrettyDurationEy
895:   FUNC GLOBAL PROTECTED 15 _ZN9unix_file6FdFile4Copy
896:   FUNC GLOBAL DEFAULT 15 XXH32_digest
897:   FUNC GLOBAL DEFAULT 15 Bcj2Dec_Init
898:   FUNC GLOBAL DEFAULT 15 LzmaDec_AllocateProbs
899:   FUNC GLOBAL PROTECTED 15 _ZN3art14ArenaAllocatorC2
900:   FUNC WEAK PROTECTED 15 _ZNKSt3__115basic_stringb
901:   FUNC GLOBAL PROTECTED 15 _ZN3art20ReplaceFileExten
902:   FUNC GLOBAL PROTECTED 15 _ZN9unix_file6FdFileC1EiR
903:   OBJECT GLOBAL DEFAULT 24 g_CrcUpdateT8
904:   FUNC GLOBAL DEFAULT 15 MatchFinder_ReadIfRequire
905:   FUNC GLOBAL DEFAULT 15 __divmoddi4
906:   FUNC GLOBAL PROTECTED 15 _ZNK3art14ArenaAllocator1
907:   FUNC GLOBAL DEFAULT 15 LZ4_compressHC_limitedOut
908:   FUNC GLOBAL DEFAULT 15 DynBuf_Construct
909:   FUNC GLOBAL DEFAULT 15 SecToLook_CreateVTable
910:   FUNC GLOBAL DEFAULT 15 Ppmd7_Init
911:   FUNC GLOBAL DEFAULT 15 XzDecMt_Decode
912:   FUNC GLOBAL DEFAULT 15 _Z15ExtractToMemoryP10Zip
913:   FUNC GLOBAL DEFAULT 15 _Z18ExtractEntryToFileP10
914:   FUNC GLOBAL DEFAULT 15 LZ4F_getFrameInfo
915:   FUNC GLOBAL DEFAULT 15 LookInStream_Read2
916:   FUNC GLOBAL DEFAULT 15 File_Close
917:   FUNC GLOBAL DEFAULT 15 LzmaEncProps_Normalize
918:   FUNC GLOBAL PROTECTED 15 _ZN3art15MallocArenaPoolC
919:   FUNC GLOBAL PROTECTED 15 _ZN3art6MemMap8MapDummyEP
920:   FUNC GLOBAL DEFAULT 15 Lzma2Dec_Parse
921:   FUNC GLOBAL DEFAULT 15 _Z12CloseArchiveP10ZipArc
922:   FUNC GLOBAL DEFAULT 15 LzmaEnc_Finish
923:   FUNC GLOBAL DEFAULT 15 LzmaEnc_PrepareForLzma2
924:   FUNC GLOBAL DEFAULT 15 _ZN11zip_archive6WriterD2
925:   FUNC GLOBAL PROTECTED 15 _ZN3art18ProcessCpuNanoTi
926:   FUNC GLOBAL PROTECTED 15 _ZN3art2OS17OpenFileReadW
927:   FUNC GLOBAL PROTECTED 15 _ZN9unix_file6FdFile10Wri
928:   OBJECT GLOBAL DEFAULT 24 g_AesCtr_Code
929:   FUNC GLOBAL PROTECTED 15 _ZN3art21GetAndroidRuntim
930:   FUNC GLOBAL PROTECTED 15 _ZN3art2OS15DirectoryExis
931:   FUNC GLOBAL DEFAULT 15 Ppmd7z_RangeEnc_Init
932:   FUNC GLOBAL PROTECTED 15 _ZN3art6MemMapC2EOS0_
933:   FUNC WEAK PROTECTED 15 _ZNSt3__113basic_filebufI
934:   FUNC WEAK PROTECTED 15 _ZNSt3__113basic_filebufI
935:   FUNC GLOBAL DEFAULT 15 _ZN10ZipArchiveC2EPvj
936:   FUNC GLOBAL DEFAULT 15 LZ4F_compressEnd
937:   OBJECT GLOBAL DEFAULT 24 g_CrcTable
938:   FUNC GLOBAL DEFAULT 15 SeqInStream_ReadByte
939:   FUNC GLOBAL DEFAULT 15 adler32_z
940:   FUNC GLOBAL PROTECTED 15 _ZN3art10GetCmdLineEv
941:   FUNC GLOBAL PROTECTED 15 _ZN3art19ZeroAndReleasePa
942:   FUNC GLOBAL DEFAULT 15 LZ4_compress_HC_extStateH
943:   FUNC GLOBAL DEFAULT 15 ARMT_Convert
944:   FUNC GLOBAL DEFAULT 15 MatchFinder_Init_HighHash
945:   FUNC GLOBAL DEFAULT 15 MatchFinder_MoveBlock
946:   FUNC GLOBAL DEFAULT 15 inflateMark
947:   FUNC GLOBAL PROTECTED 15 _ZN9unix_file6FdFileC2EOS
948:   FUNC GLOBAL PROTECTED 15 _ZN3art9NanoSleepEy
949:   FUNC GLOBAL PROTECTED 15 _ZNK9unix_file6FdFile12Re
950:   FUNC GLOBAL DEFAULT 15 LZ4_favorDecompressionSpe
951:   FUNC GLOBAL DEFAULT 15 DynBuf_Free
952:   FUNC GLOBAL PROTECTED 15 _ZN9unix_file6FdFile5Eras
953:   FUNC GLOBAL DEFAULT 15 Xz_Encode
954:   FUNC GLOBAL DEFAULT 15 LZ4_createHC
955:   FUNC GLOBAL DEFAULT 15 XzDecMt_Create
956:   FUNC GLOBAL DEFAULT 15 Xz_GetUnpackSize
957:   FUNC GLOBAL DEFAULT 15 _ZN10ZipArchiveC1Eib
958:   FUNC GLOBAL PROTECTED 15 _ZN3art20ScopedArenaAlloc
959:   FUNC GLOBAL PROTECTED 15 _ZN3art19SocketPeerIsTrus
960:   FUNC GLOBAL DEFAULT 15 SzFreeTemp
961:   FUNC GLOBAL DEFAULT 15 inflateEnd
