 0x0000000e (SONAME)                     Library soname: [libstagefright_xmlparser.so]
  
Symbol   contains 181 entries:
Num:   Type Bind Vis Ndx Name
0:   NOTYPE LOCAL DEFAULT UND
1:   FUNC GLOBAL DEFAULT UND __cxa_finalize@LIBC (2)
2:   FUNC GLOBAL DEFAULT UND XML_ErrorString
3:   FUNC GLOBAL DEFAULT UND XML_GetBuffer
4:   FUNC GLOBAL DEFAULT UND XML_GetCurrentLineNumber
5:   FUNC GLOBAL DEFAULT UND XML_GetErrorCode
6:   FUNC GLOBAL DEFAULT UND XML_ParseBuffer
7:   FUNC GLOBAL DEFAULT UND XML_ParserCreate
8:   FUNC GLOBAL DEFAULT UND XML_ParserFree
9:   FUNC GLOBAL DEFAULT UND XML_SetElementHandler
10:   FUNC GLOBAL DEFAULT UND XML_SetUserData
11:   FUNC GLOBAL DEFAULT UND _ZN7android16GetComponent
12:   FUNC GLOBAL DEFAULT UND _ZN7android4base10LogMess
13:   FUNC GLOBAL DEFAULT UND _ZN7android4base10LogMess
14:   FUNC GLOBAL DEFAULT UND _ZN7android4base10LogMess
15:   FUNC GLOBAL DEFAULT UND _ZNKSt3__112basic_stringI
16:   FUNC GLOBAL DEFAULT UND _ZNKSt3__112basic_stringI
17:   FUNC GLOBAL DEFAULT UND _ZNKSt3__112basic_stringI
18:   FUNC GLOBAL DEFAULT UND _ZNKSt3__119__shared_weak
19:   FUNC GLOBAL DEFAULT UND _ZNKSt3__120__vector_base
20:   FUNC GLOBAL DEFAULT UND _ZNKSt3__121__basic_strin
21:   FUNC GLOBAL DEFAULT UND _ZNKSt3__16locale9use_fac
22:   FUNC GLOBAL DEFAULT UND _ZNKSt3__18ios_base6getlo
23:   FUNC GLOBAL DEFAULT UND _ZNSt3__112basic_stringIc
24:   FUNC GLOBAL DEFAULT UND _ZNSt3__112basic_stringIc
25:   FUNC GLOBAL DEFAULT UND _ZNSt3__112basic_stringIc
26:   FUNC GLOBAL DEFAULT UND _ZNSt3__112basic_stringIc
27:   FUNC GLOBAL DEFAULT UND _ZNSt3__112basic_stringIc
28:   FUNC GLOBAL DEFAULT UND _ZNSt3__112basic_stringIc
29:   FUNC GLOBAL DEFAULT UND _ZNSt3__112basic_stringIc
30:   FUNC GLOBAL DEFAULT UND _ZNSt3__112basic_stringIc
31:   FUNC GLOBAL DEFAULT UND _ZNSt3__112basic_stringIc
32:   FUNC GLOBAL DEFAULT UND _ZNSt3__112basic_stringIc
33:   FUNC GLOBAL DEFAULT UND _ZNSt3__113basic_ostreamI
34:   FUNC GLOBAL DEFAULT UND _ZNSt3__113basic_ostreamI
35:   FUNC GLOBAL DEFAULT UND _ZNSt3__113basic_ostreamI
36:   FUNC GLOBAL DEFAULT UND _ZNSt3__119__shared_weak_
37:   FUNC GLOBAL DEFAULT UND _ZNSt3__119__shared_weak_
38:   OBJECT GLOBAL DEFAULT UND _ZNSt3__15ctypeIcE2idE
39:   FUNC GLOBAL DEFAULT UND _ZNSt3__15mutex4lockEv
40:   FUNC GLOBAL DEFAULT UND _ZNSt3__15mutex6unlockEv
41:   FUNC GLOBAL DEFAULT UND _ZNSt3__15mutexD1Ev
42:   FUNC GLOBAL DEFAULT UND _ZNSt3__16localeD1Ev
43:   FUNC GLOBAL DEFAULT UND _ZNSt3__18ios_base5clearE
44:   FUNC GLOBAL DEFAULT UND _ZNSt3__1plIcNS_11char_tr
45:   FUNC GLOBAL DEFAULT UND _ZdlPv
46:   FUNC GLOBAL DEFAULT UND _Znwj
47:   FUNC GLOBAL DEFAULT UND __android_log_assert@LIBLOG (3)
48:   FUNC GLOBAL DEFAULT UND __android_log_print@LIBLOG (3)
49:   FUNC GLOBAL DEFAULT UND __memcpy_chk@LIBC (2)
50:   FUNC GLOBAL DEFAULT UND __stack_chk_fail@LIBC (2)
51:   OBJECT GLOBAL DEFAULT UND __stack_chk_guard@LIBC (2)
52:   FUNC GLOBAL DEFAULT UND __strlen_chk@LIBC (2)
53:   FUNC GLOBAL DEFAULT UND abort@LIBC (2)
54:   FUNC GLOBAL DEFAULT UND fclose@LIBC (2)
55:   FUNC GLOBAL DEFAULT UND fopen@LIBC (2)
56:   FUNC GLOBAL DEFAULT UND fread@LIBC (2)
57:   FUNC GLOBAL DEFAULT UND memcmp@LIBC (2)
58:   FUNC GLOBAL DEFAULT UND stat@LIBC (2)
59:   FUNC GLOBAL DEFAULT UND strcasecmp@LIBC (2)
60:   FUNC GLOBAL DEFAULT UND strchrnul@LIBC_N (4)
61:   FUNC GLOBAL DEFAULT UND strcmp@LIBC (2)
62:   FUNC GLOBAL DEFAULT UND strlen@LIBC (2)
63:   FUNC GLOBAL DEFAULT UND strncmp@LIBC (2)
64:   FUNC WEAK DEFAULT UND android_set_abort_message@LIBC (2)
65:   FUNC GLOBAL DEFAULT UND write@LIBC (2)
66:   FUNC GLOBAL DEFAULT UND memcpy@LIBC (2)
67:   FUNC GLOBAL DEFAULT UND memmove@LIBC (2)
68:   FUNC GLOBAL DEFAULT UND memset@LIBC (2)
69:   FUNC GLOBAL DEFAULT 14 _ZN7android20MediaCodecsX
70:   FUNC GLOBAL DEFAULT 14 _ZN7android20MediaCodecsX
71:   FUNC WEAK DEFAULT 14 _ZNSt3__16vectorINS_3setI
72:   FUNC GLOBAL DEFAULT 14 _ZN7android20MediaCodecsX
73:   FUNC GLOBAL DEFAULT 14 _ZN7android20MediaCodecsX
74:   FUNC GLOBAL DEFAULT 14 _ZNK7android20MediaCodecs
75:   FUNC WEAK DEFAULT 14 _ZNSt3__16__treeINS_12__v
76:   FUNC WEAK DEFAULT 14 _ZNSt3__16__treeINS_12bas
77:   FUNC GLOBAL DEFAULT 14 _ZN7android20MediaCodecsX
78:   FUNC GLOBAL DEFAULT 14 _ZNK7android20MediaCodecs
79:   FUNC WEAK DEFAULT 14 _ZNSt3__113__vector_baseI
80:   FUNC WEAK DEFAULT 14 _ZNSt3__127__tree_balance
81:   FUNC WEAK DEFAULT 14 _ZNSt3__16__treeINS_12__v
82:   FUNC GLOBAL DEFAULT 14 __aeabi_memmove
83:   FUNC GLOBAL DEFAULT 14 _ZN7android20MediaCodecsX
84:   FUNC GLOBAL DEFAULT 14 _ZN7android20MediaCodecsX
85:   FUNC GLOBAL DEFAULT 14 _ZN7android20MediaCodecsX
86:   FUNC WEAK DEFAULT 14 _ZNSt3__16__treeINS_12__v
87:   FUNC WEAK DEFAULT 14 _ZNSt3__16vectorIN7androi
88:   FUNC GLOBAL DEFAULT 14 __aeabi_memcpy4
89:   OBJECT WEAK DEFAULT 18 _ZN7android20MediaCodecsX
90:   FUNC WEAK DEFAULT 14 _ZNSt3__113__tree_removeI
91:   FUNC GLOBAL DEFAULT 14 _ZN7android20MediaCodecsX
92:   FUNC WEAK DEFAULT 14 _ZNSt3__16__treeINS_12__v
93:   FUNC WEAK DEFAULT 14 _ZNSt3__16vectorINS_12bas
94:   FUNC GLOBAL DEFAULT 14 _ZN7android20MediaCodecsX
95:   FUNC GLOBAL DEFAULT 14 _ZN7android20MediaCodecsX
96:   FUNC GLOBAL DEFAULT 14 _ZNK7android20MediaCodecs
97:   FUNC GLOBAL DEFAULT 14 _ZNK7android20MediaCodecs
98:   FUNC WEAK DEFAULT 14 _ZNSt3__16__treeINS_12__v
99:   FUNC WEAK DEFAULT 14 _ZNSt3__16__treeINS_12__v
100:   FUNC WEAK DEFAULT 14 _ZNSt3__16__treeINS_12bas
101:   OBJECT WEAK DEFAULT 18 _ZTVNSt3__120__shared_ptr
102:   FUNC GLOBAL DEFAULT 14 _ZN7android20MediaCodecsX
103:   FUNC WEAK DEFAULT 14 _ZNSt3__124__put_characte
104:   FUNC WEAK DEFAULT 14 _ZNSt3__16__treeINS_12bas
105:   FUNC GLOBAL DEFAULT 14 __aeabi_memcpy8
106:   FUNC WEAK DEFAULT 14 _ZNSt3__16__treeINS_12__v
107:   FUNC WEAK DEFAULT 14 _ZNSt3__16__treeINS_12bas
108:   FUNC GLOBAL DEFAULT 14 __aeabi_memclr4
109:   FUNC GLOBAL DEFAULT 14 _ZNK7android20MediaCodecs
110:   FUNC WEAK DEFAULT 14 _ZNSt3__16__treeINS_12__v
111:   FUNC WEAK DEFAULT 14 _ZNSt3__16__treeINS_12bas
112:   FUNC WEAK DEFAULT 14 _ZNSt3__16vectorIN7androi
113:   FUNC GLOBAL DEFAULT 14 _ZNK7android20MediaCodecs
114:   FUNC WEAK DEFAULT 14 _ZNSt3__16__treeINS_12__v
115:   FUNC WEAK DEFAULT 14 _ZNSt3__16__treeINS_12__v
116:   FUNC GLOBAL DEFAULT 14 __aeabi_memmove4
117:   FUNC GLOBAL DEFAULT 14 _ZN7android20MediaCodecsX
118:   FUNC GLOBAL DEFAULT 14 _ZN7android20MediaCodecsX
119:   FUNC WEAK DEFAULT 14 _ZNSt3__16__treeINS_12__v
120:   FUNC WEAK DEFAULT 14 _ZNSt3__16__treeINS_12__v
121:   FUNC GLOBAL DEFAULT 14 __aeabi_memclr8
122:   FUNC GLOBAL DEFAULT 14 _ZN7android20MediaCodecsX
123:   FUNC GLOBAL DEFAULT 14 _ZN7android20MediaCodecsX
124:   FUNC WEAK DEFAULT 14 _ZNSt3__120__shared_ptr_p
125:   FUNC WEAK DEFAULT 14 _ZNSt3__16vectorINS_4pair
126:   FUNC WEAK DEFAULT 14 _ZNSt3__16vectorINS_4pair
127:   FUNC WEAK DEFAULT 14 _ZNSt3__16__treeINS_12__v
128:   FUNC WEAK DEFAULT 14 _ZNSt3__16vectorIN7androi
129:   FUNC GLOBAL DEFAULT 14 __aeabi_memmove8
130:   FUNC GLOBAL DEFAULT 14 _ZN7android20MediaCodecsX
131:   FUNC GLOBAL DEFAULT 14 _ZN7android20MediaCodecsX
132:   FUNC GLOBAL DEFAULT 14 _ZNK7android20MediaCodecs
133:   FUNC WEAK DEFAULT 14 _ZNSt3__16__treeINS_12bas
134:   FUNC WEAK DEFAULT 14 _ZNSt3__16vectorIN7androi
135:   FUNC GLOBAL DEFAULT 14 _ZN7android20MediaCodecsX
136:   FUNC GLOBAL DEFAULT 14 _ZN7android20MediaCodecsX
137:   FUNC GLOBAL DEFAULT 14 _ZN7android20MediaCodecsX
138:   FUNC GLOBAL DEFAULT 14 _ZN7android20MediaCodecsX
139:   FUNC WEAK DEFAULT 14 _ZNSt3__13mapINS_12basic_
140:   FUNC WEAK DEFAULT 14 _ZNSt3__16__treeINS_12__v
141:   FUNC WEAK DEFAULT 14 _ZNSt3__16__treeINS_12bas
142:   FUNC WEAK DEFAULT 14 _ZNSt3__16vectorINS_4pair
143:   FUNC GLOBAL DEFAULT 14 _ZN7android20MediaCodecsX
144:   FUNC GLOBAL DEFAULT 14 _ZN7android20MediaCodecsX
145:   FUNC WEAK DEFAULT 14 _ZNSt3__16__treeINS_12__v
146:   FUNC WEAK DEFAULT 14 _ZNKSt3__16__treeINS_12ba
147:   FUNC GLOBAL DEFAULT 14 __aeabi_memcpy
148:   FUNC GLOBAL DEFAULT 14 _ZN7android20MediaCodecsX
149:   FUNC GLOBAL DEFAULT 14 _ZN7android20MediaCodecsX
150:   FUNC GLOBAL DEFAULT 14 _ZN7android20MediaCodecsX
151:   FUNC WEAK DEFAULT 14 _ZNSt3__120__shared_ptr_p
152:   FUNC WEAK DEFAULT 14 _ZNSt3__16__treeINS_12bas
153:   FUNC WEAK DEFAULT 14 _ZNSt3__16vectorIN7androi
154:   FUNC GLOBAL DEFAULT 14 __aeabi_memclr
155:   FUNC WEAK DEFAULT 14 _ZNSt3__16__treeINS_12__v
156:   FUNC WEAK DEFAULT 14 _ZNSt3__16__treeINS_12bas
157:   FUNC WEAK DEFAULT 14 _ZNSt3__16vectorINS_12bas
158:   FUNC GLOBAL DEFAULT 14 _ZN7android20MediaCodecsX
159:   FUNC GLOBAL DEFAULT 14 _ZNK7android20MediaCodecs
160:   FUNC WEAK DEFAULT 14 _ZNSt3__16__treeINS_12__v
161:   FUNC WEAK DEFAULT 14 _ZNSt3__16__treeINS_12__v
162:   FUNC WEAK DEFAULT 14 _ZNSt3__16__treeINS_12__v
163:   FUNC WEAK DEFAULT 14 _ZNSt3__16__treeINS_12bas
164:   FUNC WEAK DEFAULT 14 _ZNSt3__16vectorIN7androi
165:   FUNC WEAK DEFAULT 14 _ZNSt3__16vectorINS_12bas
166:   FUNC GLOBAL DEFAULT 14 _ZN7android20MediaCodecsX
167:   FUNC GLOBAL DEFAULT 14 __aeabi_memset
168:   FUNC GLOBAL DEFAULT 14 __aeabi_memset4
169:   FUNC GLOBAL DEFAULT 14 _ZN7android20MediaCodecsX
170:   FUNC GLOBAL DEFAULT 14 _ZNK7android20MediaCodecs
171:   FUNC GLOBAL DEFAULT 14 _ZNK7android20MediaCodecs
172:   FUNC WEAK DEFAULT 14 _ZNSt3__16__treeINS_12bas
173:   FUNC WEAK DEFAULT 14 _ZNSt3__16__treeINS_12bas
174:   FUNC WEAK DEFAULT 14 _ZNSt3__16vectorINS_3setI
175:   FUNC GLOBAL DEFAULT 14 _ZN7android20MediaCodecsX
176:   FUNC WEAK DEFAULT 14 _ZNSt3__16__treeINS_12__v
177:   FUNC GLOBAL DEFAULT 14 _ZN7android20MediaCodecsX
178:   FUNC GLOBAL DEFAULT 14 _ZNK7android20MediaCodecs
179:   FUNC GLOBAL DEFAULT 14 _ZN7android20MediaCodecsX
180:   FUNC GLOBAL DEFAULT 14 __aeabi_memset8
