 0x000000000000000e (SONAME)             Library soname: [libvndksupport.so]
  
Symbol   contains 4 entries:
Num:   Type Bind Vis Ndx Name
0:   NOTYPE LOCAL DEFAULT UND
1:   FUNC GLOBAL DEFAULT 7 android_is_in_vendor_proc@@LIBVNDKSUPPORT
2:   FUNC GLOBAL DEFAULT 7 android_load_sphal_librar@@LIBVNDKSUPPORT
3:   FUNC GLOBAL DEFAULT 7 android_unload_sphal_libr@@LIBVNDKSUPPORT
