 0x0000000e (SONAME)                     Library soname: [libstagefright_bufferqueue_helper.so]
  
Symbol   contains 1245 entries:
Num:   Type Bind Vis Ndx Name
0:   NOTYPE LOCAL DEFAULT UND
1:   FUNC GLOBAL DEFAULT UND __cxa_atexit@LIBC (2)
2:   FUNC GLOBAL DEFAULT UND __cxa_finalize@LIBC (2)
3:   FUNC GLOBAL DEFAULT UND _ZN7android7RefBase10onFi
4:   FUNC GLOBAL DEFAULT UND _ZN7android7RefBase13onLa
5:   FUNC GLOBAL DEFAULT UND _ZN7android7RefBase15onLa
6:   FUNC GLOBAL DEFAULT UND _ZN7android7RefBase20onIn
7:   FUNC GLOBAL DEFAULT UND _ZN7android7RefBaseC2Ev
8:   FUNC GLOBAL DEFAULT UND _ZN7android7RefBaseD2Ev
9:   FUNC GLOBAL DEFAULT UND _ZdlPv
10:   FUNC GLOBAL DEFAULT UND __android_log_print@LIBLOG (3)
11:   FUNC GLOBAL DEFAULT UND _ZN7android10ColorUtils20
12:   FUNC GLOBAL DEFAULT UND _ZN7android10ColorUtils20
13:   FUNC GLOBAL DEFAULT UND _ZN7android10VectorImpl13
14:   FUNC GLOBAL DEFAULT UND _ZN7android10VectorImpl13
15:   FUNC GLOBAL DEFAULT UND _ZN7android10VectorImpl13
16:   FUNC GLOBAL DEFAULT UND _ZN7android10VectorImpl16
17:   FUNC GLOBAL DEFAULT UND _ZN7android10VectorImpl5c
18:   FUNC GLOBAL DEFAULT UND _ZN7android10VectorImpl8i
19:   FUNC GLOBAL DEFAULT UND _ZN7android10VectorImplC2
20:   FUNC GLOBAL DEFAULT UND _ZN7android10VectorImplD2
21:   FUNC GLOBAL DEFAULT UND _ZN7android12NativeHandle
22:   FUNC GLOBAL DEFAULT UND _ZN7android12NativeHandle
23:   FUNC GLOBAL DEFAULT UND _ZN7android13GraphicBuffe
24:   FUNC GLOBAL DEFAULT UND _ZN7android14sp_report_ra
25:   FUNC GLOBAL DEFAULT UND _ZN7android16SortedVector
26:   FUNC GLOBAL DEFAULT UND _ZN7android16SortedVector
27:   FUNC GLOBAL DEFAULT UND _ZN7android16SortedVector
28:   FUNC GLOBAL DEFAULT UND _ZN7android5Fence5mergeEP
29:   OBJECT GLOBAL DEFAULT UND _ZN7android5Fence8NO_FENC
30:   FUNC GLOBAL DEFAULT UND _ZN7android5FenceC1Ei
31:   FUNC GLOBAL DEFAULT UND _ZN7android6RegionC1Ev
32:   FUNC GLOBAL DEFAULT UND _ZN7android6RegionD1Ev
33:   FUNC GLOBAL DEFAULT UND _ZN7android6binder6Status
34:   FUNC GLOBAL DEFAULT UND _ZN7android6binder6Status
35:   FUNC GLOBAL DEFAULT UND _ZN7android7ALooper15regi
36:   FUNC GLOBAL DEFAULT UND _ZN7android7ALooper17unre
37:   FUNC GLOBAL DEFAULT UND _ZN7android7ALooper4stopE
38:   FUNC GLOBAL DEFAULT UND _ZN7android7ALooper5start
39:   FUNC GLOBAL DEFAULT UND _ZN7android7ALooperC1Ev
40:   FUNC GLOBAL DEFAULT UND _ZN7android7AString6appen
41:   FUNC GLOBAL DEFAULT UND _ZN7android7AString6appen
42:   FUNC GLOBAL DEFAULT UND _ZN7android7AStringC1Ev
43:   FUNC GLOBAL DEFAULT UND _ZN7android7AStringD1Ev
44:   FUNC GLOBAL DEFAULT UND _ZN7android7RefBase12weak
45:   FUNC GLOBAL DEFAULT UND _ZN7android7RefBase12weak
46:   FUNC GLOBAL DEFAULT UND _ZN7android7RefBase12weak
47:   FUNC GLOBAL DEFAULT UND _ZN7android7String8C1EPKc
48:   FUNC GLOBAL DEFAULT UND _ZN7android7String8D1Ev
49:   FUNC GLOBAL DEFAULT UND _ZN7android8AMessage4post
50:   FUNC GLOBAL DEFAULT UND _ZN7android8AMessage8setI
51:   FUNC GLOBAL DEFAULT UND _ZN7android8AMessageC1EjR
52:   FUNC GLOBAL DEFAULT UND _ZN7android8hardware11hid
53:   FUNC GLOBAL DEFAULT UND _ZN7android8hardware11hid
54:   FUNC GLOBAL DEFAULT UND _ZN7android8hardware11hid
55:   FUNC GLOBAL DEFAULT UND _ZN7android8hardware11hid
56:   FUNC GLOBAL DEFAULT UND _ZN7android8hardware8grap
57:   FUNC GLOBAL DEFAULT UND _ZN7android8hardware8grap
58:   FUNC GLOBAL DEFAULT UND _ZN7android8hardware8grap
59:   FUNC GLOBAL DEFAULT UND _ZN7android8hardware8grap
60:   FUNC GLOBAL DEFAULT UND _ZN7android8hardware8grap
61:   FUNC GLOBAL DEFAULT UND _ZN7android8hardware8grap
62:   FUNC GLOBAL DEFAULT UND _ZN7android8hardware8grap
63:   FUNC GLOBAL DEFAULT UND _ZN7android8hardware8grap
64:   FUNC GLOBAL DEFAULT UND _ZN7android8hardware8grap
65:   FUNC GLOBAL DEFAULT UND _ZN7android8hardware8grap
66:   FUNC GLOBAL DEFAULT UND _ZNK7android16SortedVecto
67:   FUNC GLOBAL DEFAULT UND _ZNK7android5Fence3dupEv
68:   FUNC GLOBAL DEFAULT UND _ZNK7android7AString5c_st
69:   FUNC GLOBAL DEFAULT UND _ZNK7android7AString5empt
70:   FUNC GLOBAL DEFAULT UND _ZNK7android7RefBase10cre
71:   FUNC GLOBAL DEFAULT UND _ZNK7android7RefBase9decS
72:   FUNC GLOBAL DEFAULT UND _ZNK7android7RefBase9incS
73:   FUNC GLOBAL DEFAULT UND _ZNK7android8AMessage4wha
74:   FUNC GLOBAL DEFAULT UND _ZNK7android8AMessage9fin
75:   FUNC GLOBAL DEFAULT UND _ZNK7android8hardware11hi
76:   FUNC GLOBAL DEFAULT UND _ZNKSt3__119__shared_weak
77:   FUNC GLOBAL DEFAULT UND _ZNSt3__119__shared_weak_
78:   FUNC GLOBAL DEFAULT UND _ZNSt3__119__shared_weak_
79:   FUNC GLOBAL DEFAULT UND _ZdaPv
80:   FUNC GLOBAL DEFAULT UND _Znaj
81:   FUNC GLOBAL DEFAULT UND _Znwj
82:   FUNC GLOBAL DEFAULT UND __android_log_assert@LIBLOG (3)
83:   FUNC GLOBAL DEFAULT UND __cxa_pure_virtual
84:   FUNC GLOBAL DEFAULT UND __errno@LIBC (2)
85:   FUNC GLOBAL DEFAULT UND __stack_chk_fail@LIBC (2)
86:   OBJECT GLOBAL DEFAULT UND __stack_chk_guard@LIBC (2)
87:   FUNC GLOBAL DEFAULT UND abort@LIBC (2)
88:   FUNC WEAK DEFAULT UND android_fdsan_close_with_@LIBC_Q (4)
89:   FUNC WEAK DEFAULT UND android_fdsan_create_owne@LIBC_Q (4)
90:   FUNC GLOBAL DEFAULT UND close@LIBC (2)
91:   FUNC GLOBAL DEFAULT UND llround@LIBC (5)
92:   FUNC GLOBAL DEFAULT UND native_handle_clone
93:   FUNC GLOBAL DEFAULT UND native_handle_delete
94:   FUNC GLOBAL DEFAULT UND pthread_mutex_destroy@LIBC (2)
95:   FUNC GLOBAL DEFAULT UND pthread_mutex_init@LIBC (2)
96:   FUNC GLOBAL DEFAULT UND pthread_mutex_lock@LIBC (2)
97:   FUNC GLOBAL DEFAULT UND pthread_mutex_trylock@LIBC (2)
98:   FUNC GLOBAL DEFAULT UND pthread_mutex_unlock@LIBC (2)
99:   FUNC GLOBAL DEFAULT UND strerror@LIBC (2)
100:   FUNC GLOBAL DEFAULT UND systemTime
101:   FUNC WEAK DEFAULT UND android_set_abort_message@LIBC (2)
102:   FUNC GLOBAL DEFAULT UND strlen@LIBC (2)
103:   FUNC GLOBAL DEFAULT UND write@LIBC (2)
104:   FUNC GLOBAL DEFAULT UND _ZN7android13GraphicBuffe
105:   OBJECT GLOBAL DEFAULT UND _ZN7android4Rect12INVALID
106:   FUNC GLOBAL DEFAULT UND _ZN7android5Fence9unflatt
107:   FUNC GLOBAL DEFAULT UND _ZN7android6Region9unflat
108:   OBJECT GLOBAL DEFAULT UND _ZN7android9FenceTime8NO_
109:   FUNC GLOBAL DEFAULT UND _ZN7android9FenceTimeC1ER
110:   FUNC GLOBAL DEFAULT UND _ZNK7android13GraphicBuff
111:   FUNC GLOBAL DEFAULT UND _ZNK7android13GraphicBuff
112:   FUNC GLOBAL DEFAULT UND _ZNK7android13GraphicBuff
113:   FUNC GLOBAL DEFAULT UND _ZNK7android5Fence10getFd
114:   FUNC GLOBAL DEFAULT UND _ZNK7android5Fence16getFl
115:   FUNC GLOBAL DEFAULT UND _ZNK7android5Fence7flatte
116:   FUNC GLOBAL DEFAULT UND _ZNK7android6Region16getF
117:   FUNC GLOBAL DEFAULT UND _ZNK7android6Region7flatt
118:   FUNC GLOBAL DEFAULT UND _ZNSt3__15mutexD1Ev
119:   FUNC GLOBAL DEFAULT UND _ZN7android10IInterfaceD0
120:   FUNC GLOBAL DEFAULT UND _ZN7android10IInterfaceD1
121:   FUNC GLOBAL DEFAULT UND _ZN7android7BBinder10onTr
122:   FUNC GLOBAL DEFAULT UND _ZN7android7BBinder10ping
123:   FUNC GLOBAL DEFAULT UND _ZN7android7BBinder11link
124:   FUNC GLOBAL DEFAULT UND _ZN7android7BBinder11loca
125:   FUNC GLOBAL DEFAULT UND _ZN7android7BBinder12atta
126:   FUNC GLOBAL DEFAULT UND _ZN7android7BBinder12deta
127:   FUNC GLOBAL DEFAULT UND _ZN7android7BBinder13unli
128:   FUNC GLOBAL DEFAULT UND _ZN7android7BBinder4dumpE
129:   FUNC GLOBAL DEFAULT UND _ZN7android7BBinder8trans
130:   FUNC GLOBAL DEFAULT UND _ZN7android7BBinderC2Ev
131:   FUNC GLOBAL DEFAULT UND _ZN7android7BBinderD0Ev
132:   FUNC GLOBAL DEFAULT UND _ZN7android7BBinderD1Ev
133:   FUNC GLOBAL DEFAULT UND _ZN7android7BBinderD2Ev
134:   FUNC GLOBAL DEFAULT UND _ZN7android7IBinder11loca
135:   FUNC GLOBAL DEFAULT UND _ZN7android7IBinder12remo
136:   FUNC GLOBAL DEFAULT UND _ZN7android7IBinder19quer
137:   FUNC GLOBAL DEFAULT UND _ZN7android7IBinderD0Ev
138:   FUNC GLOBAL DEFAULT UND _ZN7android7IBinderD1Ev
139:   FUNC GLOBAL DEFAULT UND _ZNK7android7BBinder10fin
140:   FUNC GLOBAL DEFAULT UND _ZNK7android7BBinder13isB
141:   FUNC GLOBAL DEFAULT UND _ZNK7android7BBinder22get
142:   FUNC GLOBAL DEFAULT UND _ZNK7android7IBinder13che
143:   FUNC GLOBAL DEFAULT UND _ZNK7android8String164siz
144:   FUNC GLOBAL DEFAULT UND _ZTv0_n12_N7android10IInt
145:   FUNC GLOBAL DEFAULT UND _ZTv0_n12_N7android10IInt
146:   FUNC GLOBAL DEFAULT UND _ZTv0_n12_N7android7BBind
147:   FUNC GLOBAL DEFAULT UND _ZTv0_n12_N7android7BBind
148:   FUNC GLOBAL DEFAULT UND _ZTv0_n12_N7android7IBind
149:   FUNC GLOBAL DEFAULT UND _ZTv0_n12_N7android7IBind
150:   FUNC GLOBAL DEFAULT UND strzcmp16
151:   FUNC GLOBAL DEFAULT UND _ZN7android15PermissionCa
152:   OBJECT GLOBAL DEFAULT UND _ZN7android6Region14INVAL
153:   FUNC GLOBAL DEFAULT UND _ZN7android6RegionaSERKS0
154:   FUNC GLOBAL DEFAULT UND _ZN7android7String812appe
155:   FUNC GLOBAL DEFAULT UND _ZN7android7String85setTo
156:   FUNC GLOBAL DEFAULT UND _ZN7android7String8C1Ev
157:   FUNC GLOBAL DEFAULT UND _ZN7android8String16C1EPK
158:   FUNC GLOBAL DEFAULT UND _ZN7android8String16D1Ev
159:   FUNC GLOBAL DEFAULT UND _ZNKSt3__120__vector_base
160:   FUNC GLOBAL DEFAULT UND _ZNSt3__118condition_vari
161:   FUNC GLOBAL DEFAULT UND _ZNSt3__15mutex4lockEv
162:   FUNC GLOBAL DEFAULT UND _ZNSt3__15mutex6unlockEv
163:   FUNC GLOBAL DEFAULT UND __android_log_error_write@LIBLOG_M (6)
164:   FUNC GLOBAL DEFAULT UND __vsnprintf_chk@LIBC (2)
165:   FUNC GLOBAL DEFAULT UND android_is_in_vendor_proc@LIBVNDKSUPPORT (7)
166:   FUNC GLOBAL DEFAULT UND atrace_begin_body
167:   OBJECT GLOBAL DEFAULT UND atrace_enabled_tags
168:   FUNC GLOBAL DEFAULT UND atrace_end_body
169:   FUNC GLOBAL DEFAULT UND atrace_int_body
170:   OBJECT GLOBAL DEFAULT UND atrace_is_ready
171:   FUNC GLOBAL DEFAULT UND atrace_setup
172:   FUNC GLOBAL DEFAULT UND getpwnam@LIBC (2)
173:   FUNC GLOBAL DEFAULT UND _ZN7android6RegionC1ERKS0
174:   FUNC GLOBAL DEFAULT UND _ZN7android7String86forma
175:   FUNC GLOBAL DEFAULT UND _ZNSt3__118condition_vari
176:   FUNC GLOBAL DEFAULT UND _ZNSt3__118condition_vari
177:   FUNC GLOBAL DEFAULT UND __cxa_guard_acquire
178:   FUNC GLOBAL DEFAULT UND __cxa_guard_release
179:   FUNC GLOBAL DEFAULT UND eglDestroySyncKHR
180:   FUNC GLOBAL DEFAULT UND getpid@LIBC (2)
181:   FUNC GLOBAL DEFAULT UND _ZN7android10IInterface8a
182:   FUNC GLOBAL DEFAULT UND _ZN7android13GraphicBuffe
183:   FUNC GLOBAL DEFAULT UND _ZN7android13GraphicBuffe
184:   OBJECT GLOBAL DEFAULT UND _ZN7android4Rect10EMPTY_R
185:   FUNC GLOBAL DEFAULT UND _ZN7android5Fence11waitFo
186:   FUNC GLOBAL DEFAULT UND _ZN7android6Region6orSelf
187:   FUNC GLOBAL DEFAULT UND _ZN7android7RefBase10rena
188:   FUNC GLOBAL DEFAULT UND _ZN7android7RefBase11rena
189:   FUNC GLOBAL DEFAULT UND _ZN7android7String8C1ERKS
190:   FUNC GLOBAL DEFAULT UND _ZNK7android13GraphicBuff
191:   FUNC GLOBAL DEFAULT UND _ZNK7android4Rect9interse
192:   FUNC GLOBAL DEFAULT UND _ZNK7android7String86leng
193:   FUNC GLOBAL DEFAULT UND _ZNKSt3__121__basic_strin
194:   FUNC GLOBAL DEFAULT UND _ZNSt3__112basic_stringIc
195:   FUNC GLOBAL DEFAULT UND _ZNSt3__112basic_stringIc
196:   FUNC GLOBAL DEFAULT UND _ZNSt3__118condition_vari
197:   FUNC GLOBAL DEFAULT UND _ZNSt3__16chrono12steady_
198:   FUNC GLOBAL DEFAULT UND _ZNSt3__16chrono12system_
199:   FUNC GLOBAL DEFAULT UND eglClientWaitSyncKHR
200:   FUNC GLOBAL DEFAULT UND eglGetError
201:   FUNC GLOBAL DEFAULT UND _ZN7android14IPCThreadSta
202:   FUNC GLOBAL DEFAULT UND _ZN7android8hardware14IPC
203:   FUNC GLOBAL DEFAULT UND _ZNK7android14IPCThreadSt
204:   FUNC GLOBAL DEFAULT UND _ZNK7android14IPCThreadSt
205:   FUNC GLOBAL DEFAULT UND _ZNK7android8hardware14IP
206:   FUNC GLOBAL DEFAULT UND _ZNK7android8hardware14IP
207:   FUNC GLOBAL DEFAULT UND _ZNK7android8hardware14IP
208:   FUNC GLOBAL DEFAULT UND _ZN7android10IInterfaceC2
209:   FUNC GLOBAL DEFAULT UND _ZN7android10IInterfaceD2
210:   FUNC GLOBAL DEFAULT UND _ZN7android6Parcel19write
211:   FUNC GLOBAL DEFAULT UND _ZN7android6Parcel5writeE
212:   FUNC GLOBAL DEFAULT UND _ZN7android6ParcelC1Ev
213:   FUNC GLOBAL DEFAULT UND _ZN7android6ParcelD1Ev
214:   FUNC GLOBAL DEFAULT UND _ZN7android9BpRefBase10on
215:   FUNC GLOBAL DEFAULT UND _ZN7android9BpRefBase15on
216:   FUNC GLOBAL DEFAULT UND _ZN7android9BpRefBase20on
217:   FUNC GLOBAL DEFAULT UND _ZN7android9BpRefBaseC2ER
218:   FUNC GLOBAL DEFAULT UND _ZN7android9BpRefBaseD0Ev
219:   FUNC GLOBAL DEFAULT UND _ZN7android9BpRefBaseD1Ev
220:   FUNC GLOBAL DEFAULT UND _ZN7android9BpRefBaseD2Ev
221:   FUNC GLOBAL DEFAULT UND _ZNK7android6Parcel14chec
222:   FUNC GLOBAL DEFAULT UND _ZNK7android6Parcel4readE
223:   FUNC GLOBAL DEFAULT UND _ZTv0_n12_N7android9BpRef
224:   FUNC GLOBAL DEFAULT UND _ZTv0_n12_N7android9BpRef
225:   FUNC GLOBAL DEFAULT UND _ZTv0_n16_N7android9BpRef
226:   FUNC GLOBAL DEFAULT UND _ZTv0_n20_N7android9BpRef
227:   FUNC GLOBAL DEFAULT UND _ZTv0_n24_N7android9BpRef
228:   FUNC GLOBAL DEFAULT UND _ZN7android6Parcel10write
229:   FUNC GLOBAL DEFAULT UND _ZN7android6Parcel10write
230:   FUNC GLOBAL DEFAULT UND _ZN7android6Parcel11write
231:   FUNC GLOBAL DEFAULT UND _ZN7android6Parcel11write
232:   FUNC GLOBAL DEFAULT UND _ZN7android6Parcel12write
233:   FUNC GLOBAL DEFAULT UND _ZN7android6Parcel15write
234:   FUNC GLOBAL DEFAULT UND _ZN7android6Parcel17write
235:   FUNC GLOBAL DEFAULT UND _ZN7android6Parcel17write
236:   FUNC GLOBAL DEFAULT UND _ZN7android6Parcel9writeB
237:   FUNC GLOBAL DEFAULT UND _ZNK7android6Parcel10read
238:   FUNC GLOBAL DEFAULT UND _ZNK7android6Parcel10read
239:   FUNC GLOBAL DEFAULT UND _ZNK7android6Parcel11read
240:   FUNC GLOBAL DEFAULT UND _ZNK7android6Parcel14read
241:   FUNC GLOBAL DEFAULT UND _ZNK7android6Parcel16read
242:   FUNC GLOBAL DEFAULT UND _ZNK7android6Parcel24read
243:   FUNC GLOBAL DEFAULT UND _ZNK7android6Parcel8readB
244:   FUNC GLOBAL DEFAULT UND _ZNK7android6Parcel9readI
245:   FUNC GLOBAL DEFAULT UND _ZNK7android6Parcel9readI
246:   FUNC GLOBAL DEFAULT UND _ZN7android10IInterface8a
247:   FUNC GLOBAL DEFAULT UND _ZN7android14deleteHalTok
248:   FUNC GLOBAL DEFAULT UND _ZN7android20retrieveHalI
249:   FUNC GLOBAL DEFAULT UND _ZN7android13FenceTimelin
250:   FUNC GLOBAL DEFAULT UND _ZN7android13FenceTimelin
251:   FUNC GLOBAL DEFAULT UND _ZN7android4base13StringA
252:   FUNC GLOBAL DEFAULT UND _ZN7android9FenceTime13ge
253:   FUNC GLOBAL DEFAULT UND _ZN7android9FenceTime20ap
254:   FUNC GLOBAL DEFAULT UND _ZN7android9FenceTime8Sna
255:   FUNC GLOBAL DEFAULT UND _ZN7android9FenceTimeC1Ex
256:   FUNC GLOBAL DEFAULT UND _ZNK7android9FenceTime11g
257:   FUNC GLOBAL DEFAULT UND _ZNK7android9FenceTime19g
258:   FUNC GLOBAL DEFAULT UND _ZNK7android9FenceTime7is
259:   FUNC GLOBAL DEFAULT UND _ZNK7android9FenceTime8Sn
260:   FUNC GLOBAL DEFAULT UND _ZNK7android9FenceTime8Sn
261:   FUNC GLOBAL DEFAULT UND _ZNK7android9FenceTime8Sn
262:   FUNC GLOBAL DEFAULT UND _ZNSt3__112basic_stringIc
263:   FUNC GLOBAL DEFAULT UND _ZN7android6Parcel5writeE
264:   FUNC GLOBAL DEFAULT UND _ZN7android8hardware7deta
265:   FUNC GLOBAL DEFAULT UND _ZN7android8hardware8grap
266:   FUNC GLOBAL DEFAULT UND _ZN7android8hardware8grap
267:   FUNC GLOBAL DEFAULT UND _ZNK7android6Parcel10read
268:   FUNC GLOBAL DEFAULT UND _ZNK7android6Parcel10read
269:   FUNC GLOBAL DEFAULT UND _ZNK7android6Parcel11read
270:   FUNC GLOBAL DEFAULT UND _ZNK7android6Parcel14read
271:   FUNC GLOBAL DEFAULT UND _ZNK7android6Parcel16read
272:   FUNC GLOBAL DEFAULT UND _ZNK7android6Parcel4readE
273:   FUNC GLOBAL DEFAULT UND _ZNK7android6Parcel8readB
274:   FUNC GLOBAL DEFAULT UND _ZNK7android6Parcel9readI
275:   FUNC GLOBAL DEFAULT UND _ZNK7android6Parcel9readI
276:   FUNC GLOBAL DEFAULT UND _ZNK7android8hardware7det
277:   FUNC GLOBAL DEFAULT UND _ZN7android6Parcel16write
278:   FUNC GLOBAL DEFAULT UND _ZN7android8hardware8grap
279:   FUNC GLOBAL DEFAULT UND _ZN7android8hardware8grap
280:   FUNC GLOBAL DEFAULT UND _ZNK7android6Parcel15read
281:   FUNC GLOBAL DEFAULT UND _ZN7android6Parcel10write
282:   FUNC GLOBAL DEFAULT UND _ZNK7android6Parcel9readF
283:   FUNC GLOBAL DEFAULT UND _ZNSt3__112__next_primeEj
284:   FUNC GLOBAL DEFAULT UND _ZN7android6binder6Status
285:   FUNC GLOBAL DEFAULT UND _ZN7android8hardware11hid
286:   FUNC GLOBAL DEFAULT UND _ZN7android8hardware11hid
287:   FUNC GLOBAL DEFAULT UND _ZN7android8hardware11hid
288:   FUNC GLOBAL DEFAULT UND _ZN7android8hardware11hid
289:   FUNC GLOBAL DEFAULT UND _ZNK7android8hardware11hi
290:   FUNC GLOBAL DEFAULT UND _ZNK7android8hardware6Sta
291:   OBJECT GLOBAL DEFAULT UND _ZSt7nothrow
292:   FUNC GLOBAL DEFAULT UND _ZnajRKSt9nothrow_t
293:   FUNC GLOBAL DEFAULT UND dup@LIBC (2)
294:   FUNC GLOBAL DEFAULT UND native_handle_close
295:   FUNC GLOBAL DEFAULT UND native_handle_create
296:   FUNC GLOBAL DEFAULT UND _ZN7android14createHalTok
297:   FUNC GLOBAL DEFAULT UND _ZN7android6Parcel14write
298:   FUNC GLOBAL DEFAULT UND _ZN7android7String85setTo
299:   FUNC GLOBAL DEFAULT UND _ZN7android4hidl4base4V1_
300:   FUNC GLOBAL DEFAULT UND _ZN7android4hidl4base4V1_
301:   FUNC GLOBAL DEFAULT UND _ZN7android4hidl4base4V1_
302:   FUNC GLOBAL DEFAULT UND _ZN7android4hidl4base4V1_
303:   FUNC GLOBAL DEFAULT UND _ZN7android4hidl4base4V1_
304:   FUNC GLOBAL DEFAULT UND _ZN7android4hidl4base4V1_
305:   FUNC GLOBAL DEFAULT UND _ZN7android4hidl4base4V1_
306:   FUNC GLOBAL DEFAULT UND _ZN7android4hidl4base4V1_
307:   FUNC GLOBAL DEFAULT UND _ZN7android4hidl4base4V1_
308:   FUNC GLOBAL DEFAULT UND _ZN7android4hidl4base4V1_
309:   FUNC GLOBAL DEFAULT UND _ZN7android8hardware8grap
310:   FUNC GLOBAL DEFAULT UND _ZN7android8hardware8grap
311:   FUNC GLOBAL DEFAULT UND _ZN7android8hardware8grap
312:   FUNC GLOBAL DEFAULT UND _ZN7android8hardware8grap
313:   FUNC GLOBAL DEFAULT UND _ZN7android8hardware8grap
314:   FUNC GLOBAL DEFAULT UND _ZN7android8hardware8grap
315:   FUNC GLOBAL DEFAULT UND _ZN7android8hardware8grap
316:   FUNC GLOBAL DEFAULT UND _ZN7android8hardware8grap
317:   FUNC GLOBAL DEFAULT UND _ZN7android8hardware8grap
318:   FUNC GLOBAL DEFAULT UND _ZN7android8hardware8grap
319:   FUNC GLOBAL DEFAULT UND _ZNK7android6Parcel16enfo
320:   FUNC GLOBAL DEFAULT UND _ZNK7android8hardware11hi
321:   FUNC GLOBAL DEFAULT UND _ZN7android4base10LogMess
322:   FUNC GLOBAL DEFAULT UND _ZN7android4base10LogMess
323:   FUNC GLOBAL DEFAULT UND _ZN7android4base10LogMess
324:   FUNC GLOBAL DEFAULT UND _ZN7android4base21GetMini
325:   FUNC GLOBAL DEFAULT UND _ZNKSt3__16locale9use_fac
326:   FUNC GLOBAL DEFAULT UND _ZNKSt3__18ios_base6getlo
327:   FUNC GLOBAL DEFAULT UND _ZNSt3__113basic_ostreamI
328:   FUNC GLOBAL DEFAULT UND _ZNSt3__113basic_ostreamI
329:   OBJECT GLOBAL DEFAULT UND _ZNSt3__15ctypeIcE2idE
330:   FUNC GLOBAL DEFAULT UND _ZNSt3__16localeD1Ev
331:   FUNC GLOBAL DEFAULT UND _ZNSt3__18ios_base5clearE
332:   FUNC GLOBAL DEFAULT UND _ZN7android8hardware8grap
333:   FUNC GLOBAL DEFAULT UND _ZN7android8hardware8grap
334:   FUNC GLOBAL DEFAULT UND _ZN7android8hardware8grap
335:   FUNC GLOBAL DEFAULT UND _ZN7android8hardware8grap
336:   FUNC GLOBAL DEFAULT UND _ZN7android8hardware8grap
337:   FUNC GLOBAL DEFAULT UND _ZN7android8hardware8grap
338:   FUNC GLOBAL DEFAULT UND _ZN7android8hardware8grap
339:   FUNC GLOBAL DEFAULT UND _ZN7android8hardware8grap
340:   FUNC GLOBAL DEFAULT UND _ZN7android8hardware8grap
341:   FUNC GLOBAL DEFAULT UND _ZN7android8hardware8grap
342:   FUNC GLOBAL DEFAULT UND _ZN7android8hardware8grap
343:   FUNC GLOBAL DEFAULT UND _ZN7android8hardware8grap
344:   FUNC GLOBAL DEFAULT UND _ZN7android8hardware8grap
345:   FUNC GLOBAL DEFAULT UND _ZN7android8hardware8grap
346:   FUNC GLOBAL DEFAULT UND _ZN7android8hardware8grap
347:   FUNC GLOBAL DEFAULT UND _ZN7android8hardware8grap
348:   FUNC GLOBAL DEFAULT UND _ZN7android8hardware8grap
349:   FUNC GLOBAL DEFAULT UND _ZN7android8hardware8grap
350:   FUNC GLOBAL DEFAULT UND _ZN7android8hardware8grap
351:   FUNC GLOBAL DEFAULT UND _ZN7android8hardware8grap
352:   FUNC GLOBAL DEFAULT UND AHardwareBuffer_createFro@LIBNATIVEWINDOW (8)
353:   FUNC GLOBAL DEFAULT UND AHardwareBuffer_describe@LIBNATIVEWINDOW (8)
354:   FUNC GLOBAL DEFAULT UND AHardwareBuffer_getNative@LIBNATIVEWINDOW (8)
355:   FUNC GLOBAL DEFAULT UND AHardwareBuffer_release@LIBNATIVEWINDOW (8)
356:   FUNC GLOBAL DEFAULT UND _ZN7android13GraphicBuffe
357:   FUNC GLOBAL DEFAULT UND _ZN7android13GraphicBuffe
358:   FUNC GLOBAL DEFAULT UND _ZN7android6Region16addRe
359:   FUNC GLOBAL DEFAULT UND _ZN7android6Region3setERK
360:   FUNC GLOBAL DEFAULT UND _ZN7android6Region5clearE
361:   FUNC GLOBAL DEFAULT UND _ZN7android8hardware11hid
362:   FUNC GLOBAL DEFAULT UND _ZNK7android6Region8getAr
363:   FUNC GLOBAL DEFAULT UND memcpy@LIBC (2)
364:   FUNC GLOBAL DEFAULT UND memmove@LIBC (2)
365:   FUNC GLOBAL DEFAULT UND memset@LIBC (2)
366:   FUNC GLOBAL DEFAULT 14 _ZN7android19BufferQueueC
367:   FUNC GLOBAL DEFAULT 14 _ZN7android22IGraphicBuff
368:   FUNC GLOBAL DEFAULT 14 _ZNK7android15BufferQueue
369:   FUNC GLOBAL DEFAULT 14 _ZNK7android19BufferQueue
370:   FUNC GLOBAL DEFAULT 14 _ZN7android8hardware8grap
371:   FUNC GLOBAL DEFAULT 14 __divdi3
372:   FUNC GLOBAL DEFAULT 14 _ZN7android12FrameDropper
373:   FUNC GLOBAL DEFAULT 14 _ZN7android19GraphicBuffe
374:   FUNC GLOBAL DEFAULT 14 _ZTv0_n12_N7android11Buff
375:   FUNC GLOBAL DEFAULT 14 _ZNK7android15BufferQueue
376:   FUNC GLOBAL DEFAULT 14 _ZN7android17FrameEventHi
377:   FUNC WEAK DEFAULT 14 _ZThn4_N7android11BnInter
378:   FUNC GLOBAL DEFAULT 14 __aeabi_memset
379:   FUNC GLOBAL DEFAULT 14 _ZN7android11BufferQueue1
380:   FUNC GLOBAL DEFAULT 14 _ZNK7android19GraphicBuff
381:   FUNC GLOBAL DEFAULT 14 _ZN7android11BufferQueue2
382:   FUNC GLOBAL DEFAULT 14 _ZN7android19BufferQueueP
383:   FUNC GLOBAL DEFAULT 14 _ZN7android23BpGraphicBuf
384:   FUNC WEAK DEFAULT 14 _ZNK7android12SortedVecto
385:   FUNC GLOBAL DEFAULT 14 _ZN7android19BufferQueueC
386:   FUNC GLOBAL DEFAULT 14 _ZN7android16OccupancyTra
387:   FUNC GLOBAL DEFAULT 14 _ZN7android10conversion19
388:   FUNC WEAK DEFAULT 14 _ZThn4_N7android12H2BConv
389:   OBJECT GLOBAL DEFAULT 18 _ZTCN7android8hardware8gr
390:   OBJECT WEAK DEFAULT 18 _ZTVN7android12H2BConvert
391:   OBJECT GLOBAL DEFAULT 18 _ZTCN7android19BufferQueu
392:   FUNC GLOBAL DEFAULT 14 _ZN7android10GLConsumer22
393:   FUNC GLOBAL DEFAULT 14 _ZNK7android19BufferQueue
394:   OBJECT GLOBAL DEFAULT 18 _ZTVN7android23BpGraphicB
395:   FUNC WEAK DEFAULT 14 _ZNSt3__16vectorIN7androi
396:   FUNC GLOBAL DEFAULT 14 _ZN7android22IGraphicBuff
397:   OBJECT GLOBAL DEFAULT 18 _ZTVN7android8hardware8gr
398:   FUNC GLOBAL DEFAULT 14 _ZN7android19GraphicBuffe
399:   FUNC GLOBAL DEFAULT 14 _ZN7android11BufferQueue2
400:   FUNC GLOBAL DEFAULT 14 _ZN7android22BufferQueueT
401:   OBJECT GLOBAL DEFAULT 18 _ZTTN7android22IGraphicBu
402:   FUNC GLOBAL DEFAULT 14 _ZN7android10conversion16
403:   FUNC GLOBAL DEFAULT 14 _ZN7android19BufferQueueP
404:   FUNC GLOBAL DEFAULT 14 _ZN7android8hardware8grap
405:   FUNC WEAK DEFAULT 14 _ZNK7android6VectorIiE12d
406:   OBJECT GLOBAL DEFAULT 18 _ZTCN7android11BufferQueu
407:   FUNC GLOBAL DEFAULT 14 _ZN7android19BufferQueueC
408:   OBJECT GLOBAL DEFAULT 18 _ZTCN7android18BnConsumer
409:   FUNC GLOBAL DEFAULT 14 _ZN7android10conversion10
410:   FUNC GLOBAL DEFAULT 14 _ZN7android8hardware8grap
411:   FUNC GLOBAL DEFAULT 14 _ZN7android8hardware8grap
412:   OBJECT WEAK DEFAULT 18 _ZTVN7android12H2BConvert
413:   FUNC GLOBAL DEFAULT 14 _ZN7android11BufferQueue2
414:   OBJECT WEAK DEFAULT 18 _ZTVN7android6Parcel17Fla
415:   FUNC WEAK DEFAULT 14 _ZN7android11HpInterfaceI
416:   OBJECT WEAK DEFAULT 12 _ZN7android17IProducerLis
417:   OBJECT GLOBAL DEFAULT 18 _ZTCN7android21DummyProdu
418:   FUNC GLOBAL DEFAULT 14 _ZN7android8hardware8grap
419:   FUNC WEAK DEFAULT 14 _ZNK7android12SortedVecto
420:   OBJECT WEAK DEFAULT 18 _ZTCN7android18HpProducer
421:   FUNC GLOBAL DEFAULT 14 _ZN7android18LWProducerLi
422:   FUNC GLOBAL DEFAULT 14 _ZN7android22IGraphicBuff
423:   OBJECT GLOBAL DEFAULT 18 _ZTCN7android17IConsumerL
424:   FUNC GLOBAL DEFAULT 14 _ZN7android11BufferQueue2
425:   FUNC GLOBAL DEFAULT 14 _ZTv0_n12_N7android19Buff
426:   FUNC GLOBAL DEFAULT 14 _ZN7android22IGraphicBuff
427:   FUNC GLOBAL DEFAULT 14 _ZThn8_N7android21DummyPr
428:   FUNC GLOBAL DEFAULT 14 _ZN7android8hardware8grap
429:   FUNC GLOBAL DEFAULT 14 _ZN7android8hardware8grap
430:   OBJECT WEAK DEFAULT 18 _ZTVN7android23TWGraphicB
431:   FUNC WEAK DEFAULT 14 _ZNK7android6VectorINS_10
432:   FUNC WEAK DEFAULT 14 _ZNSt3__120__shared_ptr_e
433:   FUNC GLOBAL DEFAULT 14 _ZNK7android17IConsumerLi
434:   FUNC GLOBAL DEFAULT 14 _ZN7android16FrameEventsD
435:   FUNC GLOBAL DEFAULT 14 _ZN7android8hardware8grap
436:   OBJECT WEAK DEFAULT 12 _ZN7android22IGraphicBuff
437:   FUNC WEAK DEFAULT 14 _ZN7android11HpInterfaceI
438:   FUNC GLOBAL DEFAULT 14 _ZN7android10conversion16
439:   FUNC GLOBAL DEFAULT 14 _ZN7android10conversion7f
440:   FUNC GLOBAL DEFAULT 14 _ZN7android8hardware8grap
441:   FUNC GLOBAL DEFAULT 14 _ZN7android11BufferQueue2
442:   FUNC GLOBAL DEFAULT 14 _ZN7android19BufferQueueC
443:   FUNC GLOBAL DEFAULT 14 _ZN7android19BufferQueueP
444:   OBJECT WEAK DEFAULT 18 _ZTTN7android23HpGraphicB
445:   OBJECT GLOBAL DEFAULT 18 _ZTTN7android17IProducerL
446:   FUNC GLOBAL DEFAULT 14 _ZN7android19GraphicBuffe
447:   FUNC WEAK DEFAULT 14 _ZNK7android12SortedVecto
448:   FUNC WEAK DEFAULT 14 _ZN7android11BnInterfaceI
449:   FUNC GLOBAL DEFAULT 14 _ZN7android11BufferQueue2
450:   FUNC GLOBAL DEFAULT 14 _ZTv0_n12_N7android19Buff
451:   FUNC GLOBAL DEFAULT 14 _ZThn8_N7android21DummyPr
452:   OBJECT GLOBAL DEFAULT 18 _ZTCN7android8hardware8gr
453:   FUNC GLOBAL DEFAULT 14 _ZN7android19GraphicBuffe
454:   FUNC GLOBAL DEFAULT 14 _ZN7android16FrameEventsD
455:   FUNC GLOBAL DEFAULT 14 _ZN7android18BpProducerLi
456:   OBJECT GLOBAL DEFAULT 18 _ZTCN7android21DummyProdu
457:   FUNC GLOBAL DEFAULT 14 _ZN7android8hardware8grap
458:   FUNC GLOBAL DEFAULT 14 _ZN7android18LWProducerLi
459:   OBJECT GLOBAL DEFAULT 18 _ZTCN7android8hardware8gr
460:   FUNC GLOBAL DEFAULT 14 __aeabi_l2d
461:   OBJECT GLOBAL DEFAULT 18 _ZTVN7android18BnConsumer
462:   OBJECT GLOBAL DEFAULT 18 _ZTCN7android19BufferQueu
463:   OBJECT GLOBAL DEFAULT 18 _ZTCN7android23BpGraphicB
464:   FUNC GLOBAL DEFAULT 14 __aeabi_l2f
465:   FUNC WEAK DEFAULT 14 _ZNSt3__16vectorIN7androi
466:   FUNC GLOBAL DEFAULT 14 _ZN7android16ProducerList
467:   FUNC GLOBAL DEFAULT 14 _ZN7android18TWProducerLi
468:   FUNC GLOBAL DEFAULT 14 _ZN7android8hardware8grap
469:   FUNC GLOBAL DEFAULT 14 _ZN7android19GraphicBuffe
470:   FUNC GLOBAL DEFAULT 14 _ZNK7android11HdrMetadata
471:   OBJECT GLOBAL DEFAULT 23 _ZN7android22IGraphicBuff
472:   FUNC GLOBAL DEFAULT 14 _ZN7android25ConsumerFram
473:   FUNC GLOBAL DEFAULT 14 _ZN7android18BpProducerLi
474:   FUNC GLOBAL DEFAULT 14 __floatdisf
475:   FUNC GLOBAL DEFAULT 14 __aeabi_memcpy
476:   FUNC GLOBAL DEFAULT 14 _ZThn4_N7android19BufferQ
477:   OBJECT GLOBAL DEFAULT 18 _ZTCN7android8hardware8gr
478:   FUNC GLOBAL DEFAULT 14 _ZN7android8hardware8grap
479:   FUNC GLOBAL DEFAULT 14 _ZN7android8hardware8grap
480:   OBJECT GLOBAL DEFAULT 18 _ZTTN7android8hardware8gr
481:   FUNC GLOBAL DEFAULT 14 _ZN7android22IGraphicBuff
482:   OBJECT GLOBAL DEFAULT 18 _ZTVN7android22IGraphicBu
483:   FUNC GLOBAL DEFAULT 14 _ZN7android8hardware8grap
484:   FUNC GLOBAL DEFAULT 14 _ZN7android22FrameEventHi
485:   FUNC GLOBAL DEFAULT 14 _ZN7android8hardware8grap
486:   FUNC GLOBAL DEFAULT 14 _ZN7android19GraphicBuffe
487:   FUNC GLOBAL DEFAULT 14 _ZNK7android19GraphicBuff
488:   FUNC GLOBAL DEFAULT 14 _ZNK7android22IGraphicBuf
489:   OBJECT GLOBAL DEFAULT 18 _ZTCN7android23BnGraphicB
490:   FUNC GLOBAL DEFAULT 14 _ZNK7android22IGraphicBuf
491:   FUNC GLOBAL DEFAULT 14 _ZNK7android22IGraphicBuf
492:   FUNC GLOBAL DEFAULT 14 _ZN7android16ProducerList
493:   FUNC GLOBAL DEFAULT 14 _ZN7android8hardware8grap
494:   FUNC GLOBAL DEFAULT 14 _ZN7android16ConsumerList
495:   FUNC GLOBAL DEFAULT 14 _ZTv0_n12_N7android22IGra
496:   FUNC GLOBAL DEFAULT 14 _ZN7android19BufferQueueP
497:   FUNC GLOBAL DEFAULT 14 _ZNK7android22IGraphicBuf
498:   FUNC GLOBAL DEFAULT 14 _ZNK7android22IGraphicBuf
499:   FUNC GLOBAL DEFAULT 14 _ZN7android18BpProducerLi
500:   OBJECT GLOBAL DEFAULT 18 _ZTVN7android8hardware8gr
501:   FUNC GLOBAL DEFAULT 14 _ZN7android8hardware8grap
502:   FUNC GLOBAL DEFAULT 14 _ZN7android8hardware8grap
503:   OBJECT GLOBAL DEFAULT 18 _ZTCN7android11BufferQueu
504:   FUNC GLOBAL DEFAULT 14 _ZThn4_N7android19BufferQ
505:   OBJECT GLOBAL DEFAULT 18 _ZTCN7android18BpConsumer
506:   OBJECT GLOBAL DEFAULT 18 _ZTCN7android18LWProducer
507:   OBJECT GLOBAL DEFAULT 18 _ZTCN7android23BpGraphicB
508:   FUNC GLOBAL DEFAULT 14 _ZN7android19GraphicBuffe
509:   FUNC GLOBAL DEFAULT 14 _ZNK7android11FrameEvents
510:   FUNC GLOBAL DEFAULT 14 _ZN7android8hardware8grap
511:   FUNC GLOBAL DEFAULT 14 _ZN7android12FrameDropper
512:   FUNC GLOBAL DEFAULT 14 _ZN7android19GraphicBuffe
513:   FUNC GLOBAL DEFAULT 14 _ZN7android19GraphicBuffe
514:   FUNC GLOBAL DEFAULT 14 _ZN7android16ProducerList
515:   OBJECT GLOBAL DEFAULT 18 _ZTCN7android8hardware8gr
516:   FUNC GLOBAL DEFAULT 14 _ZN7android16ConsumerList
517:   FUNC GLOBAL DEFAULT 14 _ZN7android19GraphicBuffe
518:   FUNC GLOBAL DEFAULT 14 _ZTv0_n12_N7android22IGra
519:   FUNC GLOBAL DEFAULT 14 _ZNK7android25ProducerFra
520:   OBJECT GLOBAL DEFAULT 18 _ZTCN7android8hardware8gr
521:   FUNC GLOBAL DEFAULT 14 _ZN7android8hardware8grap
522:   FUNC WEAK DEFAULT 14 _ZNK7android6VectorIiE10d
523:   FUNC GLOBAL DEFAULT 14 _ZN7android10conversion9u
524:   FUNC GLOBAL DEFAULT 14 _ZN7android19GraphicBuffe
525:   OBJECT WEAK DEFAULT 18 _ZTVN7android12SortedVect
526:   FUNC GLOBAL DEFAULT 14 _ZN7android11BufferQueue2
527:   OBJECT GLOBAL DEFAULT 18 _ZTCN7android19BufferQueu
528:   OBJECT GLOBAL DEFAULT 18 _ZTVN7android19BufferQueu
529:   OBJECT GLOBAL DEFAULT 18 _ZTTN7android8hardware8gr
530:   FUNC GLOBAL DEFAULT 14 _ZThn8_N7android18BnProdu
531:   FUNC GLOBAL DEFAULT 14 _ZN7android8hardware8grap
532:   FUNC WEAK DEFAULT 14 _ZThn8_N7android12H2BConv
533:   FUNC GLOBAL DEFAULT 14 _ZN7android17FrameEventHi
534:   OBJECT GLOBAL DEFAULT 18 _ZTCN7android18BpProducer
535:   FUNC GLOBAL DEFAULT 14 _ZN7android19GraphicBuffe
536:   FUNC GLOBAL DEFAULT 14 _ZNK7android11BufferState
537:   FUNC GLOBAL DEFAULT 14 _ZN7android22IGraphicBuff
538:   FUNC GLOBAL DEFAULT 14 _ZN7android10conversion11
539:   FUNC GLOBAL DEFAULT 14 _ZN7android16ConsumerList
540:   FUNC WEAK DEFAULT 14 _ZNK7android12SortedVecto
541:   FUNC GLOBAL DEFAULT 14 _ZN7android22FrameEventHi
542:   FUNC GLOBAL DEFAULT 14 _ZNK7android11HdrMetadata
543:   OBJECT GLOBAL DEFAULT 18 _ZTTN7android17IConsumerL
544:   FUNC GLOBAL DEFAULT 14 _ZN7android8hardware8grap
545:   FUNC WEAK DEFAULT 14 _ZNK7android6VectorIiE7do
546:   OBJECT GLOBAL DEFAULT 18 _ZTTN7android23BnGraphicB
547:   FUNC GLOBAL DEFAULT 14 _ZNK7android8hardware8gra
548:   FUNC WEAK DEFAULT 14 _ZNSt3__120__shared_ptr_e
549:   FUNC GLOBAL DEFAULT 14 _ZThn4_N7android23BnGraph
550:   FUNC GLOBAL DEFAULT 14 _ZN7android19BufferQueueP
551:   OBJECT WEAK DEFAULT 18 _ZTCN7android23HpGraphicB
552:   FUNC GLOBAL DEFAULT 14 _ZNK7android8hardware8gra
553:   FUNC WEAK DEFAULT 14 _ZThn4_N7android12H2BConv
554:   FUNC GLOBAL DEFAULT 14 _ZN7android19GraphicBuffe
555:   OBJECT GLOBAL DEFAULT 18 _ZTCN7android19BufferQueu
556:   FUNC GLOBAL DEFAULT 14 _ZN7android19BufferQueueP
557:   FUNC GLOBAL DEFAULT 14 _ZThn16_N7android19Buffer
558:   FUNC GLOBAL DEFAULT 14 _ZThn4_N7android23BpGraph
559:   OBJECT GLOBAL DEFAULT 18 _ZTTN7android16ProducerLi
560:   OBJECT GLOBAL DEFAULT 18 _ZTTN7android18BnProducer
561:   FUNC GLOBAL DEFAULT 14 _ZN7android8hardware8grap
562:   FUNC WEAK DEFAULT 14 _ZNK7android12SortedVecto
563:   OBJECT WEAK DEFAULT 18 _ZTCN7android19GraphicBuf
564:   FUNC GLOBAL DEFAULT 14 _ZN7android8hardware8grap
565:   FUNC WEAK DEFAULT 14 _ZN7android12H2BConverter
566:   FUNC GLOBAL DEFAULT 14 _ZN7android10conversion6w
567:   FUNC GLOBAL DEFAULT 14 _ZN7android19BufferQueueC
568:   FUNC GLOBAL DEFAULT 14 _ZN7android10conversion10
569:   FUNC GLOBAL DEFAULT 14 _ZN7android8hardware8grap
570:   FUNC WEAK DEFAULT 14 _ZN7android12H2BConverter
571:   FUNC GLOBAL DEFAULT 14 _ZN7android8hardware8grap
572:   FUNC WEAK DEFAULT 14 _ZNK7android12SortedVecto
573:   FUNC GLOBAL DEFAULT 14 _ZN7android19BufferQueueC
574:   FUNC GLOBAL DEFAULT 14 _ZTv0_n12_N7android16Prod
575:   FUNC GLOBAL DEFAULT 14 _ZN7android10BufferItem9u
576:   FUNC GLOBAL DEFAULT 14 _ZN7android19GraphicBuffe
577:   FUNC WEAK DEFAULT 14 _ZNK7android12SortedVecto
578:   FUNC GLOBAL DEFAULT 14 _ZN7android19BufferQueueP
579:   FUNC GLOBAL DEFAULT 14 _ZThn16_N7android19Buffer
580:   FUNC WEAK DEFAULT 14 _ZNSt3__112__deque_baseIN
581:   OBJECT GLOBAL DEFAULT 18 _ZTCN7android18BnConsumer
582:   FUNC GLOBAL DEFAULT 14 _ZThn4_N7android23BpGraph
583:   OBJECT GLOBAL DEFAULT 18 _ZTCN7android18LWProducer
584:   FUNC GLOBAL DEFAULT 14 _ZN7android15BufferQueueC
585:   FUNC WEAK DEFAULT 14 _ZNK7android6Parcel24read
586:   OBJECT GLOBAL DEFAULT 18 _ZTTN7android23BpGraphicB
587:   OBJECT GLOBAL DEFAULT 18 _ZTTN7android8hardware8gr
588:   FUNC WEAK DEFAULT 14 _ZNSt3__14listIiNS_9alloc
589:   OBJECT GLOBAL DEFAULT 18 _ZTCN7android18BnConsumer
590:   OBJECT GLOBAL DEFAULT 18 _ZTVN7android8hardware8gr
591:   FUNC GLOBAL DEFAULT 14 _ZN7android10conversion9u
592:   FUNC GLOBAL DEFAULT 14 _ZNK7android19BufferQueue
593:   OBJECT GLOBAL DEFAULT 18 _ZTCN7android21DummyProdu
594:   FUNC GLOBAL DEFAULT 14 _ZN7android10conversion9c
595:   OBJECT WEAK DEFAULT 18 _ZTVN7android8AHandlerE
596:   FUNC GLOBAL DEFAULT 14 _ZTv0_n12_N7android16Prod
597:   FUNC GLOBAL DEFAULT 14 _ZN7android10conversion9c
598:   FUNC GLOBAL DEFAULT 14 _ZN7android19GraphicBuffe
599:   OBJECT WEAK DEFAULT 18 _ZTTN7android19GraphicBuf
600:   FUNC GLOBAL DEFAULT 14 _ZTv0_n12_N7android16Cons
601:   FUNC GLOBAL DEFAULT 14 _ZN7android8hardware8grap
602:   FUNC GLOBAL DEFAULT 14 _ZN7android8hardware8grap
603:   FUNC GLOBAL DEFAULT 14 _ZN7android8hardware8grap
604:   OBJECT GLOBAL DEFAULT 18 _ZTCN7android8hardware8gr
605:   FUNC GLOBAL DEFAULT 14 _ZN7android16FrameEventsD
606:   OBJECT GLOBAL DEFAULT 18 _ZTCN7android18BpConsumer
607:   FUNC GLOBAL DEFAULT 14 _ZTv0_n12_N7android21Dumm
608:   FUNC GLOBAL DEFAULT 14 _ZN7android8hardware8grap
609:   FUNC GLOBAL DEFAULT 14 _ZN7android19GraphicBuffe
610:   FUNC GLOBAL DEFAULT 14 _ZN7android15BufferQueueC
611:   FUNC GLOBAL DEFAULT 14 _ZNK7android19BufferQueue
612:   FUNC WEAK DEFAULT 14 _ZNK7android6VectorINS_2s
613:   FUNC GLOBAL DEFAULT 14 _ZN7android8hardware8grap
614:   FUNC GLOBAL DEFAULT 14 _ZN7android18LWProducerLi
615:   FUNC WEAK DEFAULT 14 _ZNK7android12SortedVecto
616:   FUNC GLOBAL DEFAULT 14 _ZNK7android10BufferItem1
617:   FUNC GLOBAL DEFAULT 14 _ZThn4_N7android23BnGraph
618:   FUNC GLOBAL DEFAULT 14 __aeabi_uidiv
619:   FUNC GLOBAL DEFAULT 14 _ZN7android25ConsumerFram
620:   FUNC GLOBAL DEFAULT 14 _ZN7android25ConsumerFram
621:   FUNC GLOBAL DEFAULT 14 _ZN7android12FrameDropper
622:   FUNC GLOBAL DEFAULT 14 _ZN7android11HdrMetadata9
623:   FUNC GLOBAL DEFAULT 14 _ZN7android10conversion12
624:   FUNC GLOBAL DEFAULT 14 _ZN7android8hardware8grap
625:   FUNC GLOBAL DEFAULT 14 _ZTv0_n12_N7android16Cons
626:   FUNC GLOBAL DEFAULT 14 _ZN7android16OccupancyTra
627:   FUNC GLOBAL DEFAULT 14 _ZN7android19BufferQueueC
628:   FUNC GLOBAL DEFAULT 14 _ZN7android19BufferQueueP
629:   FUNC GLOBAL DEFAULT 14 _ZN7android22IGraphicBuff
630:   FUNC GLOBAL DEFAULT 14 _ZN7android17IConsumerLis
631:   OBJECT GLOBAL DEFAULT 18 _ZTCN7android21DummyProdu
632:   FUNC GLOBAL DEFAULT 14 _ZN7android8hardware8grap
633:   FUNC GLOBAL DEFAULT 14 _ZN7android10conversion16
634:   FUNC GLOBAL DEFAULT 14 _ZN7android10conversion6w
635:   FUNC WEAK DEFAULT 14 _ZNK7android6VectorIiE16d
636:   OBJECT GLOBAL DEFAULT 18 _ZTVN7android18BpProducer
637:   FUNC GLOBAL DEFAULT 14 _ZTv0_n12_N7android21Dumm
638:   OBJECT GLOBAL DEFAULT 18 _ZTVN7android8hardware8gr
639:   FUNC GLOBAL DEFAULT 14 _ZN7android19GraphicBuffe
640:   FUNC GLOBAL DEFAULT 14 _ZNK7android17FrameEventH
641:   FUNC GLOBAL DEFAULT 14 _ZN7android8hardware8grap
642:   FUNC WEAK DEFAULT 14 _ZNSt3__16vectorIhNS_9all
643:   OBJECT GLOBAL DEFAULT 23 _ZN7android17IConsumerLis
644:   OBJECT GLOBAL DEFAULT 18 _ZTCN7android22IGraphicBu
645:   FUNC GLOBAL DEFAULT 14 _ZN7android8hardware8grap
646:   FUNC GLOBAL DEFAULT 14 _ZN7android19GraphicBuffe
647:   OBJECT WEAK DEFAULT 18 _ZTVN7android4ListINS_19G
648:   OBJECT GLOBAL DEFAULT 18 _ZTCN7android18BpProducer
649:   FUNC GLOBAL DEFAULT 14 _ZN7android8hardware8grap
650:   FUNC GLOBAL DEFAULT 14 _ZN7android8hardware8grap
651:   FUNC GLOBAL DEFAULT 14 _ZN7android25ProducerFram
652:   OBJECT GLOBAL DEFAULT 18 _ZTVN7android25ConsumerFr
653:   OBJECT GLOBAL DEFAULT 18 _ZTCN7android18BnProducer
654:   FUNC GLOBAL DEFAULT 14 _ZN7android19GraphicBuffe
655:   FUNC GLOBAL DEFAULT 14 _ZN7android19GraphicBuffe
656:   FUNC GLOBAL DEFAULT 14 _ZN7android22IGraphicBuff
657:   OBJECT WEAK DEFAULT 18 _ZTVN7android18HpProducer
658:   FUNC GLOBAL DEFAULT 14 _ZN7android10conversion28
659:   FUNC GLOBAL DEFAULT 14 _ZN7android8hardware8grap
660:   FUNC GLOBAL DEFAULT 14 __aeabi_ldivmod
661:   FUNC GLOBAL DEFAULT 14 _ZNK7android11FrameEvents
662:   FUNC WEAK DEFAULT 14 _ZNK7android6Parcel21unsa
663:   FUNC GLOBAL DEFAULT 14 _ZN7android8hardware8grap
664:   FUNC GLOBAL DEFAULT 14 _ZN7android18BnConsumerLi
665:   OBJECT GLOBAL DEFAULT 18 _ZTCN7android8hardware8gr
666:   FUNC GLOBAL DEFAULT 14 _ZN7android10conversion6w
667:   OBJECT WEAK DEFAULT 18 _ZTVN7android6VectorIiEE
668:   OBJECT GLOBAL DEFAULT 18 _ZTCN7android23BnGraphicB
669:   FUNC GLOBAL DEFAULT 14 _ZN7android10conversion7f
670:   FUNC GLOBAL DEFAULT 14 _ZN7android19BufferQueueC
671:   FUNC WEAK DEFAULT 14 _ZNK7android6VectorINS_2s
672:   OBJECT GLOBAL DEFAULT 18 _ZTTN7android16ConsumerLi
673:   OBJECT GLOBAL DEFAULT 18 _ZTTN7android18BnConsumer
674:   FUNC GLOBAL DEFAULT 14 _ZThn4_N7android21DummyPr
675:   FUNC GLOBAL DEFAULT 14 _ZN7android10conversion9u
676:   FUNC GLOBAL DEFAULT 14 _ZNK7android15BufferQueue
677:   FUNC GLOBAL DEFAULT 14 _ZN7android15BufferQueueC
678:   FUNC GLOBAL DEFAULT 14 _ZNK7android25ProducerFra
679:   FUNC GLOBAL DEFAULT 14 _ZN7android8hardware8grap
680:   FUNC WEAK DEFAULT 14 _ZNK7android12SortedVecto
681:   FUNC GLOBAL DEFAULT 14 _ZN7android15BufferQueueC
682:   FUNC GLOBAL DEFAULT 14 _ZN7android22IGraphicBuff
683:   OBJECT GLOBAL DEFAULT 18 _ZTCN7android18BpConsumer
684:   FUNC GLOBAL DEFAULT 14 _ZN7android8hardware8grap
685:   OBJECT GLOBAL DEFAULT 18 _ZTCN7android8hardware8gr
686:   OBJECT GLOBAL DEFAULT 18 _ZTTN7android18LWProducer
687:   FUNC GLOBAL DEFAULT 14 _ZN7android10conversion6w
688:   FUNC WEAK DEFAULT 14 _ZNSt3__16__treeIiNS_4les
689:   FUNC GLOBAL DEFAULT 14 _ZNK7android11FrameEvents
690:   FUNC WEAK DEFAULT 14 _ZN7android12H2BConverter
691:   FUNC GLOBAL DEFAULT 14 _ZN7android19BufferQueueC
692:   FUNC GLOBAL DEFAULT 14 _ZNK7android19BufferQueue
693:   FUNC GLOBAL DEFAULT 14 _ZN7android17IProducerLis
694:   FUNC GLOBAL DEFAULT 14 _ZN7android8hardware8grap
695:   FUNC WEAK DEFAULT 14 _ZNSt3__127__tree_balance
696:   FUNC GLOBAL DEFAULT 14 _ZTv0_n12_N7android23BpGr
697:   FUNC WEAK DEFAULT 14 _ZNSt3__112__hash_tableIN
698:   FUNC GLOBAL DEFAULT 14 _ZN7android10conversion16
699:   FUNC WEAK DEFAULT 14 _ZN7android12H2BConverter
700:   OBJECT GLOBAL DEFAULT 18 _ZTVN7android11BufferQueu
701:   FUNC GLOBAL DEFAULT 14 _ZN7android17FrameEventHi
702:   FUNC GLOBAL DEFAULT 14 _ZThn4_N7android21DummyPr
703:   OBJECT WEAK DEFAULT 18 _ZTVN7android12SortedVect
704:   FUNC GLOBAL DEFAULT 14 _ZN7android15BufferQueueC
705:   FUNC GLOBAL DEFAULT 14 _ZNK7android11FrameEvents
706:   FUNC WEAK DEFAULT 14 _ZNK7android6VectorINS_10
707:   FUNC GLOBAL DEFAULT 14 _ZN7android10conversion16
708:   FUNC GLOBAL DEFAULT 14 _ZN7android8hardware8grap
709:   OBJECT GLOBAL DEFAULT 18 _ZTCN7android8hardware8gr
710:   FUNC WEAK DEFAULT 14 _ZNK7android6VectorINS_2s
711:   OBJECT GLOBAL DEFAULT 18 _ZTTN7android21DummyProdu
712:   FUNC GLOBAL DEFAULT 14 _ZN7android19BufferQueueC
713:   OBJECT GLOBAL DEFAULT 18 _ZTCN7android19BufferQueu
714:   FUNC GLOBAL DEFAULT 14 _ZN7android8hardware8grap
715:   FUNC GLOBAL DEFAULT 14 _ZN7android19BufferQueueC
716:   FUNC GLOBAL DEFAULT 14 _ZN7android19BufferQueueP
717:   FUNC GLOBAL DEFAULT 14 _ZTv0_n12_N7android23BpGr
718:   FUNC GLOBAL DEFAULT 14 _ZN7android10conversion11
719:   FUNC GLOBAL DEFAULT 14 __udivmodsi4
720:   FUNC WEAK DEFAULT 14 _ZNK7android12SortedVecto
721:   OBJECT WEAK DEFAULT 18 _ZTCN7android18HpProducer
722:   FUNC GLOBAL DEFAULT 14 _ZN7android19GraphicBuffe
723:   FUNC GLOBAL DEFAULT 14 _ZN7android15BufferQueueC
724:   OBJECT GLOBAL DEFAULT 18 _ZTCN7android19BufferQueu
725:   OBJECT GLOBAL DEFAULT 18 _ZTCN7android18TWProducer
726:   FUNC GLOBAL DEFAULT 14 _ZN7android8hardware8grap
727:   OBJECT GLOBAL DEFAULT 18 _ZTTN7android8hardware8gr
728:   FUNC GLOBAL DEFAULT 14 _ZN7android19GraphicBuffe
729:   FUNC GLOBAL DEFAULT 14 _ZN7android19BufferQueueP
730:   FUNC GLOBAL DEFAULT 14 _ZN7android8hardware8grap
731:   FUNC WEAK DEFAULT 14 _ZNK7android12SortedVecto
732:   FUNC WEAK DEFAULT 14 _ZNSt3__16vectorINS0_IP13
733:   OBJECT GLOBAL DEFAULT 18 _ZTCN7android8hardware8gr
734:   OBJECT WEAK DEFAULT 18 _ZTVN7android17AHandlerRe
735:   FUNC GLOBAL DEFAULT 14 _ZN7android19BufferQueueC
736:   OBJECT GLOBAL DEFAULT 18 _ZTCN7android18BnProducer
737:   FUNC WEAK DEFAULT 14 _ZNSt3__15dequeIN7android
738:   OBJECT GLOBAL DEFAULT 18 _ZTCN7android8hardware8gr
739:   FUNC GLOBAL DEFAULT 14 _ZN7android19BufferQueueP
740:   FUNC WEAK DEFAULT 14 _ZNSt3__16vectorIN7androi
741:   FUNC GLOBAL DEFAULT 14 _ZN7android22IGraphicBuff
742:   OBJECT GLOBAL DEFAULT 18 _ZTVN7android8hardware8gr
743:   OBJECT GLOBAL DEFAULT 18 _ZTCN7android8hardware8gr
744:   OBJECT GLOBAL DEFAULT 18 _ZTVN7android18BpConsumer
745:   OBJECT GLOBAL DEFAULT 18 _ZTVN7android23BnGraphicB
746:   FUNC GLOBAL DEFAULT 14 _ZN7android10conversion6w
747:   FUNC GLOBAL DEFAULT 14 _ZN7android8hardware8grap
748:   FUNC WEAK DEFAULT 14 _ZN7android12H2BConverter
749:   FUNC GLOBAL DEFAULT 14 _ZN7android19GraphicBuffe
750:   OBJECT GLOBAL DEFAULT 18 _ZTTN7android15BufferQueu
751:   FUNC WEAK DEFAULT 14 _ZN7android2spINS_5FenceE
752:   OBJECT GLOBAL DEFAULT 18 _ZTCN7android18LWProducer
753:   FUNC GLOBAL DEFAULT 14 _ZN7android17IConsumerLis
754:   FUNC WEAK DEFAULT 14 _ZNSt3__16__treeIiNS_4les
755:   FUNC GLOBAL DEFAULT 14 _ZNK7android22IGraphicBuf
756:   FUNC GLOBAL DEFAULT 14 _ZTv0_n12_N7android22IGra
757:   OBJECT GLOBAL DEFAULT 18 _ZTCN7android8hardware8gr
758:   FUNC GLOBAL DEFAULT 14 _ZN7android19BufferQueueP
759:   OBJECT GLOBAL DEFAULT 18 _ZTCN7android18BnConsumer
760:   OBJECT WEAK DEFAULT 18 _ZTVN7android6Parcel17Fla
761:   OBJECT GLOBAL DEFAULT 18 _ZTCN7android23BnGraphicB
762:   FUNC GLOBAL DEFAULT 14 _ZThn16_N7android19Buffer
763:   OBJECT GLOBAL DEFAULT 18 _ZTCN7android21DummyProdu
764:   FUNC GLOBAL DEFAULT 14 _ZN7android8hardware8grap
765:   OBJECT WEAK DEFAULT 18 _ZTVN7android6Parcel17Fla
766:   FUNC WEAK DEFAULT 14 _ZN7android12H2BConverter
767:   OBJECT GLOBAL DEFAULT 18 _ZTTN7android19BufferQueu
768:   OBJECT GLOBAL DEFAULT 18 _ZTCN7android23BpGraphicB
769:   OBJECT GLOBAL DEFAULT 18 _ZTCN7android8hardware8gr
770:   OBJECT GLOBAL DEFAULT 18 _ZTCN7android8hardware8gr
771:   FUNC GLOBAL DEFAULT 14 _ZN7android19BufferQueueC
772:   FUNC GLOBAL DEFAULT 14 _ZN7android19BufferQueueC
773:   OBJECT GLOBAL DEFAULT 18 _ZTVN7android23BpGraphicB
774:   FUNC GLOBAL DEFAULT 14 _ZN7android19GraphicBuffe
775:   FUNC GLOBAL DEFAULT 14 _ZN7android19GraphicBuffe
776:   FUNC WEAK DEFAULT 14 _ZN7android2spINS_5FenceE
777:   FUNC GLOBAL DEFAULT 14 _ZNK7android15BufferQueue
778:   FUNC GLOBAL DEFAULT 14 _ZTv0_n12_N7android22IGra
779:   FUNC GLOBAL DEFAULT 14 _ZN7android22IGraphicBuff
780:   FUNC GLOBAL DEFAULT 14 _ZNK7android17IProducerLi
781:   OBJECT GLOBAL DEFAULT 18 _ZTCN7android8hardware8gr
782:   FUNC GLOBAL DEFAULT 14 _ZN7android10conversion9c
783:   FUNC GLOBAL DEFAULT 14 _ZN7android25ConsumerFram
784:   OBJECT GLOBAL DEFAULT 18 _ZTCN7android23BnGraphicB
785:   OBJECT GLOBAL DEFAULT 18 _ZTCN7android18TWProducer
786:   FUNC GLOBAL DEFAULT 14 _ZN7android8hardware8grap
787:   FUNC WEAK DEFAULT 14 _ZNK7android12SortedVecto
788:   FUNC GLOBAL DEFAULT 14 _ZNK7android19BufferQueue
789:   OBJECT GLOBAL DEFAULT 18 _ZTCN7android23BpGraphicB
790:   FUNC GLOBAL DEFAULT 14 _ZN7android8hardware8grap
791:   FUNC GLOBAL DEFAULT 14 __aeabi_memclr
792:   FUNC GLOBAL DEFAULT 14 _ZN7android18TWProducerLi
793:   FUNC WEAK DEFAULT 14 _ZNSt3__16vectorIN7androi
794:   OBJECT GLOBAL DEFAULT 18 _ZTCN7android18BnConsumer
795:   OBJECT GLOBAL DEFAULT 18 _ZTCN7android18BnProducer
796:   FUNC GLOBAL DEFAULT 14 _ZN7android19BufferQueueC
797:   OBJECT GLOBAL DEFAULT 18 _ZTCN7android19BufferQueu
798:   OBJECT GLOBAL DEFAULT 18 _ZTVN7android15BufferQueu
799:   OBJECT GLOBAL DEFAULT 23 _ZN7android22IGraphicBuff
800:   OBJECT GLOBAL DEFAULT 18 _ZTVN7android21DummyProdu
801:   FUNC GLOBAL DEFAULT 14 _ZN7android18LWProducerLi
802:   FUNC GLOBAL DEFAULT 14 _ZN7android8hardware8grap
803:   FUNC GLOBAL DEFAULT 14 _ZN7android19GraphicBuffe
804:   FUNC GLOBAL DEFAULT 14 _ZN7android8hardware8grap
805:   OBJECT GLOBAL DEFAULT 18 _ZTCN7android17IProducerL
806:   FUNC GLOBAL DEFAULT 14 _ZN7android10conversion14
807:   FUNC GLOBAL DEFAULT 14 _ZN7android10conversion21
808:   FUNC GLOBAL DEFAULT 14 _ZN7android16OccupancyTra
809:   FUNC GLOBAL DEFAULT 14 _ZThn4_N7android18BpProdu
810:   FUNC GLOBAL DEFAULT 14 _ZN7android8hardware8grap
811:   OBJECT GLOBAL DEFAULT 18 _ZTCN7android8hardware8gr
812:   FUNC GLOBAL DEFAULT 14 _ZN7android19BufferQueueP
813:   OBJECT WEAK DEFAULT 18 _ZTCN7android23HpGraphicB
814:   FUNC GLOBAL DEFAULT 14 _ZN7android8hardware8grap
815:   FUNC GLOBAL DEFAULT 14 _ZN7android8hardware8grap
816:   FUNC GLOBAL DEFAULT 14 _ZN7android8hardware8grap
817:   FUNC GLOBAL DEFAULT 14 _ZN7android19BufferQueueP
818:   OBJECT GLOBAL DEFAULT 18 _ZTTN7android8hardware8gr
819:   FUNC GLOBAL DEFAULT 14 _ZNK7android17IProducerLi
820:   FUNC GLOBAL DEFAULT 14 _ZNK7android10BufferItem7
821:   FUNC GLOBAL DEFAULT 14 _ZN7android22IGraphicBuff
822:   FUNC GLOBAL DEFAULT 14 _ZN7android25ProducerFram
823:   FUNC GLOBAL DEFAULT 14 _ZN7android10conversion21
824:   FUNC GLOBAL DEFAULT 14 _ZN7android10conversion19
825:   FUNC GLOBAL DEFAULT 14 _ZN7android17IConsumerLis
826:   OBJECT GLOBAL DEFAULT 18 _ZTCN7android11BufferQueu
827:   FUNC GLOBAL DEFAULT 14 _ZNK7android22FrameEventH
828:   OBJECT GLOBAL DEFAULT 18 _ZTCN7android18BnProducer
829:   OBJECT GLOBAL DEFAULT 18 _ZTTN7android18BpProducer
830:   FUNC GLOBAL DEFAULT 14 _ZThn4_N7android18BpProdu
831:   FUNC WEAK DEFAULT 14 _ZThn4_N7android12H2BConv
832:   OBJECT GLOBAL DEFAULT 18 _ZTCN7android8hardware8gr
833:   FUNC WEAK DEFAULT 14 _ZNK7android12SortedVecto
834:   OBJECT GLOBAL DEFAULT 18 _ZTCN7android18BpConsumer
835:   FUNC GLOBAL DEFAULT 14 _ZThn4_N7android18BpConsu
836:   FUNC GLOBAL DEFAULT 14 _ZN7android8hardware8grap
837:   FUNC GLOBAL DEFAULT 14 _ZN7android8hardware8grap
838:   FUNC GLOBAL DEFAULT 14 _ZN7android19BufferQueueP
839:   FUNC GLOBAL DEFAULT 14 _ZNK7android19BufferQueue
840:   FUNC GLOBAL DEFAULT 14 _ZN7android25ProducerFram
841:   FUNC GLOBAL DEFAULT 14 _ZNK7android11FrameEvents
842:   OBJECT GLOBAL DEFAULT 23 _ZN7android17IProducerLis
843:   FUNC GLOBAL DEFAULT 14 _ZN7android10conversion14
844:   FUNC GLOBAL DEFAULT 14 __fixunssfdi
845:   FUNC GLOBAL DEFAULT 14 __aeabi_f2ulz
846:   FUNC GLOBAL DEFAULT 14 _ZN7android18BnProducerLi
847:   FUNC GLOBAL DEFAULT 14 _ZN7android8hardware8grap
848:   FUNC WEAK DEFAULT 14 _ZNSt3__112__hash_tableIN
849:   FUNC GLOBAL DEFAULT 14 _ZN7android8hardware8grap
850:   OBJECT GLOBAL DEFAULT 18 _ZTCN7android8hardware8gr
851:   OBJECT WEAK DEFAULT 18 _ZTTN7android18HpProducer
852:   OBJECT GLOBAL DEFAULT 18 _ZTCN7android8hardware8gr
853:   FUNC GLOBAL DEFAULT 14 _ZN7android8hardware8grap
854:   FUNC GLOBAL DEFAULT 14 __aeabi_f2lz
855:   FUNC GLOBAL DEFAULT 14 __aeabi_memmove
856:   FUNC GLOBAL DEFAULT 14 _ZN7android17IConsumerLis
857:   OBJECT GLOBAL DEFAULT 18 _ZTVN7android16OccupancyT
858:   FUNC GLOBAL DEFAULT 14 _ZN7android8hardware8grap
859:   FUNC GLOBAL DEFAULT 14 _ZN7android11BufferQueue2
860:   FUNC WEAK DEFAULT 14 _ZNK7android12SortedVecto
861:   OBJECT GLOBAL DEFAULT 23 _ZN7android17IConsumerLis
862:   FUNC GLOBAL DEFAULT 14 _ZThn4_N7android18BpConsu
863:   OBJECT GLOBAL DEFAULT 18 _ZTCN7android8hardware8gr
864:   FUNC GLOBAL DEFAULT 14 _ZNK7android8hardware8gra
865:   FUNC GLOBAL DEFAULT 14 _ZN7android8hardware8grap
866:   FUNC GLOBAL DEFAULT 14 _ZNK7android10BufferItem1
867:   OBJECT GLOBAL DEFAULT 18 _ZTCN7android11BufferQueu
868:   FUNC WEAK DEFAULT 14 _ZNSt3__16vectorIN7androi
869:   OBJECT GLOBAL DEFAULT 18 _ZTVN7android22IGraphicBu
870:   FUNC GLOBAL DEFAULT 14 _ZN7android10conversion9u
871:   FUNC GLOBAL DEFAULT 14 _ZNK7android11HdrMetadata
872:   FUNC GLOBAL DEFAULT 14 _ZN7android19BufferQueueP
873:   OBJECT GLOBAL DEFAULT 18 _ZTTN7android8hardware8gr
874:   FUNC WEAK DEFAULT 14 _ZNK7android12SortedVecto
875:   FUNC GLOBAL DEFAULT 14 _ZNK7android16OccupancyTr
876:   FUNC GLOBAL DEFAULT 14 _ZN7android8hardware8grap
877:   OBJECT GLOBAL DEFAULT 18 _ZTCN7android8hardware8gr
878:   FUNC WEAK DEFAULT 14 _ZThn8_N7android12H2BConv
879:   FUNC WEAK DEFAULT 14 _ZNSt3__16vectorIN7androi
880:   FUNC GLOBAL DEFAULT 14 _ZN7android17IConsumerLis
881:   OBJECT GLOBAL DEFAULT 18 _ZTCN7android8hardware8gr
882:   FUNC WEAK DEFAULT 14 _ZThn4_N7android12H2BConv
883:   OBJECT GLOBAL DEFAULT 18 _ZTTN7android22IGraphicBu
884:   FUNC GLOBAL DEFAULT 14 _ZN7android17IProducerLis
885:   OBJECT GLOBAL DEFAULT 18 _ZTCN7android21DummyProdu
886:   FUNC GLOBAL DEFAULT 14 _ZN7android10conversion9c
887:   FUNC GLOBAL DEFAULT 14 _ZNK7android19BufferQueue
888:   OBJECT GLOBAL DEFAULT 18 _ZTCN7android18BnConsumer
889:   FUNC GLOBAL DEFAULT 14 _ZNK7android22IGraphicBuf
890:   OBJECT GLOBAL DEFAULT 18 _ZTCN7android18BpProducer
891:   FUNC GLOBAL DEFAULT 14 _ZNK7android8hardware8gra
892:   FUNC GLOBAL DEFAULT 14 _ZThn4_N7android19BufferQ
893:   FUNC GLOBAL DEFAULT 14 _ZNK7android16FrameEvents
894:   FUNC WEAK DEFAULT 14 _ZNSt3__16vectorIP13nativ
895:   FUNC WEAK DEFAULT 14 _ZNSt3__120__shared_ptr_e
896:   OBJECT GLOBAL DEFAULT 18 _ZTCN7android23BnGraphicB
897:   OBJECT GLOBAL DEFAULT 18 _ZTCN7android18LWProducer
898:   FUNC GLOBAL DEFAULT 14 _ZN7android8hardware8grap
899:   FUNC GLOBAL DEFAULT 14 _ZN7android8hardware8grap
900:   FUNC GLOBAL DEFAULT 14 _ZN7android11BufferQueue2
901:   FUNC GLOBAL DEFAULT 14 _ZN7android8hardware8grap
902:   FUNC GLOBAL DEFAULT 14 _ZN7android19BufferQueueP
903:   OBJECT WEAK DEFAULT 18 _ZTCN7android18HpProducer
904:   OBJECT GLOBAL DEFAULT 18 _ZTCN7android8hardware8gr
905:   FUNC WEAK DEFAULT 14 _ZThn4_N7android12H2BConv
906:   FUNC GLOBAL DEFAULT 14 _ZN7android19GraphicBuffe
907:   OBJECT GLOBAL DEFAULT 18 _ZTCN7android11BufferQueu
908:   OBJECT GLOBAL DEFAULT 18 _ZTVN7android19BufferQueu
909:   FUNC GLOBAL DEFAULT 14 _ZN7android10conversion9c
910:   FUNC GLOBAL DEFAULT 14 _ZN7android8hardware8grap
911:   FUNC GLOBAL DEFAULT 14 _ZNK7android15BufferQueue
912:   FUNC GLOBAL DEFAULT 14 _ZThn4_N7android19BufferQ
913:   FUNC GLOBAL DEFAULT 14 _ZNK7android22IGraphicBuf
914:   FUNC GLOBAL DEFAULT 14 _ZN7android8hardware8grap
915:   FUNC GLOBAL DEFAULT 14 __mulodi4
916:   FUNC GLOBAL DEFAULT 14 _ZN7android10BufferItem15
917:   OBJECT GLOBAL DEFAULT 18 _ZTVN7android25ProducerFr
918:   OBJECT GLOBAL DEFAULT 18 _ZTCN7android23BpGraphicB
919:   OBJECT GLOBAL DEFAULT 18 _ZTCN7android23BpGraphicB
920:   FUNC WEAK DEFAULT 14 _ZThn8_N7android12H2BConv
921:   OBJECT GLOBAL DEFAULT 18 _ZTVN7android8hardware8gr
922:   FUNC GLOBAL DEFAULT 14 __aeabi_uidivmod
923:   OBJECT GLOBAL DEFAULT 18 _ZTTN7android23BnGraphicB
924:   OBJECT WEAK DEFAULT 18 _ZTCN7android23HpGraphicB
925:   OBJECT WEAK DEFAULT 18 _ZTVN7android6Parcel17Fla
926:   FUNC GLOBAL DEFAULT 14 _ZN7android19BufferQueueP
927:   FUNC GLOBAL DEFAULT 14 _ZN7android10conversion14
928:   OBJECT GLOBAL DEFAULT 18 _ZTCN7android11BufferQueu
929:   FUNC GLOBAL DEFAULT 14 _ZN7android19BufferQueueC
930:   OBJECT GLOBAL DEFAULT 18 _ZTCN7android18BpConsumer
931:   FUNC GLOBAL DEFAULT 14 _ZNK7android22IGraphicBuf
932:   FUNC GLOBAL DEFAULT 14 _ZTv0_n12_N7android23BpGr
933:   FUNC GLOBAL DEFAULT 14 _ZN7android8hardware8grap
934:   FUNC GLOBAL DEFAULT 14 _ZN7android19GraphicBuffe
935:   FUNC GLOBAL DEFAULT 14 _ZN7android19BufferQueueP
936:   OBJECT GLOBAL DEFAULT 18 _ZTTN7android18BpConsumer
937:   FUNC GLOBAL DEFAULT 14 _ZN7android8hardware8grap
938:   OBJECT GLOBAL DEFAULT 18 _ZTCN7android11BufferQueu
939:   FUNC GLOBAL DEFAULT 14 _ZN7android25ProducerFram
940:   FUNC GLOBAL DEFAULT 14 _ZN7android23BpGraphicBuf
941:   FUNC GLOBAL DEFAULT 14 __udivsi3
942:   OBJECT WEAK DEFAULT 18 _ZTVN7android12SortedVect
943:   FUNC GLOBAL DEFAULT 14 _ZNK7android10BufferItem1
944:   FUNC GLOBAL DEFAULT 14 _ZN7android19BufferQueueP
945:   FUNC GLOBAL DEFAULT 14 _ZN7android10conversion10
946:   FUNC GLOBAL DEFAULT 14 _ZN7android10conversion9u
947:   OBJECT GLOBAL DEFAULT 18 _ZTCN7android8hardware8gr
948:   OBJECT GLOBAL DEFAULT 18 _ZTTN7android11BufferQueu
949:   FUNC GLOBAL DEFAULT 14 _ZN7android19BufferQueueP
950:   FUNC GLOBAL DEFAULT 14 _ZN7android25ConsumerFram
951:   OBJECT GLOBAL DEFAULT 18 _ZTCN7android18BpProducer
952:   FUNC GLOBAL DEFAULT 14 _ZN7android16OccupancyTra
953:   FUNC GLOBAL DEFAULT 14 _ZN7android19GraphicBuffe
954:   FUNC WEAK DEFAULT 14 _ZNK7android6VectorINS_10
955:   FUNC GLOBAL DEFAULT 14 _ZNK7android22FrameEventH
956:   FUNC GLOBAL DEFAULT 14 _ZTv0_n12_N7android23BpGr
957:   FUNC GLOBAL DEFAULT 14 _ZN7android17IConsumerLis
958:   OBJECT GLOBAL DEFAULT 18 _ZTTN7android23BpGraphicB
959:   FUNC GLOBAL DEFAULT 14 _ZN7android8hardware8grap
960:   FUNC GLOBAL DEFAULT 14 _ZNK7android8hardware8gra
961:   FUNC GLOBAL DEFAULT 14 _ZN7android23BpGraphicBuf
962:   FUNC GLOBAL DEFAULT 14 _ZN7android17IProducerLis
963:   OBJECT GLOBAL DEFAULT 18 _ZTCN7android18BnProducer
964:   FUNC GLOBAL DEFAULT 14 _ZN7android8hardware8grap
965:   FUNC GLOBAL DEFAULT 14 _ZN7android15BufferQueueC
966:   FUNC GLOBAL DEFAULT 14 _ZThn4_N7android23BpGraph
967:   FUNC GLOBAL DEFAULT 14 _ZN7android8hardware8grap
968:   FUNC WEAK DEFAULT 14 _ZNK7android12SortedVecto
969:   FUNC GLOBAL DEFAULT 14 _ZNK7android15BufferQueue
970:   FUNC GLOBAL DEFAULT 14 _ZN7android19BufferQueueP
971:   FUNC GLOBAL DEFAULT 14 _ZN7android11FrameEvents2
972:   FUNC GLOBAL DEFAULT 14 _ZN7android25ConsumerFram
973:   FUNC GLOBAL DEFAULT 14 _ZN7android10conversion10
974:   OBJECT WEAK DEFAULT 18 _ZTVN7android12H2BConvert
975:   FUNC GLOBAL DEFAULT 14 _ZN7android19BufferQueueC
976:   FUNC GLOBAL DEFAULT 14 _ZN7android19BufferQueueP
977:   FUNC GLOBAL DEFAULT 14 _ZN7android22IGraphicBuff
978:   FUNC WEAK DEFAULT 14 _ZN7android12H2BConverter
979:   FUNC GLOBAL DEFAULT 14 _ZN7android8hardware8grap
980:   FUNC WEAK DEFAULT 14 _ZNK7android6VectorIiE15d
981:   OBJECT GLOBAL DEFAULT 18 _ZTCN7android23BnGraphicB
982:   FUNC GLOBAL DEFAULT 14 _ZNK7android17IProducerLi
983:   FUNC WEAK DEFAULT 14 _ZThn8_N7android12H2BConv
984:   FUNC WEAK DEFAULT 14 _ZNK7android6VectorINS_10
985:   OBJECT GLOBAL DEFAULT 18 _ZTCN7android19BufferQueu
986:   FUNC GLOBAL DEFAULT 14 _ZN7android23BpGraphicBuf
987:   FUNC GLOBAL DEFAULT 14 _ZN7android17IProducerLis
988:   FUNC WEAK DEFAULT 14 _ZNSt3__120__shared_ptr_e
989:   FUNC GLOBAL DEFAULT 14 _ZNK7android22IGraphicBuf
990:   FUNC WEAK DEFAULT 14 _ZNSt3__16vectorIhNS_9all
991:   FUNC GLOBAL DEFAULT 14 _ZThn4_N7android23BpGraph
992:   FUNC WEAK DEFAULT 14 _ZNSt3__112__hash_tableIN
993:   OBJECT GLOBAL DEFAULT 18 _ZTVN7android8hardware8gr
994:   FUNC GLOBAL DEFAULT 14 _ZNK7android8hardware8gra
995:   FUNC WEAK DEFAULT 14 _ZNSt3__120__shared_ptr_e
996:   OBJECT GLOBAL DEFAULT 23 _ZN7android22IGraphicBuff
997:   OBJECT GLOBAL DEFAULT 18 _ZTCN7android23BnGraphicB
998:   FUNC WEAK DEFAULT 14 _ZNSt3__124__put_characte
999:   FUNC WEAK DEFAULT 14 _ZThn8_N7android12H2BConv
1000:   FUNC GLOBAL DEFAULT 14 _ZN7android19GraphicBuffe
1001:   FUNC GLOBAL DEFAULT 14 _ZTv0_n12_N7android17IPro
1002:   FUNC GLOBAL DEFAULT 14 _ZN7android25ConsumerFram
1003:   FUNC GLOBAL DEFAULT 14 _ZN7android23BnGraphicBuf
1004:   FUNC WEAK DEFAULT 14 _ZN7android12H2BConverter
1005:   FUNC WEAK DEFAULT 14 _ZNK7android6VectorINS_2s
1006:   FUNC GLOBAL DEFAULT 14 _ZN7android17IProducerLis
1007:   OBJECT GLOBAL DEFAULT 18 _ZTVN7android18TWProducer
1008:   OBJECT WEAK DEFAULT 18 _ZTVNSt3__120__shared_ptr
1009:   FUNC WEAK DEFAULT 14 _ZNK7android6VectorINS_10
1010:   OBJECT GLOBAL DEFAULT 18 _ZTCN7android18BpConsumer
1011:   FUNC GLOBAL DEFAULT 14 _ZN7android15BufferQueueC
1012:   FUNC GLOBAL DEFAULT 14 _ZN7android18TWProducerLi
1013:   FUNC GLOBAL DEFAULT 14 _ZN7android17FrameEventHi
1014:   FUNC GLOBAL DEFAULT 14 _ZNK7android11FrameEvents
1015:   OBJECT GLOBAL DEFAULT 18 _ZTVN7android17IProducerL
1016:   FUNC GLOBAL DEFAULT 14 _ZTv0_n12_N7android17IPro
1017:   FUNC WEAK DEFAULT 14 _ZThn4_N7android12H2BConv
1018:   FUNC GLOBAL DEFAULT 14 _ZNK7android8hardware8gra
1019:   FUNC GLOBAL DEFAULT 14 _ZTv0_n12_N7android17ICon
1020:   OBJECT WEAK DEFAULT 18 _ZTVN7android19GraphicBuf
1021:   FUNC WEAK DEFAULT 14 _ZN7android11BnInterfaceI
1022:   OBJECT GLOBAL DEFAULT 18 _ZTCN7android19BufferQueu
1023:   FUNC GLOBAL DEFAULT 14 _ZTv0_n12_N7android19Buff
1024:   OBJECT GLOBAL DEFAULT 18 _ZTCN7android8hardware8gr
1025:   OBJECT GLOBAL DEFAULT 18 _ZTCN7android18LWProducer
1026:   FUNC GLOBAL DEFAULT 14 _ZNK7android8hardware8gra
1027:   OBJECT WEAK DEFAULT 18 _ZTVNSt3__120__shared_ptr
1028:   FUNC GLOBAL DEFAULT 14 _ZN7android11BufferQueue2
1029:   FUNC GLOBAL DEFAULT 14 _ZN7android25ProducerFram
1030:   FUNC GLOBAL DEFAULT 14 _ZThn8_N7android18BpProdu
1031:   FUNC GLOBAL DEFAULT 14 _ZN7android8hardware8grap
1032:   OBJECT GLOBAL DEFAULT 18 _ZTVN7android17FrameEvent
1033:   OBJECT GLOBAL DEFAULT 18 _ZTCN7android21DummyProdu
1034:   FUNC WEAK DEFAULT 14 _ZNSt3__114__split_buffer
1035:   OBJECT GLOBAL DEFAULT 18 _ZTCN7android8hardware8gr
1036:   FUNC GLOBAL DEFAULT 14 _ZN7android19GraphicBuffe
1037:   FUNC GLOBAL DEFAULT 14 _ZNK7android11FrameEvents
1038:   FUNC WEAK DEFAULT 14 _ZN7android11BnInterfaceI
1039:   FUNC WEAK DEFAULT 14 _ZN7android12H2BConverter
1040:   FUNC WEAK DEFAULT 14 _ZNSt3__120__shared_ptr_e
1041:   FUNC GLOBAL DEFAULT 14 _ZN7android17FrameEventHi
1042:   OBJECT GLOBAL DEFAULT 18 _ZTCN7android8hardware8gr
1043:   FUNC GLOBAL DEFAULT 14 _ZTv0_n12_N7android17ICon
1044:   FUNC GLOBAL DEFAULT 14 _ZN7android10conversion7f
1045:   FUNC GLOBAL DEFAULT 14 _ZN7android8hardware8grap
1046:   FUNC WEAK DEFAULT 14 _ZNK7android12SortedVecto
1047:   FUNC GLOBAL DEFAULT 14 _ZTv0_n12_N7android19Buff
1048:   FUNC GLOBAL DEFAULT 14 _ZN7android25ConsumerFram
1049:   FUNC GLOBAL DEFAULT 14 _ZNK7android16FrameEvents
1050:   FUNC GLOBAL DEFAULT 14 _ZN7android25ProducerFram
1051:   FUNC GLOBAL DEFAULT 14 _ZThn8_N7android18BpProdu
1052:   FUNC GLOBAL DEFAULT 14 __udivmoddi4
1053:   FUNC GLOBAL DEFAULT 14 _ZN7android15BufferQueueC
1054:   FUNC GLOBAL DEFAULT 14 _ZThn8_N7android18BpConsu
1055:   FUNC GLOBAL DEFAULT 14 __aeabi_memcpy4
1056:   OBJECT GLOBAL DEFAULT 18 _ZTCN7android19BufferQueu
1057:   FUNC GLOBAL DEFAULT 14 _ZTv0_n12_N7android15Buff
1058:   FUNC GLOBAL DEFAULT 14 _ZNK7android11FrameEvents
1059:   FUNC WEAK DEFAULT 14 _ZThn8_N7android12H2BConv
1060:   FUNC GLOBAL DEFAULT 14 _ZN7android8hardware8grap
1061:   FUNC GLOBAL DEFAULT 14 _ZN7android17FrameEventHi
1062:   FUNC GLOBAL DEFAULT 14 _ZN7android18BnProducerLi
1063:   OBJECT GLOBAL DEFAULT 18 _ZTVN7android16ProducerLi
1064:   FUNC GLOBAL DEFAULT 14 _ZN7android8hardware8grap
1065:   OBJECT GLOBAL DEFAULT 18 _ZTCN7android18LWProducer
1066:   FUNC GLOBAL DEFAULT 14 _ZN7android8hardware8grap
1067:   FUNC WEAK DEFAULT 14 _ZNK7android6VectorIiE8do
1068:   FUNC GLOBAL DEFAULT 14 _ZN7android19BufferQueueP
1069:   FUNC GLOBAL DEFAULT 14 _ZN7android8hardware8grap
1070:   FUNC WEAK DEFAULT 14 _ZNSt3__120__shared_ptr_e
1071:   OBJECT WEAK DEFAULT 18 _ZTVN7android4ListIiEE
1072:   FUNC GLOBAL DEFAULT 14 _ZN7android19BufferQueueC
1073:   FUNC GLOBAL DEFAULT 14 _ZN7android25ConsumerFram
1074:   FUNC GLOBAL DEFAULT 14 __aeabi_memcpy8
1075:   OBJECT GLOBAL DEFAULT 18 _ZTCN7android8hardware8gr
1076:   FUNC GLOBAL DEFAULT 14 _ZN7android19BufferQueueC
1077:   FUNC GLOBAL DEFAULT 14 _ZN7android25ProducerFram
1078:   FUNC GLOBAL DEFAULT 14 _ZN7android8hardware8grap
1079:   FUNC GLOBAL DEFAULT 14 __aeabi_memmove4
1080:   FUNC GLOBAL DEFAULT 14 _ZThn8_N7android18BpConsu
1081:   FUNC GLOBAL DEFAULT 14 _ZN7android10conversion9c
1082:   OBJECT GLOBAL DEFAULT 18 _ZTCN7android8hardware8gr
1083:   FUNC GLOBAL DEFAULT 14 __divmoddi4
1084:   FUNC GLOBAL DEFAULT 14 _ZN7android19GraphicBuffe
1085:   FUNC GLOBAL DEFAULT 14 _ZN7android11BufferQueue2
1086:   FUNC GLOBAL DEFAULT 14 _ZTv0_n12_N7android15Buff
1087:   FUNC GLOBAL DEFAULT 14 _ZNK7android16FrameEvents
1088:   FUNC GLOBAL DEFAULT 14 _ZN7android8hardware8grap
1089:   FUNC GLOBAL DEFAULT 14 _ZN7android19BufferQueueP
1090:   FUNC GLOBAL DEFAULT 14 _ZNK7android25ProducerFra
1091:   FUNC GLOBAL DEFAULT 14 _ZN7android8hardware8grap
1092:   FUNC GLOBAL DEFAULT 14 _ZN7android19GraphicBuffe
1093:   FUNC GLOBAL DEFAULT 14 _ZN7android10BufferItemC2
1094:   FUNC WEAK DEFAULT 14 _ZNK7android6VectorINS_2s
1095:   OBJECT GLOBAL DEFAULT 18 _ZTTN7android8hardware8gr
1096:   FUNC GLOBAL DEFAULT 14 _ZN7android8hardware8grap
1097:   FUNC GLOBAL DEFAULT 14 __aeabi_memmove8
1098:   OBJECT WEAK DEFAULT 18 _ZTVN7android4ListINS_19G
1099:   FUNC GLOBAL DEFAULT 14 _ZN7android19BufferQueueC
1100:   OBJECT WEAK DEFAULT 18 _ZTVN7android6VectorINS_1
1101:   FUNC GLOBAL DEFAULT 14 _ZN7android25ConsumerFram
1102:   FUNC GLOBAL DEFAULT 14 _ZN7android25ConsumerFram
1103:   FUNC GLOBAL DEFAULT 14 _ZN7android8hardware8grap
1104:   FUNC GLOBAL DEFAULT 14 _ZN7android12FrameDropper
1105:   FUNC GLOBAL DEFAULT 14 _ZN7android19GraphicBuffe
1106:   FUNC GLOBAL DEFAULT 14 _ZN7android19BufferQueueC
1107:   FUNC GLOBAL DEFAULT 14 _ZN7android22BufferQueueT
1108:   OBJECT WEAK DEFAULT 18 _ZTVN7android23HpGraphicB
1109:   FUNC WEAK DEFAULT 14 _ZNSt3__114__split_buffer
1110:   FUNC GLOBAL DEFAULT 14 _ZN7android10conversion15
1111:   FUNC WEAK DEFAULT 14 _ZNSt3__16vectorIN7androi
1112:   OBJECT GLOBAL DEFAULT 18 _ZTVN7android12FrameDropp
1113:   FUNC WEAK DEFAULT 14 _ZNK7android6VectorINS_2s
1114:   FUNC GLOBAL DEFAULT 14 __aeabi_memclr4
1115:   OBJECT WEAK DEFAULT 18 _ZTVN7android12H2BConvert
1116:   FUNC GLOBAL DEFAULT 14 __fixsfdi
1117:   FUNC GLOBAL DEFAULT 14 __floatdidf
1118:   FUNC GLOBAL DEFAULT 14 _ZN7android19GraphicBuffe
1119:   FUNC WEAK DEFAULT 14 _ZNK7android12SortedVecto
1120:   OBJECT WEAK DEFAULT 18 _ZTVN7android6VectorINS_2
1121:   FUNC WEAK DEFAULT 14 _ZNSt3__114__split_buffer
1122:   FUNC WEAK DEFAULT 14 _ZN7android12H2BConverter
1123:   FUNC GLOBAL DEFAULT 14 _ZN7android25ConsumerFram
1124:   OBJECT GLOBAL DEFAULT 18 _ZTCN7android18BnConsumer
1125:   FUNC GLOBAL DEFAULT 14 _ZN7android22IGraphicBuff
1126:   FUNC WEAK DEFAULT 14 _ZNSt3__114__split_buffer
1127:   FUNC GLOBAL DEFAULT 14 __aeabi_uldivmod
1128:   FUNC GLOBAL DEFAULT 14 _ZN7android10BufferItemC1
1129:   FUNC GLOBAL DEFAULT 14 _ZN7android19BufferQueueC
1130:   FUNC GLOBAL DEFAULT 14 _ZNK7android11FrameEvents
1131:   OBJECT GLOBAL DEFAULT 18 _ZTCN7android23BpGraphicB
1132:   FUNC GLOBAL DEFAULT 14 _ZN7android19GraphicBuffe
1133:   FUNC WEAK DEFAULT 14 _ZNK7android12SortedVecto
1134:   OBJECT GLOBAL DEFAULT 18 _ZTCN7android23BnGraphicB
1135:   OBJECT GLOBAL DEFAULT 18 _ZTCN7android23BpGraphicB
1136:   FUNC GLOBAL DEFAULT 14 _ZTv0_n12_N7android18BpPr
1137:   FUNC GLOBAL DEFAULT 14 __aeabi_memclr8
1138:   OBJECT GLOBAL DEFAULT 18 _ZTCN7android8hardware8gr
1139:   FUNC GLOBAL DEFAULT 14 _ZN7android18TWProducerLi
1140:   OBJECT GLOBAL DEFAULT 18 _ZTCN7android8hardware8gr
1141:   FUNC GLOBAL DEFAULT 14 _ZN7android12FrameDropper
1142:   FUNC GLOBAL DEFAULT 14 _ZN7android10conversion9c
1143:   FUNC WEAK DEFAULT 14 _ZNK7android12SortedVecto
1144:   OBJECT WEAK DEFAULT 18 _ZTVNSt3__120__shared_ptr
1145:   OBJECT GLOBAL DEFAULT 18 _ZTVN7android17IConsumerL
1146:   FUNC GLOBAL DEFAULT 14 _ZN7android19GraphicBuffe
1147:   FUNC WEAK DEFAULT 14 _ZNK7android6VectorINS_10
1148:   OBJECT GLOBAL DEFAULT 18 _ZTCN7android18BnProducer
1149:   FUNC GLOBAL DEFAULT 14 _ZN7android8hardware8grap
1150:   FUNC GLOBAL DEFAULT 14 __aeabi_memset4
1151:   FUNC GLOBAL DEFAULT 14 _ZThn8_N7android18BnConsu
1152:   OBJECT GLOBAL DEFAULT 18 _ZTCN7android19BufferQueu
1153:   FUNC GLOBAL DEFAULT 14 _ZN7android10conversion7f
1154:   OBJECT GLOBAL DEFAULT 18 _ZTCN7android8hardware8gr
1155:   OBJECT GLOBAL DEFAULT 18 _ZTTN7android19BufferQueu
1156:   OBJECT GLOBAL DEFAULT 18 _ZTCN7android19BufferQueu
1157:   FUNC GLOBAL DEFAULT 14 _ZN7android22IGraphicBuff
1158:   FUNC WEAK DEFAULT 14 _ZN7android12H2BConverter
1159:   FUNC GLOBAL DEFAULT 14 _ZN7android8hardware8grap
1160:   FUNC GLOBAL DEFAULT 14 _ZN7android22IGraphicBuff
1161:   OBJECT GLOBAL DEFAULT 18 _ZTCN7android23BnGraphicB
1162:   FUNC GLOBAL DEFAULT 14 _ZTv0_n12_N7android18BpPr
1163:   FUNC GLOBAL DEFAULT 14 _ZN7android10conversion12
1164:   FUNC GLOBAL DEFAULT 14 __aeabi_memset8
1165:   FUNC WEAK DEFAULT 14 _ZN7android11BnInterfaceI
1166:   FUNC GLOBAL DEFAULT 14 _ZN7android19BufferQueueP
1167:   FUNC GLOBAL DEFAULT 14 _ZTv0_n12_N7android18BpCo
1168:   OBJECT WEAK DEFAULT 18 _ZTCN7android18HpProducer
1169:   FUNC GLOBAL DEFAULT 14 _ZThn4_N7android17IProduc
1170:   FUNC WEAK DEFAULT 14 _ZN7android12H2BConverter
1171:   OBJECT GLOBAL DEFAULT 18 _ZTCN7android22IGraphicBu
1172:   OBJECT WEAK DEFAULT 18 _ZTVNSt3__120__shared_ptr
1173:   OBJECT GLOBAL DEFAULT 18 _ZTCN7android19BufferQueu
1174:   OBJECT GLOBAL DEFAULT 18 _ZTCN7android8hardware8gr
1175:   OBJECT GLOBAL DEFAULT 18 _ZTCN7android17IConsumerL
1176:   OBJECT WEAK DEFAULT 18 _ZTVN7android6Parcel17Fla
1177:   OBJECT GLOBAL DEFAULT 18 _ZTVN7android18LWProducer
1178:   FUNC WEAK DEFAULT 14 _ZNSt3__112__deque_baseIN
1179:   FUNC GLOBAL DEFAULT 14 _ZNK7android11FrameEvents
1180:   OBJECT GLOBAL DEFAULT 18 _ZTCN7android18BpProducer
1181:   FUNC GLOBAL DEFAULT 14 _ZNK7android11FrameEvents
1182:   FUNC GLOBAL DEFAULT 14 _ZN7android21DummyProduce
1183:   FUNC GLOBAL DEFAULT 14 _ZN7android10conversion9t
1184:   FUNC GLOBAL DEFAULT 14 _ZN7android8hardware8grap
1185:   FUNC GLOBAL DEFAULT 14 _ZNK7android19GraphicBuff
1186:   FUNC GLOBAL DEFAULT 14 _ZNK7android22FrameEventH
1187:   FUNC GLOBAL DEFAULT 14 _ZN7android18BpConsumerLi
1188:   OBJECT GLOBAL DEFAULT 18 _ZTVN7android16ConsumerLi
1189:   FUNC GLOBAL DEFAULT 14 _ZTv0_n12_N7android18BpCo
1190:   OBJECT WEAK DEFAULT 18 _ZTVN7android6Parcel17Fla
1191:   FUNC GLOBAL DEFAULT 14 _ZThn4_N7android17IProduc
1192:   FUNC GLOBAL DEFAULT 14 _ZN7android10BufferItemD2
1193:   FUNC GLOBAL DEFAULT 14 _ZThn4_N7android17IConsum
1194:   FUNC GLOBAL DEFAULT 14 _ZN7android8hardware8grap
1195:   FUNC GLOBAL DEFAULT 14 _ZN7android19BufferQueueP
1196:   FUNC GLOBAL DEFAULT 14 _ZN7android12FrameDropper
1197:   FUNC GLOBAL DEFAULT 14 _ZN7android19BufferQueueP
1198:   FUNC GLOBAL DEFAULT 14 _ZN7android19BufferQueueP
1199:   OBJECT GLOBAL DEFAULT 18 _ZTCN7android23BnGraphicB
1200:   OBJECT GLOBAL DEFAULT 18 _ZTCN7android23BpGraphicB
1201:   FUNC GLOBAL DEFAULT 14 _ZN7android18BnProducerLi
1202:   FUNC GLOBAL DEFAULT 14 _ZN7android10conversion7f
1203:   FUNC GLOBAL DEFAULT 14 _ZN7android19GraphicBuffe
1204:   FUNC GLOBAL DEFAULT 14 _ZThn8_N7android11BufferQ
1205:   OBJECT GLOBAL DEFAULT 18 _ZTCN7android19BufferQueu
1206:   FUNC GLOBAL DEFAULT 14 _ZN7android17IConsumerLis
1207:   FUNC GLOBAL DEFAULT 14 _ZN7android22IGraphicBuff
1208:   FUNC GLOBAL DEFAULT 14 _ZN7android23BpGraphicBuf
1209:   FUNC GLOBAL DEFAULT 14 _ZN7android21DummyProduce
1210:   FUNC GLOBAL DEFAULT 14 _ZN7android8hardware8grap
1211:   FUNC GLOBAL DEFAULT 14 _ZThn4_N7android11BufferQ
1212:   FUNC GLOBAL DEFAULT 14 _ZN7android18BpConsumerLi
1213:   OBJECT GLOBAL DEFAULT 18 _ZTCN7android17IProducerL
1214:   FUNC GLOBAL DEFAULT 14 _ZN7android8hardware8grap
1215:   FUNC GLOBAL DEFAULT 14 _ZN7android10BufferItemD1
1216:   FUNC GLOBAL DEFAULT 14 _ZThn4_N7android17IConsum
1217:   FUNC WEAK DEFAULT 14 _ZNSt3__120__shared_ptr_e
1218:   OBJECT GLOBAL DEFAULT 18 _ZTCN7android11BufferQueu
1219:   FUNC GLOBAL DEFAULT 14 _ZN7android19BufferQueueC
1220:   OBJECT GLOBAL DEFAULT 18 _ZTCN7android8hardware8gr
1221:   OBJECT GLOBAL DEFAULT 18 _ZTCN7android18LWProducer
1222:   FUNC GLOBAL DEFAULT 14 _ZN7android12FrameDropper
1223:   FUNC GLOBAL DEFAULT 14 _ZN7android19GraphicBuffe
1224:   FUNC WEAK DEFAULT 14 _ZNK7android12SortedVecto
1225:   FUNC GLOBAL DEFAULT 14 _ZTv0_n12_N7android11Buff
1226:   OBJECT GLOBAL DEFAULT 18 _ZTVN7android18BnProducer
1227:   FUNC GLOBAL DEFAULT 14 _ZN7android8hardware8grap
1228:   FUNC GLOBAL DEFAULT 14 _ZThn8_N7android11BufferQ
1229:   FUNC WEAK DEFAULT 14 _ZNSt3__113__tree_removeI
1230:   FUNC GLOBAL DEFAULT 14 _ZN7android23BpGraphicBuf
1231:   OBJECT GLOBAL DEFAULT 18 _ZTVN7android23BnGraphicB
1232:   OBJECT GLOBAL DEFAULT 18 _ZTTN7android18TWProducer
1233:   OBJECT GLOBAL DEFAULT 18 _ZTVN7android19GraphicBuf
1234:   FUNC WEAK DEFAULT 14 _ZNSt3__16vectorIN7androi
1235:   OBJECT GLOBAL DEFAULT 18 _ZTCN7android23BnGraphicB
1236:   FUNC GLOBAL DEFAULT 14 _ZN7android21DummyProduce
1237:   FUNC GLOBAL DEFAULT 14 _ZN7android10conversion20
1238:   FUNC GLOBAL DEFAULT 14 _ZN7android8hardware8grap
1239:   FUNC WEAK DEFAULT 14 _ZThn4_N7android11BnInter
1240:   FUNC GLOBAL DEFAULT 14 _ZThn4_N7android11BufferQ
1241:   FUNC GLOBAL DEFAULT 14 _ZN7android18BpConsumerLi
1242:   FUNC GLOBAL DEFAULT 14 _ZN7android22IGraphicBuff
1243:   FUNC GLOBAL DEFAULT 14 _ZN7android8hardware8grap
1244:   FUNC GLOBAL DEFAULT 14 _ZN7android23BnGraphicBuf
