 0x0000000e (SONAME)                     Library soname: [android.hardware.wifi@1.1.so]
  
Symbol   contains 458 entries:
Num:   Type Bind Vis Ndx Name
0:   NOTYPE LOCAL DEFAULT UND
1:   FUNC GLOBAL DEFAULT UND __cxa_finalize@LIBC (2)
2:   FUNC GLOBAL DEFAULT UND _ZN7android14sp_report_ra
3:   FUNC GLOBAL DEFAULT UND _ZN7android21report_syspr
4:   OBJECT GLOBAL DEFAULT UND _ZN7android4hidl4base4V1_
5:   FUNC GLOBAL DEFAULT UND _ZN7android4hidl4base4V1_
6:   FUNC GLOBAL DEFAULT UND _ZN7android4hidl4base4V1_
7:   FUNC GLOBAL DEFAULT UND _ZN7android4hidl4base4V1_
8:   FUNC GLOBAL DEFAULT UND _ZN7android4hidl4base4V1_
9:   FUNC GLOBAL DEFAULT UND _ZN7android4hidl4base4V1_
10:   FUNC GLOBAL DEFAULT UND _ZN7android4hidl4base4V1_
11:   FUNC GLOBAL DEFAULT UND _ZN7android4hidl4base4V1_
12:   FUNC GLOBAL DEFAULT UND _ZN7android4hidl4base4V1_
13:   FUNC GLOBAL DEFAULT UND _ZN7android4hidl4base4V1_
14:   FUNC GLOBAL DEFAULT UND _ZN7android4hidl4base4V1_
15:   FUNC GLOBAL DEFAULT UND _ZN7android4hidl4base4V1_
16:   FUNC GLOBAL DEFAULT UND _ZN7android4hidl4base4V1_
17:   FUNC GLOBAL DEFAULT UND _ZN7android4hidl4base4V1_
18:   FUNC GLOBAL DEFAULT UND _ZN7android4hidl4base4V1_
19:   FUNC GLOBAL DEFAULT UND _ZN7android4hidl4base4V1_
20:   FUNC GLOBAL DEFAULT UND _ZN7android4hidl4base4V1_
21:   FUNC GLOBAL DEFAULT UND _ZN7android4hidl4base4V1_
22:   FUNC GLOBAL DEFAULT UND _ZN7android4hidl4base4V1_
23:   FUNC GLOBAL DEFAULT UND _ZN7android4hidl4base4V1_
24:   FUNC GLOBAL DEFAULT UND _ZN7android4hidl4base4V1_
25:   FUNC GLOBAL DEFAULT UND _ZN7android4hidl4base4V1_
26:   FUNC GLOBAL DEFAULT UND _ZN7android4hidl4base4V1_
27:   FUNC GLOBAL DEFAULT UND _ZN7android4hidl4base4V1_
28:   FUNC GLOBAL DEFAULT UND _ZN7android7RefBase10onFi
29:   FUNC GLOBAL DEFAULT UND _ZN7android7RefBase12weak
30:   FUNC GLOBAL DEFAULT UND _ZN7android7RefBase13onLa
31:   FUNC GLOBAL DEFAULT UND _ZN7android7RefBase15onLa
32:   FUNC GLOBAL DEFAULT UND _ZN7android7RefBase20onIn
33:   FUNC GLOBAL DEFAULT UND _ZN7android7RefBaseC2Ev
34:   FUNC GLOBAL DEFAULT UND _ZN7android7RefBaseD2Ev
35:   FUNC GLOBAL DEFAULT UND _ZN7android8hardware10IIn
36:   FUNC GLOBAL DEFAULT UND _ZN7android8hardware10IIn
37:   FUNC GLOBAL DEFAULT UND _ZN7android8hardware10IIn
38:   FUNC GLOBAL DEFAULT UND _ZN7android8hardware10IIn
39:   FUNC GLOBAL DEFAULT UND _ZN7android8hardware11BpH
40:   FUNC GLOBAL DEFAULT UND _ZN7android8hardware11BpH
41:   FUNC GLOBAL DEFAULT UND _ZN7android8hardware11BpH
42:   FUNC GLOBAL DEFAULT UND _ZN7android8hardware11BpH
43:   FUNC GLOBAL DEFAULT UND _ZN7android8hardware11BpH
44:   FUNC GLOBAL DEFAULT UND _ZN7android8hardware11BpH
45:   FUNC GLOBAL DEFAULT UND _ZN7android8hardware11BpH
46:   FUNC GLOBAL DEFAULT UND _ZN7android8hardware11hid
47:   FUNC GLOBAL DEFAULT UND _ZN7android8hardware11hid
48:   FUNC GLOBAL DEFAULT UND _ZN7android8hardware11hid
49:   FUNC GLOBAL DEFAULT UND _ZN7android8hardware11hid
50:   FUNC GLOBAL DEFAULT UND _ZN7android8hardware11hid
51:   FUNC GLOBAL DEFAULT UND _ZN7android8hardware12Pro
52:   FUNC GLOBAL DEFAULT UND _ZN7android8hardware12Pro
53:   FUNC GLOBAL DEFAULT UND _ZN7android8hardware13wri
54:   FUNC GLOBAL DEFAULT UND _ZN7android8hardware21def
55:   FUNC GLOBAL DEFAULT UND _ZN7android8hardware23get
56:   FUNC GLOBAL DEFAULT UND _ZN7android8hardware27hid
57:   FUNC GLOBAL DEFAULT UND _ZN7android8hardware27hid
58:   OBJECT GLOBAL DEFAULT UND _ZN7android8hardware4wifi
59:   FUNC GLOBAL DEFAULT UND _ZN7android8hardware4wifi
60:   FUNC GLOBAL DEFAULT UND _ZN7android8hardware4wifi
61:   FUNC GLOBAL DEFAULT UND _ZN7android8hardware4wifi
62:   FUNC GLOBAL DEFAULT UND _ZN7android8hardware4wifi
63:   FUNC GLOBAL DEFAULT UND _ZN7android8hardware4wifi
64:   FUNC GLOBAL DEFAULT UND _ZN7android8hardware4wifi
65:   FUNC GLOBAL DEFAULT UND _ZN7android8hardware4wifi
66:   FUNC GLOBAL DEFAULT UND _ZN7android8hardware4wifi
67:   FUNC GLOBAL DEFAULT UND _ZN7android8hardware4wifi
68:   FUNC GLOBAL DEFAULT UND _ZN7android8hardware4wifi
69:   FUNC GLOBAL DEFAULT UND _ZN7android8hardware4wifi
70:   FUNC GLOBAL DEFAULT UND _ZN7android8hardware4wifi
71:   FUNC GLOBAL DEFAULT UND _ZN7android8hardware4wifi
72:   FUNC GLOBAL DEFAULT UND _ZN7android8hardware4wifi
73:   FUNC GLOBAL DEFAULT UND _ZN7android8hardware4wifi
74:   FUNC GLOBAL DEFAULT UND _ZN7android8hardware4wifi
75:   FUNC GLOBAL DEFAULT UND _ZN7android8hardware4wifi
76:   FUNC GLOBAL DEFAULT UND _ZN7android8hardware4wifi
77:   FUNC GLOBAL DEFAULT UND _ZN7android8hardware4wifi
78:   FUNC GLOBAL DEFAULT UND _ZN7android8hardware4wifi
79:   FUNC GLOBAL DEFAULT UND _ZN7android8hardware4wifi
80:   FUNC GLOBAL DEFAULT UND _ZN7android8hardware4wifi
81:   FUNC GLOBAL DEFAULT UND _ZN7android8hardware6Stat
82:   FUNC GLOBAL DEFAULT UND _ZN7android8hardware6Stat
83:   FUNC GLOBAL DEFAULT UND _ZN7android8hardware6Stat
84:   FUNC GLOBAL DEFAULT UND _ZN7android8hardware7IBin
85:   FUNC GLOBAL DEFAULT UND _ZN7android8hardware7IBin
86:   FUNC GLOBAL DEFAULT UND _ZN7android8hardware7IBin
87:   FUNC GLOBAL DEFAULT UND _ZN7android8hardware7IBin
88:   FUNC GLOBAL DEFAULT UND _ZN7android8hardware7deta
89:   FUNC GLOBAL DEFAULT UND _ZN7android8hardware7deta
90:   FUNC GLOBAL DEFAULT UND _ZN7android8hardware7deta
91:   FUNC GLOBAL DEFAULT UND _ZN7android8hardware7deta
92:   FUNC GLOBAL DEFAULT UND _ZN7android8hardware7deta
93:   FUNC GLOBAL DEFAULT UND _ZN7android8hardware7deta
94:   FUNC GLOBAL DEFAULT UND _ZN7android8hardware7deta
95:   OBJECT GLOBAL DEFAULT UND _ZN7android8hardware7deta
96:   OBJECT GLOBAL DEFAULT UND _ZN7android8hardware7deta
97:   FUNC GLOBAL DEFAULT UND _ZN7android8hardware7deta
98:   FUNC GLOBAL DEFAULT UND _ZN7android8hardware7deta
99:   FUNC GLOBAL DEFAULT UND _ZN7android8hardware7deta
100:   FUNC GLOBAL DEFAULT UND _ZN7android8hardware7deta
101:   FUNC GLOBAL DEFAULT UND _ZN7android8hardware7deta
102:   FUNC GLOBAL DEFAULT UND _ZN7android8hardware7deta
103:   FUNC GLOBAL DEFAULT UND _ZN7android8hardware7deta
104:   FUNC GLOBAL DEFAULT UND _ZN7android8hardware7deta
105:   FUNC GLOBAL DEFAULT UND _ZN7android8hardware7deta
106:   FUNC GLOBAL DEFAULT UND _ZN7android8hardware7deta
107:   OBJECT GLOBAL DEFAULT UND _ZN7android8hardware7deta
108:   FUNC GLOBAL DEFAULT UND _ZN7android8hardware9BHwB
109:   FUNC GLOBAL DEFAULT UND _ZN7android8hardware9BHwB
110:   FUNC GLOBAL DEFAULT UND _ZN7android8hardware9BHwB
111:   FUNC GLOBAL DEFAULT UND _ZN7android8hardware9BHwB
112:   FUNC GLOBAL DEFAULT UND _ZN7android8hardware9BHwB
113:   FUNC GLOBAL DEFAULT UND _ZN7android8hardware9BHwB
114:   FUNC GLOBAL DEFAULT UND _ZN7android8hardware9BHwB
115:   FUNC GLOBAL DEFAULT UND _ZN7android8hardware9BHwB
116:   FUNC GLOBAL DEFAULT UND _ZN7android8hardware9BHwB
117:   FUNC GLOBAL DEFAULT UND _ZN7android8hardware9BHwB
118:   FUNC GLOBAL DEFAULT UND _ZNK7android7RefBase10cre
119:   FUNC GLOBAL DEFAULT UND _ZNK7android7RefBase11get
120:   FUNC GLOBAL DEFAULT UND _ZNK7android7RefBase9decS
121:   FUNC GLOBAL DEFAULT UND _ZNK7android7RefBase9incS
122:   FUNC GLOBAL DEFAULT UND _ZNK7android8hardware7IBi
123:   FUNC GLOBAL DEFAULT UND _ZNK7android8hardware7det
124:   FUNC GLOBAL DEFAULT UND _ZNK7android8hardware9BHw
125:   FUNC GLOBAL DEFAULT UND _ZNKSt3__120__vector_base
126:   FUNC GLOBAL DEFAULT UND _ZNKSt3__121__basic_strin
127:   FUNC GLOBAL DEFAULT UND _ZNSt3__112basic_stringIc
128:   FUNC GLOBAL DEFAULT UND _ZNSt3__112basic_stringIc
129:   FUNC GLOBAL DEFAULT UND _ZNSt3__15mutex4lockEv
130:   FUNC GLOBAL DEFAULT UND _ZNSt3__15mutex6unlockEv
131:   FUNC GLOBAL DEFAULT UND _ZNSt3__15mutexD1Ev
132:   FUNC GLOBAL DEFAULT UND _ZTv0_n12_N7android4hidl4
133:   FUNC GLOBAL DEFAULT UND _ZTv0_n12_N7android4hidl4
134:   FUNC GLOBAL DEFAULT UND _ZTv0_n12_N7android8hardw
135:   FUNC GLOBAL DEFAULT UND _ZTv0_n12_N7android8hardw
136:   FUNC GLOBAL DEFAULT UND _ZTv0_n12_N7android8hardw
137:   FUNC GLOBAL DEFAULT UND _ZTv0_n12_N7android8hardw
138:   FUNC GLOBAL DEFAULT UND _ZTv0_n12_N7android8hardw
139:   FUNC GLOBAL DEFAULT UND _ZTv0_n12_N7android8hardw
140:   FUNC GLOBAL DEFAULT UND _ZTv0_n12_N7android8hardw
141:   FUNC GLOBAL DEFAULT UND _ZTv0_n12_N7android8hardw
142:   FUNC GLOBAL DEFAULT UND _ZTv0_n16_N7android8hardw
143:   FUNC GLOBAL DEFAULT UND _ZTv0_n20_N7android8hardw
144:   FUNC GLOBAL DEFAULT UND _ZTv0_n24_N7android8hardw
145:   FUNC GLOBAL DEFAULT UND _ZdaPv
146:   FUNC GLOBAL DEFAULT UND _ZdlPv
147:   FUNC GLOBAL DEFAULT UND _Znaj
148:   FUNC GLOBAL DEFAULT UND _Znwj
149:   FUNC GLOBAL DEFAULT UND __cxa_pure_virtual
150:   FUNC GLOBAL DEFAULT UND __stack_chk_fail@LIBC (2)
151:   OBJECT GLOBAL DEFAULT UND __stack_chk_guard@LIBC (2)
152:   FUNC GLOBAL DEFAULT UND abort@LIBC (2)
153:   FUNC GLOBAL DEFAULT UND atrace_begin_body
154:   OBJECT GLOBAL DEFAULT UND atrace_enabled_tags
155:   FUNC GLOBAL DEFAULT UND atrace_end_body
156:   OBJECT GLOBAL DEFAULT UND atrace_is_ready
157:   FUNC GLOBAL DEFAULT UND atrace_setup
158:   FUNC GLOBAL DEFAULT UND memcmp@LIBC (2)
159:   FUNC GLOBAL DEFAULT UND strlen@LIBC (2)
160:   FUNC GLOBAL DEFAULT UND _ZN7android8hardware10IIn
161:   FUNC GLOBAL DEFAULT UND _ZN7android8hardware14rea
162:   FUNC GLOBAL DEFAULT UND _ZN7android8hardware4wifi
163:   FUNC GLOBAL DEFAULT UND _ZN7android8hardware4wifi
164:   FUNC GLOBAL DEFAULT UND _ZN7android8hardware4wifi
165:   FUNC GLOBAL DEFAULT UND _ZN7android8hardware4wifi
166:   FUNC GLOBAL DEFAULT UND _ZN7android8hardware4wifi
167:   FUNC GLOBAL DEFAULT UND _ZN7android8hardware4wifi
168:   FUNC GLOBAL DEFAULT UND _ZN7android8hardware4wifi
169:   FUNC GLOBAL DEFAULT UND _ZN7android8hardware4wifi
170:   FUNC GLOBAL DEFAULT UND _ZN7android8hardware4wifi
171:   FUNC GLOBAL DEFAULT UND _ZN7android8hardware4wifi
172:   FUNC GLOBAL DEFAULT UND _ZN7android8hardware4wifi
173:   FUNC GLOBAL DEFAULT UND _ZN7android8hardware4wifi
174:   FUNC GLOBAL DEFAULT UND _ZN7android8hardware4wifi
175:   FUNC GLOBAL DEFAULT UND _ZN7android8hardware4wifi
176:   FUNC GLOBAL DEFAULT UND _ZN7android8hardware4wifi
177:   FUNC GLOBAL DEFAULT UND _ZN7android8hardware4wifi
178:   FUNC GLOBAL DEFAULT UND _ZN7android8hardware4wifi
179:   FUNC GLOBAL DEFAULT UND _ZN7android8hardware4wifi
180:   FUNC GLOBAL DEFAULT UND _ZN7android8hardware4wifi
181:   FUNC GLOBAL DEFAULT UND _ZN7android8hardware4wifi
182:   FUNC GLOBAL DEFAULT UND _ZN7android8hardware4wifi
183:   FUNC GLOBAL DEFAULT UND _ZN7android8hardware4wifi
184:   FUNC GLOBAL DEFAULT UND _ZN7android8hardware4wifi
185:   FUNC GLOBAL DEFAULT UND _ZN7android8hardware4wifi
186:   FUNC GLOBAL DEFAULT UND _ZN7android8hardware4wifi
187:   FUNC GLOBAL DEFAULT UND _ZN7android8hardware4wifi
188:   FUNC GLOBAL DEFAULT UND _ZN7android8hardware4wifi
189:   FUNC GLOBAL DEFAULT UND _ZN7android8hardware4wifi
190:   FUNC GLOBAL DEFAULT UND _ZN7android8hardware4wifi
191:   FUNC GLOBAL DEFAULT UND _ZN7android8hardware4wifi
192:   FUNC GLOBAL DEFAULT UND _ZN7android8hardware4wifi
193:   FUNC GLOBAL DEFAULT UND _ZN7android8hardware4wifi
194:   FUNC GLOBAL DEFAULT UND _ZN7android8hardware4wifi
195:   FUNC GLOBAL DEFAULT UND _ZN7android8hardware4wifi
196:   FUNC GLOBAL DEFAULT UND _ZN7android8hardware4wifi
197:   FUNC GLOBAL DEFAULT UND _ZN7android8hardware4wifi
198:   FUNC GLOBAL DEFAULT UND _ZN7android8hardware4wifi
199:   FUNC GLOBAL DEFAULT UND _ZN7android8hardware4wifi
200:   FUNC GLOBAL DEFAULT UND _ZN7android8hardware4wifi
201:   FUNC GLOBAL DEFAULT UND _ZN7android8hardware4wifi
202:   FUNC GLOBAL DEFAULT UND _ZN7android8hardware4wifi
203:   FUNC GLOBAL DEFAULT UND _ZN7android8hardware4wifi
204:   FUNC GLOBAL DEFAULT UND _ZN7android8hardware4wifi
205:   FUNC GLOBAL DEFAULT UND _ZN7android8hardware4wifi
206:   FUNC GLOBAL DEFAULT UND _ZN7android8hardware4wifi
207:   FUNC GLOBAL DEFAULT UND _ZN7android8hardware4wifi
208:   FUNC GLOBAL DEFAULT UND _ZN7android8hardware4wifi
209:   FUNC GLOBAL DEFAULT UND _ZN7android8hardware4wifi
210:   FUNC GLOBAL DEFAULT UND _ZN7android8hardware4wifi
211:   FUNC GLOBAL DEFAULT UND _ZN7android8hardware4wifi
212:   FUNC GLOBAL DEFAULT UND _ZN7android8hardware4wifi
213:   FUNC GLOBAL DEFAULT UND _ZN7android8hardware4wifi
214:   FUNC GLOBAL DEFAULT UND _ZN7android8hardware4wifi
215:   FUNC GLOBAL DEFAULT UND _ZN7android8hardware4wifi
216:   FUNC GLOBAL DEFAULT UND _ZN7android8hardware4wifi
217:   FUNC GLOBAL DEFAULT UND _ZN7android8hardware4wifi
218:   FUNC GLOBAL DEFAULT UND _ZN7android8hardware4wifi
219:   FUNC GLOBAL DEFAULT UND _ZN7android8hardware4wifi
220:   FUNC GLOBAL DEFAULT UND _ZN7android8hardware4wifi
221:   FUNC GLOBAL DEFAULT UND _ZN7android8hardware4wifi
222:   FUNC GLOBAL DEFAULT UND _ZN7android8hardware4wifi
223:   FUNC GLOBAL DEFAULT UND _ZN7android8hardware4wifi
224:   FUNC GLOBAL DEFAULT UND _ZN7android8hardware4wifi
225:   FUNC GLOBAL DEFAULT UND _ZN7android8hardware4wifi
226:   FUNC GLOBAL DEFAULT UND _ZN7android8hardware4wifi
227:   FUNC GLOBAL DEFAULT UND _ZN7android8hardware4wifi
228:   OBJECT GLOBAL DEFAULT UND _ZN7android8hardware4wifi
229:   FUNC GLOBAL DEFAULT UND _ZN7android8hardware4wifi
230:   FUNC GLOBAL DEFAULT UND _ZN7android8hardware4wifi
231:   FUNC GLOBAL DEFAULT UND _ZN7android8hardware4wifi
232:   FUNC GLOBAL DEFAULT UND _ZN7android8hardware4wifi
233:   FUNC GLOBAL DEFAULT UND _ZN7android8hardware4wifi
234:   FUNC GLOBAL DEFAULT UND _ZN7android8hardware4wifi
235:   FUNC GLOBAL DEFAULT UND _ZN7android8hardware4wifi
236:   FUNC GLOBAL DEFAULT UND _ZN7android8hardware4wifi
237:   FUNC GLOBAL DEFAULT UND _ZN7android8hardware4wifi
238:   FUNC GLOBAL DEFAULT UND _ZN7android8hardware4wifi
239:   FUNC GLOBAL DEFAULT UND _ZN7android8hardware6Parc
240:   FUNC GLOBAL DEFAULT UND _ZN7android8hardware6Parc
241:   FUNC GLOBAL DEFAULT UND _ZN7android8hardware6Parc
242:   FUNC GLOBAL DEFAULT UND _ZN7android8hardware6Parc
243:   FUNC GLOBAL DEFAULT UND _ZN7android8hardware6Parc
244:   FUNC GLOBAL DEFAULT UND _ZN7android8hardware6Stat
245:   FUNC GLOBAL DEFAULT UND _ZNK7android8hardware6Par
246:   FUNC GLOBAL DEFAULT UND _ZNK7android8hardware6Par
247:   FUNC GLOBAL DEFAULT UND _ZNK7android8hardware6Par
248:   FUNC GLOBAL DEFAULT UND __android_log_assert@LIBLOG (3)
249:   FUNC GLOBAL DEFAULT UND memcpy@LIBC (2)
250:   FUNC GLOBAL DEFAULT UND memset@LIBC (2)
251:   FUNC GLOBAL DEFAULT 14 _ZN7android8hardware4wifi
252:   OBJECT GLOBAL DEFAULT 18 _ZTCN7android8hardware4wi
253:   FUNC GLOBAL DEFAULT 14 __aeabi_memcpy
254:   FUNC GLOBAL DEFAULT 14 _ZN7android8hardware4wifi
255:   FUNC GLOBAL DEFAULT 14 _ZN7android8hardware4wifi
256:   FUNC GLOBAL DEFAULT 14 _ZN7android8hardware4wifi
257:   FUNC GLOBAL DEFAULT 14 __aeabi_memclr8
258:   FUNC GLOBAL DEFAULT 14 _ZN7android8hardware4wifi
259:   FUNC GLOBAL DEFAULT 14 _ZN7android8hardware4wifi
260:   FUNC GLOBAL DEFAULT 14 _ZN7android8hardware4wifi
261:   FUNC GLOBAL DEFAULT 14 _ZN7android8hardware4wifi
262:   FUNC GLOBAL DEFAULT 14 _ZN7android8hardware4wifi
263:   FUNC GLOBAL DEFAULT 14 _ZN7android8hardware4wifi
264:   FUNC WEAK DEFAULT 14 _ZN7android8hardware7deta
265:   FUNC GLOBAL DEFAULT 14 _ZN7android8hardware4wifi
266:   FUNC GLOBAL DEFAULT 14 _ZN7android8hardware4wifi
267:   FUNC GLOBAL DEFAULT 14 _ZN7android8hardware4wifi
268:   FUNC GLOBAL DEFAULT 14 _ZN7android8hardware4wifi
269:   FUNC GLOBAL DEFAULT 14 _ZN7android8hardware4wifi
270:   FUNC GLOBAL DEFAULT 14 _ZN7android8hardware4wifi
271:   FUNC GLOBAL DEFAULT 14 _ZN7android8hardware4wifi
272:   FUNC GLOBAL DEFAULT 14 _ZN7android8hardware4wifi
273:   FUNC WEAK DEFAULT 14 _ZN7android8hardware7deta
274:   OBJECT GLOBAL DEFAULT 18 _ZTCN7android8hardware4wi
275:   FUNC GLOBAL DEFAULT 14 _ZN7android8hardware4wifi
276:   FUNC GLOBAL DEFAULT 14 __aeabi_memset4
277:   FUNC GLOBAL DEFAULT 14 _ZN7android8hardware4wifi
278:   FUNC GLOBAL DEFAULT 14 _ZN7android8hardware4wifi
279:   FUNC GLOBAL DEFAULT 14 _ZN7android8hardware4wifi
280:   FUNC WEAK DEFAULT 14 _ZN7android8hardware7deta
281:   FUNC GLOBAL DEFAULT 14 _ZN7android8hardware4wifi
282:   OBJECT GLOBAL DEFAULT 18 _ZTCN7android8hardware4wi
283:   OBJECT GLOBAL DEFAULT 18 _ZTCN7android8hardware4wi
284:   FUNC GLOBAL DEFAULT 14 _ZN7android8hardware4wifi
285:   FUNC GLOBAL DEFAULT 14 __aeabi_memset8
286:   FUNC GLOBAL DEFAULT 14 _ZN7android8hardware4wifi
287:   FUNC GLOBAL DEFAULT 14 _ZN7android8hardware4wifi
288:   OBJECT GLOBAL DEFAULT 18 _ZTCN7android8hardware4wi
289:   FUNC GLOBAL DEFAULT 14 _ZN7android8hardware4wifi
290:   FUNC GLOBAL DEFAULT 14 _ZN7android8hardware4wifi
291:   FUNC WEAK DEFAULT 14 _ZN7android8hardware7deta
292:   FUNC GLOBAL DEFAULT 14 _ZTv0_n12_N7android8hardw
293:   FUNC GLOBAL DEFAULT 14 _ZN7android8hardware4wifi
294:   FUNC GLOBAL DEFAULT 14 _ZN7android8hardware4wifi
295:   FUNC GLOBAL DEFAULT 14 _ZThn20_N7android8hardwar
296:   FUNC GLOBAL DEFAULT 14 _ZN7android8hardware4wifi
297:   FUNC GLOBAL DEFAULT 14 _ZN7android8hardware4wifi
298:   FUNC WEAK DEFAULT 14 _ZNSt3__16__treeINS_12__v
299:   FUNC GLOBAL DEFAULT 14 _ZN7android8hardware4wifi
300:   FUNC GLOBAL DEFAULT 14 _ZN7android8hardware4wifi
301:   FUNC GLOBAL DEFAULT 14 _ZN7android8hardware4wifi
302:   FUNC GLOBAL DEFAULT 14 _ZN7android8hardware4wifi
303:   FUNC GLOBAL DEFAULT 14 _ZN7android8hardware4wifi
304:   FUNC GLOBAL DEFAULT 14 _ZN7android8hardware4wifi
305:   OBJECT GLOBAL DEFAULT 18 _ZTVN7android8hardware4wi
306:   FUNC GLOBAL DEFAULT 14 _ZN7android8hardware4wifi
307:   FUNC GLOBAL DEFAULT 14 _ZN7android8hardware4wifi
308:   FUNC GLOBAL DEFAULT 14 _ZN7android8hardware4wifi
309:   FUNC GLOBAL DEFAULT 14 _ZN7android8hardware4wifi
310:   FUNC GLOBAL DEFAULT 14 _ZN7android8hardware4wifi
311:   FUNC WEAK DEFAULT 14 _ZN7android8hardware7deta
312:   OBJECT GLOBAL DEFAULT 18 _ZTCN7android8hardware4wi
313:   FUNC GLOBAL DEFAULT 14 _ZThn20_N7android8hardwar
314:   FUNC GLOBAL DEFAULT 14 _ZN7android8hardware4wifi
315:   FUNC GLOBAL DEFAULT 14 _ZN7android8hardware4wifi
316:   FUNC WEAK DEFAULT 14 _ZN7android8hardware7deta
317:   FUNC GLOBAL DEFAULT 14 __aeabi_memclr
318:   FUNC GLOBAL DEFAULT 14 _ZN7android8hardware4wifi
319:   FUNC GLOBAL DEFAULT 14 _ZN7android8hardware4wifi
320:   FUNC WEAK DEFAULT 14 _ZNSt3__16vectorIPvNS_9al
321:   FUNC GLOBAL DEFAULT 14 _ZN7android8hardware4wifi
322:   FUNC GLOBAL DEFAULT 14 _ZN7android8hardware4wifi
323:   FUNC GLOBAL DEFAULT 14 _ZN7android8hardware4wifi
324:   FUNC WEAK DEFAULT 14 _ZN7android8hardware7deta
325:   FUNC GLOBAL DEFAULT 14 _ZN7android8hardware4wifi
326:   FUNC GLOBAL DEFAULT 14 _ZN7android8hardware4wifi
327:   FUNC GLOBAL DEFAULT 14 _ZTv0_n12_N7android8hardw
328:   FUNC GLOBAL DEFAULT 14 _ZN7android8hardware4wifi
329:   FUNC GLOBAL DEFAULT 14 _ZN7android8hardware4wifi
330:   OBJECT GLOBAL DEFAULT 18 _ZTCN7android8hardware4wi
331:   OBJECT GLOBAL DEFAULT 18 _ZTVN7android8hardware4wi
332:   FUNC GLOBAL DEFAULT 14 _ZN7android8hardware4wifi
333:   FUNC WEAK DEFAULT 14 _ZN7android8hardware7deta
334:   FUNC GLOBAL DEFAULT 14 _ZN7android8hardware4wifi
335:   FUNC WEAK DEFAULT 14 _ZNSt3__113__tree_removeI
336:   FUNC GLOBAL DEFAULT 14 _ZN7android8hardware4wifi
337:   OBJECT GLOBAL DEFAULT 18 _ZTCN7android8hardware4wi
338:   OBJECT GLOBAL DEFAULT 18 _ZTCN7android8hardware4wi
339:   FUNC GLOBAL DEFAULT 14 _ZN7android8hardware4wifi
340:   FUNC GLOBAL DEFAULT 14 _ZN7android8hardware4wifi
341:   FUNC GLOBAL DEFAULT 14 _ZN7android8hardware4wifi
342:   OBJECT WEAK DEFAULT 18 _ZTCN7android8hardware4wi
343:   FUNC GLOBAL DEFAULT 14 _ZN7android8hardware4wifi
344:   FUNC GLOBAL DEFAULT 14 _ZN7android8hardware4wifi
345:   OBJECT GLOBAL DEFAULT 18 _ZTCN7android8hardware4wi
346:   OBJECT WEAK DEFAULT 18 _ZTVN7android8hardware4wi
347:   FUNC GLOBAL DEFAULT 14 __aeabi_memset
348:   OBJECT GLOBAL DEFAULT 18 _ZTVN7android8hardware4wi
349:   FUNC GLOBAL DEFAULT 14 _ZN7android8hardware4wifi
350:   FUNC GLOBAL DEFAULT 14 _ZN7android8hardware4wifi
351:   OBJECT GLOBAL DEFAULT 18 _ZTCN7android8hardware4wi
352:   FUNC GLOBAL DEFAULT 14 _ZN7android8hardware4wifi
353:   OBJECT GLOBAL DEFAULT 18 _ZTCN7android8hardware4wi
354:   FUNC WEAK DEFAULT 14 _ZN7android8hardware7deta
355:   OBJECT GLOBAL DEFAULT 18 _ZTCN7android8hardware4wi
356:   FUNC GLOBAL DEFAULT 14 _ZN7android8hardware4wifi
357:   FUNC GLOBAL DEFAULT 14 _ZN7android8hardware4wifi
358:   FUNC GLOBAL DEFAULT 14 _ZN7android8hardware4wifi
359:   FUNC GLOBAL DEFAULT 14 _ZN7android8hardware4wifi
360:   FUNC WEAK DEFAULT 14 _ZNSt3__16vectorINS_8func
361:   OBJECT GLOBAL DEFAULT 18 _ZTVN7android8hardware4wi
362:   OBJECT GLOBAL DEFAULT 18 _ZTCN7android8hardware4wi
363:   FUNC GLOBAL DEFAULT 14 _ZN7android8hardware4wifi
364:   FUNC GLOBAL DEFAULT 14 _ZTv0_n12_N7android8hardw
365:   FUNC GLOBAL DEFAULT 14 _ZN7android8hardware4wifi
366:   OBJECT WEAK DEFAULT 18 _ZTVN7android8hardware4wi
367:   FUNC GLOBAL DEFAULT 14 _ZN7android8hardware4wifi
368:   OBJECT GLOBAL DEFAULT 18 _ZTCN7android8hardware4wi
369:   FUNC GLOBAL DEFAULT 14 _ZN7android8hardware4wifi
370:   FUNC GLOBAL DEFAULT 14 _ZN7android8hardware4wifi
371:   FUNC GLOBAL DEFAULT 14 _ZN7android8hardware4wifi
372:   OBJECT GLOBAL DEFAULT 18 _ZTCN7android8hardware4wi
373:   FUNC GLOBAL DEFAULT 14 _ZN7android8hardware4wifi
374:   FUNC GLOBAL DEFAULT 14 _ZN7android8hardware4wifi
375:   FUNC GLOBAL DEFAULT 14 _ZN7android8hardware4wifi
376:   FUNC GLOBAL DEFAULT 14 _ZN7android8hardware4wifi
377:   FUNC GLOBAL DEFAULT 14 _ZN7android8hardware4wifi
378:   OBJECT GLOBAL DEFAULT 18 _ZTCN7android8hardware4wi
379:   FUNC GLOBAL DEFAULT 14 _ZN7android8hardware4wifi
380:   FUNC GLOBAL DEFAULT 14 _ZN7android8hardware4wifi
381:   FUNC GLOBAL DEFAULT 14 _ZN7android8hardware4wifi
382:   FUNC WEAK DEFAULT 14 _ZN7android8hardware7deta
383:   OBJECT GLOBAL DEFAULT 18 _ZTTN7android8hardware4wi
384:   FUNC GLOBAL DEFAULT 14 _ZN7android8hardware4wifi
385:   FUNC GLOBAL DEFAULT 14 _ZN7android8hardware4wifi
386:   FUNC GLOBAL DEFAULT 14 _ZN7android8hardware4wifi
387:   FUNC GLOBAL DEFAULT 14 _ZN7android8hardware4wifi
388:   FUNC GLOBAL DEFAULT 14 _ZN7android8hardware4wifi
389:   FUNC GLOBAL DEFAULT 14 _ZN7android8hardware4wifi
390:   FUNC GLOBAL DEFAULT 14 _ZN7android8hardware4wifi
391:   OBJECT GLOBAL DEFAULT 16 _ZN7android8hardware4wifi
392:   FUNC WEAK DEFAULT 14 _ZNSt3__16vectorIN7androi
393:   FUNC GLOBAL DEFAULT 14 _ZN7android8hardware4wifi
394:   FUNC GLOBAL DEFAULT 14 _ZN7android8hardware4wifi
395:   FUNC WEAK DEFAULT 14 _ZN7android8hardware7deta
396:   OBJECT GLOBAL DEFAULT 18 _ZTCN7android8hardware4wi
397:   FUNC WEAK DEFAULT 14 _ZN7android8hardware7deta
398:   FUNC GLOBAL DEFAULT 14 _ZTv0_n12_N7android8hardw
399:   OBJECT GLOBAL DEFAULT 18 _ZTCN7android8hardware4wi
400:   FUNC GLOBAL DEFAULT 14 _ZN7android8hardware4wifi
401:   FUNC GLOBAL DEFAULT 14 _ZN7android8hardware4wifi
402:   OBJECT GLOBAL DEFAULT 18 _ZTTN7android8hardware4wi
403:   FUNC GLOBAL DEFAULT 14 _ZN7android8hardware4wifi
404:   FUNC GLOBAL DEFAULT 14 _ZN7android8hardware4wifi
405:   FUNC WEAK DEFAULT 14 _ZN7android8hardware7deta
406:   FUNC WEAK DEFAULT 14 _ZNSt3__16__treeINS_12__v
407:   FUNC WEAK DEFAULT 14 _ZNSt3__16__treeINS_12__v
408:   FUNC WEAK DEFAULT 14 _ZNSt3__16__treeINS_12__v
409:   FUNC GLOBAL DEFAULT 14 _ZN7android8hardware4wifi
410:   OBJECT GLOBAL DEFAULT 18 _ZTTN7android8hardware4wi
411:   FUNC GLOBAL DEFAULT 14 _ZN7android8hardware4wifi
412:   FUNC GLOBAL DEFAULT 14 _ZN7android8hardware4wifi
413:   OBJECT GLOBAL DEFAULT 18 _ZTTN7android8hardware4wi
414:   OBJECT GLOBAL DEFAULT 18 _ZTVN7android8hardware4wi
415:   FUNC GLOBAL DEFAULT 14 _ZN7android8hardware4wifi
416:   FUNC GLOBAL DEFAULT 14 _ZN7android8hardware4wifi
417:   FUNC WEAK DEFAULT 14 _ZNSt3__127__tree_balance
418:   OBJECT GLOBAL DEFAULT 18 _ZTCN7android8hardware4wi
419:   FUNC GLOBAL DEFAULT 14 _ZN7android8hardware4wifi
420:   FUNC GLOBAL DEFAULT 14 _ZN7android8hardware4wifi
421:   FUNC GLOBAL DEFAULT 14 _ZN7android8hardware4wifi
422:   FUNC GLOBAL DEFAULT 14 _ZN7android8hardware4wifi
423:   FUNC GLOBAL DEFAULT 14 _ZN7android8hardware4wifi
424:   OBJECT GLOBAL DEFAULT 18 _ZTCN7android8hardware4wi
425:   OBJECT GLOBAL DEFAULT 18 _ZTTN7android8hardware4wi
426:   FUNC GLOBAL DEFAULT 14 _ZN7android8hardware4wifi
427:   FUNC GLOBAL DEFAULT 14 _ZN7android8hardware4wifi
428:   OBJECT GLOBAL DEFAULT 18 _ZTCN7android8hardware4wi
429:   FUNC GLOBAL DEFAULT 14 _ZN7android8hardware4wifi
430:   FUNC GLOBAL DEFAULT 14 _ZN7android8hardware4wifi
431:   OBJECT WEAK DEFAULT 18 _ZTCN7android8hardware4wi
432:   FUNC GLOBAL DEFAULT 14 _ZN7android8hardware4wifi
433:   FUNC GLOBAL DEFAULT 14 _ZN7android8hardware4wifi
434:   FUNC GLOBAL DEFAULT 14 _ZThn20_N7android8hardwar
435:   FUNC GLOBAL DEFAULT 14 _ZN7android8hardware4wifi
436:   FUNC GLOBAL DEFAULT 14 __aeabi_memcpy4
437:   OBJECT GLOBAL DEFAULT 16 _ZN7android8hardware4wifi
438:   FUNC GLOBAL DEFAULT 14 _ZN7android8hardware4wifi
439:   FUNC GLOBAL DEFAULT 14 _ZN7android8hardware4wifi
440:   FUNC GLOBAL DEFAULT 14 _ZN7android8hardware4wifi
441:   FUNC WEAK DEFAULT 14 _ZN7android8hardware7deta
442:   FUNC WEAK DEFAULT 14 _ZNSt3__16__treeINS_12__v
443:   FUNC WEAK DEFAULT 14 _ZNSt3__16__treeINS_12__v
444:   OBJECT GLOBAL DEFAULT 18 _ZTVN7android8hardware4wi
445:   FUNC GLOBAL DEFAULT 14 _ZThn20_N7android8hardwar
446:   FUNC GLOBAL DEFAULT 14 _ZN7android8hardware4wifi
447:   OBJECT GLOBAL DEFAULT 18 _ZTTN7android8hardware4wi
448:   FUNC GLOBAL DEFAULT 14 _ZN7android8hardware4wifi
449:   FUNC GLOBAL DEFAULT 14 _ZN7android8hardware4wifi
450:   FUNC GLOBAL DEFAULT 14 __aeabi_memclr4
451:   FUNC WEAK DEFAULT 14 _ZN7android8hardware7deta
452:   FUNC GLOBAL DEFAULT 14 __aeabi_memcpy8
453:   FUNC GLOBAL DEFAULT 14 _ZN7android8hardware4wifi
454:   FUNC GLOBAL DEFAULT 14 _ZN7android8hardware4wifi
455:   FUNC GLOBAL DEFAULT 14 _ZN7android8hardware4wifi
456:   FUNC GLOBAL DEFAULT 14 _ZN7android8hardware4wifi
457:   FUNC GLOBAL DEFAULT 14 _ZN7android8hardware4wifi
