 0x0000000e (SONAME)                     Library soname: [libinput.so]
  
Symbol   contains 684 entries:
Num:   Type Bind Vis Ndx Name
0:   NOTYPE LOCAL DEFAULT UND
1:   FUNC GLOBAL DEFAULT UND __cxa_atexit@LIBC (2)
2:   FUNC GLOBAL DEFAULT UND __cxa_finalize@LIBC (2)
3:   FUNC GLOBAL DEFAULT UND _ZN7android10VectorImpl11
4:   FUNC GLOBAL DEFAULT UND _ZN7android10VectorImpl11
5:   FUNC GLOBAL DEFAULT UND _ZN7android10VectorImpl13
6:   FUNC GLOBAL DEFAULT UND _ZN7android10VectorImpl16
7:   FUNC GLOBAL DEFAULT UND _ZN7android10VectorImpl3p
8:   FUNC GLOBAL DEFAULT UND _ZN7android10VectorImpl4p
9:   FUNC GLOBAL DEFAULT UND _ZN7android10VectorImpl4p
10:   FUNC GLOBAL DEFAULT UND _ZN7android10VectorImpl5c
11:   FUNC GLOBAL DEFAULT UND _ZN7android10VectorImplC2
12:   FUNC GLOBAL DEFAULT UND _ZN7android10VectorImplD2
13:   FUNC GLOBAL DEFAULT UND _ZN7android10VectorImplaS
14:   FUNC GLOBAL DEFAULT UND _ZN7android6Parcel10write
15:   FUNC GLOBAL DEFAULT UND _ZN7android6Parcel10write
16:   FUNC GLOBAL DEFAULT UND _ZN7android6Parcel10write
17:   FUNC GLOBAL DEFAULT UND _ZN7android6Parcel9writeB
18:   FUNC GLOBAL DEFAULT UND _ZNK7android6Parcel8readB
19:   FUNC GLOBAL DEFAULT UND _ZNK7android6Parcel9readF
20:   FUNC GLOBAL DEFAULT UND _ZNK7android6Parcel9readI
21:   FUNC GLOBAL DEFAULT UND _ZNK7android6Parcel9readI
22:   FUNC GLOBAL DEFAULT UND _ZdlPv
23:   FUNC GLOBAL DEFAULT UND _Znwj
24:   FUNC GLOBAL DEFAULT UND __android_log_print@LIBLOG (3)
25:   FUNC GLOBAL DEFAULT UND __stack_chk_fail@LIBC (2)
26:   OBJECT GLOBAL DEFAULT UND __stack_chk_guard@LIBC (2)
27:   FUNC GLOBAL DEFAULT UND atan2f@LIBC (4)
28:   FUNC GLOBAL DEFAULT UND cosf@LIBC (4)
29:   FUNC GLOBAL DEFAULT UND sinf@LIBC (4)
30:   FUNC GLOBAL DEFAULT UND strcmp@LIBC (2)
31:   FUNC GLOBAL DEFAULT UND _ZN7android4base12StringP
32:   FUNC GLOBAL DEFAULT UND _ZNK7android7RefBase9decS
33:   FUNC GLOBAL DEFAULT UND _ZNK7android7RefBase9incS
34:   FUNC GLOBAL DEFAULT UND _ZNKSt3__120__vector_base
35:   FUNC GLOBAL DEFAULT UND _ZNKSt3__121__basic_strin
36:   FUNC GLOBAL DEFAULT UND _ZNSt3__112basic_stringIc
37:   FUNC GLOBAL DEFAULT UND _ZNSt3__112basic_stringIc
38:   FUNC GLOBAL DEFAULT UND _ZNSt3__112basic_stringIc
39:   FUNC GLOBAL DEFAULT UND _ZNSt3__112basic_stringIc
40:   FUNC GLOBAL DEFAULT UND _ZNSt3__112basic_stringIc
41:   FUNC GLOBAL DEFAULT UND abort@LIBC (2)
42:   FUNC GLOBAL DEFAULT UND access@LIBC (2)
43:   FUNC GLOBAL DEFAULT UND getenv@LIBC (2)
44:   FUNC GLOBAL DEFAULT UND isalpha@LIBC (2)
45:   FUNC GLOBAL DEFAULT UND strlen@LIBC (2)
46:   FUNC GLOBAL DEFAULT UND _ZN7android7String8C1EPKc
47:   FUNC GLOBAL DEFAULT UND _ZN7android7String8C1Ev
48:   FUNC GLOBAL DEFAULT UND _ZN7android7String8D1Ev
49:   FUNC GLOBAL DEFAULT UND _ZNK7android11PropertyMap
50:   FUNC GLOBAL DEFAULT UND _ZNK7android11PropertyMap
51:   FUNC GLOBAL DEFAULT UND strstr@LIBC (2)
52:   FUNC GLOBAL DEFAULT UND _ZN7android10VectorImpl3a
53:   FUNC GLOBAL DEFAULT UND _ZN7android10VectorImplC2
54:   FUNC GLOBAL DEFAULT UND _ZN7android14sp_report_ra
55:   FUNC GLOBAL DEFAULT UND _ZN7android16SortedVector
56:   FUNC GLOBAL DEFAULT UND _ZN7android16SortedVector
57:   FUNC GLOBAL DEFAULT UND _ZN7android16SortedVector
58:   FUNC GLOBAL DEFAULT UND _ZN7android16SortedVector
59:   FUNC GLOBAL DEFAULT UND _ZN7android7RefBase10onFi
60:   FUNC GLOBAL DEFAULT UND _ZN7android7RefBase13onLa
61:   FUNC GLOBAL DEFAULT UND _ZN7android7RefBase15onLa
62:   FUNC GLOBAL DEFAULT UND _ZN7android7RefBase20onIn
63:   FUNC GLOBAL DEFAULT UND _ZN7android7RefBaseC2Ev
64:   FUNC GLOBAL DEFAULT UND _ZN7android7RefBaseD2Ev
65:   FUNC GLOBAL DEFAULT UND _ZN7android7String85setTo
66:   FUNC GLOBAL DEFAULT UND _ZN7android9Tokenizer12fr
67:   FUNC GLOBAL DEFAULT UND _ZN7android9Tokenizer14sk
68:   FUNC GLOBAL DEFAULT UND _ZN7android9Tokenizer4ope
69:   FUNC GLOBAL DEFAULT UND _ZN7android9Tokenizer8nex
70:   FUNC GLOBAL DEFAULT UND _ZN7android9Tokenizer9nex
71:   FUNC GLOBAL DEFAULT UND _ZN7android9TokenizerD1Ev
72:   FUNC GLOBAL DEFAULT UND _ZNK7android16SortedVecto
73:   FUNC GLOBAL DEFAULT UND _ZNK7android6Parcel10erro
74:   FUNC GLOBAL DEFAULT UND _ZNK7android7String86leng
75:   FUNC GLOBAL DEFAULT UND _ZNK7android9Tokenizer11g
76:   FUNC GLOBAL DEFAULT UND _ZNK7android9Tokenizer19p
77:   FUNC GLOBAL DEFAULT UND _ZNKSt3__112basic_stringI
78:   FUNC GLOBAL DEFAULT UND __android_log_assert@LIBLOG (3)
79:   FUNC GLOBAL DEFAULT UND strncmp@LIBC (2)
80:   FUNC GLOBAL DEFAULT UND strtol@LIBC (2)
81:   FUNC GLOBAL DEFAULT UND systemTime
82:   FUNC GLOBAL DEFAULT UND _ZN7android10IInterface8a
83:   FUNC GLOBAL DEFAULT UND _ZN7android10IInterfaceC2
84:   FUNC GLOBAL DEFAULT UND _ZN7android10IInterfaceD0
85:   FUNC GLOBAL DEFAULT UND _ZN7android10IInterfaceD1
86:   FUNC GLOBAL DEFAULT UND _ZN7android10IInterfaceD2
87:   FUNC GLOBAL DEFAULT UND _ZN7android6Parcel11write
88:   FUNC GLOBAL DEFAULT UND _ZN7android6Parcel17write
89:   FUNC GLOBAL DEFAULT UND _ZN7android6Parcel19write
90:   FUNC GLOBAL DEFAULT UND _ZN7android6ParcelC1Ev
91:   FUNC GLOBAL DEFAULT UND _ZN7android6ParcelD1Ev
92:   FUNC GLOBAL DEFAULT UND _ZN7android6RegionC1ERKS0
93:   FUNC GLOBAL DEFAULT UND _ZN7android6RegionD1Ev
94:   FUNC GLOBAL DEFAULT UND _ZN7android7BBinder10onTr
95:   FUNC GLOBAL DEFAULT UND _ZN7android7BBinder10ping
96:   FUNC GLOBAL DEFAULT UND _ZN7android7BBinder11link
97:   FUNC GLOBAL DEFAULT UND _ZN7android7BBinder11loca
98:   FUNC GLOBAL DEFAULT UND _ZN7android7BBinder12atta
99:   FUNC GLOBAL DEFAULT UND _ZN7android7BBinder12deta
100:   FUNC GLOBAL DEFAULT UND _ZN7android7BBinder13unli
101:   FUNC GLOBAL DEFAULT UND _ZN7android7BBinder4dumpE
102:   FUNC GLOBAL DEFAULT UND _ZN7android7BBinder8trans
103:   FUNC GLOBAL DEFAULT UND _ZN7android7BBinderD0Ev
104:   FUNC GLOBAL DEFAULT UND _ZN7android7BBinderD1Ev
105:   FUNC GLOBAL DEFAULT UND _ZN7android7IBinder11loca
106:   FUNC GLOBAL DEFAULT UND _ZN7android7IBinder12remo
107:   FUNC GLOBAL DEFAULT UND _ZN7android7IBinder19quer
108:   FUNC GLOBAL DEFAULT UND _ZN7android7IBinderD0Ev
109:   FUNC GLOBAL DEFAULT UND _ZN7android7IBinderD1Ev
110:   FUNC GLOBAL DEFAULT UND _ZN7android7RefBase12weak
111:   FUNC GLOBAL DEFAULT UND _ZN7android7RefBase12weak
112:   FUNC GLOBAL DEFAULT UND _ZN7android8String16C1EPK
113:   FUNC GLOBAL DEFAULT UND _ZN7android8String16D1Ev
114:   FUNC GLOBAL DEFAULT UND _ZN7android9BpRefBase10on
115:   FUNC GLOBAL DEFAULT UND _ZN7android9BpRefBase15on
116:   FUNC GLOBAL DEFAULT UND _ZN7android9BpRefBase20on
117:   FUNC GLOBAL DEFAULT UND _ZN7android9BpRefBaseC2ER
118:   FUNC GLOBAL DEFAULT UND _ZN7android9BpRefBaseD0Ev
119:   FUNC GLOBAL DEFAULT UND _ZN7android9BpRefBaseD1Ev
120:   FUNC GLOBAL DEFAULT UND _ZN7android9BpRefBaseD2Ev
121:   FUNC GLOBAL DEFAULT UND _ZNK7android6Parcel10read
122:   FUNC GLOBAL DEFAULT UND _ZNK7android6Parcel14chec
123:   FUNC GLOBAL DEFAULT UND _ZNK7android6Parcel16read
124:   FUNC GLOBAL DEFAULT UND _ZNK7android6Parcel8dataS
125:   FUNC GLOBAL DEFAULT UND _ZNK7android7BBinder10fin
126:   FUNC GLOBAL DEFAULT UND _ZNK7android7BBinder13isB
127:   FUNC GLOBAL DEFAULT UND _ZNK7android7BBinder22get
128:   FUNC GLOBAL DEFAULT UND _ZNK7android7IBinder13che
129:   FUNC GLOBAL DEFAULT UND _ZNK7android8String164siz
130:   FUNC GLOBAL DEFAULT UND _ZTv0_n12_N7android10IInt
131:   FUNC GLOBAL DEFAULT UND _ZTv0_n12_N7android10IInt
132:   FUNC GLOBAL DEFAULT UND _ZTv0_n12_N7android7BBind
133:   FUNC GLOBAL DEFAULT UND _ZTv0_n12_N7android7BBind
134:   FUNC GLOBAL DEFAULT UND _ZTv0_n12_N7android7IBind
135:   FUNC GLOBAL DEFAULT UND _ZTv0_n12_N7android7IBind
136:   FUNC GLOBAL DEFAULT UND _ZTv0_n12_N7android9BpRef
137:   FUNC GLOBAL DEFAULT UND _ZTv0_n12_N7android9BpRef
138:   FUNC GLOBAL DEFAULT UND _ZTv0_n16_N7android9BpRef
139:   FUNC GLOBAL DEFAULT UND _ZTv0_n20_N7android9BpRef
140:   FUNC GLOBAL DEFAULT UND _ZTv0_n24_N7android9BpRef
141:   FUNC GLOBAL DEFAULT UND __cxa_pure_virtual
142:   FUNC GLOBAL DEFAULT UND strzcmp16
143:   FUNC GLOBAL DEFAULT UND _ZN7android6Parcel12write
144:   FUNC GLOBAL DEFAULT UND _ZNK7android6Parcel11read
145:   FUNC GLOBAL DEFAULT UND _ZN7android10VectorImpl13
146:   FUNC GLOBAL DEFAULT UND _ZN7android6Parcel22write
147:   FUNC GLOBAL DEFAULT UND _ZNK7android6Parcel18read
148:   FUNC GLOBAL DEFAULT UND __errno@LIBC (2)
149:   FUNC GLOBAL DEFAULT UND __sendto_chk@LIBC_O (5)
150:   OBJECT GLOBAL DEFAULT UND atrace_is_ready
151:   FUNC GLOBAL DEFAULT UND atrace_setup
152:   FUNC GLOBAL DEFAULT UND close@LIBC (2)
153:   FUNC GLOBAL DEFAULT UND dup@LIBC (2)
154:   FUNC GLOBAL DEFAULT UND fcntl@LIBC (2)
155:   FUNC GLOBAL DEFAULT UND property_get_bool
156:   FUNC GLOBAL DEFAULT UND recvfrom@LIBC (2)
157:   FUNC GLOBAL DEFAULT UND setsockopt@LIBC (2)
158:   FUNC GLOBAL DEFAULT UND socketpair@LIBC (2)
159:   FUNC GLOBAL DEFAULT UND _ZN7android6Parcel12write
160:   FUNC GLOBAL DEFAULT UND _ZN7android6Parcel15write
161:   FUNC GLOBAL DEFAULT UND _ZN7android6Parcel9writeB
162:   FUNC GLOBAL DEFAULT UND _ZN7android6Region6orSelf
163:   FUNC GLOBAL DEFAULT UND _ZN7android6Region9unflat
164:   FUNC GLOBAL DEFAULT UND _ZN7android6RegionC1Ev
165:   FUNC GLOBAL DEFAULT UND _ZN7android6RegionaSERKS0
166:   FUNC GLOBAL DEFAULT UND _ZNK7android6Parcel11read
167:   FUNC GLOBAL DEFAULT UND _ZNK7android6Parcel14read
168:   FUNC GLOBAL DEFAULT UND _ZNK7android6Parcel8readB
169:   FUNC GLOBAL DEFAULT UND _ZNK7android6Parcel9readI
170:   FUNC GLOBAL DEFAULT UND _ZNK7android6Region16getF
171:   FUNC GLOBAL DEFAULT UND _ZNK7android6Region7flatt
172:   FUNC GLOBAL DEFAULT UND _ZNK7android6Region8conta
173:   FUNC GLOBAL DEFAULT UND hypotf@LIBC (4)
174:   FUNC GLOBAL DEFAULT UND property_get
175:   FUNC WEAK DEFAULT UND android_set_abort_message@LIBC (2)
176:   FUNC GLOBAL DEFAULT UND write@LIBC (2)
177:   FUNC GLOBAL DEFAULT UND memcpy@LIBC (2)
178:   FUNC GLOBAL DEFAULT UND memmove@LIBC (2)
179:   FUNC GLOBAL DEFAULT UND memset@LIBC (2)
180:   FUNC WEAK DEFAULT 14 _ZNK7android6VectorIxE8do
181:   FUNC GLOBAL DEFAULT 14 _ZN7android15KeyCharacter
182:   FUNC GLOBAL DEFAULT 14 _ZN7android13InputConsume
183:   FUNC GLOBAL DEFAULT 14 _ZN7android35LeastSquares
184:   FUNC GLOBAL DEFAULT 14 _ZN7android23PooledInputE
185:   FUNC WEAK DEFAULT 14 _ZNK7android6VectorIPNS_1
186:   FUNC GLOBAL DEFAULT 14 _ZN7android14InputPublish
187:   FUNC GLOBAL DEFAULT 14 _ZN7android29LegacyVeloci
188:   FUNC GLOBAL DEFAULT 14 _ZN7android35LeastSquares
189:   FUNC GLOBAL DEFAULT 14 _ZN7android15InputDeviceI
190:   FUNC GLOBAL DEFAULT 14 _ZN7android6KeyMap13loadK
191:   FUNC GLOBAL DEFAULT 14 _ZNK7android15KeyCharacte
192:   FUNC WEAK DEFAULT 14 _ZNK7android12SortedVecto
193:   FUNC GLOBAL DEFAULT 14 _ZN7android12InputChannel
194:   FUNC GLOBAL DEFAULT 14 _ZN7android13InputConsume
195:   OBJECT WEAK DEFAULT 18 _ZTVN7android11MotionEven
196:   FUNC GLOBAL DEFAULT 14 _ZNK7android15KeyCharacte
197:   FUNC WEAK DEFAULT 14 _ZNK7android12SortedVecto
198:   OBJECT GLOBAL DEFAULT 18 _ZTVN7android13IInputFlin
199:   FUNC GLOBAL DEFAULT 14 _ZN7android13InputConsume
200:   FUNC WEAK DEFAULT 14 _ZNK7android6VectorINS_12
201:   FUNC WEAK DEFAULT 14 _ZNK7android6VectorINS_13
202:   OBJECT GLOBAL DEFAULT 18 _ZTTN7android25BnSetInput
203:   FUNC GLOBAL DEFAULT 14 _ZN7android35LeastSquares
204:   FUNC WEAK DEFAULT 14 _ZNK7android6VectorIPNS_8
205:   FUNC GLOBAL DEFAULT 14 _ZN7android6KeyMapD2Ev
206:   FUNC GLOBAL DEFAULT 14 _ZThn4_N7android14BnInput
207:   OBJECT GLOBAL DEFAULT 18 _ZTVN7android17InputWindo
208:   FUNC GLOBAL DEFAULT 14 _ZN7android24ISetInputWin
209:   FUNC GLOBAL DEFAULT 14 _ZNK7android35LeastSquare
210:   FUNC GLOBAL DEFAULT 14 _ZN7android12KeyLayoutMap
211:   FUNC WEAK DEFAULT 14 _ZNK7android6VectorINS_13
212:   FUNC GLOBAL DEFAULT 14 _ZN7android15VelocityTrac
213:   FUNC GLOBAL DEFAULT 14 _ZN7android15VelocityTrac
214:   FUNC GLOBAL DEFAULT 14 _ZN7android35LeastSquares
215:   FUNC GLOBAL DEFAULT 14 _ZN7android15KeyCharacter
216:   FUNC GLOBAL DEFAULT 14 _ZN7android13VirtualKeyMa
217:   FUNC GLOBAL DEFAULT 14 _ZN7android10InputEvent10
218:   OBJECT WEAK DEFAULT 18 _ZTVN7android6VectorINS_1
219:   FUNC GLOBAL DEFAULT 14 _ZN7android15KeyCharacter
220:   FUNC GLOBAL DEFAULT 14 _ZN7android22InputApplica
221:   FUNC GLOBAL DEFAULT 14 _ZN7android13InputConsume
222:   FUNC GLOBAL DEFAULT 14 _ZNK7android12InputChanne
223:   FUNC GLOBAL DEFAULT 14 _ZN7android9isMetaKeyEi
224:   OBJECT GLOBAL DEFAULT 18 _ZTCN7android25BnSetInput
225:   OBJECT WEAK DEFAULT 18 _ZTTN7android25BpSetInput
226:   FUNC GLOBAL DEFAULT 14 _ZNK7android13InputConsum
227:   FUNC WEAK DEFAULT 14 _ZNK7android6VectorINS_13
228:   FUNC WEAK DEFAULT 14 _ZNK7android6VectorINS_13
229:   FUNC GLOBAL DEFAULT 14 _ZN7android15KeyCharacter
230:   FUNC GLOBAL DEFAULT 14 _ZNK7android12InputMessag
231:   OBJECT GLOBAL DEFAULT 18 _ZTTN7android24ISetInputW
232:   FUNC GLOBAL DEFAULT 14 _ZN7android15VelocityCont
233:   FUNC GLOBAL DEFAULT 14 _ZNK7android12KeyLayoutMa
234:   FUNC GLOBAL DEFAULT 14 _ZNK7android12InputChanne
235:   FUNC GLOBAL DEFAULT 14 _ZNK7android34Integrating
236:   FUNC GLOBAL DEFAULT 14 _ZN7android11MotionEvent9
237:   FUNC WEAK DEFAULT 14 _ZNK7android6VectorINS_13
238:   FUNC GLOBAL DEFAULT 14 _ZN7android17InputWindowH
239:   FUNC GLOBAL DEFAULT 14 _ZN7android12KeyLayoutMap
240:   FUNC GLOBAL DEFAULT 14 _ZNK7android13IInputFling
241:   FUNC GLOBAL DEFAULT 14 _ZN7android15InputWindowI
242:   FUNC GLOBAL DEFAULT 14 _ZN7android15VelocityTrac
243:   FUNC GLOBAL DEFAULT 14 _ZN7android13VirtualKeyMa
244:   FUNC WEAK DEFAULT 14 _ZNK7android6VectorINS_13
245:   FUNC GLOBAL DEFAULT 14 _ZN7android15VelocityTrac
246:   FUNC GLOBAL DEFAULT 14 _ZN7android15KeyCharacter
247:   FUNC GLOBAL DEFAULT 14 _ZN7android15KeyCharacter
248:   FUNC GLOBAL DEFAULT 14 _ZN7android15InputDeviceI
249:   FUNC GLOBAL DEFAULT 14 _ZN7android15KeyCharacter
250:   FUNC GLOBAL DEFAULT 14 _ZN7android12KeyLayoutMap
251:   FUNC WEAK DEFAULT 14 _ZNK7android12SortedVecto
252:   OBJECT WEAK DEFAULT 18 _ZTVN7android12SortedVect
253:   FUNC GLOBAL DEFAULT 14 _ZN7android13InputConsume
254:   FUNC GLOBAL DEFAULT 14 _ZN7android34IntegratingV
255:   FUNC GLOBAL DEFAULT 14 _ZN7android8KeyEvent8getL
256:   FUNC GLOBAL DEFAULT 14 _ZN7android15KeyCharacter
257:   FUNC GLOBAL DEFAULT 14 _ZNK7android15TouchVideoF
258:   FUNC GLOBAL DEFAULT 14 _ZN7android13VirtualKeyMa
259:   FUNC GLOBAL DEFAULT 14 _ZN7android13InputConsume
260:   FUNC GLOBAL DEFAULT 14 _ZNK7android12InputChanne
261:   OBJECT GLOBAL DEFAULT 18 _ZTVN7android24ISetInputW
262:   FUNC WEAK DEFAULT 14 _ZNK7android12SortedVecto
263:   OBJECT GLOBAL DEFAULT 16 _ZN7android15VelocityTrac
264:   FUNC WEAK DEFAULT 14 _ZNK7android6VectorINS_17
265:   FUNC WEAK DEFAULT 14 _ZNK7android6VectorIxE15d
266:   FUNC GLOBAL DEFAULT 14 _ZN7android15InputDeviceI
267:   FUNC WEAK DEFAULT 14 _ZNK7android12SortedVecto
268:   FUNC GLOBAL DEFAULT 14 _ZN7android13PointerCoord
269:   FUNC GLOBAL DEFAULT 14 _ZN7android6KeyMapC1Ev
270:   OBJECT WEAK DEFAULT 18 _ZTCN7android14BpInputFli
271:   FUNC GLOBAL DEFAULT 14 _ZN7android12InputChannel
272:   FUNC GLOBAL DEFAULT 14 _ZN7android13InputConsume
273:   FUNC GLOBAL DEFAULT 14 _ZTv0_n12_N7android24ISet
274:   FUNC GLOBAL DEFAULT 14 _ZN7android11MotionEvent1
275:   FUNC GLOBAL DEFAULT 14 _ZN7android12KeyLayoutMap
276:   FUNC WEAK DEFAULT 14 _ZNK7android12SortedVecto
277:   FUNC GLOBAL DEFAULT 14 _ZN7android13InputConsume
278:   FUNC WEAK DEFAULT 14 _ZNK7android6VectorINS_12
279:   FUNC GLOBAL DEFAULT 14 _ZN7android13PointerCoord
280:   FUNC GLOBAL DEFAULT 14 _ZN7android34IntegratingV
281:   FUNC GLOBAL DEFAULT 14 _ZN7android23PooledInputE
282:   FUNC WEAK DEFAULT 14 _ZNK7android12SortedVecto
283:   FUNC GLOBAL DEFAULT 14 _ZN7android15TouchVideoFr
284:   OBJECT WEAK DEFAULT 18 _ZTVN7android14BpInputFli
285:   FUNC GLOBAL DEFAULT 14 _ZNK7android15KeyCharacte
286:   FUNC GLOBAL DEFAULT 14 _ZN7android30ImpulseVeloc
287:   FUNC WEAK DEFAULT 14 _ZNK7android6VectorIxE12d
288:   FUNC GLOBAL DEFAULT 14 _ZN7android15KeyCharacter
289:   FUNC WEAK DEFAULT 14 _ZNK7android6VectorINS_15
290:   OBJECT WEAK DEFAULT 18 _ZTVN7android12SortedVect
291:   FUNC GLOBAL DEFAULT 14 _ZN7android15VelocityTrac
292:   FUNC GLOBAL DEFAULT 14 _ZN7android13VirtualKeyMa
293:   FUNC GLOBAL DEFAULT 14 _ZN7android13InputConsume
294:   FUNC WEAK DEFAULT 14 _ZNK7android6VectorINS_13
295:   FUNC GLOBAL DEFAULT 14 _ZN7android15VelocityCont
296:   FUNC GLOBAL DEFAULT 14 _ZN7android15VelocityTrac
297:   FUNC GLOBAL DEFAULT 14 _ZN7android29LegacyVeloci
298:   FUNC WEAK DEFAULT 14 _ZNK7android12SortedVecto
299:   FUNC WEAK DEFAULT 14 _ZNSt3__16vectorIiNS_9all
300:   OBJECT WEAK DEFAULT 18 _ZTCN7android25BpSetInput
301:   FUNC GLOBAL DEFAULT 14 _ZN7android30ImpulseVeloc
302:   FUNC GLOBAL DEFAULT 14 _ZN7android13IInputFlinge
303:   FUNC GLOBAL DEFAULT 14 _ZN7android15InputWindowI
304:   OBJECT GLOBAL DEFAULT 18 _ZTCN7android14BnInputFli
305:   FUNC GLOBAL DEFAULT 14 _ZTv0_n12_N7android13IInp
306:   FUNC WEAK DEFAULT 14 _ZNK7android6VectorINS_17
307:   FUNC WEAK DEFAULT 14 _ZNK7android6VectorIPNS_1
308:   FUNC WEAK DEFAULT 14 _ZNK7android6VectorINS_13
309:   FUNC WEAK DEFAULT 14 _ZNK7android6VectorINS_17
310:   FUNC WEAK DEFAULT 14 _ZNK7android6VectorIxE10d
311:   FUNC WEAK DEFAULT 14 _ZNK7android12SortedVecto
312:   FUNC WEAK DEFAULT 14 _ZNK7android12SortedVecto
313:   FUNC WEAK DEFAULT 14 _ZNK7android6VectorIPNS_1
314:   FUNC GLOBAL DEFAULT 14 _ZN7android13InputConsume
315:   FUNC GLOBAL DEFAULT 14 _ZN7android13InputConsume
316:   FUNC GLOBAL DEFAULT 14 _ZN7android14InputPublish
317:   FUNC GLOBAL DEFAULT 14 _ZNK7android15InputWindow
318:   OBJECT WEAK DEFAULT 18 _ZTVN7android12SortedVect
319:   FUNC GLOBAL DEFAULT 14 _ZN7android15VelocityCont
320:   FUNC GLOBAL DEFAULT 14 _ZN7android53getInputDevi
321:   FUNC GLOBAL DEFAULT 14 _ZN7android13PointerCoord
322:   FUNC GLOBAL DEFAULT 14 _ZNK7android17PointerProp
323:   FUNC GLOBAL DEFAULT 14 _ZN7android15KeyCharacter
324:   FUNC GLOBAL DEFAULT 14 _ZN7android15TouchVideoFr
325:   FUNC GLOBAL DEFAULT 14 _ZN7android14InputPublish
326:   OBJECT WEAK DEFAULT 18 _ZTVN7android6VectorINS_1
327:   FUNC GLOBAL DEFAULT 14 _ZN7android29LegacyVeloci
328:   FUNC GLOBAL DEFAULT 14 __aeabi_memset
329:   FUNC GLOBAL DEFAULT 14 _ZN7android6KeyMap11probe
330:   OBJECT GLOBAL DEFAULT 18 _ZTCN7android25BnSetInput
331:   FUNC GLOBAL DEFAULT 14 _ZN7android35LeastSquares
332:   FUNC GLOBAL DEFAULT 14 _ZN7android15KeyCharacter
333:   FUNC GLOBAL DEFAULT 14 _ZNK7android15KeyCharacte
334:   OBJECT GLOBAL DEFAULT 18 _ZTTN7android14BnInputFli
335:   FUNC GLOBAL DEFAULT 14 _ZNK7android35LeastSquare
336:   FUNC GLOBAL DEFAULT 14 _ZN7android23PooledInputE
337:   FUNC WEAK DEFAULT 14 _ZNK7android6VectorIPNS_8
338:   FUNC GLOBAL DEFAULT 14 _ZNK7android20InputApplic
339:   FUNC GLOBAL DEFAULT 14 _ZN7android12InputChannel
340:   FUNC WEAK DEFAULT 14 _ZNK7android6VectorINS_17
341:   OBJECT GLOBAL DEFAULT 18 _ZTVN7android23PooledInpu
342:   FUNC GLOBAL DEFAULT 14 _ZNK7android15KeyCharacte
343:   FUNC GLOBAL DEFAULT 14 _ZN7android15KeyCharacter
344:   FUNC GLOBAL DEFAULT 14 _ZN7android13InputConsume
345:   FUNC GLOBAL DEFAULT 14 _ZN7android15KeyCharacter
346:   FUNC GLOBAL DEFAULT 14 _ZNK7android15KeyCharacte
347:   FUNC GLOBAL DEFAULT 14 _ZN7android13VirtualKeyMa
348:   FUNC WEAK DEFAULT 14 _ZNK7android6VectorINS_13
349:   FUNC GLOBAL DEFAULT 14 _ZN7android17InputWindowH
350:   FUNC GLOBAL DEFAULT 14 _ZN7android29LegacyVeloci
351:   FUNC GLOBAL DEFAULT 14 _ZNK7android30ImpulseVelo
352:   FUNC GLOBAL DEFAULT 14 _ZN7android11MotionEvent1
353:   FUNC GLOBAL DEFAULT 14 _ZN7android15InputDeviceI
354:   FUNC GLOBAL DEFAULT 14 _ZN7android13VirtualKeyMa
355:   FUNC GLOBAL DEFAULT 14 _ZN7android20InputApplica
356:   FUNC GLOBAL DEFAULT 14 _ZNK7android29LegacyVeloc
357:   OBJECT GLOBAL DEFAULT 23 _ZN7android15KeyCharacter
358:   FUNC GLOBAL DEFAULT 14 _ZNK7android17InputWindow
359:   FUNC GLOBAL DEFAULT 14 _ZN7android11MotionEvent5
360:   FUNC GLOBAL DEFAULT 14 _ZN7android8KeyEvent10ini
361:   OBJECT WEAK DEFAULT 18 _ZTVN7android8KeyEventE
362:   FUNC GLOBAL DEFAULT 14 _ZNK7android15InputWindow
363:   FUNC GLOBAL DEFAULT 14 _ZN7android24ISetInputWin
364:   FUNC GLOBAL DEFAULT 14 _ZN7android12KeyLayoutMap
365:   FUNC GLOBAL DEFAULT 14 _ZNK7android15TouchVideoF
366:   OBJECT GLOBAL DEFAULT 23 _ZN7android13IInputFlinge
367:   FUNC GLOBAL DEFAULT 14 _ZN7android12InputChannel
368:   FUNC GLOBAL DEFAULT 14 _ZN7android30ImpulseVeloc
369:   FUNC GLOBAL DEFAULT 14 _ZNK7android11MotionEvent
370:   FUNC GLOBAL DEFAULT 14 _ZN7android15KeyCharacter
371:   FUNC WEAK DEFAULT 14 _ZNK7android12SortedVecto
372:   OBJECT WEAK DEFAULT 18 _ZTVN7android6VectorINS_1
373:   OBJECT GLOBAL DEFAULT 18 _ZTCN7android25BnSetInput
374:   FUNC GLOBAL DEFAULT 14 _ZN7android35LeastSquares
375:   FUNC GLOBAL DEFAULT 14 _ZN7android6KeyMapD1Ev
376:   OBJECT GLOBAL DEFAULT 18 _ZTVN7android30ImpulseVel
377:   FUNC GLOBAL DEFAULT 14 __aeabi_memclr4
378:   FUNC GLOBAL DEFAULT 14 _ZN7android12KeyLayoutMap
379:   FUNC WEAK DEFAULT 14 _ZNK7android12SortedVecto
380:   FUNC GLOBAL DEFAULT 14 _ZN7android15TouchVideoFr
381:   FUNC GLOBAL DEFAULT 14 _ZN7android13VirtualKeyMa
382:   FUNC GLOBAL DEFAULT 14 _ZN7android24ISetInputWin
383:   OBJECT GLOBAL DEFAULT 18 _ZTCN7android25BnSetInput
384:   FUNC GLOBAL DEFAULT 14 _ZN7android15KeyCharacter
385:   FUNC GLOBAL DEFAULT 14 _ZN7android12KeyLayoutMap
386:   OBJECT GLOBAL DEFAULT 18 _ZTCN7android25BnSetInput
387:   FUNC GLOBAL DEFAULT 14 _ZN7android15updateMetaSt
388:   FUNC GLOBAL DEFAULT 14 _ZNK7android15KeyCharacte
389:   FUNC WEAK DEFAULT 14 _ZNK7android12SortedVecto
390:   OBJECT WEAK DEFAULT 18 _ZTVN7android12SortedVect
391:   FUNC GLOBAL DEFAULT 14 _ZN7android15TouchVideoFr
392:   FUNC GLOBAL DEFAULT 14 _ZN7android13InputConsume
393:   FUNC WEAK DEFAULT 14 _ZNK7android6VectorINS_12
394:   FUNC GLOBAL DEFAULT 14 _ZNK7android34Integrating
395:   FUNC GLOBAL DEFAULT 14 __aeabi_memmove4
396:   FUNC WEAK DEFAULT 14 _ZNK7android6VectorIPNS_1
397:   FUNC WEAK DEFAULT 14 _ZNSt3__16vectorIN7androi
398:   FUNC GLOBAL DEFAULT 14 _ZN7android22InputApplica
399:   FUNC GLOBAL DEFAULT 14 __aeabi_memclr8
400:   FUNC GLOBAL DEFAULT 14 _ZN7android15KeyCharacter
401:   FUNC GLOBAL DEFAULT 14 _ZNK7android15InputWindow
402:   FUNC GLOBAL DEFAULT 14 _ZN7android12InputChannel
403:   FUNC GLOBAL DEFAULT 14 _ZN7android14InputPublish
404:   FUNC WEAK DEFAULT 14 _ZNK7android6VectorINS_13
405:   OBJECT WEAK DEFAULT 18 _ZTCN7android25BpSetInput
406:   FUNC GLOBAL DEFAULT 14 _ZNK7android11MotionEvent
407:   FUNC GLOBAL DEFAULT 14 _ZNK7android15InputDevice
408:   FUNC WEAK DEFAULT 14 _ZN7android11BnInterfaceI
409:   FUNC GLOBAL DEFAULT 14 _ZN7android15InputDeviceI
410:   FUNC GLOBAL DEFAULT 14 _ZN7android15VelocityTrac
411:   FUNC GLOBAL DEFAULT 14 __aeabi_memmove8
412:   FUNC WEAK DEFAULT 14 _ZNK7android12SortedVecto
413:   FUNC WEAK DEFAULT 14 _ZNK7android6VectorINS_13
414:   FUNC GLOBAL DEFAULT 14 _ZN7android15KeyCharacter
415:   FUNC WEAK DEFAULT 14 _ZNK7android12SortedVecto
416:   OBJECT WEAK DEFAULT 18 _ZTCN7android25BpSetInput
417:   FUNC GLOBAL DEFAULT 14 _ZNK7android13PointerCoor
418:   FUNC WEAK DEFAULT 14 _ZNK7android12SortedVecto
419:   FUNC GLOBAL DEFAULT 14 _ZNK7android34Integrating
420:   FUNC GLOBAL DEFAULT 14 _ZN7android11MotionEvent9
421:   FUNC GLOBAL DEFAULT 14 _ZN7android12KeyLayoutMap
422:   FUNC WEAK DEFAULT 14 _ZNK7android6VectorINS_13
423:   FUNC GLOBAL DEFAULT 14 _ZN7android15KeyCharacter
424:   FUNC WEAK DEFAULT 14 _ZNK7android12SortedVecto
425:   FUNC WEAK DEFAULT 14 _ZN7android11BnInterfaceI
426:   OBJECT WEAK DEFAULT 18 _ZTCN7android25BpSetInput
427:   FUNC WEAK DEFAULT 14 _ZNK7android12SortedVecto
428:   FUNC GLOBAL DEFAULT 14 _ZN7android22InputApplica
429:   OBJECT WEAK DEFAULT 18 _ZTVN7android12SortedVect
430:   FUNC WEAK DEFAULT 14 _ZNK7android12SortedVecto
431:   FUNC WEAK DEFAULT 14 _ZNK7android12SortedVecto
432:   OBJECT GLOBAL DEFAULT 18 _ZTVN7android12KeyLayoutM
433:   FUNC GLOBAL DEFAULT 14 _ZN7android12InputChannel
434:   FUNC GLOBAL DEFAULT 14 _ZN7android12InputChannel
435:   OBJECT GLOBAL DEFAULT 18 _ZTCN7android24ISetInputW
436:   FUNC GLOBAL DEFAULT 14 _ZN7android34IntegratingV
437:   FUNC GLOBAL DEFAULT 14 _ZN7android15KeyCharacter
438:   OBJECT WEAK DEFAULT 18 _ZTVN7android6VectorIPNS_
439:   FUNC WEAK DEFAULT 14 _ZNK7android12SortedVecto
440:   FUNC GLOBAL DEFAULT 14 _ZN7android13IInputFlinge
441:   OBJECT WEAK DEFAULT 18 _ZTCN7android14BpInputFli
442:   OBJECT WEAK DEFAULT 18 _ZTVN7android6VectorINS_1
443:   FUNC WEAK DEFAULT 14 _ZNK7android6VectorIxE16d
444:   FUNC GLOBAL DEFAULT 14 _ZN7android41getInputDevi
445:   FUNC GLOBAL DEFAULT 14 _ZN7android12KeyLayoutMap
446:   OBJECT GLOBAL DEFAULT 18 _ZTCN7android14BnInputFli
447:   FUNC GLOBAL DEFAULT 14 _ZN7android13InputConsume
448:   FUNC GLOBAL DEFAULT 14 _ZN7android6KeyMap4loadER
449:   FUNC GLOBAL DEFAULT 14 _ZN7android6KeyMap7getPat
450:   OBJECT WEAK DEFAULT 18 _ZTVN7android6VectorIxEE
451:   FUNC GLOBAL DEFAULT 14 _ZN7android34IntegratingV
452:   FUNC GLOBAL DEFAULT 14 _ZN7android11MotionEvent1
453:   FUNC GLOBAL DEFAULT 14 _ZNK7android11MotionEvent
454:   FUNC GLOBAL DEFAULT 14 _ZN7android30ImpulseVeloc
455:   FUNC GLOBAL DEFAULT 14 _ZN7android8KeyEvent10ini
456:   FUNC WEAK DEFAULT 14 _ZNK7android6VectorIPNS_8
457:   FUNC GLOBAL DEFAULT 14 _ZN7android15KeyCharacter
458:   FUNC GLOBAL DEFAULT 14 _ZNK7android12KeyLayoutMa
459:   FUNC GLOBAL DEFAULT 14 _ZN7android13VirtualKeyMa
460:   FUNC GLOBAL DEFAULT 14 _ZN7android29LegacyVeloci
461:   FUNC GLOBAL DEFAULT 14 _ZN7android12InputChannel
462:   OBJECT GLOBAL DEFAULT 18 _ZTVN7android34Integratin
463:   FUNC GLOBAL DEFAULT 14 _ZN7android6KeyMap19loadK
464:   FUNC GLOBAL DEFAULT 14 _ZN7android15KeyCharacter
465:   FUNC GLOBAL DEFAULT 14 _ZNK7android15KeyCharacte
466:   FUNC GLOBAL DEFAULT 14 _ZN7android13IInputFlinge
467:   FUNC GLOBAL DEFAULT 14 _ZN7android15KeyCharacter
468:   FUNC WEAK DEFAULT 14 _ZNK7android6VectorINS_15
469:   FUNC GLOBAL DEFAULT 14 _ZN7android12InputChannel
470:   FUNC WEAK DEFAULT 14 _ZNSt3__16vectorIN7androi
471:   FUNC WEAK DEFAULT 14 _ZNK7android6VectorIPNS_8
472:   FUNC GLOBAL DEFAULT 14 _ZN7android15KeyCharacter
473:   OBJECT GLOBAL DEFAULT 18 _ZTCN7android14BnInputFli
474:   FUNC WEAK DEFAULT 14 _ZNK7android6VectorINS_13
475:   FUNC WEAK DEFAULT 14 _ZNK7android6VectorIPNS_1
476:   FUNC GLOBAL DEFAULT 14 _ZN7android17InputWindowH
477:   FUNC GLOBAL DEFAULT 14 _ZN7android15VelocityTrac
478:   FUNC GLOBAL DEFAULT 14 _ZN7android30ImpulseVeloc
479:   FUNC GLOBAL DEFAULT 14 _ZN7android23PooledInputE
480:   FUNC GLOBAL DEFAULT 14 _ZNK7android11MotionEvent
481:   FUNC WEAK DEFAULT 14 _ZNK7android6VectorINS_13
482:   FUNC WEAK DEFAULT 14 _ZNK7android6VectorIPNS_8
483:   FUNC WEAK DEFAULT 14 _ZNK7android6VectorIPNS_8
484:   FUNC GLOBAL DEFAULT 14 _ZN7android15KeyCharacter
485:   FUNC GLOBAL DEFAULT 14 _ZN7android13InputConsume
486:   FUNC GLOBAL DEFAULT 14 _ZNK7android13InputConsum
487:   FUNC GLOBAL DEFAULT 14 _ZN7android23PooledInputE
488:   FUNC WEAK DEFAULT 14 _ZNK7android12SortedVecto
489:   FUNC GLOBAL DEFAULT 14 _ZN7android13IInputFlinge
490:   FUNC GLOBAL DEFAULT 14 _ZN7android13InputConsume
491:   FUNC GLOBAL DEFAULT 14 _ZN7android29LegacyVeloci
492:   FUNC GLOBAL DEFAULT 14 _ZN7android23PooledInputE
493:   FUNC GLOBAL DEFAULT 14 _ZN7android15KeyCharacter
494:   FUNC WEAK DEFAULT 14 _ZNK7android6VectorINS_15
495:   FUNC GLOBAL DEFAULT 14 _ZN7android12InputChannel
496:   FUNC GLOBAL DEFAULT 14 _ZN7android13InputConsume
497:   FUNC GLOBAL DEFAULT 14 _ZNK7android15InputWindow
498:   OBJECT GLOBAL DEFAULT 23 _ZN7android24ISetInputWin
499:   FUNC GLOBAL DEFAULT 14 _ZN7android29LegacyVeloci
500:   FUNC GLOBAL DEFAULT 14 _ZNK7android11MotionEvent
501:   FUNC GLOBAL DEFAULT 14 _ZNK7android13PointerCoor
502:   FUNC GLOBAL DEFAULT 14 _ZN7android15KeyCharacter
503:   OBJECT GLOBAL DEFAULT 23 _ZN7android13IInputFlinge
504:   FUNC GLOBAL DEFAULT 14 _ZN7android13IInputFlinge
505:   OBJECT GLOBAL DEFAULT 13 _ZN7android15VelocityCont
506:   FUNC GLOBAL DEFAULT 14 _ZN7android35LeastSquares
507:   FUNC GLOBAL DEFAULT 14 _ZN7android13PointerCoord
508:   FUNC GLOBAL DEFAULT 14 _ZN7android23PooledInputE
509:   OBJECT WEAK DEFAULT 18 _ZTVN7android6VectorINS_1
510:   FUNC GLOBAL DEFAULT 14 _ZNK7android15KeyCharacte
511:   FUNC GLOBAL DEFAULT 14 _ZN7android14BnInputFling
512:   OBJECT WEAK DEFAULT 18 _ZTTN7android14BpInputFli
513:   FUNC WEAK DEFAULT 14 _ZNK7android6VectorINS_17
514:   FUNC GLOBAL DEFAULT 14 _ZN7android15InputDeviceI
515:   FUNC GLOBAL DEFAULT 14 _ZN7android15KeyCharacter
516:   FUNC GLOBAL DEFAULT 14 _ZN7android15InputWindowI
517:   FUNC GLOBAL DEFAULT 14 _ZN7android12KeyLayoutMap
518:   FUNC GLOBAL DEFAULT 14 _ZN7android17InputWindowH
519:   FUNC GLOBAL DEFAULT 14 _ZN7android10InputEvent10
520:   FUNC GLOBAL DEFAULT 14 _ZN7android15KeyCharacter
521:   FUNC WEAK DEFAULT 14 _ZNK7android12SortedVecto
522:   FUNC GLOBAL DEFAULT 14 _ZThn4_N7android25BnSetIn
523:   FUNC GLOBAL DEFAULT 14 _ZN7android17PointerPrope
524:   FUNC GLOBAL DEFAULT 14 _ZN7android15KeyCharacter
525:   FUNC WEAK DEFAULT 14 _ZNK7android12SortedVecto
526:   FUNC GLOBAL DEFAULT 14 _ZN7android22InputApplica
527:   FUNC GLOBAL DEFAULT 14 _ZN7android13InputConsume
528:   OBJECT GLOBAL DEFAULT 18 _ZTVN7android25BnSetInput
529:   FUNC WEAK DEFAULT 14 _ZNK7android6VectorINS_13
530:   FUNC WEAK DEFAULT 14 _ZNK7android6VectorIPNS_1
531:   FUNC GLOBAL DEFAULT 14 _ZN7android18normalizeMet
532:   OBJECT GLOBAL DEFAULT 18 _ZTVN7android22InputAppli
533:   FUNC GLOBAL DEFAULT 14 _ZNK7android21InputDevice
534:   FUNC WEAK DEFAULT 14 _ZNK7android6VectorINS_12
535:   FUNC WEAK DEFAULT 14 _ZNK7android12SortedVecto
536:   OBJECT GLOBAL DEFAULT 18 _ZTVN7android15KeyCharact
537:   FUNC WEAK DEFAULT 14 _ZNK7android12SortedVecto
538:   FUNC GLOBAL DEFAULT 14 _ZN7android8KeyEvent19get
539:   FUNC WEAK DEFAULT 14 _ZNK7android6VectorINS_13
540:   FUNC GLOBAL DEFAULT 14 _ZN7android15KeyCharacter
541:   FUNC GLOBAL DEFAULT 14 _ZN7android15KeyCharacter
542:   FUNC WEAK DEFAULT 14 _ZNSt3__16vectorIN7androi
543:   FUNC GLOBAL DEFAULT 14 _ZN7android24ISetInputWin
544:   FUNC GLOBAL DEFAULT 14 _ZNK7android12KeyLayoutMa
545:   FUNC WEAK DEFAULT 14 _ZNK7android12SortedVecto
546:   OBJECT GLOBAL DEFAULT 18 _ZTTN7android13IInputFlin
547:   OBJECT GLOBAL DEFAULT 18 _ZTVN7android12InputChann
548:   FUNC GLOBAL DEFAULT 14 _ZN7android24ISetInputWin
549:   FUNC GLOBAL DEFAULT 14 _ZN7android15VelocityCont
550:   OBJECT GLOBAL DEFAULT 18 _ZTVN7android29LegacyVelo
551:   FUNC GLOBAL DEFAULT 14 _ZNK7android13PointerCoor
552:   FUNC GLOBAL DEFAULT 14 _ZN7android13VirtualKeyMa
553:   FUNC GLOBAL DEFAULT 14 _ZNK7android13InputConsum
554:   FUNC WEAK DEFAULT 14 _ZNK7android6VectorINS_13
555:   FUNC GLOBAL DEFAULT 14 _ZN7android17InputWindowH
556:   OBJECT GLOBAL DEFAULT 23 _ZN7android24ISetInputWin
557:   FUNC GLOBAL DEFAULT 14 _ZN7android13PointerCoord
558:   FUNC GLOBAL DEFAULT 14 _ZN7android15InputDeviceI
559:   FUNC GLOBAL DEFAULT 14 _ZN7android15KeyCharacter
560:   FUNC WEAK DEFAULT 14 _ZNK7android6VectorINS_12
561:   FUNC WEAK DEFAULT 14 _ZNK7android6VectorINS_13
562:   FUNC GLOBAL DEFAULT 14 _ZN7android15InputDeviceI
563:   FUNC GLOBAL DEFAULT 14 _ZN7android15KeyCharacter
564:   FUNC GLOBAL DEFAULT 14 _ZN7android15KeyCharacter
565:   FUNC WEAK DEFAULT 14 _ZNK7android12SortedVecto
566:   FUNC GLOBAL DEFAULT 14 _ZN7android13VirtualKeyMa
567:   FUNC GLOBAL DEFAULT 14 _ZN7android11MotionEvent1
568:   FUNC GLOBAL DEFAULT 14 _ZNK7android11MotionEvent
569:   FUNC GLOBAL DEFAULT 14 _ZN7android25isEligibleBu
570:   FUNC GLOBAL DEFAULT 14 _ZN7android15KeyCharacter
571:   FUNC GLOBAL DEFAULT 14 _ZN7android14InputPublish
572:   FUNC WEAK DEFAULT 14 _ZNK7android6VectorINS_13
573:   FUNC GLOBAL DEFAULT 14 _ZNK7android15InputWindow
574:   OBJECT WEAK DEFAULT 18 _ZTVN7android25BpSetInput
575:   FUNC GLOBAL DEFAULT 14 _ZNK7android11MotionEvent
576:   FUNC WEAK DEFAULT 14 _ZNK7android12SortedVecto
577:   FUNC WEAK DEFAULT 14 _ZNK7android12SortedVecto
578:   FUNC GLOBAL DEFAULT 14 _ZN7android13VirtualKeyMa
579:   FUNC GLOBAL DEFAULT 14 _ZN7android13InputConsume
580:   FUNC GLOBAL DEFAULT 14 _ZN7android15InputDeviceI
581:   FUNC WEAK DEFAULT 14 _ZNK7android6VectorINS_15
582:   FUNC GLOBAL DEFAULT 14 __aeabi_memcpy4
583:   FUNC GLOBAL DEFAULT 14 _ZN7android11MotionEvent8
584:   FUNC GLOBAL DEFAULT 14 _ZN7android15KeyCharacter
585:   FUNC WEAK DEFAULT 14 _ZNK7android6VectorINS_15
586:   FUNC GLOBAL DEFAULT 14 _ZNK7android15TouchVideoF
587:   FUNC GLOBAL DEFAULT 14 _ZNK7android15InputWindow
588:   FUNC GLOBAL DEFAULT 14 _ZNK7android24ISetInputWi
589:   FUNC GLOBAL DEFAULT 14 _ZN7android11MotionEvent8
590:   FUNC GLOBAL DEFAULT 14 _ZN7android6KeyMapC2Ev
591:   FUNC GLOBAL DEFAULT 14 _ZTv0_n12_N7android24ISet
592:   FUNC GLOBAL DEFAULT 14 _ZN7android34IntegratingV
593:   FUNC GLOBAL DEFAULT 14 _ZN7android12KeyLayoutMap
594:   FUNC GLOBAL DEFAULT 14 _ZNK7android12KeyLayoutMa
595:   FUNC GLOBAL DEFAULT 14 __aeabi_memclr
596:   FUNC GLOBAL DEFAULT 14 _ZN7android24ISetInputWin
597:   FUNC GLOBAL DEFAULT 14 __aeabi_memcpy8
598:   FUNC GLOBAL DEFAULT 14 _ZN7android12KeyLayoutMap
599:   OBJECT GLOBAL DEFAULT 18 _ZTVN7android14BnInputFli
600:   FUNC GLOBAL DEFAULT 14 _ZN7android34IntegratingV
601:   FUNC WEAK DEFAULT 14 _ZNK7android12SortedVecto
602:   FUNC WEAK DEFAULT 14 _ZNK7android12SortedVecto
603:   FUNC GLOBAL DEFAULT 14 _ZN7android15TouchVideoFr
604:   FUNC GLOBAL DEFAULT 14 _ZNK7android15TouchVideoF
605:   FUNC GLOBAL DEFAULT 14 _ZNK7android15TouchVideoF
606:   FUNC WEAK DEFAULT 14 _ZNK7android12SortedVecto
607:   FUNC GLOBAL DEFAULT 14 _ZN7android12InputChannel
608:   FUNC WEAK DEFAULT 14 _ZNK7android6VectorINS_12
609:   FUNC GLOBAL DEFAULT 14 _ZN7android30ImpulseVeloc
610:   FUNC GLOBAL DEFAULT 14 __aeabi_memset4
611:   FUNC WEAK DEFAULT 14 _ZNK7android6VectorIxE7do
612:   FUNC WEAK DEFAULT 14 _ZNSt3__16vectorIN7androi
613:   FUNC GLOBAL DEFAULT 14 _ZN7android15KeyCharacter
614:   FUNC GLOBAL DEFAULT 14 _ZNK7android15KeyCharacte
615:   FUNC GLOBAL DEFAULT 14 _ZN7android13IInputFlinge
616:   FUNC GLOBAL DEFAULT 14 _ZN7android34IntegratingV
617:   FUNC GLOBAL DEFAULT 14 _ZN7android15KeyCharacter
618:   OBJECT WEAK DEFAULT 18 _ZTVN7android6VectorINS_1
619:   OBJECT GLOBAL DEFAULT 18 _ZTCN7android14BnInputFli
620:   FUNC GLOBAL DEFAULT 14 _ZN7android29LegacyVeloci
621:   FUNC GLOBAL DEFAULT 14 _ZN7android11MotionEvent1
622:   FUNC GLOBAL DEFAULT 14 _ZN7android13PointerCoord
623:   FUNC WEAK DEFAULT 14 _ZNK7android6VectorINS_13
624:   FUNC GLOBAL DEFAULT 14 _ZN7android15VelocityTrac
625:   FUNC WEAK DEFAULT 14 _ZNK7android6VectorINS_13
626:   FUNC GLOBAL DEFAULT 14 _ZN7android15KeyCharacter
627:   FUNC WEAK DEFAULT 14 _ZN7android2spINS_15KeyCh
628:   FUNC GLOBAL DEFAULT 14 _ZN7android13IInputFlinge
629:   FUNC GLOBAL DEFAULT 14 _ZTv0_n12_N7android13IInp
630:   FUNC GLOBAL DEFAULT 14 _ZN7android15InputWindowI
631:   FUNC GLOBAL DEFAULT 14 __aeabi_memset8
632:   FUNC GLOBAL DEFAULT 14 _ZNK7android13InputConsum
633:   OBJECT WEAK DEFAULT 18 _ZTVN7android6VectorINS_1
634:   FUNC GLOBAL DEFAULT 14 _ZN7android34IntegratingV
635:   OBJECT GLOBAL DEFAULT 18 _ZTCN7android13IInputFlin
636:   FUNC GLOBAL DEFAULT 14 _ZNK7android11MotionEvent
637:   FUNC GLOBAL DEFAULT 14 __aeabi_memmove
638:   OBJECT GLOBAL DEFAULT 18 _ZTCN7android14BnInputFli
639:   FUNC GLOBAL DEFAULT 14 _ZNK7android15KeyCharacte
640:   FUNC GLOBAL DEFAULT 14 _ZNK7android15KeyCharacte
641:   FUNC GLOBAL DEFAULT 14 _ZNK7android12InputMessag
642:   FUNC WEAK DEFAULT 14 _ZNK7android6VectorINS_13
643:   FUNC GLOBAL DEFAULT 14 _ZN7android28motionClassi
644:   OBJECT WEAK DEFAULT 18 _ZTVN7android6VectorIPNS_
645:   FUNC GLOBAL DEFAULT 14 _ZNK7android12KeyLayoutMa
646:   FUNC GLOBAL DEFAULT 14 _ZN7android15VelocityCont
647:   FUNC GLOBAL DEFAULT 14 _ZN7android30ImpulseVeloc
648:   FUNC GLOBAL DEFAULT 14 __aeabi_memcpy
649:   FUNC GLOBAL DEFAULT 14 _ZN7android25isKeyboardSp
650:   FUNC GLOBAL DEFAULT 14 _ZNK7android12KeyLayoutMa
651:   OBJECT WEAK DEFAULT 18 _ZTCN7android14BpInputFli
652:   FUNC WEAK DEFAULT 14 _ZNK7android6VectorINS_13
653:   FUNC GLOBAL DEFAULT 14 _ZN7android15KeyCharacter
654:   FUNC GLOBAL DEFAULT 14 _ZNK7android15KeyCharacte
655:   FUNC GLOBAL DEFAULT 14 _ZN7android14InputPublish
656:   FUNC GLOBAL DEFAULT 14 _ZN7android13PointerCoord
657:   FUNC WEAK DEFAULT 14 _ZNK7android6VectorINS_15
658:   FUNC GLOBAL DEFAULT 14 _ZNK7android15VelocityTra
659:   FUNC GLOBAL DEFAULT 14 __floatdisf
660:   FUNC GLOBAL DEFAULT 14 _ZN7android12KeyLayoutMap
661:   FUNC GLOBAL DEFAULT 14 __aeabi_l2f
662:   FUNC GLOBAL DEFAULT 14 _ZNK7android34Integrating
663:   FUNC GLOBAL DEFAULT 14 _ZN7android23PooledInputE
664:   FUNC GLOBAL DEFAULT 14 _ZN7android14InputPublish
665:   FUNC GLOBAL DEFAULT 14 _ZNK7android12InputMessag
666:   FUNC GLOBAL DEFAULT 14 _ZN7android15KeyCharacter
667:   FUNC GLOBAL DEFAULT 14 _ZN7android12KeyLayoutMap
668:   FUNC WEAK DEFAULT 14 _ZNK7android6VectorINS_13
669:   FUNC GLOBAL DEFAULT 14 _ZNK7android15VelocityTra
670:   FUNC WEAK DEFAULT 14 _ZNK7android12SortedVecto
671:   FUNC GLOBAL DEFAULT 14 _ZN7android13VirtualKeyMa
672:   FUNC GLOBAL DEFAULT 14 _ZN7android17InputWindowH
673:   FUNC GLOBAL DEFAULT 14 _ZN7android24ISetInputWin
674:   FUNC GLOBAL DEFAULT 14 _ZN7android15KeyCharacter
675:   OBJECT WEAK DEFAULT 18 _ZTCN7android14BpInputFli
676:   OBJECT GLOBAL DEFAULT 18 _ZTVN7android35LeastSquar
677:   FUNC WEAK DEFAULT 14 _ZNK7android6VectorINS_17
678:   FUNC GLOBAL DEFAULT 14 _ZN7android15InputDeviceI
679:   FUNC WEAK DEFAULT 14 _ZNK7android12SortedVecto
680:   FUNC GLOBAL DEFAULT 14 _ZN7android25BnSetInputWi
681:   FUNC GLOBAL DEFAULT 14 _ZN7android15VelocityTrac
682:   FUNC GLOBAL DEFAULT 14 _ZN7android30ImpulseVeloc
683:   FUNC GLOBAL DEFAULT 14 _ZN7android35LeastSquares
