 0x000000000000000e (SONAME)             Library soname: [libart-dexlayout.so]
  
Symbol   contains 633 entries:
Num:   Type Bind Vis Ndx Name
0:   NOTYPE LOCAL DEFAULT UND
1:   NOTYPE WEAK DEFAULT UND __gmon_start__
2:   NOTYPE WEAK DEFAULT UND _ITM_deregisterTMCloneTab
3:   NOTYPE WEAK DEFAULT UND _ITM_registerTMCloneTable
4:   FUNC WEAK DEFAULT UND __cxa_finalize@GLIBC_2.2.5 (2)
5:   NOTYPE WEAK DEFAULT UND _Jv_RegisterClasses
6:   OBJECT GLOBAL DEFAULT UND _ZN3art11Instruction23kIn
7:   OBJECT GLOBAL DEFAULT UND _ZN3art13gLogVerbosityE
8:   FUNC GLOBAL DEFAULT UND _ZN3art14CompactDexFile10
9:   FUNC GLOBAL DEFAULT UND _ZN3art14CompactDexFile17
10:   FUNC GLOBAL DEFAULT UND _ZN3art14CompactDexFile19
11:   FUNC GLOBAL DEFAULT UND _ZN3art18CompactOffsetTab
12:   FUNC GLOBAL DEFAULT UND _ZN3art18CompactOffsetTab
13:   FUNC GLOBAL DEFAULT UND _ZN3art22CountModifiedUtf
14:   FUNC GLOBAL DEFAULT UND _ZN3art8NanoTimeEv
15:   FUNC GLOBAL DEFAULT UND _ZN7android4base10LogMess
16:   FUNC GLOBAL DEFAULT UND _ZN7android4base10LogMess
17:   FUNC GLOBAL DEFAULT UND _ZN7android4base10LogMess
18:   FUNC GLOBAL DEFAULT UND _ZN7android4base12StringP
19:   FUNC GLOBAL DEFAULT UND _ZN7android4base21GetMini
20:   FUNC GLOBAL DEFAULT UND _ZNK3art11Instruction28Si
21:   FUNC GLOBAL DEFAULT UND _ZNK3art11Instruction39Co
22:   FUNC GLOBAL DEFAULT UND _ZNK3art18CompactOffsetTa
23:   FUNC GLOBAL DEFAULT UND _ZNKSt3__120__vector_base
24:   FUNC GLOBAL DEFAULT UND _ZNKSt3__16locale9use_fac
25:   FUNC GLOBAL DEFAULT UND _ZNKSt3__18ios_base6getlo
26:   FUNC GLOBAL DEFAULT UND _ZNSt3__112__next_primeEm
27:   FUNC GLOBAL DEFAULT UND _ZNSt3__113basic_ostreamI
28:   FUNC GLOBAL DEFAULT UND _ZNSt3__113basic_ostreamI
29:   FUNC GLOBAL DEFAULT UND _ZNSt3__113basic_ostreamI
30:   FUNC GLOBAL DEFAULT UND _ZNSt3__113basic_ostreamI
31:   OBJECT GLOBAL DEFAULT UND _ZNSt3__15ctypeIcE2idE
32:   FUNC GLOBAL DEFAULT UND _ZNSt3__16localeD1Ev
33:   FUNC GLOBAL DEFAULT UND _ZNSt3__18ios_base5clearE
34:   FUNC GLOBAL DEFAULT UND _ZdlPv
35:   FUNC GLOBAL DEFAULT UND _Znwm
36:   FUNC GLOBAL DEFAULT UND __errno_location@GLIBC_2.2.5 (3)
37:   FUNC GLOBAL DEFAULT UND __stack_chk_fail@GLIBC_2.4 (4)
38:   FUNC GLOBAL DEFAULT UND abort@GLIBC_2.2.5 (2)
39:   FUNC GLOBAL DEFAULT UND memcpy@GLIBC_2.14 (5)
40:   FUNC GLOBAL DEFAULT UND memset@GLIBC_2.2.5 (2)
41:   FUNC GLOBAL DEFAULT UND strlen@GLIBC_2.2.5 (2)
42:   OBJECT GLOBAL DEFAULT UND _ZN3art11Instruction17kIn
43:   FUNC GLOBAL DEFAULT UND _ZN3art15DescriptorToDotE
44:   FUNC GLOBAL DEFAULT UND _ZN3art2OS15CreateEmptyFi
45:   FUNC GLOBAL DEFAULT UND _ZN9unix_file6FdFile10Wri
46:   FUNC GLOBAL DEFAULT UND _ZN9unix_file6FdFile17Flu
47:   FUNC GLOBAL DEFAULT UND _ZN9unix_file6FdFile5Eras
48:   FUNC GLOBAL DEFAULT UND _ZNK3art13DexFileLoader19
49:   FUNC GLOBAL DEFAULT UND _ZNK3art16ArtDexFileLoade
50:   FUNC GLOBAL DEFAULT UND _ZNK3art22ProfileCompilat
51:   FUNC GLOBAL DEFAULT UND _ZNK3art22ProfileCompilat
52:   FUNC GLOBAL DEFAULT UND _ZNKSt3__112basic_stringI
53:   FUNC GLOBAL DEFAULT UND _ZNKSt3__121__basic_strin
54:   FUNC GLOBAL DEFAULT UND _ZNSt3__112basic_stringIc
55:   FUNC GLOBAL DEFAULT UND _ZNSt3__112basic_stringIc
56:   FUNC GLOBAL DEFAULT UND _ZNSt3__112basic_stringIc
57:   FUNC GLOBAL DEFAULT UND _ZNSt3__112basic_stringIc
58:   FUNC GLOBAL DEFAULT UND _ZNSt3__112basic_stringIc
59:   FUNC GLOBAL DEFAULT UND _ZNSt3__112basic_stringIc
60:   FUNC GLOBAL DEFAULT UND _ZNSt3__113basic_istreamI
61:   FUNC GLOBAL DEFAULT UND _ZNSt3__113basic_istreamI
62:   FUNC GLOBAL DEFAULT UND _ZNSt3__113basic_ostreamI
63:   FUNC GLOBAL DEFAULT UND _ZNSt3__113basic_ostreamI
64:   FUNC GLOBAL DEFAULT UND _ZNSt3__113basic_ostreamI
65:   FUNC GLOBAL DEFAULT UND _ZNSt3__114basic_iostream
66:   FUNC GLOBAL DEFAULT UND _ZNSt3__114basic_iostream
67:   FUNC GLOBAL DEFAULT UND _ZNSt3__114basic_iostream
68:   FUNC GLOBAL DEFAULT UND _ZNSt3__115basic_streambu
69:   FUNC GLOBAL DEFAULT UND _ZNSt3__115basic_streambu
70:   FUNC GLOBAL DEFAULT UND _ZNSt3__115basic_streambu
71:   FUNC GLOBAL DEFAULT UND _ZNSt3__115basic_streambu
72:   FUNC GLOBAL DEFAULT UND _ZNSt3__115basic_streambu
73:   FUNC GLOBAL DEFAULT UND _ZNSt3__115basic_streambu
74:   FUNC GLOBAL DEFAULT UND _ZNSt3__115basic_streambu
75:   FUNC GLOBAL DEFAULT UND _ZNSt3__115basic_streambu
76:   FUNC GLOBAL DEFAULT UND _ZNSt3__115basic_streambu
77:   FUNC GLOBAL DEFAULT UND _ZNSt3__18ios_base4initEP
78:   FUNC GLOBAL DEFAULT UND _ZNSt3__19basic_iosIcNS_1
79:   OBJECT GLOBAL DEFAULT UND _ZSt7nothrow
80:   OBJECT GLOBAL DEFAULT UND _ZTVN3art16ArtDexFileLoad
81:   FUNC GLOBAL DEFAULT UND _ZThn16_NSt3__114basic_io
82:   FUNC GLOBAL DEFAULT UND _ZThn16_NSt3__114basic_io
83:   FUNC GLOBAL DEFAULT UND _ZTv0_n24_NSt3__113basic_
84:   FUNC GLOBAL DEFAULT UND _ZTv0_n24_NSt3__113basic_
85:   FUNC GLOBAL DEFAULT UND _ZTv0_n24_NSt3__113basic_
86:   FUNC GLOBAL DEFAULT UND _ZTv0_n24_NSt3__113basic_
87:   FUNC GLOBAL DEFAULT UND _ZTv0_n24_NSt3__114basic_
88:   FUNC GLOBAL DEFAULT UND _ZTv0_n24_NSt3__114basic_
89:   FUNC GLOBAL DEFAULT UND _ZdaPv
90:   FUNC GLOBAL DEFAULT UND _Znam
91:   FUNC GLOBAL DEFAULT UND _ZnwmRKSt9nothrow_t
92:   FUNC GLOBAL DEFAULT UND __ctype_toupper_loc@GLIBC_2.3 (6)
93:   FUNC GLOBAL DEFAULT UND exit@GLIBC_2.2.5 (2)
94:   FUNC GLOBAL DEFAULT UND fprintf@GLIBC_2.2.5 (2)
95:   FUNC GLOBAL DEFAULT UND fputc@GLIBC_2.2.5 (2)
96:   FUNC GLOBAL DEFAULT UND fputs@GLIBC_2.2.5 (2)
97:   FUNC GLOBAL DEFAULT UND free@GLIBC_2.2.5 (2)
98:   FUNC GLOBAL DEFAULT UND fwrite@GLIBC_2.2.5 (2)
99:   FUNC GLOBAL DEFAULT UND malloc@GLIBC_2.2.5 (2)
100:   FUNC GLOBAL DEFAULT UND memchr@GLIBC_2.2.5 (2)
101:   FUNC GLOBAL DEFAULT UND memcmp@GLIBC_2.2.5 (2)
102:   FUNC GLOBAL DEFAULT UND putc@GLIBC_2.2.5 (2)
103:   FUNC GLOBAL DEFAULT UND snprintf@GLIBC_2.2.5 (2)
104:   FUNC GLOBAL DEFAULT UND strcmp@GLIBC_2.2.5 (2)
105:   FUNC GLOBAL DEFAULT UND strdup@GLIBC_2.2.5 (2)
106:   FUNC GLOBAL DEFAULT UND strrchr@GLIBC_2.2.5 (2)
107:   FUNC GLOBAL DEFAULT UND _ZNSt3__112basic_stringIc
108:   FUNC GLOBAL DEFAULT UND __cxa_atexit@GLIBC_2.2.5 (2)
109:   FUNC GLOBAL DEFAULT UND _ZN3art20CatchHandlerIter
110:   FUNC GLOBAL DEFAULT UND _ZN3art20CatchHandlerIter
111:   FUNC GLOBAL DEFAULT UND _ZNSt3__113basic_ostreamI
112:   FUNC GLOBAL DEFAULT UND _ZNSt3__112basic_stringIc
113:   FUNC GLOBAL DEFAULT UND _ZNSt3__112basic_stringIc
114:   FUNC GLOBAL DEFAULT UND _ZNSt3__19to_stringEm
115:   FUNC GLOBAL DEFAULT UND fclose@GLIBC_2.2.5 (2)
116:   FUNC GLOBAL DEFAULT UND fopen@GLIBC_2.2.5 (2)
117:   OBJECT GLOBAL DEFAULT UND stdout@GLIBC_2.2.5 (2)
118:   FUNC GLOBAL DEFAULT UND _ZN3art14CompactDexFile12
119:   FUNC GLOBAL DEFAULT UND _ZN3art15StandardDexFile1
120:   FUNC GLOBAL DEFAULT UND _ZN3art15StandardDexFile1
121:   FUNC GLOBAL DEFAULT UND _ZN3art7DexFile17Calculat
122:   FUNC WEAK PROTECTED 12 _ZThn16_NSt3__118basic_st
123:   FUNC WEAK PROTECTED 12 _ZNKSt3__110__function6__
124:   FUNC WEAK PROTECTED 12 _ZNSt3__16vectorINS_10uni
125:   FUNC GLOBAL PROTECTED 12 _ZN3art10VerifyCodeEPNS_6
126:   FUNC WEAK PROTECTED 12 _ZNSt3__16vectorINS_10uni
127:   FUNC GLOBAL PROTECTED 12 _ZN3art16CompactDexWriter
128:   FUNC WEAK PROTECTED 12 _ZN3art6dex_ir16Collectio
129:   FUNC WEAK PROTECTED 12 _ZNSt3__16vectorIN3art6de
130:   OBJECT WEAK PROTECTED 21 _ZN3art9hiddenapi7ApiList
131:   FUNC WEAK PROTECTED 12 _ZN3art6dex_ir13Collectio
132:   FUNC WEAK PROTECTED 12 _ZN3art6dex_ir16Collectio
133:   FUNC GLOBAL PROTECTED 12 _ZN3art16VerifyAnnotation
134:   FUNC GLOBAL PROTECTED 12 _ZN3art18VerifyEncodedVal
135:   FUNC GLOBAL PROTECTED 12 _ZN3art19VerifyAnnotation
136:   FUNC WEAK PROTECTED 12 _ZN3art6Dumper11DumpProto
137:   FUNC WEAK PROTECTED 12 _ZN3art9DexWriter9Contain
138:   FUNC WEAK PROTECTED 12 _ZN3art12DexContainer13Ve
139:   FUNC GLOBAL PROTECTED 12 _ZN3art16CompactDexWriter
140:   FUNC GLOBAL PROTECTED 12 _ZN3art9DexLayout16Layout
141:   FUNC WEAK PROTECTED 12 _ZNK3art11Instruction5VRe
142:   FUNC WEAK PROTECTED 12 _ZN3art6dex_ir6HeaderD0Ev
143:   FUNC GLOBAL PROTECTED 12 _ZN3art9DexWriter13WriteP
144:   FUNC GLOBAL PROTECTED 12 _ZN3art9DexWriter14WriteM
145:   FUNC WEAK PROTECTED 12 _ZN3art6dex_ir23IndexedCo
146:   FUNC WEAK PROTECTED 12 _ZN3art6dex_ir8MethodIdD0
147:   FUNC WEAK PROTECTED 12 _ZN3art6dex_ir8StringIdD0
148:   FUNC WEAK PROTECTED 12 _ZN3art9VerifyIdsINS_6dex
149:   FUNC GLOBAL PROTECTED 12 _ZN3art9DexWriter15WriteS
150:   FUNC GLOBAL PROTECTED 12 _ZN3art9DexWriter27WriteA
151:   FUNC GLOBAL PROTECTED 12 _ZN3art6dex_ir11BuilderMa
152:   OBJECT WEAK PROTECTED 21 _ZTVN3art6dex_ir16MethodH
153:   FUNC GLOBAL PROTECTED 12 _ZN3art9DexWriter6OutputE
154:   FUNC GLOBAL PROTECTED 12 _ZN3art6dex_ir11BuilderMa
155:   FUNC WEAK PROTECTED 12 _ZNK3art6dex_ir13Collecti
156:   FUNC WEAK PROTECTED 12 _ZNK3art6dex_ir16Collecti
157:   FUNC WEAK PROTECTED 12 _ZNSt3__16vectorINS_10uni
158:   FUNC GLOBAL PROTECTED 12 _ZN3art18VerifyEncodedArr
159:   FUNC WEAK PROTECTED 12 _ZNSt3__16vectorINS_10uni
160:   FUNC WEAK PROTECTED 12 _ZNSt3__112__hash_tableIN
161:   FUNC GLOBAL PROTECTED 12 _ZN3art6dex_ir11BuilderMa
162:   FUNC WEAK PROTECTED 12 _ZNK3art6dex_ir16Collecti
163:   OBJECT WEAK PROTECTED 21 _ZTVN3art6dex_ir8ClassDef
164:   FUNC GLOBAL PROTECTED 12 _ZN3art26VerifyParameterA
165:   FUNC WEAK PROTECTED 12 _ZN3art9DexWriter9Contain
166:   FUNC GLOBAL PROTECTED 12 _ZN3art9DexWriter12WriteT
167:   FUNC WEAK PROTECTED 12 _ZN3art6dex_ir16Collectio
168:   FUNC WEAK PROTECTED 12 _ZNSt3__16__treeINS_12__v
169:   OBJECT WEAK PROTECTED 21 _ZTVN3art6dex_ir16Collect
170:   OBJECT WEAK PROTECTED 21 _ZTVN3art6dex_ir20Annotat
171:   FUNC GLOBAL PROTECTED 12 _ZN3art16CompactDexWriter
172:   FUNC WEAK PROTECTED 12 _ZN3art6dex_ir13Collectio
173:   FUNC GLOBAL PROTECTED 12 _ZN3art9DexWriter13Proces
174:   FUNC GLOBAL PROTECTED 12 _ZN3art9DexWriter14WriteC
175:   FUNC WEAK PROTECTED 12 _ZNSt3__16vectorINS_10uni
176:   FUNC WEAK PROTECTED 12 _ZNSt3__16vectorINS_10uni
177:   FUNC GLOBAL PROTECTED 12 _ZN3art23VerifyEncodedAnn
178:   FUNC GLOBAL PROTECTED 12 _ZN3art16CompactDexWriter
179:   FUNC GLOBAL PROTECTED 12 _ZN3art6dex_ir11BuilderMa
180:   FUNC GLOBAL PROTECTED 12 _ZN3art16CompactDexWriter
181:   FUNC GLOBAL DEFAULT 13 _init
182:   FUNC WEAK PROTECTED 12 _ZN3art16CompactDexWriter
183:   FUNC WEAK PROTECTED 12 _ZNSt3__16vectorINS_10uni
184:   OBJECT WEAK PROTECTED 21 _ZTVN3art6dex_ir16Collect
185:   FUNC WEAK PROTECTED 12 _ZN3art9VerifyIdsINS_6dex
186:   FUNC GLOBAL PROTECTED 12 _ZN3art6dex_ir12DexIrBuil
187:   FUNC WEAK PROTECTED 12 _ZN3art6dex_ir23IndexedCo
188:   OBJECT WEAK PROTECTED 21 _ZTVN3art6dex_ir23Indexed
189:   OBJECT WEAK PROTECTED 9 _ZN3art9DexWriter21kDataS
190:   FUNC WEAK PROTECTED 12 _ZNK3art9DexWriter9Contai
191:   FUNC GLOBAL PROTECTED 12 _ZNK3art16CompactDexWrite
192:   FUNC WEAK PROTECTED 12 _ZNK3art11Instruction5VRe
193:   FUNC WEAK PROTECTED 12 _ZN3art6dex_ir13Collectio
194:   FUNC WEAK PROTECTED 12 _ZN3art6dex_ir16Collectio
195:   FUNC WEAK PROTECTED 12 _ZN3art6dex_ir23IndexedCo
196:   OBJECT WEAK PROTECTED 21 _ZTVN3art6dex_ir16Collect
197:   FUNC GLOBAL PROTECTED 12 _ZN3art12MapItemQueue13Ad
198:   FUNC WEAK PROTECTED 12 _ZNSt3__112__hash_tableIP
199:   FUNC WEAK PROTECTED 12 _ZN3art6dex_ir13Collectio
200:   FUNC WEAK PROTECTED 12 _ZN3art6dex_ir23IndexedCo
201:   FUNC GLOBAL PROTECTED 12 _ZN3art9DexWriter19WriteD
202:   FUNC GLOBAL PROTECTED 12 _ZN3art9DexLayout20DumpCl
203:   OBJECT WEAK PROTECTED 21 _ZTVN3art6dex_ir16Collect
204:   FUNC WEAK PROTECTED 12 _ZN3art12DexContainer13Ve
205:   FUNC GLOBAL PROTECTED 12 _ZN3art9DexWriter13Proces
206:   FUNC WEAK PROTECTED 12 _ZNK3art6dex_ir13Collecti
207:   FUNC WEAK PROTECTED 12 _ZNSt3__110__function6__f
208:   FUNC WEAK PROTECTED 12 _ZN3art6dex_ir16Collectio
209:   FUNC WEAK PROTECTED 12 _ZN3art6dex_ir16Collectio
210:   FUNC WEAK PROTECTED 12 _ZN3art6dex_ir23IndexedCo
211:   FUNC WEAK PROTECTED 12 _ZN3art6dex_ir6HeaderD2Ev
212:   OBJECT WEAK PROTECTED 21 _ZTVN3art6dex_ir8CodeItem
213:   FUNC WEAK PROTECTED 12 _ZNSt3__16__treeINS_12__v
214:   FUNC WEAK PROTECTED 12 _ZN3art6dex_ir13Collectio
215:   FUNC WEAK PROTECTED 12 _ZN3art6dex_ir13Collectio
216:   FUNC GLOBAL PROTECTED 12 _ZN3art9DexWriter13WriteC
217:   FUNC WEAK PROTECTED 12 _ZN3art9DexWriterD0Ev
218:   FUNC GLOBAL PROTECTED 12 _ZN3art9DexWriter13WriteF
219:   OBJECT GLOBAL PROTECTED 21 _ZTVN3art16CompactDexWrit
220:   FUNC WEAK PROTECTED 12 _ZN3art6dex_ir17Annotatio
221:   OBJECT WEAK PROTECTED 21 _ZTVN3art9DexWriter9Conta
222:   OBJECT WEAK PROTECTED 21 _ZTVN3art6dex_ir13DebugIn
223:   OBJECT WEAK PROTECTED 21 _ZTVN3art6dex_ir16Collect
224:   FUNC GLOBAL PROTECTED 12 _ZN3art11VerifyTriesEPNSt
225:   FUNC WEAK PROTECTED 12 _ZNK3art6dex_ir16Collecti
226:   OBJECT WEAK PROTECTED 21 _ZTVN3art6dex_ir10MethodI
227:   FUNC WEAK PROTECTED 12 _ZN3art16CompactDexWriter
228:   FUNC GLOBAL PROTECTED 12 _ZN3art9DexLayout10DumpMe
229:   FUNC WEAK PROTECTED 12 _ZN3art6dex_ir7ProtoIdD0E
230:   FUNC WEAK PROTECTED 12 _ZNSt3__16vectorINS_10uni
231:   FUNC GLOBAL PROTECTED 12 _ZN3art9DexWriter18WriteD
232:   FUNC WEAK PROTECTED 12 _ZN3art6dex_ir9ClassDataD
233:   OBJECT WEAK PROTECTED 21 _ZTVN3art6dex_ir16Collect
234:   OBJECT WEAK PROTECTED 21 _ZTVN3art6dex_ir6TypeIdE
235:   FUNC GLOBAL PROTECTED 12 _ZN3art9DexWriter17WriteE
236:   FUNC GLOBAL PROTECTED 12 _ZNK3art9DexWriter18Creat
237:   FUNC GLOBAL PROTECTED 12 _ZN3art9DexWriter14WriteS
238:   FUNC WEAK PROTECTED 12 _ZNSt3__112__hash_tableIN
239:   FUNC GLOBAL PROTECTED 12 _ZN3art8VerifyIdEPNS_6dex
240:   FUNC GLOBAL PROTECTED 12 _ZN3art9DexWriter18WriteE
241:   FUNC WEAK PROTECTED 12 _ZN3art6dex_ir13Collectio
242:   FUNC WEAK PROTECTED 12 _ZN3art9DexWriter9Contain
243:   FUNC WEAK PROTECTED 12 _ZNK3art6dex_ir16Collecti
244:   FUNC GLOBAL PROTECTED 12 _ZN3art26VerifyAnnotation
245:   FUNC GLOBAL PROTECTED 12 _ZN3art8VerifyIdEPNS_6dex
246:   FUNC WEAK PROTECTED 12 _ZN3art6dex_ir16Collectio
247:   FUNC WEAK PROTECTED 12 _ZN3art6dex_ir16Collectio
248:   FUNC WEAK PROTECTED 12 _ZN3art6dex_ir16MethodHan
249:   FUNC WEAK PROTECTED 12 _ZNSt3__16vectorINS_10uni
250:   FUNC GLOBAL PROTECTED 12 _ZN3art15VerifyClassDataE
251:   FUNC WEAK PROTECTED 12 _ZN3art6Dumper11DumpField
252:   FUNC GLOBAL PROTECTED 12 _ZN3art6dex_ir11BuilderMa
253:   FUNC WEAK PROTECTED 12 _ZN3art6dex_ir16Collectio
254:   FUNC WEAK PROTECTED 12 _ZN3art6dex_ir24Annotatio
255:   FUNC WEAK PROTECTED 12 _ZNSt3__16vectorINS_10uni
256:   OBJECT WEAK PROTECTED 21 _ZTVN3art6dex_ir16Collect
257:   FUNC GLOBAL PROTECTED 12 _ZN3art9DexWriter23WriteE
258:   FUNC GLOBAL PROTECTED 12 _ZN3art9DexLayout21DumpEn
259:   FUNC WEAK PROTECTED 12 _ZN3art6dex_ir16Collectio
260:   FUNC GLOBAL PROTECTED 12 _ZN3art16CompactDexWriter
261:   FUNC GLOBAL PROTECTED 12 _ZN3art9DexLayout16DumpEn
262:   FUNC WEAK PROTECTED 12 _ZN3art6dex_ir18Hiddenapi
263:   FUNC WEAK PROTECTED 12 _ZNSt3__16vectorIN3art6de
264:   FUNC GLOBAL PROTECTED 12 _ZN3art9DexLayout10DumpIF
265:   FUNC WEAK PROTECTED 12 _ZN3art6dex_ir10StringDat
266:   FUNC WEAK PROTECTED 12 _ZN3art6dex_ir20Annotatio
267:   FUNC WEAK PROTECTED 12 _ZNK3art6dex_ir16Collecti
268:   FUNC GLOBAL PROTECTED 12 _ZN3art6dex_ir11BuilderMa
269:   FUNC WEAK PROTECTED 12 _ZN3art6dex_ir13Collectio
270:   FUNC WEAK PROTECTED 12 _ZN3art6dex_ir16Collectio
271:   FUNC WEAK PROTECTED 12 _ZN3art9VerifyIdsINS_6dex
272:   FUNC GLOBAL PROTECTED 12 _ZN3art9DexLayout15Layout
273:   FUNC WEAK PROTECTED 12 _ZNSt3__16__treeINS_12__v
274:   OBJECT WEAK PROTECTED 21 _ZTVN3art6dex_ir13Collect
275:   OBJECT WEAK DEFAULT 21 _ZTVNSt3__115basic_string
276:   FUNC GLOBAL PROTECTED 12 _ZN3art6dex_ir11BuilderMa
277:   FUNC GLOBAL PROTECTED 12 _ZN3art6dex_ir11BuilderMa
278:   FUNC WEAK PROTECTED 12 _ZN3art6dex_ir13Collectio
279:   FUNC WEAK PROTECTED 12 _ZNSt3__118basic_stringst
280:   FUNC WEAK PROTECTED 12 _ZNK3art6dex_ir13Collecti
281:   FUNC GLOBAL PROTECTED 12 _ZN3art8VerifyIdEPNS_6dex
282:   FUNC GLOBAL PROTECTED 12 _ZN3art16CompactDexWriter
283:   FUNC WEAK PROTECTED 12 _ZN3art6dex_ir16Collectio
284:   FUNC WEAK PROTECTED 12 _ZNKSt3__112__hash_tableI
285:   FUNC GLOBAL PROTECTED 12 _ZN3art16CompactDexWriter
286:   FUNC WEAK PROTECTED 12 _ZN3art9DexWriterD2Ev
287:   FUNC GLOBAL PROTECTED 12 _ZN3art6dex_ir11BuilderMa
288:   FUNC WEAK PROTECTED 12 _ZN3art6dex_ir13Collectio
289:   FUNC WEAK PROTECTED 12 _ZNK3art6dex_ir16Collecti
290:   FUNC WEAK PROTECTED 12 _ZNK3art6dex_ir16Collecti
291:   FUNC WEAK PROTECTED 12 _ZNK3art7DexFile13GetCall
292:   FUNC WEAK PROTECTED 12 _ZNSt3__16__treeINS_12__v
293:   FUNC WEAK PROTECTED 12 _ZNSt3__16vectorINS_10uni
294:   FUNC WEAK PROTECTED 12 _ZN3art6dex_ir17Annotatio
295:   FUNC WEAK PROTECTED 12 _ZNK3art6dex_ir16Collecti
296:   OBJECT WEAK PROTECTED 21 _ZTVN3art6dex_ir13Collect
297:   FUNC GLOBAL PROTECTED 12 _ZN3art9DexWriter18WriteE
298:   FUNC GLOBAL PROTECTED 12 _ZNK3art16CompactDexWrite
299:   FUNC WEAK PROTECTED 12 _ZN3art6dex_ir13Collectio
300:   FUNC WEAK PROTECTED 12 _ZN3art6dex_ir16Collectio
301:   FUNC WEAK PROTECTED 12 _ZN3art6dex_ir16Collectio
302:   FUNC WEAK PROTECTED 12 _ZN3art6dex_ir16Collectio
303:   OBJECT WEAK PROTECTED 21 _ZTVN3art6dex_ir13Collect
304:   OBJECT WEAK PROTECTED 21 _ZTVN3art6dex_ir23Indexed
305:   OBJECT WEAK PROTECTED 21 _ZTVN3art6dex_ir23Indexed
306:   FUNC GLOBAL PROTECTED 12 _ZN3art16CompactDexWriter
307:   FUNC WEAK PROTECTED 12 _ZTv0_n24_NSt3__118basic_
308:   FUNC WEAK PROTECTED 12 _ZN3art6dex_ir13Collectio
309:   FUNC WEAK PROTECTED 12 _ZNK3art6dex_ir16Collecti
310:   FUNC WEAK PROTECTED 12 _ZNSt3__16__treeINS_12__v
311:   OBJECT WEAK PROTECTED 21 _ZTVN3art6dex_ir8StringId
312:   FUNC WEAK PROTECTED 12 _ZN3art6dex_ir23IndexedCo
313:   FUNC WEAK PROTECTED 12 _ZN3art6dex_ir9ClassDataD
314:   OBJECT WEAK PROTECTED 21 _ZTVN3art6dex_ir16Collect
315:   OBJECT WEAK PROTECTED 21 _ZTVN3art6dex_ir23Indexed
316:   FUNC GLOBAL PROTECTED 12 _ZN3art6dex_ir11BuilderMa
317:   FUNC WEAK PROTECTED 12 _ZN3art6dex_ir16Collectio
318:   FUNC WEAK PROTECTED 12 _ZNSt3__16vectorIhNS_9all
319:   FUNC GLOBAL PROTECTED 12 _ZN3art9DexLayout14DumpFi
320:   FUNC WEAK PROTECTED 12 _ZNSt3__16vectorIN3art6de
321:   FUNC WEAK PROTECTED 12 _ZN3art13ClassAccessor5Fi
322:   FUNC WEAK PROTECTED 12 _ZN3art6dex_ir16Collectio
323:   FUNC WEAK PROTECTED 12 _ZN3art9DexWriter9Contain
324:   FUNC WEAK PROTECTED 12 _ZN3art6dex_ir13Collectio
325:   FUNC WEAK PROTECTED 12 _ZN3art6dex_ir23IndexedCo
326:   OBJECT WEAK PROTECTED 21 _ZTVN3art6dex_ir23Indexed
327:   FUNC GLOBAL PROTECTED 12 _ZN3art16CompactDexWriter
328:   FUNC WEAK PROTECTED 12 _ZN3art6dex_ir16Collectio
329:   FUNC WEAK PROTECTED 12 _ZN3art6dex_ir16Collectio
330:   FUNC WEAK PROTECTED 12 _ZNK3art6dex_ir13Collecti
331:   FUNC WEAK PROTECTED 12 _ZNK3art6dex_ir16Collecti
332:   FUNC WEAK PROTECTED 12 _ZN3art6Dumper16DumpAddre
333:   FUNC GLOBAL PROTECTED 12 _ZN3art9DexLayout11Proces
334:   FUNC WEAK PROTECTED 12 _ZN3art6dex_ir24Annotatio
335:   FUNC GLOBAL PROTECTED 12 _ZN3art9DexLayout12DumpCl
336:   FUNC GLOBAL PROTECTED 12 _ZN3art9DexLayout21DumpAn
337:   FUNC WEAK PROTECTED 12 _ZNSt3__115basic_stringbu
338:   FUNC WEAK PROTECTED 12 _ZN3art6dex_ir16Collectio
339:   FUNC WEAK PROTECTED 12 _ZN3art6dex_ir18Hiddenapi
340:   FUNC WEAK PROTECTED 12 _ZN3art6dex_ir23IndexedCo
341:   FUNC WEAK PROTECTED 12 _ZN3art6dex_ir23IndexedCo
342:   FUNC WEAK PROTECTED 12 _ZNSt3__16vectorINS_10uni
343:   OBJECT WEAK PROTECTED 21 _ZTVN3art6dex_ir13Collect
344:   OBJECT WEAK PROTECTED 21 _ZTVN3art6dex_ir23Indexed
345:   FUNC GLOBAL PROTECTED 12 _ZN3art8VerifyIdEPNS_6dex
346:   FUNC WEAK PROTECTED 12 _ZNSt3__16__treeIPN3art6d
347:   FUNC GLOBAL PROTECTED 12 _ZN3art6dex_ir24GetSorted
348:   FUNC WEAK PROTECTED 12 _ZN3art6dex_ir10StringDat
349:   FUNC WEAK PROTECTED 12 _ZN3art6dex_ir20Annotatio
350:   FUNC WEAK PROTECTED 12 _ZN3art6dex_ir23IndexedCo
351:   FUNC WEAK PROTECTED 12 _ZN3art6dex_ir9FieldItemD
352:   FUNC WEAK PROTECTED 12 _ZN3art6dex_ir10MethodIte
353:   FUNC WEAK PROTECTED 12 _ZN3art6dex_ir13Collectio
354:   FUNC WEAK PROTECTED 12 _ZNK3art6dex_ir13Collecti
355:   OBJECT WEAK PROTECTED 21 _ZTVN3art6dex_ir13Collect
356:   FUNC GLOBAL PROTECTED 12 _ZN3art9DexWriter16WriteS
357:   FUNC GLOBAL PROTECTED 12 _ZN3art6dex_ir11BuilderMa
358:   FUNC GLOBAL PROTECTED 12 _ZN3art6dex_ir11BuilderMa
359:   FUNC GLOBAL PROTECTED 12 _ZN3art18VisualizeDexLayo
360:   FUNC WEAK PROTECTED 12 _ZN3art13ClassAccessor6Me
361:   FUNC WEAK PROTECTED 12 _ZN3art6dex_ir13Collectio
362:   FUNC WEAK PROTECTED 12 _ZN3art6dex_ir16Collectio
363:   FUNC WEAK PROTECTED 12 _ZN3art6dex_ir23IndexedCo
364:   OBJECT WEAK PROTECTED 21 _ZTVN3art12DexContainer13
365:   OBJECT WEAK DEFAULT 21 _ZTCNSt3__118basic_string
366:   FUNC WEAK PROTECTED 12 _ZN3art6dex_ir23IndexedCo
367:   OBJECT WEAK PROTECTED 21 _ZTVN3art6dex_ir7TryItemE
368:   FUNC WEAK PROTECTED 12 _ZN3art6dex_ir16Collectio
369:   FUNC WEAK PROTECTED 12 _ZN3art6dex_ir23IndexedCo
370:   FUNC WEAK PROTECTED 12 _ZN3art12DexContainer13Ve
371:   FUNC GLOBAL PROTECTED 12 _ZN3art6dex_ir11BuilderMa
372:   FUNC WEAK PROTECTED 12 _ZNSt3__16vectorINS_10uni
373:   OBJECT WEAK PROTECTED 21 _ZTVN3art6dex_ir23Indexed
374:   FUNC WEAK PROTECTED 12 _ZN3art6dex_ir13Collectio
375:   FUNC WEAK PROTECTED 12 _ZN3art6dex_ir16Collectio
376:   FUNC WEAK PROTECTED 12 _ZN3art6dex_ir16Collectio
377:   OBJECT WEAK PROTECTED 21 _ZTVN3art6dex_ir8TypeList
378:   FUNC WEAK PROTECTED 12 _ZNSt3__115basic_stringbu
379:   FUNC GLOBAL PROTECTED 12 _ZN3art6dex_ir11BuilderMa
380:   FUNC WEAK PROTECTED 12 _ZNK3art6dex_ir16Collecti
381:   FUNC GLOBAL PROTECTED 12 _ZN3art23VerifyMethodAnno
382:   FUNC WEAK PROTECTED 12 _ZN3art6dex_ir13Collectio
383:   FUNC WEAK PROTECTED 12 _ZN3art12DexContainer13Ve
384:   FUNC WEAK PROTECTED 12 _ZN3art16CompactDexWriter
385:   FUNC WEAK PROTECTED 12 _ZNSt3__112__hash_tableIN
386:   FUNC WEAK PROTECTED 12 _ZNSt3__16__treeINS_12__v
387:   FUNC WEAK PROTECTED 12 _ZNSt3__16vectorINS_10uni
388:   FUNC GLOBAL PROTECTED 12 _ZN3art23VerifyAnnotation
389:   FUNC WEAK PROTECTED 12 _ZNSt3__110__function6__f
390:   FUNC WEAK PROTECTED 12 _ZN3art6dex_ir16Collectio
391:   FUNC WEAK PROTECTED 12 _ZNK3art7DexFile19GetInde
392:   FUNC WEAK PROTECTED 12 _ZNSt3__16__treeINS_12__v
393:   OBJECT WEAK PROTECTED 21 _ZTVN3art6dex_ir23Indexed
394:   FUNC GLOBAL PROTECTED 12 _ZN3art6dex_ir11BuilderMa
395:   FUNC WEAK PROTECTED 12 _ZN3art6dex_ir16Collectio
396:   OBJECT WEAK PROTECTED 21 _ZTVN3art6dex_ir13Collect
397:   OBJECT WEAK PROTECTED 21 _ZTVN3art6dex_ir17Annotat
398:   FUNC GLOBAL PROTECTED 12 _ZN3art14VerifyClassDefEP
399:   FUNC GLOBAL PROTECTED 12 _ZN3art15VerifyDebugInfoE
400:   FUNC GLOBAL PROTECTED 12 _ZN3art16CompactDexWriter
401:   FUNC WEAK PROTECTED 12 _ZN3art6dex_ir13Collectio
402:   FUNC WEAK PROTECTED 12 _ZNK3art6dex_ir16Collecti
403:   FUNC WEAK PROTECTED 12 _ZNSt3__16__treeINS_12__v
404:   FUNC GLOBAL PROTECTED 12 _ZN3art14VerifyHandlersEP
405:   FUNC WEAK PROTECTED 12 _ZN3art6dex_ir16Collectio
406:   FUNC WEAK PROTECTED 12 _ZN3art6dex_ir16Collectio
407:   OBJECT WEAK PROTECTED 21 _ZTVN3art6dex_ir6HeaderE
408:   FUNC GLOBAL DEFAULT 14 _fini
409:   FUNC GLOBAL PROTECTED 12 _ZN3art9DexWriter24Genera
410:   FUNC WEAK PROTECTED 12 _ZNSt3__112__hash_tableIP
411:   FUNC WEAK PROTECTED 12 _ZThn16_NSt3__118basic_st
412:   FUNC WEAK PROTECTED 12 _ZN3art6dex_ir13DebugInfo
413:   FUNC WEAK PROTECTED 12 _ZNK3art6dex_ir16Collecti
414:   FUNC WEAK PROTECTED 12 _ZNSt3__112__hash_tableIN
415:   FUNC WEAK PROTECTED 12 _ZNK3art11Instruction5VRe
416:   FUNC WEAK PROTECTED 12 _ZNK3art6dex_ir16Collecti
417:   FUNC WEAK PROTECTED 12 _ZNSt3__16vectorINS_10uni
418:   FUNC WEAK PROTECTED 12 _ZNSt3__16vectorINS_10uni
419:   OBJECT WEAK PROTECTED 21 _ZTVN3art6dex_ir10CallSit
420:   OBJECT WEAK PROTECTED 21 _ZTVN3art6dex_ir9FieldIte
421:   FUNC WEAK PROTECTED 12 _ZNSt3__115basic_stringbu
422:   FUNC WEAK PROTECTED 12 _ZN3art6dex_ir16Collectio
423:   FUNC WEAK PROTECTED 12 _ZNK3art6dex_ir16Collecti
424:   FUNC GLOBAL PROTECTED 12 _ZN3art9DexWriterC1EPNS_9
425:   FUNC GLOBAL PROTECTED 12 _ZN3art16CompactDexWriter
426:   FUNC GLOBAL PROTECTED 12 _ZN3art9DexLayout14Proces
427:   FUNC WEAK PROTECTED 12 _ZN3art6dex_ir16Collectio
428:   FUNC GLOBAL PROTECTED 12 _ZN3art13VerifyHandlerEPK
429:   FUNC GLOBAL PROTECTED 12 _ZN3art16CompactDexWriter
430:   FUNC GLOBAL PROTECTED 12 _ZN3art6dex_ir11BuilderMa
431:   FUNC WEAK PROTECTED 12 _ZN3art6dex_ir4ItemD0Ev
432:   FUNC GLOBAL PROTECTED 12 _ZN3art9DexWriter17WriteE
433:   FUNC GLOBAL PROTECTED 12 _ZN3art9DexLayout27Layout
434:   OBJECT WEAK PROTECTED 21 _ZTVN3art6dex_ir23Indexed
435:   FUNC WEAK PROTECTED 12 _ZNSt3__112__hash_tableIN
436:   FUNC WEAK PROTECTED 12 _ZN3art6dex_ir16Collectio
437:   FUNC WEAK PROTECTED 12 _ZNSt3__16__treeINS_12__v
438:   OBJECT WEAK PROTECTED 21 _ZTVN3art6dex_ir10StringD
439:   FUNC GLOBAL PROTECTED 12 _ZN3art9DexLayout13Output
440:   FUNC WEAK PROTECTED 12 _ZNK3art6dex_ir13Collecti
441:   FUNC WEAK PROTECTED 12 _ZNSt3__16vectorINS_10uni
442:   FUNC GLOBAL PROTECTED 12 _ZN3art9DexLayout11DumpCa
443:   FUNC WEAK PROTECTED 12 _ZNSt3__16vectorINS_10uni
444:   FUNC WEAK PROTECTED 12 _ZN3art6Dumper18OpenAndPr
445:   FUNC GLOBAL PROTECTED 12 _ZN3art9DexWriter23WriteH
446:   FUNC GLOBAL PROTECTED 12 _ZN3art6dex_ir11BuilderMa
447:   FUNC WEAK PROTECTED 12 _ZN3art6dex_ir16Collectio
448:   FUNC WEAK PROTECTED 12 _ZN3art6dex_ir8CodeItemD0
449:   OBJECT WEAK PROTECTED 21 _ZTVN3art6dex_ir23Indexed
450:   OBJECT WEAK PROTECTED 21 _ZTVN3art6dex_ir8MethodId
451:   FUNC GLOBAL PROTECTED 12 _ZN3art6dex_ir11BuilderMa
452:   FUNC WEAK PROTECTED 12 _ZN3art6dex_ir23IndexedCo
453:   FUNC WEAK PROTECTED 12 _ZN3art9VerifyIdsINS_6dex
454:   FUNC GLOBAL PROTECTED 12 _ZNK3art16CompactDexWrite
455:   FUNC WEAK PROTECTED 12 _ZNSt3__115basic_stringbu
456:   FUNC WEAK PROTECTED 12 _ZN3art13ClassAccessorC2E
457:   FUNC WEAK PROTECTED 12 _ZNSt3__16vectorINS_10uni
458:   FUNC WEAK PROTECTED 12 _ZNSt3__112__hash_tableIN
459:   FUNC GLOBAL PROTECTED 12 _ZN3art6dex_ir11BuilderMa
460:   FUNC WEAK PROTECTED 12 _ZN3art6dex_ir13Collectio
461:   OBJECT WEAK PROTECTED 21 _ZTVN3art6dex_ir16Encoded
462:   OBJECT WEAK PROTECTED 21 _ZTVN3art6dex_ir18Hiddena
463:   FUNC GLOBAL PROTECTED 12 _ZN3art22VerifyFieldAnnot
464:   FUNC WEAK PROTECTED 12 _ZN3art16CompactDexWriter
465:   FUNC GLOBAL PROTECTED 12 _ZN3art9DexWriter14WriteT
466:   FUNC WEAK PROTECTED 12 _ZNK3art16CompactDexWrite
467:   FUNC GLOBAL PROTECTED 12 _ZN3art9DexLayout13DumpBy
468:   FUNC WEAK PROTECTED 12 _ZNSt3__115basic_stringbu
469:   FUNC WEAK PROTECTED 12 _ZNSt3__16vectorINS_10uni
470:   FUNC WEAK PROTECTED 12 _ZN3art6dex_ir14Annotatio
471:   FUNC WEAK PROTECTED 12 _ZN3art6dex_ir7TryItemD0E
472:   FUNC WEAK PROTECTED 12 _ZNK3art7DexFile15GetMeth
473:   FUNC GLOBAL PROTECTED 12 _ZN3art9DexWriter18WriteM
474:   FUNC WEAK PROTECTED 12 _ZNSt3__16__treeINS_12__v
475:   OBJECT WEAK PROTECTED 21 _ZTVN3art6dex_ir16Collect
476:   FUNC GLOBAL PROTECTED 12 _ZN3art9DexWriter19WriteE
477:   FUNC WEAK PROTECTED 12 _ZN3art6dex_ir13Collectio
478:   FUNC WEAK PROTECTED 12 _ZN3art6dex_ir23IndexedCo
479:   OBJECT WEAK PROTECTED 21 _ZTVN3art6dex_ir7FieldIdE
480:   FUNC GLOBAL PROTECTED 12 _ZN3art16CompactDexWriter
481:   FUNC WEAK PROTECTED 12 _ZN3art6Dumper12DumpMetho
482:   FUNC WEAK PROTECTED 12 _ZN3art6dex_ir13DebugInfo
483:   FUNC WEAK PROTECTED 12 _ZN3art6Dumper14DumpMetho
484:   FUNC GLOBAL PROTECTED 12 _ZN3art9DexWriter13WriteM
485:   FUNC GLOBAL PROTECTED 12 _ZN3art16CompactDexWriter
486:   FUNC WEAK PROTECTED 12 _ZN3art6dex_ir16Collectio
487:   FUNC WEAK PROTECTED 12 _ZN3art6dex_ir23IndexedCo
488:   FUNC WEAK PROTECTED 12 _ZNK3art6dex_ir13Collecti
489:   OBJECT WEAK PROTECTED 21 _ZTVN3art6dex_ir16Collect
490:   FUNC WEAK PROTECTED 12 _ZNSt3__124__put_characte
491:   FUNC GLOBAL PROTECTED 12 _ZN3art9DexLayout16Layout
492:   FUNC GLOBAL PROTECTED 12 _ZN3art6dex_ir11BuilderMa
493:   FUNC WEAK PROTECTED 12 _ZN3art6dex_ir16Collectio
494:   FUNC WEAK PROTECTED 12 _ZNKSt3__16__treeINS_12ba
495:   FUNC GLOBAL PROTECTED 12 _ZN3art8VerifyIdEPNS_6dex
496:   FUNC WEAK PROTECTED 12 _ZN3art6dex_ir16EncodedAr
497:   FUNC WEAK PROTECTED 12 _ZNK3art6dex_ir16Collecti
498:   FUNC GLOBAL PROTECTED 12 _ZN3art13VerifyMethodsEPN
499:   FUNC WEAK PROTECTED 12 _ZNSt3__118basic_stringst
500:   FUNC WEAK PROTECTED 12 _ZN3art6dex_ir16Collectio
501:   FUNC WEAK PROTECTED 12 _ZN3art6dex_ir4ItemD2Ev
502:   FUNC WEAK PROTECTED 12 _ZNSt3__16__treeINS_12__v
503:   FUNC WEAK PROTECTED 12 _ZNSt3__16vectorINS_10uni
504:   FUNC WEAK PROTECTED 12 _ZNSt3__16vectorINS_10uni
505:   OBJECT GLOBAL PROTECTED 21 _ZTVN3art9DexWriterE
506:   FUNC WEAK PROTECTED 12 _ZN3art6dex_ir13Collectio
507:   FUNC WEAK PROTECTED 12 _ZN3art6dex_ir13Collectio
508:   FUNC WEAK PROTECTED 12 _ZNSt3__16vectorINS_10uni
509:   OBJECT WEAK PROTECTED 21 _ZTVN3art6dex_ir16Collect
510:   OBJECT WEAK PROTECTED 21 _ZTVN3art6dex_ir23Indexed
511:   FUNC GLOBAL PROTECTED 12 _ZN3art19VerifyOutputDexF
512:   FUNC WEAK PROTECTED 12 _ZN3art6dex_ir10CallSiteI
513:   FUNC WEAK PROTECTED 12 _ZN3art6dex_ir16Collectio
514:   FUNC WEAK PROTECTED 12 _ZNK3art6dex_ir16Collecti
515:   FUNC WEAK PROTECTED 12 _ZN3art6dex_ir16Collectio
516:   FUNC WEAK PROTECTED 12 _ZNK3art6dex_ir13Collecti
517:   FUNC WEAK PROTECTED 12 _ZNSt3__16vectorINS_10uni
518:   OBJECT WEAK PROTECTED 21 _ZTVN3art6dex_ir16Collect
519:   FUNC GLOBAL PROTECTED 12 _ZN3art24ShowDexSectionSt
520:   FUNC GLOBAL PROTECTED 12 _ZN3art9DexLayout15DumpIn
521:   FUNC GLOBAL PROTECTED 12 _ZN3art6dex_ir11BuilderMa
522:   FUNC WEAK PROTECTED 12 _ZN3art6dex_ir8CodeItemD2
523:   FUNC WEAK PROTECTED 12 _ZNSt3__16vectorINS_10uni
524:   FUNC WEAK PROTECTED 12 _ZTv0_n24_NSt3__118basic_
525:   FUNC WEAK PROTECTED 12 _ZN3art6dex_ir13Collectio
526:   FUNC WEAK PROTECTED 12 _ZN3art6dex_ir16Collectio
527:   FUNC GLOBAL PROTECTED 12 _ZN3art26VerifyAnnotation
528:   FUNC GLOBAL PROTECTED 12 _ZN3art9DexWriter5WriteEP
529:   FUNC GLOBAL PROTECTED 12 _ZN3art6dex_ir11BuilderMa
530:   OBJECT WEAK PROTECTED 21 _ZTVN3art6dex_ir23Indexed
531:   FUNC WEAK PROTECTED 12 _ZNSt3__115basic_stringbu
532:   FUNC WEAK PROTECTED 12 _ZN3art6dex_ir8TypeListD0
533:   FUNC GLOBAL PROTECTED 12 _ZN3art15VerifyClassDefsE
534:   FUNC GLOBAL PROTECTED 12 _ZN3art16CompactDexWriter
535:   FUNC GLOBAL PROTECTED 12 _ZN3art6dex_ir11BuilderMa
536:   FUNC GLOBAL PROTECTED 12 _ZN3art6dex_ir11BuilderMa
537:   OBJECT WEAK PROTECTED 21 _ZTVN3art6dex_ir16Collect
538:   OBJECT WEAK PROTECTED 21 _ZTVN3art6dex_ir16Collect
539:   FUNC GLOBAL PROTECTED 12 _ZN3art14VerifyTypeListEP
540:   FUNC GLOBAL PROTECTED 12 _ZN3art16CompactDexWriter
541:   FUNC GLOBAL PROTECTED 12 _ZN3art9DexWriter16WriteC
542:   FUNC WEAK PROTECTED 12 _ZN3art6dex_ir14Annotatio
543:   FUNC WEAK PROTECTED 12 _ZN3art6dex_ir16Collectio
544:   FUNC WEAK PROTECTED 12 _ZN3art6dex_ir8ClassDefD0
545:   OBJECT WEAK PROTECTED 21 _ZTVN3art6dex_ir13Collect
546:   FUNC GLOBAL PROTECTED 12 _ZN3art9DexWriter32WriteC
547:   FUNC WEAK PROTECTED 12 _ZN3art6dex_ir16Collectio
548:   FUNC WEAK PROTECTED 12 _ZNSt3__16__treeINS_12__v
549:   OBJECT WEAK PROTECTED 21 _ZTVN3art6dex_ir23Indexed
550:   OBJECT WEAK PROTECTED 21 _ZTVN3art6dex_ir9ClassDat
551:   FUNC GLOBAL PROTECTED 12 _ZN3art9DexWriter14WriteC
552:   OBJECT WEAK PROTECTED 21 _ZTVN3art6dex_ir23Indexed
553:   FUNC GLOBAL PROTECTED 12 _ZN3art16CompactDexWriter
554:   FUNC WEAK PROTECTED 12 _ZNKSt3__115basic_stringb
555:   FUNC WEAK PROTECTED 12 _ZN3art6dex_ir16Collectio
556:   FUNC WEAK PROTECTED 12 _ZN3art12DexContainer13Ve
557:   OBJECT WEAK PROTECTED 21 _ZTVNSt3__110__function6_
558:   FUNC WEAK PROTECTED 12 _ZN3art6dex_ir13Collectio
559:   FUNC WEAK PROTECTED 12 _ZN3art6dex_ir16Collectio
560:   FUNC WEAK PROTECTED 12 _ZN3art6dex_ir6TypeIdD0Ev
561:   OBJECT WEAK PROTECTED 21 _ZTVN3art6dex_ir16Collect
562:   OBJECT WEAK DEFAULT 21 _ZTCNSt3__118basic_string
563:   FUNC WEAK PROTECTED 12 _ZN3art6dex_ir16Collectio
564:   FUNC WEAK PROTECTED 12 _ZNK3art6dex_ir16Collecti
565:   OBJECT WEAK PROTECTED 21 _ZTVN3art6dex_ir16Collect
566:   FUNC GLOBAL PROTECTED 12 _ZN3art9DexWriter15WriteC
567:   FUNC WEAK PROTECTED 12 _ZNSt3__110__function6__f
568:   FUNC WEAK PROTECTED 12 _ZNSt3__16vectorINS_10uni
569:   OBJECT WEAK PROTECTED 21 _ZTVN3art6dex_ir16Collect
570:   OBJECT WEAK PROTECTED 21 _ZTVN3art6dex_ir23Indexed
571:   FUNC GLOBAL PROTECTED 12 _ZN3art9DexWriter16WriteA
572:   FUNC GLOBAL PROTECTED 12 _ZN3art9DexLayout10DumpSF
573:   OBJECT WEAK DEFAULT 21 _ZTVNSt3__118basic_string
574:   FUNC WEAK PROTECTED 12 _ZN3art6dex_ir16Collectio
575:   FUNC WEAK PROTECTED 12 _ZN3art6dex_ir16EncodedAr
576:   OBJECT WEAK PROTECTED 21 _ZTVN3art6dex_ir13Collect
577:   FUNC GLOBAL PROTECTED 12 _ZN3art9DexLayout8DumpCod
578:   FUNC WEAK PROTECTED 12 _ZNKSt3__110__function6__
579:   FUNC WEAK PROTECTED 12 _ZN3art6dex_ir13Collectio
580:   FUNC WEAK PROTECTED 12 _ZN3art6dex_ir16Collectio
581:   OBJECT WEAK PROTECTED 21 _ZTVN3art6dex_ir24Annotat
582:   FUNC GLOBAL PROTECTED 12 _ZN3art12VerifyFieldsEPNS
583:   FUNC GLOBAL PROTECTED 12 _ZN3art9DexWriter11WriteH
584:   FUNC GLOBAL PROTECTED 12 _ZN3art9DexWriter19WriteA
585:   FUNC WEAK PROTECTED 12 _ZNSt3__127__tree_balance
586:   OBJECT WEAK PROTECTED 21 _ZTVN3art16CompactDexWrit
587:   FUNC WEAK PROTECTED 12 _ZN3art6dex_ir13Collectio
588:   FUNC WEAK PROTECTED 12 _ZNSt3__16vectorINS_10uni
589:   OBJECT WEAK PROTECTED 21 _ZTVN3art6dex_ir7ProtoIdE
590:   FUNC WEAK PROTECTED 12 _ZN3art9VerifyIdsINS_6dex
591:   FUNC WEAK PROTECTED 12 _ZNSt3__112__hash_tableIP
592:   FUNC WEAK PROTECTED 12 _ZN3art6dex_ir16Collectio
593:   FUNC WEAK PROTECTED 12 _ZNSt3__16vectorINS_10uni
594:   OBJECT WEAK PROTECTED 21 _ZTVN3art6dex_ir13Collect
595:   FUNC GLOBAL PROTECTED 12 _ZN3art9DexWriter22WriteE
596:   OBJECT WEAK DEFAULT 21 _ZTCNSt3__118basic_string
597:   FUNC GLOBAL PROTECTED 12 _ZN3art6dex_ir11BuilderMa
598:   FUNC WEAK PROTECTED 12 _ZN3art6dex_ir7FieldIdD0E
599:   FUNC WEAK PROTECTED 12 _ZNK3art6dex_ir13Collecti
600:   FUNC GLOBAL PROTECTED 12 _ZNK3art9DexWriter13GetHe
601:   FUNC GLOBAL PROTECTED 12 _ZN3art9DexWriter22WriteA
602:   FUNC WEAK PROTECTED 12 _ZNSt3__16__treeINS_12__v
603:   FUNC WEAK PROTECTED 12 _ZN3art6dex_ir16Collectio
604:   FUNC WEAK PROTECTED 12 _ZNSt3__16vectorINS_10uni
605:   FUNC WEAK PROTECTED 12 _ZNSt3__16vectorINS_10uni
606:   OBJECT WEAK PROTECTED 21 _ZTVN3art6dex_ir14Annotat
607:   FUNC WEAK PROTECTED 12 _ZN3art16CompactDexWriter
608:   FUNC GLOBAL PROTECTED 12 _ZN3art9DexWriterC2EPNS_9
609:   FUNC GLOBAL PROTECTED 12 _ZN3art9DexLayout11DumpDe
610:   FUNC GLOBAL PROTECTED 12 _ZN3art9DexLayout13DumpIn
611:   OBJECT WEAK DEFAULT 21 _ZTTNSt3__118basic_string
612:   FUNC WEAK PROTECTED 12 _ZNSt3__110__function6__f
613:   FUNC WEAK PROTECTED 12 _ZN3art6dex_ir13Collectio
614:   FUNC WEAK PROTECTED 12 _ZN3art6dex_ir16Collectio
615:   OBJECT WEAK PROTECTED 21 _ZTVN3art6dex_ir16Collect
616:   FUNC GLOBAL PROTECTED 12 _ZNK3art16CompactDexWrite
617:   FUNC WEAK PROTECTED 12 _ZN3art6dex_ir6HeaderC2EP
618:   FUNC WEAK PROTECTED 12 _ZNSt3__16vectorINS_10uni
619:   FUNC WEAK PROTECTED 12 _ZNK3art12DexContainer13V
620:   FUNC GLOBAL PROTECTED 12 _ZN3art6dex_ir11BuilderMa
621:   FUNC WEAK PROTECTED 12 _ZN3art6dex_ir16Collectio
622:   FUNC WEAK PROTECTED 12 _ZNSt3__16vectorINS_10uni
623:   FUNC GLOBAL PROTECTED 12 _ZN3art9DexLayout9DumpCla
624:   FUNC GLOBAL PROTECTED 12 _ZN3art6dex_ir11BuilderMa
625:   FUNC WEAK PROTECTED 12 _ZN3art6dex_ir8TypeListD2
626:   FUNC WEAK PROTECTED 12 _ZNSt3__16vectorINS_10uni
627:   OBJECT WEAK PROTECTED 21 _ZTVN3art6dex_ir23Indexed
628:   FUNC GLOBAL PROTECTED 12 _ZN3art16CompactDexWriter
629:   FUNC WEAK PROTECTED 12 _ZNSt3__112__hash_tableIN
630:   FUNC WEAK PROTECTED 12 _ZNK3art6dex_ir16Collecti
631:   OBJECT WEAK PROTECTED 21 _ZTVN3art6dex_ir16Collect
632:   OBJECT WEAK PROTECTED 21 _ZTVN3art6dex_ir4ItemE
