 0x0000000e (SONAME)                     Library soname: [android.hardware.camera.device@3.4.so]
  
Symbol   contains 403 entries:
Num:   Type Bind Vis Ndx Name
0:   NOTYPE LOCAL DEFAULT UND
1:   FUNC GLOBAL DEFAULT UND __cxa_finalize@LIBC (2)
2:   FUNC GLOBAL DEFAULT UND _ZN7android14sp_report_ra
3:   FUNC GLOBAL DEFAULT UND _ZN7android21report_syspr
4:   OBJECT GLOBAL DEFAULT UND _ZN7android4hidl4base4V1_
5:   FUNC GLOBAL DEFAULT UND _ZN7android4hidl4base4V1_
6:   FUNC GLOBAL DEFAULT UND _ZN7android4hidl4base4V1_
7:   FUNC GLOBAL DEFAULT UND _ZN7android4hidl4base4V1_
8:   FUNC GLOBAL DEFAULT UND _ZN7android4hidl4base4V1_
9:   FUNC GLOBAL DEFAULT UND _ZN7android4hidl4base4V1_
10:   FUNC GLOBAL DEFAULT UND _ZN7android4hidl4base4V1_
11:   FUNC GLOBAL DEFAULT UND _ZN7android4hidl4base4V1_
12:   FUNC GLOBAL DEFAULT UND _ZN7android4hidl4base4V1_
13:   FUNC GLOBAL DEFAULT UND _ZN7android4hidl4base4V1_
14:   FUNC GLOBAL DEFAULT UND _ZN7android4hidl4base4V1_
15:   FUNC GLOBAL DEFAULT UND _ZN7android4hidl4base4V1_
16:   FUNC GLOBAL DEFAULT UND _ZN7android4hidl4base4V1_
17:   FUNC GLOBAL DEFAULT UND _ZN7android4hidl4base4V1_
18:   FUNC GLOBAL DEFAULT UND _ZN7android4hidl4base4V1_
19:   FUNC GLOBAL DEFAULT UND _ZN7android4hidl4base4V1_
20:   FUNC GLOBAL DEFAULT UND _ZN7android4hidl4base4V1_
21:   FUNC GLOBAL DEFAULT UND _ZN7android4hidl4base4V1_
22:   FUNC GLOBAL DEFAULT UND _ZN7android4hidl4base4V1_
23:   FUNC GLOBAL DEFAULT UND _ZN7android4hidl4base4V1_
24:   FUNC GLOBAL DEFAULT UND _ZN7android4hidl4base4V1_
25:   FUNC GLOBAL DEFAULT UND _ZN7android4hidl4base4V1_
26:   FUNC GLOBAL DEFAULT UND _ZN7android4hidl4base4V1_
27:   FUNC GLOBAL DEFAULT UND _ZN7android4hidl4base4V1_
28:   FUNC GLOBAL DEFAULT UND _ZN7android7RefBase10onFi
29:   FUNC GLOBAL DEFAULT UND _ZN7android7RefBase12weak
30:   FUNC GLOBAL DEFAULT UND _ZN7android7RefBase13onLa
31:   FUNC GLOBAL DEFAULT UND _ZN7android7RefBase15onLa
32:   FUNC GLOBAL DEFAULT UND _ZN7android7RefBase20onIn
33:   FUNC GLOBAL DEFAULT UND _ZN7android7RefBaseC2Ev
34:   FUNC GLOBAL DEFAULT UND _ZN7android7RefBaseD2Ev
35:   FUNC GLOBAL DEFAULT UND _ZN7android8hardware10IIn
36:   FUNC GLOBAL DEFAULT UND _ZN7android8hardware10IIn
37:   FUNC GLOBAL DEFAULT UND _ZN7android8hardware10IIn
38:   FUNC GLOBAL DEFAULT UND _ZN7android8hardware10IIn
39:   FUNC GLOBAL DEFAULT UND _ZN7android8hardware10IIn
40:   FUNC GLOBAL DEFAULT UND _ZN7android8hardware11BpH
41:   FUNC GLOBAL DEFAULT UND _ZN7android8hardware11BpH
42:   FUNC GLOBAL DEFAULT UND _ZN7android8hardware11BpH
43:   FUNC GLOBAL DEFAULT UND _ZN7android8hardware11BpH
44:   FUNC GLOBAL DEFAULT UND _ZN7android8hardware11BpH
45:   FUNC GLOBAL DEFAULT UND _ZN7android8hardware11BpH
46:   FUNC GLOBAL DEFAULT UND _ZN7android8hardware11BpH
47:   FUNC GLOBAL DEFAULT UND _ZN7android8hardware11hid
48:   FUNC GLOBAL DEFAULT UND _ZN7android8hardware11hid
49:   FUNC GLOBAL DEFAULT UND _ZN7android8hardware11hid
50:   FUNC GLOBAL DEFAULT UND _ZN7android8hardware11hid
51:   FUNC GLOBAL DEFAULT UND _ZN7android8hardware11hid
52:   FUNC GLOBAL DEFAULT UND _ZN7android8hardware12Pro
53:   FUNC GLOBAL DEFAULT UND _ZN7android8hardware12Pro
54:   FUNC GLOBAL DEFAULT UND _ZN7android8hardware13wri
55:   FUNC GLOBAL DEFAULT UND _ZN7android8hardware14rea
56:   FUNC GLOBAL DEFAULT UND _ZN7android8hardware21def
57:   FUNC GLOBAL DEFAULT UND _ZN7android8hardware23get
58:   FUNC GLOBAL DEFAULT UND _ZN7android8hardware27hid
59:   FUNC GLOBAL DEFAULT UND _ZN7android8hardware27hid
60:   FUNC GLOBAL DEFAULT UND _ZN7android8hardware6Parc
61:   FUNC GLOBAL DEFAULT UND _ZN7android8hardware6Parc
62:   FUNC GLOBAL DEFAULT UND _ZN7android8hardware6Parc
63:   FUNC GLOBAL DEFAULT UND _ZN7android8hardware6Parc
64:   FUNC GLOBAL DEFAULT UND _ZN7android8hardware6Parc
65:   FUNC GLOBAL DEFAULT UND _ZN7android8hardware6Stat
66:   FUNC GLOBAL DEFAULT UND _ZN7android8hardware6Stat
67:   FUNC GLOBAL DEFAULT UND _ZN7android8hardware6Stat
68:   FUNC GLOBAL DEFAULT UND _ZN7android8hardware6Stat
69:   OBJECT GLOBAL DEFAULT UND _ZN7android8hardware6came
70:   FUNC GLOBAL DEFAULT UND _ZN7android8hardware6came
71:   FUNC GLOBAL DEFAULT UND _ZN7android8hardware6came
72:   FUNC GLOBAL DEFAULT UND _ZN7android8hardware6came
73:   FUNC GLOBAL DEFAULT UND _ZN7android8hardware6came
74:   FUNC GLOBAL DEFAULT UND _ZN7android8hardware6came
75:   FUNC GLOBAL DEFAULT UND _ZN7android8hardware6came
76:   FUNC GLOBAL DEFAULT UND _ZN7android8hardware6came
77:   FUNC GLOBAL DEFAULT UND _ZN7android8hardware6came
78:   FUNC GLOBAL DEFAULT UND _ZN7android8hardware6came
79:   FUNC GLOBAL DEFAULT UND _ZN7android8hardware6came
80:   FUNC GLOBAL DEFAULT UND _ZN7android8hardware6came
81:   FUNC GLOBAL DEFAULT UND _ZN7android8hardware6came
82:   FUNC GLOBAL DEFAULT UND _ZN7android8hardware6came
83:   FUNC GLOBAL DEFAULT UND _ZN7android8hardware6came
84:   FUNC GLOBAL DEFAULT UND _ZN7android8hardware7IBin
85:   FUNC GLOBAL DEFAULT UND _ZN7android8hardware7IBin
86:   FUNC GLOBAL DEFAULT UND _ZN7android8hardware7IBin
87:   FUNC GLOBAL DEFAULT UND _ZN7android8hardware7IBin
88:   FUNC GLOBAL DEFAULT UND _ZN7android8hardware7deta
89:   FUNC GLOBAL DEFAULT UND _ZN7android8hardware7deta
90:   FUNC GLOBAL DEFAULT UND _ZN7android8hardware7deta
91:   FUNC GLOBAL DEFAULT UND _ZN7android8hardware7deta
92:   FUNC GLOBAL DEFAULT UND _ZN7android8hardware7deta
93:   FUNC GLOBAL DEFAULT UND _ZN7android8hardware7deta
94:   FUNC GLOBAL DEFAULT UND _ZN7android8hardware7deta
95:   OBJECT GLOBAL DEFAULT UND _ZN7android8hardware7deta
96:   OBJECT GLOBAL DEFAULT UND _ZN7android8hardware7deta
97:   FUNC GLOBAL DEFAULT UND _ZN7android8hardware7deta
98:   FUNC GLOBAL DEFAULT UND _ZN7android8hardware7deta
99:   FUNC GLOBAL DEFAULT UND _ZN7android8hardware7deta
100:   FUNC GLOBAL DEFAULT UND _ZN7android8hardware7deta
101:   FUNC GLOBAL DEFAULT UND _ZN7android8hardware7deta
102:   FUNC GLOBAL DEFAULT UND _ZN7android8hardware7deta
103:   FUNC GLOBAL DEFAULT UND _ZN7android8hardware7deta
104:   FUNC GLOBAL DEFAULT UND _ZN7android8hardware7deta
105:   FUNC GLOBAL DEFAULT UND _ZN7android8hardware7deta
106:   OBJECT GLOBAL DEFAULT UND _ZN7android8hardware7deta
107:   FUNC GLOBAL DEFAULT UND _ZN7android8hardware9BHwB
108:   FUNC GLOBAL DEFAULT UND _ZN7android8hardware9BHwB
109:   FUNC GLOBAL DEFAULT UND _ZN7android8hardware9BHwB
110:   FUNC GLOBAL DEFAULT UND _ZN7android8hardware9BHwB
111:   FUNC GLOBAL DEFAULT UND _ZN7android8hardware9BHwB
112:   FUNC GLOBAL DEFAULT UND _ZN7android8hardware9BHwB
113:   FUNC GLOBAL DEFAULT UND _ZN7android8hardware9BHwB
114:   FUNC GLOBAL DEFAULT UND _ZN7android8hardware9BHwB
115:   FUNC GLOBAL DEFAULT UND _ZN7android8hardware9BHwB
116:   FUNC GLOBAL DEFAULT UND _ZN7android8hardware9BHwB
117:   FUNC GLOBAL DEFAULT UND _ZNK7android7RefBase10cre
118:   FUNC GLOBAL DEFAULT UND _ZNK7android7RefBase11get
119:   FUNC GLOBAL DEFAULT UND _ZNK7android7RefBase9decS
120:   FUNC GLOBAL DEFAULT UND _ZNK7android7RefBase9incS
121:   FUNC GLOBAL DEFAULT UND _ZNK7android8hardware6Par
122:   FUNC GLOBAL DEFAULT UND _ZNK7android8hardware6Par
123:   FUNC GLOBAL DEFAULT UND _ZNK7android8hardware6Par
124:   FUNC GLOBAL DEFAULT UND _ZNK7android8hardware7IBi
125:   FUNC GLOBAL DEFAULT UND _ZNK7android8hardware7det
126:   FUNC GLOBAL DEFAULT UND _ZNK7android8hardware9BHw
127:   FUNC GLOBAL DEFAULT UND _ZNKSt3__120__vector_base
128:   FUNC GLOBAL DEFAULT UND _ZNKSt3__121__basic_strin
129:   FUNC GLOBAL DEFAULT UND _ZNSt3__112basic_stringIc
130:   FUNC GLOBAL DEFAULT UND _ZNSt3__15mutex4lockEv
131:   FUNC GLOBAL DEFAULT UND _ZNSt3__15mutex6unlockEv
132:   FUNC GLOBAL DEFAULT UND _ZNSt3__15mutexD1Ev
133:   FUNC GLOBAL DEFAULT UND _ZTv0_n12_N7android4hidl4
134:   FUNC GLOBAL DEFAULT UND _ZTv0_n12_N7android4hidl4
135:   FUNC GLOBAL DEFAULT UND _ZTv0_n12_N7android8hardw
136:   FUNC GLOBAL DEFAULT UND _ZTv0_n12_N7android8hardw
137:   FUNC GLOBAL DEFAULT UND _ZTv0_n12_N7android8hardw
138:   FUNC GLOBAL DEFAULT UND _ZTv0_n12_N7android8hardw
139:   FUNC GLOBAL DEFAULT UND _ZTv0_n12_N7android8hardw
140:   FUNC GLOBAL DEFAULT UND _ZTv0_n12_N7android8hardw
141:   FUNC GLOBAL DEFAULT UND _ZTv0_n12_N7android8hardw
142:   FUNC GLOBAL DEFAULT UND _ZTv0_n12_N7android8hardw
143:   FUNC GLOBAL DEFAULT UND _ZTv0_n16_N7android8hardw
144:   FUNC GLOBAL DEFAULT UND _ZTv0_n20_N7android8hardw
145:   FUNC GLOBAL DEFAULT UND _ZTv0_n24_N7android8hardw
146:   FUNC GLOBAL DEFAULT UND _ZdaPv
147:   FUNC GLOBAL DEFAULT UND _ZdlPv
148:   FUNC GLOBAL DEFAULT UND _Znaj
149:   FUNC GLOBAL DEFAULT UND _Znwj
150:   FUNC GLOBAL DEFAULT UND __cxa_pure_virtual
151:   FUNC GLOBAL DEFAULT UND __stack_chk_fail@LIBC (2)
152:   OBJECT GLOBAL DEFAULT UND __stack_chk_guard@LIBC (2)
153:   FUNC GLOBAL DEFAULT UND abort@LIBC (2)
154:   FUNC GLOBAL DEFAULT UND atrace_begin_body
155:   OBJECT GLOBAL DEFAULT UND atrace_enabled_tags
156:   FUNC GLOBAL DEFAULT UND atrace_end_body
157:   OBJECT GLOBAL DEFAULT UND atrace_is_ready
158:   FUNC GLOBAL DEFAULT UND atrace_setup
159:   FUNC GLOBAL DEFAULT UND memcmp@LIBC (2)
160:   FUNC GLOBAL DEFAULT UND strlen@LIBC (2)
161:   FUNC GLOBAL DEFAULT UND _ZN7android8hardware6Parc
162:   OBJECT GLOBAL DEFAULT UND _ZN7android8hardware6came
163:   FUNC GLOBAL DEFAULT UND _ZN7android8hardware6came
164:   FUNC GLOBAL DEFAULT UND _ZN7android8hardware6came
165:   FUNC GLOBAL DEFAULT UND _ZN7android8hardware6came
166:   FUNC GLOBAL DEFAULT UND _ZN7android8hardware6came
167:   FUNC GLOBAL DEFAULT UND _ZN7android8hardware6came
168:   FUNC GLOBAL DEFAULT UND _ZN7android8hardware6came
169:   FUNC GLOBAL DEFAULT UND _ZN7android8hardware6came
170:   FUNC GLOBAL DEFAULT UND _ZN7android8hardware6came
171:   FUNC GLOBAL DEFAULT UND _ZN7android8hardware6came
172:   FUNC GLOBAL DEFAULT UND _ZN7android8hardware6came
173:   FUNC GLOBAL DEFAULT UND _ZN7android8hardware6came
174:   FUNC GLOBAL DEFAULT UND _ZN7android8hardware6came
175:   FUNC GLOBAL DEFAULT UND _ZN7android8hardware6came
176:   FUNC GLOBAL DEFAULT UND _ZN7android8hardware6came
177:   FUNC GLOBAL DEFAULT UND _ZN7android8hardware6came
178:   FUNC GLOBAL DEFAULT UND _ZN7android8hardware6came
179:   FUNC GLOBAL DEFAULT UND _ZN7android8hardware6came
180:   FUNC GLOBAL DEFAULT UND _ZN7android8hardware6came
181:   FUNC GLOBAL DEFAULT UND _ZN7android8hardware6came
182:   FUNC GLOBAL DEFAULT UND _ZN7android8hardware6came
183:   FUNC GLOBAL DEFAULT UND _ZN7android8hardware6came
184:   FUNC GLOBAL DEFAULT UND _ZN7android8hardware6came
185:   FUNC GLOBAL DEFAULT UND _ZN7android8hardware6came
186:   FUNC GLOBAL DEFAULT UND _ZN7android8hardware6came
187:   OBJECT GLOBAL DEFAULT UND _ZN7android8hardware6came
188:   FUNC GLOBAL DEFAULT UND _ZN7android8hardware6came
189:   FUNC GLOBAL DEFAULT UND _ZN7android8hardware6came
190:   FUNC GLOBAL DEFAULT UND _ZN7android8hardware6came
191:   FUNC GLOBAL DEFAULT UND _ZN7android8hardware6came
192:   FUNC GLOBAL DEFAULT UND _ZN7android8hardware6came
193:   FUNC GLOBAL DEFAULT UND _ZN7android8hardware6came
194:   FUNC GLOBAL DEFAULT UND _ZN7android8hardware6came
195:   FUNC GLOBAL DEFAULT UND _ZN7android8hardware6came
196:   FUNC GLOBAL DEFAULT UND _ZN7android8hardware6came
197:   FUNC GLOBAL DEFAULT UND _ZN7android8hardware6came
198:   FUNC GLOBAL DEFAULT UND _ZN7android8hardware6came
199:   FUNC GLOBAL DEFAULT UND _ZN7android8hardware6came
200:   FUNC GLOBAL DEFAULT UND _ZNK7android8hardware6Par
201:   FUNC GLOBAL DEFAULT UND __android_log_assert@LIBLOG (3)
202:   FUNC GLOBAL DEFAULT UND _ZN7android8hardware21wri
203:   FUNC GLOBAL DEFAULT UND _ZN7android8hardware22rea
204:   FUNC GLOBAL DEFAULT UND _ZN7android8hardware6came
205:   FUNC GLOBAL DEFAULT UND _ZN7android8hardware6came
206:   FUNC GLOBAL DEFAULT UND _ZN7android8hardware6came
207:   FUNC GLOBAL DEFAULT UND _ZN7android8hardware6came
208:   FUNC GLOBAL DEFAULT UND memcpy@LIBC (2)
209:   FUNC GLOBAL DEFAULT UND memset@LIBC (2)
210:   FUNC GLOBAL DEFAULT 14 _ZN7android8hardware6came
211:   FUNC WEAK DEFAULT 14 _ZNSt3__16vectorINS_8func
212:   FUNC GLOBAL DEFAULT 14 _ZN7android8hardware6came
213:   OBJECT GLOBAL DEFAULT 18 _ZTCN7android8hardware6ca
214:   FUNC GLOBAL DEFAULT 14 _ZN7android8hardware6came
215:   FUNC WEAK DEFAULT 14 _ZNSt3__16vectorIPvNS_9al
216:   OBJECT GLOBAL DEFAULT 18 _ZTCN7android8hardware6ca
217:   FUNC WEAK DEFAULT 14 _ZN7android8hardware7deta
218:   FUNC WEAK DEFAULT 14 _ZNSt3__16__treeINS_12__v
219:   FUNC GLOBAL DEFAULT 14 _ZTv0_n12_N7android8hardw
220:   FUNC GLOBAL DEFAULT 14 _ZN7android8hardware6came
221:   FUNC GLOBAL DEFAULT 14 _ZN7android8hardware6came
222:   FUNC GLOBAL DEFAULT 14 _ZN7android8hardware6came
223:   FUNC GLOBAL DEFAULT 14 _ZN7android8hardware6came
224:   FUNC GLOBAL DEFAULT 14 _ZN7android8hardware6came
225:   FUNC GLOBAL DEFAULT 14 _ZN7android8hardware6came
226:   FUNC GLOBAL DEFAULT 14 _ZN7android8hardware6came
227:   OBJECT GLOBAL DEFAULT 18 _ZTCN7android8hardware6ca
228:   FUNC GLOBAL DEFAULT 14 _ZN7android8hardware6came
229:   FUNC GLOBAL DEFAULT 14 _ZN7android8hardware6came
230:   FUNC GLOBAL DEFAULT 14 _ZThn20_N7android8hardwar
231:   FUNC WEAK DEFAULT 14 _ZN7android8hardware7deta
232:   FUNC GLOBAL DEFAULT 14 _ZN7android8hardware6came
233:   FUNC GLOBAL DEFAULT 14 _ZN7android8hardware6came
234:   FUNC GLOBAL DEFAULT 14 _ZN7android8hardware6came
235:   FUNC GLOBAL DEFAULT 14 _ZN7android8hardware6came
236:   FUNC GLOBAL DEFAULT 14 _ZN7android8hardware6came
237:   OBJECT GLOBAL DEFAULT 18 _ZTCN7android8hardware6ca
238:   FUNC GLOBAL DEFAULT 14 _ZN7android8hardware6came
239:   OBJECT GLOBAL DEFAULT 18 _ZTVN7android8hardware6ca
240:   FUNC GLOBAL DEFAULT 14 _ZN7android8hardware6came
241:   FUNC GLOBAL DEFAULT 14 _ZN7android8hardware6came
242:   OBJECT GLOBAL DEFAULT 18 _ZTCN7android8hardware6ca
243:   FUNC GLOBAL DEFAULT 14 _ZN7android8hardware6came
244:   FUNC GLOBAL DEFAULT 14 _ZN7android8hardware6came
245:   FUNC GLOBAL DEFAULT 14 __aeabi_memclr4
246:   FUNC GLOBAL DEFAULT 14 _ZN7android8hardware6came
247:   FUNC GLOBAL DEFAULT 14 _ZN7android8hardware6came
248:   FUNC GLOBAL DEFAULT 14 _ZN7android8hardware6came
249:   OBJECT GLOBAL DEFAULT 18 _ZTCN7android8hardware6ca
250:   OBJECT GLOBAL DEFAULT 18 _ZTVN7android8hardware6ca
251:   FUNC GLOBAL DEFAULT 14 _ZN7android8hardware6came
252:   OBJECT GLOBAL DEFAULT 18 _ZTCN7android8hardware6ca
253:   FUNC GLOBAL DEFAULT 14 _ZTv0_n12_N7android8hardw
254:   OBJECT GLOBAL DEFAULT 18 _ZTCN7android8hardware6ca
255:   FUNC GLOBAL DEFAULT 14 _ZN7android8hardware6came
256:   FUNC GLOBAL DEFAULT 14 _ZN7android8hardware6came
257:   FUNC GLOBAL DEFAULT 14 _ZN7android8hardware6came
258:   FUNC GLOBAL DEFAULT 14 _ZN7android8hardware6came
259:   OBJECT GLOBAL DEFAULT 18 _ZTCN7android8hardware6ca
260:   FUNC GLOBAL DEFAULT 14 _ZN7android8hardware6came
261:   FUNC GLOBAL DEFAULT 14 _ZN7android8hardware6came
262:   OBJECT GLOBAL DEFAULT 16 _ZN7android8hardware6came
263:   FUNC GLOBAL DEFAULT 14 _ZN7android8hardware6came
264:   FUNC GLOBAL DEFAULT 14 _ZN7android8hardware6came
265:   FUNC GLOBAL DEFAULT 14 __aeabi_memclr8
266:   FUNC GLOBAL DEFAULT 14 _ZN7android8hardware6came
267:   FUNC WEAK DEFAULT 14 _ZNSt3__16__treeINS_12__v
268:   FUNC GLOBAL DEFAULT 14 _ZN7android8hardware6came
269:   FUNC GLOBAL DEFAULT 14 _ZN7android8hardware6came
270:   FUNC GLOBAL DEFAULT 14 _ZN7android8hardware6came
271:   OBJECT GLOBAL DEFAULT 18 _ZTCN7android8hardware6ca
272:   FUNC GLOBAL DEFAULT 14 _ZN7android8hardware6came
273:   FUNC GLOBAL DEFAULT 14 __aeabi_memcpy
274:   FUNC GLOBAL DEFAULT 14 _ZN7android8hardware6came
275:   FUNC GLOBAL DEFAULT 14 _ZN7android8hardware6came
276:   FUNC GLOBAL DEFAULT 14 _ZN7android8hardware6came
277:   FUNC GLOBAL DEFAULT 14 _ZN7android8hardware6came
278:   FUNC GLOBAL DEFAULT 14 _ZN7android8hardware6came
279:   FUNC GLOBAL DEFAULT 14 _ZN7android8hardware6came
280:   FUNC WEAK DEFAULT 14 _ZN7android8hardware7deta
281:   FUNC WEAK DEFAULT 14 _ZNSt3__16vectorIN7androi
282:   FUNC GLOBAL DEFAULT 14 _ZN7android8hardware6came
283:   FUNC GLOBAL DEFAULT 14 _ZN7android8hardware6came
284:   FUNC GLOBAL DEFAULT 14 _ZN7android8hardware6came
285:   OBJECT GLOBAL DEFAULT 18 _ZTCN7android8hardware6ca
286:   OBJECT GLOBAL DEFAULT 18 _ZTVN7android8hardware6ca
287:   FUNC GLOBAL DEFAULT 14 _ZN7android8hardware6came
288:   FUNC GLOBAL DEFAULT 14 _ZN7android8hardware6came
289:   OBJECT GLOBAL DEFAULT 18 _ZTCN7android8hardware6ca
290:   FUNC GLOBAL DEFAULT 14 _ZN7android8hardware6came
291:   FUNC GLOBAL DEFAULT 14 _ZN7android8hardware6came
292:   FUNC GLOBAL DEFAULT 14 _ZN7android8hardware6came
293:   FUNC GLOBAL DEFAULT 14 _ZN7android8hardware6came
294:   FUNC GLOBAL DEFAULT 14 _ZN7android8hardware6came
295:   FUNC WEAK DEFAULT 14 _ZN7android8hardware7deta
296:   FUNC WEAK DEFAULT 14 _ZNSt3__113__tree_removeI
297:   FUNC GLOBAL DEFAULT 14 _ZN7android8hardware6came
298:   OBJECT GLOBAL DEFAULT 18 _ZTCN7android8hardware6ca
299:   OBJECT GLOBAL DEFAULT 18 _ZTTN7android8hardware6ca
300:   FUNC GLOBAL DEFAULT 14 __aeabi_memclr
301:   FUNC GLOBAL DEFAULT 14 _ZN7android8hardware6came
302:   OBJECT GLOBAL DEFAULT 18 _ZTCN7android8hardware6ca
303:   FUNC WEAK DEFAULT 14 _ZNSt3__127__tree_balance
304:   FUNC WEAK DEFAULT 14 _ZNSt3__16__treeINS_12__v
305:   FUNC GLOBAL DEFAULT 14 _ZN7android8hardware6came
306:   FUNC GLOBAL DEFAULT 14 _ZN7android8hardware6came
307:   FUNC GLOBAL DEFAULT 14 _ZN7android8hardware6came
308:   FUNC GLOBAL DEFAULT 14 _ZN7android8hardware6came
309:   FUNC WEAK DEFAULT 14 _ZN7android8hardware7deta
310:   OBJECT GLOBAL DEFAULT 18 _ZTTN7android8hardware6ca
311:   FUNC GLOBAL DEFAULT 14 _ZN7android8hardware6came
312:   OBJECT GLOBAL DEFAULT 18 _ZTCN7android8hardware6ca
313:   FUNC GLOBAL DEFAULT 14 _ZN7android8hardware6came
314:   FUNC GLOBAL DEFAULT 14 _ZTv0_n12_N7android8hardw
315:   FUNC GLOBAL DEFAULT 14 _ZN7android8hardware6came
316:   FUNC GLOBAL DEFAULT 14 _ZN7android8hardware6came
317:   FUNC GLOBAL DEFAULT 14 _ZN7android8hardware6came
318:   OBJECT GLOBAL DEFAULT 18 _ZTCN7android8hardware6ca
319:   FUNC GLOBAL DEFAULT 14 _ZN7android8hardware6came
320:   FUNC WEAK DEFAULT 14 _ZNSt3__16__treeINS_12__v
321:   OBJECT GLOBAL DEFAULT 18 _ZTVN7android8hardware6ca
322:   FUNC GLOBAL DEFAULT 14 _ZThn20_N7android8hardwar
323:   FUNC GLOBAL DEFAULT 14 _ZN7android8hardware6came
324:   FUNC GLOBAL DEFAULT 14 _ZN7android8hardware6came
325:   FUNC GLOBAL DEFAULT 14 _ZN7android8hardware6came
326:   OBJECT WEAK DEFAULT 18 _ZTVN7android8hardware6ca
327:   FUNC GLOBAL DEFAULT 14 _ZN7android8hardware6came
328:   FUNC GLOBAL DEFAULT 14 _ZN7android8hardware6came
329:   FUNC GLOBAL DEFAULT 14 _ZN7android8hardware6came
330:   OBJECT GLOBAL DEFAULT 18 _ZTCN7android8hardware6ca
331:   OBJECT GLOBAL DEFAULT 18 _ZTCN7android8hardware6ca
332:   OBJECT GLOBAL DEFAULT 18 _ZTTN7android8hardware6ca
333:   FUNC GLOBAL DEFAULT 14 _ZN7android8hardware6came
334:   FUNC GLOBAL DEFAULT 14 _ZN7android8hardware6came
335:   FUNC GLOBAL DEFAULT 14 _ZN7android8hardware6came
336:   OBJECT GLOBAL DEFAULT 18 _ZTCN7android8hardware6ca
337:   OBJECT GLOBAL DEFAULT 18 _ZTTN7android8hardware6ca
338:   OBJECT GLOBAL DEFAULT 18 _ZTVN7android8hardware6ca
339:   FUNC GLOBAL DEFAULT 14 __aeabi_memset
340:   OBJECT GLOBAL DEFAULT 18 _ZTVN7android8hardware6ca
341:   FUNC GLOBAL DEFAULT 14 _ZN7android8hardware6came
342:   FUNC GLOBAL DEFAULT 14 _ZN7android8hardware6came
343:   OBJECT GLOBAL DEFAULT 18 _ZTCN7android8hardware6ca
344:   FUNC GLOBAL DEFAULT 14 _ZN7android8hardware6came
345:   FUNC GLOBAL DEFAULT 14 _ZN7android8hardware6came
346:   OBJECT WEAK DEFAULT 18 _ZTCN7android8hardware6ca
347:   FUNC GLOBAL DEFAULT 14 _ZTv0_n12_N7android8hardw
348:   FUNC GLOBAL DEFAULT 14 _ZN7android8hardware6came
349:   FUNC WEAK DEFAULT 14 _ZN7android8hardware7deta
350:   OBJECT WEAK DEFAULT 18 _ZTVN7android8hardware6ca
351:   FUNC GLOBAL DEFAULT 14 _ZN7android8hardware6came
352:   FUNC GLOBAL DEFAULT 14 __aeabi_memcpy4
353:   FUNC GLOBAL DEFAULT 14 __aeabi_memset4
354:   FUNC GLOBAL DEFAULT 14 _ZN7android8hardware6came
355:   FUNC GLOBAL DEFAULT 14 _ZN7android8hardware6came
356:   FUNC GLOBAL DEFAULT 14 _ZN7android8hardware6came
357:   FUNC GLOBAL DEFAULT 14 _ZThn20_N7android8hardwar
358:   FUNC GLOBAL DEFAULT 14 _ZN7android8hardware6came
359:   FUNC GLOBAL DEFAULT 14 _ZN7android8hardware6came
360:   FUNC WEAK DEFAULT 14 _ZN7android8hardware7deta
361:   OBJECT GLOBAL DEFAULT 16 _ZN7android8hardware6came
362:   FUNC GLOBAL DEFAULT 14 _ZN7android8hardware6came
363:   FUNC WEAK DEFAULT 14 _ZNSt3__16__treeINS_12__v
364:   FUNC GLOBAL DEFAULT 14 _ZN7android8hardware6came
365:   FUNC GLOBAL DEFAULT 14 _ZN7android8hardware6came
366:   FUNC GLOBAL DEFAULT 14 _ZN7android8hardware6came
367:   FUNC GLOBAL DEFAULT 14 _ZN7android8hardware6came
368:   FUNC GLOBAL DEFAULT 14 _ZN7android8hardware6came
369:   FUNC GLOBAL DEFAULT 14 _ZN7android8hardware6came
370:   FUNC GLOBAL DEFAULT 14 _ZN7android8hardware6came
371:   FUNC GLOBAL DEFAULT 14 __aeabi_memcpy8
372:   FUNC GLOBAL DEFAULT 14 __aeabi_memset8
373:   FUNC GLOBAL DEFAULT 14 _ZN7android8hardware6came
374:   FUNC GLOBAL DEFAULT 14 _ZN7android8hardware6came
375:   FUNC GLOBAL DEFAULT 14 _ZN7android8hardware6came
376:   FUNC GLOBAL DEFAULT 14 _ZN7android8hardware6came
377:   FUNC WEAK DEFAULT 14 _ZNSt3__16__treeINS_12__v
378:   OBJECT GLOBAL DEFAULT 18 _ZTTN7android8hardware6ca
379:   FUNC GLOBAL DEFAULT 14 _ZN7android8hardware6came
380:   FUNC GLOBAL DEFAULT 14 _ZN7android8hardware6came
381:   FUNC GLOBAL DEFAULT 14 _ZN7android8hardware6came
382:   FUNC GLOBAL DEFAULT 14 _ZN7android8hardware6came
383:   FUNC GLOBAL DEFAULT 14 _ZN7android8hardware6came
384:   FUNC GLOBAL DEFAULT 14 _ZThn20_N7android8hardwar
385:   FUNC GLOBAL DEFAULT 14 _ZN7android8hardware6came
386:   OBJECT GLOBAL DEFAULT 18 _ZTCN7android8hardware6ca
387:   FUNC GLOBAL DEFAULT 14 _ZN7android8hardware6came
388:   FUNC GLOBAL DEFAULT 14 _ZN7android8hardware6came
389:   FUNC GLOBAL DEFAULT 14 _ZN7android8hardware6came
390:   OBJECT GLOBAL DEFAULT 18 _ZTTN7android8hardware6ca
391:   OBJECT GLOBAL DEFAULT 18 _ZTCN7android8hardware6ca
392:   FUNC GLOBAL DEFAULT 14 _ZN7android8hardware6came
393:   FUNC GLOBAL DEFAULT 14 _ZN7android8hardware6came
394:   FUNC GLOBAL DEFAULT 14 _ZN7android8hardware6came
395:   OBJECT GLOBAL DEFAULT 18 _ZTCN7android8hardware6ca
396:   FUNC GLOBAL DEFAULT 14 _ZN7android8hardware6came
397:   OBJECT GLOBAL DEFAULT 18 _ZTCN7android8hardware6ca
398:   FUNC GLOBAL DEFAULT 14 _ZN7android8hardware6came
399:   FUNC GLOBAL DEFAULT 14 _ZN7android8hardware6came
400:   FUNC GLOBAL DEFAULT 14 _ZN7android8hardware6came
401:   FUNC GLOBAL DEFAULT 14 _ZN7android8hardware6came
402:   OBJECT WEAK DEFAULT 18 _ZTCN7android8hardware6ca
