 0x000000000000000e (SONAME)             Library soname: [libbinderwrapper.so]
  
Symbol   contains 64 entries:
Num:   Type Bind Vis Ndx Name
0:   NOTYPE LOCAL DEFAULT UND
1:   FUNC GLOBAL DEFAULT UND __cxa_finalize@LIBC (2)
2:   FUNC GLOBAL DEFAULT UND _ZN7logging10LogMessageC1
3:   FUNC GLOBAL DEFAULT UND _ZN7logging10LogMessageD1
4:   FUNC GLOBAL DEFAULT UND _ZNKSt3__16locale9use_fac
5:   FUNC GLOBAL DEFAULT UND _ZNKSt3__18ios_base6getlo
6:   FUNC GLOBAL DEFAULT UND _ZNSt3__113basic_ostreamI
7:   FUNC GLOBAL DEFAULT UND _ZNSt3__113basic_ostreamI
8:   OBJECT GLOBAL DEFAULT UND _ZNSt3__15ctypeIcE2idE
9:   FUNC GLOBAL DEFAULT UND _ZNSt3__16localeD1Ev
10:   FUNC GLOBAL DEFAULT UND _ZNSt3__18ios_base5clearE
11:   FUNC GLOBAL DEFAULT UND _ZdlPv
12:   FUNC GLOBAL DEFAULT UND _Znwm
13:   FUNC GLOBAL DEFAULT UND __stack_chk_fail@LIBC (2)
14:   FUNC GLOBAL DEFAULT UND memset@LIBC (2)
15:   FUNC GLOBAL DEFAULT UND _ZN4base8internal12Callba
16:   FUNC GLOBAL DEFAULT UND _ZN4base8internal20Callba
17:   FUNC GLOBAL DEFAULT UND _ZN7android14IPCThreadSta
18:   FUNC GLOBAL DEFAULT UND _ZN7android14sp_report_ra
19:   FUNC GLOBAL DEFAULT UND _ZN7android21defaultServi
20:   FUNC GLOBAL DEFAULT UND _ZN7android7BBinderC1Ev
21:   FUNC GLOBAL DEFAULT UND _ZN7android7RefBase10onFi
22:   FUNC GLOBAL DEFAULT UND _ZN7android7RefBase12weak
23:   FUNC GLOBAL DEFAULT UND _ZN7android7RefBase13onLa
24:   FUNC GLOBAL DEFAULT UND _ZN7android7RefBase15onLa
25:   FUNC GLOBAL DEFAULT UND _ZN7android7RefBase20onIn
26:   FUNC GLOBAL DEFAULT UND _ZN7android7RefBaseC2Ev
27:   FUNC GLOBAL DEFAULT UND _ZN7android7RefBaseD2Ev
28:   FUNC GLOBAL DEFAULT UND _ZN7android8String16C1EPK
29:   FUNC GLOBAL DEFAULT UND _ZN7android8String16D1Ev
30:   FUNC GLOBAL DEFAULT UND _ZN7logging10LogMessageC1
31:   FUNC GLOBAL DEFAULT UND _ZN7logging22ShouldCreate
32:   FUNC GLOBAL DEFAULT UND _ZNK7android14IPCThreadSt
33:   FUNC GLOBAL DEFAULT UND _ZNK7android14IPCThreadSt
34:   FUNC GLOBAL DEFAULT UND _ZNK7android7RefBase10cre
35:   FUNC GLOBAL DEFAULT UND _ZNK7android7RefBase9decS
36:   FUNC GLOBAL DEFAULT UND _ZNK7android7RefBase9incS
37:   FUNC GLOBAL DEFAULT UND _ZNSt3__113basic_ostreamI
38:   FUNC GLOBAL DEFAULT 14 _ZN7android13BinderWrappe
39:   FUNC WEAK DEFAULT 14 _ZNSt3__124__put_characte
40:   FUNC GLOBAL DEFAULT 14 _ZN7android17RealBinderWr
41:   FUNC GLOBAL DEFAULT 14 _ZN7android17RealBinderWr
42:   FUNC GLOBAL DEFAULT 14 _ZN7android17RealBinderWr
43:   FUNC GLOBAL DEFAULT 14 _ZN7android17RealBinderWr
44:   FUNC GLOBAL DEFAULT 14 _ZN7android17RealBinderWr
45:   FUNC WEAK DEFAULT 14 _ZNSt3__16__treeINS_12__v
46:   FUNC GLOBAL DEFAULT 14 _ZN7android13BinderWrappe
47:   FUNC WEAK DEFAULT 14 _ZNSt3__113__tree_removeI
48:   OBJECT GLOBAL DEFAULT 18 _ZTVN7android17RealBinder
49:   FUNC GLOBAL DEFAULT 14 _ZN7android13BinderWrappe
50:   FUNC GLOBAL DEFAULT 14 _ZN7android13BinderWrappe
51:   FUNC GLOBAL DEFAULT 14 _ZN7android17RealBinderWr
52:   FUNC GLOBAL DEFAULT 14 _ZN7android17RealBinderWr
53:   FUNC GLOBAL DEFAULT 14 _ZN7android17RealBinderWr
54:   FUNC WEAK DEFAULT 14 _ZNSt3__16__treeINS_12__v
55:   FUNC GLOBAL DEFAULT 14 _ZN7android13BinderWrappe
56:   FUNC GLOBAL DEFAULT 14 _ZN7android17RealBinderWr
57:   FUNC GLOBAL DEFAULT 14 _ZN7android17RealBinderWr
58:   FUNC GLOBAL DEFAULT 14 _ZN7android17RealBinderWr
59:   FUNC WEAK DEFAULT 14 _ZNSt3__127__tree_balance
60:   OBJECT WEAK DEFAULT 18 _ZTVN7android17RealBinder
61:   OBJECT GLOBAL DEFAULT 22 _ZN7android13BinderWrappe
62:   FUNC GLOBAL DEFAULT 14 _ZN7android17RealBinderWr
63:   FUNC WEAK DEFAULT 14 _ZNSt3__16__treeINS_12__v
