 0x000000000000000e (SONAME)             Library soname: [libstagefright_foundation.so]
  
Symbol   contains 596 entries:
Num:   Type Bind Vis Ndx Name
0:   NOTYPE LOCAL DEFAULT UND
1:   FUNC GLOBAL DEFAULT UND __cxa_finalize@LIBC (2)
2:   FUNC GLOBAL DEFAULT UND __cxa_atexit@LIBC (2)
3:   FUNC GLOBAL DEFAULT UND _ZN7android10VectorImpl13
4:   FUNC GLOBAL DEFAULT UND _ZN7android10VectorImpl16
5:   FUNC GLOBAL DEFAULT UND _ZN7android10VectorImpl4p
6:   FUNC GLOBAL DEFAULT UND _ZN7android10VectorImplC2
7:   FUNC GLOBAL DEFAULT UND _ZN7android10VectorImplD2
8:   FUNC GLOBAL DEFAULT UND _ZdaPv
9:   FUNC GLOBAL DEFAULT UND _ZdlPv
10:   FUNC GLOBAL DEFAULT UND _Znam
11:   FUNC GLOBAL DEFAULT UND _Znwm
12:   FUNC GLOBAL DEFAULT UND __stack_chk_fail@LIBC (2)
13:   FUNC GLOBAL DEFAULT UND pthread_mutex_destroy@LIBC (2)
14:   FUNC GLOBAL DEFAULT UND pthread_mutex_init@LIBC (2)
15:   FUNC GLOBAL DEFAULT UND pthread_mutex_lock@LIBC (2)
16:   FUNC GLOBAL DEFAULT UND pthread_mutex_unlock@LIBC (2)
17:   FUNC GLOBAL DEFAULT UND __android_log_assert@LIBLOG (3)
18:   FUNC GLOBAL DEFAULT UND _ZN7android14sp_report_ra
19:   FUNC GLOBAL DEFAULT UND _ZN7android7RefBase10onFi
20:   FUNC GLOBAL DEFAULT UND _ZN7android7RefBase13onLa
21:   FUNC GLOBAL DEFAULT UND _ZN7android7RefBase15onLa
22:   FUNC GLOBAL DEFAULT UND _ZN7android7RefBase20onIn
23:   FUNC GLOBAL DEFAULT UND _ZN7android7RefBaseC2Ev
24:   FUNC GLOBAL DEFAULT UND _ZN7android7RefBaseD2Ev
25:   FUNC GLOBAL DEFAULT UND _ZNK7android7RefBase9decS
26:   FUNC GLOBAL DEFAULT UND _ZNK7android7RefBase9incS
27:   FUNC GLOBAL DEFAULT UND free@LIBC (2)
28:   FUNC GLOBAL DEFAULT UND malloc@LIBC (2)
29:   FUNC GLOBAL DEFAULT UND memcpy@LIBC (2)
30:   FUNC GLOBAL DEFAULT UND __android_log_print@LIBLOG (3)
31:   FUNC GLOBAL DEFAULT UND __errno@LIBC (2)
32:   FUNC GLOBAL DEFAULT UND __strlen_chk@LIBC (2)
33:   FUNC GLOBAL DEFAULT UND isspace@LIBC (2)
34:   FUNC GLOBAL DEFAULT UND memmove@LIBC (2)
35:   FUNC GLOBAL DEFAULT UND property_get
36:   FUNC GLOBAL DEFAULT UND strcasestr@LIBC (2)
37:   FUNC GLOBAL DEFAULT UND strchr@LIBC (2)
38:   FUNC GLOBAL DEFAULT UND strdup@LIBC (2)
39:   FUNC GLOBAL DEFAULT UND strlen@LIBC (2)
40:   FUNC GLOBAL DEFAULT UND strtol@LIBC (2)
41:   FUNC GLOBAL DEFAULT UND _ZN7android16SortedVector
42:   FUNC GLOBAL DEFAULT UND _ZNK7android16SortedVecto
43:   FUNC GLOBAL DEFAULT UND _ZN7android16SortedVector
44:   FUNC GLOBAL DEFAULT UND _ZN7android6Thread10ready
45:   FUNC GLOBAL DEFAULT UND _ZN7android6Thread11reque
46:   FUNC GLOBAL DEFAULT UND _ZN7android6Thread18reque
47:   FUNC GLOBAL DEFAULT UND _ZN7android6Thread3runEPK
48:   FUNC GLOBAL DEFAULT UND _ZN7android6ThreadC2Eb
49:   FUNC GLOBAL DEFAULT UND _ZN7android6ThreadD0Ev
50:   FUNC GLOBAL DEFAULT UND _ZN7android6ThreadD1Ev
51:   FUNC GLOBAL DEFAULT UND _ZN7android6ThreadD2Ev
52:   FUNC GLOBAL DEFAULT UND _ZN7android7RefBase12weak
53:   FUNC GLOBAL DEFAULT UND _ZN7android7RefBase12weak
54:   FUNC GLOBAL DEFAULT UND _ZNK7android7RefBase10cre
55:   FUNC GLOBAL DEFAULT UND _ZTv0_n24_N7android6Threa
56:   FUNC GLOBAL DEFAULT UND _ZTv0_n24_N7android6Threa
57:   FUNC GLOBAL DEFAULT UND __cxa_pure_virtual
58:   FUNC GLOBAL DEFAULT UND androidGetThreadId
59:   FUNC GLOBAL DEFAULT UND clock_gettime@LIBC (2)
60:   FUNC GLOBAL DEFAULT UND pthread_cond_broadcast@LIBC (2)
61:   FUNC GLOBAL DEFAULT UND pthread_cond_destroy@LIBC (2)
62:   FUNC GLOBAL DEFAULT UND pthread_cond_init@LIBC (2)
63:   FUNC GLOBAL DEFAULT UND pthread_cond_signal@LIBC (2)
64:   FUNC GLOBAL DEFAULT UND pthread_cond_timedwait@LIBC (2)
65:   FUNC GLOBAL DEFAULT UND pthread_cond_wait@LIBC (2)
66:   FUNC GLOBAL DEFAULT UND pthread_condattr_destroy@LIBC (2)
67:   FUNC GLOBAL DEFAULT UND pthread_condattr_init@LIBC (2)
68:   FUNC GLOBAL DEFAULT UND pthread_condattr_setclock@LIBC (2)
69:   FUNC GLOBAL DEFAULT UND systemTime
70:   FUNC GLOBAL DEFAULT UND _ZN7android10VectorImpl13
71:   FUNC GLOBAL DEFAULT UND _ZN7android10VectorImpl3a
72:   FUNC GLOBAL DEFAULT UND _ZN7android10VectorImpl5c
73:   FUNC GLOBAL DEFAULT UND _ZN7android16SortedVector
74:   FUNC GLOBAL DEFAULT UND _ZN7android7RefBase10rena
75:   FUNC GLOBAL DEFAULT UND _ZN7android7RefBase11rena
76:   FUNC GLOBAL DEFAULT UND _ZN7android7RefBase12weak
77:   FUNC GLOBAL DEFAULT UND _ZN7android7String812appe
78:   FUNC GLOBAL DEFAULT UND _ZN7android7String86appen
79:   FUNC GLOBAL DEFAULT UND _ZN7android7String8C1Ev
80:   FUNC GLOBAL DEFAULT UND _ZN7android7String8D1Ev
81:   FUNC GLOBAL DEFAULT UND _ZN7android8String16C1EPK
82:   FUNC GLOBAL DEFAULT UND _ZN7android8String16D1Ev
83:   FUNC GLOBAL DEFAULT UND _ZNK7android7String86leng
84:   FUNC GLOBAL DEFAULT UND _ZNK7android8String164siz
85:   FUNC GLOBAL DEFAULT UND __vsnprintf_chk@LIBC (2)
86:   FUNC GLOBAL DEFAULT UND memset@LIBC (2)
87:   FUNC GLOBAL DEFAULT UND strzcmp16
88:   FUNC GLOBAL DEFAULT UND write@LIBC (2)
89:   FUNC GLOBAL DEFAULT UND _ZN7android6Parcel10write
90:   FUNC GLOBAL DEFAULT UND _ZN7android6Parcel10write
91:   FUNC GLOBAL DEFAULT UND _ZN7android6Parcel10write
92:   FUNC GLOBAL DEFAULT UND _ZN7android6Parcel11write
93:   FUNC GLOBAL DEFAULT UND _ZN7android6Parcel12write
94:   FUNC GLOBAL DEFAULT UND _ZNK7android6Parcel10read
95:   FUNC GLOBAL DEFAULT UND _ZNK7android6Parcel11read
96:   FUNC GLOBAL DEFAULT UND _ZNK7android6Parcel9readF
97:   FUNC GLOBAL DEFAULT UND _ZNK7android6Parcel9readI
98:   FUNC GLOBAL DEFAULT UND _ZNK7android6Parcel9readI
99:   FUNC GLOBAL DEFAULT UND abort@LIBC (2)
100:   FUNC GLOBAL DEFAULT UND isprint@LIBC (2)
101:   FUNC GLOBAL DEFAULT UND memcmp@LIBC (2)
102:   FUNC GLOBAL DEFAULT UND strcmp@LIBC (2)
103:   FUNC GLOBAL DEFAULT UND _ZN7android6Parcel5writeE
104:   FUNC GLOBAL DEFAULT UND _ZNK7android6Parcel11read
105:   FUNC GLOBAL DEFAULT UND realloc@LIBC (2)
106:   FUNC GLOBAL DEFAULT UND strcasecmp@LIBC (2)
107:   FUNC GLOBAL DEFAULT UND strncasecmp@LIBC (2)
108:   FUNC GLOBAL DEFAULT UND strncmp@LIBC (2)
109:   FUNC GLOBAL DEFAULT UND strstr@LIBC (2)
110:   FUNC GLOBAL DEFAULT UND tolower@LIBC (2)
111:   FUNC GLOBAL DEFAULT UND vasprintf@LIBC (2)
112:   FUNC GLOBAL DEFAULT UND _ZNKSt3__120__vector_base
113:   FUNC GLOBAL DEFAULT UND _ZNSt3__113basic_istreamI
114:   FUNC GLOBAL DEFAULT UND _ZNSt3__113basic_ostreamI
115:   FUNC GLOBAL DEFAULT UND _ZN7android12MemoryDealer
116:   FUNC GLOBAL DEFAULT UND _ZN7android7String8C1ERKS
117:   FUNC GLOBAL DEFAULT UND _ZNK7android7IMemory7poin
118:   OBJECT GLOBAL DEFAULT UND _ZSt7nothrow
119:   FUNC GLOBAL DEFAULT UND _ZnwmRKSt9nothrow_t
120:   FUNC GLOBAL DEFAULT UND _ZN7android12MemoryDealer
121:   FUNC GLOBAL DEFAULT UND _ZNK7android7IMemory4size
122:   FUNC GLOBAL DEFAULT UND _ZN7android16SortedVector
123:   FUNC GLOBAL DEFAULT UND _ZN7android6Parcel11write
124:   FUNC GLOBAL DEFAULT UND _ZN7android6Parcel14write
125:   FUNC GLOBAL DEFAULT UND _ZN7android6Parcel4Blob7r
126:   FUNC GLOBAL DEFAULT UND _ZN7android6Parcel4BlobC2
127:   FUNC GLOBAL DEFAULT UND _ZN7android6Parcel4BlobD2
128:   FUNC GLOBAL DEFAULT UND _ZN7android6Parcel9writeB
129:   FUNC GLOBAL DEFAULT UND _ZN7android7String85setTo
130:   FUNC GLOBAL DEFAULT UND _ZN7android7String86forma
131:   FUNC GLOBAL DEFAULT UND _ZNK7android6Parcel10read
132:   FUNC GLOBAL DEFAULT UND _ZNK7android6Parcel8readB
133:   FUNC GLOBAL DEFAULT UND _ZNK7android6Parcel9readI
134:   FUNC WEAK DEFAULT UND android_set_abort_message@LIBC (2)
135:   FUNC GLOBAL DEFAULT 14 _ZN7android13ALooperRoste
136:   FUNC GLOBAL DEFAULT 14 _ZN7android7ALooper4stopE
137:   FUNC GLOBAL DEFAULT 14 _ZN7android7AString6appen
138:   FUNC GLOBAL DEFAULT 14 _ZN7android6U32_ATEPKh
139:   FUNC GLOBAL DEFAULT 14 _ZN7android10ColorUtils37
140:   FUNC GLOBAL DEFAULT 14 _ZN7android12MetaDataBase
141:   OBJECT GLOBAL DEFAULT 23 _ZN7android9AAtomizer9gAt
142:   FUNC GLOBAL DEFAULT 14 _ZN7android10ABitReaderD0
143:   FUNC GLOBAL DEFAULT 14 _ZN7android16MediaBufferG
144:   FUNC WEAK DEFAULT 14 _ZNK7android6VectorINS_2s
145:   FUNC GLOBAL DEFAULT 14 _ZNK7android8AMessage8con
146:   FUNC GLOBAL DEFAULT 14 _ZN7android7AString6appen
147:   FUNC GLOBAL DEFAULT 14 _ZN7android7AString6inser
148:   FUNC GLOBAL DEFAULT 14 _ZN7android7ALooperC2Ev
149:   OBJECT GLOBAL DEFAULT 16 _ZN7android27MEDIA_MIMETY
150:   OBJECT GLOBAL DEFAULT 16 _ZN7android34MEDIA_MIMETY
151:   FUNC GLOBAL DEFAULT 14 _ZN7android7AString6appen
152:   OBJECT GLOBAL DEFAULT 16 _ZN7android24MEDIA_MIMETY
153:   FUNC GLOBAL DEFAULT 14 _ZN7android17FindAVCDimen
154:   FUNC GLOBAL DEFAULT 14 _ZN7android7AString6appen
155:   OBJECT WEAK DEFAULT 18 _ZTCN7android7ALooper12Lo
156:   FUNC GLOBAL DEFAULT 14 _ZN7android7AString5setTo
157:   FUNC GLOBAL DEFAULT 14 _ZN7android12MetaDataBase
158:   FUNC GLOBAL DEFAULT 14 _ZN7android7ALooperD1Ev
159:   FUNC GLOBAL DEFAULT 14 _ZN7android8AMessage13fre
160:   FUNC GLOBAL DEFAULT 14 _ZNK7android8AMessage8fin
161:   FUNC GLOBAL DEFAULT 14 _ZNK7android7AString4hash
162:   FUNC GLOBAL DEFAULT 14 _ZNK7android8AMessage8fin
163:   FUNC GLOBAL DEFAULT 14 _ZN7android7AString6appen
164:   FUNC GLOBAL DEFAULT 14 _ZN7android7AString6appen
165:   FUNC GLOBAL DEFAULT 14 _ZNK7android7AString17com
166:   FUNC GLOBAL DEFAULT 14 _ZNK7android7AStringltERK
167:   FUNC GLOBAL DEFAULT 14 _ZN7android16MediaBufferG
168:   FUNC GLOBAL DEFAULT 14 _ZN7android16MediaBufferG
169:   OBJECT GLOBAL DEFAULT 16 _ZN7android30MEDIA_MIMETY
170:   FUNC GLOBAL DEFAULT 14 _ZN7android7AString6appen
171:   FUNC GLOBAL DEFAULT 14 _ZN7android13ALooperRoste
172:   OBJECT WEAK DEFAULT 18 _ZTVN7android12SortedVect
173:   FUNC GLOBAL DEFAULT 14 _ZN7android7AString5erase
174:   FUNC GLOBAL DEFAULT 14 _ZN7android12MetaDataBase
175:   FUNC GLOBAL DEFAULT 14 _ZN7android8AMessage10set
176:   FUNC GLOBAL DEFAULT 14 _ZN7android10ColorUtils15
177:   FUNC GLOBAL DEFAULT 14 _ZN7android10ColorUtils9p
178:   FUNC GLOBAL DEFAULT 14 _ZN7android8AMessage17set
179:   FUNC GLOBAL DEFAULT 14 _ZN7android7AString7tolow
180:   FUNC GLOBAL DEFAULT 14 _ZN7android10ColorUtils35
181:   FUNC GLOBAL DEFAULT 14 _ZN7android14getNextNALUn
182:   FUNC GLOBAL DEFAULT 14 _ZN7android12NALBitReader
183:   FUNC GLOBAL DEFAULT 14 _ZNK7android12MetaDataBas
184:   FUNC WEAK DEFAULT 14 _ZN7android7ALookupINS_10
185:   FUNC GLOBAL DEFAULT 14 _ZNK7android11MediaBuffer
186:   FUNC GLOBAL DEFAULT 14 _ZNK7android7AString7comp
187:   OBJECT GLOBAL DEFAULT 16 _ZN7android33MEDIA_MIMETY
188:   FUNC GLOBAL DEFAULT 14 _ZN7android12MetaDataBase
189:   OBJECT GLOBAL DEFAULT 18 _ZTVN7android10ABitReader
190:   FUNC GLOBAL DEFAULT 14 _ZNK7android8AMessage13wr
191:   FUNC GLOBAL DEFAULT 14 _ZNK7android8AMessage9fin
192:   FUNC GLOBAL DEFAULT 14 _ZN7android10ColorUtils25
193:   OBJECT GLOBAL DEFAULT 16 _ZN7android25MEDIA_MIMETY
194:   FUNC GLOBAL DEFAULT 14 _ZN7android8AMessage10set
195:   FUNC WEAK DEFAULT 14 _ZNSt3__16__treeINS_12__v
196:   FUNC GLOBAL DEFAULT 14 _ZN7android11MediaBuffer7
197:   FUNC GLOBAL DEFAULT 14 _ZN7android11MediaBufferC
198:   FUNC GLOBAL DEFAULT 14 _ZN7android10ABitReaderC2
199:   FUNC GLOBAL DEFAULT 14 _ZNK7android11MediaBuffer
200:   OBJECT GLOBAL DEFAULT 16 _ZN7android24MEDIA_MIMETY
201:   FUNC GLOBAL DEFAULT 14 _ZN7android18AVCProfileTo
202:   FUNC GLOBAL DEFAULT 14 _ZN7android9AAtomizer4Has
203:   FUNC GLOBAL DEFAULT 14 _ZNK7android10ABitReader4
204:   FUNC GLOBAL DEFAULT 14 _ZN7android8AMessage5clea
205:   FUNC GLOBAL DEFAULT 14 _ZN7android8AMessageD2Ev
206:   FUNC GLOBAL DEFAULT 14 _ZThn16_N7android8MetaDat
207:   FUNC GLOBAL DEFAULT 14 _ZN7android12MetaDataBase
208:   FUNC GLOBAL DEFAULT 14 _ZN7android8AMessage10Fro
209:   FUNC GLOBAL DEFAULT 14 _ZN7android7AStringC2EPKc
210:   FUNC GLOBAL DEFAULT 14 _ZNK7android7AString16equ
211:   FUNC GLOBAL DEFAULT 14 _ZN7android7AStringaSERKS
212:   FUNC GLOBAL DEFAULT 14 _ZN7android7AString6appen
213:   FUNC GLOBAL DEFAULT 14 _ZN7android7AString6appen
214:   FUNC GLOBAL DEFAULT 14 _ZNK7android7AString13wri
215:   FUNC GLOBAL DEFAULT 14 _ZN7android7AStringC1ERKS
216:   FUNC WEAK DEFAULT 14 _ZNK7android6VectorINS_2s
217:   OBJECT GLOBAL DEFAULT 18 _ZTVN7android8AMessageE
218:   FUNC GLOBAL DEFAULT 14 _ZN7android7AString6appen
219:   FUNC GLOBAL DEFAULT 14 _ZN7android11MediaBufferD
220:   OBJECT GLOBAL DEFAULT 16 _ZN7android26MEDIA_MIMETY
221:   FUNC GLOBAL DEFAULT 14 _ZNK7android12MetaDataBas
222:   FUNC GLOBAL DEFAULT 14 _ZN7android8AMessageC1Ev
223:   FUNC GLOBAL DEFAULT 14 _ZNK7android7AString10sta
224:   FUNC GLOBAL DEFAULT 14 _ZN7android10ColorUtils25
225:   FUNC GLOBAL DEFAULT 14 _ZN7android11MediaBufferC
226:   FUNC GLOBAL DEFAULT 14 _ZN7android12MetaDataBase
227:   FUNC GLOBAL DEFAULT 14 _ZN7android12MetaDataBase
228:   FUNC GLOBAL DEFAULT 14 _ZN7android30ExtractDimen
229:   FUNC GLOBAL DEFAULT 14 _ZN7android10ColorUtils33
230:   FUNC GLOBAL DEFAULT 14 _ZN7android10ColorUtils41
231:   FUNC GLOBAL DEFAULT 14 _ZN7android8MetaDataC2ERK
232:   FUNC GLOBAL DEFAULT 14 _ZN7android12decodeBase64
233:   FUNC GLOBAL DEFAULT 14 _ZN7android12NALBitReader
234:   FUNC GLOBAL DEFAULT 14 _ZN7android7AStringC1EPKc
235:   FUNC GLOBAL DEFAULT 14 _ZN7android8AMessage7setS
236:   FUNC GLOBAL DEFAULT 14 _ZNK7android8AMessage10fi
237:   FUNC GLOBAL DEFAULT 14 _ZN7android7AString6inser
238:   FUNC WEAK DEFAULT 14 _ZN7android7ALookupINS_10
239:   FUNC GLOBAL DEFAULT 14 _ZN7android11MediaBuffer5
240:   FUNC GLOBAL DEFAULT 14 _ZN7android7ALooper8GetNo
241:   FUNC WEAK DEFAULT 14 _ZNK7android12SortedVecto
242:   FUNC GLOBAL DEFAULT 14 _ZN7android8AMessageD0Ev
243:   FUNC GLOBAL DEFAULT 14 _ZN7android12AStringUtils
244:   FUNC GLOBAL DEFAULT 14 _ZN7android11MediaBufferC
245:   FUNC GLOBAL DEFAULT 14 _ZNK7android12MetaDataBas
246:   FUNC GLOBAL DEFAULT 14 _ZN7android9AAtomizerC2Ev
247:   FUNC GLOBAL DEFAULT 14 _ZN7android7hexdumpEPKvmm
248:   FUNC GLOBAL DEFAULT 14 _ZNK7android8AMessage10ge
249:   FUNC GLOBAL DEFAULT 14 _ZN7android6U16_ATEPKh
250:   FUNC WEAK DEFAULT 14 _ZN7android7ALookupINS_10
251:   FUNC GLOBAL DEFAULT 14 _ZN7android16MediaBufferG
252:   OBJECT GLOBAL DEFAULT 16 _ZN7android24MEDIA_MIMETY
253:   FUNC GLOBAL DEFAULT 14 _ZNK7android7AString5c_st
254:   FUNC GLOBAL DEFAULT 14 _ZN7android11MediaBufferD
255:   FUNC GLOBAL DEFAULT 14 _ZN7android10ABitReader15
256:   FUNC GLOBAL DEFAULT 14 _ZN7android8AMessage7setR
257:   FUNC WEAK DEFAULT 14 _ZN7android7ALookupINS_10
258:   FUNC GLOBAL DEFAULT 14 _ZNK7android12MetaDataBas
259:   FUNC GLOBAL DEFAULT 14 _ZNK7android8AMessage14ge
260:   FUNC WEAK DEFAULT 14 _ZNK7android12SortedVecto
261:   OBJECT GLOBAL DEFAULT 16 _ZN7android24MEDIA_MIMETY
262:   FUNC GLOBAL DEFAULT 14 _ZN7android8AMessageC2EjR
263:   FUNC WEAK DEFAULT 14 _ZNK7android12SortedVecto
264:   OBJECT GLOBAL DEFAULT 18 _ZTVN7android16MediaBuffe
265:   FUNC GLOBAL DEFAULT 14 _ZNK7android12MetaDataBas
266:   OBJECT WEAK DEFAULT 18 _ZTVN7android6VectorINS_4
267:   OBJECT GLOBAL DEFAULT 16 _ZN7android27MEDIA_MIMETY
268:   FUNC GLOBAL DEFAULT 14 _ZN7android12MetaDataBase
269:   FUNC GLOBAL DEFAULT 14 _ZN7android12MetaDataBase
270:   FUNC GLOBAL DEFAULT 14 _ZN7android6ADebug12GetDe
271:   FUNC GLOBAL DEFAULT 14 _ZN7android10ColorUtils30
272:   FUNC GLOBAL DEFAULT 14 _ZNK7android11MediaBuffer
273:   OBJECT GLOBAL DEFAULT 16 _ZN7android25MEDIA_MIMETY
274:   FUNC GLOBAL DEFAULT 14 _ZN7android10ABitReader13
275:   FUNC WEAK DEFAULT 14 _ZNK7android6VectorINS_2s
276:   FUNC WEAK DEFAULT 14 _ZN7android7ALookupI19and
277:   FUNC GLOBAL DEFAULT 14 _ZN7android12MetaDataBase
278:   FUNC WEAK DEFAULT 14 _ZNK7android6VectorINS_4L
279:   OBJECT GLOBAL DEFAULT 18 _ZTVN7android7ALooperE
280:   FUNC GLOBAL DEFAULT 14 _ZN7android7ABufferC1Em
281:   FUNC GLOBAL DEFAULT 14 _ZN7android7ALooper5start
282:   FUNC GLOBAL DEFAULT 14 _ZN7android10ColorUtils27
283:   OBJECT GLOBAL DEFAULT 18 _ZTVN7android7ABufferE
284:   FUNC GLOBAL DEFAULT 14 _ZNK7android8AMessage15fi
285:   FUNC GLOBAL DEFAULT 14 _ZNK7android8AMessage9fin
286:   FUNC GLOBAL DEFAULT 14 _ZN7android16MediaBufferG
287:   FUNC GLOBAL DEFAULT 14 _ZNK7android12MetaDataBas
288:   FUNC GLOBAL DEFAULT 14 _ZN7android19IsAVCReferen
289:   FUNC GLOBAL DEFAULT 14 _ZN7android8AMessage13rem
290:   OBJECT GLOBAL DEFAULT 16 _ZN7android26MEDIA_MIMETY
291:   OBJECT GLOBAL DEFAULT 18 _ZN7android36kIStreamList
292:   FUNC GLOBAL DEFAULT 14 _ZN7android10ABitReader7p
293:   FUNC WEAK DEFAULT 14 _ZNK7android12SortedVecto
294:   FUNC GLOBAL DEFAULT 14 _ZN7android7AStringC2ERKN
295:   OBJECT WEAK DEFAULT 18 _ZTVN7android12SortedVect
296:   OBJECT GLOBAL DEFAULT 16 _ZN7android30MEDIA_MIMETY
297:   FUNC GLOBAL DEFAULT 14 _ZN7android7AString6appen
298:   OBJECT GLOBAL DEFAULT 16 _ZN7android26MEDIA_MIMETY
299:   FUNC GLOBAL DEFAULT 14 _ZNK7android7AStringeqERK
300:   FUNC GLOBAL DEFAULT 14 _ZN7android7ABufferD2Ev
301:   OBJECT WEAK DEFAULT 18 _ZTVN7android7ALooper12Lo
302:   FUNC WEAK DEFAULT 14 _ZNSt3__127__tree_balance
303:   FUNC GLOBAL DEFAULT 14 _ZNK7android8AMessage12co
304:   FUNC GLOBAL DEFAULT 14 _ZNK7android12MetaDataBas
305:   FUNC GLOBAL DEFAULT 14 _ZN7android20GetOpusHeade
306:   FUNC GLOBAL DEFAULT 14 _ZN7android10ABitReaderC1
307:   FUNC GLOBAL DEFAULT 14 _ZN7android7AString6appen
308:   FUNC GLOBAL DEFAULT 14 _ZN7android7AString4trimE
309:   FUNC GLOBAL DEFAULT 14 _ZN7android7AStringD2Ev
310:   FUNC GLOBAL DEFAULT 14 _ZN7android10ColorUtils24
311:   FUNC GLOBAL DEFAULT 14 _ZN7android12MetaDataBase
312:   FUNC GLOBAL DEFAULT 14 _ZNK7android12NALBitReade
313:   OBJECT WEAK DEFAULT 18 _ZTVN7android6VectorINS_2
314:   FUNC GLOBAL DEFAULT 14 _ZN7android8AMessage9setO
315:   FUNC GLOBAL DEFAULT 14 _ZNK7android7AString4size
316:   FUNC WEAK DEFAULT 14 _ZNSt3__16__treeINS_12__v
317:   FUNC WEAK DEFAULT 14 _ZNSt3__16vectorIN7androi
318:   FUNC GLOBAL DEFAULT 14 _ZN7android10ColorUtils32
319:   OBJECT GLOBAL DEFAULT 16 _ZN7android25MEDIA_MIMETY
320:   OBJECT GLOBAL DEFAULT 16 _ZN7android27MEDIA_MIMETY
321:   FUNC GLOBAL DEFAULT 14 _ZN7android8MetaDataC2Ev
322:   FUNC GLOBAL DEFAULT 14 _ZN7android12MetaDataBase
323:   FUNC GLOBAL DEFAULT 14 _ZNK7android8AMessage4wha
324:   FUNC GLOBAL DEFAULT 14 _ZNK7android8AMessage3dup
325:   FUNC GLOBAL DEFAULT 14 _ZN7android7AStringC2ERKS
326:   OBJECT GLOBAL DEFAULT 16 _ZN7android28MEDIA_MIMETY
327:   FUNC GLOBAL DEFAULT 14 _ZNK7android12MetaDataBas
328:   FUNC GLOBAL DEFAULT 14 _ZN7android7AStringC1Ev
329:   FUNC GLOBAL DEFAULT 14 _ZNK7android8AMessage10fi
330:   OBJECT WEAK DEFAULT 18 _ZN7android7AString12kEmp
331:   OBJECT GLOBAL DEFAULT 16 _ZN7android26MEDIA_MIMETY
332:   FUNC GLOBAL DEFAULT 14 _ZN7android7ABufferD0Ev
333:   FUNC GLOBAL DEFAULT 14 _ZN7android6ADebug20GetLe
334:   FUNC GLOBAL DEFAULT 14 _ZN7android16MediaBufferG
335:   OBJECT GLOBAL DEFAULT 16 _ZN7android24MEDIA_MIMETY
336:   FUNC GLOBAL DEFAULT 14 _ZN7android8MetaDataD1Ev
337:   OBJECT WEAK DEFAULT 18 _ZTTN7android7ALooper12Lo
338:   FUNC GLOBAL DEFAULT 14 _ZN7android7AString5setTo
339:   FUNC GLOBAL DEFAULT 14 _ZN7android7AStringC2ERKS
340:   FUNC GLOBAL DEFAULT 14 _ZN7android16MakeFourCCSt
341:   OBJECT GLOBAL DEFAULT 16 _ZN7android25MEDIA_MIMETY
342:   FUNC GLOBAL DEFAULT 14 _ZN7android7ABuffer4metaE
343:   FUNC GLOBAL DEFAULT 14 _ZN7android13ALooperRoste
344:   FUNC GLOBAL DEFAULT 14 _ZN7android11MediaBuffer9
345:   FUNC WEAK DEFAULT 14 _ZNK7android12SortedVecto
346:   FUNC GLOBAL DEFAULT 14 _ZNK7android8AMessage11de
347:   FUNC WEAK DEFAULT 14 _ZNK7android12SortedVecto
348:   FUNC GLOBAL DEFAULT 14 _ZN7android9AAtomizer7Ato
349:   FUNC GLOBAL DEFAULT 14 _ZN7android7AStringC1ERKN
350:   FUNC GLOBAL DEFAULT 14 _ZNK7android8AMessage11fi
351:   FUNC GLOBAL DEFAULT 14 _ZNK7android8AMessage8fin
352:   FUNC GLOBAL DEFAULT 14 _ZN7android10ColorUtils36
353:   OBJECT GLOBAL DEFAULT 16 _ZN7android25MEDIA_MIMETY
354:   FUNC GLOBAL DEFAULT 14 _ZN7android10ABitReaderD1
355:   FUNC GLOBAL DEFAULT 14 _ZN7android8AMessage7setI
356:   FUNC GLOBAL DEFAULT 14 _ZN7android7AString11make
357:   FUNC WEAK DEFAULT 14 _ZNK7android12SortedVecto
358:   FUNC WEAK DEFAULT 14 _ZNK7android6VectorINS_4L
359:   FUNC GLOBAL DEFAULT 14 _ZN7android10ABitReader8s
360:   FUNC GLOBAL DEFAULT 14 _ZN7android7ALooper9postR
361:   FUNC WEAK DEFAULT 14 _ZNSt3__16__treeINS_12__v
362:   FUNC GLOBAL DEFAULT 14 _ZN7android13ALooperRoste
363:   FUNC WEAK DEFAULT 14 _ZNK7android12SortedVecto
364:   FUNC GLOBAL DEFAULT 14 _ZN7android6ntoh64Em
365:   FUNC WEAK DEFAULT 14 _ZNK7android12SortedVecto
366:   FUNC GLOBAL DEFAULT 14 _ZN7android9AAtomizer7ato
367:   FUNC GLOBAL DEFAULT 14 _ZN7android10ABitReader7g
368:   FUNC GLOBAL DEFAULT 14 _ZN7android10ColorUtils33
369:   FUNC WEAK DEFAULT 14 _ZN7android7ALookupIiNS_1
370:   OBJECT GLOBAL DEFAULT 16 _ZN7android27MEDIA_MIMETY
371:   OBJECT GLOBAL DEFAULT 16 _ZN7android30MEDIA_MIMETY
372:   OBJECT GLOBAL DEFAULT 16 _ZN7android33MEDIA_MIMETY
373:   FUNC GLOBAL DEFAULT 14 _ZN7android7AString6appen
374:   OBJECT GLOBAL DEFAULT 23 _ZN7android13gLooperRoste
375:   OBJECT GLOBAL DEFAULT 16 _ZN7android24MEDIA_MIMETY
376:   OBJECT GLOBAL DEFAULT 16 _ZN7android25MEDIA_MIMETY
377:   FUNC GLOBAL DEFAULT 14 _ZN7android12MetaDataBase
378:   OBJECT GLOBAL DEFAULT 16 _ZN7android29MEDIA_MIMETY
379:   FUNC GLOBAL DEFAULT 14 _ZN7android7ALooperD2Ev
380:   FUNC GLOBAL DEFAULT 14 _ZN7android8AMessage4post
381:   FUNC GLOBAL DEFAULT 14 _ZN7android8AMessage8setI
382:   FUNC GLOBAL DEFAULT 14 _ZN7android10ColorUtils36
383:   FUNC GLOBAL DEFAULT 14 _ZN7android11MediaBuffer5
384:   FUNC GLOBAL DEFAULT 14 _ZN7android12MetaDataBase
385:   FUNC GLOBAL DEFAULT 14 _ZN7android8AHandler14del
386:   OBJECT GLOBAL DEFAULT 23 _ZN7android11MediaBuffer1
387:   FUNC GLOBAL DEFAULT 14 _ZN7android12MetaDataBase
388:   FUNC GLOBAL DEFAULT 14 _ZN7android15ParseOpusHea
389:   FUNC GLOBAL DEFAULT 14 _ZN7android7ALooper17unre
390:   FUNC GLOBAL DEFAULT 14 _ZN7android7ALooperC1Ev
391:   FUNC GLOBAL DEFAULT 14 _ZN7android11MediaBuffer7
392:   FUNC GLOBAL DEFAULT 14 _ZNK7android12MetaDataBas
393:   FUNC GLOBAL DEFAULT 14 _ZN7android10ABitReader19
394:   FUNC GLOBAL DEFAULT 14 _ZN7android7ABufferC1EPvm
395:   FUNC GLOBAL DEFAULT 14 _ZN7android8AMessage20pos
396:   FUNC GLOBAL DEFAULT 14 _ZN7android12encodeBase64
397:   FUNC WEAK DEFAULT 14 _ZNK7android6VectorINS_2s
398:   FUNC GLOBAL DEFAULT 14 _ZN7android12MetaDataBase
399:   FUNC WEAK DEFAULT 14 _ZNK7android12SortedVecto
400:   FUNC WEAK DEFAULT 14 _ZNK7android12SortedVecto
401:   FUNC GLOBAL DEFAULT 14 _ZN7android12MetaDataBase
402:   FUNC WEAK DEFAULT 14 _ZNK7android6VectorINS_4L
403:   FUNC WEAK DEFAULT 14 _ZNK7android6VectorINS_4L
404:   FUNC GLOBAL DEFAULT 14 _ZN7android7ALooperD0Ev
405:   FUNC WEAK DEFAULT 14 _ZN7android7ALookupINS_10
406:   FUNC GLOBAL DEFAULT 14 _ZNK7android11MediaBuffer
407:   FUNC GLOBAL DEFAULT 14 _ZN7android8AMessage9setT
408:   FUNC GLOBAL DEFAULT 14 _ZN7android10ColorUtils35
409:   FUNC WEAK DEFAULT 14 _ZNK7android6VectorINS_4L
410:   FUNC GLOBAL DEFAULT 14 _ZN7android11MediaBufferC
411:   FUNC GLOBAL DEFAULT 14 _ZN7android12MetaDataBase
412:   FUNC WEAK DEFAULT 14 _ZNK7android12SortedVecto
413:   FUNC WEAK DEFAULT 14 _ZNK7android12SortedVecto
414:   FUNC GLOBAL DEFAULT 14 _ZN7android8AMessage4Item
415:   FUNC GLOBAL DEFAULT 14 _ZNK7android7AString8ends
416:   FUNC GLOBAL DEFAULT 14 _ZN7android12MetaDataBase
417:   FUNC GLOBAL DEFAULT 14 _ZN7android12MetaDataBase
418:   OBJECT GLOBAL DEFAULT 16 _ZN7android28MEDIA_MIMETY
419:   OBJECT GLOBAL DEFAULT 16 _ZN7android30MEDIA_MIMETY
420:   FUNC GLOBAL DEFAULT 14 _ZN7android8MetaDataC1ERK
421:   FUNC GLOBAL DEFAULT 14 _ZNK7android12MetaDataBas
422:   FUNC GLOBAL DEFAULT 14 _ZN7android8AMessage9setD
423:   FUNC WEAK DEFAULT 14 _ZN7android7ALookupINS_10
424:   FUNC GLOBAL DEFAULT 14 _ZNK7android16MediaBuffer
425:   FUNC GLOBAL DEFAULT 14 _ZN7android16MediaBufferG
426:   OBJECT GLOBAL DEFAULT 16 _ZN7android26MEDIA_MIMETY
427:   FUNC GLOBAL DEFAULT 14 _ZN7android12MetaDataBase
428:   FUNC GLOBAL DEFAULT 14 _ZN7android12MetaDataBase
429:   FUNC GLOBAL DEFAULT 14 _ZN7android5IsIDREPKhm
430:   FUNC GLOBAL DEFAULT 14 _ZN7android11AReplyToken8
431:   FUNC GLOBAL DEFAULT 14 _ZN7android8AMessageC2Ev
432:   FUNC GLOBAL DEFAULT 14 _ZNK7android8AMessage9fin
433:   FUNC GLOBAL DEFAULT 14 _ZN7android13AStringPrint
434:   FUNC GLOBAL DEFAULT 14 _ZN7android8AMessageD1Ev
435:   FUNC GLOBAL DEFAULT 14 _ZThn16_N7android8MetaDat
436:   FUNC GLOBAL DEFAULT 14 _ZN7android12MetaDataBase
437:   FUNC GLOBAL DEFAULT 14 _ZN7android12MetaDataBase
438:   FUNC GLOBAL DEFAULT 14 _ZN7android10ColorUtils20
439:   OBJECT WEAK DEFAULT 18 _ZTVN7android15MediaBuffe
440:   FUNC GLOBAL DEFAULT 14 _ZN7android14FindAVCLayer
441:   FUNC WEAK DEFAULT 14 _ZNK7android12SortedVecto
442:   FUNC WEAK DEFAULT 14 _ZNK7android6VectorINS_2s
443:   FUNC GLOBAL DEFAULT 14 _ZN7android11MediaBuffer1
444:   OBJECT WEAK DEFAULT 18 _ZTVN7android12SortedVect
445:   FUNC GLOBAL DEFAULT 14 _ZN7android12AStringUtils
446:   FUNC GLOBAL DEFAULT 14 _ZN7android27serializeAud
447:   FUNC GLOBAL DEFAULT 14 _ZN7android11MediaBufferD
448:   OBJECT GLOBAL DEFAULT 16 _ZN7android34MEDIA_MIMETY
449:   FUNC GLOBAL DEFAULT 14 _ZN7android19parseUEWithF
450:   FUNC GLOBAL DEFAULT 14 _ZN7android8AMessage9post
451:   FUNC GLOBAL DEFAULT 14 _ZN7android21GetMPEGAudio
452:   FUNC GLOBAL DEFAULT 14 _ZN7android7ABuffer8setRa
453:   FUNC GLOBAL DEFAULT 14 _ZN7android12MetaDataBase
454:   OBJECT GLOBAL DEFAULT 16 _ZN7android24MEDIA_MIMETY
455:   FUNC GLOBAL DEFAULT 14 _ZNK7android8AMessage11fi
456:   FUNC GLOBAL DEFAULT 14 _ZN7android6U64_ATEPKh
457:   FUNC GLOBAL DEFAULT 14 _ZN7android10ColorUtils26
458:   OBJECT GLOBAL DEFAULT 16 _ZN7android25MEDIA_MIMETY
459:   OBJECT GLOBAL DEFAULT 16 _ZN7android26MEDIA_MIMETY
460:   OBJECT GLOBAL DEFAULT 16 _ZN7android33MEDIA_MIMETY
461:   OBJECT GLOBAL DEFAULT 16 _ZN7android33MEDIA_MIMETY
462:   FUNC GLOBAL DEFAULT 14 _ZNK7android10ABitReader1
463:   FUNC GLOBAL DEFAULT 14 _ZN7android6ADebug17getEx
464:   FUNC WEAK DEFAULT 14 _ZN7android7ALookupINS_10
465:   FUNC GLOBAL DEFAULT 14 _ZN7android9AAtomizerC1Ev
466:   FUNC GLOBAL DEFAULT 14 _ZN7android7AString5setTo
467:   FUNC GLOBAL DEFAULT 14 _ZN7android8U16LE_ATEPKh
468:   FUNC WEAK DEFAULT 14 _ZNK7android12SortedVecto
469:   FUNC GLOBAL DEFAULT 14 _ZN7android16MediaBufferG
470:   FUNC GLOBAL DEFAULT 14 _ZN7android12decodeBase64
471:   FUNC GLOBAL DEFAULT 14 _ZN7android8AMessage7deli
472:   FUNC GLOBAL DEFAULT 14 _ZNK7android7AString20sta
473:   OBJECT GLOBAL DEFAULT 16 _ZN7android23MEDIA_MIMETY
474:   OBJECT GLOBAL DEFAULT 18 _ZN7android30kATSParserKe
475:   FUNC GLOBAL DEFAULT 14 _ZNK7android12MetaDataBas
476:   FUNC WEAK DEFAULT 14 _ZNK7android6VectorINS_4L
477:   FUNC GLOBAL DEFAULT 14 _ZN7android8AMessage14set
478:   FUNC GLOBAL DEFAULT 14 _ZN7android19parseSEWithF
479:   FUNC GLOBAL DEFAULT 14 _ZN7android7ALooper4postE
480:   FUNC GLOBAL DEFAULT 14 _ZN7android8AMessage12all
481:   OBJECT GLOBAL DEFAULT 16 _ZN7android25MEDIA_MIMETY
482:   FUNC GLOBAL DEFAULT 14 _ZNK7android12MetaDataBas
483:   FUNC GLOBAL DEFAULT 14 _ZN7android16WriteOpusHea
484:   FUNC GLOBAL DEFAULT 14 _ZN7android7ABufferC2Em
485:   FUNC GLOBAL DEFAULT 14 _ZNK7android8AMessage10fi
486:   FUNC GLOBAL DEFAULT 14 _ZNK7android8AMessage8fin
487:   FUNC GLOBAL DEFAULT 14 _ZN7android10ColorUtils20
488:   FUNC GLOBAL DEFAULT 14 _ZN7android10ColorUtils41
489:   FUNC GLOBAL DEFAULT 14 _ZN7android16MediaBufferG
490:   OBJECT GLOBAL DEFAULT 16 _ZN7android25MEDIA_MIMETY
491:   OBJECT GLOBAL DEFAULT 16 _ZN7android29MEDIA_MIMETY
492:   OBJECT GLOBAL DEFAULT 16 _ZN7android30MEDIA_MIMETY
493:   OBJECT GLOBAL DEFAULT 18 _ZN7android24kATSParserKe
494:   FUNC GLOBAL DEFAULT 14 _ZN7android7AStringC1EPKc
495:   FUNC WEAK DEFAULT 14 _ZNK7android6VectorINS_2s
496:   FUNC GLOBAL DEFAULT 14 _ZN7android8AMessage10set
497:   FUNC WEAK DEFAULT 14 _ZN7android7ALookupIiNS_1
498:   FUNC GLOBAL DEFAULT 14 _ZN7android7parseUEEPNS_1
499:   FUNC GLOBAL DEFAULT 14 _ZN7android8AMessage6exte
500:   FUNC GLOBAL DEFAULT 14 _ZN7android7AStringC1ERKS
501:   FUNC GLOBAL DEFAULT 14 _ZN7android10ColorUtils32
502:   OBJECT GLOBAL DEFAULT 16 _ZN7android25MEDIA_MIMETY
503:   OBJECT GLOBAL DEFAULT 16 _ZN7android29MEDIA_MIMETY
504:   FUNC GLOBAL DEFAULT 14 _ZN7android12MetaDataBase
505:   OBJECT GLOBAL DEFAULT 18 _ZTVN7android12NALBitRead
506:   FUNC GLOBAL DEFAULT 14 _ZN7android7ALooper15regi
507:   FUNC GLOBAL DEFAULT 14 _ZN7android8AMessageC1EjR
508:   FUNC GLOBAL DEFAULT 14 _ZN7android8U64LE_ATEPKh
509:   OBJECT GLOBAL DEFAULT 18 _ZTVN7android11MediaBuffe
510:   FUNC GLOBAL DEFAULT 14 _ZN7android11MediaBufferC
511:   OBJECT GLOBAL DEFAULT 16 _ZN7android25MEDIA_MIMETY
512:   OBJECT WEAK DEFAULT 18 _ZTVN7android4ListINS_7AL
513:   FUNC GLOBAL DEFAULT 14 _ZN7android8AMessage8setI
514:   FUNC GLOBAL DEFAULT 14 _ZN7android11MediaBuffer9
515:   OBJECT GLOBAL DEFAULT 16 _ZN7android24MEDIA_MIMETY
516:   OBJECT WEAK DEFAULT 18 _ZTVN7android4ListINS_7AS
517:   FUNC GLOBAL DEFAULT 14 _ZN7android7ALooper16crea
518:   OBJECT WEAK DEFAULT 18 _ZTVN7android11AReplyToke
519:   FUNC GLOBAL DEFAULT 14 _ZN7android7ALooper4loopE
520:   FUNC WEAK DEFAULT 14 _ZNK7android12SortedVecto
521:   FUNC GLOBAL DEFAULT 14 _ZN7android16MediaBufferG
522:   OBJECT GLOBAL DEFAULT 16 _ZN7android24MEDIA_MIMETY
523:   FUNC GLOBAL DEFAULT 14 _ZN7android12MetaDataBase
524:   FUNC GLOBAL DEFAULT 14 _ZN7android8AMessage20sen
525:   FUNC GLOBAL DEFAULT 14 _ZN7android8AMessage9setS
526:   FUNC GLOBAL DEFAULT 14 _ZNK7android7AString18end
527:   FUNC GLOBAL DEFAULT 14 _ZN7android10ColorUtils26
528:   OBJECT GLOBAL DEFAULT 16 _ZN7android32MEDIA_MIMETY
529:   FUNC GLOBAL DEFAULT 14 _ZN7android6ADebug26GetLe
530:   FUNC GLOBAL DEFAULT 14 _ZN7android15MediaBufferB
531:   OBJECT GLOBAL DEFAULT 16 _ZN7android24MEDIA_MIMETY
532:   FUNC WEAK DEFAULT 14 _ZNK7android12SortedVecto
533:   FUNC GLOBAL DEFAULT 14 _ZNK7android8AMessage11ch
534:   FUNC GLOBAL DEFAULT 14 _ZN7android7AStringC2Ev
535:   FUNC GLOBAL DEFAULT 14 _ZNK7android7AString4find
536:   FUNC GLOBAL DEFAULT 14 _ZN7android29deserializeA
537:   FUNC GLOBAL DEFAULT 14 _ZN7android7ABuffer12Crea
538:   FUNC GLOBAL DEFAULT 14 _ZN7android7ABufferD1Ev
539:   FUNC GLOBAL DEFAULT 14 _ZN7android6ADebug25GetDe
540:   FUNC GLOBAL DEFAULT 14 _ZN7android7ALooper7setNa
541:   FUNC GLOBAL DEFAULT 14 _ZN7android8AMessage8setF
542:   OBJECT GLOBAL DEFAULT 16 _ZN7android27MEDIA_MIMETY
543:   OBJECT GLOBAL DEFAULT 18 _ZN7android24kATSParserKe
544:   FUNC GLOBAL DEFAULT 14 _ZN7android8MetaDataD2Ev
545:   FUNC GLOBAL DEFAULT 14 _ZNK7android8AMessage10fi
546:   FUNC WEAK DEFAULT 14 _ZNK7android12SortedVecto
547:   FUNC GLOBAL DEFAULT 14 _ZN7android7AStringD1Ev
548:   FUNC GLOBAL DEFAULT 14 _ZN7android7ALooper13awai
549:   FUNC GLOBAL DEFAULT 14 _ZN7android8U32LE_ATEPKh
550:   FUNC GLOBAL DEFAULT 14 _ZN7android10ColorUtils39
551:   OBJECT GLOBAL DEFAULT 16 _ZN7android26MEDIA_MIMETY
552:   OBJECT GLOBAL DEFAULT 16 _ZN7android29MEDIA_MIMETY
553:   FUNC GLOBAL DEFAULT 14 _ZN7android8MetaData16cre
554:   FUNC GLOBAL DEFAULT 14 _ZN7android7ABufferC2EPvm
555:   FUNC GLOBAL DEFAULT 14 _ZN7android7AString10From
556:   FUNC GLOBAL DEFAULT 14 _ZN7android7AString5clear
557:   FUNC GLOBAL DEFAULT 14 _ZN7android8MetaDataC1Ev
558:   FUNC GLOBAL DEFAULT 14 _ZN7android12IsOpusHeader
559:   FUNC GLOBAL DEFAULT 14 _ZN7android7parseSEEPNS_1
560:   FUNC GLOBAL DEFAULT 14 _ZN7android15encodeBase64
561:   FUNC GLOBAL DEFAULT 14 _ZN7android8AMessage9setS
562:   FUNC GLOBAL DEFAULT 14 _ZNK7android8AMessage11fi
563:   FUNC GLOBAL DEFAULT 14 _ZNK7android8AMessage11fi
564:   FUNC GLOBAL DEFAULT 14 _ZN7android12MetaDataBase
565:   FUNC GLOBAL DEFAULT 14 _ZN7android10ABitReaderD2
566:   FUNC GLOBAL DEFAULT 14 _ZN7android11MediaBufferC
567:   OBJECT GLOBAL DEFAULT 16 _ZN7android24MEDIA_MIMETY
568:   FUNC GLOBAL DEFAULT 14 _ZN7android8MetaDataC1ERK
569:   FUNC GLOBAL DEFAULT 14 _ZN7android15WriteOpusHea
570:   FUNC GLOBAL DEFAULT 14 _ZN7android24MakeAVCCodec
571:   OBJECT GLOBAL DEFAULT 16 _ZN7android28MEDIA_MIMETY
572:   FUNC GLOBAL DEFAULT 14 _ZN7android8MetaDataD0Ev
573:   FUNC GLOBAL DEFAULT 14 _ZN7android12MetaDataBase
574:   FUNC WEAK DEFAULT 14 _ZNK7android12SortedVecto
575:   FUNC GLOBAL DEFAULT 14 _ZN7android13ALooperRoste
576:   FUNC GLOBAL DEFAULT 14 _ZN7android8AMessage7setW
577:   FUNC GLOBAL DEFAULT 14 _ZN7android6hton64Em
578:   FUNC WEAK DEFAULT 14 _ZNK7android12SortedVecto
579:   OBJECT GLOBAL DEFAULT 18 _ZTVN7android12MetaDataBa
580:   FUNC GLOBAL DEFAULT 14 _ZN7android12NALBitReader
581:   FUNC GLOBAL DEFAULT 14 _ZNK7android7AString5empt
582:   FUNC GLOBAL DEFAULT 14 _ZN7android8AMessage9setB
583:   FUNC GLOBAL DEFAULT 14 _ZN7android7AStringC2EPKc
584:   FUNC GLOBAL DEFAULT 14 _ZNK7android7AStringgtERK
585:   FUNC GLOBAL DEFAULT 14 _ZN7android10ColorUtils35
586:   FUNC WEAK DEFAULT 14 _ZN7android7ALookupIiNS_1
587:   FUNC GLOBAL DEFAULT 14 _ZN7android12MetaDataBase
588:   FUNC WEAK DEFAULT 14 _ZNK7android12SortedVecto
589:   FUNC GLOBAL DEFAULT 14 _ZN7android16MediaBufferG
590:   OBJECT GLOBAL DEFAULT 16 _ZN7android29MEDIA_MIMETY
591:   OBJECT GLOBAL DEFAULT 18 _ZTVN7android8MetaDataE
592:   FUNC GLOBAL DEFAULT 14 _ZN7android13ALooperRoste
593:   FUNC GLOBAL DEFAULT 14 _ZN7android16MediaBufferG
594:   OBJECT GLOBAL DEFAULT 16 _ZN7android32MEDIA_MIMETY
595:   FUNC GLOBAL DEFAULT 14 _ZN7android8MetaDataC2ERK
