 0x0000000e (SONAME)                     Library soname: [android.hardware.graphics.allocator@3.0.so]
  
Symbol   contains 246 entries:
Num:   Type Bind Vis Ndx Name
0:   NOTYPE LOCAL DEFAULT UND
1:   FUNC GLOBAL DEFAULT UND __cxa_finalize@LIBC (2)
2:   FUNC GLOBAL DEFAULT UND _ZN7android14sp_report_ra
3:   FUNC GLOBAL DEFAULT UND _ZN7android21report_syspr
4:   OBJECT GLOBAL DEFAULT UND _ZN7android4hidl4base4V1_
5:   FUNC GLOBAL DEFAULT UND _ZN7android4hidl4base4V1_
6:   FUNC GLOBAL DEFAULT UND _ZN7android4hidl4base4V1_
7:   FUNC GLOBAL DEFAULT UND _ZN7android4hidl4base4V1_
8:   FUNC GLOBAL DEFAULT UND _ZN7android4hidl4base4V1_
9:   FUNC GLOBAL DEFAULT UND _ZN7android4hidl4base4V1_
10:   FUNC GLOBAL DEFAULT UND _ZN7android4hidl4base4V1_
11:   FUNC GLOBAL DEFAULT UND _ZN7android4hidl4base4V1_
12:   FUNC GLOBAL DEFAULT UND _ZN7android4hidl4base4V1_
13:   FUNC GLOBAL DEFAULT UND _ZN7android4hidl4base4V1_
14:   FUNC GLOBAL DEFAULT UND _ZN7android4hidl4base4V1_
15:   FUNC GLOBAL DEFAULT UND _ZN7android4hidl4base4V1_
16:   FUNC GLOBAL DEFAULT UND _ZN7android4hidl4base4V1_
17:   FUNC GLOBAL DEFAULT UND _ZN7android4hidl4base4V1_
18:   FUNC GLOBAL DEFAULT UND _ZN7android4hidl4base4V1_
19:   FUNC GLOBAL DEFAULT UND _ZN7android4hidl4base4V1_
20:   FUNC GLOBAL DEFAULT UND _ZN7android4hidl4base4V1_
21:   FUNC GLOBAL DEFAULT UND _ZN7android4hidl4base4V1_
22:   FUNC GLOBAL DEFAULT UND _ZN7android4hidl4base4V1_
23:   FUNC GLOBAL DEFAULT UND _ZN7android4hidl4base4V1_
24:   FUNC GLOBAL DEFAULT UND _ZN7android4hidl4base4V1_
25:   FUNC GLOBAL DEFAULT UND _ZN7android4hidl4base4V1_
26:   FUNC GLOBAL DEFAULT UND _ZN7android4hidl4base4V1_
27:   FUNC GLOBAL DEFAULT UND _ZN7android4hidl4base4V1_
28:   FUNC GLOBAL DEFAULT UND _ZN7android7RefBase10onFi
29:   FUNC GLOBAL DEFAULT UND _ZN7android7RefBase12weak
30:   FUNC GLOBAL DEFAULT UND _ZN7android7RefBase13onLa
31:   FUNC GLOBAL DEFAULT UND _ZN7android7RefBase15onLa
32:   FUNC GLOBAL DEFAULT UND _ZN7android7RefBase20onIn
33:   FUNC GLOBAL DEFAULT UND _ZN7android7RefBaseC2Ev
34:   FUNC GLOBAL DEFAULT UND _ZN7android7RefBaseD2Ev
35:   FUNC GLOBAL DEFAULT UND _ZN7android8hardware10IIn
36:   FUNC GLOBAL DEFAULT UND _ZN7android8hardware10IIn
37:   FUNC GLOBAL DEFAULT UND _ZN7android8hardware10IIn
38:   FUNC GLOBAL DEFAULT UND _ZN7android8hardware10IIn
39:   FUNC GLOBAL DEFAULT UND _ZN7android8hardware10IIn
40:   FUNC GLOBAL DEFAULT UND _ZN7android8hardware11BpH
41:   FUNC GLOBAL DEFAULT UND _ZN7android8hardware11BpH
42:   FUNC GLOBAL DEFAULT UND _ZN7android8hardware11BpH
43:   FUNC GLOBAL DEFAULT UND _ZN7android8hardware11BpH
44:   FUNC GLOBAL DEFAULT UND _ZN7android8hardware11BpH
45:   FUNC GLOBAL DEFAULT UND _ZN7android8hardware11BpH
46:   FUNC GLOBAL DEFAULT UND _ZN7android8hardware11BpH
47:   FUNC GLOBAL DEFAULT UND _ZN7android8hardware11hid
48:   FUNC GLOBAL DEFAULT UND _ZN7android8hardware11hid
49:   FUNC GLOBAL DEFAULT UND _ZN7android8hardware11hid
50:   FUNC GLOBAL DEFAULT UND _ZN7android8hardware11hid
51:   FUNC GLOBAL DEFAULT UND _ZN7android8hardware11hid
52:   FUNC GLOBAL DEFAULT UND _ZN7android8hardware12Pro
53:   FUNC GLOBAL DEFAULT UND _ZN7android8hardware12Pro
54:   FUNC GLOBAL DEFAULT UND _ZN7android8hardware13wri
55:   FUNC GLOBAL DEFAULT UND _ZN7android8hardware14rea
56:   FUNC GLOBAL DEFAULT UND _ZN7android8hardware21def
57:   FUNC GLOBAL DEFAULT UND _ZN7android8hardware21wri
58:   FUNC GLOBAL DEFAULT UND _ZN7android8hardware21wri
59:   FUNC GLOBAL DEFAULT UND _ZN7android8hardware22rea
60:   FUNC GLOBAL DEFAULT UND _ZN7android8hardware22rea
61:   FUNC GLOBAL DEFAULT UND _ZN7android8hardware23get
62:   FUNC GLOBAL DEFAULT UND _ZN7android8hardware27hid
63:   FUNC GLOBAL DEFAULT UND _ZN7android8hardware27hid
64:   FUNC GLOBAL DEFAULT UND _ZN7android8hardware6Parc
65:   FUNC GLOBAL DEFAULT UND _ZN7android8hardware6Parc
66:   FUNC GLOBAL DEFAULT UND _ZN7android8hardware6Parc
67:   FUNC GLOBAL DEFAULT UND _ZN7android8hardware6Parc
68:   FUNC GLOBAL DEFAULT UND _ZN7android8hardware6Parc
69:   FUNC GLOBAL DEFAULT UND _ZN7android8hardware6Parc
70:   FUNC GLOBAL DEFAULT UND _ZN7android8hardware6Parc
71:   FUNC GLOBAL DEFAULT UND _ZN7android8hardware6Stat
72:   FUNC GLOBAL DEFAULT UND _ZN7android8hardware6Stat
73:   FUNC GLOBAL DEFAULT UND _ZN7android8hardware6Stat
74:   FUNC GLOBAL DEFAULT UND _ZN7android8hardware6Stat
75:   FUNC GLOBAL DEFAULT UND _ZN7android8hardware7IBin
76:   FUNC GLOBAL DEFAULT UND _ZN7android8hardware7IBin
77:   FUNC GLOBAL DEFAULT UND _ZN7android8hardware7IBin
78:   FUNC GLOBAL DEFAULT UND _ZN7android8hardware7IBin
79:   FUNC GLOBAL DEFAULT UND _ZN7android8hardware7deta
80:   FUNC GLOBAL DEFAULT UND _ZN7android8hardware7deta
81:   FUNC GLOBAL DEFAULT UND _ZN7android8hardware7deta
82:   FUNC GLOBAL DEFAULT UND _ZN7android8hardware7deta
83:   FUNC GLOBAL DEFAULT UND _ZN7android8hardware7deta
84:   FUNC GLOBAL DEFAULT UND _ZN7android8hardware7deta
85:   FUNC GLOBAL DEFAULT UND _ZN7android8hardware7deta
86:   OBJECT GLOBAL DEFAULT UND _ZN7android8hardware7deta
87:   OBJECT GLOBAL DEFAULT UND _ZN7android8hardware7deta
88:   FUNC GLOBAL DEFAULT UND _ZN7android8hardware7deta
89:   FUNC GLOBAL DEFAULT UND _ZN7android8hardware7deta
90:   FUNC GLOBAL DEFAULT UND _ZN7android8hardware7deta
91:   FUNC GLOBAL DEFAULT UND _ZN7android8hardware7deta
92:   FUNC GLOBAL DEFAULT UND _ZN7android8hardware7deta
93:   FUNC GLOBAL DEFAULT UND _ZN7android8hardware7deta
94:   FUNC GLOBAL DEFAULT UND _ZN7android8hardware7deta
95:   FUNC GLOBAL DEFAULT UND _ZN7android8hardware7deta
96:   FUNC GLOBAL DEFAULT UND _ZN7android8hardware7deta
97:   OBJECT GLOBAL DEFAULT UND _ZN7android8hardware7deta
98:   FUNC GLOBAL DEFAULT UND _ZN7android8hardware9BHwB
99:   FUNC GLOBAL DEFAULT UND _ZN7android8hardware9BHwB
100:   FUNC GLOBAL DEFAULT UND _ZN7android8hardware9BHwB
101:   FUNC GLOBAL DEFAULT UND _ZN7android8hardware9BHwB
102:   FUNC GLOBAL DEFAULT UND _ZN7android8hardware9BHwB
103:   FUNC GLOBAL DEFAULT UND _ZN7android8hardware9BHwB
104:   FUNC GLOBAL DEFAULT UND _ZN7android8hardware9BHwB
105:   FUNC GLOBAL DEFAULT UND _ZN7android8hardware9BHwB
106:   FUNC GLOBAL DEFAULT UND _ZN7android8hardware9BHwB
107:   FUNC GLOBAL DEFAULT UND _ZN7android8hardware9BHwB
108:   FUNC GLOBAL DEFAULT UND _ZNK7android7RefBase10cre
109:   FUNC GLOBAL DEFAULT UND _ZNK7android7RefBase11get
110:   FUNC GLOBAL DEFAULT UND _ZNK7android7RefBase9decS
111:   FUNC GLOBAL DEFAULT UND _ZNK7android7RefBase9incS
112:   FUNC GLOBAL DEFAULT UND _ZNK7android8hardware6Par
113:   FUNC GLOBAL DEFAULT UND _ZNK7android8hardware6Par
114:   FUNC GLOBAL DEFAULT UND _ZNK7android8hardware6Par
115:   FUNC GLOBAL DEFAULT UND _ZNK7android8hardware6Par
116:   FUNC GLOBAL DEFAULT UND _ZNK7android8hardware6Par
117:   FUNC GLOBAL DEFAULT UND _ZNK7android8hardware7IBi
118:   FUNC GLOBAL DEFAULT UND _ZNK7android8hardware7det
119:   FUNC GLOBAL DEFAULT UND _ZNK7android8hardware9BHw
120:   FUNC GLOBAL DEFAULT UND _ZNKSt3__120__vector_base
121:   FUNC GLOBAL DEFAULT UND _ZNKSt3__121__basic_strin
122:   FUNC GLOBAL DEFAULT UND _ZNSt3__112basic_stringIc
123:   FUNC GLOBAL DEFAULT UND _ZNSt3__15mutex4lockEv
124:   FUNC GLOBAL DEFAULT UND _ZNSt3__15mutex6unlockEv
125:   FUNC GLOBAL DEFAULT UND _ZNSt3__15mutexD1Ev
126:   FUNC GLOBAL DEFAULT UND _ZTv0_n12_N7android4hidl4
127:   FUNC GLOBAL DEFAULT UND _ZTv0_n12_N7android4hidl4
128:   FUNC GLOBAL DEFAULT UND _ZTv0_n12_N7android8hardw
129:   FUNC GLOBAL DEFAULT UND _ZTv0_n12_N7android8hardw
130:   FUNC GLOBAL DEFAULT UND _ZTv0_n12_N7android8hardw
131:   FUNC GLOBAL DEFAULT UND _ZTv0_n12_N7android8hardw
132:   FUNC GLOBAL DEFAULT UND _ZTv0_n12_N7android8hardw
133:   FUNC GLOBAL DEFAULT UND _ZTv0_n12_N7android8hardw
134:   FUNC GLOBAL DEFAULT UND _ZTv0_n12_N7android8hardw
135:   FUNC GLOBAL DEFAULT UND _ZTv0_n12_N7android8hardw
136:   FUNC GLOBAL DEFAULT UND _ZTv0_n16_N7android8hardw
137:   FUNC GLOBAL DEFAULT UND _ZTv0_n20_N7android8hardw
138:   FUNC GLOBAL DEFAULT UND _ZTv0_n24_N7android8hardw
139:   FUNC GLOBAL DEFAULT UND _ZdaPv
140:   FUNC GLOBAL DEFAULT UND _ZdlPv
141:   FUNC GLOBAL DEFAULT UND _Znaj
142:   FUNC GLOBAL DEFAULT UND _Znwj
143:   FUNC GLOBAL DEFAULT UND __android_log_assert@LIBLOG (3)
144:   FUNC GLOBAL DEFAULT UND __cxa_pure_virtual
145:   FUNC GLOBAL DEFAULT UND __stack_chk_fail@LIBC (2)
146:   OBJECT GLOBAL DEFAULT UND __stack_chk_guard@LIBC (2)
147:   FUNC GLOBAL DEFAULT UND abort@LIBC (2)
148:   FUNC GLOBAL DEFAULT UND atrace_begin_body
149:   OBJECT GLOBAL DEFAULT UND atrace_enabled_tags
150:   FUNC GLOBAL DEFAULT UND atrace_end_body
151:   OBJECT GLOBAL DEFAULT UND atrace_is_ready
152:   FUNC GLOBAL DEFAULT UND atrace_setup
153:   FUNC GLOBAL DEFAULT UND memcmp@LIBC (2)
154:   FUNC GLOBAL DEFAULT UND strlen@LIBC (2)
155:   FUNC GLOBAL DEFAULT UND memcpy@LIBC (2)
156:   FUNC GLOBAL DEFAULT UND memset@LIBC (2)
157:   FUNC GLOBAL DEFAULT 14 _ZN7android8hardware8grap
158:   FUNC GLOBAL DEFAULT 14 _ZN7android8hardware8grap
159:   FUNC WEAK DEFAULT 14 _ZNSt3__16__treeINS_12__v
160:   OBJECT GLOBAL DEFAULT 18 _ZTCN7android8hardware8gr
161:   FUNC WEAK DEFAULT 14 _ZN7android8hardware7deta
162:   FUNC GLOBAL DEFAULT 14 _ZN7android8hardware8grap
163:   FUNC GLOBAL DEFAULT 14 _ZN7android8hardware8grap
164:   FUNC GLOBAL DEFAULT 14 _ZN7android8hardware8grap
165:   FUNC GLOBAL DEFAULT 14 _ZN7android8hardware8grap
166:   FUNC GLOBAL DEFAULT 14 __aeabi_memclr8
167:   FUNC WEAK DEFAULT 14 _ZN7android8hardware7deta
168:   FUNC GLOBAL DEFAULT 14 _ZN7android8hardware8grap
169:   FUNC WEAK DEFAULT 14 _ZNSt3__16vectorIN7androi
170:   FUNC GLOBAL DEFAULT 14 _ZN7android8hardware8grap
171:   FUNC GLOBAL DEFAULT 14 _ZN7android8hardware8grap
172:   FUNC GLOBAL DEFAULT 14 _ZN7android8hardware8grap
173:   FUNC WEAK DEFAULT 14 _ZNSt3__16__treeINS_12__v
174:   OBJECT GLOBAL DEFAULT 18 _ZTTN7android8hardware8gr
175:   FUNC WEAK DEFAULT 14 _ZNSt3__16__treeINS_12__v
176:   FUNC WEAK DEFAULT 14 _ZNSt3__16vectorIPvNS_9al
177:   OBJECT GLOBAL DEFAULT 18 _ZTCN7android8hardware8gr
178:   OBJECT GLOBAL DEFAULT 18 _ZTVN7android8hardware8gr
179:   FUNC GLOBAL DEFAULT 14 __aeabi_memcpy
180:   FUNC GLOBAL DEFAULT 14 _ZN7android8hardware8grap
181:   FUNC WEAK DEFAULT 14 _ZNSt3__16__treeINS_12__v
182:   FUNC WEAK DEFAULT 14 _ZNSt3__16__treeINS_12__v
183:   OBJECT GLOBAL DEFAULT 18 _ZTCN7android8hardware8gr
184:   OBJECT GLOBAL DEFAULT 18 _ZTVN7android8hardware8gr
185:   FUNC GLOBAL DEFAULT 14 _ZN7android8hardware8grap
186:   FUNC GLOBAL DEFAULT 14 _ZN7android8hardware8grap
187:   FUNC GLOBAL DEFAULT 14 _ZN7android8hardware8grap
188:   FUNC WEAK DEFAULT 14 _ZNSt3__16__treeINS_12__v
189:   OBJECT GLOBAL DEFAULT 18 _ZTTN7android8hardware8gr
190:   FUNC GLOBAL DEFAULT 14 _ZTv0_n12_N7android8hardw
191:   FUNC GLOBAL DEFAULT 14 _ZN7android8hardware8grap
192:   FUNC GLOBAL DEFAULT 14 _ZN7android8hardware8grap
193:   FUNC WEAK DEFAULT 14 _ZNSt3__16vectorINS_8func
194:   OBJECT GLOBAL DEFAULT 18 _ZTTN7android8hardware8gr
195:   OBJECT GLOBAL DEFAULT 16 _ZN7android8hardware8grap
196:   FUNC GLOBAL DEFAULT 14 _ZN7android8hardware8grap
197:   FUNC GLOBAL DEFAULT 14 _ZN7android8hardware8grap
198:   FUNC GLOBAL DEFAULT 14 _ZN7android8hardware8grap
199:   FUNC GLOBAL DEFAULT 14 _ZThn20_N7android8hardwar
200:   FUNC GLOBAL DEFAULT 14 __aeabi_memcpy4
201:   FUNC GLOBAL DEFAULT 14 __aeabi_memset4
202:   FUNC GLOBAL DEFAULT 14 _ZN7android8hardware8grap
203:   FUNC GLOBAL DEFAULT 14 _ZN7android8hardware8grap
204:   OBJECT GLOBAL DEFAULT 18 _ZTCN7android8hardware8gr
205:   FUNC GLOBAL DEFAULT 14 _ZN7android8hardware8grap
206:   OBJECT GLOBAL DEFAULT 18 _ZTCN7android8hardware8gr
207:   FUNC GLOBAL DEFAULT 14 __aeabi_memset
208:   FUNC GLOBAL DEFAULT 14 _ZN7android8hardware8grap
209:   FUNC GLOBAL DEFAULT 14 _ZN7android8hardware8grap
210:   FUNC GLOBAL DEFAULT 14 _ZN7android8hardware8grap
211:   OBJECT GLOBAL DEFAULT 18 _ZTCN7android8hardware8gr
212:   FUNC GLOBAL DEFAULT 14 _ZN7android8hardware8grap
213:   FUNC GLOBAL DEFAULT 14 _ZN7android8hardware8grap
214:   OBJECT WEAK DEFAULT 18 _ZTCN7android8hardware8gr
215:   FUNC GLOBAL DEFAULT 14 __aeabi_memcpy8
216:   FUNC GLOBAL DEFAULT 14 __aeabi_memset8
217:   FUNC GLOBAL DEFAULT 14 _ZN7android8hardware8grap
218:   FUNC GLOBAL DEFAULT 14 _ZN7android8hardware8grap
219:   FUNC GLOBAL DEFAULT 14 _ZN7android8hardware8grap
220:   FUNC GLOBAL DEFAULT 14 _ZN7android8hardware8grap
221:   OBJECT GLOBAL DEFAULT 18 _ZTCN7android8hardware8gr
222:   OBJECT GLOBAL DEFAULT 18 _ZTCN7android8hardware8gr
223:   FUNC GLOBAL DEFAULT 14 _ZN7android8hardware8grap
224:   FUNC GLOBAL DEFAULT 14 _ZN7android8hardware8grap
225:   OBJECT WEAK DEFAULT 18 _ZTVN7android8hardware8gr
226:   FUNC GLOBAL DEFAULT 14 _ZN7android8hardware8grap
227:   FUNC GLOBAL DEFAULT 14 _ZN7android8hardware8grap
228:   FUNC GLOBAL DEFAULT 14 _ZN7android8hardware8grap
229:   FUNC GLOBAL DEFAULT 14 _ZN7android8hardware8grap
230:   FUNC GLOBAL DEFAULT 14 _ZN7android8hardware8grap
231:   FUNC GLOBAL DEFAULT 14 _ZN7android8hardware8grap
232:   FUNC GLOBAL DEFAULT 14 _ZN7android8hardware8grap
233:   FUNC WEAK DEFAULT 14 _ZNSt3__127__tree_balance
234:   FUNC GLOBAL DEFAULT 14 _ZTv0_n12_N7android8hardw
235:   FUNC GLOBAL DEFAULT 14 _ZN7android8hardware8grap
236:   FUNC GLOBAL DEFAULT 14 _ZN7android8hardware8grap
237:   OBJECT GLOBAL DEFAULT 18 _ZTCN7android8hardware8gr
238:   FUNC GLOBAL DEFAULT 14 _ZN7android8hardware8grap
239:   FUNC GLOBAL DEFAULT 14 _ZN7android8hardware8grap
240:   FUNC WEAK DEFAULT 14 _ZNSt3__113__tree_removeI
241:   OBJECT GLOBAL DEFAULT 18 _ZTVN7android8hardware8gr
242:   FUNC GLOBAL DEFAULT 14 _ZThn20_N7android8hardwar
243:   FUNC GLOBAL DEFAULT 14 __aeabi_memclr
244:   FUNC GLOBAL DEFAULT 14 __aeabi_memclr4
245:   FUNC GLOBAL DEFAULT 14 _ZN7android8hardware8grap
