 0x0000000e (SONAME)                     Library soname: [android.hardware.graphics.bufferqueue@2.0.so]
  
Symbol   contains 383 entries:
Num:   Type Bind Vis Ndx Name
0:   NOTYPE LOCAL DEFAULT UND
1:   FUNC GLOBAL DEFAULT UND __cxa_finalize@LIBC (2)
2:   FUNC GLOBAL DEFAULT UND _ZN7android14sp_report_ra
3:   FUNC GLOBAL DEFAULT UND _ZN7android21report_syspr
4:   OBJECT GLOBAL DEFAULT UND _ZN7android4hidl4base4V1_
5:   FUNC GLOBAL DEFAULT UND _ZN7android4hidl4base4V1_
6:   FUNC GLOBAL DEFAULT UND _ZN7android4hidl4base4V1_
7:   FUNC GLOBAL DEFAULT UND _ZN7android4hidl4base4V1_
8:   FUNC GLOBAL DEFAULT UND _ZN7android4hidl4base4V1_
9:   FUNC GLOBAL DEFAULT UND _ZN7android4hidl4base4V1_
10:   FUNC GLOBAL DEFAULT UND _ZN7android4hidl4base4V1_
11:   FUNC GLOBAL DEFAULT UND _ZN7android4hidl4base4V1_
12:   FUNC GLOBAL DEFAULT UND _ZN7android4hidl4base4V1_
13:   FUNC GLOBAL DEFAULT UND _ZN7android4hidl4base4V1_
14:   FUNC GLOBAL DEFAULT UND _ZN7android4hidl4base4V1_
15:   FUNC GLOBAL DEFAULT UND _ZN7android4hidl4base4V1_
16:   FUNC GLOBAL DEFAULT UND _ZN7android4hidl4base4V1_
17:   FUNC GLOBAL DEFAULT UND _ZN7android4hidl4base4V1_
18:   FUNC GLOBAL DEFAULT UND _ZN7android4hidl4base4V1_
19:   FUNC GLOBAL DEFAULT UND _ZN7android4hidl4base4V1_
20:   FUNC GLOBAL DEFAULT UND _ZN7android4hidl4base4V1_
21:   FUNC GLOBAL DEFAULT UND _ZN7android4hidl4base4V1_
22:   FUNC GLOBAL DEFAULT UND _ZN7android4hidl4base4V1_
23:   FUNC GLOBAL DEFAULT UND _ZN7android4hidl4base4V1_
24:   FUNC GLOBAL DEFAULT UND _ZN7android4hidl4base4V1_
25:   FUNC GLOBAL DEFAULT UND _ZN7android4hidl4base4V1_
26:   FUNC GLOBAL DEFAULT UND _ZN7android4hidl4base4V1_
27:   FUNC GLOBAL DEFAULT UND _ZN7android4hidl4base4V1_
28:   FUNC GLOBAL DEFAULT UND _ZN7android7RefBase10onFi
29:   FUNC GLOBAL DEFAULT UND _ZN7android7RefBase12weak
30:   FUNC GLOBAL DEFAULT UND _ZN7android7RefBase13onLa
31:   FUNC GLOBAL DEFAULT UND _ZN7android7RefBase15onLa
32:   FUNC GLOBAL DEFAULT UND _ZN7android7RefBase20onIn
33:   FUNC GLOBAL DEFAULT UND _ZN7android7RefBaseC2Ev
34:   FUNC GLOBAL DEFAULT UND _ZN7android7RefBaseD2Ev
35:   FUNC GLOBAL DEFAULT UND _ZN7android8hardware10IIn
36:   FUNC GLOBAL DEFAULT UND _ZN7android8hardware10IIn
37:   FUNC GLOBAL DEFAULT UND _ZN7android8hardware10IIn
38:   FUNC GLOBAL DEFAULT UND _ZN7android8hardware10IIn
39:   FUNC GLOBAL DEFAULT UND _ZN7android8hardware10IIn
40:   FUNC GLOBAL DEFAULT UND _ZN7android8hardware11BpH
41:   FUNC GLOBAL DEFAULT UND _ZN7android8hardware11BpH
42:   FUNC GLOBAL DEFAULT UND _ZN7android8hardware11BpH
43:   FUNC GLOBAL DEFAULT UND _ZN7android8hardware11BpH
44:   FUNC GLOBAL DEFAULT UND _ZN7android8hardware11BpH
45:   FUNC GLOBAL DEFAULT UND _ZN7android8hardware11BpH
46:   FUNC GLOBAL DEFAULT UND _ZN7android8hardware11BpH
47:   FUNC GLOBAL DEFAULT UND _ZN7android8hardware11hid
48:   FUNC GLOBAL DEFAULT UND _ZN7android8hardware11hid
49:   FUNC GLOBAL DEFAULT UND _ZN7android8hardware11hid
50:   FUNC GLOBAL DEFAULT UND _ZN7android8hardware11hid
51:   FUNC GLOBAL DEFAULT UND _ZN7android8hardware11hid
52:   FUNC GLOBAL DEFAULT UND _ZN7android8hardware11hid
53:   FUNC GLOBAL DEFAULT UND _ZN7android8hardware11hid
54:   FUNC GLOBAL DEFAULT UND _ZN7android8hardware11hid
55:   FUNC GLOBAL DEFAULT UND _ZN7android8hardware12Pro
56:   FUNC GLOBAL DEFAULT UND _ZN7android8hardware12Pro
57:   FUNC GLOBAL DEFAULT UND _ZN7android8hardware13wri
58:   FUNC GLOBAL DEFAULT UND _ZN7android8hardware14rea
59:   FUNC GLOBAL DEFAULT UND _ZN7android8hardware21def
60:   FUNC GLOBAL DEFAULT UND _ZN7android8hardware21wri
61:   FUNC GLOBAL DEFAULT UND _ZN7android8hardware21wri
62:   FUNC GLOBAL DEFAULT UND _ZN7android8hardware22rea
63:   FUNC GLOBAL DEFAULT UND _ZN7android8hardware22rea
64:   FUNC GLOBAL DEFAULT UND _ZN7android8hardware23get
65:   FUNC GLOBAL DEFAULT UND _ZN7android8hardware27hid
66:   FUNC GLOBAL DEFAULT UND _ZN7android8hardware27hid
67:   FUNC GLOBAL DEFAULT UND _ZN7android8hardware6Parc
68:   FUNC GLOBAL DEFAULT UND _ZN7android8hardware6Parc
69:   FUNC GLOBAL DEFAULT UND _ZN7android8hardware6Parc
70:   FUNC GLOBAL DEFAULT UND _ZN7android8hardware6Parc
71:   FUNC GLOBAL DEFAULT UND _ZN7android8hardware6Parc
72:   FUNC GLOBAL DEFAULT UND _ZN7android8hardware6Parc
73:   FUNC GLOBAL DEFAULT UND _ZN7android8hardware6Parc
74:   FUNC GLOBAL DEFAULT UND _ZN7android8hardware6Parc
75:   FUNC GLOBAL DEFAULT UND _ZN7android8hardware6Parc
76:   FUNC GLOBAL DEFAULT UND _ZN7android8hardware6Parc
77:   FUNC GLOBAL DEFAULT UND _ZN7android8hardware6Parc
78:   FUNC GLOBAL DEFAULT UND _ZN7android8hardware6Parc
79:   FUNC GLOBAL DEFAULT UND _ZN7android8hardware6Stat
80:   FUNC GLOBAL DEFAULT UND _ZN7android8hardware6Stat
81:   FUNC GLOBAL DEFAULT UND _ZN7android8hardware6Stat
82:   FUNC GLOBAL DEFAULT UND _ZN7android8hardware6Stat
83:   FUNC GLOBAL DEFAULT UND _ZN7android8hardware7IBin
84:   FUNC GLOBAL DEFAULT UND _ZN7android8hardware7IBin
85:   FUNC GLOBAL DEFAULT UND _ZN7android8hardware7IBin
86:   FUNC GLOBAL DEFAULT UND _ZN7android8hardware7IBin
87:   FUNC GLOBAL DEFAULT UND _ZN7android8hardware7deta
88:   FUNC GLOBAL DEFAULT UND _ZN7android8hardware7deta
89:   FUNC GLOBAL DEFAULT UND _ZN7android8hardware7deta
90:   FUNC GLOBAL DEFAULT UND _ZN7android8hardware7deta
91:   FUNC GLOBAL DEFAULT UND _ZN7android8hardware7deta
92:   FUNC GLOBAL DEFAULT UND _ZN7android8hardware7deta
93:   FUNC GLOBAL DEFAULT UND _ZN7android8hardware7deta
94:   OBJECT GLOBAL DEFAULT UND _ZN7android8hardware7deta
95:   OBJECT GLOBAL DEFAULT UND _ZN7android8hardware7deta
96:   FUNC GLOBAL DEFAULT UND _ZN7android8hardware7deta
97:   FUNC GLOBAL DEFAULT UND _ZN7android8hardware7deta
98:   FUNC GLOBAL DEFAULT UND _ZN7android8hardware7deta
99:   FUNC GLOBAL DEFAULT UND _ZN7android8hardware7deta
100:   FUNC GLOBAL DEFAULT UND _ZN7android8hardware7deta
101:   FUNC GLOBAL DEFAULT UND _ZN7android8hardware7deta
102:   FUNC GLOBAL DEFAULT UND _ZN7android8hardware7deta
103:   FUNC GLOBAL DEFAULT UND _ZN7android8hardware7deta
104:   FUNC GLOBAL DEFAULT UND _ZN7android8hardware7deta
105:   FUNC GLOBAL DEFAULT UND _ZN7android8hardware7deta
106:   OBJECT GLOBAL DEFAULT UND _ZN7android8hardware7deta
107:   FUNC GLOBAL DEFAULT UND _ZN7android8hardware8grap
108:   FUNC GLOBAL DEFAULT UND _ZN7android8hardware8grap
109:   FUNC GLOBAL DEFAULT UND _ZN7android8hardware9BHwB
110:   FUNC GLOBAL DEFAULT UND _ZN7android8hardware9BHwB
111:   FUNC GLOBAL DEFAULT UND _ZN7android8hardware9BHwB
112:   FUNC GLOBAL DEFAULT UND _ZN7android8hardware9BHwB
113:   FUNC GLOBAL DEFAULT UND _ZN7android8hardware9BHwB
114:   FUNC GLOBAL DEFAULT UND _ZN7android8hardware9BHwB
115:   FUNC GLOBAL DEFAULT UND _ZN7android8hardware9BHwB
116:   FUNC GLOBAL DEFAULT UND _ZN7android8hardware9BHwB
117:   FUNC GLOBAL DEFAULT UND _ZN7android8hardware9BHwB
118:   FUNC GLOBAL DEFAULT UND _ZN7android8hardware9BHwB
119:   FUNC GLOBAL DEFAULT UND _ZNK7android7RefBase10cre
120:   FUNC GLOBAL DEFAULT UND _ZNK7android7RefBase11get
121:   FUNC GLOBAL DEFAULT UND _ZNK7android7RefBase9decS
122:   FUNC GLOBAL DEFAULT UND _ZNK7android7RefBase9incS
123:   FUNC GLOBAL DEFAULT UND _ZNK7android8hardware11hi
124:   FUNC GLOBAL DEFAULT UND _ZNK7android8hardware6Par
125:   FUNC GLOBAL DEFAULT UND _ZNK7android8hardware6Par
126:   FUNC GLOBAL DEFAULT UND _ZNK7android8hardware6Par
127:   FUNC GLOBAL DEFAULT UND _ZNK7android8hardware6Par
128:   FUNC GLOBAL DEFAULT UND _ZNK7android8hardware6Par
129:   FUNC GLOBAL DEFAULT UND _ZNK7android8hardware6Par
130:   FUNC GLOBAL DEFAULT UND _ZNK7android8hardware6Par
131:   FUNC GLOBAL DEFAULT UND _ZNK7android8hardware6Par
132:   FUNC GLOBAL DEFAULT UND _ZNK7android8hardware6Par
133:   FUNC GLOBAL DEFAULT UND _ZNK7android8hardware6Par
134:   FUNC GLOBAL DEFAULT UND _ZNK7android8hardware7IBi
135:   FUNC GLOBAL DEFAULT UND _ZNK7android8hardware7det
136:   FUNC GLOBAL DEFAULT UND _ZNK7android8hardware9BHw
137:   FUNC GLOBAL DEFAULT UND _ZNKSt3__120__vector_base
138:   FUNC GLOBAL DEFAULT UND _ZNKSt3__121__basic_strin
139:   FUNC GLOBAL DEFAULT UND _ZNSt3__112basic_stringIc
140:   FUNC GLOBAL DEFAULT UND _ZNSt3__15mutex4lockEv
141:   FUNC GLOBAL DEFAULT UND _ZNSt3__15mutex6unlockEv
142:   FUNC GLOBAL DEFAULT UND _ZNSt3__15mutexD1Ev
143:   FUNC GLOBAL DEFAULT UND _ZTv0_n12_N7android4hidl4
144:   FUNC GLOBAL DEFAULT UND _ZTv0_n12_N7android4hidl4
145:   FUNC GLOBAL DEFAULT UND _ZTv0_n12_N7android8hardw
146:   FUNC GLOBAL DEFAULT UND _ZTv0_n12_N7android8hardw
147:   FUNC GLOBAL DEFAULT UND _ZTv0_n12_N7android8hardw
148:   FUNC GLOBAL DEFAULT UND _ZTv0_n12_N7android8hardw
149:   FUNC GLOBAL DEFAULT UND _ZTv0_n12_N7android8hardw
150:   FUNC GLOBAL DEFAULT UND _ZTv0_n12_N7android8hardw
151:   FUNC GLOBAL DEFAULT UND _ZTv0_n12_N7android8hardw
152:   FUNC GLOBAL DEFAULT UND _ZTv0_n12_N7android8hardw
153:   FUNC GLOBAL DEFAULT UND _ZTv0_n16_N7android8hardw
154:   FUNC GLOBAL DEFAULT UND _ZTv0_n20_N7android8hardw
155:   FUNC GLOBAL DEFAULT UND _ZTv0_n24_N7android8hardw
156:   FUNC GLOBAL DEFAULT UND _ZdaPv
157:   FUNC GLOBAL DEFAULT UND _ZdlPv
158:   FUNC GLOBAL DEFAULT UND _Znaj
159:   FUNC GLOBAL DEFAULT UND _Znwj
160:   FUNC GLOBAL DEFAULT UND __android_log_assert@LIBLOG (3)
161:   FUNC GLOBAL DEFAULT UND __cxa_pure_virtual
162:   FUNC GLOBAL DEFAULT UND __stack_chk_fail@LIBC (2)
163:   OBJECT GLOBAL DEFAULT UND __stack_chk_guard@LIBC (2)
164:   FUNC GLOBAL DEFAULT UND abort@LIBC (2)
165:   FUNC GLOBAL DEFAULT UND atrace_begin_body
166:   OBJECT GLOBAL DEFAULT UND atrace_enabled_tags
167:   FUNC GLOBAL DEFAULT UND atrace_end_body
168:   OBJECT GLOBAL DEFAULT UND atrace_is_ready
169:   FUNC GLOBAL DEFAULT UND atrace_setup
170:   FUNC GLOBAL DEFAULT UND memcmp@LIBC (2)
171:   FUNC GLOBAL DEFAULT UND strlen@LIBC (2)
172:   FUNC GLOBAL DEFAULT UND memcpy@LIBC (2)
173:   FUNC GLOBAL DEFAULT UND memset@LIBC (2)
174:   FUNC GLOBAL DEFAULT 14 _ZN7android8hardware8grap
175:   FUNC GLOBAL DEFAULT 14 _ZTv0_n12_N7android8hardw
176:   FUNC GLOBAL DEFAULT 14 _ZN7android8hardware8grap
177:   FUNC WEAK DEFAULT 14 _ZNSt3__127__tree_balance
178:   FUNC GLOBAL DEFAULT 14 _ZN7android8hardware8grap
179:   FUNC GLOBAL DEFAULT 14 _ZN7android8hardware8grap
180:   FUNC GLOBAL DEFAULT 14 _ZTv0_n12_N7android8hardw
181:   FUNC GLOBAL DEFAULT 14 _ZN7android8hardware8grap
182:   FUNC GLOBAL DEFAULT 14 _ZN7android8hardware8grap
183:   FUNC GLOBAL DEFAULT 14 _ZN7android8hardware8grap
184:   FUNC GLOBAL DEFAULT 14 _ZN7android8hardware8grap
185:   FUNC GLOBAL DEFAULT 14 _ZN7android8hardware8grap
186:   FUNC GLOBAL DEFAULT 14 _ZN7android8hardware8grap
187:   FUNC GLOBAL DEFAULT 14 _ZN7android8hardware8grap
188:   FUNC GLOBAL DEFAULT 14 _ZN7android8hardware8grap
189:   OBJECT GLOBAL DEFAULT 18 _ZTCN7android8hardware8gr
190:   FUNC GLOBAL DEFAULT 14 _ZN7android8hardware8grap
191:   FUNC GLOBAL DEFAULT 14 _ZN7android8hardware8grap
192:   FUNC GLOBAL DEFAULT 14 _ZN7android8hardware8grap
193:   FUNC GLOBAL DEFAULT 14 _ZN7android8hardware8grap
194:   FUNC GLOBAL DEFAULT 14 _ZTv0_n12_N7android8hardw
195:   FUNC GLOBAL DEFAULT 14 _ZN7android8hardware8grap
196:   FUNC GLOBAL DEFAULT 14 _ZN7android8hardware8grap
197:   FUNC GLOBAL DEFAULT 14 _ZN7android8hardware8grap
198:   OBJECT GLOBAL DEFAULT 18 _ZTCN7android8hardware8gr
199:   FUNC GLOBAL DEFAULT 14 _ZN7android8hardware8grap
200:   OBJECT GLOBAL DEFAULT 18 _ZTCN7android8hardware8gr
201:   FUNC GLOBAL DEFAULT 14 _ZN7android8hardware8grap
202:   FUNC GLOBAL DEFAULT 14 _ZN7android8hardware8grap
203:   FUNC GLOBAL DEFAULT 14 _ZN7android8hardware8grap
204:   OBJECT GLOBAL DEFAULT 18 _ZTVN7android8hardware8gr
205:   OBJECT GLOBAL DEFAULT 18 _ZTVN7android8hardware8gr
206:   FUNC GLOBAL DEFAULT 14 _ZN7android8hardware8grap
207:   FUNC GLOBAL DEFAULT 14 _ZN7android8hardware8grap
208:   FUNC GLOBAL DEFAULT 14 _ZN7android8hardware8grap
209:   FUNC GLOBAL DEFAULT 14 _ZN7android8hardware8grap
210:   FUNC GLOBAL DEFAULT 14 _ZN7android8hardware8grap
211:   OBJECT GLOBAL DEFAULT 18 _ZTVN7android8hardware8gr
212:   OBJECT GLOBAL DEFAULT 18 _ZTCN7android8hardware8gr
213:   OBJECT GLOBAL DEFAULT 18 _ZTTN7android8hardware8gr
214:   FUNC GLOBAL DEFAULT 14 _ZN7android8hardware8grap
215:   FUNC GLOBAL DEFAULT 14 _ZN7android8hardware8grap
216:   FUNC GLOBAL DEFAULT 14 _ZN7android8hardware8grap
217:   FUNC GLOBAL DEFAULT 14 _ZN7android8hardware8grap
218:   FUNC GLOBAL DEFAULT 14 _ZN7android8hardware8grap
219:   FUNC GLOBAL DEFAULT 14 _ZN7android8hardware8grap
220:   FUNC WEAK DEFAULT 14 _ZNSt3__16__treeINS_12__v
221:   OBJECT WEAK DEFAULT 18 _ZTCN7android8hardware8gr
222:   FUNC GLOBAL DEFAULT 14 _ZN7android8hardware8grap
223:   FUNC WEAK DEFAULT 14 _ZNSt3__16__treeINS_12__v
224:   OBJECT GLOBAL DEFAULT 18 _ZTCN7android8hardware8gr
225:   FUNC GLOBAL DEFAULT 14 _ZN7android8hardware8grap
226:   OBJECT GLOBAL DEFAULT 18 _ZTCN7android8hardware8gr
227:   FUNC GLOBAL DEFAULT 14 _ZN7android8hardware8grap
228:   FUNC GLOBAL DEFAULT 14 _ZN7android8hardware8grap
229:   FUNC GLOBAL DEFAULT 14 _ZN7android8hardware8grap
230:   FUNC GLOBAL DEFAULT 14 _ZN7android8hardware8grap
231:   FUNC GLOBAL DEFAULT 14 _ZN7android8hardware8grap
232:   FUNC GLOBAL DEFAULT 14 _ZN7android8hardware8grap
233:   FUNC WEAK DEFAULT 14 _ZNSt3__16vectorIN7androi
234:   FUNC GLOBAL DEFAULT 14 _ZN7android8hardware8grap
235:   FUNC GLOBAL DEFAULT 14 _ZN7android8hardware8grap
236:   FUNC GLOBAL DEFAULT 14 _ZThn20_N7android8hardwar
237:   FUNC WEAK DEFAULT 14 _ZN7android8hardware7deta
238:   FUNC GLOBAL DEFAULT 14 _ZN7android8hardware8grap
239:   FUNC GLOBAL DEFAULT 14 _ZN7android8hardware8grap
240:   FUNC GLOBAL DEFAULT 14 _ZN7android8hardware8grap
241:   OBJECT GLOBAL DEFAULT 18 _ZTCN7android8hardware8gr
242:   FUNC GLOBAL DEFAULT 14 _ZN7android8hardware8grap
243:   FUNC GLOBAL DEFAULT 14 _ZN7android8hardware8grap
244:   FUNC GLOBAL DEFAULT 14 _ZN7android8hardware8grap
245:   FUNC GLOBAL DEFAULT 14 _ZN7android8hardware8grap
246:   FUNC GLOBAL DEFAULT 14 _ZN7android8hardware8grap
247:   FUNC GLOBAL DEFAULT 14 _ZN7android8hardware8grap
248:   OBJECT GLOBAL DEFAULT 18 _ZTTN7android8hardware8gr
249:   FUNC GLOBAL DEFAULT 14 _ZN7android8hardware8grap
250:   FUNC WEAK DEFAULT 14 _ZNSt3__16vectorINS_8func
251:   OBJECT GLOBAL DEFAULT 18 _ZTVN7android8hardware8gr
252:   FUNC GLOBAL DEFAULT 14 _ZThn20_N7android8hardwar
253:   FUNC GLOBAL DEFAULT 14 _ZThn20_N7android8hardwar
254:   FUNC WEAK DEFAULT 14 _ZN7android8hardware10fro
255:   FUNC GLOBAL DEFAULT 14 _ZN7android8hardware8grap
256:   FUNC GLOBAL DEFAULT 14 _ZN7android8hardware8grap
257:   FUNC GLOBAL DEFAULT 14 _ZN7android8hardware8grap
258:   FUNC WEAK DEFAULT 14 _ZNSt3__16__treeINS_12__v
259:   FUNC GLOBAL DEFAULT 14 _ZN7android8hardware8grap
260:   FUNC WEAK DEFAULT 14 _ZNSt3__16__treeINS_12__v
261:   OBJECT GLOBAL DEFAULT 18 _ZTCN7android8hardware8gr
262:   FUNC WEAK DEFAULT 14 _ZN7android8hardware7deta
263:   FUNC GLOBAL DEFAULT 14 _ZN7android8hardware8grap
264:   FUNC GLOBAL DEFAULT 14 _ZN7android8hardware8grap
265:   FUNC GLOBAL DEFAULT 14 _ZN7android8hardware8grap
266:   FUNC GLOBAL DEFAULT 14 _ZThn20_N7android8hardwar
267:   FUNC GLOBAL DEFAULT 14 _ZN7android8hardware8grap
268:   FUNC GLOBAL DEFAULT 14 _ZN7android8hardware8grap
269:   FUNC WEAK DEFAULT 14 _ZN7android8hardware7deta
270:   FUNC GLOBAL DEFAULT 14 _ZN7android8hardware8grap
271:   FUNC GLOBAL DEFAULT 14 _ZN7android8hardware8grap
272:   FUNC GLOBAL DEFAULT 14 _ZN7android8hardware8grap
273:   OBJECT GLOBAL DEFAULT 18 _ZTVN7android8hardware8gr
274:   OBJECT GLOBAL DEFAULT 18 _ZTCN7android8hardware8gr
275:   OBJECT GLOBAL DEFAULT 18 _ZTCN7android8hardware8gr
276:   OBJECT WEAK DEFAULT 18 _ZTVN7android8hardware8gr
277:   FUNC GLOBAL DEFAULT 14 _ZN7android8hardware8grap
278:   FUNC GLOBAL DEFAULT 14 _ZN7android8hardware8grap
279:   FUNC GLOBAL DEFAULT 14 _ZN7android8hardware8grap
280:   FUNC WEAK DEFAULT 14 _ZNSt3__16__treeINS_12__v
281:   OBJECT GLOBAL DEFAULT 18 _ZTCN7android8hardware8gr
282:   OBJECT GLOBAL DEFAULT 18 _ZTCN7android8hardware8gr
283:   OBJECT GLOBAL DEFAULT 18 _ZTCN7android8hardware8gr
284:   FUNC GLOBAL DEFAULT 14 __aeabi_memcpy
285:   FUNC GLOBAL DEFAULT 14 __aeabi_memset
286:   FUNC GLOBAL DEFAULT 14 _ZN7android8hardware8grap
287:   FUNC GLOBAL DEFAULT 14 _ZN7android8hardware8grap
288:   OBJECT GLOBAL DEFAULT 18 _ZTTN7android8hardware8gr
289:   FUNC GLOBAL DEFAULT 14 _ZN7android8hardware8grap
290:   FUNC GLOBAL DEFAULT 14 __aeabi_memclr4
291:   OBJECT GLOBAL DEFAULT 18 _ZTCN7android8hardware8gr
292:   FUNC GLOBAL DEFAULT 14 _ZN7android8hardware8grap
293:   FUNC GLOBAL DEFAULT 14 _ZN7android8hardware8grap
294:   FUNC GLOBAL DEFAULT 14 _ZN7android8hardware8grap
295:   OBJECT GLOBAL DEFAULT 18 _ZTCN7android8hardware8gr
296:   OBJECT GLOBAL DEFAULT 16 _ZN7android8hardware8grap
297:   FUNC GLOBAL DEFAULT 14 _ZN7android8hardware8grap
298:   FUNC GLOBAL DEFAULT 14 _ZN7android8hardware8grap
299:   FUNC GLOBAL DEFAULT 14 _ZN7android8hardware8grap
300:   FUNC GLOBAL DEFAULT 14 _ZN7android8hardware8grap
301:   FUNC GLOBAL DEFAULT 14 _ZN7android8hardware8grap
302:   FUNC GLOBAL DEFAULT 14 _ZN7android8hardware8grap
303:   FUNC GLOBAL DEFAULT 14 _ZN7android8hardware8grap
304:   FUNC GLOBAL DEFAULT 14 _ZN7android8hardware8grap
305:   FUNC GLOBAL DEFAULT 14 _ZN7android8hardware8grap
306:   FUNC GLOBAL DEFAULT 14 __aeabi_memclr8
307:   FUNC GLOBAL DEFAULT 14 _ZN7android8hardware8grap
308:   FUNC GLOBAL DEFAULT 14 _ZN7android8hardware8grap
309:   FUNC GLOBAL DEFAULT 14 _ZN7android8hardware8grap
310:   FUNC GLOBAL DEFAULT 14 _ZN7android8hardware8grap
311:   FUNC GLOBAL DEFAULT 14 _ZN7android8hardware8grap
312:   FUNC GLOBAL DEFAULT 14 _ZN7android8hardware8grap
313:   FUNC GLOBAL DEFAULT 14 _ZN7android8hardware8grap
314:   FUNC GLOBAL DEFAULT 14 _ZN7android8hardware8grap
315:   OBJECT WEAK DEFAULT 18 _ZTVN7android8hardware8gr
316:   OBJECT GLOBAL DEFAULT 16 _ZN7android8hardware8grap
317:   FUNC WEAK DEFAULT 14 _ZNSt3__16vectorIPvNS_9al
318:   FUNC WEAK DEFAULT 14 _ZN7android8hardware7deta
319:   FUNC GLOBAL DEFAULT 14 _ZN7android8hardware8grap
320:   OBJECT GLOBAL DEFAULT 18 _ZTTN7android8hardware8gr
321:   FUNC GLOBAL DEFAULT 14 _ZN7android8hardware8grap
322:   FUNC GLOBAL DEFAULT 14 _ZN7android8hardware8grap
323:   FUNC GLOBAL DEFAULT 14 _ZN7android8hardware8grap
324:   FUNC GLOBAL DEFAULT 14 _ZN7android8hardware8grap
325:   FUNC GLOBAL DEFAULT 14 _ZN7android8hardware8grap
326:   FUNC GLOBAL DEFAULT 14 _ZN7android8hardware8grap
327:   FUNC GLOBAL DEFAULT 14 _ZN7android8hardware8grap
328:   FUNC GLOBAL DEFAULT 14 __aeabi_memcpy4
329:   FUNC GLOBAL DEFAULT 14 __aeabi_memset4
330:   FUNC GLOBAL DEFAULT 14 _ZN7android8hardware8grap
331:   FUNC GLOBAL DEFAULT 14 _ZN7android8hardware8grap
332:   FUNC GLOBAL DEFAULT 14 _ZN7android8hardware8grap
333:   FUNC WEAK DEFAULT 14 _ZN7android8hardware7deta
334:   FUNC GLOBAL DEFAULT 14 _ZN7android8hardware8grap
335:   FUNC GLOBAL DEFAULT 14 _ZN7android8hardware8grap
336:   OBJECT WEAK DEFAULT 18 _ZTCN7android8hardware8gr
337:   FUNC GLOBAL DEFAULT 14 _ZN7android8hardware8grap
338:   OBJECT GLOBAL DEFAULT 18 _ZTCN7android8hardware8gr
339:   FUNC GLOBAL DEFAULT 14 _ZN7android8hardware8grap
340:   FUNC GLOBAL DEFAULT 14 _ZN7android8hardware8grap
341:   OBJECT GLOBAL DEFAULT 18 _ZTCN7android8hardware8gr
342:   OBJECT GLOBAL DEFAULT 18 _ZTVN7android8hardware8gr
343:   FUNC GLOBAL DEFAULT 14 __aeabi_memcpy8
344:   FUNC GLOBAL DEFAULT 14 __aeabi_memset8
345:   FUNC GLOBAL DEFAULT 14 _ZN7android8hardware8grap
346:   FUNC GLOBAL DEFAULT 14 _ZN7android8hardware8grap
347:   FUNC GLOBAL DEFAULT 14 _ZN7android8hardware8grap
348:   FUNC GLOBAL DEFAULT 14 _ZN7android8hardware8grap
349:   FUNC WEAK DEFAULT 14 _ZNSt3__113__tree_removeI
350:   FUNC GLOBAL DEFAULT 14 __aeabi_memclr
351:   FUNC GLOBAL DEFAULT 14 _ZN7android8hardware8grap
352:   FUNC GLOBAL DEFAULT 14 _ZN7android8hardware8grap
353:   FUNC GLOBAL DEFAULT 14 _ZN7android8hardware8grap
354:   OBJECT GLOBAL DEFAULT 18 _ZTTN7android8hardware8gr
355:   FUNC GLOBAL DEFAULT 14 _ZN7android8hardware8grap
356:   FUNC GLOBAL DEFAULT 14 _ZN7android8hardware8grap
357:   FUNC GLOBAL DEFAULT 14 _ZN7android8hardware8grap
358:   FUNC GLOBAL DEFAULT 14 _ZN7android8hardware8grap
359:   FUNC GLOBAL DEFAULT 14 _ZN7android8hardware8grap
360:   FUNC WEAK DEFAULT 14 _ZNSt3__16__treeINS_12__v
361:   FUNC GLOBAL DEFAULT 14 _ZN7android8hardware8grap
362:   FUNC GLOBAL DEFAULT 14 _ZN7android8hardware8grap
363:   FUNC GLOBAL DEFAULT 14 _ZN7android8hardware8grap
364:   FUNC GLOBAL DEFAULT 14 _ZN7android8hardware8grap
365:   FUNC GLOBAL DEFAULT 14 _ZN7android8hardware8grap
366:   FUNC GLOBAL DEFAULT 14 _ZN7android8hardware8grap
367:   FUNC GLOBAL DEFAULT 14 _ZN7android8hardware8grap
368:   FUNC GLOBAL DEFAULT 14 _ZN7android8hardware8grap
369:   FUNC GLOBAL DEFAULT 14 _ZN7android8hardware8grap
370:   OBJECT GLOBAL DEFAULT 18 _ZTCN7android8hardware8gr
371:   OBJECT GLOBAL DEFAULT 18 _ZTTN7android8hardware8gr
372:   FUNC GLOBAL DEFAULT 14 _ZN7android8hardware8grap
373:   FUNC GLOBAL DEFAULT 14 _ZN7android8hardware8grap
374:   FUNC GLOBAL DEFAULT 14 _ZN7android8hardware8grap
375:   FUNC GLOBAL DEFAULT 14 _ZTv0_n12_N7android8hardw
376:   FUNC GLOBAL DEFAULT 14 _ZN7android8hardware8grap
377:   FUNC GLOBAL DEFAULT 14 _ZN7android8hardware8grap
378:   FUNC GLOBAL DEFAULT 14 _ZN7android8hardware8grap
379:   FUNC GLOBAL DEFAULT 14 _ZN7android8hardware8grap
380:   FUNC GLOBAL DEFAULT 14 _ZN7android8hardware8grap
381:   FUNC GLOBAL DEFAULT 14 _ZN7android8hardware8grap
382:   FUNC GLOBAL DEFAULT 14 _ZN7android8hardware8grap
