 0x000000000000000e (SONAME)             Library soname: [libhidltransport.so]
  
Symbol   contains 2 entries:
Num:   Type Bind Vis Ndx Name
0:   NOTYPE LOCAL DEFAULT UND
1:   FUNC GLOBAL DEFAULT UND __cxa_finalize@LIBC (2)
