 0x000000000000000e (SONAME)             Library soname: [libui.so]
  
Symbol   contains 544 entries:
Num:   Type Bind Vis Ndx Name
0:   NOTYPE LOCAL DEFAULT UND
1:   FUNC GLOBAL DEFAULT UND __cxa_finalize@LIBC (2)
2:   FUNC GLOBAL DEFAULT UND __cxa_atexit@LIBC (2)
3:   FUNC GLOBAL DEFAULT UND _ZNKSt3__121__basic_strin
4:   FUNC GLOBAL DEFAULT UND _ZNSt3__112basic_stringIc
5:   FUNC GLOBAL DEFAULT UND _ZdlPv
6:   FUNC GLOBAL DEFAULT UND _Znam
7:   FUNC GLOBAL DEFAULT UND _Znwm
8:   FUNC GLOBAL DEFAULT UND __stack_chk_fail@LIBC (2)
9:   FUNC GLOBAL DEFAULT UND abort@LIBC (2)
10:   FUNC GLOBAL DEFAULT UND memcpy@LIBC (2)
11:   FUNC GLOBAL DEFAULT UND memset@LIBC (2)
12:   FUNC GLOBAL DEFAULT UND powf@LIBC (3)
13:   FUNC GLOBAL DEFAULT UND strlen@LIBC (2)
14:   FUNC GLOBAL DEFAULT UND _ZN7android4base12StringP
15:   FUNC GLOBAL DEFAULT UND __android_log_print@LIBLOG (4)
16:   FUNC GLOBAL DEFAULT UND __errno@LIBC (2)
17:   FUNC WEAK DEFAULT UND android_fdsan_close_with_@LIBC_Q (5)
18:   FUNC WEAK DEFAULT UND android_fdsan_create_owne@LIBC_Q (5)
19:   FUNC WEAK DEFAULT UND android_fdsan_exchange_ow@LIBC_Q (5)
20:   FUNC GLOBAL DEFAULT UND atrace_begin_body
21:   OBJECT GLOBAL DEFAULT UND atrace_enabled_tags
22:   FUNC GLOBAL DEFAULT UND atrace_end_body
23:   OBJECT GLOBAL DEFAULT UND atrace_is_ready
24:   FUNC GLOBAL DEFAULT UND atrace_setup
25:   FUNC GLOBAL DEFAULT UND close@LIBC (2)
26:   FUNC GLOBAL DEFAULT UND dup@LIBC (2)
27:   FUNC GLOBAL DEFAULT UND strerror@LIBC (2)
28:   FUNC GLOBAL DEFAULT UND sync_file_info@LIBSYNC (6)
29:   FUNC GLOBAL DEFAULT UND sync_file_info_free@LIBSYNC (6)
30:   FUNC GLOBAL DEFAULT UND sync_merge@LIBSYNC (6)
31:   FUNC GLOBAL DEFAULT UND sync_wait@LIBSYNC (6)
32:   FUNC GLOBAL DEFAULT UND _ZN7android14sp_report_ra
33:   FUNC GLOBAL DEFAULT UND _ZNKSt3__119__shared_weak
34:   FUNC GLOBAL DEFAULT UND _ZNKSt3__120__vector_base
35:   FUNC GLOBAL DEFAULT UND _ZNSt3__112__next_primeEm
36:   FUNC GLOBAL DEFAULT UND _ZNSt3__119__shared_weak_
37:   FUNC GLOBAL DEFAULT UND _ZNSt3__119__shared_weak_
38:   FUNC GLOBAL DEFAULT UND _ZNSt3__119__shared_weak_
39:   FUNC GLOBAL DEFAULT UND _ZNSt3__15mutex4lockEv
40:   FUNC GLOBAL DEFAULT UND _ZNSt3__15mutex6unlockEv
41:   FUNC GLOBAL DEFAULT UND _ZNSt3__15mutexD1Ev
42:   FUNC GLOBAL DEFAULT UND memmove@LIBC (2)
43:   FUNC GLOBAL DEFAULT UND _ZN7android10VectorImpl13
44:   FUNC GLOBAL DEFAULT UND _ZN7android10VectorImpl6r
45:   FUNC GLOBAL DEFAULT UND __cxa_pure_virtual
46:   FUNC GLOBAL DEFAULT UND _ZN7android8hardware11hid
47:   FUNC GLOBAL DEFAULT UND _ZN7android8hardware11hid
48:   FUNC GLOBAL DEFAULT UND _ZN7android8hardware11hid
49:   FUNC GLOBAL DEFAULT UND _ZN7android8hardware14IPC
50:   FUNC GLOBAL DEFAULT UND _ZN7android8hardware14IPC
51:   FUNC GLOBAL DEFAULT UND _ZN7android8hardware7deta
52:   FUNC GLOBAL DEFAULT UND _ZN7android8hardware7deta
53:   FUNC GLOBAL DEFAULT UND _ZN7android8hardware7deta
54:   OBJECT GLOBAL DEFAULT UND _ZN7android8hardware8grap
55:   FUNC GLOBAL DEFAULT UND _ZN7android8hardware8grap
56:   FUNC GLOBAL DEFAULT UND _ZN7android8hardware8grap
57:   FUNC GLOBAL DEFAULT UND _ZN7android8hardware8grap
58:   FUNC GLOBAL DEFAULT UND _ZNK7android7RefBase9decS
59:   FUNC GLOBAL DEFAULT UND _ZNK7android7RefBase9incS
60:   FUNC GLOBAL DEFAULT UND _ZNK7android8hardware11hi
61:   FUNC GLOBAL DEFAULT UND _ZNK7android8hardware11hi
62:   FUNC GLOBAL DEFAULT UND _ZNK7android8hardware7det
63:   FUNC GLOBAL DEFAULT UND _ZNSt3__112basic_stringIc
64:   FUNC GLOBAL DEFAULT UND _ZdaPv
65:   FUNC GLOBAL DEFAULT UND __android_log_assert@LIBLOG (4)
66:   FUNC GLOBAL DEFAULT UND native_handle_init
67:   OBJECT GLOBAL DEFAULT UND _ZN7android8hardware8grap
68:   FUNC GLOBAL DEFAULT UND _ZN7android8hardware8grap
69:   FUNC GLOBAL DEFAULT UND _ZN7android8hardware8grap
70:   FUNC GLOBAL DEFAULT UND _ZN7android7RefBase10onFi
71:   FUNC GLOBAL DEFAULT UND _ZN7android7RefBase13onLa
72:   FUNC GLOBAL DEFAULT UND _ZN7android7RefBase15onLa
73:   FUNC GLOBAL DEFAULT UND _ZN7android7RefBase20onIn
74:   FUNC GLOBAL DEFAULT UND _ZN7android7RefBaseC2Ev
75:   FUNC GLOBAL DEFAULT UND _ZN7android7RefBaseD2Ev
76:   FUNC GLOBAL DEFAULT UND __android_log_error_write@LIBLOG_M (7)
77:   FUNC GLOBAL DEFAULT UND getpid@LIBC (2)
78:   FUNC GLOBAL DEFAULT UND native_handle_close
79:   FUNC GLOBAL DEFAULT UND native_handle_create
80:   FUNC GLOBAL DEFAULT UND native_handle_delete
81:   FUNC GLOBAL DEFAULT UND pthread_mutex_lock@LIBC (2)
82:   FUNC GLOBAL DEFAULT UND pthread_mutex_unlock@LIBC (2)
83:   FUNC GLOBAL DEFAULT UND _ZN7android10VectorImpl13
84:   FUNC GLOBAL DEFAULT UND _ZN7android16SortedVector
85:   FUNC GLOBAL DEFAULT UND _ZN7android16SortedVector
86:   FUNC GLOBAL DEFAULT UND _ZN7android16SortedVector
87:   FUNC GLOBAL DEFAULT UND _ZN7android16SortedVector
88:   FUNC GLOBAL DEFAULT UND _ZN7android4base13StringA
89:   FUNC GLOBAL DEFAULT UND _ZNSt3__112basic_stringIc
90:   FUNC GLOBAL DEFAULT UND _ZNSt3__112basic_stringIc
91:   FUNC GLOBAL DEFAULT UND pthread_mutex_destroy@LIBC (2)
92:   FUNC GLOBAL DEFAULT UND pthread_mutex_init@LIBC (2)
93:   FUNC GLOBAL DEFAULT UND _ZN7android8hardware11hid
94:   FUNC GLOBAL DEFAULT UND _ZN7android10VectorImpl12
95:   FUNC GLOBAL DEFAULT UND _ZN7android10VectorImpl3a
96:   FUNC GLOBAL DEFAULT UND _ZN7android10VectorImpl5c
97:   FUNC GLOBAL DEFAULT UND _ZN7android10VectorImpl8i
98:   FUNC GLOBAL DEFAULT UND _ZN7android10VectorImplC2
99:   FUNC GLOBAL DEFAULT UND _ZN7android10VectorImplC2
100:   FUNC GLOBAL DEFAULT UND _ZN7android10VectorImplD2
101:   FUNC GLOBAL DEFAULT UND _ZN7android10VectorImplaS
102:   FUNC WEAK DEFAULT UND android_set_abort_message@LIBC (2)
103:   FUNC GLOBAL DEFAULT UND write@LIBC (2)
104:   FUNC GLOBAL DEFAULT 14 _ZN7android5FenceC1Ei
105:   FUNC GLOBAL DEFAULT 14 _ZNK7android14Gralloc3Map
106:   FUNC GLOBAL DEFAULT 14 _ZNK7android17Gralloc3All
107:   FUNC GLOBAL DEFAULT 14 _ZN7android13GraphicBuffe
108:   FUNC WEAK DEFAULT 14 _ZNK7android12SortedVecto
109:   FUNC GLOBAL DEFAULT 14 _ZN7android12bitsPerPixel
110:   FUNC GLOBAL DEFAULT 14 _ZNK7android6Region5begin
111:   FUNC GLOBAL DEFAULT 14 _ZN7android10ColorSpace12
112:   FUNC GLOBAL DEFAULT 14 _ZN7android10ColorSpace6A
113:   FUNC WEAK DEFAULT 14 _ZNKSt3__110__function6__
114:   FUNC GLOBAL DEFAULT 14 _ZN7android4Rect8offsetBy
115:   FUNC GLOBAL DEFAULT 14 _Z16dataspaceDetails19and
116:   FUNC GLOBAL DEFAULT 14 _ZN7android13GraphicBuffe
117:   FUNC GLOBAL DEFAULT 14 _ZN7android19GraphicBuffe
118:   FUNC GLOBAL DEFAULT 14 _ZN7android15HdrCapabilit
119:   FUNC GLOBAL DEFAULT 14 _ZN7android6Region12subtr
120:   FUNC GLOBAL DEFAULT 14 _ZN7android6RegionD1Ev
121:   OBJECT GLOBAL DEFAULT 11 _ZN7android2ui4Size7INVAL
122:   FUNC GLOBAL DEFAULT 14 _ZNK7android2ui9Transform
123:   FUNC WEAK DEFAULT 14 _ZNSt3__114__split_buffer
124:   FUNC WEAK DEFAULT 14 _ZNK7android12SortedVecto
125:   FUNC GLOBAL DEFAULT 14 _ZN7android6Region12subtr
126:   FUNC GLOBAL DEFAULT 14 _ZNK7android6Region16getF
127:   OBJECT WEAK DEFAULT 18 _ZTVNSt3__110__function6_
128:   FUNC GLOBAL DEFAULT 14 _ZNK7android14Gralloc2Map
129:   FUNC WEAK DEFAULT 14 _ZN7android9SingletonINS_
130:   FUNC GLOBAL DEFAULT 14 _ZN7android13GraphicBuffe
131:   FUNC GLOBAL DEFAULT 14 _ZN7android6Region12subtr
132:   FUNC GLOBAL DEFAULT 14 _ZN7android6RegionC2ERKS0
133:   FUNC GLOBAL DEFAULT 14 _ZN7android14Gralloc3Mapp
134:   FUNC WEAK DEFAULT 14 _ZN7android9SingletonINS_
135:   OBJECT GLOBAL DEFAULT 23 _ZN7android6Region14INVAL
136:   FUNC GLOBAL DEFAULT 14 _ZN7android9FenceTimeC2EO
137:   FUNC GLOBAL DEFAULT 14 _ZNK7android2ui9Transform
138:   FUNC GLOBAL DEFAULT 14 _ZN7android10ColorSpaceC2
139:   OBJECT WEAK DEFAULT 18 _ZTVNSt3__110__function6_
140:   FUNC GLOBAL DEFAULT 14 _ZN7android17Gralloc2Allo
141:   FUNC GLOBAL DEFAULT 14 _ZNK7android14Gralloc2Map
142:   OBJECT WEAK DEFAULT 18 _ZTVNSt3__110__function6_
143:   FUNC GLOBAL DEFAULT 14 _ZN7android13GraphicBuffe
144:   FUNC GLOBAL DEFAULT 14 _ZN7android13GraphicBuffe
145:   FUNC GLOBAL DEFAULT 14 _ZNK7android14Gralloc3Map
146:   FUNC GLOBAL DEFAULT 14 _ZN7android26mapPublicFor
147:   FUNC GLOBAL DEFAULT 14 _ZNK7android2ui9Transform
148:   FUNC GLOBAL DEFAULT 14 _ZNK7android17Gralloc3All
149:   FUNC GLOBAL DEFAULT 14 _ZN7android13GraphicBuffe
150:   FUNC GLOBAL DEFAULT 14 _ZN7android6Region17boole
151:   FUNC WEAK DEFAULT 14 _ZNSt3__110__function6__f
152:   FUNC GLOBAL DEFAULT 14 _ZN7android13GraphicBuffe
153:   FUNC GLOBAL DEFAULT 14 _ZN7android19GraphicBuffe
154:   FUNC GLOBAL DEFAULT 14 _ZN7android6Region3setEii
155:   FUNC WEAK DEFAULT 14 _ZNK7android6VectorINS_4R
156:   FUNC GLOBAL DEFAULT 14 _ZN7android13GraphicBuffe
157:   FUNC GLOBAL DEFAULT 14 _ZN7android19GraphicBuffe
158:   FUNC GLOBAL DEFAULT 14 _ZNK7android2ui9Transform
159:   FUNC GLOBAL DEFAULT 14 _ZN7android10ColorSpace10
160:   FUNC GLOBAL DEFAULT 14 _ZN7android10ColorSpace4s
161:   FUNC GLOBAL DEFAULT 14 _ZN7android10ColorSpaceC2
162:   OBJECT WEAK DEFAULT 18 _ZTVNSt3__120__shared_ptr
163:   FUNC WEAK DEFAULT 14 _ZN7android9SingletonINS_
164:   FUNC GLOBAL DEFAULT 14 _ZNK7android9FenceTime8Sn
165:   FUNC WEAK DEFAULT 14 _ZN7android9SingletonINS_
166:   FUNC GLOBAL DEFAULT 14 _ZN7android6Region13opera
167:   FUNC GLOBAL DEFAULT 14 _ZN7android6RegionC1ERKS0
168:   FUNC GLOBAL DEFAULT 14 _ZNK7android6Region7flatt
169:   FUNC WEAK DEFAULT 14 _ZNSt3__114__split_buffer
170:   FUNC WEAK DEFAULT 14 _ZNK7android12SortedVecto
171:   FUNC WEAK DEFAULT 14 _ZNKSt3__110__function6__
172:   FUNC GLOBAL DEFAULT 14 _ZNK7android14Gralloc3Map
173:   FUNC GLOBAL DEFAULT 14 _ZN7android19GraphicBuffe
174:   FUNC GLOBAL DEFAULT 14 _ZN7android6Region16addRe
175:   FUNC GLOBAL DEFAULT 14 _ZNK7android6Region8subtr
176:   FUNC WEAK DEFAULT 14 _ZNK7android6VectorINS_4R
177:   OBJECT WEAK DEFAULT 18 _ZTVNSt3__110__function6_
178:   FUNC GLOBAL DEFAULT 14 _ZN7android13GraphicBuffe
179:   FUNC WEAK DEFAULT 14 _ZNSt3__110shared_ptrIN7a
180:   FUNC GLOBAL DEFAULT 14 _ZN7android14Gralloc2Mapp
181:   OBJECT GLOBAL DEFAULT 23 _ZN7android9SingletonINS_
182:   FUNC GLOBAL DEFAULT 14 _ZNK7android6Region3endEv
183:   FUNC GLOBAL DEFAULT 14 _ZNK7android2ui9Transform
184:   FUNC GLOBAL DEFAULT 14 _ZN7android9FenceTime13ge
185:   FUNC GLOBAL DEFAULT 14 _Z18decodeRenderIntentN7a
186:   FUNC GLOBAL DEFAULT 14 _Z9to_stringRKN7android4R
187:   FUNC GLOBAL DEFAULT 14 _ZN7android6RegionC2Ev
188:   FUNC GLOBAL DEFAULT 14 _ZN7android9FenceTime20ap
189:   FUNC WEAK DEFAULT 14 _ZNK7android6VectorINS_4R
190:   FUNC GLOBAL DEFAULT 14 _ZNK7android2ui9Transform
191:   FUNC WEAK DEFAULT 14 _ZNSt3__110__function6__f
192:   FUNC GLOBAL DEFAULT 14 _ZN7android22GraphicBuffe
193:   FUNC GLOBAL DEFAULT 14 android_convertGralloc1To
194:   FUNC GLOBAL DEFAULT 14 _ZN7android15HdrCapabilit
195:   FUNC GLOBAL DEFAULT 14 _ZN7android17Gralloc3Allo
196:   FUNC GLOBAL DEFAULT 14 _ZN7android19GraphicBuffe
197:   FUNC GLOBAL DEFAULT 14 _ZN7android6Region9scaleS
198:   FUNC WEAK DEFAULT 14 _ZNK7android6VectorINS_4R
199:   FUNC GLOBAL DEFAULT 14 _ZN7android9FenceTime8Sna
200:   FUNC GLOBAL DEFAULT 14 _ZN7android9FenceTimeC2ER
201:   FUNC WEAK DEFAULT 14 _ZNSt3__16vectorINS_8weak
202:   FUNC GLOBAL DEFAULT 14 _ZN7android6Region9unflat
203:   FUNC GLOBAL DEFAULT 14 _ZNK7android6Region9inter
204:   FUNC GLOBAL DEFAULT 14 _ZNK7android5Fence3dupEv
205:   FUNC GLOBAL DEFAULT 14 _ZN7android19FenceToFence
206:   FUNC GLOBAL DEFAULT 14 _ZN7android2ui9Transform8
207:   FUNC WEAK DEFAULT 14 _ZNSt3__110__function6__f
208:   FUNC WEAK DEFAULT 14 _ZN7android2spINS_5FenceE
209:   FUNC GLOBAL DEFAULT 14 _ZNK7android5Fence16getFl
210:   FUNC WEAK DEFAULT 14 _ZNSt3__112__hash_tableIN
211:   FUNC GLOBAL DEFAULT 14 _ZN7android13GraphicBuffe
212:   FUNC GLOBAL DEFAULT 14 _ZN7android13GraphicBuffe
213:   FUNC GLOBAL DEFAULT 14 _ZN7android6Region13opera
214:   FUNC GLOBAL DEFAULT 14 _ZN7android6Region9transl
215:   FUNC GLOBAL DEFAULT 14 _ZN7android10ColorSpaceC1
216:   FUNC GLOBAL DEFAULT 14 _ZN7android13GraphicBuffe
217:   FUNC GLOBAL DEFAULT 14 _ZN7android10ColorSpaceC1
218:   FUNC GLOBAL DEFAULT 14 _ZNK7android17Gralloc3All
219:   FUNC GLOBAL DEFAULT 14 _ZN7android13GraphicBuffe
220:   FUNC GLOBAL DEFAULT 14 _ZN7android2ui9Transform3
221:   FUNC GLOBAL DEFAULT 14 _ZNK7android2ui9Transform
222:   OBJECT WEAK DEFAULT 18 _ZTVNSt3__110__function6_
223:   FUNC GLOBAL DEFAULT 14 _ZN7android13GraphicBuffe
224:   FUNC GLOBAL DEFAULT 14 _ZN7android19GraphicBuffe
225:   FUNC GLOBAL DEFAULT 14 _ZN7android6Region7xorSel
226:   FUNC WEAK DEFAULT 14 _ZNKSt3__110__function6__
227:   FUNC GLOBAL DEFAULT 14 _Z14decodeTransfer19andro
228:   FUNC WEAK DEFAULT 14 _ZN7android9SingletonINS_
229:   FUNC GLOBAL DEFAULT 14 _ZN7android6RegionC1Ev
230:   OBJECT GLOBAL DEFAULT 18 _ZTVN7android6Region10ras
231:   FUNC GLOBAL DEFAULT 14 _ZN7android2ui9Transform3
232:   FUNC WEAK DEFAULT 14 _ZNKSt3__110__function6__
233:   FUNC WEAK DEFAULT 14 _ZNSt3__110__function6__f
234:   FUNC GLOBAL DEFAULT 14 _ZN7android9FenceTimeC1EO
235:   FUNC WEAK DEFAULT 14 _ZNKSt3__110__function6__
236:   FUNC WEAK DEFAULT 14 _ZNKSt3__110__function6__
237:   FUNC WEAK DEFAULT 14 _ZNSt3__110__function6__f
238:   FUNC GLOBAL DEFAULT 14 _ZN7android5Fence5mergeEP
239:   OBJECT GLOBAL DEFAULT 18 _ZTVN7android13GraphicBuf
240:   FUNC GLOBAL DEFAULT 14 _ZN7android4Rect5insetEii
241:   FUNC GLOBAL DEFAULT 14 _ZNK7android6Region5merge
242:   FUNC GLOBAL DEFAULT 14 _ZNK7android5Fence7flatte
243:   FUNC GLOBAL DEFAULT 14 _ZNK7android14Gralloc3Map
244:   FUNC GLOBAL DEFAULT 14 _ZN7android13bytesPerPixe
245:   FUNC GLOBAL DEFAULT 14 _ZNK7android15HdrCapabili
246:   OBJECT GLOBAL DEFAULT 11 _ZN7android4Rect12INVALID
247:   FUNC GLOBAL DEFAULT 14 _ZN7android2ui9TransformD
248:   FUNC GLOBAL DEFAULT 14 _ZN7android5Fence11waitFo
249:   FUNC WEAK DEFAULT 14 _ZNSt3__120__shared_ptr_p
250:   FUNC WEAK DEFAULT 14 _ZNSt3__110__function6__f
251:   OBJECT GLOBAL DEFAULT 18 _ZTVN7android13GrallocMap
252:   FUNC GLOBAL DEFAULT 14 _ZNK7android2ui9Transform
253:   FUNC GLOBAL DEFAULT 14 _ZN7android10ColorSpace8A
254:   FUNC GLOBAL DEFAULT 14 _ZN7android13GraphicBuffe
255:   OBJECT WEAK DEFAULT 18 _ZTVNSt3__110__function6_
256:   FUNC GLOBAL DEFAULT 14 _ZN7android13GraphicBuffe
257:   FUNC GLOBAL DEFAULT 14 _ZN7android9FenceTime8Sna
258:   FUNC GLOBAL DEFAULT 14 _ZNK7android9FenceTime11g
259:   FUNC WEAK DEFAULT 14 _ZNSt3__112__hash_tableIN
260:   FUNC GLOBAL DEFAULT 14 _ZNK7android14Gralloc2Map
261:   FUNC GLOBAL DEFAULT 14 _ZNK7android5Fence10getFd
262:   FUNC GLOBAL DEFAULT 14 _ZN7android19FenceToFence
263:   FUNC GLOBAL DEFAULT 14 _ZNK7android6Region5merge
264:   FUNC GLOBAL DEFAULT 14 _ZN7android20appendUiConf
265:   FUNC GLOBAL DEFAULT 14 _ZN7android10ColorSpaceC1
266:   OBJECT WEAK DEFAULT 18 _ZTVN7android12SortedVect
267:   FUNC GLOBAL DEFAULT 14 _ZNK7android6Region9trans
268:   FUNC GLOBAL DEFAULT 14 _Z11decodeRange19android_
269:   FUNC GLOBAL DEFAULT 14 _ZN7android19GraphicBuffe
270:   FUNC GLOBAL DEFAULT 14 _ZN7android19GraphicBuffe
271:   FUNC GLOBAL DEFAULT 14 _ZN7android22GraphicBuffe
272:   FUNC WEAK DEFAULT 14 _ZN7android9SingletonINS_
273:   FUNC GLOBAL DEFAULT 14 _ZN7android6Region3setEjj
274:   FUNC GLOBAL DEFAULT 14 _ZN7android6Region9transl
275:   FUNC GLOBAL DEFAULT 14 _ZNK7android6Region14merg
276:   FUNC GLOBAL DEFAULT 14 _ZNK7android6Region8conta
277:   FUNC WEAK DEFAULT 14 _ZNSt3__114__split_buffer
278:   FUNC GLOBAL DEFAULT 14 _ZNK7android2ui9Transform
279:   FUNC WEAK DEFAULT 14 _ZNSt3__110__function6__f
280:   FUNC WEAK DEFAULT 14 _ZNSt3__110__function6__f
281:   FUNC GLOBAL DEFAULT 14 _ZNK7android9FenceTime19g
282:   FUNC GLOBAL DEFAULT 14 _ZN7android29mapPublicFor
283:   OBJECT GLOBAL DEFAULT 11 _ZN7android2ui4Size5EMPTY
284:   FUNC GLOBAL DEFAULT 14 _ZNK7android2ui9Transform
285:   FUNC GLOBAL DEFAULT 14 _ZNK7android2ui9Transform
286:   FUNC WEAK DEFAULT 14 _ZNSt3__110__function6__f
287:   FUNC WEAK DEFAULT 14 _ZNSt3__112__hash_tableIN
288:   FUNC GLOBAL DEFAULT 14 _ZNK7android15HdrCapabili
289:   FUNC GLOBAL DEFAULT 14 _ZNK7android6Region8subtr
290:   FUNC GLOBAL DEFAULT 14 _ZN7android2ui9TransformD
291:   FUNC GLOBAL DEFAULT 14 _ZN7android13GrallocMappe
292:   FUNC GLOBAL DEFAULT 14 _ZN7android6Region10raste
293:   FUNC GLOBAL DEFAULT 14 _ZN7android19ColorSpaceCo
294:   FUNC GLOBAL DEFAULT 14 _ZNK7android14Gralloc3Map
295:   FUNC GLOBAL DEFAULT 14 _ZNK7android13GraphicBuff
296:   FUNC WEAK DEFAULT 14 _ZNK7android12SortedVecto
297:   OBJECT WEAK DEFAULT 18 _ZTVN7android6VectorINS_4
298:   FUNC WEAK DEFAULT 14 _ZNSt3__110__function6__f
299:   FUNC GLOBAL DEFAULT 14 _Z17decodePixelFormati
300:   FUNC GLOBAL DEFAULT 14 _ZNK7android6Region16isTr
301:   FUNC GLOBAL DEFAULT 14 _Z20decodeColorTransform2
302:   FUNC GLOBAL DEFAULT 14 _ZN7android5Fence4waitEi
303:   FUNC GLOBAL DEFAULT 14 _ZNK7android14Gralloc3Map
304:   FUNC GLOBAL DEFAULT 14 _ZNK7android22GraphicBuff
305:   FUNC GLOBAL DEFAULT 14 _ZN7android2ui9Transform3
306:   FUNC WEAK DEFAULT 14 _ZNKSt3__110__function6__
307:   FUNC WEAK DEFAULT 14 _ZNSt3__112__hash_tableIN
308:   FUNC GLOBAL DEFAULT 14 _ZNK7android10FrameStats1
309:   FUNC GLOBAL DEFAULT 14 _ZN7android14Gralloc2Mapp
310:   FUNC GLOBAL DEFAULT 14 _ZN7android13GraphicBuffe
311:   FUNC GLOBAL DEFAULT 14 _ZN7android19GraphicBuffe
312:   FUNC GLOBAL DEFAULT 14 _ZN7android6RegionC2ERKNS
313:   FUNC GLOBAL DEFAULT 14 _ZNK7android6Region8getAr
314:   FUNC GLOBAL DEFAULT 14 _ZN7android16GrallocAlloc
315:   FUNC GLOBAL DEFAULT 14 _ZNK7android14Gralloc3Map
316:   OBJECT GLOBAL DEFAULT 23 _ZN7android22GraphicBuffe
317:   FUNC GLOBAL DEFAULT 14 _ZN7android6Region7xorSel
318:   FUNC GLOBAL DEFAULT 14 _ZNK7android9FenceTime8Sn
319:   OBJECT GLOBAL DEFAULT 18 _ZTVN7android17Gralloc2Al
320:   FUNC GLOBAL DEFAULT 14 _ZN7android6Region10raste
321:   FUNC GLOBAL DEFAULT 14 _ZN7android6Region7andSel
322:   FUNC WEAK DEFAULT 14 _ZNSt3__110__function6__f
323:   FUNC GLOBAL DEFAULT 14 _Z14decodeStandard19andro
324:   FUNC GLOBAL DEFAULT 14 _ZN7android9FenceTimeC2ER
325:   FUNC GLOBAL DEFAULT 14 _ZNK7android14Gralloc2Map
326:   FUNC GLOBAL DEFAULT 14 _ZN7android22GraphicBuffe
327:   FUNC GLOBAL DEFAULT 14 _ZNK7android14Gralloc2Map
328:   FUNC GLOBAL DEFAULT 14 _ZN7android13GraphicBuffe
329:   FUNC GLOBAL DEFAULT 14 _ZNK7android2ui9Transform
330:   FUNC GLOBAL DEFAULT 14 _ZN7android10ColorSpace4A
331:   FUNC GLOBAL DEFAULT 14 _ZN7android10ColorSpace4N
332:   FUNC WEAK DEFAULT 14 _ZNKSt3__110__function6__
333:   FUNC WEAK DEFAULT 14 _ZNSt3__110__function6__f
334:   FUNC WEAK DEFAULT 14 _ZN7android2spINS_5FenceE
335:   FUNC GLOBAL DEFAULT 14 _ZN7android2ui9TransformC
336:   FUNC WEAK DEFAULT 14 _ZNSt3__110__function6__f
337:   FUNC GLOBAL DEFAULT 14 _ZN7android13GrallocMappe
338:   FUNC GLOBAL DEFAULT 14 _ZNK7android4RectplERKNS_
339:   FUNC WEAK DEFAULT 14 _ZNSt3__15dequeINS_8weak_
340:   FUNC WEAK DEFAULT 14 _ZNSt3__15dequeINS_8weak_
341:   FUNC GLOBAL DEFAULT 14 _ZN7android13GraphicBuffe
342:   OBJECT GLOBAL DEFAULT 18 _ZTVN7android14Gralloc2Ma
343:   FUNC GLOBAL DEFAULT 14 _ZN7android10ColorSpace5B
344:   FUNC GLOBAL DEFAULT 14 _ZN7android5FenceC1ENS_4b
345:   FUNC GLOBAL DEFAULT 14 _ZN7android13FenceTimelin
346:   FUNC GLOBAL DEFAULT 14 _ZNK7android14Gralloc2Map
347:   FUNC GLOBAL DEFAULT 14 _ZN7android19GraphicBuffe
348:   FUNC WEAK DEFAULT 14 _ZNKSt3__110__function6__
349:   FUNC GLOBAL DEFAULT 14 _ZN7android5Fence9unflatt
350:   FUNC GLOBAL DEFAULT 14 _ZN7android14Gralloc2Mapp
351:   FUNC GLOBAL DEFAULT 14 _ZN7android14Gralloc3Mapp
352:   FUNC GLOBAL DEFAULT 14 _ZNK7android6Region9opera
353:   FUNC GLOBAL DEFAULT 14 _ZN7android10ColorSpaceC2
354:   FUNC GLOBAL DEFAULT 14 _ZN7android16GrallocAlloc
355:   FUNC WEAK DEFAULT 14 _ZNK7android12SortedVecto
356:   OBJECT GLOBAL DEFAULT 11 _ZN7android4Rect10EMPTY_R
357:   FUNC GLOBAL DEFAULT 14 _ZN7android10ColorSpaceC2
358:   OBJECT GLOBAL DEFAULT 18 _ZTVN7android17Gralloc3Al
359:   FUNC GLOBAL DEFAULT 14 _ZN7android13GraphicBuffe
360:   FUNC GLOBAL DEFAULT 14 _ZNK7android22GraphicBuff
361:   FUNC GLOBAL DEFAULT 14 _ZNK7android4Rect9interse
362:   FUNC GLOBAL DEFAULT 14 _ZN7android6Region10raste
363:   FUNC GLOBAL DEFAULT 14 _ZN7android6RegionC1ERKNS
364:   FUNC GLOBAL DEFAULT 14 _ZN7android10ColorSpace9c
365:   FUNC WEAK DEFAULT 14 _ZN7android9SingletonINS_
366:   FUNC GLOBAL DEFAULT 14 _ZNK7android6Region4dumpE
367:   FUNC GLOBAL DEFAULT 14 _ZNK7android6Region9opera
368:   FUNC WEAK DEFAULT 14 _ZNK7android6VectorINS_4R
369:   FUNC GLOBAL DEFAULT 14 _ZN7android2ui9Transform5
370:   OBJECT GLOBAL DEFAULT 23 _ZN7android9FenceTime8NO_
371:   FUNC GLOBAL DEFAULT 14 _ZN7android17Gralloc2Allo
372:   FUNC GLOBAL DEFAULT 14 _ZN7android6Region7andSel
373:   FUNC GLOBAL DEFAULT 14 _ZN7android10ColorSpace18
374:   FUNC WEAK DEFAULT 14 _ZNKSt3__110__function6__
375:   FUNC GLOBAL DEFAULT 14 _ZN7android9FenceTime8Sna
376:   FUNC GLOBAL DEFAULT 14 _ZNK7android13GraphicBuff
377:   FUNC GLOBAL DEFAULT 14 _ZN7android6Region3setERK
378:   FUNC GLOBAL DEFAULT 14 _ZN7android2ui9TransformC
379:   FUNC GLOBAL DEFAULT 14 _ZN7android13FenceTimelin
380:   FUNC GLOBAL DEFAULT 14 _ZN7android13GraphicBuffe
381:   FUNC GLOBAL DEFAULT 14 _ZN7android13GraphicBuffe
382:   FUNC GLOBAL DEFAULT 14 _ZNK7android4RectltERKS0_
383:   FUNC GLOBAL DEFAULT 14 _ZN7android2ui9TransformC
384:   FUNC GLOBAL DEFAULT 14 _ZN7android13GrallocMappe
385:   FUNC GLOBAL DEFAULT 14 _ZNK7android13GraphicBuff
386:   OBJECT GLOBAL DEFAULT 18 _ZTVN7android16GrallocAll
387:   FUNC GLOBAL DEFAULT 14 _ZNK7android14Gralloc2Map
388:   FUNC GLOBAL DEFAULT 14 _ZN7android6Region6orSelf
389:   FUNC GLOBAL DEFAULT 14 _Z15decodeColorModeN7andr
390:   FUNC WEAK DEFAULT 14 _ZNSt3__15dequeINS_8weak_
391:   FUNC GLOBAL DEFAULT 14 _ZN7android13GraphicBuffe
392:   FUNC GLOBAL DEFAULT 14 _ZNK7android13GraphicBuff
393:   FUNC WEAK DEFAULT 14 _ZNSt3__16vectorINS_4pair
394:   FUNC GLOBAL DEFAULT 14 _ZN7android2ui9TransformC
395:   FUNC GLOBAL DEFAULT 14 _ZN7android10ColorSpaceC1
396:   FUNC WEAK DEFAULT 14 _ZNKSt3__110__function6__
397:   FUNC GLOBAL DEFAULT 14 _ZN7android14Gralloc3Mapp
398:   FUNC WEAK DEFAULT 14 _ZNK7android12SortedVecto
399:   FUNC GLOBAL DEFAULT 14 _ZN7android4Rect11makeInv
400:   FUNC GLOBAL DEFAULT 14 _ZN7android6Region8valida
401:   FUNC GLOBAL DEFAULT 14 _ZNK7android6Region14merg
402:   FUNC GLOBAL DEFAULT 14 _ZNK7android6Region4dumpE
403:   FUNC GLOBAL DEFAULT 14 _ZNK7android6Region8subtr
404:   FUNC GLOBAL DEFAULT 14 _ZN7android10ColorSpace6B
405:   FUNC GLOBAL DEFAULT 14 _ZN7android10ColorSpace9D
406:   FUNC GLOBAL DEFAULT 14 _ZN7android9FenceTime8Sna
407:   FUNC GLOBAL DEFAULT 14 _ZN7android16GrallocAlloc
408:   FUNC GLOBAL DEFAULT 14 _ZNK7android14Gralloc2Map
409:   FUNC GLOBAL DEFAULT 14 _ZN7android13GraphicBuffe
410:   FUNC GLOBAL DEFAULT 14 _ZN7android19GraphicBuffe
411:   FUNC GLOBAL DEFAULT 14 _ZN7android15HdrCapabilit
412:   FUNC GLOBAL DEFAULT 14 _ZNK7android2ui9Transform
413:   FUNC GLOBAL DEFAULT 14 _ZN7android19ColorSpaceCo
414:   FUNC GLOBAL DEFAULT 14 _ZN7android9FenceTimeC1ER
415:   FUNC GLOBAL DEFAULT 14 _ZN7android6Region10raste
416:   FUNC GLOBAL DEFAULT 14 _ZN7android6Region7xorSel
417:   FUNC WEAK DEFAULT 14 _ZNKSt3__110__function6__
418:   FUNC WEAK DEFAULT 14 _ZNSt3__120__shared_ptr_e
419:   FUNC GLOBAL DEFAULT 14 _ZN7android22GraphicBuffe
420:   FUNC GLOBAL DEFAULT 14 _ZN7android22GraphicBuffe
421:   FUNC WEAK DEFAULT 14 _ZN7android9SingletonINS_
422:   FUNC GLOBAL DEFAULT 14 _ZNK7android6Region9inter
423:   FUNC GLOBAL DEFAULT 14 _ZNK7android2ui9Transform
424:   FUNC GLOBAL DEFAULT 14 _ZN7android10ColorSpaceC2
425:   FUNC WEAK DEFAULT 14 _ZNSt3__110__function6__f
426:   FUNC WEAK DEFAULT 14 _ZNSt3__120__shared_ptr_e
427:   FUNC GLOBAL DEFAULT 14 _ZN7android2ui9Transform6
428:   FUNC WEAK DEFAULT 14 _ZNSt3__110__function6__f
429:   FUNC GLOBAL DEFAULT 14 _ZN7android13GraphicBuffe
430:   FUNC GLOBAL DEFAULT 14 _ZN7android22GraphicBuffe
431:   FUNC WEAK DEFAULT 14 _ZN7android9SingletonINS_
432:   OBJECT GLOBAL DEFAULT 23 _ZN7android9SingletonINS_
433:   FUNC GLOBAL DEFAULT 14 _ZNK7android13GraphicBuff
434:   FUNC WEAK DEFAULT 14 _ZNK7android6VectorINS_4R
435:   FUNC GLOBAL DEFAULT 14 _ZN7android2ui9TransformC
436:   FUNC GLOBAL DEFAULT 14 _ZN7android9FenceTimeC2El
437:   FUNC GLOBAL DEFAULT 14 _ZN7android13GraphicBuffe
438:   FUNC GLOBAL DEFAULT 14 _ZN7android15HdrCapabilit
439:   FUNC WEAK DEFAULT 14 _ZNSt3__16vectorIN7androi
440:   FUNC GLOBAL DEFAULT 14 _ZNK7android2ui9Transform
441:   FUNC GLOBAL DEFAULT 14 _ZN7android9FenceTimeC1ER
442:   FUNC GLOBAL DEFAULT 14 _ZNK7android13GraphicBuff
443:   FUNC GLOBAL DEFAULT 14 _ZNK7android6Region14merg
444:   FUNC GLOBAL DEFAULT 14 _ZNK7android2ui9Transform
445:   FUNC GLOBAL DEFAULT 14 _ZN7android2ui9TransformC
446:   FUNC WEAK DEFAULT 14 _ZNSt3__110__function6__f
447:   FUNC GLOBAL DEFAULT 14 _ZNK7android2ui9Transform
448:   FUNC GLOBAL DEFAULT 14 _ZN7android5Fence5mergeER
449:   FUNC GLOBAL DEFAULT 14 _ZN7android9FenceTime8Sna
450:   FUNC GLOBAL DEFAULT 14 _ZN7android10FrameStats9u
451:   FUNC WEAK DEFAULT 14 _ZN7android9SingletonINS_
452:   FUNC GLOBAL DEFAULT 14 _ZN7android15HdrCapabilit
453:   FUNC GLOBAL DEFAULT 14 _ZN7android6Region6orSelf
454:   FUNC GLOBAL DEFAULT 14 _ZNK7android6Region5merge
455:   FUNC GLOBAL DEFAULT 14 _ZNK7android2ui9Transform
456:   FUNC GLOBAL DEFAULT 14 _ZN7android9FenceTime13si
457:   FUNC GLOBAL DEFAULT 14 _ZNK7android9FenceTime8Sn
458:   FUNC GLOBAL DEFAULT 14 _ZN7android17Gralloc3Allo
459:   FUNC GLOBAL DEFAULT 14 _ZN7android13GraphicBuffe
460:   FUNC GLOBAL DEFAULT 14 _ZN7android4Rect8offsetTo
461:   FUNC GLOBAL DEFAULT 14 _ZNK7android4Rect6reduceE
462:   FUNC GLOBAL DEFAULT 14 _ZN7android6Region10raste
463:   FUNC GLOBAL DEFAULT 14 _ZNK7android6Region8conta
464:   FUNC GLOBAL DEFAULT 14 _ZN7android10ColorSpaceC1
465:   FUNC GLOBAL DEFAULT 14 _ZNK7android17Gralloc2All
466:   FUNC GLOBAL DEFAULT 14 _ZN7android22GraphicBuffe
467:   FUNC GLOBAL DEFAULT 14 _ZN7android19GraphicBuffe
468:   FUNC GLOBAL DEFAULT 14 _ZNK7android6Region9inter
469:   FUNC GLOBAL DEFAULT 14 _ZN7android2ui9Transforma
470:   FUNC GLOBAL DEFAULT 14 _ZN7android10ColorSpaceC2
471:   FUNC WEAK DEFAULT 14 _ZNSt3__110__function6__f
472:   FUNC GLOBAL DEFAULT 14 _ZNK7android14Gralloc2Map
473:   FUNC GLOBAL DEFAULT 14 _ZNK7android14Gralloc3Map
474:   FUNC GLOBAL DEFAULT 14 _ZN7android6Region5clearE
475:   OBJECT GLOBAL DEFAULT 23 _ZN7android9SingletonINS_
476:   FUNC WEAK DEFAULT 14 _ZN7android9SingletonINS_
477:   FUNC GLOBAL DEFAULT 14 _ZN7android10ColorSpace5D
478:   FUNC WEAK DEFAULT 14 _ZNKSt3__110__function6__
479:   FUNC GLOBAL DEFAULT 14 _ZNK7android5Fence13getSi
480:   FUNC GLOBAL DEFAULT 14 _ZNK7android10FrameStats7
481:   FUNC GLOBAL DEFAULT 14 _ZN7android6Region17boole
482:   FUNC WEAK DEFAULT 14 _ZNSt3__110__function6__f
483:   FUNC WEAK DEFAULT 14 _ZNSt3__110__function6__f
484:   FUNC GLOBAL DEFAULT 14 _ZN7android9FenceTimeC1El
485:   FUNC WEAK DEFAULT 14 _ZNSt3__120__shared_ptr_p
486:   FUNC GLOBAL DEFAULT 14 _ZN7android13GraphicBuffe
487:   FUNC WEAK DEFAULT 14 _ZNKSt3__110__function6__
488:   OBJECT WEAK DEFAULT 18 _ZTVNSt3__110__function6_
489:   FUNC GLOBAL DEFAULT 14 _ZNK7android4Rect9transfo
490:   FUNC GLOBAL DEFAULT 14 _ZNK7android2ui9Transform
491:   FUNC GLOBAL DEFAULT 14 _ZN7android19FenceToFence
492:   OBJECT WEAK DEFAULT 18 _ZTVNSt3__120__shared_ptr
493:   FUNC GLOBAL DEFAULT 14 _ZNK7android14Gralloc3Map
494:   FUNC WEAK DEFAULT 14 _ZNK7android12SortedVecto
495:   FUNC GLOBAL DEFAULT 14 _ZN7android13GraphicBuffe
496:   FUNC GLOBAL DEFAULT 14 _ZNK7android4RectmiERKNS_
497:   FUNC GLOBAL DEFAULT 14 _ZN7android6Region13trans
498:   FUNC WEAK DEFAULT 14 _ZNSt3__110__function6__f
499:   FUNC WEAK DEFAULT 14 _ZNSt3__110__function6__f
500:   FUNC GLOBAL DEFAULT 14 _ZN7android6Region7andSel
501:   FUNC GLOBAL DEFAULT 14 _ZN7android10ColorSpace11
502:   FUNC GLOBAL DEFAULT 14 _ZN7android5FenceC2ENS_4b
503:   FUNC GLOBAL DEFAULT 14 _ZN7android5FenceC2Ei
504:   FUNC GLOBAL DEFAULT 14 _ZN7android13GraphicBuffe
505:   FUNC GLOBAL DEFAULT 14 _ZN7android19GraphicBuffe
506:   OBJECT GLOBAL DEFAULT 23 _ZN7android22GraphicBuffe
507:   FUNC GLOBAL DEFAULT 14 _ZNK7android10FrameStats1
508:   FUNC GLOBAL DEFAULT 14 _ZNK7android14Gralloc2Map
509:   OBJECT GLOBAL DEFAULT 18 _ZTVN7android14Gralloc3Ma
510:   OBJECT GLOBAL DEFAULT 23 _ZN7android9SingletonINS_
511:   FUNC GLOBAL DEFAULT 14 _ZN7android6Region17boole
512:   FUNC WEAK DEFAULT 14 _ZNSt3__114__split_buffer
513:   FUNC GLOBAL DEFAULT 14 _ZNK7android14Gralloc2Map
514:   FUNC GLOBAL DEFAULT 14 _ZN7android19GraphicBuffe
515:   FUNC GLOBAL DEFAULT 14 _ZN7android6RegionD2Ev
516:   FUNC GLOBAL DEFAULT 14 _ZNK7android6Region9opera
517:   OBJECT GLOBAL DEFAULT 23 _ZN7android5Fence8NO_FENC
518:   FUNC GLOBAL DEFAULT 14 _ZN7android13GraphicBuffe
519:   FUNC GLOBAL DEFAULT 14 _ZN7android6Region17boole
520:   FUNC GLOBAL DEFAULT 14 _ZNK7android2ui9Transform
521:   FUNC GLOBAL DEFAULT 14 _ZN7android10ColorSpaceC1
522:   FUNC GLOBAL DEFAULT 14 _ZNK7android17Gralloc2All
523:   FUNC GLOBAL DEFAULT 14 _ZN7android6Region13opera
524:   FUNC GLOBAL DEFAULT 14 _ZNK7android17Gralloc2All
525:   FUNC GLOBAL DEFAULT 14 _ZNK7android14Gralloc3Map
526:   FUNC WEAK DEFAULT 14 _ZN7android9SingletonINS_
527:   FUNC GLOBAL DEFAULT 14 _ZN7android15HdrCapabilit
528:   FUNC GLOBAL DEFAULT 14 _ZN7android35mapHalFormat
529:   FUNC GLOBAL DEFAULT 14 _ZN7android6RegionaSERKS0
530:   FUNC GLOBAL DEFAULT 14 _ZNK7android2ui9Transform
531:   FUNC GLOBAL DEFAULT 14 _ZN7android6Region6orSelf
532:   FUNC WEAK DEFAULT 14 _ZNSt3__112__hash_tableIN
533:   FUNC GLOBAL DEFAULT 14 _ZN7android13GraphicBuffe
534:   FUNC GLOBAL DEFAULT 14 _ZNK7android13GraphicBuff
535:   FUNC GLOBAL DEFAULT 14 _ZN7android13GraphicBuffe
536:   FUNC GLOBAL DEFAULT 14 _ZN7android13GraphicBuffe
537:   FUNC GLOBAL DEFAULT 14 _ZN7android6Region25creat
538:   FUNC GLOBAL DEFAULT 14 android_convertGralloc0To
539:   FUNC GLOBAL DEFAULT 14 _ZNK7android9FenceTime7is
540:   FUNC GLOBAL DEFAULT 14 _ZNK7android14Gralloc3Map
541:   FUNC GLOBAL DEFAULT 14 _ZN7android13GraphicBuffe
542:   FUNC GLOBAL DEFAULT 14 _ZN7android13GraphicBuffe
543:   FUNC GLOBAL DEFAULT 14 _ZN7android6Region14makeB
