 0x000000000000000e (SONAME)             Library soname: [libc_scudo.so]
  
Symbol   contains 111 entries:
Num:   Type Bind Vis Ndx Name
0:   NOTYPE LOCAL DEFAULT UND
1:   NOTYPE GLOBAL DEFAULT UND __cxa_finalize
2:   NOTYPE GLOBAL DEFAULT UND __cxa_atexit
3:   NOTYPE GLOBAL DEFAULT UND __errno
4:   FUNC GLOBAL DEFAULT UND scudo_aligned_alloc@LIBC_SCUDO (2)
5:   FUNC GLOBAL DEFAULT UND scudo_calloc@LIBC_SCUDO (2)
6:   FUNC GLOBAL DEFAULT UND scudo_free@LIBC_SCUDO (2)
7:   FUNC GLOBAL DEFAULT UND scudo_mallinfo@LIBC_SCUDO (2)
8:   FUNC GLOBAL DEFAULT UND scudo_malloc@LIBC_SCUDO (2)
9:   FUNC GLOBAL DEFAULT UND scudo_malloc_usable_size@LIBC_SCUDO (2)
10:   FUNC GLOBAL DEFAULT UND scudo_memalign@LIBC_SCUDO (2)
11:   FUNC GLOBAL DEFAULT UND scudo_posix_memalign@LIBC_SCUDO (2)
12:   FUNC GLOBAL DEFAULT UND scudo_realloc@LIBC_SCUDO (2)
13:   NOTYPE GLOBAL DEFAULT UND __stack_chk_fail
14:   NOTYPE GLOBAL DEFAULT UND __system_property_get
15:   NOTYPE GLOBAL DEFAULT UND __vsnprintf_chk
16:   NOTYPE GLOBAL DEFAULT UND dlclose
17:   NOTYPE GLOBAL DEFAULT UND dlerror
18:   NOTYPE GLOBAL DEFAULT UND dlopen
19:   NOTYPE GLOBAL DEFAULT UND dlsym
20:   NOTYPE GLOBAL DEFAULT UND fclose
21:   NOTYPE GLOBAL DEFAULT UND fwrite
22:   NOTYPE GLOBAL DEFAULT UND getprogname
23:   NOTYPE GLOBAL DEFAULT UND stderr
24:   NOTYPE GLOBAL DEFAULT UND stdin
25:   NOTYPE GLOBAL DEFAULT UND stdout
26:   NOTYPE GLOBAL DEFAULT UND __memchr_chk
27:   NOTYPE GLOBAL DEFAULT UND __memcpy_chk
28:   NOTYPE GLOBAL DEFAULT UND __memrchr_chk
29:   NOTYPE GLOBAL DEFAULT UND __open_2
30:   NOTYPE GLOBAL DEFAULT UND __read_chk
31:   NOTYPE GLOBAL DEFAULT UND abort
32:   NOTYPE GLOBAL DEFAULT UND close
33:   NOTYPE GLOBAL DEFAULT UND mprotect
34:   NOTYPE GLOBAL DEFAULT UND pthread_create
35:   NOTYPE GLOBAL DEFAULT UND pthread_detach
36:   NOTYPE GLOBAL DEFAULT UND pthread_mutex_lock
37:   NOTYPE GLOBAL DEFAULT UND pthread_mutex_unlock
38:   NOTYPE GLOBAL DEFAULT UND pthread_setname_np
39:   NOTYPE GLOBAL DEFAULT UND raise
40:   NOTYPE GLOBAL DEFAULT UND sigaction
41:   NOTYPE GLOBAL DEFAULT UND sigaddset64
42:   NOTYPE GLOBAL DEFAULT UND sigdelset64
43:   NOTYPE GLOBAL DEFAULT UND strerror
44:   NOTYPE GLOBAL DEFAULT UND usleep
45:   NOTYPE GLOBAL DEFAULT UND __assert
46:   NOTYPE GLOBAL DEFAULT UND __strlcpy_chk
47:   NOTYPE GLOBAL DEFAULT UND __strlen_chk
48:   NOTYPE GLOBAL DEFAULT UND android_set_abort_message
49:   NOTYPE GLOBAL DEFAULT UND clock_gettime
50:   NOTYPE GLOBAL DEFAULT UND connect
51:   NOTYPE GLOBAL DEFAULT UND gettid
52:   NOTYPE GLOBAL DEFAULT UND memcpy
53:   NOTYPE GLOBAL DEFAULT UND socket
54:   NOTYPE GLOBAL DEFAULT UND strlen
55:   NOTYPE GLOBAL DEFAULT UND syscall
56:   NOTYPE GLOBAL DEFAULT UND write
57:   NOTYPE GLOBAL DEFAULT UND writev
58:   FUNC GLOBAL DEFAULT 14 mallinfo
59:   FUNC GLOBAL DEFAULT 14 malloc_info
60:   FUNC GLOBAL DEFAULT 14 memalign
61:   OBJECT GLOBAL DEFAULT 22 gZygoteChild
62:   FUNC GLOBAL DEFAULT 14 malloc_enable
63:   FUNC GLOBAL DEFAULT 14 scudo_malloc_info
64:   FUNC GLOBAL DEFAULT 14 _Z17GetMallocLeakInfoP27a
65:   FUNC GLOBAL DEFAULT 14 _Z34HeapprofdInstallError
66:   OBJECT GLOBAL DEFAULT 22 __realloc_hook
67:   FUNC GLOBAL DEFAULT 14 malloc_iterate
68:   FUNC GLOBAL DEFAULT 14 scudo_malloc_disable
69:   FUNC GLOBAL DEFAULT 14 _Z16HeapprofdMalloptiPvm
70:   FUNC GLOBAL DEFAULT 14 _Z21HeapprofdUnmaskSignal
71:   FUNC GLOBAL DEFAULT 14 aligned_alloc
72:   FUNC GLOBAL DEFAULT 14 malloc_disable
73:   FUNC GLOBAL DEFAULT 14 posix_memalign
74:   FUNC GLOBAL DEFAULT 14 _Z18FreeMallocLeakInfoP27
75:   OBJECT GLOBAL DEFAULT 22 gGlobalsMutating
76:   FUNC GLOBAL DEFAULT 14 async_safe_fatal_va_list
77:   OBJECT GLOBAL DEFAULT 22 __free_hook
78:   FUNC GLOBAL DEFAULT 14 realloc
79:   FUNC GLOBAL DEFAULT 14 MallocInitHeapprofdHook
80:   FUNC GLOBAL DEFAULT 14 _Z17LoadSharedLibraryPKcS
81:   FUNC GLOBAL DEFAULT 14 _Z29HeapprofdInstallSigna
82:   FUNC GLOBAL DEFAULT 14 malloc_usable_size
83:   FUNC GLOBAL DEFAULT 14 mallopt
84:   FUNC GLOBAL DEFAULT 14 scudo_iterate
85:   FUNC GLOBAL DEFAULT 14 scudo_malloc_enable
86:   FUNC GLOBAL DEFAULT 14 _Z11LimitEnablePvm
87:   FUNC GLOBAL DEFAULT 14 android_mallopt
88:   FUNC GLOBAL DEFAULT 14 async_safe_format_log_va_
89:   OBJECT GLOBAL DEFAULT 22 __memalign_hook
90:   FUNC GLOBAL DEFAULT 14 malloc
91:   FUNC GLOBAL DEFAULT 14 reallocarray
92:   FUNC GLOBAL DEFAULT 14 async_safe_write_log
93:   OBJECT GLOBAL DEFAULT 22 __malloc_hook
94:   FUNC GLOBAL DEFAULT 14 free
95:   FUNC GLOBAL DEFAULT 14 malloc_backtrace
96:   FUNC GLOBAL DEFAULT 14 async_safe_fatal_no_abort
97:   FUNC GLOBAL DEFAULT 14 async_safe_format_buffer
98:   FUNC GLOBAL DEFAULT 14 async_safe_format_fd
99:   FUNC GLOBAL DEFAULT 14 scudo_mallopt
100:   FUNC GLOBAL DEFAULT 14 _Z17InitSharedLibraryPvPK
101:   FUNC GLOBAL DEFAULT 14 _Z18FinishInstallHooksP12
102:   FUNC GLOBAL DEFAULT 14 calloc
103:   FUNC GLOBAL DEFAULT 14 _Z19WriteMallocLeakInfoP7
104:   FUNC GLOBAL DEFAULT 14 _Z27HeapprofdInstallHooks
105:   FUNC GLOBAL DEFAULT 14 _Z19HeapprofdMaskSignalv
106:   FUNC GLOBAL DEFAULT 14 async_safe_format_fd_va_l
107:   FUNC GLOBAL DEFAULT 14 async_safe_format_log
108:   FUNC GLOBAL DEFAULT 14 _Z19HeapprofdShouldLoadv
109:   OBJECT GLOBAL DEFAULT 22 gGlobalsMutateLock
110:   FUNC GLOBAL DEFAULT 14 async_safe_format_buffer_
