 0x000000000000000e (SONAME)             Library soname: [libnativewindow.so]
  
Symbol   contains 88 entries:
Num:   Type Bind Vis Ndx Name
0:   NOTYPE LOCAL DEFAULT UND
1:   FUNC GLOBAL DEFAULT UND __cxa_finalize@LIBC (4)
2:   FUNC GLOBAL DEFAULT UND _ZN7android13GraphicBuffe
3:   FUNC GLOBAL DEFAULT UND _ZN7android13GraphicBuffe
4:   FUNC GLOBAL DEFAULT UND _ZN7android13GraphicBuffe
5:   FUNC GLOBAL DEFAULT UND _ZN7android13GraphicBuffe
6:   FUNC GLOBAL DEFAULT UND _ZN7android13GraphicBuffe
7:   FUNC GLOBAL DEFAULT UND _ZN7android13GraphicBuffe
8:   FUNC GLOBAL DEFAULT UND _ZN7android13GraphicBuffe
9:   FUNC GLOBAL DEFAULT UND _ZN7android13GraphicBuffe
10:   FUNC GLOBAL DEFAULT UND _ZN7android13GraphicBuffe
11:   FUNC GLOBAL DEFAULT UND _ZN7android13GraphicBuffe
12:   FUNC GLOBAL DEFAULT UND _ZN7android13GraphicBuffe
13:   FUNC GLOBAL DEFAULT UND _ZN7android13GraphicBuffe
14:   OBJECT GLOBAL DEFAULT UND _ZN7android4Rect12INVALID
15:   FUNC GLOBAL DEFAULT UND _ZNK7android13GraphicBuff
16:   FUNC GLOBAL DEFAULT UND _ZNK7android13GraphicBuff
17:   FUNC GLOBAL DEFAULT UND _ZNK7android13GraphicBuff
18:   FUNC GLOBAL DEFAULT UND _ZNK7android13GraphicBuff
19:   FUNC GLOBAL DEFAULT UND _ZNK7android13GraphicBuff
20:   FUNC GLOBAL DEFAULT UND _ZNK7android13GraphicBuff
21:   FUNC GLOBAL DEFAULT UND _ZNK7android7RefBase9decS
22:   FUNC GLOBAL DEFAULT UND _ZNK7android7RefBase9incS
23:   FUNC GLOBAL DEFAULT UND _ZNSt3__112basic_stringIc
24:   FUNC GLOBAL DEFAULT UND _ZNSt3__112basic_stringIc
25:   FUNC GLOBAL DEFAULT UND _ZNSt3__19to_stringEi
26:   FUNC GLOBAL DEFAULT UND _ZdaPv
27:   FUNC GLOBAL DEFAULT UND _ZdlPv
28:   FUNC GLOBAL DEFAULT UND _Znam
29:   FUNC GLOBAL DEFAULT UND _Znwm
30:   FUNC GLOBAL DEFAULT UND __android_log_print@LIBLOG (5)
31:   FUNC GLOBAL DEFAULT UND __errno@LIBC (4)
32:   FUNC GLOBAL DEFAULT UND __memcpy_chk@LIBC (4)
33:   FUNC GLOBAL DEFAULT UND __stack_chk_fail@LIBC (4)
34:   FUNC GLOBAL DEFAULT UND getpid@LIBC (4)
35:   FUNC GLOBAL DEFAULT UND recvmsg@LIBC (4)
36:   FUNC GLOBAL DEFAULT UND sendmsg@LIBC (4)
37:   FUNC GLOBAL DEFAULT UND strerror@LIBC (4)
38:   FUNC GLOBAL DEFAULT 15 ANativeWindow_dequeueBuff@@LIBNATIVEWINDOW
39:   FUNC GLOBAL DEFAULT 15 ANativeWindow_queryf@@LIBNATIVEWINDOW
40:   FUNC GLOBAL DEFAULT 15 ANativeWindow_setSwapInte@@LIBNATIVEWINDOW
41:   FUNC GLOBAL DEFAULT 15 AHardwareBuffer_createFro@@LIBNATIVEWINDOW
42:   FUNC GLOBAL DEFAULT 15 AHardwareBuffer_lockPlane@@LIBNATIVEWINDOW
43:   FUNC GLOBAL DEFAULT 15 ANativeWindow_getFormat@@LIBNATIVEWINDOW
44:   FUNC GLOBAL DEFAULT 15 ANativeWindow_getHeight@@LIBNATIVEWINDOW
45:   FUNC GLOBAL DEFAULT 15 ANativeWindow_setBuffersT@@LIBNATIVEWINDOW
46:   FUNC GLOBAL DEFAULT 15 AHardwareBuffer_recvHandl@@LIBNATIVEWINDOW
47:   FUNC GLOBAL DEFAULT 15 _ZN7android41AHardwareBuf@@LIBNATIVEWINDOW_PLATFORM
48:   FUNC GLOBAL DEFAULT 15 ANativeWindow_setSharedBu@@LIBNATIVEWINDOW
49:   FUNC GLOBAL DEFAULT 15 AHardwareBuffer_acquire@@LIBNATIVEWINDOW
50:   FUNC GLOBAL DEFAULT 15 _ZN7android32AHardwareBuf@@LIBNATIVEWINDOW_PLATFORM
51:   FUNC GLOBAL DEFAULT 15 _ZN7android36AHardwareBuf@@LIBNATIVEWINDOW_PLATFORM
52:   FUNC GLOBAL DEFAULT 15 _ZN7android38AHardwareBuf@@LIBNATIVEWINDOW_PLATFORM
53:   FUNC GLOBAL DEFAULT 15 ANativeWindow_setBuffersD@@LIBNATIVEWINDOW
54:   FUNC GLOBAL DEFAULT 15 ANativeWindow_cancelBuffe@@LIBNATIVEWINDOW
55:   FUNC GLOBAL DEFAULT 15 AHardwareBuffer_lockAndGe@@LIBNATIVEWINDOW
56:   FUNC GLOBAL DEFAULT 15 _ZN7android34AHardwareBuf@@LIBNATIVEWINDOW_PLATFORM
57:   FUNC GLOBAL DEFAULT 15 _ZN7android43AHardwareBuf@@LIBNATIVEWINDOW_PLATFORM
58:   FUNC GLOBAL DEFAULT 15 ANativeWindow_release@@LIBNATIVEWINDOW
59:   FUNC GLOBAL DEFAULT 15 ANativeWindow_setBuffersT@@LIBNATIVEWINDOW
60:   FUNC GLOBAL DEFAULT 15 AHardwareBuffer_lock@@LIBNATIVEWINDOW
61:   FUNC GLOBAL DEFAULT 15 _ZN7android38AHardwareBuf@@LIBNATIVEWINDOW_PLATFORM
62:   FUNC GLOBAL DEFAULT 15 ANativeWindow_OemStorageG@@LIBNATIVEWINDOW
63:   FUNC GLOBAL DEFAULT 15 ANativeWindow_OemStorageS@@LIBNATIVEWINDOW
64:   FUNC GLOBAL DEFAULT 15 AHardwareBuffer_isSupport@@LIBNATIVEWINDOW
65:   FUNC GLOBAL DEFAULT 15 ANativeWindow_setBufferCo@@LIBNATIVEWINDOW
66:   FUNC GLOBAL DEFAULT 15 AHardwareBuffer_getNative@@LIBNATIVEWINDOW
67:   FUNC GLOBAL DEFAULT 15 _ZN7android34AHardwareBuf@@LIBNATIVEWINDOW_PLATFORM
68:   FUNC GLOBAL DEFAULT 15 ANativeWindow_getWidth@@LIBNATIVEWINDOW
69:   FUNC GLOBAL DEFAULT 15 ANativeWindow_setAutoRefr@@LIBNATIVEWINDOW
70:   FUNC GLOBAL DEFAULT 15 AHardwareBuffer_unlock@@LIBNATIVEWINDOW
71:   FUNC GLOBAL DEFAULT 15 ANativeWindow_lock@@LIBNATIVEWINDOW
72:   FUNC GLOBAL DEFAULT 15 ANativeWindow_setBuffersG@@LIBNATIVEWINDOW
73:   FUNC GLOBAL DEFAULT 15 ANativeWindow_setUsage@@LIBNATIVEWINDOW
74:   FUNC GLOBAL DEFAULT 15 ANativeWindow_unlockAndPo@@LIBNATIVEWINDOW
75:   FUNC GLOBAL DEFAULT 15 AHardwareBuffer_allocate@@LIBNATIVEWINDOW
76:   FUNC GLOBAL DEFAULT 15 AHardwareBuffer_describe@@LIBNATIVEWINDOW
77:   FUNC GLOBAL DEFAULT 15 AHardwareBuffer_release@@LIBNATIVEWINDOW
78:   FUNC GLOBAL DEFAULT 15 _ZN7android32AHardwareBuf@@LIBNATIVEWINDOW_PLATFORM
79:   FUNC GLOBAL DEFAULT 15 _ZN7android38AHardwareBuf@@LIBNATIVEWINDOW_PLATFORM
80:   FUNC GLOBAL DEFAULT 15 ANativeWindowBuffer_getHa@@LIBNATIVEWINDOW
81:   FUNC GLOBAL DEFAULT 15 ANativeWindow_acquire@@LIBNATIVEWINDOW
82:   FUNC GLOBAL DEFAULT 15 ANativeWindow_query@@LIBNATIVEWINDOW
83:   FUNC GLOBAL DEFAULT 15 ANativeWindow_setBuffersD@@LIBNATIVEWINDOW
84:   FUNC GLOBAL DEFAULT 15 ANativeWindow_setBuffersF@@LIBNATIVEWINDOW
85:   FUNC GLOBAL DEFAULT 15 AHardwareBuffer_sendHandl@@LIBNATIVEWINDOW
86:   FUNC GLOBAL DEFAULT 15 ANativeWindow_getBuffersD@@LIBNATIVEWINDOW
87:   FUNC GLOBAL DEFAULT 15 ANativeWindow_queueBuffer@@LIBNATIVEWINDOW
