 0x000000000000000e (SONAME)             Library soname: [libsuspend.so]
  
Symbol   contains 41 entries:
Num:   Type Bind Vis Ndx Name
0:   NOTYPE LOCAL DEFAULT UND
1:   FUNC GLOBAL DEFAULT UND __cxa_finalize@LIBC (2)
2:   FUNC GLOBAL DEFAULT UND __android_log_print@LIBLOG (3)
3:   FUNC GLOBAL DEFAULT UND _ZN7android4base10LogMess
4:   FUNC GLOBAL DEFAULT UND _ZN7android4base10LogMess
5:   FUNC GLOBAL DEFAULT UND _ZN7android4base10LogMess
6:   FUNC GLOBAL DEFAULT UND _ZN7android4base14ReadFdT
7:   FUNC GLOBAL DEFAULT UND _ZN7android4base15WriteSt
8:   FUNC GLOBAL DEFAULT UND _ZN7android4base21GetMini
9:   FUNC GLOBAL DEFAULT UND _ZN7android4base4TrimERKN
10:   FUNC GLOBAL DEFAULT UND _ZNKSt3__16locale9use_fac
11:   FUNC GLOBAL DEFAULT UND _ZNKSt3__18ios_base6getlo
12:   FUNC GLOBAL DEFAULT UND _ZNSt3__113basic_ostreamI
13:   FUNC GLOBAL DEFAULT UND _ZNSt3__113basic_ostreamI
14:   FUNC GLOBAL DEFAULT UND _ZNSt3__113basic_ostreamI
15:   OBJECT GLOBAL DEFAULT UND _ZNSt3__15ctypeIcE2idE
16:   FUNC GLOBAL DEFAULT UND _ZNSt3__16localeD1Ev
17:   FUNC GLOBAL DEFAULT UND _ZNSt3__18ios_base5clearE
18:   FUNC GLOBAL DEFAULT UND _ZdlPv
19:   FUNC GLOBAL DEFAULT UND _Znwm
20:   FUNC GLOBAL DEFAULT UND __errno@LIBC (2)
21:   FUNC GLOBAL DEFAULT UND __open_2@LIBC (2)
22:   FUNC GLOBAL DEFAULT UND __stack_chk_fail@LIBC (2)
23:   FUNC GLOBAL DEFAULT UND close@LIBC (2)
24:   FUNC GLOBAL DEFAULT UND lseek@LIBC (2)
25:   FUNC GLOBAL DEFAULT UND memset@LIBC (2)
26:   FUNC GLOBAL DEFAULT UND pthread_create@LIBC (2)
27:   FUNC GLOBAL DEFAULT UND sem_destroy@LIBC (2)
28:   FUNC GLOBAL DEFAULT UND sem_init@LIBC (2)
29:   FUNC GLOBAL DEFAULT UND sem_post@LIBC (2)
30:   FUNC GLOBAL DEFAULT UND sem_wait@LIBC (2)
31:   FUNC GLOBAL DEFAULT UND strerror@LIBC (2)
32:   FUNC GLOBAL DEFAULT UND strlen@LIBC (2)
33:   FUNC GLOBAL DEFAULT UND usleep@LIBC (2)
34:   FUNC GLOBAL DEFAULT 14 autosuspend_disable
35:   FUNC GLOBAL DEFAULT 14 autosuspend_enable
36:   FUNC GLOBAL DEFAULT 14 autosuspend_force_suspend
37:   FUNC GLOBAL DEFAULT 14 autosuspend_set_wakeup_ca
38:   FUNC GLOBAL DEFAULT 14 autosuspend_wakeup_count_
39:   FUNC WEAK DEFAULT 14 _ZNSt3__124__put_characte
40:   OBJECT GLOBAL DEFAULT 16 autosuspend_wakeup_count_
