 0x000000000000000e (SONAME)             Library soname: [libprotoutil.so]
  
Symbol   contains 154 entries:
Num:   Type Bind Vis Ndx Name
0:   NOTYPE LOCAL DEFAULT UND
1:   FUNC GLOBAL DEFAULT UND __cxa_finalize@LIBC (2)
2:   FUNC GLOBAL DEFAULT UND _ZN7android7RefBase10onFi
3:   FUNC GLOBAL DEFAULT UND _ZN7android7RefBase13onLa
4:   FUNC GLOBAL DEFAULT UND _ZN7android7RefBase15onLa
5:   FUNC GLOBAL DEFAULT UND _ZN7android7RefBase20onIn
6:   FUNC GLOBAL DEFAULT UND _ZN7android7RefBaseC2Ev
7:   FUNC GLOBAL DEFAULT UND _ZN7android7RefBaseD2Ev
8:   FUNC GLOBAL DEFAULT UND _ZNK7android7RefBase9decS
9:   FUNC GLOBAL DEFAULT UND _ZNK7android7RefBase9incS
10:   FUNC GLOBAL DEFAULT UND _ZNKSt3__120__vector_base
11:   FUNC GLOBAL DEFAULT UND _ZdlPv
12:   FUNC GLOBAL DEFAULT UND _Znwm
13:   FUNC GLOBAL DEFAULT UND __cxa_pure_virtual
14:   FUNC GLOBAL DEFAULT UND __stack_chk_fail@LIBC (2)
15:   FUNC GLOBAL DEFAULT UND abort@LIBC (2)
16:   FUNC GLOBAL DEFAULT UND free@LIBC (2)
17:   FUNC GLOBAL DEFAULT UND malloc@LIBC (2)
18:   FUNC GLOBAL DEFAULT UND memcpy@LIBC (2)
19:   FUNC GLOBAL DEFAULT UND __android_log_print@LIBLOG (3)
20:   FUNC GLOBAL DEFAULT UND __errno@LIBC (2)
21:   FUNC GLOBAL DEFAULT UND lseek@LIBC (2)
22:   FUNC GLOBAL DEFAULT UND read@LIBC (2)
23:   FUNC GLOBAL DEFAULT UND _ZN7android4base10WriteFu
24:   FUNC GLOBAL DEFAULT UND _ZNSt3__112basic_stringIc
25:   FUNC GLOBAL DEFAULT UND _ZNSt3__112basic_stringIc
26:   FUNC GLOBAL DEFAULT UND memmove@LIBC (2)
27:   FUNC GLOBAL DEFAULT 14 _ZN7android4util13Encoded
28:   OBJECT GLOBAL DEFAULT 18 _ZTVN7android4util15Proto
29:   FUNC GLOBAL DEFAULT 14 _ZN7android4util17ProtoOu
30:   FUNC GLOBAL DEFAULT 14 _ZN7android4util17ProtoOu
31:   FUNC GLOBAL DEFAULT 14 _ZN7android4util13Encoded
32:   FUNC GLOBAL DEFAULT 14 _ZN7android4util13Encoded
33:   FUNC WEAK DEFAULT 14 _ZN7android4util17ProtoOu
34:   FUNC GLOBAL DEFAULT 14 _ZN7android4util17ProtoOu
35:   FUNC GLOBAL DEFAULT 14 _ZN7android4util13Encoded
36:   FUNC GLOBAL DEFAULT 14 _ZN7android4util13Encoded
37:   FUNC GLOBAL DEFAULT 14 _ZN7android4util17ProtoOu
38:   FUNC GLOBAL DEFAULT 14 _ZN7android4util17ProtoOu
39:   FUNC GLOBAL DEFAULT 14 _ZN7android4util13Encoded
40:   FUNC GLOBAL DEFAULT 14 _ZN7android4util15ProtoFi
41:   FUNC GLOBAL DEFAULT 14 _ZN7android4util17ProtoOu
42:   FUNC GLOBAL DEFAULT 14 _ZN7android4util13Encoded
43:   FUNC GLOBAL DEFAULT 14 _ZN7android4util13Encoded
44:   OBJECT GLOBAL DEFAULT 18 _ZTTN7android4util15Proto
45:   FUNC GLOBAL DEFAULT 14 _ZN7android4util13Encoded
46:   FUNC GLOBAL DEFAULT 14 _ZN7android4util15ProtoFi
47:   FUNC GLOBAL DEFAULT 14 _ZN7android4util17ProtoOu
48:   FUNC GLOBAL DEFAULT 14 _ZN7android4util33write_l
49:   FUNC GLOBAL DEFAULT 14 _ZN7android4util13Encoded
50:   FUNC GLOBAL DEFAULT 14 _ZTv0_n24_N7android4util1
51:   FUNC GLOBAL DEFAULT 14 _ZN7android4util15ProtoFi
52:   FUNC GLOBAL DEFAULT 14 _ZN7android4util17ProtoOu
53:   FUNC GLOBAL DEFAULT 14 _ZN7android4util15ProtoFi
54:   FUNC GLOBAL DEFAULT 14 _ZN7android4util15ProtoFi
55:   FUNC GLOBAL DEFAULT 14 _ZNK7android4util15ProtoF
56:   FUNC GLOBAL DEFAULT 14 _ZN7android4util14read_wi
57:   FUNC GLOBAL DEFAULT 14 _ZN7android4util17ProtoOu
58:   FUNC GLOBAL DEFAULT 14 _ZN7android4util13Encoded
59:   FUNC GLOBAL DEFAULT 14 _ZN7android4util13Encoded
60:   FUNC GLOBAL DEFAULT 14 _ZN7android4util13Encoded
61:   OBJECT GLOBAL DEFAULT 18 _ZTTN7android4util13Encod
62:   FUNC GLOBAL DEFAULT 14 _ZN7android4util17ProtoOu
63:   FUNC GLOBAL DEFAULT 14 _ZN7android4util17ProtoOu
64:   FUNC GLOBAL DEFAULT 14 _ZN7android4util13read_fi
65:   FUNC GLOBAL DEFAULT 14 _ZN7android4util16write_r
66:   FUNC GLOBAL DEFAULT 14 _ZN7android4util13Encoded
67:   FUNC GLOBAL DEFAULT 14 _ZN7android4util13Encoded
68:   FUNC GLOBAL DEFAULT 14 _ZNK7android4util13Encode
69:   FUNC GLOBAL DEFAULT 14 _ZTv0_n24_N7android4util1
70:   FUNC GLOBAL DEFAULT 14 _ZN7android4util17ProtoOu
71:   FUNC GLOBAL DEFAULT 14 _ZN7android4util13Encoded
72:   FUNC GLOBAL DEFAULT 14 _ZN7android4util13Encoded
73:   FUNC GLOBAL DEFAULT 14 _ZN7android4util15ProtoFi
74:   FUNC GLOBAL DEFAULT 14 _ZN7android4util17ProtoOu
75:   FUNC GLOBAL DEFAULT 14 _ZN7android4util17ProtoOu
76:   FUNC GLOBAL DEFAULT 14 _ZN7android4util13Encoded
77:   FUNC GLOBAL DEFAULT 14 _ZN7android4util13Encoded
78:   OBJECT GLOBAL DEFAULT 18 _ZTVN7android4util13Encod
79:   FUNC WEAK DEFAULT 14 _ZN7android4util17ProtoOu
80:   FUNC GLOBAL DEFAULT 14 _ZN7android4util13Encoded
81:   FUNC GLOBAL DEFAULT 14 _ZN7android4util13Encoded
82:   FUNC GLOBAL DEFAULT 14 _ZN7android4util13Encoded
83:   FUNC GLOBAL DEFAULT 14 _ZN7android4util13Encoded
84:   FUNC GLOBAL DEFAULT 14 _ZN7android4util15ProtoFi
85:   FUNC GLOBAL DEFAULT 14 _ZN7android4util11ProtoRe
86:   FUNC GLOBAL DEFAULT 14 _ZN7android4util11ProtoRe
87:   FUNC GLOBAL DEFAULT 14 _ZNK7android4util13Encode
88:   FUNC GLOBAL DEFAULT 14 _ZTv0_n24_N7android4util1
89:   FUNC GLOBAL DEFAULT 14 _ZN7android4util15ProtoFi
90:   FUNC GLOBAL DEFAULT 14 _ZN7android4util17ProtoOu
91:   FUNC GLOBAL DEFAULT 14 _ZN7android4util13Encoded
92:   FUNC GLOBAL DEFAULT 14 _ZNK7android4util13Encode
93:   FUNC GLOBAL DEFAULT 14 _ZN7android4util17ProtoOu
94:   FUNC GLOBAL DEFAULT 14 _ZN7android4util13Encoded
95:   FUNC GLOBAL DEFAULT 14 _ZN7android4util13Encoded
96:   FUNC GLOBAL DEFAULT 14 _ZNK7android4util13Encode
97:   FUNC GLOBAL DEFAULT 14 _ZN7android4util15ProtoFi
98:   OBJECT GLOBAL DEFAULT 18 _ZTVN7android4util11Proto
99:   FUNC GLOBAL DEFAULT 14 _ZN7android4util13Encoded
100:   FUNC GLOBAL DEFAULT 14 _ZNK7android4util13Encode
101:   FUNC GLOBAL DEFAULT 14 _ZNK7android4util13Encode
102:   FUNC GLOBAL DEFAULT 14 _ZN7android4util15ProtoFi
103:   OBJECT GLOBAL DEFAULT 18 _ZTCN7android4util15Proto
104:   FUNC GLOBAL DEFAULT 14 _ZN7android4util11ProtoRe
105:   FUNC GLOBAL DEFAULT 14 _ZN7android4util13Encoded
106:   FUNC GLOBAL DEFAULT 14 _ZN7android4util13Encoded
107:   FUNC GLOBAL DEFAULT 14 _ZTv0_n24_N7android4util1
108:   FUNC WEAK DEFAULT 14 _ZN7android4util17ProtoOu
109:   FUNC GLOBAL DEFAULT 14 _ZN7android4util17ProtoOu
110:   FUNC GLOBAL DEFAULT 14 _ZN7android4util13Encoded
111:   FUNC GLOBAL DEFAULT 14 _ZN7android4util13Encoded
112:   FUNC GLOBAL DEFAULT 14 _ZN7android4util17ProtoOu
113:   FUNC WEAK DEFAULT 14 _ZN7android4util17ProtoOu
114:   FUNC GLOBAL DEFAULT 14 _ZN7android4util17ProtoOu
115:   FUNC GLOBAL DEFAULT 14 _ZN7android4util17ProtoOu
116:   FUNC GLOBAL DEFAULT 14 _ZN7android4util13Encoded
117:   FUNC GLOBAL DEFAULT 14 _ZN7android4util13Encoded
118:   FUNC GLOBAL DEFAULT 14 _ZNK7android4util13Encode
119:   FUNC GLOBAL DEFAULT 14 _ZNK7android4util15ProtoF
120:   FUNC GLOBAL DEFAULT 14 _ZN7android4util15get_var
121:   FUNC GLOBAL DEFAULT 14 _ZN7android4util11ProtoRe
122:   FUNC GLOBAL DEFAULT 14 _ZN7android4util13Encoded
123:   OBJECT GLOBAL DEFAULT 18 _ZTVN7android4util13Encod
124:   FUNC GLOBAL DEFAULT 14 _ZN7android4util13Encoded
125:   FUNC GLOBAL DEFAULT 14 _ZN7android4util13Encoded
126:   FUNC GLOBAL DEFAULT 14 _ZN7android4util13Encoded
127:   FUNC GLOBAL DEFAULT 14 _ZN7android4util13Encoded
128:   FUNC GLOBAL DEFAULT 14 _ZTv0_n24_N7android4util1
129:   FUNC GLOBAL DEFAULT 14 _ZN7android4util17ProtoOu
130:   OBJECT GLOBAL DEFAULT 18 _ZTTN7android4util11Proto
131:   FUNC GLOBAL DEFAULT 14 _ZTv0_n24_N7android4util1
132:   FUNC GLOBAL DEFAULT 14 _ZN7android4util13Encoded
133:   FUNC GLOBAL DEFAULT 14 _ZN7android4util13Encoded
134:   OBJECT GLOBAL DEFAULT 18 _ZTCN7android4util13Encod
135:   OBJECT GLOBAL DEFAULT 18 _ZTTN7android4util13Encod
136:   FUNC GLOBAL DEFAULT 14 _ZNK7android4util15ProtoF
137:   FUNC GLOBAL DEFAULT 14 _ZN7android4util17ProtoOu
138:   FUNC GLOBAL DEFAULT 14 _ZN7android4util17ProtoOu
139:   FUNC GLOBAL DEFAULT 14 _ZN7android4util13Encoded
140:   FUNC GLOBAL DEFAULT 14 _ZN7android4util13Encoded
141:   FUNC GLOBAL DEFAULT 14 _ZTv0_n24_N7android4util1
142:   FUNC GLOBAL DEFAULT 14 _ZN7android4util13Encoded
143:   FUNC GLOBAL DEFAULT 14 _ZN7android4util13Encoded
144:   FUNC WEAK DEFAULT 14 _ZNSt3__16vectorIPhNS_9al
145:   FUNC GLOBAL DEFAULT 14 _ZN7android4util13get_fil
146:   FUNC GLOBAL DEFAULT 14 _ZTv0_n24_N7android4util1
147:   FUNC GLOBAL DEFAULT 14 _ZN7android4util17ProtoOu
148:   FUNC GLOBAL DEFAULT 14 _ZN7android4util17ProtoOu
149:   FUNC GLOBAL DEFAULT 14 _ZN7android4util17ProtoOu
150:   FUNC WEAK DEFAULT 14 _ZNSt3__16vectorIhNS_9all
151:   FUNC GLOBAL DEFAULT 14 _ZN7android4util13Encoded
152:   FUNC GLOBAL DEFAULT 14 _ZN7android4util15ProtoFi
153:   FUNC GLOBAL DEFAULT 14 _ZN7android4util15ProtoFi
