 0x0000000e (SONAME)                     Library soname: [libGLESv1_CM.so]
  
Symbol   contains 279 entries:
Num:   Type Bind Vis Ndx Name
0:   NOTYPE LOCAL DEFAULT UND
1:   FUNC GLOBAL DEFAULT 8 glPushMatrix@@LIBGLESV1_CM
2:   FUNC GLOBAL DEFAULT 8 glStartTilingQCOM@@LIBGLESV1_CM
3:   FUNC GLOBAL DEFAULT 8 glTexParameterxv@@LIBGLESV1_CM
4:   FUNC GLOBAL DEFAULT 8 glBindVertexArrayOES@@LIBGLESV1_CM
5:   FUNC GLOBAL DEFAULT 8 glEGLImageTargetTexture2D@@LIBGLESV1_CM
6:   FUNC GLOBAL DEFAULT 8 glGetClipPlanefOES@@LIBGLESV1_CM
7:   FUNC GLOBAL DEFAULT 8 glGetClipPlanex@@LIBGLESV1_CM
8:   FUNC GLOBAL DEFAULT 8 glNormal3xOES@@LIBGLESV1_CM
9:   FUNC GLOBAL DEFAULT 8 glDeleteBuffers@@LIBGLESV1_CM
10:   FUNC GLOBAL DEFAULT 8 glEnableClientState@@LIBGLESV1_CM
11:   FUNC GLOBAL DEFAULT 8 glGenFencesNV@@LIBGLESV1_CM
12:   FUNC GLOBAL DEFAULT 8 glMaterialfv@@LIBGLESV1_CM
13:   FUNC GLOBAL DEFAULT 8 glMaterialx@@LIBGLESV1_CM
14:   FUNC GLOBAL DEFAULT 8 glPointParameterxv@@LIBGLESV1_CM
15:   FUNC GLOBAL DEFAULT 8 glExtTexObjectStateOverri@@LIBGLESV1_CM
16:   FUNC GLOBAL DEFAULT 8 glClearDepthxOES@@LIBGLESV1_CM
17:   FUNC GLOBAL DEFAULT 8 glFogfv@@LIBGLESV1_CM
18:   FUNC GLOBAL DEFAULT 8 glFrustumf@@LIBGLESV1_CM
19:   FUNC GLOBAL DEFAULT 8 glGetTexParameterfv@@LIBGLESV1_CM
20:   FUNC GLOBAL DEFAULT 8 glIsBuffer@@LIBGLESV1_CM
21:   FUNC GLOBAL DEFAULT 8 glDrawTexxOES@@LIBGLESV1_CM
22:   FUNC GLOBAL DEFAULT 8 glPointSize@@LIBGLESV1_CM
23:   FUNC GLOBAL DEFAULT 8 glClearStencil@@LIBGLESV1_CM
24:   FUNC GLOBAL DEFAULT 8 glExtGetProgramBinarySour@@LIBGLESV1_CM
25:   FUNC GLOBAL DEFAULT 8 glMultiTexCoord4f@@LIBGLESV1_CM
26:   FUNC GLOBAL DEFAULT 8 glGetDriverControlsQCOM@@LIBGLESV1_CM
27:   FUNC GLOBAL DEFAULT 8 glColorPointer@@LIBGLESV1_CM
28:   FUNC GLOBAL DEFAULT 8 glCompressedTexImage2D@@LIBGLESV1_CM
29:   FUNC GLOBAL DEFAULT 8 glFinish@@LIBGLESV1_CM
30:   FUNC GLOBAL DEFAULT 8 glIsTexture@@LIBGLESV1_CM
31:   FUNC GLOBAL DEFAULT 8 glColor4ub@@LIBGLESV1_CM
32:   FUNC GLOBAL DEFAULT 8 glDeleteTextures@@LIBGLESV1_CM
33:   FUNC GLOBAL DEFAULT 8 glFinishFenceNV@@LIBGLESV1_CM
34:   FUNC GLOBAL DEFAULT 8 glLightxv@@LIBGLESV1_CM
35:   FUNC GLOBAL DEFAULT 8 glPolygonOffsetxOES@@LIBGLESV1_CM
36:   FUNC GLOBAL DEFAULT 8 glFogf@@LIBGLESV1_CM
37:   FUNC GLOBAL DEFAULT 8 glGetFenceivNV@@LIBGLESV1_CM
38:   FUNC GLOBAL DEFAULT 8 glLightModelxv@@LIBGLESV1_CM
39:   FUNC GLOBAL DEFAULT 8 glTexEnvfv@@LIBGLESV1_CM
40:   FUNC GLOBAL DEFAULT 8 glDepthRangexOES@@LIBGLESV1_CM
41:   FUNC GLOBAL DEFAULT 8 glDrawTexsvOES@@LIBGLESV1_CM
42:   FUNC GLOBAL DEFAULT 8 glGetFixedvOES@@LIBGLESV1_CM
43:   FUNC GLOBAL DEFAULT 8 glOrthof@@LIBGLESV1_CM
44:   FUNC GLOBAL DEFAULT 8 glPointParameterx@@LIBGLESV1_CM
45:   FUNC GLOBAL DEFAULT 8 glRotatex@@LIBGLESV1_CM
46:   FUNC GLOBAL DEFAULT 8 glSampleCoveragex@@LIBGLESV1_CM
47:   FUNC GLOBAL DEFAULT 8 glClearDepthfOES@@LIBGLESV1_CM
48:   FUNC GLOBAL DEFAULT 8 glDrawArrays@@LIBGLESV1_CM
49:   FUNC GLOBAL DEFAULT 8 glLoadMatrixx@@LIBGLESV1_CM
50:   FUNC GLOBAL DEFAULT 8 glDeleteRenderbuffersOES@@LIBGLESV1_CM
51:   FUNC GLOBAL DEFAULT 8 glDepthRangex@@LIBGLESV1_CM
52:   FUNC GLOBAL DEFAULT 8 glDrawTexfOES@@LIBGLESV1_CM
53:   FUNC GLOBAL DEFAULT 8 glEnable@@LIBGLESV1_CM
54:   FUNC GLOBAL DEFAULT 8 glStencilOp@@LIBGLESV1_CM
55:   FUNC GLOBAL DEFAULT 8 glDepthFunc@@LIBGLESV1_CM
56:   FUNC GLOBAL DEFAULT 8 glDisableClientState@@LIBGLESV1_CM
57:   FUNC GLOBAL DEFAULT 8 glGenerateMipmapOES@@LIBGLESV1_CM
58:   FUNC GLOBAL DEFAULT 8 glGetTexEnviv@@LIBGLESV1_CM
59:   FUNC GLOBAL DEFAULT 8 glTexSubImage2D@@LIBGLESV1_CM
60:   FUNC GLOBAL DEFAULT 8 glDisable@@LIBGLESV1_CM
61:   FUNC GLOBAL DEFAULT 8 glFramebufferRenderbuffer@@LIBGLESV1_CM
62:   FUNC GLOBAL DEFAULT 8 glGetPointerv@@LIBGLESV1_CM
63:   FUNC GLOBAL DEFAULT 8 glFrontFace@@LIBGLESV1_CM
64:   FUNC GLOBAL DEFAULT 8 glGetFramebufferAttachmen@@LIBGLESV1_CM
65:   FUNC GLOBAL DEFAULT 8 glStencilMask@@LIBGLESV1_CM
66:   FUNC GLOBAL DEFAULT 8 glBindTexture@@LIBGLESV1_CM
67:   FUNC GLOBAL DEFAULT 8 glGenRenderbuffersOES@@LIBGLESV1_CM
68:   FUNC GLOBAL DEFAULT 8 glMultiTexCoord4xOES@@LIBGLESV1_CM
69:   FUNC GLOBAL DEFAULT 8 glCopyTexSubImage2D@@LIBGLESV1_CM
70:   FUNC GLOBAL DEFAULT 8 glGetError@@LIBGLESV1_CM
71:   FUNC GLOBAL DEFAULT 8 glTexGenxOES@@LIBGLESV1_CM
72:   FUNC GLOBAL DEFAULT 8 glColor4f@@LIBGLESV1_CM
73:   FUNC GLOBAL DEFAULT 8 glCompressedTexSubImage2D@@LIBGLESV1_CM
74:   FUNC GLOBAL DEFAULT 8 glExtGetProgramsQCOM@@LIBGLESV1_CM
75:   FUNC GLOBAL DEFAULT 8 glTexGenxvOES@@LIBGLESV1_CM
76:   FUNC GLOBAL DEFAULT 8 glDepthRangefOES@@LIBGLESV1_CM
77:   FUNC GLOBAL DEFAULT 8 glFogxOES@@LIBGLESV1_CM
78:   FUNC GLOBAL DEFAULT 8 glBufferSubData@@LIBGLESV1_CM
79:   FUNC GLOBAL DEFAULT 8 glDeleteFramebuffersOES@@LIBGLESV1_CM
80:   FUNC GLOBAL DEFAULT 8 glFrustumx@@LIBGLESV1_CM
81:   FUNC GLOBAL DEFAULT 8 glMultiDrawArraysEXT@@LIBGLESV1_CM
82:   FUNC GLOBAL DEFAULT 8 glDrawElements@@LIBGLESV1_CM
83:   FUNC GLOBAL DEFAULT 8 glGetLightfv@@LIBGLESV1_CM
84:   FUNC GLOBAL DEFAULT 8 glGetMaterialxvOES@@LIBGLESV1_CM
85:   FUNC GLOBAL DEFAULT 8 glGetRenderbufferParamete@@LIBGLESV1_CM
86:   FUNC GLOBAL DEFAULT 8 glMultiTexCoord4x@@LIBGLESV1_CM
87:   FUNC GLOBAL DEFAULT 8 glScalef@@LIBGLESV1_CM
88:   FUNC GLOBAL DEFAULT 8 glTexEnvf@@LIBGLESV1_CM
89:   FUNC GLOBAL DEFAULT 8 glBlendFunc@@LIBGLESV1_CM
90:   FUNC GLOBAL DEFAULT 8 glClientActiveTexture@@LIBGLESV1_CM
91:   FUNC GLOBAL DEFAULT 8 glIsVertexArrayOES@@LIBGLESV1_CM
92:   FUNC GLOBAL DEFAULT 8 glIsFramebufferOES@@LIBGLESV1_CM
93:   FUNC GLOBAL DEFAULT 8 glPolygonOffset@@LIBGLESV1_CM
94:   FUNC GLOBAL DEFAULT 8 glTexGenivOES@@LIBGLESV1_CM
95:   FUNC GLOBAL DEFAULT 8 glTexParameterfv@@LIBGLESV1_CM
96:   FUNC GLOBAL DEFAULT 8 glGetTexEnvxv@@LIBGLESV1_CM
97:   FUNC GLOBAL DEFAULT 8 glQueryMatrixxOES@@LIBGLESV1_CM
98:   FUNC GLOBAL DEFAULT 8 glTexCoordPointer@@LIBGLESV1_CM
99:   FUNC GLOBAL DEFAULT 8 glTexEnvi@@LIBGLESV1_CM
100:   FUNC GLOBAL DEFAULT 8 glWeightPointerOESBounds@@LIBGLESV1_CM
101:   FUNC GLOBAL DEFAULT 8 glClearColorx@@LIBGLESV1_CM
102:   FUNC GLOBAL DEFAULT 8 glColorMask@@LIBGLESV1_CM
103:   FUNC GLOBAL DEFAULT 8 glFogx@@LIBGLESV1_CM
104:   FUNC GLOBAL DEFAULT 8 glGetTexGenxvOES@@LIBGLESV1_CM
105:   FUNC GLOBAL DEFAULT 8 glPopMatrix@@LIBGLESV1_CM
106:   FUNC GLOBAL DEFAULT 8 glTexGenfOES@@LIBGLESV1_CM
107:   FUNC GLOBAL DEFAULT 8 glDeleteFencesNV@@LIBGLESV1_CM
108:   FUNC GLOBAL DEFAULT 8 glExtGetBufferPointervQCO@@LIBGLESV1_CM
109:   FUNC GLOBAL DEFAULT 8 glGenFramebuffersOES@@LIBGLESV1_CM
110:   FUNC GLOBAL DEFAULT 8 glGetBufferParameteriv@@LIBGLESV1_CM
111:   FUNC GLOBAL DEFAULT 8 glGetString@@LIBGLESV1_CM
112:   FUNC GLOBAL DEFAULT 8 glPointParameterfv@@LIBGLESV1_CM
113:   FUNC GLOBAL DEFAULT 8 glPointSizex@@LIBGLESV1_CM
114:   FUNC GLOBAL DEFAULT 8 glDeleteVertexArraysOES@@LIBGLESV1_CM
115:   FUNC GLOBAL DEFAULT 8 glOrthox@@LIBGLESV1_CM
116:   FUNC GLOBAL DEFAULT 8 glFramebufferTexture2DOES@@LIBGLESV1_CM
117:   FUNC GLOBAL DEFAULT 8 glLightxOES@@LIBGLESV1_CM
118:   FUNC GLOBAL DEFAULT 8 glPointParameterxOES@@LIBGLESV1_CM
119:   FUNC GLOBAL DEFAULT 8 glRenderbufferStorageOES@@LIBGLESV1_CM
120:   FUNC GLOBAL DEFAULT 8 glTranslatef@@LIBGLESV1_CM
121:   FUNC GLOBAL DEFAULT 8 glDrawTexxvOES@@LIBGLESV1_CM
122:   FUNC GLOBAL DEFAULT 8 glExtGetRenderbuffersQCOM@@LIBGLESV1_CM
123:   FUNC GLOBAL DEFAULT 8 glExtGetTexSubImageQCOM@@LIBGLESV1_CM
124:   FUNC GLOBAL DEFAULT 8 glLoadPaletteFromModelVie@@LIBGLESV1_CM
125:   FUNC GLOBAL DEFAULT 8 glNormal3f@@LIBGLESV1_CM
126:   FUNC GLOBAL DEFAULT 8 glCullFace@@LIBGLESV1_CM
127:   FUNC GLOBAL DEFAULT 8 glGetTexGenivOES@@LIBGLESV1_CM
128:   FUNC GLOBAL DEFAULT 8 glGetTexParameteriv@@LIBGLESV1_CM
129:   FUNC GLOBAL DEFAULT 8 glRotatexOES@@LIBGLESV1_CM
130:   FUNC GLOBAL DEFAULT 8 glTexEnvxvOES@@LIBGLESV1_CM
131:   FUNC GLOBAL DEFAULT 8 glTexParameterf@@LIBGLESV1_CM
132:   FUNC GLOBAL DEFAULT 8 glDiscardFramebufferEXT@@LIBGLESV1_CM
133:   FUNC GLOBAL DEFAULT 8 glGetIntegerv@@LIBGLESV1_CM
134:   FUNC GLOBAL DEFAULT 8 glIsEnabled@@LIBGLESV1_CM
135:   FUNC GLOBAL DEFAULT 8 glLightxvOES@@LIBGLESV1_CM
136:   FUNC GLOBAL DEFAULT 8 glExtGetBuffersQCOM@@LIBGLESV1_CM
137:   FUNC GLOBAL DEFAULT 8 glIsRenderbufferOES@@LIBGLESV1_CM
138:   FUNC GLOBAL DEFAULT 8 glLightfv@@LIBGLESV1_CM
139:   FUNC GLOBAL DEFAULT 8 glAlphaFunc@@LIBGLESV1_CM
140:   FUNC GLOBAL DEFAULT 8 glCheckFramebufferStatusO@@LIBGLESV1_CM
141:   FUNC GLOBAL DEFAULT 8 glGenVertexArraysOES@@LIBGLESV1_CM
142:   FUNC GLOBAL DEFAULT 8 glLightModelf@@LIBGLESV1_CM
143:   FUNC GLOBAL DEFAULT 8 glLightModelfv@@LIBGLESV1_CM
144:   FUNC GLOBAL DEFAULT 8 glTexParameteri@@LIBGLESV1_CM
145:   FUNC GLOBAL DEFAULT 8 glUnmapBufferOES@@LIBGLESV1_CM
146:   FUNC GLOBAL DEFAULT 8 glVertexPointerBounds@@LIBGLESV1_CM
147:   FUNC GLOBAL DEFAULT 8 glBlendEquationOES@@LIBGLESV1_CM
148:   FUNC GLOBAL DEFAULT 8 glColor4x@@LIBGLESV1_CM
149:   FUNC GLOBAL DEFAULT 8 glFlush@@LIBGLESV1_CM
150:   FUNC GLOBAL DEFAULT 8 glGenBuffers@@LIBGLESV1_CM
151:   FUNC GLOBAL DEFAULT 8 glGetMaterialxv@@LIBGLESV1_CM
152:   FUNC GLOBAL DEFAULT 8 glDrawTexivOES@@LIBGLESV1_CM
153:   FUNC GLOBAL DEFAULT 8 glClearDepthf@@LIBGLESV1_CM
154:   FUNC GLOBAL DEFAULT 8 glClipPlanexIMG@@LIBGLESV1_CM
155:   FUNC GLOBAL DEFAULT 8 glGetLightxvOES@@LIBGLESV1_CM
156:   FUNC GLOBAL DEFAULT 8 glPointSizexOES@@LIBGLESV1_CM
157:   FUNC GLOBAL DEFAULT 8 glFramebufferTexture2DMul@@LIBGLESV1_CM
158:   FUNC GLOBAL DEFAULT 8 glGetBooleanv@@LIBGLESV1_CM
159:   FUNC GLOBAL DEFAULT 8 glRenderbufferStorageMult@@LIBGLESV1_CM
160:   FUNC GLOBAL DEFAULT 8 glTexEnviv@@LIBGLESV1_CM
161:   FUNC GLOBAL DEFAULT 8 glTexGenfvOES@@LIBGLESV1_CM
162:   FUNC GLOBAL DEFAULT 8 glClearColorxOES@@LIBGLESV1_CM
163:   FUNC GLOBAL DEFAULT 8 glEndTilingQCOM@@LIBGLESV1_CM
164:   FUNC GLOBAL DEFAULT 8 glGetTexEnvxvOES@@LIBGLESV1_CM
165:   FUNC GLOBAL DEFAULT 8 glLogicOp@@LIBGLESV1_CM
166:   FUNC GLOBAL DEFAULT 8 glScalex@@LIBGLESV1_CM
167:   FUNC GLOBAL DEFAULT 8 glStencilFunc@@LIBGLESV1_CM
168:   FUNC GLOBAL DEFAULT 8 glTexEnvx@@LIBGLESV1_CM
169:   FUNC GLOBAL DEFAULT 8 glClipPlanexOES@@LIBGLESV1_CM
170:   FUNC GLOBAL DEFAULT 8 glExtGetTexturesQCOM@@LIBGLESV1_CM
171:   FUNC GLOBAL DEFAULT 8 glFrustumxOES@@LIBGLESV1_CM
172:   FUNC GLOBAL DEFAULT 8 glSampleCoveragexOES@@LIBGLESV1_CM
173:   FUNC GLOBAL DEFAULT 8 glWeightPointerOES@@LIBGLESV1_CM
174:   FUNC GLOBAL DEFAULT 8 glMaterialxv@@LIBGLESV1_CM
175:   FUNC GLOBAL DEFAULT 8 glBlendFuncSeparateOES@@LIBGLESV1_CM
176:   FUNC GLOBAL DEFAULT 8 glExtGetFramebuffersQCOM@@LIBGLESV1_CM
177:   FUNC GLOBAL DEFAULT 8 glHint@@LIBGLESV1_CM
178:   FUNC GLOBAL DEFAULT 8 glIsFenceNV@@LIBGLESV1_CM
179:   FUNC GLOBAL DEFAULT 8 glLightf@@LIBGLESV1_CM
180:   FUNC GLOBAL DEFAULT 8 glLoadMatrixxOES@@LIBGLESV1_CM
181:   FUNC GLOBAL DEFAULT 8 glClipPlanef@@LIBGLESV1_CM
182:   FUNC GLOBAL DEFAULT 8 glFogxv@@LIBGLESV1_CM
183:   FUNC GLOBAL DEFAULT 8 glGetDriverControlStringQ@@LIBGLESV1_CM
184:   FUNC GLOBAL DEFAULT 8 glGetTexParameterxv@@LIBGLESV1_CM
185:   FUNC GLOBAL DEFAULT 8 glGetTexParameterxvOES@@LIBGLESV1_CM
186:   FUNC GLOBAL DEFAULT 8 glMatrixIndexPointerOESBo@@LIBGLESV1_CM
187:   FUNC GLOBAL DEFAULT 8 glMultMatrixf@@LIBGLESV1_CM
188:   FUNC GLOBAL DEFAULT 8 glReadPixels@@LIBGLESV1_CM
189:   FUNC GLOBAL DEFAULT 8 glTexEnvxOES@@LIBGLESV1_CM
190:   FUNC GLOBAL DEFAULT 8 glDrawTexiOES@@LIBGLESV1_CM
191:   FUNC GLOBAL DEFAULT 8 glGetBufferPointervOES@@LIBGLESV1_CM
192:   FUNC GLOBAL DEFAULT 8 glLightModelxvOES@@LIBGLESV1_CM
193:   FUNC GLOBAL DEFAULT 8 glPointSizePointerOESBoun@@LIBGLESV1_CM
194:   FUNC GLOBAL DEFAULT 8 glMatrixMode@@LIBGLESV1_CM
195:   FUNC GLOBAL DEFAULT 8 glClipPlanefIMG@@LIBGLESV1_CM
196:   FUNC GLOBAL DEFAULT 8 glGetTexGenfvOES@@LIBGLESV1_CM
197:   FUNC GLOBAL DEFAULT 8 glMaterialxOES@@LIBGLESV1_CM
198:   FUNC GLOBAL DEFAULT 8 glExtGetTexLevelParameter@@LIBGLESV1_CM
199:   FUNC GLOBAL DEFAULT 8 glLoadIdentity@@LIBGLESV1_CM
200:   FUNC GLOBAL DEFAULT 8 glOrthoxOES@@LIBGLESV1_CM
201:   FUNC GLOBAL DEFAULT 8 glTestFenceNV@@LIBGLESV1_CM
202:   FUNC GLOBAL DEFAULT 8 glTranslatex@@LIBGLESV1_CM
203:   FUNC GLOBAL DEFAULT 8 glActiveTexture@@LIBGLESV1_CM
204:   FUNC GLOBAL DEFAULT 8 glBlendEquationSeparateOE@@LIBGLESV1_CM
205:   FUNC GLOBAL DEFAULT 8 glGenTextures@@LIBGLESV1_CM
206:   FUNC GLOBAL DEFAULT 8 glGetClipPlanef@@LIBGLESV1_CM
207:   FUNC GLOBAL DEFAULT 8 glNormal3x@@LIBGLESV1_CM
208:   FUNC GLOBAL DEFAULT 8 glAlphaFuncxOES@@LIBGLESV1_CM
209:   FUNC GLOBAL DEFAULT 8 glClipPlanefOES@@LIBGLESV1_CM
210:   FUNC GLOBAL DEFAULT 8 glFrustumfOES@@LIBGLESV1_CM
211:   FUNC GLOBAL DEFAULT 8 glSampleCoverage@@LIBGLESV1_CM
212:   FUNC GLOBAL DEFAULT 8 glTexParameterx@@LIBGLESV1_CM
213:   FUNC GLOBAL DEFAULT 8 glTranslatexOES@@LIBGLESV1_CM
214:   FUNC GLOBAL DEFAULT 8 glExtIsProgramBinaryQCOM@@LIBGLESV1_CM
215:   FUNC GLOBAL DEFAULT 8 glGetFloatv@@LIBGLESV1_CM
216:   FUNC GLOBAL DEFAULT 8 glMaterialf@@LIBGLESV1_CM
217:   FUNC GLOBAL DEFAULT 8 glPixelStorei@@LIBGLESV1_CM
218:   FUNC GLOBAL DEFAULT 8 glScalexOES@@LIBGLESV1_CM
219:   FUNC GLOBAL DEFAULT 8 glTexCoordPointerBounds@@LIBGLESV1_CM
220:   FUNC GLOBAL DEFAULT 8 glTexEnvxv@@LIBGLESV1_CM
221:   FUNC GLOBAL DEFAULT 8 glBindRenderbufferOES@@LIBGLESV1_CM
222:   FUNC GLOBAL DEFAULT 8 glClear@@LIBGLESV1_CM
223:   FUNC GLOBAL DEFAULT 8 glDrawTexfvOES@@LIBGLESV1_CM
224:   FUNC GLOBAL DEFAULT 8 glEGLImageTargetRenderbuf@@LIBGLESV1_CM
225:   FUNC GLOBAL DEFAULT 8 glGetTexEnvfv@@LIBGLESV1_CM
226:   FUNC GLOBAL DEFAULT 8 glNormalPointer@@LIBGLESV1_CM
227:   FUNC GLOBAL DEFAULT 8 glVertexPointer@@LIBGLESV1_CM
228:   FUNC GLOBAL DEFAULT 8 glLightModelx@@LIBGLESV1_CM
229:   FUNC GLOBAL DEFAULT 8 glColorPointerBounds@@LIBGLESV1_CM
230:   FUNC GLOBAL DEFAULT 8 glExtGetShadersQCOM@@LIBGLESV1_CM
231:   FUNC GLOBAL DEFAULT 8 glLineWidth@@LIBGLESV1_CM
232:   FUNC GLOBAL DEFAULT 8 glMultiDrawElementsEXT@@LIBGLESV1_CM
233:   FUNC GLOBAL DEFAULT 8 glTexParameteriv@@LIBGLESV1_CM
234:   FUNC GLOBAL DEFAULT 8 glBufferData@@LIBGLESV1_CM
235:   FUNC GLOBAL DEFAULT 8 glClearColor@@LIBGLESV1_CM
236:   FUNC GLOBAL DEFAULT 8 glPolygonOffsetx@@LIBGLESV1_CM
237:   FUNC GLOBAL DEFAULT 8 glTexParameterxvOES@@LIBGLESV1_CM
238:   FUNC GLOBAL DEFAULT 8 glClearDepthx@@LIBGLESV1_CM
239:   FUNC GLOBAL DEFAULT 8 glAlphaFuncx@@LIBGLESV1_CM
240:   FUNC GLOBAL DEFAULT 8 glBindFramebufferOES@@LIBGLESV1_CM
241:   FUNC GLOBAL DEFAULT 8 glColor4xOES@@LIBGLESV1_CM
242:   FUNC GLOBAL DEFAULT 8 glDepthMask@@LIBGLESV1_CM
243:   FUNC GLOBAL DEFAULT 8 glOrthofOES@@LIBGLESV1_CM
244:   FUNC GLOBAL DEFAULT 8 glGetClipPlanexOES@@LIBGLESV1_CM
245:   FUNC GLOBAL DEFAULT 8 glMapBufferOES@@LIBGLESV1_CM
246:   FUNC GLOBAL DEFAULT 8 glNormalPointerBounds@@LIBGLESV1_CM
247:   FUNC GLOBAL DEFAULT 8 glScissor@@LIBGLESV1_CM
248:   FUNC GLOBAL DEFAULT 8 glTexParameterxOES@@LIBGLESV1_CM
249:   FUNC GLOBAL DEFAULT 8 glBindBuffer@@LIBGLESV1_CM
250:   FUNC GLOBAL DEFAULT 8 glDisableDriverControlQCO@@LIBGLESV1_CM
251:   FUNC GLOBAL DEFAULT 8 glLineWidthxOES@@LIBGLESV1_CM
252:   FUNC GLOBAL DEFAULT 8 glTexGeniOES@@LIBGLESV1_CM
253:   FUNC GLOBAL DEFAULT 8 glCurrentPaletteMatrixOES@@LIBGLESV1_CM
254:   FUNC GLOBAL DEFAULT 8 glEnableDriverControlQCOM@@LIBGLESV1_CM
255:   FUNC GLOBAL DEFAULT 8 glGetFixedv@@LIBGLESV1_CM
256:   FUNC GLOBAL DEFAULT 8 glPointSizePointerOES@@LIBGLESV1_CM
257:   FUNC GLOBAL DEFAULT 8 glSetFenceNV@@LIBGLESV1_CM
258:   FUNC GLOBAL DEFAULT 8 glLightx@@LIBGLESV1_CM
259:   FUNC GLOBAL DEFAULT 8 glMatrixIndexPointerOES@@LIBGLESV1_CM
260:   FUNC GLOBAL DEFAULT 8 glMultMatrixxOES@@LIBGLESV1_CM
261:   FUNC GLOBAL DEFAULT 8 glPointParameterf@@LIBGLESV1_CM
262:   FUNC GLOBAL DEFAULT 8 glPointParameterxvOES@@LIBGLESV1_CM
263:   FUNC GLOBAL DEFAULT 8 glRotatef@@LIBGLESV1_CM
264:   FUNC GLOBAL DEFAULT 8 glClipPlanex@@LIBGLESV1_CM
265:   FUNC GLOBAL DEFAULT 8 glCopyTexImage2D@@LIBGLESV1_CM
266:   FUNC GLOBAL DEFAULT 8 glFogxvOES@@LIBGLESV1_CM
267:   FUNC GLOBAL DEFAULT 8 glLoadMatrixf@@LIBGLESV1_CM
268:   FUNC GLOBAL DEFAULT 8 glMaterialxvOES@@LIBGLESV1_CM
269:   FUNC GLOBAL DEFAULT 8 glMultMatrixx@@LIBGLESV1_CM
270:   FUNC GLOBAL DEFAULT 8 glShadeModel@@LIBGLESV1_CM
271:   FUNC GLOBAL DEFAULT 8 glDepthRangef@@LIBGLESV1_CM
272:   FUNC GLOBAL DEFAULT 8 glDrawTexsOES@@LIBGLESV1_CM
273:   FUNC GLOBAL DEFAULT 8 glGetLightxv@@LIBGLESV1_CM
274:   FUNC GLOBAL DEFAULT 8 glGetMaterialfv@@LIBGLESV1_CM
275:   FUNC GLOBAL DEFAULT 8 glTexImage2D@@LIBGLESV1_CM
276:   FUNC GLOBAL DEFAULT 8 glViewport@@LIBGLESV1_CM
277:   FUNC GLOBAL DEFAULT 8 glLightModelxOES@@LIBGLESV1_CM
278:   FUNC GLOBAL DEFAULT 8 glLineWidthx@@LIBGLESV1_CM
