 0x0000000e (SONAME)                     Library soname: [libRS_internal.so]
  
Symbol   contains 1133 entries:
Num:   Type Bind Vis Ndx Name
0:   NOTYPE LOCAL DEFAULT UND
1:   FUNC GLOBAL DEFAULT UND __cxa_finalize@LIBC (2)
2:   FUNC GLOBAL DEFAULT UND __stack_chk_fail@LIBC (2)
3:   OBJECT GLOBAL DEFAULT UND __stack_chk_guard@LIBC (2)
4:   FUNC GLOBAL DEFAULT UND _Znwj
5:   FUNC GLOBAL DEFAULT UND __android_log_print@LIBLOG (3)
6:   FUNC GLOBAL DEFAULT UND fclose@LIBC (2)
7:   FUNC GLOBAL DEFAULT UND fopen@LIBC (2)
8:   FUNC GLOBAL DEFAULT UND _ZNKSt3__120__vector_base
9:   FUNC GLOBAL DEFAULT UND _ZdaPv
10:   FUNC GLOBAL DEFAULT UND _ZdlPv
11:   FUNC GLOBAL DEFAULT UND _Znaj
12:   FUNC GLOBAL DEFAULT UND __vsnprintf_chk@LIBC (2)
13:   FUNC GLOBAL DEFAULT UND abort@LIBC (2)
14:   FUNC GLOBAL DEFAULT UND strlen@LIBC (2)
15:   FUNC GLOBAL DEFAULT UND __strlen_chk@LIBC (2)
16:   FUNC GLOBAL DEFAULT UND atoi@LIBC (2)
17:   FUNC GLOBAL DEFAULT UND clock_gettime@LIBC (2)
18:   FUNC GLOBAL DEFAULT UND gettid@LIBC (2)
19:   FUNC GLOBAL DEFAULT UND pthread_attr_destroy@LIBC (2)
20:   FUNC GLOBAL DEFAULT UND pthread_attr_init@LIBC (2)
21:   FUNC GLOBAL DEFAULT UND pthread_create@LIBC (2)
22:   FUNC GLOBAL DEFAULT UND pthread_join@LIBC (2)
23:   FUNC GLOBAL DEFAULT UND pthread_mutex_lock@LIBC (2)
24:   FUNC GLOBAL DEFAULT UND pthread_mutex_unlock@LIBC (2)
25:   FUNC GLOBAL DEFAULT UND setpriority@LIBC (2)
26:   FUNC GLOBAL DEFAULT UND usleep@LIBC (2)
27:   FUNC GLOBAL DEFAULT UND _ZNSt3__112basic_stringIc
28:   FUNC GLOBAL DEFAULT UND __errno@LIBC (2)
29:   FUNC GLOBAL DEFAULT UND __system_property_get@LIBC (2)
30:   FUNC GLOBAL DEFAULT UND execv@LIBC (2)
31:   FUNC GLOBAL DEFAULT UND fork@LIBC (2)
32:   FUNC GLOBAL DEFAULT UND setpgid@LIBC (2)
33:   FUNC GLOBAL DEFAULT UND strerror@LIBC (2)
34:   FUNC GLOBAL DEFAULT UND strndup@LIBC (2)
35:   FUNC GLOBAL DEFAULT UND waitpid@LIBC (2)
36:   FUNC GLOBAL DEFAULT UND dlclose@LIBC (4)
37:   FUNC GLOBAL DEFAULT UND dlerror@LIBC (4)
38:   FUNC GLOBAL DEFAULT UND dlopen@LIBC (4)
39:   FUNC GLOBAL DEFAULT UND dlsym@LIBC (4)
40:   FUNC GLOBAL DEFAULT UND strcmp@LIBC (2)
41:   FUNC GLOBAL DEFAULT UND __poll_chk@LIBC (2)
42:   FUNC GLOBAL DEFAULT UND __sendto_chk@LIBC_O (5)
43:   FUNC GLOBAL DEFAULT UND close@LIBC (2)
44:   FUNC GLOBAL DEFAULT UND recvfrom@LIBC (2)
45:   FUNC GLOBAL DEFAULT UND sendto@LIBC (2)
46:   FUNC GLOBAL DEFAULT UND socketpair@LIBC (2)
47:   FUNC GLOBAL DEFAULT UND __fread_chk@LIBC_N (6)
48:   FUNC GLOBAL DEFAULT UND __fwrite_chk@LIBC_N (6)
49:   FUNC GLOBAL DEFAULT UND fread@LIBC (2)
50:   FUNC GLOBAL DEFAULT UND free@LIBC (2)
51:   FUNC GLOBAL DEFAULT UND fwrite@LIBC (2)
52:   FUNC GLOBAL DEFAULT UND malloc@LIBC (2)
53:   FUNC GLOBAL DEFAULT UND memcmp@LIBC (2)
54:   FUNC GLOBAL DEFAULT UND FT_Done_Face@LIBFT2 (7)
55:   FUNC GLOBAL DEFAULT UND FT_Done_FreeType@LIBFT2 (7)
56:   FUNC GLOBAL DEFAULT UND FT_Get_Char_Index@LIBFT2 (7)
57:   FUNC GLOBAL DEFAULT UND FT_Init_FreeType@LIBFT2 (7)
58:   FUNC GLOBAL DEFAULT UND FT_Load_Glyph@LIBFT2 (7)
59:   FUNC GLOBAL DEFAULT UND FT_New_Face@LIBFT2 (7)
60:   FUNC GLOBAL DEFAULT UND FT_New_Memory_Face@LIBFT2 (7)
61:   FUNC GLOBAL DEFAULT UND FT_Set_Char_Size@LIBFT2 (7)
62:   FUNC GLOBAL DEFAULT UND _ZN7android10VectorImpl13
63:   FUNC GLOBAL DEFAULT UND _ZN7android16SortedVector
64:   FUNC GLOBAL DEFAULT UND _ZN7android16SortedVector
65:   FUNC GLOBAL DEFAULT UND _ZN7android16SortedVector
66:   FUNC GLOBAL DEFAULT UND _ZNK7android16SortedVecto
67:   FUNC GLOBAL DEFAULT UND __strlcat_chk@LIBC (2)
68:   FUNC GLOBAL DEFAULT UND __strlcpy_chk@LIBC (2)
69:   FUNC GLOBAL DEFAULT UND atof@LIBC (2)
70:   FUNC GLOBAL DEFAULT UND getenv@LIBC (2)
71:   FUNC GLOBAL DEFAULT UND utf32_from_utf8_at
72:   FUNC GLOBAL DEFAULT UND AImageReader_acquireNextI@LIBMEDIANDK (8)
73:   FUNC GLOBAL DEFAULT UND AImageReader_delete@LIBMEDIANDK (8)
74:   FUNC GLOBAL DEFAULT UND AImageReader_getWindow@LIBMEDIANDK (8)
75:   FUNC GLOBAL DEFAULT UND AImageReader_newWithUsage@LIBMEDIANDK (8)
76:   FUNC GLOBAL DEFAULT UND AImageReader_setImageList@LIBMEDIANDK (8)
77:   FUNC GLOBAL DEFAULT UND AImage_delete@LIBMEDIANDK (8)
78:   FUNC GLOBAL DEFAULT UND AImage_getFormat@LIBMEDIANDK (8)
79:   FUNC GLOBAL DEFAULT UND AImage_getHardwareBuffer@LIBMEDIANDK (8)
80:   FUNC GLOBAL DEFAULT UND AImage_getPlaneData@LIBMEDIANDK (8)
81:   FUNC GLOBAL DEFAULT UND AImage_getPlanePixelStrid@LIBMEDIANDK (8)
82:   FUNC GLOBAL DEFAULT UND AImage_getPlaneRowStride@LIBMEDIANDK (8)
83:   FUNC GLOBAL DEFAULT UND AImage_getTimestamp@LIBMEDIANDK (8)
84:   FUNC GLOBAL DEFAULT UND _ZN7android7String8D1Ev
85:   FUNC GLOBAL DEFAULT UND _ZNK7android9CallStack8to
86:   FUNC GLOBAL DEFAULT UND __cxa_pure_virtual
87:   FUNC GLOBAL DEFAULT UND calloc@LIBC (2)
88:   FUNC GLOBAL DEFAULT UND strdup@LIBC (2)
89:   FUNC GLOBAL DEFAULT UND cosf@LIBC (9)
90:   FUNC GLOBAL DEFAULT UND sinf@LIBC (9)
91:   FUNC GLOBAL DEFAULT UND tanf@LIBC (9)
92:   FUNC GLOBAL DEFAULT UND pthread_mutex_destroy@LIBC (2)
93:   FUNC GLOBAL DEFAULT UND pthread_mutex_init@LIBC (2)
94:   FUNC GLOBAL DEFAULT UND strncmp@LIBC (2)
95:   FUNC GLOBAL DEFAULT UND setenv@LIBC (2)
96:   FUNC GLOBAL DEFAULT UND strncpy@LIBC (2)
97:   FUNC GLOBAL DEFAULT UND tzset@LIBC (2)
98:   FUNC GLOBAL DEFAULT UND _ZN6bcinfo14BitcodeWrappe@libbcinfo (10)
99:   FUNC GLOBAL DEFAULT UND _ZN6bcinfo14BitcodeWrappe@libbcinfo (10)
100:   FUNC GLOBAL DEFAULT UND _ZN6bcinfo14BitcodeWrappe@libbcinfo (10)
101:   FUNC GLOBAL DEFAULT UND _ZN6bcinfo17BitcodeTransl@libbcinfo (10)
102:   FUNC GLOBAL DEFAULT UND _ZN6bcinfo17BitcodeTransl@libbcinfo (10)
103:   FUNC GLOBAL DEFAULT UND _ZN6bcinfo17BitcodeTransl@libbcinfo (10)
104:   FUNC GLOBAL DEFAULT UND _ZNKSt3__112basic_stringI
105:   FUNC GLOBAL DEFAULT UND _ZNKSt3__121__basic_strin
106:   FUNC GLOBAL DEFAULT UND _ZNSt3__112basic_stringIc
107:   FUNC GLOBAL DEFAULT UND _ZNSt3__112basic_stringIc
108:   FUNC GLOBAL DEFAULT UND _ZNSt3__112basic_stringIc
109:   FUNC GLOBAL DEFAULT UND _ZNSt3__112basic_stringIc
110:   FUNC GLOBAL DEFAULT UND _ZNSt3__112basic_stringIc
111:   FUNC GLOBAL DEFAULT UND _ZNSt3__113basic_istreamI
112:   FUNC GLOBAL DEFAULT UND _ZNSt3__113basic_istreamI
113:   FUNC GLOBAL DEFAULT UND _ZNSt3__113basic_ostreamI
114:   FUNC GLOBAL DEFAULT UND _ZNSt3__113basic_ostreamI
115:   FUNC GLOBAL DEFAULT UND _ZNSt3__114basic_iostream
116:   FUNC GLOBAL DEFAULT UND _ZNSt3__114basic_iostream
117:   FUNC GLOBAL DEFAULT UND _ZNSt3__114basic_iostream
118:   FUNC GLOBAL DEFAULT UND _ZNSt3__115basic_streambu
119:   FUNC GLOBAL DEFAULT UND _ZNSt3__115basic_streambu
120:   FUNC GLOBAL DEFAULT UND _ZNSt3__115basic_streambu
121:   FUNC GLOBAL DEFAULT UND _ZNSt3__115basic_streambu
122:   FUNC GLOBAL DEFAULT UND _ZNSt3__115basic_streambu
123:   FUNC GLOBAL DEFAULT UND _ZNSt3__115basic_streambu
124:   FUNC GLOBAL DEFAULT UND _ZNSt3__115basic_streambu
125:   FUNC GLOBAL DEFAULT UND _ZNSt3__115basic_streambu
126:   FUNC GLOBAL DEFAULT UND _ZNSt3__115basic_streambu
127:   FUNC GLOBAL DEFAULT UND _ZNSt3__18ios_base4initEP
128:   FUNC GLOBAL DEFAULT UND _ZNSt3__19basic_iosIcNS_1
129:   FUNC GLOBAL DEFAULT UND _ZThn8_NSt3__114basic_ios
130:   FUNC GLOBAL DEFAULT UND _ZThn8_NSt3__114basic_ios
131:   FUNC GLOBAL DEFAULT UND _ZTv0_n12_NSt3__113basic_
132:   FUNC GLOBAL DEFAULT UND _ZTv0_n12_NSt3__113basic_
133:   FUNC GLOBAL DEFAULT UND _ZTv0_n12_NSt3__113basic_
134:   FUNC GLOBAL DEFAULT UND _ZTv0_n12_NSt3__113basic_
135:   FUNC GLOBAL DEFAULT UND _ZTv0_n12_NSt3__114basic_
136:   FUNC GLOBAL DEFAULT UND _ZTv0_n12_NSt3__114basic_
137:   FUNC GLOBAL DEFAULT UND mkdir@LIBC (2)
138:   FUNC GLOBAL DEFAULT UND stat@LIBC (2)
139:   FUNC GLOBAL DEFAULT UND _ZNKSt3__16locale9use_fac
140:   FUNC GLOBAL DEFAULT UND _ZNKSt3__18ios_base6getlo
141:   FUNC GLOBAL DEFAULT UND _ZNSt3__113basic_ostreamI
142:   FUNC GLOBAL DEFAULT UND _ZNSt3__113basic_ostreamI
143:   FUNC GLOBAL DEFAULT UND _ZNSt3__113basic_ostreamI
144:   OBJECT GLOBAL DEFAULT UND _ZNSt3__15ctypeIcE2idE
145:   FUNC GLOBAL DEFAULT UND _ZNSt3__16localeD1Ev
146:   FUNC GLOBAL DEFAULT UND _ZNSt3__18ios_base5clearE
147:   FUNC GLOBAL DEFAULT UND localtime@LIBC (2)
148:   FUNC GLOBAL DEFAULT UND time@LIBC (2)
149:   FUNC GLOBAL DEFAULT UND pthread_cond_destroy@LIBC (2)
150:   FUNC GLOBAL DEFAULT UND pthread_cond_init@LIBC (2)
151:   FUNC GLOBAL DEFAULT UND pthread_cond_signal@LIBC (2)
152:   FUNC GLOBAL DEFAULT UND pthread_cond_wait@LIBC (2)
153:   FUNC GLOBAL DEFAULT UND memcpy@LIBC (2)
154:   FUNC GLOBAL DEFAULT UND memmove@LIBC (2)
155:   FUNC GLOBAL DEFAULT UND memset@LIBC (2)
156:   FUNC GLOBAL DEFAULT 14 _ZN7android12renderscript
157:   FUNC GLOBAL DEFAULT 14 _ZN7android12renderscript
158:   FUNC GLOBAL DEFAULT 14 rsScriptFieldIDCreate
159:   FUNC GLOBAL DEFAULT 14 _ZN7android12renderscript
160:   FUNC WEAK DEFAULT 14 _ZNSt3__16vectorIPN7andro
161:   FUNC GLOBAL DEFAULT 14 rsAllocationCreateFromBit
162:   FUNC GLOBAL DEFAULT 14 _ZN7android12renderscript
163:   FUNC GLOBAL DEFAULT 14 _ZNK7android12renderscrip
164:   FUNC GLOBAL DEFAULT 14 __aeabi_memcpy
165:   FUNC GLOBAL DEFAULT 14 rsInvokeClosureCreate
166:   OBJECT GLOBAL DEFAULT 18 _ZTVN7android12renderscri
167:   FUNC GLOBAL DEFAULT 14 _ZN7android12renderscript
168:   FUNC GLOBAL DEFAULT 14 _ZN7android12renderscript
169:   FUNC GLOBAL DEFAULT 14 _ZN7android12renderscript
170:   FUNC GLOBAL DEFAULT 14 _ZN7android12renderscript
171:   FUNC GLOBAL DEFAULT 14 _ZN7android12renderscript
172:   FUNC GLOBAL DEFAULT 14 _ZN7android12renderscript
173:   FUNC GLOBAL DEFAULT 14 _ZN7android12renderscript
174:   FUNC GLOBAL DEFAULT 14 _ZN7android12renderscript
175:   FUNC GLOBAL DEFAULT 14 _ZN7android12renderscript
176:   FUNC WEAK DEFAULT 14 _ZNSt3__16vectorIPN7andro
177:   FUNC GLOBAL DEFAULT 14 _ZNK7android12renderscrip
178:   FUNC GLOBAL DEFAULT 14 _ZN7android12renderscript
179:   FUNC GLOBAL DEFAULT 14 rsAllocationCubeCreateFro
180:   FUNC GLOBAL DEFAULT 14 _ZN7android12renderscript
181:   FUNC GLOBAL DEFAULT 14 _ZNK7android12renderscrip
182:   FUNC GLOBAL DEFAULT 14 _ZN7android12renderscript
183:   FUNC GLOBAL DEFAULT 14 _ZN7android12renderscript
184:   FUNC GLOBAL DEFAULT 14 _ZN7android12renderscript
185:   FUNC GLOBAL DEFAULT 14 _ZN7android12renderscript
186:   FUNC GLOBAL DEFAULT 14 _ZN7android12renderscript
187:   FUNC GLOBAL DEFAULT 14 _ZN7android12renderscript
188:   FUNC GLOBAL DEFAULT 14 _ZN7android12renderscript
189:   FUNC GLOBAL DEFAULT 14 _ZN7android12renderscript
190:   FUNC GLOBAL DEFAULT 14 _ZNK7android12renderscrip
191:   FUNC GLOBAL DEFAULT 14 _ZN7android12renderscript
192:   FUNC GLOBAL DEFAULT 14 _ZNK7android12renderscrip
193:   FUNC GLOBAL DEFAULT 14 rsContextBindFont
194:   FUNC GLOBAL DEFAULT 14 _ZN7android12renderscript
195:   FUNC GLOBAL DEFAULT 14 _ZN7android12renderscript
196:   FUNC GLOBAL DEFAULT 14 _ZN7android12renderscript
197:   FUNC GLOBAL DEFAULT 14 _ZN7android12renderscript
198:   FUNC GLOBAL DEFAULT 14 _ZN7android12renderscript
199:   FUNC GLOBAL DEFAULT 14 _ZN7android12renderscript
200:   FUNC GLOBAL DEFAULT 14 rsContextBindProgramRaste
201:   OBJECT GLOBAL DEFAULT 18 _ZTVN7android12renderscri
202:   FUNC GLOBAL DEFAULT 14 _ZNK7android12renderscrip
203:   FUNC GLOBAL DEFAULT 14 _ZN7android12renderscript
204:   FUNC GLOBAL DEFAULT 14 _ZN7android12renderscript
205:   FUNC GLOBAL DEFAULT 14 _ZN7android12renderscript
206:   FUNC GLOBAL DEFAULT 14 _ZN7android12renderscript
207:   FUNC GLOBAL DEFAULT 14 _ZN7android12renderscript
208:   FUNC GLOBAL DEFAULT 14 _ZN7android12renderscript
209:   OBJECT GLOBAL DEFAULT 18 _ZTVN7android12renderscri
210:   FUNC GLOBAL DEFAULT 14 _ZN7android12renderscript
211:   FUNC GLOBAL DEFAULT 14 _ZN7android12renderscript
212:   OBJECT WEAK DEFAULT 18 _ZTVNSt3__115basic_string
213:   FUNC GLOBAL DEFAULT 14 _ZN7android12renderscript
214:   FUNC GLOBAL DEFAULT 14 _ZN7android12renderscript
215:   FUNC GLOBAL DEFAULT 14 _ZNK7android12renderscrip
216:   FUNC GLOBAL DEFAULT 14 _ZN7android12renderscript
217:   FUNC GLOBAL DEFAULT 14 _ZN7android12renderscript
218:   FUNC GLOBAL DEFAULT 14 _ZN7android12renderscript
219:   FUNC GLOBAL DEFAULT 14 _ZNK7android12renderscrip
220:   FUNC GLOBAL DEFAULT 14 rsScriptCCreate
221:   FUNC GLOBAL DEFAULT 14 _ZN7android12renderscript
222:   FUNC GLOBAL DEFAULT 14 _ZN7android12renderscript
223:   FUNC GLOBAL DEFAULT 14 _ZN7android12renderscript
224:   FUNC GLOBAL DEFAULT 14 rsScriptInvoke
225:   FUNC GLOBAL DEFAULT 14 _ZN7android12renderscript
226:   FUNC GLOBAL DEFAULT 14 _ZNK7android12renderscrip
227:   FUNC GLOBAL DEFAULT 14 _ZN7android12renderscript
228:   FUNC GLOBAL DEFAULT 14 _ZN7android12renderscript
229:   FUNC GLOBAL DEFAULT 14 rsClosureSetGlobal
230:   FUNC GLOBAL DEFAULT 14 rsContextSetSurface
231:   FUNC GLOBAL DEFAULT 14 _ZN7android12renderscript
232:   OBJECT GLOBAL DEFAULT 18 _ZTVN7android12renderscri
233:   FUNC GLOBAL DEFAULT 14 _ZN7android12renderscript
234:   FUNC GLOBAL DEFAULT 14 _ZN7android12renderscript
235:   FUNC GLOBAL DEFAULT 14 rsAllocationShareBufferQu
236:   FUNC GLOBAL DEFAULT 14 _ZN7android12renderscript
237:   FUNC GLOBAL DEFAULT 14 _ZN7android12renderscript
238:   FUNC WEAK DEFAULT 14 _ZNSt3__115basic_stringbu
239:   FUNC GLOBAL DEFAULT 14 rsAllocationIoReceive
240:   FUNC GLOBAL DEFAULT 14 _ZN7android12renderscript
241:   FUNC GLOBAL DEFAULT 14 _ZN7android12renderscript
242:   FUNC GLOBAL DEFAULT 14 _ZN7android12renderscript
243:   FUNC GLOBAL DEFAULT 14 _ZN7android12renderscript
244:   FUNC GLOBAL DEFAULT 14 _ZN7android12renderscript
245:   FUNC GLOBAL DEFAULT 14 _ZN7android12renderscript
246:   FUNC GLOBAL DEFAULT 14 _ZNK7android12renderscrip
247:   FUNC GLOBAL DEFAULT 14 _ZNK7android12renderscrip
248:   FUNC GLOBAL DEFAULT 14 _ZN7android12renderscript
249:   FUNC GLOBAL DEFAULT 14 _ZN7android12renderscript
250:   FUNC GLOBAL DEFAULT 14 _ZN7android12renderscript
251:   FUNC GLOBAL DEFAULT 14 _ZN7android12renderscript
252:   FUNC GLOBAL DEFAULT 14 _ZN7android12renderscript
253:   FUNC GLOBAL DEFAULT 14 _ZN7android12renderscript
254:   FUNC GLOBAL DEFAULT 14 _ZN7android12renderscript
255:   FUNC GLOBAL DEFAULT 14 _ZN7android12renderscript
256:   FUNC GLOBAL DEFAULT 14 _ZN7android12renderscript
257:   FUNC GLOBAL DEFAULT 14 _ZN7android12renderscript
258:   FUNC GLOBAL DEFAULT 14 _ZN7android12renderscript
259:   FUNC GLOBAL DEFAULT 14 rsContextCreateGL
260:   FUNC GLOBAL DEFAULT 14 _ZN7android12renderscript
261:   FUNC GLOBAL DEFAULT 14 _ZN7android12renderscript
262:   FUNC GLOBAL DEFAULT 14 _ZN7android12renderscript
263:   FUNC GLOBAL DEFAULT 14 _ZN7android12renderscript
264:   FUNC GLOBAL DEFAULT 14 _ZN7android12renderscript
265:   FUNC GLOBAL DEFAULT 14 _ZNK7android12renderscrip
266:   FUNC GLOBAL DEFAULT 14 _ZNK7android12renderscrip
267:   FUNC GLOBAL DEFAULT 14 _ZN7android12renderscript
268:   FUNC GLOBAL DEFAULT 14 _ZN7android12renderscript
269:   FUNC GLOBAL DEFAULT 14 rsContextDestroyWorker
270:   FUNC GLOBAL DEFAULT 14 _ZN7android12renderscript
271:   FUNC GLOBAL DEFAULT 14 _ZN7android12renderscript
272:   FUNC GLOBAL DEFAULT 14 _ZN7android12renderscript
273:   FUNC GLOBAL DEFAULT 14 __aeabi_l2f
274:   FUNC GLOBAL DEFAULT 14 _ZN7android12renderscript
275:   FUNC GLOBAL DEFAULT 14 _ZN7android12renderscript
276:   FUNC GLOBAL DEFAULT 14 _ZN7android12renderscript
277:   FUNC GLOBAL DEFAULT 14 _ZN7android12renderscript
278:   FUNC GLOBAL DEFAULT 14 _ZN7android12renderscript
279:   FUNC GLOBAL DEFAULT 14 _ZN7android12renderscript
280:   FUNC GLOBAL DEFAULT 14 _ZNK7android12renderscrip
281:   FUNC GLOBAL DEFAULT 14 _ZN7android12renderscript
282:   FUNC GLOBAL DEFAULT 14 rsContextDeinitToClient
283:   FUNC GLOBAL DEFAULT 14 _ZN7android12renderscript
284:   FUNC GLOBAL DEFAULT 14 _ZN7android12renderscript
285:   FUNC GLOBAL DEFAULT 14 _ZN7android12renderscript
286:   FUNC GLOBAL DEFAULT 14 _ZN7android12renderscript
287:   FUNC GLOBAL DEFAULT 14 rsAllocationCopy3DRange
288:   FUNC GLOBAL DEFAULT 14 _ZNK7android12renderscrip
289:   FUNC GLOBAL DEFAULT 14 _ZN7android12renderscript
290:   FUNC GLOBAL DEFAULT 14 _ZN7android12renderscript
291:   FUNC GLOBAL DEFAULT 14 _ZN7android12renderscript
292:   FUNC GLOBAL DEFAULT 14 _ZN7android12renderscript
293:   FUNC GLOBAL DEFAULT 14 _ZN7android12renderscript
294:   FUNC GLOBAL DEFAULT 14 _ZN7android12renderscript
295:   FUNC GLOBAL DEFAULT 14 _ZN7android12renderscript
296:   FUNC GLOBAL DEFAULT 14 _ZN7android12renderscript
297:   FUNC GLOBAL DEFAULT 14 rsaElementGetNativeData
298:   FUNC GLOBAL DEFAULT 14 _ZN7android12renderscript
299:   FUNC GLOBAL DEFAULT 14 _ZN7android12renderscript
300:   FUNC GLOBAL DEFAULT 14 _ZN7android12renderscript
301:   FUNC GLOBAL DEFAULT 14 rsTypeCreate2
302:   FUNC GLOBAL DEFAULT 14 _ZN7android12renderscript
303:   FUNC GLOBAL DEFAULT 14 _ZN7android12renderscript
304:   FUNC GLOBAL DEFAULT 14 _ZN7android12renderscript
305:   FUNC GLOBAL DEFAULT 14 _ZN7android12renderscript
306:   FUNC GLOBAL DEFAULT 14 _ZN7android12renderscript
307:   FUNC GLOBAL DEFAULT 14 _ZN7android12renderscript
308:   FUNC GLOBAL DEFAULT 14 rsAllocation3DRead
309:   FUNC GLOBAL DEFAULT 14 _ZN7android12renderscript
310:   FUNC GLOBAL DEFAULT 14 _ZN7android12renderscript
311:   FUNC GLOBAL DEFAULT 14 _ZN7android12renderscript
312:   FUNC GLOBAL DEFAULT 14 _ZN7android12renderscript
313:   FUNC GLOBAL DEFAULT 14 _ZN7android12renderscript
314:   FUNC GLOBAL DEFAULT 14 _ZN7android12renderscript
315:   FUNC GLOBAL DEFAULT 14 _ZN7android12renderscript
316:   FUNC WEAK DEFAULT 14 _ZNSt3__16vectorIPN7andro
317:   FUNC GLOBAL DEFAULT 14 _ZN7android12renderscript
318:   FUNC GLOBAL DEFAULT 14 _ZN7android12renderscript
319:   FUNC GLOBAL DEFAULT 14 _ZN7android12renderscript
320:   FUNC GLOBAL DEFAULT 14 _ZN7android12renderscript
321:   FUNC GLOBAL DEFAULT 14 _ZN7android12renderscript
322:   FUNC GLOBAL DEFAULT 14 _ZN7android12renderscript
323:   FUNC GLOBAL DEFAULT 14 _ZNK7android12renderscrip
324:   FUNC GLOBAL DEFAULT 14 _ZN7android12renderscript
325:   FUNC GLOBAL DEFAULT 14 _ZN7android12renderscript
326:   FUNC GLOBAL DEFAULT 14 _ZN7android12renderscript
327:   FUNC GLOBAL DEFAULT 14 _ZN7android12renderscript
328:   FUNC GLOBAL DEFAULT 14 rsElementCreate2
329:   FUNC GLOBAL DEFAULT 14 rsScriptSetTimeZone
330:   FUNC GLOBAL DEFAULT 14 _ZN7android12renderscript
331:   FUNC GLOBAL DEFAULT 14 _ZN7android12renderscript
332:   FUNC GLOBAL DEFAULT 14 _ZN7android12renderscript
333:   FUNC GLOBAL DEFAULT 14 _ZN7android12renderscript
334:   OBJECT GLOBAL DEFAULT 16 _ZN7android12renderscript
335:   FUNC GLOBAL DEFAULT 14 rsProgramRasterCreate
336:   FUNC GLOBAL DEFAULT 14 _ZN7android12renderscript
337:   FUNC GLOBAL DEFAULT 14 _ZN7android12renderscript
338:   FUNC GLOBAL DEFAULT 14 _ZNK7android12renderscrip
339:   FUNC GLOBAL DEFAULT 14 _ZNK7android12renderscrip
340:   FUNC GLOBAL DEFAULT 14 _ZN7android12renderscript
341:   FUNC GLOBAL DEFAULT 14 _ZN7android12renderscript
342:   FUNC GLOBAL DEFAULT 14 _ZN7android12renderscript
343:   FUNC GLOBAL DEFAULT 14 _ZN7android12renderscript
344:   FUNC GLOBAL DEFAULT 14 rsAllocation2DRead
345:   FUNC GLOBAL DEFAULT 14 _ZN7android12renderscript
346:   FUNC GLOBAL DEFAULT 14 _ZN7android12renderscript
347:   FUNC GLOBAL DEFAULT 14 _ZN7android12renderscript
348:   FUNC GLOBAL DEFAULT 14 _ZN7android12renderscript
349:   FUNC GLOBAL DEFAULT 14 _ZN7android12renderscript
350:   FUNC GLOBAL DEFAULT 14 _ZN7android12renderscript
351:   FUNC GLOBAL DEFAULT 14 _ZN7android12renderscript
352:   FUNC GLOBAL DEFAULT 14 _ZN7android12renderscript
353:   FUNC GLOBAL DEFAULT 14 _ZN7android12renderscript
354:   FUNC GLOBAL DEFAULT 14 _ZN7android12renderscript
355:   FUNC GLOBAL DEFAULT 14 _ZN7android12renderscript
356:   FUNC WEAK DEFAULT 14 _ZNSt3__16vectorIPN7andro
357:   FUNC GLOBAL DEFAULT 14 _ZNK7android12renderscrip
358:   FUNC GLOBAL DEFAULT 14 _ZN7android12renderscript
359:   FUNC GLOBAL DEFAULT 14 _ZN7android12renderscript
360:   FUNC GLOBAL DEFAULT 14 _ZN7android12renderscript
361:   FUNC GLOBAL DEFAULT 14 _ZN7android12renderscript
362:   FUNC GLOBAL DEFAULT 14 _ZN7android12renderscript
363:   FUNC GLOBAL DEFAULT 14 _ZN7android12renderscript
364:   FUNC GLOBAL DEFAULT 14 _ZN7android12renderscript
365:   OBJECT GLOBAL DEFAULT 18 _ZTVN7android12renderscri
366:   FUNC GLOBAL DEFAULT 14 rsaAllocationGetType
367:   FUNC GLOBAL DEFAULT 14 _ZN7android12renderscript
368:   FUNC GLOBAL DEFAULT 14 _ZN7android12renderscript
369:   FUNC GLOBAL DEFAULT 14 _ZN7android12renderscript
370:   FUNC GLOBAL DEFAULT 14 _ZN7android12renderscript
371:   FUNC GLOBAL DEFAULT 14 _ZN7android12renderscript
372:   FUNC GLOBAL DEFAULT 14 _ZN7android12renderscript
373:   FUNC GLOBAL DEFAULT 14 _ZN7android12renderscript
374:   FUNC GLOBAL DEFAULT 14 _ZN7android12renderscript
375:   FUNC GLOBAL DEFAULT 14 rsContextCreateVendor
376:   FUNC GLOBAL DEFAULT 14 _ZN7android12renderscript
377:   FUNC GLOBAL DEFAULT 14 _ZN7android12renderscript
378:   FUNC GLOBAL DEFAULT 14 _ZN7android12renderscript
379:   OBJECT GLOBAL DEFAULT 18 _ZTVN7android12renderscri
380:   FUNC GLOBAL DEFAULT 14 rsaTypeGetNativeData
381:   FUNC GLOBAL DEFAULT 14 _ZN7android12renderscript
382:   FUNC WEAK DEFAULT 14 _ZNSt3__16vectorIPN7andro
383:   FUNC GLOBAL DEFAULT 14 _ZN7android12renderscript
384:   FUNC GLOBAL DEFAULT 14 _ZN7android12renderscript
385:   FUNC GLOBAL DEFAULT 14 _ZN7android12renderscript
386:   FUNC GLOBAL DEFAULT 14 _ZN7android12renderscript
387:   FUNC GLOBAL DEFAULT 14 _ZNK7android12renderscrip
388:   FUNC GLOBAL DEFAULT 14 rsClosureCreate
389:   FUNC GLOBAL DEFAULT 14 _ZN7android12renderscript
390:   FUNC GLOBAL DEFAULT 14 _ZN7android12renderscript
391:   FUNC GLOBAL DEFAULT 14 _ZN7android12renderscript
392:   FUNC GLOBAL DEFAULT 14 _ZN7android12renderscript
393:   FUNC GLOBAL DEFAULT 14 _ZN7android12renderscript
394:   OBJECT GLOBAL DEFAULT 18 _ZTVN7android12renderscri
395:   FUNC GLOBAL DEFAULT 14 rsAllocation1DRead
396:   FUNC GLOBAL DEFAULT 14 _ZN7android12renderscript
397:   FUNC GLOBAL DEFAULT 14 _ZN7android12renderscript
398:   OBJECT GLOBAL DEFAULT 18 _ZTVN7android12renderscri
399:   FUNC GLOBAL DEFAULT 14 _ZN7android12renderscript
400:   FUNC GLOBAL DEFAULT 14 _ZN7android12renderscript
401:   FUNC GLOBAL DEFAULT 14 _ZN7android12renderscript
402:   FUNC GLOBAL DEFAULT 14 _ZN7android12renderscript
403:   FUNC GLOBAL DEFAULT 14 _ZN7android12renderscript
404:   FUNC GLOBAL DEFAULT 14 _ZN7android12renderscript
405:   FUNC GLOBAL DEFAULT 14 rsAllocationSetupBufferQu
406:   FUNC GLOBAL DEFAULT 14 rsProgramBindConstants
407:   FUNC GLOBAL DEFAULT 14 rsScriptInvokeIDCreate
408:   FUNC GLOBAL DEFAULT 14 _ZN7android12renderscript
409:   FUNC GLOBAL DEFAULT 14 _ZN7android12renderscript
410:   FUNC GLOBAL DEFAULT 14 _ZN7android12renderscript
411:   FUNC GLOBAL DEFAULT 14 _ZN7android12renderscript
412:   FUNC GLOBAL DEFAULT 14 rsContextBindProgramStore
413:   FUNC GLOBAL DEFAULT 14 rsContextDump
414:   FUNC GLOBAL DEFAULT 14 _ZN7android12renderscript
415:   FUNC GLOBAL DEFAULT 14 _ZN7android12renderscript
416:   FUNC GLOBAL DEFAULT 14 _ZN7android12renderscript
417:   FUNC GLOBAL DEFAULT 14 _ZNK7android12renderscrip
418:   OBJECT GLOBAL DEFAULT 18 _ZTVN7android12renderscri
419:   FUNC GLOBAL DEFAULT 14 _ZN7android12renderscript
420:   OBJECT WEAK DEFAULT 18 _ZTVNSt3__118basic_string
421:   FUNC GLOBAL DEFAULT 14 _ZN7android12renderscript
422:   FUNC GLOBAL DEFAULT 14 _ZN7android12renderscript
423:   FUNC GLOBAL DEFAULT 14 _ZNK7android12renderscrip
424:   FUNC GLOBAL DEFAULT 14 _ZN7android12renderscript
425:   FUNC GLOBAL DEFAULT 14 rsAllocationResize1D
426:   FUNC GLOBAL DEFAULT 14 rsScriptSetVarObj
427:   FUNC GLOBAL DEFAULT 14 __aeabi_uldivmod
428:   FUNC WEAK DEFAULT 14 _ZNSt3__16vectorIPN7andro
429:   FUNC GLOBAL DEFAULT 14 _ZNK7android12renderscrip
430:   FUNC GLOBAL DEFAULT 14 rsContextBindProgramFragm
431:   FUNC GLOBAL DEFAULT 14 _ZN7android12renderscript
432:   FUNC GLOBAL DEFAULT 14 _ZN7android12renderscript
433:   FUNC GLOBAL DEFAULT 14 _ZNK7android12renderscrip
434:   FUNC GLOBAL DEFAULT 14 _ZNK7android12renderscrip
435:   FUNC GLOBAL DEFAULT 14 _ZN7android12renderscript
436:   FUNC GLOBAL DEFAULT 14 _ZN7android12renderscript
437:   FUNC GLOBAL DEFAULT 14 rsAllocationAdapterCreate
438:   FUNC GLOBAL DEFAULT 14 _ZN7android12renderscript
439:   FUNC GLOBAL DEFAULT 14 _ZN7android12renderscript
440:   FUNC GLOBAL DEFAULT 14 __aeabi_ul2d
441:   FUNC GLOBAL DEFAULT 14 rsScriptReduce
442:   FUNC GLOBAL DEFAULT 14 _ZN7android12renderscript
443:   FUNC GLOBAL DEFAULT 14 _ZN7android12renderscript
444:   FUNC GLOBAL DEFAULT 14 rsContextGetMessage
445:   FUNC GLOBAL DEFAULT 14 rsScriptGroupSetInput
446:   FUNC GLOBAL DEFAULT 14 _ZN7android12renderscript
447:   FUNC GLOBAL DEFAULT 14 _ZN7android12renderscript
448:   OBJECT GLOBAL DEFAULT 18 _ZTVN7android12renderscri
449:   FUNC GLOBAL DEFAULT 14 _ZN7android12renderscript
450:   FUNC GLOBAL DEFAULT 14 _ZN7android12renderscript
451:   FUNC GLOBAL DEFAULT 14 _ZN7android12renderscript
452:   FUNC GLOBAL DEFAULT 14 rsSamplerCreate
453:   FUNC GLOBAL DEFAULT 14 _ZNK7android12renderscrip
454:   FUNC GLOBAL DEFAULT 14 _ZN7android12renderscript
455:   FUNC GLOBAL DEFAULT 14 _ZN7android12renderscript
456:   FUNC GLOBAL DEFAULT 14 _ZN7android12renderscript
457:   FUNC GLOBAL DEFAULT 14 _ZN7android12renderscript
458:   FUNC GLOBAL DEFAULT 14 rsScriptForEach
459:   FUNC GLOBAL DEFAULT 14 _ZN7android12renderscript
460:   FUNC GLOBAL DEFAULT 14 _ZN7android12renderscript
461:   FUNC GLOBAL DEFAULT 14 _ZN7android12renderscript
462:   FUNC GLOBAL DEFAULT 14 _ZN7android12renderscript
463:   FUNC GLOBAL DEFAULT 14 _ZN7android12renderscript
464:   FUNC GLOBAL DEFAULT 14 _ZN7android12renderscript
465:   FUNC GLOBAL DEFAULT 14 _ZN7android12renderscript
466:   FUNC GLOBAL DEFAULT 14 _ZNK7android12renderscrip
467:   FUNC GLOBAL DEFAULT 14 _ZNK7android12renderscrip
468:   FUNC GLOBAL DEFAULT 14 _ZN7android12renderscript
469:   FUNC GLOBAL DEFAULT 14 __aeabi_uidiv
470:   FUNC GLOBAL DEFAULT 14 _ZN7android12renderscript
471:   FUNC GLOBAL DEFAULT 14 _ZN7android12renderscript
472:   FUNC GLOBAL DEFAULT 14 rsAllocationSyncAll
473:   FUNC GLOBAL DEFAULT 14 _ZN7android12renderscript
474:   FUNC GLOBAL DEFAULT 14 _ZN7android12renderscript
475:   FUNC GLOBAL DEFAULT 14 _ZN7android12renderscript
476:   FUNC GLOBAL DEFAULT 14 _ZN7android12renderscript
477:   FUNC GLOBAL DEFAULT 14 _ZN7android12renderscript
478:   FUNC GLOBAL DEFAULT 14 _ZN7android12renderscript
479:   FUNC GLOBAL DEFAULT 14 _ZNK7android12renderscrip
480:   FUNC GLOBAL DEFAULT 14 rsaGetName
481:   OBJECT GLOBAL DEFAULT 22 _ZN7android12renderscript
482:   FUNC GLOBAL DEFAULT 14 _ZN7android12renderscript
483:   FUNC GLOBAL DEFAULT 14 _ZN7android12renderscript
484:   FUNC GLOBAL DEFAULT 14 _ZN7android12renderscript
485:   FUNC GLOBAL DEFAULT 14 _ZN7android12renderscript
486:   FUNC GLOBAL DEFAULT 14 rsAssignName
487:   FUNC GLOBAL DEFAULT 14 _ZN7android12renderscript
488:   FUNC GLOBAL DEFAULT 14 _ZN7android12renderscript
489:   FUNC GLOBAL DEFAULT 14 _ZN7android12renderscript
490:   FUNC GLOBAL DEFAULT 14 _ZN7android12renderscript
491:   FUNC GLOBAL DEFAULT 14 _ZN7android12renderscript
492:   FUNC GLOBAL DEFAULT 14 rsScriptBindAllocation
493:   FUNC GLOBAL DEFAULT 14 _ZN7android12renderscript
494:   FUNC GLOBAL DEFAULT 14 _ZNK7android12renderscrip
495:   FUNC GLOBAL DEFAULT 14 _ZN7android12renderscript
496:   FUNC WEAK DEFAULT 14 _ZNKSt3__115basic_stringb
497:   FUNC GLOBAL DEFAULT 14 _ZN7android12renderscript
498:   FUNC GLOBAL DEFAULT 14 _ZN7android12renderscript
499:   FUNC GLOBAL DEFAULT 14 _ZN7android12renderscript
500:   FUNC GLOBAL DEFAULT 14 _ZN7android12renderscript
501:   FUNC GLOBAL DEFAULT 14 _ZN7android12renderscript
502:   FUNC GLOBAL DEFAULT 14 _ZN7android12renderscript
503:   FUNC GLOBAL DEFAULT 14 _ZN7android12renderscript
504:   FUNC GLOBAL DEFAULT 14 _ZN7android12renderscript
505:   FUNC GLOBAL DEFAULT 14 _ZN7android12renderscript
506:   FUNC GLOBAL DEFAULT 14 _ZN7android12renderscript
507:   FUNC GLOBAL DEFAULT 14 _Z18rsaMeshGetVerticesPvS
508:   FUNC GLOBAL DEFAULT 14 _ZN7android12renderscript
509:   FUNC GLOBAL DEFAULT 14 _ZN7android12renderscript
510:   FUNC GLOBAL DEFAULT 14 _ZN7android12renderscript
511:   FUNC GLOBAL DEFAULT 14 _ZN7android12renderscript
512:   FUNC GLOBAL DEFAULT 14 _ZN7android12renderscript
513:   FUNC GLOBAL DEFAULT 14 _ZN7android12renderscript
514:   FUNC GLOBAL DEFAULT 14 _ZN7android12renderscript
515:   FUNC GLOBAL DEFAULT 14 _ZNK7android12renderscrip
516:   FUNC GLOBAL DEFAULT 14 rsClosureSetArg
517:   FUNC GLOBAL DEFAULT 14 _ZN7android12renderscript
518:   FUNC GLOBAL DEFAULT 14 _ZN7android12renderscript
519:   FUNC GLOBAL DEFAULT 14 _ZN7android12renderscript
520:   OBJECT GLOBAL DEFAULT 18 _ZTVN7android12renderscri
521:   FUNC GLOBAL DEFAULT 14 _ZNK7android12renderscrip
522:   FUNC GLOBAL DEFAULT 14 _ZN7android12renderscript
523:   FUNC GLOBAL DEFAULT 14 rsContextCreate
524:   FUNC GLOBAL DEFAULT 14 _ZN7android12renderscript
525:   FUNC GLOBAL DEFAULT 14 _ZN7android12renderscript
526:   FUNC GLOBAL DEFAULT 14 _ZN7android12renderscript
527:   FUNC GLOBAL DEFAULT 14 _ZN7android12renderscript
528:   FUNC GLOBAL DEFAULT 14 _ZN7android12renderscript
529:   FUNC GLOBAL DEFAULT 14 _ZN7android12renderscript
530:   FUNC GLOBAL DEFAULT 14 _ZN7android12renderscript
531:   FUNC GLOBAL DEFAULT 14 _ZN7android12renderscript
532:   FUNC GLOBAL DEFAULT 14 _ZNK7android12renderscrip
533:   FUNC GLOBAL DEFAULT 14 _ZN7android12renderscript
534:   FUNC GLOBAL DEFAULT 14 rsContextFinish
535:   FUNC GLOBAL DEFAULT 14 _ZN7android12renderscript
536:   OBJECT GLOBAL DEFAULT 18 _ZTVN7android12renderscri
537:   FUNC GLOBAL DEFAULT 14 _ZN7android12renderscript
538:   FUNC GLOBAL DEFAULT 14 _ZN7android12renderscript
539:   FUNC GLOBAL DEFAULT 14 _ZN7android12renderscript
540:   FUNC GLOBAL DEFAULT 14 _ZN7android12renderscript
541:   FUNC GLOBAL DEFAULT 14 _ZN7android12renderscript
542:   FUNC GLOBAL DEFAULT 14 _ZN7android12renderscript
543:   FUNC GLOBAL DEFAULT 14 _ZN7android12renderscript
544:   FUNC GLOBAL DEFAULT 14 _ZN7android12renderscript
545:   FUNC GLOBAL DEFAULT 14 _ZN7android12renderscript
546:   FUNC GLOBAL DEFAULT 14 _ZN7android12renderscript
547:   FUNC GLOBAL DEFAULT 14 _ZN7android12renderscript
548:   FUNC GLOBAL DEFAULT 14 rsScriptGroupCreate
549:   FUNC GLOBAL DEFAULT 14 _ZN7android12renderscript
550:   FUNC GLOBAL DEFAULT 14 rsAllocationCreateTyped
551:   FUNC GLOBAL DEFAULT 14 _ZN7android12renderscript
552:   FUNC GLOBAL DEFAULT 14 _ZN7android12renderscript
553:   FUNC GLOBAL DEFAULT 14 _ZN7android12renderscript
554:   FUNC GLOBAL DEFAULT 14 _ZN7android12renderscript
555:   FUNC GLOBAL DEFAULT 14 _ZN7android12renderscript
556:   FUNC GLOBAL DEFAULT 14 _ZN7android12renderscript
557:   FUNC GLOBAL DEFAULT 14 _ZN7android12renderscript
558:   FUNC GLOBAL DEFAULT 14 _ZNK7android12renderscrip
559:   FUNC GLOBAL DEFAULT 14 _ZNK7android12renderscrip
560:   FUNC GLOBAL DEFAULT 14 _ZN7android12renderscript
561:   FUNC GLOBAL DEFAULT 14 _ZNK7android12renderscrip
562:   FUNC GLOBAL DEFAULT 14 _ZN7android12renderscript
563:   FUNC GLOBAL DEFAULT 14 rsAllocationAdapterOffset
564:   FUNC GLOBAL DEFAULT 14 rsTypeCreate
565:   FUNC GLOBAL DEFAULT 14 _ZN7android12renderscript
566:   FUNC GLOBAL DEFAULT 14 _ZN7android12renderscript
567:   FUNC GLOBAL DEFAULT 14 _ZNK7android12renderscrip
568:   FUNC WEAK DEFAULT 14 _ZNSt3__16vectorIPN7andro
569:   FUNC GLOBAL DEFAULT 14 _ZN7android12renderscript
570:   FUNC WEAK DEFAULT 14 _ZNSt3__16vectorIPN7andro
571:   FUNC GLOBAL DEFAULT 14 _ZN7android12renderscript
572:   FUNC GLOBAL DEFAULT 14 _ZN7android12renderscript
573:   FUNC GLOBAL DEFAULT 14 _ZN7android12renderscript
574:   FUNC GLOBAL DEFAULT 14 _ZN7android12renderscript
575:   FUNC GLOBAL DEFAULT 14 _ZN7android12renderscript
576:   FUNC GLOBAL DEFAULT 14 _ZN7android12renderscript
577:   FUNC GLOBAL DEFAULT 14 _ZN7android12renderscript
578:   FUNC GLOBAL DEFAULT 14 _ZN7android12renderscript
579:   FUNC GLOBAL DEFAULT 14 _ZN7android12renderscript
580:   FUNC GLOBAL DEFAULT 14 _ZN7android12renderscript
581:   FUNC GLOBAL DEFAULT 14 _Z28rsaFileA3DGetNumIndex
582:   FUNC GLOBAL DEFAULT 14 _ZN7android12renderscript
583:   FUNC GLOBAL DEFAULT 14 _ZN7android12renderscript
584:   FUNC GLOBAL DEFAULT 14 _ZN7android12renderscript
585:   FUNC GLOBAL DEFAULT 14 rsFontCreateFromMemory
586:   FUNC GLOBAL DEFAULT 14 _ZN7android12renderscript
587:   FUNC GLOBAL DEFAULT 14 _ZN7android12renderscript
588:   FUNC GLOBAL DEFAULT 14 _ZNK7android12renderscrip
589:   FUNC GLOBAL DEFAULT 14 rsAllocationCopyToBitmap
590:   FUNC GLOBAL DEFAULT 14 __aeabi_memclr
591:   FUNC GLOBAL DEFAULT 14 _ZN7android12renderscript
592:   FUNC GLOBAL DEFAULT 14 _ZN7android12renderscript
593:   FUNC GLOBAL DEFAULT 14 _ZN7android12renderscript
594:   FUNC GLOBAL DEFAULT 14 _ZN7android12renderscript
595:   FUNC GLOBAL DEFAULT 14 _ZN7android12renderscript
596:   FUNC GLOBAL DEFAULT 14 _ZN7android12renderscript
597:   FUNC GLOBAL DEFAULT 14 _ZN7android12renderscript
598:   FUNC GLOBAL DEFAULT 14 _ZN7android12renderscript
599:   FUNC GLOBAL DEFAULT 14 _ZN7android12renderscript
600:   FUNC GLOBAL DEFAULT 14 _ZN7android12renderscript
601:   FUNC GLOBAL DEFAULT 14 _ZN7android12renderscript
602:   FUNC GLOBAL DEFAULT 14 _ZN7android12renderscript
603:   FUNC GLOBAL DEFAULT 14 _ZN7android12renderscript
604:   FUNC GLOBAL DEFAULT 14 _ZN7android12renderscript
605:   FUNC WEAK DEFAULT 14 _ZNSt3__16vectorIPKN7andr
606:   FUNC GLOBAL DEFAULT 14 _ZN7android12renderscript
607:   OBJECT GLOBAL DEFAULT 18 _ZTVN7android12renderscri
608:   FUNC GLOBAL DEFAULT 14 _ZN7android12renderscript
609:   FUNC GLOBAL DEFAULT 14 _ZNK7android12renderscrip
610:   FUNC GLOBAL DEFAULT 14 _ZN7android12renderscript
611:   FUNC GLOBAL DEFAULT 14 _ZNK7android12renderscrip
612:   FUNC GLOBAL DEFAULT 14 _ZN7android12renderscript
613:   FUNC GLOBAL DEFAULT 14 _ZN7android12renderscript
614:   FUNC GLOBAL DEFAULT 14 __divdi3
615:   FUNC GLOBAL DEFAULT 14 _ZNK7android12renderscrip
616:   FUNC GLOBAL DEFAULT 14 _ZN7android12renderscript
617:   FUNC GLOBAL DEFAULT 14 __divmoddi4
618:   FUNC GLOBAL DEFAULT 14 _ZNK7android12renderscrip
619:   FUNC GLOBAL DEFAULT 14 _ZN7android12renderscript
620:   FUNC GLOBAL DEFAULT 14 _ZN7android12renderscript
621:   FUNC GLOBAL DEFAULT 14 _Z25rsaFileA3DGetEntryByI
622:   FUNC GLOBAL DEFAULT 14 _ZN7android12renderscript
623:   FUNC GLOBAL DEFAULT 14 _ZN7android12renderscript
624:   FUNC GLOBAL DEFAULT 14 _ZN7android12renderscript
625:   FUNC GLOBAL DEFAULT 14 _ZN7android12renderscript
626:   OBJECT GLOBAL DEFAULT 18 _ZTVN7android12renderscri
627:   FUNC GLOBAL DEFAULT 14 _ZN7android12renderscript
628:   FUNC GLOBAL DEFAULT 14 rsAllocationGenerateMipma
629:   FUNC GLOBAL DEFAULT 14 rsScriptForEachMulti
630:   FUNC GLOBAL DEFAULT 14 _ZN7android12renderscript
631:   FUNC WEAK DEFAULT 14 _ZNSt3__124__put_characte
632:   FUNC GLOBAL DEFAULT 14 _ZN7android12renderscript
633:   FUNC GLOBAL DEFAULT 14 _ZN7android12renderscript
634:   FUNC GLOBAL DEFAULT 14 _ZN7android12renderscript
635:   FUNC GLOBAL DEFAULT 14 _ZN7android12renderscript
636:   FUNC GLOBAL DEFAULT 14 _ZN7android12renderscript
637:   FUNC GLOBAL DEFAULT 14 _ZN7android12renderscript
638:   FUNC GLOBAL DEFAULT 14 _ZN7android12renderscript
639:   FUNC GLOBAL DEFAULT 14 rsContextDestroy
640:   FUNC GLOBAL DEFAULT 14 _ZN7android12renderscript
641:   FUNC GLOBAL DEFAULT 14 _ZN7android12renderscript
642:   FUNC GLOBAL DEFAULT 14 _ZN7android12renderscript
643:   FUNC GLOBAL DEFAULT 14 _ZN7android12renderscript
644:   FUNC GLOBAL DEFAULT 14 _ZN7android12renderscript
645:   FUNC GLOBAL DEFAULT 14 rsAllocationIoSend
646:   FUNC GLOBAL DEFAULT 14 _ZN7android12renderscript
647:   FUNC GLOBAL DEFAULT 14 _ZN7android12renderscript
648:   FUNC GLOBAL DEFAULT 14 _ZN7android12renderscript
649:   FUNC GLOBAL DEFAULT 14 _ZN7android12renderscript
650:   FUNC GLOBAL DEFAULT 14 _ZN7android12renderscript
651:   FUNC GLOBAL DEFAULT 14 _ZN7android12renderscript
652:   FUNC GLOBAL DEFAULT 14 _ZN7android12renderscript
653:   FUNC GLOBAL DEFAULT 14 _ZN7android12renderscript
654:   FUNC GLOBAL DEFAULT 14 __aeabi_memset4
655:   FUNC GLOBAL DEFAULT 14 _ZNK7android12renderscrip
656:   FUNC GLOBAL DEFAULT 14 _Z27rsaMeshGetVertexBuffe
657:   FUNC GLOBAL DEFAULT 14 _ZN7android12renderscript
658:   FUNC GLOBAL DEFAULT 14 _ZN7android12renderscript
659:   FUNC GLOBAL DEFAULT 14 _ZN7android12renderscript
660:   FUNC GLOBAL DEFAULT 14 _ZN7android12renderscript
661:   FUNC GLOBAL DEFAULT 14 _ZN7android12renderscript
662:   FUNC GLOBAL DEFAULT 14 _ZN7android12renderscript
663:   FUNC GLOBAL DEFAULT 14 _ZN7android12renderscript
664:   FUNC GLOBAL DEFAULT 14 _ZN7android12renderscript
665:   FUNC GLOBAL DEFAULT 14 __aeabi_memset8
666:   FUNC GLOBAL DEFAULT 14 _ZN7android12renderscript
667:   FUNC GLOBAL DEFAULT 14 _ZNK7android12renderscrip
668:   FUNC GLOBAL DEFAULT 14 _ZN7android12renderscript
669:   FUNC GLOBAL DEFAULT 14 _ZN7android12renderscript
670:   FUNC GLOBAL DEFAULT 14 _ZN7android12renderscript
671:   FUNC GLOBAL DEFAULT 14 _ZN7android12renderscript
672:   FUNC GLOBAL DEFAULT 14 _ZN7android12renderscript
673:   FUNC GLOBAL DEFAULT 14 _ZN7android12renderscript
674:   FUNC GLOBAL DEFAULT 14 _ZN7android12renderscript
675:   FUNC GLOBAL DEFAULT 14 _ZN7android12renderscript
676:   FUNC GLOBAL DEFAULT 14 _ZN7android12renderscript
677:   FUNC GLOBAL DEFAULT 14 _ZN7android12renderscript
678:   FUNC WEAK DEFAULT 14 _ZNK7android12SortedVecto
679:   OBJECT GLOBAL DEFAULT 18 _ZTVN7android12renderscri
680:   FUNC GLOBAL DEFAULT 14 _ZN7android12renderscript
681:   FUNC GLOBAL DEFAULT 14 _ZN7android12renderscript
682:   FUNC WEAK DEFAULT 14 _ZNK7android12SortedVecto
683:   FUNC GLOBAL DEFAULT 14 _ZN7android12renderscript
684:   FUNC GLOBAL DEFAULT 14 _ZN7android12renderscript
685:   FUNC GLOBAL DEFAULT 14 rsAllocationElementData
686:   FUNC GLOBAL DEFAULT 14 _ZN7android12renderscript
687:   FUNC GLOBAL DEFAULT 14 rsaContextSetNativeLibDir
688:   FUNC GLOBAL DEFAULT 14 _ZN7android12renderscript
689:   FUNC GLOBAL DEFAULT 14 _ZN7android12renderscript
690:   FUNC GLOBAL DEFAULT 14 _Z17rsaMeshGetIndicesPvS_
691:   FUNC GLOBAL DEFAULT 14 _ZN7android12renderscript
692:   FUNC GLOBAL DEFAULT 14 _ZN7android12renderscript
693:   FUNC GLOBAL DEFAULT 14 _ZN7android12renderscript
694:   FUNC GLOBAL DEFAULT 14 _ZN7android12renderscript
695:   OBJECT GLOBAL DEFAULT 18 _ZTVN7android12renderscri
696:   FUNC GLOBAL DEFAULT 14 rsMeshCreate
697:   FUNC GLOBAL DEFAULT 14 _ZN7android12renderscript
698:   FUNC GLOBAL DEFAULT 14 _ZN7android12renderscript
699:   FUNC GLOBAL DEFAULT 14 _ZN7android12renderscript
700:   FUNC GLOBAL DEFAULT 14 _ZN7android12renderscript
701:   FUNC GLOBAL DEFAULT 14 _ZN7android12renderscript
702:   FUNC GLOBAL DEFAULT 14 _ZN7android12renderscript
703:   FUNC GLOBAL DEFAULT 14 _ZN7android12renderscript
704:   FUNC GLOBAL DEFAULT 14 _ZN7android12renderscript
705:   FUNC GLOBAL DEFAULT 14 _ZN7android12renderscript
706:   FUNC GLOBAL DEFAULT 14 _ZN7android12renderscript
707:   OBJECT WEAK DEFAULT 18 _ZTCNSt3__118basic_string
708:   FUNC GLOBAL DEFAULT 14 _ZN7android12renderscript
709:   FUNC GLOBAL DEFAULT 14 _ZN7android12renderscript
710:   FUNC GLOBAL DEFAULT 14 _ZN7android12renderscript
711:   FUNC GLOBAL DEFAULT 14 _ZN7android12renderscript
712:   FUNC GLOBAL DEFAULT 14 _ZN7android12renderscript
713:   FUNC GLOBAL DEFAULT 14 _ZN7android12renderscript
714:   FUNC GLOBAL DEFAULT 14 _ZN7android12renderscript
715:   OBJECT GLOBAL DEFAULT 22 _ZN7android12renderscript
716:   OBJECT GLOBAL DEFAULT 22 _ZN7android12renderscript
717:   FUNC GLOBAL DEFAULT 14 _ZN7android12renderscript
718:   FUNC GLOBAL DEFAULT 14 _ZN7android12renderscript
719:   FUNC GLOBAL DEFAULT 14 rsProgramVertexCreate
720:   FUNC GLOBAL DEFAULT 14 _ZN7android12renderscript
721:   FUNC GLOBAL DEFAULT 14 _ZN7android12renderscript
722:   FUNC GLOBAL DEFAULT 14 _ZN7android12renderscript
723:   FUNC GLOBAL DEFAULT 14 _ZN7android12renderscript
724:   FUNC GLOBAL DEFAULT 14 _ZN7android12renderscript
725:   OBJECT GLOBAL DEFAULT 18 _ZTVN7android12renderscri
726:   FUNC GLOBAL DEFAULT 14 _ZN7android12renderscript
727:   FUNC GLOBAL DEFAULT 14 _ZN7android12renderscript
728:   FUNC GLOBAL DEFAULT 14 _ZN7android12renderscript
729:   FUNC GLOBAL DEFAULT 14 _ZN7android12renderscript
730:   FUNC GLOBAL DEFAULT 14 _ZN7android12renderscript
731:   FUNC GLOBAL DEFAULT 14 _ZN7android12renderscript
732:   FUNC GLOBAL DEFAULT 14 _ZN7android12renderscript
733:   FUNC GLOBAL DEFAULT 14 rsProgramBindTexture
734:   FUNC GLOBAL DEFAULT 14 _ZN7android12renderscript
735:   FUNC GLOBAL DEFAULT 14 _ZNK7android12renderscrip
736:   FUNC GLOBAL DEFAULT 14 _ZN7android12renderscript
737:   FUNC GLOBAL DEFAULT 14 _ZN7android12renderscript
738:   FUNC GLOBAL DEFAULT 14 rsProgramBindSampler
739:   FUNC GLOBAL DEFAULT 14 rsScriptSetVarVE
740:   FUNC GLOBAL DEFAULT 14 _ZN7android12renderscript
741:   FUNC GLOBAL DEFAULT 14 _ZN7android12renderscript
742:   FUNC GLOBAL DEFAULT 14 _ZN7android12renderscript
743:   FUNC GLOBAL DEFAULT 14 _ZNK7android12renderscrip
744:   FUNC GLOBAL DEFAULT 14 _ZN7android12renderscript
745:   FUNC GLOBAL DEFAULT 14 _ZN7android12renderscript
746:   FUNC GLOBAL DEFAULT 14 _ZN7android12renderscript
747:   FUNC GLOBAL DEFAULT 14 _ZN7android12renderscript
748:   FUNC GLOBAL DEFAULT 14 _ZN7android12renderscript
749:   FUNC GLOBAL DEFAULT 14 rsContextBindRootScript
750:   FUNC GLOBAL DEFAULT 14 rsContextInitToClient
751:   FUNC GLOBAL DEFAULT 14 _ZN7android12renderscript
752:   FUNC GLOBAL DEFAULT 14 _ZN7android12renderscript
753:   FUNC GLOBAL DEFAULT 14 _ZN7android12renderscript
754:   FUNC GLOBAL DEFAULT 14 _ZN7android12renderscript
755:   OBJECT WEAK DEFAULT 18 _ZTCNSt3__118basic_string
756:   FUNC GLOBAL DEFAULT 14 _ZN7android12renderscript
757:   FUNC GLOBAL DEFAULT 14 _ZNK7android12renderscrip
758:   FUNC GLOBAL DEFAULT 14 _ZNK7android12renderscrip
759:   FUNC GLOBAL DEFAULT 14 _ZN7android12renderscript
760:   FUNC WEAK DEFAULT 14 _ZNSt3__16vectorIPN7andro
761:   FUNC GLOBAL DEFAULT 14 _ZN7android12renderscript
762:   FUNC GLOBAL DEFAULT 14 _ZN7android12renderscript
763:   FUNC GLOBAL DEFAULT 14 rsScriptGroupExecute
764:   FUNC GLOBAL DEFAULT 14 _ZN7android12renderscript
765:   FUNC GLOBAL DEFAULT 14 _ZNK7android12renderscrip
766:   FUNC GLOBAL DEFAULT 14 _ZN7android12renderscript
767:   FUNC WEAK DEFAULT 14 _ZNSt3__16__sortIRN7andro
768:   FUNC GLOBAL DEFAULT 14 _ZN7android12renderscript
769:   FUNC GLOBAL DEFAULT 14 _ZN7android12renderscript
770:   FUNC GLOBAL DEFAULT 14 rsScriptGroupSetOutput
771:   FUNC GLOBAL DEFAULT 14 _ZN7android12renderscript
772:   FUNC GLOBAL DEFAULT 14 _ZN7android12renderscript
773:   FUNC GLOBAL DEFAULT 14 _ZN7android12renderscript
774:   FUNC GLOBAL DEFAULT 14 rsAllocationCopy2DRange
775:   FUNC GLOBAL DEFAULT 14 rsScriptIntrinsicCreate
776:   FUNC WEAK DEFAULT 14 _ZNK7android12SortedVecto
777:   FUNC GLOBAL DEFAULT 14 _ZN7android12renderscript
778:   FUNC WEAK DEFAULT 14 _ZNSt3__115basic_stringbu
779:   FUNC GLOBAL DEFAULT 14 _ZN7android12renderscript
780:   FUNC GLOBAL DEFAULT 14 _ZNK7android12renderscrip
781:   FUNC GLOBAL DEFAULT 14 _ZN7android12renderscript
782:   FUNC GLOBAL DEFAULT 14 _ZN7android12renderscript
783:   FUNC GLOBAL DEFAULT 14 _ZN7android12renderscript
784:   FUNC GLOBAL DEFAULT 14 rsContextPause
785:   FUNC GLOBAL DEFAULT 14 _ZN7android12renderscript
786:   FUNC GLOBAL DEFAULT 14 _ZN7android12renderscript
787:   FUNC GLOBAL DEFAULT 14 _ZN7android12renderscript
788:   FUNC GLOBAL DEFAULT 14 _ZNK7android12renderscrip
789:   FUNC GLOBAL DEFAULT 14 _ZN7android12renderscript
790:   FUNC GLOBAL DEFAULT 14 _ZNK7android12renderscrip
791:   FUNC GLOBAL DEFAULT 14 _ZN7android12renderscript
792:   FUNC GLOBAL DEFAULT 14 __udivmodsi4
793:   FUNC GLOBAL DEFAULT 14 __floatdisf
794:   FUNC GLOBAL DEFAULT 14 _ZN7android12renderscript
795:   FUNC GLOBAL DEFAULT 14 _ZN7android12renderscript
796:   FUNC GLOBAL DEFAULT 14 _ZN7android12renderscript
797:   FUNC GLOBAL DEFAULT 14 rsContextResume
798:   FUNC GLOBAL DEFAULT 14 _ZN7android12renderscript
799:   FUNC GLOBAL DEFAULT 14 _ZN7android12renderscript
800:   FUNC GLOBAL DEFAULT 14 _ZN7android12renderscript
801:   FUNC GLOBAL DEFAULT 14 _ZN7android12renderscript
802:   FUNC GLOBAL DEFAULT 14 _ZN7android12renderscript
803:   FUNC GLOBAL DEFAULT 14 _ZN7android12renderscript
804:   FUNC GLOBAL DEFAULT 14 _ZN7android12renderscript
805:   FUNC GLOBAL DEFAULT 14 _ZN7android12renderscript
806:   FUNC GLOBAL DEFAULT 14 _ZN7android12renderscript
807:   FUNC GLOBAL DEFAULT 14 _ZN7android12renderscript
808:   FUNC GLOBAL DEFAULT 14 _ZN7android12renderscript
809:   FUNC WEAK DEFAULT 14 _ZNSt3__16vectorIPN7andro
810:   FUNC GLOBAL DEFAULT 14 _ZN7android12renderscript
811:   FUNC GLOBAL DEFAULT 14 _ZN7android12renderscript
812:   FUNC GLOBAL DEFAULT 14 _ZN7android12renderscript
813:   FUNC GLOBAL DEFAULT 14 _ZN7android12renderscript
814:   FUNC GLOBAL DEFAULT 14 _ZN7android12renderscript
815:   FUNC GLOBAL DEFAULT 14 _ZN7android12renderscript
816:   FUNC GLOBAL DEFAULT 14 _ZN7android12renderscript
817:   FUNC GLOBAL DEFAULT 14 _ZN7android12renderscript
818:   FUNC GLOBAL DEFAULT 14 _ZN7android12renderscript
819:   FUNC GLOBAL DEFAULT 14 _ZNK7android12renderscrip
820:   FUNC GLOBAL DEFAULT 14 _ZNK7android12renderscrip
821:   FUNC GLOBAL DEFAULT 14 _ZNK7android12renderscrip
822:   FUNC GLOBAL DEFAULT 14 _ZN7android12renderscript
823:   FUNC GLOBAL DEFAULT 14 _ZN7android12renderscript
824:   FUNC GLOBAL DEFAULT 14 __aeabi_memmove4
825:   FUNC GLOBAL DEFAULT 14 _ZNK7android12renderscrip
826:   OBJECT GLOBAL DEFAULT 18 _ZTVN7android12renderscri
827:   FUNC GLOBAL DEFAULT 14 _ZN7android12renderscript
828:   FUNC GLOBAL DEFAULT 14 _ZN7android12renderscript
829:   FUNC GLOBAL DEFAULT 14 _ZN7android12renderscript
830:   FUNC GLOBAL DEFAULT 14 _ZN7android12renderscript
831:   FUNC GLOBAL DEFAULT 14 _ZN7android12renderscript
832:   FUNC GLOBAL DEFAULT 14 _ZN7android12renderscript
833:   FUNC GLOBAL DEFAULT 14 _ZN7android12renderscript
834:   FUNC GLOBAL DEFAULT 14 _ZN7android12renderscript
835:   FUNC GLOBAL DEFAULT 14 _ZN7android12renderscript
836:   FUNC GLOBAL DEFAULT 14 _ZN7android12renderscript
837:   OBJECT GLOBAL DEFAULT 18 _ZTVN7android12renderscri
838:   FUNC WEAK DEFAULT 14 _ZNSt3__16vectorIPKN7andr
839:   FUNC GLOBAL DEFAULT 14 rsScriptGetVarV
840:   FUNC GLOBAL DEFAULT 14 __udivsi3
841:   FUNC GLOBAL DEFAULT 14 __aeabi_memmove8
842:   FUNC WEAK DEFAULT 14 _ZNSt3__17__sort4IRN7andr
843:   FUNC GLOBAL DEFAULT 14 rsProgramStoreCreate
844:   FUNC GLOBAL DEFAULT 14 _ZN7android12renderscript
845:   FUNC GLOBAL DEFAULT 14 __udivmoddi4
846:   FUNC GLOBAL DEFAULT 14 _ZN7android12renderscript
847:   FUNC GLOBAL DEFAULT 14 _ZN7android12renderscript
848:   FUNC WEAK DEFAULT 14 _ZNSt3__16vectorIN7androi
849:   FUNC GLOBAL DEFAULT 14 rsAllocation1DElementData
850:   FUNC GLOBAL DEFAULT 14 rsAllocationSetSurface
851:   FUNC GLOBAL DEFAULT 14 _ZN7android12renderscript
852:   FUNC GLOBAL DEFAULT 14 _ZN7android12renderscript
853:   FUNC GLOBAL DEFAULT 14 _ZN7android12renderscript
854:   FUNC GLOBAL DEFAULT 14 _ZNK7android12renderscrip
855:   FUNC GLOBAL DEFAULT 14 __floatundidf
856:   FUNC GLOBAL DEFAULT 14 _ZN7android12renderscript
857:   FUNC GLOBAL DEFAULT 14 __aeabi_uidivmod
858:   FUNC GLOBAL DEFAULT 14 _ZN7android12renderscript
859:   FUNC GLOBAL DEFAULT 14 _ZN7android12renderscript
860:   FUNC GLOBAL DEFAULT 14 _ZN7android12renderscript
861:   FUNC GLOBAL DEFAULT 14 _ZN7android12renderscript
862:   FUNC GLOBAL DEFAULT 14 _ZN7android12renderscript
863:   FUNC GLOBAL DEFAULT 14 _ZN7android12renderscript
864:   FUNC GLOBAL DEFAULT 14 _ZN7android12renderscript
865:   FUNC GLOBAL DEFAULT 14 _ZN7android12renderscript
866:   FUNC GLOBAL DEFAULT 14 _ZN7android12renderscript
867:   FUNC GLOBAL DEFAULT 14 _ZN7android12renderscript
868:   FUNC WEAK DEFAULT 14 _ZNSt3__127__insertion_so
869:   FUNC GLOBAL DEFAULT 14 _ZN7android12renderscript
870:   FUNC GLOBAL DEFAULT 14 _ZN7android12renderscript
871:   FUNC GLOBAL DEFAULT 14 _ZN7android12renderscript
872:   FUNC GLOBAL DEFAULT 14 _ZN7android12renderscript
873:   FUNC GLOBAL DEFAULT 14 _ZN7android12renderscript
874:   FUNC GLOBAL DEFAULT 14 _ZN7android12renderscript
875:   FUNC GLOBAL DEFAULT 14 _ZN7android12renderscript
876:   FUNC GLOBAL DEFAULT 14 _ZN7android12renderscript
877:   FUNC GLOBAL DEFAULT 14 _ZN7android12renderscript
878:   FUNC WEAK DEFAULT 14 _ZNSt3__16vectorIN7androi
879:   FUNC GLOBAL DEFAULT 14 _ZN7android12renderscript
880:   FUNC GLOBAL DEFAULT 14 _ZN7android12renderscript
881:   FUNC GLOBAL DEFAULT 14 _ZN7android12renderscript
882:   FUNC GLOBAL DEFAULT 14 _ZN7android12renderscript
883:   FUNC GLOBAL DEFAULT 14 _ZNK7android12renderscrip
884:   FUNC GLOBAL DEFAULT 14 _ZN7android12renderscript
885:   FUNC GLOBAL DEFAULT 14 _ZN7android12renderscript
886:   FUNC GLOBAL DEFAULT 14 _ZN7android12renderscript
887:   FUNC GLOBAL DEFAULT 14 __aeabi_memcpy4
888:   FUNC GLOBAL DEFAULT 14 _ZN7android12renderscript
889:   FUNC GLOBAL DEFAULT 14 _ZN7android12renderscript
890:   FUNC GLOBAL DEFAULT 14 _Z25rsaFileA3DGetIndexEnt
891:   FUNC GLOBAL DEFAULT 14 _ZN7android12renderscript
892:   FUNC GLOBAL DEFAULT 14 _ZN7android12renderscript
893:   FUNC GLOBAL DEFAULT 14 _ZN7android12renderscript
894:   FUNC GLOBAL DEFAULT 14 _ZN7android12renderscript
895:   FUNC GLOBAL DEFAULT 14 rsAllocationGetSurface
896:   FUNC GLOBAL DEFAULT 14 _ZN7android12renderscript
897:   FUNC GLOBAL DEFAULT 14 _ZN7android12renderscript
898:   FUNC GLOBAL DEFAULT 14 _ZN7android12renderscript
899:   FUNC GLOBAL DEFAULT 14 rsContextSendMessage
900:   FUNC GLOBAL DEFAULT 14 rsContextSetCacheDir
901:   FUNC GLOBAL DEFAULT 14 _Z25rsaFileA3DCreateFromA
902:   FUNC GLOBAL DEFAULT 14 _ZN7android12renderscript
903:   FUNC GLOBAL DEFAULT 14 _ZN7android12renderscript
904:   FUNC GLOBAL DEFAULT 14 _ZN7android12renderscript
905:   FUNC GLOBAL DEFAULT 14 __aeabi_memcpy8
906:   FUNC GLOBAL DEFAULT 14 _ZN7android12renderscript
907:   FUNC GLOBAL DEFAULT 14 _ZNK7android12renderscrip
908:   FUNC WEAK DEFAULT 14 _ZNK7android12SortedVecto
909:   FUNC GLOBAL DEFAULT 14 _ZNK7android12renderscrip
910:   FUNC WEAK DEFAULT 14 _ZNSt3__16vectorIPN7andro
911:   FUNC GLOBAL DEFAULT 14 _ZN7android12renderscript
912:   FUNC GLOBAL DEFAULT 14 _ZN7android12renderscript
913:   FUNC GLOBAL DEFAULT 14 _ZNK7android12renderscrip
914:   FUNC GLOBAL DEFAULT 14 _ZN7android12renderscript
915:   FUNC GLOBAL DEFAULT 14 _ZN7android12renderscript
916:   FUNC GLOBAL DEFAULT 14 rsProgramFragmentCreate
917:   FUNC GLOBAL DEFAULT 14 _ZN7android12renderscript
918:   FUNC GLOBAL DEFAULT 14 _ZN7android12renderscript
919:   FUNC GLOBAL DEFAULT 14 _ZNK7android12renderscrip
920:   FUNC GLOBAL DEFAULT 14 __aeabi_ldivmod
921:   FUNC GLOBAL DEFAULT 14 _ZN7android12renderscript
922:   FUNC GLOBAL DEFAULT 14 rsDeviceSetConfig
923:   FUNC GLOBAL DEFAULT 14 _ZN7android12renderscript
924:   FUNC GLOBAL DEFAULT 14 _ZN7android12renderscript
925:   FUNC GLOBAL DEFAULT 14 rsAllocationRead
926:   FUNC GLOBAL DEFAULT 14 _ZN7android12renderscript
927:   FUNC GLOBAL DEFAULT 14 _ZN7android12renderscript
928:   FUNC GLOBAL DEFAULT 14 _ZN7android12renderscript
929:   FUNC GLOBAL DEFAULT 14 _ZN7android12renderscript
930:   FUNC GLOBAL DEFAULT 14 _ZN7android12renderscript
931:   FUNC GLOBAL DEFAULT 14 _ZN7android12renderscript
932:   FUNC WEAK DEFAULT 14 _ZNSt3__115basic_stringbu
933:   FUNC GLOBAL DEFAULT 14 _ZN7android12renderscript
934:   FUNC WEAK DEFAULT 14 _ZNSt3__16vectorIPN7andro
935:   FUNC GLOBAL DEFAULT 14 _ZN7android12renderscript
936:   FUNC GLOBAL DEFAULT 14 _ZN7android12renderscript
937:   FUNC GLOBAL DEFAULT 14 _ZN7android12renderscript
938:   FUNC GLOBAL DEFAULT 14 _ZN7android12renderscript
939:   FUNC GLOBAL DEFAULT 14 _ZN7android12renderscript
940:   OBJECT GLOBAL DEFAULT 18 _ZTVN7android12renderscri
941:   FUNC GLOBAL DEFAULT 14 rsAllocationElementRead
942:   FUNC GLOBAL DEFAULT 14 rsScriptGroup2Create
943:   FUNC GLOBAL DEFAULT 14 _ZN7android12renderscript
944:   FUNC GLOBAL DEFAULT 14 _ZN7android12renderscript
945:   FUNC GLOBAL DEFAULT 14 _ZN7android12renderscript
946:   FUNC GLOBAL DEFAULT 14 _ZN7android12renderscript
947:   FUNC GLOBAL DEFAULT 14 _ZN7android12renderscript
948:   FUNC GLOBAL DEFAULT 14 _ZNK7android12renderscrip
949:   FUNC GLOBAL DEFAULT 14 _ZN7android12renderscript
950:   FUNC GLOBAL DEFAULT 14 _ZN7android12renderscript
951:   FUNC GLOBAL DEFAULT 14 rsContextPeekMessage
952:   FUNC GLOBAL DEFAULT 14 _ZN7android12renderscript
953:   FUNC GLOBAL DEFAULT 14 _Z26rsaFileA3DCreateFromM
954:   FUNC GLOBAL DEFAULT 14 _ZN7android12renderscript
955:   FUNC GLOBAL DEFAULT 14 _ZN7android12renderscript
956:   FUNC GLOBAL DEFAULT 14 _ZN7android12renderscript
957:   FUNC GLOBAL DEFAULT 14 _ZN7android12renderscript
958:   FUNC GLOBAL DEFAULT 14 _ZN7android12renderscript
959:   FUNC GLOBAL DEFAULT 14 _ZN7android12renderscript
960:   FUNC GLOBAL DEFAULT 14 _ZN7android12renderscript
961:   FUNC GLOBAL DEFAULT 14 _ZN7android12renderscript
962:   FUNC GLOBAL DEFAULT 14 _ZN7android12renderscript
963:   FUNC GLOBAL DEFAULT 14 _ZN7android12renderscript
964:   FUNC GLOBAL DEFAULT 14 _ZN7android12renderscript
965:   FUNC GLOBAL DEFAULT 14 _ZNK7android12renderscrip
966:   FUNC GLOBAL DEFAULT 14 rsContextSetPriority
967:   FUNC GLOBAL DEFAULT 14 _ZNK7android12renderscrip
968:   FUNC GLOBAL DEFAULT 14 _ZN7android12renderscript
969:   FUNC GLOBAL DEFAULT 14 _ZN7android12renderscript
970:   FUNC GLOBAL DEFAULT 14 _ZN7android12renderscript
971:   FUNC GLOBAL DEFAULT 14 _ZNK7android12renderscrip
972:   FUNC GLOBAL DEFAULT 14 _ZN7android12renderscript
973:   FUNC GLOBAL DEFAULT 14 rsaElementGetSubElements
974:   FUNC GLOBAL DEFAULT 14 _ZN7android12renderscript
975:   FUNC GLOBAL DEFAULT 14 _ZN7android12renderscript
976:   FUNC GLOBAL DEFAULT 14 _ZN7android12renderscript
977:   FUNC GLOBAL DEFAULT 14 rsScriptSetVarD
978:   FUNC GLOBAL DEFAULT 14 _ZN7android12renderscript
979:   FUNC GLOBAL DEFAULT 14 _ZN7android12renderscript
980:   FUNC GLOBAL DEFAULT 14 _ZN7android12renderscript
981:   FUNC GLOBAL DEFAULT 14 _ZN7android12renderscript
982:   FUNC GLOBAL DEFAULT 14 _ZN7android12renderscript
983:   FUNC GLOBAL DEFAULT 14 _ZN7android12renderscript
984:   FUNC GLOBAL DEFAULT 14 _ZN7android12renderscript
985:   FUNC GLOBAL DEFAULT 14 _ZN7android12renderscript
986:   FUNC GLOBAL DEFAULT 14 _ZN7android12renderscript
987:   FUNC GLOBAL DEFAULT 14 rsScriptSetVarF
988:   FUNC GLOBAL DEFAULT 14 _ZNK7android12renderscrip
989:   FUNC GLOBAL DEFAULT 14 _ZN7android12renderscript
990:   FUNC GLOBAL DEFAULT 14 _ZN7android12renderscript
991:   FUNC GLOBAL DEFAULT 14 _ZN7android12renderscript
992:   FUNC GLOBAL DEFAULT 14 _ZN7android12renderscript
993:   FUNC GLOBAL DEFAULT 14 _ZNK7android12renderscrip
994:   FUNC GLOBAL DEFAULT 14 _ZN7android12renderscript
995:   FUNC GLOBAL DEFAULT 14 _ZN7android12renderscript
996:   FUNC GLOBAL DEFAULT 14 _ZN7android12renderscript
997:   FUNC GLOBAL DEFAULT 14 rsScriptSetVarI
998:   FUNC GLOBAL DEFAULT 14 rsScriptSetVarJ
999:   FUNC GLOBAL DEFAULT 14 _ZN7android12renderscript
1000:   FUNC GLOBAL DEFAULT 14 _ZN7android12renderscript
1001:   FUNC GLOBAL DEFAULT 14 rsObjDestroy
1002:   FUNC GLOBAL DEFAULT 14 _ZN7android12renderscript
1003:   FUNC GLOBAL DEFAULT 14 _ZN7android12renderscript
1004:   FUNC GLOBAL DEFAULT 14 _ZN7android12renderscript
1005:   FUNC GLOBAL DEFAULT 14 _ZN7android12renderscript
1006:   FUNC GLOBAL DEFAULT 14 _ZN7android12renderscript
1007:   FUNC GLOBAL DEFAULT 14 _ZN7android12renderscript
1008:   FUNC GLOBAL DEFAULT 14 _ZN7android12renderscript
1009:   OBJECT WEAK DEFAULT 18 _ZTVN7android12SortedVect
1010:   FUNC GLOBAL DEFAULT 14 rsAllocationGetPointer
1011:   FUNC GLOBAL DEFAULT 14 _ZN7android12renderscript
1012:   OBJECT GLOBAL DEFAULT 18 _ZTVN7android12renderscri
1013:   FUNC GLOBAL DEFAULT 14 _ZN7android12renderscript
1014:   FUNC GLOBAL DEFAULT 14 _ZN7android12renderscript
1015:   FUNC GLOBAL DEFAULT 14 _ZN7android12renderscript
1016:   OBJECT GLOBAL DEFAULT 22 _ZN7android12renderscript
1017:   FUNC GLOBAL DEFAULT 14 _ZN7android12renderscript
1018:   FUNC GLOBAL DEFAULT 14 _ZN7android12renderscript
1019:   FUNC GLOBAL DEFAULT 14 _ZN7android12renderscript
1020:   FUNC GLOBAL DEFAULT 14 _ZN7android12renderscript
1021:   FUNC GLOBAL DEFAULT 14 _ZN7android12renderscript
1022:   FUNC GLOBAL DEFAULT 14 _ZN7android12renderscript
1023:   FUNC WEAK DEFAULT 14 _ZNK7android12SortedVecto
1024:   FUNC GLOBAL DEFAULT 14 rsDeviceCreate
1025:   FUNC GLOBAL DEFAULT 14 _Z24rsaFileA3DCreateFromF
1026:   FUNC GLOBAL DEFAULT 14 _ZN7android12renderscript
1027:   FUNC GLOBAL DEFAULT 14 _ZN7android12renderscript
1028:   FUNC GLOBAL DEFAULT 14 _ZN7android12renderscript
1029:   FUNC GLOBAL DEFAULT 14 _ZNK7android12renderscrip
1030:   FUNC GLOBAL DEFAULT 14 _ZN7android12renderscript
1031:   FUNC GLOBAL DEFAULT 14 _ZN7android12renderscript
1032:   FUNC GLOBAL DEFAULT 14 _ZN7android12renderscript
1033:   FUNC GLOBAL DEFAULT 14 _ZN7android12renderscript
1034:   FUNC GLOBAL DEFAULT 14 _ZN7android12renderscript
1035:   FUNC GLOBAL DEFAULT 14 rsAllocation3DData
1036:   FUNC GLOBAL DEFAULT 14 _ZN7android12renderscript
1037:   FUNC GLOBAL DEFAULT 14 _ZN7android12renderscript
1038:   FUNC GLOBAL DEFAULT 14 _ZN7android12renderscript
1039:   FUNC GLOBAL DEFAULT 14 __aeabi_memmove
1040:   FUNC GLOBAL DEFAULT 14 _ZN7android12renderscript
1041:   FUNC GLOBAL DEFAULT 14 _ZN7android12renderscript
1042:   FUNC GLOBAL DEFAULT 14 rsScriptSetVarV
1043:   FUNC GLOBAL DEFAULT 14 _ZN7android12renderscript
1044:   FUNC GLOBAL DEFAULT 14 _ZN7android12renderscript
1045:   FUNC GLOBAL DEFAULT 14 __aeabi_memset
1046:   FUNC GLOBAL DEFAULT 14 rsDeviceDestroy
1047:   FUNC GLOBAL DEFAULT 14 _ZN7android12renderscript
1048:   FUNC GLOBAL DEFAULT 14 _ZN7android12renderscript
1049:   FUNC GLOBAL DEFAULT 14 _ZN7android12renderscript
1050:   OBJECT GLOBAL DEFAULT 18 _ZTVN7android12renderscri
1051:   FUNC GLOBAL DEFAULT 14 _ZN7android12renderscript
1052:   FUNC GLOBAL DEFAULT 14 _ZN7android12renderscript
1053:   FUNC GLOBAL DEFAULT 14 _ZN7android12renderscript
1054:   FUNC GLOBAL DEFAULT 14 rsScriptKernelIDCreate
1055:   FUNC GLOBAL DEFAULT 14 _ZN7android12renderscript
1056:   FUNC GLOBAL DEFAULT 14 _ZNK7android12renderscrip
1057:   FUNC GLOBAL DEFAULT 14 _ZN7android12renderscript
1058:   FUNC GLOBAL DEFAULT 14 _ZN7android12renderscript
1059:   FUNC GLOBAL DEFAULT 14 _ZN7android12renderscript
1060:   FUNC GLOBAL DEFAULT 14 _ZN7android12renderscript
1061:   FUNC GLOBAL DEFAULT 14 _ZN7android12renderscript
1062:   FUNC GLOBAL DEFAULT 14 _ZNK7android12renderscrip
1063:   FUNC GLOBAL DEFAULT 14 _ZN7android12renderscript
1064:   FUNC GLOBAL DEFAULT 14 _ZN7android12renderscript
1065:   OBJECT GLOBAL DEFAULT 18 _ZTVN7android12renderscri
1066:   OBJECT WEAK DEFAULT 18 _ZTCNSt3__118basic_string
1067:   FUNC GLOBAL DEFAULT 14 rsElementCreate
1068:   FUNC GLOBAL DEFAULT 14 _Z20rsaMeshGetIndexCountP
1069:   FUNC GLOBAL DEFAULT 14 _ZN7android12renderscript
1070:   FUNC GLOBAL DEFAULT 14 _ZN7android12renderscript
1071:   FUNC GLOBAL DEFAULT 14 _ZN7android12renderscript
1072:   FUNC GLOBAL DEFAULT 14 rsScriptInvokeV
1073:   FUNC GLOBAL DEFAULT 14 _ZN7android12renderscript
1074:   FUNC GLOBAL DEFAULT 14 _ZN7android12renderscript
1075:   FUNC GLOBAL DEFAULT 14 _ZN7android12renderscript
1076:   FUNC GLOBAL DEFAULT 14 rsContextBindProgramVerte
1077:   FUNC GLOBAL DEFAULT 14 _ZN7android12renderscript
1078:   FUNC GLOBAL DEFAULT 14 _ZN7android12renderscript
1079:   FUNC GLOBAL DEFAULT 14 _ZN7android12renderscript
1080:   FUNC WEAK DEFAULT 14 _ZNSt3__16vectorIPN7andro
1081:   FUNC GLOBAL DEFAULT 14 _ZN7android12renderscript
1082:   FUNC GLOBAL DEFAULT 14 _ZNK7android12renderscrip
1083:   FUNC GLOBAL DEFAULT 14 __aeabi_memclr4
1084:   FUNC GLOBAL DEFAULT 14 _ZN7android12renderscript
1085:   FUNC GLOBAL DEFAULT 14 rsAllocation2DData
1086:   FUNC GLOBAL DEFAULT 14 _ZN7android12renderscript
1087:   FUNC GLOBAL DEFAULT 14 _ZN7android12renderscript
1088:   FUNC GLOBAL DEFAULT 14 _ZN7android12renderscript
1089:   FUNC GLOBAL DEFAULT 14 _ZN7android12renderscript
1090:   FUNC GLOBAL DEFAULT 14 _ZNK7android12renderscrip
1091:   FUNC GLOBAL DEFAULT 14 _ZN7android12renderscript
1092:   FUNC GLOBAL DEFAULT 14 _ZNK7android12renderscrip
1093:   FUNC GLOBAL DEFAULT 14 _ZN7android12renderscript
1094:   FUNC GLOBAL DEFAULT 14 _ZN7android12renderscript
1095:   OBJECT GLOBAL DEFAULT 18 _ZTVN7android12renderscri
1096:   FUNC GLOBAL DEFAULT 14 _ZN7android12renderscript
1097:   FUNC GLOBAL DEFAULT 14 _ZNK7android12renderscrip
1098:   FUNC GLOBAL DEFAULT 14 _ZNK7android12renderscrip
1099:   FUNC GLOBAL DEFAULT 14 _ZN7android12renderscript
1100:   FUNC GLOBAL DEFAULT 14 _ZN7android12renderscript
1101:   FUNC GLOBAL DEFAULT 14 __aeabi_memclr8
1102:   FUNC GLOBAL DEFAULT 14 _ZN7android12renderscript
1103:   FUNC GLOBAL DEFAULT 14 _ZN7android12renderscript
1104:   FUNC WEAK DEFAULT 14 _ZNK7android12SortedVecto
1105:   FUNC GLOBAL DEFAULT 14 _ZN7android12renderscript
1106:   FUNC GLOBAL DEFAULT 14 _ZN7android12renderscript
1107:   FUNC GLOBAL DEFAULT 14 rsFontCreateFromFile
1108:   FUNC WEAK DEFAULT 14 _ZNK7android12SortedVecto
1109:   FUNC GLOBAL DEFAULT 14 _ZN7android12renderscript
1110:   FUNC GLOBAL DEFAULT 14 _ZN7android12renderscript
1111:   FUNC GLOBAL DEFAULT 14 _ZN7android12renderscript
1112:   FUNC GLOBAL DEFAULT 14 _ZN7android12renderscript
1113:   FUNC GLOBAL DEFAULT 14 _ZN7android12renderscript
1114:   FUNC GLOBAL DEFAULT 14 _ZN7android12renderscript
1115:   FUNC GLOBAL DEFAULT 14 _ZN7android12renderscript
1116:   FUNC GLOBAL DEFAULT 14 _ZN7android12renderscript
1117:   FUNC GLOBAL DEFAULT 14 _ZN7android12renderscript
1118:   FUNC GLOBAL DEFAULT 14 _ZN7android12renderscript
1119:   FUNC GLOBAL DEFAULT 14 _ZN7android12renderscript
1120:   OBJECT WEAK DEFAULT 18 _ZTTNSt3__118basic_string
1121:   FUNC GLOBAL DEFAULT 14 _ZN7android12renderscript
1122:   FUNC GLOBAL DEFAULT 14 _ZN7android12renderscript
1123:   FUNC GLOBAL DEFAULT 14 _ZN7android12renderscript
1124:   FUNC GLOBAL DEFAULT 14 _ZN7android12renderscript
1125:   FUNC GLOBAL DEFAULT 14 _ZN7android12renderscript
1126:   FUNC WEAK DEFAULT 14 _ZNSt3__115basic_stringbu
1127:   FUNC GLOBAL DEFAULT 14 _ZN7android12renderscript
1128:   FUNC GLOBAL DEFAULT 14 _ZN7android12renderscript
1129:   FUNC GLOBAL DEFAULT 14 _ZN7android12renderscript
1130:   FUNC GLOBAL DEFAULT 14 _ZN7android12renderscript
1131:   FUNC GLOBAL DEFAULT 14 _ZN7android12renderscript
1132:   FUNC GLOBAL DEFAULT 14 rsAllocation1DData
