 0x0000000e (SONAME)                     Library soname: [libstatslog.so]
  
Symbol   contains 332 entries:
Num:   Type Bind Vis Ndx Name
0:   NOTYPE LOCAL DEFAULT UND
1:   FUNC GLOBAL DEFAULT UND __cxa_atexit@LIBC (2)
2:   FUNC GLOBAL DEFAULT UND __cxa_finalize@LIBC (2)
3:   FUNC GLOBAL DEFAULT UND _ZN7android19elapsedRealt
4:   FUNC GLOBAL DEFAULT UND _ZNKSt3__120__vector_base
5:   FUNC GLOBAL DEFAULT UND _ZNSt3__111this_thread9sl
6:   FUNC GLOBAL DEFAULT UND _ZNSt3__15mutex4lockEv
7:   FUNC GLOBAL DEFAULT UND _ZNSt3__15mutex6unlockEv
8:   FUNC GLOBAL DEFAULT UND _ZNSt3__15mutexD1Ev
9:   FUNC GLOBAL DEFAULT UND _ZdlPv
10:   FUNC GLOBAL DEFAULT UND _Znwj
11:   FUNC GLOBAL DEFAULT UND __stack_chk_fail@LIBC (2)
12:   OBJECT GLOBAL DEFAULT UND __stack_chk_guard@LIBC (2)
13:   FUNC GLOBAL DEFAULT UND abort@LIBC (2)
14:   FUNC GLOBAL DEFAULT UND android_log_destroy@LIBLOG_M (3)
15:   FUNC GLOBAL DEFAULT UND android_log_write_float32@LIBLOG_M (3)
16:   FUNC GLOBAL DEFAULT UND android_log_write_int32@LIBLOG_M (3)
17:   FUNC GLOBAL DEFAULT UND android_log_write_int64@LIBLOG_M (3)
18:   FUNC GLOBAL DEFAULT UND android_log_write_list_be@LIBLOG_M (3)
19:   FUNC GLOBAL DEFAULT UND android_log_write_list_en@LIBLOG_M (3)
20:   FUNC GLOBAL DEFAULT UND android_log_write_string8@LIBLOG_M (3)
21:   FUNC GLOBAL DEFAULT UND create_android_logger@LIBLOG_M (3)
22:   FUNC GLOBAL DEFAULT UND property_get_bool
23:   FUNC GLOBAL DEFAULT UND __errno@LIBC (2)
24:   FUNC GLOBAL DEFAULT UND clock_gettime@LIBC (2)
25:   FUNC GLOBAL DEFAULT UND access@LIBC (2)
26:   FUNC GLOBAL DEFAULT UND close@LIBC (2)
27:   FUNC GLOBAL DEFAULT UND connect@LIBC (2)
28:   FUNC GLOBAL DEFAULT UND gettid@LIBC (2)
29:   FUNC GLOBAL DEFAULT UND pthread_mutex_lock@LIBC (2)
30:   FUNC GLOBAL DEFAULT UND pthread_mutex_trylock@LIBC (2)
31:   FUNC GLOBAL DEFAULT UND pthread_mutex_unlock@LIBC (2)
32:   FUNC GLOBAL DEFAULT UND setsockopt@LIBC (2)
33:   FUNC GLOBAL DEFAULT UND socket@LIBC (2)
34:   FUNC GLOBAL DEFAULT UND writev@LIBC (2)
35:   FUNC GLOBAL DEFAULT UND memcpy@LIBC (2)
36:   FUNC GLOBAL DEFAULT UND memmove@LIBC (2)
37:   FUNC GLOBAL DEFAULT UND memset@LIBC (2)
38:   FUNC GLOBAL DEFAULT 14 _ZN7android4util11stats_w
39:   FUNC GLOBAL DEFAULT 14 _ZN7android4util15try_sta
40:   FUNC GLOBAL DEFAULT 14 _ZN7android4util15try_sta
41:   FUNC GLOBAL DEFAULT 14 _ZN7android4util23stats_w
42:   FUNC GLOBAL DEFAULT 14 _ZN7android4util15try_sta
43:   FUNC GLOBAL DEFAULT 14 _ZN7android4util15try_sta
44:   OBJECT GLOBAL DEFAULT 16 statsdLoggerWrite
45:   FUNC GLOBAL DEFAULT 14 __aeabi_memset
46:   FUNC GLOBAL DEFAULT 14 _ZN7android4util11stats_w
47:   FUNC GLOBAL DEFAULT 14 _ZN7android4util11stats_w
48:   FUNC GLOBAL DEFAULT 14 _ZN7android4util11stats_w
49:   OBJECT GLOBAL DEFAULT 22 _ZN7android4util9AtomsInf
50:   FUNC GLOBAL DEFAULT 14 _ZN7android4util11stats_w
51:   FUNC GLOBAL DEFAULT 14 _ZN7android4util11stats_w
52:   FUNC GLOBAL DEFAULT 14 _ZN7android4util11stats_w
53:   FUNC GLOBAL DEFAULT 14 _ZN7android4util15try_sta
54:   FUNC GLOBAL DEFAULT 14 _ZN7android4util15try_sta
55:   FUNC WEAK DEFAULT 14 _ZNSt3__16__treeIiNS_4les
56:   FUNC GLOBAL DEFAULT 14 _ZN7android4util11stats_w
57:   FUNC GLOBAL DEFAULT 14 _ZN7android4util11stats_w
58:   FUNC GLOBAL DEFAULT 14 _ZN7android4util11stats_w
59:   FUNC GLOBAL DEFAULT 14 _ZN7android4util15try_sta
60:   FUNC GLOBAL DEFAULT 14 _ZN7android4util15try_sta
61:   FUNC GLOBAL DEFAULT 14 _ZN7android4util27try_sta
62:   FUNC GLOBAL DEFAULT 14 _ZN7android4util11stats_w
63:   FUNC GLOBAL DEFAULT 14 _ZN7android4util15try_sta
64:   FUNC WEAK DEFAULT 14 _ZNSt3__127__tree_balance
65:   FUNC GLOBAL DEFAULT 14 _ZN7android4util11stats_w
66:   OBJECT GLOBAL DEFAULT 16 write_to_statsd
67:   FUNC GLOBAL DEFAULT 14 _ZN7android4util11stats_w
68:   FUNC GLOBAL DEFAULT 14 _ZN7android4util11stats_w
69:   FUNC GLOBAL DEFAULT 14 _ZN7android4util11stats_w
70:   FUNC GLOBAL DEFAULT 14 _ZN7android4util27try_sta
71:   FUNC GLOBAL DEFAULT 14 _ZN7android4util11stats_w
72:   FUNC GLOBAL DEFAULT 14 _ZN7android4util15try_sta
73:   FUNC WEAK DEFAULT 14 _ZNSt3__16__treeINS_12__v
74:   FUNC GLOBAL DEFAULT 14 _ZN7android4util11stats_w
75:   FUNC GLOBAL DEFAULT 14 _ZN7android4util11stats_w
76:   FUNC GLOBAL DEFAULT 14 _ZN7android4util15try_sta
77:   FUNC GLOBAL DEFAULT 14 _ZN7android4util15try_sta
78:   FUNC GLOBAL DEFAULT 14 _ZN7android4util15try_sta
79:   FUNC GLOBAL DEFAULT 14 _ZN7android4util15try_sta
80:   FUNC GLOBAL DEFAULT 14 _ZN7android4util15try_sta
81:   FUNC GLOBAL DEFAULT 14 _ZN7android4util15try_sta
82:   FUNC GLOBAL DEFAULT 14 _ZN7android4util15try_sta
83:   FUNC GLOBAL DEFAULT 14 _ZN7android4util15try_sta
84:   FUNC GLOBAL DEFAULT 14 _ZN7android4util11stats_w
85:   FUNC GLOBAL DEFAULT 14 _ZN7android4util11stats_w
86:   FUNC GLOBAL DEFAULT 14 _ZN7android4util11stats_w
87:   FUNC GLOBAL DEFAULT 14 _ZN7android4util11stats_w
88:   FUNC GLOBAL DEFAULT 14 _ZN7android4util15try_sta
89:   FUNC GLOBAL DEFAULT 14 _ZN7android4util15try_sta
90:   FUNC GLOBAL DEFAULT 14 _ZN7android4util23stats_w
91:   FUNC GLOBAL DEFAULT 14 _ZN7android4util11stats_w
92:   FUNC GLOBAL DEFAULT 14 _ZN7android4util11stats_w
93:   FUNC GLOBAL DEFAULT 14 stats_write_list
94:   FUNC GLOBAL DEFAULT 14 _ZN7android4util11stats_w
95:   FUNC GLOBAL DEFAULT 14 _ZN7android4util11stats_w
96:   FUNC GLOBAL DEFAULT 14 _ZN7android4util15try_sta
97:   FUNC GLOBAL DEFAULT 14 _ZN7android4util15try_sta
98:   FUNC GLOBAL DEFAULT 14 _ZN7android4util27try_sta
99:   FUNC GLOBAL DEFAULT 14 _ZN7android4util11stats_w
100:   FUNC GLOBAL DEFAULT 14 _ZN7android4util11stats_w
101:   FUNC GLOBAL DEFAULT 14 _ZN7android4util11stats_w
102:   FUNC GLOBAL DEFAULT 14 _ZN7android4util11stats_w
103:   FUNC GLOBAL DEFAULT 14 _ZN7android4util11stats_w
104:   FUNC GLOBAL DEFAULT 14 _ZN7android4util11stats_w
105:   FUNC GLOBAL DEFAULT 14 _ZN7android4util11stats_w
106:   FUNC GLOBAL DEFAULT 14 _ZN7android4util15try_sta
107:   FUNC GLOBAL DEFAULT 14 _ZN7android4util15try_sta
108:   OBJECT GLOBAL DEFAULT 22 _ZN7android4util9AtomsInf
109:   FUNC GLOBAL DEFAULT 14 _ZN7android4util15try_sta
110:   FUNC GLOBAL DEFAULT 14 _ZN7android4util15try_sta
111:   FUNC GLOBAL DEFAULT 14 _ZN7android4util15try_sta
112:   FUNC GLOBAL DEFAULT 14 _ZN7android4util11stats_w
113:   FUNC GLOBAL DEFAULT 14 _ZN7android4util15try_sta
114:   FUNC GLOBAL DEFAULT 14 _ZN7android4util11stats_w
115:   FUNC GLOBAL DEFAULT 14 _ZN7android4util11stats_w
116:   FUNC GLOBAL DEFAULT 14 _ZN7android4util11stats_w
117:   FUNC GLOBAL DEFAULT 14 _ZN7android4util11stats_w
118:   FUNC GLOBAL DEFAULT 14 _ZN7android4util15try_sta
119:   FUNC GLOBAL DEFAULT 14 _ZN7android4util11stats_w
120:   FUNC GLOBAL DEFAULT 14 _ZN7android4util11stats_w
121:   FUNC GLOBAL DEFAULT 14 _ZN7android4util15try_sta
122:   FUNC GLOBAL DEFAULT 14 _ZN7android4util15try_sta
123:   FUNC GLOBAL DEFAULT 14 _ZN7android4util11stats_w
124:   FUNC GLOBAL DEFAULT 14 _ZN7android4util11stats_w
125:   FUNC GLOBAL DEFAULT 14 _ZN7android4util11stats_w
126:   FUNC GLOBAL DEFAULT 14 _ZN7android4util11stats_w
127:   FUNC GLOBAL DEFAULT 14 _ZN7android4util15try_sta
128:   FUNC GLOBAL DEFAULT 14 _ZN7android4util15try_sta
129:   FUNC GLOBAL DEFAULT 14 _ZN7android4util23stats_w
130:   FUNC WEAK DEFAULT 14 _ZNSt3__16vectorIiNS_9all
131:   FUNC GLOBAL DEFAULT 14 _ZN7android4util11stats_w
132:   FUNC GLOBAL DEFAULT 14 _ZN7android4util15try_sta
133:   FUNC GLOBAL DEFAULT 14 _ZN7android4util27try_sta
134:   FUNC GLOBAL DEFAULT 14 _ZN7android4util11stats_w
135:   FUNC GLOBAL DEFAULT 14 _ZN7android4util11stats_w
136:   FUNC GLOBAL DEFAULT 14 _ZN7android4util15try_sta
137:   FUNC GLOBAL DEFAULT 14 _ZN7android4util11stats_w
138:   FUNC GLOBAL DEFAULT 14 _ZN7android4util15try_sta
139:   FUNC GLOBAL DEFAULT 14 _ZN7android4util15try_sta
140:   FUNC GLOBAL DEFAULT 14 _ZN7android4util11stats_w
141:   FUNC GLOBAL DEFAULT 14 _ZN7android4util15try_sta
142:   FUNC GLOBAL DEFAULT 14 _ZN7android4util15try_sta
143:   FUNC GLOBAL DEFAULT 14 _ZN7android4util15try_sta
144:   FUNC GLOBAL DEFAULT 14 __aeabi_memcpy
145:   FUNC GLOBAL DEFAULT 14 write_to_logger
146:   FUNC GLOBAL DEFAULT 14 _ZN7android4util11stats_w
147:   FUNC GLOBAL DEFAULT 14 _ZN7android4util15try_sta
148:   FUNC GLOBAL DEFAULT 14 _ZN7android4util15try_sta
149:   FUNC GLOBAL DEFAULT 14 _ZN7android4util11stats_w
150:   FUNC GLOBAL DEFAULT 14 _ZN7android4util27try_sta
151:   FUNC GLOBAL DEFAULT 14 __aeabi_memcpy4
152:   FUNC GLOBAL DEFAULT 14 _ZN7android4util11stats_w
153:   FUNC GLOBAL DEFAULT 14 _ZN7android4util15try_sta
154:   FUNC GLOBAL DEFAULT 14 _ZN7android4util15try_sta
155:   FUNC GLOBAL DEFAULT 14 _ZN7android4util11stats_w
156:   FUNC GLOBAL DEFAULT 14 _ZN7android4util15try_sta
157:   FUNC GLOBAL DEFAULT 14 _ZN7android4util15try_sta
158:   FUNC GLOBAL DEFAULT 14 note_log_drop
159:   FUNC GLOBAL DEFAULT 14 _ZN7android4util11stats_w
160:   FUNC GLOBAL DEFAULT 14 _ZN7android4util11stats_w
161:   FUNC GLOBAL DEFAULT 14 _ZN7android4util15try_sta
162:   FUNC GLOBAL DEFAULT 14 _ZN7android4util15try_sta
163:   FUNC GLOBAL DEFAULT 14 __aeabi_memcpy8
164:   FUNC GLOBAL DEFAULT 14 __aeabi_memclr
165:   FUNC GLOBAL DEFAULT 14 _ZN7android4util11stats_w
166:   FUNC GLOBAL DEFAULT 14 _ZN7android4util15try_sta
167:   FUNC GLOBAL DEFAULT 14 _ZN7android4util15try_sta
168:   FUNC GLOBAL DEFAULT 14 _ZN7android4util15try_sta
169:   FUNC GLOBAL DEFAULT 14 __aeabi_memmove4
170:   FUNC GLOBAL DEFAULT 14 _ZN7android4util15try_sta
171:   FUNC WEAK DEFAULT 14 _ZNSt3__16vectorIiNS_9all
172:   FUNC GLOBAL DEFAULT 14 _ZN7android4util11stats_w
173:   FUNC GLOBAL DEFAULT 14 _ZN7android4util15try_sta
174:   FUNC GLOBAL DEFAULT 14 _ZN7android4util15try_sta
175:   FUNC GLOBAL DEFAULT 14 _ZN7android4util15try_sta
176:   FUNC GLOBAL DEFAULT 14 _ZN7android4util15try_sta
177:   FUNC GLOBAL DEFAULT 14 _ZN7android4util15try_sta
178:   FUNC GLOBAL DEFAULT 14 _ZN7android4util11stats_w
179:   FUNC GLOBAL DEFAULT 14 _ZN7android4util11stats_w
180:   FUNC GLOBAL DEFAULT 14 _ZN7android4util11stats_w
181:   FUNC GLOBAL DEFAULT 14 _ZN7android4util15try_sta
182:   FUNC GLOBAL DEFAULT 14 _ZN7android4util15try_sta
183:   FUNC GLOBAL DEFAULT 14 _ZN7android4util23stats_w
184:   FUNC GLOBAL DEFAULT 14 _ZN7android4util11stats_w
185:   FUNC GLOBAL DEFAULT 14 _ZN7android4util11stats_w
186:   FUNC GLOBAL DEFAULT 14 _ZN7android4util11stats_w
187:   FUNC GLOBAL DEFAULT 14 _ZN7android4util11stats_w
188:   FUNC GLOBAL DEFAULT 14 _ZN7android4util11stats_w
189:   FUNC GLOBAL DEFAULT 14 _ZN7android4util15try_sta
190:   FUNC GLOBAL DEFAULT 14 _ZN7android4util15try_sta
191:   FUNC GLOBAL DEFAULT 14 _ZN7android4util15try_sta
192:   FUNC GLOBAL DEFAULT 14 _ZN7android4util15try_sta
193:   FUNC GLOBAL DEFAULT 14 __aeabi_memmove8
194:   FUNC GLOBAL DEFAULT 14 _ZN7android4util11stats_w
195:   FUNC GLOBAL DEFAULT 14 _ZN7android4util11stats_w
196:   FUNC GLOBAL DEFAULT 14 _ZN7android4util11stats_w
197:   FUNC GLOBAL DEFAULT 14 _ZN7android4util15try_sta
198:   FUNC GLOBAL DEFAULT 14 _ZN7android4util15try_sta
199:   FUNC GLOBAL DEFAULT 14 _ZN7android4util23stats_w
200:   OBJECT GLOBAL DEFAULT 22 _ZN7android4util9AtomsInf
201:   FUNC GLOBAL DEFAULT 14 _ZN7android4util11stats_w
202:   FUNC GLOBAL DEFAULT 14 _ZN7android4util15try_sta
203:   FUNC GLOBAL DEFAULT 14 _ZN7android4util15try_sta
204:   FUNC GLOBAL DEFAULT 14 _ZN7android4util15try_sta
205:   FUNC GLOBAL DEFAULT 14 _ZN7android4util15try_sta
206:   FUNC GLOBAL DEFAULT 14 _ZN7android4util15try_sta
207:   FUNC GLOBAL DEFAULT 14 __aeabi_memclr4
208:   FUNC GLOBAL DEFAULT 14 _ZN7android4util11stats_w
209:   FUNC GLOBAL DEFAULT 14 _ZN7android4util11stats_w
210:   FUNC GLOBAL DEFAULT 14 _ZN7android4util15try_sta
211:   FUNC GLOBAL DEFAULT 14 _ZN7android4util15try_sta
212:   OBJECT GLOBAL DEFAULT 22 _ZN7android4util9AtomsInf
213:   FUNC GLOBAL DEFAULT 14 _ZN7android4util11stats_w
214:   FUNC GLOBAL DEFAULT 14 _ZN7android4util11stats_w
215:   FUNC GLOBAL DEFAULT 14 _ZN7android4util15try_sta
216:   FUNC GLOBAL DEFAULT 14 _ZN7android4util15try_sta
217:   FUNC GLOBAL DEFAULT 14 _ZN7android4util15try_sta
218:   FUNC GLOBAL DEFAULT 14 _ZN7android4util15try_sta
219:   FUNC GLOBAL DEFAULT 14 _ZN7android4util27try_sta
220:   FUNC GLOBAL DEFAULT 14 android_log_write_char_ar
221:   FUNC GLOBAL DEFAULT 14 _ZN7android4util11stats_w
222:   FUNC GLOBAL DEFAULT 14 _ZN7android4util11stats_w
223:   FUNC GLOBAL DEFAULT 14 _ZN7android4util11stats_w
224:   FUNC GLOBAL DEFAULT 14 _ZN7android4util15try_sta
225:   FUNC GLOBAL DEFAULT 14 __aeabi_memclr8
226:   FUNC GLOBAL DEFAULT 14 _ZN7android4util11stats_w
227:   FUNC GLOBAL DEFAULT 14 _ZN7android4util11stats_w
228:   FUNC GLOBAL DEFAULT 14 _ZN7android4util11stats_w
229:   FUNC GLOBAL DEFAULT 14 _ZN7android4util11stats_w
230:   FUNC GLOBAL DEFAULT 14 _ZN7android4util11stats_w
231:   FUNC GLOBAL DEFAULT 14 _ZN7android4util15try_sta
232:   FUNC GLOBAL DEFAULT 14 _ZN7android4util15try_sta
233:   FUNC GLOBAL DEFAULT 14 _ZN7android4util23stats_w
234:   FUNC GLOBAL DEFAULT 14 _ZN7android4util23stats_w
235:   FUNC GLOBAL DEFAULT 14 __aeabi_memset4
236:   FUNC GLOBAL DEFAULT 14 _ZN7android4util11stats_w
237:   FUNC GLOBAL DEFAULT 14 _ZN7android4util15try_sta
238:   FUNC GLOBAL DEFAULT 14 _ZN7android4util15try_sta
239:   FUNC GLOBAL DEFAULT 14 _ZN7android4util23stats_w
240:   FUNC GLOBAL DEFAULT 14 _ZN7android4util27try_sta
241:   FUNC WEAK DEFAULT 14 _ZNSt3__16__treeIiNS_4les
242:   FUNC GLOBAL DEFAULT 14 _ZN7android4util11stats_w
243:   FUNC GLOBAL DEFAULT 14 _ZN7android4util11stats_w
244:   FUNC GLOBAL DEFAULT 14 _ZN7android4util15try_sta
245:   FUNC GLOBAL DEFAULT 14 _ZN7android4util15try_sta
246:   FUNC GLOBAL DEFAULT 14 __aeabi_memmove
247:   FUNC GLOBAL DEFAULT 14 reset_log_context
248:   FUNC GLOBAL DEFAULT 14 _ZN7android4util15try_sta
249:   FUNC GLOBAL DEFAULT 14 _ZN7android4util11stats_w
250:   FUNC GLOBAL DEFAULT 14 _ZN7android4util11stats_w
251:   FUNC GLOBAL DEFAULT 14 _ZN7android4util27try_sta
252:   FUNC GLOBAL DEFAULT 14 stats_log_close
253:   FUNC GLOBAL DEFAULT 14 __aeabi_memset8
254:   FUNC GLOBAL DEFAULT 14 _ZN7android4util11stats_w
255:   FUNC GLOBAL DEFAULT 14 _ZN7android4util11stats_w
256:   FUNC GLOBAL DEFAULT 14 _ZN7android4util15try_sta
257:   FUNC GLOBAL DEFAULT 14 _ZN7android4util15try_sta
258:   FUNC GLOBAL DEFAULT 14 _ZN7android4util15try_sta
259:   OBJECT GLOBAL DEFAULT 16 _ZN7android4util20lastRet
260:   FUNC GLOBAL DEFAULT 14 _ZN7android4util27try_sta
261:   FUNC WEAK DEFAULT 14 _ZNSt3__16__treeINS_12__v
262:   FUNC GLOBAL DEFAULT 14 statd_writer_trylock
263:   FUNC GLOBAL DEFAULT 14 _ZN7android4util11stats_w
264:   FUNC GLOBAL DEFAULT 14 _ZN7android4util11stats_w
265:   FUNC GLOBAL DEFAULT 14 _ZN7android4util11stats_w
266:   FUNC GLOBAL DEFAULT 14 _ZN7android4util11stats_w
267:   FUNC GLOBAL DEFAULT 14 _ZN7android4util11stats_w
268:   FUNC GLOBAL DEFAULT 14 _ZN7android4util15try_sta
269:   FUNC GLOBAL DEFAULT 14 _ZN7android4util15try_sta
270:   FUNC GLOBAL DEFAULT 14 _ZN7android4util27try_sta
271:   FUNC GLOBAL DEFAULT 14 _ZN7android4util15try_sta
272:   FUNC GLOBAL DEFAULT 14 _ZN7android4util15try_sta
273:   FUNC GLOBAL DEFAULT 14 _ZN7android4util11stats_w
274:   FUNC GLOBAL DEFAULT 14 _ZN7android4util11stats_w
275:   FUNC GLOBAL DEFAULT 14 _ZN7android4util15try_sta
276:   FUNC GLOBAL DEFAULT 14 _ZN7android4util15try_sta
277:   FUNC GLOBAL DEFAULT 14 _ZN7android4util11stats_w
278:   FUNC GLOBAL DEFAULT 14 _ZN7android4util11stats_w
279:   FUNC GLOBAL DEFAULT 14 _ZN7android4util11stats_w
280:   FUNC GLOBAL DEFAULT 14 _ZN7android4util11stats_w
281:   FUNC GLOBAL DEFAULT 14 _ZN7android4util15try_sta
282:   FUNC GLOBAL DEFAULT 14 _ZN7android4util15try_sta
283:   FUNC GLOBAL DEFAULT 14 _ZN7android4util15try_sta
284:   FUNC GLOBAL DEFAULT 14 statsd_writer_init_unlock
285:   FUNC GLOBAL DEFAULT 14 _ZN7android4util11stats_w
286:   FUNC GLOBAL DEFAULT 14 _ZN7android4util15try_sta
287:   FUNC GLOBAL DEFAULT 14 _ZN7android4util15try_sta
288:   FUNC GLOBAL DEFAULT 14 _ZN7android4util23stats_w
289:   FUNC GLOBAL DEFAULT 14 _ZN7android4util11stats_w
290:   FUNC GLOBAL DEFAULT 14 _ZN7android4util15try_sta
291:   FUNC GLOBAL DEFAULT 14 _ZN7android4util27try_sta
292:   OBJECT GLOBAL DEFAULT 22 _ZN7android4util9AtomsInf
293:   FUNC WEAK DEFAULT 14 _ZNSt3__16__treeINS_12__v
294:   FUNC GLOBAL DEFAULT 14 _ZN7android4util15try_sta
295:   FUNC GLOBAL DEFAULT 14 _ZN7android4util15try_sta
296:   FUNC GLOBAL DEFAULT 14 statsd_writer_init_lock
297:   FUNC GLOBAL DEFAULT 14 _ZN7android4util11stats_w
298:   FUNC GLOBAL DEFAULT 14 _ZN7android4util15try_sta
299:   FUNC GLOBAL DEFAULT 14 _ZN7android4util15try_sta
300:   FUNC GLOBAL DEFAULT 14 _ZN7android4util11stats_w
301:   FUNC GLOBAL DEFAULT 14 _ZN7android4util11stats_w
302:   FUNC GLOBAL DEFAULT 14 _ZN7android4util11stats_w
303:   FUNC GLOBAL DEFAULT 14 _ZN7android4util11stats_w
304:   FUNC GLOBAL DEFAULT 14 _ZN7android4util11stats_w
305:   FUNC GLOBAL DEFAULT 14 _ZN7android4util15try_sta
306:   FUNC GLOBAL DEFAULT 14 _ZN7android4util27try_sta
307:   FUNC GLOBAL DEFAULT 14 _ZN7android4util15try_sta
308:   FUNC GLOBAL DEFAULT 14 _ZN7android4util23stats_w
309:   FUNC GLOBAL DEFAULT 14 _ZN7android4util23stats_w
310:   FUNC GLOBAL DEFAULT 14 _ZN7android4util11stats_w
311:   FUNC GLOBAL DEFAULT 14 _ZN7android4util15try_sta
312:   FUNC GLOBAL DEFAULT 14 _ZN7android4util15try_sta
313:   OBJECT GLOBAL DEFAULT 22 _ZN7android4util9AtomsInf
314:   FUNC GLOBAL DEFAULT 14 _ZN7android4util15try_sta
315:   FUNC GLOBAL DEFAULT 14 _ZN7android4util15try_sta
316:   FUNC GLOBAL DEFAULT 14 _ZN7android4util15try_sta
317:   FUNC GLOBAL DEFAULT 14 _ZN7android4util15try_sta
318:   FUNC GLOBAL DEFAULT 14 _ZN7android4util23stats_w
319:   FUNC GLOBAL DEFAULT 14 _ZN7android4util11stats_w
320:   FUNC GLOBAL DEFAULT 14 _ZN7android4util11stats_w
321:   FUNC GLOBAL DEFAULT 14 _ZN7android4util15try_sta
322:   FUNC GLOBAL DEFAULT 14 _ZN7android4util11stats_w
323:   FUNC GLOBAL DEFAULT 14 _ZN7android4util15try_sta
324:   FUNC GLOBAL DEFAULT 14 _ZN7android4util11stats_w
325:   FUNC GLOBAL DEFAULT 14 _ZN7android4util11stats_w
326:   FUNC GLOBAL DEFAULT 14 _ZN7android4util15try_sta
327:   FUNC GLOBAL DEFAULT 14 _ZN7android4util15try_sta
328:   FUNC GLOBAL DEFAULT 14 _ZN7android4util11stats_w
329:   FUNC GLOBAL DEFAULT 14 _ZN7android4util11stats_w
330:   FUNC GLOBAL DEFAULT 14 _ZN7android4util11stats_w
331:   FUNC GLOBAL DEFAULT 14 _ZN7android4util15try_sta
