 0x000000000000000e (SONAME)             Library soname: [android.hardware.neuralnetworks@1.0.so]
  
Symbol   contains 456 entries:
Num:   Type Bind Vis Ndx Name
0:   NOTYPE LOCAL DEFAULT UND
1:   FUNC GLOBAL DEFAULT UND __cxa_finalize@LIBC (2)
2:   FUNC GLOBAL DEFAULT UND _ZN7android14sp_report_ra
3:   FUNC GLOBAL DEFAULT UND _ZN7android21report_syspr
4:   OBJECT GLOBAL DEFAULT UND _ZN7android4hidl4base4V1_
5:   FUNC GLOBAL DEFAULT UND _ZN7android4hidl4base4V1_
6:   FUNC GLOBAL DEFAULT UND _ZN7android4hidl4base4V1_
7:   FUNC GLOBAL DEFAULT UND _ZN7android4hidl4base4V1_
8:   FUNC GLOBAL DEFAULT UND _ZN7android4hidl4base4V1_
9:   FUNC GLOBAL DEFAULT UND _ZN7android4hidl4base4V1_
10:   FUNC GLOBAL DEFAULT UND _ZN7android4hidl4base4V1_
11:   FUNC GLOBAL DEFAULT UND _ZN7android4hidl4base4V1_
12:   FUNC GLOBAL DEFAULT UND _ZN7android4hidl4base4V1_
13:   FUNC GLOBAL DEFAULT UND _ZN7android4hidl4base4V1_
14:   FUNC GLOBAL DEFAULT UND _ZN7android4hidl4base4V1_
15:   FUNC GLOBAL DEFAULT UND _ZN7android4hidl4base4V1_
16:   FUNC GLOBAL DEFAULT UND _ZN7android4hidl4base4V1_
17:   FUNC GLOBAL DEFAULT UND _ZN7android4hidl4base4V1_
18:   FUNC GLOBAL DEFAULT UND _ZN7android4hidl4base4V1_
19:   FUNC GLOBAL DEFAULT UND _ZN7android4hidl4base4V1_
20:   FUNC GLOBAL DEFAULT UND _ZN7android4hidl4base4V1_
21:   FUNC GLOBAL DEFAULT UND _ZN7android4hidl4base4V1_
22:   FUNC GLOBAL DEFAULT UND _ZN7android4hidl4base4V1_
23:   FUNC GLOBAL DEFAULT UND _ZN7android4hidl4base4V1_
24:   FUNC GLOBAL DEFAULT UND _ZN7android4hidl4base4V1_
25:   FUNC GLOBAL DEFAULT UND _ZN7android4hidl4base4V1_
26:   FUNC GLOBAL DEFAULT UND _ZN7android4hidl4base4V1_
27:   FUNC GLOBAL DEFAULT UND _ZN7android4hidl4base4V1_
28:   FUNC GLOBAL DEFAULT UND _ZN7android7RefBase10onFi
29:   FUNC GLOBAL DEFAULT UND _ZN7android7RefBase12weak
30:   FUNC GLOBAL DEFAULT UND _ZN7android7RefBase13onLa
31:   FUNC GLOBAL DEFAULT UND _ZN7android7RefBase15onLa
32:   FUNC GLOBAL DEFAULT UND _ZN7android7RefBase20onIn
33:   FUNC GLOBAL DEFAULT UND _ZN7android7RefBaseC2Ev
34:   FUNC GLOBAL DEFAULT UND _ZN7android7RefBaseD2Ev
35:   FUNC GLOBAL DEFAULT UND _ZN7android8hardware10IIn
36:   FUNC GLOBAL DEFAULT UND _ZN7android8hardware10IIn
37:   FUNC GLOBAL DEFAULT UND _ZN7android8hardware10IIn
38:   FUNC GLOBAL DEFAULT UND _ZN7android8hardware10IIn
39:   FUNC GLOBAL DEFAULT UND _ZN7android8hardware10IIn
40:   FUNC GLOBAL DEFAULT UND _ZN7android8hardware11BpH
41:   FUNC GLOBAL DEFAULT UND _ZN7android8hardware11BpH
42:   FUNC GLOBAL DEFAULT UND _ZN7android8hardware11BpH
43:   FUNC GLOBAL DEFAULT UND _ZN7android8hardware11BpH
44:   FUNC GLOBAL DEFAULT UND _ZN7android8hardware11BpH
45:   FUNC GLOBAL DEFAULT UND _ZN7android8hardware11BpH
46:   FUNC GLOBAL DEFAULT UND _ZN7android8hardware11BpH
47:   FUNC GLOBAL DEFAULT UND _ZN7android8hardware11hid
48:   FUNC GLOBAL DEFAULT UND _ZN7android8hardware11hid
49:   FUNC GLOBAL DEFAULT UND _ZN7android8hardware11hid
50:   FUNC GLOBAL DEFAULT UND _ZN7android8hardware11hid
51:   FUNC GLOBAL DEFAULT UND _ZN7android8hardware11hid
52:   FUNC GLOBAL DEFAULT UND _ZN7android8hardware12Pro
53:   FUNC GLOBAL DEFAULT UND _ZN7android8hardware12Pro
54:   FUNC GLOBAL DEFAULT UND _ZN7android8hardware13wri
55:   FUNC GLOBAL DEFAULT UND _ZN7android8hardware14rea
56:   FUNC GLOBAL DEFAULT UND _ZN7android8hardware21def
57:   FUNC GLOBAL DEFAULT UND _ZN7android8hardware23get
58:   FUNC GLOBAL DEFAULT UND _ZN7android8hardware27hid
59:   FUNC GLOBAL DEFAULT UND _ZN7android8hardware27hid
60:   FUNC GLOBAL DEFAULT UND _ZN7android8hardware6Parc
61:   FUNC GLOBAL DEFAULT UND _ZN7android8hardware6Parc
62:   FUNC GLOBAL DEFAULT UND _ZN7android8hardware6Parc
63:   FUNC GLOBAL DEFAULT UND _ZN7android8hardware6Parc
64:   FUNC GLOBAL DEFAULT UND _ZN7android8hardware6Parc
65:   FUNC GLOBAL DEFAULT UND _ZN7android8hardware6Parc
66:   FUNC GLOBAL DEFAULT UND _ZN7android8hardware6Parc
67:   FUNC GLOBAL DEFAULT UND _ZN7android8hardware6Stat
68:   FUNC GLOBAL DEFAULT UND _ZN7android8hardware6Stat
69:   FUNC GLOBAL DEFAULT UND _ZN7android8hardware6Stat
70:   FUNC GLOBAL DEFAULT UND _ZN7android8hardware6Stat
71:   FUNC GLOBAL DEFAULT UND _ZN7android8hardware7IBin
72:   FUNC GLOBAL DEFAULT UND _ZN7android8hardware7IBin
73:   FUNC GLOBAL DEFAULT UND _ZN7android8hardware7IBin
74:   FUNC GLOBAL DEFAULT UND _ZN7android8hardware7IBin
75:   FUNC GLOBAL DEFAULT UND _ZN7android8hardware7deta
76:   FUNC GLOBAL DEFAULT UND _ZN7android8hardware7deta
77:   FUNC GLOBAL DEFAULT UND _ZN7android8hardware7deta
78:   FUNC GLOBAL DEFAULT UND _ZN7android8hardware7deta
79:   FUNC GLOBAL DEFAULT UND _ZN7android8hardware7deta
80:   FUNC GLOBAL DEFAULT UND _ZN7android8hardware7deta
81:   FUNC GLOBAL DEFAULT UND _ZN7android8hardware7deta
82:   OBJECT GLOBAL DEFAULT UND _ZN7android8hardware7deta
83:   FUNC GLOBAL DEFAULT UND _ZN7android8hardware7deta
84:   OBJECT GLOBAL DEFAULT UND _ZN7android8hardware7deta
85:   FUNC GLOBAL DEFAULT UND _ZN7android8hardware7deta
86:   FUNC GLOBAL DEFAULT UND _ZN7android8hardware7deta
87:   FUNC GLOBAL DEFAULT UND _ZN7android8hardware7deta
88:   FUNC GLOBAL DEFAULT UND _ZN7android8hardware7deta
89:   FUNC GLOBAL DEFAULT UND _ZN7android8hardware7deta
90:   FUNC GLOBAL DEFAULT UND _ZN7android8hardware7deta
91:   FUNC GLOBAL DEFAULT UND _ZN7android8hardware7deta
92:   FUNC GLOBAL DEFAULT UND _ZN7android8hardware7deta
93:   FUNC GLOBAL DEFAULT UND _ZN7android8hardware7deta
94:   FUNC GLOBAL DEFAULT UND _ZN7android8hardware7deta
95:   OBJECT GLOBAL DEFAULT UND _ZN7android8hardware7deta
96:   FUNC GLOBAL DEFAULT UND _ZN7android8hardware9BHwB
97:   FUNC GLOBAL DEFAULT UND _ZN7android8hardware9BHwB
98:   FUNC GLOBAL DEFAULT UND _ZN7android8hardware9BHwB
99:   FUNC GLOBAL DEFAULT UND _ZN7android8hardware9BHwB
100:   FUNC GLOBAL DEFAULT UND _ZN7android8hardware9BHwB
101:   FUNC GLOBAL DEFAULT UND _ZN7android8hardware9BHwB
102:   FUNC GLOBAL DEFAULT UND _ZN7android8hardware9BHwB
103:   FUNC GLOBAL DEFAULT UND _ZN7android8hardware9BHwB
104:   FUNC GLOBAL DEFAULT UND _ZN7android8hardware9BHwB
105:   FUNC GLOBAL DEFAULT UND _ZN7android8hardware9BHwB
106:   FUNC GLOBAL DEFAULT UND _ZNK7android7RefBase10cre
107:   FUNC GLOBAL DEFAULT UND _ZNK7android7RefBase11get
108:   FUNC GLOBAL DEFAULT UND _ZNK7android7RefBase9decS
109:   FUNC GLOBAL DEFAULT UND _ZNK7android7RefBase9incS
110:   FUNC GLOBAL DEFAULT UND _ZNK7android8hardware6Par
111:   FUNC GLOBAL DEFAULT UND _ZNK7android8hardware6Par
112:   FUNC GLOBAL DEFAULT UND _ZNK7android8hardware6Par
113:   FUNC GLOBAL DEFAULT UND _ZNK7android8hardware6Par
114:   FUNC GLOBAL DEFAULT UND _ZNK7android8hardware6Par
115:   FUNC GLOBAL DEFAULT UND _ZNK7android8hardware7IBi
116:   FUNC GLOBAL DEFAULT UND _ZNK7android8hardware7det
117:   FUNC GLOBAL DEFAULT UND _ZNK7android8hardware9BHw
118:   FUNC GLOBAL DEFAULT UND _ZNKSt3__120__vector_base
119:   FUNC GLOBAL DEFAULT UND _ZNKSt3__121__basic_strin
120:   FUNC GLOBAL DEFAULT UND _ZNSt3__112basic_stringIc
121:   FUNC GLOBAL DEFAULT UND _ZNSt3__15mutex4lockEv
122:   FUNC GLOBAL DEFAULT UND _ZNSt3__15mutex6unlockEv
123:   FUNC GLOBAL DEFAULT UND _ZNSt3__15mutexD1Ev
124:   FUNC GLOBAL DEFAULT UND _ZTv0_n24_N7android4hidl4
125:   FUNC GLOBAL DEFAULT UND _ZTv0_n24_N7android4hidl4
126:   FUNC GLOBAL DEFAULT UND _ZTv0_n24_N7android8hardw
127:   FUNC GLOBAL DEFAULT UND _ZTv0_n24_N7android8hardw
128:   FUNC GLOBAL DEFAULT UND _ZTv0_n24_N7android8hardw
129:   FUNC GLOBAL DEFAULT UND _ZTv0_n24_N7android8hardw
130:   FUNC GLOBAL DEFAULT UND _ZTv0_n24_N7android8hardw
131:   FUNC GLOBAL DEFAULT UND _ZTv0_n24_N7android8hardw
132:   FUNC GLOBAL DEFAULT UND _ZTv0_n24_N7android8hardw
133:   FUNC GLOBAL DEFAULT UND _ZTv0_n24_N7android8hardw
134:   FUNC GLOBAL DEFAULT UND _ZTv0_n32_N7android8hardw
135:   FUNC GLOBAL DEFAULT UND _ZTv0_n40_N7android8hardw
136:   FUNC GLOBAL DEFAULT UND _ZTv0_n48_N7android8hardw
137:   FUNC GLOBAL DEFAULT UND _ZdaPv
138:   FUNC GLOBAL DEFAULT UND _ZdlPv
139:   FUNC GLOBAL DEFAULT UND _Znam
140:   FUNC GLOBAL DEFAULT UND _Znwm
141:   FUNC GLOBAL DEFAULT UND __android_log_assert@LIBLOG (3)
142:   FUNC GLOBAL DEFAULT UND __cxa_pure_virtual
143:   FUNC GLOBAL DEFAULT UND __stack_chk_fail@LIBC (2)
144:   FUNC GLOBAL DEFAULT UND abort@LIBC (2)
145:   FUNC GLOBAL DEFAULT UND atrace_begin_body
146:   OBJECT GLOBAL DEFAULT UND atrace_enabled_tags
147:   FUNC GLOBAL DEFAULT UND atrace_end_body
148:   OBJECT GLOBAL DEFAULT UND atrace_is_ready
149:   FUNC GLOBAL DEFAULT UND atrace_setup
150:   FUNC GLOBAL DEFAULT UND memcmp@LIBC (2)
151:   FUNC GLOBAL DEFAULT UND memcpy@LIBC (2)
152:   FUNC GLOBAL DEFAULT UND memset@LIBC (2)
153:   FUNC GLOBAL DEFAULT UND strlen@LIBC (2)
154:   FUNC GLOBAL DEFAULT UND _ZN7android8hardware21wri
155:   FUNC GLOBAL DEFAULT UND _ZN7android8hardware22rea
156:   FUNC GLOBAL DEFAULT 14 _ZN7android8hardware14neu
157:   FUNC WEAK DEFAULT 14 _ZNSt3__16__treeINS_12__v
158:   FUNC GLOBAL DEFAULT 14 _ZN7android8hardware14neu
159:   OBJECT GLOBAL DEFAULT 18 _ZTCN7android8hardware14n
160:   FUNC GLOBAL DEFAULT 14 _ZN7android8hardware14neu
161:   FUNC GLOBAL DEFAULT 14 _ZN7android8hardware14neu
162:   OBJECT GLOBAL DEFAULT 18 _ZTCN7android8hardware14n
163:   OBJECT GLOBAL DEFAULT 18 _ZTCN7android8hardware14n
164:   FUNC GLOBAL DEFAULT 14 _ZN7android8hardware14neu
165:   FUNC WEAK DEFAULT 14 _ZNSt3__16__treeINS_12__v
166:   FUNC GLOBAL DEFAULT 14 _ZN7android8hardware14neu
167:   OBJECT GLOBAL DEFAULT 18 _ZTTN7android8hardware14n
168:   FUNC GLOBAL DEFAULT 14 _ZN7android8hardware14neu
169:   FUNC GLOBAL DEFAULT 14 _ZN7android8hardware14neu
170:   FUNC GLOBAL DEFAULT 14 _ZN7android8hardware14neu
171:   FUNC GLOBAL DEFAULT 14 _ZTv0_n24_N7android8hardw
172:   FUNC GLOBAL DEFAULT 14 _ZN7android8hardware14neu
173:   OBJECT GLOBAL DEFAULT 18 _ZTTN7android8hardware14n
174:   OBJECT GLOBAL DEFAULT 18 _ZTVN7android8hardware14n
175:   FUNC GLOBAL DEFAULT 14 _ZThn32_N7android8hardwar
176:   FUNC GLOBAL DEFAULT 14 _ZN7android8hardware14neu
177:   FUNC GLOBAL DEFAULT 14 _ZN7android8hardware14neu
178:   FUNC WEAK DEFAULT 14 _ZN7android8hardware7deta
179:   OBJECT GLOBAL DEFAULT 18 _ZTCN7android8hardware14n
180:   OBJECT GLOBAL DEFAULT 18 _ZTCN7android8hardware14n
181:   FUNC GLOBAL DEFAULT 14 _ZN7android8hardware14neu
182:   OBJECT GLOBAL DEFAULT 18 _ZTCN7android8hardware14n
183:   FUNC GLOBAL DEFAULT 14 _ZN7android8hardware14neu
184:   FUNC GLOBAL DEFAULT 14 _ZN7android8hardware14neu
185:   OBJECT GLOBAL DEFAULT 18 _ZTCN7android8hardware14n
186:   FUNC GLOBAL DEFAULT 14 _ZThn32_N7android8hardwar
187:   FUNC GLOBAL DEFAULT 14 _ZN7android8hardware14neu
188:   FUNC GLOBAL DEFAULT 14 _ZN7android8hardware14neu
189:   FUNC GLOBAL DEFAULT 14 _ZN7android8hardware14neu
190:   FUNC WEAK DEFAULT 14 _ZNSt3__16__treeINS_12__v
191:   FUNC GLOBAL DEFAULT 14 _ZN7android8hardware14neu
192:   FUNC GLOBAL DEFAULT 14 _ZN7android8hardware14neu
193:   OBJECT GLOBAL DEFAULT 18 _ZTTN7android8hardware14n
194:   OBJECT GLOBAL DEFAULT 18 _ZTVN7android8hardware14n
195:   OBJECT GLOBAL DEFAULT 16 _ZN7android8hardware14neu
196:   FUNC GLOBAL DEFAULT 14 _ZN7android8hardware14neu
197:   FUNC GLOBAL DEFAULT 14 _ZTv0_n24_N7android8hardw
198:   FUNC GLOBAL DEFAULT 14 _ZN7android8hardware14neu
199:   FUNC GLOBAL DEFAULT 14 _ZN7android8hardware14neu
200:   OBJECT WEAK DEFAULT 18 _ZTCN7android8hardware14n
201:   OBJECT GLOBAL DEFAULT 18 _ZTCN7android8hardware14n
202:   FUNC GLOBAL DEFAULT 14 _ZN7android8hardware14neu
203:   FUNC GLOBAL DEFAULT 14 _ZN7android8hardware14neu
204:   FUNC GLOBAL DEFAULT 14 _ZN7android8hardware14neu
205:   FUNC GLOBAL DEFAULT 14 _ZN7android8hardware14neu
206:   FUNC GLOBAL DEFAULT 14 _ZN7android8hardware14neu
207:   FUNC GLOBAL DEFAULT 14 _ZN7android8hardware14neu
208:   OBJECT GLOBAL DEFAULT 18 _ZTCN7android8hardware14n
209:   FUNC GLOBAL DEFAULT 14 _ZN7android8hardware14neu
210:   OBJECT GLOBAL DEFAULT 18 _ZTCN7android8hardware14n
211:   OBJECT GLOBAL DEFAULT 18 _ZTCN7android8hardware14n
212:   FUNC GLOBAL DEFAULT 14 _ZN7android8hardware14neu
213:   OBJECT GLOBAL DEFAULT 18 _ZTCN7android8hardware14n
214:   FUNC GLOBAL DEFAULT 14 _ZN7android8hardware14neu
215:   FUNC GLOBAL DEFAULT 14 _ZN7android8hardware14neu
216:   FUNC GLOBAL DEFAULT 14 _ZN7android8hardware14neu
217:   FUNC WEAK DEFAULT 14 _ZN7android8hardware10fro
218:   FUNC GLOBAL DEFAULT 14 _ZN7android8hardware14neu
219:   FUNC GLOBAL DEFAULT 14 _ZN7android8hardware14neu
220:   FUNC GLOBAL DEFAULT 14 _ZN7android8hardware14neu
221:   FUNC GLOBAL DEFAULT 14 _ZN7android8hardware14neu
222:   FUNC GLOBAL DEFAULT 14 _ZN7android8hardware14neu
223:   OBJECT GLOBAL DEFAULT 18 _ZTVN7android8hardware14n
224:   FUNC GLOBAL DEFAULT 14 _ZN7android8hardware14neu
225:   FUNC GLOBAL DEFAULT 14 _ZN7android8hardware14neu
226:   FUNC GLOBAL DEFAULT 14 _ZN7android8hardware14neu
227:   FUNC GLOBAL DEFAULT 14 _ZN7android8hardware14neu
228:   FUNC GLOBAL DEFAULT 14 _ZN7android8hardware14neu
229:   FUNC GLOBAL DEFAULT 14 _ZN7android8hardware14neu
230:   OBJECT GLOBAL DEFAULT 18 _ZTVN7android8hardware14n
231:   FUNC GLOBAL DEFAULT 14 _ZN7android8hardware14neu
232:   OBJECT GLOBAL DEFAULT 18 _ZTCN7android8hardware14n
233:   OBJECT GLOBAL DEFAULT 18 _ZTCN7android8hardware14n
234:   FUNC GLOBAL DEFAULT 14 _ZN7android8hardware14neu
235:   FUNC GLOBAL DEFAULT 14 _ZN7android8hardware14neu
236:   FUNC GLOBAL DEFAULT 14 _ZN7android8hardware14neu
237:   OBJECT GLOBAL DEFAULT 18 _ZTCN7android8hardware14n
238:   FUNC GLOBAL DEFAULT 14 _ZN7android8hardware14neu
239:   FUNC GLOBAL DEFAULT 14 _ZN7android8hardware14neu
240:   FUNC GLOBAL DEFAULT 14 _ZN7android8hardware14neu
241:   FUNC GLOBAL DEFAULT 14 _ZN7android8hardware14neu
242:   FUNC GLOBAL DEFAULT 14 _ZN7android8hardware14neu
243:   FUNC GLOBAL DEFAULT 14 _ZN7android8hardware14neu
244:   OBJECT GLOBAL DEFAULT 18 _ZTCN7android8hardware14n
245:   FUNC GLOBAL DEFAULT 14 _ZN7android8hardware14neu
246:   FUNC GLOBAL DEFAULT 14 _ZTv0_n24_N7android8hardw
247:   FUNC GLOBAL DEFAULT 14 _ZN7android8hardware14neu
248:   FUNC GLOBAL DEFAULT 14 _ZN7android8hardware14neu
249:   FUNC GLOBAL DEFAULT 14 _ZN7android8hardware14neu
250:   OBJECT GLOBAL DEFAULT 18 _ZTVN7android8hardware14n
251:   FUNC GLOBAL DEFAULT 14 _ZN7android8hardware14neu
252:   FUNC GLOBAL DEFAULT 14 _ZN7android8hardware14neu
253:   FUNC WEAK DEFAULT 14 _ZN7android8hardware7deta
254:   OBJECT GLOBAL DEFAULT 18 _ZTCN7android8hardware14n
255:   FUNC GLOBAL DEFAULT 14 _ZN7android8hardware14neu
256:   OBJECT GLOBAL DEFAULT 18 _ZTTN7android8hardware14n
257:   FUNC WEAK DEFAULT 14 _ZNSt3__16vectorIN7androi
258:   FUNC GLOBAL DEFAULT 14 _ZN7android8hardware14neu
259:   FUNC GLOBAL DEFAULT 14 _ZN7android8hardware14neu
260:   FUNC GLOBAL DEFAULT 14 _ZN7android8hardware14neu
261:   FUNC GLOBAL DEFAULT 14 _ZN7android8hardware14neu
262:   FUNC GLOBAL DEFAULT 14 _ZN7android8hardware14neu
263:   FUNC GLOBAL DEFAULT 14 _ZN7android8hardware14neu
264:   OBJECT GLOBAL DEFAULT 18 _ZTCN7android8hardware14n
265:   FUNC GLOBAL DEFAULT 14 _ZN7android8hardware14neu
266:   OBJECT WEAK DEFAULT 18 _ZTCN7android8hardware14n
267:   FUNC GLOBAL DEFAULT 14 _ZN7android8hardware14neu
268:   FUNC GLOBAL DEFAULT 14 _ZN7android8hardware14neu
269:   FUNC GLOBAL DEFAULT 14 _ZN7android8hardware14neu
270:   OBJECT GLOBAL DEFAULT 18 _ZTCN7android8hardware14n
271:   OBJECT GLOBAL DEFAULT 18 _ZTVN7android8hardware14n
272:   FUNC GLOBAL DEFAULT 14 _ZN7android8hardware14neu
273:   FUNC WEAK DEFAULT 14 _ZN7android8hardware7deta
274:   FUNC GLOBAL DEFAULT 14 _ZN7android8hardware14neu
275:   FUNC GLOBAL DEFAULT 14 _ZN7android8hardware14neu
276:   FUNC GLOBAL DEFAULT 14 _ZN7android8hardware14neu
277:   FUNC GLOBAL DEFAULT 14 _ZN7android8hardware14neu
278:   FUNC GLOBAL DEFAULT 14 _ZN7android8hardware14neu
279:   OBJECT GLOBAL DEFAULT 18 _ZTCN7android8hardware14n
280:   OBJECT GLOBAL DEFAULT 18 _ZTCN7android8hardware14n
281:   FUNC GLOBAL DEFAULT 14 _ZN7android8hardware14neu
282:   FUNC GLOBAL DEFAULT 14 _ZN7android8hardware14neu
283:   OBJECT WEAK DEFAULT 18 _ZTCN7android8hardware14n
284:   OBJECT GLOBAL DEFAULT 18 _ZTTN7android8hardware14n
285:   OBJECT GLOBAL DEFAULT 18 _ZTTN7android8hardware14n
286:   FUNC GLOBAL DEFAULT 14 _ZN7android8hardware14neu
287:   FUNC GLOBAL DEFAULT 14 _ZN7android8hardware14neu
288:   FUNC GLOBAL DEFAULT 14 _ZN7android8hardware14neu
289:   FUNC GLOBAL DEFAULT 14 _ZN7android8hardware14neu
290:   FUNC GLOBAL DEFAULT 14 _ZN7android8hardware14neu
291:   FUNC GLOBAL DEFAULT 14 _ZN7android8hardware14neu
292:   OBJECT GLOBAL DEFAULT 18 _ZTTN7android8hardware14n
293:   OBJECT GLOBAL DEFAULT 18 _ZTCN7android8hardware14n
294:   FUNC GLOBAL DEFAULT 14 _ZThn32_N7android8hardwar
295:   FUNC GLOBAL DEFAULT 14 _ZN7android8hardware14neu
296:   FUNC GLOBAL DEFAULT 14 _ZN7android8hardware14neu
297:   FUNC WEAK DEFAULT 14 _ZNSt3__16vectorINS_8func
298:   FUNC GLOBAL DEFAULT 14 _ZN7android8hardware14neu
299:   FUNC GLOBAL DEFAULT 14 _ZN7android8hardware14neu
300:   FUNC GLOBAL DEFAULT 14 _ZN7android8hardware14neu
301:   OBJECT GLOBAL DEFAULT 16 _ZN7android8hardware14neu
302:   FUNC GLOBAL DEFAULT 14 _ZTv0_n24_N7android8hardw
303:   FUNC GLOBAL DEFAULT 14 _ZN7android8hardware14neu
304:   FUNC GLOBAL DEFAULT 14 _ZN7android8hardware14neu
305:   FUNC GLOBAL DEFAULT 14 _ZN7android8hardware14neu
306:   OBJECT GLOBAL DEFAULT 16 _ZN7android8hardware14neu
307:   FUNC WEAK DEFAULT 14 _ZNSt3__16__treeINS_12__v
308:   FUNC GLOBAL DEFAULT 14 _ZN7android8hardware14neu
309:   FUNC GLOBAL DEFAULT 14 _ZN7android8hardware14neu
310:   FUNC GLOBAL DEFAULT 14 _ZN7android8hardware14neu
311:   FUNC GLOBAL DEFAULT 14 _ZN7android8hardware14neu
312:   OBJECT GLOBAL DEFAULT 18 _ZTCN7android8hardware14n
313:   FUNC GLOBAL DEFAULT 14 _ZThn32_N7android8hardwar
314:   OBJECT GLOBAL DEFAULT 18 _ZTCN7android8hardware14n
315:   OBJECT WEAK DEFAULT 18 _ZTCN7android8hardware14n
316:   OBJECT GLOBAL DEFAULT 18 _ZTTN7android8hardware14n
317:   FUNC GLOBAL DEFAULT 14 _ZThn32_N7android8hardwar
318:   FUNC GLOBAL DEFAULT 14 _ZN7android8hardware14neu
319:   FUNC GLOBAL DEFAULT 14 _ZN7android8hardware14neu
320:   FUNC GLOBAL DEFAULT 14 _ZN7android8hardware14neu
321:   FUNC GLOBAL DEFAULT 14 _ZN7android8hardware14neu
322:   FUNC WEAK DEFAULT 14 _ZN7android8hardware7deta
323:   FUNC GLOBAL DEFAULT 14 _ZN7android8hardware14neu
324:   FUNC GLOBAL DEFAULT 14 _ZN7android8hardware14neu
325:   FUNC GLOBAL DEFAULT 14 _ZN7android8hardware14neu
326:   FUNC GLOBAL DEFAULT 14 _ZN7android8hardware14neu
327:   FUNC GLOBAL DEFAULT 14 _ZN7android8hardware14neu
328:   FUNC WEAK DEFAULT 14 _ZN7android8hardware7deta
329:   OBJECT GLOBAL DEFAULT 18 _ZTCN7android8hardware14n
330:   FUNC GLOBAL DEFAULT 14 _ZTv0_n24_N7android8hardw
331:   FUNC GLOBAL DEFAULT 14 _ZN7android8hardware14neu
332:   FUNC WEAK DEFAULT 14 _ZNSt3__16vectorIPvNS_9al
333:   OBJECT GLOBAL DEFAULT 18 _ZTCN7android8hardware14n
334:   FUNC GLOBAL DEFAULT 14 _ZN7android8hardware14neu
335:   FUNC GLOBAL DEFAULT 14 _ZN7android8hardware14neu
336:   OBJECT GLOBAL DEFAULT 18 _ZTVN7android8hardware14n
337:   FUNC GLOBAL DEFAULT 14 _ZN7android8hardware14neu
338:   FUNC GLOBAL DEFAULT 14 _ZN7android8hardware14neu
339:   OBJECT GLOBAL DEFAULT 18 _ZTCN7android8hardware14n
340:   FUNC GLOBAL DEFAULT 14 _ZN7android8hardware14neu
341:   FUNC GLOBAL DEFAULT 14 _ZN7android8hardware14neu
342:   OBJECT GLOBAL DEFAULT 18 _ZTCN7android8hardware14n
343:   FUNC GLOBAL DEFAULT 14 _ZTv0_n24_N7android8hardw
344:   FUNC GLOBAL DEFAULT 14 _ZN7android8hardware14neu
345:   FUNC GLOBAL DEFAULT 14 _ZThn32_N7android8hardwar
346:   FUNC GLOBAL DEFAULT 14 _ZN7android8hardware14neu
347:   OBJECT GLOBAL DEFAULT 18 _ZTCN7android8hardware14n
348:   OBJECT GLOBAL DEFAULT 18 _ZTVN7android8hardware14n
349:   FUNC GLOBAL DEFAULT 14 _ZN7android8hardware14neu
350:   FUNC GLOBAL DEFAULT 14 _ZN7android8hardware14neu
351:   FUNC GLOBAL DEFAULT 14 _ZN7android8hardware14neu
352:   OBJECT GLOBAL DEFAULT 18 _ZTVN7android8hardware14n
353:   FUNC GLOBAL DEFAULT 14 _ZN7android8hardware14neu
354:   FUNC GLOBAL DEFAULT 14 _ZN7android8hardware14neu
355:   OBJECT GLOBAL DEFAULT 18 _ZTTN7android8hardware14n
356:   FUNC GLOBAL DEFAULT 14 _ZN7android8hardware14neu
357:   FUNC GLOBAL DEFAULT 14 _ZN7android8hardware14neu
358:   FUNC GLOBAL DEFAULT 14 _ZN7android8hardware14neu
359:   FUNC GLOBAL DEFAULT 14 _ZN7android8hardware14neu
360:   FUNC GLOBAL DEFAULT 14 _ZN7android8hardware14neu
361:   FUNC GLOBAL DEFAULT 14 _ZN7android8hardware14neu
362:   FUNC GLOBAL DEFAULT 14 _ZN7android8hardware14neu
363:   OBJECT GLOBAL DEFAULT 18 _ZTVN7android8hardware14n
364:   FUNC GLOBAL DEFAULT 14 _ZN7android8hardware14neu
365:   FUNC GLOBAL DEFAULT 14 _ZN7android8hardware14neu
366:   FUNC WEAK DEFAULT 14 _ZN7android8hardware7deta
367:   OBJECT WEAK DEFAULT 18 _ZTVN7android8hardware14n
368:   FUNC GLOBAL DEFAULT 14 _ZN7android8hardware14neu
369:   FUNC WEAK DEFAULT 14 _ZNSt3__127__tree_balance
370:   FUNC GLOBAL DEFAULT 14 _ZN7android8hardware14neu
371:   OBJECT GLOBAL DEFAULT 18 _ZTTN7android8hardware14n
372:   FUNC GLOBAL DEFAULT 14 _ZN7android8hardware14neu
373:   FUNC GLOBAL DEFAULT 14 _ZN7android8hardware14neu
374:   FUNC GLOBAL DEFAULT 14 _ZN7android8hardware14neu
375:   FUNC GLOBAL DEFAULT 14 _ZN7android8hardware14neu
376:   FUNC GLOBAL DEFAULT 14 _ZN7android8hardware14neu
377:   OBJECT GLOBAL DEFAULT 18 _ZTCN7android8hardware14n
378:   FUNC GLOBAL DEFAULT 14 _ZN7android8hardware14neu
379:   FUNC GLOBAL DEFAULT 14 _ZN7android8hardware14neu
380:   FUNC GLOBAL DEFAULT 14 _ZN7android8hardware14neu
381:   FUNC GLOBAL DEFAULT 14 _ZN7android8hardware14neu
382:   FUNC WEAK DEFAULT 14 _ZN7android8hardware7deta
383:   FUNC GLOBAL DEFAULT 14 _ZN7android8hardware14neu
384:   FUNC GLOBAL DEFAULT 14 _ZN7android8hardware14neu
385:   OBJECT WEAK DEFAULT 18 _ZTVN7android8hardware14n
386:   FUNC GLOBAL DEFAULT 14 _ZN7android8hardware14neu
387:   FUNC GLOBAL DEFAULT 14 _ZN7android8hardware14neu
388:   FUNC GLOBAL DEFAULT 14 _ZTv0_n24_N7android8hardw
389:   FUNC GLOBAL DEFAULT 14 _ZN7android8hardware14neu
390:   FUNC GLOBAL DEFAULT 14 _ZN7android8hardware14neu
391:   FUNC GLOBAL DEFAULT 14 _ZN7android8hardware14neu
392:   OBJECT GLOBAL DEFAULT 18 _ZTCN7android8hardware14n
393:   FUNC GLOBAL DEFAULT 14 _ZN7android8hardware14neu
394:   FUNC GLOBAL DEFAULT 14 _ZN7android8hardware14neu
395:   OBJECT GLOBAL DEFAULT 16 _ZN7android8hardware14neu
396:   FUNC GLOBAL DEFAULT 14 _ZN7android8hardware14neu
397:   FUNC WEAK DEFAULT 14 _ZNSt3__16__treeINS_12__v
398:   OBJECT GLOBAL DEFAULT 18 _ZTCN7android8hardware14n
399:   FUNC GLOBAL DEFAULT 14 _ZN7android8hardware14neu
400:   FUNC GLOBAL DEFAULT 14 _ZN7android8hardware14neu
401:   FUNC GLOBAL DEFAULT 14 _ZN7android8hardware14neu
402:   FUNC GLOBAL DEFAULT 14 _ZN7android8hardware14neu
403:   FUNC GLOBAL DEFAULT 14 _ZN7android8hardware14neu
404:   FUNC WEAK DEFAULT 14 _ZNSt3__113__tree_removeI
405:   OBJECT GLOBAL DEFAULT 18 _ZTVN7android8hardware14n
406:   FUNC GLOBAL DEFAULT 14 _ZN7android8hardware14neu
407:   OBJECT GLOBAL DEFAULT 18 _ZTCN7android8hardware14n
408:   FUNC GLOBAL DEFAULT 14 _ZN7android8hardware14neu
409:   OBJECT WEAK DEFAULT 18 _ZTVN7android8hardware14n
410:   FUNC GLOBAL DEFAULT 14 _ZN7android8hardware14neu
411:   FUNC GLOBAL DEFAULT 14 _ZN7android8hardware14neu
412:   OBJECT GLOBAL DEFAULT 18 _ZTVN7android8hardware14n
413:   FUNC GLOBAL DEFAULT 14 _ZN7android8hardware14neu
414:   FUNC GLOBAL DEFAULT 14 _ZN7android8hardware14neu
415:   FUNC GLOBAL DEFAULT 14 _ZN7android8hardware14neu
416:   FUNC GLOBAL DEFAULT 14 _ZN7android8hardware14neu
417:   FUNC WEAK DEFAULT 14 _ZN7android8hardware7deta
418:   FUNC WEAK DEFAULT 14 _ZN7android8hardware7deta
419:   OBJECT GLOBAL DEFAULT 18 _ZTTN7android8hardware14n
420:   FUNC WEAK DEFAULT 14 _ZNSt3__16__treeINS_12__v
421:   FUNC GLOBAL DEFAULT 14 _ZN7android8hardware14neu
422:   OBJECT GLOBAL DEFAULT 18 _ZTCN7android8hardware14n
423:   FUNC WEAK DEFAULT 14 _ZN7android8hardware7deta
424:   FUNC GLOBAL DEFAULT 14 _ZN7android8hardware14neu
425:   FUNC GLOBAL DEFAULT 14 _ZN7android8hardware14neu
426:   FUNC GLOBAL DEFAULT 14 _ZN7android8hardware14neu
427:   FUNC GLOBAL DEFAULT 14 _ZN7android8hardware14neu
428:   FUNC GLOBAL DEFAULT 14 _ZN7android8hardware14neu
429:   OBJECT GLOBAL DEFAULT 18 _ZTTN7android8hardware14n
430:   FUNC GLOBAL DEFAULT 14 _ZN7android8hardware14neu
431:   FUNC GLOBAL DEFAULT 14 _ZN7android8hardware14neu
432:   FUNC GLOBAL DEFAULT 14 _ZN7android8hardware14neu
433:   FUNC GLOBAL DEFAULT 14 _ZN7android8hardware14neu
434:   OBJECT WEAK DEFAULT 18 _ZTVN7android8hardware14n
435:   FUNC WEAK DEFAULT 14 _ZN7android8hardware10fro
436:   FUNC GLOBAL DEFAULT 14 _ZN7android8hardware14neu
437:   FUNC GLOBAL DEFAULT 14 _ZThn32_N7android8hardwar
438:   FUNC GLOBAL DEFAULT 14 _ZN7android8hardware14neu
439:   FUNC GLOBAL DEFAULT 14 _ZN7android8hardware14neu
440:   FUNC GLOBAL DEFAULT 14 _ZN7android8hardware14neu
441:   FUNC GLOBAL DEFAULT 14 _ZN7android8hardware14neu
442:   FUNC GLOBAL DEFAULT 14 _ZN7android8hardware14neu
443:   FUNC GLOBAL DEFAULT 14 _ZN7android8hardware14neu
444:   FUNC GLOBAL DEFAULT 14 _ZN7android8hardware14neu
445:   FUNC GLOBAL DEFAULT 14 _ZN7android8hardware14neu
446:   FUNC GLOBAL DEFAULT 14 _ZTv0_n24_N7android8hardw
447:   FUNC GLOBAL DEFAULT 14 _ZN7android8hardware14neu
448:   OBJECT GLOBAL DEFAULT 18 _ZTCN7android8hardware14n
449:   FUNC GLOBAL DEFAULT 14 _ZThn32_N7android8hardwar
450:   FUNC GLOBAL DEFAULT 14 _ZN7android8hardware14neu
451:   FUNC GLOBAL DEFAULT 14 _ZN7android8hardware14neu
452:   FUNC WEAK DEFAULT 14 _ZN7android8hardware7deta
453:   OBJECT GLOBAL DEFAULT 18 _ZTCN7android8hardware14n
454:   FUNC GLOBAL DEFAULT 14 _ZN7android8hardware14neu
455:   FUNC WEAK DEFAULT 14 _ZN7android8hardware10fro
