 0x000000000000000e (SONAME)             Library soname: [android.hardware.drm@1.1.so]
  
Symbol   contains 544 entries:
Num:   Type Bind Vis Ndx Name
0:   NOTYPE LOCAL DEFAULT UND
1:   FUNC GLOBAL DEFAULT UND __cxa_finalize@LIBC (2)
2:   FUNC GLOBAL DEFAULT UND _ZN7android14sp_report_ra
3:   FUNC GLOBAL DEFAULT UND _ZN7android21report_syspr
4:   OBJECT GLOBAL DEFAULT UND _ZN7android4hidl4base4V1_
5:   FUNC GLOBAL DEFAULT UND _ZN7android4hidl4base4V1_
6:   FUNC GLOBAL DEFAULT UND _ZN7android4hidl4base4V1_
7:   FUNC GLOBAL DEFAULT UND _ZN7android4hidl4base4V1_
8:   FUNC GLOBAL DEFAULT UND _ZN7android4hidl4base4V1_
9:   FUNC GLOBAL DEFAULT UND _ZN7android4hidl4base4V1_
10:   FUNC GLOBAL DEFAULT UND _ZN7android4hidl4base4V1_
11:   FUNC GLOBAL DEFAULT UND _ZN7android4hidl4base4V1_
12:   FUNC GLOBAL DEFAULT UND _ZN7android4hidl4base4V1_
13:   FUNC GLOBAL DEFAULT UND _ZN7android4hidl4base4V1_
14:   FUNC GLOBAL DEFAULT UND _ZN7android4hidl4base4V1_
15:   FUNC GLOBAL DEFAULT UND _ZN7android4hidl4base4V1_
16:   FUNC GLOBAL DEFAULT UND _ZN7android4hidl4base4V1_
17:   FUNC GLOBAL DEFAULT UND _ZN7android4hidl4base4V1_
18:   FUNC GLOBAL DEFAULT UND _ZN7android4hidl4base4V1_
19:   FUNC GLOBAL DEFAULT UND _ZN7android4hidl4base4V1_
20:   FUNC GLOBAL DEFAULT UND _ZN7android4hidl4base4V1_
21:   FUNC GLOBAL DEFAULT UND _ZN7android4hidl4base4V1_
22:   FUNC GLOBAL DEFAULT UND _ZN7android4hidl4base4V1_
23:   FUNC GLOBAL DEFAULT UND _ZN7android4hidl4base4V1_
24:   FUNC GLOBAL DEFAULT UND _ZN7android4hidl4base4V1_
25:   FUNC GLOBAL DEFAULT UND _ZN7android4hidl4base4V1_
26:   FUNC GLOBAL DEFAULT UND _ZN7android4hidl4base4V1_
27:   FUNC GLOBAL DEFAULT UND _ZN7android4hidl4base4V1_
28:   FUNC GLOBAL DEFAULT UND _ZN7android7RefBase10onFi
29:   FUNC GLOBAL DEFAULT UND _ZN7android7RefBase12weak
30:   FUNC GLOBAL DEFAULT UND _ZN7android7RefBase13onLa
31:   FUNC GLOBAL DEFAULT UND _ZN7android7RefBase15onLa
32:   FUNC GLOBAL DEFAULT UND _ZN7android7RefBase20onIn
33:   FUNC GLOBAL DEFAULT UND _ZN7android7RefBaseC2Ev
34:   FUNC GLOBAL DEFAULT UND _ZN7android7RefBaseD2Ev
35:   FUNC GLOBAL DEFAULT UND _ZN7android8hardware10IIn
36:   FUNC GLOBAL DEFAULT UND _ZN7android8hardware10IIn
37:   FUNC GLOBAL DEFAULT UND _ZN7android8hardware10IIn
38:   FUNC GLOBAL DEFAULT UND _ZN7android8hardware10IIn
39:   FUNC GLOBAL DEFAULT UND _ZN7android8hardware11BpH
40:   FUNC GLOBAL DEFAULT UND _ZN7android8hardware11BpH
41:   FUNC GLOBAL DEFAULT UND _ZN7android8hardware11BpH
42:   FUNC GLOBAL DEFAULT UND _ZN7android8hardware11BpH
43:   FUNC GLOBAL DEFAULT UND _ZN7android8hardware11BpH
44:   FUNC GLOBAL DEFAULT UND _ZN7android8hardware11BpH
45:   FUNC GLOBAL DEFAULT UND _ZN7android8hardware11BpH
46:   FUNC GLOBAL DEFAULT UND _ZN7android8hardware11hid
47:   FUNC GLOBAL DEFAULT UND _ZN7android8hardware11hid
48:   FUNC GLOBAL DEFAULT UND _ZN7android8hardware11hid
49:   FUNC GLOBAL DEFAULT UND _ZN7android8hardware11hid
50:   FUNC GLOBAL DEFAULT UND _ZN7android8hardware11hid
51:   FUNC GLOBAL DEFAULT UND _ZN7android8hardware12Pro
52:   FUNC GLOBAL DEFAULT UND _ZN7android8hardware12Pro
53:   FUNC GLOBAL DEFAULT UND _ZN7android8hardware13wri
54:   FUNC GLOBAL DEFAULT UND _ZN7android8hardware21def
55:   FUNC GLOBAL DEFAULT UND _ZN7android8hardware23get
56:   FUNC GLOBAL DEFAULT UND _ZN7android8hardware27hid
57:   FUNC GLOBAL DEFAULT UND _ZN7android8hardware27hid
58:   OBJECT GLOBAL DEFAULT UND _ZN7android8hardware3drm4
59:   FUNC GLOBAL DEFAULT UND _ZN7android8hardware3drm4
60:   FUNC GLOBAL DEFAULT UND _ZN7android8hardware3drm4
61:   FUNC GLOBAL DEFAULT UND _ZN7android8hardware3drm4
62:   FUNC GLOBAL DEFAULT UND _ZN7android8hardware3drm4
63:   FUNC GLOBAL DEFAULT UND _ZN7android8hardware3drm4
64:   FUNC GLOBAL DEFAULT UND _ZN7android8hardware3drm4
65:   FUNC GLOBAL DEFAULT UND _ZN7android8hardware3drm4
66:   FUNC GLOBAL DEFAULT UND _ZN7android8hardware3drm4
67:   FUNC GLOBAL DEFAULT UND _ZN7android8hardware3drm4
68:   FUNC GLOBAL DEFAULT UND _ZN7android8hardware3drm4
69:   FUNC GLOBAL DEFAULT UND _ZN7android8hardware3drm4
70:   FUNC GLOBAL DEFAULT UND _ZN7android8hardware3drm4
71:   FUNC GLOBAL DEFAULT UND _ZN7android8hardware3drm4
72:   FUNC GLOBAL DEFAULT UND _ZN7android8hardware3drm4
73:   FUNC GLOBAL DEFAULT UND _ZN7android8hardware6Stat
74:   FUNC GLOBAL DEFAULT UND _ZN7android8hardware6Stat
75:   FUNC GLOBAL DEFAULT UND _ZN7android8hardware6Stat
76:   FUNC GLOBAL DEFAULT UND _ZN7android8hardware7IBin
77:   FUNC GLOBAL DEFAULT UND _ZN7android8hardware7IBin
78:   FUNC GLOBAL DEFAULT UND _ZN7android8hardware7IBin
79:   FUNC GLOBAL DEFAULT UND _ZN7android8hardware7IBin
80:   FUNC GLOBAL DEFAULT UND _ZN7android8hardware7deta
81:   FUNC GLOBAL DEFAULT UND _ZN7android8hardware7deta
82:   FUNC GLOBAL DEFAULT UND _ZN7android8hardware7deta
83:   FUNC GLOBAL DEFAULT UND _ZN7android8hardware7deta
84:   FUNC GLOBAL DEFAULT UND _ZN7android8hardware7deta
85:   FUNC GLOBAL DEFAULT UND _ZN7android8hardware7deta
86:   FUNC GLOBAL DEFAULT UND _ZN7android8hardware7deta
87:   OBJECT GLOBAL DEFAULT UND _ZN7android8hardware7deta
88:   FUNC GLOBAL DEFAULT UND _ZN7android8hardware7deta
89:   OBJECT GLOBAL DEFAULT UND _ZN7android8hardware7deta
90:   FUNC GLOBAL DEFAULT UND _ZN7android8hardware7deta
91:   FUNC GLOBAL DEFAULT UND _ZN7android8hardware7deta
92:   FUNC GLOBAL DEFAULT UND _ZN7android8hardware7deta
93:   FUNC GLOBAL DEFAULT UND _ZN7android8hardware7deta
94:   FUNC GLOBAL DEFAULT UND _ZN7android8hardware7deta
95:   FUNC GLOBAL DEFAULT UND _ZN7android8hardware7deta
96:   FUNC GLOBAL DEFAULT UND _ZN7android8hardware7deta
97:   FUNC GLOBAL DEFAULT UND _ZN7android8hardware7deta
98:   FUNC GLOBAL DEFAULT UND _ZN7android8hardware7deta
99:   FUNC GLOBAL DEFAULT UND _ZN7android8hardware7deta
100:   OBJECT GLOBAL DEFAULT UND _ZN7android8hardware7deta
101:   FUNC GLOBAL DEFAULT UND _ZN7android8hardware9BHwB
102:   FUNC GLOBAL DEFAULT UND _ZN7android8hardware9BHwB
103:   FUNC GLOBAL DEFAULT UND _ZN7android8hardware9BHwB
104:   FUNC GLOBAL DEFAULT UND _ZN7android8hardware9BHwB
105:   FUNC GLOBAL DEFAULT UND _ZN7android8hardware9BHwB
106:   FUNC GLOBAL DEFAULT UND _ZN7android8hardware9BHwB
107:   FUNC GLOBAL DEFAULT UND _ZN7android8hardware9BHwB
108:   FUNC GLOBAL DEFAULT UND _ZN7android8hardware9BHwB
109:   FUNC GLOBAL DEFAULT UND _ZN7android8hardware9BHwB
110:   FUNC GLOBAL DEFAULT UND _ZN7android8hardware9BHwB
111:   FUNC GLOBAL DEFAULT UND _ZNK7android7RefBase10cre
112:   FUNC GLOBAL DEFAULT UND _ZNK7android7RefBase11get
113:   FUNC GLOBAL DEFAULT UND _ZNK7android7RefBase9decS
114:   FUNC GLOBAL DEFAULT UND _ZNK7android7RefBase9incS
115:   FUNC GLOBAL DEFAULT UND _ZNK7android8hardware7IBi
116:   FUNC GLOBAL DEFAULT UND _ZNK7android8hardware7det
117:   FUNC GLOBAL DEFAULT UND _ZNK7android8hardware9BHw
118:   FUNC GLOBAL DEFAULT UND _ZNKSt3__120__vector_base
119:   FUNC GLOBAL DEFAULT UND _ZNKSt3__121__basic_strin
120:   FUNC GLOBAL DEFAULT UND _ZNSt3__112basic_stringIc
121:   FUNC GLOBAL DEFAULT UND _ZNSt3__112basic_stringIc
122:   FUNC GLOBAL DEFAULT UND _ZNSt3__15mutex4lockEv
123:   FUNC GLOBAL DEFAULT UND _ZNSt3__15mutex6unlockEv
124:   FUNC GLOBAL DEFAULT UND _ZNSt3__15mutexD1Ev
125:   FUNC GLOBAL DEFAULT UND _ZTv0_n24_N7android4hidl4
126:   FUNC GLOBAL DEFAULT UND _ZTv0_n24_N7android4hidl4
127:   FUNC GLOBAL DEFAULT UND _ZTv0_n24_N7android8hardw
128:   FUNC GLOBAL DEFAULT UND _ZTv0_n24_N7android8hardw
129:   FUNC GLOBAL DEFAULT UND _ZTv0_n24_N7android8hardw
130:   FUNC GLOBAL DEFAULT UND _ZTv0_n24_N7android8hardw
131:   FUNC GLOBAL DEFAULT UND _ZTv0_n24_N7android8hardw
132:   FUNC GLOBAL DEFAULT UND _ZTv0_n24_N7android8hardw
133:   FUNC GLOBAL DEFAULT UND _ZTv0_n24_N7android8hardw
134:   FUNC GLOBAL DEFAULT UND _ZTv0_n24_N7android8hardw
135:   FUNC GLOBAL DEFAULT UND _ZTv0_n32_N7android8hardw
136:   FUNC GLOBAL DEFAULT UND _ZTv0_n40_N7android8hardw
137:   FUNC GLOBAL DEFAULT UND _ZTv0_n48_N7android8hardw
138:   FUNC GLOBAL DEFAULT UND _ZdaPv
139:   FUNC GLOBAL DEFAULT UND _ZdlPv
140:   FUNC GLOBAL DEFAULT UND _Znam
141:   FUNC GLOBAL DEFAULT UND _Znwm
142:   FUNC GLOBAL DEFAULT UND __cxa_pure_virtual
143:   FUNC GLOBAL DEFAULT UND __stack_chk_fail@LIBC (2)
144:   FUNC GLOBAL DEFAULT UND abort@LIBC (2)
145:   FUNC GLOBAL DEFAULT UND atrace_begin_body
146:   OBJECT GLOBAL DEFAULT UND atrace_enabled_tags
147:   FUNC GLOBAL DEFAULT UND atrace_end_body
148:   OBJECT GLOBAL DEFAULT UND atrace_is_ready
149:   FUNC GLOBAL DEFAULT UND atrace_setup
150:   FUNC GLOBAL DEFAULT UND memcmp@LIBC (2)
151:   FUNC GLOBAL DEFAULT UND memcpy@LIBC (2)
152:   FUNC GLOBAL DEFAULT UND memset@LIBC (2)
153:   FUNC GLOBAL DEFAULT UND strlen@LIBC (2)
154:   OBJECT GLOBAL DEFAULT UND _ZN7android8hardware3drm4
155:   FUNC GLOBAL DEFAULT UND _ZN7android8hardware3drm4
156:   FUNC GLOBAL DEFAULT UND _ZN7android8hardware3drm4
157:   FUNC GLOBAL DEFAULT UND _ZN7android8hardware3drm4
158:   FUNC GLOBAL DEFAULT UND _ZN7android8hardware3drm4
159:   FUNC GLOBAL DEFAULT UND _ZN7android8hardware3drm4
160:   FUNC GLOBAL DEFAULT UND _ZN7android8hardware3drm4
161:   FUNC GLOBAL DEFAULT UND _ZN7android8hardware3drm4
162:   FUNC GLOBAL DEFAULT UND _ZN7android8hardware3drm4
163:   FUNC GLOBAL DEFAULT UND _ZN7android8hardware3drm4
164:   FUNC GLOBAL DEFAULT UND _ZN7android8hardware3drm4
165:   FUNC GLOBAL DEFAULT UND _ZN7android8hardware3drm4
166:   FUNC GLOBAL DEFAULT UND _ZN7android8hardware3drm4
167:   FUNC GLOBAL DEFAULT UND _ZN7android8hardware3drm4
168:   FUNC GLOBAL DEFAULT UND _ZN7android8hardware3drm4
169:   FUNC GLOBAL DEFAULT UND _ZN7android8hardware3drm4
170:   FUNC GLOBAL DEFAULT UND _ZN7android8hardware3drm4
171:   FUNC GLOBAL DEFAULT UND _ZN7android8hardware10IIn
172:   FUNC GLOBAL DEFAULT UND _ZN7android8hardware14rea
173:   FUNC GLOBAL DEFAULT UND _ZN7android8hardware21wri
174:   FUNC GLOBAL DEFAULT UND _ZN7android8hardware22rea
175:   OBJECT GLOBAL DEFAULT UND _ZN7android8hardware3drm4
176:   FUNC GLOBAL DEFAULT UND _ZN7android8hardware3drm4
177:   FUNC GLOBAL DEFAULT UND _ZN7android8hardware3drm4
178:   FUNC GLOBAL DEFAULT UND _ZN7android8hardware3drm4
179:   FUNC GLOBAL DEFAULT UND _ZN7android8hardware3drm4
180:   FUNC GLOBAL DEFAULT UND _ZN7android8hardware3drm4
181:   FUNC GLOBAL DEFAULT UND _ZN7android8hardware3drm4
182:   FUNC GLOBAL DEFAULT UND _ZN7android8hardware3drm4
183:   FUNC GLOBAL DEFAULT UND _ZN7android8hardware3drm4
184:   FUNC GLOBAL DEFAULT UND _ZN7android8hardware3drm4
185:   FUNC GLOBAL DEFAULT UND _ZN7android8hardware3drm4
186:   FUNC GLOBAL DEFAULT UND _ZN7android8hardware3drm4
187:   FUNC GLOBAL DEFAULT UND _ZN7android8hardware3drm4
188:   FUNC GLOBAL DEFAULT UND _ZN7android8hardware3drm4
189:   FUNC GLOBAL DEFAULT UND _ZN7android8hardware3drm4
190:   FUNC GLOBAL DEFAULT UND _ZN7android8hardware3drm4
191:   FUNC GLOBAL DEFAULT UND _ZN7android8hardware3drm4
192:   FUNC GLOBAL DEFAULT UND _ZN7android8hardware3drm4
193:   FUNC GLOBAL DEFAULT UND _ZN7android8hardware3drm4
194:   FUNC GLOBAL DEFAULT UND _ZN7android8hardware3drm4
195:   FUNC GLOBAL DEFAULT UND _ZN7android8hardware3drm4
196:   FUNC GLOBAL DEFAULT UND _ZN7android8hardware3drm4
197:   FUNC GLOBAL DEFAULT UND _ZN7android8hardware3drm4
198:   FUNC GLOBAL DEFAULT UND _ZN7android8hardware3drm4
199:   FUNC GLOBAL DEFAULT UND _ZN7android8hardware3drm4
200:   FUNC GLOBAL DEFAULT UND _ZN7android8hardware3drm4
201:   FUNC GLOBAL DEFAULT UND _ZN7android8hardware3drm4
202:   FUNC GLOBAL DEFAULT UND _ZN7android8hardware3drm4
203:   FUNC GLOBAL DEFAULT UND _ZN7android8hardware3drm4
204:   FUNC GLOBAL DEFAULT UND _ZN7android8hardware3drm4
205:   FUNC GLOBAL DEFAULT UND _ZN7android8hardware3drm4
206:   FUNC GLOBAL DEFAULT UND _ZN7android8hardware3drm4
207:   FUNC GLOBAL DEFAULT UND _ZN7android8hardware3drm4
208:   FUNC GLOBAL DEFAULT UND _ZN7android8hardware3drm4
209:   FUNC GLOBAL DEFAULT UND _ZN7android8hardware3drm4
210:   FUNC GLOBAL DEFAULT UND _ZN7android8hardware3drm4
211:   FUNC GLOBAL DEFAULT UND _ZN7android8hardware3drm4
212:   FUNC GLOBAL DEFAULT UND _ZN7android8hardware3drm4
213:   FUNC GLOBAL DEFAULT UND _ZN7android8hardware3drm4
214:   FUNC GLOBAL DEFAULT UND _ZN7android8hardware3drm4
215:   FUNC GLOBAL DEFAULT UND _ZN7android8hardware3drm4
216:   FUNC GLOBAL DEFAULT UND _ZN7android8hardware3drm4
217:   FUNC GLOBAL DEFAULT UND _ZN7android8hardware3drm4
218:   FUNC GLOBAL DEFAULT UND _ZN7android8hardware3drm4
219:   FUNC GLOBAL DEFAULT UND _ZN7android8hardware3drm4
220:   FUNC GLOBAL DEFAULT UND _ZN7android8hardware3drm4
221:   FUNC GLOBAL DEFAULT UND _ZN7android8hardware3drm4
222:   FUNC GLOBAL DEFAULT UND _ZN7android8hardware3drm4
223:   FUNC GLOBAL DEFAULT UND _ZN7android8hardware3drm4
224:   FUNC GLOBAL DEFAULT UND _ZN7android8hardware3drm4
225:   FUNC GLOBAL DEFAULT UND _ZN7android8hardware3drm4
226:   FUNC GLOBAL DEFAULT UND _ZN7android8hardware3drm4
227:   FUNC GLOBAL DEFAULT UND _ZN7android8hardware3drm4
228:   FUNC GLOBAL DEFAULT UND _ZN7android8hardware3drm4
229:   FUNC GLOBAL DEFAULT UND _ZN7android8hardware3drm4
230:   FUNC GLOBAL DEFAULT UND _ZN7android8hardware3drm4
231:   FUNC GLOBAL DEFAULT UND _ZN7android8hardware3drm4
232:   FUNC GLOBAL DEFAULT UND _ZN7android8hardware3drm4
233:   FUNC GLOBAL DEFAULT UND _ZN7android8hardware3drm4
234:   FUNC GLOBAL DEFAULT UND _ZN7android8hardware3drm4
235:   FUNC GLOBAL DEFAULT UND _ZN7android8hardware3drm4
236:   FUNC GLOBAL DEFAULT UND _ZN7android8hardware3drm4
237:   FUNC GLOBAL DEFAULT UND _ZN7android8hardware3drm4
238:   FUNC GLOBAL DEFAULT UND _ZN7android8hardware3drm4
239:   FUNC GLOBAL DEFAULT UND _ZN7android8hardware3drm4
240:   FUNC GLOBAL DEFAULT UND _ZN7android8hardware3drm4
241:   FUNC GLOBAL DEFAULT UND _ZN7android8hardware3drm4
242:   FUNC GLOBAL DEFAULT UND _ZN7android8hardware3drm4
243:   FUNC GLOBAL DEFAULT UND _ZN7android8hardware3drm4
244:   FUNC GLOBAL DEFAULT UND _ZN7android8hardware6Parc
245:   FUNC GLOBAL DEFAULT UND _ZN7android8hardware6Parc
246:   FUNC GLOBAL DEFAULT UND _ZN7android8hardware6Parc
247:   FUNC GLOBAL DEFAULT UND _ZN7android8hardware6Parc
248:   FUNC GLOBAL DEFAULT UND _ZN7android8hardware6Parc
249:   FUNC GLOBAL DEFAULT UND _ZN7android8hardware6Parc
250:   FUNC GLOBAL DEFAULT UND _ZN7android8hardware6Stat
251:   FUNC GLOBAL DEFAULT UND _ZNK7android8hardware6Par
252:   FUNC GLOBAL DEFAULT UND _ZNK7android8hardware6Par
253:   FUNC GLOBAL DEFAULT UND _ZNK7android8hardware6Par
254:   FUNC GLOBAL DEFAULT UND _ZNK7android8hardware6Par
255:   FUNC GLOBAL DEFAULT UND __android_log_assert@LIBLOG (3)
256:   FUNC GLOBAL DEFAULT 14 _ZThn32_N7android8hardwar
257:   FUNC GLOBAL DEFAULT 14 _ZN7android8hardware3drm4
258:   FUNC GLOBAL DEFAULT 14 _ZN7android8hardware3drm4
259:   FUNC WEAK DEFAULT 14 _ZNSt3__16vectorIPvNS_9al
260:   OBJECT GLOBAL DEFAULT 18 _ZTVN7android8hardware3dr
261:   FUNC GLOBAL DEFAULT 14 _ZN7android8hardware3drm4
262:   FUNC GLOBAL DEFAULT 14 _ZN7android8hardware3drm4
263:   OBJECT GLOBAL DEFAULT 18 _ZTVN7android8hardware3dr
264:   FUNC GLOBAL DEFAULT 14 _ZN7android8hardware3drm4
265:   OBJECT GLOBAL DEFAULT 18 _ZTCN7android8hardware3dr
266:   FUNC GLOBAL DEFAULT 14 _ZN7android8hardware3drm4
267:   FUNC GLOBAL DEFAULT 14 _ZN7android8hardware3drm4
268:   OBJECT GLOBAL DEFAULT 18 _ZTCN7android8hardware3dr
269:   FUNC GLOBAL DEFAULT 14 _ZN7android8hardware3drm4
270:   FUNC WEAK DEFAULT 14 _ZNSt3__16__treeINS_12__v
271:   FUNC GLOBAL DEFAULT 14 _ZN7android8hardware3drm4
272:   FUNC WEAK DEFAULT 14 _ZN7android8hardware7deta
273:   FUNC GLOBAL DEFAULT 14 _ZN7android8hardware3drm4
274:   FUNC WEAK DEFAULT 14 _ZN7android8hardware7deta
275:   OBJECT GLOBAL DEFAULT 18 _ZTCN7android8hardware3dr
276:   FUNC WEAK DEFAULT 14 _ZN7android8hardware7deta
277:   OBJECT GLOBAL DEFAULT 18 _ZTCN7android8hardware3dr
278:   FUNC GLOBAL DEFAULT 14 _ZN7android8hardware3drm4
279:   FUNC GLOBAL DEFAULT 14 _ZN7android8hardware3drm4
280:   FUNC GLOBAL DEFAULT 14 _ZN7android8hardware3drm4
281:   FUNC GLOBAL DEFAULT 14 _ZN7android8hardware3drm4
282:   FUNC GLOBAL DEFAULT 14 _ZN7android8hardware3drm4
283:   FUNC GLOBAL DEFAULT 14 _ZN7android8hardware3drm4
284:   FUNC GLOBAL DEFAULT 14 _ZN7android8hardware3drm4
285:   OBJECT GLOBAL DEFAULT 18 _ZTCN7android8hardware3dr
286:   FUNC GLOBAL DEFAULT 14 _ZN7android8hardware3drm4
287:   FUNC GLOBAL DEFAULT 14 _ZN7android8hardware3drm4
288:   FUNC GLOBAL DEFAULT 14 _ZN7android8hardware3drm4
289:   FUNC GLOBAL DEFAULT 14 _ZN7android8hardware3drm4
290:   FUNC GLOBAL DEFAULT 14 _ZN7android8hardware3drm4
291:   OBJECT GLOBAL DEFAULT 18 _ZTCN7android8hardware3dr
292:   FUNC GLOBAL DEFAULT 14 _ZN7android8hardware3drm4
293:   FUNC GLOBAL DEFAULT 14 _ZN7android8hardware3drm4
294:   FUNC GLOBAL DEFAULT 14 _ZN7android8hardware3drm4
295:   FUNC GLOBAL DEFAULT 14 _ZN7android8hardware3drm4
296:   OBJECT GLOBAL DEFAULT 16 _ZN7android8hardware3drm4
297:   FUNC GLOBAL DEFAULT 14 _ZN7android8hardware3drm4
298:   FUNC GLOBAL DEFAULT 14 _ZN7android8hardware3drm4
299:   FUNC GLOBAL DEFAULT 14 _ZN7android8hardware3drm4
300:   FUNC GLOBAL DEFAULT 14 _ZN7android8hardware3drm4
301:   FUNC GLOBAL DEFAULT 14 _ZN7android8hardware3drm4
302:   OBJECT GLOBAL DEFAULT 16 _ZN7android8hardware3drm4
303:   FUNC WEAK DEFAULT 14 _ZN7android8hardware7deta
304:   FUNC GLOBAL DEFAULT 14 _ZN7android8hardware3drm4
305:   FUNC GLOBAL DEFAULT 14 _ZN7android8hardware3drm4
306:   OBJECT GLOBAL DEFAULT 18 _ZTTN7android8hardware3dr
307:   FUNC GLOBAL DEFAULT 14 _ZN7android8hardware3drm4
308:   FUNC WEAK DEFAULT 14 _ZN7android8hardware7deta
309:   FUNC WEAK DEFAULT 14 _ZN7android8hardware7deta
310:   FUNC GLOBAL DEFAULT 14 _ZN7android8hardware3drm4
311:   OBJECT GLOBAL DEFAULT 18 _ZTCN7android8hardware3dr
312:   FUNC GLOBAL DEFAULT 14 _ZN7android8hardware3drm4
313:   OBJECT GLOBAL DEFAULT 18 _ZTCN7android8hardware3dr
314:   FUNC GLOBAL DEFAULT 14 _ZN7android8hardware3drm4
315:   FUNC GLOBAL DEFAULT 14 _ZN7android8hardware3drm4
316:   FUNC GLOBAL DEFAULT 14 _ZN7android8hardware3drm4
317:   FUNC GLOBAL DEFAULT 14 _ZN7android8hardware3drm4
318:   FUNC WEAK DEFAULT 14 _ZNSt3__16__treeINS_12__v
319:   FUNC WEAK DEFAULT 14 _ZN7android8hardware7deta
320:   OBJECT GLOBAL DEFAULT 18 _ZTCN7android8hardware3dr
321:   OBJECT GLOBAL DEFAULT 18 _ZTTN7android8hardware3dr
322:   FUNC WEAK DEFAULT 14 _ZN7android8hardware7deta
323:   OBJECT WEAK DEFAULT 18 _ZTVN7android8hardware3dr
324:   OBJECT GLOBAL DEFAULT 18 _ZTTN7android8hardware3dr
325:   FUNC GLOBAL DEFAULT 14 _ZThn32_N7android8hardwar
326:   FUNC GLOBAL DEFAULT 14 _ZN7android8hardware3drm4
327:   FUNC GLOBAL DEFAULT 14 _ZTv0_n24_N7android8hardw
328:   FUNC GLOBAL DEFAULT 14 _ZN7android8hardware3drm4
329:   FUNC GLOBAL DEFAULT 14 _ZN7android8hardware3drm4
330:   FUNC GLOBAL DEFAULT 14 _ZN7android8hardware3drm4
331:   FUNC GLOBAL DEFAULT 14 _ZN7android8hardware3drm4
332:   FUNC GLOBAL DEFAULT 14 _ZN7android8hardware3drm4
333:   OBJECT GLOBAL DEFAULT 18 _ZTCN7android8hardware3dr
334:   FUNC GLOBAL DEFAULT 14 _ZN7android8hardware3drm4
335:   FUNC GLOBAL DEFAULT 14 _ZN7android8hardware3drm4
336:   OBJECT GLOBAL DEFAULT 18 _ZTTN7android8hardware3dr
337:   FUNC GLOBAL DEFAULT 14 _ZN7android8hardware3drm4
338:   FUNC GLOBAL DEFAULT 14 _ZN7android8hardware3drm4
339:   FUNC GLOBAL DEFAULT 14 _ZN7android8hardware3drm4
340:   OBJECT WEAK DEFAULT 18 _ZTCN7android8hardware3dr
341:   FUNC GLOBAL DEFAULT 14 _ZThn32_N7android8hardwar
342:   OBJECT GLOBAL DEFAULT 18 _ZTCN7android8hardware3dr
343:   FUNC GLOBAL DEFAULT 14 _ZN7android8hardware3drm4
344:   FUNC GLOBAL DEFAULT 14 _ZN7android8hardware3drm4
345:   FUNC WEAK DEFAULT 14 _ZNSt3__16__treeINS_12__v
346:   FUNC GLOBAL DEFAULT 14 _ZN7android8hardware3drm4
347:   OBJECT GLOBAL DEFAULT 18 _ZTVN7android8hardware3dr
348:   FUNC GLOBAL DEFAULT 14 _ZN7android8hardware3drm4
349:   FUNC GLOBAL DEFAULT 14 _ZN7android8hardware3drm4
350:   OBJECT GLOBAL DEFAULT 18 _ZTCN7android8hardware3dr
351:   FUNC GLOBAL DEFAULT 14 _ZN7android8hardware3drm4
352:   FUNC GLOBAL DEFAULT 14 _ZN7android8hardware3drm4
353:   FUNC GLOBAL DEFAULT 14 _ZN7android8hardware3drm4
354:   FUNC GLOBAL DEFAULT 14 _ZN7android8hardware3drm4
355:   FUNC GLOBAL DEFAULT 14 _ZN7android8hardware3drm4
356:   FUNC GLOBAL DEFAULT 14 _ZN7android8hardware3drm4
357:   FUNC GLOBAL DEFAULT 14 _ZN7android8hardware3drm4
358:   FUNC WEAK DEFAULT 14 _ZN7android8hardware7deta
359:   FUNC WEAK DEFAULT 14 _ZNSt3__16__treeINS_12__v
360:   FUNC GLOBAL DEFAULT 14 _ZN7android8hardware3drm4
361:   FUNC GLOBAL DEFAULT 14 _ZN7android8hardware3drm4
362:   FUNC GLOBAL DEFAULT 14 _ZN7android8hardware3drm4
363:   OBJECT GLOBAL DEFAULT 18 _ZTCN7android8hardware3dr
364:   OBJECT GLOBAL DEFAULT 18 _ZTVN7android8hardware3dr
365:   FUNC GLOBAL DEFAULT 14 _ZN7android8hardware3drm4
366:   FUNC GLOBAL DEFAULT 14 _ZN7android8hardware3drm4
367:   OBJECT GLOBAL DEFAULT 18 _ZTCN7android8hardware3dr
368:   FUNC GLOBAL DEFAULT 14 _ZN7android8hardware3drm4
369:   FUNC GLOBAL DEFAULT 14 _ZN7android8hardware3drm4
370:   FUNC WEAK DEFAULT 14 _ZN7android8hardware7deta
371:   FUNC GLOBAL DEFAULT 14 _ZN7android8hardware3drm4
372:   OBJECT GLOBAL DEFAULT 18 _ZTTN7android8hardware3dr
373:   FUNC GLOBAL DEFAULT 14 _ZN7android8hardware3drm4
374:   FUNC GLOBAL DEFAULT 14 _ZN7android8hardware3drm4
375:   FUNC GLOBAL DEFAULT 14 _ZThn32_N7android8hardwar
376:   FUNC GLOBAL DEFAULT 14 _ZN7android8hardware3drm4
377:   FUNC GLOBAL DEFAULT 14 _ZTv0_n24_N7android8hardw
378:   FUNC GLOBAL DEFAULT 14 _ZN7android8hardware3drm4
379:   FUNC GLOBAL DEFAULT 14 _ZN7android8hardware3drm4
380:   FUNC GLOBAL DEFAULT 14 _ZN7android8hardware3drm4
381:   FUNC GLOBAL DEFAULT 14 _ZN7android8hardware3drm4
382:   OBJECT GLOBAL DEFAULT 18 _ZTCN7android8hardware3dr
383:   FUNC GLOBAL DEFAULT 14 _ZN7android8hardware3drm4
384:   FUNC GLOBAL DEFAULT 14 _ZN7android8hardware3drm4
385:   FUNC GLOBAL DEFAULT 14 _ZN7android8hardware3drm4
386:   FUNC GLOBAL DEFAULT 14 _ZN7android8hardware3drm4
387:   FUNC GLOBAL DEFAULT 14 _ZThn32_N7android8hardwar
388:   FUNC GLOBAL DEFAULT 14 _ZN7android8hardware3drm4
389:   OBJECT GLOBAL DEFAULT 18 _ZTTN7android8hardware3dr
390:   FUNC GLOBAL DEFAULT 14 _ZN7android8hardware3drm4
391:   FUNC GLOBAL DEFAULT 14 _ZN7android8hardware3drm4
392:   FUNC GLOBAL DEFAULT 14 _ZN7android8hardware3drm4
393:   FUNC GLOBAL DEFAULT 14 _ZN7android8hardware3drm4
394:   FUNC GLOBAL DEFAULT 14 _ZN7android8hardware3drm4
395:   FUNC GLOBAL DEFAULT 14 _ZN7android8hardware3drm4
396:   FUNC GLOBAL DEFAULT 14 _ZN7android8hardware3drm4
397:   FUNC GLOBAL DEFAULT 14 _ZN7android8hardware3drm4
398:   FUNC GLOBAL DEFAULT 14 _ZN7android8hardware3drm4
399:   FUNC GLOBAL DEFAULT 14 _ZN7android8hardware3drm4
400:   OBJECT GLOBAL DEFAULT 18 _ZTCN7android8hardware3dr
401:   FUNC GLOBAL DEFAULT 14 _ZN7android8hardware3drm4
402:   FUNC GLOBAL DEFAULT 14 _ZN7android8hardware3drm4
403:   FUNC GLOBAL DEFAULT 14 _ZN7android8hardware3drm4
404:   FUNC GLOBAL DEFAULT 14 _ZN7android8hardware3drm4
405:   OBJECT GLOBAL DEFAULT 18 _ZTCN7android8hardware3dr
406:   FUNC GLOBAL DEFAULT 14 _ZN7android8hardware3drm4
407:   OBJECT WEAK DEFAULT 18 _ZTCN7android8hardware3dr
408:   FUNC GLOBAL DEFAULT 14 _ZN7android8hardware3drm4
409:   FUNC GLOBAL DEFAULT 14 _ZN7android8hardware3drm4
410:   OBJECT GLOBAL DEFAULT 18 _ZTTN7android8hardware3dr
411:   FUNC GLOBAL DEFAULT 14 _ZN7android8hardware3drm4
412:   FUNC GLOBAL DEFAULT 14 _ZN7android8hardware3drm4
413:   OBJECT GLOBAL DEFAULT 18 _ZTCN7android8hardware3dr
414:   FUNC GLOBAL DEFAULT 14 _ZN7android8hardware3drm4
415:   FUNC GLOBAL DEFAULT 14 _ZN7android8hardware3drm4
416:   FUNC WEAK DEFAULT 14 _ZNSt3__16vectorIN7androi
417:   FUNC GLOBAL DEFAULT 14 _ZN7android8hardware3drm4
418:   FUNC GLOBAL DEFAULT 14 _ZN7android8hardware3drm4
419:   FUNC GLOBAL DEFAULT 14 _ZN7android8hardware3drm4
420:   FUNC GLOBAL DEFAULT 14 _ZN7android8hardware3drm4
421:   FUNC GLOBAL DEFAULT 14 _ZN7android8hardware3drm4
422:   OBJECT WEAK DEFAULT 18 _ZTCN7android8hardware3dr
423:   FUNC GLOBAL DEFAULT 14 _ZN7android8hardware3drm4
424:   FUNC GLOBAL DEFAULT 14 _ZN7android8hardware3drm4
425:   FUNC GLOBAL DEFAULT 14 _ZN7android8hardware3drm4
426:   OBJECT WEAK DEFAULT 18 _ZTVN7android8hardware3dr
427:   OBJECT GLOBAL DEFAULT 18 _ZTCN7android8hardware3dr
428:   FUNC GLOBAL DEFAULT 14 _ZN7android8hardware3drm4
429:   FUNC GLOBAL DEFAULT 14 _ZN7android8hardware3drm4
430:   FUNC GLOBAL DEFAULT 14 _ZN7android8hardware3drm4
431:   FUNC GLOBAL DEFAULT 14 _ZN7android8hardware3drm4
432:   FUNC GLOBAL DEFAULT 14 _ZTv0_n24_N7android8hardw
433:   FUNC GLOBAL DEFAULT 14 _ZN7android8hardware3drm4
434:   FUNC GLOBAL DEFAULT 14 _ZN7android8hardware3drm4
435:   FUNC GLOBAL DEFAULT 14 _ZN7android8hardware3drm4
436:   FUNC GLOBAL DEFAULT 14 _ZN7android8hardware3drm4
437:   FUNC WEAK DEFAULT 14 _ZNSt3__127__tree_balance
438:   OBJECT GLOBAL DEFAULT 18 _ZTCN7android8hardware3dr
439:   OBJECT GLOBAL DEFAULT 18 _ZTCN7android8hardware3dr
440:   OBJECT GLOBAL DEFAULT 18 _ZTCN7android8hardware3dr
441:   FUNC GLOBAL DEFAULT 14 _ZN7android8hardware3drm4
442:   FUNC GLOBAL DEFAULT 14 _ZN7android8hardware3drm4
443:   OBJECT GLOBAL DEFAULT 18 _ZTCN7android8hardware3dr
444:   FUNC GLOBAL DEFAULT 14 _ZN7android8hardware3drm4
445:   FUNC GLOBAL DEFAULT 14 _ZN7android8hardware3drm4
446:   FUNC GLOBAL DEFAULT 14 _ZN7android8hardware3drm4
447:   FUNC GLOBAL DEFAULT 14 _ZN7android8hardware3drm4
448:   FUNC GLOBAL DEFAULT 14 _ZN7android8hardware3drm4
449:   FUNC WEAK DEFAULT 14 _ZNSt3__16__treeINS_12__v
450:   FUNC WEAK DEFAULT 14 _ZNSt3__16vectorINS_8func
451:   FUNC GLOBAL DEFAULT 14 _ZN7android8hardware3drm4
452:   FUNC GLOBAL DEFAULT 14 _ZN7android8hardware3drm4
453:   FUNC GLOBAL DEFAULT 14 _ZN7android8hardware3drm4
454:   FUNC GLOBAL DEFAULT 14 _ZN7android8hardware3drm4
455:   FUNC GLOBAL DEFAULT 14 _ZN7android8hardware3drm4
456:   FUNC GLOBAL DEFAULT 14 _ZN7android8hardware3drm4
457:   FUNC GLOBAL DEFAULT 14 _ZN7android8hardware3drm4
458:   FUNC GLOBAL DEFAULT 14 _ZN7android8hardware3drm4
459:   FUNC GLOBAL DEFAULT 14 _ZN7android8hardware3drm4
460:   FUNC GLOBAL DEFAULT 14 _ZN7android8hardware3drm4
461:   FUNC GLOBAL DEFAULT 14 _ZN7android8hardware3drm4
462:   FUNC GLOBAL DEFAULT 14 _ZN7android8hardware3drm4
463:   FUNC GLOBAL DEFAULT 14 _ZN7android8hardware3drm4
464:   FUNC GLOBAL DEFAULT 14 _ZTv0_n24_N7android8hardw
465:   FUNC GLOBAL DEFAULT 14 _ZN7android8hardware3drm4
466:   OBJECT GLOBAL DEFAULT 18 _ZTCN7android8hardware3dr
467:   FUNC GLOBAL DEFAULT 14 _ZN7android8hardware3drm4
468:   FUNC GLOBAL DEFAULT 14 _ZN7android8hardware3drm4
469:   FUNC GLOBAL DEFAULT 14 _ZN7android8hardware3drm4
470:   FUNC GLOBAL DEFAULT 14 _ZN7android8hardware3drm4
471:   FUNC GLOBAL DEFAULT 14 _ZTv0_n24_N7android8hardw
472:   FUNC GLOBAL DEFAULT 14 _ZN7android8hardware3drm4
473:   FUNC GLOBAL DEFAULT 14 _ZN7android8hardware3drm4
474:   FUNC GLOBAL DEFAULT 14 _ZN7android8hardware3drm4
475:   FUNC GLOBAL DEFAULT 14 _ZN7android8hardware3drm4
476:   FUNC GLOBAL DEFAULT 14 _ZN7android8hardware3drm4
477:   OBJECT GLOBAL DEFAULT 18 _ZTVN7android8hardware3dr
478:   FUNC GLOBAL DEFAULT 14 _ZN7android8hardware3drm4
479:   FUNC GLOBAL DEFAULT 14 _ZN7android8hardware3drm4
480:   FUNC GLOBAL DEFAULT 14 _ZN7android8hardware3drm4
481:   OBJECT GLOBAL DEFAULT 18 _ZTCN7android8hardware3dr
482:   OBJECT GLOBAL DEFAULT 18 _ZTCN7android8hardware3dr
483:   FUNC GLOBAL DEFAULT 14 _ZN7android8hardware3drm4
484:   FUNC GLOBAL DEFAULT 14 _ZN7android8hardware3drm4
485:   FUNC GLOBAL DEFAULT 14 _ZN7android8hardware3drm4
486:   OBJECT GLOBAL DEFAULT 18 _ZTTN7android8hardware3dr
487:   OBJECT GLOBAL DEFAULT 18 _ZTVN7android8hardware3dr
488:   FUNC GLOBAL DEFAULT 14 _ZN7android8hardware3drm4
489:   FUNC GLOBAL DEFAULT 14 _ZN7android8hardware3drm4
490:   FUNC GLOBAL DEFAULT 14 _ZN7android8hardware3drm4
491:   FUNC GLOBAL DEFAULT 14 _ZN7android8hardware3drm4
492:   FUNC GLOBAL DEFAULT 14 _ZN7android8hardware3drm4
493:   FUNC GLOBAL DEFAULT 14 _ZN7android8hardware3drm4
494:   FUNC GLOBAL DEFAULT 14 _ZN7android8hardware3drm4
495:   FUNC GLOBAL DEFAULT 14 _ZN7android8hardware3drm4
496:   FUNC GLOBAL DEFAULT 14 _ZN7android8hardware3drm4
497:   FUNC GLOBAL DEFAULT 14 _ZTv0_n24_N7android8hardw
498:   FUNC GLOBAL DEFAULT 14 _ZN7android8hardware3drm4
499:   FUNC GLOBAL DEFAULT 14 _ZN7android8hardware3drm4
500:   FUNC WEAK DEFAULT 14 _ZN7android8hardware7deta
501:   OBJECT GLOBAL DEFAULT 18 _ZTCN7android8hardware3dr
502:   OBJECT WEAK DEFAULT 18 _ZTVN7android8hardware3dr
503:   FUNC GLOBAL DEFAULT 14 _ZN7android8hardware3drm4
504:   OBJECT GLOBAL DEFAULT 18 _ZTVN7android8hardware3dr
505:   OBJECT GLOBAL DEFAULT 16 _ZN7android8hardware3drm4
506:   FUNC GLOBAL DEFAULT 14 _ZN7android8hardware3drm4
507:   FUNC GLOBAL DEFAULT 14 _ZN7android8hardware3drm4
508:   FUNC GLOBAL DEFAULT 14 _ZThn32_N7android8hardwar
509:   FUNC GLOBAL DEFAULT 14 _ZN7android8hardware3drm4
510:   OBJECT GLOBAL DEFAULT 18 _ZTVN7android8hardware3dr
511:   FUNC GLOBAL DEFAULT 14 _ZN7android8hardware3drm4
512:   FUNC GLOBAL DEFAULT 14 _ZN7android8hardware3drm4
513:   FUNC GLOBAL DEFAULT 14 _ZN7android8hardware3drm4
514:   FUNC GLOBAL DEFAULT 14 _ZN7android8hardware3drm4
515:   FUNC GLOBAL DEFAULT 14 _ZN7android8hardware3drm4
516:   FUNC GLOBAL DEFAULT 14 _ZN7android8hardware3drm4
517:   OBJECT GLOBAL DEFAULT 18 _ZTCN7android8hardware3dr
518:   OBJECT GLOBAL DEFAULT 18 _ZTCN7android8hardware3dr
519:   FUNC GLOBAL DEFAULT 14 _ZN7android8hardware3drm4
520:   FUNC GLOBAL DEFAULT 14 _ZN7android8hardware3drm4
521:   FUNC GLOBAL DEFAULT 14 _ZN7android8hardware3drm4
522:   FUNC GLOBAL DEFAULT 14 _ZN7android8hardware3drm4
523:   FUNC GLOBAL DEFAULT 14 _ZN7android8hardware3drm4
524:   FUNC GLOBAL DEFAULT 14 _ZN7android8hardware3drm4
525:   FUNC WEAK DEFAULT 14 _ZN7android8hardware7deta
526:   OBJECT GLOBAL DEFAULT 18 _ZTVN7android8hardware3dr
527:   FUNC GLOBAL DEFAULT 14 _ZN7android8hardware3drm4
528:   FUNC WEAK DEFAULT 14 _ZNSt3__113__tree_removeI
529:   FUNC GLOBAL DEFAULT 14 _ZN7android8hardware3drm4
530:   OBJECT GLOBAL DEFAULT 18 _ZTCN7android8hardware3dr
531:   FUNC GLOBAL DEFAULT 14 _ZN7android8hardware3drm4
532:   FUNC GLOBAL DEFAULT 14 _ZN7android8hardware3drm4
533:   FUNC GLOBAL DEFAULT 14 _ZN7android8hardware3drm4
534:   FUNC GLOBAL DEFAULT 14 _ZN7android8hardware3drm4
535:   FUNC GLOBAL DEFAULT 14 _ZN7android8hardware3drm4
536:   FUNC GLOBAL DEFAULT 14 _ZN7android8hardware3drm4
537:   FUNC WEAK DEFAULT 14 _ZNSt3__16__treeINS_12__v
538:   OBJECT GLOBAL DEFAULT 18 _ZTCN7android8hardware3dr
539:   FUNC GLOBAL DEFAULT 14 _ZN7android8hardware3drm4
540:   OBJECT GLOBAL DEFAULT 18 _ZTCN7android8hardware3dr
541:   FUNC GLOBAL DEFAULT 14 _ZN7android8hardware3drm4
542:   OBJECT GLOBAL DEFAULT 18 _ZTCN7android8hardware3dr
543:   OBJECT GLOBAL DEFAULT 18 _ZTTN7android8hardware3dr
