 0x000000000000000e (SONAME)             Library soname: [libgraphicsenv.so]
  
Symbol   contains 206 entries:
Num:   Type Bind Vis Ndx Name
0:   NOTYPE LOCAL DEFAULT UND
1:   FUNC GLOBAL DEFAULT UND __cxa_finalize@LIBC (2)
2:   FUNC GLOBAL DEFAULT UND __cxa_atexit@LIBC (2)
3:   FUNC GLOBAL DEFAULT UND _ZN7android4base13StringA
4:   FUNC GLOBAL DEFAULT UND _ZN7android6Parcel10write
5:   FUNC GLOBAL DEFAULT UND _ZN7android6Parcel10write
6:   FUNC GLOBAL DEFAULT UND _ZN7android6Parcel11write
7:   FUNC GLOBAL DEFAULT UND _ZN7android6Parcel16write
8:   FUNC GLOBAL DEFAULT UND _ZN7android6Parcel16write
9:   FUNC GLOBAL DEFAULT UND _ZN7android6Parcel9writeB
10:   FUNC GLOBAL DEFAULT UND _ZNK7android6Parcel10read
11:   FUNC GLOBAL DEFAULT UND _ZNK7android6Parcel15read
12:   FUNC GLOBAL DEFAULT UND _ZNK7android6Parcel17read
13:   FUNC GLOBAL DEFAULT UND _ZNK7android6Parcel8readB
14:   FUNC GLOBAL DEFAULT UND _ZNK7android6Parcel9readI
15:   FUNC GLOBAL DEFAULT UND _ZNK7android6Parcel9readI
16:   FUNC GLOBAL DEFAULT UND _ZNSt3__112basic_stringIc
17:   FUNC GLOBAL DEFAULT UND _ZdlPv
18:   FUNC GLOBAL DEFAULT UND _ZN7android21defaultServi
19:   FUNC GLOBAL DEFAULT UND _ZN7android4base11GetProp
20:   FUNC GLOBAL DEFAULT UND _ZN7android4base16ReadFil
21:   FUNC GLOBAL DEFAULT UND _ZN7android4base4JoinINSt
22:   FUNC GLOBAL DEFAULT UND _ZN7android4base4TrimERKN
23:   FUNC GLOBAL DEFAULT UND _ZN7android4base5SplitERK
24:   FUNC GLOBAL DEFAULT UND _ZN7android8String16C1EPK
25:   FUNC GLOBAL DEFAULT UND _ZN7android8String16D1Ev
26:   FUNC GLOBAL DEFAULT UND _ZNK7android7RefBase9decS
27:   FUNC GLOBAL DEFAULT UND _ZNKSt3__112basic_stringI
28:   FUNC GLOBAL DEFAULT UND _ZNKSt3__120__vector_base
29:   FUNC GLOBAL DEFAULT UND _ZNKSt3__121__basic_strin
30:   FUNC GLOBAL DEFAULT UND _ZNSt3__112basic_stringIc
31:   FUNC GLOBAL DEFAULT UND _ZNSt3__112basic_stringIc
32:   FUNC GLOBAL DEFAULT UND _ZNSt3__112basic_stringIc
33:   FUNC GLOBAL DEFAULT UND _ZNSt3__112basic_stringIc
34:   FUNC GLOBAL DEFAULT UND _ZNSt3__112basic_stringIc
35:   FUNC GLOBAL DEFAULT UND _ZNSt3__115__thread_struc
36:   FUNC GLOBAL DEFAULT UND _ZNSt3__115__thread_struc
37:   FUNC GLOBAL DEFAULT UND _ZNSt3__119__thread_local
38:   FUNC GLOBAL DEFAULT UND _ZNSt3__120__throw_system
39:   FUNC GLOBAL DEFAULT UND _ZNSt3__15mutex4lockEv
40:   FUNC GLOBAL DEFAULT UND _ZNSt3__15mutex6unlockEv
41:   FUNC GLOBAL DEFAULT UND _ZNSt3__15mutexD1Ev
42:   FUNC GLOBAL DEFAULT UND _ZNSt3__16thread6detachEv
43:   FUNC GLOBAL DEFAULT UND _ZNSt3__16threadD1Ev
44:   FUNC GLOBAL DEFAULT UND _ZNSt3__1plIcNS_11char_tr
45:   FUNC GLOBAL DEFAULT UND _Znwm
46:   FUNC GLOBAL DEFAULT UND __android_log_print@LIBLOG (3)
47:   FUNC GLOBAL DEFAULT UND __cxa_guard_acquire
48:   FUNC GLOBAL DEFAULT UND __cxa_guard_release
49:   FUNC GLOBAL DEFAULT UND __stack_chk_fail@LIBC (2)
50:   FUNC GLOBAL DEFAULT UND android_create_namespace@LIBDL_ANDROID (4)
51:   FUNC GLOBAL DEFAULT UND android_dlopen_ext@LIBC (5)
52:   FUNC GLOBAL DEFAULT UND android_get_exported_name@LIBDL_ANDROID (4)
53:   FUNC GLOBAL DEFAULT UND android_link_namespaces@LIBDL_ANDROID (4)
54:   FUNC GLOBAL DEFAULT UND atrace_begin_body
55:   OBJECT GLOBAL DEFAULT UND atrace_enabled_tags
56:   FUNC GLOBAL DEFAULT UND atrace_end_body
57:   OBJECT GLOBAL DEFAULT UND atrace_is_ready
58:   FUNC GLOBAL DEFAULT UND atrace_setup
59:   FUNC GLOBAL DEFAULT UND dlclose@LIBC (5)
60:   FUNC GLOBAL DEFAULT UND dlerror@LIBC (5)
61:   FUNC GLOBAL DEFAULT UND dlsym@LIBC (5)
62:   FUNC GLOBAL DEFAULT UND getenv@LIBC (2)
63:   FUNC GLOBAL DEFAULT UND lseek@LIBC (2)
64:   FUNC GLOBAL DEFAULT UND memcmp@LIBC (2)
65:   FUNC GLOBAL DEFAULT UND memcpy@LIBC (2)
66:   FUNC GLOBAL DEFAULT UND prctl@LIBC (2)
67:   FUNC GLOBAL DEFAULT UND property_get
68:   FUNC GLOBAL DEFAULT UND pthread_create@LIBC (2)
69:   FUNC GLOBAL DEFAULT UND pthread_setspecific@LIBC (2)
70:   FUNC GLOBAL DEFAULT UND read@LIBC (2)
71:   FUNC GLOBAL DEFAULT UND strlen@LIBC (2)
72:   FUNC GLOBAL DEFAULT UND _ZN7android10IInterfaceC2
73:   FUNC GLOBAL DEFAULT UND _ZN7android10IInterfaceD0
74:   FUNC GLOBAL DEFAULT UND _ZN7android10IInterfaceD1
75:   FUNC GLOBAL DEFAULT UND _ZN7android10IInterfaceD2
76:   FUNC GLOBAL DEFAULT UND _ZN7android14sp_report_ra
77:   FUNC GLOBAL DEFAULT UND _ZN7android15IResultRecei
78:   FUNC GLOBAL DEFAULT UND _ZN7android6Parcel15write
79:   FUNC GLOBAL DEFAULT UND _ZN7android6Parcel19write
80:   FUNC GLOBAL DEFAULT UND _ZN7android6ParcelC1Ev
81:   FUNC GLOBAL DEFAULT UND _ZN7android6ParcelD1Ev
82:   FUNC GLOBAL DEFAULT UND _ZN7android7BBinder10onTr
83:   FUNC GLOBAL DEFAULT UND _ZN7android7BBinder10ping
84:   FUNC GLOBAL DEFAULT UND _ZN7android7BBinder11link
85:   FUNC GLOBAL DEFAULT UND _ZN7android7BBinder11loca
86:   FUNC GLOBAL DEFAULT UND _ZN7android7BBinder12atta
87:   FUNC GLOBAL DEFAULT UND _ZN7android7BBinder12deta
88:   FUNC GLOBAL DEFAULT UND _ZN7android7BBinder13unli
89:   FUNC GLOBAL DEFAULT UND _ZN7android7BBinder4dumpE
90:   FUNC GLOBAL DEFAULT UND _ZN7android7BBinder8trans
91:   FUNC GLOBAL DEFAULT UND _ZN7android7BBinderD0Ev
92:   FUNC GLOBAL DEFAULT UND _ZN7android7BBinderD1Ev
93:   FUNC GLOBAL DEFAULT UND _ZN7android7IBinder11loca
94:   FUNC GLOBAL DEFAULT UND _ZN7android7IBinder12remo
95:   FUNC GLOBAL DEFAULT UND _ZN7android7IBinder19quer
96:   FUNC GLOBAL DEFAULT UND _ZN7android7IBinderD0Ev
97:   FUNC GLOBAL DEFAULT UND _ZN7android7IBinderD1Ev
98:   FUNC GLOBAL DEFAULT UND _ZN7android7RefBase10onFi
99:   FUNC GLOBAL DEFAULT UND _ZN7android7RefBase13onLa
100:   FUNC GLOBAL DEFAULT UND _ZN7android7RefBase15onLa
101:   FUNC GLOBAL DEFAULT UND _ZN7android7RefBase20onIn
102:   FUNC GLOBAL DEFAULT UND _ZN7android7RefBaseC2Ev
103:   FUNC GLOBAL DEFAULT UND _ZN7android7RefBaseD2Ev
104:   FUNC GLOBAL DEFAULT UND _ZN7android9BpRefBase10on
105:   FUNC GLOBAL DEFAULT UND _ZN7android9BpRefBase15on
106:   FUNC GLOBAL DEFAULT UND _ZN7android9BpRefBase20on
107:   FUNC GLOBAL DEFAULT UND _ZN7android9BpRefBaseC2ER
108:   FUNC GLOBAL DEFAULT UND _ZN7android9BpRefBaseD0Ev
109:   FUNC GLOBAL DEFAULT UND _ZN7android9BpRefBaseD1Ev
110:   FUNC GLOBAL DEFAULT UND _ZN7android9BpRefBaseD2Ev
111:   FUNC GLOBAL DEFAULT UND _ZNK7android6Parcel14chec
112:   FUNC GLOBAL DEFAULT UND _ZNK7android6Parcel14read
113:   FUNC GLOBAL DEFAULT UND _ZNK7android6Parcel18read
114:   FUNC GLOBAL DEFAULT UND _ZNK7android6Parcel18read
115:   FUNC GLOBAL DEFAULT UND _ZNK7android6Parcel24read
116:   FUNC GLOBAL DEFAULT UND _ZNK7android7BBinder10fin
117:   FUNC GLOBAL DEFAULT UND _ZNK7android7BBinder13isB
118:   FUNC GLOBAL DEFAULT UND _ZNK7android7BBinder22get
119:   FUNC GLOBAL DEFAULT UND _ZNK7android7IBinder13che
120:   FUNC GLOBAL DEFAULT UND _ZNK7android7RefBase9incS
121:   FUNC GLOBAL DEFAULT UND _ZNK7android8String164siz
122:   FUNC GLOBAL DEFAULT UND _ZTv0_n24_N7android10IInt
123:   FUNC GLOBAL DEFAULT UND _ZTv0_n24_N7android10IInt
124:   FUNC GLOBAL DEFAULT UND _ZTv0_n24_N7android7BBind
125:   FUNC GLOBAL DEFAULT UND _ZTv0_n24_N7android7BBind
126:   FUNC GLOBAL DEFAULT UND _ZTv0_n24_N7android7IBind
127:   FUNC GLOBAL DEFAULT UND _ZTv0_n24_N7android7IBind
128:   FUNC GLOBAL DEFAULT UND _ZTv0_n24_N7android9BpRef
129:   FUNC GLOBAL DEFAULT UND _ZTv0_n24_N7android9BpRef
130:   FUNC GLOBAL DEFAULT UND _ZTv0_n32_N7android9BpRef
131:   FUNC GLOBAL DEFAULT UND _ZTv0_n40_N7android9BpRef
132:   FUNC GLOBAL DEFAULT UND _ZTv0_n48_N7android9BpRef
133:   FUNC GLOBAL DEFAULT UND __cxa_pure_virtual
134:   FUNC GLOBAL DEFAULT UND strzcmp16
135:   FUNC GLOBAL DEFAULT 14 _ZN7android15GpuStatsAppI
136:   OBJECT GLOBAL DEFAULT 18 _ZTVN7android15GpuStatsAp
137:   OBJECT GLOBAL DEFAULT 18 _ZTVN7android18GpuStatsGl
138:   OBJECT GLOBAL DEFAULT 18 _ZTCN7android12BnGpuServi
139:   FUNC GLOBAL DEFAULT 14 _ZN7android11GraphicsEnv1
140:   FUNC GLOBAL DEFAULT 14 _ZN7android11GraphicsEnv1
141:   FUNC GLOBAL DEFAULT 14 _ZN7android11GraphicsEnv1
142:   FUNC GLOBAL DEFAULT 14 _ZN7android11GraphicsEnv1
143:   OBJECT GLOBAL DEFAULT 18 _ZTCN7android12BnGpuServi
144:   OBJECT WEAK DEFAULT 18 _ZTCN7android12BpGpuServi
145:   FUNC GLOBAL DEFAULT 14 _ZN7android11GraphicsEnv1
146:   FUNC GLOBAL DEFAULT 14 _ZN7android12BnGpuService
147:   FUNC GLOBAL DEFAULT 14 _ZNK7android11IGpuService
148:   OBJECT WEAK DEFAULT 18 _ZTCN7android12BpGpuServi
149:   FUNC GLOBAL DEFAULT 14 _ZN7android11GraphicsEnv1
150:   FUNC GLOBAL DEFAULT 14 _ZN7android11GraphicsEnv1
151:   FUNC WEAK DEFAULT 14 _ZN7android11BnInterfaceI
152:   FUNC WEAK DEFAULT 14 _ZNK7android6Parcel20read
153:   FUNC GLOBAL DEFAULT 14 _ZN7android11GraphicsEnv1
154:   OBJECT GLOBAL DEFAULT 18 _ZTVN7android11IGpuServic
155:   OBJECT WEAK DEFAULT 18 _ZTVN7android12BpGpuServi
156:   FUNC GLOBAL DEFAULT 14 _ZN7android11GraphicsEnv1
157:   FUNC GLOBAL DEFAULT 14 _ZN7android11GraphicsEnv1
158:   FUNC GLOBAL DEFAULT 14 _ZN7android11GraphicsEnv1
159:   OBJECT GLOBAL DEFAULT 23 _ZN7android11IGpuService1
160:   FUNC GLOBAL DEFAULT 14 _ZNK7android18GpuStatsGlo
161:   FUNC GLOBAL DEFAULT 14 _ZN7android11IGpuService1
162:   OBJECT GLOBAL DEFAULT 18 _ZTCN7android12BnGpuServi
163:   OBJECT WEAK DEFAULT 18 _ZTCN7android12BpGpuServi
164:   OBJECT GLOBAL DEFAULT 18 _ZTTN7android11IGpuServic
165:   OBJECT WEAK DEFAULT 18 _ZTTN7android12BpGpuServi
166:   FUNC GLOBAL DEFAULT 14 _ZThn8_N7android12BnGpuSe
167:   FUNC GLOBAL DEFAULT 14 _ZN7android11GraphicsEnv1
168:   FUNC GLOBAL DEFAULT 14 _ZN7android11GraphicsEnv1
169:   FUNC GLOBAL DEFAULT 14 _ZTv0_n24_N7android11IGpu
170:   FUNC GLOBAL DEFAULT 14 _ZN7android11GraphicsEnv1
171:   FUNC WEAK DEFAULT 14 _ZNK7android6Parcel24read
172:   FUNC WEAK DEFAULT 14 _ZNSt3__16vectorIN7androi
173:   OBJECT GLOBAL DEFAULT 18 _ZTCN7android12BnGpuServi
174:   FUNC GLOBAL DEFAULT 14 _ZTv0_n24_N7android11IGpu
175:   FUNC GLOBAL DEFAULT 14 _ZN7android11GraphicsEnv1
176:   OBJECT GLOBAL DEFAULT 18 _ZTCN7android11IGpuServic
177:   FUNC GLOBAL DEFAULT 14 _ZN7android11GraphicsEnv1
178:   FUNC GLOBAL DEFAULT 14 _ZN7android11GraphicsEnv3
179:   FUNC WEAK DEFAULT 14 _ZNSt3__16vectorINS_12bas
180:   FUNC GLOBAL DEFAULT 14 _ZN7android11IGpuService1
181:   FUNC WEAK DEFAULT 14 _ZNK7android6Parcel20read
182:   FUNC GLOBAL DEFAULT 14 _ZN7android11GraphicsEnv1
183:   FUNC WEAK DEFAULT 14 _ZNSt3__16vectorIN7androi
184:   OBJECT GLOBAL DEFAULT 18 _ZTVN7android12BnGpuServi
185:   FUNC GLOBAL DEFAULT 14 _ZNK7android15GpuStatsApp
186:   FUNC GLOBAL DEFAULT 14 _ZN7android11IGpuServiceD
187:   FUNC GLOBAL DEFAULT 14 _ZNK7android18GpuStatsGlo
188:   FUNC GLOBAL DEFAULT 14 _ZN7android11GraphicsEnv1
189:   FUNC GLOBAL DEFAULT 14 _ZN7android11GraphicsEnv1
190:   FUNC GLOBAL DEFAULT 14 _ZN7android11IGpuServiceD
191:   OBJECT GLOBAL DEFAULT 18 _ZTCN7android12BnGpuServi
192:   OBJECT GLOBAL DEFAULT 18 _ZTTN7android12BnGpuServi
193:   FUNC GLOBAL DEFAULT 14 _ZN7android18GpuStatsGlob
194:   FUNC GLOBAL DEFAULT 14 _ZNK7android15GpuStatsApp
195:   FUNC GLOBAL DEFAULT 14 _ZN7android11GraphicsEnv1
196:   FUNC GLOBAL DEFAULT 14 _ZN7android11IGpuService1
197:   FUNC GLOBAL DEFAULT 14 _ZN7android11IGpuServiceD
198:   FUNC GLOBAL DEFAULT 14 _ZN7android11GraphicsEnv1
199:   FUNC GLOBAL DEFAULT 14 _ZN7android11GraphicsEnv1
200:   FUNC GLOBAL DEFAULT 14 _ZN7android11GraphicsEnv1
201:   FUNC GLOBAL DEFAULT 14 _ZN7android11GraphicsEnv2
202:   OBJECT GLOBAL DEFAULT 23 _ZN7android11IGpuService1
203:   FUNC GLOBAL DEFAULT 14 _ZN7android11IGpuServiceC
204:   FUNC GLOBAL DEFAULT 14 _ZN7android11GraphicsEnv1
205:   OBJECT WEAK DEFAULT 18 _ZTCN7android12BpGpuServi
