 0x0000000e (SONAME)                     Library soname: [android.frameworks.bufferhub@1.0.so]
  
Symbol   contains 323 entries:
Num:   Type Bind Vis Ndx Name
0:   NOTYPE LOCAL DEFAULT UND
1:   FUNC GLOBAL DEFAULT UND __cxa_finalize@LIBC (2)
2:   FUNC GLOBAL DEFAULT UND _ZN7android14sp_report_ra
3:   FUNC GLOBAL DEFAULT UND _ZN7android21report_syspr
4:   OBJECT GLOBAL DEFAULT UND _ZN7android4hidl4base4V1_
5:   FUNC GLOBAL DEFAULT UND _ZN7android4hidl4base4V1_
6:   FUNC GLOBAL DEFAULT UND _ZN7android4hidl4base4V1_
7:   FUNC GLOBAL DEFAULT UND _ZN7android4hidl4base4V1_
8:   FUNC GLOBAL DEFAULT UND _ZN7android4hidl4base4V1_
9:   FUNC GLOBAL DEFAULT UND _ZN7android4hidl4base4V1_
10:   FUNC GLOBAL DEFAULT UND _ZN7android4hidl4base4V1_
11:   FUNC GLOBAL DEFAULT UND _ZN7android4hidl4base4V1_
12:   FUNC GLOBAL DEFAULT UND _ZN7android4hidl4base4V1_
13:   FUNC GLOBAL DEFAULT UND _ZN7android4hidl4base4V1_
14:   FUNC GLOBAL DEFAULT UND _ZN7android4hidl4base4V1_
15:   FUNC GLOBAL DEFAULT UND _ZN7android4hidl4base4V1_
16:   FUNC GLOBAL DEFAULT UND _ZN7android4hidl4base4V1_
17:   FUNC GLOBAL DEFAULT UND _ZN7android4hidl4base4V1_
18:   FUNC GLOBAL DEFAULT UND _ZN7android4hidl4base4V1_
19:   FUNC GLOBAL DEFAULT UND _ZN7android4hidl4base4V1_
20:   FUNC GLOBAL DEFAULT UND _ZN7android4hidl4base4V1_
21:   FUNC GLOBAL DEFAULT UND _ZN7android4hidl4base4V1_
22:   FUNC GLOBAL DEFAULT UND _ZN7android4hidl4base4V1_
23:   FUNC GLOBAL DEFAULT UND _ZN7android4hidl4base4V1_
24:   FUNC GLOBAL DEFAULT UND _ZN7android4hidl4base4V1_
25:   FUNC GLOBAL DEFAULT UND _ZN7android4hidl4base4V1_
26:   FUNC GLOBAL DEFAULT UND _ZN7android4hidl4base4V1_
27:   FUNC GLOBAL DEFAULT UND _ZN7android4hidl4base4V1_
28:   FUNC GLOBAL DEFAULT UND _ZN7android7RefBase10onFi
29:   FUNC GLOBAL DEFAULT UND _ZN7android7RefBase12weak
30:   FUNC GLOBAL DEFAULT UND _ZN7android7RefBase13onLa
31:   FUNC GLOBAL DEFAULT UND _ZN7android7RefBase15onLa
32:   FUNC GLOBAL DEFAULT UND _ZN7android7RefBase20onIn
33:   FUNC GLOBAL DEFAULT UND _ZN7android7RefBaseC2Ev
34:   FUNC GLOBAL DEFAULT UND _ZN7android7RefBaseD2Ev
35:   FUNC GLOBAL DEFAULT UND _ZN7android8hardware10IIn
36:   FUNC GLOBAL DEFAULT UND _ZN7android8hardware10IIn
37:   FUNC GLOBAL DEFAULT UND _ZN7android8hardware10IIn
38:   FUNC GLOBAL DEFAULT UND _ZN7android8hardware10IIn
39:   FUNC GLOBAL DEFAULT UND _ZN7android8hardware10IIn
40:   FUNC GLOBAL DEFAULT UND _ZN7android8hardware11BpH
41:   FUNC GLOBAL DEFAULT UND _ZN7android8hardware11BpH
42:   FUNC GLOBAL DEFAULT UND _ZN7android8hardware11BpH
43:   FUNC GLOBAL DEFAULT UND _ZN7android8hardware11BpH
44:   FUNC GLOBAL DEFAULT UND _ZN7android8hardware11BpH
45:   FUNC GLOBAL DEFAULT UND _ZN7android8hardware11BpH
46:   FUNC GLOBAL DEFAULT UND _ZN7android8hardware11BpH
47:   FUNC GLOBAL DEFAULT UND _ZN7android8hardware11hid
48:   FUNC GLOBAL DEFAULT UND _ZN7android8hardware11hid
49:   FUNC GLOBAL DEFAULT UND _ZN7android8hardware11hid
50:   FUNC GLOBAL DEFAULT UND _ZN7android8hardware11hid
51:   FUNC GLOBAL DEFAULT UND _ZN7android8hardware11hid
52:   FUNC GLOBAL DEFAULT UND _ZN7android8hardware11hid
53:   FUNC GLOBAL DEFAULT UND _ZN7android8hardware11hid
54:   FUNC GLOBAL DEFAULT UND _ZN7android8hardware11hid
55:   FUNC GLOBAL DEFAULT UND _ZN7android8hardware12Pro
56:   FUNC GLOBAL DEFAULT UND _ZN7android8hardware12Pro
57:   FUNC GLOBAL DEFAULT UND _ZN7android8hardware13wri
58:   FUNC GLOBAL DEFAULT UND _ZN7android8hardware14rea
59:   FUNC GLOBAL DEFAULT UND _ZN7android8hardware21def
60:   FUNC GLOBAL DEFAULT UND _ZN7android8hardware23get
61:   FUNC GLOBAL DEFAULT UND _ZN7android8hardware27hid
62:   FUNC GLOBAL DEFAULT UND _ZN7android8hardware27hid
63:   FUNC GLOBAL DEFAULT UND _ZN7android8hardware6Parc
64:   FUNC GLOBAL DEFAULT UND _ZN7android8hardware6Parc
65:   FUNC GLOBAL DEFAULT UND _ZN7android8hardware6Parc
66:   FUNC GLOBAL DEFAULT UND _ZN7android8hardware6Parc
67:   FUNC GLOBAL DEFAULT UND _ZN7android8hardware6Parc
68:   FUNC GLOBAL DEFAULT UND _ZN7android8hardware6Stat
69:   FUNC GLOBAL DEFAULT UND _ZN7android8hardware6Stat
70:   FUNC GLOBAL DEFAULT UND _ZN7android8hardware6Stat
71:   FUNC GLOBAL DEFAULT UND _ZN7android8hardware6Stat
72:   FUNC GLOBAL DEFAULT UND _ZN7android8hardware7IBin
73:   FUNC GLOBAL DEFAULT UND _ZN7android8hardware7IBin
74:   FUNC GLOBAL DEFAULT UND _ZN7android8hardware7IBin
75:   FUNC GLOBAL DEFAULT UND _ZN7android8hardware7IBin
76:   FUNC GLOBAL DEFAULT UND _ZN7android8hardware7deta
77:   FUNC GLOBAL DEFAULT UND _ZN7android8hardware7deta
78:   FUNC GLOBAL DEFAULT UND _ZN7android8hardware7deta
79:   FUNC GLOBAL DEFAULT UND _ZN7android8hardware7deta
80:   FUNC GLOBAL DEFAULT UND _ZN7android8hardware7deta
81:   FUNC GLOBAL DEFAULT UND _ZN7android8hardware7deta
82:   FUNC GLOBAL DEFAULT UND _ZN7android8hardware7deta
83:   OBJECT GLOBAL DEFAULT UND _ZN7android8hardware7deta
84:   OBJECT GLOBAL DEFAULT UND _ZN7android8hardware7deta
85:   FUNC GLOBAL DEFAULT UND _ZN7android8hardware7deta
86:   FUNC GLOBAL DEFAULT UND _ZN7android8hardware7deta
87:   FUNC GLOBAL DEFAULT UND _ZN7android8hardware7deta
88:   FUNC GLOBAL DEFAULT UND _ZN7android8hardware7deta
89:   FUNC GLOBAL DEFAULT UND _ZN7android8hardware7deta
90:   FUNC GLOBAL DEFAULT UND _ZN7android8hardware7deta
91:   FUNC GLOBAL DEFAULT UND _ZN7android8hardware7deta
92:   FUNC GLOBAL DEFAULT UND _ZN7android8hardware7deta
93:   FUNC GLOBAL DEFAULT UND _ZN7android8hardware7deta
94:   OBJECT GLOBAL DEFAULT UND _ZN7android8hardware7deta
95:   FUNC GLOBAL DEFAULT UND _ZN7android8hardware9BHwB
96:   FUNC GLOBAL DEFAULT UND _ZN7android8hardware9BHwB
97:   FUNC GLOBAL DEFAULT UND _ZN7android8hardware9BHwB
98:   FUNC GLOBAL DEFAULT UND _ZN7android8hardware9BHwB
99:   FUNC GLOBAL DEFAULT UND _ZN7android8hardware9BHwB
100:   FUNC GLOBAL DEFAULT UND _ZN7android8hardware9BHwB
101:   FUNC GLOBAL DEFAULT UND _ZN7android8hardware9BHwB
102:   FUNC GLOBAL DEFAULT UND _ZN7android8hardware9BHwB
103:   FUNC GLOBAL DEFAULT UND _ZN7android8hardware9BHwB
104:   FUNC GLOBAL DEFAULT UND _ZN7android8hardware9BHwB
105:   FUNC GLOBAL DEFAULT UND _ZNK7android7RefBase10cre
106:   FUNC GLOBAL DEFAULT UND _ZNK7android7RefBase11get
107:   FUNC GLOBAL DEFAULT UND _ZNK7android7RefBase9decS
108:   FUNC GLOBAL DEFAULT UND _ZNK7android7RefBase9incS
109:   FUNC GLOBAL DEFAULT UND _ZNK7android8hardware11hi
110:   FUNC GLOBAL DEFAULT UND _ZNK7android8hardware6Par
111:   FUNC GLOBAL DEFAULT UND _ZNK7android8hardware6Par
112:   FUNC GLOBAL DEFAULT UND _ZNK7android8hardware6Par
113:   FUNC GLOBAL DEFAULT UND _ZNK7android8hardware7IBi
114:   FUNC GLOBAL DEFAULT UND _ZNK7android8hardware7det
115:   FUNC GLOBAL DEFAULT UND _ZNK7android8hardware9BHw
116:   FUNC GLOBAL DEFAULT UND _ZNKSt3__120__vector_base
117:   FUNC GLOBAL DEFAULT UND _ZNKSt3__121__basic_strin
118:   FUNC GLOBAL DEFAULT UND _ZNSt3__112basic_stringIc
119:   FUNC GLOBAL DEFAULT UND _ZNSt3__15mutex4lockEv
120:   FUNC GLOBAL DEFAULT UND _ZNSt3__15mutex6unlockEv
121:   FUNC GLOBAL DEFAULT UND _ZNSt3__15mutexD1Ev
122:   FUNC GLOBAL DEFAULT UND _ZTv0_n12_N7android4hidl4
123:   FUNC GLOBAL DEFAULT UND _ZTv0_n12_N7android4hidl4
124:   FUNC GLOBAL DEFAULT UND _ZTv0_n12_N7android8hardw
125:   FUNC GLOBAL DEFAULT UND _ZTv0_n12_N7android8hardw
126:   FUNC GLOBAL DEFAULT UND _ZTv0_n12_N7android8hardw
127:   FUNC GLOBAL DEFAULT UND _ZTv0_n12_N7android8hardw
128:   FUNC GLOBAL DEFAULT UND _ZTv0_n12_N7android8hardw
129:   FUNC GLOBAL DEFAULT UND _ZTv0_n12_N7android8hardw
130:   FUNC GLOBAL DEFAULT UND _ZTv0_n12_N7android8hardw
131:   FUNC GLOBAL DEFAULT UND _ZTv0_n12_N7android8hardw
132:   FUNC GLOBAL DEFAULT UND _ZTv0_n16_N7android8hardw
133:   FUNC GLOBAL DEFAULT UND _ZTv0_n20_N7android8hardw
134:   FUNC GLOBAL DEFAULT UND _ZTv0_n24_N7android8hardw
135:   FUNC GLOBAL DEFAULT UND _ZdaPv
136:   FUNC GLOBAL DEFAULT UND _ZdlPv
137:   FUNC GLOBAL DEFAULT UND _Znaj
138:   FUNC GLOBAL DEFAULT UND _Znwj
139:   FUNC GLOBAL DEFAULT UND __android_log_assert@LIBLOG (3)
140:   FUNC GLOBAL DEFAULT UND __cxa_pure_virtual
141:   FUNC GLOBAL DEFAULT UND __stack_chk_fail@LIBC (2)
142:   OBJECT GLOBAL DEFAULT UND __stack_chk_guard@LIBC (2)
143:   FUNC GLOBAL DEFAULT UND abort@LIBC (2)
144:   FUNC GLOBAL DEFAULT UND atrace_begin_body
145:   OBJECT GLOBAL DEFAULT UND atrace_enabled_tags
146:   FUNC GLOBAL DEFAULT UND atrace_end_body
147:   OBJECT GLOBAL DEFAULT UND atrace_is_ready
148:   FUNC GLOBAL DEFAULT UND atrace_setup
149:   FUNC GLOBAL DEFAULT UND memcmp@LIBC (2)
150:   FUNC GLOBAL DEFAULT UND strlen@LIBC (2)
151:   FUNC GLOBAL DEFAULT UND _ZN7android8hardware6Parc
152:   FUNC GLOBAL DEFAULT UND _ZN7android8hardware6Parc
153:   FUNC GLOBAL DEFAULT UND _ZN7android8hardware7deta
154:   FUNC GLOBAL DEFAULT UND _ZNK7android8hardware6Par
155:   FUNC GLOBAL DEFAULT UND _ZNK7android8hardware6Par
156:   FUNC GLOBAL DEFAULT UND _ZNSt3__112basic_stringIc
157:   FUNC GLOBAL DEFAULT UND _ZN7android8hardware21wri
158:   FUNC GLOBAL DEFAULT UND _ZN7android8hardware22rea
159:   FUNC GLOBAL DEFAULT UND memcpy@LIBC (2)
160:   FUNC GLOBAL DEFAULT UND memset@LIBC (2)
161:   OBJECT GLOBAL DEFAULT 18 _ZTCN7android10frameworks
162:   FUNC GLOBAL DEFAULT 14 _ZN7android10frameworks9b
163:   OBJECT GLOBAL DEFAULT 18 _ZTCN7android10frameworks
164:   FUNC GLOBAL DEFAULT 14 _ZN7android10frameworks9b
165:   FUNC GLOBAL DEFAULT 14 _ZN7android10frameworks9b
166:   FUNC GLOBAL DEFAULT 14 _ZN7android10frameworks9b
167:   FUNC GLOBAL DEFAULT 14 _ZN7android10frameworks9b
168:   FUNC GLOBAL DEFAULT 14 _ZN7android10frameworks9b
169:   OBJECT GLOBAL DEFAULT 18 _ZTVN7android10frameworks
170:   FUNC GLOBAL DEFAULT 14 _ZN7android10frameworks9b
171:   FUNC GLOBAL DEFAULT 14 __aeabi_memset4
172:   FUNC GLOBAL DEFAULT 14 _ZN7android10frameworks9b
173:   FUNC GLOBAL DEFAULT 14 _ZN7android10frameworks9b
174:   FUNC GLOBAL DEFAULT 14 _ZN7android10frameworks9b
175:   OBJECT WEAK DEFAULT 18 _ZTVN7android10frameworks
176:   FUNC GLOBAL DEFAULT 14 _ZN7android10frameworks9b
177:   FUNC GLOBAL DEFAULT 14 _ZN7android10frameworks9b
178:   FUNC GLOBAL DEFAULT 14 _ZN7android10frameworks9b
179:   FUNC GLOBAL DEFAULT 14 _ZN7android10frameworks9b
180:   FUNC GLOBAL DEFAULT 14 _ZN7android10frameworks9b
181:   FUNC WEAK DEFAULT 14 _ZN7android8hardware10fro
182:   OBJECT GLOBAL DEFAULT 18 _ZTCN7android10frameworks
183:   FUNC GLOBAL DEFAULT 14 _ZN7android10frameworks9b
184:   FUNC GLOBAL DEFAULT 14 _ZN7android10frameworks9b
185:   OBJECT GLOBAL DEFAULT 18 _ZTCN7android10frameworks
186:   FUNC GLOBAL DEFAULT 14 _ZN7android10frameworks9b
187:   FUNC GLOBAL DEFAULT 14 __aeabi_memcpy
188:   FUNC GLOBAL DEFAULT 14 _ZN7android10frameworks9b
189:   FUNC GLOBAL DEFAULT 14 _ZN7android10frameworks9b
190:   OBJECT GLOBAL DEFAULT 18 _ZTCN7android10frameworks
191:   OBJECT GLOBAL DEFAULT 18 _ZTVN7android10frameworks
192:   FUNC GLOBAL DEFAULT 14 __aeabi_memset8
193:   FUNC GLOBAL DEFAULT 14 _ZN7android10frameworks9b
194:   FUNC GLOBAL DEFAULT 14 _ZN7android10frameworks9b
195:   FUNC WEAK DEFAULT 14 _ZNSt3__16vectorINS_8func
196:   OBJECT GLOBAL DEFAULT 18 _ZTVN7android10frameworks
197:   FUNC GLOBAL DEFAULT 14 __aeabi_memclr4
198:   FUNC GLOBAL DEFAULT 14 _ZTv0_n12_N7android10fram
199:   FUNC GLOBAL DEFAULT 14 _ZN7android10frameworks9b
200:   FUNC GLOBAL DEFAULT 14 _ZN7android10frameworks9b
201:   FUNC GLOBAL DEFAULT 14 _ZN7android10frameworks9b
202:   OBJECT GLOBAL DEFAULT 18 _ZTCN7android10frameworks
203:   OBJECT GLOBAL DEFAULT 16 _ZN7android10frameworks9b
204:   FUNC GLOBAL DEFAULT 14 _ZN7android10frameworks9b
205:   FUNC GLOBAL DEFAULT 14 _ZN7android10frameworks9b
206:   FUNC WEAK DEFAULT 14 _ZNSt3__16__treeINS_12__v
207:   FUNC GLOBAL DEFAULT 14 _ZN7android10frameworks9b
208:   FUNC GLOBAL DEFAULT 14 _ZN7android10frameworks9b
209:   FUNC GLOBAL DEFAULT 14 _ZN7android10frameworks9b
210:   FUNC GLOBAL DEFAULT 14 _ZN7android10frameworks9b
211:   FUNC GLOBAL DEFAULT 14 _ZN7android10frameworks9b
212:   FUNC WEAK DEFAULT 14 _ZNSt3__113__tree_removeI
213:   OBJECT GLOBAL DEFAULT 18 _ZTCN7android10frameworks
214:   FUNC GLOBAL DEFAULT 14 _ZN7android10frameworks9b
215:   FUNC GLOBAL DEFAULT 14 __aeabi_memclr8
216:   FUNC GLOBAL DEFAULT 14 _ZN7android10frameworks9b
217:   FUNC GLOBAL DEFAULT 14 _ZN7android10frameworks9b
218:   FUNC GLOBAL DEFAULT 14 _ZN7android10frameworks9b
219:   FUNC WEAK DEFAULT 14 _ZN7android8hardware7deta
220:   OBJECT GLOBAL DEFAULT 18 _ZTTN7android10frameworks
221:   FUNC GLOBAL DEFAULT 14 _ZN7android10frameworks9b
222:   FUNC GLOBAL DEFAULT 14 _ZN7android10frameworks9b
223:   FUNC GLOBAL DEFAULT 14 _ZN7android10frameworks9b
224:   FUNC GLOBAL DEFAULT 14 _ZN7android10frameworks9b
225:   FUNC GLOBAL DEFAULT 14 _ZN7android10frameworks9b
226:   FUNC GLOBAL DEFAULT 14 _ZN7android10frameworks9b
227:   FUNC GLOBAL DEFAULT 14 _ZN7android10frameworks9b
228:   FUNC GLOBAL DEFAULT 14 _ZN7android10frameworks9b
229:   FUNC GLOBAL DEFAULT 14 _ZN7android10frameworks9b
230:   FUNC GLOBAL DEFAULT 14 _ZN7android10frameworks9b
231:   FUNC WEAK DEFAULT 14 _ZN7android8hardware7deta
232:   FUNC GLOBAL DEFAULT 14 _ZN7android10frameworks9b
233:   FUNC GLOBAL DEFAULT 14 _ZN7android10frameworks9b
234:   OBJECT GLOBAL DEFAULT 18 _ZTTN7android10frameworks
235:   FUNC GLOBAL DEFAULT 14 _ZN7android10frameworks9b
236:   FUNC GLOBAL DEFAULT 14 _ZThn20_N7android10framew
237:   FUNC GLOBAL DEFAULT 14 _ZN7android10frameworks9b
238:   FUNC GLOBAL DEFAULT 14 _ZN7android10frameworks9b
239:   FUNC GLOBAL DEFAULT 14 _ZN7android10frameworks9b
240:   OBJECT GLOBAL DEFAULT 18 _ZTCN7android10frameworks
241:   FUNC GLOBAL DEFAULT 14 _ZN7android10frameworks9b
242:   OBJECT GLOBAL DEFAULT 18 _ZTCN7android10frameworks
243:   OBJECT WEAK DEFAULT 18 _ZTVN7android10frameworks
244:   FUNC GLOBAL DEFAULT 14 _ZN7android10frameworks9b
245:   FUNC WEAK DEFAULT 14 _ZNSt3__16__treeINS_12__v
246:   FUNC GLOBAL DEFAULT 14 _ZTv0_n12_N7android10fram
247:   FUNC GLOBAL DEFAULT 14 _ZThn20_N7android10framew
248:   FUNC GLOBAL DEFAULT 14 _ZN7android10frameworks9b
249:   FUNC GLOBAL DEFAULT 14 _ZN7android10frameworks9b
250:   FUNC GLOBAL DEFAULT 14 _ZN7android10frameworks9b
251:   FUNC GLOBAL DEFAULT 14 _ZN7android10frameworks9b
252:   OBJECT WEAK DEFAULT 18 _ZTCN7android10frameworks
253:   OBJECT GLOBAL DEFAULT 18 _ZTTN7android10frameworks
254:   FUNC GLOBAL DEFAULT 14 _ZN7android10frameworks9b
255:   FUNC WEAK DEFAULT 14 _ZNSt3__127__tree_balance
256:   FUNC WEAK DEFAULT 14 _ZNSt3__16__treeINS_12__v
257:   OBJECT GLOBAL DEFAULT 18 _ZTTN7android10frameworks
258:   FUNC GLOBAL DEFAULT 14 _ZN7android10frameworks9b
259:   OBJECT GLOBAL DEFAULT 18 _ZTCN7android10frameworks
260:   FUNC GLOBAL DEFAULT 14 _ZN7android10frameworks9b
261:   FUNC WEAK DEFAULT 14 _ZN7android8hardware7deta
262:   OBJECT WEAK DEFAULT 18 _ZTCN7android10frameworks
263:   FUNC GLOBAL DEFAULT 14 __aeabi_memset
264:   FUNC GLOBAL DEFAULT 14 _ZN7android10frameworks9b
265:   FUNC GLOBAL DEFAULT 14 _ZN7android10frameworks9b
266:   FUNC GLOBAL DEFAULT 14 _ZN7android10frameworks9b
267:   FUNC GLOBAL DEFAULT 14 _ZN7android10frameworks9b
268:   FUNC GLOBAL DEFAULT 14 _ZN7android10frameworks9b
269:   FUNC WEAK DEFAULT 14 _ZNSt3__16__treeINS_12__v
270:   FUNC WEAK DEFAULT 14 _ZNSt3__16vectorIN7androi
271:   FUNC GLOBAL DEFAULT 14 _ZN7android10frameworks9b
272:   FUNC GLOBAL DEFAULT 14 _ZN7android10frameworks9b
273:   FUNC GLOBAL DEFAULT 14 _ZThn20_N7android10framew
274:   OBJECT GLOBAL DEFAULT 18 _ZTCN7android10frameworks
275:   FUNC GLOBAL DEFAULT 14 _ZN7android10frameworks9b
276:   FUNC GLOBAL DEFAULT 14 _ZN7android10frameworks9b
277:   FUNC GLOBAL DEFAULT 14 _ZN7android10frameworks9b
278:   OBJECT GLOBAL DEFAULT 18 _ZTCN7android10frameworks
279:   OBJECT GLOBAL DEFAULT 18 _ZTTN7android10frameworks
280:   FUNC GLOBAL DEFAULT 14 _ZN7android10frameworks9b
281:   FUNC GLOBAL DEFAULT 14 _ZThn20_N7android10framew
282:   OBJECT GLOBAL DEFAULT 18 _ZTCN7android10frameworks
283:   OBJECT GLOBAL DEFAULT 18 _ZTVN7android10frameworks
284:   FUNC GLOBAL DEFAULT 14 __aeabi_memclr
285:   FUNC GLOBAL DEFAULT 14 _ZN7android10frameworks9b
286:   FUNC GLOBAL DEFAULT 14 _ZN7android10frameworks9b
287:   FUNC WEAK DEFAULT 14 _ZNSt3__16__treeINS_12__v
288:   FUNC GLOBAL DEFAULT 14 _ZN7android10frameworks9b
289:   FUNC GLOBAL DEFAULT 14 _ZN7android10frameworks9b
290:   OBJECT GLOBAL DEFAULT 18 _ZTVN7android10frameworks
291:   FUNC WEAK DEFAULT 14 _ZNSt3__16__treeINS_12__v
292:   FUNC GLOBAL DEFAULT 14 _ZN7android10frameworks9b
293:   FUNC GLOBAL DEFAULT 14 _ZN7android10frameworks9b
294:   FUNC GLOBAL DEFAULT 14 _ZN7android10frameworks9b
295:   FUNC GLOBAL DEFAULT 14 _ZTv0_n12_N7android10fram
296:   FUNC GLOBAL DEFAULT 14 _ZN7android10frameworks9b
297:   FUNC GLOBAL DEFAULT 14 _ZN7android10frameworks9b
298:   FUNC GLOBAL DEFAULT 14 _ZN7android10frameworks9b
299:   FUNC GLOBAL DEFAULT 14 _ZN7android10frameworks9b
300:   FUNC WEAK DEFAULT 14 _ZN7android8hardware7deta
301:   FUNC GLOBAL DEFAULT 14 _ZN7android10frameworks9b
302:   FUNC WEAK DEFAULT 14 _ZNSt3__16vectorIPvNS_9al
303:   OBJECT GLOBAL DEFAULT 18 _ZTCN7android10frameworks
304:   FUNC WEAK DEFAULT 14 _ZN7android8hardware7deta
305:   OBJECT GLOBAL DEFAULT 18 _ZTCN7android10frameworks
306:   OBJECT GLOBAL DEFAULT 18 _ZTTN7android10frameworks
307:   FUNC GLOBAL DEFAULT 14 _ZN7android10frameworks9b
308:   FUNC GLOBAL DEFAULT 14 _ZN7android10frameworks9b
309:   FUNC GLOBAL DEFAULT 14 _ZN7android10frameworks9b
310:   OBJECT GLOBAL DEFAULT 18 _ZTCN7android10frameworks
311:   FUNC GLOBAL DEFAULT 14 _ZN7android10frameworks9b
312:   FUNC GLOBAL DEFAULT 14 __aeabi_memcpy4
313:   OBJECT GLOBAL DEFAULT 16 _ZN7android10frameworks9b
314:   OBJECT GLOBAL DEFAULT 18 _ZTCN7android10frameworks
315:   FUNC GLOBAL DEFAULT 14 _ZN7android10frameworks9b
316:   FUNC GLOBAL DEFAULT 14 _ZN7android10frameworks9b
317:   FUNC GLOBAL DEFAULT 14 _ZN7android10frameworks9b
318:   OBJECT GLOBAL DEFAULT 18 _ZTCN7android10frameworks
319:   FUNC GLOBAL DEFAULT 14 _ZN7android10frameworks9b
320:   OBJECT GLOBAL DEFAULT 18 _ZTVN7android10frameworks
321:   FUNC GLOBAL DEFAULT 14 _ZTv0_n12_N7android10fram
322:   FUNC GLOBAL DEFAULT 14 __aeabi_memcpy8
