 0x000000000000000e (SONAME)             Library soname: [netd_aidl_interface-V2-cpp.so]
  
Symbol   contains 466 entries:
Num:   Type Bind Vis Ndx Name
0:   NOTYPE LOCAL DEFAULT UND
1:   FUNC GLOBAL DEFAULT UND __cxa_finalize@LIBC (2)
2:   FUNC GLOBAL DEFAULT UND __cxa_atexit@LIBC (2)
3:   FUNC GLOBAL DEFAULT UND _ZN4Json5Value6appendERKS
4:   FUNC GLOBAL DEFAULT UND _ZN4Json5ValueC1ENS_9Valu
5:   FUNC GLOBAL DEFAULT UND _ZN4Json5ValueC1EPKc
6:   FUNC GLOBAL DEFAULT UND _ZN4Json5ValueC1ERKNSt3__
7:   FUNC GLOBAL DEFAULT UND _ZN4Json5ValueC1ERKS0_
8:   FUNC GLOBAL DEFAULT UND _ZN4Json5ValueC1Ed
9:   FUNC GLOBAL DEFAULT UND _ZN4Json5ValueC1Ei
10:   FUNC GLOBAL DEFAULT UND _ZN4Json5ValueC1Ex
11:   FUNC GLOBAL DEFAULT UND _ZN4Json5ValueD1Ev
12:   FUNC GLOBAL DEFAULT UND _ZN4Json5ValueaSES0_
13:   FUNC GLOBAL DEFAULT UND _ZN4Json5ValueixEPKc
14:   FUNC GLOBAL DEFAULT UND _ZN7android10IInterface8a
15:   FUNC GLOBAL DEFAULT UND _ZN7android10IInterfaceC2
16:   FUNC GLOBAL DEFAULT UND _ZN7android10IInterfaceD0
17:   FUNC GLOBAL DEFAULT UND _ZN7android10IInterfaceD1
18:   FUNC GLOBAL DEFAULT UND _ZN7android10IInterfaceD2
19:   FUNC GLOBAL DEFAULT UND _ZN7android14sp_report_ra
20:   FUNC GLOBAL DEFAULT UND _ZN7android2os20ParcelFil
21:   FUNC GLOBAL DEFAULT UND _ZN7android2os20ParcelFil
22:   FUNC GLOBAL DEFAULT UND _ZN7android6Parcel10write
23:   FUNC GLOBAL DEFAULT UND _ZN7android6Parcel10write
24:   FUNC GLOBAL DEFAULT UND _ZN7android6Parcel15write
25:   FUNC GLOBAL DEFAULT UND _ZN7android6Parcel15write
26:   FUNC GLOBAL DEFAULT UND _ZN7android6Parcel16write
27:   FUNC GLOBAL DEFAULT UND _ZN7android6Parcel16write
28:   FUNC GLOBAL DEFAULT UND _ZN7android6Parcel16write
29:   FUNC GLOBAL DEFAULT UND _ZN7android6Parcel17write
30:   FUNC GLOBAL DEFAULT UND _ZN7android6Parcel19write
31:   FUNC GLOBAL DEFAULT UND _ZN7android6Parcel28write
32:   FUNC GLOBAL DEFAULT UND _ZN7android6Parcel9writeB
33:   FUNC GLOBAL DEFAULT UND _ZN7android6ParcelC1Ev
34:   FUNC GLOBAL DEFAULT UND _ZN7android6ParcelD1Ev
35:   FUNC GLOBAL DEFAULT UND _ZN7android6binder6Status
36:   FUNC GLOBAL DEFAULT UND _ZN7android6binder6Status
37:   FUNC GLOBAL DEFAULT UND _ZN7android6binder6Status
38:   FUNC GLOBAL DEFAULT UND _ZN7android6binder6Status
39:   FUNC GLOBAL DEFAULT UND _ZN7android7BBinder10onTr
40:   FUNC GLOBAL DEFAULT UND _ZN7android7BBinder10ping
41:   FUNC GLOBAL DEFAULT UND _ZN7android7BBinder11link
42:   FUNC GLOBAL DEFAULT UND _ZN7android7BBinder11loca
43:   FUNC GLOBAL DEFAULT UND _ZN7android7BBinder12atta
44:   FUNC GLOBAL DEFAULT UND _ZN7android7BBinder12deta
45:   FUNC GLOBAL DEFAULT UND _ZN7android7BBinder13unli
46:   FUNC GLOBAL DEFAULT UND _ZN7android7BBinder4dumpE
47:   FUNC GLOBAL DEFAULT UND _ZN7android7BBinder8trans
48:   FUNC GLOBAL DEFAULT UND _ZN7android7BBinderD0Ev
49:   FUNC GLOBAL DEFAULT UND _ZN7android7BBinderD1Ev
50:   FUNC GLOBAL DEFAULT UND _ZN7android7IBinder11loca
51:   FUNC GLOBAL DEFAULT UND _ZN7android7IBinder12remo
52:   FUNC GLOBAL DEFAULT UND _ZN7android7IBinder19quer
53:   FUNC GLOBAL DEFAULT UND _ZN7android7IBinderD0Ev
54:   FUNC GLOBAL DEFAULT UND _ZN7android7IBinderD1Ev
55:   FUNC GLOBAL DEFAULT UND _ZN7android7RefBase10onFi
56:   FUNC GLOBAL DEFAULT UND _ZN7android7RefBase13onLa
57:   FUNC GLOBAL DEFAULT UND _ZN7android7RefBase15onLa
58:   FUNC GLOBAL DEFAULT UND _ZN7android7RefBase20onIn
59:   FUNC GLOBAL DEFAULT UND _ZN7android7RefBaseC2Ev
60:   FUNC GLOBAL DEFAULT UND _ZN7android7RefBaseD2Ev
61:   FUNC GLOBAL DEFAULT UND _ZN7android7String8C1ERKS
62:   FUNC GLOBAL DEFAULT UND _ZN7android7String8C1Ev
63:   FUNC GLOBAL DEFAULT UND _ZN7android7String8D1Ev
64:   FUNC GLOBAL DEFAULT UND _ZN7android8String16C1EPK
65:   FUNC GLOBAL DEFAULT UND _ZN7android8String16D1Ev
66:   FUNC GLOBAL DEFAULT UND _ZN7android9BpRefBase10on
67:   FUNC GLOBAL DEFAULT UND _ZN7android9BpRefBase15on
68:   FUNC GLOBAL DEFAULT UND _ZN7android9BpRefBase20on
69:   FUNC GLOBAL DEFAULT UND _ZN7android9BpRefBaseC2ER
70:   FUNC GLOBAL DEFAULT UND _ZN7android9BpRefBaseD0Ev
71:   FUNC GLOBAL DEFAULT UND _ZN7android9BpRefBaseD1Ev
72:   FUNC GLOBAL DEFAULT UND _ZN7android9BpRefBaseD2Ev
73:   FUNC GLOBAL DEFAULT UND _ZNK7android6Parcel14chec
74:   FUNC GLOBAL DEFAULT UND _ZNK7android6Parcel14read
75:   FUNC GLOBAL DEFAULT UND _ZNK7android6Parcel14read
76:   FUNC GLOBAL DEFAULT UND _ZNK7android6Parcel15read
77:   FUNC GLOBAL DEFAULT UND _ZNK7android6Parcel16read
78:   FUNC GLOBAL DEFAULT UND _ZNK7android6Parcel17read
79:   FUNC GLOBAL DEFAULT UND _ZNK7android6Parcel29read
80:   FUNC GLOBAL DEFAULT UND _ZNK7android6Parcel8readB
81:   FUNC GLOBAL DEFAULT UND _ZNK7android6Parcel9readI
82:   FUNC GLOBAL DEFAULT UND _ZNK7android6Parcel9readI
83:   FUNC GLOBAL DEFAULT UND _ZNK7android6Parcel9readI
84:   FUNC GLOBAL DEFAULT UND _ZNK7android6binder6Statu
85:   FUNC GLOBAL DEFAULT UND _ZNK7android7BBinder10fin
86:   FUNC GLOBAL DEFAULT UND _ZNK7android7BBinder13isB
87:   FUNC GLOBAL DEFAULT UND _ZNK7android7BBinder22get
88:   FUNC GLOBAL DEFAULT UND _ZNK7android7IBinder13che
89:   FUNC GLOBAL DEFAULT UND _ZNK7android7RefBase9decS
90:   FUNC GLOBAL DEFAULT UND _ZNK7android7RefBase9incS
91:   FUNC GLOBAL DEFAULT UND _ZNK7android8String164siz
92:   FUNC GLOBAL DEFAULT UND _ZNKSt3__120__vector_base
93:   FUNC GLOBAL DEFAULT UND _ZNKSt3__121__basic_strin
94:   FUNC GLOBAL DEFAULT UND _ZNSt3__112basic_stringIc
95:   FUNC GLOBAL DEFAULT UND _ZNSt3__112basic_stringIc
96:   FUNC GLOBAL DEFAULT UND _ZNSt3__113basic_ostreamI
97:   FUNC GLOBAL DEFAULT UND _ZNSt3__113basic_ostreamI
98:   FUNC GLOBAL DEFAULT UND _ZNSt3__113basic_ostreamI
99:   FUNC GLOBAL DEFAULT UND _ZNSt3__113basic_ostreamI
100:   FUNC GLOBAL DEFAULT UND _ZNSt3__115basic_streambu
101:   FUNC GLOBAL DEFAULT UND _ZNSt3__115basic_streambu
102:   FUNC GLOBAL DEFAULT UND _ZNSt3__115basic_streambu
103:   FUNC GLOBAL DEFAULT UND _ZNSt3__115basic_streambu
104:   FUNC GLOBAL DEFAULT UND _ZNSt3__115basic_streambu
105:   FUNC GLOBAL DEFAULT UND _ZNSt3__115basic_streambu
106:   FUNC GLOBAL DEFAULT UND _ZNSt3__115basic_streambu
107:   FUNC GLOBAL DEFAULT UND _ZNSt3__115basic_streambu
108:   FUNC GLOBAL DEFAULT UND _ZNSt3__115basic_streambu
109:   FUNC GLOBAL DEFAULT UND _ZNSt3__16chrono12steady_
110:   FUNC GLOBAL DEFAULT UND _ZNSt3__18ios_base4initEP
111:   FUNC GLOBAL DEFAULT UND _ZNSt3__19basic_iosIcNS_1
112:   FUNC GLOBAL DEFAULT UND _ZTv0_n24_N7android10IInt
113:   FUNC GLOBAL DEFAULT UND _ZTv0_n24_N7android10IInt
114:   FUNC GLOBAL DEFAULT UND _ZTv0_n24_N7android7BBind
115:   FUNC GLOBAL DEFAULT UND _ZTv0_n24_N7android7BBind
116:   FUNC GLOBAL DEFAULT UND _ZTv0_n24_N7android7IBind
117:   FUNC GLOBAL DEFAULT UND _ZTv0_n24_N7android7IBind
118:   FUNC GLOBAL DEFAULT UND _ZTv0_n24_N7android9BpRef
119:   FUNC GLOBAL DEFAULT UND _ZTv0_n24_N7android9BpRef
120:   FUNC GLOBAL DEFAULT UND _ZTv0_n24_NSt3__113basic_
121:   FUNC GLOBAL DEFAULT UND _ZTv0_n24_NSt3__113basic_
122:   FUNC GLOBAL DEFAULT UND _ZTv0_n32_N7android9BpRef
123:   FUNC GLOBAL DEFAULT UND _ZTv0_n40_N7android9BpRef
124:   FUNC GLOBAL DEFAULT UND _ZTv0_n48_N7android9BpRef
125:   FUNC GLOBAL DEFAULT UND _ZdlPv
126:   FUNC GLOBAL DEFAULT UND _Znwm
127:   FUNC GLOBAL DEFAULT UND __cxa_guard_acquire
128:   FUNC GLOBAL DEFAULT UND __cxa_guard_release
129:   FUNC GLOBAL DEFAULT UND __cxa_pure_virtual
130:   FUNC GLOBAL DEFAULT UND __stack_chk_fail@LIBC (2)
131:   FUNC GLOBAL DEFAULT UND abort@LIBC (2)
132:   FUNC GLOBAL DEFAULT UND strzcmp16
133:   FUNC GLOBAL DEFAULT UND _ZNK7android6Parcel12data
134:   FUNC GLOBAL DEFAULT UND _ZNK7android6Parcel15setD
135:   FUNC GLOBAL DEFAULT 14 _ZN7android3net12INetdDef
136:   FUNC GLOBAL DEFAULT 14 _ZN7android3net12INetdDef
137:   FUNC GLOBAL DEFAULT 14 _ZN7android3net6BpNetd21i
138:   FUNC GLOBAL DEFAULT 14 _ZN7android3net6BpNetd32i
139:   OBJECT WEAK DEFAULT 18 _ZTCNSt3__119basic_ostrin
140:   FUNC GLOBAL DEFAULT 14 _ZN7android3net30BpNetdUn
141:   FUNC GLOBAL DEFAULT 14 _ZN7android3net36INetdUns
142:   FUNC GLOBAL DEFAULT 14 _ZN7android3net12INetdDef
143:   FUNC GLOBAL DEFAULT 14 _ZN7android3net12INetdDef
144:   FUNC GLOBAL DEFAULT 14 _ZN7android3net12INetdDef
145:   FUNC GLOBAL DEFAULT 14 _ZN7android3net5INetd13IF
146:   FUNC GLOBAL DEFAULT 14 _ZN7android3net6BpNetd18w
147:   FUNC GLOBAL DEFAULT 14 _ZN7android3net6BpNetd25t
148:   FUNC WEAK DEFAULT 14 _ZNSt3__16vectorIN7androi
149:   OBJECT GLOBAL DEFAULT 18 _ZTCN7android3net5INetdE0
150:   FUNC GLOBAL DEFAULT 14 _ZN7android3net12INetdDef
151:   FUNC GLOBAL DEFAULT 14 _ZN7android3net12INetdDef
152:   FUNC GLOBAL DEFAULT 14 _ZN7android3net6BpNetd23b
153:   FUNC GLOBAL DEFAULT 14 _ZN7android3net6BpNetd24t
154:   OBJECT GLOBAL DEFAULT 18 _ZTCN7android3net6BnNetdE
155:   FUNC GLOBAL DEFAULT 14 _ZN7android3net29INetdUns
156:   FUNC GLOBAL DEFAULT 14 _ZN7android3net17TetherSt
157:   FUNC GLOBAL DEFAULT 14 _ZN7android3net6BpNetd15i
158:   FUNC GLOBAL DEFAULT 14 _ZN7android3net6BpNetd16t
159:   FUNC GLOBAL DEFAULT 14 _ZN7android3net6BpNetd21i
160:   FUNC GLOBAL DEFAULT 14 _ZN7android3net6BpNetd32r
161:   FUNC GLOBAL DEFAULT 14 _ZN7android3net12INetdDef
162:   FUNC GLOBAL DEFAULT 14 _ZN7android3net6BpNetd18t
163:   OBJECT GLOBAL DEFAULT 18 _ZTTN7android3net6BpNetdE
164:   OBJECT WEAK DEFAULT 18 _ZTVNSt3__115basic_string
165:   FUNC GLOBAL DEFAULT 14 _ZN7android3net29INetdUns
166:   FUNC GLOBAL DEFAULT 14 _ZN7android3net12INetdDef
167:   FUNC GLOBAL DEFAULT 14 _ZN7android3net12INetdDef
168:   FUNC GLOBAL DEFAULT 14 _ZN7android3net12INetdDef
169:   FUNC GLOBAL DEFAULT 14 _ZN7android3net6BnNetd19g
170:   OBJECT GLOBAL DEFAULT 18 _ZTCN7android3net30BpNetd
171:   OBJECT GLOBAL DEFAULT 18 _ZTVN7android3net6BpNetdE
172:   FUNC GLOBAL DEFAULT 14 _ZN7android3net12INetdDef
173:   FUNC GLOBAL DEFAULT 14 _ZN7android3net6BpNetd24n
174:   FUNC GLOBAL DEFAULT 14 _ZN7android3net6BpNetd30n
175:   OBJECT GLOBAL DEFAULT 18 _ZTCN7android3net30BpNetd
176:   FUNC GLOBAL DEFAULT 14 _ZN7android3net12INetdDef
177:   FUNC GLOBAL DEFAULT 14 _ZN7android3net12INetdDef
178:   FUNC GLOBAL DEFAULT 14 _ZN7android3net12INetdDef
179:   FUNC GLOBAL DEFAULT 14 _ZN7android3net6BpNetd24t
180:   FUNC GLOBAL DEFAULT 14 _ZTv0_n24_N7android3net5I
181:   FUNC GLOBAL DEFAULT 14 _ZN7android3net30BpNetdUn
182:   FUNC GLOBAL DEFAULT 14 _ZN7android3net12INetdDef
183:   FUNC GLOBAL DEFAULT 14 _ZN7android3net12INetdDef
184:   FUNC GLOBAL DEFAULT 14 _ZN7android3net6BpNetd19n
185:   FUNC GLOBAL DEFAULT 14 _ZN7android3net6BpNetd22i
186:   FUNC GLOBAL DEFAULT 14 _ZNK7android3net29INetdUn
187:   OBJECT GLOBAL DEFAULT 18 _ZTTN7android3net36INetdU
188:   FUNC GLOBAL DEFAULT 14 _ZN7android3net12INetdDef
189:   FUNC GLOBAL DEFAULT 14 _ZN7android3net12INetdDef
190:   FUNC GLOBAL DEFAULT 14 _ZN7android3net12INetdDef
191:   FUNC GLOBAL DEFAULT 14 _ZN7android3net5INetd13NE
192:   FUNC GLOBAL DEFAULT 14 _ZN7android3net6BpNetd22n
193:   FUNC GLOBAL DEFAULT 14 _ZN7android3net6BpNetd24i
194:   FUNC GLOBAL DEFAULT 14 _ZN7android3net12INetdDef
195:   FUNC GLOBAL DEFAULT 14 _ZN7android3net12INetdDef
196:   FUNC GLOBAL DEFAULT 14 _ZN7android3net5INetdD0Ev
197:   FUNC GLOBAL DEFAULT 14 _ZN7android3net6BpNetd29b
198:   FUNC GLOBAL DEFAULT 14 _ZN7android3net6BpNetd9cl
199:   FUNC GLOBAL DEFAULT 14 _ZN7android3net36INetdUns
200:   FUNC GLOBAL DEFAULT 14 _ZN7android3net12INetdDef
201:   FUNC GLOBAL DEFAULT 14 _ZN7android3net12INetdDef
202:   FUNC GLOBAL DEFAULT 14 _ZN7android3net5INetd11as
203:   FUNC GLOBAL DEFAULT 14 _ZN7android3net6BpNetd19i
204:   FUNC GLOBAL DEFAULT 14 _ZN7android3net30BpNetdUn
205:   FUNC GLOBAL DEFAULT 14 _ZThn16_N7android3net30Bn
206:   FUNC GLOBAL DEFAULT 14 _ZN7android3net6BpNetd13t
207:   FUNC WEAK DEFAULT 14 _ZNK7android6Parcel20read
208:   FUNC GLOBAL DEFAULT 14 _ZN7android3net30BpNetdUn
209:   FUNC GLOBAL DEFAULT 14 _ZN7android3net12INetdDef
210:   FUNC GLOBAL DEFAULT 14 _ZN7android3net5INetd17IF
211:   FUNC GLOBAL DEFAULT 14 _ZN7android3net6BpNetd25n
212:   FUNC GLOBAL DEFAULT 14 _ZNK7android3net28Interfa
213:   FUNC GLOBAL DEFAULT 14 _ZN7android3net12INetdDef
214:   OBJECT GLOBAL DEFAULT 18 _ZTVN7android3net12INetdD
215:   FUNC GLOBAL DEFAULT 14 _ZN7android3net30BpNetdUn
216:   FUNC GLOBAL DEFAULT 14 _ZN7android3net12INetdDef
217:   FUNC GLOBAL DEFAULT 14 _ZN7android3net12INetdDef
218:   FUNC GLOBAL DEFAULT 14 _ZN7android3net12INetdDef
219:   FUNC GLOBAL DEFAULT 14 _ZN7android3net12INetdDef
220:   FUNC GLOBAL DEFAULT 14 _ZN7android3net36INetdUns
221:   FUNC GLOBAL DEFAULT 14 _ZNK7android3net17TetherS
222:   FUNC GLOBAL DEFAULT 14 _ZN7android3net6BpNetd13g
223:   FUNC GLOBAL DEFAULT 14 _ZN7android3net6BpNetd22i
224:   FUNC GLOBAL DEFAULT 14 _ZN7android3net6BpNetd25b
225:   OBJECT GLOBAL DEFAULT 18 _ZTCN7android3net6BpNetdE
226:   FUNC GLOBAL DEFAULT 14 _ZN7android3net12INetdDef
227:   FUNC GLOBAL DEFAULT 14 _ZN7android3net6BpNetd13s
228:   FUNC GLOBAL DEFAULT 14 _ZN7android3net6BpNetd16i
229:   FUNC GLOBAL DEFAULT 14 _ZN7android3net6BpNetd21t
230:   OBJECT GLOBAL DEFAULT 18 _ZTCN7android3net30BpNetd
231:   FUNC GLOBAL DEFAULT 14 _ZTv0_n24_N7android3net29
232:   FUNC GLOBAL DEFAULT 14 _ZN7android3net6BpNetd27n
233:   FUNC GLOBAL DEFAULT 14 _ZN7android3net6BpNetd29n
234:   FUNC GLOBAL DEFAULT 14 _ZN7android3net6BpNetd7is
235:   OBJECT GLOBAL DEFAULT 18 _ZTTN7android3net6BnNetdE
236:   OBJECT GLOBAL DEFAULT 18 _ZTCN7android3net30BnNetd
237:   FUNC GLOBAL DEFAULT 14 _ZN7android3net6BpNetd19t
238:   FUNC GLOBAL DEFAULT 14 _ZN7android3net6BpNetd23i
239:   FUNC WEAK DEFAULT 14 _ZNSt3__115basic_stringbu
240:   FUNC GLOBAL DEFAULT 14 _ZN7android3net29INetdUns
241:   FUNC GLOBAL DEFAULT 14 _ZN7android3net5INetd14ge
242:   FUNC GLOBAL DEFAULT 14 _ZN7android3net6BpNetd30i
243:   OBJECT GLOBAL DEFAULT 18 _ZTVN7android3net6BnNetdE
244:   OBJECT GLOBAL DEFAULT 23 _ZN7android3net5INetd12de
245:   FUNC GLOBAL DEFAULT 14 _ZN7android3net29INetdUns
246:   FUNC GLOBAL DEFAULT 14 _ZN7android3net12INetdDef
247:   FUNC GLOBAL DEFAULT 14 _ZN7android3net12INetdDef
248:   FUNC GLOBAL DEFAULT 14 _ZN7android3net12INetdDef
249:   FUNC GLOBAL DEFAULT 14 _ZN7android3net6BpNetd17n
250:   FUNC GLOBAL DEFAULT 14 _ZN7android3net6BpNetd25i
251:   FUNC GLOBAL DEFAULT 14 _ZN7android3net6BpNetd26i
252:   FUNC GLOBAL DEFAULT 14 _ZN7android3net6BpNetd28f
253:   FUNC GLOBAL DEFAULT 14 _ZN7android3net6BpNetdC1E
254:   OBJECT GLOBAL DEFAULT 18 _ZTVN7android3net30BnNetd
255:   FUNC GLOBAL DEFAULT 14 _ZN7android3net12INetdDef
256:   FUNC GLOBAL DEFAULT 14 _ZN7android3net5INetd16IF
257:   FUNC GLOBAL DEFAULT 14 _ZN7android3net6BpNetd15i
258:   FUNC GLOBAL DEFAULT 14 _ZN7android3net6BpNetd19n
259:   FUNC GLOBAL DEFAULT 14 _ZN7android3net6BpNetdC2E
260:   OBJECT GLOBAL DEFAULT 18 _ZTTN7android3net12INetdD
261:   FUNC GLOBAL DEFAULT 14 _ZN7android3net12INetdDef
262:   FUNC GLOBAL DEFAULT 14 _ZN7android3net12INetdDef
263:   FUNC GLOBAL DEFAULT 14 _ZNK7android3net14UidRang
264:   FUNC GLOBAL DEFAULT 14 _ZN7android3net12INetdDef
265:   FUNC GLOBAL DEFAULT 14 _ZN7android3net12INetdDef
266:   FUNC GLOBAL DEFAULT 14 _ZN7android3net6BpNetd19b
267:   FUNC GLOBAL DEFAULT 14 _ZN7android3net6BpNetd27i
268:   FUNC WEAK DEFAULT 14 _ZNSt3__18functionIFvRKN4
269:   OBJECT GLOBAL DEFAULT 18 _ZTCN7android3net12INetdD
270:   FUNC GLOBAL DEFAULT 14 _ZN7android3net12INetdDef
271:   FUNC GLOBAL DEFAULT 14 _ZN7android3net12INetdDef
272:   FUNC GLOBAL DEFAULT 14 _ZN7android3net12INetdDef
273:   FUNC GLOBAL DEFAULT 14 _ZN7android3net12INetdDef
274:   FUNC GLOBAL DEFAULT 14 _ZN7android3net12INetdDef
275:   FUNC GLOBAL DEFAULT 14 _ZN7android3net5INetd12NE
276:   FUNC GLOBAL DEFAULT 14 _ZN7android3net5INetd17IF
277:   FUNC GLOBAL DEFAULT 14 _ZN7android3net6BpNetd18s
278:   OBJECT GLOBAL DEFAULT 18 _ZTVN7android3net30BpNetd
279:   FUNC GLOBAL DEFAULT 14 _ZN7android3net12INetdDef
280:   FUNC GLOBAL DEFAULT 14 _ZN7android3net12INetdDef
281:   FUNC GLOBAL DEFAULT 14 _ZN7android3net12INetdDef
282:   FUNC GLOBAL DEFAULT 14 _ZN7android3net12INetdDef
283:   FUNC GLOBAL DEFAULT 14 _ZN7android3net5INetd19NE
284:   FUNC GLOBAL DEFAULT 14 _ZN7android3net6BpNetd23f
285:   FUNC GLOBAL DEFAULT 14 _ZThn16_N7android3net6BnN
286:   FUNC GLOBAL DEFAULT 14 _ZN7android3net12INetdDef
287:   FUNC GLOBAL DEFAULT 14 _ZN7android3net12INetdDef
288:   FUNC GLOBAL DEFAULT 14 _ZN7android3net12INetdDef
289:   FUNC GLOBAL DEFAULT 14 _ZN7android3net6BpNetd15n
290:   FUNC GLOBAL DEFAULT 14 _ZN7android3net12INetdDef
291:   FUNC GLOBAL DEFAULT 14 _ZN7android3net6BpNetd24f
292:   FUNC GLOBAL DEFAULT 14 _ZN7android3net6BpNetd27i
293:   FUNC GLOBAL DEFAULT 14 _ZN7android3net12INetdDef
294:   FUNC GLOBAL DEFAULT 14 _ZN7android3net12INetdDef
295:   FUNC GLOBAL DEFAULT 14 _ZN7android3net6BpNetd18w
296:   FUNC GLOBAL DEFAULT 14 _ZN7android3net6BpNetd21n
297:   FUNC GLOBAL DEFAULT 14 _ZN7android3net12INetdDef
298:   FUNC GLOBAL DEFAULT 14 _ZN7android3net12INetdDef
299:   FUNC GLOBAL DEFAULT 14 _ZN7android3net5INetdD1Ev
300:   FUNC GLOBAL DEFAULT 14 _ZN7android3net6BpNetd25s
301:   OBJECT GLOBAL DEFAULT 18 _ZTCN7android3net30BnNetd
302:   FUNC GLOBAL DEFAULT 14 _ZN7android3net30BpNetdUn
303:   OBJECT GLOBAL DEFAULT 18 _ZTCN7android3net30BnNetd
304:   FUNC GLOBAL DEFAULT 14 _ZN7android3net12INetdDef
305:   FUNC GLOBAL DEFAULT 14 _ZN7android3net12INetdDef
306:   FUNC GLOBAL DEFAULT 14 _ZN7android3net5INetdC2Ev
307:   FUNC GLOBAL DEFAULT 14 _ZN7android3net6BpNetd19g
308:   FUNC GLOBAL DEFAULT 14 _ZN7android3net36INetdUns
309:   OBJECT GLOBAL DEFAULT 18 _ZTVN7android3net29INetdU
310:   FUNC GLOBAL DEFAULT 14 _ZN7android3net12INetdDef
311:   FUNC GLOBAL DEFAULT 14 _ZN7android3net12INetdDef
312:   FUNC GLOBAL DEFAULT 14 _ZN7android3net6BpNetd17n
313:   FUNC GLOBAL DEFAULT 14 _ZN7android3net6BpNetd19n
314:   FUNC GLOBAL DEFAULT 14 _ZN7android3net6BpNetd22b
315:   OBJECT GLOBAL DEFAULT 18 _ZTVN7android3net14UidRan
316:   FUNC WEAK DEFAULT 14 _ZNKSt3__115basic_stringb
317:   OBJECT GLOBAL DEFAULT 18 _ZTCN7android3net6BpNetdE
318:   OBJECT GLOBAL DEFAULT 18 _ZTCN7android3net29INetdU
319:   FUNC GLOBAL DEFAULT 14 _ZN7android3net12INetdDef
320:   FUNC GLOBAL DEFAULT 14 _ZN7android3net12INetdDef
321:   FUNC GLOBAL DEFAULT 14 _ZN7android3net6BpNetd22i
322:   OBJECT GLOBAL DEFAULT 18 _ZTCN7android3net6BnNetdE
323:   OBJECT GLOBAL DEFAULT 23 _ZN7android3net29INetdUns
324:   FUNC GLOBAL DEFAULT 14 _ZN7android3net30BnNetdUn
325:   OBJECT GLOBAL DEFAULT 23 _ZN7android3net30BnNetdUn
326:   OBJECT GLOBAL DEFAULT 18 _ZTCN7android3net30BnNetd
327:   FUNC GLOBAL DEFAULT 14 _ZN7android3net12INetdDef
328:   FUNC GLOBAL DEFAULT 14 _ZN7android3net6BpNetd25i
329:   OBJECT GLOBAL DEFAULT 18 _ZTCN7android3net30BnNetd
330:   FUNC GLOBAL DEFAULT 14 _ZN7android3net5INetd19IF
331:   FUNC GLOBAL DEFAULT 14 _ZN7android3net6BpNetd19t
332:   OBJECT WEAK DEFAULT 18 _ZTTNSt3__119basic_ostrin
333:   FUNC GLOBAL DEFAULT 14 _ZTv0_n24_N7android3net29
334:   FUNC GLOBAL DEFAULT 14 _ZN7android3net6BpNetd21n
335:   FUNC GLOBAL DEFAULT 14 _ZN7android3net6BpNetd22n
336:   FUNC GLOBAL DEFAULT 14 _ZN7android3net28Interfac
337:   FUNC GLOBAL DEFAULT 14 _ZN7android3net12INetdDef
338:   FUNC GLOBAL DEFAULT 14 _ZN7android3net6BpNetd24i
339:   FUNC WEAK DEFAULT 14 _ZN7android11BnInterfaceI
340:   FUNC GLOBAL DEFAULT 14 _ZN7android3net12INetdDef
341:   OBJECT GLOBAL DEFAULT 18 _ZTCN7android3net6BnNetdE
342:   FUNC GLOBAL DEFAULT 14 _ZN7android3net30BpNetdUn
343:   FUNC GLOBAL DEFAULT 14 _ZN7android3net12INetdDef
344:   FUNC GLOBAL DEFAULT 14 _ZN7android3net6BpNetd24b
345:   FUNC GLOBAL DEFAULT 14 _ZN7android3net36INetdUns
346:   FUNC GLOBAL DEFAULT 14 _ZN7android3net14UidRange
347:   FUNC GLOBAL DEFAULT 14 _ZN7android3net12INetdDef
348:   FUNC GLOBAL DEFAULT 14 _ZN7android3net5INetd15IF
349:   FUNC GLOBAL DEFAULT 14 _ZN7android3net36INetdUns
350:   OBJECT GLOBAL DEFAULT 18 _ZTCN7android3net30BpNetd
351:   OBJECT GLOBAL DEFAULT 18 _ZTVN7android3net36INetdU
352:   FUNC GLOBAL DEFAULT 14 _ZN7android3net12INetdDef
353:   FUNC GLOBAL DEFAULT 14 _ZN7android3net6BpNetd26b
354:   FUNC GLOBAL DEFAULT 14 _ZN7android3net6BpNetd31f
355:   FUNC WEAK DEFAULT 14 _ZNSt3__115basic_stringbu
356:   FUNC GLOBAL DEFAULT 14 _ZN7android3net36INetdUns
357:   FUNC GLOBAL DEFAULT 14 _ZN7android3net6BpNetd12i
358:   OBJECT GLOBAL DEFAULT 18 _ZTCN7android3net6BpNetdE
359:   OBJECT WEAK DEFAULT 18 _ZTVNSt3__119basic_ostrin
360:   FUNC GLOBAL DEFAULT 14 _ZN7android3net12INetdDef
361:   FUNC GLOBAL DEFAULT 14 _ZN7android3net12INetdDef
362:   FUNC GLOBAL DEFAULT 14 _ZN7android3net12INetdDef
363:   FUNC GLOBAL DEFAULT 14 _ZNK7android3net5INetd22g
364:   FUNC WEAK DEFAULT 14 _ZNK7android6Parcel20read
365:   OBJECT GLOBAL DEFAULT 18 _ZTVN7android3net17Tether
366:   FUNC GLOBAL DEFAULT 14 _ZN7android3net30BpNetdUn
367:   FUNC GLOBAL DEFAULT 14 _ZN7android3net12INetdDef
368:   FUNC GLOBAL DEFAULT 14 _ZN7android3net12INetdDef
369:   FUNC GLOBAL DEFAULT 14 _ZN7android3net12INetdDef
370:   FUNC GLOBAL DEFAULT 14 _ZN7android3net12INetdDef
371:   FUNC GLOBAL DEFAULT 14 _ZN7android3net6BpNetd29b
372:   OBJECT GLOBAL DEFAULT 18 _ZTCN7android3net6BpNetdE
373:   FUNC GLOBAL DEFAULT 14 _ZN7android3net12INetdDef
374:   FUNC GLOBAL DEFAULT 14 _ZN7android3net12INetdDef
375:   FUNC GLOBAL DEFAULT 14 _ZN7android3net12INetdDef
376:   FUNC GLOBAL DEFAULT 14 _ZN7android3net5INetd11IF
377:   FUNC GLOBAL DEFAULT 14 _ZN7android3net6BpNetd15i
378:   FUNC GLOBAL DEFAULT 14 _ZN7android3net6BpNetd15t
379:   FUNC GLOBAL DEFAULT 14 _ZN7android3net6BpNetd16i
380:   OBJECT GLOBAL DEFAULT 23 _ZN7android3net5INetd10de
381:   FUNC GLOBAL DEFAULT 14 _ZN7android3net6BpNetd14n
382:   FUNC GLOBAL DEFAULT 14 _ZN7android3net6BpNetd17n
383:   FUNC GLOBAL DEFAULT 14 _ZN7android3net6BpNetd18n
384:   FUNC GLOBAL DEFAULT 14 _ZN7android3net36INetdUns
385:   FUNC GLOBAL DEFAULT 14 _ZN7android3net6BnNetd10o
386:   FUNC GLOBAL DEFAULT 14 _ZN7android3net6BpNetd19i
387:   OBJECT GLOBAL DEFAULT 18 _ZTVN7android3net28Interf
388:   FUNC GLOBAL DEFAULT 14 _ZN7android3net5INetd14se
389:   FUNC GLOBAL DEFAULT 14 _ZN7android3net5INetdD2Ev
390:   OBJECT GLOBAL DEFAULT 18 _ZTCN7android3net6BnNetdE
391:   FUNC GLOBAL DEFAULT 14 _ZN7android3net30BpNetdUn
392:   FUNC GLOBAL DEFAULT 14 _ZN7android3net12INetdDef
393:   FUNC GLOBAL DEFAULT 14 _ZN7android3net6BpNetd10t
394:   FUNC GLOBAL DEFAULT 14 _ZN7android3net30BpNetdUn
395:   OBJECT GLOBAL DEFAULT 18 _ZTCN7android3net36INetdU
396:   FUNC GLOBAL DEFAULT 14 _ZN7android3net12INetdDef
397:   FUNC GLOBAL DEFAULT 14 _ZN7android3net12INetdDef
398:   FUNC GLOBAL DEFAULT 14 _ZN7android3net6BpNetd22b
399:   FUNC WEAK DEFAULT 14 _ZNSt3__115basic_stringbu
400:   OBJECT GLOBAL DEFAULT 18 _ZTTN7android3net5INetdE
401:   OBJECT GLOBAL DEFAULT 18 _ZTVN7android3net5INetdE
402:   FUNC GLOBAL DEFAULT 14 _ZN7android3net36INetdUns
403:   FUNC GLOBAL DEFAULT 14 _ZN7android3net12INetdDef
404:   OBJECT GLOBAL DEFAULT 18 _ZTCN7android3net6BnNetdE
405:   FUNC GLOBAL DEFAULT 14 _ZN7android3net29INetdUns
406:   FUNC GLOBAL DEFAULT 14 _ZN7android3net12INetdDef
407:   FUNC GLOBAL DEFAULT 14 _ZN7android3net29INetdUns
408:   OBJECT GLOBAL DEFAULT 23 _ZN7android3net30BpNetdUn
409:   OBJECT GLOBAL DEFAULT 18 _ZTTN7android3net29INetdU
410:   FUNC GLOBAL DEFAULT 14 _ZN7android3net12INetdDef
411:   FUNC GLOBAL DEFAULT 14 _ZN7android3net6BpNetd11t
412:   FUNC GLOBAL DEFAULT 14 _ZN7android3net6BpNetd18f
413:   FUNC GLOBAL DEFAULT 14 _ZN7android3net12INetdDef
414:   FUNC GLOBAL DEFAULT 14 _ZN7android3net6BpNetd18s
415:   FUNC GLOBAL DEFAULT 14 _ZN7android3net6BpNetd26b
416:   FUNC GLOBAL DEFAULT 14 _ZN7android3net6BpNetd23f
417:   FUNC GLOBAL DEFAULT 14 _ZN7android3net30BpNetdUn
418:   FUNC GLOBAL DEFAULT 14 _ZN7android3net29INetdUns
419:   FUNC GLOBAL DEFAULT 14 _ZN7android3net36INetdUns
420:   FUNC GLOBAL DEFAULT 14 _ZN7android3net12INetdDef
421:   FUNC GLOBAL DEFAULT 14 _ZN7android3net6BpNetd33i
422:   FUNC GLOBAL DEFAULT 14 _ZTv0_n24_N7android3net5I
423:   FUNC GLOBAL DEFAULT 14 _ZN7android3net6BpNetd26i
424:   FUNC GLOBAL DEFAULT 14 _ZN7android3net6BpNetd21n
425:   OBJECT GLOBAL DEFAULT 23 _ZN7android3net29INetdUns
426:   FUNC GLOBAL DEFAULT 14 _ZN7android3net30BpNetdUn
427:   FUNC GLOBAL DEFAULT 14 _ZN7android3net36INetdUns
428:   FUNC GLOBAL DEFAULT 14 _ZN7android3net12INetdDef
429:   FUNC GLOBAL DEFAULT 14 _ZN7android3net30BpNetdUn
430:   FUNC GLOBAL DEFAULT 14 _ZN7android3net36INetdUns
431:   OBJECT GLOBAL DEFAULT 18 _ZTCN7android3net36INetdU
432:   OBJECT GLOBAL DEFAULT 18 _ZTTN7android3net30BnNetd
433:   FUNC GLOBAL DEFAULT 14 _ZN7android3net12INetdDef
434:   FUNC GLOBAL DEFAULT 14 _ZN7android3net12INetdDef
435:   FUNC GLOBAL DEFAULT 14 _ZN7android3net6BpNetd12t
436:   FUNC GLOBAL DEFAULT 14 _ZN7android3net6BpNetd24f
437:   FUNC WEAK DEFAULT 14 _ZNSt3__16vectorIN7androi
438:   FUNC GLOBAL DEFAULT 14 _ZN7android3net30BnNetdUn
439:   FUNC GLOBAL DEFAULT 14 _ZN7android3net12INetdDef
440:   FUNC GLOBAL DEFAULT 14 _ZN7android3net6BpNetd33i
441:   OBJECT GLOBAL DEFAULT 23 _ZN7android3net6BpNetd7lo
442:   FUNC GLOBAL DEFAULT 14 _ZN7android3net12INetdDef
443:   FUNC GLOBAL DEFAULT 14 _ZN7android3net12INetdDef
444:   FUNC GLOBAL DEFAULT 14 _ZN7android3net6BpNetd16n
445:   FUNC GLOBAL DEFAULT 14 _ZN7android3net6BpNetd21i
446:   OBJECT GLOBAL DEFAULT 18 _ZTTN7android3net30BpNetd
447:   FUNC GLOBAL DEFAULT 14 _ZN7android3net12INetdDef
448:   FUNC GLOBAL DEFAULT 14 _ZN7android3net6BpNetd14t
449:   FUNC GLOBAL DEFAULT 14 _ZN7android3net6BpNetd19i
450:   FUNC WEAK DEFAULT 14 _ZN7android11BnInterfaceI
451:   FUNC GLOBAL DEFAULT 14 _ZN7android3net12INetdDef
452:   FUNC GLOBAL DEFAULT 14 _ZN7android3net6BpNetd10g
453:   FUNC GLOBAL DEFAULT 14 _ZN7android3net6BpNetd24i
454:   FUNC WEAK DEFAULT 14 _ZNK7android6Parcel16read
455:   FUNC GLOBAL DEFAULT 14 _ZN7android3net36INetdUns
456:   FUNC GLOBAL DEFAULT 14 _ZN7android3net12INetdDef
457:   FUNC GLOBAL DEFAULT 14 _ZN7android3net12INetdDef
458:   FUNC GLOBAL DEFAULT 14 _ZN7android3net5INetd22IP
459:   OBJECT GLOBAL DEFAULT 23 _ZN7android3net6BnNetd7lo
460:   FUNC GLOBAL DEFAULT 14 _ZN7android3net6BpNetd10c
461:   FUNC GLOBAL DEFAULT 14 _ZN7android3net6BpNetd13s
462:   FUNC GLOBAL DEFAULT 14 _ZN7android3net6BpNetd22n
463:   FUNC WEAK DEFAULT 14 _ZNSt3__115basic_stringbu
464:   OBJECT GLOBAL DEFAULT 18 _ZTCN7android3net12INetdD
465:   FUNC GLOBAL DEFAULT 14 _ZN7android3net30BpNetdUn
