 0x000000000000000e (SONAME)             Library soname: [libdexfile_support.so]
  
Symbol   contains 28 entries:
Num:   Type Bind Vis Ndx Name
0:   NOTYPE LOCAL DEFAULT UND
1:   FUNC GLOBAL DEFAULT UND __cxa_finalize@LIBC (2)
2:   FUNC GLOBAL DEFAULT UND _ZNKSt3__120__vector_base
3:   FUNC GLOBAL DEFAULT UND _ZNSt3__111__call_onceERV
4:   FUNC GLOBAL DEFAULT UND _ZdlPv
5:   FUNC GLOBAL DEFAULT UND _Znwm
6:   FUNC GLOBAL DEFAULT UND __android_log_assert@LIBLOG (3)
7:   FUNC GLOBAL DEFAULT UND __stack_chk_fail@LIBC (2)
8:   FUNC GLOBAL DEFAULT UND abort@LIBC (2)
9:   FUNC GLOBAL DEFAULT UND dlerror@LIBC (4)
10:   FUNC GLOBAL DEFAULT UND dlopen@LIBC (4)
11:   FUNC GLOBAL DEFAULT UND dlsym@LIBC (4)
12:   FUNC GLOBAL DEFAULT 14 _ZN7art_api3dex7DexFile21
13:   OBJECT GLOBAL DEFAULT 22 _ZN7art_api3dex7DexFile22
14:   OBJECT GLOBAL DEFAULT 22 _ZN7art_api3dex7DexFile29
15:   FUNC GLOBAL DEFAULT 14 _ZN7art_api3dex7DexFileD2
16:   FUNC WEAK DEFAULT 14 _ZNSt3__16vectorIN7art_ap
17:   FUNC GLOBAL DEFAULT 14 _ZN7art_api3dex22LoadLibd
18:   OBJECT GLOBAL DEFAULT 22 _ZN7art_api3dex7DexFile16
19:   OBJECT GLOBAL DEFAULT 22 _ZN7art_api3dex7DexFile34
20:   FUNC GLOBAL DEFAULT 14 _ZN7art_api3dex7DexFileD0
21:   OBJECT GLOBAL DEFAULT 22 _ZN7art_api3dex9DexString
22:   OBJECT GLOBAL DEFAULT 22 _ZN7art_api3dex9DexString
23:   OBJECT GLOBAL DEFAULT 18 _ZTVN7art_api3dex7DexFile
24:   FUNC GLOBAL DEFAULT 14 _ZN7art_api3dex7DexFile16
25:   OBJECT GLOBAL DEFAULT 22 _ZN7art_api3dex7DexFile26
26:   FUNC GLOBAL DEFAULT 14 _ZN7art_api3dex7DexFileD1
27:   OBJECT GLOBAL DEFAULT 22 _ZN7art_api3dex9DexString
