 0x000000000000000e (SONAME)             Library soname: [libaudiohal.so]
  
Symbol   contains 24 entries:
Num:   Type Bind Vis Ndx Name
0:   NOTYPE LOCAL DEFAULT UND
1:   FUNC GLOBAL DEFAULT UND __cxa_finalize@LIBC (2)
2:   FUNC GLOBAL DEFAULT UND _ZN7android8hardware5audi
3:   FUNC GLOBAL DEFAULT UND _ZN7android4V5_023createD
4:   FUNC GLOBAL DEFAULT UND _ZN7android8hardware5audi
5:   FUNC GLOBAL DEFAULT UND _ZN7android4V4_023createD
6:   FUNC GLOBAL DEFAULT UND _ZN7android8hardware5audi
7:   FUNC GLOBAL DEFAULT UND _ZN7android4V2_023createD
8:   FUNC GLOBAL DEFAULT UND _ZdlPv
9:   FUNC GLOBAL DEFAULT UND __cfi_slowpath@LIBC_OMR1 (3)
10:   FUNC GLOBAL DEFAULT UND _ZNK7android7RefBase9decS
11:   FUNC GLOBAL DEFAULT UND _ZN7android8hardware5audi
12:   FUNC GLOBAL DEFAULT UND _ZN7android6effect4V5_023
13:   FUNC GLOBAL DEFAULT UND _ZN7android8hardware5audi
14:   FUNC GLOBAL DEFAULT UND _ZN7android6effect4V4_023
15:   FUNC GLOBAL DEFAULT UND _ZN7android8hardware5audi
16:   FUNC GLOBAL DEFAULT UND _ZN7android6effect4V2_023
17:   FUNC GLOBAL DEFAULT UND memcmp@LIBC (2)
18:   FUNC GLOBAL DEFAULT UND abort@LIBC (2)
19:   FUNC GLOBAL DEFAULT UND __stack_chk_fail@LIBC (2)
20:   FUNC GLOBAL DEFAULT 13 _ZN7android26DevicesFacto
21:   FUNC GLOBAL DEFAULT 13 __cfi_check
22:   FUNC GLOBAL DEFAULT 13 _ZN7android26EffectsFacto
23:   FUNC GLOBAL DEFAULT 13 _ZN7android26EffectsFacto
