 0x0000000e (SONAME)                     Library soname: [libbcinfo.so]
  
Symbol   contains 118 entries:
Num:   Type Bind Vis Ndx Name
0:   NOTYPE LOCAL DEFAULT UND
1:   FUNC GLOBAL DEFAULT UND __cxa_atexit@LIBC (3)
2:   FUNC GLOBAL DEFAULT UND __cxa_finalize@LIBC (3)
3:   FUNC GLOBAL DEFAULT UND _ZNKSt3__110error_code7me
4:   FUNC GLOBAL DEFAULT UND _ZNSt3__115system_categor
5:   FUNC GLOBAL DEFAULT UND _ZdaPv
6:   FUNC GLOBAL DEFAULT UND _ZdlPv
7:   FUNC GLOBAL DEFAULT UND _Znaj
8:   FUNC GLOBAL DEFAULT UND _Znwj
9:   FUNC GLOBAL DEFAULT UND __android_log_print@LIBLOG (4)
10:   FUNC GLOBAL DEFAULT UND __stack_chk_fail@LIBC (3)
11:   OBJECT GLOBAL DEFAULT UND __stack_chk_guard@LIBC (3)
12:   FUNC GLOBAL DEFAULT UND __strlen_chk@LIBC (3)
13:   FUNC GLOBAL DEFAULT UND _ZNKSt3__112basic_stringI
14:   FUNC GLOBAL DEFAULT UND __memcpy_chk@LIBC (3)
15:   FUNC GLOBAL DEFAULT UND __strncpy_chk2@LIBC (3)
16:   FUNC GLOBAL DEFAULT UND __system_property_get@LIBC (3)
17:   FUNC GLOBAL DEFAULT UND memcmp@LIBC (3)
18:   FUNC GLOBAL DEFAULT UND strlen@LIBC (3)
19:   FUNC GLOBAL DEFAULT UND _ZNKSt3__114error_categor
20:   FUNC GLOBAL DEFAULT UND _ZNKSt3__114error_categor
21:   FUNC GLOBAL DEFAULT UND _ZNKSt3__114error_categor
22:   FUNC GLOBAL DEFAULT UND _ZNKSt3__120__vector_base
23:   FUNC GLOBAL DEFAULT UND _ZNKSt3__121__basic_strin
24:   FUNC GLOBAL DEFAULT UND _ZNSt3__112basic_stringIc
25:   FUNC GLOBAL DEFAULT UND _ZNSt3__112basic_stringIc
26:   FUNC GLOBAL DEFAULT UND _ZNSt3__112basic_stringIc
27:   FUNC GLOBAL DEFAULT UND _ZNSt3__112basic_stringIc
28:   FUNC GLOBAL DEFAULT UND _ZNSt3__112basic_stringIc
29:   FUNC GLOBAL DEFAULT UND _ZNSt3__112basic_stringIc
30:   FUNC GLOBAL DEFAULT UND _ZNSt3__114error_category
31:   FUNC GLOBAL DEFAULT UND abort@LIBC (3)
32:   FUNC GLOBAL DEFAULT UND free@LIBC (3)
33:   FUNC GLOBAL DEFAULT UND malloc@LIBC (3)
34:   FUNC GLOBAL DEFAULT UND memchr@LIBC (3)
35:   FUNC GLOBAL DEFAULT UND _ZNSt3__112basic_stringIc
36:   FUNC GLOBAL DEFAULT UND _ZNSt3__112basic_stringIc
37:   FUNC GLOBAL DEFAULT UND __cxa_guard_acquire
38:   FUNC GLOBAL DEFAULT UND __cxa_guard_release
39:   FUNC GLOBAL DEFAULT UND isalnum@LIBC (3)
40:   FUNC GLOBAL DEFAULT UND isalpha@LIBC (3)
41:   FUNC GLOBAL DEFAULT UND _ZNKSt3__119__shared_weak
42:   FUNC GLOBAL DEFAULT UND _ZNSt3__119__shared_weak_
43:   FUNC GLOBAL DEFAULT UND _ZNSt3__119__shared_weak_
44:   FUNC GLOBAL DEFAULT UND _ZNSt3__1plIcNS_11char_tr
45:   FUNC GLOBAL DEFAULT UND __cxa_pure_virtual
46:   FUNC GLOBAL DEFAULT UND strcmp@LIBC (3)
47:   FUNC GLOBAL DEFAULT UND strncmp@LIBC (3)
48:   FUNC GLOBAL DEFAULT UND exit@LIBC (3)
49:   FUNC GLOBAL DEFAULT UND __memmove_chk@LIBC (3)
50:   OBJECT GLOBAL DEFAULT UND _ZSt7nothrow
51:   FUNC GLOBAL DEFAULT UND _ZnwjRKSt9nothrow_t
52:   FUNC GLOBAL DEFAULT UND qsort@LIBC (3)
53:   FUNC GLOBAL DEFAULT UND _ZNKSt3__112basic_stringI
54:   FUNC GLOBAL DEFAULT UND _ZNSt3__112basic_stringIc
55:   FUNC GLOBAL DEFAULT UND write@LIBC (3)
56:   FUNC GLOBAL DEFAULT UND calloc@LIBC (3)
57:   FUNC GLOBAL DEFAULT UND __read_chk@LIBC (3)
58:   FUNC GLOBAL DEFAULT UND close@LIBC (3)
59:   FUNC GLOBAL DEFAULT UND uname@LIBC (3)
60:   FUNC GLOBAL DEFAULT UND __vsnprintf_chk@LIBC (3)
61:   FUNC GLOBAL DEFAULT UND _ZNSt3__111__call_onceERV
62:   FUNC GLOBAL DEFAULT UND _ZNSt3__116generic_catego
63:   FUNC GLOBAL DEFAULT UND __errno@LIBC (3)
64:   FUNC GLOBAL DEFAULT UND pthread_mutex_destroy@LIBC (3)
65:   FUNC GLOBAL DEFAULT UND pthread_mutex_init@LIBC (3)
66:   FUNC GLOBAL DEFAULT UND pthread_mutex_lock@LIBC (3)
67:   FUNC GLOBAL DEFAULT UND pthread_mutex_unlock@LIBC (3)
68:   FUNC GLOBAL DEFAULT UND pthread_mutexattr_destroy@LIBC (3)
69:   FUNC GLOBAL DEFAULT UND pthread_mutexattr_init@LIBC (3)
70:   FUNC GLOBAL DEFAULT UND pthread_mutexattr_settype@LIBC (3)
71:   FUNC GLOBAL DEFAULT UND __open_2@LIBC (3)
72:   FUNC GLOBAL DEFAULT UND __readlink_chk@LIBC (3)
73:   FUNC GLOBAL DEFAULT UND access@LIBC (3)
74:   FUNC GLOBAL DEFAULT UND fstat@LIBC (3)
75:   FUNC GLOBAL DEFAULT UND open@LIBC (3)
76:   FUNC GLOBAL DEFAULT UND realpath@LIBC (3)
77:   FUNC GLOBAL DEFAULT UND stat@LIBC (3)
78:   FUNC GLOBAL DEFAULT UND isatty@LIBC (3)
79:   FUNC GLOBAL DEFAULT UND pthread_sigmask@LIBC (3)
80:   FUNC GLOBAL DEFAULT UND sigfillset@LIBC (3)
81:   FUNC GLOBAL DEFAULT UND islower@LIBC (3)
82:   FUNC GLOBAL DEFAULT UND isupper@LIBC (3)
83:   FUNC GLOBAL DEFAULT UND realloc@LIBC (3)
84:   FUNC GLOBAL DEFAULT UND tolower@LIBC (3)
85:   FUNC GLOBAL DEFAULT UND toupper@LIBC (3)
86:   FUNC GLOBAL DEFAULT UND unlink@LIBC (3)
87:   FUNC GLOBAL DEFAULT UND _ZNSt3__112basic_stringIc
88:   FUNC GLOBAL DEFAULT UND lseek@LIBC (3)
89:   FUNC GLOBAL DEFAULT UND memcpy@LIBC (3)
90:   FUNC GLOBAL DEFAULT UND memmove@LIBC (3)
91:   FUNC GLOBAL DEFAULT UND memset@LIBC (3)
92:   FUNC GLOBAL DEFAULT 15 _ZN6bcinfo14BitcodeWrappe@@libbcinfo
93:   FUNC GLOBAL DEFAULT 15 _ZN6bcinfo17BitcodeTransl@@libbcinfo
94:   FUNC GLOBAL DEFAULT 15 _ZN8llvm_3_218WriteBitcod@@libbcinfo
95:   FUNC GLOBAL DEFAULT 15 _ZN6bcinfo17MetadataExtra@@libbcinfo
96:   FUNC GLOBAL DEFAULT 15 _ZN6bcinfo14BitcodeWrappe@@libbcinfo
97:   FUNC GLOBAL DEFAULT 15 _ZN6bcinfo17BitcodeTransl@@libbcinfo
98:   FUNC GLOBAL DEFAULT 15 _ZN6bcinfo17BitcodeTransl@@libbcinfo
99:   FUNC GLOBAL DEFAULT 15 _ZN6bcinfo17MetadataExtra@@libbcinfo
100:   OBJECT GLOBAL DEFAULT 13 _ZN6bcinfo17MetadataExtra@@libbcinfo
101:   FUNC GLOBAL DEFAULT 15 _ZN6bcinfo17MetadataExtra@@libbcinfo
102:   FUNC GLOBAL DEFAULT 15 _ZN6bcinfo17MetadataExtra@@libbcinfo
103:   FUNC GLOBAL DEFAULT 15 _ZN6bcinfo17MetadataExtra@@libbcinfo
104:   FUNC GLOBAL DEFAULT 15 _ZN6bcinfo17MetadataExtra@@libbcinfo
105:   FUNC GLOBAL DEFAULT 15 _ZN6bcinfo17MetadataExtra@@libbcinfo
106:   FUNC GLOBAL DEFAULT 15 _ZN6bcinfo17BitcodeTransl@@libbcinfo
107:   FUNC GLOBAL DEFAULT 15 _ZN6bcinfo14BitcodeWrappe@@libbcinfo
108:   FUNC GLOBAL DEFAULT 15 _ZN6bcinfo14BitcodeWrappe@@libbcinfo
109:   FUNC GLOBAL DEFAULT 15 _ZN6bcinfo17MetadataExtra@@libbcinfo
110:   FUNC GLOBAL DEFAULT 15 _ZN6bcinfo17MetadataExtra@@libbcinfo
111:   FUNC GLOBAL DEFAULT 15 _ZN6bcinfo17MetadataExtra@@libbcinfo
112:   FUNC GLOBAL DEFAULT 15 _ZN6bcinfo17MetadataExtra@@libbcinfo
113:   FUNC GLOBAL DEFAULT 15 _ZN6bcinfo17BitcodeTransl@@libbcinfo
114:   FUNC GLOBAL DEFAULT 15 _ZN6bcinfo14BitcodeWrappe@@libbcinfo
115:   FUNC GLOBAL DEFAULT 15 _ZN6bcinfo17MetadataExtra@@libbcinfo
116:   FUNC GLOBAL DEFAULT 15 _ZN6bcinfo17MetadataExtra@@libbcinfo
117:   FUNC GLOBAL DEFAULT 15 _ZN6bcinfo17MetadataExtra@@libbcinfo
