 0x000000000000000e (SONAME)             Library soname: [android.hardware.gnss.measurement_corrections@1.0.so]
  
Symbol   contains 305 entries:
Num:   Type Bind Vis Ndx Name
0:   NOTYPE LOCAL DEFAULT UND
1:   FUNC GLOBAL DEFAULT UND __cxa_finalize@LIBC (2)
2:   FUNC GLOBAL DEFAULT UND _ZN7android14sp_report_ra
3:   FUNC GLOBAL DEFAULT UND _ZN7android21report_syspr
4:   OBJECT GLOBAL DEFAULT UND _ZN7android4hidl4base4V1_
5:   FUNC GLOBAL DEFAULT UND _ZN7android4hidl4base4V1_
6:   FUNC GLOBAL DEFAULT UND _ZN7android4hidl4base4V1_
7:   FUNC GLOBAL DEFAULT UND _ZN7android4hidl4base4V1_
8:   FUNC GLOBAL DEFAULT UND _ZN7android4hidl4base4V1_
9:   FUNC GLOBAL DEFAULT UND _ZN7android4hidl4base4V1_
10:   FUNC GLOBAL DEFAULT UND _ZN7android4hidl4base4V1_
11:   FUNC GLOBAL DEFAULT UND _ZN7android4hidl4base4V1_
12:   FUNC GLOBAL DEFAULT UND _ZN7android4hidl4base4V1_
13:   FUNC GLOBAL DEFAULT UND _ZN7android4hidl4base4V1_
14:   FUNC GLOBAL DEFAULT UND _ZN7android4hidl4base4V1_
15:   FUNC GLOBAL DEFAULT UND _ZN7android4hidl4base4V1_
16:   FUNC GLOBAL DEFAULT UND _ZN7android4hidl4base4V1_
17:   FUNC GLOBAL DEFAULT UND _ZN7android4hidl4base4V1_
18:   FUNC GLOBAL DEFAULT UND _ZN7android4hidl4base4V1_
19:   FUNC GLOBAL DEFAULT UND _ZN7android4hidl4base4V1_
20:   FUNC GLOBAL DEFAULT UND _ZN7android4hidl4base4V1_
21:   FUNC GLOBAL DEFAULT UND _ZN7android4hidl4base4V1_
22:   FUNC GLOBAL DEFAULT UND _ZN7android4hidl4base4V1_
23:   FUNC GLOBAL DEFAULT UND _ZN7android4hidl4base4V1_
24:   FUNC GLOBAL DEFAULT UND _ZN7android4hidl4base4V1_
25:   FUNC GLOBAL DEFAULT UND _ZN7android4hidl4base4V1_
26:   FUNC GLOBAL DEFAULT UND _ZN7android4hidl4base4V1_
27:   FUNC GLOBAL DEFAULT UND _ZN7android4hidl4base4V1_
28:   FUNC GLOBAL DEFAULT UND _ZN7android7RefBase10onFi
29:   FUNC GLOBAL DEFAULT UND _ZN7android7RefBase12weak
30:   FUNC GLOBAL DEFAULT UND _ZN7android7RefBase13onLa
31:   FUNC GLOBAL DEFAULT UND _ZN7android7RefBase15onLa
32:   FUNC GLOBAL DEFAULT UND _ZN7android7RefBase20onIn
33:   FUNC GLOBAL DEFAULT UND _ZN7android7RefBaseC2Ev
34:   FUNC GLOBAL DEFAULT UND _ZN7android7RefBaseD2Ev
35:   FUNC GLOBAL DEFAULT UND _ZN7android8hardware10IIn
36:   FUNC GLOBAL DEFAULT UND _ZN7android8hardware10IIn
37:   FUNC GLOBAL DEFAULT UND _ZN7android8hardware10IIn
38:   FUNC GLOBAL DEFAULT UND _ZN7android8hardware10IIn
39:   FUNC GLOBAL DEFAULT UND _ZN7android8hardware10IIn
40:   FUNC GLOBAL DEFAULT UND _ZN7android8hardware11BpH
41:   FUNC GLOBAL DEFAULT UND _ZN7android8hardware11BpH
42:   FUNC GLOBAL DEFAULT UND _ZN7android8hardware11BpH
43:   FUNC GLOBAL DEFAULT UND _ZN7android8hardware11BpH
44:   FUNC GLOBAL DEFAULT UND _ZN7android8hardware11BpH
45:   FUNC GLOBAL DEFAULT UND _ZN7android8hardware11BpH
46:   FUNC GLOBAL DEFAULT UND _ZN7android8hardware11BpH
47:   FUNC GLOBAL DEFAULT UND _ZN7android8hardware11hid
48:   FUNC GLOBAL DEFAULT UND _ZN7android8hardware11hid
49:   FUNC GLOBAL DEFAULT UND _ZN7android8hardware11hid
50:   FUNC GLOBAL DEFAULT UND _ZN7android8hardware11hid
51:   FUNC GLOBAL DEFAULT UND _ZN7android8hardware11hid
52:   FUNC GLOBAL DEFAULT UND _ZN7android8hardware12Pro
53:   FUNC GLOBAL DEFAULT UND _ZN7android8hardware12Pro
54:   FUNC GLOBAL DEFAULT UND _ZN7android8hardware13wri
55:   FUNC GLOBAL DEFAULT UND _ZN7android8hardware14rea
56:   FUNC GLOBAL DEFAULT UND _ZN7android8hardware21def
57:   FUNC GLOBAL DEFAULT UND _ZN7android8hardware23get
58:   FUNC GLOBAL DEFAULT UND _ZN7android8hardware27hid
59:   FUNC GLOBAL DEFAULT UND _ZN7android8hardware27hid
60:   FUNC GLOBAL DEFAULT UND _ZN7android8hardware6Parc
61:   FUNC GLOBAL DEFAULT UND _ZN7android8hardware6Parc
62:   FUNC GLOBAL DEFAULT UND _ZN7android8hardware6Parc
63:   FUNC GLOBAL DEFAULT UND _ZN7android8hardware6Parc
64:   FUNC GLOBAL DEFAULT UND _ZN7android8hardware6Parc
65:   FUNC GLOBAL DEFAULT UND _ZN7android8hardware6Parc
66:   FUNC GLOBAL DEFAULT UND _ZN7android8hardware6Stat
67:   FUNC GLOBAL DEFAULT UND _ZN7android8hardware6Stat
68:   FUNC GLOBAL DEFAULT UND _ZN7android8hardware6Stat
69:   FUNC GLOBAL DEFAULT UND _ZN7android8hardware6Stat
70:   FUNC GLOBAL DEFAULT UND _ZN7android8hardware7IBin
71:   FUNC GLOBAL DEFAULT UND _ZN7android8hardware7IBin
72:   FUNC GLOBAL DEFAULT UND _ZN7android8hardware7IBin
73:   FUNC GLOBAL DEFAULT UND _ZN7android8hardware7IBin
74:   FUNC GLOBAL DEFAULT UND _ZN7android8hardware7deta
75:   FUNC GLOBAL DEFAULT UND _ZN7android8hardware7deta
76:   FUNC GLOBAL DEFAULT UND _ZN7android8hardware7deta
77:   FUNC GLOBAL DEFAULT UND _ZN7android8hardware7deta
78:   FUNC GLOBAL DEFAULT UND _ZN7android8hardware7deta
79:   FUNC GLOBAL DEFAULT UND _ZN7android8hardware7deta
80:   FUNC GLOBAL DEFAULT UND _ZN7android8hardware7deta
81:   OBJECT GLOBAL DEFAULT UND _ZN7android8hardware7deta
82:   FUNC GLOBAL DEFAULT UND _ZN7android8hardware7deta
83:   OBJECT GLOBAL DEFAULT UND _ZN7android8hardware7deta
84:   FUNC GLOBAL DEFAULT UND _ZN7android8hardware7deta
85:   FUNC GLOBAL DEFAULT UND _ZN7android8hardware7deta
86:   FUNC GLOBAL DEFAULT UND _ZN7android8hardware7deta
87:   FUNC GLOBAL DEFAULT UND _ZN7android8hardware7deta
88:   FUNC GLOBAL DEFAULT UND _ZN7android8hardware7deta
89:   FUNC GLOBAL DEFAULT UND _ZN7android8hardware7deta
90:   FUNC GLOBAL DEFAULT UND _ZN7android8hardware7deta
91:   FUNC GLOBAL DEFAULT UND _ZN7android8hardware7deta
92:   FUNC GLOBAL DEFAULT UND _ZN7android8hardware7deta
93:   FUNC GLOBAL DEFAULT UND _ZN7android8hardware7deta
94:   OBJECT GLOBAL DEFAULT UND _ZN7android8hardware7deta
95:   FUNC GLOBAL DEFAULT UND _ZN7android8hardware9BHwB
96:   FUNC GLOBAL DEFAULT UND _ZN7android8hardware9BHwB
97:   FUNC GLOBAL DEFAULT UND _ZN7android8hardware9BHwB
98:   FUNC GLOBAL DEFAULT UND _ZN7android8hardware9BHwB
99:   FUNC GLOBAL DEFAULT UND _ZN7android8hardware9BHwB
100:   FUNC GLOBAL DEFAULT UND _ZN7android8hardware9BHwB
101:   FUNC GLOBAL DEFAULT UND _ZN7android8hardware9BHwB
102:   FUNC GLOBAL DEFAULT UND _ZN7android8hardware9BHwB
103:   FUNC GLOBAL DEFAULT UND _ZN7android8hardware9BHwB
104:   FUNC GLOBAL DEFAULT UND _ZN7android8hardware9BHwB
105:   FUNC GLOBAL DEFAULT UND _ZNK7android7RefBase10cre
106:   FUNC GLOBAL DEFAULT UND _ZNK7android7RefBase11get
107:   FUNC GLOBAL DEFAULT UND _ZNK7android7RefBase9decS
108:   FUNC GLOBAL DEFAULT UND _ZNK7android7RefBase9incS
109:   FUNC GLOBAL DEFAULT UND _ZNK7android8hardware6Par
110:   FUNC GLOBAL DEFAULT UND _ZNK7android8hardware6Par
111:   FUNC GLOBAL DEFAULT UND _ZNK7android8hardware6Par
112:   FUNC GLOBAL DEFAULT UND _ZNK7android8hardware6Par
113:   FUNC GLOBAL DEFAULT UND _ZNK7android8hardware7IBi
114:   FUNC GLOBAL DEFAULT UND _ZNK7android8hardware7det
115:   FUNC GLOBAL DEFAULT UND _ZNK7android8hardware9BHw
116:   FUNC GLOBAL DEFAULT UND _ZNKSt3__120__vector_base
117:   FUNC GLOBAL DEFAULT UND _ZNKSt3__121__basic_strin
118:   FUNC GLOBAL DEFAULT UND _ZNSt3__112basic_stringIc
119:   FUNC GLOBAL DEFAULT UND _ZNSt3__15mutex4lockEv
120:   FUNC GLOBAL DEFAULT UND _ZNSt3__15mutex6unlockEv
121:   FUNC GLOBAL DEFAULT UND _ZNSt3__15mutexD1Ev
122:   FUNC GLOBAL DEFAULT UND _ZTv0_n24_N7android4hidl4
123:   FUNC GLOBAL DEFAULT UND _ZTv0_n24_N7android4hidl4
124:   FUNC GLOBAL DEFAULT UND _ZTv0_n24_N7android8hardw
125:   FUNC GLOBAL DEFAULT UND _ZTv0_n24_N7android8hardw
126:   FUNC GLOBAL DEFAULT UND _ZTv0_n24_N7android8hardw
127:   FUNC GLOBAL DEFAULT UND _ZTv0_n24_N7android8hardw
128:   FUNC GLOBAL DEFAULT UND _ZTv0_n24_N7android8hardw
129:   FUNC GLOBAL DEFAULT UND _ZTv0_n24_N7android8hardw
130:   FUNC GLOBAL DEFAULT UND _ZTv0_n24_N7android8hardw
131:   FUNC GLOBAL DEFAULT UND _ZTv0_n24_N7android8hardw
132:   FUNC GLOBAL DEFAULT UND _ZTv0_n32_N7android8hardw
133:   FUNC GLOBAL DEFAULT UND _ZTv0_n40_N7android8hardw
134:   FUNC GLOBAL DEFAULT UND _ZTv0_n48_N7android8hardw
135:   FUNC GLOBAL DEFAULT UND _ZdaPv
136:   FUNC GLOBAL DEFAULT UND _ZdlPv
137:   FUNC GLOBAL DEFAULT UND _Znam
138:   FUNC GLOBAL DEFAULT UND _Znwm
139:   FUNC GLOBAL DEFAULT UND __cxa_pure_virtual
140:   FUNC GLOBAL DEFAULT UND __stack_chk_fail@LIBC (2)
141:   FUNC GLOBAL DEFAULT UND abort@LIBC (2)
142:   FUNC GLOBAL DEFAULT UND atrace_begin_body
143:   OBJECT GLOBAL DEFAULT UND atrace_enabled_tags
144:   FUNC GLOBAL DEFAULT UND atrace_end_body
145:   OBJECT GLOBAL DEFAULT UND atrace_is_ready
146:   FUNC GLOBAL DEFAULT UND atrace_setup
147:   FUNC GLOBAL DEFAULT UND memcmp@LIBC (2)
148:   FUNC GLOBAL DEFAULT UND memcpy@LIBC (2)
149:   FUNC GLOBAL DEFAULT UND memset@LIBC (2)
150:   FUNC GLOBAL DEFAULT UND strlen@LIBC (2)
151:   FUNC GLOBAL DEFAULT UND _ZN7android8hardware6Parc
152:   FUNC GLOBAL DEFAULT UND _ZNK7android8hardware6Par
153:   FUNC GLOBAL DEFAULT UND _ZN7android8hardware6Parc
154:   FUNC GLOBAL DEFAULT UND _ZNK7android8hardware6Par
155:   FUNC WEAK DEFAULT 14 _ZN7android8hardware7deta
156:   OBJECT WEAK DEFAULT 18 _ZTVN7android8hardware4gn
157:   FUNC GLOBAL DEFAULT 14 _ZN7android8hardware4gnss
158:   FUNC GLOBAL DEFAULT 14 _ZTv0_n24_N7android8hardw
159:   FUNC GLOBAL DEFAULT 14 _ZN7android8hardware4gnss
160:   FUNC GLOBAL DEFAULT 14 _ZN7android8hardware4gnss
161:   FUNC GLOBAL DEFAULT 14 _ZN7android8hardware4gnss
162:   FUNC GLOBAL DEFAULT 14 _ZN7android8hardware4gnss
163:   FUNC GLOBAL DEFAULT 14 _ZThn32_N7android8hardwar
164:   FUNC GLOBAL DEFAULT 14 _ZN7android8hardware4gnss
165:   FUNC GLOBAL DEFAULT 14 _ZN7android8hardware4gnss
166:   FUNC GLOBAL DEFAULT 14 _ZN7android8hardware4gnss
167:   FUNC GLOBAL DEFAULT 14 _ZN7android8hardware4gnss
168:   FUNC GLOBAL DEFAULT 14 _ZN7android8hardware4gnss
169:   FUNC GLOBAL DEFAULT 14 _ZN7android8hardware4gnss
170:   FUNC GLOBAL DEFAULT 14 _ZN7android8hardware4gnss
171:   FUNC GLOBAL DEFAULT 14 _ZN7android8hardware4gnss
172:   FUNC WEAK DEFAULT 14 _ZN7android8hardware7deta
173:   FUNC GLOBAL DEFAULT 14 _ZTv0_n24_N7android8hardw
174:   OBJECT GLOBAL DEFAULT 18 _ZTCN7android8hardware4gn
175:   FUNC GLOBAL DEFAULT 14 _ZN7android8hardware4gnss
176:   FUNC WEAK DEFAULT 14 _ZNSt3__16__treeINS_12__v
177:   FUNC WEAK DEFAULT 14 _ZNSt3__16vectorINS_8func
178:   FUNC WEAK DEFAULT 14 _ZNSt3__16vectorIPvNS_9al
179:   OBJECT GLOBAL DEFAULT 18 _ZTCN7android8hardware4gn
180:   FUNC GLOBAL DEFAULT 14 _ZN7android8hardware4gnss
181:   FUNC GLOBAL DEFAULT 14 _ZN7android8hardware4gnss
182:   OBJECT GLOBAL DEFAULT 18 _ZTCN7android8hardware4gn
183:   OBJECT GLOBAL DEFAULT 18 _ZTCN7android8hardware4gn
184:   FUNC GLOBAL DEFAULT 14 _ZN7android8hardware4gnss
185:   FUNC GLOBAL DEFAULT 14 _ZN7android8hardware4gnss
186:   OBJECT GLOBAL DEFAULT 18 _ZTVN7android8hardware4gn
187:   FUNC GLOBAL DEFAULT 14 _ZThn32_N7android8hardwar
188:   FUNC GLOBAL DEFAULT 14 _ZN7android8hardware4gnss
189:   FUNC GLOBAL DEFAULT 14 _ZN7android8hardware4gnss
190:   FUNC GLOBAL DEFAULT 14 _ZN7android8hardware4gnss
191:   OBJECT GLOBAL DEFAULT 18 _ZTTN7android8hardware4gn
192:   FUNC GLOBAL DEFAULT 14 _ZN7android8hardware4gnss
193:   OBJECT GLOBAL DEFAULT 18 _ZTCN7android8hardware4gn
194:   OBJECT GLOBAL DEFAULT 18 _ZTTN7android8hardware4gn
195:   FUNC GLOBAL DEFAULT 14 _ZN7android8hardware4gnss
196:   FUNC GLOBAL DEFAULT 14 _ZN7android8hardware4gnss
197:   FUNC GLOBAL DEFAULT 14 _ZN7android8hardware4gnss
198:   FUNC GLOBAL DEFAULT 14 _ZN7android8hardware4gnss
199:   FUNC GLOBAL DEFAULT 14 _ZN7android8hardware4gnss
200:   OBJECT WEAK DEFAULT 18 _ZTCN7android8hardware4gn
201:   OBJECT WEAK DEFAULT 18 _ZTVN7android8hardware4gn
202:   FUNC GLOBAL DEFAULT 14 _ZN7android8hardware4gnss
203:   FUNC GLOBAL DEFAULT 14 _ZN7android8hardware4gnss
204:   FUNC WEAK DEFAULT 14 _ZN7android8hardware7deta
205:   FUNC GLOBAL DEFAULT 14 _ZN7android8hardware4gnss
206:   FUNC GLOBAL DEFAULT 14 _ZN7android8hardware4gnss
207:   FUNC GLOBAL DEFAULT 14 _ZN7android8hardware4gnss
208:   FUNC WEAK DEFAULT 14 _ZNSt3__113__tree_removeI
209:   FUNC GLOBAL DEFAULT 14 _ZN7android8hardware4gnss
210:   OBJECT GLOBAL DEFAULT 18 _ZTTN7android8hardware4gn
211:   OBJECT GLOBAL DEFAULT 18 _ZTVN7android8hardware4gn
212:   FUNC GLOBAL DEFAULT 14 _ZN7android8hardware4gnss
213:   FUNC GLOBAL DEFAULT 14 _ZN7android8hardware4gnss
214:   FUNC GLOBAL DEFAULT 14 _ZN7android8hardware4gnss
215:   FUNC GLOBAL DEFAULT 14 _ZN7android8hardware4gnss
216:   FUNC GLOBAL DEFAULT 14 _ZN7android8hardware4gnss
217:   FUNC GLOBAL DEFAULT 14 _ZN7android8hardware4gnss
218:   FUNC GLOBAL DEFAULT 14 _ZN7android8hardware4gnss
219:   FUNC GLOBAL DEFAULT 14 _ZN7android8hardware4gnss
220:   FUNC GLOBAL DEFAULT 14 _ZN7android8hardware4gnss
221:   FUNC GLOBAL DEFAULT 14 _ZN7android8hardware4gnss
222:   OBJECT GLOBAL DEFAULT 18 _ZTCN7android8hardware4gn
223:   FUNC GLOBAL DEFAULT 14 _ZN7android8hardware4gnss
224:   OBJECT GLOBAL DEFAULT 18 _ZTCN7android8hardware4gn
225:   OBJECT GLOBAL DEFAULT 18 _ZTCN7android8hardware4gn
226:   OBJECT GLOBAL DEFAULT 18 _ZTTN7android8hardware4gn
227:   FUNC GLOBAL DEFAULT 14 _ZN7android8hardware4gnss
228:   FUNC GLOBAL DEFAULT 14 _ZN7android8hardware4gnss
229:   FUNC WEAK DEFAULT 14 _ZNSt3__16__treeINS_12__v
230:   OBJECT GLOBAL DEFAULT 18 _ZTVN7android8hardware4gn
231:   OBJECT GLOBAL DEFAULT 16 _ZN7android8hardware4gnss
232:   FUNC GLOBAL DEFAULT 14 _ZTv0_n24_N7android8hardw
233:   FUNC GLOBAL DEFAULT 14 _ZN7android8hardware4gnss
234:   OBJECT GLOBAL DEFAULT 18 _ZTVN7android8hardware4gn
235:   FUNC GLOBAL DEFAULT 14 _ZN7android8hardware4gnss
236:   FUNC GLOBAL DEFAULT 14 _ZN7android8hardware4gnss
237:   FUNC GLOBAL DEFAULT 14 _ZN7android8hardware4gnss
238:   FUNC GLOBAL DEFAULT 14 _ZN7android8hardware4gnss
239:   FUNC GLOBAL DEFAULT 14 _ZTv0_n24_N7android8hardw
240:   FUNC GLOBAL DEFAULT 14 _ZN7android8hardware4gnss
241:   OBJECT GLOBAL DEFAULT 18 _ZTTN7android8hardware4gn
242:   FUNC GLOBAL DEFAULT 14 _ZN7android8hardware4gnss
243:   FUNC GLOBAL DEFAULT 14 _ZThn32_N7android8hardwar
244:   FUNC WEAK DEFAULT 14 _ZN7android8hardware7deta
245:   FUNC GLOBAL DEFAULT 14 _ZN7android8hardware4gnss
246:   OBJECT GLOBAL DEFAULT 18 _ZTTN7android8hardware4gn
247:   FUNC GLOBAL DEFAULT 14 _ZN7android8hardware4gnss
248:   FUNC WEAK DEFAULT 14 _ZNSt3__16__treeINS_12__v
249:   FUNC WEAK DEFAULT 14 _ZNSt3__16__treeINS_12__v
250:   FUNC GLOBAL DEFAULT 14 _ZN7android8hardware4gnss
251:   FUNC GLOBAL DEFAULT 14 _ZN7android8hardware4gnss
252:   FUNC WEAK DEFAULT 14 _ZNSt3__16__treeINS_12__v
253:   OBJECT GLOBAL DEFAULT 18 _ZTCN7android8hardware4gn
254:   OBJECT GLOBAL DEFAULT 18 _ZTCN7android8hardware4gn
255:   FUNC GLOBAL DEFAULT 14 _ZN7android8hardware4gnss
256:   OBJECT GLOBAL DEFAULT 18 _ZTCN7android8hardware4gn
257:   FUNC WEAK DEFAULT 14 _ZN7android8hardware10fro
258:   OBJECT GLOBAL DEFAULT 16 _ZN7android8hardware4gnss
259:   FUNC GLOBAL DEFAULT 14 _ZN7android8hardware4gnss
260:   FUNC GLOBAL DEFAULT 14 _ZN7android8hardware4gnss
261:   FUNC GLOBAL DEFAULT 14 _ZN7android8hardware4gnss
262:   FUNC GLOBAL DEFAULT 14 _ZN7android8hardware4gnss
263:   FUNC GLOBAL DEFAULT 14 _ZN7android8hardware4gnss
264:   FUNC GLOBAL DEFAULT 14 _ZN7android8hardware4gnss
265:   FUNC GLOBAL DEFAULT 14 _ZN7android8hardware4gnss
266:   FUNC GLOBAL DEFAULT 14 _ZThn32_N7android8hardwar
267:   FUNC GLOBAL DEFAULT 14 _ZN7android8hardware4gnss
268:   FUNC GLOBAL DEFAULT 14 _ZN7android8hardware4gnss
269:   FUNC GLOBAL DEFAULT 14 _ZN7android8hardware4gnss
270:   FUNC GLOBAL DEFAULT 14 _ZN7android8hardware4gnss
271:   OBJECT GLOBAL DEFAULT 18 _ZTCN7android8hardware4gn
272:   OBJECT GLOBAL DEFAULT 18 _ZTCN7android8hardware4gn
273:   FUNC WEAK DEFAULT 14 _ZNSt3__127__tree_balance
274:   FUNC WEAK DEFAULT 14 _ZNSt3__16__treeINS_12__v
275:   FUNC WEAK DEFAULT 14 _ZNSt3__16vectorIN7androi
276:   OBJECT WEAK DEFAULT 18 _ZTCN7android8hardware4gn
277:   OBJECT GLOBAL DEFAULT 18 _ZTVN7android8hardware4gn
278:   FUNC GLOBAL DEFAULT 14 _ZN7android8hardware4gnss
279:   FUNC GLOBAL DEFAULT 14 _ZN7android8hardware4gnss
280:   FUNC WEAK DEFAULT 14 _ZN7android8hardware7deta
281:   FUNC GLOBAL DEFAULT 14 _ZN7android8hardware4gnss
282:   FUNC GLOBAL DEFAULT 14 _ZN7android8hardware4gnss
283:   FUNC GLOBAL DEFAULT 14 _ZN7android8hardware4gnss
284:   FUNC GLOBAL DEFAULT 14 _ZN7android8hardware4gnss
285:   FUNC GLOBAL DEFAULT 14 _ZN7android8hardware4gnss
286:   OBJECT GLOBAL DEFAULT 18 _ZTCN7android8hardware4gn
287:   OBJECT GLOBAL DEFAULT 18 _ZTVN7android8hardware4gn
288:   OBJECT GLOBAL DEFAULT 18 _ZTCN7android8hardware4gn
289:   OBJECT GLOBAL DEFAULT 18 _ZTCN7android8hardware4gn
290:   FUNC GLOBAL DEFAULT 14 _ZN7android8hardware4gnss
291:   FUNC GLOBAL DEFAULT 14 _ZN7android8hardware4gnss
292:   OBJECT GLOBAL DEFAULT 18 _ZTCN7android8hardware4gn
293:   FUNC GLOBAL DEFAULT 14 _ZN7android8hardware4gnss
294:   FUNC GLOBAL DEFAULT 14 _ZN7android8hardware4gnss
295:   OBJECT GLOBAL DEFAULT 18 _ZTCN7android8hardware4gn
296:   FUNC GLOBAL DEFAULT 14 _ZN7android8hardware4gnss
297:   FUNC GLOBAL DEFAULT 14 _ZN7android8hardware4gnss
298:   FUNC GLOBAL DEFAULT 14 _ZN7android8hardware4gnss
299:   FUNC GLOBAL DEFAULT 14 _ZN7android8hardware4gnss
300:   FUNC GLOBAL DEFAULT 14 _ZN7android8hardware4gnss
301:   FUNC GLOBAL DEFAULT 14 _ZN7android8hardware4gnss
302:   FUNC GLOBAL DEFAULT 14 _ZN7android8hardware4gnss
303:   FUNC GLOBAL DEFAULT 14 _ZN7android8hardware4gnss
304:   FUNC GLOBAL DEFAULT 14 _ZN7android8hardware4gnss
