 0x000000000000000e (SONAME)             Library soname: [libmemunreachable.so]
  
Symbol   contains 362 entries:
Num:   Type Bind Vis Ndx Name
0:   NOTYPE LOCAL DEFAULT UND
1:   FUNC GLOBAL DEFAULT UND __cxa_finalize@LIBC (2)
2:   FUNC GLOBAL DEFAULT UND __cxa_atexit@LIBC (2)
3:   FUNC GLOBAL DEFAULT UND _ZNSt3__15alignEmmRPvRm
4:   FUNC GLOBAL DEFAULT UND _ZNSt3__15mutex4lockEv
5:   FUNC GLOBAL DEFAULT UND _ZNSt3__15mutex6unlockEv
6:   FUNC GLOBAL DEFAULT UND _ZNSt3__15mutexD1Ev
7:   FUNC GLOBAL DEFAULT UND __stack_chk_fail@LIBC (2)
8:   FUNC GLOBAL DEFAULT UND abort@LIBC (2)
9:   FUNC GLOBAL DEFAULT UND memset@LIBC (2)
10:   FUNC GLOBAL DEFAULT UND mmap@LIBC (2)
11:   FUNC GLOBAL DEFAULT UND munmap@LIBC (2)
12:   FUNC GLOBAL DEFAULT UND prctl@LIBC (2)
13:   FUNC GLOBAL DEFAULT UND _ZNKSt3__120__vector_base
14:   FUNC GLOBAL DEFAULT UND _ZdlPv
15:   FUNC GLOBAL DEFAULT UND _Znwm
16:   NOTYPE WEAK DEFAULT UND getBinderKernelReferences
17:   NOTYPE WEAK DEFAULT UND getHWBinderKernelReferenc
18:   FUNC GLOBAL DEFAULT UND memcpy@LIBC (2)
19:   FUNC GLOBAL DEFAULT UND memmove@LIBC (2)
20:   FUNC GLOBAL DEFAULT UND __errno@LIBC (2)
21:   FUNC GLOBAL DEFAULT UND sigaction@LIBC (2)
22:   FUNC GLOBAL DEFAULT UND strerror@LIBC (2)
23:   FUNC GLOBAL DEFAULT UND sysconf@LIBC (2)
24:   FUNC GLOBAL DEFAULT UND recvmsg@LIBC (2)
25:   FUNC GLOBAL DEFAULT UND sendmsg@LIBC (2)
26:   FUNC GLOBAL DEFAULT UND _ZNKSt3__121__basic_strin
27:   FUNC GLOBAL DEFAULT UND _ZNKSt3__16locale9use_fac
28:   FUNC GLOBAL DEFAULT UND _ZNKSt3__18ios_base6getlo
29:   FUNC GLOBAL DEFAULT UND _ZNSt3__112__next_primeEm
30:   FUNC GLOBAL DEFAULT UND _ZNSt3__112basic_stringIc
31:   FUNC GLOBAL DEFAULT UND _ZNSt3__112basic_stringIc
32:   FUNC GLOBAL DEFAULT UND _ZNSt3__113basic_ostreamI
33:   FUNC GLOBAL DEFAULT UND _ZNSt3__113basic_ostreamI
34:   FUNC GLOBAL DEFAULT UND _ZNSt3__113basic_ostreamI
35:   FUNC GLOBAL DEFAULT UND _ZNSt3__113basic_ostreamI
36:   FUNC GLOBAL DEFAULT UND _ZNSt3__113basic_ostreamI
37:   FUNC GLOBAL DEFAULT UND _ZNSt3__113basic_ostreamI
38:   FUNC GLOBAL DEFAULT UND _ZNSt3__113basic_ostreamI
39:   FUNC GLOBAL DEFAULT UND _ZNSt3__113basic_ostreamI
40:   FUNC GLOBAL DEFAULT UND _ZNSt3__113basic_ostreamI
41:   FUNC GLOBAL DEFAULT UND _ZNSt3__115basic_streambu
42:   FUNC GLOBAL DEFAULT UND _ZNSt3__115basic_streambu
43:   FUNC GLOBAL DEFAULT UND _ZNSt3__115basic_streambu
44:   FUNC GLOBAL DEFAULT UND _ZNSt3__115basic_streambu
45:   FUNC GLOBAL DEFAULT UND _ZNSt3__115basic_streambu
46:   FUNC GLOBAL DEFAULT UND _ZNSt3__115basic_streambu
47:   FUNC GLOBAL DEFAULT UND _ZNSt3__115basic_streambu
48:   FUNC GLOBAL DEFAULT UND _ZNSt3__115basic_streambu
49:   FUNC GLOBAL DEFAULT UND _ZNSt3__115basic_streambu
50:   FUNC GLOBAL DEFAULT UND _ZNSt3__118condition_vari
51:   FUNC GLOBAL DEFAULT UND _ZNSt3__118condition_vari
52:   FUNC GLOBAL DEFAULT UND _ZNSt3__118condition_vari
53:   OBJECT GLOBAL DEFAULT UND _ZNSt3__15ctypeIcE2idE
54:   FUNC GLOBAL DEFAULT UND _ZNSt3__16chrono12steady_
55:   FUNC GLOBAL DEFAULT UND _ZNSt3__16chrono12system_
56:   FUNC GLOBAL DEFAULT UND _ZNSt3__16localeD1Ev
57:   FUNC GLOBAL DEFAULT UND _ZNSt3__18ios_base4initEP
58:   FUNC GLOBAL DEFAULT UND _ZNSt3__18ios_base5clearE
59:   FUNC GLOBAL DEFAULT UND _ZNSt3__19basic_iosIcNS_1
60:   FUNC GLOBAL DEFAULT UND _ZTv0_n24_NSt3__113basic_
61:   FUNC GLOBAL DEFAULT UND _ZTv0_n24_NSt3__113basic_
62:   FUNC GLOBAL DEFAULT UND __strlen_chk@LIBC (2)
63:   FUNC GLOBAL DEFAULT UND _exit@LIBC (2)
64:   FUNC GLOBAL DEFAULT UND close@LIBC (2)
65:   FUNC GLOBAL DEFAULT UND fork@LIBC (2)
66:   FUNC GLOBAL DEFAULT UND getpid@LIBC (2)
67:   FUNC GLOBAL DEFAULT UND gettid@LIBC (2)
68:   FUNC GLOBAL DEFAULT UND malloc_backtrace@LIBC_Q (3)
69:   FUNC GLOBAL DEFAULT UND malloc_disable@LIBC_Q (3)
70:   FUNC GLOBAL DEFAULT UND malloc_enable@LIBC_Q (3)
71:   FUNC GLOBAL DEFAULT UND malloc_iterate@LIBC_Q (3)
72:   FUNC GLOBAL DEFAULT UND memcmp@LIBC (2)
73:   FUNC GLOBAL DEFAULT UND pipe2@LIBC (2)
74:   FUNC GLOBAL DEFAULT UND read@LIBC (2)
75:   FUNC GLOBAL DEFAULT UND socketpair@LIBC (2)
76:   FUNC GLOBAL DEFAULT UND strlen@LIBC (2)
77:   FUNC GLOBAL DEFAULT UND write@LIBC (2)
78:   FUNC GLOBAL DEFAULT UND __open_2@LIBC (2)
79:   FUNC GLOBAL DEFAULT UND __read_chk@LIBC (2)
80:   FUNC GLOBAL DEFAULT UND __vsnprintf_chk@LIBC (2)
81:   FUNC WEAK DEFAULT UND android_fdsan_close_with_@LIBC_Q (3)
82:   FUNC WEAK DEFAULT UND android_fdsan_create_owne@LIBC_Q (3)
83:   FUNC WEAK DEFAULT UND android_fdsan_exchange_ow@LIBC_Q (3)
84:   FUNC GLOBAL DEFAULT UND isxdigit@LIBC (2)
85:   FUNC GLOBAL DEFAULT UND strchr@LIBC (2)
86:   FUNC GLOBAL DEFAULT UND strlcpy@LIBC (2)
87:   FUNC GLOBAL DEFAULT UND strtoull@LIBC (2)
88:   FUNC GLOBAL DEFAULT UND _ZNSt3__120__throw_system
89:   FUNC GLOBAL DEFAULT UND clone@LIBC (2)
90:   FUNC GLOBAL DEFAULT UND mprotect@LIBC (2)
91:   FUNC GLOBAL DEFAULT UND syscall@LIBC (2)
92:   FUNC GLOBAL DEFAULT UND waitpid@LIBC (2)
93:   FUNC GLOBAL DEFAULT UND __strlcat_chk@LIBC (2)
94:   FUNC GLOBAL DEFAULT UND atoi@LIBC (2)
95:   FUNC GLOBAL DEFAULT UND ptrace@LIBC (2)
96:   FUNC GLOBAL DEFAULT UND __assert@LIBC (2)
97:   FUNC GLOBAL DEFAULT UND __memcpy_chk@LIBC (2)
98:   FUNC GLOBAL DEFAULT UND __strlcpy_chk@LIBC (2)
99:   FUNC GLOBAL DEFAULT UND android_set_abort_message@LIBC (2)
100:   FUNC GLOBAL DEFAULT UND clock_gettime@LIBC (2)
101:   FUNC GLOBAL DEFAULT UND connect@LIBC (2)
102:   FUNC GLOBAL DEFAULT UND socket@LIBC (2)
103:   FUNC GLOBAL DEFAULT UND writev@LIBC (2)
104:   FUNC GLOBAL DEFAULT UND _ZNKSt3__112basic_stringI
105:   FUNC GLOBAL DEFAULT UND _ZNSt3__112basic_stringIc
106:   FUNC GLOBAL DEFAULT UND _ZNSt3__112basic_stringIc
107:   FUNC GLOBAL DEFAULT UND _ZNSt3__112basic_stringIc
108:   FUNC GLOBAL DEFAULT UND _ZNSt3__112basic_stringIc
109:   FUNC GLOBAL DEFAULT UND _ZNSt3__112basic_stringIc
110:   FUNC GLOBAL DEFAULT UND _ZNSt3__112basic_stringIc
111:   FUNC GLOBAL DEFAULT UND _ZNSt3__112basic_stringIc
112:   FUNC GLOBAL DEFAULT UND _ZNSt3__1plIcNS_11char_tr
113:   FUNC GLOBAL DEFAULT UND islower@LIBC (2)
114:   FUNC GLOBAL DEFAULT UND isupper@LIBC (2)
115:   FUNC GLOBAL DEFAULT UND strcmp@LIBC (2)
116:   FUNC GLOBAL DEFAULT UND strtoul@LIBC (2)
117:   FUNC GLOBAL DEFAULT UND dladdr@LIBC (4)
118:   FUNC GLOBAL DEFAULT UND __fgets_chk@LIBC (2)
119:   FUNC GLOBAL DEFAULT UND fclose@LIBC (2)
120:   FUNC GLOBAL DEFAULT UND fopen@LIBC (2)
121:   FUNC GLOBAL DEFAULT UND sscanf@LIBC (2)
122:   FUNC WEAK DEFAULT UND pthread_create@LIBC (2)
123:   FUNC WEAK DEFAULT UND pthread_once@LIBC (2)
124:   FUNC GLOBAL DEFAULT UND malloc@LIBC (2)
125:   FUNC GLOBAL DEFAULT UND free@LIBC (2)
126:   FUNC GLOBAL DEFAULT UND dl_iterate_phdr@LIBC (4)
127:   FUNC WEAK DEFAULT UND pthread_mutex_unlock@LIBC (2)
128:   FUNC WEAK DEFAULT UND pthread_mutex_lock@LIBC (2)
129:   FUNC GLOBAL DEFAULT 14 _ZN7android11LeakFolding1
130:   FUNC GLOBAL DEFAULT 14 _ZN7android17ThreadCaptur
131:   FUNC WEAK DEFAULT 14 _ZNSt3__110__function6__f
132:   FUNC WEAK DEFAULT 14 _ZNSt3__16vectorIN7androi
133:   FUNC GLOBAL DEFAULT 14 _ZN7android17ThreadCaptur
134:   FUNC GLOBAL DEFAULT 14 async_safe_format_log_va_
135:   FUNC GLOBAL DEFAULT 14 _ZN9Demangler17ParseFunct
136:   FUNC WEAK DEFAULT 14 _ZNSt3__16vectorIM9Demang
137:   FUNC GLOBAL DEFAULT 14 _ZN7android8HeapImpl10Mov
138:   FUNC WEAK DEFAULT 14 _ZNSt3__112__hash_tableIN
139:   FUNC WEAK DEFAULT 14 _ZNSt3__124__put_characte
140:   FUNC GLOBAL DEFAULT 14 _ZN9Demangler20AppendOper
141:   FUNC GLOBAL DEFAULT 14 _ZN7android5Chunk5EmptyEv
142:   FUNC GLOBAL DEFAULT 14 _ZN7android5ChunkdlEPv
143:   FUNC GLOBAL DEFAULT 14 _ZN7android8HeapImplnwEm
144:   FUNC GLOBAL DEFAULT 14 _ZN7android8LeakPipe9Rece
145:   FUNC GLOBAL DEFAULT 14 _ZN7android13ThreadCaptur
146:   FUNC GLOBAL DEFAULT 14 _ZN7android17ThreadCaptur
147:   FUNC GLOBAL DEFAULT 14 _ZN9Demangler30ParseFunct
148:   FUNC WEAK DEFAULT 14 _ZNSt3__16vectorImN7andro
149:   FUNC GLOBAL DEFAULT 14 _ZN7android21UnreachableM
150:   FUNC GLOBAL DEFAULT 14 _ZN7android17ThreadCaptur
151:   FUNC GLOBAL DEFAULT 14 _ZN9Demangler13AppendCurr
152:   FUNC GLOBAL DEFAULT 14 _ZN7android4HeapD2Ev
153:   FUNC WEAK DEFAULT 14 _ZN7android15TarjanAlgori
154:   FUNC WEAK DEFAULT 14 _ZN7android15TarjanAlgori
155:   FUNC GLOBAL DEFAULT 14 _ZN9Demangler18GetArgumen
156:   FUNC GLOBAL DEFAULT 14 _ZN7MapDataD1Ev
157:   FUNC GLOBAL DEFAULT 14 _ZN7android4Heap10dealloc
158:   FUNC WEAK DEFAULT 14 _ZNSt3__16__treeINS_12__v
159:   FUNC GLOBAL DEFAULT 14 NoLeaks
160:   OBJECT WEAK DEFAULT 18 _ZTVNSt3__115basic_string
161:   FUNC WEAK DEFAULT 14 _ZNSt3__16__treeINS_12__v
162:   FUNC GLOBAL DEFAULT 14 _ZN9Demangler16FinalizeTe
163:   FUNC GLOBAL DEFAULT 14 _ZN9Demangler6ParseTEPKc
164:   FUNC GLOBAL DEFAULT 14 _ZN7android4Heap5emptyEv
165:   FUNC GLOBAL DEFAULT 14 _ZN7android10HeapWalker10
166:   FUNC GLOBAL DEFAULT 14 _ZN7android10HeapWalker15
167:   FUNC WEAK DEFAULT 14 _ZNSt3__112__deque_baseIN
168:   FUNC GLOBAL DEFAULT 14 _ZN7android16BinderRefere
169:   OBJECT GLOBAL DEFAULT 23 _ZN7android19ScopedSignal
170:   FUNC GLOBAL DEFAULT 14 _ZN7android13PtracerThrea
171:   FUNC GLOBAL DEFAULT 14 __netf2
172:   FUNC GLOBAL DEFAULT 14 _ZN7android10HeapWalker11
173:   FUNC WEAK DEFAULT 14 _ZNSt3__16vectorIiN7andro
174:   FUNC GLOBAL DEFAULT 14 async_safe_fatal_va_list
175:   OBJECT WEAK DEFAULT 18 _ZN9Demangler7kSTypesE
176:   FUNC GLOBAL DEFAULT 14 __eqtf2
177:   FUNC GLOBAL DEFAULT 14 __addtf3
178:   FUNC WEAK DEFAULT 14 _ZNSt3__16vectorIPN7andro
179:   FUNC WEAK DEFAULT 14 _ZNSt3__16vectorIN7androi
180:   FUNC WEAK DEFAULT 14 _ZNSt3__113__tree_removeI
181:   FUNC WEAK DEFAULT 14 _ZNSt3__16vectorINS_12bas
182:   FUNC GLOBAL DEFAULT 14 _ZN9Demangler18ParseCompl
183:   FUNC WEAK DEFAULT 14 _ZNSt3__114__split_buffer
184:   FUNC GLOBAL DEFAULT 14 _ZN9Demangler6ParseSEPKc
185:   FUNC GLOBAL DEFAULT 14 async_safe_format_log
186:   FUNC GLOBAL DEFAULT 14 _ZN7android13PtracerThrea
187:   FUNC WEAK DEFAULT 14 _ZNSt3__16__treeIP8MapEnt
188:   FUNC GLOBAL DEFAULT 14 _ZN7android10HeapWalker11
189:   FUNC GLOBAL DEFAULT 14 _ZN7android13PtracerThrea
190:   FUNC GLOBAL DEFAULT 14 _ZN7android5Chunk4FreeEPv
191:   FUNC GLOBAL DEFAULT 14 _ZN7android8HeapImpl8MapA
192:   FUNC WEAK DEFAULT 14 _ZNSt3__16__treeINS_12__v
193:   FUNC GLOBAL DEFAULT 14 _ZN7android14MemUnreachab
194:   FUNC WEAK DEFAULT 14 _ZNSt3__112__hash_tableIN
195:   FUNC GLOBAL DEFAULT 14 async_safe_format_fd_va_l
196:   FUNC GLOBAL DEFAULT 14 __fe_getround
197:   FUNC GLOBAL DEFAULT 14 __subtf3
198:   FUNC WEAK DEFAULT 14 _ZNKSt3__18functionIFivEE
199:   FUNC GLOBAL DEFAULT 14 _ZN9Demangler25ParseFunct
200:   FUNC WEAK DEFAULT 14 _ZNSt3__114__split_buffer
201:   FUNC GLOBAL DEFAULT 14 _Z13backtrace_logPKmm
202:   FUNC GLOBAL DEFAULT 14 _ZN9Demangler20ParseTempl
203:   FUNC GLOBAL DEFAULT 14 _ZN7android4HeapD1Ev
204:   FUNC WEAK DEFAULT 14 _ZNSt3__110__function6__f
205:   FUNC WEAK DEFAULT 14 _ZNSt3__16vectorIN7androi
206:   FUNC WEAK DEFAULT 14 _ZNSt3__16__treeIPN7andro
207:   FUNC WEAK DEFAULT 14 _ZNSt3__16vectorINS0_IPN7
208:   FUNC GLOBAL DEFAULT 14 _ZNK7android21Unreachable
209:   FUNC GLOBAL DEFAULT 14 __floatditf
210:   FUNC GLOBAL DEFAULT 14 async_safe_format_fd
211:   FUNC GLOBAL DEFAULT 14 __letf2
212:   FUNC GLOBAL DEFAULT 14 _ZN7android8HeapImplD2Ev
213:   FUNC GLOBAL DEFAULT 14 _ZN7android8HeapImpldlEPv
214:   FUNC WEAK DEFAULT 14 _ZNKSt3__110__function6__
215:   FUNC GLOBAL DEFAULT 14 _ZN7android13ThreadCaptur
216:   FUNC WEAK DEFAULT 14 _ZNSt3__115basic_stringbu
217:   FUNC GLOBAL DEFAULT 14 _ZN7android17ThreadCaptur
218:   FUNC GLOBAL DEFAULT 14 async_safe_format_buffer_
219:   FUNC GLOBAL DEFAULT 14 _ZN9Demangler29ParseTempl
220:   FUNC WEAK DEFAULT 14 _ZNSt3__112__hash_tableIN
221:   FUNC GLOBAL DEFAULT 14 _ZN9Demangler16FindFuncti
222:   FUNC GLOBAL DEFAULT 14 _ZN9Demangler22ParseTempl
223:   FUNC WEAK DEFAULT 14 _ZNSt3__114__split_buffer
224:   FUNC GLOBAL DEFAULT 14 _ZN7android8HeapImpl14Mov
225:   FUNC WEAK DEFAULT 14 _ZNSt3__112basic_stringIc
226:   FUNC GLOBAL DEFAULT 14 __lttf2
227:   FUNC GLOBAL DEFAULT 14 _ZN7android17ThreadCaptur
228:   FUNC GLOBAL DEFAULT 14 _ZN7android17ThreadCaptur
229:   FUNC GLOBAL DEFAULT 14 _ZN7android10HeapWalker4R
230:   FUNC GLOBAL DEFAULT 14 __multf3
231:   FUNC GLOBAL DEFAULT 14 _ZN7android17ThreadCaptur
232:   OBJECT GLOBAL DEFAULT 23 _ZN7android10heap_countE
233:   FUNC WEAK DEFAULT 14 _ZNSt3__16vectorIPN7andro
234:   FUNC GLOBAL DEFAULT 14 _ZN7android8LeakPipe6Send
235:   FUNC GLOBAL DEFAULT 14 _ZN7android13PtracerThrea
236:   FUNC GLOBAL DEFAULT 14 _ZN7android10HeapWalker4R
237:   FUNC GLOBAL DEFAULT 14 _ZN7android13ThreadCaptur
238:   FUNC GLOBAL DEFAULT 14 _ZN9Demangler20ParseCompl
239:   FUNC GLOBAL DEFAULT 14 _ZN7MapData8ReadMapsEv
240:   FUNC GLOBAL DEFAULT 14 _ZN7android10HeapWalker25
241:   FUNC WEAK DEFAULT 14 _ZNSt3__115basic_stringbu
242:   FUNC GLOBAL DEFAULT 14 _ZN7android13ThreadCaptur
243:   FUNC GLOBAL DEFAULT 14 _ZN9Demangler5ParseEPKcm
244:   FUNC GLOBAL DEFAULT 14 _ZN7android13PtracerThrea
245:   FUNC WEAK DEFAULT 14 _ZNSt3__16__treeINS_12__v
246:   FUNC WEAK DEFAULT 14 _ZNSt3__16vectorIN7androi
247:   FUNC GLOBAL DEFAULT 14 _ZN7android4HeapC2Ev
248:   FUNC GLOBAL DEFAULT 14 _ZN7android15ProcessMappi
249:   OBJECT WEAK DEFAULT 18 _ZTCNSt3__119basic_ostrin
250:   OBJECT WEAK DEFAULT 18 _ZTTNSt3__119basic_ostrin
251:   FUNC GLOBAL DEFAULT 14 _ZN7android13ThreadCaptur
252:   FUNC WEAK DEFAULT 14 _ZNSt3__1plIcNS_11char_tr
253:   FUNC GLOBAL DEFAULT 14 __unordtf2
254:   FUNC GLOBAL DEFAULT 14 _ZN7android8HeapImpl5Allo
255:   FUNC WEAK DEFAULT 14 _ZNSt3__111unique_lockINS
256:   FUNC WEAK DEFAULT 14 _ZNSt3__16vectorIN7androi
257:   FUNC GLOBAL DEFAULT 14 _ZNK7android4Leak8ToStrin
258:   FUNC GLOBAL DEFAULT 14 _ZN9Demangler4SaveERKNSt3
259:   OBJECT WEAK DEFAULT 18 _ZN9Demangler6kTypesE
260:   FUNC GLOBAL DEFAULT 14 _ZN7android8HeapImplD1Ev
261:   FUNC GLOBAL DEFAULT 14 async_safe_format_buffer
262:   FUNC GLOBAL DEFAULT 14 _ZN7android10HeapWalker11
263:   FUNC WEAK DEFAULT 14 _ZNSt3__16vectorIPN7andro
264:   FUNC GLOBAL DEFAULT 14 _ZN7android13PtracerThrea
265:   FUNC GLOBAL DEFAULT 14 _ZN7android10HeapWalker14
266:   FUNC WEAK DEFAULT 14 _ZNSt3__113__vector_baseI
267:   FUNC GLOBAL DEFAULT 14 _ZN7android13ThreadCaptur
268:   FUNC GLOBAL DEFAULT 14 _ZN7android4Heap8allocate
269:   FUNC GLOBAL DEFAULT 14 _ZN7android8HeapImpl11All
270:   FUNC WEAK DEFAULT 14 _ZNSt3__16vectorImN7andro
271:   FUNC WEAK DEFAULT 14 _ZNSt3__112__hash_tableIN
272:   FUNC WEAK DEFAULT 14 _ZNSt3__112__hash_tableIN
273:   FUNC GLOBAL DEFAULT 14 _ZN7android13ThreadCaptur
274:   FUNC GLOBAL DEFAULT 14 _ZN7android17ThreadCaptur
275:   FUNC WEAK DEFAULT 14 _ZNSt3__16vectorINS_12bas
276:   FUNC GLOBAL DEFAULT 14 _ZN7android5ChunkC2EPNS_8
277:   FUNC GLOBAL DEFAULT 14 _Z8demanglePKc
278:   FUNC WEAK DEFAULT 14 _ZNSt3__1plIcNS_11char_tr
279:   FUNC GLOBAL DEFAULT 14 async_safe_write_log
280:   FUNC GLOBAL DEFAULT 14 _ZN7android11LeakFolding1
281:   FUNC GLOBAL DEFAULT 14 _ZN7android11LeakFolding9
282:   FUNC WEAK DEFAULT 14 _ZNSt3__115basic_stringbu
283:   FUNC GLOBAL DEFAULT 14 _ZN7android8HeapImpl7MapF
284:   OBJECT WEAK DEFAULT 18 _ZTVNSt3__119basic_ostrin
285:   FUNC WEAK DEFAULT 14 _ZNSt3__16vectorINS_12bas
286:   FUNC GLOBAL DEFAULT 14 _ZN7android4Heap10dealloc
287:   FUNC GLOBAL DEFAULT 14 _ZN7android4HeapC1Ev
288:   FUNC GLOBAL DEFAULT 14 _ZN7android5ChunkC1EPNS_8
289:   FUNC GLOBAL DEFAULT 14 async_safe_fatal_no_abort
290:   FUNC WEAK DEFAULT 14 _ZNSt3__112__hash_tableIN
291:   FUNC GLOBAL DEFAULT 14 _Z13backtrace_getPmm
292:   FUNC GLOBAL DEFAULT 14 _ZN7MapData4findEmPm
293:   FUNC GLOBAL DEFAULT 14 _ZN7android8HeapImplC2Ev
294:   FUNC GLOBAL DEFAULT 14 _ZN7android10HeapWalker6L
295:   FUNC WEAK DEFAULT 14 _ZNSt3__16vectorIN7androi
296:   OBJECT WEAK DEFAULT 18 _ZN9Demangler7kDTypesE
297:   FUNC WEAK DEFAULT 14 _ZNSt3__16vectorIM9Demang
298:   FUNC GLOBAL DEFAULT 14 _Z17backtrace_startupv
299:   FUNC GLOBAL DEFAULT 14 _ZN7android11LeakFolding6
300:   FUNC WEAK DEFAULT 14 _ZNSt3__16__treeIPN7andro
301:   FUNC WEAK DEFAULT 14 _ZNSt3__16vectorINS_10uni
302:   FUNC GLOBAL DEFAULT 14 _ZN7android13ThreadCaptur
303:   FUNC GLOBAL DEFAULT 14 _ZN9Demangler13AppendCurr
304:   FUNC WEAK DEFAULT 14 _ZNSt3__16vectorINS_12bas
305:   FUNC GLOBAL DEFAULT 14 __getf2
306:   FUNC WEAK DEFAULT 14 _ZNSt3__112__hash_tableIN
307:   FUNC GLOBAL DEFAULT 14 _Z16backtrace_stringPKmm
308:   FUNC GLOBAL DEFAULT 14 _ZN9Demangler19GetStringF
309:   FUNC GLOBAL DEFAULT 14 __fe_raise_inexact
310:   FUNC GLOBAL DEFAULT 14 _ZN7android8HeapImpl5Empt
311:   FUNC GLOBAL DEFAULT 14 _ZN7android10HeapWalker7M
312:   OBJECT GLOBAL DEFAULT 11 _ZN7android4Leak15content
313:   FUNC WEAK DEFAULT 14 _ZNSt3__16vectorIN7androi
314:   FUNC WEAK DEFAULT 14 _ZNSt3__15dequeIN9Demangl
315:   FUNC WEAK DEFAULT 14 _ZNSt3__127__tree_balance
316:   FUNC GLOBAL DEFAULT 14 LogUnreachableMemory
317:   FUNC GLOBAL DEFAULT 14 _ZN7android14MemUnreachab
318:   FUNC GLOBAL DEFAULT 14 __gttf2
319:   FUNC GLOBAL DEFAULT 14 _ZN7android13PtracerThrea
320:   FUNC GLOBAL DEFAULT 14 _ZN7android13PtracerThrea
321:   FUNC GLOBAL DEFAULT 14 _ZN7android17ThreadCaptur
322:   FUNC WEAK DEFAULT 14 _ZNSt3__1plIcNS_11char_tr
323:   FUNC WEAK DEFAULT 14 _ZNKSt3__110__function6__
324:   FUNC WEAK DEFAULT 14 _ZN7android6TarjanINS_11L
325:   FUNC GLOBAL DEFAULT 14 _ZN7android13ThreadCaptur
326:   FUNC GLOBAL DEFAULT 14 _ZN7android14MemUnreachab
327:   FUNC WEAK DEFAULT 14 _ZN7android8procinfo18Rea
328:   FUNC WEAK DEFAULT 14 _ZNSt3__16vectorImN7andro
329:   FUNC GLOBAL DEFAULT 14 _ZN9Demangler21ParseFunct
330:   FUNC GLOBAL DEFAULT 14 _Z18backtrace_shutdownv
331:   FUNC GLOBAL DEFAULT 14 _ZN7android5ChunknwEm
332:   FUNC GLOBAL DEFAULT 14 _ZN7android21UnreachableM
333:   FUNC WEAK DEFAULT 14 _ZNSt3__112basic_stringIc
334:   FUNC WEAK DEFAULT 14 _ZNSt3__115basic_stringbu
335:   FUNC GLOBAL DEFAULT 14 _ZN7android8HeapImpl10Fre
336:   FUNC WEAK DEFAULT 14 _ZNSt3__110__function6__f
337:   FUNC WEAK DEFAULT 14 _ZNSt3__16vectorImN7andro
338:   OBJECT WEAK DEFAULT 18 _ZTVNSt3__110__function6_
339:   FUNC GLOBAL DEFAULT 14 _ZN7android13ThreadCaptur
340:   FUNC GLOBAL DEFAULT 14 _ZN7android17ThreadCaptur
341:   FUNC GLOBAL DEFAULT 14 _ZN7MapDataD2Ev
342:   FUNC GLOBAL DEFAULT 14 _ZN7android20GetUnreachab
343:   FUNC GLOBAL DEFAULT 14 _ZN7android17ThreadCaptur
344:   FUNC GLOBAL DEFAULT 14 _ZN9Demangler14AppendArgu
345:   FUNC WEAK DEFAULT 14 _ZNSt3__114__split_buffer
346:   FUNC GLOBAL DEFAULT 14 __cmptf2
347:   FUNC GLOBAL DEFAULT 14 _ZN7android8HeapImpl14Mov
348:   FUNC GLOBAL DEFAULT 14 _ZN7android26GetUnreachab
349:   FUNC WEAK DEFAULT 14 _ZNSt3__16vectorIN7androi
350:   FUNC GLOBAL DEFAULT 14 _ZN7android13PtracerThrea
351:   FUNC WEAK DEFAULT 14 _ZNSt3__16vectorImN7andro
352:   FUNC GLOBAL DEFAULT 14 _ZN9Demangler24ParseArgum
353:   FUNC GLOBAL DEFAULT 14 _ZN7android5Chunk5AllocEv
354:   FUNC GLOBAL DEFAULT 14 _ZN7android8HeapImplC1Ev
355:   FUNC WEAK DEFAULT 14 _ZNSt3__16vectorIN7androi
356:   FUNC WEAK DEFAULT 14 _ZNSt3__112__hash_tableIN
357:   FUNC WEAK DEFAULT 14 _ZNSt3__112__hash_tableIN
358:   FUNC GLOBAL DEFAULT 14 _ZN7android5Chunk5PurgeEv
359:   FUNC GLOBAL DEFAULT 14 _ZN7android8HeapImpl4Free
360:   FUNC WEAK DEFAULT 14 _ZNKSt3__115basic_stringb
361:   FUNC GLOBAL DEFAULT 14 _ZN9Demangler14ParseArgum
