 0x0000000e (SONAME)                     Library soname: [libjnigraphics.so]
  
Symbol   contains 10 entries:
Num:   Type Bind Vis Ndx Name
0:   NOTYPE LOCAL DEFAULT UND
1:   FUNC GLOBAL DEFAULT UND __cxa_finalize@LIBC (3)
2:   FUNC GLOBAL DEFAULT UND _ZN7android6bitmap10lockP
3:   FUNC GLOBAL DEFAULT UND _ZN7android6bitmap12unloc
4:   FUNC GLOBAL DEFAULT UND _ZN7android6bitmap9imageI
5:   FUNC GLOBAL DEFAULT UND __stack_chk_fail@LIBC (3)
6:   OBJECT GLOBAL DEFAULT UND __stack_chk_guard@LIBC (3)
7:   FUNC GLOBAL DEFAULT 13 AndroidBitmap_getInfo@@LIBJNIGRAPHICS
8:   FUNC GLOBAL DEFAULT 13 AndroidBitmap_lockPixels@@LIBJNIGRAPHICS
9:   FUNC GLOBAL DEFAULT 13 AndroidBitmap_unlockPixel@@LIBJNIGRAPHICS
