 0x0000000e (SONAME)                     Library soname: [android.hardware.camera.provider@2.5.so]
  
Symbol   contains 270 entries:
Num:   Type Bind Vis Ndx Name
0:   NOTYPE LOCAL DEFAULT UND
1:   FUNC GLOBAL DEFAULT UND __cxa_finalize@LIBC (2)
2:   FUNC GLOBAL DEFAULT UND _ZN7android14sp_report_ra
3:   FUNC GLOBAL DEFAULT UND _ZN7android21report_syspr
4:   OBJECT GLOBAL DEFAULT UND _ZN7android4hidl4base4V1_
5:   FUNC GLOBAL DEFAULT UND _ZN7android4hidl4base4V1_
6:   FUNC GLOBAL DEFAULT UND _ZN7android4hidl4base4V1_
7:   FUNC GLOBAL DEFAULT UND _ZN7android4hidl4base4V1_
8:   FUNC GLOBAL DEFAULT UND _ZN7android4hidl4base4V1_
9:   FUNC GLOBAL DEFAULT UND _ZN7android4hidl4base4V1_
10:   FUNC GLOBAL DEFAULT UND _ZN7android4hidl4base4V1_
11:   FUNC GLOBAL DEFAULT UND _ZN7android4hidl4base4V1_
12:   FUNC GLOBAL DEFAULT UND _ZN7android4hidl4base4V1_
13:   FUNC GLOBAL DEFAULT UND _ZN7android4hidl4base4V1_
14:   FUNC GLOBAL DEFAULT UND _ZN7android4hidl4base4V1_
15:   FUNC GLOBAL DEFAULT UND _ZN7android4hidl4base4V1_
16:   FUNC GLOBAL DEFAULT UND _ZN7android4hidl4base4V1_
17:   FUNC GLOBAL DEFAULT UND _ZN7android4hidl4base4V1_
18:   FUNC GLOBAL DEFAULT UND _ZN7android4hidl4base4V1_
19:   FUNC GLOBAL DEFAULT UND _ZN7android4hidl4base4V1_
20:   FUNC GLOBAL DEFAULT UND _ZN7android4hidl4base4V1_
21:   FUNC GLOBAL DEFAULT UND _ZN7android4hidl4base4V1_
22:   FUNC GLOBAL DEFAULT UND _ZN7android4hidl4base4V1_
23:   FUNC GLOBAL DEFAULT UND _ZN7android4hidl4base4V1_
24:   FUNC GLOBAL DEFAULT UND _ZN7android4hidl4base4V1_
25:   FUNC GLOBAL DEFAULT UND _ZN7android4hidl4base4V1_
26:   FUNC GLOBAL DEFAULT UND _ZN7android4hidl4base4V1_
27:   FUNC GLOBAL DEFAULT UND _ZN7android4hidl4base4V1_
28:   FUNC GLOBAL DEFAULT UND _ZN7android7RefBase10onFi
29:   FUNC GLOBAL DEFAULT UND _ZN7android7RefBase12weak
30:   FUNC GLOBAL DEFAULT UND _ZN7android7RefBase13onLa
31:   FUNC GLOBAL DEFAULT UND _ZN7android7RefBase15onLa
32:   FUNC GLOBAL DEFAULT UND _ZN7android7RefBase20onIn
33:   FUNC GLOBAL DEFAULT UND _ZN7android7RefBaseC2Ev
34:   FUNC GLOBAL DEFAULT UND _ZN7android7RefBaseD2Ev
35:   FUNC GLOBAL DEFAULT UND _ZN7android8hardware10IIn
36:   FUNC GLOBAL DEFAULT UND _ZN7android8hardware10IIn
37:   FUNC GLOBAL DEFAULT UND _ZN7android8hardware10IIn
38:   FUNC GLOBAL DEFAULT UND _ZN7android8hardware10IIn
39:   FUNC GLOBAL DEFAULT UND _ZN7android8hardware10IIn
40:   FUNC GLOBAL DEFAULT UND _ZN7android8hardware11BpH
41:   FUNC GLOBAL DEFAULT UND _ZN7android8hardware11BpH
42:   FUNC GLOBAL DEFAULT UND _ZN7android8hardware11BpH
43:   FUNC GLOBAL DEFAULT UND _ZN7android8hardware11BpH
44:   FUNC GLOBAL DEFAULT UND _ZN7android8hardware11BpH
45:   FUNC GLOBAL DEFAULT UND _ZN7android8hardware11BpH
46:   FUNC GLOBAL DEFAULT UND _ZN7android8hardware11BpH
47:   FUNC GLOBAL DEFAULT UND _ZN7android8hardware11hid
48:   FUNC GLOBAL DEFAULT UND _ZN7android8hardware11hid
49:   FUNC GLOBAL DEFAULT UND _ZN7android8hardware11hid
50:   FUNC GLOBAL DEFAULT UND _ZN7android8hardware11hid
51:   FUNC GLOBAL DEFAULT UND _ZN7android8hardware11hid
52:   FUNC GLOBAL DEFAULT UND _ZN7android8hardware12Pro
53:   FUNC GLOBAL DEFAULT UND _ZN7android8hardware12Pro
54:   FUNC GLOBAL DEFAULT UND _ZN7android8hardware13wri
55:   FUNC GLOBAL DEFAULT UND _ZN7android8hardware14rea
56:   FUNC GLOBAL DEFAULT UND _ZN7android8hardware21def
57:   FUNC GLOBAL DEFAULT UND _ZN7android8hardware23get
58:   FUNC GLOBAL DEFAULT UND _ZN7android8hardware27hid
59:   FUNC GLOBAL DEFAULT UND _ZN7android8hardware27hid
60:   FUNC GLOBAL DEFAULT UND _ZN7android8hardware6Parc
61:   FUNC GLOBAL DEFAULT UND _ZN7android8hardware6Parc
62:   FUNC GLOBAL DEFAULT UND _ZN7android8hardware6Parc
63:   FUNC GLOBAL DEFAULT UND _ZN7android8hardware6Parc
64:   FUNC GLOBAL DEFAULT UND _ZN7android8hardware6Stat
65:   FUNC GLOBAL DEFAULT UND _ZN7android8hardware6Stat
66:   FUNC GLOBAL DEFAULT UND _ZN7android8hardware6Stat
67:   FUNC GLOBAL DEFAULT UND _ZN7android8hardware6Stat
68:   OBJECT GLOBAL DEFAULT UND _ZN7android8hardware6came
69:   FUNC GLOBAL DEFAULT UND _ZN7android8hardware6came
70:   FUNC GLOBAL DEFAULT UND _ZN7android8hardware6came
71:   FUNC GLOBAL DEFAULT UND _ZN7android8hardware6came
72:   FUNC GLOBAL DEFAULT UND _ZN7android8hardware6came
73:   FUNC GLOBAL DEFAULT UND _ZN7android8hardware6came
74:   FUNC GLOBAL DEFAULT UND _ZN7android8hardware6came
75:   FUNC GLOBAL DEFAULT UND _ZN7android8hardware6came
76:   FUNC GLOBAL DEFAULT UND _ZN7android8hardware6came
77:   FUNC GLOBAL DEFAULT UND _ZN7android8hardware6came
78:   FUNC GLOBAL DEFAULT UND _ZN7android8hardware6came
79:   FUNC GLOBAL DEFAULT UND _ZN7android8hardware6came
80:   FUNC GLOBAL DEFAULT UND _ZN7android8hardware6came
81:   FUNC GLOBAL DEFAULT UND _ZN7android8hardware6came
82:   FUNC GLOBAL DEFAULT UND _ZN7android8hardware6came
83:   FUNC GLOBAL DEFAULT UND _ZN7android8hardware6came
84:   FUNC GLOBAL DEFAULT UND _ZN7android8hardware6came
85:   FUNC GLOBAL DEFAULT UND _ZN7android8hardware6came
86:   FUNC GLOBAL DEFAULT UND _ZN7android8hardware6came
87:   FUNC GLOBAL DEFAULT UND _ZN7android8hardware6came
88:   FUNC GLOBAL DEFAULT UND _ZN7android8hardware6came
89:   FUNC GLOBAL DEFAULT UND _ZN7android8hardware6came
90:   FUNC GLOBAL DEFAULT UND _ZN7android8hardware6came
91:   FUNC GLOBAL DEFAULT UND _ZN7android8hardware7IBin
92:   FUNC GLOBAL DEFAULT UND _ZN7android8hardware7IBin
93:   FUNC GLOBAL DEFAULT UND _ZN7android8hardware7IBin
94:   FUNC GLOBAL DEFAULT UND _ZN7android8hardware7IBin
95:   FUNC GLOBAL DEFAULT UND _ZN7android8hardware7deta
96:   FUNC GLOBAL DEFAULT UND _ZN7android8hardware7deta
97:   FUNC GLOBAL DEFAULT UND _ZN7android8hardware7deta
98:   FUNC GLOBAL DEFAULT UND _ZN7android8hardware7deta
99:   FUNC GLOBAL DEFAULT UND _ZN7android8hardware7deta
100:   FUNC GLOBAL DEFAULT UND _ZN7android8hardware7deta
101:   FUNC GLOBAL DEFAULT UND _ZN7android8hardware7deta
102:   OBJECT GLOBAL DEFAULT UND _ZN7android8hardware7deta
103:   OBJECT GLOBAL DEFAULT UND _ZN7android8hardware7deta
104:   FUNC GLOBAL DEFAULT UND _ZN7android8hardware7deta
105:   FUNC GLOBAL DEFAULT UND _ZN7android8hardware7deta
106:   FUNC GLOBAL DEFAULT UND _ZN7android8hardware7deta
107:   FUNC GLOBAL DEFAULT UND _ZN7android8hardware7deta
108:   FUNC GLOBAL DEFAULT UND _ZN7android8hardware7deta
109:   FUNC GLOBAL DEFAULT UND _ZN7android8hardware7deta
110:   FUNC GLOBAL DEFAULT UND _ZN7android8hardware7deta
111:   FUNC GLOBAL DEFAULT UND _ZN7android8hardware7deta
112:   FUNC GLOBAL DEFAULT UND _ZN7android8hardware7deta
113:   FUNC GLOBAL DEFAULT UND _ZN7android8hardware7deta
114:   OBJECT GLOBAL DEFAULT UND _ZN7android8hardware7deta
115:   FUNC GLOBAL DEFAULT UND _ZN7android8hardware9BHwB
116:   FUNC GLOBAL DEFAULT UND _ZN7android8hardware9BHwB
117:   FUNC GLOBAL DEFAULT UND _ZN7android8hardware9BHwB
118:   FUNC GLOBAL DEFAULT UND _ZN7android8hardware9BHwB
119:   FUNC GLOBAL DEFAULT UND _ZN7android8hardware9BHwB
120:   FUNC GLOBAL DEFAULT UND _ZN7android8hardware9BHwB
121:   FUNC GLOBAL DEFAULT UND _ZN7android8hardware9BHwB
122:   FUNC GLOBAL DEFAULT UND _ZN7android8hardware9BHwB
123:   FUNC GLOBAL DEFAULT UND _ZN7android8hardware9BHwB
124:   FUNC GLOBAL DEFAULT UND _ZN7android8hardware9BHwB
125:   FUNC GLOBAL DEFAULT UND _ZNK7android7RefBase10cre
126:   FUNC GLOBAL DEFAULT UND _ZNK7android7RefBase11get
127:   FUNC GLOBAL DEFAULT UND _ZNK7android7RefBase9decS
128:   FUNC GLOBAL DEFAULT UND _ZNK7android7RefBase9incS
129:   FUNC GLOBAL DEFAULT UND _ZNK7android8hardware6Par
130:   FUNC GLOBAL DEFAULT UND _ZNK7android8hardware6Par
131:   FUNC GLOBAL DEFAULT UND _ZNK7android8hardware7IBi
132:   FUNC GLOBAL DEFAULT UND _ZNK7android8hardware7det
133:   FUNC GLOBAL DEFAULT UND _ZNK7android8hardware9BHw
134:   FUNC GLOBAL DEFAULT UND _ZNKSt3__120__vector_base
135:   FUNC GLOBAL DEFAULT UND _ZNKSt3__121__basic_strin
136:   FUNC GLOBAL DEFAULT UND _ZNSt3__112basic_stringIc
137:   FUNC GLOBAL DEFAULT UND _ZNSt3__112basic_stringIc
138:   FUNC GLOBAL DEFAULT UND _ZNSt3__15mutex4lockEv
139:   FUNC GLOBAL DEFAULT UND _ZNSt3__15mutex6unlockEv
140:   FUNC GLOBAL DEFAULT UND _ZNSt3__15mutexD1Ev
141:   FUNC GLOBAL DEFAULT UND _ZTv0_n12_N7android4hidl4
142:   FUNC GLOBAL DEFAULT UND _ZTv0_n12_N7android4hidl4
143:   FUNC GLOBAL DEFAULT UND _ZTv0_n12_N7android8hardw
144:   FUNC GLOBAL DEFAULT UND _ZTv0_n12_N7android8hardw
145:   FUNC GLOBAL DEFAULT UND _ZTv0_n12_N7android8hardw
146:   FUNC GLOBAL DEFAULT UND _ZTv0_n12_N7android8hardw
147:   FUNC GLOBAL DEFAULT UND _ZTv0_n12_N7android8hardw
148:   FUNC GLOBAL DEFAULT UND _ZTv0_n12_N7android8hardw
149:   FUNC GLOBAL DEFAULT UND _ZTv0_n12_N7android8hardw
150:   FUNC GLOBAL DEFAULT UND _ZTv0_n12_N7android8hardw
151:   FUNC GLOBAL DEFAULT UND _ZTv0_n16_N7android8hardw
152:   FUNC GLOBAL DEFAULT UND _ZTv0_n20_N7android8hardw
153:   FUNC GLOBAL DEFAULT UND _ZTv0_n24_N7android8hardw
154:   FUNC GLOBAL DEFAULT UND _ZdaPv
155:   FUNC GLOBAL DEFAULT UND _ZdlPv
156:   FUNC GLOBAL DEFAULT UND _Znaj
157:   FUNC GLOBAL DEFAULT UND _Znwj
158:   FUNC GLOBAL DEFAULT UND __cxa_pure_virtual
159:   FUNC GLOBAL DEFAULT UND __stack_chk_fail@LIBC (2)
160:   OBJECT GLOBAL DEFAULT UND __stack_chk_guard@LIBC (2)
161:   FUNC GLOBAL DEFAULT UND abort@LIBC (2)
162:   FUNC GLOBAL DEFAULT UND atrace_begin_body
163:   OBJECT GLOBAL DEFAULT UND atrace_enabled_tags
164:   FUNC GLOBAL DEFAULT UND atrace_end_body
165:   OBJECT GLOBAL DEFAULT UND atrace_is_ready
166:   FUNC GLOBAL DEFAULT UND atrace_setup
167:   FUNC GLOBAL DEFAULT UND memcmp@LIBC (2)
168:   FUNC GLOBAL DEFAULT UND strlen@LIBC (2)
169:   FUNC GLOBAL DEFAULT UND memcpy@LIBC (2)
170:   FUNC GLOBAL DEFAULT UND memset@LIBC (2)
171:   FUNC GLOBAL DEFAULT 14 _ZN7android8hardware6came
172:   FUNC GLOBAL DEFAULT 14 _ZN7android8hardware6came
173:   FUNC GLOBAL DEFAULT 14 _ZN7android8hardware6came
174:   FUNC WEAK DEFAULT 14 _ZNSt3__16vectorINS_8func
175:   FUNC WEAK DEFAULT 14 _ZNSt3__16vectorIPvNS_9al
176:   OBJECT GLOBAL DEFAULT 18 _ZTCN7android8hardware6ca
177:   OBJECT GLOBAL DEFAULT 18 _ZTCN7android8hardware6ca
178:   FUNC GLOBAL DEFAULT 14 _ZTv0_n12_N7android8hardw
179:   FUNC GLOBAL DEFAULT 14 _ZN7android8hardware6came
180:   FUNC GLOBAL DEFAULT 14 _ZN7android8hardware6came
181:   FUNC GLOBAL DEFAULT 14 _ZN7android8hardware6came
182:   FUNC WEAK DEFAULT 14 _ZNSt3__16__treeINS_12__v
183:   OBJECT WEAK DEFAULT 18 _ZTCN7android8hardware6ca
184:   FUNC GLOBAL DEFAULT 14 _ZThn20_N7android8hardwar
185:   FUNC GLOBAL DEFAULT 14 _ZN7android8hardware6came
186:   FUNC GLOBAL DEFAULT 14 _ZN7android8hardware6came
187:   FUNC WEAK DEFAULT 14 _ZN7android8hardware7deta
188:   FUNC WEAK DEFAULT 14 _ZNSt3__16__treeINS_12__v
189:   OBJECT WEAK DEFAULT 18 _ZTVN7android8hardware6ca
190:   FUNC WEAK DEFAULT 14 _ZN7android8hardware7deta
191:   FUNC GLOBAL DEFAULT 14 _ZN7android8hardware6came
192:   FUNC GLOBAL DEFAULT 14 _ZN7android8hardware6came
193:   FUNC GLOBAL DEFAULT 14 _ZN7android8hardware6came
194:   FUNC GLOBAL DEFAULT 14 _ZN7android8hardware6came
195:   OBJECT GLOBAL DEFAULT 18 _ZTTN7android8hardware6ca
196:   FUNC GLOBAL DEFAULT 14 _ZN7android8hardware6came
197:   OBJECT GLOBAL DEFAULT 18 _ZTCN7android8hardware6ca
198:   OBJECT GLOBAL DEFAULT 18 _ZTCN7android8hardware6ca
199:   FUNC GLOBAL DEFAULT 14 _ZN7android8hardware6came
200:   FUNC GLOBAL DEFAULT 14 _ZN7android8hardware6came
201:   FUNC GLOBAL DEFAULT 14 __aeabi_memset
202:   FUNC GLOBAL DEFAULT 14 _ZN7android8hardware6came
203:   OBJECT GLOBAL DEFAULT 18 _ZTCN7android8hardware6ca
204:   OBJECT GLOBAL DEFAULT 18 _ZTCN7android8hardware6ca
205:   OBJECT GLOBAL DEFAULT 18 _ZTCN7android8hardware6ca
206:   FUNC GLOBAL DEFAULT 14 __aeabi_memclr4
207:   FUNC GLOBAL DEFAULT 14 _ZN7android8hardware6came
208:   FUNC GLOBAL DEFAULT 14 _ZN7android8hardware6came
209:   FUNC GLOBAL DEFAULT 14 _ZN7android8hardware6came
210:   FUNC GLOBAL DEFAULT 14 _ZN7android8hardware6came
211:   FUNC GLOBAL DEFAULT 14 _ZN7android8hardware6came
212:   FUNC GLOBAL DEFAULT 14 _ZN7android8hardware6came
213:   FUNC GLOBAL DEFAULT 14 _ZN7android8hardware6came
214:   FUNC GLOBAL DEFAULT 14 _ZN7android8hardware6came
215:   FUNC WEAK DEFAULT 14 _ZN7android8hardware7deta
216:   OBJECT GLOBAL DEFAULT 18 _ZTCN7android8hardware6ca
217:   FUNC GLOBAL DEFAULT 14 _ZThn20_N7android8hardwar
218:   FUNC GLOBAL DEFAULT 14 __aeabi_memcpy4
219:   FUNC GLOBAL DEFAULT 14 __aeabi_memset4
220:   FUNC GLOBAL DEFAULT 14 _ZN7android8hardware6came
221:   FUNC GLOBAL DEFAULT 14 _ZN7android8hardware6came
222:   FUNC GLOBAL DEFAULT 14 _ZN7android8hardware6came
223:   OBJECT GLOBAL DEFAULT 18 _ZTCN7android8hardware6ca
224:   OBJECT GLOBAL DEFAULT 18 _ZTTN7android8hardware6ca
225:   FUNC GLOBAL DEFAULT 14 __aeabi_memclr8
226:   FUNC GLOBAL DEFAULT 14 _ZN7android8hardware6came
227:   FUNC GLOBAL DEFAULT 14 _ZN7android8hardware6came
228:   FUNC WEAK DEFAULT 14 _ZNSt3__16__treeINS_12__v
229:   OBJECT GLOBAL DEFAULT 18 _ZTCN7android8hardware6ca
230:   FUNC GLOBAL DEFAULT 14 _ZN7android8hardware6came
231:   FUNC WEAK DEFAULT 14 _ZNSt3__16__treeINS_12__v
232:   OBJECT GLOBAL DEFAULT 18 _ZTVN7android8hardware6ca
233:   FUNC GLOBAL DEFAULT 14 _ZN7android8hardware6came
234:   FUNC GLOBAL DEFAULT 14 _ZN7android8hardware6came
235:   OBJECT GLOBAL DEFAULT 18 _ZTTN7android8hardware6ca
236:   OBJECT GLOBAL DEFAULT 18 _ZTVN7android8hardware6ca
237:   FUNC GLOBAL DEFAULT 14 __aeabi_memcpy
238:   FUNC GLOBAL DEFAULT 14 __aeabi_memcpy8
239:   FUNC GLOBAL DEFAULT 14 __aeabi_memset8
240:   FUNC WEAK DEFAULT 14 _ZN7android8hardware7deta
241:   FUNC GLOBAL DEFAULT 14 _ZTv0_n12_N7android8hardw
242:   FUNC GLOBAL DEFAULT 14 _ZN7android8hardware6came
243:   FUNC GLOBAL DEFAULT 14 _ZN7android8hardware6came
244:   FUNC GLOBAL DEFAULT 14 _ZN7android8hardware6came
245:   FUNC GLOBAL DEFAULT 14 _ZN7android8hardware6came
246:   FUNC GLOBAL DEFAULT 14 _ZN7android8hardware6came
247:   FUNC WEAK DEFAULT 14 _ZNSt3__16__treeINS_12__v
248:   FUNC WEAK DEFAULT 14 _ZNSt3__16vectorIN7androi
249:   OBJECT GLOBAL DEFAULT 18 _ZTVN7android8hardware6ca
250:   FUNC GLOBAL DEFAULT 14 _ZN7android8hardware6came
251:   FUNC GLOBAL DEFAULT 14 _ZN7android8hardware6came
252:   FUNC GLOBAL DEFAULT 14 _ZN7android8hardware6came
253:   FUNC WEAK DEFAULT 14 _ZN7android8hardware7deta
254:   OBJECT GLOBAL DEFAULT 16 _ZN7android8hardware6came
255:   FUNC GLOBAL DEFAULT 14 _ZN7android8hardware6came
256:   FUNC WEAK DEFAULT 14 _ZNSt3__113__tree_removeI
257:   FUNC GLOBAL DEFAULT 14 __aeabi_memclr
258:   FUNC GLOBAL DEFAULT 14 _ZN7android8hardware6came
259:   FUNC GLOBAL DEFAULT 14 _ZN7android8hardware6came
260:   FUNC GLOBAL DEFAULT 14 _ZN7android8hardware6came
261:   FUNC GLOBAL DEFAULT 14 _ZN7android8hardware6came
262:   FUNC GLOBAL DEFAULT 14 _ZN7android8hardware6came
263:   FUNC WEAK DEFAULT 14 _ZN7android8hardware7deta
264:   FUNC WEAK DEFAULT 14 _ZNSt3__127__tree_balance
265:   FUNC WEAK DEFAULT 14 _ZNSt3__16__treeINS_12__v
266:   OBJECT GLOBAL DEFAULT 18 _ZTCN7android8hardware6ca
267:   FUNC GLOBAL DEFAULT 14 _ZN7android8hardware6came
268:   FUNC GLOBAL DEFAULT 14 _ZN7android8hardware6came
269:   FUNC GLOBAL DEFAULT 14 _ZN7android8hardware6came
