 0x0000000e (SONAME)                     Library soname: [libimg_utils.so]
  
Symbol   contains 210 entries:
Num:   Type Bind Vis Ndx Name
0:   NOTYPE LOCAL DEFAULT UND
1:   FUNC GLOBAL DEFAULT UND __cxa_atexit@LIBC (2)
2:   FUNC GLOBAL DEFAULT UND __cxa_finalize@LIBC (2)
3:   FUNC GLOBAL DEFAULT UND _ZdlPv
4:   FUNC GLOBAL DEFAULT UND __assert2@LIBC (2)
5:   FUNC GLOBAL DEFAULT UND __stack_chk_fail@LIBC (2)
6:   OBJECT GLOBAL DEFAULT UND __stack_chk_guard@LIBC (2)
7:   FUNC GLOBAL DEFAULT UND _ZN7android7String8C1ERKS
8:   FUNC GLOBAL DEFAULT UND _ZN7android7String8D1Ev
9:   FUNC GLOBAL DEFAULT UND __android_log_print@LIBLOG (3)
10:   FUNC GLOBAL DEFAULT UND fclose@LIBC (2)
11:   FUNC GLOBAL DEFAULT UND feof@LIBC (2)
12:   FUNC GLOBAL DEFAULT UND ferror@LIBC (2)
13:   FUNC GLOBAL DEFAULT UND fopen@LIBC (2)
14:   FUNC GLOBAL DEFAULT UND fread@LIBC (2)
15:   FUNC GLOBAL DEFAULT UND fwrite@LIBC (2)
16:   FUNC GLOBAL DEFAULT UND _ZN7android10VectorImpl13
17:   FUNC GLOBAL DEFAULT UND _ZN7android16SortedVector
18:   FUNC GLOBAL DEFAULT UND __cxa_pure_virtual
19:   FUNC GLOBAL DEFAULT UND _ZN7android10VectorImpl11
20:   FUNC GLOBAL DEFAULT UND _ZN7android10VectorImpl13
21:   FUNC GLOBAL DEFAULT UND _ZN7android10VectorImpl3a
22:   FUNC GLOBAL DEFAULT UND _ZN7android10VectorImpl6r
23:   FUNC GLOBAL DEFAULT UND _ZN7android10VectorImplC2
24:   FUNC GLOBAL DEFAULT UND _ZN7android10VectorImplD2
25:   FUNC GLOBAL DEFAULT UND _ZN7android14sp_report_ra
26:   FUNC GLOBAL DEFAULT UND _ZN7android16SortedVector
27:   FUNC GLOBAL DEFAULT UND _ZN7android16SortedVector
28:   FUNC GLOBAL DEFAULT UND _ZN7android7String812appe
29:   FUNC GLOBAL DEFAULT UND _ZN7android7String86appen
30:   FUNC GLOBAL DEFAULT UND _ZN7android7String86appen
31:   FUNC GLOBAL DEFAULT UND _ZN7android7String86appen
32:   FUNC GLOBAL DEFAULT UND _ZN7android7String8C1Ev
33:   FUNC GLOBAL DEFAULT UND _Znwj
34:   FUNC GLOBAL DEFAULT UND __android_log_assert@LIBLOG (3)
35:   FUNC GLOBAL DEFAULT UND _ZNK7android16SortedVecto
36:   FUNC GLOBAL DEFAULT UND _ZN7android10VectorImpl5c
37:   FUNC GLOBAL DEFAULT UND _ZNKSt3__120__vector_base
38:   FUNC GLOBAL DEFAULT UND memcpy@LIBC (2)
39:   FUNC GLOBAL DEFAULT UND memmove@LIBC (2)
40:   FUNC GLOBAL DEFAULT UND memset@LIBC (2)
41:   FUNC GLOBAL DEFAULT 14 _ZN7android9img_utils5Inp
42:   FUNC GLOBAL DEFAULT 14 _ZN7android9img_utils10Ti
43:   FUNC GLOBAL DEFAULT 14 _ZNK7android9img_utils10T
44:   FUNC GLOBAL DEFAULT 14 _ZN7android9img_utils12En
45:   FUNC GLOBAL DEFAULT 14 _ZN7android9img_utils12En
46:   FUNC GLOBAL DEFAULT 14 _ZN7android9img_utils15By
47:   FUNC GLOBAL DEFAULT 14 _ZN7android9img_utils9Fil
48:   OBJECT GLOBAL DEFAULT 18 _ZTVN7android9img_utils9F
49:   FUNC GLOBAL DEFAULT 14 _ZN7android9img_utils12Ti
50:   FUNC GLOBAL DEFAULT 14 _ZN7android9img_utils9Tif
51:   FUNC GLOBAL DEFAULT 14 _ZNK7android9img_utils7Ti
52:   FUNC GLOBAL DEFAULT 14 _ZN7android9img_utils10Ti
53:   OBJECT GLOBAL DEFAULT 18 _ZTVN7android9img_utils10
54:   FUNC GLOBAL DEFAULT 14 _ZN7android9img_utils17Op
55:   OBJECT GLOBAL DEFAULT 18 _ZTVN7android9img_utils10
56:   FUNC GLOBAL DEFAULT 14 _ZNK7android9img_utils7Ti
57:   FUNC GLOBAL DEFAULT 14 _ZNK7android9img_utils7Ti
58:   FUNC GLOBAL DEFAULT 14 _ZN7android9img_utils12En
59:   FUNC GLOBAL DEFAULT 14 _ZN7android9img_utils17Op
60:   FUNC GLOBAL DEFAULT 14 _ZNK7android9img_utils10T
61:   FUNC GLOBAL DEFAULT 14 _ZNK7android9img_utils10T
62:   FUNC GLOBAL DEFAULT 14 _ZN7android9img_utils17Op
63:   FUNC GLOBAL DEFAULT 14 _ZN7android9img_utils12En
64:   FUNC GLOBAL DEFAULT 14 _ZN7android9img_utils12En
65:   FUNC GLOBAL DEFAULT 14 _ZN7android9img_utils12En
66:   FUNC GLOBAL DEFAULT 14 _ZN7android9img_utils12En
67:   FUNC GLOBAL DEFAULT 14 _ZNK7android9img_utils7Ti
68:   FUNC GLOBAL DEFAULT 14 _ZN7android9img_utils10Ti
69:   FUNC GLOBAL DEFAULT 14 _ZN7android9img_utils9Tif
70:   FUNC GLOBAL DEFAULT 14 _ZN7android9img_utils15By
71:   FUNC GLOBAL DEFAULT 14 _ZN7android9img_utils17Op
72:   FUNC GLOBAL DEFAULT 14 __aeabi_memclr4
73:   FUNC GLOBAL DEFAULT 14 _ZN7android9img_utils10Ti
74:   FUNC GLOBAL DEFAULT 14 _ZN7android9img_utils17Op
75:   FUNC GLOBAL DEFAULT 14 _ZN7android9img_utils17Op
76:   OBJECT GLOBAL DEFAULT 18 _ZTVN7android9img_utils11
77:   OBJECT GLOBAL DEFAULT 18 _ZTVN7android9img_utils12
78:   FUNC GLOBAL DEFAULT 14 _ZNK7android9img_utils10T
79:   FUNC GLOBAL DEFAULT 14 _ZN7android9img_utils11St
80:   FUNC GLOBAL DEFAULT 14 __aeabi_memmove4
81:   FUNC GLOBAL DEFAULT 14 _ZN7android9img_utils10Fi
82:   FUNC GLOBAL DEFAULT 14 _ZNK7android9img_utils10T
83:   FUNC GLOBAL DEFAULT 14 _ZNK7android9img_utils12E
84:   FUNC GLOBAL DEFAULT 14 _ZN7android9img_utils10Ti
85:   FUNC GLOBAL DEFAULT 14 __aeabi_memclr8
86:   FUNC GLOBAL DEFAULT 14 _ZN7android9img_utils12En
87:   FUNC GLOBAL DEFAULT 14 _ZN7android9img_utils12En
88:   FUNC GLOBAL DEFAULT 14 _ZN7android9img_utils9Fil
89:   FUNC GLOBAL DEFAULT 14 _ZN7android9img_utils10Ti
90:   FUNC GLOBAL DEFAULT 14 _ZN7android9img_utils10Ti
91:   FUNC GLOBAL DEFAULT 14 _ZNK7android9img_utils15B
92:   FUNC GLOBAL DEFAULT 14 _ZN7android9img_utils11St
93:   FUNC GLOBAL DEFAULT 14 _ZN7android9img_utils9Fil
94:   FUNC GLOBAL DEFAULT 14 _ZNK7android9img_utils17O
95:   FUNC GLOBAL DEFAULT 14 __aeabi_memmove8
96:   FUNC GLOBAL DEFAULT 14 _ZNK7android9img_utils10T
97:   FUNC GLOBAL DEFAULT 14 _ZN7android9img_utils9Tif
98:   FUNC GLOBAL DEFAULT 14 _ZN7android9img_utils17Op
99:   FUNC GLOBAL DEFAULT 14 _ZN7android9img_utils12En
100:   OBJECT GLOBAL DEFAULT 18 _ZTVN7android9img_utils5I
101:   FUNC GLOBAL DEFAULT 14 _ZN7android9img_utils10Ti
102:   FUNC GLOBAL DEFAULT 14 _ZN7android9img_utils11St
103:   OBJECT GLOBAL DEFAULT 18 _ZTVN7android9img_utils15
104:   FUNC GLOBAL DEFAULT 14 _ZN7android9img_utils17Op
105:   FUNC GLOBAL DEFAULT 14 __aeabi_memcpy4
106:   FUNC GLOBAL DEFAULT 14 _ZN7android9img_utils10Fi
107:   FUNC GLOBAL DEFAULT 14 _ZN7android9img_utils9Ord
108:   FUNC GLOBAL DEFAULT 14 _ZN7android9img_utils7Tif
109:   FUNC GLOBAL DEFAULT 14 _ZN7android9img_utils7Tif
110:   FUNC GLOBAL DEFAULT 14 _ZN7android9img_utils12En
111:   FUNC GLOBAL DEFAULT 14 _ZN7android9img_utils12En
112:   FUNC GLOBAL DEFAULT 14 _ZN7android9img_utils10Fi
113:   FUNC GLOBAL DEFAULT 14 _ZN7android9img_utils7Tif
114:   FUNC GLOBAL DEFAULT 14 _ZNK7android9img_utils7Ti
115:   FUNC GLOBAL DEFAULT 14 _ZN7android9img_utils10Ti
116:   FUNC GLOBAL DEFAULT 14 _ZN7android9img_utils12En
117:   FUNC GLOBAL DEFAULT 14 _ZN7android9img_utils5Inp
118:   OBJECT GLOBAL DEFAULT 18 _ZTVN7android9img_utils9O
119:   FUNC GLOBAL DEFAULT 14 _ZNK7android9img_utils7Ti
120:   FUNC GLOBAL DEFAULT 14 _ZNK7android9img_utils7Ti
121:   FUNC GLOBAL DEFAULT 14 _ZN7android9img_utils17Op
122:   FUNC GLOBAL DEFAULT 14 __aeabi_memclr
123:   FUNC GLOBAL DEFAULT 14 _ZN7android9img_utils9Fil
124:   FUNC GLOBAL DEFAULT 14 _ZN7android9img_utils10Fi
125:   FUNC GLOBAL DEFAULT 14 _ZN7android9img_utils9Ord
126:   FUNC GLOBAL DEFAULT 14 _ZNK7android9img_utils7Ti
127:   FUNC GLOBAL DEFAULT 14 _ZNK7android9img_utils10T
128:   FUNC GLOBAL DEFAULT 14 __aeabi_memcpy8
129:   FUNC GLOBAL DEFAULT 14 _ZN7android9img_utils10Fi
130:   FUNC GLOBAL DEFAULT 14 _ZN7android9img_utils10Fi
131:   FUNC GLOBAL DEFAULT 14 _ZN7android9img_utils10Ti
132:   FUNC GLOBAL DEFAULT 14 _ZN7android9img_utils15By
133:   FUNC GLOBAL DEFAULT 14 _ZN7android9img_utils12En
134:   FUNC GLOBAL DEFAULT 14 _ZN7android9img_utils7Tif
135:   FUNC GLOBAL DEFAULT 14 _ZN7android9img_utils9Tif
136:   FUNC GLOBAL DEFAULT 14 _ZN7android9img_utils9Tif
137:   FUNC GLOBAL DEFAULT 14 _ZN7android9img_utils17Op
138:   FUNC GLOBAL DEFAULT 14 __aeabi_memset4
139:   FUNC GLOBAL DEFAULT 14 _ZN7android9img_utils9Ord
140:   FUNC GLOBAL DEFAULT 14 _ZNK7android9img_utils9Ti
141:   FUNC GLOBAL DEFAULT 14 _ZN7android9img_utils10Ti
142:   FUNC GLOBAL DEFAULT 14 _ZN7android9img_utils10Ti
143:   FUNC GLOBAL DEFAULT 14 _ZNK7android9img_utils12E
144:   FUNC GLOBAL DEFAULT 14 _ZN7android9img_utils10Fi
145:   FUNC GLOBAL DEFAULT 14 _ZN7android9img_utils10Ti
146:   FUNC GLOBAL DEFAULT 14 _ZNK7android9img_utils10T
147:   FUNC GLOBAL DEFAULT 14 _ZN7android9img_utils15By
148:   FUNC GLOBAL DEFAULT 14 _ZN7android9img_utils17Op
149:   FUNC GLOBAL DEFAULT 14 _ZN7android9img_utils12En
150:   FUNC GLOBAL DEFAULT 14 _ZN7android9img_utils10Ti
151:   FUNC GLOBAL DEFAULT 14 _ZN7android9img_utils9Tif
152:   FUNC GLOBAL DEFAULT 14 _ZN7android9img_utils17Op
153:   FUNC GLOBAL DEFAULT 14 _ZNK7android9img_utils17O
154:   OBJECT GLOBAL DEFAULT 18 _ZTVN7android9img_utils17
155:   FUNC GLOBAL DEFAULT 14 _ZNK7android9img_utils7Ti
156:   FUNC GLOBAL DEFAULT 14 __aeabi_memset8
157:   FUNC GLOBAL DEFAULT 14 _ZN7android9img_utils12En
158:   FUNC GLOBAL DEFAULT 14 _ZN7android9img_utils6Out
159:   FUNC GLOBAL DEFAULT 14 _ZN7android9img_utils15By
160:   FUNC GLOBAL DEFAULT 14 _ZN7android9img_utils15By
161:   FUNC GLOBAL DEFAULT 14 _ZN7android9img_utils6Out
162:   FUNC GLOBAL DEFAULT 14 _ZN7android9img_utils12Ti
163:   FUNC GLOBAL DEFAULT 14 _ZNK7android9img_utils7Ti
164:   FUNC GLOBAL DEFAULT 14 _ZN7android9img_utils9Tif
165:   FUNC GLOBAL DEFAULT 14 _ZN7android9img_utils12En
166:   FUNC GLOBAL DEFAULT 14 __aeabi_memmove
167:   FUNC GLOBAL DEFAULT 14 _ZNK7android9img_utils10T
168:   FUNC GLOBAL DEFAULT 14 _ZNK7android9img_utils15B
169:   FUNC GLOBAL DEFAULT 14 _ZN7android9img_utils10Ti
170:   OBJECT GLOBAL DEFAULT 18 _ZTVN7android9img_utils9T
171:   FUNC GLOBAL DEFAULT 14 _ZN7android9img_utils15By
172:   FUNC GLOBAL DEFAULT 14 _ZN7android9img_utils17Op
173:   OBJECT GLOBAL DEFAULT 18 _ZTVN7android9img_utils6O
174:   FUNC GLOBAL DEFAULT 14 _ZN7android9img_utils7Tif
175:   FUNC GLOBAL DEFAULT 14 _ZN7android9img_utils12Ti
176:   FUNC GLOBAL DEFAULT 14 _ZN7android9img_utils9Tif
177:   FUNC GLOBAL DEFAULT 14 _ZN7android9img_utils9Tif
178:   FUNC GLOBAL DEFAULT 14 __aeabi_memcpy
179:   FUNC GLOBAL DEFAULT 14 _ZN7android9img_utils6Out
180:   OBJECT GLOBAL DEFAULT 18 _ZTVN7android9img_utils12
181:   FUNC GLOBAL DEFAULT 14 _ZN7android9img_utils10Fi
182:   FUNC GLOBAL DEFAULT 14 _ZN7android9img_utils10Ti
183:   FUNC GLOBAL DEFAULT 14 _ZN7android9img_utils5Inp
184:   FUNC GLOBAL DEFAULT 14 _ZN7android9img_utils7Tif
185:   FUNC GLOBAL DEFAULT 14 _ZN7android9img_utils7Tif
186:   FUNC GLOBAL DEFAULT 14 _ZN7android9img_utils12Ti
187:   FUNC GLOBAL DEFAULT 14 _ZN7android9img_utils10Ti
188:   FUNC GLOBAL DEFAULT 14 _ZN7android9img_utils5Inp
189:   FUNC GLOBAL DEFAULT 14 _ZN7android9img_utils9Fil
190:   FUNC GLOBAL DEFAULT 14 _ZN7android9img_utils9Fil
191:   FUNC GLOBAL DEFAULT 14 _ZN7android9img_utils9Tif
192:   OBJECT GLOBAL DEFAULT 23 _ZN7android9img_utils10Ti
193:   FUNC GLOBAL DEFAULT 14 _ZN7android9img_utils9Tif
194:   FUNC GLOBAL DEFAULT 14 _ZN7android9img_utils6Out
195:   FUNC GLOBAL DEFAULT 14 _ZN7android9img_utils7Tif
196:   FUNC GLOBAL DEFAULT 14 _ZNK7android9img_utils7Ti
197:   FUNC GLOBAL DEFAULT 14 _ZNK7android9img_utils17O
198:   FUNC GLOBAL DEFAULT 14 __aeabi_memset
199:   FUNC GLOBAL DEFAULT 14 _ZN7android9img_utils9Fil
200:   FUNC GLOBAL DEFAULT 14 _ZN7android9img_utils7Tif
201:   FUNC GLOBAL DEFAULT 14 _ZN7android9img_utils7Tif
202:   OBJECT GLOBAL DEFAULT 18 _ZTVN7android9img_utils7T
203:   FUNC GLOBAL DEFAULT 14 _ZN7android9img_utils5Inp
204:   FUNC GLOBAL DEFAULT 14 _ZN7android9img_utils5Inp
205:   FUNC GLOBAL DEFAULT 14 _ZN7android9img_utils12En
206:   FUNC GLOBAL DEFAULT 14 _ZN7android9img_utils6Out
207:   FUNC GLOBAL DEFAULT 14 _ZN7android9img_utils15By
208:   FUNC GLOBAL DEFAULT 14 _ZN7android9img_utils9Fil
209:   FUNC GLOBAL DEFAULT 14 _ZN7android9img_utils17Op
