 0x0000000e (SONAME)                     Library soname: [libandroidio.so]
  
Symbol   contains 28 entries:
Num:   Type Bind Vis Ndx Name
0:   NOTYPE LOCAL DEFAULT UND
1:   FUNC GLOBAL DEFAULT UND __cxa_atexit@LIBC (2)
2:   FUNC GLOBAL DEFAULT UND __cxa_finalize@LIBC (2)
3:   FUNC GLOBAL DEFAULT UND _ZNSt3__15mutex4lockEv
4:   FUNC GLOBAL DEFAULT UND _ZNSt3__15mutex6unlockEv
5:   FUNC GLOBAL DEFAULT UND _ZNSt3__15mutexD1Ev
6:   FUNC GLOBAL DEFAULT UND _ZdlPv
7:   FUNC GLOBAL DEFAULT UND _Znwj
8:   FUNC GLOBAL DEFAULT UND __android_log_print@LIBLOG (3)
9:   FUNC GLOBAL DEFAULT UND __errno@LIBC (2)
10:   FUNC GLOBAL DEFAULT UND __stack_chk_fail@LIBC (2)
11:   OBJECT GLOBAL DEFAULT UND __stack_chk_guard@LIBC (2)
12:   FUNC GLOBAL DEFAULT UND pthread_kill@LIBC (2)
13:   FUNC GLOBAL DEFAULT UND pthread_self@LIBC (2)
14:   FUNC GLOBAL DEFAULT UND sigaction@LIBC (2)
15:   FUNC GLOBAL DEFAULT UND strerror@LIBC (2)
16:   FUNC GLOBAL DEFAULT UND memset@LIBC (2)
17:   FUNC GLOBAL DEFAULT 13 async_close_monitor_creat
18:   FUNC GLOBAL DEFAULT 13 async_close_monitor_destr
19:   FUNC GLOBAL DEFAULT 13 __aeabi_memclr
20:   FUNC GLOBAL DEFAULT 13 __aeabi_memclr4
21:   FUNC GLOBAL DEFAULT 13 __aeabi_memclr8
22:   FUNC GLOBAL DEFAULT 13 async_close_monitor_signa
23:   FUNC GLOBAL DEFAULT 13 async_close_monitor_stati
24:   FUNC GLOBAL DEFAULT 13 async_close_monitor_was_s
25:   FUNC GLOBAL DEFAULT 13 __aeabi_memset
26:   FUNC GLOBAL DEFAULT 13 __aeabi_memset4
27:   FUNC GLOBAL DEFAULT 13 __aeabi_memset8
