 0x0000000e (SONAME)                     Library soname: [android.hardware.radio.config@1.0.so]
  
Symbol   contains 388 entries:
Num:   Type Bind Vis Ndx Name
0:   NOTYPE LOCAL DEFAULT UND
1:   FUNC GLOBAL DEFAULT UND __cxa_finalize@LIBC (2)
2:   FUNC GLOBAL DEFAULT UND _ZN7android14sp_report_ra
3:   FUNC GLOBAL DEFAULT UND _ZN7android21report_syspr
4:   OBJECT GLOBAL DEFAULT UND _ZN7android4hidl4base4V1_
5:   FUNC GLOBAL DEFAULT UND _ZN7android4hidl4base4V1_
6:   FUNC GLOBAL DEFAULT UND _ZN7android4hidl4base4V1_
7:   FUNC GLOBAL DEFAULT UND _ZN7android4hidl4base4V1_
8:   FUNC GLOBAL DEFAULT UND _ZN7android4hidl4base4V1_
9:   FUNC GLOBAL DEFAULT UND _ZN7android4hidl4base4V1_
10:   FUNC GLOBAL DEFAULT UND _ZN7android4hidl4base4V1_
11:   FUNC GLOBAL DEFAULT UND _ZN7android4hidl4base4V1_
12:   FUNC GLOBAL DEFAULT UND _ZN7android4hidl4base4V1_
13:   FUNC GLOBAL DEFAULT UND _ZN7android4hidl4base4V1_
14:   FUNC GLOBAL DEFAULT UND _ZN7android4hidl4base4V1_
15:   FUNC GLOBAL DEFAULT UND _ZN7android4hidl4base4V1_
16:   FUNC GLOBAL DEFAULT UND _ZN7android4hidl4base4V1_
17:   FUNC GLOBAL DEFAULT UND _ZN7android4hidl4base4V1_
18:   FUNC GLOBAL DEFAULT UND _ZN7android4hidl4base4V1_
19:   FUNC GLOBAL DEFAULT UND _ZN7android4hidl4base4V1_
20:   FUNC GLOBAL DEFAULT UND _ZN7android4hidl4base4V1_
21:   FUNC GLOBAL DEFAULT UND _ZN7android4hidl4base4V1_
22:   FUNC GLOBAL DEFAULT UND _ZN7android4hidl4base4V1_
23:   FUNC GLOBAL DEFAULT UND _ZN7android4hidl4base4V1_
24:   FUNC GLOBAL DEFAULT UND _ZN7android4hidl4base4V1_
25:   FUNC GLOBAL DEFAULT UND _ZN7android4hidl4base4V1_
26:   FUNC GLOBAL DEFAULT UND _ZN7android4hidl4base4V1_
27:   FUNC GLOBAL DEFAULT UND _ZN7android4hidl4base4V1_
28:   FUNC GLOBAL DEFAULT UND _ZN7android7RefBase10onFi
29:   FUNC GLOBAL DEFAULT UND _ZN7android7RefBase12weak
30:   FUNC GLOBAL DEFAULT UND _ZN7android7RefBase13onLa
31:   FUNC GLOBAL DEFAULT UND _ZN7android7RefBase15onLa
32:   FUNC GLOBAL DEFAULT UND _ZN7android7RefBase20onIn
33:   FUNC GLOBAL DEFAULT UND _ZN7android7RefBaseC2Ev
34:   FUNC GLOBAL DEFAULT UND _ZN7android7RefBaseD2Ev
35:   FUNC GLOBAL DEFAULT UND _ZN7android8hardware10IIn
36:   FUNC GLOBAL DEFAULT UND _ZN7android8hardware10IIn
37:   FUNC GLOBAL DEFAULT UND _ZN7android8hardware10IIn
38:   FUNC GLOBAL DEFAULT UND _ZN7android8hardware10IIn
39:   FUNC GLOBAL DEFAULT UND _ZN7android8hardware10IIn
40:   FUNC GLOBAL DEFAULT UND _ZN7android8hardware11BpH
41:   FUNC GLOBAL DEFAULT UND _ZN7android8hardware11BpH
42:   FUNC GLOBAL DEFAULT UND _ZN7android8hardware11BpH
43:   FUNC GLOBAL DEFAULT UND _ZN7android8hardware11BpH
44:   FUNC GLOBAL DEFAULT UND _ZN7android8hardware11BpH
45:   FUNC GLOBAL DEFAULT UND _ZN7android8hardware11BpH
46:   FUNC GLOBAL DEFAULT UND _ZN7android8hardware11BpH
47:   FUNC GLOBAL DEFAULT UND _ZN7android8hardware11hid
48:   FUNC GLOBAL DEFAULT UND _ZN7android8hardware11hid
49:   FUNC GLOBAL DEFAULT UND _ZN7android8hardware11hid
50:   FUNC GLOBAL DEFAULT UND _ZN7android8hardware11hid
51:   FUNC GLOBAL DEFAULT UND _ZN7android8hardware11hid
52:   FUNC GLOBAL DEFAULT UND _ZN7android8hardware12Pro
53:   FUNC GLOBAL DEFAULT UND _ZN7android8hardware12Pro
54:   FUNC GLOBAL DEFAULT UND _ZN7android8hardware13wri
55:   FUNC GLOBAL DEFAULT UND _ZN7android8hardware14rea
56:   FUNC GLOBAL DEFAULT UND _ZN7android8hardware21def
57:   FUNC GLOBAL DEFAULT UND _ZN7android8hardware23get
58:   FUNC GLOBAL DEFAULT UND _ZN7android8hardware27hid
59:   FUNC GLOBAL DEFAULT UND _ZN7android8hardware27hid
60:   FUNC GLOBAL DEFAULT UND _ZN7android8hardware6Parc
61:   FUNC GLOBAL DEFAULT UND _ZN7android8hardware6Parc
62:   FUNC GLOBAL DEFAULT UND _ZN7android8hardware6Parc
63:   FUNC GLOBAL DEFAULT UND _ZN7android8hardware6Parc
64:   FUNC GLOBAL DEFAULT UND _ZN7android8hardware6Parc
65:   FUNC GLOBAL DEFAULT UND _ZN7android8hardware6Parc
66:   FUNC GLOBAL DEFAULT UND _ZN7android8hardware6Parc
67:   FUNC GLOBAL DEFAULT UND _ZN7android8hardware6Stat
68:   FUNC GLOBAL DEFAULT UND _ZN7android8hardware6Stat
69:   FUNC GLOBAL DEFAULT UND _ZN7android8hardware6Stat
70:   FUNC GLOBAL DEFAULT UND _ZN7android8hardware6Stat
71:   FUNC GLOBAL DEFAULT UND _ZN7android8hardware7IBin
72:   FUNC GLOBAL DEFAULT UND _ZN7android8hardware7IBin
73:   FUNC GLOBAL DEFAULT UND _ZN7android8hardware7IBin
74:   FUNC GLOBAL DEFAULT UND _ZN7android8hardware7IBin
75:   FUNC GLOBAL DEFAULT UND _ZN7android8hardware7deta
76:   FUNC GLOBAL DEFAULT UND _ZN7android8hardware7deta
77:   FUNC GLOBAL DEFAULT UND _ZN7android8hardware7deta
78:   FUNC GLOBAL DEFAULT UND _ZN7android8hardware7deta
79:   FUNC GLOBAL DEFAULT UND _ZN7android8hardware7deta
80:   FUNC GLOBAL DEFAULT UND _ZN7android8hardware7deta
81:   FUNC GLOBAL DEFAULT UND _ZN7android8hardware7deta
82:   OBJECT GLOBAL DEFAULT UND _ZN7android8hardware7deta
83:   OBJECT GLOBAL DEFAULT UND _ZN7android8hardware7deta
84:   FUNC GLOBAL DEFAULT UND _ZN7android8hardware7deta
85:   FUNC GLOBAL DEFAULT UND _ZN7android8hardware7deta
86:   FUNC GLOBAL DEFAULT UND _ZN7android8hardware7deta
87:   FUNC GLOBAL DEFAULT UND _ZN7android8hardware7deta
88:   FUNC GLOBAL DEFAULT UND _ZN7android8hardware7deta
89:   FUNC GLOBAL DEFAULT UND _ZN7android8hardware7deta
90:   FUNC GLOBAL DEFAULT UND _ZN7android8hardware7deta
91:   FUNC GLOBAL DEFAULT UND _ZN7android8hardware7deta
92:   FUNC GLOBAL DEFAULT UND _ZN7android8hardware7deta
93:   FUNC GLOBAL DEFAULT UND _ZN7android8hardware7deta
94:   OBJECT GLOBAL DEFAULT UND _ZN7android8hardware7deta
95:   FUNC GLOBAL DEFAULT UND _ZN7android8hardware9BHwB
96:   FUNC GLOBAL DEFAULT UND _ZN7android8hardware9BHwB
97:   FUNC GLOBAL DEFAULT UND _ZN7android8hardware9BHwB
98:   FUNC GLOBAL DEFAULT UND _ZN7android8hardware9BHwB
99:   FUNC GLOBAL DEFAULT UND _ZN7android8hardware9BHwB
100:   FUNC GLOBAL DEFAULT UND _ZN7android8hardware9BHwB
101:   FUNC GLOBAL DEFAULT UND _ZN7android8hardware9BHwB
102:   FUNC GLOBAL DEFAULT UND _ZN7android8hardware9BHwB
103:   FUNC GLOBAL DEFAULT UND _ZN7android8hardware9BHwB
104:   FUNC GLOBAL DEFAULT UND _ZN7android8hardware9BHwB
105:   FUNC GLOBAL DEFAULT UND _ZNK7android7RefBase10cre
106:   FUNC GLOBAL DEFAULT UND _ZNK7android7RefBase11get
107:   FUNC GLOBAL DEFAULT UND _ZNK7android7RefBase9decS
108:   FUNC GLOBAL DEFAULT UND _ZNK7android7RefBase9incS
109:   FUNC GLOBAL DEFAULT UND _ZNK7android8hardware6Par
110:   FUNC GLOBAL DEFAULT UND _ZNK7android8hardware6Par
111:   FUNC GLOBAL DEFAULT UND _ZNK7android8hardware6Par
112:   FUNC GLOBAL DEFAULT UND _ZNK7android8hardware6Par
113:   FUNC GLOBAL DEFAULT UND _ZNK7android8hardware6Par
114:   FUNC GLOBAL DEFAULT UND _ZNK7android8hardware7IBi
115:   FUNC GLOBAL DEFAULT UND _ZNK7android8hardware7det
116:   FUNC GLOBAL DEFAULT UND _ZNK7android8hardware9BHw
117:   FUNC GLOBAL DEFAULT UND _ZNKSt3__120__vector_base
118:   FUNC GLOBAL DEFAULT UND _ZNKSt3__121__basic_strin
119:   FUNC GLOBAL DEFAULT UND _ZNSt3__112basic_stringIc
120:   FUNC GLOBAL DEFAULT UND _ZNSt3__15mutex4lockEv
121:   FUNC GLOBAL DEFAULT UND _ZNSt3__15mutex6unlockEv
122:   FUNC GLOBAL DEFAULT UND _ZNSt3__15mutexD1Ev
123:   FUNC GLOBAL DEFAULT UND _ZTv0_n12_N7android4hidl4
124:   FUNC GLOBAL DEFAULT UND _ZTv0_n12_N7android4hidl4
125:   FUNC GLOBAL DEFAULT UND _ZTv0_n12_N7android8hardw
126:   FUNC GLOBAL DEFAULT UND _ZTv0_n12_N7android8hardw
127:   FUNC GLOBAL DEFAULT UND _ZTv0_n12_N7android8hardw
128:   FUNC GLOBAL DEFAULT UND _ZTv0_n12_N7android8hardw
129:   FUNC GLOBAL DEFAULT UND _ZTv0_n12_N7android8hardw
130:   FUNC GLOBAL DEFAULT UND _ZTv0_n12_N7android8hardw
131:   FUNC GLOBAL DEFAULT UND _ZTv0_n12_N7android8hardw
132:   FUNC GLOBAL DEFAULT UND _ZTv0_n12_N7android8hardw
133:   FUNC GLOBAL DEFAULT UND _ZTv0_n16_N7android8hardw
134:   FUNC GLOBAL DEFAULT UND _ZTv0_n20_N7android8hardw
135:   FUNC GLOBAL DEFAULT UND _ZTv0_n24_N7android8hardw
136:   FUNC GLOBAL DEFAULT UND _ZdaPv
137:   FUNC GLOBAL DEFAULT UND _ZdlPv
138:   FUNC GLOBAL DEFAULT UND _Znaj
139:   FUNC GLOBAL DEFAULT UND _Znwj
140:   FUNC GLOBAL DEFAULT UND __cxa_pure_virtual
141:   FUNC GLOBAL DEFAULT UND __stack_chk_fail@LIBC (2)
142:   OBJECT GLOBAL DEFAULT UND __stack_chk_guard@LIBC (2)
143:   FUNC GLOBAL DEFAULT UND abort@LIBC (2)
144:   FUNC GLOBAL DEFAULT UND atrace_begin_body
145:   OBJECT GLOBAL DEFAULT UND atrace_enabled_tags
146:   FUNC GLOBAL DEFAULT UND atrace_end_body
147:   OBJECT GLOBAL DEFAULT UND atrace_is_ready
148:   FUNC GLOBAL DEFAULT UND atrace_setup
149:   FUNC GLOBAL DEFAULT UND memcmp@LIBC (2)
150:   FUNC GLOBAL DEFAULT UND strlen@LIBC (2)
151:   FUNC GLOBAL DEFAULT UND _ZN7android8hardware21wri
152:   FUNC GLOBAL DEFAULT UND _ZN7android8hardware22rea
153:   FUNC GLOBAL DEFAULT UND memcpy@LIBC (2)
154:   FUNC GLOBAL DEFAULT UND memset@LIBC (2)
155:   FUNC GLOBAL DEFAULT 14 _ZN7android8hardware5radi
156:   FUNC GLOBAL DEFAULT 14 _ZN7android8hardware5radi
157:   FUNC GLOBAL DEFAULT 14 _ZN7android8hardware5radi
158:   FUNC GLOBAL DEFAULT 14 _ZN7android8hardware5radi
159:   FUNC GLOBAL DEFAULT 14 _ZN7android8hardware5radi
160:   FUNC GLOBAL DEFAULT 14 _ZN7android8hardware5radi
161:   FUNC GLOBAL DEFAULT 14 _ZN7android8hardware5radi
162:   FUNC GLOBAL DEFAULT 14 _ZN7android8hardware5radi
163:   OBJECT GLOBAL DEFAULT 18 _ZTCN7android8hardware5ra
164:   FUNC GLOBAL DEFAULT 14 _ZN7android8hardware5radi
165:   OBJECT GLOBAL DEFAULT 18 _ZTVN7android8hardware5ra
166:   OBJECT GLOBAL DEFAULT 18 _ZTCN7android8hardware5ra
167:   FUNC GLOBAL DEFAULT 14 _ZN7android8hardware5radi
168:   FUNC WEAK DEFAULT 14 _ZN7android8hardware7deta
169:   FUNC GLOBAL DEFAULT 14 _ZThn20_N7android8hardwar
170:   FUNC GLOBAL DEFAULT 14 _ZN7android8hardware5radi
171:   OBJECT GLOBAL DEFAULT 18 _ZTCN7android8hardware5ra
172:   FUNC GLOBAL DEFAULT 14 _ZN7android8hardware5radi
173:   OBJECT GLOBAL DEFAULT 18 _ZTCN7android8hardware5ra
174:   FUNC GLOBAL DEFAULT 14 _ZN7android8hardware5radi
175:   FUNC GLOBAL DEFAULT 14 _ZN7android8hardware5radi
176:   FUNC GLOBAL DEFAULT 14 _ZN7android8hardware5radi
177:   OBJECT GLOBAL DEFAULT 18 _ZTTN7android8hardware5ra
178:   FUNC GLOBAL DEFAULT 14 _ZN7android8hardware5radi
179:   FUNC GLOBAL DEFAULT 14 _ZN7android8hardware5radi
180:   FUNC GLOBAL DEFAULT 14 _ZN7android8hardware5radi
181:   OBJECT WEAK DEFAULT 18 _ZTVN7android8hardware5ra
182:   FUNC GLOBAL DEFAULT 14 _ZN7android8hardware5radi
183:   FUNC GLOBAL DEFAULT 14 _ZN7android8hardware5radi
184:   OBJECT GLOBAL DEFAULT 18 _ZTCN7android8hardware5ra
185:   FUNC GLOBAL DEFAULT 14 __aeabi_memclr4
186:   FUNC GLOBAL DEFAULT 14 _ZN7android8hardware5radi
187:   OBJECT GLOBAL DEFAULT 18 _ZTVN7android8hardware5ra
188:   FUNC GLOBAL DEFAULT 14 _ZN7android8hardware5radi
189:   FUNC GLOBAL DEFAULT 14 _ZN7android8hardware5radi
190:   FUNC GLOBAL DEFAULT 14 _ZN7android8hardware5radi
191:   FUNC GLOBAL DEFAULT 14 _ZN7android8hardware5radi
192:   FUNC WEAK DEFAULT 14 _ZN7android8hardware10fro
193:   FUNC WEAK DEFAULT 14 _ZNSt3__113__tree_removeI
194:   FUNC GLOBAL DEFAULT 14 _ZN7android8hardware5radi
195:   FUNC GLOBAL DEFAULT 14 _ZThn20_N7android8hardwar
196:   FUNC WEAK DEFAULT 14 _ZN7android8hardware7deta
197:   FUNC WEAK DEFAULT 14 _ZNSt3__16vectorIN7androi
198:   FUNC WEAK DEFAULT 14 _ZN7android8hardware7deta
199:   OBJECT GLOBAL DEFAULT 18 _ZTTN7android8hardware5ra
200:   FUNC GLOBAL DEFAULT 14 _ZN7android8hardware5radi
201:   FUNC GLOBAL DEFAULT 14 _ZTv0_n12_N7android8hardw
202:   FUNC GLOBAL DEFAULT 14 __aeabi_memclr8
203:   FUNC GLOBAL DEFAULT 14 _ZN7android8hardware5radi
204:   FUNC GLOBAL DEFAULT 14 __aeabi_memcpy4
205:   OBJECT GLOBAL DEFAULT 18 _ZTCN7android8hardware5ra
206:   FUNC GLOBAL DEFAULT 14 _ZN7android8hardware5radi
207:   OBJECT GLOBAL DEFAULT 18 _ZTVN7android8hardware5ra
208:   FUNC GLOBAL DEFAULT 14 _ZN7android8hardware5radi
209:   FUNC GLOBAL DEFAULT 14 _ZN7android8hardware5radi
210:   FUNC GLOBAL DEFAULT 14 _ZN7android8hardware5radi
211:   FUNC GLOBAL DEFAULT 14 _ZN7android8hardware5radi
212:   FUNC WEAK DEFAULT 14 _ZNSt3__16__treeINS_12__v
213:   FUNC GLOBAL DEFAULT 14 __aeabi_memcpy
214:   FUNC GLOBAL DEFAULT 14 _ZN7android8hardware5radi
215:   OBJECT WEAK DEFAULT 18 _ZTVN7android8hardware5ra
216:   FUNC GLOBAL DEFAULT 14 _ZN7android8hardware5radi
217:   FUNC WEAK DEFAULT 14 _ZN7android8hardware7deta
218:   FUNC GLOBAL DEFAULT 14 _ZN7android8hardware5radi
219:   FUNC GLOBAL DEFAULT 14 _ZN7android8hardware5radi
220:   FUNC GLOBAL DEFAULT 14 _ZN7android8hardware5radi
221:   FUNC GLOBAL DEFAULT 14 _ZN7android8hardware5radi
222:   FUNC GLOBAL DEFAULT 14 _ZN7android8hardware5radi
223:   OBJECT GLOBAL DEFAULT 18 _ZTTN7android8hardware5ra
224:   OBJECT GLOBAL DEFAULT 18 _ZTCN7android8hardware5ra
225:   OBJECT GLOBAL DEFAULT 18 _ZTCN7android8hardware5ra
226:   FUNC GLOBAL DEFAULT 14 _ZN7android8hardware5radi
227:   FUNC GLOBAL DEFAULT 14 _ZN7android8hardware5radi
228:   FUNC GLOBAL DEFAULT 14 _ZN7android8hardware5radi
229:   FUNC WEAK DEFAULT 14 _ZN7android8hardware7deta
230:   FUNC GLOBAL DEFAULT 14 __aeabi_memcpy8
231:   OBJECT GLOBAL DEFAULT 16 _ZN7android8hardware5radi
232:   OBJECT GLOBAL DEFAULT 18 _ZTCN7android8hardware5ra
233:   FUNC GLOBAL DEFAULT 14 _ZN7android8hardware5radi
234:   FUNC GLOBAL DEFAULT 14 __aeabi_memset
235:   FUNC GLOBAL DEFAULT 14 _ZN7android8hardware5radi
236:   FUNC GLOBAL DEFAULT 14 _ZN7android8hardware5radi
237:   FUNC GLOBAL DEFAULT 14 _ZN7android8hardware5radi
238:   OBJECT GLOBAL DEFAULT 16 _ZN7android8hardware5radi
239:   FUNC GLOBAL DEFAULT 14 _ZN7android8hardware5radi
240:   FUNC GLOBAL DEFAULT 14 _ZN7android8hardware5radi
241:   FUNC GLOBAL DEFAULT 14 _ZN7android8hardware5radi
242:   FUNC GLOBAL DEFAULT 14 _ZN7android8hardware5radi
243:   OBJECT GLOBAL DEFAULT 18 _ZTCN7android8hardware5ra
244:   FUNC GLOBAL DEFAULT 14 _ZN7android8hardware5radi
245:   FUNC GLOBAL DEFAULT 14 _ZN7android8hardware5radi
246:   FUNC GLOBAL DEFAULT 14 _ZN7android8hardware5radi
247:   FUNC GLOBAL DEFAULT 14 _ZThn20_N7android8hardwar
248:   FUNC GLOBAL DEFAULT 14 _ZN7android8hardware5radi
249:   FUNC WEAK DEFAULT 14 _ZNSt3__16__treeINS_12__v
250:   FUNC GLOBAL DEFAULT 14 _ZN7android8hardware5radi
251:   FUNC GLOBAL DEFAULT 14 _ZN7android8hardware5radi
252:   OBJECT GLOBAL DEFAULT 18 _ZTCN7android8hardware5ra
253:   FUNC GLOBAL DEFAULT 14 _ZN7android8hardware5radi
254:   FUNC WEAK DEFAULT 14 _ZN7android8hardware7deta
255:   FUNC GLOBAL DEFAULT 14 _ZN7android8hardware5radi
256:   FUNC GLOBAL DEFAULT 14 _ZN7android8hardware5radi
257:   OBJECT GLOBAL DEFAULT 18 _ZTCN7android8hardware5ra
258:   FUNC GLOBAL DEFAULT 14 _ZN7android8hardware5radi
259:   FUNC GLOBAL DEFAULT 14 _ZN7android8hardware5radi
260:   FUNC GLOBAL DEFAULT 14 _ZN7android8hardware5radi
261:   FUNC WEAK DEFAULT 14 _ZNSt3__16__treeINS_12__v
262:   FUNC GLOBAL DEFAULT 14 _ZN7android8hardware5radi
263:   OBJECT GLOBAL DEFAULT 18 _ZTCN7android8hardware5ra
264:   OBJECT WEAK DEFAULT 18 _ZTVN7android8hardware5ra
265:   FUNC GLOBAL DEFAULT 14 _ZN7android8hardware5radi
266:   FUNC GLOBAL DEFAULT 14 _ZN7android8hardware5radi
267:   OBJECT GLOBAL DEFAULT 18 _ZTTN7android8hardware5ra
268:   FUNC GLOBAL DEFAULT 14 _ZTv0_n12_N7android8hardw
269:   FUNC GLOBAL DEFAULT 14 _ZN7android8hardware5radi
270:   FUNC GLOBAL DEFAULT 14 _ZN7android8hardware5radi
271:   FUNC GLOBAL DEFAULT 14 _ZN7android8hardware5radi
272:   FUNC GLOBAL DEFAULT 14 __aeabi_memset4
273:   FUNC GLOBAL DEFAULT 14 _ZN7android8hardware5radi
274:   FUNC GLOBAL DEFAULT 14 _ZN7android8hardware5radi
275:   OBJECT WEAK DEFAULT 18 _ZTCN7android8hardware5ra
276:   FUNC GLOBAL DEFAULT 14 _ZN7android8hardware5radi
277:   FUNC GLOBAL DEFAULT 14 _ZN7android8hardware5radi
278:   OBJECT WEAK DEFAULT 18 _ZTCN7android8hardware5ra
279:   FUNC GLOBAL DEFAULT 14 _ZTv0_n12_N7android8hardw
280:   OBJECT WEAK DEFAULT 18 _ZTCN7android8hardware5ra
281:   FUNC GLOBAL DEFAULT 14 _ZN7android8hardware5radi
282:   FUNC GLOBAL DEFAULT 14 _ZN7android8hardware5radi
283:   FUNC GLOBAL DEFAULT 14 _ZN7android8hardware5radi
284:   OBJECT GLOBAL DEFAULT 18 _ZTVN7android8hardware5ra
285:   FUNC GLOBAL DEFAULT 14 _ZN7android8hardware5radi
286:   OBJECT GLOBAL DEFAULT 18 _ZTCN7android8hardware5ra
287:   OBJECT GLOBAL DEFAULT 18 _ZTCN7android8hardware5ra
288:   FUNC GLOBAL DEFAULT 14 _ZN7android8hardware5radi
289:   OBJECT GLOBAL DEFAULT 18 _ZTTN7android8hardware5ra
290:   FUNC GLOBAL DEFAULT 14 _ZN7android8hardware5radi
291:   FUNC GLOBAL DEFAULT 14 _ZN7android8hardware5radi
292:   FUNC GLOBAL DEFAULT 14 _ZN7android8hardware5radi
293:   FUNC GLOBAL DEFAULT 14 _ZN7android8hardware5radi
294:   FUNC GLOBAL DEFAULT 14 _ZThn20_N7android8hardwar
295:   FUNC GLOBAL DEFAULT 14 __aeabi_memset8
296:   FUNC GLOBAL DEFAULT 14 _ZN7android8hardware5radi
297:   FUNC GLOBAL DEFAULT 14 _ZN7android8hardware5radi
298:   FUNC GLOBAL DEFAULT 14 _ZN7android8hardware5radi
299:   FUNC WEAK DEFAULT 14 _ZN7android8hardware7deta
300:   OBJECT GLOBAL DEFAULT 18 _ZTCN7android8hardware5ra
301:   FUNC WEAK DEFAULT 14 _ZNSt3__16__treeINS_12__v
302:   FUNC GLOBAL DEFAULT 14 _ZN7android8hardware5radi
303:   OBJECT GLOBAL DEFAULT 18 _ZTTN7android8hardware5ra
304:   OBJECT GLOBAL DEFAULT 18 _ZTVN7android8hardware5ra
305:   FUNC WEAK DEFAULT 14 _ZNSt3__16vectorINS_8func
306:   OBJECT GLOBAL DEFAULT 18 _ZTTN7android8hardware5ra
307:   FUNC GLOBAL DEFAULT 14 _ZN7android8hardware5radi
308:   FUNC GLOBAL DEFAULT 14 _ZN7android8hardware5radi
309:   OBJECT GLOBAL DEFAULT 18 _ZTCN7android8hardware5ra
310:   FUNC GLOBAL DEFAULT 14 _ZN7android8hardware5radi
311:   FUNC GLOBAL DEFAULT 14 _ZN7android8hardware5radi
312:   FUNC GLOBAL DEFAULT 14 _ZN7android8hardware5radi
313:   FUNC GLOBAL DEFAULT 14 _ZN7android8hardware5radi
314:   OBJECT GLOBAL DEFAULT 18 _ZTTN7android8hardware5ra
315:   OBJECT GLOBAL DEFAULT 18 _ZTCN7android8hardware5ra
316:   FUNC GLOBAL DEFAULT 14 _ZN7android8hardware5radi
317:   FUNC GLOBAL DEFAULT 14 _ZN7android8hardware5radi
318:   OBJECT GLOBAL DEFAULT 18 _ZTTN7android8hardware5ra
319:   FUNC GLOBAL DEFAULT 14 _ZN7android8hardware5radi
320:   FUNC GLOBAL DEFAULT 14 _ZN7android8hardware5radi
321:   OBJECT GLOBAL DEFAULT 18 _ZTCN7android8hardware5ra
322:   FUNC GLOBAL DEFAULT 14 _ZTv0_n12_N7android8hardw
323:   FUNC GLOBAL DEFAULT 14 _ZN7android8hardware5radi
324:   FUNC GLOBAL DEFAULT 14 _ZN7android8hardware5radi
325:   OBJECT GLOBAL DEFAULT 18 _ZTCN7android8hardware5ra
326:   OBJECT GLOBAL DEFAULT 18 _ZTVN7android8hardware5ra
327:   FUNC GLOBAL DEFAULT 14 _ZN7android8hardware5radi
328:   FUNC GLOBAL DEFAULT 14 _ZN7android8hardware5radi
329:   FUNC GLOBAL DEFAULT 14 _ZTv0_n12_N7android8hardw
330:   FUNC GLOBAL DEFAULT 14 _ZN7android8hardware5radi
331:   FUNC GLOBAL DEFAULT 14 _ZN7android8hardware5radi
332:   FUNC GLOBAL DEFAULT 14 _ZN7android8hardware5radi
333:   OBJECT GLOBAL DEFAULT 18 _ZTCN7android8hardware5ra
334:   FUNC GLOBAL DEFAULT 14 _ZN7android8hardware5radi
335:   FUNC WEAK DEFAULT 14 _ZNSt3__16__treeINS_12__v
336:   FUNC GLOBAL DEFAULT 14 _ZN7android8hardware5radi
337:   FUNC GLOBAL DEFAULT 14 _ZN7android8hardware5radi
338:   FUNC GLOBAL DEFAULT 14 _ZN7android8hardware5radi
339:   FUNC GLOBAL DEFAULT 14 _ZN7android8hardware5radi
340:   OBJECT GLOBAL DEFAULT 16 _ZN7android8hardware5radi
341:   FUNC GLOBAL DEFAULT 14 _ZN7android8hardware5radi
342:   FUNC GLOBAL DEFAULT 14 _ZN7android8hardware5radi
343:   FUNC WEAK DEFAULT 14 _ZNSt3__127__tree_balance
344:   FUNC GLOBAL DEFAULT 14 _ZN7android8hardware5radi
345:   FUNC GLOBAL DEFAULT 14 _ZThn20_N7android8hardwar
346:   FUNC WEAK DEFAULT 14 _ZNSt3__16vectorIPvNS_9al
347:   OBJECT GLOBAL DEFAULT 18 _ZTCN7android8hardware5ra
348:   FUNC GLOBAL DEFAULT 14 _ZN7android8hardware5radi
349:   FUNC GLOBAL DEFAULT 14 _ZN7android8hardware5radi
350:   FUNC GLOBAL DEFAULT 14 _ZN7android8hardware5radi
351:   FUNC GLOBAL DEFAULT 14 _ZN7android8hardware5radi
352:   FUNC WEAK DEFAULT 14 _ZNSt3__16__treeINS_12__v
353:   OBJECT GLOBAL DEFAULT 18 _ZTVN7android8hardware5ra
354:   FUNC GLOBAL DEFAULT 14 _ZN7android8hardware5radi
355:   OBJECT GLOBAL DEFAULT 18 _ZTVN7android8hardware5ra
356:   FUNC GLOBAL DEFAULT 14 _ZThn20_N7android8hardwar
357:   FUNC GLOBAL DEFAULT 14 _ZN7android8hardware5radi
358:   OBJECT GLOBAL DEFAULT 18 _ZTCN7android8hardware5ra
359:   FUNC GLOBAL DEFAULT 14 _ZN7android8hardware5radi
360:   OBJECT GLOBAL DEFAULT 18 _ZTVN7android8hardware5ra
361:   FUNC GLOBAL DEFAULT 14 _ZN7android8hardware5radi
362:   FUNC GLOBAL DEFAULT 14 _ZN7android8hardware5radi
363:   OBJECT GLOBAL DEFAULT 18 _ZTCN7android8hardware5ra
364:   FUNC GLOBAL DEFAULT 14 __aeabi_memclr
365:   FUNC WEAK DEFAULT 14 _ZN7android8hardware10fro
366:   FUNC GLOBAL DEFAULT 14 _ZN7android8hardware5radi
367:   FUNC GLOBAL DEFAULT 14 _ZN7android8hardware5radi
368:   FUNC GLOBAL DEFAULT 14 _ZN7android8hardware5radi
369:   FUNC GLOBAL DEFAULT 14 _ZN7android8hardware5radi
370:   FUNC GLOBAL DEFAULT 14 _ZN7android8hardware5radi
371:   FUNC GLOBAL DEFAULT 14 _ZN7android8hardware5radi
372:   FUNC GLOBAL DEFAULT 14 _ZN7android8hardware5radi
373:   FUNC GLOBAL DEFAULT 14 _ZN7android8hardware5radi
374:   FUNC GLOBAL DEFAULT 14 _ZN7android8hardware5radi
375:   FUNC GLOBAL DEFAULT 14 _ZN7android8hardware5radi
376:   FUNC GLOBAL DEFAULT 14 _ZN7android8hardware5radi
377:   FUNC GLOBAL DEFAULT 14 _ZN7android8hardware5radi
378:   FUNC GLOBAL DEFAULT 14 _ZN7android8hardware5radi
379:   FUNC GLOBAL DEFAULT 14 _ZN7android8hardware5radi
380:   FUNC GLOBAL DEFAULT 14 _ZN7android8hardware5radi
381:   FUNC WEAK DEFAULT 14 _ZN7android8hardware7deta
382:   OBJECT GLOBAL DEFAULT 18 _ZTCN7android8hardware5ra
383:   OBJECT GLOBAL DEFAULT 18 _ZTCN7android8hardware5ra
384:   OBJECT GLOBAL DEFAULT 18 _ZTCN7android8hardware5ra
385:   FUNC GLOBAL DEFAULT 14 _ZN7android8hardware5radi
386:   FUNC GLOBAL DEFAULT 14 _ZN7android8hardware5radi
387:   FUNC GLOBAL DEFAULT 14 _ZTv0_n12_N7android8hardw
