 0x0000000e (SONAME)                     Library soname: [android.hardware.power@1.3.so]
  
Symbol   contains 299 entries:
Num:   Type Bind Vis Ndx Name
0:   NOTYPE LOCAL DEFAULT UND
1:   FUNC GLOBAL DEFAULT UND __cxa_finalize@LIBC (2)
2:   FUNC GLOBAL DEFAULT UND _ZN7android14sp_report_ra
3:   FUNC GLOBAL DEFAULT UND _ZN7android21report_syspr
4:   OBJECT GLOBAL DEFAULT UND _ZN7android4hidl4base4V1_
5:   FUNC GLOBAL DEFAULT UND _ZN7android4hidl4base4V1_
6:   FUNC GLOBAL DEFAULT UND _ZN7android4hidl4base4V1_
7:   FUNC GLOBAL DEFAULT UND _ZN7android4hidl4base4V1_
8:   FUNC GLOBAL DEFAULT UND _ZN7android4hidl4base4V1_
9:   FUNC GLOBAL DEFAULT UND _ZN7android4hidl4base4V1_
10:   FUNC GLOBAL DEFAULT UND _ZN7android4hidl4base4V1_
11:   FUNC GLOBAL DEFAULT UND _ZN7android4hidl4base4V1_
12:   FUNC GLOBAL DEFAULT UND _ZN7android4hidl4base4V1_
13:   FUNC GLOBAL DEFAULT UND _ZN7android4hidl4base4V1_
14:   FUNC GLOBAL DEFAULT UND _ZN7android4hidl4base4V1_
15:   FUNC GLOBAL DEFAULT UND _ZN7android4hidl4base4V1_
16:   FUNC GLOBAL DEFAULT UND _ZN7android4hidl4base4V1_
17:   FUNC GLOBAL DEFAULT UND _ZN7android4hidl4base4V1_
18:   FUNC GLOBAL DEFAULT UND _ZN7android4hidl4base4V1_
19:   FUNC GLOBAL DEFAULT UND _ZN7android4hidl4base4V1_
20:   FUNC GLOBAL DEFAULT UND _ZN7android4hidl4base4V1_
21:   FUNC GLOBAL DEFAULT UND _ZN7android4hidl4base4V1_
22:   FUNC GLOBAL DEFAULT UND _ZN7android4hidl4base4V1_
23:   FUNC GLOBAL DEFAULT UND _ZN7android4hidl4base4V1_
24:   FUNC GLOBAL DEFAULT UND _ZN7android4hidl4base4V1_
25:   FUNC GLOBAL DEFAULT UND _ZN7android4hidl4base4V1_
26:   FUNC GLOBAL DEFAULT UND _ZN7android4hidl4base4V1_
27:   FUNC GLOBAL DEFAULT UND _ZN7android4hidl4base4V1_
28:   FUNC GLOBAL DEFAULT UND _ZN7android7RefBase10onFi
29:   FUNC GLOBAL DEFAULT UND _ZN7android7RefBase12weak
30:   FUNC GLOBAL DEFAULT UND _ZN7android7RefBase13onLa
31:   FUNC GLOBAL DEFAULT UND _ZN7android7RefBase15onLa
32:   FUNC GLOBAL DEFAULT UND _ZN7android7RefBase20onIn
33:   FUNC GLOBAL DEFAULT UND _ZN7android7RefBaseC2Ev
34:   FUNC GLOBAL DEFAULT UND _ZN7android7RefBaseD2Ev
35:   FUNC GLOBAL DEFAULT UND _ZN7android8hardware10IIn
36:   FUNC GLOBAL DEFAULT UND _ZN7android8hardware10IIn
37:   FUNC GLOBAL DEFAULT UND _ZN7android8hardware10IIn
38:   FUNC GLOBAL DEFAULT UND _ZN7android8hardware10IIn
39:   FUNC GLOBAL DEFAULT UND _ZN7android8hardware10IIn
40:   FUNC GLOBAL DEFAULT UND _ZN7android8hardware11BpH
41:   FUNC GLOBAL DEFAULT UND _ZN7android8hardware11BpH
42:   FUNC GLOBAL DEFAULT UND _ZN7android8hardware11BpH
43:   FUNC GLOBAL DEFAULT UND _ZN7android8hardware11BpH
44:   FUNC GLOBAL DEFAULT UND _ZN7android8hardware11BpH
45:   FUNC GLOBAL DEFAULT UND _ZN7android8hardware11BpH
46:   FUNC GLOBAL DEFAULT UND _ZN7android8hardware11BpH
47:   FUNC GLOBAL DEFAULT UND _ZN7android8hardware11hid
48:   FUNC GLOBAL DEFAULT UND _ZN7android8hardware11hid
49:   FUNC GLOBAL DEFAULT UND _ZN7android8hardware11hid
50:   FUNC GLOBAL DEFAULT UND _ZN7android8hardware11hid
51:   FUNC GLOBAL DEFAULT UND _ZN7android8hardware11hid
52:   FUNC GLOBAL DEFAULT UND _ZN7android8hardware12Pro
53:   FUNC GLOBAL DEFAULT UND _ZN7android8hardware12Pro
54:   FUNC GLOBAL DEFAULT UND _ZN7android8hardware13wri
55:   FUNC GLOBAL DEFAULT UND _ZN7android8hardware21def
56:   FUNC GLOBAL DEFAULT UND _ZN7android8hardware23get
57:   FUNC GLOBAL DEFAULT UND _ZN7android8hardware27hid
58:   FUNC GLOBAL DEFAULT UND _ZN7android8hardware27hid
59:   OBJECT GLOBAL DEFAULT UND _ZN7android8hardware5powe
60:   FUNC GLOBAL DEFAULT UND _ZN7android8hardware5powe
61:   FUNC GLOBAL DEFAULT UND _ZN7android8hardware5powe
62:   FUNC GLOBAL DEFAULT UND _ZN7android8hardware5powe
63:   FUNC GLOBAL DEFAULT UND _ZN7android8hardware5powe
64:   FUNC GLOBAL DEFAULT UND _ZN7android8hardware5powe
65:   FUNC GLOBAL DEFAULT UND _ZN7android8hardware5powe
66:   FUNC GLOBAL DEFAULT UND _ZN7android8hardware5powe
67:   FUNC GLOBAL DEFAULT UND _ZN7android8hardware5powe
68:   FUNC GLOBAL DEFAULT UND _ZN7android8hardware5powe
69:   FUNC GLOBAL DEFAULT UND _ZN7android8hardware5powe
70:   FUNC GLOBAL DEFAULT UND _ZN7android8hardware5powe
71:   FUNC GLOBAL DEFAULT UND _ZN7android8hardware5powe
72:   FUNC GLOBAL DEFAULT UND _ZN7android8hardware5powe
73:   FUNC GLOBAL DEFAULT UND _ZN7android8hardware5powe
74:   FUNC GLOBAL DEFAULT UND _ZN7android8hardware5powe
75:   FUNC GLOBAL DEFAULT UND _ZN7android8hardware5powe
76:   FUNC GLOBAL DEFAULT UND _ZN7android8hardware5powe
77:   FUNC GLOBAL DEFAULT UND _ZN7android8hardware5powe
78:   OBJECT GLOBAL DEFAULT UND _ZN7android8hardware5powe
79:   FUNC GLOBAL DEFAULT UND _ZN7android8hardware5powe
80:   FUNC GLOBAL DEFAULT UND _ZN7android8hardware5powe
81:   FUNC GLOBAL DEFAULT UND _ZN7android8hardware5powe
82:   FUNC GLOBAL DEFAULT UND _ZN7android8hardware5powe
83:   FUNC GLOBAL DEFAULT UND _ZN7android8hardware5powe
84:   FUNC GLOBAL DEFAULT UND _ZN7android8hardware5powe
85:   FUNC GLOBAL DEFAULT UND _ZN7android8hardware5powe
86:   FUNC GLOBAL DEFAULT UND _ZN7android8hardware5powe
87:   FUNC GLOBAL DEFAULT UND _ZN7android8hardware5powe
88:   FUNC GLOBAL DEFAULT UND _ZN7android8hardware5powe
89:   FUNC GLOBAL DEFAULT UND _ZN7android8hardware5powe
90:   FUNC GLOBAL DEFAULT UND _ZN7android8hardware5powe
91:   FUNC GLOBAL DEFAULT UND _ZN7android8hardware5powe
92:   FUNC GLOBAL DEFAULT UND _ZN7android8hardware5powe
93:   OBJECT GLOBAL DEFAULT UND _ZN7android8hardware5powe
94:   FUNC GLOBAL DEFAULT UND _ZN7android8hardware5powe
95:   FUNC GLOBAL DEFAULT UND _ZN7android8hardware5powe
96:   FUNC GLOBAL DEFAULT UND _ZN7android8hardware5powe
97:   FUNC GLOBAL DEFAULT UND _ZN7android8hardware5powe
98:   FUNC GLOBAL DEFAULT UND _ZN7android8hardware5powe
99:   FUNC GLOBAL DEFAULT UND _ZN7android8hardware5powe
100:   FUNC GLOBAL DEFAULT UND _ZN7android8hardware5powe
101:   FUNC GLOBAL DEFAULT UND _ZN7android8hardware5powe
102:   FUNC GLOBAL DEFAULT UND _ZN7android8hardware5powe
103:   FUNC GLOBAL DEFAULT UND _ZN7android8hardware5powe
104:   FUNC GLOBAL DEFAULT UND _ZN7android8hardware5powe
105:   FUNC GLOBAL DEFAULT UND _ZN7android8hardware5powe
106:   FUNC GLOBAL DEFAULT UND _ZN7android8hardware6Parc
107:   FUNC GLOBAL DEFAULT UND _ZN7android8hardware6Parc
108:   FUNC GLOBAL DEFAULT UND _ZN7android8hardware6Parc
109:   FUNC GLOBAL DEFAULT UND _ZN7android8hardware6Parc
110:   FUNC GLOBAL DEFAULT UND _ZN7android8hardware6Parc
111:   FUNC GLOBAL DEFAULT UND _ZN7android8hardware6Stat
112:   FUNC GLOBAL DEFAULT UND _ZN7android8hardware6Stat
113:   FUNC GLOBAL DEFAULT UND _ZN7android8hardware6Stat
114:   FUNC GLOBAL DEFAULT UND _ZN7android8hardware6Stat
115:   FUNC GLOBAL DEFAULT UND _ZN7android8hardware7IBin
116:   FUNC GLOBAL DEFAULT UND _ZN7android8hardware7IBin
117:   FUNC GLOBAL DEFAULT UND _ZN7android8hardware7IBin
118:   FUNC GLOBAL DEFAULT UND _ZN7android8hardware7IBin
119:   FUNC GLOBAL DEFAULT UND _ZN7android8hardware7deta
120:   FUNC GLOBAL DEFAULT UND _ZN7android8hardware7deta
121:   FUNC GLOBAL DEFAULT UND _ZN7android8hardware7deta
122:   FUNC GLOBAL DEFAULT UND _ZN7android8hardware7deta
123:   FUNC GLOBAL DEFAULT UND _ZN7android8hardware7deta
124:   FUNC GLOBAL DEFAULT UND _ZN7android8hardware7deta
125:   FUNC GLOBAL DEFAULT UND _ZN7android8hardware7deta
126:   OBJECT GLOBAL DEFAULT UND _ZN7android8hardware7deta
127:   OBJECT GLOBAL DEFAULT UND _ZN7android8hardware7deta
128:   FUNC GLOBAL DEFAULT UND _ZN7android8hardware7deta
129:   FUNC GLOBAL DEFAULT UND _ZN7android8hardware7deta
130:   FUNC GLOBAL DEFAULT UND _ZN7android8hardware7deta
131:   FUNC GLOBAL DEFAULT UND _ZN7android8hardware7deta
132:   FUNC GLOBAL DEFAULT UND _ZN7android8hardware7deta
133:   FUNC GLOBAL DEFAULT UND _ZN7android8hardware7deta
134:   FUNC GLOBAL DEFAULT UND _ZN7android8hardware7deta
135:   FUNC GLOBAL DEFAULT UND _ZN7android8hardware7deta
136:   FUNC GLOBAL DEFAULT UND _ZN7android8hardware7deta
137:   OBJECT GLOBAL DEFAULT UND _ZN7android8hardware7deta
138:   FUNC GLOBAL DEFAULT UND _ZN7android8hardware9BHwB
139:   FUNC GLOBAL DEFAULT UND _ZN7android8hardware9BHwB
140:   FUNC GLOBAL DEFAULT UND _ZN7android8hardware9BHwB
141:   FUNC GLOBAL DEFAULT UND _ZN7android8hardware9BHwB
142:   FUNC GLOBAL DEFAULT UND _ZN7android8hardware9BHwB
143:   FUNC GLOBAL DEFAULT UND _ZN7android8hardware9BHwB
144:   FUNC GLOBAL DEFAULT UND _ZN7android8hardware9BHwB
145:   FUNC GLOBAL DEFAULT UND _ZN7android8hardware9BHwB
146:   FUNC GLOBAL DEFAULT UND _ZN7android8hardware9BHwB
147:   FUNC GLOBAL DEFAULT UND _ZN7android8hardware9BHwB
148:   FUNC GLOBAL DEFAULT UND _ZNK7android7RefBase10cre
149:   FUNC GLOBAL DEFAULT UND _ZNK7android7RefBase11get
150:   FUNC GLOBAL DEFAULT UND _ZNK7android7RefBase9decS
151:   FUNC GLOBAL DEFAULT UND _ZNK7android7RefBase9incS
152:   FUNC GLOBAL DEFAULT UND _ZNK7android8hardware6Par
153:   FUNC GLOBAL DEFAULT UND _ZNK7android8hardware6Par
154:   FUNC GLOBAL DEFAULT UND _ZNK7android8hardware6Par
155:   FUNC GLOBAL DEFAULT UND _ZNK7android8hardware7IBi
156:   FUNC GLOBAL DEFAULT UND _ZNK7android8hardware7det
157:   FUNC GLOBAL DEFAULT UND _ZNK7android8hardware9BHw
158:   FUNC GLOBAL DEFAULT UND _ZNKSt3__120__vector_base
159:   FUNC GLOBAL DEFAULT UND _ZNKSt3__121__basic_strin
160:   FUNC GLOBAL DEFAULT UND _ZNSt3__112basic_stringIc
161:   FUNC GLOBAL DEFAULT UND _ZNSt3__15mutex4lockEv
162:   FUNC GLOBAL DEFAULT UND _ZNSt3__15mutex6unlockEv
163:   FUNC GLOBAL DEFAULT UND _ZNSt3__15mutexD1Ev
164:   FUNC GLOBAL DEFAULT UND _ZTv0_n12_N7android4hidl4
165:   FUNC GLOBAL DEFAULT UND _ZTv0_n12_N7android4hidl4
166:   FUNC GLOBAL DEFAULT UND _ZTv0_n12_N7android8hardw
167:   FUNC GLOBAL DEFAULT UND _ZTv0_n12_N7android8hardw
168:   FUNC GLOBAL DEFAULT UND _ZTv0_n12_N7android8hardw
169:   FUNC GLOBAL DEFAULT UND _ZTv0_n12_N7android8hardw
170:   FUNC GLOBAL DEFAULT UND _ZTv0_n12_N7android8hardw
171:   FUNC GLOBAL DEFAULT UND _ZTv0_n12_N7android8hardw
172:   FUNC GLOBAL DEFAULT UND _ZTv0_n12_N7android8hardw
173:   FUNC GLOBAL DEFAULT UND _ZTv0_n12_N7android8hardw
174:   FUNC GLOBAL DEFAULT UND _ZTv0_n16_N7android8hardw
175:   FUNC GLOBAL DEFAULT UND _ZTv0_n20_N7android8hardw
176:   FUNC GLOBAL DEFAULT UND _ZTv0_n24_N7android8hardw
177:   FUNC GLOBAL DEFAULT UND _ZdaPv
178:   FUNC GLOBAL DEFAULT UND _ZdlPv
179:   FUNC GLOBAL DEFAULT UND _Znaj
180:   FUNC GLOBAL DEFAULT UND _Znwj
181:   FUNC GLOBAL DEFAULT UND __cxa_pure_virtual
182:   FUNC GLOBAL DEFAULT UND __stack_chk_fail@LIBC (2)
183:   OBJECT GLOBAL DEFAULT UND __stack_chk_guard@LIBC (2)
184:   FUNC GLOBAL DEFAULT UND abort@LIBC (2)
185:   FUNC GLOBAL DEFAULT UND atrace_begin_body
186:   OBJECT GLOBAL DEFAULT UND atrace_enabled_tags
187:   FUNC GLOBAL DEFAULT UND atrace_end_body
188:   OBJECT GLOBAL DEFAULT UND atrace_is_ready
189:   FUNC GLOBAL DEFAULT UND atrace_setup
190:   FUNC GLOBAL DEFAULT UND memcmp@LIBC (2)
191:   FUNC GLOBAL DEFAULT UND strlen@LIBC (2)
192:   FUNC GLOBAL DEFAULT UND memcpy@LIBC (2)
193:   FUNC GLOBAL DEFAULT UND memset@LIBC (2)
194:   FUNC GLOBAL DEFAULT 14 _ZN7android8hardware5powe
195:   FUNC GLOBAL DEFAULT 14 _ZN7android8hardware5powe
196:   FUNC GLOBAL DEFAULT 14 _ZN7android8hardware5powe
197:   FUNC GLOBAL DEFAULT 14 _ZN7android8hardware5powe
198:   FUNC GLOBAL DEFAULT 14 _ZN7android8hardware5powe
199:   FUNC WEAK DEFAULT 14 _ZN7android8hardware7deta
200:   FUNC WEAK DEFAULT 14 _ZNSt3__16__treeINS_12__v
201:   OBJECT GLOBAL DEFAULT 18 _ZTCN7android8hardware5po
202:   FUNC GLOBAL DEFAULT 14 __aeabi_memcpy
203:   FUNC GLOBAL DEFAULT 14 __aeabi_memset
204:   FUNC GLOBAL DEFAULT 14 _ZN7android8hardware5powe
205:   FUNC WEAK DEFAULT 14 _ZNSt3__127__tree_balance
206:   OBJECT GLOBAL DEFAULT 18 _ZTCN7android8hardware5po
207:   FUNC GLOBAL DEFAULT 14 __aeabi_memclr4
208:   FUNC GLOBAL DEFAULT 14 _ZN7android8hardware5powe
209:   FUNC GLOBAL DEFAULT 14 _ZN7android8hardware5powe
210:   OBJECT GLOBAL DEFAULT 18 _ZTCN7android8hardware5po
211:   FUNC GLOBAL DEFAULT 14 _ZN7android8hardware5powe
212:   FUNC GLOBAL DEFAULT 14 _ZN7android8hardware5powe
213:   FUNC GLOBAL DEFAULT 14 _ZN7android8hardware5powe
214:   FUNC GLOBAL DEFAULT 14 _ZN7android8hardware5powe
215:   FUNC GLOBAL DEFAULT 14 _ZN7android8hardware5powe
216:   FUNC GLOBAL DEFAULT 14 _ZN7android8hardware5powe
217:   OBJECT GLOBAL DEFAULT 18 _ZTCN7android8hardware5po
218:   OBJECT GLOBAL DEFAULT 18 _ZTCN7android8hardware5po
219:   FUNC GLOBAL DEFAULT 14 _ZN7android8hardware5powe
220:   FUNC GLOBAL DEFAULT 14 _ZN7android8hardware5powe
221:   OBJECT GLOBAL DEFAULT 18 _ZTTN7android8hardware5po
222:   OBJECT GLOBAL DEFAULT 18 _ZTTN7android8hardware5po
223:   OBJECT GLOBAL DEFAULT 18 _ZTTN7android8hardware5po
224:   FUNC GLOBAL DEFAULT 14 __aeabi_memclr8
225:   FUNC GLOBAL DEFAULT 14 _ZN7android8hardware5powe
226:   FUNC GLOBAL DEFAULT 14 _ZN7android8hardware5powe
227:   FUNC GLOBAL DEFAULT 14 _ZN7android8hardware5powe
228:   FUNC GLOBAL DEFAULT 14 _ZN7android8hardware5powe
229:   FUNC GLOBAL DEFAULT 14 _ZN7android8hardware5powe
230:   FUNC GLOBAL DEFAULT 14 _ZN7android8hardware5powe
231:   OBJECT WEAK DEFAULT 18 _ZTCN7android8hardware5po
232:   FUNC GLOBAL DEFAULT 14 _ZN7android8hardware5powe
233:   FUNC GLOBAL DEFAULT 14 _ZN7android8hardware5powe
234:   FUNC WEAK DEFAULT 14 _ZN7android8hardware7deta
235:   FUNC GLOBAL DEFAULT 14 _ZN7android8hardware5powe
236:   FUNC WEAK DEFAULT 14 _ZNSt3__16vectorIPvNS_9al
237:   OBJECT GLOBAL DEFAULT 16 _ZN7android8hardware5powe
238:   FUNC GLOBAL DEFAULT 14 _ZN7android8hardware5powe
239:   FUNC GLOBAL DEFAULT 14 _ZN7android8hardware5powe
240:   OBJECT GLOBAL DEFAULT 18 _ZTCN7android8hardware5po
241:   OBJECT GLOBAL DEFAULT 18 _ZTCN7android8hardware5po
242:   FUNC GLOBAL DEFAULT 14 _ZN7android8hardware5powe
243:   FUNC WEAK DEFAULT 14 _ZNSt3__16__treeINS_12__v
244:   OBJECT GLOBAL DEFAULT 18 _ZTCN7android8hardware5po
245:   OBJECT GLOBAL DEFAULT 18 _ZTCN7android8hardware5po
246:   OBJECT GLOBAL DEFAULT 18 _ZTVN7android8hardware5po
247:   OBJECT GLOBAL DEFAULT 18 _ZTVN7android8hardware5po
248:   FUNC GLOBAL DEFAULT 14 __aeabi_memcpy4
249:   FUNC GLOBAL DEFAULT 14 __aeabi_memset4
250:   FUNC GLOBAL DEFAULT 14 _ZN7android8hardware5powe
251:   FUNC WEAK DEFAULT 14 _ZNSt3__16__treeINS_12__v
252:   OBJECT GLOBAL DEFAULT 18 _ZTVN7android8hardware5po
253:   FUNC GLOBAL DEFAULT 14 _ZN7android8hardware5powe
254:   FUNC WEAK DEFAULT 14 _ZN7android8hardware7deta
255:   FUNC GLOBAL DEFAULT 14 _ZTv0_n12_N7android8hardw
256:   FUNC GLOBAL DEFAULT 14 _ZN7android8hardware5powe
257:   FUNC GLOBAL DEFAULT 14 _ZN7android8hardware5powe
258:   FUNC GLOBAL DEFAULT 14 _ZN7android8hardware5powe
259:   FUNC GLOBAL DEFAULT 14 _ZN7android8hardware5powe
260:   FUNC GLOBAL DEFAULT 14 _ZN7android8hardware5powe
261:   FUNC WEAK DEFAULT 14 _ZNSt3__16vectorIN7androi
262:   OBJECT GLOBAL DEFAULT 18 _ZTCN7android8hardware5po
263:   FUNC GLOBAL DEFAULT 14 _ZThn20_N7android8hardwar
264:   FUNC GLOBAL DEFAULT 14 __aeabi_memcpy8
265:   FUNC GLOBAL DEFAULT 14 __aeabi_memset8
266:   FUNC WEAK DEFAULT 14 _ZN7android8hardware7deta
267:   FUNC WEAK DEFAULT 14 _ZNSt3__113__tree_removeI
268:   OBJECT GLOBAL DEFAULT 18 _ZTCN7android8hardware5po
269:   OBJECT GLOBAL DEFAULT 18 _ZTCN7android8hardware5po
270:   FUNC GLOBAL DEFAULT 14 _ZTv0_n12_N7android8hardw
271:   FUNC GLOBAL DEFAULT 14 __aeabi_memclr
272:   FUNC GLOBAL DEFAULT 14 _ZN7android8hardware5powe
273:   FUNC GLOBAL DEFAULT 14 _ZN7android8hardware5powe
274:   FUNC GLOBAL DEFAULT 14 _ZN7android8hardware5powe
275:   FUNC GLOBAL DEFAULT 14 _ZN7android8hardware5powe
276:   FUNC GLOBAL DEFAULT 14 _ZN7android8hardware5powe
277:   FUNC GLOBAL DEFAULT 14 _ZN7android8hardware5powe
278:   FUNC WEAK DEFAULT 14 _ZNSt3__16__treeINS_12__v
279:   FUNC WEAK DEFAULT 14 _ZNSt3__16vectorINS_8func
280:   FUNC GLOBAL DEFAULT 14 _ZThn20_N7android8hardwar
281:   FUNC GLOBAL DEFAULT 14 _ZN7android8hardware5powe
282:   FUNC WEAK DEFAULT 14 _ZN7android8hardware7deta
283:   FUNC WEAK DEFAULT 14 _ZNSt3__16__treeINS_12__v
284:   OBJECT GLOBAL DEFAULT 18 _ZTCN7android8hardware5po
285:   FUNC GLOBAL DEFAULT 14 _ZN7android8hardware5powe
286:   FUNC WEAK DEFAULT 14 _ZNSt3__16__treeINS_12__v
287:   FUNC GLOBAL DEFAULT 14 _ZN7android8hardware5powe
288:   FUNC GLOBAL DEFAULT 14 _ZN7android8hardware5powe
289:   FUNC GLOBAL DEFAULT 14 _ZN7android8hardware5powe
290:   FUNC GLOBAL DEFAULT 14 _ZN7android8hardware5powe
291:   OBJECT GLOBAL DEFAULT 18 _ZTCN7android8hardware5po
292:   OBJECT GLOBAL DEFAULT 18 _ZTCN7android8hardware5po
293:   FUNC GLOBAL DEFAULT 14 _ZN7android8hardware5powe
294:   FUNC GLOBAL DEFAULT 14 _ZN7android8hardware5powe
295:   FUNC GLOBAL DEFAULT 14 _ZN7android8hardware5powe
296:   FUNC GLOBAL DEFAULT 14 _ZN7android8hardware5powe
297:   FUNC GLOBAL DEFAULT 14 _ZN7android8hardware5powe
298:   OBJECT WEAK DEFAULT 18 _ZTVN7android8hardware5po
