 0x0000000e (SONAME)                     Library soname: [libm.so]
  
Symbol   contains 287 entries:
Num:   Type Bind Vis Ndx Name
0:   NOTYPE LOCAL DEFAULT UND
1:   FUNC GLOBAL DEFAULT 8 ccosl@@LIBC_O
2:   FUNC GLOBAL DEFAULT 8 floorl@@LIBC
3:   FUNC GLOBAL DEFAULT 8 acoshf@@LIBC
4:   FUNC GLOBAL DEFAULT 8 cexp@@LIBC
5:   FUNC GLOBAL DEFAULT 8 coshf@@LIBC
6:   FUNC GLOBAL DEFAULT 8 cosl@@LIBC
7:   FUNC GLOBAL DEFAULT 8 log2@@LIBC
8:   FUNC GLOBAL DEFAULT 8 nearbyintl@@LIBC
9:   FUNC GLOBAL DEFAULT 8 ceill@@LIBC
10:   FUNC GLOBAL DEFAULT 8 fesetenv@@LIBC
11:   FUNC GLOBAL DEFAULT 8 gamma_r@@LIBC
12:   FUNC GLOBAL DEFAULT 8 cargf@@LIBC
13:   FUNC GLOBAL DEFAULT 8 catan@@LIBC
14:   FUNC GLOBAL DEFAULT 8 cprojl@@LIBC
15:   FUNC GLOBAL DEFAULT 8 csinf@@LIBC
16:   FUNC GLOBAL DEFAULT 8 scalbnf@@LIBC
17:   FUNC GLOBAL DEFAULT 8 tgamma@@LIBC
18:   FUNC GLOBAL DEFAULT 8 atan@@LIBC
19:   FUNC GLOBAL DEFAULT 8 atan2l@@LIBC
20:   FUNC GLOBAL DEFAULT 8 sinf@@LIBC
21:   FUNC GLOBAL DEFAULT 8 atanhf@@LIBC
22:   FUNC GLOBAL DEFAULT 8 clog@@LIBC_O
23:   FUNC GLOBAL DEFAULT 8 csinh@@LIBC
24:   FUNC GLOBAL DEFAULT 8 erfcl@@LIBC
25:   FUNC GLOBAL DEFAULT 8 jnf@@LIBC
26:   FUNC GLOBAL DEFAULT 8 lgammaf@@LIBC
27:   FUNC GLOBAL DEFAULT 8 tanhf@@LIBC
28:   FUNC GLOBAL DEFAULT 8 remainder@@LIBC
29:   OBJECT GLOBAL DEFAULT 10 signgam@@LIBC
30:   FUNC GLOBAL DEFAULT 8 sinh@@LIBC
31:   FUNC GLOBAL DEFAULT 8 acoshl@@LIBC
32:   FUNC GLOBAL DEFAULT 8 coshl@@LIBC
33:   FUNC GLOBAL DEFAULT 8 lrint@@LIBC
34:   FUNC GLOBAL DEFAULT 8 rint@@LIBC
35:   FUNC GLOBAL DEFAULT 8 cacosf@@LIBC
36:   FUNC GLOBAL DEFAULT 8 cargl@@LIBC
37:   FUNC GLOBAL DEFAULT 8 csinl@@LIBC_O
38:   FUNC GLOBAL DEFAULT 8 fdim@@LIBC
39:   FUNC GLOBAL DEFAULT 8 llrintf@@LIBC
40:   FUNC GLOBAL DEFAULT 8 scalbnl@@LIBC
41:   FUNC GLOBAL DEFAULT 8 significandf@@LIBC
42:   FUNC GLOBAL DEFAULT 8 cproj@@LIBC
43:   FUNC GLOBAL DEFAULT 8 modff@@LIBC
44:   FUNC GLOBAL DEFAULT 8 round@@LIBC
45:   FUNC GLOBAL DEFAULT 8 sincosf@@LIBC
46:   FUNC GLOBAL DEFAULT 8 sinl@@LIBC
47:   FUNC GLOBAL DEFAULT 8 truncf@@LIBC
48:   FUNC GLOBAL DEFAULT 8 ynf@@LIBC
49:   FUNC GLOBAL DEFAULT 8 atanhl@@LIBC
50:   FUNC GLOBAL DEFAULT 8 cacosh@@LIBC
51:   FUNC GLOBAL DEFAULT 8 exp2@@LIBC
52:   FUNC GLOBAL DEFAULT 8 frexpf@@LIBC
53:   FUNC GLOBAL DEFAULT 8 lgammal@@LIBC
54:   FUNC GLOBAL DEFAULT 8 tanhl@@LIBC
55:   FUNC GLOBAL DEFAULT 8 erfc@@LIBC
56:   FUNC GLOBAL DEFAULT 8 exp@@LIBC
57:   FUNC GLOBAL DEFAULT 8 dremf@@LIBC
58:   FUNC GLOBAL DEFAULT 8 fma@@LIBC
59:   FUNC GLOBAL DEFAULT 8 fmin@@LIBC
60:   FUNC GLOBAL DEFAULT 8 logbf@@LIBC
61:   FUNC GLOBAL DEFAULT 8 asinhf@@LIBC
62:   FUNC GLOBAL DEFAULT 8 ccos@@LIBC
63:   FUNC GLOBAL DEFAULT 8 expm1@@LIBC
64:   FUNC GLOBAL DEFAULT 8 sinhf@@LIBC
65:   FUNC GLOBAL DEFAULT 8 cabsf@@LIBC
66:   FUNC GLOBAL DEFAULT 8 cacosl@@LIBC_O
67:   FUNC GLOBAL DEFAULT 8 erff@@LIBC
68:   FUNC GLOBAL DEFAULT 8 feupdateenv@@LIBC
69:   FUNC GLOBAL DEFAULT 8 llrintl@@LIBC
70:   FUNC GLOBAL DEFAULT 8 significandl@@LIBC
71:   FUNC GLOBAL DEFAULT 8 log@@LIBC
72:   FUNC GLOBAL DEFAULT 8 modfl@@LIBC
73:   FUNC GLOBAL DEFAULT 8 scalbln@@LIBC
74:   FUNC GLOBAL DEFAULT 8 sincosl@@LIBC
75:   FUNC GLOBAL DEFAULT 8 truncl@@LIBC
76:   FUNC GLOBAL DEFAULT 8 cbrtf@@LIBC
77:   FUNC GLOBAL DEFAULT 8 erf@@LIBC
78:   FUNC GLOBAL DEFAULT 8 frexpl@@LIBC
79:   FUNC GLOBAL DEFAULT 8 casinf@@LIBC
80:   FUNC GLOBAL DEFAULT 8 conjf@@LIBC
81:   FUNC GLOBAL DEFAULT 8 j0f@@LIBC
82:   FUNC GLOBAL DEFAULT 8 __signbitf@@LIBC
83:   FUNC GLOBAL DEFAULT 8 atanf@@LIBC
84:   FUNC GLOBAL DEFAULT 8 cbrt@@LIBC
85:   FUNC GLOBAL DEFAULT 8 cimagf@@LIBC
86:   FUNC GLOBAL DEFAULT 8 logbl@@LIBC
87:   FUNC GLOBAL DEFAULT 8 asinhl@@LIBC
88:   FUNC GLOBAL DEFAULT 8 casinh@@LIBC
89:   FUNC GLOBAL DEFAULT 8 sinhl@@LIBC
90:   FUNC GLOBAL DEFAULT 8 atanh@@LIBC
91:   FUNC GLOBAL DEFAULT 8 cabsl@@LIBC
92:   FUNC GLOBAL DEFAULT 8 erfl@@LIBC
93:   FUNC GLOBAL DEFAULT 8 fegetexceptflag@@LIBC
94:   FUNC GLOBAL DEFAULT 8 lgamma@@LIBC
95:   FUNC GLOBAL DEFAULT 8 finite@@LIBC
96:   FUNC GLOBAL DEFAULT 8 log1pf@@LIBC
97:   FUNC GLOBAL DEFAULT 8 nexttowardf@@LIBC
98:   FUNC GLOBAL DEFAULT 8 remainderf@@LIBC
99:   FUNC GLOBAL DEFAULT 8 cbrtl@@LIBC
100:   FUNC GLOBAL DEFAULT 8 y0f@@LIBC
101:   FUNC GLOBAL DEFAULT 8 casinl@@LIBC_O
102:   FUNC GLOBAL DEFAULT 8 conjl@@LIBC
103:   FUNC GLOBAL DEFAULT 8 __signbitl@@LIBC
104:   FUNC GLOBAL DEFAULT 8 atanl@@LIBC
105:   FUNC GLOBAL DEFAULT 8 cimagl@@LIBC
106:   FUNC GLOBAL DEFAULT 8 cos@@LIBC
107:   FUNC GLOBAL DEFAULT 8 fmaf@@LIBC
108:   FUNC GLOBAL DEFAULT 8 ilogb@@LIBC
109:   FUNC GLOBAL DEFAULT 8 crealf@@LIBC
110:   FUNC GLOBAL DEFAULT 8 ctan@@LIBC
111:   FUNC GLOBAL DEFAULT 8 sincos@@LIBC
112:   FUNC GLOBAL DEFAULT 8 sqrtf@@LIBC
113:   FUNC GLOBAL DEFAULT 8 fmaxf@@LIBC
114:   FUNC GLOBAL DEFAULT 8 gammaf_r@@LIBC
115:   FUNC GLOBAL DEFAULT 8 llroundf@@LIBC
116:   FUNC GLOBAL DEFAULT 8 log1pl@@LIBC
117:   FUNC GLOBAL DEFAULT 8 nexttowardl@@LIBC
118:   FUNC GLOBAL DEFAULT 8 remainderl@@LIBC
119:   FUNC GLOBAL DEFAULT 8 __signbit@@LIBC
120:   FUNC GLOBAL DEFAULT 8 casin@@LIBC
121:   FUNC GLOBAL DEFAULT 8 asin@@LIBC
122:   FUNC GLOBAL DEFAULT 8 fmal@@LIBC
123:   FUNC GLOBAL DEFAULT 8 lrintf@@LIBC
124:   FUNC GLOBAL DEFAULT 8 nexttoward@@LIBC
125:   FUNC GLOBAL DEFAULT 8 ccoshf@@LIBC
126:   FUNC GLOBAL DEFAULT 8 creall@@LIBC
127:   FUNC GLOBAL DEFAULT 8 fminf@@LIBC
128:   FUNC GLOBAL DEFAULT 8 sqrtl@@LIBC
129:   FUNC GLOBAL DEFAULT 8 tgammaf@@LIBC
130:   FUNC GLOBAL DEFAULT 8 significand@@LIBC
131:   FUNC GLOBAL DEFAULT 8 cabs@@LIBC
132:   FUNC GLOBAL DEFAULT 8 fmaxl@@LIBC
133:   FUNC GLOBAL DEFAULT 8 llroundl@@LIBC
134:   FUNC GLOBAL DEFAULT 8 ctanf@@LIBC
135:   FUNC GLOBAL DEFAULT 8 nan@@LIBC
136:   FUNC GLOBAL DEFAULT 8 nearbyint@@LIBC
137:   FUNC GLOBAL DEFAULT 8 scalbf@@LIBC
138:   FUNC GLOBAL DEFAULT 8 ctanhf@@LIBC
139:   FUNC GLOBAL DEFAULT 8 gammaf@@LIBC
140:   FUNC GLOBAL DEFAULT 8 modf@@LIBC
141:   FUNC GLOBAL DEFAULT 8 remquo@@LIBC
142:   FUNC GLOBAL DEFAULT 8 tanf@@LIBC
143:   FUNC GLOBAL DEFAULT 8 ctanh@@LIBC
144:   FUNC GLOBAL DEFAULT 8 exp2f@@LIBC
145:   FUNC GLOBAL DEFAULT 8 fegetexcept@@LIBC
146:   FUNC GLOBAL DEFAULT 8 gamma@@LIBC
147:   FUNC GLOBAL DEFAULT 8 lrintl@@LIBC
148:   FUNC GLOBAL DEFAULT 8 lroundf@@LIBC
149:   FUNC GLOBAL DEFAULT 8 tan@@LIBC
150:   FUNC GLOBAL DEFAULT 8 atan2@@LIBC
151:   FUNC GLOBAL DEFAULT 8 ccoshl@@LIBC_O
152:   FUNC GLOBAL DEFAULT 8 copysignf@@LIBC
153:   FUNC GLOBAL DEFAULT 8 fegetenv@@LIBC
154:   FUNC GLOBAL DEFAULT 8 fminl@@LIBC
155:   FUNC GLOBAL DEFAULT 8 tanh@@LIBC
156:   FUNC GLOBAL DEFAULT 8 tgammal@@LIBC
157:   FUNC GLOBAL DEFAULT 8 fabsf@@LIBC
158:   FUNC GLOBAL DEFAULT 8 log1p@@LIBC
159:   FUNC GLOBAL DEFAULT 8 hypot@@LIBC
160:   FUNC GLOBAL DEFAULT 8 log10f@@LIBC
161:   FUNC GLOBAL DEFAULT 8 creal@@LIBC
162:   FUNC GLOBAL DEFAULT 8 ctanl@@LIBC_O
163:   FUNC GLOBAL DEFAULT 8 lgammaf_r@@LIBC
164:   FUNC GLOBAL DEFAULT 8 nanf@@LIBC
165:   FUNC GLOBAL DEFAULT 8 ctanhl@@LIBC_O
166:   FUNC GLOBAL DEFAULT 8 fdimf@@LIBC
167:   FUNC GLOBAL DEFAULT 8 fesetexceptflag@@LIBC
168:   FUNC GLOBAL DEFAULT 8 tanl@@LIBC
169:   FUNC GLOBAL DEFAULT 8 exp2l@@LIBC
170:   FUNC GLOBAL DEFAULT 8 finitef@@LIBC
171:   FUNC GLOBAL DEFAULT 8 fmax@@LIBC
172:   FUNC GLOBAL DEFAULT 8 lgammal_r@@LIBC
173:   FUNC GLOBAL DEFAULT 8 llround@@LIBC
174:   FUNC GLOBAL DEFAULT 8 lroundl@@LIBC
175:   FUNC GLOBAL DEFAULT 8 scalbn@@LIBC
176:   FUNC GLOBAL DEFAULT 8 cacoshf@@LIBC
177:   FUNC GLOBAL DEFAULT 8 copysignl@@LIBC
178:   FUNC GLOBAL DEFAULT 8 csinhf@@LIBC
179:   FUNC GLOBAL DEFAULT 8 fabsl@@LIBC
180:   FUNC GLOBAL DEFAULT 8 cpow@@LIBC_O
181:   FUNC GLOBAL DEFAULT 8 log10@@LIBC
182:   FUNC GLOBAL DEFAULT 8 log10l@@LIBC
183:   FUNC GLOBAL DEFAULT 8 conj@@LIBC
184:   FUNC GLOBAL DEFAULT 8 fedisableexcept@@LIBC
185:   FUNC GLOBAL DEFAULT 8 frexp@@LIBC
186:   FUNC GLOBAL DEFAULT 8 nanl@@LIBC
187:   FUNC GLOBAL DEFAULT 8 rintf@@LIBC
188:   FUNC GLOBAL DEFAULT 8 catanhf@@LIBC
189:   FUNC GLOBAL DEFAULT 8 fdiml@@LIBC
190:   FUNC GLOBAL DEFAULT 8 scalb@@LIBC
191:   FUNC GLOBAL DEFAULT 8 acosf@@LIBC
192:   FUNC GLOBAL DEFAULT 8 drem@@LIBC
193:   FUNC GLOBAL DEFAULT 8 logb@@LIBC
194:   FUNC GLOBAL DEFAULT 8 nextafter@@LIBC
195:   FUNC GLOBAL DEFAULT 8 nextafterf@@LIBC
196:   FUNC GLOBAL DEFAULT 8 cacoshl@@LIBC_O
197:   FUNC GLOBAL DEFAULT 8 catanf@@LIBC
198:   FUNC GLOBAL DEFAULT 8 copysign@@LIBC
199:   FUNC GLOBAL DEFAULT 8 acosh@@LIBC
200:   FUNC GLOBAL DEFAULT 8 csinhl@@LIBC_O
201:   FUNC GLOBAL DEFAULT 8 j1f@@LIBC
202:   FUNC GLOBAL DEFAULT 8 scalblnf@@LIBC
203:   FUNC GLOBAL DEFAULT 8 yn@@LIBC
204:   FUNC GLOBAL DEFAULT 8 catanh@@LIBC
205:   FUNC GLOBAL DEFAULT 8 clogf@@LIBC_O
206:   FUNC GLOBAL DEFAULT 8 carg@@LIBC
207:   FUNC GLOBAL DEFAULT 8 csin@@LIBC
208:   FUNC GLOBAL DEFAULT 8 feholdexcept@@LIBC
209:   FUNC GLOBAL DEFAULT 8 fesetround@@LIBC
210:   FUNC GLOBAL DEFAULT 8 jn@@LIBC
211:   FUNC GLOBAL DEFAULT 8 logf@@LIBC
212:   FUNC GLOBAL DEFAULT 8 rintl@@LIBC
213:   FUNC GLOBAL DEFAULT 8 catanhl@@LIBC_O
214:   FUNC GLOBAL DEFAULT 8 ldexpf@@LIBC
215:   FUNC GLOBAL DEFAULT 8 acosl@@LIBC
216:   FUNC GLOBAL DEFAULT 8 feenableexcept@@LIBC
217:   FUNC GLOBAL DEFAULT 8 hypotf@@LIBC
218:   FUNC GLOBAL DEFAULT 8 lgamma_r@@LIBC
219:   FUNC GLOBAL DEFAULT 8 nextafterl@@LIBC
220:   FUNC GLOBAL DEFAULT 8 catanl@@LIBC_O
221:   FUNC GLOBAL DEFAULT 8 cpowf@@LIBC_O
222:   FUNC GLOBAL DEFAULT 8 remquof@@LIBC
223:   FUNC GLOBAL DEFAULT 8 y1f@@LIBC
224:   FUNC GLOBAL DEFAULT 8 casinhf@@LIBC
225:   FUNC GLOBAL DEFAULT 8 csqrt@@LIBC
226:   FUNC GLOBAL DEFAULT 8 csqrtf@@LIBC
227:   FUNC GLOBAL DEFAULT 8 ilogbf@@LIBC
228:   FUNC GLOBAL DEFAULT 8 pow@@LIBC
229:   FUNC GLOBAL DEFAULT 8 powf@@LIBC
230:   FUNC GLOBAL DEFAULT 8 scalblnl@@LIBC
231:   FUNC GLOBAL DEFAULT 8 asinf@@LIBC
232:   FUNC GLOBAL DEFAULT 8 cimag@@LIBC
233:   FUNC GLOBAL DEFAULT 8 clogl@@LIBC_O
234:   FUNC GLOBAL DEFAULT 8 expm1f@@LIBC
235:   FUNC GLOBAL DEFAULT 8 sqrt@@LIBC
236:   FUNC GLOBAL DEFAULT 8 trunc@@LIBC
237:   FUNC GLOBAL DEFAULT 8 fmod@@LIBC
238:   FUNC GLOBAL DEFAULT 8 fmodf@@LIBC
239:   FUNC GLOBAL DEFAULT 8 logl@@LIBC
240:   FUNC GLOBAL DEFAULT 8 roundf@@LIBC
241:   FUNC GLOBAL DEFAULT 8 asinh@@LIBC
242:   FUNC GLOBAL DEFAULT 8 ldexpl@@LIBC
243:   FUNC GLOBAL DEFAULT 8 y0@@LIBC
244:   FUNC GLOBAL DEFAULT 8 hypotl@@LIBC
245:   FUNC GLOBAL DEFAULT 8 y1@@LIBC
246:   FUNC GLOBAL DEFAULT 8 cacos@@LIBC
247:   FUNC GLOBAL DEFAULT 8 cexpf@@LIBC
248:   FUNC GLOBAL DEFAULT 8 cpowl@@LIBC_O
249:   FUNC GLOBAL DEFAULT 8 j0@@LIBC
250:   FUNC GLOBAL DEFAULT 8 llrint@@LIBC
251:   FUNC GLOBAL DEFAULT 8 log2f@@LIBC
252:   FUNC GLOBAL DEFAULT 8 remquol@@LIBC
253:   FUNC GLOBAL DEFAULT 8 acos@@LIBC
254:   FUNC GLOBAL DEFAULT 8 casinhl@@LIBC_O
255:   FUNC GLOBAL DEFAULT 8 csqrtl@@LIBC
256:   FUNC GLOBAL DEFAULT 8 expf@@LIBC
257:   FUNC GLOBAL DEFAULT 8 ilogbl@@LIBC
258:   FUNC GLOBAL DEFAULT 8 j1@@LIBC
259:   FUNC GLOBAL DEFAULT 8 powl@@LIBC
260:   FUNC GLOBAL DEFAULT 8 asinl@@LIBC
261:   FUNC GLOBAL DEFAULT 8 expm1l@@LIBC
262:   FUNC GLOBAL DEFAULT 8 feclearexcept@@LIBC
263:   FUNC GLOBAL DEFAULT 8 feraiseexcept@@LIBC
264:   FUNC GLOBAL DEFAULT 8 sin@@LIBC
265:   OBJECT GLOBAL DEFAULT 10 __fe_dfl_env@@LIBC
266:   FUNC GLOBAL DEFAULT 8 ccosf@@LIBC
267:   FUNC GLOBAL DEFAULT 8 floorf@@LIBC
268:   FUNC GLOBAL DEFAULT 8 fmodl@@LIBC
269:   FUNC GLOBAL DEFAULT 8 lround@@LIBC
270:   FUNC GLOBAL DEFAULT 8 roundl@@LIBC
271:   FUNC GLOBAL DEFAULT 8 cosf@@LIBC
272:   FUNC GLOBAL DEFAULT 8 nearbyintf@@LIBC
273:   FUNC GLOBAL DEFAULT 8 ccosh@@LIBC
274:   FUNC GLOBAL DEFAULT 8 ceilf@@LIBC
275:   FUNC GLOBAL DEFAULT 8 fabs@@LIBC
276:   FUNC GLOBAL DEFAULT 8 cexpl@@LIBC_O
277:   FUNC GLOBAL DEFAULT 8 cosh@@LIBC
278:   FUNC GLOBAL DEFAULT 8 cprojf@@LIBC
279:   FUNC GLOBAL DEFAULT 8 fegetround@@LIBC
280:   FUNC GLOBAL DEFAULT 8 floor@@LIBC
281:   FUNC GLOBAL DEFAULT 8 log2l@@LIBC
282:   FUNC GLOBAL DEFAULT 8 atan2f@@LIBC
283:   FUNC GLOBAL DEFAULT 8 expl@@LIBC
284:   FUNC GLOBAL DEFAULT 8 fetestexcept@@LIBC
285:   FUNC GLOBAL DEFAULT 8 ceil@@LIBC
286:   FUNC GLOBAL DEFAULT 8 erfcf@@LIBC
