 0x0000000e (SONAME)                     Library soname: [android.hardware.graphics.bufferqueue@1.0.so]
  
Symbol   contains 407 entries:
Num:   Type Bind Vis Ndx Name
0:   NOTYPE LOCAL DEFAULT UND
1:   FUNC GLOBAL DEFAULT UND __cxa_finalize@LIBC (2)
2:   FUNC GLOBAL DEFAULT UND _ZN7android14sp_report_ra
3:   FUNC GLOBAL DEFAULT UND _ZN7android21report_syspr
4:   OBJECT GLOBAL DEFAULT UND _ZN7android4hidl4base4V1_
5:   FUNC GLOBAL DEFAULT UND _ZN7android4hidl4base4V1_
6:   FUNC GLOBAL DEFAULT UND _ZN7android4hidl4base4V1_
7:   FUNC GLOBAL DEFAULT UND _ZN7android4hidl4base4V1_
8:   FUNC GLOBAL DEFAULT UND _ZN7android4hidl4base4V1_
9:   FUNC GLOBAL DEFAULT UND _ZN7android4hidl4base4V1_
10:   FUNC GLOBAL DEFAULT UND _ZN7android4hidl4base4V1_
11:   FUNC GLOBAL DEFAULT UND _ZN7android4hidl4base4V1_
12:   FUNC GLOBAL DEFAULT UND _ZN7android4hidl4base4V1_
13:   FUNC GLOBAL DEFAULT UND _ZN7android4hidl4base4V1_
14:   FUNC GLOBAL DEFAULT UND _ZN7android4hidl4base4V1_
15:   FUNC GLOBAL DEFAULT UND _ZN7android4hidl4base4V1_
16:   FUNC GLOBAL DEFAULT UND _ZN7android4hidl4base4V1_
17:   FUNC GLOBAL DEFAULT UND _ZN7android4hidl4base4V1_
18:   FUNC GLOBAL DEFAULT UND _ZN7android4hidl4base4V1_
19:   FUNC GLOBAL DEFAULT UND _ZN7android4hidl4base4V1_
20:   FUNC GLOBAL DEFAULT UND _ZN7android4hidl4base4V1_
21:   FUNC GLOBAL DEFAULT UND _ZN7android4hidl4base4V1_
22:   FUNC GLOBAL DEFAULT UND _ZN7android4hidl4base4V1_
23:   FUNC GLOBAL DEFAULT UND _ZN7android4hidl4base4V1_
24:   FUNC GLOBAL DEFAULT UND _ZN7android4hidl4base4V1_
25:   FUNC GLOBAL DEFAULT UND _ZN7android4hidl4base4V1_
26:   FUNC GLOBAL DEFAULT UND _ZN7android4hidl4base4V1_
27:   FUNC GLOBAL DEFAULT UND _ZN7android4hidl4base4V1_
28:   FUNC GLOBAL DEFAULT UND _ZN7android7RefBase10onFi
29:   FUNC GLOBAL DEFAULT UND _ZN7android7RefBase12weak
30:   FUNC GLOBAL DEFAULT UND _ZN7android7RefBase13onLa
31:   FUNC GLOBAL DEFAULT UND _ZN7android7RefBase15onLa
32:   FUNC GLOBAL DEFAULT UND _ZN7android7RefBase20onIn
33:   FUNC GLOBAL DEFAULT UND _ZN7android7RefBaseC2Ev
34:   FUNC GLOBAL DEFAULT UND _ZN7android7RefBaseD2Ev
35:   FUNC GLOBAL DEFAULT UND _ZN7android8hardware10IIn
36:   FUNC GLOBAL DEFAULT UND _ZN7android8hardware10IIn
37:   FUNC GLOBAL DEFAULT UND _ZN7android8hardware10IIn
38:   FUNC GLOBAL DEFAULT UND _ZN7android8hardware10IIn
39:   FUNC GLOBAL DEFAULT UND _ZN7android8hardware10IIn
40:   FUNC GLOBAL DEFAULT UND _ZN7android8hardware11BpH
41:   FUNC GLOBAL DEFAULT UND _ZN7android8hardware11BpH
42:   FUNC GLOBAL DEFAULT UND _ZN7android8hardware11BpH
43:   FUNC GLOBAL DEFAULT UND _ZN7android8hardware11BpH
44:   FUNC GLOBAL DEFAULT UND _ZN7android8hardware11BpH
45:   FUNC GLOBAL DEFAULT UND _ZN7android8hardware11BpH
46:   FUNC GLOBAL DEFAULT UND _ZN7android8hardware11BpH
47:   FUNC GLOBAL DEFAULT UND _ZN7android8hardware11hid
48:   FUNC GLOBAL DEFAULT UND _ZN7android8hardware11hid
49:   FUNC GLOBAL DEFAULT UND _ZN7android8hardware11hid
50:   FUNC GLOBAL DEFAULT UND _ZN7android8hardware11hid
51:   FUNC GLOBAL DEFAULT UND _ZN7android8hardware11hid
52:   FUNC GLOBAL DEFAULT UND _ZN7android8hardware11hid
53:   FUNC GLOBAL DEFAULT UND _ZN7android8hardware11hid
54:   FUNC GLOBAL DEFAULT UND _ZN7android8hardware11hid
55:   FUNC GLOBAL DEFAULT UND _ZN7android8hardware12Pro
56:   FUNC GLOBAL DEFAULT UND _ZN7android8hardware12Pro
57:   FUNC GLOBAL DEFAULT UND _ZN7android8hardware13wri
58:   FUNC GLOBAL DEFAULT UND _ZN7android8hardware14rea
59:   FUNC GLOBAL DEFAULT UND _ZN7android8hardware21def
60:   FUNC GLOBAL DEFAULT UND _ZN7android8hardware21wri
61:   FUNC GLOBAL DEFAULT UND _ZN7android8hardware21wri
62:   FUNC GLOBAL DEFAULT UND _ZN7android8hardware22rea
63:   FUNC GLOBAL DEFAULT UND _ZN7android8hardware22rea
64:   FUNC GLOBAL DEFAULT UND _ZN7android8hardware23get
65:   FUNC GLOBAL DEFAULT UND _ZN7android8hardware27hid
66:   FUNC GLOBAL DEFAULT UND _ZN7android8hardware27hid
67:   FUNC GLOBAL DEFAULT UND _ZN7android8hardware5medi
68:   FUNC GLOBAL DEFAULT UND _ZN7android8hardware5medi
69:   FUNC GLOBAL DEFAULT UND _ZN7android8hardware6Parc
70:   FUNC GLOBAL DEFAULT UND _ZN7android8hardware6Parc
71:   FUNC GLOBAL DEFAULT UND _ZN7android8hardware6Parc
72:   FUNC GLOBAL DEFAULT UND _ZN7android8hardware6Parc
73:   FUNC GLOBAL DEFAULT UND _ZN7android8hardware6Parc
74:   FUNC GLOBAL DEFAULT UND _ZN7android8hardware6Parc
75:   FUNC GLOBAL DEFAULT UND _ZN7android8hardware6Parc
76:   FUNC GLOBAL DEFAULT UND _ZN7android8hardware6Parc
77:   FUNC GLOBAL DEFAULT UND _ZN7android8hardware6Parc
78:   FUNC GLOBAL DEFAULT UND _ZN7android8hardware6Parc
79:   FUNC GLOBAL DEFAULT UND _ZN7android8hardware6Parc
80:   FUNC GLOBAL DEFAULT UND _ZN7android8hardware6Parc
81:   FUNC GLOBAL DEFAULT UND _ZN7android8hardware6Stat
82:   FUNC GLOBAL DEFAULT UND _ZN7android8hardware6Stat
83:   FUNC GLOBAL DEFAULT UND _ZN7android8hardware6Stat
84:   FUNC GLOBAL DEFAULT UND _ZN7android8hardware6Stat
85:   FUNC GLOBAL DEFAULT UND _ZN7android8hardware7IBin
86:   FUNC GLOBAL DEFAULT UND _ZN7android8hardware7IBin
87:   FUNC GLOBAL DEFAULT UND _ZN7android8hardware7IBin
88:   FUNC GLOBAL DEFAULT UND _ZN7android8hardware7IBin
89:   FUNC GLOBAL DEFAULT UND _ZN7android8hardware7deta
90:   FUNC GLOBAL DEFAULT UND _ZN7android8hardware7deta
91:   FUNC GLOBAL DEFAULT UND _ZN7android8hardware7deta
92:   FUNC GLOBAL DEFAULT UND _ZN7android8hardware7deta
93:   FUNC GLOBAL DEFAULT UND _ZN7android8hardware7deta
94:   FUNC GLOBAL DEFAULT UND _ZN7android8hardware7deta
95:   FUNC GLOBAL DEFAULT UND _ZN7android8hardware7deta
96:   OBJECT GLOBAL DEFAULT UND _ZN7android8hardware7deta
97:   OBJECT GLOBAL DEFAULT UND _ZN7android8hardware7deta
98:   FUNC GLOBAL DEFAULT UND _ZN7android8hardware7deta
99:   FUNC GLOBAL DEFAULT UND _ZN7android8hardware7deta
100:   FUNC GLOBAL DEFAULT UND _ZN7android8hardware7deta
101:   FUNC GLOBAL DEFAULT UND _ZN7android8hardware7deta
102:   FUNC GLOBAL DEFAULT UND _ZN7android8hardware7deta
103:   FUNC GLOBAL DEFAULT UND _ZN7android8hardware7deta
104:   FUNC GLOBAL DEFAULT UND _ZN7android8hardware7deta
105:   FUNC GLOBAL DEFAULT UND _ZN7android8hardware7deta
106:   FUNC GLOBAL DEFAULT UND _ZN7android8hardware7deta
107:   FUNC GLOBAL DEFAULT UND _ZN7android8hardware7deta
108:   OBJECT GLOBAL DEFAULT UND _ZN7android8hardware7deta
109:   FUNC GLOBAL DEFAULT UND _ZN7android8hardware9BHwB
110:   FUNC GLOBAL DEFAULT UND _ZN7android8hardware9BHwB
111:   FUNC GLOBAL DEFAULT UND _ZN7android8hardware9BHwB
112:   FUNC GLOBAL DEFAULT UND _ZN7android8hardware9BHwB
113:   FUNC GLOBAL DEFAULT UND _ZN7android8hardware9BHwB
114:   FUNC GLOBAL DEFAULT UND _ZN7android8hardware9BHwB
115:   FUNC GLOBAL DEFAULT UND _ZN7android8hardware9BHwB
116:   FUNC GLOBAL DEFAULT UND _ZN7android8hardware9BHwB
117:   FUNC GLOBAL DEFAULT UND _ZN7android8hardware9BHwB
118:   FUNC GLOBAL DEFAULT UND _ZN7android8hardware9BHwB
119:   FUNC GLOBAL DEFAULT UND _ZNK7android7RefBase10cre
120:   FUNC GLOBAL DEFAULT UND _ZNK7android7RefBase11get
121:   FUNC GLOBAL DEFAULT UND _ZNK7android7RefBase9decS
122:   FUNC GLOBAL DEFAULT UND _ZNK7android7RefBase9incS
123:   FUNC GLOBAL DEFAULT UND _ZNK7android8hardware11hi
124:   FUNC GLOBAL DEFAULT UND _ZNK7android8hardware6Par
125:   FUNC GLOBAL DEFAULT UND _ZNK7android8hardware6Par
126:   FUNC GLOBAL DEFAULT UND _ZNK7android8hardware6Par
127:   FUNC GLOBAL DEFAULT UND _ZNK7android8hardware6Par
128:   FUNC GLOBAL DEFAULT UND _ZNK7android8hardware6Par
129:   FUNC GLOBAL DEFAULT UND _ZNK7android8hardware6Par
130:   FUNC GLOBAL DEFAULT UND _ZNK7android8hardware6Par
131:   FUNC GLOBAL DEFAULT UND _ZNK7android8hardware6Par
132:   FUNC GLOBAL DEFAULT UND _ZNK7android8hardware6Par
133:   FUNC GLOBAL DEFAULT UND _ZNK7android8hardware6Par
134:   FUNC GLOBAL DEFAULT UND _ZNK7android8hardware7IBi
135:   FUNC GLOBAL DEFAULT UND _ZNK7android8hardware7det
136:   FUNC GLOBAL DEFAULT UND _ZNK7android8hardware9BHw
137:   FUNC GLOBAL DEFAULT UND _ZNKSt3__120__vector_base
138:   FUNC GLOBAL DEFAULT UND _ZNKSt3__121__basic_strin
139:   FUNC GLOBAL DEFAULT UND _ZNSt3__112basic_stringIc
140:   FUNC GLOBAL DEFAULT UND _ZNSt3__15mutex4lockEv
141:   FUNC GLOBAL DEFAULT UND _ZNSt3__15mutex6unlockEv
142:   FUNC GLOBAL DEFAULT UND _ZNSt3__15mutexD1Ev
143:   FUNC GLOBAL DEFAULT UND _ZTv0_n12_N7android4hidl4
144:   FUNC GLOBAL DEFAULT UND _ZTv0_n12_N7android4hidl4
145:   FUNC GLOBAL DEFAULT UND _ZTv0_n12_N7android8hardw
146:   FUNC GLOBAL DEFAULT UND _ZTv0_n12_N7android8hardw
147:   FUNC GLOBAL DEFAULT UND _ZTv0_n12_N7android8hardw
148:   FUNC GLOBAL DEFAULT UND _ZTv0_n12_N7android8hardw
149:   FUNC GLOBAL DEFAULT UND _ZTv0_n12_N7android8hardw
150:   FUNC GLOBAL DEFAULT UND _ZTv0_n12_N7android8hardw
151:   FUNC GLOBAL DEFAULT UND _ZTv0_n12_N7android8hardw
152:   FUNC GLOBAL DEFAULT UND _ZTv0_n12_N7android8hardw
153:   FUNC GLOBAL DEFAULT UND _ZTv0_n16_N7android8hardw
154:   FUNC GLOBAL DEFAULT UND _ZTv0_n20_N7android8hardw
155:   FUNC GLOBAL DEFAULT UND _ZTv0_n24_N7android8hardw
156:   FUNC GLOBAL DEFAULT UND _ZdaPv
157:   FUNC GLOBAL DEFAULT UND _ZdlPv
158:   FUNC GLOBAL DEFAULT UND _Znaj
159:   FUNC GLOBAL DEFAULT UND _Znwj
160:   FUNC GLOBAL DEFAULT UND __android_log_assert@LIBLOG (3)
161:   FUNC GLOBAL DEFAULT UND __cxa_pure_virtual
162:   FUNC GLOBAL DEFAULT UND __stack_chk_fail@LIBC (2)
163:   OBJECT GLOBAL DEFAULT UND __stack_chk_guard@LIBC (2)
164:   FUNC GLOBAL DEFAULT UND abort@LIBC (2)
165:   FUNC GLOBAL DEFAULT UND atrace_begin_body
166:   OBJECT GLOBAL DEFAULT UND atrace_enabled_tags
167:   FUNC GLOBAL DEFAULT UND atrace_end_body
168:   OBJECT GLOBAL DEFAULT UND atrace_is_ready
169:   FUNC GLOBAL DEFAULT UND atrace_setup
170:   FUNC GLOBAL DEFAULT UND memcmp@LIBC (2)
171:   FUNC GLOBAL DEFAULT UND strlen@LIBC (2)
172:   FUNC GLOBAL DEFAULT UND memcpy@LIBC (2)
173:   FUNC GLOBAL DEFAULT UND memset@LIBC (2)
174:   FUNC GLOBAL DEFAULT 14 _ZN7android8hardware8grap
175:   FUNC GLOBAL DEFAULT 14 _ZN7android8hardware8grap
176:   OBJECT GLOBAL DEFAULT 18 _ZTCN7android8hardware8gr
177:   OBJECT GLOBAL DEFAULT 18 _ZTCN7android8hardware8gr
178:   FUNC GLOBAL DEFAULT 14 _ZN7android8hardware8grap
179:   FUNC GLOBAL DEFAULT 14 _ZN7android8hardware8grap
180:   FUNC GLOBAL DEFAULT 14 _ZN7android8hardware8grap
181:   OBJECT GLOBAL DEFAULT 18 _ZTCN7android8hardware8gr
182:   FUNC GLOBAL DEFAULT 14 _ZN7android8hardware8grap
183:   FUNC GLOBAL DEFAULT 14 _ZN7android8hardware8grap
184:   FUNC GLOBAL DEFAULT 14 _ZN7android8hardware8grap
185:   FUNC GLOBAL DEFAULT 14 _ZN7android8hardware8grap
186:   FUNC GLOBAL DEFAULT 14 _ZN7android8hardware8grap
187:   FUNC GLOBAL DEFAULT 14 _ZN7android8hardware8grap
188:   FUNC GLOBAL DEFAULT 14 _ZN7android8hardware8grap
189:   FUNC GLOBAL DEFAULT 14 _ZN7android8hardware8grap
190:   OBJECT GLOBAL DEFAULT 18 _ZTCN7android8hardware8gr
191:   FUNC GLOBAL DEFAULT 14 _ZN7android8hardware8grap
192:   FUNC GLOBAL DEFAULT 14 _ZN7android8hardware8grap
193:   FUNC GLOBAL DEFAULT 14 _ZN7android8hardware8grap
194:   FUNC GLOBAL DEFAULT 14 _ZN7android8hardware8grap
195:   FUNC GLOBAL DEFAULT 14 _ZN7android8hardware8grap
196:   FUNC GLOBAL DEFAULT 14 _ZN7android8hardware8grap
197:   FUNC GLOBAL DEFAULT 14 _ZN7android8hardware8grap
198:   FUNC GLOBAL DEFAULT 14 _ZN7android8hardware8grap
199:   FUNC GLOBAL DEFAULT 14 _ZN7android8hardware8grap
200:   FUNC GLOBAL DEFAULT 14 _ZN7android8hardware8grap
201:   FUNC GLOBAL DEFAULT 14 _ZN7android8hardware8grap
202:   OBJECT GLOBAL DEFAULT 18 _ZTCN7android8hardware8gr
203:   FUNC GLOBAL DEFAULT 14 _ZN7android8hardware8grap
204:   FUNC GLOBAL DEFAULT 14 _ZN7android8hardware8grap
205:   OBJECT GLOBAL DEFAULT 18 _ZTCN7android8hardware8gr
206:   FUNC GLOBAL DEFAULT 14 _ZN7android8hardware8grap
207:   FUNC GLOBAL DEFAULT 14 _ZN7android8hardware8grap
208:   FUNC GLOBAL DEFAULT 14 _ZN7android8hardware8grap
209:   OBJECT GLOBAL DEFAULT 18 _ZTTN7android8hardware8gr
210:   FUNC GLOBAL DEFAULT 14 _ZN7android8hardware8grap
211:   OBJECT WEAK DEFAULT 18 _ZTCN7android8hardware8gr
212:   FUNC GLOBAL DEFAULT 14 __aeabi_memclr4
213:   FUNC GLOBAL DEFAULT 14 _ZN7android8hardware8grap
214:   FUNC GLOBAL DEFAULT 14 _ZN7android8hardware8grap
215:   FUNC GLOBAL DEFAULT 14 _ZN7android8hardware8grap
216:   FUNC GLOBAL DEFAULT 14 _ZN7android8hardware8grap
217:   FUNC GLOBAL DEFAULT 14 _ZN7android8hardware8grap
218:   FUNC WEAK DEFAULT 14 _ZN7android8hardware7deta
219:   FUNC GLOBAL DEFAULT 14 _ZN7android8hardware8grap
220:   FUNC WEAK DEFAULT 14 _ZNSt3__113__tree_removeI
221:   FUNC GLOBAL DEFAULT 14 _ZN7android8hardware8grap
222:   FUNC GLOBAL DEFAULT 14 _ZThn20_N7android8hardwar
223:   FUNC WEAK DEFAULT 14 _ZNSt3__16vectorIN7androi
224:   OBJECT WEAK DEFAULT 18 _ZTVN7android8hardware8gr
225:   FUNC GLOBAL DEFAULT 14 _ZTv0_n12_N7android8hardw
226:   FUNC GLOBAL DEFAULT 14 _ZN7android8hardware8grap
227:   FUNC GLOBAL DEFAULT 14 _ZN7android8hardware8grap
228:   FUNC GLOBAL DEFAULT 14 __aeabi_memclr8
229:   FUNC GLOBAL DEFAULT 14 _ZN7android8hardware8grap
230:   FUNC GLOBAL DEFAULT 14 _ZN7android8hardware8grap
231:   OBJECT GLOBAL DEFAULT 18 _ZTCN7android8hardware8gr
232:   FUNC GLOBAL DEFAULT 14 _ZThn20_N7android8hardwar
233:   OBJECT GLOBAL DEFAULT 18 _ZTCN7android8hardware8gr
234:   FUNC GLOBAL DEFAULT 14 __aeabi_memcpy4
235:   FUNC GLOBAL DEFAULT 14 _ZN7android8hardware8grap
236:   FUNC GLOBAL DEFAULT 14 _ZN7android8hardware8grap
237:   FUNC GLOBAL DEFAULT 14 _ZN7android8hardware8grap
238:   FUNC GLOBAL DEFAULT 14 _ZN7android8hardware8grap
239:   FUNC GLOBAL DEFAULT 14 _ZN7android8hardware8grap
240:   FUNC WEAK DEFAULT 14 _ZNSt3__16__treeINS_12__v
241:   FUNC GLOBAL DEFAULT 14 __aeabi_memcpy
242:   FUNC GLOBAL DEFAULT 14 _ZN7android8hardware8grap
243:   OBJECT GLOBAL DEFAULT 18 _ZTVN7android8hardware8gr
244:   FUNC GLOBAL DEFAULT 14 _ZN7android8hardware8grap
245:   OBJECT GLOBAL DEFAULT 18 _ZTTN7android8hardware8gr
246:   FUNC GLOBAL DEFAULT 14 _ZN7android8hardware8grap
247:   FUNC GLOBAL DEFAULT 14 __aeabi_memcpy8
248:   FUNC GLOBAL DEFAULT 14 _ZN7android8hardware8grap
249:   FUNC GLOBAL DEFAULT 14 _ZN7android8hardware8grap
250:   FUNC GLOBAL DEFAULT 14 _ZN7android8hardware8grap
251:   OBJECT GLOBAL DEFAULT 18 _ZTCN7android8hardware8gr
252:   FUNC GLOBAL DEFAULT 14 _ZN7android8hardware8grap
253:   FUNC GLOBAL DEFAULT 14 _ZN7android8hardware8grap
254:   FUNC GLOBAL DEFAULT 14 _ZN7android8hardware8grap
255:   FUNC GLOBAL DEFAULT 14 __aeabi_memset
256:   FUNC WEAK DEFAULT 14 _ZN7android8hardware7deta
257:   FUNC GLOBAL DEFAULT 14 _ZN7android8hardware8grap
258:   FUNC GLOBAL DEFAULT 14 _ZN7android8hardware8grap
259:   FUNC GLOBAL DEFAULT 14 _ZN7android8hardware8grap
260:   FUNC GLOBAL DEFAULT 14 _ZN7android8hardware8grap
261:   FUNC WEAK DEFAULT 14 _ZN7android8hardware10fro
262:   FUNC GLOBAL DEFAULT 14 _ZN7android8hardware8grap
263:   FUNC GLOBAL DEFAULT 14 _ZN7android8hardware8grap
264:   FUNC GLOBAL DEFAULT 14 _ZN7android8hardware8grap
265:   FUNC GLOBAL DEFAULT 14 _ZN7android8hardware8grap
266:   FUNC GLOBAL DEFAULT 14 _ZN7android8hardware8grap
267:   FUNC GLOBAL DEFAULT 14 _ZN7android8hardware8grap
268:   FUNC GLOBAL DEFAULT 14 _ZTv0_n12_N7android8hardw
269:   FUNC GLOBAL DEFAULT 14 _ZN7android8hardware8grap
270:   FUNC GLOBAL DEFAULT 14 _ZN7android8hardware8grap
271:   OBJECT GLOBAL DEFAULT 18 _ZTCN7android8hardware8gr
272:   FUNC GLOBAL DEFAULT 14 _ZN7android8hardware8grap
273:   FUNC GLOBAL DEFAULT 14 _ZThn20_N7android8hardwar
274:   FUNC GLOBAL DEFAULT 14 _ZN7android8hardware8grap
275:   FUNC GLOBAL DEFAULT 14 _ZN7android8hardware8grap
276:   FUNC GLOBAL DEFAULT 14 _ZN7android8hardware8grap
277:   FUNC WEAK DEFAULT 14 _ZNSt3__16__treeINS_12__v
278:   FUNC GLOBAL DEFAULT 14 _ZTv0_n12_N7android8hardw
279:   FUNC GLOBAL DEFAULT 14 _ZN7android8hardware8grap
280:   FUNC GLOBAL DEFAULT 14 _ZN7android8hardware8grap
281:   FUNC GLOBAL DEFAULT 14 _ZN7android8hardware8grap
282:   FUNC GLOBAL DEFAULT 14 _ZN7android8hardware8grap
283:   FUNC GLOBAL DEFAULT 14 _ZN7android8hardware8grap
284:   FUNC GLOBAL DEFAULT 14 _ZN7android8hardware8grap
285:   FUNC GLOBAL DEFAULT 14 _ZN7android8hardware8grap
286:   FUNC GLOBAL DEFAULT 14 _ZN7android8hardware8grap
287:   FUNC GLOBAL DEFAULT 14 _ZThn20_N7android8hardwar
288:   FUNC GLOBAL DEFAULT 14 _ZN7android8hardware8grap
289:   FUNC WEAK DEFAULT 14 _ZNSt3__16__treeINS_12__v
290:   FUNC GLOBAL DEFAULT 14 _ZN7android8hardware8grap
291:   FUNC GLOBAL DEFAULT 14 _ZN7android8hardware8grap
292:   FUNC GLOBAL DEFAULT 14 _ZN7android8hardware8grap
293:   FUNC WEAK DEFAULT 14 _ZN7android8hardware7deta
294:   FUNC GLOBAL DEFAULT 14 _ZN7android8hardware8grap
295:   FUNC GLOBAL DEFAULT 14 _ZN7android8hardware8grap
296:   FUNC GLOBAL DEFAULT 14 _ZN7android8hardware8grap
297:   FUNC GLOBAL DEFAULT 14 _ZN7android8hardware8grap
298:   FUNC GLOBAL DEFAULT 14 __aeabi_memset4
299:   FUNC GLOBAL DEFAULT 14 _ZN7android8hardware8grap
300:   FUNC GLOBAL DEFAULT 14 _ZN7android8hardware8grap
301:   FUNC GLOBAL DEFAULT 14 _ZN7android8hardware8grap
302:   FUNC GLOBAL DEFAULT 14 _ZN7android8hardware8grap
303:   FUNC GLOBAL DEFAULT 14 _ZN7android8hardware8grap
304:   OBJECT GLOBAL DEFAULT 18 _ZTVN7android8hardware8gr
305:   FUNC GLOBAL DEFAULT 14 _ZN7android8hardware8grap
306:   FUNC GLOBAL DEFAULT 14 __aeabi_memset8
307:   OBJECT GLOBAL DEFAULT 16 _ZN7android8hardware8grap
308:   FUNC GLOBAL DEFAULT 14 _ZN7android8hardware8grap
309:   OBJECT GLOBAL DEFAULT 18 _ZTCN7android8hardware8gr
310:   OBJECT GLOBAL DEFAULT 18 _ZTTN7android8hardware8gr
311:   FUNC WEAK DEFAULT 14 _ZNSt3__16__treeINS_12__v
312:   FUNC GLOBAL DEFAULT 14 _ZTv0_n12_N7android8hardw
313:   FUNC GLOBAL DEFAULT 14 _ZN7android8hardware8grap
314:   FUNC GLOBAL DEFAULT 14 _ZN7android8hardware8grap
315:   FUNC GLOBAL DEFAULT 14 _ZN7android8hardware8grap
316:   FUNC GLOBAL DEFAULT 14 _ZN7android8hardware8grap
317:   FUNC GLOBAL DEFAULT 14 _ZN7android8hardware8grap
318:   FUNC WEAK DEFAULT 14 _ZNSt3__16vectorINS_8func
319:   FUNC GLOBAL DEFAULT 14 _ZN7android8hardware8grap
320:   FUNC GLOBAL DEFAULT 14 _ZN7android8hardware8grap
321:   FUNC WEAK DEFAULT 14 _ZN7android8hardware7deta
322:   FUNC GLOBAL DEFAULT 14 _ZN7android8hardware8grap
323:   FUNC GLOBAL DEFAULT 14 _ZN7android8hardware8grap
324:   FUNC GLOBAL DEFAULT 14 _ZN7android8hardware8grap
325:   FUNC GLOBAL DEFAULT 14 _ZN7android8hardware8grap
326:   FUNC GLOBAL DEFAULT 14 _ZN7android8hardware8grap
327:   OBJECT GLOBAL DEFAULT 18 _ZTCN7android8hardware8gr
328:   FUNC GLOBAL DEFAULT 14 _ZN7android8hardware8grap
329:   FUNC GLOBAL DEFAULT 14 _ZN7android8hardware8grap
330:   FUNC GLOBAL DEFAULT 14 _ZN7android8hardware8grap
331:   FUNC GLOBAL DEFAULT 14 _ZN7android8hardware8grap
332:   FUNC GLOBAL DEFAULT 14 _ZN7android8hardware8grap
333:   FUNC GLOBAL DEFAULT 14 _ZN7android8hardware8grap
334:   FUNC GLOBAL DEFAULT 14 _ZN7android8hardware8grap
335:   FUNC GLOBAL DEFAULT 14 _ZN7android8hardware8grap
336:   OBJECT GLOBAL DEFAULT 18 _ZTVN7android8hardware8gr
337:   OBJECT GLOBAL DEFAULT 18 _ZTTN7android8hardware8gr
338:   FUNC GLOBAL DEFAULT 14 _ZN7android8hardware8grap
339:   FUNC GLOBAL DEFAULT 14 _ZN7android8hardware8grap
340:   FUNC GLOBAL DEFAULT 14 _ZN7android8hardware8grap
341:   OBJECT GLOBAL DEFAULT 16 _ZN7android8hardware8grap
342:   FUNC GLOBAL DEFAULT 14 _ZN7android8hardware8grap
343:   FUNC WEAK DEFAULT 14 _ZNSt3__16__treeINS_12__v
344:   OBJECT WEAK DEFAULT 18 _ZTCN7android8hardware8gr
345:   OBJECT GLOBAL DEFAULT 18 _ZTCN7android8hardware8gr
346:   OBJECT GLOBAL DEFAULT 18 _ZTTN7android8hardware8gr
347:   FUNC GLOBAL DEFAULT 14 _ZN7android8hardware8grap
348:   FUNC GLOBAL DEFAULT 14 _ZN7android8hardware8grap
349:   FUNC GLOBAL DEFAULT 14 _ZN7android8hardware8grap
350:   FUNC GLOBAL DEFAULT 14 _ZN7android8hardware8grap
351:   FUNC GLOBAL DEFAULT 14 _ZN7android8hardware8grap
352:   OBJECT GLOBAL DEFAULT 18 _ZTTN7android8hardware8gr
353:   FUNC GLOBAL DEFAULT 14 _ZN7android8hardware8grap
354:   OBJECT GLOBAL DEFAULT 18 _ZTCN7android8hardware8gr
355:   FUNC GLOBAL DEFAULT 14 _ZN7android8hardware8grap
356:   FUNC GLOBAL DEFAULT 14 _ZN7android8hardware8grap
357:   FUNC WEAK DEFAULT 14 _ZNSt3__127__tree_balance
358:   OBJECT GLOBAL DEFAULT 18 _ZTCN7android8hardware8gr
359:   FUNC GLOBAL DEFAULT 14 _ZN7android8hardware8grap
360:   FUNC GLOBAL DEFAULT 14 _ZN7android8hardware8grap
361:   OBJECT GLOBAL DEFAULT 18 _ZTCN7android8hardware8gr
362:   OBJECT GLOBAL DEFAULT 18 _ZTCN7android8hardware8gr
363:   FUNC GLOBAL DEFAULT 14 _ZN7android8hardware8grap
364:   FUNC GLOBAL DEFAULT 14 _ZN7android8hardware8grap
365:   FUNC GLOBAL DEFAULT 14 _ZN7android8hardware8grap
366:   FUNC WEAK DEFAULT 14 _ZNSt3__16vectorIPvNS_9al
367:   OBJECT GLOBAL DEFAULT 18 _ZTVN7android8hardware8gr
368:   FUNC GLOBAL DEFAULT 14 _ZN7android8hardware8grap
369:   FUNC GLOBAL DEFAULT 14 _ZN7android8hardware8grap
370:   FUNC GLOBAL DEFAULT 14 _ZN7android8hardware8grap
371:   FUNC GLOBAL DEFAULT 14 _ZN7android8hardware8grap
372:   FUNC WEAK DEFAULT 14 _ZNSt3__16__treeINS_12__v
373:   OBJECT GLOBAL DEFAULT 18 _ZTVN7android8hardware8gr
374:   FUNC GLOBAL DEFAULT 14 _ZN7android8hardware8grap
375:   FUNC GLOBAL DEFAULT 14 _ZN7android8hardware8grap
376:   FUNC GLOBAL DEFAULT 14 _ZN7android8hardware8grap
377:   OBJECT GLOBAL DEFAULT 18 _ZTCN7android8hardware8gr
378:   FUNC GLOBAL DEFAULT 14 __aeabi_memclr
379:   FUNC GLOBAL DEFAULT 14 _ZN7android8hardware8grap
380:   FUNC GLOBAL DEFAULT 14 _ZN7android8hardware8grap
381:   FUNC GLOBAL DEFAULT 14 _ZN7android8hardware8grap
382:   FUNC GLOBAL DEFAULT 14 _ZN7android8hardware8grap
383:   OBJECT WEAK DEFAULT 18 _ZTVN7android8hardware8gr
384:   FUNC GLOBAL DEFAULT 14 _ZN7android8hardware8grap
385:   FUNC GLOBAL DEFAULT 14 _ZN7android8hardware8grap
386:   FUNC GLOBAL DEFAULT 14 _ZN7android8hardware8grap
387:   FUNC GLOBAL DEFAULT 14 _ZN7android8hardware8grap
388:   FUNC GLOBAL DEFAULT 14 _ZN7android8hardware8grap
389:   FUNC GLOBAL DEFAULT 14 _ZN7android8hardware8grap
390:   FUNC GLOBAL DEFAULT 14 _ZN7android8hardware8grap
391:   FUNC GLOBAL DEFAULT 14 _ZN7android8hardware8grap
392:   FUNC GLOBAL DEFAULT 14 _ZN7android8hardware8grap
393:   FUNC GLOBAL DEFAULT 14 _ZN7android8hardware8grap
394:   FUNC GLOBAL DEFAULT 14 _ZN7android8hardware8grap
395:   FUNC GLOBAL DEFAULT 14 _ZN7android8hardware8grap
396:   FUNC GLOBAL DEFAULT 14 _ZN7android8hardware8grap
397:   FUNC GLOBAL DEFAULT 14 _ZN7android8hardware8grap
398:   FUNC GLOBAL DEFAULT 14 _ZN7android8hardware8grap
399:   FUNC GLOBAL DEFAULT 14 _ZN7android8hardware8grap
400:   FUNC GLOBAL DEFAULT 14 _ZN7android8hardware8grap
401:   FUNC GLOBAL DEFAULT 14 _ZN7android8hardware8grap
402:   OBJECT GLOBAL DEFAULT 18 _ZTVN7android8hardware8gr
403:   FUNC WEAK DEFAULT 14 _ZN7android8hardware7deta
404:   FUNC GLOBAL DEFAULT 14 _ZN7android8hardware8grap
405:   FUNC GLOBAL DEFAULT 14 _ZN7android8hardware8grap
406:   FUNC GLOBAL DEFAULT 14 _ZN7android8hardware8grap
