 0x000000000000000e (SONAME)             Library soname: [libsanitizer-status.so]
  
Symbol   contains 26 entries:
Num:   Type Bind Vis Ndx Name
0:   NOTYPE LOCAL DEFAULT UND
1:   FUNC GLOBAL DEFAULT UND __cxa_finalize@LIBC (2)
2:   FUNC GLOBAL DEFAULT UND __open_2@LIBC (2)
3:   FUNC GLOBAL DEFAULT UND __stack_chk_fail@LIBC (2)
4:   FUNC GLOBAL DEFAULT UND close@LIBC (2)
5:   FUNC GLOBAL DEFAULT UND exit@LIBC (2)
6:   FUNC GLOBAL DEFAULT UND fflush@LIBC (2)
7:   FUNC GLOBAL DEFAULT UND fork@LIBC (2)
8:   FUNC GLOBAL DEFAULT UND malloc@LIBC (2)
9:   FUNC GLOBAL DEFAULT UND open@LIBC (2)
10:   FUNC GLOBAL DEFAULT UND perror@LIBC (2)
11:   FUNC GLOBAL DEFAULT UND printf@LIBC (2)
12:   OBJECT GLOBAL DEFAULT UND stdout@LIBC (2)
13:   FUNC GLOBAL DEFAULT UND strcmp@LIBC (2)
14:   FUNC GLOBAL DEFAULT UND system@LIBC (2)
15:   FUNC GLOBAL DEFAULT UND waitpid@LIBC (2)
16:   FUNC GLOBAL DEFAULT 14 data_asan_exists
17:   FUNC GLOBAL DEFAULT 14 test_crash_malloc
18:   FUNC GLOBAL DEFAULT 14 test_crash_stack
19:   FUNC GLOBAL DEFAULT 14 test_kasan
20:   FUNC GLOBAL DEFAULT 14 test_msan_crash_stack
21:   FUNC GLOBAL DEFAULT 14 have_option
22:   FUNC GLOBAL DEFAULT 14 sanitizer_status
23:   FUNC GLOBAL DEFAULT 14 test
24:   FUNC GLOBAL DEFAULT 14 test_integer_overflow
25:   FUNC GLOBAL DEFAULT 14 test_kcov
