 0x000000000000000e (SONAME)             Library soname: [android.hardware.keymaster@3.0.so]
  
Symbol   contains 280 entries:
Num:   Type Bind Vis Ndx Name
0:   NOTYPE LOCAL DEFAULT UND
1:   FUNC GLOBAL DEFAULT UND __cxa_finalize@LIBC (2)
2:   FUNC GLOBAL DEFAULT UND _ZN7android14sp_report_ra
3:   FUNC GLOBAL DEFAULT UND _ZN7android21report_syspr
4:   OBJECT GLOBAL DEFAULT UND _ZN7android4hidl4base4V1_
5:   FUNC GLOBAL DEFAULT UND _ZN7android4hidl4base4V1_
6:   FUNC GLOBAL DEFAULT UND _ZN7android4hidl4base4V1_
7:   FUNC GLOBAL DEFAULT UND _ZN7android4hidl4base4V1_
8:   FUNC GLOBAL DEFAULT UND _ZN7android4hidl4base4V1_
9:   FUNC GLOBAL DEFAULT UND _ZN7android4hidl4base4V1_
10:   FUNC GLOBAL DEFAULT UND _ZN7android4hidl4base4V1_
11:   FUNC GLOBAL DEFAULT UND _ZN7android4hidl4base4V1_
12:   FUNC GLOBAL DEFAULT UND _ZN7android4hidl4base4V1_
13:   FUNC GLOBAL DEFAULT UND _ZN7android4hidl4base4V1_
14:   FUNC GLOBAL DEFAULT UND _ZN7android4hidl4base4V1_
15:   FUNC GLOBAL DEFAULT UND _ZN7android4hidl4base4V1_
16:   FUNC GLOBAL DEFAULT UND _ZN7android4hidl4base4V1_
17:   FUNC GLOBAL DEFAULT UND _ZN7android4hidl4base4V1_
18:   FUNC GLOBAL DEFAULT UND _ZN7android4hidl4base4V1_
19:   FUNC GLOBAL DEFAULT UND _ZN7android4hidl4base4V1_
20:   FUNC GLOBAL DEFAULT UND _ZN7android4hidl4base4V1_
21:   FUNC GLOBAL DEFAULT UND _ZN7android4hidl4base4V1_
22:   FUNC GLOBAL DEFAULT UND _ZN7android4hidl4base4V1_
23:   FUNC GLOBAL DEFAULT UND _ZN7android4hidl4base4V1_
24:   FUNC GLOBAL DEFAULT UND _ZN7android4hidl4base4V1_
25:   FUNC GLOBAL DEFAULT UND _ZN7android4hidl4base4V1_
26:   FUNC GLOBAL DEFAULT UND _ZN7android4hidl4base4V1_
27:   FUNC GLOBAL DEFAULT UND _ZN7android4hidl4base4V1_
28:   FUNC GLOBAL DEFAULT UND _ZN7android7RefBase10onFi
29:   FUNC GLOBAL DEFAULT UND _ZN7android7RefBase12weak
30:   FUNC GLOBAL DEFAULT UND _ZN7android7RefBase13onLa
31:   FUNC GLOBAL DEFAULT UND _ZN7android7RefBase15onLa
32:   FUNC GLOBAL DEFAULT UND _ZN7android7RefBase20onIn
33:   FUNC GLOBAL DEFAULT UND _ZN7android7RefBaseC2Ev
34:   FUNC GLOBAL DEFAULT UND _ZN7android7RefBaseD2Ev
35:   FUNC GLOBAL DEFAULT UND _ZN7android8hardware10IIn
36:   FUNC GLOBAL DEFAULT UND _ZN7android8hardware10IIn
37:   FUNC GLOBAL DEFAULT UND _ZN7android8hardware10IIn
38:   FUNC GLOBAL DEFAULT UND _ZN7android8hardware10IIn
39:   FUNC GLOBAL DEFAULT UND _ZN7android8hardware10IIn
40:   FUNC GLOBAL DEFAULT UND _ZN7android8hardware11BpH
41:   FUNC GLOBAL DEFAULT UND _ZN7android8hardware11BpH
42:   FUNC GLOBAL DEFAULT UND _ZN7android8hardware11BpH
43:   FUNC GLOBAL DEFAULT UND _ZN7android8hardware11BpH
44:   FUNC GLOBAL DEFAULT UND _ZN7android8hardware11BpH
45:   FUNC GLOBAL DEFAULT UND _ZN7android8hardware11BpH
46:   FUNC GLOBAL DEFAULT UND _ZN7android8hardware11BpH
47:   FUNC GLOBAL DEFAULT UND _ZN7android8hardware11hid
48:   FUNC GLOBAL DEFAULT UND _ZN7android8hardware11hid
49:   FUNC GLOBAL DEFAULT UND _ZN7android8hardware11hid
50:   FUNC GLOBAL DEFAULT UND _ZN7android8hardware11hid
51:   FUNC GLOBAL DEFAULT UND _ZN7android8hardware11hid
52:   FUNC GLOBAL DEFAULT UND _ZN7android8hardware12Pro
53:   FUNC GLOBAL DEFAULT UND _ZN7android8hardware12Pro
54:   FUNC GLOBAL DEFAULT UND _ZN7android8hardware13wri
55:   FUNC GLOBAL DEFAULT UND _ZN7android8hardware14rea
56:   FUNC GLOBAL DEFAULT UND _ZN7android8hardware21def
57:   FUNC GLOBAL DEFAULT UND _ZN7android8hardware21wri
58:   FUNC GLOBAL DEFAULT UND _ZN7android8hardware22rea
59:   FUNC GLOBAL DEFAULT UND _ZN7android8hardware23get
60:   FUNC GLOBAL DEFAULT UND _ZN7android8hardware27hid
61:   FUNC GLOBAL DEFAULT UND _ZN7android8hardware27hid
62:   FUNC GLOBAL DEFAULT UND _ZN7android8hardware6Parc
63:   FUNC GLOBAL DEFAULT UND _ZN7android8hardware6Parc
64:   FUNC GLOBAL DEFAULT UND _ZN7android8hardware6Parc
65:   FUNC GLOBAL DEFAULT UND _ZN7android8hardware6Parc
66:   FUNC GLOBAL DEFAULT UND _ZN7android8hardware6Parc
67:   FUNC GLOBAL DEFAULT UND _ZN7android8hardware6Parc
68:   FUNC GLOBAL DEFAULT UND _ZN7android8hardware6Parc
69:   FUNC GLOBAL DEFAULT UND _ZN7android8hardware6Parc
70:   FUNC GLOBAL DEFAULT UND _ZN7android8hardware6Stat
71:   FUNC GLOBAL DEFAULT UND _ZN7android8hardware6Stat
72:   FUNC GLOBAL DEFAULT UND _ZN7android8hardware6Stat
73:   FUNC GLOBAL DEFAULT UND _ZN7android8hardware6Stat
74:   FUNC GLOBAL DEFAULT UND _ZN7android8hardware7IBin
75:   FUNC GLOBAL DEFAULT UND _ZN7android8hardware7IBin
76:   FUNC GLOBAL DEFAULT UND _ZN7android8hardware7IBin
77:   FUNC GLOBAL DEFAULT UND _ZN7android8hardware7IBin
78:   FUNC GLOBAL DEFAULT UND _ZN7android8hardware7deta
79:   FUNC GLOBAL DEFAULT UND _ZN7android8hardware7deta
80:   FUNC GLOBAL DEFAULT UND _ZN7android8hardware7deta
81:   FUNC GLOBAL DEFAULT UND _ZN7android8hardware7deta
82:   FUNC GLOBAL DEFAULT UND _ZN7android8hardware7deta
83:   FUNC GLOBAL DEFAULT UND _ZN7android8hardware7deta
84:   FUNC GLOBAL DEFAULT UND _ZN7android8hardware7deta
85:   OBJECT GLOBAL DEFAULT UND _ZN7android8hardware7deta
86:   FUNC GLOBAL DEFAULT UND _ZN7android8hardware7deta
87:   OBJECT GLOBAL DEFAULT UND _ZN7android8hardware7deta
88:   FUNC GLOBAL DEFAULT UND _ZN7android8hardware7deta
89:   FUNC GLOBAL DEFAULT UND _ZN7android8hardware7deta
90:   FUNC GLOBAL DEFAULT UND _ZN7android8hardware7deta
91:   FUNC GLOBAL DEFAULT UND _ZN7android8hardware7deta
92:   FUNC GLOBAL DEFAULT UND _ZN7android8hardware7deta
93:   FUNC GLOBAL DEFAULT UND _ZN7android8hardware7deta
94:   FUNC GLOBAL DEFAULT UND _ZN7android8hardware7deta
95:   FUNC GLOBAL DEFAULT UND _ZN7android8hardware7deta
96:   FUNC GLOBAL DEFAULT UND _ZN7android8hardware7deta
97:   OBJECT GLOBAL DEFAULT UND _ZN7android8hardware7deta
98:   FUNC GLOBAL DEFAULT UND _ZN7android8hardware9BHwB
99:   FUNC GLOBAL DEFAULT UND _ZN7android8hardware9BHwB
100:   FUNC GLOBAL DEFAULT UND _ZN7android8hardware9BHwB
101:   FUNC GLOBAL DEFAULT UND _ZN7android8hardware9BHwB
102:   FUNC GLOBAL DEFAULT UND _ZN7android8hardware9BHwB
103:   FUNC GLOBAL DEFAULT UND _ZN7android8hardware9BHwB
104:   FUNC GLOBAL DEFAULT UND _ZN7android8hardware9BHwB
105:   FUNC GLOBAL DEFAULT UND _ZN7android8hardware9BHwB
106:   FUNC GLOBAL DEFAULT UND _ZN7android8hardware9BHwB
107:   FUNC GLOBAL DEFAULT UND _ZN7android8hardware9BHwB
108:   FUNC GLOBAL DEFAULT UND _ZNK7android7RefBase10cre
109:   FUNC GLOBAL DEFAULT UND _ZNK7android7RefBase11get
110:   FUNC GLOBAL DEFAULT UND _ZNK7android7RefBase9decS
111:   FUNC GLOBAL DEFAULT UND _ZNK7android7RefBase9incS
112:   FUNC GLOBAL DEFAULT UND _ZNK7android8hardware6Par
113:   FUNC GLOBAL DEFAULT UND _ZNK7android8hardware6Par
114:   FUNC GLOBAL DEFAULT UND _ZNK7android8hardware6Par
115:   FUNC GLOBAL DEFAULT UND _ZNK7android8hardware6Par
116:   FUNC GLOBAL DEFAULT UND _ZNK7android8hardware6Par
117:   FUNC GLOBAL DEFAULT UND _ZNK7android8hardware6Par
118:   FUNC GLOBAL DEFAULT UND _ZNK7android8hardware7IBi
119:   FUNC GLOBAL DEFAULT UND _ZNK7android8hardware7det
120:   FUNC GLOBAL DEFAULT UND _ZNK7android8hardware9BHw
121:   FUNC GLOBAL DEFAULT UND _ZNKSt3__120__vector_base
122:   FUNC GLOBAL DEFAULT UND _ZNKSt3__121__basic_strin
123:   FUNC GLOBAL DEFAULT UND _ZNSt3__112basic_stringIc
124:   FUNC GLOBAL DEFAULT UND _ZNSt3__15mutex4lockEv
125:   FUNC GLOBAL DEFAULT UND _ZNSt3__15mutex6unlockEv
126:   FUNC GLOBAL DEFAULT UND _ZNSt3__15mutexD1Ev
127:   FUNC GLOBAL DEFAULT UND _ZTv0_n24_N7android4hidl4
128:   FUNC GLOBAL DEFAULT UND _ZTv0_n24_N7android4hidl4
129:   FUNC GLOBAL DEFAULT UND _ZTv0_n24_N7android8hardw
130:   FUNC GLOBAL DEFAULT UND _ZTv0_n24_N7android8hardw
131:   FUNC GLOBAL DEFAULT UND _ZTv0_n24_N7android8hardw
132:   FUNC GLOBAL DEFAULT UND _ZTv0_n24_N7android8hardw
133:   FUNC GLOBAL DEFAULT UND _ZTv0_n24_N7android8hardw
134:   FUNC GLOBAL DEFAULT UND _ZTv0_n24_N7android8hardw
135:   FUNC GLOBAL DEFAULT UND _ZTv0_n24_N7android8hardw
136:   FUNC GLOBAL DEFAULT UND _ZTv0_n24_N7android8hardw
137:   FUNC GLOBAL DEFAULT UND _ZTv0_n32_N7android8hardw
138:   FUNC GLOBAL DEFAULT UND _ZTv0_n40_N7android8hardw
139:   FUNC GLOBAL DEFAULT UND _ZTv0_n48_N7android8hardw
140:   FUNC GLOBAL DEFAULT UND _ZdaPv
141:   FUNC GLOBAL DEFAULT UND _ZdlPv
142:   FUNC GLOBAL DEFAULT UND _Znam
143:   FUNC GLOBAL DEFAULT UND _Znwm
144:   FUNC GLOBAL DEFAULT UND __android_log_assert@LIBLOG (3)
145:   FUNC GLOBAL DEFAULT UND __cxa_pure_virtual
146:   FUNC GLOBAL DEFAULT UND __stack_chk_fail@LIBC (2)
147:   FUNC GLOBAL DEFAULT UND abort@LIBC (2)
148:   FUNC GLOBAL DEFAULT UND atrace_begin_body
149:   OBJECT GLOBAL DEFAULT UND atrace_enabled_tags
150:   FUNC GLOBAL DEFAULT UND atrace_end_body
151:   OBJECT GLOBAL DEFAULT UND atrace_is_ready
152:   FUNC GLOBAL DEFAULT UND atrace_setup
153:   FUNC GLOBAL DEFAULT UND memcmp@LIBC (2)
154:   FUNC GLOBAL DEFAULT UND memcpy@LIBC (2)
155:   FUNC GLOBAL DEFAULT UND memset@LIBC (2)
156:   FUNC GLOBAL DEFAULT UND strlen@LIBC (2)
157:   FUNC GLOBAL DEFAULT 14 _ZN7android8hardware9keym
158:   FUNC GLOBAL DEFAULT 14 _ZN7android8hardware9keym
159:   FUNC GLOBAL DEFAULT 14 _ZN7android8hardware9keym
160:   FUNC WEAK DEFAULT 14 _ZNSt3__16__treeINS_12__v
161:   FUNC GLOBAL DEFAULT 14 _ZN7android8hardware9keym
162:   FUNC GLOBAL DEFAULT 14 _ZN7android8hardware9keym
163:   FUNC GLOBAL DEFAULT 14 _ZN7android8hardware9keym
164:   FUNC GLOBAL DEFAULT 14 _ZN7android8hardware9keym
165:   FUNC GLOBAL DEFAULT 14 _ZN7android8hardware9keym
166:   FUNC GLOBAL DEFAULT 14 _ZN7android8hardware9keym
167:   FUNC WEAK DEFAULT 14 _ZNSt3__16__treeINS_12__v
168:   FUNC GLOBAL DEFAULT 14 _ZN7android8hardware9keym
169:   FUNC WEAK DEFAULT 14 _ZNSt3__113__tree_removeI
170:   FUNC WEAK DEFAULT 14 _ZNSt3__16__treeINS_12__v
171:   FUNC GLOBAL DEFAULT 14 _ZN7android8hardware9keym
172:   FUNC GLOBAL DEFAULT 14 _ZN7android8hardware9keym
173:   FUNC GLOBAL DEFAULT 14 _ZN7android8hardware9keym
174:   FUNC GLOBAL DEFAULT 14 _ZN7android8hardware9keym
175:   OBJECT GLOBAL DEFAULT 18 _ZTCN7android8hardware9ke
176:   OBJECT WEAK DEFAULT 18 _ZTVN7android8hardware9ke
177:   FUNC GLOBAL DEFAULT 14 _ZN7android8hardware9keym
178:   FUNC GLOBAL DEFAULT 14 _ZN7android8hardware9keym
179:   FUNC GLOBAL DEFAULT 14 _ZN7android8hardware9keym
180:   OBJECT GLOBAL DEFAULT 18 _ZTCN7android8hardware9ke
181:   FUNC GLOBAL DEFAULT 14 _ZN7android8hardware9keym
182:   FUNC GLOBAL DEFAULT 14 _ZN7android8hardware9keym
183:   FUNC GLOBAL DEFAULT 14 _ZN7android8hardware9keym
184:   FUNC GLOBAL DEFAULT 14 _ZN7android8hardware9keym
185:   FUNC GLOBAL DEFAULT 14 _ZN7android8hardware9keym
186:   FUNC GLOBAL DEFAULT 14 _ZN7android8hardware9keym
187:   FUNC GLOBAL DEFAULT 14 _ZN7android8hardware9keym
188:   FUNC WEAK DEFAULT 14 _ZNSt3__16__treeINS_12__v
189:   FUNC WEAK DEFAULT 14 _ZNSt3__16vectorIN7androi
190:   OBJECT GLOBAL DEFAULT 18 _ZTTN7android8hardware9ke
191:   FUNC GLOBAL DEFAULT 14 _ZN7android8hardware9keym
192:   FUNC GLOBAL DEFAULT 14 _ZN7android8hardware9keym
193:   FUNC GLOBAL DEFAULT 14 _ZN7android8hardware9keym
194:   FUNC GLOBAL DEFAULT 14 _ZN7android8hardware9keym
195:   FUNC GLOBAL DEFAULT 14 _ZN7android8hardware9keym
196:   FUNC GLOBAL DEFAULT 14 _ZN7android8hardware9keym
197:   OBJECT GLOBAL DEFAULT 18 _ZTTN7android8hardware9ke
198:   FUNC GLOBAL DEFAULT 14 _ZN7android8hardware9keym
199:   FUNC GLOBAL DEFAULT 14 _ZN7android8hardware9keym
200:   FUNC GLOBAL DEFAULT 14 _ZN7android8hardware9keym
201:   OBJECT GLOBAL DEFAULT 18 _ZTCN7android8hardware9ke
202:   FUNC GLOBAL DEFAULT 14 _ZThn32_N7android8hardwar
203:   FUNC WEAK DEFAULT 14 _ZN7android8hardware7deta
204:   FUNC GLOBAL DEFAULT 14 _ZN7android8hardware9keym
205:   FUNC GLOBAL DEFAULT 14 _ZN7android8hardware9keym
206:   OBJECT GLOBAL DEFAULT 18 _ZTCN7android8hardware9ke
207:   OBJECT GLOBAL DEFAULT 18 _ZTVN7android8hardware9ke
208:   FUNC GLOBAL DEFAULT 14 _ZN7android8hardware9keym
209:   FUNC GLOBAL DEFAULT 14 _ZN7android8hardware9keym
210:   FUNC GLOBAL DEFAULT 14 _ZN7android8hardware9keym
211:   FUNC GLOBAL DEFAULT 14 _ZN7android8hardware9keym
212:   OBJECT GLOBAL DEFAULT 18 _ZTVN7android8hardware9ke
213:   FUNC GLOBAL DEFAULT 14 _ZN7android8hardware9keym
214:   FUNC GLOBAL DEFAULT 14 _ZN7android8hardware9keym
215:   FUNC GLOBAL DEFAULT 14 _ZN7android8hardware9keym
216:   FUNC GLOBAL DEFAULT 14 _ZN7android8hardware9keym
217:   OBJECT GLOBAL DEFAULT 18 _ZTCN7android8hardware9ke
218:   FUNC GLOBAL DEFAULT 14 _ZN7android8hardware9keym
219:   FUNC GLOBAL DEFAULT 14 _ZN7android8hardware9keym
220:   FUNC GLOBAL DEFAULT 14 _ZN7android8hardware9keym
221:   FUNC GLOBAL DEFAULT 14 _ZN7android8hardware9keym
222:   FUNC GLOBAL DEFAULT 14 _ZN7android8hardware9keym
223:   FUNC GLOBAL DEFAULT 14 _ZN7android8hardware9keym
224:   FUNC WEAK DEFAULT 14 _ZNSt3__16vectorIPvNS_9al
225:   FUNC GLOBAL DEFAULT 14 _ZN7android8hardware9keym
226:   FUNC GLOBAL DEFAULT 14 _ZN7android8hardware9keym
227:   FUNC GLOBAL DEFAULT 14 _ZN7android8hardware9keym
228:   OBJECT GLOBAL DEFAULT 18 _ZTCN7android8hardware9ke
229:   FUNC GLOBAL DEFAULT 14 _ZN7android8hardware9keym
230:   FUNC GLOBAL DEFAULT 14 _ZN7android8hardware9keym
231:   OBJECT GLOBAL DEFAULT 18 _ZTCN7android8hardware9ke
232:   FUNC GLOBAL DEFAULT 14 _ZTv0_n24_N7android8hardw
233:   FUNC GLOBAL DEFAULT 14 _ZN7android8hardware9keym
234:   FUNC GLOBAL DEFAULT 14 _ZN7android8hardware9keym
235:   FUNC GLOBAL DEFAULT 14 _ZN7android8hardware9keym
236:   FUNC GLOBAL DEFAULT 14 _ZN7android8hardware9keym
237:   FUNC GLOBAL DEFAULT 14 _ZN7android8hardware9keym
238:   FUNC GLOBAL DEFAULT 14 _ZN7android8hardware9keym
239:   FUNC WEAK DEFAULT 14 _ZNSt3__16vectorINS_8func
240:   FUNC GLOBAL DEFAULT 14 _ZThn32_N7android8hardwar
241:   FUNC GLOBAL DEFAULT 14 _ZN7android8hardware9keym
242:   FUNC GLOBAL DEFAULT 14 _ZN7android8hardware9keym
243:   FUNC GLOBAL DEFAULT 14 _ZN7android8hardware9keym
244:   FUNC GLOBAL DEFAULT 14 _ZN7android8hardware9keym
245:   FUNC GLOBAL DEFAULT 14 _ZN7android8hardware9keym
246:   OBJECT WEAK DEFAULT 18 _ZTCN7android8hardware9ke
247:   FUNC GLOBAL DEFAULT 14 _ZN7android8hardware9keym
248:   FUNC GLOBAL DEFAULT 14 _ZN7android8hardware9keym
249:   FUNC GLOBAL DEFAULT 14 _ZN7android8hardware9keym
250:   FUNC GLOBAL DEFAULT 14 _ZN7android8hardware9keym
251:   FUNC WEAK DEFAULT 14 _ZNSt3__16__treeINS_12__v
252:   OBJECT GLOBAL DEFAULT 18 _ZTCN7android8hardware9ke
253:   OBJECT GLOBAL DEFAULT 18 _ZTVN7android8hardware9ke
254:   FUNC GLOBAL DEFAULT 14 _ZN7android8hardware9keym
255:   FUNC GLOBAL DEFAULT 14 _ZN7android8hardware9keym
256:   FUNC GLOBAL DEFAULT 14 _ZN7android8hardware9keym
257:   FUNC GLOBAL DEFAULT 14 _ZN7android8hardware9keym
258:   FUNC GLOBAL DEFAULT 14 _ZN7android8hardware9keym
259:   FUNC GLOBAL DEFAULT 14 _ZN7android8hardware9keym
260:   FUNC WEAK DEFAULT 14 _ZNSt3__127__tree_balance
261:   FUNC WEAK DEFAULT 14 _ZNSt3__16__treeINS_12__v
262:   OBJECT GLOBAL DEFAULT 18 _ZTCN7android8hardware9ke
263:   FUNC GLOBAL DEFAULT 14 _ZN7android8hardware9keym
264:   OBJECT GLOBAL DEFAULT 16 _ZN7android8hardware9keym
265:   FUNC GLOBAL DEFAULT 14 _ZN7android8hardware9keym
266:   FUNC GLOBAL DEFAULT 14 _ZTv0_n24_N7android8hardw
267:   FUNC GLOBAL DEFAULT 14 _ZN7android8hardware9keym
268:   OBJECT GLOBAL DEFAULT 18 _ZTTN7android8hardware9ke
269:   FUNC GLOBAL DEFAULT 14 _ZN7android8hardware9keym
270:   FUNC GLOBAL DEFAULT 14 _ZN7android8hardware9keym
271:   FUNC WEAK DEFAULT 14 _ZN7android8hardware7deta
272:   FUNC GLOBAL DEFAULT 14 _ZN7android8hardware9keym
273:   FUNC GLOBAL DEFAULT 14 _ZN7android8hardware9keym
274:   FUNC GLOBAL DEFAULT 14 _ZN7android8hardware9keym
275:   FUNC GLOBAL DEFAULT 14 _ZN7android8hardware9keym
276:   FUNC GLOBAL DEFAULT 14 _ZN7android8hardware9keym
277:   FUNC GLOBAL DEFAULT 14 _ZN7android8hardware9keym
278:   FUNC GLOBAL DEFAULT 14 _ZN7android8hardware9keym
279:   FUNC GLOBAL DEFAULT 14 _ZN7android8hardware9keym
