 0x0000000e (SONAME)                     Library soname: [libhidlbase.so]
  
Symbol   contains 1539 entries:
Num:   Type Bind Vis Ndx Name
0:   NOTYPE LOCAL DEFAULT UND
1:   FUNC GLOBAL DEFAULT UND __cxa_atexit@LIBC (2)
2:   FUNC GLOBAL DEFAULT UND __cxa_finalize@LIBC (2)
3:   FUNC GLOBAL DEFAULT UND _ZN7android27add_sysprop_
4:   FUNC GLOBAL DEFAULT UND _ZN7android4base10LogMess
5:   FUNC GLOBAL DEFAULT UND _ZN7android4base10LogMess
6:   FUNC GLOBAL DEFAULT UND _ZN7android4base10LogMess
7:   FUNC GLOBAL DEFAULT UND _ZN7android4base11GetProp
8:   FUNC GLOBAL DEFAULT UND _ZN7android4base12StringP
9:   FUNC GLOBAL DEFAULT UND _ZN7android4base21GetMini
10:   FUNC GLOBAL DEFAULT UND _ZNKSt3__112basic_stringI
11:   FUNC GLOBAL DEFAULT UND _ZNKSt3__119__shared_weak
12:   FUNC GLOBAL DEFAULT UND _ZNKSt3__120__vector_base
13:   FUNC GLOBAL DEFAULT UND _ZNKSt3__121__basic_strin
14:   FUNC GLOBAL DEFAULT UND _ZNKSt3__123__match_any_b
15:   FUNC GLOBAL DEFAULT UND _ZNKSt3__16locale4nameEv
16:   FUNC GLOBAL DEFAULT UND _ZNKSt3__16locale9use_fac
17:   FUNC GLOBAL DEFAULT UND _ZNKSt3__18ios_base6getlo
18:   FUNC GLOBAL DEFAULT UND _ZNSt3__112basic_stringIc
19:   FUNC GLOBAL DEFAULT UND _ZNSt3__112basic_stringIc
20:   FUNC GLOBAL DEFAULT UND _ZNSt3__112basic_stringIc
21:   FUNC GLOBAL DEFAULT UND _ZNSt3__112basic_stringIc
22:   FUNC GLOBAL DEFAULT UND _ZNSt3__112basic_stringIc
23:   FUNC GLOBAL DEFAULT UND _ZNSt3__112basic_stringIc
24:   FUNC GLOBAL DEFAULT UND _ZNSt3__112basic_stringIc
25:   FUNC GLOBAL DEFAULT UND _ZNSt3__112basic_stringIc
26:   FUNC GLOBAL DEFAULT UND _ZNSt3__113basic_ostreamI
27:   FUNC GLOBAL DEFAULT UND _ZNSt3__113basic_ostreamI
28:   FUNC GLOBAL DEFAULT UND _ZNSt3__115__get_classnam
29:   FUNC GLOBAL DEFAULT UND _ZNSt3__119__shared_weak_
30:   FUNC GLOBAL DEFAULT UND _ZNSt3__119__shared_weak_
31:   FUNC GLOBAL DEFAULT UND _ZNSt3__120__get_collatio
32:   OBJECT GLOBAL DEFAULT UND _ZNSt3__15ctypeIcE2idE
33:   FUNC GLOBAL DEFAULT UND _ZNSt3__16localeC1ERKS0_
34:   FUNC GLOBAL DEFAULT UND _ZNSt3__16localeC1Ev
35:   FUNC GLOBAL DEFAULT UND _ZNSt3__16localeD1Ev
36:   OBJECT GLOBAL DEFAULT UND _ZNSt3__17collateIcE2idE
37:   FUNC GLOBAL DEFAULT UND _ZNSt3__18ios_base5clearE
38:   FUNC GLOBAL DEFAULT UND _ZNSt3__19to_stringEi
39:   FUNC GLOBAL DEFAULT UND _ZNSt3__1plIcNS_11char_tr
40:   FUNC GLOBAL DEFAULT UND _ZdlPv
41:   FUNC GLOBAL DEFAULT UND _Znwj
42:   FUNC GLOBAL DEFAULT UND __cxa_guard_acquire
43:   FUNC GLOBAL DEFAULT UND __cxa_guard_release
44:   FUNC GLOBAL DEFAULT UND __errno@LIBC (2)
45:   NOTYPE WEAK DEFAULT UND __sanitizer_cov_dump
46:   FUNC GLOBAL DEFAULT UND __stack_chk_fail@LIBC (2)
47:   OBJECT GLOBAL DEFAULT UND __stack_chk_guard@LIBC (2)
48:   FUNC GLOBAL DEFAULT UND abort@LIBC (2)
49:   FUNC GLOBAL DEFAULT UND closedir@LIBC (2)
50:   FUNC GLOBAL DEFAULT UND dl_iterate_phdr@LIBC (3)
51:   FUNC GLOBAL DEFAULT UND dlerror@LIBC (3)
52:   FUNC GLOBAL DEFAULT UND dlopen@LIBC (3)
53:   FUNC GLOBAL DEFAULT UND dlsym@LIBC (3)
54:   FUNC GLOBAL DEFAULT UND getenv@LIBC (2)
55:   FUNC GLOBAL DEFAULT UND getpid@LIBC (2)
56:   FUNC GLOBAL DEFAULT UND memcmp@LIBC (2)
57:   FUNC GLOBAL DEFAULT UND opendir@LIBC (2)
58:   FUNC GLOBAL DEFAULT UND property_get
59:   FUNC GLOBAL DEFAULT UND property_get_bool
60:   FUNC GLOBAL DEFAULT UND readdir@LIBC (2)
61:   FUNC GLOBAL DEFAULT UND setenv@LIBC (2)
62:   FUNC GLOBAL DEFAULT UND strcmp@LIBC (2)
63:   FUNC GLOBAL DEFAULT UND strlen@LIBC (2)
64:   FUNC GLOBAL DEFAULT UND _ZN7android7RefBase10onFi
65:   FUNC GLOBAL DEFAULT UND _ZN7android7RefBase13onLa
66:   FUNC GLOBAL DEFAULT UND _ZN7android7RefBase15onLa
67:   FUNC GLOBAL DEFAULT UND _ZN7android7RefBase20onIn
68:   FUNC GLOBAL DEFAULT UND _ZN7android7RefBaseC2Ev
69:   FUNC GLOBAL DEFAULT UND _ZN7android7RefBaseD2Ev
70:   FUNC GLOBAL DEFAULT UND _ZNK7android7RefBase9incS
71:   FUNC GLOBAL DEFAULT UND _ZNSt3__113basic_ostreamI
72:   FUNC GLOBAL DEFAULT UND __strlen_chk@LIBC (2)
73:   FUNC GLOBAL DEFAULT UND close@LIBC (2)
74:   FUNC GLOBAL DEFAULT UND free@LIBC (2)
75:   FUNC GLOBAL DEFAULT UND malloc@LIBC (2)
76:   FUNC GLOBAL DEFAULT UND native_handle_clone
77:   FUNC GLOBAL DEFAULT UND native_handle_close
78:   FUNC GLOBAL DEFAULT UND native_handle_create
79:   FUNC GLOBAL DEFAULT UND native_handle_delete
80:   NOTYPE WEAK DEFAULT UND _ZN7android9CallStack11de
81:   NOTYPE WEAK DEFAULT UND _ZN7android9CallStack16lo
82:   NOTYPE WEAK DEFAULT UND _ZN7android9CallStack18ge
83:   FUNC GLOBAL DEFAULT UND _ZNSt3__112__next_primeEj
84:   FUNC GLOBAL DEFAULT UND _ZNSt3__112basic_stringIc
85:   FUNC GLOBAL DEFAULT UND _ZNSt3__112basic_stringIc
86:   FUNC GLOBAL DEFAULT UND _ZNSt3__112basic_stringIc
87:   FUNC GLOBAL DEFAULT UND _ZNSt3__113basic_ostreamI
88:   FUNC GLOBAL DEFAULT UND _ZNSt3__113basic_ostreamI
89:   FUNC GLOBAL DEFAULT UND _ZNSt3__113basic_ostreamI
90:   FUNC GLOBAL DEFAULT UND _ZNSt3__115basic_streambu
91:   FUNC GLOBAL DEFAULT UND _ZNSt3__115basic_streambu
92:   FUNC GLOBAL DEFAULT UND _ZNSt3__115basic_streambu
93:   FUNC GLOBAL DEFAULT UND _ZNSt3__115basic_streambu
94:   FUNC GLOBAL DEFAULT UND _ZNSt3__115basic_streambu
95:   FUNC GLOBAL DEFAULT UND _ZNSt3__115basic_streambu
96:   FUNC GLOBAL DEFAULT UND _ZNSt3__115basic_streambu
97:   FUNC GLOBAL DEFAULT UND _ZNSt3__115basic_streambu
98:   FUNC GLOBAL DEFAULT UND _ZNSt3__115basic_streambu
99:   FUNC GLOBAL DEFAULT UND _ZNSt3__18ios_base4initEP
100:   FUNC GLOBAL DEFAULT UND _ZNSt3__19basic_iosIcNS_1
101:   FUNC GLOBAL DEFAULT UND _ZTv0_n12_NSt3__113basic_
102:   FUNC GLOBAL DEFAULT UND _ZTv0_n12_NSt3__113basic_
103:   FUNC GLOBAL DEFAULT UND __android_log_print@LIBLOG (4)
104:   FUNC GLOBAL DEFAULT UND strerror@LIBC (2)
105:   FUNC GLOBAL DEFAULT UND _ZNSt3__115__thread_struc
106:   FUNC GLOBAL DEFAULT UND _ZNSt3__115__thread_struc
107:   FUNC GLOBAL DEFAULT UND _ZNSt3__118condition_vari
108:   FUNC GLOBAL DEFAULT UND _ZNSt3__118condition_vari
109:   FUNC GLOBAL DEFAULT UND _ZNSt3__118condition_vari
110:   FUNC GLOBAL DEFAULT UND _ZNSt3__119__thread_local
111:   FUNC GLOBAL DEFAULT UND _ZNSt3__120__throw_system
112:   FUNC GLOBAL DEFAULT UND _ZNSt3__15mutex4lockEv
113:   FUNC GLOBAL DEFAULT UND _ZNSt3__15mutex6unlockEv
114:   FUNC GLOBAL DEFAULT UND _ZNSt3__15mutexD1Ev
115:   FUNC GLOBAL DEFAULT UND _ZNSt3__16thread6detachEv
116:   FUNC GLOBAL DEFAULT UND _ZNSt3__16threadD1Ev
117:   FUNC GLOBAL DEFAULT UND androidSetThreadName
118:   FUNC GLOBAL DEFAULT UND pthread_create@LIBC (2)
119:   FUNC GLOBAL DEFAULT UND pthread_setspecific@LIBC (2)
120:   FUNC GLOBAL DEFAULT UND _ZN7android14sp_report_ra
121:   FUNC GLOBAL DEFAULT UND _ZN7android7RefBase12weak
122:   FUNC GLOBAL DEFAULT UND _ZN7android7RefBase12weak
123:   FUNC GLOBAL DEFAULT UND _ZN7android7RefBase12weak
124:   FUNC GLOBAL DEFAULT UND _ZN7android7String8C1ERKN
125:   FUNC GLOBAL DEFAULT UND _ZN7android7String8D1Ev
126:   FUNC GLOBAL DEFAULT UND _ZN7android8String16C1EPK
127:   FUNC GLOBAL DEFAULT UND _ZN7android8String16C1Ev
128:   FUNC GLOBAL DEFAULT UND _ZN7android8String16D1Ev
129:   FUNC GLOBAL DEFAULT UND _ZNK7android7RefBase10cre
130:   FUNC GLOBAL DEFAULT UND _ZNK7android7RefBase9decS
131:   FUNC GLOBAL DEFAULT UND __android_log_assert@LIBLOG (4)
132:   FUNC GLOBAL DEFAULT UND __android_log_error_write@LIBLOG_M (5)
133:   FUNC GLOBAL DEFAULT UND __cxa_pure_virtual
134:   FUNC GLOBAL DEFAULT UND _ZNSt3__113basic_ostreamI
135:   FUNC GLOBAL DEFAULT UND exit@LIBC (2)
136:   FUNC GLOBAL DEFAULT UND _ZNSt3__113basic_ostreamI
137:   FUNC GLOBAL DEFAULT UND _ZN7android12uptimeMillis
138:   FUNC GLOBAL DEFAULT UND _ZN7android4base10StartsW
139:   FUNC GLOBAL DEFAULT UND _ZN7android4base15WaitFor
140:   FUNC GLOBAL DEFAULT UND _ZN7android4base16ReadFil
141:   FUNC GLOBAL DEFAULT UND _ZN7android4base5SplitERK
142:   FUNC GLOBAL DEFAULT UND _ZN7android4base8EndsWith
143:   FUNC GLOBAL DEFAULT UND _ZNKSt3__112basic_stringI
144:   FUNC GLOBAL DEFAULT UND _ZNKSt3__112basic_stringI
145:   FUNC GLOBAL DEFAULT UND _ZNKSt3__16locale9has_fac
146:   FUNC GLOBAL DEFAULT UND _ZNSt3__112basic_stringIc
147:   FUNC GLOBAL DEFAULT UND _ZNSt3__113basic_istreamI
148:   FUNC GLOBAL DEFAULT UND _ZNSt3__113basic_istreamI
149:   FUNC GLOBAL DEFAULT UND _ZNSt3__113basic_istreamI
150:   FUNC GLOBAL DEFAULT UND _ZNSt3__113basic_istreamI
151:   FUNC GLOBAL DEFAULT UND _ZNSt3__113basic_istreamI
152:   FUNC GLOBAL DEFAULT UND _ZNSt3__113basic_ostreamI
153:   FUNC GLOBAL DEFAULT UND _ZNSt3__114basic_iostream
154:   FUNC GLOBAL DEFAULT UND _ZNSt3__114basic_iostream
155:   FUNC GLOBAL DEFAULT UND _ZNSt3__114basic_iostream
156:   FUNC GLOBAL DEFAULT UND _ZNSt3__118condition_vari
157:   FUNC GLOBAL DEFAULT UND _ZNSt3__16chrono12steady_
158:   FUNC GLOBAL DEFAULT UND _ZNSt3__16chrono12system_
159:   OBJECT GLOBAL DEFAULT UND _ZNSt3__17codecvtIcc9mbst
160:   FUNC GLOBAL DEFAULT UND _ZThn8_NSt3__114basic_ios
161:   FUNC GLOBAL DEFAULT UND _ZThn8_NSt3__114basic_ios
162:   FUNC GLOBAL DEFAULT UND _ZTv0_n12_NSt3__113basic_
163:   FUNC GLOBAL DEFAULT UND _ZTv0_n12_NSt3__113basic_
164:   FUNC GLOBAL DEFAULT UND _ZTv0_n12_NSt3__114basic_
165:   FUNC GLOBAL DEFAULT UND _ZTv0_n12_NSt3__114basic_
166:   FUNC GLOBAL DEFAULT UND _ZdaPv
167:   FUNC GLOBAL DEFAULT UND _Znaj
168:   FUNC GLOBAL DEFAULT UND __strchr_chk@LIBC (2)
169:   FUNC GLOBAL DEFAULT UND access@LIBC (2)
170:   FUNC GLOBAL DEFAULT UND android_load_sphal_librar@LIBVNDKSUPPORT (6)
171:   FUNC GLOBAL DEFAULT UND dlclose@LIBC (3)
172:   FUNC GLOBAL DEFAULT UND fclose@LIBC (2)
173:   FUNC GLOBAL DEFAULT UND fflush@LIBC (2)
174:   FUNC GLOBAL DEFAULT UND fopen@LIBC (2)
175:   FUNC GLOBAL DEFAULT UND fread@LIBC (2)
176:   FUNC GLOBAL DEFAULT UND fseeko@LIBC (2)
177:   FUNC GLOBAL DEFAULT UND ftello@LIBC (2)
178:   FUNC GLOBAL DEFAULT UND fwrite@LIBC (2)
179:   FUNC GLOBAL DEFAULT UND isspace@LIBC (2)
180:   FUNC GLOBAL DEFAULT UND memchr@LIBC (2)
181:   FUNC GLOBAL DEFAULT UND sleep@LIBC (2)
182:   FUNC GLOBAL DEFAULT UND strtoll@LIBC (2)
183:   FUNC GLOBAL DEFAULT UND strtoull@LIBC (2)
184:   FUNC GLOBAL DEFAULT UND sysconf@LIBC (2)
185:   FUNC GLOBAL DEFAULT UND tolower@LIBC (2)
186:   FUNC GLOBAL DEFAULT UND _ZN7android21report_syspr
187:   FUNC GLOBAL DEFAULT UND _ZNK7android7RefBase11get
188:   FUNC GLOBAL DEFAULT UND atrace_begin_body
189:   OBJECT GLOBAL DEFAULT UND atrace_enabled_tags
190:   FUNC GLOBAL DEFAULT UND atrace_end_body
191:   OBJECT GLOBAL DEFAULT UND atrace_is_ready
192:   FUNC GLOBAL DEFAULT UND atrace_setup
193:   FUNC GLOBAL DEFAULT UND pthread_mutex_lock@LIBC (2)
194:   FUNC GLOBAL DEFAULT UND pthread_mutex_unlock@LIBC (2)
195:   FUNC GLOBAL DEFAULT UND pthread_mutex_destroy@LIBC (2)
196:   FUNC GLOBAL DEFAULT UND pthread_mutex_init@LIBC (2)
197:   FUNC GLOBAL DEFAULT UND _ZN7android7RefBase20exte
198:   FUNC GLOBAL DEFAULT UND _ZN7android10VectorImpl13
199:   FUNC GLOBAL DEFAULT UND _ZN7android16SortedVector
200:   FUNC GLOBAL DEFAULT UND _ZN7android16SortedVector
201:   FUNC GLOBAL DEFAULT UND _ZNK7android16SortedVecto
202:   FUNC GLOBAL DEFAULT UND _ZN7android16SortedVector
203:   FUNC GLOBAL DEFAULT UND _ZN7android16SortedVector
204:   FUNC GLOBAL DEFAULT UND _ZN7android10VectorImpl5c
205:   FUNC GLOBAL DEFAULT UND _ZN7android10VectorImplC2
206:   FUNC GLOBAL DEFAULT UND _ZN7android10VectorImplD2
207:   FUNC GLOBAL DEFAULT UND _ZN7android10VectorImpl3a
208:   FUNC GLOBAL DEFAULT UND _ZN7android10VectorImpl13
209:   FUNC GLOBAL DEFAULT UND thread_store_get
210:   FUNC GLOBAL DEFAULT UND thread_store_set
211:   FUNC GLOBAL DEFAULT UND _ZN7android7RefBase10rena
212:   FUNC GLOBAL DEFAULT UND _ZN7android7RefBase11rena
213:   FUNC GLOBAL DEFAULT UND _ZN7android10VectorImpl16
214:   FUNC GLOBAL DEFAULT UND realloc@LIBC (2)
215:   FUNC GLOBAL DEFAULT UND printf@LIBC (2)
216:   FUNC GLOBAL DEFAULT UND __vsprintf_chk@LIBC (2)
217:   FUNC GLOBAL DEFAULT UND pthread_getspecific@LIBC (2)
218:   FUNC GLOBAL DEFAULT UND pthread_key_create@LIBC (2)
219:   FUNC GLOBAL DEFAULT UND pthread_key_delete@LIBC (2)
220:   FUNC GLOBAL DEFAULT UND getuid@LIBC (2)
221:   FUNC GLOBAL DEFAULT UND pthread_cond_wait@LIBC (2)
222:   FUNC GLOBAL DEFAULT UND pthread_cond_broadcast@LIBC (2)
223:   FUNC GLOBAL DEFAULT UND _ZN7android18IPCThreadSta
224:   FUNC GLOBAL DEFAULT UND ioctl@LIBC (2)
225:   FUNC GLOBAL DEFAULT UND _ZN7android18IPCThreadSta
226:   FUNC GLOBAL DEFAULT UND _ZN7android18IPCThreadSta
227:   FUNC GLOBAL DEFAULT UND _ZN7android18IPCThreadSta
228:   FUNC GLOBAL DEFAULT UND _ZN7android10VectorImpl4p
229:   FUNC GLOBAL DEFAULT UND _ZNK7android8String164siz
230:   FUNC GLOBAL DEFAULT UND _ZN7android8String16C1EPK
231:   FUNC GLOBAL DEFAULT UND _ZnwjRKSt9nothrow_t
232:   FUNC GLOBAL DEFAULT UND _ZN7android8String165setT
233:   FUNC GLOBAL DEFAULT UND calloc@LIBC (2)
234:   FUNC GLOBAL DEFAULT UND getrlimit@LIBC (2)
235:   FUNC GLOBAL DEFAULT UND _ZN7android8String165setT
236:   FUNC GLOBAL DEFAULT UND _ZNSt3__113basic_ostreamI
237:   FUNC GLOBAL DEFAULT UND _ZNSt3__113basic_ostreamI
238:   OBJECT GLOBAL DEFAULT UND _ZSt7nothrow
239:   FUNC GLOBAL DEFAULT UND _ZN7android7RefBase12weak
240:   FUNC GLOBAL DEFAULT UND _ZN7android7String8C1Ev
241:   FUNC GLOBAL DEFAULT UND _ZN7android7String812appe
242:   FUNC GLOBAL DEFAULT UND mmap@LIBC (2)
243:   FUNC GLOBAL DEFAULT UND munmap@LIBC (2)
244:   FUNC GLOBAL DEFAULT UND _ZN7android6ThreadC2Eb
245:   FUNC GLOBAL DEFAULT UND _ZN7android6ThreadD1Ev
246:   FUNC GLOBAL DEFAULT UND _ZN7android6ThreadD0Ev
247:   FUNC GLOBAL DEFAULT UND _ZN7android6Thread3runEPK
248:   FUNC GLOBAL DEFAULT UND _ZN7android6Thread11reque
249:   FUNC GLOBAL DEFAULT UND _ZN7android6Thread10ready
250:   FUNC GLOBAL DEFAULT UND _ZTv0_n12_N7android6Threa
251:   FUNC GLOBAL DEFAULT UND _ZTv0_n12_N7android6Threa
252:   FUNC GLOBAL DEFAULT UND _ZN7android6ThreadD2Ev
253:   FUNC GLOBAL DEFAULT UND __open_2@LIBC (2)
254:   FUNC GLOBAL DEFAULT UND _ZN7android8String16C1ERK
255:   FUNC GLOBAL DEFAULT UND strzcmp16
256:   FUNC GLOBAL DEFAULT UND _ZN7android10VectorImpl8i
257:   FUNC GLOBAL DEFAULT UND _ZNK7android7RefBase14for
258:   FUNC GLOBAL DEFAULT UND writev@LIBC (2)
259:   FUNC GLOBAL DEFAULT UND memcpy@LIBC (2)
260:   FUNC GLOBAL DEFAULT UND memmove@LIBC (2)
261:   FUNC GLOBAL DEFAULT UND memset@LIBC (2)
262:   FUNC GLOBAL DEFAULT UND write@LIBC (2)
263:   FUNC WEAK DEFAULT UND android_set_abort_message@LIBC (2)
264:   FUNC WEAK DEFAULT 14 _ZNSt3__110__function6__f
265:   OBJECT GLOBAL DEFAULT 18 _ZTTN7android8hardware10H
266:   FUNC GLOBAL DEFAULT 14 _ZN7android8hardware14IPC
267:   FUNC GLOBAL DEFAULT 14 _ZN7android4hidl7manager4
268:   FUNC GLOBAL DEFAULT 14 _ZN7android8hardware11BpH
269:   FUNC GLOBAL DEFAULT 14 _ZN7android4hidl7manager4
270:   FUNC GLOBAL DEFAULT 14 _ZN7android4hidl7manager4
271:   FUNC GLOBAL DEFAULT 14 _ZN7android4hidl4base4V1_
272:   FUNC WEAK DEFAULT 14 _ZNKSt3__110__back_refIcE
273:   FUNC WEAK DEFAULT 14 _ZN7android8hardware10fro
274:   FUNC WEAK DEFAULT 14 _ZNSt3__111basic_regexIcN
275:   FUNC GLOBAL DEFAULT 14 _ZN7android4hidl7manager4
276:   FUNC GLOBAL DEFAULT 14 _ZN7android8hardware9BHwB
277:   OBJECT WEAK DEFAULT 18 _ZTVN7android12SortedVect
278:   OBJECT WEAK DEFAULT 18 _ZTVN7android6VectorIiEE
279:   OBJECT WEAK DEFAULT 18 _ZTVNSt3__110__r_anchorIc
280:   FUNC GLOBAL DEFAULT 14 _ZN7android4hidl4base4V1_
281:   FUNC GLOBAL DEFAULT 14 _ZN7android4hidl7manager4
282:   FUNC GLOBAL DEFAULT 14 _ZN7android4hidl7manager4
283:   FUNC GLOBAL DEFAULT 14 _ZN7android8hardware6Parc
284:   FUNC WEAK DEFAULT 14 _ZNSt3__111basic_regexIcN
285:   FUNC GLOBAL DEFAULT 14 _ZN7android4hidl4base4V1_
286:   FUNC GLOBAL DEFAULT 14 _ZN7android4hidl7manager4
287:   FUNC WEAK DEFAULT 14 _ZNSt3__111basic_regexIcN
288:   FUNC GLOBAL DEFAULT 14 _ZN7android8hardware22rea
289:   FUNC GLOBAL DEFAULT 14 _ZN7android8hardware7deta
290:   FUNC GLOBAL DEFAULT 14 _ZN7android4hidl7manager4
291:   FUNC GLOBAL DEFAULT 14 _ZN7android8hardware9BHwB
292:   FUNC GLOBAL DEFAULT 14 _ZN7android4hidl7manager4
293:   FUNC GLOBAL DEFAULT 14 _ZNK7android8hardware6Par
294:   FUNC WEAK DEFAULT 14 _ZNSt3__111basic_regexIcN
295:   FUNC WEAK DEFAULT 14 _ZNSt3__114__split_buffer
296:   FUNC WEAK DEFAULT 14 _ZNSt3__111basic_regexIcN
297:   OBJECT GLOBAL DEFAULT 18 _ZTVN7android8hardware9BH
298:   FUNC GLOBAL DEFAULT 14 _ZN7android8hardware7HexD
299:   FUNC GLOBAL DEFAULT 14 _ZN7android4hidl7manager4
300:   FUNC GLOBAL DEFAULT 14 _ZN7android4hidl4base4V1_
301:   FUNC GLOBAL DEFAULT 14 _ZN7android8hardware14IPC
302:   FUNC GLOBAL DEFAULT 14 _ZN7android8hardware18Buf
303:   FUNC GLOBAL DEFAULT 14 _ZNK7android8hardware14IP
304:   OBJECT WEAK DEFAULT 18 _ZTVNSt3__111__match_anyI
305:   FUNC GLOBAL DEFAULT 14 __aeabi_memset
306:   FUNC GLOBAL DEFAULT 14 _ZN7android4hidl7manager4
307:   OBJECT GLOBAL DEFAULT 18 _ZTVN7android4hidl7manage
308:   OBJECT GLOBAL DEFAULT 18 _ZTVN7android8hardware10B
309:   FUNC GLOBAL DEFAULT 14 _ZN7android8hardware18Buf
310:   FUNC WEAK DEFAULT 14 _ZNSt3__117__owns_two_sta
311:   FUNC GLOBAL DEFAULT 14 _ZN7android4hidl4base4V1_
312:   FUNC GLOBAL DEFAULT 14 _ZNK7android8hardware6Par
313:   FUNC GLOBAL DEFAULT 14 _ZN7android8hardware6Parc
314:   FUNC GLOBAL DEFAULT 14 _ZN7android4hidl7manager4
315:   FUNC WEAK DEFAULT 14 _ZN7android8hardware7deta
316:   OBJECT GLOBAL DEFAULT 18 _ZTCN7android4hidl7manage
317:   FUNC GLOBAL DEFAULT 14 _ZN7android8hardware7deta
318:   FUNC GLOBAL DEFAULT 14 _ZN7android8hardware12Pro
319:   OBJECT GLOBAL DEFAULT 18 _ZTTN7android4hidl7manage
320:   FUNC GLOBAL DEFAULT 14 _ZN7android4hidl7manager4
321:   FUNC GLOBAL DEFAULT 14 _ZTv0_n12_N7android4hidl7
322:   FUNC GLOBAL DEFAULT 14 _ZTv0_n12_N7android4hidl7
323:   FUNC GLOBAL DEFAULT 14 _ZN7android4hidl4base4V1_
324:   FUNC GLOBAL DEFAULT 14 _ZN7android8hardware10IIn
325:   FUNC GLOBAL DEFAULT 14 _ZN7android4hidl7manager4
326:   FUNC GLOBAL DEFAULT 14 _ZN7android4hidl7manager4
327:   OBJECT GLOBAL DEFAULT 18 _ZTCN7android8hardware7de
328:   FUNC GLOBAL DEFAULT 14 _ZN7android4hidl4base4V1_
329:   FUNC GLOBAL DEFAULT 14 _ZNK7android8hardware6Par
330:   FUNC GLOBAL DEFAULT 14 _ZN7android8hardware7IBin
331:   FUNC GLOBAL DEFAULT 14 _ZNK7android8hardware6Par
332:   OBJECT WEAK DEFAULT 18 _ZTVNSt3__117__owns_two_s
333:   FUNC GLOBAL DEFAULT 14 _ZN7android4hidl7manager4
334:   FUNC GLOBAL DEFAULT 14 _ZN7android4hidl7manager4
335:   FUNC GLOBAL DEFAULT 14 _ZN7android4hidl7manager4
336:   FUNC GLOBAL DEFAULT 14 _ZN7android4hidl7manager4
337:   FUNC WEAK DEFAULT 14 _ZNSt3__124__put_characte
338:   FUNC GLOBAL DEFAULT 14 _ZN7android4hidl7manager4
339:   FUNC GLOBAL DEFAULT 14 _ZN7android4hidl7manager4
340:   FUNC GLOBAL DEFAULT 14 _ZN7android8hardware9BHwB
341:   FUNC GLOBAL DEFAULT 14 _ZTv0_n24_N7android8hardw
342:   FUNC WEAK DEFAULT 14 _ZNSt3__120__shared_ptr_p
343:   FUNC GLOBAL DEFAULT 14 _ZNK7android8hardware6Par
344:   FUNC GLOBAL DEFAULT 14 _ZN7android4hidl7manager4
345:   FUNC GLOBAL DEFAULT 14 _ZN7android8hardware10BpH
346:   FUNC GLOBAL DEFAULT 14 _ZNK7android8hardware11hi
347:   FUNC GLOBAL DEFAULT 14 _ZTv0_n12_N7android8hardw
348:   FUNC GLOBAL DEFAULT 14 _ZNK7android8hardware6Par
349:   FUNC WEAK DEFAULT 14 _ZNSt3__15dequeINS_8funct
350:   FUNC WEAK DEFAULT 14 _ZNSt3__113basic_filebufI
351:   OBJECT WEAK DEFAULT 18 _ZTVN7android4hidl4base4V
352:   FUNC GLOBAL DEFAULT 14 _ZTv0_n16_N7android8hardw
353:   FUNC GLOBAL DEFAULT 14 _ZNK7android8hardware18Bu
354:   FUNC GLOBAL DEFAULT 14 _ZN7android8hardware6Parc
355:   FUNC GLOBAL DEFAULT 14 _ZN7android8hardware10BpH
356:   FUNC GLOBAL DEFAULT 14 _ZN7android4hidl4base4V1_
357:   FUNC GLOBAL DEFAULT 14 _ZN7android4hidl7manager4
358:   FUNC GLOBAL DEFAULT 14 _ZN7android8hardware6Parc
359:   FUNC GLOBAL DEFAULT 14 _ZN7android8hardware21acq
360:   FUNC GLOBAL DEFAULT 14 _ZN7android8hardware6Stat
361:   FUNC WEAK DEFAULT 14 _ZN7android8hardware7deta
362:   FUNC GLOBAL DEFAULT 14 _ZN7android4hidl7manager4
363:   FUNC GLOBAL DEFAULT 14 _ZN7android8hardware10BpH
364:   FUNC GLOBAL DEFAULT 14 _ZN7android8hardware10IIn
365:   FUNC WEAK DEFAULT 14 _ZNSt3__115basic_stringbu
366:   FUNC GLOBAL DEFAULT 14 _ZN7android4hidl7manager4
367:   FUNC GLOBAL DEFAULT 14 _ZN7android8hardware12Pro
368:   FUNC GLOBAL DEFAULT 14 _ZNK7android8hardware7IBi
369:   FUNC GLOBAL DEFAULT 14 _ZTv0_n12_N7android8hardw
370:   FUNC GLOBAL DEFAULT 14 _ZN7android4hidl7manager4
371:   OBJECT GLOBAL DEFAULT 18 _ZTCN7android8hardware27h
372:   FUNC GLOBAL DEFAULT 14 _ZN7android8hardware6Parc
373:   FUNC GLOBAL DEFAULT 14 _ZN7android8hardware6Parc
374:   FUNC WEAK DEFAULT 14 _ZNSt3__16__treeINS_12__v
375:   FUNC GLOBAL DEFAULT 14 _ZN7android8hardware10BpH
376:   FUNC GLOBAL DEFAULT 14 _ZN7android8hardware14IPC
377:   FUNC WEAK DEFAULT 14 _ZNSt3__16vectorINS_9sub_
378:   FUNC GLOBAL DEFAULT 14 _ZN7android8hardware6Parc
379:   FUNC GLOBAL DEFAULT 14 _ZN7android8hardware9BHwB
380:   FUNC GLOBAL DEFAULT 14 _ZNK7android8hardware14IP
381:   FUNC WEAK DEFAULT 14 _ZNSt3__16vectorINS_4pair
382:   OBJECT GLOBAL DEFAULT 18 _ZTTN7android8hardware7de
383:   FUNC GLOBAL DEFAULT 14 _ZNK7android8hardware14IP
384:   FUNC GLOBAL DEFAULT 14 _ZN7android8hardware6Parc
385:   FUNC GLOBAL DEFAULT 14 _ZNK7android8hardware10Bp
386:   FUNC GLOBAL DEFAULT 14 _ZN7android8hardware14IPC
387:   FUNC WEAK DEFAULT 14 _ZNSt3__16vectorINS_12bas
388:   FUNC WEAK DEFAULT 14 _ZNSt3__112__hash_tableIN
389:   FUNC GLOBAL DEFAULT 14 _ZN7android8hardware6Parc
390:   FUNC GLOBAL DEFAULT 14 _ZNK7android8hardware6Par
391:   FUNC GLOBAL DEFAULT 14 _ZN7android4hidl7manager4
392:   FUNC GLOBAL DEFAULT 14 _ZN7android8hardware12Pro
393:   OBJECT WEAK DEFAULT 18 _ZTVNSt3__126__end_marked
394:   FUNC GLOBAL DEFAULT 14 _ZN7android4hidl7manager4
395:   FUNC GLOBAL DEFAULT 14 _ZN7android8hardware7deta
396:   FUNC WEAK DEFAULT 14 _ZNSt3__111basic_regexIcN
397:   FUNC GLOBAL DEFAULT 14 _ZN7android4hidl7manager4
398:   OBJECT GLOBAL DEFAULT 18 _ZTTN7android4hidl7manage
399:   FUNC GLOBAL DEFAULT 14 _ZN7android8hardware9BHwB
400:   FUNC GLOBAL DEFAULT 14 _ZN7android8hardware7deta
401:   FUNC WEAK DEFAULT 14 _ZNSt3__116__owns_one_sta
402:   FUNC GLOBAL DEFAULT 14 _ZN7android8hardware7deta
403:   FUNC GLOBAL DEFAULT 14 _ZN7android4hidl7manager4
404:   FUNC WEAK DEFAULT 14 _ZNSt3__111basic_regexIcN
405:   FUNC WEAK DEFAULT 14 _ZNSt3__16vectorINS_9sub_
406:   FUNC GLOBAL DEFAULT 14 _ZN7android4hidl7manager4
407:   FUNC GLOBAL DEFAULT 14 _ZN7android8hardware12Pro
408:   FUNC WEAK DEFAULT 14 _ZN7android2spINS_8hardwa
409:   OBJECT WEAK DEFAULT 23 _ZZN7android8hardware25Pa
410:   FUNC GLOBAL DEFAULT 14 _ZN7android4hidl7manager4
411:   FUNC GLOBAL DEFAULT 14 _ZTv0_n12_N7android4hidl7
412:   OBJECT GLOBAL DEFAULT 18 _ZTCN7android4hidl7manage
413:   FUNC GLOBAL DEFAULT 14 _ZN7android8hardware11hid
414:   FUNC GLOBAL DEFAULT 14 _ZN7android8hardware11hid
415:   FUNC WEAK DEFAULT 14 _ZNSt3__111basic_regexIcN
416:   OBJECT GLOBAL DEFAULT 18 _ZTVN7android4hidl7manage
417:   FUNC GLOBAL DEFAULT 14 getHWBinderKernelReferenc
418:   FUNC GLOBAL DEFAULT 14 _ZNK7android8hardware6Par
419:   FUNC GLOBAL DEFAULT 14 _ZNK7android8hardware7det
420:   OBJECT WEAK DEFAULT 18 _ZTCN7android8hardware7de
421:   FUNC GLOBAL DEFAULT 14 _ZN7android4hidl7manager4
422:   FUNC WEAK DEFAULT 14 _ZN7android8hardware7deta
423:   FUNC GLOBAL DEFAULT 14 _ZN7android4hidl7manager4
424:   FUNC GLOBAL DEFAULT 14 _ZN7android4hidl7manager4
425:   FUNC WEAK DEFAULT 14 _ZNSt3__111basic_regexIcN
426:   FUNC GLOBAL DEFAULT 14 _ZN7android8hardware11hid
427:   FUNC WEAK DEFAULT 14 _ZNSt3__111basic_regexIcN
428:   FUNC WEAK DEFAULT 14 _ZNSt3__111basic_regexIcN
429:   OBJECT WEAK DEFAULT 18 _ZTVN7android6VectorINS_8
430:   FUNC GLOBAL DEFAULT 14 _ZN7android4hidl7manager4
431:   OBJECT GLOBAL DEFAULT 18 _ZTCN7android4hidl4base4V
432:   FUNC GLOBAL DEFAULT 14 _ZN7android8hardware10BpH
433:   FUNC GLOBAL DEFAULT 14 _ZN7android8hardware6Parc
434:   FUNC WEAK DEFAULT 14 _ZNKSt3__112__match_charI
435:   FUNC GLOBAL DEFAULT 14 _ZN7android8hardware6Stat
436:   FUNC GLOBAL DEFAULT 14 _ZN7android4hidl7manager4
437:   OBJECT GLOBAL DEFAULT 18 _ZTVN7android4hidl4base4V
438:   FUNC GLOBAL DEFAULT 14 _ZN7android8hardware6Parc
439:   FUNC GLOBAL DEFAULT 14 _ZNK7android8hardware6Par
440:   FUNC WEAK DEFAULT 14 _ZN7android8hardware10fro
441:   FUNC GLOBAL DEFAULT 14 _ZN7android8hardware10BpH
442:   FUNC GLOBAL DEFAULT 14 _ZN7android4hidl7manager4
443:   FUNC GLOBAL DEFAULT 14 _ZN7android8hardware10BpH
444:   FUNC GLOBAL DEFAULT 14 _ZN7android8hardware14IPC
445:   FUNC GLOBAL DEFAULT 14 _ZN7android8hardware6Parc
446:   FUNC WEAK DEFAULT 14 _ZNSt3__16vectorIN7androi
447:   FUNC GLOBAL DEFAULT 14 _ZN7android8hardware7deta
448:   OBJECT WEAK DEFAULT 23 _ZZN7android8hardware25Pa
449:   FUNC GLOBAL DEFAULT 14 _ZN7android8hardware12Pro
450:   OBJECT WEAK DEFAULT 18 _ZTVNSt3__116__owns_one_s
451:   FUNC GLOBAL DEFAULT 14 _ZN7android8hardware6Parc
452:   OBJECT GLOBAL DEFAULT 18 _ZTCN7android4hidl7manage
453:   OBJECT GLOBAL DEFAULT 18 _ZTCN7android4hidl7manage
454:   OBJECT WEAK DEFAULT 18 _ZTTN7android8hardware11B
455:   FUNC GLOBAL DEFAULT 14 __floatdidf
456:   FUNC WEAK DEFAULT 14 _ZNSt3__110__function6__f
457:   FUNC WEAK DEFAULT 14 _ZNSt3__111basic_regexIcN
458:   FUNC WEAK DEFAULT 14 _ZNSt3__16vectorIcNS_9all
459:   FUNC GLOBAL DEFAULT 14 _ZN7android4hidl7manager4
460:   FUNC GLOBAL DEFAULT 14 _ZTv0_n12_N7android4hidl7
461:   FUNC GLOBAL DEFAULT 14 _ZN7android4hidl7manager4
462:   FUNC GLOBAL DEFAULT 14 _ZN7android4hidl7manager4
463:   FUNC GLOBAL DEFAULT 14 _ZN7android4hidl7manager4
464:   FUNC WEAK DEFAULT 14 _ZNSt3__112__hash_tableIN
465:   FUNC GLOBAL DEFAULT 14 _ZTv0_n12_N7android8hardw
466:   OBJECT GLOBAL DEFAULT 18 _ZTCN7android4hidl7manage
467:   FUNC GLOBAL DEFAULT 14 _ZNK7android8hardware6Par
468:   FUNC GLOBAL DEFAULT 14 _ZNK7android8hardware6Par
469:   FUNC GLOBAL DEFAULT 14 _ZNK7android8hardware6Par
470:   FUNC GLOBAL DEFAULT 14 _ZN7android8hardware12Pro
471:   FUNC GLOBAL DEFAULT 14 _ZN7android4hidl7manager4
472:   FUNC WEAK DEFAULT 14 _ZNSt3__16vectorINS_9sub_
473:   FUNC GLOBAL DEFAULT 14 _ZN7android8hardware11hid
474:   FUNC GLOBAL DEFAULT 14 _ZN7android8hardware16mat
475:   FUNC GLOBAL DEFAULT 14 _ZN7android4hidl7manager4
476:   FUNC WEAK DEFAULT 14 _ZNSt3__111basic_regexIcN
477:   FUNC GLOBAL DEFAULT 14 _ZN7android8hardware11hid
478:   FUNC WEAK DEFAULT 14 _ZNSt3__111basic_regexIcN
479:   FUNC WEAK DEFAULT 14 _ZNSt3__16__treeINS_12__v
480:   OBJECT GLOBAL DEFAULT 18 _ZTCN7android4hidl7manage
481:   FUNC GLOBAL DEFAULT 14 _ZN7android4hidl7manager4
482:   FUNC GLOBAL DEFAULT 14 _ZN7android8hardware14IPC
483:   OBJECT GLOBAL DEFAULT 18 _ZTVN7android8hardware10H
484:   FUNC GLOBAL DEFAULT 14 _ZN7android4hidl7manager4
485:   FUNC GLOBAL DEFAULT 14 _ZN7android4hidl7manager4
486:   FUNC GLOBAL DEFAULT 14 _ZN7android8hardware9BHwB
487:   FUNC GLOBAL DEFAULT 14 _ZN7android8hardware7deta
488:   FUNC GLOBAL DEFAULT 14 _ZNK7android8hardware6Par
489:   FUNC GLOBAL DEFAULT 14 __aeabi_memset4
490:   FUNC WEAK DEFAULT 14 _ZNKSt3__126__end_marked_
491:   FUNC GLOBAL DEFAULT 14 _ZN7android8hardware17joi
492:   FUNC GLOBAL DEFAULT 14 _ZN7android4hidl7manager4
493:   FUNC GLOBAL DEFAULT 14 _ZN7android8hardware6Parc
494:   FUNC GLOBAL DEFAULT 14 _ZN7android4hidl7manager4
495:   OBJECT GLOBAL DEFAULT 18 _ZTTN7android4hidl7manage
496:   FUNC GLOBAL DEFAULT 14 _ZN7android8hardware7deta
497:   FUNC GLOBAL DEFAULT 14 _ZN7android8hardware11hid
498:   FUNC WEAK DEFAULT 14 _ZNSt3__15dequeINS_8funct
499:   FUNC WEAK DEFAULT 14 _ZNSt3__113basic_filebufI
500:   FUNC GLOBAL DEFAULT 14 _ZTv0_n12_N7android4hidl4
501:   OBJECT GLOBAL DEFAULT 18 _ZTCN7android4hidl7manage
502:   FUNC GLOBAL DEFAULT 14 _ZNK7android8hardware14IP
503:   FUNC WEAK DEFAULT 14 _ZNSt3__111basic_regexIcN
504:   FUNC GLOBAL DEFAULT 14 _ZN7android8hardware11hid
505:   FUNC GLOBAL DEFAULT 14 _ZN7android4hidl7manager4
506:   OBJECT GLOBAL DEFAULT 18 _ZTCN7android4hidl7manage
507:   FUNC GLOBAL DEFAULT 14 _ZN7android4hidl7manager4
508:   FUNC GLOBAL DEFAULT 14 _ZNK7android8hardware6Par
509:   FUNC GLOBAL DEFAULT 14 _ZN7android8hardware10Tex
510:   FUNC GLOBAL DEFAULT 14 __aeabi_memset8
511:   FUNC GLOBAL DEFAULT 14 _ZN7android8hardware11hid
512:   FUNC GLOBAL DEFAULT 14 _ZN7android8hardwarelsERN
513:   FUNC WEAK DEFAULT 14 _ZNSt3__111basic_regexIcN
514:   FUNC GLOBAL DEFAULT 14 _ZN7android8hardware11BpH
515:   FUNC GLOBAL DEFAULT 14 _ZN7android4hidl7manager4
516:   OBJECT GLOBAL DEFAULT 18 _ZTCN7android4hidl7manage
517:   FUNC GLOBAL DEFAULT 14 _ZN7android8hardware10BpH
518:   FUNC GLOBAL DEFAULT 14 _ZNK7android8hardware6Par
519:   OBJECT GLOBAL DEFAULT 18 _ZTVN7android4hidl7manage
520:   FUNC GLOBAL DEFAULT 14 _ZN7android4hidl4base4V1_
521:   OBJECT WEAK DEFAULT 18 _ZTVNSt3__112__match_char
522:   FUNC GLOBAL DEFAULT 14 _ZN7android8hardware14rea
523:   FUNC WEAK DEFAULT 14 _ZNSt3__16vectorINS_12bas
524:   FUNC GLOBAL DEFAULT 14 _ZN7android4hidl7manager4
525:   FUNC GLOBAL DEFAULT 14 _ZN7android4hidl7manager4
526:   FUNC GLOBAL DEFAULT 14 _ZN7android8hardware12Pro
527:   FUNC GLOBAL DEFAULT 14 _ZN7android8hardware6Parc
528:   FUNC WEAK DEFAULT 14 _ZNKSt3__16__treeINS_12__
529:   FUNC GLOBAL DEFAULT 14 _ZN7android8hardware14IPC
530:   FUNC WEAK DEFAULT 14 _ZN7android2spINS_8hardwa
531:   FUNC WEAK DEFAULT 14 _ZN7android8hardware7deta
532:   FUNC GLOBAL DEFAULT 14 _ZN7android4hidl7manager4
533:   FUNC GLOBAL DEFAULT 14 _ZThn20_N7android4hidl7ma
534:   FUNC GLOBAL DEFAULT 14 _ZN7android8hardware6Parc
535:   FUNC GLOBAL DEFAULT 14 _ZN7android4hidl7manager4
536:   FUNC GLOBAL DEFAULT 14 _ZN7android8hardware6Parc
537:   FUNC GLOBAL DEFAULT 14 _ZN7android8hardware6Parc
538:   FUNC GLOBAL DEFAULT 14 __aeabi_memcpy4
539:   FUNC GLOBAL DEFAULT 14 _ZN7android8hardware11hid
540:   OBJECT WEAK DEFAULT 18 _ZTCNSt3__113basic_fstrea
541:   FUNC GLOBAL DEFAULT 14 _ZN7android4hidl4base4V1_
542:   OBJECT GLOBAL DEFAULT 18 _ZTCN7android4hidl7manage
543:   FUNC GLOBAL DEFAULT 14 _ZThn20_N7android4hidl4ba
544:   FUNC GLOBAL DEFAULT 14 _ZN7android8hardware23get
545:   FUNC GLOBAL DEFAULT 14 _ZN7android4hidl7manager4
546:   FUNC GLOBAL DEFAULT 14 _ZN7android8hardware6Parc
547:   FUNC GLOBAL DEFAULT 14 _ZN7android4hidl7manager4
548:   OBJECT WEAK DEFAULT 18 _ZTCNSt3__118basic_string
549:   FUNC WEAK DEFAULT 14 _ZNSt3__16vectorINS_4pair
550:   FUNC GLOBAL DEFAULT 14 _ZN7android8hardware11hid
551:   FUNC WEAK DEFAULT 14 _ZNSt3__120__shared_ptr_e
552:   OBJECT GLOBAL DEFAULT 18 _ZTCN7android8hardware7de
553:   OBJECT GLOBAL DEFAULT 18 _ZTTN7android8hardware7IB
554:   FUNC GLOBAL DEFAULT 14 _ZN7android8hardware12Pro
555:   FUNC GLOBAL DEFAULT 14 __aeabi_memcpy8
556:   FUNC GLOBAL DEFAULT 14 _ZN7android8hardware7deta
557:   OBJECT GLOBAL DEFAULT 16 _ZN7android4hidl7manager4
558:   FUNC GLOBAL DEFAULT 14 _ZN7android8hardware12Pro
559:   FUNC GLOBAL DEFAULT 14 _ZN7android8hardware6Parc
560:   OBJECT GLOBAL DEFAULT 18 _ZTTN7android4hidl7manage
561:   FUNC GLOBAL DEFAULT 14 _ZN7android4hidl7manager4
562:   FUNC GLOBAL DEFAULT 14 _ZN7android8hardware6Parc
563:   OBJECT WEAK DEFAULT 18 _ZTVNSt3__120__match_char
564:   FUNC GLOBAL DEFAULT 14 _ZN7android4hidl4base4V1_
565:   FUNC WEAK DEFAULT 14 _ZNSt3__16__treeINS_12__v
566:   FUNC GLOBAL DEFAULT 14 _ZN7android8hardware6Parc
567:   FUNC GLOBAL DEFAULT 14 _ZN7android4hidl7manager4
568:   FUNC GLOBAL DEFAULT 14 _ZNK7android8hardware6Par
569:   FUNC WEAK DEFAULT 14 _ZNSt3__111basic_regexIcN
570:   FUNC WEAK DEFAULT 14 _ZNSt3__16vectorIPvNS_9al
571:   FUNC GLOBAL DEFAULT 14 _ZNK7android8hardware6Par
572:   FUNC GLOBAL DEFAULT 14 _ZN7android8hardware11hid
573:   FUNC WEAK DEFAULT 14 _ZNSt3__16vectorIN7androi
574:   FUNC WEAK DEFAULT 14 _ZNSt3__114__split_buffer
575:   FUNC GLOBAL DEFAULT 14 _ZN7android4hidl7manager4
576:   FUNC GLOBAL DEFAULT 14 _ZN7android4hidl7manager4
577:   FUNC GLOBAL DEFAULT 14 _ZN7android4hidl7manager4
578:   OBJECT GLOBAL DEFAULT 18 _ZTCN7android4hidl7manage
579:   OBJECT GLOBAL DEFAULT 18 _ZTCN7android4hidl4base4V
580:   FUNC GLOBAL DEFAULT 14 _ZN7android8hardware14IPC
581:   FUNC GLOBAL DEFAULT 14 _ZN7android4hidl7manager4
582:   FUNC GLOBAL DEFAULT 14 _ZN7android4hidl7manager4
583:   FUNC WEAK DEFAULT 14 _ZN7android8hardware7deta
584:   FUNC GLOBAL DEFAULT 14 _ZN7android4hidl7manager4
585:   OBJECT WEAK DEFAULT 18 _ZTVN7android8hardware11B
586:   FUNC GLOBAL DEFAULT 14 _ZN7android8hardware7deta
587:   OBJECT GLOBAL DEFAULT 18 _ZTVN7android4hidl7manage
588:   FUNC GLOBAL DEFAULT 14 _ZN7android8hardware16unf
589:   FUNC GLOBAL DEFAULT 14 _ZNK7android8hardware6Par
590:   FUNC GLOBAL DEFAULT 14 _ZN7android8hardware6Parc
591:   FUNC GLOBAL DEFAULT 14 _ZN7android8hardware12Pro
592:   FUNC GLOBAL DEFAULT 14 _ZN7android8hardware13wri
593:   FUNC WEAK DEFAULT 14 _ZNSt3__113basic_filebufI
594:   OBJECT WEAK DEFAULT 18 _ZTVN7android4hidl7manage
595:   FUNC GLOBAL DEFAULT 14 _ZN7android4hidl4base4V1_
596:   OBJECT WEAK DEFAULT 18 _ZTCN7android8hardware11B
597:   FUNC GLOBAL DEFAULT 14 _ZNK7android8hardware6Par
598:   FUNC GLOBAL DEFAULT 14 _ZN7android8hardware14IPC
599:   FUNC GLOBAL DEFAULT 14 _ZN7android8hardware7deta
600:   FUNC GLOBAL DEFAULT 14 _ZN7android8hardware7deta
601:   FUNC GLOBAL DEFAULT 14 _ZN7android4hidl4base4V1_
602:   FUNC GLOBAL DEFAULT 14 _ZN7android4hidl7manager4
603:   OBJECT WEAK DEFAULT 18 _ZTVNSt3__118basic_string
604:   FUNC WEAK DEFAULT 14 _ZNSt3__15dequeINS_7__sta
605:   FUNC GLOBAL DEFAULT 14 _ZNK7android8hardware6Par
606:   FUNC GLOBAL DEFAULT 14 _ZN7android8hardware14IPC
607:   OBJECT WEAK DEFAULT 18 _ZTVN7android6VectorIPNS_
608:   FUNC GLOBAL DEFAULT 14 _ZNK7android8hardware6Par
609:   FUNC WEAK DEFAULT 14 _ZNKSt3__120__bracket_exp
610:   OBJECT GLOBAL DEFAULT 18 _ZTVN7android4hidl7manage
611:   FUNC GLOBAL DEFAULT 14 _ZN7android8hardware14IPC
612:   FUNC GLOBAL DEFAULT 14 __aeabi_memmove4
613:   FUNC WEAK DEFAULT 14 _ZNSt3__111basic_regexIcN
614:   OBJECT WEAK DEFAULT 18 _ZTCN7android8hardware10P
615:   FUNC WEAK DEFAULT 14 _ZNSt3__113basic_filebufI
616:   OBJECT GLOBAL DEFAULT 18 _ZTVN7android8hardware11B
617:   FUNC GLOBAL DEFAULT 14 _ZN7android8hardware20Laz
618:   FUNC GLOBAL DEFAULT 14 _ZN7android4hidl7manager4
619:   FUNC GLOBAL DEFAULT 14 _ZN7android4hidl7manager4
620:   FUNC GLOBAL DEFAULT 14 _ZN7android8hardware24def
621:   FUNC WEAK DEFAULT 14 _ZNSt3__16__treeIiNS_4les
622:   FUNC GLOBAL DEFAULT 14 _ZNK7android8hardware6Par
623:   FUNC GLOBAL DEFAULT 14 __aeabi_memmove8
624:   FUNC WEAK DEFAULT 14 _ZNSt3__111basic_regexIcN
625:   FUNC GLOBAL DEFAULT 14 _ZN7android4hidl4base4V1_
626:   FUNC WEAK DEFAULT 14 _ZNSt3__15dequeINS_7__sta
627:   FUNC GLOBAL DEFAULT 14 _ZN7android4hidl7manager4
628:   FUNC GLOBAL DEFAULT 14 _ZN7android4hidl7manager4
629:   FUNC GLOBAL DEFAULT 14 _ZThn20_N7android4hidl7ma
630:   FUNC GLOBAL DEFAULT 14 _ZTv0_n12_N7android8hardw
631:   OBJECT WEAK DEFAULT 18 _ZTCNSt3__118basic_string
632:   OBJECT GLOBAL DEFAULT 18 _ZTCN7android4hidl7manage
633:   FUNC GLOBAL DEFAULT 14 _ZN7android8hardware10BpH
634:   OBJECT WEAK DEFAULT 18 _ZTVNSt3__110__l_anchorIc
635:   FUNC GLOBAL DEFAULT 14 _ZN7android8hardware11hid
636:   OBJECT WEAK DEFAULT 18 _ZTTNSt3__119basic_ostrin
637:   OBJECT GLOBAL DEFAULT 18 _ZTCN7android4hidl7manage
638:   OBJECT GLOBAL DEFAULT 18 _ZTVN7android4hidl7manage
639:   FUNC GLOBAL DEFAULT 14 _ZN7android8hardware10BpH
640:   FUNC GLOBAL DEFAULT 14 _ZN7android8hardware18Buf
641:   FUNC WEAK DEFAULT 14 _ZNSt3__111basic_regexIcN
642:   OBJECT GLOBAL DEFAULT 16 _ZN7android4hidl4base4V1_
643:   FUNC GLOBAL DEFAULT 14 _ZN7android4hidl7manager4
644:   FUNC GLOBAL DEFAULT 14 _ZN7android8hardware6Parc
645:   FUNC GLOBAL DEFAULT 14 _ZN7android8hardware16han
646:   OBJECT GLOBAL DEFAULT 18 _ZTVN7android8hardware27h
647:   FUNC GLOBAL DEFAULT 14 _ZN7android8hardware11BpH
648:   FUNC WEAK DEFAULT 14 _ZNSt3__16__treeINS_12__v
649:   FUNC GLOBAL DEFAULT 14 _ZN7android8hardware14IPC
650:   FUNC GLOBAL DEFAULT 14 __aeabi_l2d
651:   OBJECT WEAK DEFAULT 18 _ZTCNSt3__118basic_string
652:   FUNC GLOBAL DEFAULT 14 _ZN7android4hidl7manager4
653:   FUNC GLOBAL DEFAULT 14 _ZN7android8hardware11BpH
654:   FUNC GLOBAL DEFAULT 14 _ZN7android8hardware6Parc
655:   FUNC WEAK DEFAULT 14 _ZNKSt3__120__match_char_
656:   FUNC GLOBAL DEFAULT 14 _ZNK7android8hardware6Par
657:   FUNC GLOBAL DEFAULT 14 _ZN7android4hidl7manager4
658:   FUNC GLOBAL DEFAULT 14 _ZN7android4hidl7manager4
659:   FUNC GLOBAL DEFAULT 14 _ZN7android4hidl7manager4
660:   FUNC GLOBAL DEFAULT 14 _ZNK7android8hardware6Par
661:   FUNC GLOBAL DEFAULT 14 __udivmodsi4
662:   FUNC GLOBAL DEFAULT 14 _ZN7android4hidl7manager4
663:   FUNC WEAK DEFAULT 14 _ZN7android8hardware6Parc
664:   FUNC WEAK DEFAULT 14 _ZNKSt3__110__function6__
665:   FUNC GLOBAL DEFAULT 14 _ZThn20_N7android4hidl7ma
666:   FUNC GLOBAL DEFAULT 14 _ZThn20_N7android4hidl7ma
667:   FUNC GLOBAL DEFAULT 14 _ZN7android4hidl7manager4
668:   FUNC GLOBAL DEFAULT 14 _ZN7android4hidl4base4V1_
669:   FUNC GLOBAL DEFAULT 14 _ZN7android8hardware14IPC
670:   FUNC GLOBAL DEFAULT 14 _ZN7android8hardware6Parc
671:   FUNC WEAK DEFAULT 14 _ZNKSt3__113__empty_state
672:   FUNC GLOBAL DEFAULT 14 _ZN7android8hardware31set
673:   FUNC GLOBAL DEFAULT 14 _ZN7android8hardware15int
674:   FUNC GLOBAL DEFAULT 14 _ZN7android8hardware11hid
675:   FUNC GLOBAL DEFAULT 14 _ZTv0_n12_N7android8hardw
676:   FUNC GLOBAL DEFAULT 14 _ZN7android8hardware14IPC
677:   FUNC WEAK DEFAULT 14 _ZNSt3__112__deque_baseIN
678:   FUNC WEAK DEFAULT 14 _ZNSt3__120__shared_ptr_e
679:   FUNC GLOBAL DEFAULT 14 _ZN7android4hidl7manager4
680:   FUNC GLOBAL DEFAULT 14 _ZN7android4hidl7manager4
681:   FUNC GLOBAL DEFAULT 14 _ZN7android4hidl7manager4
682:   FUNC GLOBAL DEFAULT 14 _ZN7android8hardware6Parc
683:   OBJECT GLOBAL DEFAULT 23 _ZN7android8hardware7deta
684:   FUNC GLOBAL DEFAULT 14 _ZN7android4hidl7manager4
685:   FUNC GLOBAL DEFAULT 14 _ZN7android8hardware12Pro
686:   FUNC GLOBAL DEFAULT 14 _ZN7android8hardware10Hid
687:   FUNC GLOBAL DEFAULT 14 _ZN7android8hardware11hid
688:   FUNC GLOBAL DEFAULT 14 _ZN7android4hidl7manager4
689:   FUNC GLOBAL DEFAULT 14 _ZN7android4hidl7manager4
690:   FUNC WEAK DEFAULT 14 _ZNSt3__111basic_regexIcN
691:   OBJECT GLOBAL DEFAULT 18 _ZTVN7android8hardware7de
692:   FUNC GLOBAL DEFAULT 14 _ZN7android4hidl4base4V1_
693:   FUNC GLOBAL DEFAULT 14 _ZN7android4hidl7manager4
694:   FUNC GLOBAL DEFAULT 14 _ZN7android8hardware18Buf
695:   FUNC GLOBAL DEFAULT 14 _ZN7android8hardware18Buf
696:   FUNC GLOBAL DEFAULT 14 _ZN7android4hidl7manager4
697:   FUNC GLOBAL DEFAULT 14 _ZN7android4hidl7manager4
698:   OBJECT GLOBAL DEFAULT 18 _ZTTN7android4hidl7manage
699:   FUNC WEAK DEFAULT 14 _ZN7android8hardware7deta
700:   FUNC GLOBAL DEFAULT 14 _ZNK7android8hardware6Par
701:   FUNC GLOBAL DEFAULT 14 __aeabi_uidivmod
702:   FUNC GLOBAL DEFAULT 14 _ZN7android8hardware22rea
703:   OBJECT WEAK DEFAULT 18 _ZTTNSt3__114basic_ifstre
704:   OBJECT GLOBAL DEFAULT 18 _ZTCN7android4hidl7manage
705:   FUNC GLOBAL DEFAULT 14 _ZNK7android8hardware6Par
706:   FUNC WEAK DEFAULT 14 _ZNSt3__114__split_buffer
707:   FUNC GLOBAL DEFAULT 14 _ZN7android8hardware11hid
708:   OBJECT WEAK DEFAULT 18 _ZTCN7android4hidl7manage
709:   FUNC GLOBAL DEFAULT 14 _ZN7android8hardware14IPC
710:   FUNC GLOBAL DEFAULT 14 _ZNK7android8hardware6Par
711:   FUNC GLOBAL DEFAULT 14 _ZN7android8hardware12Pro
712:   FUNC WEAK DEFAULT 14 _ZNSt3__111basic_regexIcN
713:   FUNC GLOBAL DEFAULT 14 _ZN7android8hardware7deta
714:   FUNC GLOBAL DEFAULT 14 _ZN7android8hardware7deta
715:   FUNC WEAK DEFAULT 14 _ZNSt3__17getlineIcNS_11c
716:   FUNC GLOBAL DEFAULT 14 _ZN7android4hidl7manager4
717:   FUNC GLOBAL DEFAULT 14 _ZN7android4hidl7manager4
718:   FUNC GLOBAL DEFAULT 14 _ZN7android8hardware18Buf
719:   FUNC GLOBAL DEFAULT 14 _ZNK7android8hardware6Par
720:   FUNC WEAK DEFAULT 14 _ZNKSt3__112regex_traitsI
721:   OBJECT WEAK DEFAULT 18 _ZTTN7android8hardware7de
722:   FUNC WEAK DEFAULT 14 _ZNSt3__111basic_regexIcN
723:   FUNC WEAK DEFAULT 14 _ZNSt3__111basic_regexIcN
724:   FUNC GLOBAL DEFAULT 14 _ZN7android4hidl4base4V1_
725:   FUNC GLOBAL DEFAULT 14 _ZN7android8hardware7deta
726:   FUNC GLOBAL DEFAULT 14 _ZN7android4hidl7manager4
727:   FUNC GLOBAL DEFAULT 14 _ZN7android4hidl7manager4
728:   OBJECT GLOBAL DEFAULT 18 _ZTTN7android4hidl7manage
729:   FUNC WEAK DEFAULT 14 _ZNSt3__111basic_regexIcN
730:   FUNC GLOBAL DEFAULT 14 _ZN7android4hidl7manager4
731:   FUNC GLOBAL DEFAULT 14 _ZN7android4hidl7manager4
732:   FUNC GLOBAL DEFAULT 14 _ZNK7android8hardware11hi
733:   FUNC GLOBAL DEFAULT 14 _ZN7android8hardware6Parc
734:   OBJECT GLOBAL DEFAULT 18 _ZTVN7android8hardware10T
735:   FUNC GLOBAL DEFAULT 14 _ZN7android8hardware10Hid
736:   OBJECT GLOBAL DEFAULT 18 _ZTTN7android8hardware27h
737:   FUNC GLOBAL DEFAULT 14 _ZN7android4hidl7manager4
738:   FUNC GLOBAL DEFAULT 14 _ZN7android4hidl7manager4
739:   FUNC WEAK DEFAULT 14 _ZNSt3__16vectorINS_4pair
740:   FUNC GLOBAL DEFAULT 14 _ZN7android8hardwarelsERN
741:   FUNC GLOBAL DEFAULT 14 _ZNK7android8hardware9BHw
742:   FUNC WEAK DEFAULT 14 _ZNSt3__16vectorIN7androi
743:   OBJECT GLOBAL DEFAULT 18 _ZTVN7android4hidl7manage
744:   FUNC GLOBAL DEFAULT 14 _ZN7android4hidl7manager4
745:   FUNC GLOBAL DEFAULT 14 _ZN7android8hardware14IPC
746:   FUNC GLOBAL DEFAULT 14 _ZN7android8hardware12Pro
747:   FUNC WEAK DEFAULT 14 _ZNSt3__16vectorINS_4pair
748:   FUNC GLOBAL DEFAULT 14 _ZN7android8hardware10Hid
749:   FUNC GLOBAL DEFAULT 14 _ZN7android8hardware10Hid
750:   FUNC GLOBAL DEFAULT 14 _ZN7android8hardware18add
751:   FUNC GLOBAL DEFAULT 14 _ZN7android4hidl4base4V1_
752:   FUNC GLOBAL DEFAULT 14 _ZN7android8hardware7IBin
753:   FUNC GLOBAL DEFAULT 14 _ZN7android4hidl7manager4
754:   FUNC GLOBAL DEFAULT 14 _ZN7android8hardware7deta
755:   FUNC GLOBAL DEFAULT 14 _ZN7android4hidl7manager4
756:   OBJECT GLOBAL DEFAULT 18 _ZTCN7android4hidl4base4V
757:   FUNC WEAK DEFAULT 14 _ZNKSt3__112regex_traitsI
758:   FUNC GLOBAL DEFAULT 14 _ZN7android8hardware18set
759:   FUNC GLOBAL DEFAULT 14 _ZN7android4hidl7manager4
760:   FUNC GLOBAL DEFAULT 14 __aeabi_memcpy
761:   FUNC WEAK DEFAULT 14 _ZNKSt3__115basic_stringb
762:   FUNC GLOBAL DEFAULT 14 _ZN7android8hardware13wri
763:   FUNC WEAK DEFAULT 14 _ZNSt3__111basic_regexIcN
764:   FUNC GLOBAL DEFAULT 14 _ZN7android8hardware6Parc
765:   OBJECT GLOBAL DEFAULT 18 _ZTCN7android4hidl7manage
766:   FUNC GLOBAL DEFAULT 14 _ZN7android4hidl7manager4
767:   FUNC GLOBAL DEFAULT 14 _ZN7android4hidl7manager4
768:   OBJECT WEAK DEFAULT 18 _ZTVNSt3__123__match_any_
769:   FUNC WEAK DEFAULT 14 _ZNSt3__112__deque_baseIN
770:   FUNC GLOBAL DEFAULT 14 _ZN7android4hidl7manager4
771:   FUNC WEAK DEFAULT 14 _ZNSt3__16__treeINS_12__v
772:   FUNC WEAK DEFAULT 14 _ZNSt3__110__function6__f
773:   FUNC GLOBAL DEFAULT 14 _ZN7android8hardware27hid
774:   FUNC WEAK DEFAULT 14 _ZNSt3__113basic_filebufI
775:   OBJECT WEAK DEFAULT 18 _ZTCNSt3__113basic_fstrea
776:   FUNC WEAK DEFAULT 14 _ZNKSt3__111basic_regexIc
777:   FUNC WEAK DEFAULT 14 _ZNSt3__111basic_regexIcN
778:   FUNC GLOBAL DEFAULT 14 _ZN7android8hardware11hid
779:   FUNC WEAK DEFAULT 14 _ZNSt3__114__split_buffer
780:   OBJECT GLOBAL DEFAULT 18 _ZTTN7android4hidl7manage
781:   OBJECT WEAK DEFAULT 18 _ZTVNSt3__120__shared_ptr
782:   FUNC WEAK DEFAULT 14 _ZN7android8hardware7deta
783:   OBJECT GLOBAL DEFAULT 18 _ZTCN7android4hidl7manage
784:   FUNC GLOBAL DEFAULT 14 _ZN7android4hidl4base4V1_
785:   FUNC GLOBAL DEFAULT 14 _ZN7android4hidl4base4V1_
786:   FUNC GLOBAL DEFAULT 14 _ZN7android4hidl4base4V1_
787:   FUNC GLOBAL DEFAULT 14 _ZN7android8hardware7deta
788:   FUNC GLOBAL DEFAULT 14 _ZN7android4hidl7manager4
789:   FUNC WEAK DEFAULT 14 _ZN7android8hardware7deta
790:   FUNC GLOBAL DEFAULT 14 _ZNK7android8hardware12Pr
791:   FUNC GLOBAL DEFAULT 14 _ZN7android4hidl7manager4
792:   FUNC GLOBAL DEFAULT 14 _ZN7android8hardware18Buf
793:   FUNC GLOBAL DEFAULT 14 _ZNK7android8hardware6Par
794:   OBJECT GLOBAL DEFAULT 23 _ZN7android8hardware8gPro
795:   FUNC GLOBAL DEFAULT 14 _ZTv0_n12_N7android8hardw
796:   FUNC GLOBAL DEFAULT 14 _ZN7android4hidl7manager4
797:   FUNC GLOBAL DEFAULT 14 _ZN7android4hidl7manager4
798:   FUNC GLOBAL DEFAULT 14 _ZN7android4hidl7manager4
799:   FUNC GLOBAL DEFAULT 14 _ZN7android8hardwarelsERN
800:   FUNC WEAK DEFAULT 14 _ZNKSt3__117__repeat_one_
801:   FUNC GLOBAL DEFAULT 14 _ZN7android4hidl7manager4
802:   FUNC WEAK DEFAULT 14 _ZNSt3__16__treeINS_12__v
803:   FUNC GLOBAL DEFAULT 14 _ZTv0_n12_N7android4hidl7
804:   OBJECT GLOBAL DEFAULT 18 _ZTCN7android4hidl7manage
805:   FUNC GLOBAL DEFAULT 14 _ZNK7android8hardware6Par
806:   FUNC GLOBAL DEFAULT 14 _ZN7android8hardware12Pro
807:   FUNC WEAK DEFAULT 14 _ZNSt3__112__hash_tableIN
808:   FUNC GLOBAL DEFAULT 14 _ZN7android4hidl7manager4
809:   FUNC GLOBAL DEFAULT 14 _ZN7android4hidl7manager4
810:   FUNC GLOBAL DEFAULT 14 _ZN7android4hidl7manager4
811:   FUNC WEAK DEFAULT 14 _ZNKSt3__118__back_ref_co
812:   FUNC WEAK DEFAULT 14 _ZNSt3__115basic_stringbu
813:   FUNC WEAK DEFAULT 14 _ZNSt3__16__treeINS_12__v
814:   FUNC GLOBAL DEFAULT 14 _ZN7android8hardware9BHwB
815:   FUNC WEAK DEFAULT 14 _ZNSt3__111basic_regexIcN
816:   FUNC GLOBAL DEFAULT 14 _ZN7android8hardware11hid
817:   FUNC GLOBAL DEFAULT 14 _ZN7android8hardware6Parc
818:   FUNC GLOBAL DEFAULT 14 _ZThn20_N7android4hidl7ma
819:   FUNC GLOBAL DEFAULT 14 _ZN7android4hidl7manager4
820:   FUNC WEAK DEFAULT 14 _ZN7android2wpINS_8hardwa
821:   FUNC WEAK DEFAULT 14 _ZNSt3__16vectorINS_9sub_
822:   FUNC GLOBAL DEFAULT 14 _ZN7android8hardware7deta
823:   FUNC GLOBAL DEFAULT 14 _ZN7android8hardware9BHwB
824:   OBJECT GLOBAL DEFAULT 18 _ZTCN7android4hidl7manage
825:   FUNC GLOBAL DEFAULT 14 _ZN7android8hardware10BpH
826:   FUNC WEAK DEFAULT 14 _ZNSt3__16vectorINS_8func
827:   FUNC GLOBAL DEFAULT 14 _ZN7android8hardware9BHwB
828:   FUNC WEAK DEFAULT 14 _ZNSt3__120__shared_ptr_p
829:   FUNC GLOBAL DEFAULT 14 _ZN7android4hidl7manager4
830:   FUNC GLOBAL DEFAULT 14 _ZN7android4hidl4base4V1_
831:   OBJECT WEAK DEFAULT 18 _ZTVN7android6VectorINS_2
832:   FUNC GLOBAL DEFAULT 14 _ZNK7android8hardware6Par
833:   FUNC GLOBAL DEFAULT 14 _ZN7android8hardware14IPC
834:   FUNC GLOBAL DEFAULT 14 _ZN7android4hidl7manager4
835:   FUNC GLOBAL DEFAULT 14 _ZN7android4hidl7manager4
836:   FUNC WEAK DEFAULT 14 _ZN7android8hardware7deta
837:   FUNC GLOBAL DEFAULT 14 __udivsi3
838:   FUNC GLOBAL DEFAULT 14 _ZN7android8hardware7deta
839:   FUNC GLOBAL DEFAULT 14 _ZN7android8hardware6Stat
840:   FUNC GLOBAL DEFAULT 14 _ZN7android8hardware10IIn
841:   FUNC GLOBAL DEFAULT 14 _ZN7android4hidl7manager4
842:   OBJECT GLOBAL DEFAULT 18 _ZTTN7android4hidl7manage
843:   OBJECT GLOBAL DEFAULT 18 _ZTCN7android4hidl7manage
844:   FUNC GLOBAL DEFAULT 14 _ZN7android4hidl7manager4
845:   FUNC WEAK DEFAULT 14 _ZN7android8hardware7deta
846:   FUNC GLOBAL DEFAULT 14 _ZN7android4hidl4base4V1_
847:   OBJECT GLOBAL DEFAULT 18 _ZTTN7android4hidl7manage
848:   FUNC GLOBAL DEFAULT 14 _ZN7android8hardware11hid
849:   FUNC GLOBAL DEFAULT 14 _ZN7android4hidl7manager4
850:   FUNC GLOBAL DEFAULT 14 _ZN7android4hidl7manager4
851:   FUNC WEAK DEFAULT 14 _ZNSt3__16vectorIcNS_9all
852:   FUNC GLOBAL DEFAULT 14 _ZN7android8hardware10IIn
853:   OBJECT WEAK DEFAULT 23 _ZGVZN7android8hardware25
854:   FUNC GLOBAL DEFAULT 14 _ZNK7android8hardware6Par
855:   FUNC GLOBAL DEFAULT 14 _ZN7android8hardware11hid
856:   FUNC GLOBAL DEFAULT 14 _ZN7android8hardware7IBin
857:   OBJECT GLOBAL DEFAULT 18 _ZTTN7android4hidl7manage
858:   FUNC WEAK DEFAULT 14 _ZN7android8hardware7deta
859:   FUNC GLOBAL DEFAULT 14 _ZN7android8hardware14IPC
860:   FUNC GLOBAL DEFAULT 14 _ZN7android8hardware14IPC
861:   FUNC GLOBAL DEFAULT 14 _ZN7android4hidl4base4V1_
862:   FUNC GLOBAL DEFAULT 14 _ZN7android4hidl7manager4
863:   FUNC GLOBAL DEFAULT 14 _ZN7android4hidl7manager4
864:   FUNC WEAK DEFAULT 14 _ZNSt3__111basic_regexIcN
865:   OBJECT GLOBAL DEFAULT 18 _ZTCN7android4hidl4base4V
866:   FUNC GLOBAL DEFAULT 14 _ZN7android8hardware14IPC
867:   FUNC WEAK DEFAULT 14 _ZNKSt3__115__word_bounda
868:   FUNC GLOBAL DEFAULT 14 _ZN7android4hidl7manager4
869:   FUNC GLOBAL DEFAULT 14 _ZN7android4hidl7manager4
870:   FUNC GLOBAL DEFAULT 14 _ZN7android4hidl7manager4
871:   FUNC GLOBAL DEFAULT 14 _ZN7android4hidl7manager4
872:   FUNC GLOBAL DEFAULT 14 _ZN7android8hardware10BpH
873:   FUNC GLOBAL DEFAULT 14 _ZN7android8hardware6Stat
874:   OBJECT WEAK DEFAULT 18 _ZTCNSt3__113basic_fstrea
875:   FUNC GLOBAL DEFAULT 14 _ZTv0_n12_N7android8hardw
876:   FUNC GLOBAL DEFAULT 14 _ZN7android8hardware18Buf
877:   FUNC WEAK DEFAULT 14 _ZNSt3__16vectorINS_12bas
878:   OBJECT GLOBAL DEFAULT 18 _ZTCN7android4hidl7manage
879:   OBJECT GLOBAL DEFAULT 18 _ZTVN7android4hidl7manage
880:   FUNC WEAK DEFAULT 14 _ZNSt3__114__split_buffer
881:   OBJECT WEAK DEFAULT 18 _ZTVNSt3__16__loopIcEE
882:   FUNC GLOBAL DEFAULT 14 _ZNK7android8hardware6Par
883:   FUNC GLOBAL DEFAULT 14 _ZN7android8hardware11hid
884:   FUNC GLOBAL DEFAULT 14 _ZN7android4hidl7manager4
885:   OBJECT GLOBAL DEFAULT 18 _ZTCN7android4hidl7manage
886:   FUNC GLOBAL DEFAULT 14 _ZNK7android8hardware10Bp
887:   OBJECT WEAK DEFAULT 18 _ZTVNSt3__116__back_ref_i
888:   FUNC GLOBAL DEFAULT 14 _ZN7android8hardware10Hid
889:   FUNC GLOBAL DEFAULT 14 stringForIndent
890:   FUNC GLOBAL DEFAULT 14 _ZTv0_n12_N7android8hardw
891:   FUNC WEAK DEFAULT 14 _ZNSt3__113__tree_removeI
892:   FUNC GLOBAL DEFAULT 14 _ZTv0_n12_N7android8hardw
893:   FUNC GLOBAL DEFAULT 14 _ZN7android4hidl7manager4
894:   OBJECT WEAK DEFAULT 18 _ZTVN7android4hidl7manage
895:   FUNC GLOBAL DEFAULT 14 _ZNK7android8hardware6Par
896:   FUNC GLOBAL DEFAULT 14 _ZNK7android8hardware6Par
897:   FUNC GLOBAL DEFAULT 14 _ZNK7android8hardware11hi
898:   FUNC WEAK DEFAULT 14 _ZNSt3__115basic_stringbu
899:   FUNC GLOBAL DEFAULT 14 _ZN7android4hidl7manager4
900:   OBJECT GLOBAL DEFAULT 18 _ZTTN7android8hardware9BH
901:   FUNC GLOBAL DEFAULT 14 _ZN7android8hardware7deta
902:   FUNC WEAK DEFAULT 14 _ZNSt3__16__treeINS_12__v
903:   FUNC GLOBAL DEFAULT 14 _ZN7android4hidl7manager4
904:   OBJECT WEAK DEFAULT 18 _ZTCN7android8hardware11B
905:   OBJECT WEAK DEFAULT 18 _ZTVNSt3__120__shared_ptr
906:   OBJECT GLOBAL DEFAULT 18 _ZTCN7android4hidl7manage
907:   FUNC GLOBAL DEFAULT 14 _ZN7android4hidl7manager4
908:   FUNC GLOBAL DEFAULT 14 _ZN7android4hidl7manager4
909:   FUNC WEAK DEFAULT 14 _ZNSt3__120__shared_ptr_e
910:   FUNC GLOBAL DEFAULT 14 _ZN7android8hardware7deta
911:   OBJECT GLOBAL DEFAULT 18 _ZTCN7android4hidl7manage
912:   FUNC GLOBAL DEFAULT 14 _ZN7android8hardware10Hid
913:   OBJECT GLOBAL DEFAULT 18 _ZTCN7android4hidl7manage
914:   FUNC GLOBAL DEFAULT 14 _ZN7android8hardware10BpH
915:   FUNC GLOBAL DEFAULT 14 _ZNK7android8hardware6Par
916:   FUNC GLOBAL DEFAULT 14 _ZN7android4hidl7manager4
917:   FUNC GLOBAL DEFAULT 14 _ZN7android8hardware21def
918:   FUNC GLOBAL DEFAULT 14 _ZN7android4hidl7manager4
919:   FUNC GLOBAL DEFAULT 14 _ZN7android8hardware7deta
920:   FUNC WEAK DEFAULT 14 _ZNKSt3__111basic_regexIc
921:   OBJECT GLOBAL DEFAULT 18 _ZTVN7android8hardware7de
922:   FUNC GLOBAL DEFAULT 14 _ZN7android4hidl7manager4
923:   FUNC WEAK DEFAULT 14 _ZNSt3__113basic_filebufI
924:   FUNC GLOBAL DEFAULT 14 _ZN7android4hidl7manager4
925:   OBJECT GLOBAL DEFAULT 18 _ZTCN7android4hidl7manage
926:   OBJECT GLOBAL DEFAULT 18 _ZTCN7android8hardware9BH
927:   OBJECT GLOBAL DEFAULT 18 _ZN7android8hardware4aout
928:   FUNC GLOBAL DEFAULT 14 _ZN7android8hardware10Hid
929:   FUNC GLOBAL DEFAULT 14 _ZN7android4hidl7manager4
930:   FUNC WEAK DEFAULT 14 _ZNSt3__16__treeINS_12__v
931:   FUNC GLOBAL DEFAULT 14 _ZN7android4hidl7manager4
932:   FUNC GLOBAL DEFAULT 14 _ZN7android4hidl7manager4
933:   FUNC GLOBAL DEFAULT 14 _ZN7android4hidl7manager4
934:   FUNC GLOBAL DEFAULT 14 _ZTv0_n12_N7android4hidl7
935:   OBJECT GLOBAL DEFAULT 18 _ZTVN7android4hidl4base4V
936:   FUNC GLOBAL DEFAULT 14 _ZN7android8hardware7deta
937:   FUNC WEAK DEFAULT 14 _ZNKSt3__110__l_anchorIcE
938:   FUNC GLOBAL DEFAULT 14 _ZN7android4hidl7manager4
939:   FUNC GLOBAL DEFAULT 14 _ZN7android8hardware14acq
940:   FUNC GLOBAL DEFAULT 14 _ZNK7android8hardware6Par
941:   FUNC GLOBAL DEFAULT 14 _ZN7android4hidl7manager4
942:   FUNC WEAK DEFAULT 14 _ZN7android8hardware10fro
943:   FUNC GLOBAL DEFAULT 14 _ZN7android8hardware11hid
944:   FUNC WEAK DEFAULT 14 _ZNSt3__111basic_regexIcN
945:   FUNC GLOBAL DEFAULT 14 _ZN7android8hardware10BpH
946:   FUNC WEAK DEFAULT 14 _ZNSt3__15dequeINS_8funct
947:   OBJECT GLOBAL DEFAULT 18 _ZTTN7android4hidl7manage
948:   FUNC WEAK DEFAULT 14 _ZNSt3__16__treeINS_12__v
949:   FUNC GLOBAL DEFAULT 14 _ZN7android8hardware7IBin
950:   FUNC GLOBAL DEFAULT 14 _ZN7android4hidl4base4V1_
951:   OBJECT WEAK DEFAULT 23 _ZGVZN7android8hardware25
952:   FUNC GLOBAL DEFAULT 14 _ZN7android4hidl4base4V1_
953:   FUNC WEAK DEFAULT 14 _ZN7android8hardware7deta
954:   FUNC GLOBAL DEFAULT 14 _ZN7android4hidl4base4V1_
955:   FUNC GLOBAL DEFAULT 14 _ZN7android8hardware10BpH
956:   OBJECT WEAK DEFAULT 18 _ZTVNSt3__118__back_ref_c
957:   FUNC GLOBAL DEFAULT 14 _ZN7android8hardware6Stat
958:   FUNC GLOBAL DEFAULT 14 _ZN7android4hidl7manager4
959:   FUNC WEAK DEFAULT 14 _ZN7android2spINS_8hardwa
960:   FUNC WEAK DEFAULT 14 _ZNSt3__114__split_buffer
961:   FUNC GLOBAL DEFAULT 14 _ZN7android4hidl4base4V1_
962:   FUNC GLOBAL DEFAULT 14 _ZN7android4hidl7manager4
963:   FUNC GLOBAL DEFAULT 14 _ZN7android8hardware16unf
964:   FUNC GLOBAL DEFAULT 14 _ZN7android4hidl7manager4
965:   OBJECT GLOBAL DEFAULT 18 _ZTCN7android4hidl7manage
966:   FUNC GLOBAL DEFAULT 14 _ZTv0_n12_N7android4hidl7
967:   FUNC GLOBAL DEFAULT 14 _ZN7android8hardware11BpH
968:   FUNC GLOBAL DEFAULT 14 _ZN7android8hardware14IPC
969:   FUNC WEAK DEFAULT 14 _ZNSt3__111basic_regexIcN
970:   FUNC GLOBAL DEFAULT 14 _ZN7android4hidl7manager4
971:   OBJECT GLOBAL DEFAULT 18 _ZTVN7android4hidl7manage
972:   FUNC GLOBAL DEFAULT 14 _ZN7android4hidl7manager4
973:   FUNC GLOBAL DEFAULT 14 printHexData
974:   FUNC GLOBAL DEFAULT 14 __aeabi_uidiv
975:   FUNC WEAK DEFAULT 14 _ZNSt3__111basic_regexIcN
976:   FUNC GLOBAL DEFAULT 14 _ZTv0_n12_N7android8hardw
977:   FUNC GLOBAL DEFAULT 14 _ZNK7android8hardware11hi
978:   FUNC GLOBAL DEFAULT 14 _ZN7android8hardware6Stat
979:   FUNC GLOBAL DEFAULT 14 _ZN7android8hardware20Laz
980:   FUNC WEAK DEFAULT 14 _ZNSt3__111basic_regexIcN
981:   OBJECT GLOBAL DEFAULT 18 _ZTCN7android4hidl7manage
982:   OBJECT GLOBAL DEFAULT 18 _ZTCN7android4hidl7manage
983:   FUNC WEAK DEFAULT 14 _ZNSt3__111basic_regexIcN
984:   OBJECT GLOBAL DEFAULT 23 _ZN7android8hardware7deta
985:   FUNC GLOBAL DEFAULT 14 _ZN7android4hidl7manager4
986:   FUNC GLOBAL DEFAULT 14 _ZN7android8hardware14IPC
987:   FUNC WEAK DEFAULT 14 _ZN7android8hardware6Parc
988:   OBJECT GLOBAL DEFAULT 18 _ZTTN7android8hardware12P
989:   FUNC WEAK DEFAULT 14 _ZNKSt3__111__lookaheadIc
990:   FUNC WEAK DEFAULT 14 _ZNSt3__111basic_regexIcN
991:   FUNC GLOBAL DEFAULT 14 _ZN7android8hardware12Pro
992:   FUNC GLOBAL DEFAULT 14 _ZN7android8hardware6Parc
993:   OBJECT WEAK DEFAULT 18 _ZTVNSt3__113basic_filebu
994:   FUNC GLOBAL DEFAULT 14 _ZN7android4hidl7manager4
995:   FUNC GLOBAL DEFAULT 14 _ZN7android8hardware9BHwB
996:   FUNC GLOBAL DEFAULT 14 _ZN7android4hidl7manager4
997:   FUNC WEAK DEFAULT 14 _ZNKSt3__112regex_traitsI
998:   FUNC WEAK DEFAULT 14 _ZNSt3__16vectorINS_9sub_
999:   FUNC GLOBAL DEFAULT 14 _ZN7android4hidl7manager4
1000:   FUNC GLOBAL DEFAULT 14 _ZN7android4hidl7manager4
1001:   FUNC GLOBAL DEFAULT 14 _ZNK7android8hardware6Par
1002:   OBJECT WEAK DEFAULT 18 _ZTCN7android8hardware7de
1003:   FUNC GLOBAL DEFAULT 14 _ZN7android8hardware9BHwB
1004:   OBJECT GLOBAL DEFAULT 18 _ZTCN7android4hidl7manage
1005:   FUNC GLOBAL DEFAULT 14 _ZN7android8hardware10BpH
1006:   FUNC GLOBAL DEFAULT 14 _ZN7android8hardware10Tex
1007:   OBJECT GLOBAL DEFAULT 18 _ZN7android8hardware4alog
1008:   OBJECT GLOBAL DEFAULT 16 _ZN7android4hidl7manager4
1009:   FUNC WEAK DEFAULT 14 _ZNSt3__1plIcNS_11char_tr
1010:   FUNC GLOBAL DEFAULT 14 _ZN7android4hidl7manager4
1011:   FUNC GLOBAL DEFAULT 14 _ZTv0_n12_N7android4hidl4
1012:   FUNC GLOBAL DEFAULT 14 _ZN7android4hidl7manager4
1013:   FUNC GLOBAL DEFAULT 14 _ZN7android8hardware12Pro
1014:   FUNC GLOBAL DEFAULT 14 _ZN7android4hidl7manager4
1015:   FUNC GLOBAL DEFAULT 14 _ZN7android4hidl7manager4
1016:   OBJECT GLOBAL DEFAULT 18 _ZTVN7android4hidl7manage
1017:   FUNC GLOBAL DEFAULT 14 _ZN7android4hidl7manager4
1018:   FUNC GLOBAL DEFAULT 14 _ZN7android8hardware10Tex
1019:   FUNC GLOBAL DEFAULT 14 _ZNK7android8hardware6Par
1020:   OBJECT GLOBAL DEFAULT 23 _ZN7android8hardware7deta
1021:   FUNC GLOBAL DEFAULT 14 _ZN7android4hidl7manager4
1022:   FUNC GLOBAL DEFAULT 14 _ZN7android8hardware11BpH
1023:   FUNC GLOBAL DEFAULT 14 _ZN7android4hidl7manager4
1024:   FUNC GLOBAL DEFAULT 14 _ZTv0_n12_N7android4hidl7
1025:   FUNC GLOBAL DEFAULT 14 _ZN7android4hidl7manager4
1026:   FUNC GLOBAL DEFAULT 14 _ZN7android4hidl7manager4
1027:   FUNC GLOBAL DEFAULT 14 _ZTv0_n12_N7android4hidl7
1028:   FUNC GLOBAL DEFAULT 14 _ZN7android4hidl4base4V1_
1029:   FUNC GLOBAL DEFAULT 14 _ZN7android8hardware10IIn
1030:   FUNC GLOBAL DEFAULT 14 _ZN7android4hidl7manager4
1031:   OBJECT GLOBAL DEFAULT 18 _ZTTN7android8hardware11B
1032:   FUNC GLOBAL DEFAULT 14 _ZN7android4hidl7manager4
1033:   FUNC WEAK DEFAULT 14 _ZNSt3__111basic_regexIcN
1034:   FUNC GLOBAL DEFAULT 14 _ZN7android4hidl4base4V1_
1035:   FUNC GLOBAL DEFAULT 14 _ZNK7android8hardware6Par
1036:   FUNC GLOBAL DEFAULT 14 _ZN7android8hardware14IPC
1037:   FUNC GLOBAL DEFAULT 14 _ZN7android8hardware6Parc
1038:   OBJECT WEAK DEFAULT 23 _ZZN7android8hardware25Pa
1039:   OBJECT GLOBAL DEFAULT 18 _ZTTN7android4hidl4base4V
1040:   FUNC WEAK DEFAULT 14 _ZNKSt3__111basic_regexIc
1041:   FUNC GLOBAL DEFAULT 14 _ZN7android8hardware7deta
1042:   FUNC WEAK DEFAULT 14 _ZNSt3__111basic_regexIcN
1043:   OBJECT WEAK DEFAULT 18 _ZTVNSt3__114basic_ifstre
1044:   FUNC GLOBAL DEFAULT 14 _ZNK7android8hardware11hi
1045:   FUNC GLOBAL DEFAULT 14 _ZN7android8hardware21wri
1046:   FUNC GLOBAL DEFAULT 14 _ZN7android4hidl7manager4
1047:   FUNC GLOBAL DEFAULT 14 _ZN7android4hidl7manager4
1048:   OBJECT GLOBAL DEFAULT 18 _ZTCN7android4hidl7manage
1049:   OBJECT GLOBAL DEFAULT 18 _ZTTN7android4hidl7manage
1050:   FUNC GLOBAL DEFAULT 14 _ZN7android4hidl7manager4
1051:   FUNC GLOBAL DEFAULT 14 _ZN7android4hidl7manager4
1052:   FUNC GLOBAL DEFAULT 14 _ZN7android4hidl7manager4
1053:   FUNC GLOBAL DEFAULT 14 _ZThn20_N7android4hidl4ba
1054:   FUNC GLOBAL DEFAULT 14 _ZN7android8hardware10BpH
1055:   FUNC GLOBAL DEFAULT 14 _ZN7android4hidl7manager4
1056:   FUNC GLOBAL DEFAULT 14 _ZN7android8hardware9BHwB
1057:   OBJECT GLOBAL DEFAULT 18 _ZTVN7android4hidl7manage
1058:   FUNC GLOBAL DEFAULT 14 _ZN7android4hidl7manager4
1059:   FUNC WEAK DEFAULT 14 _ZNSt3__111basic_regexIcN
1060:   FUNC WEAK DEFAULT 14 _ZN7android8hardware7deta
1061:   FUNC GLOBAL DEFAULT 14 _ZN7android8hardware12Pro
1062:   FUNC WEAK DEFAULT 14 _ZN7android8hardware6Parc
1063:   FUNC GLOBAL DEFAULT 14 _ZN7android8hardware6Parc
1064:   OBJECT WEAK DEFAULT 18 _ZTVNSt3__110__function6_
1065:   FUNC WEAK DEFAULT 14 _ZNSt3__111basic_regexIcN
1066:   FUNC GLOBAL DEFAULT 14 _ZN7android4hidl7manager4
1067:   FUNC GLOBAL DEFAULT 14 _ZNK7android8hardware14IP
1068:   FUNC GLOBAL DEFAULT 14 _ZN7android8hardware12Pro
1069:   FUNC WEAK DEFAULT 14 _ZNKSt3__16__loopIcE12__e
1070:   FUNC WEAK DEFAULT 14 _ZNSt3__111basic_regexIcN
1071:   FUNC WEAK DEFAULT 14 _ZNSt3__111basic_regexIcN
1072:   FUNC WEAK DEFAULT 14 _ZNSt3__111basic_regexIcN
1073:   OBJECT GLOBAL DEFAULT 18 _ZTCN7android4hidl7manage
1074:   OBJECT GLOBAL DEFAULT 18 _ZTTN7android4hidl4base4V
1075:   FUNC GLOBAL DEFAULT 14 _ZN7android4hidl7manager4
1076:   FUNC WEAK DEFAULT 14 _ZNK7android8hardware6Par
1077:   FUNC GLOBAL DEFAULT 14 _ZN7android8hardware6Parc
1078:   FUNC WEAK DEFAULT 14 _ZNKSt3__110__function6__
1079:   OBJECT GLOBAL DEFAULT 13 _ZN7android8hardware11hid
1080:   FUNC WEAK DEFAULT 14 _ZN7android8hardware7deta
1081:   FUNC GLOBAL DEFAULT 14 _ZNK7android8hardware6Par
1082:   FUNC GLOBAL DEFAULT 14 _ZN7android8hardware12Pro
1083:   OBJECT GLOBAL DEFAULT 13 _ZN7android8hardware11hid
1084:   FUNC WEAK DEFAULT 14 _ZN7android2spINS_8hardwa
1085:   FUNC GLOBAL DEFAULT 14 _ZN7android8hardware10BpH
1086:   FUNC GLOBAL DEFAULT 14 _ZN7android8hardware18Buf
1087:   FUNC WEAK DEFAULT 14 _ZNKSt3__16__loopIcE6__ex
1088:   FUNC GLOBAL DEFAULT 14 _ZN7android8hardware11hid
1089:   FUNC WEAK DEFAULT 14 _ZNSt3__16__treeINS_12__v
1090:   FUNC GLOBAL DEFAULT 14 _ZN7android8hardware9BHwB
1091:   FUNC GLOBAL DEFAULT 14 _ZNK7android8hardware6Par
1092:   OBJECT WEAK DEFAULT 18 _ZTVN7android12SortedVect
1093:   FUNC WEAK DEFAULT 14 _ZNKSt3__110__r_anchorIcE
1094:   FUNC GLOBAL DEFAULT 14 _ZNK7android8hardware6Sta
1095:   OBJECT WEAK DEFAULT 18 _ZTCN7android4hidl7manage
1096:   FUNC GLOBAL DEFAULT 14 _ZN7android8hardware14IPC
1097:   FUNC GLOBAL DEFAULT 14 _ZN7android8hardware14IPC
1098:   OBJECT WEAK DEFAULT 18 _ZTVN7android6VectorINS_8
1099:   FUNC WEAK DEFAULT 14 _ZNSt3__16__treeINS_12__v
1100:   FUNC GLOBAL DEFAULT 14 _ZN7android4hidl7manager4
1101:   OBJECT WEAK DEFAULT 18 _ZTVN7android8hardware13L
1102:   FUNC GLOBAL DEFAULT 14 _ZN7android4hidl7manager4
1103:   FUNC GLOBAL DEFAULT 14 _ZN7android4hidl7manager4
1104:   FUNC GLOBAL DEFAULT 14 _ZN7android8hardware7deta
1105:   FUNC WEAK DEFAULT 14 _ZNKSt3__112regex_traitsI
1106:   FUNC GLOBAL DEFAULT 14 _ZNK7android8hardware6Par
1107:   FUNC GLOBAL DEFAULT 14 _ZN7android8hardware14IPC
1108:   FUNC GLOBAL DEFAULT 14 _ZNK7android8hardware6Par
1109:   FUNC GLOBAL DEFAULT 14 _ZN7android8hardware7deta
1110:   FUNC GLOBAL DEFAULT 14 _ZN7android8hardware11hid
1111:   OBJECT GLOBAL DEFAULT 23 _ZN7android8hardware7deta
1112:   FUNC WEAK DEFAULT 14 _ZNSt3__13mapINS_12basic_
1113:   FUNC WEAK DEFAULT 14 _ZN7android8hardware10fro
1114:   FUNC GLOBAL DEFAULT 14 _ZNK7android8hardware6Par
1115:   FUNC GLOBAL DEFAULT 14 _ZN7android4hidl7manager4
1116:   FUNC GLOBAL DEFAULT 14 _ZN7android8hardware6Parc
1117:   FUNC GLOBAL DEFAULT 14 _ZN7android8hardware27hid
1118:   FUNC GLOBAL DEFAULT 14 _ZN7android4hidl7manager4
1119:   FUNC GLOBAL DEFAULT 14 _ZN7android4hidl7manager4
1120:   OBJECT GLOBAL DEFAULT 18 _ZTTN7android4hidl7manage
1121:   FUNC GLOBAL DEFAULT 14 _ZN7android4hidl7manager4
1122:   FUNC GLOBAL DEFAULT 14 _ZN7android8hardware12Pro
1123:   OBJECT GLOBAL DEFAULT 23 _ZN7android8hardware13gPr
1124:   OBJECT WEAK DEFAULT 18 _ZTVNSt3__111__alternateI
1125:   FUNC GLOBAL DEFAULT 14 _ZN7android4hidl7manager4
1126:   FUNC WEAK DEFAULT 14 _ZNSt3__1rsIcNS_11char_tr
1127:   FUNC GLOBAL DEFAULT 14 _ZN7android4hidl7manager4
1128:   FUNC GLOBAL DEFAULT 14 _ZN7android8hardware7deta
1129:   FUNC GLOBAL DEFAULT 14 _ZN7android8hardware6Stat
1130:   OBJECT GLOBAL DEFAULT 18 _ZTCN7android4hidl7manage
1131:   FUNC WEAK DEFAULT 14 _ZNSt3__114__split_buffer
1132:   FUNC GLOBAL DEFAULT 14 _ZN7android8hardware9BHwB
1133:   FUNC GLOBAL DEFAULT 14 _ZN7android4hidl4base4V1_
1134:   FUNC GLOBAL DEFAULT 14 _ZNK7android8hardware6Par
1135:   FUNC GLOBAL DEFAULT 14 _ZN7android8hardware20Laz
1136:   FUNC WEAK DEFAULT 14 _ZNSt3__113basic_filebufI
1137:   FUNC GLOBAL DEFAULT 14 _ZN7android8hardware14IPC
1138:   FUNC GLOBAL DEFAULT 14 _ZN7android8hardware14IPC
1139:   FUNC GLOBAL DEFAULT 14 _ZN7android4hidl7manager4
1140:   FUNC GLOBAL DEFAULT 14 _ZN7android4hidl7manager4
1141:   FUNC GLOBAL DEFAULT 14 _ZN7android8hardware10BpH
1142:   FUNC GLOBAL DEFAULT 14 _ZNK7android8hardware6Par
1143:   OBJECT WEAK DEFAULT 18 _ZTVNSt3__121__empty_non_
1144:   FUNC WEAK DEFAULT 14 _ZNSt3__120__shared_ptr_e
1145:   FUNC GLOBAL DEFAULT 14 _ZN7android8hardware7deta
1146:   FUNC GLOBAL DEFAULT 14 _ZN7android4hidl7manager4
1147:   FUNC GLOBAL DEFAULT 14 _ZN7android4hidl7manager4
1148:   FUNC GLOBAL DEFAULT 14 _ZN7android8hardware11hid
1149:   FUNC WEAK DEFAULT 14 _ZNSt3__113basic_filebufI
1150:   FUNC GLOBAL DEFAULT 14 _ZN7android4hidl7manager4
1151:   FUNC GLOBAL DEFAULT 14 _ZThn20_N7android4hidl7ma
1152:   FUNC GLOBAL DEFAULT 14 _ZTv0_n12_N7android8hardw
1153:   OBJECT WEAK DEFAULT 18 _ZTVN7android8hardware7de
1154:   FUNC GLOBAL DEFAULT 14 _ZN7android4hidl7manager4
1155:   FUNC GLOBAL DEFAULT 14 _ZN7android8hardware10BpH
1156:   FUNC GLOBAL DEFAULT 14 _ZN7android8hardware7deta
1157:   OBJECT GLOBAL DEFAULT 18 _ZTCN7android4hidl7manage
1158:   FUNC GLOBAL DEFAULT 14 _ZN7android8hardware14IPC
1159:   FUNC GLOBAL DEFAULT 14 _ZN7android8hardware6Parc
1160:   FUNC GLOBAL DEFAULT 14 _ZNK7android8hardware6Par
1161:   OBJECT WEAK DEFAULT 18 _ZTVNSt3__119basic_ostrin
1162:   FUNC GLOBAL DEFAULT 14 _ZN7android4hidl4base4V1_
1163:   OBJECT GLOBAL DEFAULT 18 _ZTCN7android4hidl7manage
1164:   OBJECT GLOBAL DEFAULT 18 _ZTTN7android4hidl7manage
1165:   FUNC GLOBAL DEFAULT 14 _ZNK7android8hardware6Par
1166:   FUNC GLOBAL DEFAULT 14 _ZN7android8hardware6Stat
1167:   FUNC GLOBAL DEFAULT 14 _ZN7android4hidl4base4V1_
1168:   FUNC GLOBAL DEFAULT 14 _ZN7android4hidl7manager4
1169:   FUNC GLOBAL DEFAULT 14 _ZN7android4hidl7manager4
1170:   FUNC GLOBAL DEFAULT 14 _ZN7android4hidl4base4V1_
1171:   FUNC GLOBAL DEFAULT 14 _ZN7android8hardware14IPC
1172:   FUNC GLOBAL DEFAULT 14 __aeabi_memmove
1173:   FUNC GLOBAL DEFAULT 14 _ZN7android8hardware11hid
1174:   OBJECT GLOBAL DEFAULT 18 _ZTCN7android4hidl7manage
1175:   FUNC WEAK DEFAULT 14 _ZN7android8hardware7deta
1176:   OBJECT GLOBAL DEFAULT 18 _ZTCN7android4hidl7manage
1177:   FUNC GLOBAL DEFAULT 14 _ZNK7android8hardware6Par
1178:   FUNC GLOBAL DEFAULT 14 _ZN7android8hardware11hid
1179:   FUNC GLOBAL DEFAULT 14 _ZN7android8hardware22rea
1180:   FUNC GLOBAL DEFAULT 14 _ZN7android4hidl7manager4
1181:   OBJECT WEAK DEFAULT 18 _ZTVNSt3__115__word_bound
1182:   FUNC GLOBAL DEFAULT 14 _ZN7android4hidl7manager4
1183:   FUNC GLOBAL DEFAULT 14 _ZN7android8hardware11BpH
1184:   FUNC GLOBAL DEFAULT 14 _ZNK7android8hardware14IP
1185:   OBJECT WEAK DEFAULT 18 _ZTVN7android6VectorIPNS_
1186:   FUNC GLOBAL DEFAULT 14 _ZNK7android8hardware6Par
1187:   FUNC GLOBAL DEFAULT 14 _ZN7android8hardware12Pro
1188:   OBJECT WEAK DEFAULT 18 _ZTVNSt3__115basic_string
1189:   FUNC GLOBAL DEFAULT 14 _ZN7android4hidl4base4V1_
1190:   FUNC GLOBAL DEFAULT 14 _ZN7android4hidl7manager4
1191:   FUNC WEAK DEFAULT 14 _ZNKSt3__112regex_traitsI
1192:   FUNC GLOBAL DEFAULT 14 _ZN7android4hidl7manager4
1193:   FUNC GLOBAL DEFAULT 14 _ZN7android4hidl4base4V1_
1194:   FUNC GLOBAL DEFAULT 14 _ZN7android8hardware12Pro
1195:   FUNC GLOBAL DEFAULT 14 _ZThn20_N7android4hidl7ma
1196:   FUNC WEAK DEFAULT 14 _ZN7android8hardware7deta
1197:   FUNC GLOBAL DEFAULT 14 _ZN7android4hidl7manager4
1198:   FUNC GLOBAL DEFAULT 14 _ZThn20_N7android4hidl7ma
1199:   FUNC GLOBAL DEFAULT 14 _ZN7android4hidl4base4V1_
1200:   OBJECT WEAK DEFAULT 18 _ZTVN7android8hardware18B
1201:   FUNC GLOBAL DEFAULT 14 _ZNK7android8hardware6Par
1202:   OBJECT GLOBAL DEFAULT 18 _ZTCN7android4hidl7manage
1203:   FUNC GLOBAL DEFAULT 14 _ZN7android4hidl7manager4
1204:   OBJECT WEAK DEFAULT 18 _ZTCN7android4hidl4base4V
1205:   FUNC GLOBAL DEFAULT 14 _ZN7android8hardware14IPC
1206:   FUNC GLOBAL DEFAULT 14 _ZN7android8hardware6Parc
1207:   FUNC GLOBAL DEFAULT 14 _ZNK7android8hardware6Par
1208:   FUNC WEAK DEFAULT 14 _ZNSt3__113basic_filebufI
1209:   OBJECT WEAK DEFAULT 18 _ZTVN7android4hidl7manage
1210:   FUNC GLOBAL DEFAULT 14 _ZTv0_n20_N7android8hardw
1211:   FUNC GLOBAL DEFAULT 14 _ZN7android4hidl7manager4
1212:   FUNC GLOBAL DEFAULT 14 _ZN7android4hidl7manager4
1213:   FUNC WEAK DEFAULT 14 _ZNSt3__111basic_regexIcN
1214:   FUNC WEAK DEFAULT 14 _ZNSt3__111basic_regexIcN
1215:   FUNC GLOBAL DEFAULT 14 _ZN7android4hidl7manager4
1216:   FUNC WEAK DEFAULT 14 _ZNKSt3__121__empty_non_o
1217:   FUNC GLOBAL DEFAULT 14 _ZN7android8hardware11hid
1218:   FUNC GLOBAL DEFAULT 14 _ZNK7android8hardware11hi
1219:   FUNC GLOBAL DEFAULT 14 _ZN7android8hardware22con
1220:   FUNC GLOBAL DEFAULT 14 _ZN7android4hidl7manager4
1221:   FUNC GLOBAL DEFAULT 14 _ZN7android8hardware14fla
1222:   FUNC GLOBAL DEFAULT 14 _ZN7android8hardware6Parc
1223:   FUNC WEAK DEFAULT 14 _ZNSt3__16vectorINS_7__st
1224:   FUNC GLOBAL DEFAULT 14 _ZN7android8hardware14IPC
1225:   FUNC GLOBAL DEFAULT 14 _ZN7android4hidl4base4V1_
1226:   FUNC GLOBAL DEFAULT 14 _ZNK7android8hardware6Par
1227:   FUNC GLOBAL DEFAULT 14 _ZTv0_n24_N7android8hardw
1228:   FUNC GLOBAL DEFAULT 14 _ZN7android8hardware14IPC
1229:   FUNC GLOBAL DEFAULT 14 _ZNK7android8hardware6Par
1230:   FUNC WEAK DEFAULT 14 _ZNKSt3__128__begin_marke
1231:   OBJECT GLOBAL DEFAULT 18 _ZTCN7android4hidl7manage
1232:   FUNC GLOBAL DEFAULT 14 _ZNK7android8hardware6Par
1233:   FUNC GLOBAL DEFAULT 14 _ZN7android8hardware10Tex
1234:   FUNC WEAK DEFAULT 14 _ZNSt3__111basic_regexIcN
1235:   FUNC GLOBAL DEFAULT 14 _ZN7android4hidl7manager4
1236:   FUNC GLOBAL DEFAULT 14 _ZN7android8hardware14IPC
1237:   OBJECT GLOBAL DEFAULT 13 _ZN7android8hardware11hid
1238:   FUNC GLOBAL DEFAULT 14 _ZN7android8hardware28con
1239:   FUNC WEAK DEFAULT 14 _ZNSt3__111basic_regexIcN
1240:   OBJECT GLOBAL DEFAULT 18 _ZTCN7android4hidl7manage
1241:   OBJECT GLOBAL DEFAULT 18 _ZTCN7android4hidl7manage
1242:   FUNC GLOBAL DEFAULT 14 _ZN7android8hardware14rea
1243:   FUNC GLOBAL DEFAULT 14 _ZN7android4hidl7manager4
1244:   FUNC GLOBAL DEFAULT 14 _ZN7android4hidl7manager4
1245:   FUNC GLOBAL DEFAULT 14 _ZN7android4hidl7manager4
1246:   FUNC GLOBAL DEFAULT 14 _ZNK7android8hardware6Par
1247:   FUNC GLOBAL DEFAULT 14 _ZN7android8hardware6Parc
1248:   FUNC GLOBAL DEFAULT 14 _ZN7android8hardware27hid
1249:   OBJECT GLOBAL DEFAULT 23 _ZN7android8hardware7deta
1250:   FUNC GLOBAL DEFAULT 14 _ZTv0_n20_N7android8hardw
1251:   FUNC GLOBAL DEFAULT 14 _ZN7android8hardware12Pro
1252:   OBJECT WEAK DEFAULT 18 _ZTVNSt3__118__match_char
1253:   FUNC WEAK DEFAULT 14 _ZNKSt3__16__treeINS_12__
1254:   OBJECT GLOBAL DEFAULT 18 _ZTVN7android4hidl7manage
1255:   FUNC GLOBAL DEFAULT 14 _ZN7android8hardware12Pro
1256:   FUNC WEAK DEFAULT 14 _ZNSt3__111basic_regexIcN
1257:   FUNC GLOBAL DEFAULT 14 _ZN7android8hardware14IPC
1258:   FUNC GLOBAL DEFAULT 14 _ZN7android8hardware9BHwB
1259:   FUNC GLOBAL DEFAULT 14 _ZThn20_N7android4hidl7ma
1260:   OBJECT GLOBAL DEFAULT 18 _ZTVN7android8hardware18B
1261:   FUNC GLOBAL DEFAULT 14 printTypeCode
1262:   FUNC GLOBAL DEFAULT 14 _ZN7android8hardware14IPC
1263:   FUNC WEAK DEFAULT 14 _ZNSt3__111basic_regexIcN
1264:   FUNC GLOBAL DEFAULT 14 __aeabi_memclr4
1265:   FUNC GLOBAL DEFAULT 14 _ZN7android8hardware10Hid
1266:   FUNC WEAK DEFAULT 14 _ZN7android4base9ParseUin
1267:   FUNC WEAK DEFAULT 14 _ZNSt3__16vectorINS_4pair
1268:   FUNC GLOBAL DEFAULT 14 _ZN7android8hardware27hid
1269:   FUNC WEAK DEFAULT 14 _ZNSt3__111basic_regexIcN
1270:   OBJECT GLOBAL DEFAULT 18 _ZTCN7android4hidl7manage
1271:   FUNC WEAK DEFAULT 14 _ZNSt3__15dequeINS_7__sta
1272:   OBJECT WEAK DEFAULT 18 _ZTVNSt3__111__end_stateI
1273:   FUNC WEAK DEFAULT 14 _ZNSt3__16__treeINS_12__v
1274:   OBJECT WEAK DEFAULT 18 _ZTVN7android8hardware25P
1275:   FUNC GLOBAL DEFAULT 14 _ZN7android8hardware6Parc
1276:   FUNC GLOBAL DEFAULT 14 _ZN7android8hardware12Pro
1277:   FUNC GLOBAL DEFAULT 14 _ZN7android4hidl7manager4
1278:   FUNC GLOBAL DEFAULT 14 _ZN7android4hidl7manager4
1279:   FUNC GLOBAL DEFAULT 14 __aeabi_memclr8
1280:   FUNC WEAK DEFAULT 14 _ZNKSt3__111__match_anyIc
1281:   FUNC GLOBAL DEFAULT 14 _ZN7android8hardwarelsERN
1282:   FUNC GLOBAL DEFAULT 14 _ZN7android8hardware7deta
1283:   FUNC GLOBAL DEFAULT 14 _ZN7android4hidl7manager4
1284:   FUNC GLOBAL DEFAULT 14 _ZN7android8hardware12Pro
1285:   FUNC GLOBAL DEFAULT 14 _ZTv0_n16_N7android8hardw
1286:   FUNC GLOBAL DEFAULT 14 _ZN7android4hidl7manager4
1287:   OBJECT GLOBAL DEFAULT 18 _ZTTN7android8hardware10I
1288:   FUNC GLOBAL DEFAULT 14 _ZN7android8hardware14IPC
1289:   FUNC GLOBAL DEFAULT 14 _ZN7android4hidl7manager4
1290:   FUNC GLOBAL DEFAULT 14 _ZN7android4hidl4base4V1_
1291:   FUNC GLOBAL DEFAULT 14 _ZN7android4hidl7manager4
1292:   OBJECT GLOBAL DEFAULT 18 _ZTCN7android4hidl7manage
1293:   FUNC GLOBAL DEFAULT 14 _ZN7android4hidl7manager4
1294:   FUNC WEAK DEFAULT 14 _ZNKSt3__111__end_stateIc
1295:   OBJECT WEAK DEFAULT 23 _ZGVZN7android8hardware25
1296:   FUNC GLOBAL DEFAULT 14 _ZN7android4hidl7manager4
1297:   FUNC GLOBAL DEFAULT 14 _ZN7android4hidl7manager4
1298:   FUNC GLOBAL DEFAULT 14 _ZN7android4hidl7manager4
1299:   FUNC GLOBAL DEFAULT 14 _ZN7android4hidl4base4V1_
1300:   OBJECT WEAK DEFAULT 18 _ZTCN7android8hardware11B
1301:   FUNC GLOBAL DEFAULT 14 _ZN7android8hardware14IPC
1302:   FUNC WEAK DEFAULT 14 _ZNK7android8hardware6Par
1303:   FUNC GLOBAL DEFAULT 14 _ZN7android8hardware11hid
1304:   FUNC GLOBAL DEFAULT 14 _ZN7android8hardware23joi
1305:   FUNC GLOBAL DEFAULT 14 _ZN7android4hidl7manager4
1306:   FUNC GLOBAL DEFAULT 14 _ZN7android4hidl7manager4
1307:   FUNC GLOBAL DEFAULT 14 _ZN7android8hardware19han
1308:   FUNC GLOBAL DEFAULT 14 _ZN7android4hidl4base4V1_
1309:   FUNC GLOBAL DEFAULT 14 _ZN7android4hidl7manager4
1310:   OBJECT WEAK DEFAULT 18 _ZTTNSt3__113basic_fstrea
1311:   OBJECT WEAK DEFAULT 23 _ZZN7android8hardware25Pa
1312:   FUNC GLOBAL DEFAULT 14 _ZN7android4hidl7manager4
1313:   FUNC GLOBAL DEFAULT 14 _ZN7android8hardware11hid
1314:   FUNC GLOBAL DEFAULT 14 _ZN7android4hidl7manager4
1315:   FUNC GLOBAL DEFAULT 14 _ZN7android8hardware14IPC
1316:   FUNC WEAK DEFAULT 14 _ZNSt3__111basic_regexIcN
1317:   FUNC WEAK DEFAULT 14 _ZNSt3__15dequeINS_7__sta
1318:   FUNC WEAK DEFAULT 14 _ZNSt3__127__tree_balance
1319:   FUNC GLOBAL DEFAULT 14 _ZN7android4hidl4base4V1_
1320:   FUNC WEAK DEFAULT 14 _ZN7android8hardware6Parc
1321:   FUNC GLOBAL DEFAULT 14 _ZN7android4hidl7manager4
1322:   FUNC WEAK DEFAULT 14 _ZNSt3__16__treeINS_12__v
1323:   FUNC GLOBAL DEFAULT 14 _ZN7android4hidl7manager4
1324:   FUNC GLOBAL DEFAULT 14 _ZN7android8hardware7deta
1325:   FUNC WEAK DEFAULT 14 _ZNK7android8hardware6Par
1326:   OBJECT WEAK DEFAULT 18 _ZTVNSt3__117__repeat_one
1327:   FUNC GLOBAL DEFAULT 14 _ZN7android4hidl7manager4
1328:   FUNC GLOBAL DEFAULT 14 _ZN7android4hidl7manager4
1329:   OBJECT GLOBAL DEFAULT 18 _ZTVN7android8hardware12P
1330:   OBJECT GLOBAL DEFAULT 16 _ZN7android4hidl7manager4
1331:   FUNC GLOBAL DEFAULT 14 _ZN7android8hardware6Parc
1332:   FUNC GLOBAL DEFAULT 14 _ZN7android8hardware14IPC
1333:   FUNC WEAK DEFAULT 14 _ZNSt3__15dequeINS_7__sta
1334:   OBJECT WEAK DEFAULT 18 _ZTVNSt3__113__empty_stat
1335:   FUNC GLOBAL DEFAULT 14 _ZN7android8hardware11hid
1336:   FUNC GLOBAL DEFAULT 14 _ZN7android8hardware11hid
1337:   FUNC GLOBAL DEFAULT 14 _ZN7android4hidl7manager4
1338:   FUNC GLOBAL DEFAULT 14 _ZN7android4hidl7manager4
1339:   FUNC GLOBAL DEFAULT 14 _ZN7android4hidl7manager4
1340:   FUNC GLOBAL DEFAULT 14 _ZN7android8hardware6Stat
1341:   FUNC WEAK DEFAULT 14 _ZNSt3__115basic_stringbu
1342:   FUNC GLOBAL DEFAULT 14 _ZN7android8hardware24def
1343:   OBJECT GLOBAL DEFAULT 16 _ZN7android4hidl7manager4
1344:   FUNC WEAK DEFAULT 14 _ZNKSt3__111basic_regexIc
1345:   FUNC GLOBAL DEFAULT 14 _ZN7android4hidl7manager4
1346:   FUNC GLOBAL DEFAULT 14 _ZN7android4hidl7manager4
1347:   FUNC GLOBAL DEFAULT 14 _ZN7android4hidl7manager4
1348:   FUNC GLOBAL DEFAULT 14 _ZN7android4hidl7manager4
1349:   FUNC WEAK DEFAULT 14 _ZNSt3__111basic_regexIcN
1350:   FUNC WEAK DEFAULT 14 _ZNSt3__113basic_filebufI
1351:   FUNC GLOBAL DEFAULT 14 _ZN7android4hidl7manager4
1352:   OBJECT GLOBAL DEFAULT 18 _ZTCN7android4hidl7manage
1353:   OBJECT WEAK DEFAULT 18 _ZTVN7android4hidl7manage
1354:   OBJECT GLOBAL DEFAULT 18 _ZTVN7android8hardware7IB
1355:   FUNC GLOBAL DEFAULT 14 _ZN7android8hardware7deta
1356:   FUNC GLOBAL DEFAULT 14 _ZN7android8hardware6Stat
1357:   FUNC GLOBAL DEFAULT 14 _ZN7android8hardware7deta
1358:   FUNC GLOBAL DEFAULT 14 _ZThn20_N7android4hidl7ma
1359:   FUNC GLOBAL DEFAULT 14 _ZN7android4hidl7manager4
1360:   FUNC GLOBAL DEFAULT 14 _ZN7android8hardware9BHwB
1361:   OBJECT GLOBAL DEFAULT 18 _ZTTN7android8hardware10B
1362:   FUNC GLOBAL DEFAULT 14 _ZN7android8hardware6Parc
1363:   FUNC GLOBAL DEFAULT 14 _ZNK7android8hardware6Par
1364:   FUNC WEAK DEFAULT 14 _ZNSt3__16__treeINS_12__v
1365:   FUNC WEAK DEFAULT 14 _ZN7android2spINS_4hidl7m
1366:   FUNC GLOBAL DEFAULT 14 _ZNK7android8hardware6Par
1367:   FUNC GLOBAL DEFAULT 14 _ZN7android8hardware6Parc
1368:   FUNC GLOBAL DEFAULT 14 _ZN7android8hardware31get
1369:   FUNC GLOBAL DEFAULT 14 _ZN7android4hidl7manager4
1370:   FUNC GLOBAL DEFAULT 14 _ZN7android8hardware6Parc
1371:   FUNC GLOBAL DEFAULT 14 _ZN7android4hidl7manager4
1372:   OBJECT GLOBAL DEFAULT 18 _ZTCN7android4hidl7manage
1373:   FUNC WEAK DEFAULT 14 _ZNSt3__117__owns_two_sta
1374:   OBJECT WEAK DEFAULT 23 _ZGVZN7android8hardware25
1375:   FUNC GLOBAL DEFAULT 14 _ZN7android8hardware11BpH
1376:   FUNC GLOBAL DEFAULT 14 _ZN7android4hidl7manager4
1377:   OBJECT WEAK DEFAULT 18 _ZTVN7android4hidl7manage
1378:   FUNC GLOBAL DEFAULT 14 _ZN7android4hidl7manager4
1379:   OBJECT GLOBAL DEFAULT 18 _ZTCN7android4hidl4base4V
1380:   FUNC GLOBAL DEFAULT 14 _ZN7android8hardware6Parc
1381:   FUNC GLOBAL DEFAULT 14 _ZN7android8hardware28get
1382:   FUNC GLOBAL DEFAULT 14 _ZN7android4hidl7manager4
1383:   FUNC WEAK DEFAULT 14 _ZNSt3__111basic_regexIcN
1384:   FUNC GLOBAL DEFAULT 14 _ZN7android8hardware11hid
1385:   FUNC GLOBAL DEFAULT 14 _ZN7android8hardware11hid
1386:   OBJECT GLOBAL DEFAULT 18 _ZTCN7android4hidl7manage
1387:   FUNC GLOBAL DEFAULT 14 _ZN7android8hardware7IBin
1388:   OBJECT GLOBAL DEFAULT 18 _ZTCN7android8hardware10B
1389:   FUNC WEAK DEFAULT 14 _ZNSt3__114__split_buffer
1390:   FUNC GLOBAL DEFAULT 14 _ZN7android8hardware10IIn
1391:   OBJECT GLOBAL DEFAULT 18 _ZTCN7android4hidl7manage
1392:   FUNC WEAK DEFAULT 14 _ZNKSt3__111__alternateIc
1393:   FUNC GLOBAL DEFAULT 14 _ZN7android8hardware11hid
1394:   OBJECT GLOBAL DEFAULT 13 _ZN7android8hardware11hid
1395:   FUNC GLOBAL DEFAULT 14 _ZN7android8hardware7IBin
1396:   FUNC GLOBAL DEFAULT 14 _ZN7android8hardware12Pro
1397:   FUNC GLOBAL DEFAULT 14 _ZN7android8hardware11hid
1398:   FUNC WEAK DEFAULT 14 _ZNSt3__16__treeINS_12__v
1399:   FUNC GLOBAL DEFAULT 14 _ZN7android4hidl7manager4
1400:   FUNC GLOBAL DEFAULT 14 _ZTv0_n12_N7android8hardw
1401:   FUNC WEAK DEFAULT 14 _ZN7android8hardware7deta
1402:   FUNC GLOBAL DEFAULT 14 _ZN7android4hidl7manager4
1403:   OBJECT WEAK DEFAULT 18 _ZTCN7android4hidl7manage
1404:   FUNC WEAK DEFAULT 14 _ZNSt3__16vectorIiNS_9all
1405:   FUNC GLOBAL DEFAULT 14 _ZN7android8hardware7deta
1406:   OBJECT GLOBAL DEFAULT 18 _ZTCN7android4hidl7manage
1407:   FUNC GLOBAL DEFAULT 14 _ZN7android4hidl7manager4
1408:   FUNC GLOBAL DEFAULT 14 _ZN7android8hardware11hid
1409:   FUNC GLOBAL DEFAULT 14 _ZN7android4hidl7manager4
1410:   FUNC GLOBAL DEFAULT 14 _ZN7android4hidl4base4V1_
1411:   FUNC GLOBAL DEFAULT 14 _ZN7android8hardware6Parc
1412:   FUNC WEAK DEFAULT 14 _ZNSt3__111basic_regexIcN
1413:   FUNC WEAK DEFAULT 14 _ZNSt3__111basic_regexIcN
1414:   FUNC WEAK DEFAULT 14 _ZNSt3__111basic_regexIcN
1415:   OBJECT WEAK DEFAULT 18 _ZTVNSt3__113basic_fstrea
1416:   FUNC WEAK DEFAULT 14 _ZNSt3__16vectorINS_8func
1417:   OBJECT GLOBAL DEFAULT 18 _ZTVN7android4hidl7manage
1418:   FUNC GLOBAL DEFAULT 14 _ZN7android8hardware18Buf
1419:   OBJECT WEAK DEFAULT 18 _ZTVN7android8hardware12F
1420:   FUNC GLOBAL DEFAULT 14 _ZN7android4hidl7manager4
1421:   FUNC GLOBAL DEFAULT 14 _ZN7android4hidl4base4V1_
1422:   FUNC GLOBAL DEFAULT 14 _ZN7android4hidl4base4V1_
1423:   FUNC GLOBAL DEFAULT 14 _ZN7android8hardware6Parc
1424:   FUNC GLOBAL DEFAULT 14 _ZN7android8hardware6Parc
1425:   FUNC GLOBAL DEFAULT 14 _ZN7android8hardware21set
1426:   FUNC GLOBAL DEFAULT 14 _ZN7android8hardware14IPC
1427:   FUNC GLOBAL DEFAULT 14 _ZN7android4hidl7manager4
1428:   FUNC GLOBAL DEFAULT 14 _ZN7android8hardware10BpH
1429:   FUNC GLOBAL DEFAULT 14 _ZNK7android8hardware6Par
1430:   OBJECT WEAK DEFAULT 18 _ZTVNSt3__120__bracket_ex
1431:   OBJECT WEAK DEFAULT 18 _ZTCNSt3__114basic_ifstre
1432:   FUNC GLOBAL DEFAULT 14 _ZN7android4hidl7manager4
1433:   FUNC GLOBAL DEFAULT 14 _ZN7android4hidl4base4V1_
1434:   OBJECT GLOBAL DEFAULT 18 _ZTCN7android4hidl4base4V
1435:   FUNC GLOBAL DEFAULT 14 _ZN7android8hardware6Parc
1436:   FUNC GLOBAL DEFAULT 14 _ZTv0_n12_N7android8hardw
1437:   FUNC WEAK DEFAULT 14 _ZNSt3__114__split_buffer
1438:   OBJECT WEAK DEFAULT 18 _ZTVNSt3__111__lookaheadI
1439:   FUNC GLOBAL DEFAULT 14 _ZN7android4hidl7manager4
1440:   FUNC GLOBAL DEFAULT 14 _ZNK7android8hardware6Par
1441:   FUNC GLOBAL DEFAULT 14 _ZNK7android8hardware11hi
1442:   FUNC GLOBAL DEFAULT 14 _ZN7android8hardware7deta
1443:   FUNC GLOBAL DEFAULT 14 _ZN7android4hidl7manager4
1444:   OBJECT GLOBAL DEFAULT 18 _ZTCN7android4hidl7manage
1445:   FUNC GLOBAL DEFAULT 14 _ZN7android4hidl7manager4
1446:   FUNC GLOBAL DEFAULT 14 _ZN7android4hidl7manager4
1447:   FUNC GLOBAL DEFAULT 14 _ZN7android4hidl7manager4
1448:   FUNC GLOBAL DEFAULT 14 _ZN7android4hidl7manager4
1449:   FUNC WEAK DEFAULT 14 _ZNSt3__111basic_regexIcN
1450:   FUNC GLOBAL DEFAULT 14 _ZN7android4hidl7manager4
1451:   OBJECT GLOBAL DEFAULT 18 _ZTCN7android4hidl7manage
1452:   FUNC GLOBAL DEFAULT 14 _ZN7android4hidl7manager4
1453:   FUNC GLOBAL DEFAULT 14 _ZN7android4hidl4base4V1_
1454:   FUNC GLOBAL DEFAULT 14 _ZN7android8hardware14rel
1455:   FUNC WEAK DEFAULT 14 _ZNKSt3__118__match_char_
1456:   FUNC WEAK DEFAULT 14 _ZNSt3__111basic_regexIcN
1457:   FUNC WEAK DEFAULT 14 _ZNSt3__113__vector_baseI
1458:   FUNC GLOBAL DEFAULT 14 _ZN7android8hardware6Parc
1459:   FUNC GLOBAL DEFAULT 14 _ZN7android4hidl7manager4
1460:   FUNC WEAK DEFAULT 14 _ZNKSt3__112regex_traitsI
1461:   FUNC GLOBAL DEFAULT 14 _ZN7android8hardware7deta
1462:   OBJECT WEAK DEFAULT 18 _ZTCN7android4hidl7manage
1463:   OBJECT GLOBAL DEFAULT 18 _ZTCN7android4hidl7manage
1464:   FUNC GLOBAL DEFAULT 14 __udivmoddi4
1465:   FUNC WEAK DEFAULT 14 _ZNKSt3__111__alternateIc
1466:   OBJECT WEAK DEFAULT 18 _ZTVNSt3__120__shared_ptr
1467:   FUNC GLOBAL DEFAULT 14 _ZN7android4hidl7manager4
1468:   FUNC GLOBAL DEFAULT 14 _ZNK7android8hardware6Par
1469:   FUNC GLOBAL DEFAULT 14 _ZN7android8hardware14IPC
1470:   FUNC GLOBAL DEFAULT 14 _ZN7android8hardware10Hid
1471:   FUNC GLOBAL DEFAULT 14 _ZN7android4hidl7manager4
1472:   FUNC GLOBAL DEFAULT 14 _ZN7android8hardware6Parc
1473:   FUNC GLOBAL DEFAULT 14 _ZN7android8hardware6Parc
1474:   FUNC GLOBAL DEFAULT 14 _ZN7android4hidl4base4V1_
1475:   FUNC GLOBAL DEFAULT 14 _ZN7android8hardware10BpH
1476:   OBJECT WEAK DEFAULT 18 _ZTVN7android6VectorIPNS_
1477:   FUNC GLOBAL DEFAULT 14 _ZNK7android8hardware6Par
1478:   OBJECT GLOBAL DEFAULT 18 _ZN7android8hardware4aerr
1479:   FUNC WEAK DEFAULT 14 _ZNSt3__116__owns_one_sta
1480:   OBJECT WEAK DEFAULT 18 _ZTVNSt3__128__begin_mark
1481:   OBJECT GLOBAL DEFAULT 18 _ZTVN7android4hidl7manage
1482:   FUNC GLOBAL DEFAULT 14 __aeabi_memclr
1483:   FUNC WEAK DEFAULT 14 _ZNKSt3__112regex_traitsI
1484:   FUNC GLOBAL DEFAULT 14 _ZN7android8hardware10Hid
1485:   FUNC GLOBAL DEFAULT 14 _ZN7android8hardware7deta
1486:   FUNC GLOBAL DEFAULT 14 _ZN7android4hidl4base4V1_
1487:   FUNC GLOBAL DEFAULT 14 _ZNK7android8hardware6Par
1488:   OBJECT WEAK DEFAULT 18 _ZTCNSt3__119basic_ostrin
1489:   FUNC GLOBAL DEFAULT 14 _ZN7android4hidl4base4V1_
1490:   FUNC GLOBAL DEFAULT 14 __aeabi_uldivmod
1491:   OBJECT GLOBAL DEFAULT 18 _ZTVN7android4hidl7manage
1492:   FUNC GLOBAL DEFAULT 14 _ZN7android4hidl7manager4
1493:   FUNC GLOBAL DEFAULT 14 _ZN7android8hardware14fla
1494:   FUNC WEAK DEFAULT 14 _ZNSt3__111basic_regexIcN
1495:   OBJECT WEAK DEFAULT 18 _ZTVNSt3__110__back_refIc
1496:   FUNC GLOBAL DEFAULT 14 _ZN7android4hidl7manager4
1497:   FUNC GLOBAL DEFAULT 14 _ZN7android8hardware6Parc
1498:   FUNC GLOBAL DEFAULT 14 _ZNK7android8hardware6Par
1499:   FUNC GLOBAL DEFAULT 14 _ZN7android8hardware21wri
1500:   FUNC GLOBAL DEFAULT 14 _ZN7android8hardware16set
1501:   FUNC GLOBAL DEFAULT 14 _ZN7android4hidl7manager4
1502:   OBJECT GLOBAL DEFAULT 18 _ZTTN7android4hidl4base4V
1503:   OBJECT GLOBAL DEFAULT 18 _ZTVN7android8hardware10I
1504:   FUNC GLOBAL DEFAULT 14 _ZN7android8hardware6Parc
1505:   FUNC WEAK DEFAULT 14 _ZNSt3__113basic_filebufI
1506:   FUNC GLOBAL DEFAULT 14 _ZN7android4hidl7manager4
1507:   FUNC GLOBAL DEFAULT 14 _ZN7android4hidl7manager4
1508:   OBJECT WEAK DEFAULT 18 _ZTVN7android8hardware10P
1509:   OBJECT GLOBAL DEFAULT 18 _ZTVN7android4hidl4base4V
1510:   FUNC GLOBAL DEFAULT 14 _ZN7android8hardware21wri
1511:   OBJECT WEAK DEFAULT 18 _ZTCN7android4hidl7manage
1512:   FUNC GLOBAL DEFAULT 14 _ZN7android8hardware10BpH
1513:   FUNC GLOBAL DEFAULT 14 _ZN7android4hidl7manager4
1514:   FUNC GLOBAL DEFAULT 14 _ZN7android4hidl7manager4
1515:   FUNC GLOBAL DEFAULT 14 _ZN7android4hidl7manager4
1516:   OBJECT GLOBAL DEFAULT 18 _ZTTN7android4hidl7manage
1517:   FUNC GLOBAL DEFAULT 14 _ZN7android8hardware14IPC
1518:   FUNC GLOBAL DEFAULT 14 _ZN7android8hardware21set
1519:   FUNC GLOBAL DEFAULT 14 _ZN7android4hidl4base4V1_
1520:   OBJECT GLOBAL DEFAULT 16 _ZN7android4hidl7manager4
1521:   FUNC GLOBAL DEFAULT 14 _ZN7android8hardware9BHwB
1522:   FUNC GLOBAL DEFAULT 14 _ZNK7android8hardware6Par
1523:   FUNC GLOBAL DEFAULT 14 _ZN7android8hardware14IPC
1524:   FUNC GLOBAL DEFAULT 14 _ZN7android8hardware7HexD
1525:   FUNC GLOBAL DEFAULT 14 _ZN7android8hardware11hid
1526:   FUNC GLOBAL DEFAULT 14 _ZTv0_n12_N7android8hardw
1527:   FUNC GLOBAL DEFAULT 14 _ZN7android8hardware10BpH
1528:   FUNC WEAK DEFAULT 14 _ZNSt3__111basic_regexIcN
1529:   FUNC GLOBAL DEFAULT 14 _ZN7android4hidl7manager4
1530:   FUNC GLOBAL DEFAULT 14 _ZN7android4hidl7manager4
1531:   OBJECT GLOBAL DEFAULT 18 _ZTCN7android4hidl7manage
1532:   FUNC GLOBAL DEFAULT 14 _ZNK7android8hardware6Par
1533:   FUNC WEAK DEFAULT 14 _ZNK7android8hardware6Par
1534:   FUNC WEAK DEFAULT 14 _ZNKSt3__116__back_ref_ic
1535:   FUNC GLOBAL DEFAULT 14 _ZTv0_n12_N7android4hidl7
1536:   FUNC GLOBAL DEFAULT 14 _ZN7android4hidl7manager4
1537:   FUNC GLOBAL DEFAULT 14 _ZN7android4hidl7manager4
1538:   OBJECT GLOBAL DEFAULT 23 _ZN7android8hardware12gTe
