 0x0000000e (SONAME)                     Library soname: [libcodec2_vndk.so]
  
Symbol   contains 1646 entries:
Num:   Type Bind Vis Ndx Name
0:   NOTYPE LOCAL DEFAULT UND
1:   FUNC GLOBAL DEFAULT UND __cxa_atexit@LIBC (2)
2:   FUNC GLOBAL DEFAULT UND __cxa_finalize@LIBC (2)
3:   FUNC GLOBAL DEFAULT UND _ZNKSt3__119__shared_weak
4:   FUNC GLOBAL DEFAULT UND _ZNSt3__112__next_primeEj
5:   FUNC GLOBAL DEFAULT UND _ZNSt3__112basic_stringIc
6:   FUNC GLOBAL DEFAULT UND _ZNSt3__119__shared_weak_
7:   FUNC GLOBAL DEFAULT UND _ZNSt3__119__shared_weak_
8:   FUNC GLOBAL DEFAULT UND _ZNSt3__15mutex4lockEv
9:   FUNC GLOBAL DEFAULT UND _ZNSt3__15mutex6unlockEv
10:   FUNC GLOBAL DEFAULT UND _ZNSt3__15mutexD1Ev
11:   FUNC GLOBAL DEFAULT UND _ZdlPv
12:   FUNC GLOBAL DEFAULT UND _Znwj
13:   FUNC GLOBAL DEFAULT UND __android_log_print@LIBLOG (3)
14:   FUNC GLOBAL DEFAULT UND __errno@LIBC (2)
15:   FUNC GLOBAL DEFAULT UND __stack_chk_fail@LIBC (2)
16:   OBJECT GLOBAL DEFAULT UND __stack_chk_guard@LIBC (2)
17:   FUNC GLOBAL DEFAULT UND abort@LIBC (2)
18:   FUNC GLOBAL DEFAULT UND close@LIBC (2)
19:   FUNC GLOBAL DEFAULT UND dup@LIBC (2)
20:   FUNC GLOBAL DEFAULT UND getpagesize@LIBC (2)
21:   FUNC GLOBAL DEFAULT UND ion_alloc
22:   FUNC GLOBAL DEFAULT UND ion_alloc_fd
23:   FUNC GLOBAL DEFAULT UND ion_close
24:   FUNC GLOBAL DEFAULT UND ion_free
25:   FUNC GLOBAL DEFAULT UND ion_import
26:   FUNC GLOBAL DEFAULT UND ion_is_legacy
27:   FUNC GLOBAL DEFAULT UND ion_map
28:   FUNC GLOBAL DEFAULT UND ion_open
29:   FUNC GLOBAL DEFAULT UND ion_share
30:   FUNC GLOBAL DEFAULT UND memcmp@LIBC (2)
31:   FUNC GLOBAL DEFAULT UND mmap@LIBC (2)
32:   FUNC GLOBAL DEFAULT UND munmap@LIBC (2)
33:   FUNC GLOBAL DEFAULT UND native_handle_close
34:   FUNC GLOBAL DEFAULT UND native_handle_delete
35:   FUNC GLOBAL DEFAULT UND _ZN7android14sp_report_ra
36:   FUNC GLOBAL DEFAULT UND _ZN7android8hardware11hid
37:   FUNC GLOBAL DEFAULT UND _ZN7android8hardware11hid
38:   FUNC GLOBAL DEFAULT UND _ZN7android8hardware11hid
39:   FUNC GLOBAL DEFAULT UND _ZN7android8hardware11hid
40:   FUNC GLOBAL DEFAULT UND _ZN7android8hardware11hid
41:   FUNC GLOBAL DEFAULT UND _ZN7android8hardware7deta
42:   FUNC GLOBAL DEFAULT UND _ZN7android8hardware8grap
43:   FUNC GLOBAL DEFAULT UND _ZN7android8hardware8grap
44:   FUNC GLOBAL DEFAULT UND _ZN7android8hardware8grap
45:   FUNC GLOBAL DEFAULT UND _ZN7android8hardware8grap
46:   FUNC GLOBAL DEFAULT UND _ZNK7android7RefBase9decS
47:   FUNC GLOBAL DEFAULT UND _ZNK7android7RefBase9incS
48:   FUNC GLOBAL DEFAULT UND _ZNK7android8hardware11hi
49:   FUNC GLOBAL DEFAULT UND _ZdaPv
50:   FUNC GLOBAL DEFAULT UND _Znaj
51:   FUNC GLOBAL DEFAULT UND native_handle_clone
52:   FUNC GLOBAL DEFAULT UND native_handle_create
53:   FUNC GLOBAL DEFAULT UND _ZN7android8hardware5medi
54:   FUNC GLOBAL DEFAULT UND _ZN7android8hardware5medi
55:   FUNC GLOBAL DEFAULT UND _ZN7android8hardware5medi
56:   FUNC GLOBAL DEFAULT UND _ZN7android8hardware5medi
57:   FUNC GLOBAL DEFAULT UND _ZNKSt3__120__vector_base
58:   FUNC GLOBAL DEFAULT UND _ZNSt3__119__shared_weak_
59:   FUNC GLOBAL DEFAULT UND __cxa_guard_acquire
60:   FUNC GLOBAL DEFAULT UND __cxa_guard_release
61:   FUNC GLOBAL DEFAULT UND __memcpy_chk@LIBC (2)
62:   FUNC GLOBAL DEFAULT UND _ZNKSt3__121__basic_strin
63:   FUNC GLOBAL DEFAULT UND strlen@LIBC (2)
64:   FUNC GLOBAL DEFAULT UND dlclose@LIBC (4)
65:   FUNC GLOBAL DEFAULT UND dlerror@LIBC (4)
66:   FUNC GLOBAL DEFAULT UND dlopen@LIBC (4)
67:   FUNC GLOBAL DEFAULT UND dlsym@LIBC (4)
68:   FUNC GLOBAL DEFAULT UND pthread_mutex_destroy@LIBC (2)
69:   FUNC GLOBAL DEFAULT UND pthread_mutex_init@LIBC (2)
70:   FUNC GLOBAL DEFAULT UND pthread_mutex_lock@LIBC (2)
71:   FUNC GLOBAL DEFAULT UND pthread_mutex_unlock@LIBC (2)
72:   FUNC GLOBAL DEFAULT UND _ZNSt3__115recursive_mute
73:   FUNC GLOBAL DEFAULT UND _ZNSt3__115recursive_mute
74:   FUNC GLOBAL DEFAULT UND _ZNSt3__115recursive_mute
75:   FUNC GLOBAL DEFAULT UND _ZNSt3__115recursive_mute
76:   OBJECT GLOBAL DEFAULT UND _ZSt7nothrow
77:   FUNC GLOBAL DEFAULT UND _ZnwjRKSt9nothrow_t
78:   FUNC GLOBAL DEFAULT UND __android_log_assert@LIBLOG (3)
79:   FUNC GLOBAL DEFAULT UND free@LIBC (2)
80:   FUNC GLOBAL DEFAULT UND memchr@LIBC (2)
81:   FUNC GLOBAL DEFAULT UND strncmp@LIBC (2)
82:   FUNC GLOBAL DEFAULT UND strndup@LIBC (2)
83:   FUNC GLOBAL DEFAULT UND strnlen@LIBC (2)
84:   FUNC GLOBAL DEFAULT UND strtok_r@LIBC (2)
85:   FUNC GLOBAL DEFAULT UND _ZN7android13GraphicBuffe
86:   FUNC GLOBAL DEFAULT UND _ZN7android5Fence4waitEi
87:   FUNC GLOBAL DEFAULT UND _ZN7android8hardware7deta
88:   FUNC GLOBAL DEFAULT UND _ZNK7android5Fence13getSi
89:   FUNC GLOBAL DEFAULT UND _ZNK7android8hardware11hi
90:   FUNC GLOBAL DEFAULT UND _ZNK7android8hardware7det
91:   FUNC WEAK DEFAULT UND android_fdsan_close_with_@LIBC_Q (5)
92:   FUNC WEAK DEFAULT UND android_fdsan_create_owne@LIBC_Q (5)
93:   FUNC GLOBAL DEFAULT UND clock_gettime@LIBC (2)
94:   FUNC GLOBAL DEFAULT UND usleep@LIBC (2)
95:   FUNC GLOBAL DEFAULT UND AHardwareBuffer_createFro@LIBNATIVEWINDOW (6)
96:   FUNC GLOBAL DEFAULT UND AHardwareBuffer_describe@LIBNATIVEWINDOW (6)
97:   FUNC GLOBAL DEFAULT UND AHardwareBuffer_getNative@LIBNATIVEWINDOW (6)
98:   FUNC GLOBAL DEFAULT UND AHardwareBuffer_release@LIBNATIVEWINDOW (6)
99:   FUNC GLOBAL DEFAULT UND _ZN7android13GraphicBuffe
100:   FUNC GLOBAL DEFAULT UND _ZN7android13GraphicBuffe
101:   OBJECT GLOBAL DEFAULT UND _ZN7android4Rect12INVALID
102:   FUNC GLOBAL DEFAULT UND _ZN7android5FenceC1Ei
103:   FUNC GLOBAL DEFAULT UND _ZN7android6Region16addRe
104:   FUNC GLOBAL DEFAULT UND _ZN7android6Region3setERK
105:   FUNC GLOBAL DEFAULT UND _ZN7android6Region5clearE
106:   FUNC GLOBAL DEFAULT UND _ZN7android8hardware11hid
107:   FUNC GLOBAL DEFAULT UND _ZNK7android6Region8getAr
108:   FUNC GLOBAL DEFAULT UND _ZN7android4base12StringP
109:   FUNC GLOBAL DEFAULT UND _ZNKSt3__16locale9use_fac
110:   FUNC GLOBAL DEFAULT UND _ZNKSt3__18ios_base6getlo
111:   FUNC GLOBAL DEFAULT UND _ZNSt3__112basic_stringIc
112:   FUNC GLOBAL DEFAULT UND _ZNSt3__112basic_stringIc
113:   FUNC GLOBAL DEFAULT UND _ZNSt3__112basic_stringIc
114:   FUNC GLOBAL DEFAULT UND _ZNSt3__113basic_ostreamI
115:   FUNC GLOBAL DEFAULT UND _ZNSt3__113basic_ostreamI
116:   FUNC GLOBAL DEFAULT UND _ZNSt3__113basic_ostreamI
117:   FUNC GLOBAL DEFAULT UND _ZNSt3__113basic_ostreamI
118:   FUNC GLOBAL DEFAULT UND _ZNSt3__113basic_ostreamI
119:   FUNC GLOBAL DEFAULT UND _ZNSt3__113basic_ostreamI
120:   FUNC GLOBAL DEFAULT UND _ZNSt3__113basic_ostreamI
121:   OBJECT GLOBAL DEFAULT UND _ZNSt3__15ctypeIcE2idE
122:   FUNC GLOBAL DEFAULT UND _ZNSt3__16localeD1Ev
123:   FUNC GLOBAL DEFAULT UND _ZNSt3__18ios_base5clearE
124:   FUNC GLOBAL DEFAULT UND isprint@LIBC (2)
125:   FUNC GLOBAL DEFAULT UND _ZN7android4base10LogMess
126:   FUNC GLOBAL DEFAULT UND _ZN7android4base10LogMess
127:   FUNC GLOBAL DEFAULT UND _ZN7android4base10LogMess
128:   FUNC GLOBAL DEFAULT UND _ZN7android4base21GetMini
129:   FUNC GLOBAL DEFAULT UND _ZNSt3__113basic_ostreamI
130:   FUNC GLOBAL DEFAULT UND fprintf@LIBC (2)
131:   OBJECT GLOBAL DEFAULT UND stderr@LIBC (2)
132:   FUNC GLOBAL DEFAULT UND _ZNSt3__112basic_stringIc
133:   FUNC GLOBAL DEFAULT UND fmodf@LIBC (7)
134:   FUNC GLOBAL DEFAULT UND llround@LIBC (7)
135:   FUNC GLOBAL DEFAULT UND log2@LIBC (7)
136:   FUNC GLOBAL DEFAULT UND log2f@LIBC (7)
137:   FUNC GLOBAL DEFAULT UND nextafterf@LIBC (7)
138:   FUNC GLOBAL DEFAULT UND pow@LIBC (7)
139:   FUNC GLOBAL DEFAULT UND _ZNSt3__112basic_stringIc
140:   FUNC GLOBAL DEFAULT UND _ZNSt3__112basic_stringIc
141:   FUNC GLOBAL DEFAULT UND _ZNSt3__112basic_stringIc
142:   FUNC GLOBAL DEFAULT UND _ZNSt3__112basic_stringIc
143:   FUNC GLOBAL DEFAULT UND islower@LIBC (2)
144:   FUNC GLOBAL DEFAULT UND isupper@LIBC (2)
145:   FUNC GLOBAL DEFAULT UND tolower@LIBC (2)
146:   FUNC GLOBAL DEFAULT UND memcpy@LIBC (2)
147:   FUNC GLOBAL DEFAULT UND memmove@LIBC (2)
148:   FUNC GLOBAL DEFAULT UND memset@LIBC (2)
149:   FUNC GLOBAL DEFAULT 14 _ZN7android15C2Allocation
150:   FUNC WEAK DEFAULT 14 _ZNSt3__120__shared_ptr_e
151:   FUNC GLOBAL DEFAULT 14 _ZN15_C2BlockFactory23Get
152:   FUNC WEAK DEFAULT 14 _ZNSt3__120__shared_ptr_p
153:   FUNC WEAK DEFAULT 14 _ZN16C2SupportedFlagsIyEC
154:   FUNC WEAK DEFAULT 14 _ZN16C2SupportedRangeIyE1
155:   FUNC WEAK DEFAULT 14 _ZN19C2SupportedValueSetI
156:   FUNC WEAK DEFAULT 14 _ZN25C2ParamFieldValuesBu
157:   FUNC GLOBAL DEFAULT 14 _ZN22_C2BufferPoolAllocat
158:   FUNC GLOBAL DEFAULT 14 _ZNK17C2InterfaceHelper11
159:   FUNC WEAK DEFAULT 14 _ZN16C2SupportedRangeIjE7
160:   FUNC GLOBAL DEFAULT 14 _ZN23C2SettingResultsBuil
161:   FUNC GLOBAL DEFAULT 14 _ZN7android14C2AllocatorI
162:   FUNC GLOBAL DEFAULT 14 _ZN13C2GraphicViewC2ENSt3
163:   FUNC GLOBAL DEFAULT 14 _ZN17C2FieldDescriptor14n
164:   FUNC WEAK DEFAULT 14 _ZNSt3__120__shared_ptr_e
165:   FUNC GLOBAL DEFAULT 14 _ZN26C2BufferQueueBlockPo
166:   FUNC WEAK DEFAULT 14 _ZNK17C2InterfaceHelper5F
167:   FUNC GLOBAL DEFAULT 14 _ZN7android32GetPreferred
168:   FUNC WEAK DEFAULT 14 _ZNSt3__120__shared_ptr_e
169:   FUNC WEAK DEFAULT 14 _ZN16C2SupportedRangeIcE2
170:   FUNC WEAK DEFAULT 14 _ZN16C2SupportedRangeIhE1
171:   FUNC WEAK DEFAULT 14 _ZN25C2ParamFieldValuesBu
172:   FUNC WEAK DEFAULT 14 _ZN16C2SupportedFlagsIhEC
173:   FUNC WEAK DEFAULT 14 _ZNK16C2SupportedFlagsIcE
174:   FUNC WEAK DEFAULT 14 _ZNK25C2ParamFieldValuesB
175:   FUNC GLOBAL DEFAULT 14 _ZN22_C2BufferPoolAllocat
176:   FUNC WEAK DEFAULT 14 _ZNSt3__120__shared_ptr_p
177:   FUNC GLOBAL DEFAULT 14 _ZN17C2InterfaceHelper12a
178:   FUNC WEAK DEFAULT 14 _ZN28C2FieldSupportedValu
179:   FUNC WEAK DEFAULT 14 _ZNK17C2InterfaceHelper5F
180:   FUNC WEAK DEFAULT 14 _ZNK17C2InterfaceHelper5F
181:   FUNC WEAK DEFAULT 14 _ZN16C2SupportedFlagsIyE4
182:   FUNC WEAK DEFAULT 14 _ZN25C2ParamFieldValuesBu
183:   FUNC WEAK DEFAULT 14 _ZN25C2ParamFieldValuesBu
184:   FUNC WEAK DEFAULT 14 _ZNK19C2SupportedValueSet
185:   FUNC GLOBAL DEFAULT 14 _ZNK7android15C2Allocatio
186:   FUNC GLOBAL DEFAULT 14 _ZN17C2FieldDescriptor14n
187:   FUNC WEAK DEFAULT 14 _ZNSt3__16__treeINS_12__v
188:   FUNC WEAK DEFAULT 14 _ZN25C2ParamFieldValuesBu
189:   FUNC WEAK DEFAULT 14 _ZNSt3__16vectorINS_4pair
190:   FUNC WEAK DEFAULT 14 _ZN16C2SupportedRangeIhEC
191:   FUNC WEAK DEFAULT 14 _ZN25C2ParamFieldValuesBu
192:   FUNC GLOBAL DEFAULT 14 _ZN15_C2BlockFactory18Get
193:   FUNC WEAK DEFAULT 14 _ZlsIcERNSt3__113basic_os
194:   FUNC WEAK DEFAULT 14 _ZN25C2ParamFieldValuesBu
195:   FUNC WEAK DEFAULT 14 _ZNK16C2SupportedRangeIhE
196:   FUNC GLOBAL DEFAULT 14 _ZNK13C2GraphicView7subVi
197:   FUNC WEAK DEFAULT 14 _ZN25C2ParamFieldValuesBu
198:   FUNC GLOBAL DEFAULT 14 _ZN7android15C2Allocation
199:   FUNC WEAK DEFAULT 14 _ZNK16C2SupportedFlagsIhE
200:   FUNC WEAK DEFAULT 14 _ZN17C2InterfaceHelper5Fi
201:   FUNC WEAK DEFAULT 14 _ZN19C2SupportedValueSetI
202:   FUNC WEAK DEFAULT 14 _ZN25C2ParamFieldValuesBu
203:   FUNC WEAK DEFAULT 14 _ZNK16C2SupportedFlagsIjE
204:   FUNC WEAK DEFAULT 14 _ZNK19C2SupportedValueSet
205:   FUNC WEAK DEFAULT 14 _ZN16C2SupportedFlagsIhE5
206:   FUNC WEAK DEFAULT 14 _ZN19C2SupportedValueSetI
207:   FUNC WEAK DEFAULT 14 _ZN19C2SupportedValueSetI
208:   FUNC GLOBAL DEFAULT 14 _ZN23C2SettingResultsBuil
209:   FUNC GLOBAL DEFAULT 14 _ZN17C2FieldDescriptor14n
210:   FUNC WEAK DEFAULT 14 _ZNSt3__120__shared_ptr_e
211:   FUNC WEAK DEFAULT 14 _ZN17C2InterfaceHelper5Fi
212:   OBJECT GLOBAL DEFAULT 18 _ZTVN7android14C2Allocato
213:   FUNC WEAK DEFAULT 14 _ZlsIfERNSt3__113basic_os
214:   FUNC GLOBAL DEFAULT 14 _ZN14C2GraphicBlockC1ENSt
215:   FUNC WEAK DEFAULT 14 _ZNK28C2FieldSupportedVal
216:   FUNC WEAK DEFAULT 14 _ZNSt3__19remove_ifINS_11
217:   OBJECT GLOBAL DEFAULT 23 _ZN19C2PictureSizeStruct1
218:   FUNC GLOBAL DEFAULT 14 _ZN20C2TimedControlStruct
219:   FUNC GLOBAL DEFAULT 14 _ZNK17C2InterfaceHelper20
220:   FUNC GLOBAL DEFAULT 14 _ZNK7android24C2PlatformC
221:   FUNC GLOBAL DEFAULT 14 _ZN17C2InterfaceHelper11F
222:   FUNC GLOBAL DEFAULT 14 _ZNK7android18C2Allocator
223:   FUNC WEAK DEFAULT 14 _ZN25C2ParamFieldValuesBu
224:   FUNC WEAK DEFAULT 14 _ZN16C2SupportedRangeIxE2
225:   FUNC WEAK DEFAULT 14 _ZNSt3__113__tree_removeI
226:   FUNC WEAK DEFAULT 14 _ZNSt3__120__shared_ptr_e
227:   FUNC GLOBAL DEFAULT 14 _ZN7android32SetPreferred
228:   FUNC GLOBAL DEFAULT 14 _ZN22C2BufferQueueBlockPo
229:   FUNC WEAK DEFAULT 14 _ZN28C2FieldSupportedValu
230:   FUNC WEAK DEFAULT 14 _ZN19C2SupportedValueSetI
231:   FUNC WEAK DEFAULT 14 _ZN19C2SupportedValueSetI
232:   FUNC WEAK DEFAULT 14 _ZN25C2ParamFieldValuesBu
233:   FUNC WEAK DEFAULT 14 _ZN28C2FieldSupportedValu
234:   FUNC WEAK DEFAULT 14 _ZNK16C2SupportedRangeIfE
235:   FUNC GLOBAL DEFAULT 14 _ZNK8C2Buffer4dataEv
236:   OBJECT WEAK DEFAULT 13 _ZN16C2SupportedRangeIhE9
237:   FUNC WEAK DEFAULT 14 _ZN16C2SupportedRangeIjE3
238:   FUNC GLOBAL DEFAULT 14 _ZNK12C2BufferData12linea
239:   FUNC WEAK DEFAULT 14 _ZNSt3__120__shared_ptr_e
240:   FUNC GLOBAL DEFAULT 14 _ZlsRNSt3__113basic_ostre
241:   FUNC WEAK DEFAULT 14 _ZNSt3__16__treeINS_12__v
242:   FUNC GLOBAL DEFAULT 14 _ZN12C2FieldUtils4InfoC1E
243:   FUNC WEAK DEFAULT 14 _ZN25C2ParamFieldValuesBu
244:   OBJECT WEAK DEFAULT 18 _ZTVNSt3__120__shared_ptr
245:   FUNC WEAK DEFAULT 14 _ZN25C2ParamFieldValuesBu
246:   FUNC WEAK DEFAULT 14 _ZN25C2ParamFieldValuesBu
247:   FUNC WEAK DEFAULT 14 _ZN17C2InterfaceHelper5Fi
248:   FUNC WEAK DEFAULT 14 _ZNK19C2SupportedValueSet
249:   FUNC GLOBAL DEFAULT 14 _ZN7android14C2AllocatorI
250:   FUNC WEAK DEFAULT 14 _ZN25C2ParamFieldValuesBu
251:   OBJECT WEAK DEFAULT 18 _ZTVN13C2GraphicView4Impl
252:   FUNC WEAK DEFAULT 14 _ZlsIfERNSt3__113basic_os
253:   FUNC WEAK DEFAULT 14 _ZN25C2ParamFieldValuesBu
254:   FUNC GLOBAL DEFAULT 14 _ZNK12C2FieldUtils4Info9a
255:   FUNC GLOBAL DEFAULT 14 _ZNK7android15C2Allocatio
256:   FUNC WEAK DEFAULT 14 _ZN19C2SupportedValueSetI
257:   FUNC WEAK DEFAULT 14 _ZN25C2ParamFieldValuesBu
258:   FUNC GLOBAL DEFAULT 14 __aeabi_d2ulz
259:   FUNC GLOBAL DEFAULT 14 _ZN17C2InterfaceHelper6co
260:   FUNC WEAK DEFAULT 14 _ZlsIxERNSt3__113basic_os
261:   FUNC WEAK DEFAULT 14 _ZN25C2ParamFieldValuesBu
262:   OBJECT WEAK DEFAULT 18 _ZTV22SupportedValuesBuil
263:   FUNC WEAK DEFAULT 14 _ZN16C2SupportedFlagsIjEC
264:   FUNC GLOBAL DEFAULT 14 _ZN18C2ConstLinearBlockC2
265:   OBJECT GLOBAL DEFAULT 18 _ZTVN7android28C2Platform
266:   FUNC GLOBAL DEFAULT 14 _ZNK17C2InterfaceHelper11
267:   FUNC WEAK DEFAULT 14 _ZN16C2SupportedRangeIyE8
268:   FUNC WEAK DEFAULT 14 _ZN25C2ParamFieldValuesBu
269:   FUNC WEAK DEFAULT 14 _ZNK16C2SupportedFlagsIxE
270:   FUNC WEAK DEFAULT 14 _ZNK16C2SupportedRangeIcE
271:   FUNC WEAK DEFAULT 14 _ZNK28C2FieldSupportedVal
272:   FUNC GLOBAL DEFAULT 14 _ZN11C2WriteViewC1ENSt3__
273:   FUNC GLOBAL DEFAULT 14 _ZNK19C2ConstGraphicBlock
274:   FUNC GLOBAL DEFAULT 14 _ZN17C2InterfaceHelper11P
275:   FUNC GLOBAL DEFAULT 14 _ZN7android24C2PlatformCo
276:   FUNC WEAK DEFAULT 14 _ZNSt3__16__treeINS_12__v
277:   FUNC WEAK DEFAULT 14 _ZNK17C2InterfaceHelper5F
278:   FUNC WEAK DEFAULT 14 _ZN16C2SupportedRangeIxE4
279:   FUNC WEAK DEFAULT 14 _ZN19C2SupportedValueSetI
280:   FUNC WEAK DEFAULT 14 _ZN19C2SupportedValueSetI
281:   FUNC WEAK DEFAULT 14 _ZNK16C2SupportedFlagsIxE
282:   FUNC WEAK DEFAULT 14 _ZNK16C2SupportedFlagsIcE
283:   FUNC WEAK DEFAULT 14 _ZN16C2SupportedFlagsIiEC
284:   FUNC WEAK DEFAULT 14 _ZN16C2SupportedFlagsIxEC
285:   FUNC WEAK DEFAULT 14 _ZN16C2SupportedRangeIiE1
286:   FUNC GLOBAL DEFAULT 14 _ZN7android18C2AllocatorG
287:   FUNC WEAK DEFAULT 14 _ZN25C2ParamFieldValuesBu
288:   FUNC GLOBAL DEFAULT 14 _ZNK7android8hardware8gra
289:   FUNC GLOBAL DEFAULT 14 _ZNK16C2SupportedFlagsIfE
290:   FUNC WEAK DEFAULT 14 _ZNK19C2SupportedValueSet
291:   FUNC GLOBAL DEFAULT 14 _ZNK7android14C2Allocator
292:   FUNC GLOBAL DEFAULT 14 _ZN22_C2BufferPoolAllocat
293:   FUNC WEAK DEFAULT 14 _ZNSt3__110shared_ptrI16C
294:   FUNC WEAK DEFAULT 14 _ZNK16C2SupportedFlagsIiE
295:   FUNC WEAK DEFAULT 14 _ZNK19C2SupportedValueSet
296:   FUNC WEAK DEFAULT 14 _ZN25C2ParamFieldValuesBu
297:   FUNC WEAK DEFAULT 14 _ZN25C2ParamFieldValuesBu
298:   FUNC WEAK DEFAULT 14 _ZN25C2ParamFieldValuesBu
299:   FUNC WEAK DEFAULT 14 _ZN25C2ParamFieldValuesBu
300:   FUNC WEAK DEFAULT 14 _ZNK16C2SupportedFlagsIxE
301:   FUNC GLOBAL DEFAULT 14 _ZN17C2FieldDescriptor14n
302:   OBJECT GLOBAL DEFAULT 23 _ZN30C2TimestampGapAdjust
303:   FUNC WEAK DEFAULT 14 _ZNK17C2InterfaceHelper5F
304:   FUNC WEAK DEFAULT 14 _ZN28C2FieldSupportedValu
305:   FUNC WEAK DEFAULT 14 _ZNK16C2SupportedRangeIxE
306:   FUNC WEAK DEFAULT 14 _ZNK25C2ParamFieldValuesB
307:   FUNC GLOBAL DEFAULT 14 _ZNK10C2ReadView5errorEv
308:   FUNC GLOBAL DEFAULT 14 _ZN17C2InterfaceHelper11P
309:   FUNC GLOBAL DEFAULT 14 _ZN22C2SettingResultBuild
310:   FUNC WEAK DEFAULT 14 _ZN25C2ParamFieldValuesBu
311:   FUNC WEAK DEFAULT 14 _ZNK16C2SupportedFlagsIhE
312:   FUNC WEAK DEFAULT 14 _ZNK16C2SupportedFlagsIyE
313:   FUNC WEAK DEFAULT 14 _ZNSt3__120__shared_ptr_e
314:   FUNC GLOBAL DEFAULT 14 _ZN17C2ColorInfoStruct9Fi
315:   FUNC WEAK DEFAULT 14 _ZlsIcERNSt3__113basic_os
316:   FUNC GLOBAL DEFAULT 14 _ZNK17C2InterfaceHelper4l
317:   FUNC WEAK DEFAULT 14 _ZN25C2ParamFieldValuesBu
318:   FUNC WEAK DEFAULT 14 _ZN25C2ParamFieldValuesBu
319:   FUNC WEAK DEFAULT 14 _ZNSt3__127__tree_balance
320:   FUNC WEAK DEFAULT 14 _ZN25C2ParamFieldValuesBu
321:   FUNC WEAK DEFAULT 14 _ZNK16C2SupportedFlagsIjE
322:   OBJECT GLOBAL DEFAULT 18 _ZTV22_C2BufferPoolAlloca
323:   FUNC WEAK DEFAULT 14 _ZNKSt3__110__function6__
324:   FUNC WEAK DEFAULT 14 _ZNSt3__16vectorIN12C2Fie
325:   FUNC GLOBAL DEFAULT 14 _ZN7android14C2AllocatorI
326:   FUNC GLOBAL DEFAULT 14 _ZNK18C2ConstLinearBlock3
327:   FUNC WEAK DEFAULT 14 _ZNSt3__120__shared_ptr_e
328:   FUNC WEAK DEFAULT 14 _ZN17C2InterfaceHelper5Fi
329:   FUNC WEAK DEFAULT 14 _ZNSt3__16vectorINS_10sha
330:   FUNC WEAK DEFAULT 14 _ZN16C2SupportedFlagsIjE4
331:   FUNC GLOBAL DEFAULT 14 _ZN12_C2EnumUtils22saniti
332:   FUNC GLOBAL DEFAULT 14 _ZN26C2BufferQueueBlockPo
333:   FUNC WEAK DEFAULT 14 _ZN16C2SupportedRangeIcEC
334:   FUNC WEAK DEFAULT 14 _ZN25C2ParamFieldValuesBu
335:   FUNC WEAK DEFAULT 14 _ZN25C2ParamFieldValuesBu
336:   FUNC GLOBAL DEFAULT 14 _ZN15_C2BlockFactory24Hol
337:   FUNC WEAK DEFAULT 14 _ZlsIfERNSt3__113basic_os
338:   FUNC GLOBAL DEFAULT 14 _ZN17C2ReflectorHelper19a
339:   FUNC WEAK DEFAULT 14 _ZN16C2SupportedFlagsIhE5
340:   FUNC WEAK DEFAULT 14 _ZNK16C2SupportedFlagsIcE
341:   FUNC GLOBAL DEFAULT 14 _ZNK7android14C2Allocator
342:   OBJECT WEAK DEFAULT 18 _ZTVNSt3__120__shared_ptr
343:   FUNC WEAK DEFAULT 14 _ZNSt3__124__put_characte
344:   FUNC WEAK DEFAULT 14 _ZN28C2FieldSupportedValu
345:   FUNC GLOBAL DEFAULT 14 _ZN7android15C2Allocation
346:   FUNC WEAK DEFAULT 14 _ZN25C2ParamFieldValuesBu
347:   FUNC WEAK DEFAULT 14 _ZNK16C2SupportedRangeIcE
348:   FUNC GLOBAL DEFAULT 14 _ZNK7android14C2Allocator
349:   FUNC GLOBAL DEFAULT 14 _ZNK7android18C2Allocator
350:   FUNC WEAK DEFAULT 14 _ZN25C2ParamFieldValuesBu
351:   OBJECT GLOBAL DEFAULT 18 _ZTVN12C2FieldUtils8Itera
352:   FUNC WEAK DEFAULT 14 _ZN25C2ParamFieldValuesBu
353:   FUNC WEAK DEFAULT 14 _ZNK16C2SupportedRangeIfE
354:   FUNC WEAK DEFAULT 14 _ZlsIiERNSt3__113basic_os
355:   FUNC WEAK DEFAULT 14 _ZN16C2SupportedRangeIiE2
356:   FUNC WEAK DEFAULT 14 _ZN25C2ParamFieldValuesBu
357:   FUNC WEAK DEFAULT 14 _ZNK16C2SupportedFlagsIiE
358:   FUNC WEAK DEFAULT 14 _ZN16C2SupportedRangeIyE8
359:   FUNC WEAK DEFAULT 14 _ZN19C2SupportedValueSetI
360:   FUNC WEAK DEFAULT 14 _ZN25C2ParamFieldValuesBu
361:   FUNC WEAK DEFAULT 14 _ZN25C2ParamFieldValuesBu
362:   FUNC WEAK DEFAULT 14 _ZNSt3__16__treeINS_12__v
363:   FUNC WEAK DEFAULT 14 _ZN28C2FieldSupportedValu
364:   FUNC WEAK DEFAULT 14 _ZN16C2SupportedFlagsIiE5
365:   FUNC WEAK DEFAULT 14 _ZN16C2SupportedFlagsIjEC
366:   OBJECT GLOBAL DEFAULT 23 _ZN21C2StoreIonUsageStruc
367:   FUNC GLOBAL DEFAULT 14 _ZNK7android24C2PlatformC
368:   FUNC WEAK DEFAULT 14 _ZN25C2ParamFieldValuesBu
369:   FUNC WEAK DEFAULT 14 _ZNSt3__120__shared_ptr_p
370:   FUNC WEAK DEFAULT 14 _ZN16C2SupportedFlagsIyEC
371:   FUNC WEAK DEFAULT 14 _ZNK16C2SupportedRangeIjE
372:   FUNC GLOBAL DEFAULT 14 _ZN7android14C2AllocatorI
373:   FUNC WEAK DEFAULT 14 _ZN16C2SupportedRangeIxE7
374:   FUNC WEAK DEFAULT 14 _ZN19C2SupportedValueSetI
375:   OBJECT GLOBAL DEFAULT 23 _ZN25C2HdrStaticMetadataS
376:   FUNC GLOBAL DEFAULT 14 _ZN17C2InterfaceHelper11P
377:   FUNC GLOBAL DEFAULT 14 _ZN23C2SettingResultsBuil
378:   FUNC WEAK DEFAULT 14 _ZN16C2SupportedFlagsIhEC
379:   FUNC WEAK DEFAULT 14 _ZNSt3__19remove_ifINS_11
380:   FUNC GLOBAL DEFAULT 14 __floatundidf
381:   FUNC GLOBAL DEFAULT 14 _ZN27C2PlatformStorePlugi
382:   FUNC GLOBAL DEFAULT 14 _ZNK12C2FieldUtils8Iterat
383:   FUNC WEAK DEFAULT 14 _ZN28C2FieldSupportedValu
384:   FUNC GLOBAL DEFAULT 14 _ZN17C2FieldDescriptor14n
385:   FUNC WEAK DEFAULT 14 _ZN16C2SupportedRangeIjE7
386:   FUNC WEAK DEFAULT 14 _ZN25C2ParamFieldValuesBu
387:   FUNC WEAK DEFAULT 14 _ZNK25C2ParamFieldValuesB
388:   OBJECT GLOBAL DEFAULT 23 _ZN19C2OutOfMemoryStruct1
389:   FUNC WEAK DEFAULT 14 _ZNK28C2FieldSupportedVal
390:   FUNC WEAK DEFAULT 14 _ZN25C2ParamFieldValuesBu
391:   FUNC WEAK DEFAULT 14 _ZN25C2ParamFieldValuesBu
392:   FUNC GLOBAL DEFAULT 14 _ZNK12C2FieldUtils4Info6e
393:   FUNC WEAK DEFAULT 14 _ZNSt3__120__shared_ptr_e
394:   FUNC WEAK DEFAULT 14 _ZN19C2SupportedValueSetI
395:   FUNC GLOBAL DEFAULT 14 _ZN17C2InterfaceHelper11P
396:   OBJECT WEAK DEFAULT 18 _ZTV22SupportedValuesBuil
397:   FUNC GLOBAL DEFAULT 14 __aeabi_memclr4
398:   FUNC WEAK DEFAULT 14 _ZNSt3__120__shared_ptr_p
399:   FUNC WEAK DEFAULT 14 _ZNSt3__120__shared_ptr_e
400:   FUNC WEAK DEFAULT 14 _ZN19C2SupportedValueSetI
401:   FUNC WEAK DEFAULT 14 _ZNK16C2SupportedFlagsIiE
402:   FUNC WEAK DEFAULT 14 _ZNK16C2SupportedRangeIjE
403:   FUNC GLOBAL DEFAULT 14 _ZN13C2LinearBlock3mapEv
404:   OBJECT GLOBAL DEFAULT 23 _ZN16C2GopLayerStruct11_F
405:   FUNC GLOBAL DEFAULT 14 _ZN17C2InterfaceHelper11P
406:   FUNC WEAK DEFAULT 14 _ZNK19C2SupportedValueSet
407:   OBJECT WEAK DEFAULT 18 _ZTVN17C2InterfaceHelper1
408:   OBJECT WEAK DEFAULT 13 _ZN16C2SupportedRangeIxE9
409:   FUNC GLOBAL DEFAULT 14 _ZN8C2Buffer19CreateGraph
410:   FUNC WEAK DEFAULT 14 _ZN17C2InterfaceHelper5Fi
411:   FUNC WEAK DEFAULT 14 _ZN16C2SupportedFlagsIhE4
412:   FUNC WEAK DEFAULT 14 _ZN19C2SupportedValueSetI
413:   FUNC WEAK DEFAULT 14 _ZN19C2SupportedValueSetI
414:   FUNC GLOBAL DEFAULT 14 _ZN7android18C2AllocatorG
415:   FUNC WEAK DEFAULT 14 _ZNSt3__120__shared_ptr_p
416:   FUNC GLOBAL DEFAULT 14 _ZN21C2StoreIonUsageStruc
417:   FUNC WEAK DEFAULT 14 _ZN16C2SupportedRangeIiE4
418:   FUNC GLOBAL DEFAULT 14 __aeabi_memclr8
419:   FUNC WEAK DEFAULT 14 _ZN16C2SupportedFlagsIxEC
420:   FUNC WEAK DEFAULT 14 _ZN19C2SupportedValueSetI
421:   FUNC WEAK DEFAULT 14 _ZN25C2ParamFieldValuesBu
422:   FUNC WEAK DEFAULT 14 _ZNK19C2SupportedValueSet
423:   FUNC WEAK DEFAULT 14 _ZNSt3__16vectorIN7C2Valu
424:   FUNC WEAK DEFAULT 14 _ZNSt3__120__shared_ptr_e
425:   OBJECT WEAK DEFAULT 18 _ZTVNSt3__120__shared_ptr
426:   OBJECT GLOBAL DEFAULT 18 _ZTV23C2BasicGraphicBlock
427:   FUNC GLOBAL DEFAULT 14 _ZN7android8hardware8grap
428:   FUNC GLOBAL DEFAULT 14 _ZlsRNSt3__113basic_ostre
429:   FUNC WEAK DEFAULT 14 _ZN25C2ParamFieldValuesBu
430:   FUNC WEAK DEFAULT 14 _ZN19C2SupportedValueSetI
431:   FUNC GLOBAL DEFAULT 14 _ZN17C2FieldDescriptor14n
432:   FUNC WEAK DEFAULT 14 _ZNSt3__110__function6__f
433:   OBJECT WEAK DEFAULT 18 _ZTVNSt3__120__shared_ptr
434:   OBJECT WEAK DEFAULT 13 _ZN16C2SupportedRangeIyE9
435:   FUNC WEAK DEFAULT 14 _ZN19C2SupportedValueSetI
436:   FUNC WEAK DEFAULT 14 _ZN25C2ParamFieldValuesBu
437:   FUNC WEAK DEFAULT 14 _ZN28C2FieldSupportedValu
438:   FUNC WEAK DEFAULT 14 _ZNSt3__120__shared_ptr_e
439:   FUNC WEAK DEFAULT 14 _ZNK19C2SupportedValueSet
440:   FUNC WEAK DEFAULT 14 _ZNSt3__16__treeINS_12__v
441:   FUNC GLOBAL DEFAULT 14 _ZN22C2SettingResultBuild
442:   FUNC WEAK DEFAULT 14 _ZNK16C2SupportedRangeIhE
443:   FUNC GLOBAL DEFAULT 14 _ZN12C2ParamUtils10ParseF
444:   FUNC GLOBAL DEFAULT 14 _ZN37C2FlexiblePixelForma
445:   FUNC WEAK DEFAULT 14 _ZN25C2ParamFieldValuesBu
446:   FUNC WEAK DEFAULT 14 _ZNK16C2SupportedFlagsIcE
447:   FUNC WEAK DEFAULT 14 _ZNK16C2SupportedRangeIxE
448:   FUNC WEAK DEFAULT 14 _ZNK19C2SupportedValueSet
449:   FUNC GLOBAL DEFAULT 14 __udivmodsi4
450:   FUNC WEAK DEFAULT 14 _ZN16C2SupportedRangeIiE1
451:   OBJECT WEAK DEFAULT 16 _ZZN22C2BufferQueueBlockP
452:   FUNC WEAK DEFAULT 14 _ZN16C2SupportedRangeIyE2
453:   FUNC GLOBAL DEFAULT 14 _ZN18C2ConstLinearBlockC1
454:   FUNC WEAK DEFAULT 14 _ZN25C2ParamFieldValuesBu
455:   FUNC WEAK DEFAULT 14 _ZN25C2ParamFieldValuesBu
456:   FUNC GLOBAL DEFAULT 14 __aeabi_memmove4
457:   FUNC GLOBAL DEFAULT 14 _ZN7android18C2AllocatorG
458:   FUNC GLOBAL DEFAULT 14 _ZN15_C2BlockFactory26Beg
459:   FUNC GLOBAL DEFAULT 14 _ZN7android8hardware8grap
460:   FUNC WEAK DEFAULT 14 _ZNK17C2InterfaceHelper5F
461:   FUNC WEAK DEFAULT 14 _ZN19C2SupportedValueSetI
462:   FUNC WEAK DEFAULT 14 _ZNSt3__120__shared_ptr_p
463:   FUNC WEAK DEFAULT 14 _ZNSt3__120__shared_ptr_e
464:   FUNC WEAK DEFAULT 14 _ZN25C2ParamFieldValuesBu
465:   OBJECT WEAK DEFAULT 18 _ZTV25C2ParamFieldValuesB
466:   OBJECT GLOBAL DEFAULT 23 _ZN20C2TimedControlStruct
467:   FUNC WEAK DEFAULT 14 _ZN16C2SupportedRangeIiE1
468:   FUNC WEAK DEFAULT 14 _ZN25C2ParamFieldValuesBu
469:   FUNC WEAK DEFAULT 14 _ZNK19C2SupportedValueSet
470:   FUNC GLOBAL DEFAULT 14 _ZN8C2Buffer18CreateLinea
471:   FUNC GLOBAL DEFAULT 14 _ZN17C2FieldDescriptor14n
472:   FUNC WEAK DEFAULT 14 _ZNKSt3__110__function6__
473:   FUNC WEAK DEFAULT 14 _ZN19C2SupportedValueSetI
474:   FUNC GLOBAL DEFAULT 14 __aeabi_memmove8
475:   FUNC GLOBAL DEFAULT 14 _ZN14C2GraphicBlock5share
476:   FUNC WEAK DEFAULT 14 _ZNSt3__120__shared_ptr_p
477:   FUNC WEAK DEFAULT 14 _ZNK16C2SupportedFlagsIyE
478:   FUNC WEAK DEFAULT 14 _ZN16C2SupportedRangeIyEC
479:   FUNC WEAK DEFAULT 14 _ZN25C2ParamFieldValuesBu
480:   FUNC WEAK DEFAULT 14 _ZN28C2FieldSupportedValu
481:   FUNC GLOBAL DEFAULT 14 _ZN17C2InterfaceHelper11P
482:   FUNC WEAK DEFAULT 14 _ZNK17C2InterfaceHelper5F
483:   FUNC WEAK DEFAULT 14 _ZN16C2SupportedFlagsIhEC
484:   FUNC WEAK DEFAULT 14 _ZN19C2SupportedValueSetI
485:   FUNC WEAK DEFAULT 14 _ZN25C2ParamFieldValuesBu
486:   FUNC WEAK DEFAULT 14 _ZN25C2ParamFieldValuesBu
487:   FUNC WEAK DEFAULT 14 _ZN25C2ParamFieldValuesBu
488:   FUNC GLOBAL DEFAULT 14 _ZN7android15C2Allocation
489:   FUNC WEAK DEFAULT 14 _ZN16C2SupportedRangeIhE7
490:   FUNC WEAK DEFAULT 14 _ZN28C2FieldSupportedValu
491:   FUNC WEAK DEFAULT 14 _ZNK19C2SupportedValueSet
492:   FUNC GLOBAL DEFAULT 14 _ZNK9C2Block1D6handleEv
493:   FUNC GLOBAL DEFAULT 14 _ZN12C2FieldUtils8Iterato
494:   FUNC WEAK DEFAULT 14 _ZN25C2ParamFieldValuesBu
495:   FUNC WEAK DEFAULT 14 _ZN28C2FieldSupportedValu
496:   FUNC WEAK DEFAULT 14 _ZN25C2ParamFieldValuesBu
497:   FUNC GLOBAL DEFAULT 14 _ZNK17C2InterfaceHelper11
498:   FUNC WEAK DEFAULT 14 _ZNSt3__16__treeINS_12__v
499:   FUNC WEAK DEFAULT 14 _ZN19C2SupportedValueSetI
500:   FUNC WEAK DEFAULT 14 _ZN25C2ParamFieldValuesBu
501:   FUNC WEAK DEFAULT 14 _ZN25C2ParamFieldValuesBu
502:   FUNC WEAK DEFAULT 14 _ZNK25C2ParamFieldValuesB
503:   FUNC WEAK DEFAULT 14 _ZN25C2ParamFieldValuesBu
504:   FUNC GLOBAL DEFAULT 14 _ZN15_C2BlockFactory17Cre
505:   FUNC WEAK DEFAULT 14 _ZNK17C2InterfaceHelper5F
506:   FUNC WEAK DEFAULT 14 _ZN16C2SupportedRangeIcE1
507:   FUNC WEAK DEFAULT 14 _ZN16C2SupportedRangeIiE8
508:   OBJECT WEAK DEFAULT 13 _ZN16C2SupportedRangeIjE9
509:   FUNC WEAK DEFAULT 14 _ZN16C2SupportedRangeIyE1
510:   FUNC GLOBAL DEFAULT 14 _ZN7android18GetCodec2Blo
511:   FUNC WEAK DEFAULT 14 _ZNK17C2InterfaceHelper5F
512:   FUNC WEAK DEFAULT 14 _ZN25C2ParamFieldValuesBu
513:   FUNC WEAK DEFAULT 14 _ZNK25C2ParamFieldValuesB
514:   FUNC GLOBAL DEFAULT 14 _ZN11C2WriteViewC1E11c2_s
515:   FUNC GLOBAL DEFAULT 14 _ZN8C2Buffer25unregisterO
516:   FUNC GLOBAL DEFAULT 14 _ZN8C2BufferC2ERKNSt3__16
517:   FUNC WEAK DEFAULT 14 _ZNSt3__110__function6__f
518:   FUNC GLOBAL DEFAULT 14 _ZNK17C2InterfaceHelper11
519:   FUNC WEAK DEFAULT 14 _ZNK25C2ParamFieldValuesB
520:   FUNC GLOBAL DEFAULT 14 _ZNK12C2BufferData13graph
521:   FUNC WEAK DEFAULT 14 _ZNSt3__120__shared_ptr_e
522:   FUNC WEAK DEFAULT 14 _ZNSt3__16__treeINS_12__v
523:   FUNC WEAK DEFAULT 14 _ZN19C2SupportedValueSetI
524:   FUNC WEAK DEFAULT 14 _ZN19C2SupportedValueSetI
525:   FUNC WEAK DEFAULT 14 _ZNK25C2ParamFieldValuesB
526:   FUNC GLOBAL DEFAULT 14 __divdi3
527:   FUNC GLOBAL DEFAULT 14 _ZN13C2GraphicViewC1ENSt3
528:   OBJECT GLOBAL DEFAULT 18 _ZTV17C2PooledBlockPool
529:   FUNC GLOBAL DEFAULT 14 _ZN27C2PlatformStorePlugi
530:   FUNC WEAK DEFAULT 14 _ZNSt3__120__shared_ptr_e
531:   FUNC WEAK DEFAULT 14 _ZNK16C2SupportedFlagsIjE
532:   FUNC WEAK DEFAULT 14 _ZN25C2ParamFieldValuesBu
533:   FUNC GLOBAL DEFAULT 14 _ZNK17C2InterfaceHelper20
534:   FUNC WEAK DEFAULT 14 _ZN19C2SupportedValueSetI
535:   FUNC WEAK DEFAULT 14 _ZN25C2ParamFieldValuesBu
536:   FUNC WEAK DEFAULT 14 _ZNSt3__19remove_ifINS_11
537:   FUNC WEAK DEFAULT 14 _ZNSt3__112__hash_tableIN
538:   FUNC WEAK DEFAULT 14 _ZNSt3__120__shared_ptr_p
539:   FUNC WEAK DEFAULT 14 _ZN16C2SupportedFlagsIjE5
540:   FUNC WEAK DEFAULT 14 _ZN16C2SupportedFlagsIjEC
541:   FUNC WEAK DEFAULT 14 _ZN16C2SupportedFlagsIxEC
542:   FUNC WEAK DEFAULT 14 _ZN25C2ParamFieldValuesBu
543:   FUNC WEAK DEFAULT 14 _ZNSt3__120__shared_ptr_e
544:   FUNC WEAK DEFAULT 14 _ZlsIyERNSt3__113basic_os
545:   FUNC WEAK DEFAULT 14 _ZN16C2SupportedFlagsIxEC
546:   OBJECT WEAK DEFAULT 13 _ZN16C2SupportedRangeIfE9
547:   FUNC WEAK DEFAULT 14 _ZN16C2SupportedRangeIiEC
548:   OBJECT WEAK DEFAULT 18 _ZTVN7android15C2Allocati
549:   FUNC GLOBAL DEFAULT 14 _ZN7android24C2PlatformCo
550:   FUNC GLOBAL DEFAULT 14 _ZN17C2InterfaceHelper13G
551:   FUNC WEAK DEFAULT 14 _ZNK25C2ParamFieldValuesB
552:   FUNC GLOBAL DEFAULT 14 _ZN12C2FieldUtils4ListC1E
553:   FUNC WEAK DEFAULT 14 _ZN25C2ParamFieldValuesBu
554:   FUNC WEAK DEFAULT 14 _ZN25C2ParamFieldValuesBu
555:   FUNC GLOBAL DEFAULT 14 _ZNK13C2GraphicView5error
556:   OBJECT GLOBAL DEFAULT 23 _ZN27C2PlatformStorePlugi
557:   OBJECT WEAK DEFAULT 13 _ZN16C2SupportedRangeIcE9
558:   FUNC WEAK DEFAULT 14 _ZNK17C2InterfaceHelper5F
559:   FUNC WEAK DEFAULT 14 _ZN19C2SupportedValueSetI
560:   FUNC GLOBAL DEFAULT 14 _ZN7android18C2AllocatorG
561:   FUNC WEAK DEFAULT 14 _ZN16C2SupportedFlagsIxEC
562:   FUNC GLOBAL DEFAULT 14 _ZN7android8hardware8grap
563:   FUNC WEAK DEFAULT 14 _ZNK25C2ParamFieldValuesB
564:   FUNC WEAK DEFAULT 14 _ZN16C2SupportedRangeIiE1
565:   FUNC WEAK DEFAULT 14 _ZN19C2SupportedValueSetI
566:   FUNC GLOBAL DEFAULT 14 _ZNK12C2FieldUtils4List5b
567:   FUNC GLOBAL DEFAULT 14 __aeabi_memmove
568:   FUNC GLOBAL DEFAULT 14 _ZNK17C2InterfaceHelper11
569:   FUNC WEAK DEFAULT 14 _ZN25C2ParamFieldValuesBu
570:   FUNC GLOBAL DEFAULT 14 _ZN25C2SettingConflictsBu
571:   FUNC GLOBAL DEFAULT 14 _ZN7android31UnwrapNative
572:   FUNC GLOBAL DEFAULT 14 _ZN7android28C2PlatformAl
573:   FUNC WEAK DEFAULT 14 _ZN16C2SupportedRangeIcE7
574:   FUNC WEAK DEFAULT 14 _ZN19C2SupportedValueSetI
575:   FUNC WEAK DEFAULT 14 _ZN25C2ParamFieldValuesBu
576:   FUNC WEAK DEFAULT 14 _ZN25C2ParamFieldValuesBu
577:   FUNC GLOBAL DEFAULT 14 _ZN25C2SettingConflictsBu
578:   FUNC GLOBAL DEFAULT 14 _ZN7android15C2Allocation
579:   OBJECT GLOBAL DEFAULT 23 _ZN15C2ColorXyStruct11_FI
580:   FUNC WEAK DEFAULT 14 _ZNKSt3__110__function6__
581:   OBJECT GLOBAL DEFAULT 18 _ZTV17C2ReflectorHelper
582:   FUNC WEAK DEFAULT 14 _ZlsIiERNSt3__113basic_os
583:   FUNC WEAK DEFAULT 14 _ZN16C2SupportedRangeIjE2
584:   FUNC WEAK DEFAULT 14 _ZN16C2SupportedRangeIxEC
585:   FUNC WEAK DEFAULT 14 _ZN25C2ParamFieldValuesBu
586:   FUNC WEAK DEFAULT 14 _ZN25C2ParamFieldValuesBu
587:   FUNC GLOBAL DEFAULT 14 _ZN22C2BufferQueueBlockPo
588:   OBJECT GLOBAL DEFAULT 18 _ZTVN12C2FieldUtils4ListE
589:   FUNC WEAK DEFAULT 14 _ZN16C2SupportedRangeIyEC
590:   FUNC WEAK DEFAULT 14 _ZNK16C2SupportedRangeIcE
591:   FUNC WEAK DEFAULT 14 _ZNSt3__16vectorIN7C2Valu
592:   FUNC WEAK DEFAULT 14 _ZNSt3__18weak_ptrI11C2Al
593:   FUNC GLOBAL DEFAULT 14 _ZN17C2InterfaceHelper11F
594:   FUNC WEAK DEFAULT 14 _ZN19C2SupportedValueSetI
595:   FUNC GLOBAL DEFAULT 14 _ZN15_C2BlockFactory18Cre
596:   FUNC GLOBAL DEFAULT 14 _ZN27C2PlatformStorePlugi
597:   OBJECT WEAK DEFAULT 13 _ZN16C2SupportedRangeIiE8
598:   FUNC WEAK DEFAULT 14 _ZN28C2FieldSupportedValu
599:   OBJECT WEAK DEFAULT 18 _ZTVNSt3__120__shared_ptr
600:   FUNC GLOBAL DEFAULT 14 _ZN17C2FieldDescriptor14n
601:   FUNC WEAK DEFAULT 14 _ZN25C2ParamFieldValuesBu
602:   FUNC WEAK DEFAULT 14 _ZN25C2ParamFieldValuesBu
603:   FUNC WEAK DEFAULT 14 _ZN25C2ParamFieldValuesBu
604:   FUNC WEAK DEFAULT 14 _ZNSt3__16vectorINS_11__w
605:   FUNC WEAK DEFAULT 14 _ZNSt3__120__shared_ptr_e
606:   FUNC GLOBAL DEFAULT 14 _ZN17C2FieldDescriptor14n
607:   FUNC WEAK DEFAULT 14 _ZNSt3__16vectorINS_12bas
608:   FUNC GLOBAL DEFAULT 14 _ZN26C2BufferQueueBlockPo
609:   FUNC WEAK DEFAULT 14 _ZNK17C2InterfaceHelper5F
610:   FUNC WEAK DEFAULT 14 _ZN19C2SupportedValueSetI
611:   FUNC WEAK DEFAULT 14 _ZN25C2ParamFieldValuesBu
612:   FUNC GLOBAL DEFAULT 14 _ZN13C2GraphicView7subVie
613:   FUNC WEAK DEFAULT 14 _ZNSt3__19remove_ifINS_11
614:   FUNC GLOBAL DEFAULT 14 _ZN19C2WorkOrdinalStruct9
615:   OBJECT GLOBAL DEFAULT 18 _ZTV17C2InterfaceHelper
616:   FUNC GLOBAL DEFAULT 14 _ZN22C2SettingResultBuild
617:   FUNC WEAK DEFAULT 14 _ZN25C2ParamFieldValuesBu
618:   FUNC WEAK DEFAULT 14 _ZNK16C2SupportedFlagsIhE
619:   FUNC WEAK DEFAULT 14 _ZNSt3__19remove_ifINS_11
620:   OBJECT WEAK DEFAULT 18 _ZTVNSt3__120__shared_ptr
621:   FUNC WEAK DEFAULT 14 _ZN25C2ParamFieldValuesBu
622:   FUNC WEAK DEFAULT 14 _ZN25C2ParamFieldValuesBu
623:   FUNC WEAK DEFAULT 14 _ZN28C2FieldSupportedValu
624:   FUNC WEAK DEFAULT 14 _ZN16C2SupportedFlagsIcEC
625:   FUNC WEAK DEFAULT 14 _ZN16C2SupportedRangeIhE1
626:   FUNC WEAK DEFAULT 14 _ZN25C2ParamFieldValuesBu
627:   FUNC GLOBAL DEFAULT 14 _ZN25C2SettingConflictsBu
628:   FUNC GLOBAL DEFAULT 14 _ZN7android18C2AllocatorG
629:   FUNC WEAK DEFAULT 14 _ZN25C2ParamFieldValuesBu
630:   FUNC WEAK DEFAULT 14 _ZN28C2FieldSupportedValu
631:   FUNC WEAK DEFAULT 14 _ZNSt3__120__shared_ptr_e
632:   FUNC WEAK DEFAULT 14 _ZNSt3__120__shared_ptr_e
633:   FUNC WEAK DEFAULT 14 _ZN16C2SupportedRangeIxE1
634:   FUNC WEAK DEFAULT 14 _ZNK19C2SupportedValueSet
635:   FUNC WEAK DEFAULT 14 _ZNSt3__16vectorINS_4pair
636:   FUNC WEAK DEFAULT 14 _ZN25C2ParamFieldValuesBu
637:   FUNC WEAK DEFAULT 14 _ZN25C2ParamFieldValuesBu
638:   FUNC WEAK DEFAULT 14 _ZNK16C2SupportedFlagsIiE
639:   FUNC WEAK DEFAULT 14 _ZNK19C2SupportedValueSet
640:   OBJECT WEAK DEFAULT 18 _ZTVNSt3__120__shared_ptr
641:   FUNC WEAK DEFAULT 14 _ZNK17C2InterfaceHelper5F
642:   FUNC WEAK DEFAULT 14 _ZNSt3__120__shared_ptr_e
643:   FUNC WEAK DEFAULT 14 _ZN16C2SupportedRangeIhEC
644:   FUNC GLOBAL DEFAULT 14 __fixunsdfdi
645:   FUNC WEAK DEFAULT 14 _ZN16C2SupportedFlagsIjEC
646:   FUNC WEAK DEFAULT 14 _ZN25C2ParamFieldValuesBu
647:   FUNC WEAK DEFAULT 14 _ZNK19C2SupportedValueSet
648:   FUNC WEAK DEFAULT 14 _ZNK17C2InterfaceHelper5F
649:   FUNC WEAK DEFAULT 14 _ZN25C2ParamFieldValuesBu
650:   FUNC WEAK DEFAULT 14 _ZNSt3__16vectorIN7C2Valu
651:   FUNC GLOBAL DEFAULT 14 _ZN11C2WriteView4dataEv
652:   FUNC WEAK DEFAULT 14 _ZN25C2ParamFieldValuesBu
653:   FUNC WEAK DEFAULT 14 _ZNK19C2SupportedValueSet
654:   FUNC GLOBAL DEFAULT 14 _ZN15_C2BlockFactory17Get
655:   OBJECT WEAK DEFAULT 18 _ZTVNSt3__120__shared_ptr
656:   FUNC WEAK DEFAULT 14 _ZNSt3__16__treeINS_12__v
657:   FUNC WEAK DEFAULT 14 _ZNK17C2InterfaceHelper5F
658:   FUNC WEAK DEFAULT 14 _ZN19C2SupportedValueSetI
659:   FUNC WEAK DEFAULT 14 _ZNSt3__16__treeINS_12__v
660:   FUNC WEAK DEFAULT 14 _ZNK19C2SupportedValueSet
661:   FUNC GLOBAL DEFAULT 14 _ZN18C2TileLayoutStruct9F
662:   FUNC WEAK DEFAULT 14 _ZN25C2ParamFieldValuesBu
663:   FUNC GLOBAL DEFAULT 14 _ZN17C2FieldDescriptor14n
664:   FUNC GLOBAL DEFAULT 14 _ZN17C2InterfaceHelperC1E
665:   FUNC WEAK DEFAULT 14 _ZNK17C2InterfaceHelper5F
666:   FUNC WEAK DEFAULT 14 _ZN25C2ParamFieldValuesBu
667:   FUNC WEAK DEFAULT 14 _ZNSt3__19remove_ifINS_11
668:   FUNC WEAK DEFAULT 14 _ZN19C2SupportedValueSetI
669:   FUNC WEAK DEFAULT 14 _ZN25C2ParamFieldValuesBu
670:   FUNC GLOBAL DEFAULT 14 _ZN7android8hardware8grap
671:   FUNC GLOBAL DEFAULT 14 _ZN26C2BufferQueueBlockPo
672:   FUNC WEAK DEFAULT 14 _ZN16C2SupportedRangeIxE8
673:   FUNC GLOBAL DEFAULT 14 _ZN15_C2BlockFactory22Get
674:   FUNC GLOBAL DEFAULT 14 _ZN22_C2BufferPoolAllocat
675:   FUNC GLOBAL DEFAULT 14 _ZN9C2Block2DC2ENSt3__110
676:   FUNC GLOBAL DEFAULT 14 _ZNK7android19C2Allocatio
677:   FUNC GLOBAL DEFAULT 14 _ZN8C2BufferC1ERKNSt3__16
678:   FUNC WEAK DEFAULT 14 _ZNSt3__16__treeINS_12__v
679:   FUNC GLOBAL DEFAULT 14 _ZN7android8hardware8grap
680:   FUNC GLOBAL DEFAULT 14 _ZN7android15C2Allocation
681:   FUNC WEAK DEFAULT 14 _ZNSt3__112__hash_tableIN
682:   OBJECT WEAK DEFAULT 18 _ZTVNSt3__120__shared_ptr
683:   OBJECT WEAK DEFAULT 18 _ZTVN7android24C2Platform
684:   FUNC WEAK DEFAULT 14 _ZN25C2ParamFieldValuesBu
685:   FUNC WEAK DEFAULT 14 _ZNK28C2FieldSupportedVal
686:   FUNC WEAK DEFAULT 14 _ZNSt3__120__shared_ptr_e
687:   OBJECT WEAK DEFAULT 18 _ZTVNSt3__120__shared_ptr
688:   FUNC WEAK DEFAULT 14 _ZNK17C2InterfaceHelper5F
689:   FUNC GLOBAL DEFAULT 14 _ZNK12C2FieldUtils4Info11
690:   FUNC WEAK DEFAULT 14 _ZNSt3__120__shared_ptr_e
691:   FUNC WEAK DEFAULT 14 _ZNSt3__16__treeINS_12__v
692:   OBJECT WEAK DEFAULT 18 _ZTVNSt3__120__shared_ptr
693:   OBJECT WEAK DEFAULT 18 _ZTVNSt3__120__shared_ptr
694:   FUNC WEAK DEFAULT 14 _ZN19C2SupportedValueSetI
695:   FUNC WEAK DEFAULT 14 _ZNK16C2SupportedFlagsIiE
696:   FUNC WEAK DEFAULT 14 _ZNK19C2SupportedValueSet
697:   FUNC WEAK DEFAULT 14 _ZNK19C2SupportedValueSet
698:   FUNC WEAK DEFAULT 14 _ZNK25C2ParamFieldValuesB
699:   FUNC GLOBAL DEFAULT 14 _ZN15_C2BlockFactory18Cre
700:   FUNC WEAK DEFAULT 14 _ZN25C2ParamFieldValuesBu
701:   FUNC GLOBAL DEFAULT 14 _ZN7android8hardware8grap
702:   FUNC WEAK DEFAULT 14 _ZlsIiERNSt3__113basic_os
703:   FUNC GLOBAL DEFAULT 14 _ZN12C2FieldUtils8Iterato
704:   FUNC WEAK DEFAULT 14 _ZN16C2SupportedRangeIcE1
705:   FUNC WEAK DEFAULT 14 _ZN16C2SupportedRangeIjE8
706:   FUNC WEAK DEFAULT 14 _ZNSt3__110__function6__f
707:   FUNC GLOBAL DEFAULT 14 _ZN7android8hardware8grap
708:   FUNC WEAK DEFAULT 14 _ZlsIiERNSt3__113basic_os
709:   FUNC GLOBAL DEFAULT 14 _ZNK12C2FieldUtils4Info4t
710:   FUNC GLOBAL DEFAULT 14 _ZNK17C2InterfaceHelper11
711:   FUNC WEAK DEFAULT 14 _ZNK17C2InterfaceHelper5F
712:   FUNC WEAK DEFAULT 14 _ZN16C2SupportedRangeIcE4
713:   FUNC WEAK DEFAULT 14 _ZN25C2ParamFieldValuesBu
714:   FUNC WEAK DEFAULT 14 _ZN28C2FieldSupportedValu
715:   FUNC WEAK DEFAULT 14 _ZNK16C2SupportedRangeIjE
716:   FUNC GLOBAL DEFAULT 14 _ZN17C2InterfaceHelperC2E
717:   FUNC GLOBAL DEFAULT 14 _ZN7android31GetCodec2Pla
718:   FUNC WEAK DEFAULT 14 _ZNSt3__120__shared_ptr_e
719:   FUNC WEAK DEFAULT 14 _ZNK25C2ParamFieldValuesB
720:   FUNC GLOBAL DEFAULT 14 _ZN13C2GraphicView4dataEv
721:   OBJECT WEAK DEFAULT 18 _ZTVNSt3__120__shared_ptr
722:   FUNC GLOBAL DEFAULT 14 _ZN7android24C2PlatformCo
723:   FUNC WEAK DEFAULT 14 _ZN28C2FieldSupportedValu
724:   FUNC WEAK DEFAULT 14 _ZN28C2FieldSupportedValu
725:   FUNC GLOBAL DEFAULT 14 __aeabi_memset4
726:   FUNC GLOBAL DEFAULT 14 _ZN7android19C2Allocation
727:   FUNC GLOBAL DEFAULT 14 _ZN23C2BasicGraphicBlockP
728:   FUNC WEAK DEFAULT 14 _ZN16C2SupportedRangeIcE8
729:   FUNC WEAK DEFAULT 14 _ZNSt3__120__shared_ptr_e
730:   FUNC GLOBAL DEFAULT 14 _ZlsRNSt3__113basic_ostre
731:   FUNC GLOBAL DEFAULT 14 _ZNK9C2Block2D14getAlloca
732:   FUNC WEAK DEFAULT 14 _ZN28C2FieldSupportedValu
733:   FUNC WEAK DEFAULT 14 _ZN16C2SupportedFlagsIcEC
734:   FUNC WEAK DEFAULT 14 _ZN25C2ParamFieldValuesBu
735:   OBJECT WEAK DEFAULT 18 _ZTV25C2ParamFieldValuesB
736:   FUNC GLOBAL DEFAULT 14 _ZN7android28C2PlatformAl
737:   FUNC WEAK DEFAULT 14 _ZNSt3__16vectorIN7C2Valu
738:   FUNC GLOBAL DEFAULT 14 _ZN7android8hardware8grap
739:   FUNC WEAK DEFAULT 14 _ZN25C2ParamFieldValuesBu
740:   FUNC WEAK DEFAULT 14 _ZN25C2ParamFieldValuesBu
741:   FUNC WEAK DEFAULT 14 _ZNK28C2FieldSupportedVal
742:   FUNC GLOBAL DEFAULT 14 __aeabi_memset8
743:   FUNC GLOBAL DEFAULT 14 _ZN7android24C2PlatformCo
744:   FUNC WEAK DEFAULT 14 _ZN25C2ParamFieldValuesBu
745:   FUNC WEAK DEFAULT 14 _ZNSt3__16vectorIN7C2Valu
746:   FUNC WEAK DEFAULT 14 _ZNSt3__120__shared_ptr_p
747:   FUNC WEAK DEFAULT 14 _ZN25C2ParamFieldValuesBu
748:   FUNC GLOBAL DEFAULT 14 _ZN7android24C2PlatformCo
749:   FUNC GLOBAL DEFAULT 14 _ZN7android8hardware8grap
750:   FUNC WEAK DEFAULT 14 _ZlsIyERNSt3__113basic_os
751:   FUNC WEAK DEFAULT 14 _ZN17C2InterfaceHelper5Fi
752:   FUNC WEAK DEFAULT 14 _ZNSt3__16__treeINS_12__v
753:   FUNC WEAK DEFAULT 14 _ZN16C2SupportedRangeIjE1
754:   FUNC WEAK DEFAULT 14 _ZN16C2SupportedRangeIyE1
755:   FUNC WEAK DEFAULT 14 _ZNK16C2SupportedRangeIhE
756:   FUNC WEAK DEFAULT 14 _ZNSt3__120__shared_ptr_e
757:   FUNC WEAK DEFAULT 14 _ZN16C2SupportedRangeIfE1
758:   FUNC WEAK DEFAULT 14 _ZN19C2SupportedValueSetI
759:   FUNC WEAK DEFAULT 14 _ZN16C2SupportedRangeIfE1
760:   FUNC GLOBAL DEFAULT 14 __fixdfdi
761:   FUNC WEAK DEFAULT 14 _ZNK17C2InterfaceHelper5F
762:   FUNC WEAK DEFAULT 14 _ZN16C2SupportedFlagsIxEC
763:   FUNC WEAK DEFAULT 14 _ZN16C2SupportedRangeIhE7
764:   FUNC GLOBAL DEFAULT 14 _ZN13C2LinearBlockC1ENSt3
765:   FUNC WEAK DEFAULT 14 _ZN25C2ParamFieldValuesBu
766:   FUNC WEAK DEFAULT 14 _ZNK25C2ParamFieldValuesB
767:   FUNC WEAK DEFAULT 14 _ZN25C2ParamFieldValuesBu
768:   FUNC WEAK DEFAULT 14 _ZNK17C2InterfaceHelper5F
769:   OBJECT WEAK DEFAULT 18 _ZTV22SupportedValuesBuil
770:   FUNC WEAK DEFAULT 14 _ZN19C2SupportedValueSetI
771:   FUNC WEAK DEFAULT 14 _ZN25C2ParamFieldValuesBu
772:   FUNC WEAK DEFAULT 14 _ZN25C2ParamFieldValuesBu
773:   FUNC WEAK DEFAULT 14 _ZN25C2ParamFieldValuesBu
774:   FUNC WEAK DEFAULT 14 _ZNK19C2SupportedValueSet
775:   FUNC WEAK DEFAULT 14 _ZNK17C2InterfaceHelper5F
776:   FUNC WEAK DEFAULT 14 _ZN16C2SupportedFlagsIiE5
777:   FUNC WEAK DEFAULT 14 _ZN16C2SupportedFlagsIjEC
778:   FUNC WEAK DEFAULT 14 _ZN16C2SupportedRangeIcEC
779:   FUNC WEAK DEFAULT 14 _ZN19C2SupportedValueSetI
780:   FUNC WEAK DEFAULT 14 _ZNSt3__16vectorINS_10sha
781:   FUNC GLOBAL DEFAULT 14 _ZNK7android24C2PlatformC
782:   FUNC WEAK DEFAULT 14 _ZN16C2SupportedFlagsIxE5
783:   FUNC WEAK DEFAULT 14 _ZN16C2SupportedFlagsIyEC
784:   FUNC WEAK DEFAULT 14 _ZN16C2SupportedRangeIxE1
785:   FUNC WEAK DEFAULT 14 _ZNSt3__120__shared_ptr_p
786:   FUNC WEAK DEFAULT 14 _ZN25C2ParamFieldValuesBu
787:   FUNC WEAK DEFAULT 14 _ZN16C2SupportedFlagsIiEC
788:   FUNC WEAK DEFAULT 14 _ZN16C2SupportedRangeIcE1
789:   FUNC WEAK DEFAULT 14 _ZN25C2ParamFieldValuesBu
790:   FUNC WEAK DEFAULT 14 _ZN16C2SupportedRangeIfE7
791:   FUNC GLOBAL DEFAULT 14 _ZN19C2ConstGraphicBlockC
792:   FUNC GLOBAL DEFAULT 14 _ZN7android24C2PlatformCo
793:   FUNC WEAK DEFAULT 14 _ZNSt3__120__shared_ptr_e
794:   FUNC GLOBAL DEFAULT 14 _ZN7android18C2AllocatorG
795:   FUNC GLOBAL DEFAULT 14 _ZN17C2FieldDescriptor14n
796:   FUNC GLOBAL DEFAULT 14 _ZN7android8hardware8grap
797:   FUNC WEAK DEFAULT 14 _ZlsIhERNSt3__113basic_os
798:   FUNC WEAK DEFAULT 14 _ZlsIyERNSt3__113basic_os
799:   FUNC GLOBAL DEFAULT 14 _ZN16C2RotationStruct9Fie
800:   FUNC WEAK DEFAULT 14 _ZN16C2SupportedRangeIcE1
801:   FUNC WEAK DEFAULT 14 _ZN19C2SupportedValueSetI
802:   FUNC GLOBAL DEFAULT 14 _ZN23C2SettingResultsBuil
803:   FUNC WEAK DEFAULT 14 _ZNK16C2SupportedFlagsIjE
804:   FUNC WEAK DEFAULT 14 _ZN16C2SupportedRangeIfE8
805:   FUNC WEAK DEFAULT 14 _ZN25C2ParamFieldValuesBu
806:   FUNC WEAK DEFAULT 14 _ZN25C2ParamFieldValuesBu
807:   FUNC WEAK DEFAULT 14 _ZNSt3__19remove_ifINS_11
808:   FUNC WEAK DEFAULT 14 _ZN16C2SupportedRangeIfE1
809:   OBJECT WEAK DEFAULT 13 _ZN16C2SupportedRangeIhE9
810:   FUNC GLOBAL DEFAULT 14 _ZNK12C2FieldUtils4Info15
811:   FUNC GLOBAL DEFAULT 14 _ZN7android11C2HandleIon7
812:   FUNC WEAK DEFAULT 14 _ZNSt3__120__shared_ptr_e
813:   FUNC GLOBAL DEFAULT 14 _ZN17C2InterfaceHelper11P
814:   FUNC WEAK DEFAULT 14 _ZN25C2ParamFieldValuesBu
815:   FUNC WEAK DEFAULT 14 _ZNK16C2SupportedRangeIjE
816:   FUNC GLOBAL DEFAULT 14 __aeabi_memcpy4
817:   FUNC WEAK DEFAULT 14 _ZN28C2FieldSupportedValu
818:   FUNC GLOBAL DEFAULT 14 _ZNK12C2FieldUtils4List3e
819:   FUNC GLOBAL DEFAULT 14 _ZN22C2BasicLinearBlockPo
820:   OBJECT GLOBAL DEFAULT 23 _ZN18C2TileLayoutStruct11
821:   FUNC WEAK DEFAULT 14 _ZNSt3__120__shared_ptr_e
822:   FUNC WEAK DEFAULT 14 _ZNK16C2SupportedRangeIfE
823:   FUNC WEAK DEFAULT 14 _ZNK16C2SupportedRangeIyE
824:   FUNC GLOBAL DEFAULT 14 _ZN7android34_UnwrapNativ
825:   FUNC GLOBAL DEFAULT 14 _ZN17C2FieldDescriptor14n
826:   FUNC WEAK DEFAULT 14 _ZN16C2SupportedRangeIyE4
827:   FUNC WEAK DEFAULT 14 _ZN19C2SupportedValueSetI
828:   FUNC WEAK DEFAULT 14 _ZNSt3__16__treeINS_12__v
829:   OBJECT WEAK DEFAULT 13 _ZN16C2SupportedRangeIiE9
830:   FUNC WEAK DEFAULT 14 _ZN25C2ParamFieldValuesBu
831:   FUNC WEAK DEFAULT 14 _ZN28C2FieldSupportedValu
832:   FUNC GLOBAL DEFAULT 14 _ZN17C2InterfaceHelper11P
833:   OBJECT WEAK DEFAULT 18 _ZTVNSt3__120__shared_ptr
834:   FUNC WEAK DEFAULT 14 _ZN16C2SupportedFlagsIiEC
835:   FUNC GLOBAL DEFAULT 14 __aeabi_memcpy8
836:   FUNC WEAK DEFAULT 14 _ZN25C2ParamFieldValuesBu
837:   FUNC WEAK DEFAULT 14 _ZNSt3__16vectorIN7C2Valu
838:   OBJECT WEAK DEFAULT 18 _ZTVNSt3__120__shared_ptr
839:   FUNC WEAK DEFAULT 14 _ZN25C2ParamFieldValuesBu
840:   FUNC WEAK DEFAULT 14 _ZN28C2FieldSupportedValu
841:   FUNC GLOBAL DEFAULT 14 _ZN7android14C2AllocatorI
842:   FUNC WEAK DEFAULT 14 _ZN17C2InterfaceHelper5Fi
843:   FUNC WEAK DEFAULT 14 _ZN25C2ParamFieldValuesBu
844:   FUNC WEAK DEFAULT 14 _ZNK16C2SupportedRangeIcE
845:   FUNC GLOBAL DEFAULT 14 _ZN20C2ColorAspectsStruct
846:   FUNC WEAK DEFAULT 14 _ZNSt3__16vectorINS_4pair
847:   FUNC GLOBAL DEFAULT 14 _ZN15_C2BlockFactory29Beg
848:   FUNC WEAK DEFAULT 14 _ZlsIhERNSt3__113basic_os
849:   FUNC WEAK DEFAULT 14 _ZN25C2ParamFieldValuesBu
850:   OBJECT WEAK DEFAULT 18 _ZTVNSt3__120__shared_ptr
851:   FUNC WEAK DEFAULT 14 _ZNK17C2InterfaceHelper5F
852:   FUNC WEAK DEFAULT 14 _ZN28C2FieldSupportedValu
853:   FUNC GLOBAL DEFAULT 14 _ZN12C2FieldUtils11locate
854:   FUNC GLOBAL DEFAULT 14 __aeabi_uldivmod
855:   FUNC GLOBAL DEFAULT 14 _ZN7android19C2Allocation
856:   FUNC GLOBAL DEFAULT 14 _ZN17C2FieldDescriptor14n
857:   FUNC GLOBAL DEFAULT 14 _ZN15_C2BlockFactory24End
858:   OBJECT GLOBAL DEFAULT 18 _ZTV26C2BufferQueueBlockP
859:   FUNC WEAK DEFAULT 14 _ZlsIyERNSt3__113basic_os
860:   FUNC GLOBAL DEFAULT 14 _ZN12C2FieldUtils4InfoC2E
861:   FUNC WEAK DEFAULT 14 _ZN25C2ParamFieldValuesBu
862:   FUNC GLOBAL DEFAULT 14 _ZNK12C2FieldUtils4Info11
863:   FUNC GLOBAL DEFAULT 14 _ZN17C2FieldDescriptor14n
864:   FUNC GLOBAL DEFAULT 14 _ZNK17C2InterfaceHelper11
865:   FUNC WEAK DEFAULT 14 _ZN16C2SupportedFlagsIiEC
866:   FUNC WEAK DEFAULT 14 _ZN19C2SupportedValueSetI
867:   FUNC WEAK DEFAULT 14 _ZN19C2SupportedValueSetI
868:   FUNC WEAK DEFAULT 14 _ZN25C2ParamFieldValuesBu
869:   FUNC WEAK DEFAULT 14 _ZN16C2SupportedFlagsIcEC
870:   OBJECT WEAK DEFAULT 18 _ZTV25C2ParamFieldValuesB
871:   FUNC WEAK DEFAULT 14 _ZNK17C2InterfaceHelper5F
872:   FUNC WEAK DEFAULT 14 _ZN16C2SupportedFlagsIyEC
873:   FUNC WEAK DEFAULT 14 _ZN19C2SupportedValueSetI
874:   FUNC WEAK DEFAULT 14 _ZN25C2ParamFieldValuesBu
875:   FUNC WEAK DEFAULT 14 _ZN25C2ParamFieldValuesBu
876:   FUNC WEAK DEFAULT 14 _ZNK16C2SupportedRangeIiE
877:   FUNC WEAK DEFAULT 14 _ZNSt3__16vectorIN7C2Para
878:   FUNC WEAK DEFAULT 14 _ZN19C2SupportedValueSetI
879:   FUNC WEAK DEFAULT 14 _ZN25C2ParamFieldValuesBu
880:   FUNC GLOBAL DEFAULT 14 _ZNK12C2FieldUtils4Info6o
881:   FUNC WEAK DEFAULT 14 _ZN16C2SupportedRangeIjEC
882:   FUNC WEAK DEFAULT 14 _ZN16C2SupportedRangeIxE8
883:   FUNC WEAK DEFAULT 14 _ZN19C2SupportedValueSetI
884:   OBJECT WEAK DEFAULT 18 _ZTVNSt3__120__shared_ptr
885:   FUNC GLOBAL DEFAULT 14 __aeabi_l2d
886:   FUNC WEAK DEFAULT 14 _ZNSt3__120__shared_ptr_p
887:   FUNC WEAK DEFAULT 14 _ZlsIfERNSt3__113basic_os
888:   FUNC WEAK DEFAULT 14 _ZN25C2ParamFieldValuesBu
889:   FUNC GLOBAL DEFAULT 14 _ZN7android29WrapNativeCo
890:   FUNC GLOBAL DEFAULT 14 _ZN22C2BufferQueueBlockPo
891:   FUNC GLOBAL DEFAULT 14 _ZN7android8hardware8grap
892:   FUNC WEAK DEFAULT 14 _ZN16C2SupportedFlagsIiEC
893:   FUNC WEAK DEFAULT 14 _ZN25C2ParamFieldValuesBu
894:   FUNC WEAK DEFAULT 14 _ZNSt3__120__shared_ptr_p
895:   FUNC GLOBAL DEFAULT 14 _ZN22C2BasicLinearBlockPo
896:   FUNC WEAK DEFAULT 14 _ZN17C2InterfaceHelper5Fi
897:   FUNC WEAK DEFAULT 14 _ZN25C2ParamFieldValuesBu
898:   FUNC WEAK DEFAULT 14 _ZNK19C2SupportedValueSet
899:   FUNC WEAK DEFAULT 14 _ZN25C2ParamFieldValuesBu
900:   OBJECT WEAK DEFAULT 18 _ZTVNSt3__110__function6_
901:   FUNC GLOBAL DEFAULT 14 _ZN17C2InterfaceHelper11F
902:   FUNC GLOBAL DEFAULT 14 _ZN17C2InterfaceHelper11P
903:   FUNC WEAK DEFAULT 14 _ZN17C2InterfaceHelper5Fi
904:   OBJECT WEAK DEFAULT 18 _ZTV22SupportedValuesBuil
905:   FUNC WEAK DEFAULT 14 _ZN25C2ParamFieldValuesBu
906:   FUNC WEAK DEFAULT 14 _ZN25C2ParamFieldValuesBu
907:   FUNC GLOBAL DEFAULT 14 _ZNK7android15C2Allocatio
908:   FUNC GLOBAL DEFAULT 14 _ZN17C2InterfaceHelper11P
909:   FUNC WEAK DEFAULT 14 _ZNSt3__120__shared_ptr_e
910:   FUNC WEAK DEFAULT 14 _ZNSt3__120__shared_ptr_e
911:   FUNC GLOBAL DEFAULT 14 _ZNK17C2InterfaceHelper11
912:   FUNC WEAK DEFAULT 14 _ZNK19C2SupportedValueSet
913:   OBJECT WEAK DEFAULT 18 _ZTVNSt3__120__shared_ptr
914:   FUNC WEAK DEFAULT 14 _ZN25C2ParamFieldValuesBu
915:   FUNC WEAK DEFAULT 14 _ZN16C2SupportedRangeIiE7
916:   FUNC WEAK DEFAULT 14 _ZNK16C2SupportedFlagsIxE
917:   FUNC WEAK DEFAULT 14 _ZNK16C2SupportedRangeIyE
918:   OBJECT WEAK DEFAULT 18 _ZTVNSt3__120__shared_ptr
919:   FUNC WEAK DEFAULT 14 _ZNK17C2InterfaceHelper5F
920:   FUNC WEAK DEFAULT 14 _ZN16C2SupportedFlagsIcE5
921:   FUNC WEAK DEFAULT 14 _ZN25C2ParamFieldValuesBu
922:   FUNC WEAK DEFAULT 14 _ZN25C2ParamFieldValuesBu
923:   FUNC GLOBAL DEFAULT 14 __aeabi_uidivmod
924:   FUNC WEAK DEFAULT 14 _ZNK19C2SupportedValueSet
925:   FUNC GLOBAL DEFAULT 14 _ZNK17C2InterfaceHelper11
926:   FUNC WEAK DEFAULT 14 _ZN19C2SupportedValueSetI
927:   FUNC WEAK DEFAULT 14 _ZN28C2FieldSupportedValu
928:   FUNC GLOBAL DEFAULT 14 _ZN7android18C2AllocatorG
929:   FUNC WEAK DEFAULT 14 _ZN16C2SupportedFlagsIhEC
930:   FUNC WEAK DEFAULT 14 _ZN16C2SupportedFlagsIyEC
931:   FUNC WEAK DEFAULT 14 _ZN16C2SupportedRangeIxE3
932:   FUNC WEAK DEFAULT 14 _ZN19C2SupportedValueSetI
933:   FUNC WEAK DEFAULT 14 _ZNK16C2SupportedFlagsIcE
934:   FUNC WEAK DEFAULT 14 _ZN16C2SupportedFlagsIiEC
935:   FUNC WEAK DEFAULT 14 _ZNK19C2SupportedValueSet
936:   FUNC WEAK DEFAULT 14 _ZNSt3__16__treeINS_12__v
937:   FUNC WEAK DEFAULT 14 _ZN25C2ParamFieldValuesBu
938:   FUNC WEAK DEFAULT 14 _ZNSt3__16vectorIN7C2Valu
939:   FUNC WEAK DEFAULT 14 _ZN16C2SupportedFlagsIcE5
940:   FUNC WEAK DEFAULT 14 _ZN25C2ParamFieldValuesBu
941:   FUNC GLOBAL DEFAULT 14 _ZN7android15C2Allocation
942:   FUNC GLOBAL DEFAULT 14 _ZN17C2FieldDescriptor14n
943:   FUNC GLOBAL DEFAULT 14 _ZN25C2HdrStaticMetadataS
944:   FUNC WEAK DEFAULT 14 _ZNK19C2SupportedValueSet
945:   FUNC GLOBAL DEFAULT 14 __udivmoddi4
946:   FUNC WEAK DEFAULT 14 _ZNSt3__16vectorIhNS_9all
947:   FUNC WEAK DEFAULT 14 _ZN19C2SupportedValueSetI
948:   FUNC WEAK DEFAULT 14 _ZNSt3__112__hash_tableIN
949:   FUNC GLOBAL DEFAULT 14 _ZNK8C2Buffer7hasInfoEN7C
950:   FUNC WEAK DEFAULT 14 _ZNSt3__120__shared_ptr_p
951:   FUNC WEAK DEFAULT 14 _ZN28C2FieldSupportedValu
952:   FUNC WEAK DEFAULT 14 _ZN25C2ParamFieldValuesBu
953:   FUNC GLOBAL DEFAULT 14 _ZN17C2FieldDescriptor14n
954:   FUNC GLOBAL DEFAULT 14 _ZN12C2FieldUtils16enumer
955:   FUNC WEAK DEFAULT 14 _ZN25C2ParamFieldValuesBu
956:   FUNC WEAK DEFAULT 14 _ZNSt3__16__treeINS_12__v
957:   FUNC WEAK DEFAULT 14 _ZN16C2SupportedRangeIyE7
958:   FUNC WEAK DEFAULT 14 _ZN25C2ParamFieldValuesBu
959:   OBJECT GLOBAL DEFAULT 23 _ZN27C2PlatformStorePlugi
960:   FUNC WEAK DEFAULT 14 _ZN16C2SupportedFlagsIcEC
961:   FUNC WEAK DEFAULT 14 _ZN25C2ParamFieldValuesBu
962:   FUNC WEAK DEFAULT 14 _ZNSt3__16vectorINS_10uni
963:   FUNC GLOBAL DEFAULT 14 _ZN17C2InterfaceHelper11P
964:   FUNC GLOBAL DEFAULT 14 _ZN7android8hardware8grap
965:   FUNC WEAK DEFAULT 14 _ZlsIhERNSt3__113basic_os
966:   FUNC GLOBAL DEFAULT 14 _ZN17C2InterfaceHelper11P
967:   FUNC WEAK DEFAULT 14 _ZN16C2SupportedFlagsIhEC
968:   FUNC WEAK DEFAULT 14 _ZN16C2SupportedRangeIjE4
969:   FUNC WEAK DEFAULT 14 _ZNSt3__19remove_ifINS_11
970:   FUNC GLOBAL DEFAULT 14 _ZN22_C2BufferPoolAllocat
971:   FUNC WEAK DEFAULT 14 _ZNK17C2InterfaceHelper5F
972:   FUNC WEAK DEFAULT 14 _ZN25C2ParamFieldValuesBu
973:   FUNC GLOBAL DEFAULT 14 _ZN7android20C2AndroidMem
974:   FUNC WEAK DEFAULT 14 _ZN16C2SupportedRangeIjE1
975:   FUNC WEAK DEFAULT 14 _ZN19C2SupportedValueSetI
976:   FUNC WEAK DEFAULT 14 _ZNSt3__18weak_ptrIN7andr
977:   OBJECT WEAK DEFAULT 18 _ZTVNSt3__120__shared_ptr
978:   FUNC WEAK DEFAULT 14 _ZN16C2SupportedRangeIhE1
979:   FUNC WEAK DEFAULT 14 _ZN25C2ParamFieldValuesBu
980:   FUNC WEAK DEFAULT 14 _ZNK19C2SupportedValueSet
981:   FUNC WEAK DEFAULT 14 _ZlsIjERNSt3__113basic_os
982:   FUNC WEAK DEFAULT 14 _ZN16C2SupportedRangeIiEC
983:   OBJECT WEAK DEFAULT 18 _ZTVNSt3__120__shared_ptr
984:   FUNC GLOBAL DEFAULT 14 _ZN17C2InterfaceHelper11P
985:   FUNC WEAK DEFAULT 14 _ZN16C2SupportedRangeIjEC
986:   FUNC WEAK DEFAULT 14 _ZN19C2SupportedValueSetI
987:   FUNC GLOBAL DEFAULT 14 _ZN23C2BasicGraphicBlockP
988:   FUNC WEAK DEFAULT 14 _ZNSt3__16vectorI18C2Cons
989:   FUNC GLOBAL DEFAULT 14 _ZN17C2FieldDescriptor14n
990:   OBJECT WEAK DEFAULT 18 _ZTV22SupportedValuesBuil
991:   FUNC WEAK DEFAULT 14 _ZN16C2SupportedFlagsIiE5
992:   FUNC WEAK DEFAULT 14 _ZN25C2ParamFieldValuesBu
993:   FUNC WEAK DEFAULT 14 _ZNSt3__16vectorINS_10uni
994:   FUNC GLOBAL DEFAULT 14 _ZN17C2PooledBlockPool15g
995:   FUNC WEAK DEFAULT 14 _ZNSt3__120__shared_ptr_p
996:   OBJECT GLOBAL DEFAULT 23 _ZN19C2WorkOrdinalStruct1
997:   FUNC GLOBAL DEFAULT 14 _ZN12C2FieldUtils8Iterato
998:   FUNC WEAK DEFAULT 14 _ZNSt3__16vectorIN7C2Valu
999:   FUNC GLOBAL DEFAULT 14 _ZN7android19C2Allocation
1000:   FUNC WEAK DEFAULT 14 _ZNSt3__120__shared_ptr_p
1001:   FUNC WEAK DEFAULT 14 _ZN19C2SupportedValueSetI
1002:   FUNC WEAK DEFAULT 14 _ZNK25C2ParamFieldValuesB
1003:   FUNC WEAK DEFAULT 14 _ZNSt3__16vectorIN7C2Valu
1004:   OBJECT WEAK DEFAULT 18 _ZTVNSt3__120__shared_ptr
1005:   FUNC GLOBAL DEFAULT 14 __aeabi_memset
1006:   FUNC WEAK DEFAULT 14 _ZN16C2SupportedFlagsIiEC
1007:   OBJECT GLOBAL DEFAULT 18 _ZTVN7android24C2Platform
1008:   FUNC GLOBAL DEFAULT 14 _ZN7android8hardware8grap
1009:   FUNC WEAK DEFAULT 14 _ZN16C2SupportedRangeIhE8
1010:   OBJECT WEAK DEFAULT 18 _ZTV25C2ParamFieldValuesB
1011:   FUNC GLOBAL DEFAULT 14 _ZN26C2BufferQueueBlockPo
1012:   FUNC GLOBAL DEFAULT 14 _ZlsRNSt3__113basic_ostre
1013:   FUNC WEAK DEFAULT 14 _ZN16C2SupportedRangeIxE1
1014:   FUNC WEAK DEFAULT 14 _ZN19C2SupportedValueSetI
1015:   FUNC WEAK DEFAULT 14 _ZN25C2ParamFieldValuesBu
1016:   FUNC WEAK DEFAULT 14 _ZN25C2ParamFieldValuesBu
1017:   FUNC WEAK DEFAULT 14 _ZNSt3__120__shared_ptr_e
1018:   FUNC WEAK DEFAULT 14 _ZN25C2ParamFieldValuesBu
1019:   OBJECT WEAK DEFAULT 18 _ZTVNSt3__120__shared_ptr
1020:   FUNC WEAK DEFAULT 14 _ZN16C2SupportedRangeIxE7
1021:   FUNC WEAK DEFAULT 14 _ZNSt3__120__shared_ptr_p
1022:   FUNC WEAK DEFAULT 14 _ZlsIxERNSt3__113basic_os
1023:   FUNC WEAK DEFAULT 14 _ZN25C2ParamFieldValuesBu
1024:   FUNC WEAK DEFAULT 14 _ZN25C2ParamFieldValuesBu
1025:   FUNC WEAK DEFAULT 14 _ZNK19C2SupportedValueSet
1026:   FUNC GLOBAL DEFAULT 14 _ZN22C2BufferQueueBlockPo
1027:   FUNC GLOBAL DEFAULT 14 _ZN7android8hardware8grap
1028:   FUNC GLOBAL DEFAULT 14 _Z8asStringN17C2FieldDesc
1029:   FUNC WEAK DEFAULT 14 _ZN16C2SupportedFlagsIxEC
1030:   FUNC WEAK DEFAULT 14 _ZN19C2SupportedValueSetI
1031:   FUNC GLOBAL DEFAULT 14 _ZNK7android24C2PlatformC
1032:   FUNC GLOBAL DEFAULT 14 _ZN26C2BufferQueueBlockPo
1033:   FUNC GLOBAL DEFAULT 14 _ZNK12C2FieldUtils4Info4s
1034:   FUNC WEAK DEFAULT 14 _ZN16C2SupportedRangeIiE8
1035:   FUNC WEAK DEFAULT 14 _ZN25C2ParamFieldValuesBu
1036:   FUNC WEAK DEFAULT 14 _ZNK19C2SupportedValueSet
1037:   OBJECT WEAK DEFAULT 18 _ZTVNSt3__120__shared_ptr
1038:   FUNC WEAK DEFAULT 14 _ZN25C2ParamFieldValuesBu
1039:   FUNC WEAK DEFAULT 14 _ZNSt3__16__treeINS_12__v
1040:   FUNC GLOBAL DEFAULT 14 __aeabi_memclr
1041:   OBJECT GLOBAL DEFAULT 23 _ZN20C2ChromaOffsetStruct
1042:   FUNC WEAK DEFAULT 14 _ZNSt3__120__shared_ptr_e
1043:   FUNC WEAK DEFAULT 14 _ZN25C2ParamFieldValuesBu
1044:   FUNC WEAK DEFAULT 14 _ZN25C2ParamFieldValuesBu
1045:   FUNC WEAK DEFAULT 14 _ZN25C2ParamFieldValuesBu
1046:   FUNC WEAK DEFAULT 14 _ZN25C2ParamFieldValuesBu
1047:   OBJECT GLOBAL DEFAULT 18 _ZTV22C2BasicLinearBlockP
1048:   FUNC GLOBAL DEFAULT 14 _ZN9C2Block2DC1ENSt3__110
1049:   OBJECT GLOBAL DEFAULT 23 _ZN37C2FlexiblePixelForma
1050:   OBJECT WEAK DEFAULT 13 _ZN16C2SupportedRangeIyE9
1051:   FUNC WEAK DEFAULT 14 _ZN25C2ParamFieldValuesBu
1052:   FUNC WEAK DEFAULT 14 _ZN25C2ParamFieldValuesBu
1053:   FUNC WEAK DEFAULT 14 _ZN25C2ParamFieldValuesBu
1054:   FUNC GLOBAL DEFAULT 14 _ZNK7android18C2Allocator
1055:   FUNC GLOBAL DEFAULT 14 _ZNK7android14C2Allocator
1056:   FUNC WEAK DEFAULT 14 _ZN25C2ParamFieldValuesBu
1057:   FUNC WEAK DEFAULT 14 _ZN25C2ParamFieldValuesBu
1058:   FUNC GLOBAL DEFAULT 14 __udivsi3
1059:   FUNC GLOBAL DEFAULT 14 _ZNK7android15C2Allocatio
1060:   FUNC GLOBAL DEFAULT 14 _ZN14C2GraphicBlock3mapEv
1061:   FUNC GLOBAL DEFAULT 14 _ZNK10C2ReadView4dataEv
1062:   FUNC WEAK DEFAULT 14 _ZNSt3__120__shared_ptr_e
1063:   FUNC WEAK DEFAULT 14 _ZN25C2ParamFieldValuesBu
1064:   FUNC WEAK DEFAULT 14 _ZN25C2ParamFieldValuesBu
1065:   FUNC GLOBAL DEFAULT 14 _ZN7android19C2Allocation
1066:   FUNC WEAK DEFAULT 14 _ZNSt3__110__function6__f
1067:   FUNC WEAK DEFAULT 14 _ZlsIcERNSt3__113basic_os
1068:   FUNC WEAK DEFAULT 14 _ZN17C2InterfaceHelper5Fi
1069:   FUNC WEAK DEFAULT 14 _ZN16C2SupportedFlagsIcEC
1070:   FUNC WEAK DEFAULT 14 _ZN16C2SupportedRangeIhE4
1071:   FUNC WEAK DEFAULT 14 _ZN25C2ParamFieldValuesBu
1072:   FUNC GLOBAL DEFAULT 14 _ZN23C2BasicGraphicBlockP
1073:   FUNC WEAK DEFAULT 14 _ZNK25C2ParamFieldValuesB
1074:   FUNC WEAK DEFAULT 14 _ZNSt3__120__shared_ptr_e
1075:   FUNC WEAK DEFAULT 14 _ZNK16C2SupportedRangeIyE
1076:   FUNC GLOBAL DEFAULT 14 _ZNK8C2Buffer7getInfoEN7C
1077:   FUNC GLOBAL DEFAULT 14 _ZNK17C2InterfaceHelper5q
1078:   FUNC WEAK DEFAULT 14 _ZN16C2SupportedFlagsIyE5
1079:   FUNC WEAK DEFAULT 14 _ZN25C2ParamFieldValuesBu
1080:   FUNC GLOBAL DEFAULT 14 _ZN7android15C2Allocation
1081:   FUNC WEAK DEFAULT 14 _ZN16C2SupportedRangeIcE7
1082:   FUNC GLOBAL DEFAULT 14 _ZNK12C2FieldUtils4Info10
1083:   FUNC WEAK DEFAULT 14 _ZNK16C2SupportedRangeIiE
1084:   FUNC WEAK DEFAULT 14 _ZNKSt3__110__function6__
1085:   FUNC WEAK DEFAULT 14 _ZN25C2ParamFieldValuesBu
1086:   FUNC WEAK DEFAULT 14 _ZN25C2ParamFieldValuesBu
1087:   FUNC WEAK DEFAULT 14 _ZN25C2ParamFieldValuesBu
1088:   FUNC WEAK DEFAULT 14 _ZNK19C2SupportedValueSet
1089:   FUNC WEAK DEFAULT 14 _ZN16C2SupportedRangeIhE3
1090:   FUNC WEAK DEFAULT 14 _ZN16C2SupportedRangeIiE1
1091:   FUNC WEAK DEFAULT 14 _ZN16C2SupportedRangeIxE1
1092:   FUNC WEAK DEFAULT 14 _ZN25C2ParamFieldValuesBu
1093:   FUNC GLOBAL DEFAULT 14 _ZN13C2LinearBlockC2ENSt3
1094:   FUNC WEAK DEFAULT 14 _ZN25C2ParamFieldValuesBu
1095:   FUNC WEAK DEFAULT 14 _ZN25C2ParamFieldValuesBu
1096:   FUNC WEAK DEFAULT 14 _ZN25C2ParamFieldValuesBu
1097:   FUNC GLOBAL DEFAULT 14 _ZN25C2SettingConflictsBu
1098:   FUNC WEAK DEFAULT 14 _ZNK19C2SupportedValueSet
1099:   FUNC GLOBAL DEFAULT 14 _ZN12C2BufferDataC1ERKNSt
1100:   FUNC GLOBAL DEFAULT 14 _ZN17C2FieldDescriptor14n
1101:   OBJECT WEAK DEFAULT 13 _ZN16C2SupportedRangeIxE8
1102:   FUNC WEAK DEFAULT 14 _ZN19C2SupportedValueSetI
1103:   FUNC WEAK DEFAULT 14 _ZN19C2SupportedValueSetI
1104:   FUNC GLOBAL DEFAULT 14 _ZNK18C2ConstLinearBlock8
1105:   FUNC WEAK DEFAULT 14 _ZNSt3__120__shared_ptr_p
1106:   FUNC GLOBAL DEFAULT 14 _ZN7android28C2PlatformAl
1107:   FUNC GLOBAL DEFAULT 14 _Z8asString11c2_status_tP
1108:   FUNC WEAK DEFAULT 14 _ZN25C2ParamFieldValuesBu
1109:   FUNC GLOBAL DEFAULT 14 _ZN11C2WriteViewC2ENSt3__
1110:   FUNC WEAK DEFAULT 14 _ZN16C2SupportedRangeIcE8
1111:   FUNC WEAK DEFAULT 14 _ZN28C2FieldSupportedValu
1112:   FUNC GLOBAL DEFAULT 14 _ZNK17C2InterfaceHelper20
1113:   FUNC WEAK DEFAULT 14 _ZN25C2ParamFieldValuesBu
1114:   FUNC WEAK DEFAULT 14 _ZNK25C2ParamFieldValuesB
1115:   FUNC WEAK DEFAULT 14 _ZN16C2SupportedRangeIhE8
1116:   OBJECT WEAK DEFAULT 13 _ZN16C2SupportedRangeIjE9
1117:   FUNC WEAK DEFAULT 14 _ZN19C2SupportedValueSetI
1118:   FUNC WEAK DEFAULT 14 _ZN25C2ParamFieldValuesBu
1119:   FUNC WEAK DEFAULT 14 _ZNK17C2InterfaceHelper5F
1120:   FUNC WEAK DEFAULT 14 _ZN25C2ParamFieldValuesBu
1121:   FUNC WEAK DEFAULT 14 _ZNK16C2SupportedRangeIfE
1122:   FUNC GLOBAL DEFAULT 14 _ZN7android24C2PlatformCo
1123:   FUNC WEAK DEFAULT 14 _ZNK19C2SupportedValueSet
1124:   FUNC WEAK DEFAULT 14 _ZNSt3__110__function6__f
1125:   FUNC WEAK DEFAULT 14 _ZNK19C2SupportedValueSet
1126:   FUNC WEAK DEFAULT 14 _ZlsIxERNSt3__113basic_os
1127:   FUNC WEAK DEFAULT 14 _ZN25C2ParamFieldValuesBu
1128:   FUNC WEAK DEFAULT 14 _ZN25C2ParamFieldValuesBu
1129:   FUNC WEAK DEFAULT 14 _ZNK16C2SupportedRangeIxE
1130:   FUNC WEAK DEFAULT 14 _ZNK19C2SupportedValueSet
1131:   OBJECT WEAK DEFAULT 18 _ZTVNSt3__120__shared_ptr
1132:   OBJECT WEAK DEFAULT 18 _ZTVNSt3__110__function6_
1133:   FUNC WEAK DEFAULT 14 _ZN25C2ParamFieldValuesBu
1134:   FUNC WEAK DEFAULT 14 _ZNK16C2SupportedRangeIcE
1135:   FUNC WEAK DEFAULT 14 _ZNSt3__19remove_ifINS_11
1136:   FUNC GLOBAL DEFAULT 14 _ZN12C2BufferDataC2ERKNSt
1137:   FUNC GLOBAL DEFAULT 14 _ZN16C2GopLayerStruct9Fie
1138:   FUNC GLOBAL DEFAULT 14 _ZN7android24C2PlatformCo
1139:   FUNC WEAK DEFAULT 14 _ZNSt3__16__treeINS_12__v
1140:   FUNC WEAK DEFAULT 14 _ZNK19C2SupportedValueSet
1141:   FUNC WEAK DEFAULT 14 _ZN25C2ParamFieldValuesBu
1142:   FUNC WEAK DEFAULT 14 _ZNK16C2SupportedRangeIiE
1143:   FUNC WEAK DEFAULT 14 _ZNK19C2SupportedValueSet
1144:   FUNC WEAK DEFAULT 14 _ZNSt3__16vectorIP7C2Para
1145:   FUNC GLOBAL DEFAULT 14 __aeabi_uidiv
1146:   OBJECT GLOBAL DEFAULT 18 _ZTVN7android18C2Allocato
1147:   FUNC GLOBAL DEFAULT 14 _ZNK17C2InterfaceHelper11
1148:   FUNC WEAK DEFAULT 14 _ZN16C2SupportedRangeIxE1
1149:   FUNC GLOBAL DEFAULT 14 _ZN17C2FieldDescriptor14n
1150:   FUNC WEAK DEFAULT 14 _ZNSt3__16__treeINS_12__v
1151:   FUNC GLOBAL DEFAULT 14 _ZN22C2BufferQueueBlockPo
1152:   FUNC WEAK DEFAULT 14 _ZN16C2SupportedFlagsIxE4
1153:   OBJECT WEAK DEFAULT 13 _ZN16C2SupportedRangeIcE9
1154:   FUNC WEAK DEFAULT 14 _ZN16C2SupportedRangeIfE4
1155:   FUNC WEAK DEFAULT 14 _ZNSt3__19remove_ifINS_11
1156:   FUNC GLOBAL DEFAULT 14 _ZN7android15C2Allocation
1157:   FUNC GLOBAL DEFAULT 14 _ZN7android15C2Allocation
1158:   FUNC GLOBAL DEFAULT 14 _ZN12C2FieldUtils4ListC2E
1159:   FUNC WEAK DEFAULT 14 _ZN16C2SupportedFlagsIhEC
1160:   FUNC WEAK DEFAULT 14 _ZN16C2SupportedFlagsIiEC
1161:   FUNC WEAK DEFAULT 14 _ZN16C2SupportedRangeIfE7
1162:   OBJECT WEAK DEFAULT 13 _ZN16C2SupportedRangeIjE8
1163:   FUNC WEAK DEFAULT 14 _ZN25C2ParamFieldValuesBu
1164:   FUNC GLOBAL DEFAULT 14 _ZN23C2SettingResultsBuil
1165:   FUNC WEAK DEFAULT 14 _ZNK16C2SupportedRangeIjE
1166:   FUNC GLOBAL DEFAULT 14 _ZNK7android18C2Allocator
1167:   FUNC GLOBAL DEFAULT 14 _ZN17C2PooledBlockPoolC1E
1168:   FUNC WEAK DEFAULT 14 _ZNSt3__120__shared_ptr_e
1169:   FUNC WEAK DEFAULT 14 _ZNK17C2InterfaceHelper5F
1170:   FUNC WEAK DEFAULT 14 _ZN16C2SupportedRangeIjE1
1171:   FUNC WEAK DEFAULT 14 _ZN28C2FieldSupportedValu
1172:   FUNC WEAK DEFAULT 14 _ZN16C2SupportedFlagsIjEC
1173:   FUNC GLOBAL DEFAULT 14 _ZNK16C2SupportedFlagsIfE
1174:   FUNC GLOBAL DEFAULT 14 _ZN27C2PlatformStorePlugi
1175:   FUNC WEAK DEFAULT 14 _ZN25C2ParamFieldValuesBu
1176:   FUNC WEAK DEFAULT 14 _ZN25C2ParamFieldValuesBu
1177:   FUNC WEAK DEFAULT 14 _ZN25C2ParamFieldValuesBu
1178:   FUNC GLOBAL DEFAULT 14 _ZN7android8hardware8grap
1179:   FUNC GLOBAL DEFAULT 14 _ZN12C2FieldUtils15enumer
1180:   FUNC GLOBAL DEFAULT 14 __aeabi_d2lz
1181:   FUNC WEAK DEFAULT 14 _ZN16C2SupportedRangeIfE2
1182:   FUNC WEAK DEFAULT 14 _ZN25C2ParamFieldValuesBu
1183:   FUNC WEAK DEFAULT 14 _ZN25C2ParamFieldValuesBu
1184:   FUNC GLOBAL DEFAULT 14 _ZNK12C2BufferData4typeEv
1185:   FUNC WEAK DEFAULT 14 _ZN17C2InterfaceHelper5Fi
1186:   FUNC GLOBAL DEFAULT 14 _ZNK12C2FieldUtils4Info12
1187:   FUNC WEAK DEFAULT 14 _ZNK16C2SupportedFlagsIcE
1188:   FUNC WEAK DEFAULT 14 _ZNK16C2SupportedRangeIfE
1189:   FUNC WEAK DEFAULT 14 _ZNK19C2SupportedValueSet
1190:   FUNC WEAK DEFAULT 14 _ZNSt3__120__shared_ptr_e
1191:   FUNC WEAK DEFAULT 14 _ZNSt3__120__shared_ptr_p
1192:   FUNC GLOBAL DEFAULT 14 _ZN17C2ReflectorHelper20a
1193:   FUNC WEAK DEFAULT 14 _ZN25C2ParamFieldValuesBu
1194:   FUNC WEAK DEFAULT 14 _ZN16C2SupportedRangeIjE1
1195:   FUNC GLOBAL DEFAULT 14 _ZN7android18C2AllocatorG
1196:   FUNC GLOBAL DEFAULT 14 _ZN15_C2BlockFactory25Dis
1197:   FUNC WEAK DEFAULT 14 _ZN16C2SupportedFlagsIcE5
1198:   FUNC WEAK DEFAULT 14 _ZN25C2ParamFieldValuesBu
1199:   FUNC GLOBAL DEFAULT 14 _ZNK12C2FieldUtils4Info4n
1200:   FUNC GLOBAL DEFAULT 14 _ZN24C2TemporalLayeringSt
1201:   FUNC WEAK DEFAULT 14 _ZN19C2SupportedValueSetI
1202:   FUNC WEAK DEFAULT 14 _ZN28C2FieldSupportedValu
1203:   FUNC WEAK DEFAULT 14 _ZNSt3__16vectorIN17C2Int
1204:   FUNC WEAK DEFAULT 14 _ZN25C2ParamFieldValuesBu
1205:   FUNC WEAK DEFAULT 14 _ZN28C2FieldSupportedValu
1206:   FUNC WEAK DEFAULT 14 _ZNK16C2SupportedRangeIyE
1207:   FUNC WEAK DEFAULT 14 _ZNK16C2SupportedFlagsIxE
1208:   FUNC WEAK DEFAULT 14 _ZNK28C2FieldSupportedVal
1209:   FUNC WEAK DEFAULT 14 _ZN17C2InterfaceHelper5Fi
1210:   FUNC WEAK DEFAULT 14 _ZN17C2InterfaceHelper5Fi
1211:   FUNC WEAK DEFAULT 14 _ZN16C2SupportedFlagsIxE5
1212:   FUNC WEAK DEFAULT 14 _ZN19C2SupportedValueSetI
1213:   FUNC WEAK DEFAULT 14 _ZN25C2ParamFieldValuesBu
1214:   FUNC WEAK DEFAULT 14 _ZN25C2ParamFieldValuesBu
1215:   FUNC GLOBAL DEFAULT 14 _ZN11C2WriteView4baseEv
1216:   FUNC WEAK DEFAULT 14 _ZNSt3__120__shared_ptr_e
1217:   FUNC GLOBAL DEFAULT 14 _ZN20C2IntraRefreshStruct
1218:   FUNC WEAK DEFAULT 14 _ZNK17C2InterfaceHelper5F
1219:   FUNC WEAK DEFAULT 14 _ZN25C2ParamFieldValuesBu
1220:   FUNC GLOBAL DEFAULT 14 _ZNK16C2SupportedFlagsIfE
1221:   FUNC WEAK DEFAULT 14 _ZNSt3__16vectorIN7C2Valu
1222:   OBJECT WEAK DEFAULT 18 _ZTVNSt3__120__shared_ptr
1223:   FUNC WEAK DEFAULT 14 _ZN17C2InterfaceHelper5Fi
1224:   FUNC WEAK DEFAULT 14 _ZN19C2SupportedValueSetI
1225:   FUNC GLOBAL DEFAULT 14 _ZN8C2Buffer23registerOnD
1226:   FUNC WEAK DEFAULT 14 _ZNSt3__110shared_ptrIN7a
1227:   FUNC WEAK DEFAULT 14 _ZN16C2SupportedRangeIiE3
1228:   FUNC WEAK DEFAULT 14 _ZNSt3__120__shared_ptr_p
1229:   FUNC GLOBAL DEFAULT 14 _ZN15_C2BlockFactory27End
1230:   FUNC GLOBAL DEFAULT 14 _ZN15C2ColorXyStruct9Fiel
1231:   FUNC WEAK DEFAULT 14 _ZN25C2ParamFieldValuesBu
1232:   FUNC WEAK DEFAULT 14 _ZN25C2ParamFieldValuesBu
1233:   FUNC WEAK DEFAULT 14 _ZN25C2ParamFieldValuesBu
1234:   FUNC WEAK DEFAULT 14 _ZN25C2ParamFieldValuesBu
1235:   FUNC WEAK DEFAULT 14 _ZNSt3__120__shared_ptr_p
1236:   FUNC GLOBAL DEFAULT 14 _ZN12C2FieldUtils11locate
1237:   FUNC WEAK DEFAULT 14 _ZN25C2ParamFieldValuesBu
1238:   FUNC WEAK DEFAULT 14 _ZNSt3__16vectorINS_4pair
1239:   FUNC WEAK DEFAULT 14 _ZN25C2ParamFieldValuesBu
1240:   FUNC WEAK DEFAULT 14 _ZN25C2ParamFieldValuesBu
1241:   FUNC WEAK DEFAULT 14 _ZN25C2ParamFieldValuesBu
1242:   FUNC GLOBAL DEFAULT 14 _ZN25C2SettingConflictsBu
1243:   FUNC WEAK DEFAULT 14 _ZN16C2SupportedFlagsIcEC
1244:   FUNC WEAK DEFAULT 14 _ZN19C2SupportedValueSetI
1245:   FUNC WEAK DEFAULT 14 _ZN25C2ParamFieldValuesBu
1246:   FUNC WEAK DEFAULT 14 _ZN28C2FieldSupportedValu
1247:   FUNC WEAK DEFAULT 14 _ZNK25C2ParamFieldValuesB
1248:   FUNC GLOBAL DEFAULT 14 _ZN17C2InterfaceHelper11P
1249:   FUNC WEAK DEFAULT 14 _ZN25C2ParamFieldValuesBu
1250:   FUNC GLOBAL DEFAULT 14 _ZN8C2BufferC2ERKNSt3__16
1251:   FUNC GLOBAL DEFAULT 14 _ZN7android24C2PlatformCo
1252:   FUNC WEAK DEFAULT 14 _ZNSt3__18weak_ptrI16C2Co
1253:   FUNC GLOBAL DEFAULT 14 _ZN7android8hardware8grap
1254:   FUNC WEAK DEFAULT 14 _ZlsIhERNSt3__113basic_os
1255:   FUNC WEAK DEFAULT 14 _ZNK28C2FieldSupportedVal
1256:   FUNC WEAK DEFAULT 14 _ZN16C2SupportedFlagsIjEC
1257:   FUNC WEAK DEFAULT 14 _ZN19C2SupportedValueSetI
1258:   FUNC WEAK DEFAULT 14 _ZN25C2ParamFieldValuesBu
1259:   FUNC WEAK DEFAULT 14 _ZN25C2ParamFieldValuesBu
1260:   FUNC WEAK DEFAULT 14 _ZNSt3__112__hash_tableIN
1261:   FUNC GLOBAL DEFAULT 14 _ZN12C2BufferDataC2ERKNSt
1262:   FUNC WEAK DEFAULT 14 _ZN16C2SupportedFlagsIyEC
1263:   FUNC GLOBAL DEFAULT 14 _ZNK10C2ReadView7subViewE
1264:   FUNC WEAK DEFAULT 14 _ZNSt3__120__shared_ptr_p
1265:   FUNC WEAK DEFAULT 14 _ZN25C2ParamFieldValuesBu
1266:   FUNC WEAK DEFAULT 14 _ZNK28C2FieldSupportedVal
1267:   FUNC WEAK DEFAULT 14 _ZN19C2SupportedValueSetI
1268:   FUNC WEAK DEFAULT 14 _ZNK25C2ParamFieldValuesB
1269:   FUNC GLOBAL DEFAULT 14 _ZlsRNSt3__113basic_ostre
1270:   FUNC WEAK DEFAULT 14 _ZN19C2SupportedValueSetI
1271:   FUNC GLOBAL DEFAULT 14 _ZN17C2FieldDescriptor14n
1272:   FUNC GLOBAL DEFAULT 14 _ZN17C2FieldDescriptor14n
1273:   FUNC WEAK DEFAULT 14 _ZNK16C2SupportedFlagsIjE
1274:   FUNC WEAK DEFAULT 14 _ZNK16C2SupportedFlagsIyE
1275:   FUNC WEAK DEFAULT 14 _ZNK28C2FieldSupportedVal
1276:   FUNC WEAK DEFAULT 14 _ZN16C2SupportedFlagsIiE4
1277:   FUNC WEAK DEFAULT 14 _ZN25C2ParamFieldValuesBu
1278:   OBJECT GLOBAL DEFAULT 23 _ZN20C2ProfileLevelStruct
1279:   OBJECT WEAK DEFAULT 18 _ZTVNSt3__120__shared_ptr
1280:   FUNC WEAK DEFAULT 14 _ZNK16C2SupportedFlagsIhE
1281:   FUNC WEAK DEFAULT 14 _ZNK19C2SupportedValueSet
1282:   FUNC GLOBAL DEFAULT 14 _ZN23C2SettingResultsBuil
1283:   FUNC GLOBAL DEFAULT 14 _ZN22C2BufferQueueBlockPo
1284:   FUNC WEAK DEFAULT 14 _ZN19C2SupportedValueSetI
1285:   FUNC WEAK DEFAULT 14 _ZN25C2ParamFieldValuesBu
1286:   FUNC WEAK DEFAULT 14 _ZN25C2ParamFieldValuesBu
1287:   FUNC GLOBAL DEFAULT 14 _ZN15_C2BlockFactory17Cre
1288:   FUNC GLOBAL DEFAULT 14 _ZN27C2PlatformStorePlugi
1289:   FUNC GLOBAL DEFAULT 14 _ZN7android28C2PlatformAl
1290:   FUNC GLOBAL DEFAULT 14 _ZN17C2InterfaceHelper11P
1291:   FUNC GLOBAL DEFAULT 14 _ZN12C2BufferDataC1ERKNSt
1292:   FUNC WEAK DEFAULT 14 _ZN25C2ParamFieldValuesBu
1293:   FUNC WEAK DEFAULT 14 _ZNK17C2InterfaceHelper5F
1294:   FUNC WEAK DEFAULT 14 _ZN28C2FieldSupportedValu
1295:   FUNC WEAK DEFAULT 14 _ZNK25C2ParamFieldValuesB
1296:   FUNC GLOBAL DEFAULT 14 _ZN19C2ConstGraphicBlockC
1297:   OBJECT WEAK DEFAULT 18 _ZTVNSt3__120__shared_ptr
1298:   FUNC GLOBAL DEFAULT 14 _ZN7android14C2AllocatorI
1299:   FUNC WEAK DEFAULT 14 _ZNK19C2SupportedValueSet
1300:   FUNC WEAK DEFAULT 14 _ZNK16C2SupportedFlagsIjE
1301:   FUNC WEAK DEFAULT 14 _ZN25C2ParamFieldValuesBu
1302:   FUNC WEAK DEFAULT 14 _ZN25C2ParamFieldValuesBu
1303:   FUNC WEAK DEFAULT 14 _ZN25C2ParamFieldValuesBu
1304:   FUNC WEAK DEFAULT 14 _ZNK16C2SupportedRangeIxE
1305:   FUNC GLOBAL DEFAULT 14 __floatdidf
1306:   OBJECT GLOBAL DEFAULT 23 _ZN24C2SupplementalDataSt
1307:   FUNC GLOBAL DEFAULT 14 _ZN27C2PlatformStorePlugi
1308:   FUNC WEAK DEFAULT 14 _ZlsIcERNSt3__113basic_os
1309:   FUNC GLOBAL DEFAULT 14 _ZN17C2PooledBlockPoolD2E
1310:   FUNC WEAK DEFAULT 14 _ZN16C2SupportedFlagsIcEC
1311:   FUNC WEAK DEFAULT 14 _ZN16C2SupportedRangeIiE7
1312:   FUNC WEAK DEFAULT 14 _ZN19C2SupportedValueSetI
1313:   FUNC WEAK DEFAULT 14 _ZN25C2ParamFieldValuesBu
1314:   FUNC WEAK DEFAULT 14 _ZNK16C2SupportedRangeIhE
1315:   FUNC GLOBAL DEFAULT 14 _ZN7android18C2AllocatorG
1316:   OBJECT WEAK DEFAULT 18 _ZTVNSt3__120__shared_ptr
1317:   FUNC WEAK DEFAULT 14 _ZNSt3__16__treeINS_12__v
1318:   FUNC WEAK DEFAULT 14 _ZN25C2ParamFieldValuesBu
1319:   FUNC GLOBAL DEFAULT 14 _ZN8C2Buffer7setInfoERKNS
1320:   FUNC WEAK DEFAULT 14 _ZN25C2ParamFieldValuesBu
1321:   FUNC WEAK DEFAULT 14 _ZN19C2SupportedValueSetI
1322:   FUNC GLOBAL DEFAULT 14 _ZN17C2InterfaceHelper11P
1323:   FUNC WEAK DEFAULT 14 _ZN28C2FieldSupportedValu
1324:   OBJECT WEAK DEFAULT 18 _ZTVNSt3__120__shared_ptr
1325:   FUNC WEAK DEFAULT 14 _ZN25C2ParamFieldValuesBu
1326:   FUNC WEAK DEFAULT 14 _ZNSt3__112__hash_tableIN
1327:   OBJECT GLOBAL DEFAULT 18 _ZTVN7android15C2Allocati
1328:   FUNC GLOBAL DEFAULT 14 _ZN10C2ReadViewC2E11c2_st
1329:   OBJECT GLOBAL DEFAULT 23 _ZN35C2MasteringDisplayCo
1330:   FUNC GLOBAL DEFAULT 14 _ZN7android24C2PlatformCo
1331:   FUNC GLOBAL DEFAULT 14 _ZN7android18C2AllocatorG
1332:   FUNC GLOBAL DEFAULT 14 _ZN10C2ReadViewC2ENSt3__1
1333:   FUNC WEAK DEFAULT 14 _ZN25C2ParamFieldValuesBu
1334:   FUNC WEAK DEFAULT 14 _ZlsIxERNSt3__113basic_os
1335:   FUNC WEAK DEFAULT 14 _ZN25C2ParamFieldValuesBu
1336:   FUNC WEAK DEFAULT 14 _ZNK16C2SupportedFlagsIhE
1337:   FUNC WEAK DEFAULT 14 _ZNK16C2SupportedRangeIiE
1338:   FUNC GLOBAL DEFAULT 14 _ZN22_C2BufferPoolAllocat
1339:   FUNC WEAK DEFAULT 14 _ZNSt3__120__shared_ptr_p
1340:   FUNC WEAK DEFAULT 14 _ZN16C2SupportedRangeIfEC
1341:   OBJECT WEAK DEFAULT 18 _ZTV25C2ParamFieldValuesB
1342:   OBJECT GLOBAL DEFAULT 23 _ZN20C2ColorAspectsStruct
1343:   FUNC GLOBAL DEFAULT 14 _ZNK7android24C2PlatformC
1344:   OBJECT WEAK DEFAULT 13 _ZN16C2SupportedRangeIxE9
1345:   FUNC WEAK DEFAULT 14 _ZNSt3__120__shared_ptr_p
1346:   FUNC GLOBAL DEFAULT 14 _ZN7android28C2PlatformAl
1347:   OBJECT WEAK DEFAULT 13 _ZN16C2SupportedRangeIcE8
1348:   FUNC WEAK DEFAULT 14 _ZN25C2ParamFieldValuesBu
1349:   FUNC WEAK DEFAULT 14 _ZN25C2ParamFieldValuesBu
1350:   FUNC WEAK DEFAULT 14 _ZN19C2SupportedValueSetI
1351:   FUNC GLOBAL DEFAULT 14 _ZNK13C2GraphicView6layou
1352:   FUNC GLOBAL DEFAULT 14 _ZNK19C2ConstGraphicBlock
1353:   FUNC WEAK DEFAULT 14 _ZNK16C2SupportedFlagsIyE
1354:   FUNC WEAK DEFAULT 14 _ZN28C2FieldSupportedValu
1355:   FUNC WEAK DEFAULT 14 _ZNSt3__16vectorIN12C2Fie
1356:   OBJECT WEAK DEFAULT 18 _ZTV8C2Buffer
1357:   OBJECT WEAK DEFAULT 18 _ZTVNSt3__120__shared_ptr
1358:   OBJECT GLOBAL DEFAULT 18 _ZTV22C2BufferQueueBlockP
1359:   FUNC WEAK DEFAULT 14 _ZN16C2SupportedFlagsIyE5
1360:   FUNC WEAK DEFAULT 14 _ZN16C2SupportedRangeIyE1
1361:   FUNC WEAK DEFAULT 14 _ZN25C2ParamFieldValuesBu
1362:   FUNC GLOBAL DEFAULT 14 _ZN17C2FieldDescriptor14n
1363:   FUNC WEAK DEFAULT 14 _ZNSt3__16vectorIN7C2Para
1364:   FUNC WEAK DEFAULT 14 _ZN16C2SupportedFlagsIhEC
1365:   FUNC GLOBAL DEFAULT 14 _ZN20C2ProfileLevelStruct
1366:   FUNC WEAK DEFAULT 14 _ZN25C2ParamFieldValuesBu
1367:   FUNC WEAK DEFAULT 14 _ZNSt3__16__treeINS_12__v
1368:   FUNC WEAK DEFAULT 14 _ZNK17C2InterfaceHelper5F
1369:   OBJECT WEAK DEFAULT 18 _ZTV22SupportedValuesBuil
1370:   FUNC WEAK DEFAULT 14 _ZN25C2ParamFieldValuesBu
1371:   FUNC GLOBAL DEFAULT 14 _ZN17C2FieldDescriptor14n
1372:   FUNC WEAK DEFAULT 14 _ZN17C2InterfaceHelper5Fi
1373:   FUNC WEAK DEFAULT 14 _ZN25C2ParamFieldValuesBu
1374:   FUNC WEAK DEFAULT 14 _ZN19C2SupportedValueSetI
1375:   FUNC WEAK DEFAULT 14 _ZN25C2ParamFieldValuesBu
1376:   FUNC GLOBAL DEFAULT 14 _ZN25C2SettingConflictsBu
1377:   FUNC WEAK DEFAULT 14 _ZNK19C2SupportedValueSet
1378:   FUNC GLOBAL DEFAULT 14 _ZNK7android20C2AndroidMe
1379:   FUNC WEAK DEFAULT 14 _ZN25C2ParamFieldValuesBu
1380:   FUNC WEAK DEFAULT 14 _ZN25C2ParamFieldValuesBu
1381:   FUNC WEAK DEFAULT 14 _ZNSt3__16vectorIN7C2Valu
1382:   FUNC GLOBAL DEFAULT 14 _ZN7android18C2AllocatorG
1383:   FUNC WEAK DEFAULT 14 _ZNSt3__120__shared_ptr_p
1384:   FUNC GLOBAL DEFAULT 14 _ZNK16C2SupportedFlagsIfE
1385:   FUNC GLOBAL DEFAULT 14 _ZN17C2InterfaceHelper11P
1386:   FUNC WEAK DEFAULT 14 _ZNK19C2SupportedValueSet
1387:   OBJECT WEAK DEFAULT 18 _ZTVN7android15C2Allocati
1388:   FUNC GLOBAL DEFAULT 14 _ZN26C2BufferQueueBlockPo
1389:   FUNC WEAK DEFAULT 14 _ZN25C2ParamFieldValuesBu
1390:   FUNC GLOBAL DEFAULT 14 _ZN19C2PictureSizeStruct9
1391:   FUNC GLOBAL DEFAULT 14 _ZN7android8hardware8grap
1392:   FUNC WEAK DEFAULT 14 _ZN16C2SupportedFlagsIhEC
1393:   FUNC GLOBAL DEFAULT 14 _ZNK11C2WriteView5errorEv
1394:   FUNC GLOBAL DEFAULT 14 _ZN17C2FieldDescriptor14n
1395:   FUNC WEAK DEFAULT 14 _ZN16C2SupportedRangeIjE8
1396:   FUNC WEAK DEFAULT 14 _ZN25C2ParamFieldValuesBu
1397:   FUNC WEAK DEFAULT 14 _ZNK19C2SupportedValueSet
1398:   FUNC GLOBAL DEFAULT 14 _ZN14C2GraphicBlockC2ENSt
1399:   FUNC GLOBAL DEFAULT 14 _ZN8C2BufferC1ERKNSt3__16
1400:   FUNC GLOBAL DEFAULT 14 _ZN17C2FieldDescriptor14n
1401:   FUNC GLOBAL DEFAULT 14 _ZN17C2FieldDescriptor14n
1402:   FUNC WEAK DEFAULT 14 _ZN25C2ParamFieldValuesBu
1403:   FUNC WEAK DEFAULT 14 _ZNK19C2SupportedValueSet
1404:   FUNC WEAK DEFAULT 14 _ZNSt3__120__shared_ptr_e
1405:   FUNC WEAK DEFAULT 14 _ZNSt3__16__treeINS_12__v
1406:   FUNC GLOBAL DEFAULT 14 _ZN15_C2BlockFactory18Cre
1407:   FUNC WEAK DEFAULT 14 _ZN16C2SupportedRangeIfE1
1408:   FUNC WEAK DEFAULT 14 _ZNK19C2SupportedValueSet
1409:   FUNC WEAK DEFAULT 14 _ZNSt3__110__function6__f
1410:   OBJECT WEAK DEFAULT 13 _ZN16C2SupportedRangeIiE9
1411:   FUNC WEAK DEFAULT 14 _ZN16C2SupportedRangeIyE3
1412:   FUNC WEAK DEFAULT 14 _ZN25C2ParamFieldValuesBu
1413:   FUNC WEAK DEFAULT 14 _ZNSt3__120__shared_ptr_e
1414:   FUNC WEAK DEFAULT 14 _ZN16C2SupportedRangeIyE7
1415:   FUNC WEAK DEFAULT 14 _ZN25C2ParamFieldValuesBu
1416:   FUNC WEAK DEFAULT 14 _ZN17C2InterfaceHelper5Fi
1417:   FUNC WEAK DEFAULT 14 _ZN19C2SupportedValueSetI
1418:   FUNC WEAK DEFAULT 14 _ZN25C2ParamFieldValuesBu
1419:   FUNC GLOBAL DEFAULT 14 _ZN13C2LinearBlock5shareE
1420:   FUNC GLOBAL DEFAULT 14 _ZN15_C2BlockFactory17Cre
1421:   FUNC GLOBAL DEFAULT 14 _ZN12C2RectStruct9FieldLi
1422:   FUNC GLOBAL DEFAULT 14 _ZN17C2FieldDescriptor14n
1423:   OBJECT WEAK DEFAULT 13 _ZN16C2SupportedRangeIfE9
1424:   FUNC WEAK DEFAULT 14 _ZN17C2InterfaceHelper5Fi
1425:   FUNC WEAK DEFAULT 14 _ZN16C2SupportedFlagsIcEC
1426:   FUNC WEAK DEFAULT 14 _ZN16C2SupportedRangeIhE1
1427:   FUNC WEAK DEFAULT 14 _ZN19C2SupportedValueSetI
1428:   FUNC WEAK DEFAULT 14 _ZN25C2ParamFieldValuesBu
1429:   FUNC WEAK DEFAULT 14 _ZNK19C2SupportedValueSet
1430:   FUNC WEAK DEFAULT 14 _ZN16C2SupportedFlagsIjE5
1431:   FUNC GLOBAL DEFAULT 14 _ZN7android14C2AllocatorI
1432:   FUNC WEAK DEFAULT 14 _ZNSt3__120__shared_ptr_p
1433:   FUNC GLOBAL DEFAULT 14 _ZN27C2PlatformStorePlugi
1434:   FUNC WEAK DEFAULT 14 _ZN25C2ParamFieldValuesBu
1435:   FUNC WEAK DEFAULT 14 _ZNSt3__120__shared_ptr_e
1436:   FUNC WEAK DEFAULT 14 _ZN16C2SupportedFlagsIyE5
1437:   FUNC WEAK DEFAULT 14 _ZNK16C2SupportedRangeIhE
1438:   FUNC GLOBAL DEFAULT 14 _ZN8C2Buffer10removeInfoE
1439:   FUNC WEAK DEFAULT 14 _ZNSt3__120__shared_ptr_e
1440:   FUNC WEAK DEFAULT 14 _ZN17C2InterfaceHelper5Fi
1441:   FUNC WEAK DEFAULT 14 _ZN16C2SupportedRangeIfEC
1442:   FUNC WEAK DEFAULT 14 _ZN25C2ParamFieldValuesBu
1443:   FUNC WEAK DEFAULT 14 _ZNK17C2InterfaceHelper5F
1444:   FUNC GLOBAL DEFAULT 14 _ZNK17C2ReflectorHelper8d
1445:   FUNC WEAK DEFAULT 14 _ZN19C2SupportedValueSetI
1446:   FUNC GLOBAL DEFAULT 14 _ZNK12C2FieldUtils4Info5i
1447:   FUNC WEAK DEFAULT 14 _ZNK16C2SupportedRangeIyE
1448:   FUNC GLOBAL DEFAULT 14 _ZN17C2PooledBlockPoolD1E
1449:   OBJECT WEAK DEFAULT 18 _ZTVNSt3__120__shared_ptr
1450:   FUNC GLOBAL DEFAULT 14 _ZN20C2ChromaOffsetStruct
1451:   FUNC WEAK DEFAULT 14 _ZN16C2SupportedRangeIhE1
1452:   FUNC WEAK DEFAULT 14 _ZN19C2SupportedValueSetI
1453:   FUNC WEAK DEFAULT 14 _ZN25C2ParamFieldValuesBu
1454:   FUNC WEAK DEFAULT 14 _ZNSt3__16vectorIN7C2Valu
1455:   OBJECT WEAK DEFAULT 18 _ZTVNSt3__120__shared_ptr
1456:   FUNC GLOBAL DEFAULT 14 _ZN12_C2EnumUtils17camelC
1457:   FUNC GLOBAL DEFAULT 14 _ZN35C2MasteringDisplayCo
1458:   FUNC WEAK DEFAULT 14 _ZNSt3__16vectorINS_4pair
1459:   FUNC GLOBAL DEFAULT 14 _ZNK17C2InterfaceHelper11
1460:   FUNC WEAK DEFAULT 14 _ZN19C2SupportedValueSetI
1461:   FUNC WEAK DEFAULT 14 _ZN25C2ParamFieldValuesBu
1462:   FUNC WEAK DEFAULT 14 _ZN25C2ParamFieldValuesBu
1463:   FUNC WEAK DEFAULT 14 _ZN25C2ParamFieldValuesBu
1464:   FUNC WEAK DEFAULT 14 _ZNK28C2FieldSupportedVal
1465:   FUNC GLOBAL DEFAULT 14 _ZN7android28C2PlatformAl
1466:   FUNC WEAK DEFAULT 14 _ZlsIjERNSt3__113basic_os
1467:   FUNC WEAK DEFAULT 14 _ZN28C2FieldSupportedValu
1468:   FUNC WEAK DEFAULT 14 _ZNK16C2SupportedFlagsIyE
1469:   FUNC GLOBAL DEFAULT 14 _ZNK8C2Buffer4infoEv
1470:   FUNC GLOBAL DEFAULT 14 _ZN7android24C2PlatformCo
1471:   FUNC WEAK DEFAULT 14 _ZN16C2SupportedRangeIjE1
1472:   FUNC GLOBAL DEFAULT 14 _ZNK13C2GraphicView4dataE
1473:   OBJECT GLOBAL DEFAULT 23 _ZN24C2TemporalLayeringSt
1474:   FUNC GLOBAL DEFAULT 14 _ZN22C2BufferQueueBlockPo
1475:   FUNC WEAK DEFAULT 14 _ZNK16C2SupportedFlagsIxE
1476:   FUNC WEAK DEFAULT 14 _ZN19C2SupportedValueSetI
1477:   FUNC WEAK DEFAULT 14 _ZNK17C2InterfaceHelper5F
1478:   FUNC WEAK DEFAULT 14 _ZN19C2SupportedValueSetI
1479:   FUNC WEAK DEFAULT 14 _ZN25C2ParamFieldValuesBu
1480:   FUNC WEAK DEFAULT 14 _ZN25C2ParamFieldValuesBu
1481:   FUNC WEAK DEFAULT 14 _ZN25C2ParamFieldValuesBu
1482:   FUNC WEAK DEFAULT 14 _ZNSt3__16vectorIN7C2Valu
1483:   OBJECT WEAK DEFAULT 18 _ZTV25C2ParamFieldValuesB
1484:   FUNC GLOBAL DEFAULT 14 __aeabi_ul2d
1485:   FUNC GLOBAL DEFAULT 14 _ZN7android19C2Allocation
1486:   FUNC GLOBAL DEFAULT 14 _ZNK9C2Block2D6handleEv
1487:   FUNC WEAK DEFAULT 14 _ZN25C2ParamFieldValuesBu
1488:   FUNC WEAK DEFAULT 14 _ZNSt3__16vectorINS_12bas
1489:   FUNC GLOBAL DEFAULT 14 _ZN7android14C2AllocatorI
1490:   FUNC GLOBAL DEFAULT 14 _ZN24C2SupplementalDataSt
1491:   FUNC GLOBAL DEFAULT 14 _ZN7android24C2PlatformCo
1492:   FUNC WEAK DEFAULT 14 _ZN28C2FieldSupportedValu
1493:   FUNC WEAK DEFAULT 14 _ZN16C2SupportedFlagsIyEC
1494:   FUNC GLOBAL DEFAULT 14 _ZNK12C2FieldUtils8Iterat
1495:   FUNC WEAK DEFAULT 14 _ZN17C2InterfaceHelper5Fi
1496:   FUNC WEAK DEFAULT 14 _ZN17C2InterfaceHelper5Fi
1497:   FUNC WEAK DEFAULT 14 _ZN28C2FieldSupportedValu
1498:   FUNC GLOBAL DEFAULT 14 _ZNK12C2FieldUtils4Info6p
1499:   FUNC GLOBAL DEFAULT 14 _ZN11C2WriteViewC2E11c2_s
1500:   FUNC GLOBAL DEFAULT 14 _ZN9C2Block1DC1ENSt3__110
1501:   FUNC WEAK DEFAULT 14 _ZNSt3__120__shared_ptr_e
1502:   FUNC GLOBAL DEFAULT 14 _ZN7android24C2PlatformCo
1503:   FUNC WEAK DEFAULT 14 _ZNK16C2SupportedRangeIxE
1504:   FUNC GLOBAL DEFAULT 14 _ZlsRNSt3__113basic_ostre
1505:   FUNC WEAK DEFAULT 14 _ZN17C2InterfaceHelper5Fi
1506:   FUNC WEAK DEFAULT 14 _ZN25C2ParamFieldValuesBu
1507:   FUNC WEAK DEFAULT 14 _ZNK28C2FieldSupportedVal
1508:   OBJECT WEAK DEFAULT 18 _ZTVN9C2Block2D4ImplE
1509:   OBJECT GLOBAL DEFAULT 23 _ZN12C2RectStruct11_FIELD
1510:   OBJECT WEAK DEFAULT 18 _ZTVNSt3__120__shared_ptr
1511:   FUNC WEAK DEFAULT 14 _ZN25C2ParamFieldValuesBu
1512:   FUNC WEAK DEFAULT 14 _ZN25C2ParamFieldValuesBu
1513:   FUNC GLOBAL DEFAULT 14 _ZN10C2ReadViewC1E11c2_st
1514:   FUNC GLOBAL DEFAULT 14 _ZN9C2Block1DC2ENSt3__110
1515:   FUNC WEAK DEFAULT 14 _ZN25C2ParamFieldValuesBu
1516:   FUNC WEAK DEFAULT 14 _ZNSt3__120__shared_ptr_p
1517:   FUNC GLOBAL DEFAULT 14 _ZN10C2ReadViewC1ENSt3__1
1518:   FUNC GLOBAL DEFAULT 14 _ZN22C2BasicLinearBlockPo
1519:   FUNC WEAK DEFAULT 14 _ZN19C2SupportedValueSetI
1520:   FUNC WEAK DEFAULT 14 _ZN25C2ParamFieldValuesBu
1521:   FUNC GLOBAL DEFAULT 14 _ZN7android32MigrateNativ
1522:   OBJECT WEAK DEFAULT 13 _ZN16C2SupportedRangeIhE8
1523:   FUNC WEAK DEFAULT 14 _ZN19C2SupportedValueSetI
1524:   FUNC WEAK DEFAULT 14 _ZN25C2ParamFieldValuesBu
1525:   FUNC WEAK DEFAULT 14 _ZNK28C2FieldSupportedVal
1526:   FUNC WEAK DEFAULT 14 _ZNSt3__18weak_ptrIN7andr
1527:   OBJECT GLOBAL DEFAULT 18 _ZTVN7android24C2Platform
1528:   OBJECT WEAK DEFAULT 18 _ZTVNSt3__120__shared_ptr
1529:   FUNC GLOBAL DEFAULT 14 _ZN26C2BufferQueueBlockPo
1530:   FUNC WEAK DEFAULT 14 _ZN16C2SupportedRangeIyE1
1531:   FUNC WEAK DEFAULT 14 _ZN28C2FieldSupportedValu
1532:   FUNC WEAK DEFAULT 14 _ZNK16C2SupportedFlagsIhE
1533:   FUNC GLOBAL DEFAULT 14 __divmoddi4
1534:   FUNC GLOBAL DEFAULT 14 _ZN7android24C2PlatformCo
1535:   FUNC GLOBAL DEFAULT 14 _ZN7android31GetCodec2Pla
1536:   FUNC WEAK DEFAULT 14 _ZN19C2SupportedValueSetI
1537:   FUNC WEAK DEFAULT 14 _ZN25C2ParamFieldValuesBu
1538:   FUNC GLOBAL DEFAULT 14 _ZN7android14C2AllocatorI
1539:   FUNC WEAK DEFAULT 14 _ZNSt3__16vectorINS_10sha
1540:   FUNC WEAK DEFAULT 14 _ZN16C2SupportedFlagsIyEC
1541:   FUNC WEAK DEFAULT 14 _ZN16C2SupportedRangeIfE1
1542:   FUNC WEAK DEFAULT 14 _ZNK16C2SupportedFlagsIyE
1543:   FUNC WEAK DEFAULT 14 _ZNK19C2SupportedValueSet
1544:   FUNC GLOBAL DEFAULT 14 _ZN17C2PooledBlockPool16f
1545:   OBJECT GLOBAL DEFAULT 23 _ZN17C2ColorInfoStruct11_
1546:   OBJECT GLOBAL DEFAULT 23 _ZN20C2IntraRefreshStruct
1547:   FUNC WEAK DEFAULT 14 _ZN25C2ParamFieldValuesBu
1548:   FUNC WEAK DEFAULT 14 _ZN25C2ParamFieldValuesBu
1549:   FUNC WEAK DEFAULT 14 _ZN19C2SupportedValueSetI
1550:   FUNC WEAK DEFAULT 14 _ZN19C2SupportedValueSetI
1551:   FUNC WEAK DEFAULT 14 _ZN25C2ParamFieldValuesBu
1552:   FUNC WEAK DEFAULT 14 _ZNK16C2SupportedFlagsIiE
1553:   FUNC WEAK DEFAULT 14 _ZNSt3__120__shared_ptr_p
1554:   FUNC WEAK DEFAULT 14 _ZNSt3__120__shared_ptr_e
1555:   FUNC WEAK DEFAULT 14 _ZN28C2FieldSupportedValu
1556:   FUNC GLOBAL DEFAULT 14 _ZN7android21CreateCodec2
1557:   FUNC GLOBAL DEFAULT 14 _ZNK7android8hardware8gra
1558:   FUNC WEAK DEFAULT 14 _ZN16C2SupportedFlagsIjEC
1559:   FUNC WEAK DEFAULT 14 _ZN16C2SupportedRangeIcE1
1560:   OBJECT WEAK DEFAULT 13 _ZN16C2SupportedRangeIfE8
1561:   FUNC GLOBAL DEFAULT 14 _ZN17C2FieldDescriptor14n
1562:   FUNC WEAK DEFAULT 14 _ZNK25C2ParamFieldValuesB
1563:   FUNC WEAK DEFAULT 14 _ZN25C2ParamFieldValuesBu
1564:   FUNC WEAK DEFAULT 14 _ZN25C2ParamFieldValuesBu
1565:   FUNC WEAK DEFAULT 14 _ZNK19C2SupportedValueSet
1566:   FUNC GLOBAL DEFAULT 14 _ZN7android24C2PlatformCo
1567:   FUNC WEAK DEFAULT 14 _ZN16C2SupportedRangeIcE3
1568:   FUNC GLOBAL DEFAULT 14 _ZNK9C2Block1D14getAlloca
1569:   FUNC WEAK DEFAULT 14 _ZN16C2SupportedRangeIfE3
1570:   FUNC WEAK DEFAULT 14 _ZNSt3__16vectorI18C2Para
1571:   OBJECT WEAK DEFAULT 18 _ZTV25C2ParamFieldValuesB
1572:   FUNC GLOBAL DEFAULT 14 _ZN7android15C2Allocation
1573:   FUNC WEAK DEFAULT 14 _ZN16C2SupportedFlagsIxE5
1574:   FUNC WEAK DEFAULT 14 _ZN25C2ParamFieldValuesBu
1575:   FUNC WEAK DEFAULT 14 _ZNK28C2FieldSupportedVal
1576:   FUNC WEAK DEFAULT 14 _ZN16C2SupportedFlagsIcE4
1577:   FUNC WEAK DEFAULT 14 _ZN19C2SupportedValueSetI
1578:   FUNC WEAK DEFAULT 14 _ZNSt3__16__treeINS_12__v
1579:   FUNC WEAK DEFAULT 14 _ZlsIjERNSt3__113basic_os
1580:   FUNC WEAK DEFAULT 14 _ZN25C2ParamFieldValuesBu
1581:   FUNC GLOBAL DEFAULT 14 __aeabi_memcpy
1582:   FUNC GLOBAL DEFAULT 14 _ZN7android8hardware8grap
1583:   FUNC WEAK DEFAULT 14 _ZNK28C2FieldSupportedVal
1584:   FUNC WEAK DEFAULT 14 _ZNSt3__16vectorINS_10uni
1585:   FUNC WEAK DEFAULT 14 _ZN16C2SupportedFlagsIhE5
1586:   FUNC WEAK DEFAULT 14 _ZN19C2SupportedValueSetI
1587:   FUNC GLOBAL DEFAULT 14 _ZN17C2PooledBlockPoolD0E
1588:   FUNC GLOBAL DEFAULT 14 _ZN30C2TimestampGapAdjust
1589:   FUNC WEAK DEFAULT 14 _ZN16C2SupportedFlagsIxEC
1590:   FUNC WEAK DEFAULT 14 _ZN19C2SupportedValueSetI
1591:   FUNC WEAK DEFAULT 14 _ZN28C2FieldSupportedValu
1592:   OBJECT WEAK DEFAULT 18 _ZTVNSt3__120__shared_ptr
1593:   FUNC GLOBAL DEFAULT 14 _ZN17C2PooledBlockPoolC2E
1594:   OBJECT GLOBAL DEFAULT 23 _ZN16C2RotationStruct11_F
1595:   FUNC WEAK DEFAULT 14 _ZN25C2ParamFieldValuesBu
1596:   FUNC WEAK DEFAULT 14 _ZN28C2FieldSupportedValu
1597:   FUNC WEAK DEFAULT 14 _ZN28C2FieldSupportedValu
1598:   FUNC GLOBAL DEFAULT 14 _ZN7android28C2PlatformAl
1599:   FUNC WEAK DEFAULT 14 _ZN28C2FieldSupportedValu
1600:   FUNC WEAK DEFAULT 14 _ZNK17C2InterfaceHelper5F
1601:   FUNC WEAK DEFAULT 14 _ZN25C2ParamFieldValuesBu
1602:   FUNC WEAK DEFAULT 14 _ZN28C2FieldSupportedValu
1603:   FUNC GLOBAL DEFAULT 14 _ZNK12C2FieldUtils4Info5d
1604:   OBJECT GLOBAL DEFAULT 18 _ZTVN7android19C2Allocati
1605:   FUNC GLOBAL DEFAULT 14 _ZN7android24C2PlatformCo
1606:   FUNC WEAK DEFAULT 14 _ZNK19C2SupportedValueSet
1607:   OBJECT GLOBAL DEFAULT 13 _ZN7android11C2HandleIon7
1608:   FUNC WEAK DEFAULT 14 _ZNSt3__19remove_ifINS_11
1609:   FUNC WEAK DEFAULT 14 _ZNK19C2SupportedValueSet
1610:   FUNC WEAK DEFAULT 14 _ZNK19C2SupportedValueSet
1611:   FUNC WEAK DEFAULT 14 _ZNK25C2ParamFieldValuesB
1612:   FUNC GLOBAL DEFAULT 14 _ZN17C2FieldDescriptor14n
1613:   FUNC GLOBAL DEFAULT 14 _ZN22C2BufferQueueBlockPo
1614:   FUNC WEAK DEFAULT 14 _ZNSt3__120__shared_ptr_e
1615:   FUNC WEAK DEFAULT 14 _ZN25C2ParamFieldValuesBu
1616:   FUNC WEAK DEFAULT 14 _ZNK25C2ParamFieldValuesB
1617:   FUNC WEAK DEFAULT 14 _ZNSt3__19remove_ifINS_11
1618:   FUNC GLOBAL DEFAULT 14 __aeabi_ldivmod
1619:   FUNC GLOBAL DEFAULT 14 _ZN19C2OutOfMemoryStruct9
1620:   FUNC GLOBAL DEFAULT 14 _ZN17C2InterfaceHelper11P
1621:   FUNC WEAK DEFAULT 14 _ZN16C2SupportedRangeIfE8
1622:   FUNC WEAK DEFAULT 14 _ZN19C2SupportedValueSetI
1623:   FUNC GLOBAL DEFAULT 14 _ZN7android14C2AllocatorI
1624:   FUNC WEAK DEFAULT 14 _ZN16C2SupportedRangeIhE2
1625:   FUNC WEAK DEFAULT 14 _ZNK19C2SupportedValueSet
1626:   FUNC GLOBAL DEFAULT 14 _ZN7android18C2AllocatorG
1627:   FUNC WEAK DEFAULT 14 _ZNK17C2InterfaceHelper5F
1628:   FUNC WEAK DEFAULT 14 _ZN16C2SupportedFlagsIjE5
1629:   FUNC WEAK DEFAULT 14 _ZN19C2SupportedValueSetI
1630:   FUNC GLOBAL DEFAULT 14 _ZN17C2PooledBlockPool17f
1631:   FUNC GLOBAL DEFAULT 14 _ZN17C2FieldDescriptor14n
1632:   FUNC WEAK DEFAULT 14 _ZNSt3__16vectorINS_10uni
1633:   FUNC WEAK DEFAULT 14 _ZN16C2SupportedRangeIxEC
1634:   FUNC WEAK DEFAULT 14 _ZN25C2ParamFieldValuesBu
1635:   FUNC WEAK DEFAULT 14 _ZN25C2ParamFieldValuesBu
1636:   FUNC WEAK DEFAULT 14 _ZNSt3__16vectorIN7C2Valu
1637:   OBJECT WEAK DEFAULT 18 _ZTV22SupportedValuesBuil
1638:   FUNC WEAK DEFAULT 14 _ZN25C2ParamFieldValuesBu
1639:   FUNC WEAK DEFAULT 14 _ZNK17C2InterfaceHelper5F
1640:   OBJECT WEAK DEFAULT 13 _ZN16C2SupportedRangeIyE8
1641:   FUNC WEAK DEFAULT 14 _ZNK16C2SupportedRangeIiE
1642:   FUNC WEAK DEFAULT 14 _ZNSt3__120__shared_ptr_p
1643:   FUNC WEAK DEFAULT 14 _ZlsIjERNSt3__113basic_os
1644:   FUNC WEAK DEFAULT 14 _ZNK17C2InterfaceHelper5F
1645:   FUNC WEAK DEFAULT 14 _ZN19C2SupportedValueSetI
