 0x000000000000000e (SONAME)             Library soname: [libwifi-system-iface.so]
  
Symbol   contains 35 entries:
Num:   Type Bind Vis Ndx Name
0:   NOTYPE LOCAL DEFAULT UND
1:   FUNC GLOBAL DEFAULT UND __cxa_finalize@LIBC (2)
2:   FUNC GLOBAL DEFAULT UND _ZN7android4base10LogMess
3:   FUNC GLOBAL DEFAULT UND _ZN7android4base10LogMess
4:   FUNC GLOBAL DEFAULT UND _ZN7android4base10LogMess
5:   FUNC GLOBAL DEFAULT UND _ZN7android4base21GetMini
6:   FUNC GLOBAL DEFAULT UND _ZNKSt3__16locale9use_fac
7:   FUNC GLOBAL DEFAULT UND _ZNKSt3__18ios_base6getlo
8:   FUNC GLOBAL DEFAULT UND _ZNSt3__113basic_ostreamI
9:   FUNC GLOBAL DEFAULT UND _ZNSt3__113basic_ostreamI
10:   OBJECT GLOBAL DEFAULT UND _ZNSt3__15ctypeIcE2idE
11:   FUNC GLOBAL DEFAULT UND _ZNSt3__16localeD1Ev
12:   FUNC GLOBAL DEFAULT UND _ZNSt3__18ios_base5clearE
13:   FUNC GLOBAL DEFAULT UND _ZdlPv
14:   FUNC GLOBAL DEFAULT UND _Znwm
15:   FUNC GLOBAL DEFAULT UND __errno@LIBC (2)
16:   FUNC GLOBAL DEFAULT UND __stack_chk_fail@LIBC (2)
17:   FUNC GLOBAL DEFAULT UND __strlcpy_chk@LIBC (2)
18:   FUNC WEAK DEFAULT UND android_fdsan_close_with_@LIBC_Q (3)
19:   FUNC WEAK DEFAULT UND android_fdsan_create_owne@LIBC_Q (3)
20:   FUNC WEAK DEFAULT UND android_fdsan_exchange_ow@LIBC_Q (3)
21:   FUNC GLOBAL DEFAULT UND close@LIBC (2)
22:   FUNC GLOBAL DEFAULT UND ioctl@LIBC (2)
23:   FUNC GLOBAL DEFAULT UND malloc@LIBC (2)
24:   FUNC GLOBAL DEFAULT UND memset@LIBC (2)
25:   FUNC GLOBAL DEFAULT UND socket@LIBC (2)
26:   FUNC GLOBAL DEFAULT UND strerror@LIBC (2)
27:   FUNC GLOBAL DEFAULT UND strlen@LIBC (2)
28:   FUNC GLOBAL DEFAULT 14 _ZN7android11wifi_system1
29:   FUNC GLOBAL DEFAULT 14 _ZN7android11wifi_system1
30:   FUNC GLOBAL DEFAULT 14 _ZN7android11wifi_system1
31:   FUNC GLOBAL DEFAULT 14 _ZN7android11wifi_system1
32:   FUNC GLOBAL DEFAULT 14 _ZN7android11wifi_system1
33:   FUNC WEAK DEFAULT 14 _ZNSt3__124__put_characte
34:   OBJECT GLOBAL DEFAULT 18 _ZTVN7android11wifi_syste
