 0x000000000000000e (SONAME)             Library soname: [android.hardware.audio.common@4.0.so]
  
Symbol   contains 9 entries:
Num:   Type Bind Vis Ndx Name
0:   NOTYPE LOCAL DEFAULT UND
1:   FUNC GLOBAL DEFAULT UND __cxa_finalize@LIBC (2)
2:   FUNC GLOBAL DEFAULT UND _ZN7android8hardware21wri
3:   FUNC GLOBAL DEFAULT UND _ZN7android8hardware22rea
4:   FUNC GLOBAL DEFAULT UND _ZN7android8hardware6Parc
5:   FUNC GLOBAL DEFAULT UND _ZNK7android8hardware6Par
6:   FUNC GLOBAL DEFAULT UND __stack_chk_fail@LIBC (2)
7:   FUNC GLOBAL DEFAULT 12 _ZN7android8hardware5audi
8:   FUNC GLOBAL DEFAULT 12 _ZN7android8hardware5audi
