 0x0000000e (SONAME)                     Library soname: [android.hardware.camera.common@1.0.so]
  
Symbol   contains 21 entries:
Num:   Type Bind Vis Ndx Name
0:   NOTYPE LOCAL DEFAULT UND
1:   FUNC GLOBAL DEFAULT UND __cxa_finalize@LIBC (2)
2:   FUNC GLOBAL DEFAULT UND _ZN7android8hardware21wri
3:   FUNC GLOBAL DEFAULT UND _ZN7android8hardware22rea
4:   FUNC GLOBAL DEFAULT UND _ZN7android8hardware6Parc
5:   FUNC GLOBAL DEFAULT UND _ZNK7android8hardware6Par
6:   FUNC GLOBAL DEFAULT UND __stack_chk_fail@LIBC (2)
7:   OBJECT GLOBAL DEFAULT UND __stack_chk_guard@LIBC (2)
8:   FUNC GLOBAL DEFAULT UND memset@LIBC (2)
9:   FUNC GLOBAL DEFAULT 12 __aeabi_memclr8
10:   FUNC GLOBAL DEFAULT 12 __aeabi_memset8
11:   FUNC GLOBAL DEFAULT 12 _ZN7android8hardware6came
12:   FUNC GLOBAL DEFAULT 12 _ZN7android8hardware6came
13:   FUNC GLOBAL DEFAULT 12 __aeabi_memset
14:   FUNC GLOBAL DEFAULT 12 _ZN7android8hardware6came
15:   FUNC GLOBAL DEFAULT 12 _ZN7android8hardware6came
16:   FUNC GLOBAL DEFAULT 12 _ZN7android8hardware6came
17:   FUNC GLOBAL DEFAULT 12 _ZN7android8hardware6came
18:   FUNC GLOBAL DEFAULT 12 __aeabi_memclr
19:   FUNC GLOBAL DEFAULT 12 __aeabi_memclr4
20:   FUNC GLOBAL DEFAULT 12 __aeabi_memset4
