 0x0000000e (SONAME)                     Library soname: [android.hardware.camera.device@3.5.so]
  
Symbol   contains 575 entries:
Num:   Type Bind Vis Ndx Name
0:   NOTYPE LOCAL DEFAULT UND
1:   FUNC GLOBAL DEFAULT UND __cxa_finalize@LIBC (2)
2:   FUNC GLOBAL DEFAULT UND _ZN7android14sp_report_ra
3:   FUNC GLOBAL DEFAULT UND _ZN7android21report_syspr
4:   OBJECT GLOBAL DEFAULT UND _ZN7android4hidl4base4V1_
5:   FUNC GLOBAL DEFAULT UND _ZN7android4hidl4base4V1_
6:   FUNC GLOBAL DEFAULT UND _ZN7android4hidl4base4V1_
7:   FUNC GLOBAL DEFAULT UND _ZN7android4hidl4base4V1_
8:   FUNC GLOBAL DEFAULT UND _ZN7android4hidl4base4V1_
9:   FUNC GLOBAL DEFAULT UND _ZN7android4hidl4base4V1_
10:   FUNC GLOBAL DEFAULT UND _ZN7android4hidl4base4V1_
11:   FUNC GLOBAL DEFAULT UND _ZN7android4hidl4base4V1_
12:   FUNC GLOBAL DEFAULT UND _ZN7android4hidl4base4V1_
13:   FUNC GLOBAL DEFAULT UND _ZN7android4hidl4base4V1_
14:   FUNC GLOBAL DEFAULT UND _ZN7android4hidl4base4V1_
15:   FUNC GLOBAL DEFAULT UND _ZN7android4hidl4base4V1_
16:   FUNC GLOBAL DEFAULT UND _ZN7android4hidl4base4V1_
17:   FUNC GLOBAL DEFAULT UND _ZN7android4hidl4base4V1_
18:   FUNC GLOBAL DEFAULT UND _ZN7android4hidl4base4V1_
19:   FUNC GLOBAL DEFAULT UND _ZN7android4hidl4base4V1_
20:   FUNC GLOBAL DEFAULT UND _ZN7android4hidl4base4V1_
21:   FUNC GLOBAL DEFAULT UND _ZN7android4hidl4base4V1_
22:   FUNC GLOBAL DEFAULT UND _ZN7android4hidl4base4V1_
23:   FUNC GLOBAL DEFAULT UND _ZN7android4hidl4base4V1_
24:   FUNC GLOBAL DEFAULT UND _ZN7android4hidl4base4V1_
25:   FUNC GLOBAL DEFAULT UND _ZN7android4hidl4base4V1_
26:   FUNC GLOBAL DEFAULT UND _ZN7android4hidl4base4V1_
27:   FUNC GLOBAL DEFAULT UND _ZN7android4hidl4base4V1_
28:   FUNC GLOBAL DEFAULT UND _ZN7android7RefBase10onFi
29:   FUNC GLOBAL DEFAULT UND _ZN7android7RefBase12weak
30:   FUNC GLOBAL DEFAULT UND _ZN7android7RefBase13onLa
31:   FUNC GLOBAL DEFAULT UND _ZN7android7RefBase15onLa
32:   FUNC GLOBAL DEFAULT UND _ZN7android7RefBase20onIn
33:   FUNC GLOBAL DEFAULT UND _ZN7android7RefBaseC2Ev
34:   FUNC GLOBAL DEFAULT UND _ZN7android7RefBaseD2Ev
35:   FUNC GLOBAL DEFAULT UND _ZN7android8hardware10IIn
36:   FUNC GLOBAL DEFAULT UND _ZN7android8hardware10IIn
37:   FUNC GLOBAL DEFAULT UND _ZN7android8hardware10IIn
38:   FUNC GLOBAL DEFAULT UND _ZN7android8hardware10IIn
39:   FUNC GLOBAL DEFAULT UND _ZN7android8hardware10IIn
40:   FUNC GLOBAL DEFAULT UND _ZN7android8hardware11BpH
41:   FUNC GLOBAL DEFAULT UND _ZN7android8hardware11BpH
42:   FUNC GLOBAL DEFAULT UND _ZN7android8hardware11BpH
43:   FUNC GLOBAL DEFAULT UND _ZN7android8hardware11BpH
44:   FUNC GLOBAL DEFAULT UND _ZN7android8hardware11BpH
45:   FUNC GLOBAL DEFAULT UND _ZN7android8hardware11BpH
46:   FUNC GLOBAL DEFAULT UND _ZN7android8hardware11BpH
47:   FUNC GLOBAL DEFAULT UND _ZN7android8hardware11hid
48:   FUNC GLOBAL DEFAULT UND _ZN7android8hardware11hid
49:   FUNC GLOBAL DEFAULT UND _ZN7android8hardware11hid
50:   FUNC GLOBAL DEFAULT UND _ZN7android8hardware11hid
51:   FUNC GLOBAL DEFAULT UND _ZN7android8hardware11hid
52:   FUNC GLOBAL DEFAULT UND _ZN7android8hardware12Pro
53:   FUNC GLOBAL DEFAULT UND _ZN7android8hardware12Pro
54:   FUNC GLOBAL DEFAULT UND _ZN7android8hardware13wri
55:   FUNC GLOBAL DEFAULT UND _ZN7android8hardware14rea
56:   FUNC GLOBAL DEFAULT UND _ZN7android8hardware21def
57:   FUNC GLOBAL DEFAULT UND _ZN7android8hardware21wri
58:   FUNC GLOBAL DEFAULT UND _ZN7android8hardware22rea
59:   FUNC GLOBAL DEFAULT UND _ZN7android8hardware23get
60:   FUNC GLOBAL DEFAULT UND _ZN7android8hardware27hid
61:   FUNC GLOBAL DEFAULT UND _ZN7android8hardware27hid
62:   FUNC GLOBAL DEFAULT UND _ZN7android8hardware6Parc
63:   FUNC GLOBAL DEFAULT UND _ZN7android8hardware6Parc
64:   FUNC GLOBAL DEFAULT UND _ZN7android8hardware6Parc
65:   FUNC GLOBAL DEFAULT UND _ZN7android8hardware6Parc
66:   FUNC GLOBAL DEFAULT UND _ZN7android8hardware6Parc
67:   FUNC GLOBAL DEFAULT UND _ZN7android8hardware6Parc
68:   FUNC GLOBAL DEFAULT UND _ZN7android8hardware6Parc
69:   FUNC GLOBAL DEFAULT UND _ZN7android8hardware6Stat
70:   FUNC GLOBAL DEFAULT UND _ZN7android8hardware6Stat
71:   FUNC GLOBAL DEFAULT UND _ZN7android8hardware6Stat
72:   FUNC GLOBAL DEFAULT UND _ZN7android8hardware6Stat
73:   OBJECT GLOBAL DEFAULT UND _ZN7android8hardware6came
74:   FUNC GLOBAL DEFAULT UND _ZN7android8hardware6came
75:   FUNC GLOBAL DEFAULT UND _ZN7android8hardware6came
76:   FUNC GLOBAL DEFAULT UND _ZN7android8hardware6came
77:   FUNC GLOBAL DEFAULT UND _ZN7android8hardware6came
78:   FUNC GLOBAL DEFAULT UND _ZN7android8hardware6came
79:   FUNC GLOBAL DEFAULT UND _ZN7android8hardware6came
80:   FUNC GLOBAL DEFAULT UND _ZN7android8hardware6came
81:   FUNC GLOBAL DEFAULT UND _ZN7android8hardware6came
82:   FUNC GLOBAL DEFAULT UND _ZN7android8hardware6came
83:   FUNC GLOBAL DEFAULT UND _ZN7android8hardware6came
84:   FUNC GLOBAL DEFAULT UND _ZN7android8hardware6came
85:   FUNC GLOBAL DEFAULT UND _ZN7android8hardware6came
86:   FUNC GLOBAL DEFAULT UND _ZN7android8hardware6came
87:   FUNC GLOBAL DEFAULT UND _ZN7android8hardware6came
88:   FUNC GLOBAL DEFAULT UND _ZN7android8hardware6came
89:   FUNC GLOBAL DEFAULT UND _ZN7android8hardware6came
90:   FUNC GLOBAL DEFAULT UND _ZN7android8hardware6came
91:   FUNC GLOBAL DEFAULT UND _ZN7android8hardware6came
92:   FUNC GLOBAL DEFAULT UND _ZN7android8hardware6came
93:   FUNC GLOBAL DEFAULT UND _ZN7android8hardware6came
94:   FUNC GLOBAL DEFAULT UND _ZN7android8hardware6came
95:   FUNC GLOBAL DEFAULT UND _ZN7android8hardware6came
96:   FUNC GLOBAL DEFAULT UND _ZN7android8hardware7IBin
97:   FUNC GLOBAL DEFAULT UND _ZN7android8hardware7IBin
98:   FUNC GLOBAL DEFAULT UND _ZN7android8hardware7IBin
99:   FUNC GLOBAL DEFAULT UND _ZN7android8hardware7IBin
100:   FUNC GLOBAL DEFAULT UND _ZN7android8hardware7deta
101:   FUNC GLOBAL DEFAULT UND _ZN7android8hardware7deta
102:   FUNC GLOBAL DEFAULT UND _ZN7android8hardware7deta
103:   FUNC GLOBAL DEFAULT UND _ZN7android8hardware7deta
104:   FUNC GLOBAL DEFAULT UND _ZN7android8hardware7deta
105:   FUNC GLOBAL DEFAULT UND _ZN7android8hardware7deta
106:   FUNC GLOBAL DEFAULT UND _ZN7android8hardware7deta
107:   OBJECT GLOBAL DEFAULT UND _ZN7android8hardware7deta
108:   OBJECT GLOBAL DEFAULT UND _ZN7android8hardware7deta
109:   FUNC GLOBAL DEFAULT UND _ZN7android8hardware7deta
110:   FUNC GLOBAL DEFAULT UND _ZN7android8hardware7deta
111:   FUNC GLOBAL DEFAULT UND _ZN7android8hardware7deta
112:   FUNC GLOBAL DEFAULT UND _ZN7android8hardware7deta
113:   FUNC GLOBAL DEFAULT UND _ZN7android8hardware7deta
114:   FUNC GLOBAL DEFAULT UND _ZN7android8hardware7deta
115:   FUNC GLOBAL DEFAULT UND _ZN7android8hardware7deta
116:   FUNC GLOBAL DEFAULT UND _ZN7android8hardware7deta
117:   FUNC GLOBAL DEFAULT UND _ZN7android8hardware7deta
118:   FUNC GLOBAL DEFAULT UND _ZN7android8hardware7deta
119:   OBJECT GLOBAL DEFAULT UND _ZN7android8hardware7deta
120:   FUNC GLOBAL DEFAULT UND _ZN7android8hardware9BHwB
121:   FUNC GLOBAL DEFAULT UND _ZN7android8hardware9BHwB
122:   FUNC GLOBAL DEFAULT UND _ZN7android8hardware9BHwB
123:   FUNC GLOBAL DEFAULT UND _ZN7android8hardware9BHwB
124:   FUNC GLOBAL DEFAULT UND _ZN7android8hardware9BHwB
125:   FUNC GLOBAL DEFAULT UND _ZN7android8hardware9BHwB
126:   FUNC GLOBAL DEFAULT UND _ZN7android8hardware9BHwB
127:   FUNC GLOBAL DEFAULT UND _ZN7android8hardware9BHwB
128:   FUNC GLOBAL DEFAULT UND _ZN7android8hardware9BHwB
129:   FUNC GLOBAL DEFAULT UND _ZN7android8hardware9BHwB
130:   FUNC GLOBAL DEFAULT UND _ZNK7android7RefBase10cre
131:   FUNC GLOBAL DEFAULT UND _ZNK7android7RefBase11get
132:   FUNC GLOBAL DEFAULT UND _ZNK7android7RefBase9decS
133:   FUNC GLOBAL DEFAULT UND _ZNK7android7RefBase9incS
134:   FUNC GLOBAL DEFAULT UND _ZNK7android8hardware6Par
135:   FUNC GLOBAL DEFAULT UND _ZNK7android8hardware6Par
136:   FUNC GLOBAL DEFAULT UND _ZNK7android8hardware6Par
137:   FUNC GLOBAL DEFAULT UND _ZNK7android8hardware6Par
138:   FUNC GLOBAL DEFAULT UND _ZNK7android8hardware6Par
139:   FUNC GLOBAL DEFAULT UND _ZNK7android8hardware7IBi
140:   FUNC GLOBAL DEFAULT UND _ZNK7android8hardware7det
141:   FUNC GLOBAL DEFAULT UND _ZNK7android8hardware9BHw
142:   FUNC GLOBAL DEFAULT UND _ZNKSt3__120__vector_base
143:   FUNC GLOBAL DEFAULT UND _ZNKSt3__121__basic_strin
144:   FUNC GLOBAL DEFAULT UND _ZNSt3__112basic_stringIc
145:   FUNC GLOBAL DEFAULT UND _ZNSt3__112basic_stringIc
146:   FUNC GLOBAL DEFAULT UND _ZNSt3__15mutex4lockEv
147:   FUNC GLOBAL DEFAULT UND _ZNSt3__15mutex6unlockEv
148:   FUNC GLOBAL DEFAULT UND _ZNSt3__15mutexD1Ev
149:   FUNC GLOBAL DEFAULT UND _ZTv0_n12_N7android4hidl4
150:   FUNC GLOBAL DEFAULT UND _ZTv0_n12_N7android4hidl4
151:   FUNC GLOBAL DEFAULT UND _ZTv0_n12_N7android8hardw
152:   FUNC GLOBAL DEFAULT UND _ZTv0_n12_N7android8hardw
153:   FUNC GLOBAL DEFAULT UND _ZTv0_n12_N7android8hardw
154:   FUNC GLOBAL DEFAULT UND _ZTv0_n12_N7android8hardw
155:   FUNC GLOBAL DEFAULT UND _ZTv0_n12_N7android8hardw
156:   FUNC GLOBAL DEFAULT UND _ZTv0_n12_N7android8hardw
157:   FUNC GLOBAL DEFAULT UND _ZTv0_n12_N7android8hardw
158:   FUNC GLOBAL DEFAULT UND _ZTv0_n12_N7android8hardw
159:   FUNC GLOBAL DEFAULT UND _ZTv0_n16_N7android8hardw
160:   FUNC GLOBAL DEFAULT UND _ZTv0_n20_N7android8hardw
161:   FUNC GLOBAL DEFAULT UND _ZTv0_n24_N7android8hardw
162:   FUNC GLOBAL DEFAULT UND _ZdaPv
163:   FUNC GLOBAL DEFAULT UND _ZdlPv
164:   FUNC GLOBAL DEFAULT UND _Znaj
165:   FUNC GLOBAL DEFAULT UND _Znwj
166:   FUNC GLOBAL DEFAULT UND __android_log_assert@LIBLOG (3)
167:   FUNC GLOBAL DEFAULT UND __cxa_pure_virtual
168:   FUNC GLOBAL DEFAULT UND __stack_chk_fail@LIBC (2)
169:   OBJECT GLOBAL DEFAULT UND __stack_chk_guard@LIBC (2)
170:   FUNC GLOBAL DEFAULT UND abort@LIBC (2)
171:   FUNC GLOBAL DEFAULT UND atrace_begin_body
172:   OBJECT GLOBAL DEFAULT UND atrace_enabled_tags
173:   FUNC GLOBAL DEFAULT UND atrace_end_body
174:   OBJECT GLOBAL DEFAULT UND atrace_is_ready
175:   FUNC GLOBAL DEFAULT UND atrace_setup
176:   FUNC GLOBAL DEFAULT UND memcmp@LIBC (2)
177:   FUNC GLOBAL DEFAULT UND strlen@LIBC (2)
178:   OBJECT GLOBAL DEFAULT UND _ZN7android8hardware6came
179:   FUNC GLOBAL DEFAULT UND _ZN7android8hardware6came
180:   FUNC GLOBAL DEFAULT UND _ZN7android8hardware6came
181:   FUNC GLOBAL DEFAULT UND _ZN7android8hardware6came
182:   FUNC GLOBAL DEFAULT UND _ZN7android8hardware6came
183:   FUNC GLOBAL DEFAULT UND _ZN7android8hardware6came
184:   FUNC GLOBAL DEFAULT UND _ZN7android8hardware6came
185:   FUNC GLOBAL DEFAULT UND _ZN7android8hardware6came
186:   FUNC GLOBAL DEFAULT UND _ZN7android8hardware6came
187:   FUNC GLOBAL DEFAULT UND _ZN7android8hardware6came
188:   FUNC GLOBAL DEFAULT UND _ZN7android8hardware6came
189:   FUNC GLOBAL DEFAULT UND _ZN7android8hardware6came
190:   FUNC GLOBAL DEFAULT UND _ZN7android8hardware6came
191:   FUNC GLOBAL DEFAULT UND _ZN7android8hardware6came
192:   FUNC GLOBAL DEFAULT UND _ZN7android8hardware6came
193:   FUNC GLOBAL DEFAULT UND _ZN7android8hardware6came
194:   FUNC GLOBAL DEFAULT UND _ZN7android8hardware6came
195:   OBJECT GLOBAL DEFAULT UND _ZN7android8hardware6came
196:   FUNC GLOBAL DEFAULT UND _ZN7android8hardware6came
197:   FUNC GLOBAL DEFAULT UND _ZN7android8hardware6came
198:   FUNC GLOBAL DEFAULT UND _ZN7android8hardware6came
199:   FUNC GLOBAL DEFAULT UND _ZN7android8hardware6came
200:   FUNC GLOBAL DEFAULT UND _ZN7android8hardware6came
201:   FUNC GLOBAL DEFAULT UND _ZN7android8hardware6came
202:   FUNC GLOBAL DEFAULT UND _ZN7android8hardware6came
203:   FUNC GLOBAL DEFAULT UND _ZN7android8hardware6came
204:   FUNC GLOBAL DEFAULT UND _ZN7android8hardware6came
205:   FUNC GLOBAL DEFAULT UND _ZN7android8hardware6came
206:   FUNC GLOBAL DEFAULT UND _ZN7android8hardware6came
207:   FUNC GLOBAL DEFAULT UND _ZN7android8hardware6came
208:   OBJECT GLOBAL DEFAULT UND _ZN7android8hardware6came
209:   FUNC GLOBAL DEFAULT UND _ZN7android8hardware6came
210:   FUNC GLOBAL DEFAULT UND _ZN7android8hardware6came
211:   FUNC GLOBAL DEFAULT UND _ZN7android8hardware6came
212:   FUNC GLOBAL DEFAULT UND _ZN7android8hardware6came
213:   FUNC GLOBAL DEFAULT UND _ZN7android8hardware6came
214:   FUNC GLOBAL DEFAULT UND _ZN7android8hardware6came
215:   FUNC GLOBAL DEFAULT UND _ZN7android8hardware6came
216:   FUNC GLOBAL DEFAULT UND _ZN7android8hardware6came
217:   FUNC GLOBAL DEFAULT UND _ZN7android8hardware6came
218:   FUNC GLOBAL DEFAULT UND _ZN7android8hardware6came
219:   FUNC GLOBAL DEFAULT UND _ZN7android8hardware6came
220:   FUNC GLOBAL DEFAULT UND _ZN7android8hardware6came
221:   FUNC GLOBAL DEFAULT UND _ZN7android8hardware6came
222:   FUNC GLOBAL DEFAULT UND _ZN7android8hardware6came
223:   FUNC GLOBAL DEFAULT UND _ZN7android8hardware6came
224:   FUNC GLOBAL DEFAULT UND _ZN7android8hardware6came
225:   FUNC GLOBAL DEFAULT UND _ZN7android8hardware6came
226:   FUNC GLOBAL DEFAULT UND _ZN7android8hardware6came
227:   FUNC GLOBAL DEFAULT UND _ZN7android8hardware6came
228:   FUNC GLOBAL DEFAULT UND _ZN7android8hardware6came
229:   FUNC GLOBAL DEFAULT UND _ZN7android8hardware6came
230:   FUNC GLOBAL DEFAULT UND _ZN7android8hardware6came
231:   FUNC GLOBAL DEFAULT UND _ZN7android8hardware6came
232:   FUNC GLOBAL DEFAULT UND _ZN7android8hardware6came
233:   OBJECT GLOBAL DEFAULT UND _ZN7android8hardware6came
234:   FUNC GLOBAL DEFAULT UND _ZN7android8hardware6came
235:   FUNC GLOBAL DEFAULT UND _ZN7android8hardware6came
236:   FUNC GLOBAL DEFAULT UND _ZN7android8hardware6came
237:   FUNC GLOBAL DEFAULT UND _ZN7android8hardware6came
238:   FUNC GLOBAL DEFAULT UND _ZN7android8hardware6came
239:   FUNC GLOBAL DEFAULT UND _ZN7android8hardware6came
240:   FUNC GLOBAL DEFAULT UND _ZN7android8hardware6came
241:   FUNC GLOBAL DEFAULT UND _ZN7android8hardware6came
242:   FUNC GLOBAL DEFAULT UND _ZN7android8hardware6came
243:   FUNC GLOBAL DEFAULT UND _ZN7android8hardware6came
244:   FUNC GLOBAL DEFAULT UND _ZN7android8hardware6came
245:   FUNC GLOBAL DEFAULT UND _ZN7android8hardware6came
246:   OBJECT GLOBAL DEFAULT UND _ZN7android8hardware6came
247:   FUNC GLOBAL DEFAULT UND _ZN7android8hardware6came
248:   FUNC GLOBAL DEFAULT UND _ZN7android8hardware6came
249:   FUNC GLOBAL DEFAULT UND _ZN7android8hardware6came
250:   FUNC GLOBAL DEFAULT UND _ZN7android8hardware6came
251:   FUNC GLOBAL DEFAULT UND _ZN7android8hardware6came
252:   FUNC GLOBAL DEFAULT UND _ZN7android8hardware6came
253:   FUNC GLOBAL DEFAULT UND _ZN7android8hardware6came
254:   FUNC GLOBAL DEFAULT UND _ZN7android8hardware6came
255:   FUNC GLOBAL DEFAULT UND _ZN7android8hardware6came
256:   FUNC GLOBAL DEFAULT UND _ZN7android8hardware6came
257:   FUNC GLOBAL DEFAULT UND _ZN7android8hardware6came
258:   FUNC GLOBAL DEFAULT UND _ZN7android8hardware6came
259:   FUNC GLOBAL DEFAULT UND _ZN7android8hardware6came
260:   FUNC GLOBAL DEFAULT UND _ZN7android8hardware6came
261:   FUNC GLOBAL DEFAULT UND _ZN7android8hardware6came
262:   FUNC GLOBAL DEFAULT UND _ZN7android8hardware6came
263:   FUNC GLOBAL DEFAULT UND _ZN7android8hardware11hid
264:   FUNC GLOBAL DEFAULT UND _ZN7android8hardware11hid
265:   FUNC GLOBAL DEFAULT UND _ZN7android8hardware11hid
266:   FUNC GLOBAL DEFAULT UND _ZN7android8hardware7deta
267:   FUNC GLOBAL DEFAULT UND _ZNSt3__112basic_stringIc
268:   FUNC GLOBAL DEFAULT UND _ZNSt3__112basic_stringIc
269:   FUNC GLOBAL DEFAULT UND _ZNSt3__19to_stringEi
270:   FUNC GLOBAL DEFAULT UND memcpy@LIBC (2)
271:   FUNC GLOBAL DEFAULT UND memset@LIBC (2)
272:   FUNC GLOBAL DEFAULT 14 _ZN7android8hardware6came
273:   OBJECT GLOBAL DEFAULT 18 _ZTCN7android8hardware6ca
274:   OBJECT GLOBAL DEFAULT 18 _ZTCN7android8hardware6ca
275:   FUNC GLOBAL DEFAULT 14 _ZNK7android8hardware6cam
276:   FUNC GLOBAL DEFAULT 14 _ZN7android8hardware6came
277:   OBJECT GLOBAL DEFAULT 18 _ZTVN7android8hardware6ca
278:   FUNC WEAK DEFAULT 14 _ZN7android8hardware7deta
279:   OBJECT GLOBAL DEFAULT 18 _ZTCN7android8hardware6ca
280:   FUNC GLOBAL DEFAULT 14 _ZTv0_n12_N7android8hardw
281:   FUNC GLOBAL DEFAULT 14 _ZN7android8hardware6came
282:   FUNC GLOBAL DEFAULT 14 _ZN7android8hardware6came
283:   OBJECT GLOBAL DEFAULT 18 _ZTTN7android8hardware6ca
284:   FUNC GLOBAL DEFAULT 14 _ZN7android8hardware6came
285:   FUNC WEAK DEFAULT 14 _ZN7android8hardware7deta
286:   OBJECT GLOBAL DEFAULT 18 _ZTCN7android8hardware6ca
287:   FUNC GLOBAL DEFAULT 14 _ZN7android8hardware6came
288:   FUNC GLOBAL DEFAULT 14 _ZN7android8hardware6came
289:   OBJECT GLOBAL DEFAULT 16 _ZN7android8hardware6came
290:   FUNC GLOBAL DEFAULT 14 _ZN7android8hardware6came
291:   FUNC WEAK DEFAULT 14 _ZN7android8hardware7deta
292:   OBJECT GLOBAL DEFAULT 18 _ZTCN7android8hardware6ca
293:   OBJECT GLOBAL DEFAULT 18 _ZTCN7android8hardware6ca
294:   FUNC GLOBAL DEFAULT 14 _ZN7android8hardware6came
295:   FUNC GLOBAL DEFAULT 14 _ZN7android8hardware6came
296:   FUNC WEAK DEFAULT 14 _ZNSt3__16__treeINS_12__v
297:   FUNC GLOBAL DEFAULT 14 _ZN7android8hardware6came
298:   FUNC GLOBAL DEFAULT 14 _ZN7android8hardware6came
299:   FUNC GLOBAL DEFAULT 14 _ZThn20_N7android8hardwar
300:   FUNC GLOBAL DEFAULT 14 _ZN7android8hardware6came
301:   FUNC WEAK DEFAULT 14 _ZN7android8hardware7deta
302:   FUNC GLOBAL DEFAULT 14 _ZN7android8hardware6came
303:   FUNC GLOBAL DEFAULT 14 __aeabi_memclr
304:   FUNC GLOBAL DEFAULT 14 __aeabi_memset4
305:   FUNC GLOBAL DEFAULT 14 _ZN7android8hardware6came
306:   FUNC GLOBAL DEFAULT 14 _ZN7android8hardware6came
307:   FUNC GLOBAL DEFAULT 14 _ZN7android8hardware6came
308:   FUNC GLOBAL DEFAULT 14 _ZN7android8hardware6came
309:   FUNC GLOBAL DEFAULT 14 _ZN7android8hardware6came
310:   FUNC GLOBAL DEFAULT 14 _ZN7android8hardware6came
311:   FUNC GLOBAL DEFAULT 14 _ZN7android8hardware6came
312:   FUNC GLOBAL DEFAULT 14 _ZN7android8hardware6came
313:   OBJECT GLOBAL DEFAULT 18 _ZTCN7android8hardware6ca
314:   FUNC GLOBAL DEFAULT 14 _ZTv0_n12_N7android8hardw
315:   FUNC GLOBAL DEFAULT 14 _ZN7android8hardware6came
316:   FUNC GLOBAL DEFAULT 14 _ZN7android8hardware6came
317:   FUNC GLOBAL DEFAULT 14 _ZN7android8hardware6came
318:   FUNC GLOBAL DEFAULT 14 _ZN7android8hardware6came
319:   FUNC GLOBAL DEFAULT 14 _ZN7android8hardware6came
320:   OBJECT GLOBAL DEFAULT 18 _ZTCN7android8hardware6ca
321:   FUNC GLOBAL DEFAULT 14 _ZThn20_N7android8hardwar
322:   FUNC GLOBAL DEFAULT 14 __aeabi_memset8
323:   FUNC GLOBAL DEFAULT 14 _ZN7android8hardware6came
324:   FUNC GLOBAL DEFAULT 14 _ZN7android8hardware6came
325:   FUNC GLOBAL DEFAULT 14 _ZN7android8hardware6came
326:   FUNC GLOBAL DEFAULT 14 _ZN7android8hardware6came
327:   FUNC WEAK DEFAULT 14 _ZN7android8hardware7deta
328:   OBJECT GLOBAL DEFAULT 18 _ZTCN7android8hardware6ca
329:   FUNC GLOBAL DEFAULT 14 _ZN7android8hardware6came
330:   FUNC GLOBAL DEFAULT 14 _ZN7android8hardware6came
331:   FUNC GLOBAL DEFAULT 14 _ZN7android8hardware6came
332:   FUNC GLOBAL DEFAULT 14 _ZN7android8hardware6came
333:   FUNC GLOBAL DEFAULT 14 _ZN7android8hardware6came
334:   OBJECT GLOBAL DEFAULT 18 _ZTCN7android8hardware6ca
335:   OBJECT GLOBAL DEFAULT 18 _ZTCN7android8hardware6ca
336:   FUNC WEAK DEFAULT 14 _ZN7android8hardware7deta
337:   OBJECT GLOBAL DEFAULT 18 _ZTCN7android8hardware6ca
338:   FUNC GLOBAL DEFAULT 14 _ZN7android8hardware6came
339:   FUNC GLOBAL DEFAULT 14 _ZN7android8hardware6came
340:   FUNC GLOBAL DEFAULT 14 _ZN7android8hardware6came
341:   FUNC GLOBAL DEFAULT 14 _ZN7android8hardware6came
342:   OBJECT GLOBAL DEFAULT 18 _ZTCN7android8hardware6ca
343:   FUNC GLOBAL DEFAULT 14 _ZN7android8hardware6came
344:   FUNC GLOBAL DEFAULT 14 _ZN7android8hardware6came
345:   OBJECT GLOBAL DEFAULT 18 _ZTCN7android8hardware6ca
346:   FUNC GLOBAL DEFAULT 14 _ZN7android8hardware6came
347:   FUNC GLOBAL DEFAULT 14 _ZN7android8hardware6came
348:   OBJECT GLOBAL DEFAULT 18 _ZTTN7android8hardware6ca
349:   FUNC GLOBAL DEFAULT 14 _ZNK7android8hardware6cam
350:   OBJECT GLOBAL DEFAULT 18 _ZTCN7android8hardware6ca
351:   FUNC GLOBAL DEFAULT 14 _ZN7android8hardware6came
352:   FUNC GLOBAL DEFAULT 14 _ZN7android8hardware6came
353:   FUNC GLOBAL DEFAULT 14 _ZN7android8hardware6came
354:   FUNC WEAK DEFAULT 14 _ZNSt3__16vectorIN7androi
355:   FUNC GLOBAL DEFAULT 14 _ZN7android8hardware6came
356:   FUNC GLOBAL DEFAULT 14 _ZN7android8hardware6came
357:   FUNC GLOBAL DEFAULT 14 _ZN7android8hardware6came
358:   FUNC GLOBAL DEFAULT 14 _ZN7android8hardware6came
359:   FUNC GLOBAL DEFAULT 14 _ZThn20_N7android8hardwar
360:   FUNC GLOBAL DEFAULT 14 __aeabi_memclr4
361:   OBJECT GLOBAL DEFAULT 18 _ZTCN7android8hardware6ca
362:   FUNC GLOBAL DEFAULT 14 _ZN7android8hardware6came
363:   OBJECT GLOBAL DEFAULT 18 _ZTVN7android8hardware6ca
364:   OBJECT GLOBAL DEFAULT 18 _ZTVN7android8hardware6ca
365:   FUNC GLOBAL DEFAULT 14 _ZN7android8hardware6came
366:   OBJECT WEAK DEFAULT 18 _ZTCN7android8hardware6ca
367:   FUNC GLOBAL DEFAULT 14 _ZN7android8hardware6came
368:   FUNC GLOBAL DEFAULT 14 _ZN7android8hardware6came
369:   OBJECT GLOBAL DEFAULT 18 _ZTCN7android8hardware6ca
370:   FUNC GLOBAL DEFAULT 14 _ZN7android8hardware6came
371:   FUNC GLOBAL DEFAULT 14 _ZN7android8hardware6came
372:   FUNC GLOBAL DEFAULT 14 _ZN7android8hardware6came
373:   FUNC GLOBAL DEFAULT 14 _ZN7android8hardware6came
374:   FUNC GLOBAL DEFAULT 14 _ZN7android8hardware6came
375:   FUNC GLOBAL DEFAULT 14 _ZN7android8hardware6came
376:   OBJECT GLOBAL DEFAULT 18 _ZTCN7android8hardware6ca
377:   FUNC GLOBAL DEFAULT 14 _ZN7android8hardware6came
378:   FUNC GLOBAL DEFAULT 14 _ZN7android8hardware6came
379:   FUNC GLOBAL DEFAULT 14 _ZN7android8hardware6came
380:   FUNC GLOBAL DEFAULT 14 _ZN7android8hardware6came
381:   FUNC GLOBAL DEFAULT 14 __aeabi_memclr8
382:   FUNC GLOBAL DEFAULT 14 _ZN7android8hardware6came
383:   FUNC GLOBAL DEFAULT 14 _ZN7android8hardware6came
384:   FUNC GLOBAL DEFAULT 14 _ZN7android8hardware6came
385:   FUNC GLOBAL DEFAULT 14 _ZN7android8hardware6came
386:   FUNC GLOBAL DEFAULT 14 _ZN7android8hardware6came
387:   FUNC GLOBAL DEFAULT 14 _ZN7android8hardware6came
388:   FUNC GLOBAL DEFAULT 14 __aeabi_memset
389:   FUNC GLOBAL DEFAULT 14 _ZN7android8hardware6came
390:   FUNC GLOBAL DEFAULT 14 _ZN7android8hardware6came
391:   FUNC GLOBAL DEFAULT 14 _ZN7android8hardware6came
392:   FUNC GLOBAL DEFAULT 14 _ZN7android8hardware6came
393:   FUNC GLOBAL DEFAULT 14 _ZN7android8hardware6came
394:   OBJECT GLOBAL DEFAULT 18 _ZTCN7android8hardware6ca
395:   FUNC GLOBAL DEFAULT 14 _ZN7android8hardware6came
396:   FUNC GLOBAL DEFAULT 14 _ZN7android8hardware6came
397:   FUNC GLOBAL DEFAULT 14 _ZN7android8hardware6came
398:   OBJECT GLOBAL DEFAULT 18 _ZTVN7android8hardware6ca
399:   FUNC GLOBAL DEFAULT 14 _ZN7android8hardware6came
400:   FUNC GLOBAL DEFAULT 14 _ZN7android8hardware6came
401:   FUNC WEAK DEFAULT 14 _ZN7android8hardware7deta
402:   OBJECT GLOBAL DEFAULT 18 _ZTCN7android8hardware6ca
403:   OBJECT GLOBAL DEFAULT 18 _ZTCN7android8hardware6ca
404:   OBJECT GLOBAL DEFAULT 18 _ZTCN7android8hardware6ca
405:   FUNC GLOBAL DEFAULT 14 _ZN7android8hardware6came
406:   FUNC GLOBAL DEFAULT 14 _ZN7android8hardware6came
407:   FUNC GLOBAL DEFAULT 14 _ZN7android8hardware6came
408:   FUNC GLOBAL DEFAULT 14 _ZN7android8hardware6came
409:   FUNC GLOBAL DEFAULT 14 _ZN7android8hardware6came
410:   FUNC WEAK DEFAULT 14 _ZNSt3__16vectorINS_8func
411:   FUNC GLOBAL DEFAULT 14 _ZN7android8hardware6came
412:   FUNC GLOBAL DEFAULT 14 _ZN7android8hardware6came
413:   FUNC GLOBAL DEFAULT 14 _ZN7android8hardware6came
414:   FUNC GLOBAL DEFAULT 14 _ZTv0_n12_N7android8hardw
415:   FUNC GLOBAL DEFAULT 14 _ZN7android8hardware6came
416:   OBJECT GLOBAL DEFAULT 18 _ZTVN7android8hardware6ca
417:   FUNC GLOBAL DEFAULT 14 _ZN7android8hardware6came
418:   FUNC GLOBAL DEFAULT 14 _ZN7android8hardware6came
419:   FUNC WEAK DEFAULT 14 _ZNSt3__16__treeINS_12__v
420:   OBJECT GLOBAL DEFAULT 18 _ZTTN7android8hardware6ca
421:   FUNC GLOBAL DEFAULT 14 __aeabi_memcpy4
422:   FUNC GLOBAL DEFAULT 14 _ZN7android8hardware6came
423:   FUNC GLOBAL DEFAULT 14 _ZN7android8hardware6came
424:   FUNC GLOBAL DEFAULT 14 _ZN7android8hardware6came
425:   FUNC GLOBAL DEFAULT 14 _ZN7android8hardware6came
426:   FUNC GLOBAL DEFAULT 14 _ZN7android8hardware6came
427:   FUNC GLOBAL DEFAULT 14 _ZN7android8hardware6came
428:   OBJECT GLOBAL DEFAULT 18 _ZTTN7android8hardware6ca
429:   FUNC GLOBAL DEFAULT 14 _ZN7android8hardware6came
430:   OBJECT GLOBAL DEFAULT 16 _ZN7android8hardware6came
431:   FUNC GLOBAL DEFAULT 14 _ZTv0_n12_N7android8hardw
432:   FUNC WEAK DEFAULT 14 _ZN7android8hardware7deta
433:   OBJECT WEAK DEFAULT 18 _ZTCN7android8hardware6ca
434:   OBJECT GLOBAL DEFAULT 18 _ZTTN7android8hardware6ca
435:   FUNC GLOBAL DEFAULT 14 _ZN7android8hardware6came
436:   FUNC GLOBAL DEFAULT 14 _ZN7android8hardware6came
437:   FUNC GLOBAL DEFAULT 14 _ZN7android8hardware6came
438:   FUNC GLOBAL DEFAULT 14 __aeabi_memcpy8
439:   FUNC GLOBAL DEFAULT 14 _ZN7android8hardware6came
440:   OBJECT GLOBAL DEFAULT 18 _ZTCN7android8hardware6ca
441:   FUNC GLOBAL DEFAULT 14 _ZN7android8hardware6came
442:   FUNC GLOBAL DEFAULT 14 _ZN7android8hardware6came
443:   FUNC GLOBAL DEFAULT 14 _ZN7android8hardware6came
444:   OBJECT GLOBAL DEFAULT 18 _ZTCN7android8hardware6ca
445:   FUNC GLOBAL DEFAULT 14 _ZN7android8hardware6came
446:   FUNC WEAK DEFAULT 14 _ZN7android8hardware7deta
447:   FUNC GLOBAL DEFAULT 14 _ZN7android8hardware6came
448:   OBJECT WEAK DEFAULT 18 _ZTCN7android8hardware6ca
449:   OBJECT GLOBAL DEFAULT 18 _ZTCN7android8hardware6ca
450:   FUNC GLOBAL DEFAULT 14 _ZN7android8hardware6came
451:   OBJECT GLOBAL DEFAULT 18 _ZTCN7android8hardware6ca
452:   FUNC WEAK DEFAULT 14 _ZNSt3__16vectorIPvNS_9al
453:   OBJECT GLOBAL DEFAULT 18 _ZTCN7android8hardware6ca
454:   FUNC GLOBAL DEFAULT 14 _ZN7android8hardware6came
455:   FUNC GLOBAL DEFAULT 14 _ZN7android8hardware6came
456:   FUNC GLOBAL DEFAULT 14 _ZN7android8hardware6came
457:   FUNC GLOBAL DEFAULT 14 _ZN7android8hardware6came
458:   FUNC GLOBAL DEFAULT 14 _ZThn20_N7android8hardwar
459:   OBJECT GLOBAL DEFAULT 18 _ZTVN7android8hardware6ca
460:   FUNC GLOBAL DEFAULT 14 _ZN7android8hardware6came
461:   FUNC GLOBAL DEFAULT 14 _ZN7android8hardware6came
462:   OBJECT GLOBAL DEFAULT 16 _ZN7android8hardware6came
463:   OBJECT GLOBAL DEFAULT 18 _ZTTN7android8hardware6ca
464:   FUNC GLOBAL DEFAULT 14 _ZN7android8hardware6came
465:   FUNC GLOBAL DEFAULT 14 _ZN7android8hardware6came
466:   FUNC GLOBAL DEFAULT 14 _ZN7android8hardware6came
467:   FUNC GLOBAL DEFAULT 14 _ZN7android8hardware6came
468:   FUNC GLOBAL DEFAULT 14 _ZN7android8hardware6came
469:   FUNC GLOBAL DEFAULT 14 _ZN7android8hardware6came
470:   FUNC GLOBAL DEFAULT 14 _ZN7android8hardware6came
471:   FUNC GLOBAL DEFAULT 14 _ZN7android8hardware6came
472:   FUNC GLOBAL DEFAULT 14 _ZN7android8hardware6came
473:   FUNC GLOBAL DEFAULT 14 _ZN7android8hardware6came
474:   OBJECT WEAK DEFAULT 18 _ZTVN7android8hardware6ca
475:   FUNC GLOBAL DEFAULT 14 _ZN7android8hardware6came
476:   OBJECT GLOBAL DEFAULT 18 _ZTCN7android8hardware6ca
477:   FUNC GLOBAL DEFAULT 14 _ZN7android8hardware6came
478:   FUNC GLOBAL DEFAULT 14 _ZN7android8hardware6came
479:   FUNC GLOBAL DEFAULT 14 _ZN7android8hardware6came
480:   FUNC GLOBAL DEFAULT 14 _ZN7android8hardware6came
481:   FUNC GLOBAL DEFAULT 14 _ZN7android8hardware6came
482:   FUNC GLOBAL DEFAULT 14 _ZTv0_n12_N7android8hardw
483:   FUNC GLOBAL DEFAULT 14 _ZN7android8hardware6came
484:   FUNC GLOBAL DEFAULT 14 _ZN7android8hardware6came
485:   FUNC WEAK DEFAULT 14 _ZNSt3__16__treeINS_12__v
486:   FUNC GLOBAL DEFAULT 14 _ZN7android8hardware6came
487:   OBJECT WEAK DEFAULT 18 _ZTVN7android8hardware6ca
488:   FUNC GLOBAL DEFAULT 14 _ZNK7android8hardware6cam
489:   FUNC GLOBAL DEFAULT 14 _ZN7android8hardware6came
490:   OBJECT GLOBAL DEFAULT 18 _ZTVN7android8hardware6ca
491:   FUNC GLOBAL DEFAULT 14 _ZThn20_N7android8hardwar
492:   FUNC GLOBAL DEFAULT 14 _ZN7android8hardware6came
493:   FUNC WEAK DEFAULT 14 _ZNSt3__127__tree_balance
494:   OBJECT GLOBAL DEFAULT 18 _ZTCN7android8hardware6ca
495:   FUNC GLOBAL DEFAULT 14 _ZN7android8hardware6came
496:   FUNC GLOBAL DEFAULT 14 _ZN7android8hardware6came
497:   FUNC GLOBAL DEFAULT 14 _ZN7android8hardware6came
498:   FUNC GLOBAL DEFAULT 14 _ZN7android8hardware6came
499:   FUNC GLOBAL DEFAULT 14 _ZN7android8hardware6came
500:   FUNC GLOBAL DEFAULT 14 _ZN7android8hardware6came
501:   FUNC GLOBAL DEFAULT 14 _ZN7android8hardware6came
502:   FUNC GLOBAL DEFAULT 14 _ZN7android8hardware6came
503:   FUNC WEAK DEFAULT 14 _ZN7android8hardware7deta
504:   FUNC GLOBAL DEFAULT 14 _ZN7android8hardware6came
505:   OBJECT GLOBAL DEFAULT 18 _ZTCN7android8hardware6ca
506:   FUNC GLOBAL DEFAULT 14 _ZN7android8hardware6came
507:   FUNC GLOBAL DEFAULT 14 _ZN7android8hardware6came
508:   FUNC GLOBAL DEFAULT 14 _ZN7android8hardware6came
509:   FUNC WEAK DEFAULT 14 _ZN7android8hardware7deta
510:   OBJECT GLOBAL DEFAULT 18 _ZTCN7android8hardware6ca
511:   FUNC GLOBAL DEFAULT 14 _ZN7android8hardware6came
512:   FUNC GLOBAL DEFAULT 14 _ZN7android8hardware6came
513:   OBJECT GLOBAL DEFAULT 18 _ZTCN7android8hardware6ca
514:   FUNC GLOBAL DEFAULT 14 _ZN7android8hardware6came
515:   FUNC WEAK DEFAULT 14 _ZN7android8hardware7deta
516:   FUNC WEAK DEFAULT 14 _ZN7android8hardware7deta
517:   OBJECT GLOBAL DEFAULT 18 _ZTTN7android8hardware6ca
518:   FUNC GLOBAL DEFAULT 14 _ZN7android8hardware6came
519:   FUNC GLOBAL DEFAULT 14 _ZN7android8hardware6came
520:   OBJECT GLOBAL DEFAULT 18 _ZTCN7android8hardware6ca
521:   FUNC GLOBAL DEFAULT 14 _ZN7android8hardware6came
522:   FUNC GLOBAL DEFAULT 14 _ZN7android8hardware6came
523:   FUNC GLOBAL DEFAULT 14 _ZThn20_N7android8hardwar
524:   FUNC GLOBAL DEFAULT 14 _ZN7android8hardware6came
525:   FUNC GLOBAL DEFAULT 14 _ZN7android8hardware6came
526:   FUNC GLOBAL DEFAULT 14 _ZN7android8hardware6came
527:   OBJECT WEAK DEFAULT 18 _ZTVN7android8hardware6ca
528:   OBJECT GLOBAL DEFAULT 18 _ZTCN7android8hardware6ca
529:   OBJECT GLOBAL DEFAULT 18 _ZTCN7android8hardware6ca
530:   OBJECT GLOBAL DEFAULT 18 _ZTTN7android8hardware6ca
531:   FUNC GLOBAL DEFAULT 14 _ZN7android8hardware6came
532:   FUNC GLOBAL DEFAULT 14 _ZN7android8hardware6came
533:   FUNC GLOBAL DEFAULT 14 _ZN7android8hardware6came
534:   FUNC WEAK DEFAULT 14 _ZNSt3__113__tree_removeI
535:   FUNC GLOBAL DEFAULT 14 _ZN7android8hardware6came
536:   OBJECT GLOBAL DEFAULT 18 _ZTCN7android8hardware6ca
537:   FUNC GLOBAL DEFAULT 14 _ZN7android8hardware6came
538:   FUNC GLOBAL DEFAULT 14 _ZN7android8hardware6came
539:   FUNC WEAK DEFAULT 14 _ZNSt3__16__treeINS_12__v
540:   FUNC GLOBAL DEFAULT 14 _ZN7android8hardware6came
541:   FUNC GLOBAL DEFAULT 14 _ZN7android8hardware6came
542:   FUNC GLOBAL DEFAULT 14 _ZN7android8hardware6came
543:   FUNC GLOBAL DEFAULT 14 _ZN7android8hardware6came
544:   FUNC GLOBAL DEFAULT 14 _ZN7android8hardware6came
545:   FUNC WEAK DEFAULT 14 _ZNSt3__16__treeINS_12__v
546:   FUNC GLOBAL DEFAULT 14 _ZN7android8hardware6came
547:   FUNC GLOBAL DEFAULT 14 _ZN7android8hardware6came
548:   OBJECT GLOBAL DEFAULT 18 _ZTTN7android8hardware6ca
549:   FUNC GLOBAL DEFAULT 14 _ZN7android8hardware6came
550:   FUNC GLOBAL DEFAULT 14 _ZN7android8hardware6came
551:   OBJECT GLOBAL DEFAULT 18 _ZTVN7android8hardware6ca
552:   FUNC GLOBAL DEFAULT 14 _ZN7android8hardware6came
553:   FUNC WEAK DEFAULT 14 _ZNSt3__16__treeINS_12__v
554:   FUNC GLOBAL DEFAULT 14 _ZN7android8hardware6came
555:   FUNC GLOBAL DEFAULT 14 _ZN7android8hardware6came
556:   FUNC GLOBAL DEFAULT 14 _ZN7android8hardware6came
557:   OBJECT GLOBAL DEFAULT 18 _ZTCN7android8hardware6ca
558:   OBJECT GLOBAL DEFAULT 18 _ZTCN7android8hardware6ca
559:   FUNC GLOBAL DEFAULT 14 _ZN7android8hardware6came
560:   FUNC GLOBAL DEFAULT 14 _ZTv0_n12_N7android8hardw
561:   FUNC GLOBAL DEFAULT 14 _ZN7android8hardware6came
562:   FUNC GLOBAL DEFAULT 14 _ZN7android8hardware6came
563:   FUNC WEAK DEFAULT 14 _ZN7android8hardware7deta
564:   OBJECT GLOBAL DEFAULT 18 _ZTCN7android8hardware6ca
565:   FUNC GLOBAL DEFAULT 14 _ZN7android8hardware6came
566:   FUNC GLOBAL DEFAULT 14 _ZN7android8hardware6came
567:   FUNC GLOBAL DEFAULT 14 _ZN7android8hardware6came
568:   FUNC GLOBAL DEFAULT 14 _ZN7android8hardware6came
569:   FUNC GLOBAL DEFAULT 14 __aeabi_memcpy
570:   OBJECT GLOBAL DEFAULT 18 _ZTVN7android8hardware6ca
571:   FUNC GLOBAL DEFAULT 14 _ZN7android8hardware6came
572:   FUNC GLOBAL DEFAULT 14 _ZN7android8hardware6came
573:   FUNC GLOBAL DEFAULT 14 _ZN7android8hardware6came
574:   FUNC GLOBAL DEFAULT 14 _ZN7android8hardware6came
