 0x000000000000000e (SONAME)             Library soname: [android.hardware.audio.effect@4.0.so]
  
Symbol   contains 1758 entries:
Num:   Type Bind Vis Ndx Name
0:   NOTYPE LOCAL DEFAULT UND
1:   FUNC GLOBAL DEFAULT UND __cxa_finalize@LIBC (2)
2:   FUNC GLOBAL DEFAULT UND _ZN7android14sp_report_ra
3:   FUNC GLOBAL DEFAULT UND _ZN7android21report_syspr
4:   OBJECT GLOBAL DEFAULT UND _ZN7android4hidl4base4V1_
5:   FUNC GLOBAL DEFAULT UND _ZN7android4hidl4base4V1_
6:   FUNC GLOBAL DEFAULT UND _ZN7android4hidl4base4V1_
7:   FUNC GLOBAL DEFAULT UND _ZN7android4hidl4base4V1_
8:   FUNC GLOBAL DEFAULT UND _ZN7android4hidl4base4V1_
9:   FUNC GLOBAL DEFAULT UND _ZN7android4hidl4base4V1_
10:   FUNC GLOBAL DEFAULT UND _ZN7android4hidl4base4V1_
11:   FUNC GLOBAL DEFAULT UND _ZN7android4hidl4base4V1_
12:   FUNC GLOBAL DEFAULT UND _ZN7android4hidl4base4V1_
13:   FUNC GLOBAL DEFAULT UND _ZN7android4hidl4base4V1_
14:   FUNC GLOBAL DEFAULT UND _ZN7android4hidl4base4V1_
15:   FUNC GLOBAL DEFAULT UND _ZN7android4hidl4base4V1_
16:   FUNC GLOBAL DEFAULT UND _ZN7android4hidl4base4V1_
17:   FUNC GLOBAL DEFAULT UND _ZN7android4hidl4base4V1_
18:   FUNC GLOBAL DEFAULT UND _ZN7android4hidl4base4V1_
19:   FUNC GLOBAL DEFAULT UND _ZN7android4hidl4base4V1_
20:   FUNC GLOBAL DEFAULT UND _ZN7android4hidl4base4V1_
21:   FUNC GLOBAL DEFAULT UND _ZN7android4hidl4base4V1_
22:   FUNC GLOBAL DEFAULT UND _ZN7android4hidl4base4V1_
23:   FUNC GLOBAL DEFAULT UND _ZN7android4hidl4base4V1_
24:   FUNC GLOBAL DEFAULT UND _ZN7android4hidl4base4V1_
25:   FUNC GLOBAL DEFAULT UND _ZN7android4hidl4base4V1_
26:   FUNC GLOBAL DEFAULT UND _ZN7android4hidl4base4V1_
27:   FUNC GLOBAL DEFAULT UND _ZN7android4hidl4base4V1_
28:   FUNC GLOBAL DEFAULT UND _ZN7android7RefBase10onFi
29:   FUNC GLOBAL DEFAULT UND _ZN7android7RefBase12weak
30:   FUNC GLOBAL DEFAULT UND _ZN7android7RefBase13onLa
31:   FUNC GLOBAL DEFAULT UND _ZN7android7RefBase15onLa
32:   FUNC GLOBAL DEFAULT UND _ZN7android7RefBase20onIn
33:   FUNC GLOBAL DEFAULT UND _ZN7android7RefBaseC2Ev
34:   FUNC GLOBAL DEFAULT UND _ZN7android7RefBaseD2Ev
35:   FUNC GLOBAL DEFAULT UND _ZN7android8hardware10IIn
36:   FUNC GLOBAL DEFAULT UND _ZN7android8hardware10IIn
37:   FUNC GLOBAL DEFAULT UND _ZN7android8hardware10IIn
38:   FUNC GLOBAL DEFAULT UND _ZN7android8hardware10IIn
39:   FUNC GLOBAL DEFAULT UND _ZN7android8hardware10IIn
40:   FUNC GLOBAL DEFAULT UND _ZN7android8hardware11BpH
41:   FUNC GLOBAL DEFAULT UND _ZN7android8hardware11BpH
42:   FUNC GLOBAL DEFAULT UND _ZN7android8hardware11BpH
43:   FUNC GLOBAL DEFAULT UND _ZN7android8hardware11BpH
44:   FUNC GLOBAL DEFAULT UND _ZN7android8hardware11BpH
45:   FUNC GLOBAL DEFAULT UND _ZN7android8hardware11BpH
46:   FUNC GLOBAL DEFAULT UND _ZN7android8hardware11BpH
47:   FUNC GLOBAL DEFAULT UND _ZN7android8hardware11hid
48:   FUNC GLOBAL DEFAULT UND _ZN7android8hardware11hid
49:   FUNC GLOBAL DEFAULT UND _ZN7android8hardware11hid
50:   FUNC GLOBAL DEFAULT UND _ZN7android8hardware11hid
51:   FUNC GLOBAL DEFAULT UND _ZN7android8hardware11hid
52:   FUNC GLOBAL DEFAULT UND _ZN7android8hardware12Pro
53:   FUNC GLOBAL DEFAULT UND _ZN7android8hardware12Pro
54:   FUNC GLOBAL DEFAULT UND _ZN7android8hardware13wri
55:   FUNC GLOBAL DEFAULT UND _ZN7android8hardware14rea
56:   FUNC GLOBAL DEFAULT UND _ZN7android8hardware21def
57:   FUNC GLOBAL DEFAULT UND _ZN7android8hardware23get
58:   FUNC GLOBAL DEFAULT UND _ZN7android8hardware27hid
59:   FUNC GLOBAL DEFAULT UND _ZN7android8hardware27hid
60:   FUNC GLOBAL DEFAULT UND _ZN7android8hardware6Parc
61:   FUNC GLOBAL DEFAULT UND _ZN7android8hardware6Parc
62:   FUNC GLOBAL DEFAULT UND _ZN7android8hardware6Parc
63:   FUNC GLOBAL DEFAULT UND _ZN7android8hardware6Parc
64:   FUNC GLOBAL DEFAULT UND _ZN7android8hardware6Parc
65:   FUNC GLOBAL DEFAULT UND _ZN7android8hardware6Stat
66:   FUNC GLOBAL DEFAULT UND _ZN7android8hardware6Stat
67:   FUNC GLOBAL DEFAULT UND _ZN7android8hardware6Stat
68:   FUNC GLOBAL DEFAULT UND _ZN7android8hardware6Stat
69:   FUNC GLOBAL DEFAULT UND _ZN7android8hardware7IBin
70:   FUNC GLOBAL DEFAULT UND _ZN7android8hardware7IBin
71:   FUNC GLOBAL DEFAULT UND _ZN7android8hardware7IBin
72:   FUNC GLOBAL DEFAULT UND _ZN7android8hardware7IBin
73:   FUNC GLOBAL DEFAULT UND _ZN7android8hardware7deta
74:   FUNC GLOBAL DEFAULT UND _ZN7android8hardware7deta
75:   FUNC GLOBAL DEFAULT UND _ZN7android8hardware7deta
76:   FUNC GLOBAL DEFAULT UND _ZN7android8hardware7deta
77:   FUNC GLOBAL DEFAULT UND _ZN7android8hardware7deta
78:   FUNC GLOBAL DEFAULT UND _ZN7android8hardware7deta
79:   FUNC GLOBAL DEFAULT UND _ZN7android8hardware7deta
80:   OBJECT GLOBAL DEFAULT UND _ZN7android8hardware7deta
81:   FUNC GLOBAL DEFAULT UND _ZN7android8hardware7deta
82:   OBJECT GLOBAL DEFAULT UND _ZN7android8hardware7deta
83:   FUNC GLOBAL DEFAULT UND _ZN7android8hardware7deta
84:   FUNC GLOBAL DEFAULT UND _ZN7android8hardware7deta
85:   FUNC GLOBAL DEFAULT UND _ZN7android8hardware7deta
86:   FUNC GLOBAL DEFAULT UND _ZN7android8hardware7deta
87:   FUNC GLOBAL DEFAULT UND _ZN7android8hardware7deta
88:   FUNC GLOBAL DEFAULT UND _ZN7android8hardware7deta
89:   FUNC GLOBAL DEFAULT UND _ZN7android8hardware7deta
90:   FUNC GLOBAL DEFAULT UND _ZN7android8hardware7deta
91:   FUNC GLOBAL DEFAULT UND _ZN7android8hardware7deta
92:   FUNC GLOBAL DEFAULT UND _ZN7android8hardware7deta
93:   OBJECT GLOBAL DEFAULT UND _ZN7android8hardware7deta
94:   FUNC GLOBAL DEFAULT UND _ZN7android8hardware9BHwB
95:   FUNC GLOBAL DEFAULT UND _ZN7android8hardware9BHwB
96:   FUNC GLOBAL DEFAULT UND _ZN7android8hardware9BHwB
97:   FUNC GLOBAL DEFAULT UND _ZN7android8hardware9BHwB
98:   FUNC GLOBAL DEFAULT UND _ZN7android8hardware9BHwB
99:   FUNC GLOBAL DEFAULT UND _ZN7android8hardware9BHwB
100:   FUNC GLOBAL DEFAULT UND _ZN7android8hardware9BHwB
101:   FUNC GLOBAL DEFAULT UND _ZN7android8hardware9BHwB
102:   FUNC GLOBAL DEFAULT UND _ZN7android8hardware9BHwB
103:   FUNC GLOBAL DEFAULT UND _ZN7android8hardware9BHwB
104:   FUNC GLOBAL DEFAULT UND _ZNK7android7RefBase10cre
105:   FUNC GLOBAL DEFAULT UND _ZNK7android7RefBase11get
106:   FUNC GLOBAL DEFAULT UND _ZNK7android7RefBase9decS
107:   FUNC GLOBAL DEFAULT UND _ZNK7android7RefBase9incS
108:   FUNC GLOBAL DEFAULT UND _ZNK7android8hardware6Par
109:   FUNC GLOBAL DEFAULT UND _ZNK7android8hardware6Par
110:   FUNC GLOBAL DEFAULT UND _ZNK7android8hardware6Par
111:   FUNC GLOBAL DEFAULT UND _ZNK7android8hardware7IBi
112:   FUNC GLOBAL DEFAULT UND _ZNK7android8hardware7det
113:   FUNC GLOBAL DEFAULT UND _ZNK7android8hardware9BHw
114:   FUNC GLOBAL DEFAULT UND _ZNKSt3__120__vector_base
115:   FUNC GLOBAL DEFAULT UND _ZNKSt3__121__basic_strin
116:   FUNC GLOBAL DEFAULT UND _ZNSt3__112basic_stringIc
117:   FUNC GLOBAL DEFAULT UND _ZNSt3__15mutex4lockEv
118:   FUNC GLOBAL DEFAULT UND _ZNSt3__15mutex6unlockEv
119:   FUNC GLOBAL DEFAULT UND _ZNSt3__15mutexD1Ev
120:   FUNC GLOBAL DEFAULT UND _ZTv0_n24_N7android4hidl4
121:   FUNC GLOBAL DEFAULT UND _ZTv0_n24_N7android4hidl4
122:   FUNC GLOBAL DEFAULT UND _ZTv0_n24_N7android8hardw
123:   FUNC GLOBAL DEFAULT UND _ZTv0_n24_N7android8hardw
124:   FUNC GLOBAL DEFAULT UND _ZTv0_n24_N7android8hardw
125:   FUNC GLOBAL DEFAULT UND _ZTv0_n24_N7android8hardw
126:   FUNC GLOBAL DEFAULT UND _ZTv0_n24_N7android8hardw
127:   FUNC GLOBAL DEFAULT UND _ZTv0_n24_N7android8hardw
128:   FUNC GLOBAL DEFAULT UND _ZTv0_n24_N7android8hardw
129:   FUNC GLOBAL DEFAULT UND _ZTv0_n24_N7android8hardw
130:   FUNC GLOBAL DEFAULT UND _ZTv0_n32_N7android8hardw
131:   FUNC GLOBAL DEFAULT UND _ZTv0_n40_N7android8hardw
132:   FUNC GLOBAL DEFAULT UND _ZTv0_n48_N7android8hardw
133:   FUNC GLOBAL DEFAULT UND _ZdaPv
134:   FUNC GLOBAL DEFAULT UND _ZdlPv
135:   FUNC GLOBAL DEFAULT UND _Znam
136:   FUNC GLOBAL DEFAULT UND _Znwm
137:   FUNC GLOBAL DEFAULT UND __android_log_assert@LIBLOG (3)
138:   FUNC GLOBAL DEFAULT UND __cxa_pure_virtual
139:   FUNC GLOBAL DEFAULT UND __stack_chk_fail@LIBC (2)
140:   FUNC GLOBAL DEFAULT UND abort@LIBC (2)
141:   FUNC GLOBAL DEFAULT UND atrace_begin_body
142:   OBJECT GLOBAL DEFAULT UND atrace_enabled_tags
143:   FUNC GLOBAL DEFAULT UND atrace_end_body
144:   OBJECT GLOBAL DEFAULT UND atrace_is_ready
145:   FUNC GLOBAL DEFAULT UND atrace_setup
146:   FUNC GLOBAL DEFAULT UND memcmp@LIBC (2)
147:   FUNC GLOBAL DEFAULT UND memcpy@LIBC (2)
148:   FUNC GLOBAL DEFAULT UND memset@LIBC (2)
149:   FUNC GLOBAL DEFAULT UND strlen@LIBC (2)
150:   FUNC GLOBAL DEFAULT UND _ZN7android8hardware6Parc
151:   FUNC GLOBAL DEFAULT UND _ZN7android8hardware6Parc
152:   FUNC GLOBAL DEFAULT UND _ZN7android8hardware6Parc
153:   FUNC GLOBAL DEFAULT UND _ZNK7android8hardware6Par
154:   FUNC GLOBAL DEFAULT UND _ZNK7android8hardware6Par
155:   FUNC GLOBAL DEFAULT UND _ZNK7android8hardware6Par
156:   FUNC GLOBAL DEFAULT UND _ZN7android8hardware6Parc
157:   FUNC GLOBAL DEFAULT UND _ZNK7android8hardware6Par
158:   FUNC GLOBAL DEFAULT UND _ZN7android8hardware6Parc
159:   FUNC GLOBAL DEFAULT UND _ZN7android8hardware6Parc
160:   FUNC GLOBAL DEFAULT UND _ZN7android8hardware6Parc
161:   FUNC GLOBAL DEFAULT UND _ZNK7android8hardware6Par
162:   FUNC GLOBAL DEFAULT UND _ZNK7android8hardware6Par
163:   FUNC GLOBAL DEFAULT UND _ZNK7android8hardware6Par
164:   FUNC GLOBAL DEFAULT UND _ZN7android8hardware6Parc
165:   FUNC GLOBAL DEFAULT UND _ZNK7android8hardware6Par
166:   FUNC GLOBAL DEFAULT UND _ZNSt3__112basic_stringIc
167:   FUNC GLOBAL DEFAULT UND _ZN7android8hardware21wri
168:   FUNC GLOBAL DEFAULT UND _ZN7android8hardware22rea
169:   FUNC GLOBAL DEFAULT UND _ZN7android8hardware21wri
170:   FUNC GLOBAL DEFAULT UND _ZN7android8hardware22rea
171:   FUNC GLOBAL DEFAULT 14 _ZN7android8hardware5audi
172:   FUNC GLOBAL DEFAULT 14 _ZTv0_n24_N7android8hardw
173:   FUNC GLOBAL DEFAULT 14 _ZN7android8hardware5audi
174:   FUNC GLOBAL DEFAULT 14 _ZN7android8hardware5audi
175:   FUNC GLOBAL DEFAULT 14 _ZN7android8hardware5audi
176:   FUNC GLOBAL DEFAULT 14 _ZN7android8hardware5audi
177:   FUNC GLOBAL DEFAULT 14 _ZN7android8hardware5audi
178:   OBJECT GLOBAL DEFAULT 18 _ZTCN7android8hardware5au
179:   FUNC GLOBAL DEFAULT 14 _ZN7android8hardware5audi
180:   FUNC GLOBAL DEFAULT 14 _ZN7android8hardware5audi
181:   OBJECT GLOBAL DEFAULT 18 _ZTTN7android8hardware5au
182:   OBJECT GLOBAL DEFAULT 18 _ZTTN7android8hardware5au
183:   FUNC GLOBAL DEFAULT 14 _ZN7android8hardware5audi
184:   FUNC GLOBAL DEFAULT 14 _ZN7android8hardware5audi
185:   FUNC GLOBAL DEFAULT 14 _ZN7android8hardware5audi
186:   FUNC GLOBAL DEFAULT 14 _ZN7android8hardware5audi
187:   FUNC GLOBAL DEFAULT 14 _ZN7android8hardware5audi
188:   FUNC GLOBAL DEFAULT 14 _ZN7android8hardware5audi
189:   FUNC GLOBAL DEFAULT 14 _ZN7android8hardware5audi
190:   FUNC GLOBAL DEFAULT 14 _ZN7android8hardware5audi
191:   FUNC GLOBAL DEFAULT 14 _ZN7android8hardware5audi
192:   FUNC GLOBAL DEFAULT 14 _ZN7android8hardware5audi
193:   FUNC GLOBAL DEFAULT 14 _ZN7android8hardware5audi
194:   FUNC GLOBAL DEFAULT 14 _ZN7android8hardware5audi
195:   FUNC GLOBAL DEFAULT 14 _ZN7android8hardware5audi
196:   FUNC WEAK DEFAULT 14 _ZN7android8hardware10fro
197:   OBJECT GLOBAL DEFAULT 18 _ZTCN7android8hardware5au
198:   OBJECT GLOBAL DEFAULT 18 _ZTVN7android8hardware5au
199:   FUNC WEAK DEFAULT 14 _ZN7android8hardware7deta
200:   FUNC GLOBAL DEFAULT 14 _ZN7android8hardware5audi
201:   FUNC GLOBAL DEFAULT 14 _ZN7android8hardware5audi
202:   FUNC GLOBAL DEFAULT 14 _ZN7android8hardware5audi
203:   OBJECT GLOBAL DEFAULT 18 _ZTCN7android8hardware5au
204:   FUNC GLOBAL DEFAULT 14 _ZN7android8hardware5audi
205:   FUNC GLOBAL DEFAULT 14 _ZN7android8hardware5audi
206:   OBJECT GLOBAL DEFAULT 18 _ZTCN7android8hardware5au
207:   FUNC GLOBAL DEFAULT 14 _ZN7android8hardware5audi
208:   FUNC GLOBAL DEFAULT 14 _ZN7android8hardware5audi
209:   FUNC GLOBAL DEFAULT 14 _ZN7android8hardware5audi
210:   FUNC GLOBAL DEFAULT 14 _ZN7android8hardware5audi
211:   OBJECT GLOBAL DEFAULT 16 _ZN7android8hardware5audi
212:   FUNC GLOBAL DEFAULT 14 _ZN7android8hardware5audi
213:   FUNC GLOBAL DEFAULT 14 _ZN7android8hardware5audi
214:   FUNC GLOBAL DEFAULT 14 _ZN7android8hardware5audi
215:   FUNC GLOBAL DEFAULT 14 _ZN7android8hardware5audi
216:   FUNC WEAK DEFAULT 14 _ZNSt3__16__treeINS_12__v
217:   FUNC GLOBAL DEFAULT 14 _ZN7android8hardware5audi
218:   FUNC GLOBAL DEFAULT 14 _ZN7android8hardware5audi
219:   FUNC GLOBAL DEFAULT 14 _ZN7android8hardware5audi
220:   FUNC GLOBAL DEFAULT 14 _ZN7android8hardware5audi
221:   FUNC GLOBAL DEFAULT 14 _ZN7android8hardware5audi
222:   FUNC GLOBAL DEFAULT 14 _ZN7android8hardware5audi
223:   FUNC GLOBAL DEFAULT 14 _ZN7android8hardware5audi
224:   OBJECT GLOBAL DEFAULT 18 _ZTCN7android8hardware5au
225:   FUNC GLOBAL DEFAULT 14 _ZN7android8hardware5audi
226:   FUNC GLOBAL DEFAULT 14 _ZN7android8hardware5audi
227:   FUNC GLOBAL DEFAULT 14 _ZN7android8hardware5audi
228:   FUNC GLOBAL DEFAULT 14 _ZN7android8hardware5audi
229:   FUNC GLOBAL DEFAULT 14 _ZN7android8hardware5audi
230:   FUNC GLOBAL DEFAULT 14 _ZN7android8hardware5audi
231:   FUNC GLOBAL DEFAULT 14 _ZN7android8hardware5audi
232:   FUNC GLOBAL DEFAULT 14 _ZN7android8hardware5audi
233:   FUNC GLOBAL DEFAULT 14 _ZN7android8hardware5audi
234:   OBJECT GLOBAL DEFAULT 18 _ZTVN7android8hardware5au
235:   FUNC GLOBAL DEFAULT 14 _ZN7android8hardware5audi
236:   FUNC GLOBAL DEFAULT 14 _ZN7android8hardware5audi
237:   OBJECT GLOBAL DEFAULT 18 _ZTCN7android8hardware5au
238:   FUNC GLOBAL DEFAULT 14 _ZTv0_n24_N7android8hardw
239:   FUNC GLOBAL DEFAULT 14 _ZN7android8hardware5audi
240:   FUNC GLOBAL DEFAULT 14 _ZN7android8hardware5audi
241:   FUNC GLOBAL DEFAULT 14 _ZN7android8hardware5audi
242:   FUNC GLOBAL DEFAULT 14 _ZN7android8hardware5audi
243:   FUNC GLOBAL DEFAULT 14 _ZN7android8hardware5audi
244:   FUNC GLOBAL DEFAULT 14 _ZN7android8hardware5audi
245:   OBJECT GLOBAL DEFAULT 18 _ZTCN7android8hardware5au
246:   OBJECT GLOBAL DEFAULT 18 _ZTVN7android8hardware5au
247:   FUNC GLOBAL DEFAULT 14 _ZN7android8hardware5audi
248:   FUNC GLOBAL DEFAULT 14 _ZN7android8hardware5audi
249:   OBJECT GLOBAL DEFAULT 18 _ZTCN7android8hardware5au
250:   FUNC GLOBAL DEFAULT 14 _ZN7android8hardware5audi
251:   FUNC GLOBAL DEFAULT 14 _ZThn32_N7android8hardwar
252:   FUNC GLOBAL DEFAULT 14 _ZN7android8hardware5audi
253:   FUNC GLOBAL DEFAULT 14 _ZN7android8hardware5audi
254:   FUNC GLOBAL DEFAULT 14 _ZN7android8hardware5audi
255:   OBJECT GLOBAL DEFAULT 18 _ZTCN7android8hardware5au
256:   FUNC GLOBAL DEFAULT 14 _ZN7android8hardware5audi
257:   FUNC GLOBAL DEFAULT 14 _ZN7android8hardware5audi
258:   OBJECT GLOBAL DEFAULT 18 _ZTCN7android8hardware5au
259:   FUNC GLOBAL DEFAULT 14 _ZN7android8hardware5audi
260:   FUNC GLOBAL DEFAULT 14 _ZN7android8hardware5audi
261:   FUNC GLOBAL DEFAULT 14 _ZN7android8hardware5audi
262:   FUNC GLOBAL DEFAULT 14 _ZN7android8hardware5audi
263:   FUNC GLOBAL DEFAULT 14 _ZN7android8hardware5audi
264:   FUNC GLOBAL DEFAULT 14 _ZN7android8hardware5audi
265:   FUNC GLOBAL DEFAULT 14 _ZN7android8hardware5audi
266:   OBJECT GLOBAL DEFAULT 18 _ZTVN7android8hardware5au
267:   OBJECT GLOBAL DEFAULT 18 _ZTCN7android8hardware5au
268:   OBJECT WEAK DEFAULT 18 _ZTVN7android8hardware5au
269:   FUNC GLOBAL DEFAULT 14 _ZN7android8hardware5audi
270:   FUNC GLOBAL DEFAULT 14 _ZThn32_N7android8hardwar
271:   FUNC GLOBAL DEFAULT 14 _ZN7android8hardware5audi
272:   FUNC GLOBAL DEFAULT 14 _ZN7android8hardware5audi
273:   FUNC GLOBAL DEFAULT 14 _ZN7android8hardware5audi
274:   OBJECT GLOBAL DEFAULT 18 _ZTVN7android8hardware5au
275:   FUNC GLOBAL DEFAULT 14 _ZN7android8hardware5audi
276:   FUNC GLOBAL DEFAULT 14 _ZN7android8hardware5audi
277:   FUNC GLOBAL DEFAULT 14 _ZN7android8hardware5audi
278:   OBJECT GLOBAL DEFAULT 18 _ZTCN7android8hardware5au
279:   FUNC GLOBAL DEFAULT 14 _ZN7android8hardware5audi
280:   FUNC GLOBAL DEFAULT 14 _ZN7android8hardware5audi
281:   FUNC GLOBAL DEFAULT 14 _ZN7android8hardware5audi
282:   OBJECT WEAK DEFAULT 18 _ZTCN7android8hardware5au
283:   FUNC GLOBAL DEFAULT 14 _ZN7android8hardware5audi
284:   FUNC GLOBAL DEFAULT 14 _ZN7android8hardware5audi
285:   FUNC GLOBAL DEFAULT 14 _ZN7android8hardware5audi
286:   OBJECT GLOBAL DEFAULT 18 _ZTCN7android8hardware5au
287:   FUNC GLOBAL DEFAULT 14 _ZN7android8hardware5audi
288:   FUNC GLOBAL DEFAULT 14 _ZN7android8hardware5audi
289:   FUNC GLOBAL DEFAULT 14 _ZN7android8hardware5audi
290:   FUNC GLOBAL DEFAULT 14 _ZN7android8hardware5audi
291:   FUNC GLOBAL DEFAULT 14 _ZN7android8hardware5audi
292:   OBJECT WEAK DEFAULT 18 _ZTCN7android8hardware5au
293:   FUNC GLOBAL DEFAULT 14 _ZN7android8hardware5audi
294:   FUNC GLOBAL DEFAULT 14 _ZN7android8hardware5audi
295:   FUNC GLOBAL DEFAULT 14 _ZN7android8hardware5audi
296:   FUNC GLOBAL DEFAULT 14 _ZN7android8hardware5audi
297:   OBJECT GLOBAL DEFAULT 18 _ZTCN7android8hardware5au
298:   OBJECT GLOBAL DEFAULT 18 _ZTCN7android8hardware5au
299:   FUNC GLOBAL DEFAULT 14 _ZN7android8hardware5audi
300:   FUNC GLOBAL DEFAULT 14 _ZN7android8hardware5audi
301:   FUNC GLOBAL DEFAULT 14 _ZN7android8hardware5audi
302:   FUNC GLOBAL DEFAULT 14 _ZN7android8hardware5audi
303:   FUNC GLOBAL DEFAULT 14 _ZTv0_n24_N7android8hardw
304:   FUNC GLOBAL DEFAULT 14 _ZN7android8hardware5audi
305:   OBJECT GLOBAL DEFAULT 18 _ZTCN7android8hardware5au
306:   FUNC GLOBAL DEFAULT 14 _ZN7android8hardware5audi
307:   FUNC GLOBAL DEFAULT 14 _ZN7android8hardware5audi
308:   FUNC GLOBAL DEFAULT 14 _ZN7android8hardware5audi
309:   FUNC GLOBAL DEFAULT 14 _ZN7android8hardware5audi
310:   FUNC GLOBAL DEFAULT 14 _ZN7android8hardware5audi
311:   FUNC GLOBAL DEFAULT 14 _ZN7android8hardware5audi
312:   OBJECT GLOBAL DEFAULT 18 _ZTVN7android8hardware5au
313:   FUNC GLOBAL DEFAULT 14 _ZN7android8hardware5audi
314:   OBJECT GLOBAL DEFAULT 18 _ZTVN7android8hardware5au
315:   FUNC GLOBAL DEFAULT 14 _ZN7android8hardware5audi
316:   OBJECT GLOBAL DEFAULT 18 _ZTCN7android8hardware5au
317:   FUNC GLOBAL DEFAULT 14 _ZN7android8hardware5audi
318:   FUNC GLOBAL DEFAULT 14 _ZN7android8hardware5audi
319:   FUNC GLOBAL DEFAULT 14 _ZN7android8hardware5audi
320:   FUNC GLOBAL DEFAULT 14 _ZN7android8hardware5audi
321:   OBJECT GLOBAL DEFAULT 18 _ZTTN7android8hardware5au
322:   FUNC GLOBAL DEFAULT 14 _ZN7android8hardware5audi
323:   FUNC GLOBAL DEFAULT 14 _ZN7android8hardware5audi
324:   FUNC GLOBAL DEFAULT 14 _ZN7android8hardware5audi
325:   FUNC GLOBAL DEFAULT 14 _ZN7android8hardware5audi
326:   OBJECT GLOBAL DEFAULT 18 _ZTCN7android8hardware5au
327:   OBJECT GLOBAL DEFAULT 18 _ZTCN7android8hardware5au
328:   FUNC GLOBAL DEFAULT 14 _ZN7android8hardware5audi
329:   FUNC GLOBAL DEFAULT 14 _ZN7android8hardware5audi
330:   FUNC GLOBAL DEFAULT 14 _ZN7android8hardware5audi
331:   FUNC GLOBAL DEFAULT 14 _ZN7android8hardware5audi
332:   FUNC GLOBAL DEFAULT 14 _ZN7android8hardware5audi
333:   FUNC GLOBAL DEFAULT 14 _ZN7android8hardware5audi
334:   FUNC GLOBAL DEFAULT 14 _ZThn32_N7android8hardwar
335:   FUNC GLOBAL DEFAULT 14 _ZN7android8hardware5audi
336:   FUNC GLOBAL DEFAULT 14 _ZN7android8hardware5audi
337:   FUNC GLOBAL DEFAULT 14 _ZN7android8hardware5audi
338:   FUNC GLOBAL DEFAULT 14 _ZN7android8hardware5audi
339:   FUNC GLOBAL DEFAULT 14 _ZN7android8hardware5audi
340:   OBJECT GLOBAL DEFAULT 18 _ZTCN7android8hardware5au
341:   FUNC GLOBAL DEFAULT 14 _ZN7android8hardware5audi
342:   FUNC GLOBAL DEFAULT 14 _ZN7android8hardware5audi
343:   FUNC GLOBAL DEFAULT 14 _ZN7android8hardware5audi
344:   OBJECT GLOBAL DEFAULT 18 _ZTTN7android8hardware5au
345:   FUNC GLOBAL DEFAULT 14 _ZN7android8hardware5audi
346:   FUNC GLOBAL DEFAULT 14 _ZN7android8hardware5audi
347:   FUNC GLOBAL DEFAULT 14 _ZN7android8hardware5audi
348:   FUNC GLOBAL DEFAULT 14 _ZN7android8hardware5audi
349:   FUNC GLOBAL DEFAULT 14 _ZN7android8hardware5audi
350:   FUNC GLOBAL DEFAULT 14 _ZN7android8hardware5audi
351:   FUNC GLOBAL DEFAULT 14 _ZN7android8hardware5audi
352:   FUNC GLOBAL DEFAULT 14 _ZN7android8hardware5audi
353:   FUNC GLOBAL DEFAULT 14 _ZN7android8hardware5audi
354:   FUNC GLOBAL DEFAULT 14 _ZN7android8hardware5audi
355:   OBJECT GLOBAL DEFAULT 18 _ZTVN7android8hardware5au
356:   FUNC GLOBAL DEFAULT 14 _ZN7android8hardware5audi
357:   FUNC GLOBAL DEFAULT 14 _ZN7android8hardware5audi
358:   FUNC GLOBAL DEFAULT 14 _ZN7android8hardware5audi
359:   FUNC GLOBAL DEFAULT 14 _ZN7android8hardware5audi
360:   FUNC GLOBAL DEFAULT 14 _ZN7android8hardware5audi
361:   FUNC GLOBAL DEFAULT 14 _ZN7android8hardware5audi
362:   FUNC GLOBAL DEFAULT 14 _ZN7android8hardware5audi
363:   FUNC GLOBAL DEFAULT 14 _ZN7android8hardware5audi
364:   FUNC GLOBAL DEFAULT 14 _ZN7android8hardware5audi
365:   OBJECT GLOBAL DEFAULT 18 _ZTTN7android8hardware5au
366:   FUNC GLOBAL DEFAULT 14 _ZN7android8hardware5audi
367:   FUNC GLOBAL DEFAULT 14 _ZN7android8hardware5audi
368:   FUNC GLOBAL DEFAULT 14 _ZN7android8hardware5audi
369:   FUNC GLOBAL DEFAULT 14 _ZN7android8hardware5audi
370:   FUNC GLOBAL DEFAULT 14 _ZThn32_N7android8hardwar
371:   FUNC GLOBAL DEFAULT 14 _ZN7android8hardware5audi
372:   FUNC GLOBAL DEFAULT 14 _ZN7android8hardware5audi
373:   FUNC GLOBAL DEFAULT 14 _ZN7android8hardware5audi
374:   FUNC GLOBAL DEFAULT 14 _ZN7android8hardware5audi
375:   FUNC GLOBAL DEFAULT 14 _ZN7android8hardware5audi
376:   FUNC GLOBAL DEFAULT 14 _ZN7android8hardware5audi
377:   FUNC WEAK DEFAULT 14 _ZNSt3__16__treeINS_12__v
378:   OBJECT GLOBAL DEFAULT 18 _ZTVN7android8hardware5au
379:   OBJECT GLOBAL DEFAULT 18 _ZTCN7android8hardware5au
380:   FUNC GLOBAL DEFAULT 14 _ZN7android8hardware5audi
381:   FUNC GLOBAL DEFAULT 14 _ZN7android8hardware5audi
382:   FUNC GLOBAL DEFAULT 14 _ZN7android8hardware5audi
383:   FUNC GLOBAL DEFAULT 14 _ZN7android8hardware5audi
384:   FUNC GLOBAL DEFAULT 14 _ZN7android8hardware5audi
385:   FUNC GLOBAL DEFAULT 14 _ZN7android8hardware5audi
386:   FUNC GLOBAL DEFAULT 14 _ZN7android8hardware5audi
387:   FUNC GLOBAL DEFAULT 14 _ZN7android8hardware5audi
388:   FUNC GLOBAL DEFAULT 14 _ZN7android8hardware5audi
389:   FUNC GLOBAL DEFAULT 14 _ZN7android8hardware5audi
390:   FUNC GLOBAL DEFAULT 14 _ZN7android8hardware5audi
391:   FUNC GLOBAL DEFAULT 14 _ZN7android8hardware5audi
392:   OBJECT GLOBAL DEFAULT 18 _ZTTN7android8hardware5au
393:   OBJECT GLOBAL DEFAULT 18 _ZTVN7android8hardware5au
394:   FUNC GLOBAL DEFAULT 14 _ZN7android8hardware5audi
395:   FUNC GLOBAL DEFAULT 14 _ZN7android8hardware5audi
396:   FUNC GLOBAL DEFAULT 14 _ZN7android8hardware5audi
397:   FUNC GLOBAL DEFAULT 14 _ZN7android8hardware5audi
398:   FUNC GLOBAL DEFAULT 14 _ZN7android8hardware5audi
399:   FUNC GLOBAL DEFAULT 14 _ZN7android8hardware5audi
400:   FUNC GLOBAL DEFAULT 14 _ZN7android8hardware5audi
401:   OBJECT GLOBAL DEFAULT 18 _ZTCN7android8hardware5au
402:   FUNC GLOBAL DEFAULT 14 _ZN7android8hardware5audi
403:   FUNC GLOBAL DEFAULT 14 _ZN7android8hardware5audi
404:   FUNC GLOBAL DEFAULT 14 _ZN7android8hardware5audi
405:   FUNC GLOBAL DEFAULT 14 _ZN7android8hardware5audi
406:   OBJECT GLOBAL DEFAULT 18 _ZTCN7android8hardware5au
407:   FUNC GLOBAL DEFAULT 14 _ZN7android8hardware5audi
408:   OBJECT GLOBAL DEFAULT 18 _ZTCN7android8hardware5au
409:   FUNC GLOBAL DEFAULT 14 _ZN7android8hardware5audi
410:   FUNC GLOBAL DEFAULT 14 _ZN7android8hardware5audi
411:   OBJECT GLOBAL DEFAULT 18 _ZTCN7android8hardware5au
412:   FUNC GLOBAL DEFAULT 14 _ZN7android8hardware5audi
413:   FUNC GLOBAL DEFAULT 14 _ZN7android8hardware5audi
414:   FUNC GLOBAL DEFAULT 14 _ZN7android8hardware5audi
415:   FUNC GLOBAL DEFAULT 14 _ZN7android8hardware5audi
416:   FUNC GLOBAL DEFAULT 14 _ZN7android8hardware5audi
417:   FUNC GLOBAL DEFAULT 14 _ZN7android8hardware5audi
418:   FUNC GLOBAL DEFAULT 14 _ZN7android8hardware5audi
419:   FUNC GLOBAL DEFAULT 14 _ZN7android8hardware5audi
420:   FUNC GLOBAL DEFAULT 14 _ZTv0_n24_N7android8hardw
421:   OBJECT GLOBAL DEFAULT 18 _ZTCN7android8hardware5au
422:   FUNC GLOBAL DEFAULT 14 _ZN7android8hardware5audi
423:   FUNC GLOBAL DEFAULT 14 _ZN7android8hardware5audi
424:   FUNC GLOBAL DEFAULT 14 _ZN7android8hardware5audi
425:   FUNC GLOBAL DEFAULT 14 _ZN7android8hardware5audi
426:   FUNC GLOBAL DEFAULT 14 _ZN7android8hardware5audi
427:   OBJECT GLOBAL DEFAULT 18 _ZTVN7android8hardware5au
428:   FUNC GLOBAL DEFAULT 14 _ZN7android8hardware5audi
429:   FUNC GLOBAL DEFAULT 14 _ZN7android8hardware5audi
430:   FUNC GLOBAL DEFAULT 14 _ZN7android8hardware5audi
431:   FUNC GLOBAL DEFAULT 14 _ZN7android8hardware5audi
432:   FUNC GLOBAL DEFAULT 14 _ZN7android8hardware5audi
433:   OBJECT WEAK DEFAULT 18 _ZTVN7android8hardware5au
434:   FUNC GLOBAL DEFAULT 14 _ZN7android8hardware5audi
435:   OBJECT GLOBAL DEFAULT 18 _ZTCN7android8hardware5au
436:   FUNC GLOBAL DEFAULT 14 _ZN7android8hardware5audi
437:   FUNC GLOBAL DEFAULT 14 _ZN7android8hardware5audi
438:   FUNC GLOBAL DEFAULT 14 _ZN7android8hardware5audi
439:   FUNC GLOBAL DEFAULT 14 _ZN7android8hardware5audi
440:   FUNC GLOBAL DEFAULT 14 _ZN7android8hardware5audi
441:   FUNC GLOBAL DEFAULT 14 _ZN7android8hardware5audi
442:   FUNC GLOBAL DEFAULT 14 _ZN7android8hardware5audi
443:   OBJECT GLOBAL DEFAULT 18 _ZTVN7android8hardware5au
444:   FUNC GLOBAL DEFAULT 14 _ZN7android8hardware5audi
445:   FUNC GLOBAL DEFAULT 14 _ZN7android8hardware5audi
446:   FUNC GLOBAL DEFAULT 14 _ZN7android8hardware5audi
447:   FUNC GLOBAL DEFAULT 14 _ZN7android8hardware5audi
448:   FUNC GLOBAL DEFAULT 14 _ZN7android8hardware5audi
449:   FUNC GLOBAL DEFAULT 14 _ZN7android8hardware5audi
450:   FUNC GLOBAL DEFAULT 14 _ZN7android8hardware5audi
451:   FUNC GLOBAL DEFAULT 14 _ZN7android8hardware5audi
452:   FUNC GLOBAL DEFAULT 14 _ZN7android8hardware5audi
453:   FUNC GLOBAL DEFAULT 14 _ZN7android8hardware5audi
454:   OBJECT GLOBAL DEFAULT 18 _ZTCN7android8hardware5au
455:   FUNC GLOBAL DEFAULT 14 _ZN7android8hardware5audi
456:   OBJECT GLOBAL DEFAULT 18 _ZTTN7android8hardware5au
457:   FUNC GLOBAL DEFAULT 14 _ZN7android8hardware5audi
458:   FUNC GLOBAL DEFAULT 14 _ZN7android8hardware5audi
459:   FUNC GLOBAL DEFAULT 14 _ZN7android8hardware5audi
460:   FUNC GLOBAL DEFAULT 14 _ZN7android8hardware5audi
461:   FUNC GLOBAL DEFAULT 14 _ZN7android8hardware5audi
462:   FUNC GLOBAL DEFAULT 14 _ZN7android8hardware5audi
463:   FUNC GLOBAL DEFAULT 14 _ZN7android8hardware5audi
464:   OBJECT GLOBAL DEFAULT 18 _ZTTN7android8hardware5au
465:   OBJECT GLOBAL DEFAULT 18 _ZTVN7android8hardware5au
466:   FUNC GLOBAL DEFAULT 14 _ZN7android8hardware5audi
467:   FUNC GLOBAL DEFAULT 14 _ZN7android8hardware5audi
468:   FUNC GLOBAL DEFAULT 14 _ZN7android8hardware5audi
469:   FUNC GLOBAL DEFAULT 14 _ZN7android8hardware5audi
470:   FUNC GLOBAL DEFAULT 14 _ZN7android8hardware5audi
471:   OBJECT GLOBAL DEFAULT 18 _ZTCN7android8hardware5au
472:   FUNC GLOBAL DEFAULT 14 _ZN7android8hardware5audi
473:   FUNC GLOBAL DEFAULT 14 _ZN7android8hardware5audi
474:   OBJECT GLOBAL DEFAULT 18 _ZTCN7android8hardware5au
475:   FUNC GLOBAL DEFAULT 14 _ZN7android8hardware5audi
476:   FUNC GLOBAL DEFAULT 14 _ZN7android8hardware5audi
477:   FUNC WEAK DEFAULT 14 _ZN7android8hardware7deta
478:   FUNC GLOBAL DEFAULT 14 _ZN7android8hardware5audi
479:   FUNC GLOBAL DEFAULT 14 _ZN7android8hardware5audi
480:   FUNC GLOBAL DEFAULT 14 _ZN7android8hardware5audi
481:   FUNC GLOBAL DEFAULT 14 _ZN7android8hardware5audi
482:   FUNC GLOBAL DEFAULT 14 _ZN7android8hardware5audi
483:   FUNC GLOBAL DEFAULT 14 _ZTv0_n24_N7android8hardw
484:   FUNC GLOBAL DEFAULT 14 _ZN7android8hardware5audi
485:   FUNC WEAK DEFAULT 14 _ZN7android8hardware7deta
486:   OBJECT GLOBAL DEFAULT 18 _ZTTN7android8hardware5au
487:   OBJECT GLOBAL DEFAULT 18 _ZTTN7android8hardware5au
488:   FUNC GLOBAL DEFAULT 14 _ZN7android8hardware5audi
489:   OBJECT GLOBAL DEFAULT 18 _ZTVN7android8hardware5au
490:   FUNC GLOBAL DEFAULT 14 _ZN7android8hardware5audi
491:   FUNC GLOBAL DEFAULT 14 _ZN7android8hardware5audi
492:   FUNC GLOBAL DEFAULT 14 _ZN7android8hardware5audi
493:   FUNC GLOBAL DEFAULT 14 _ZN7android8hardware5audi
494:   FUNC GLOBAL DEFAULT 14 _ZN7android8hardware5audi
495:   OBJECT GLOBAL DEFAULT 18 _ZTCN7android8hardware5au
496:   FUNC GLOBAL DEFAULT 14 _ZN7android8hardware5audi
497:   OBJECT GLOBAL DEFAULT 18 _ZTCN7android8hardware5au
498:   OBJECT GLOBAL DEFAULT 18 _ZTCN7android8hardware5au
499:   FUNC GLOBAL DEFAULT 14 _ZN7android8hardware5audi
500:   FUNC GLOBAL DEFAULT 14 _ZN7android8hardware5audi
501:   FUNC GLOBAL DEFAULT 14 _ZN7android8hardware5audi
502:   FUNC GLOBAL DEFAULT 14 _ZN7android8hardware5audi
503:   FUNC GLOBAL DEFAULT 14 _ZN7android8hardware5audi
504:   OBJECT GLOBAL DEFAULT 18 _ZTCN7android8hardware5au
505:   FUNC GLOBAL DEFAULT 14 _ZN7android8hardware5audi
506:   FUNC GLOBAL DEFAULT 14 _ZN7android8hardware5audi
507:   FUNC GLOBAL DEFAULT 14 _ZN7android8hardware5audi
508:   OBJECT WEAK DEFAULT 18 _ZTCN7android8hardware5au
509:   FUNC GLOBAL DEFAULT 14 _ZN7android8hardware5audi
510:   FUNC GLOBAL DEFAULT 14 _ZN7android8hardware5audi
511:   FUNC GLOBAL DEFAULT 14 _ZN7android8hardware5audi
512:   FUNC GLOBAL DEFAULT 14 _ZN7android8hardware5audi
513:   FUNC GLOBAL DEFAULT 14 _ZN7android8hardware5audi
514:   FUNC GLOBAL DEFAULT 14 _ZN7android8hardware5audi
515:   FUNC GLOBAL DEFAULT 14 _ZN7android8hardware5audi
516:   FUNC GLOBAL DEFAULT 14 _ZN7android8hardware5audi
517:   FUNC GLOBAL DEFAULT 14 _ZN7android8hardware5audi
518:   FUNC GLOBAL DEFAULT 14 _ZN7android8hardware5audi
519:   FUNC GLOBAL DEFAULT 14 _ZN7android8hardware5audi
520:   FUNC GLOBAL DEFAULT 14 _ZN7android8hardware5audi
521:   FUNC GLOBAL DEFAULT 14 _ZN7android8hardware5audi
522:   OBJECT GLOBAL DEFAULT 18 _ZTCN7android8hardware5au
523:   FUNC GLOBAL DEFAULT 14 _ZN7android8hardware5audi
524:   FUNC GLOBAL DEFAULT 14 _ZN7android8hardware5audi
525:   FUNC GLOBAL DEFAULT 14 _ZN7android8hardware5audi
526:   FUNC GLOBAL DEFAULT 14 _ZTv0_n24_N7android8hardw
527:   FUNC GLOBAL DEFAULT 14 _ZN7android8hardware5audi
528:   FUNC GLOBAL DEFAULT 14 _ZN7android8hardware5audi
529:   OBJECT GLOBAL DEFAULT 16 _ZN7android8hardware5audi
530:   FUNC GLOBAL DEFAULT 14 _ZN7android8hardware5audi
531:   OBJECT GLOBAL DEFAULT 18 _ZTTN7android8hardware5au
532:   FUNC GLOBAL DEFAULT 14 _ZN7android8hardware5audi
533:   FUNC GLOBAL DEFAULT 14 _ZN7android8hardware5audi
534:   OBJECT GLOBAL DEFAULT 18 _ZTVN7android8hardware5au
535:   FUNC GLOBAL DEFAULT 14 _ZN7android8hardware5audi
536:   FUNC GLOBAL DEFAULT 14 _ZN7android8hardware5audi
537:   OBJECT GLOBAL DEFAULT 18 _ZTCN7android8hardware5au
538:   FUNC GLOBAL DEFAULT 14 _ZN7android8hardware5audi
539:   FUNC GLOBAL DEFAULT 14 _ZN7android8hardware5audi
540:   FUNC GLOBAL DEFAULT 14 _ZN7android8hardware5audi
541:   OBJECT GLOBAL DEFAULT 18 _ZTTN7android8hardware5au
542:   FUNC GLOBAL DEFAULT 14 _ZN7android8hardware5audi
543:   FUNC GLOBAL DEFAULT 14 _ZN7android8hardware5audi
544:   OBJECT GLOBAL DEFAULT 18 _ZTVN7android8hardware5au
545:   FUNC GLOBAL DEFAULT 14 _ZN7android8hardware5audi
546:   OBJECT GLOBAL DEFAULT 18 _ZTCN7android8hardware5au
547:   FUNC GLOBAL DEFAULT 14 _ZN7android8hardware5audi
548:   FUNC GLOBAL DEFAULT 14 _ZN7android8hardware5audi
549:   OBJECT GLOBAL DEFAULT 18 _ZTCN7android8hardware5au
550:   FUNC GLOBAL DEFAULT 14 _ZTv0_n24_N7android8hardw
551:   OBJECT GLOBAL DEFAULT 18 _ZTCN7android8hardware5au
552:   FUNC GLOBAL DEFAULT 14 _ZN7android8hardware5audi
553:   OBJECT GLOBAL DEFAULT 18 _ZTCN7android8hardware5au
554:   FUNC GLOBAL DEFAULT 14 _ZN7android8hardware5audi
555:   FUNC GLOBAL DEFAULT 14 _ZN7android8hardware5audi
556:   OBJECT GLOBAL DEFAULT 18 _ZTVN7android8hardware5au
557:   FUNC GLOBAL DEFAULT 14 _ZN7android8hardware5audi
558:   FUNC GLOBAL DEFAULT 14 _ZN7android8hardware5audi
559:   FUNC GLOBAL DEFAULT 14 _ZN7android8hardware5audi
560:   FUNC GLOBAL DEFAULT 14 _ZN7android8hardware5audi
561:   FUNC WEAK DEFAULT 14 _ZN7android8hardware7deta
562:   OBJECT GLOBAL DEFAULT 18 _ZTCN7android8hardware5au
563:   FUNC GLOBAL DEFAULT 14 _ZN7android8hardware5audi
564:   FUNC GLOBAL DEFAULT 14 _ZN7android8hardware5audi
565:   OBJECT GLOBAL DEFAULT 18 _ZTCN7android8hardware5au
566:   FUNC GLOBAL DEFAULT 14 _ZN7android8hardware5audi
567:   OBJECT WEAK DEFAULT 18 _ZTVN7android8hardware5au
568:   FUNC GLOBAL DEFAULT 14 _ZN7android8hardware5audi
569:   FUNC WEAK DEFAULT 14 _ZN7android8hardware7deta
570:   FUNC GLOBAL DEFAULT 14 _ZN7android8hardware5audi
571:   FUNC GLOBAL DEFAULT 14 _ZN7android8hardware5audi
572:   FUNC GLOBAL DEFAULT 14 _ZN7android8hardware5audi
573:   FUNC GLOBAL DEFAULT 14 _ZN7android8hardware5audi
574:   OBJECT GLOBAL DEFAULT 16 _ZN7android8hardware5audi
575:   FUNC GLOBAL DEFAULT 14 _ZN7android8hardware5audi
576:   FUNC GLOBAL DEFAULT 14 _ZN7android8hardware5audi
577:   OBJECT GLOBAL DEFAULT 18 _ZTCN7android8hardware5au
578:   FUNC GLOBAL DEFAULT 14 _ZN7android8hardware5audi
579:   FUNC GLOBAL DEFAULT 14 _ZN7android8hardware5audi
580:   FUNC GLOBAL DEFAULT 14 _ZN7android8hardware5audi
581:   FUNC GLOBAL DEFAULT 14 _ZN7android8hardware5audi
582:   FUNC GLOBAL DEFAULT 14 _ZN7android8hardware5audi
583:   FUNC GLOBAL DEFAULT 14 _ZN7android8hardware5audi
584:   FUNC GLOBAL DEFAULT 14 _ZN7android8hardware5audi
585:   OBJECT GLOBAL DEFAULT 18 _ZTTN7android8hardware5au
586:   FUNC GLOBAL DEFAULT 14 _ZN7android8hardware5audi
587:   FUNC GLOBAL DEFAULT 14 _ZN7android8hardware5audi
588:   FUNC GLOBAL DEFAULT 14 _ZN7android8hardware5audi
589:   FUNC WEAK DEFAULT 14 _ZN7android8hardware7deta
590:   FUNC GLOBAL DEFAULT 14 _ZN7android8hardware5audi
591:   FUNC GLOBAL DEFAULT 14 _ZN7android8hardware5audi
592:   OBJECT GLOBAL DEFAULT 18 _ZTCN7android8hardware5au
593:   FUNC GLOBAL DEFAULT 14 _ZN7android8hardware5audi
594:   FUNC GLOBAL DEFAULT 14 _ZN7android8hardware5audi
595:   FUNC GLOBAL DEFAULT 14 _ZN7android8hardware5audi
596:   FUNC GLOBAL DEFAULT 14 _ZN7android8hardware5audi
597:   FUNC GLOBAL DEFAULT 14 _ZN7android8hardware5audi
598:   FUNC GLOBAL DEFAULT 14 _ZN7android8hardware5audi
599:   FUNC GLOBAL DEFAULT 14 _ZN7android8hardware5audi
600:   FUNC GLOBAL DEFAULT 14 _ZN7android8hardware5audi
601:   FUNC GLOBAL DEFAULT 14 _ZN7android8hardware5audi
602:   FUNC GLOBAL DEFAULT 14 _ZN7android8hardware5audi
603:   OBJECT GLOBAL DEFAULT 18 _ZTCN7android8hardware5au
604:   FUNC GLOBAL DEFAULT 14 _ZN7android8hardware5audi
605:   FUNC GLOBAL DEFAULT 14 _ZN7android8hardware5audi
606:   FUNC WEAK DEFAULT 14 _ZNSt3__16vectorIN7androi
607:   OBJECT GLOBAL DEFAULT 18 _ZTCN7android8hardware5au
608:   FUNC GLOBAL DEFAULT 14 _ZN7android8hardware5audi
609:   FUNC GLOBAL DEFAULT 14 _ZN7android8hardware5audi
610:   FUNC GLOBAL DEFAULT 14 _ZN7android8hardware5audi
611:   FUNC GLOBAL DEFAULT 14 _ZN7android8hardware5audi
612:   FUNC GLOBAL DEFAULT 14 _ZN7android8hardware5audi
613:   FUNC GLOBAL DEFAULT 14 _ZN7android8hardware5audi
614:   FUNC WEAK DEFAULT 14 _ZN7android8hardware7deta
615:   FUNC GLOBAL DEFAULT 14 _ZN7android8hardware5audi
616:   FUNC GLOBAL DEFAULT 14 _ZN7android8hardware5audi
617:   OBJECT GLOBAL DEFAULT 18 _ZTCN7android8hardware5au
618:   OBJECT WEAK DEFAULT 18 _ZTVN7android8hardware5au
619:   FUNC GLOBAL DEFAULT 14 _ZN7android8hardware5audi
620:   OBJECT GLOBAL DEFAULT 18 _ZTTN7android8hardware5au
621:   FUNC GLOBAL DEFAULT 14 _ZN7android8hardware5audi
622:   FUNC GLOBAL DEFAULT 14 _ZN7android8hardware5audi
623:   FUNC GLOBAL DEFAULT 14 _ZN7android8hardware5audi
624:   FUNC GLOBAL DEFAULT 14 _ZN7android8hardware5audi
625:   FUNC GLOBAL DEFAULT 14 _ZTv0_n24_N7android8hardw
626:   FUNC GLOBAL DEFAULT 14 _ZN7android8hardware5audi
627:   FUNC WEAK DEFAULT 14 _ZN7android8hardware7deta
628:   FUNC GLOBAL DEFAULT 14 _ZN7android8hardware5audi
629:   FUNC GLOBAL DEFAULT 14 _ZN7android8hardware5audi
630:   OBJECT GLOBAL DEFAULT 18 _ZTCN7android8hardware5au
631:   FUNC GLOBAL DEFAULT 14 _ZN7android8hardware5audi
632:   FUNC GLOBAL DEFAULT 14 _ZN7android8hardware5audi
633:   FUNC GLOBAL DEFAULT 14 _ZN7android8hardware5audi
634:   FUNC GLOBAL DEFAULT 14 _ZN7android8hardware5audi
635:   OBJECT WEAK DEFAULT 18 _ZTVN7android8hardware5au
636:   FUNC GLOBAL DEFAULT 14 _ZN7android8hardware5audi
637:   OBJECT GLOBAL DEFAULT 18 _ZTVN7android8hardware5au
638:   FUNC GLOBAL DEFAULT 14 _ZN7android8hardware5audi
639:   FUNC GLOBAL DEFAULT 14 _ZN7android8hardware5audi
640:   FUNC GLOBAL DEFAULT 14 _ZN7android8hardware5audi
641:   FUNC GLOBAL DEFAULT 14 _ZN7android8hardware5audi
642:   FUNC GLOBAL DEFAULT 14 _ZN7android8hardware5audi
643:   FUNC GLOBAL DEFAULT 14 _ZN7android8hardware5audi
644:   FUNC GLOBAL DEFAULT 14 _ZN7android8hardware5audi
645:   OBJECT GLOBAL DEFAULT 18 _ZTCN7android8hardware5au
646:   OBJECT GLOBAL DEFAULT 18 _ZTCN7android8hardware5au
647:   FUNC GLOBAL DEFAULT 14 _ZN7android8hardware5audi
648:   OBJECT GLOBAL DEFAULT 18 _ZTTN7android8hardware5au
649:   FUNC GLOBAL DEFAULT 14 _ZN7android8hardware5audi
650:   OBJECT GLOBAL DEFAULT 18 _ZTCN7android8hardware5au
651:   OBJECT WEAK DEFAULT 18 _ZTVN7android8hardware5au
652:   FUNC GLOBAL DEFAULT 14 _ZN7android8hardware5audi
653:   FUNC GLOBAL DEFAULT 14 _ZN7android8hardware5audi
654:   FUNC GLOBAL DEFAULT 14 _ZN7android8hardware5audi
655:   FUNC GLOBAL DEFAULT 14 _ZN7android8hardware5audi
656:   FUNC GLOBAL DEFAULT 14 _ZN7android8hardware5audi
657:   OBJECT GLOBAL DEFAULT 18 _ZTCN7android8hardware5au
658:   FUNC GLOBAL DEFAULT 14 _ZN7android8hardware5audi
659:   FUNC GLOBAL DEFAULT 14 _ZN7android8hardware5audi
660:   FUNC GLOBAL DEFAULT 14 _ZN7android8hardware5audi
661:   FUNC GLOBAL DEFAULT 14 _ZN7android8hardware5audi
662:   FUNC GLOBAL DEFAULT 14 _ZN7android8hardware5audi
663:   FUNC GLOBAL DEFAULT 14 _ZN7android8hardware5audi
664:   FUNC GLOBAL DEFAULT 14 _ZN7android8hardware5audi
665:   FUNC GLOBAL DEFAULT 14 _ZN7android8hardware5audi
666:   FUNC GLOBAL DEFAULT 14 _ZN7android8hardware5audi
667:   FUNC GLOBAL DEFAULT 14 _ZN7android8hardware5audi
668:   OBJECT WEAK DEFAULT 18 _ZTVN7android8hardware5au
669:   OBJECT WEAK DEFAULT 18 _ZTVN7android8hardware5au
670:   FUNC GLOBAL DEFAULT 14 _ZN7android8hardware5audi
671:   FUNC GLOBAL DEFAULT 14 _ZN7android8hardware5audi
672:   FUNC GLOBAL DEFAULT 14 _ZThn32_N7android8hardwar
673:   FUNC GLOBAL DEFAULT 14 _ZN7android8hardware5audi
674:   FUNC GLOBAL DEFAULT 14 _ZN7android8hardware5audi
675:   FUNC GLOBAL DEFAULT 14 _ZN7android8hardware5audi
676:   FUNC GLOBAL DEFAULT 14 _ZN7android8hardware5audi
677:   OBJECT WEAK DEFAULT 18 _ZTVN7android8hardware5au
678:   FUNC GLOBAL DEFAULT 14 _ZN7android8hardware5audi
679:   FUNC GLOBAL DEFAULT 14 _ZN7android8hardware5audi
680:   FUNC GLOBAL DEFAULT 14 _ZN7android8hardware5audi
681:   FUNC GLOBAL DEFAULT 14 _ZN7android8hardware5audi
682:   FUNC GLOBAL DEFAULT 14 _ZN7android8hardware5audi
683:   FUNC GLOBAL DEFAULT 14 _ZN7android8hardware5audi
684:   OBJECT GLOBAL DEFAULT 18 _ZTTN7android8hardware5au
685:   FUNC GLOBAL DEFAULT 14 _ZN7android8hardware5audi
686:   FUNC GLOBAL DEFAULT 14 _ZN7android8hardware5audi
687:   FUNC GLOBAL DEFAULT 14 _ZN7android8hardware5audi
688:   OBJECT GLOBAL DEFAULT 18 _ZTVN7android8hardware5au
689:   OBJECT GLOBAL DEFAULT 16 _ZN7android8hardware5audi
690:   FUNC GLOBAL DEFAULT 14 _ZN7android8hardware5audi
691:   FUNC GLOBAL DEFAULT 14 _ZN7android8hardware5audi
692:   FUNC GLOBAL DEFAULT 14 _ZN7android8hardware5audi
693:   FUNC GLOBAL DEFAULT 14 _ZN7android8hardware5audi
694:   FUNC GLOBAL DEFAULT 14 _ZN7android8hardware5audi
695:   FUNC GLOBAL DEFAULT 14 _ZN7android8hardware5audi
696:   FUNC GLOBAL DEFAULT 14 _ZN7android8hardware5audi
697:   FUNC GLOBAL DEFAULT 14 _ZN7android8hardware5audi
698:   OBJECT GLOBAL DEFAULT 18 _ZTCN7android8hardware5au
699:   FUNC GLOBAL DEFAULT 14 _ZN7android8hardware5audi
700:   FUNC GLOBAL DEFAULT 14 _ZN7android8hardware5audi
701:   FUNC GLOBAL DEFAULT 14 _ZN7android8hardware5audi
702:   FUNC WEAK DEFAULT 14 _ZN7android8hardware7deta
703:   FUNC GLOBAL DEFAULT 14 _ZN7android8hardware5audi
704:   OBJECT GLOBAL DEFAULT 18 _ZTCN7android8hardware5au
705:   FUNC GLOBAL DEFAULT 14 _ZN7android8hardware5audi
706:   FUNC GLOBAL DEFAULT 14 _ZN7android8hardware5audi
707:   OBJECT GLOBAL DEFAULT 18 _ZTCN7android8hardware5au
708:   FUNC GLOBAL DEFAULT 14 _ZN7android8hardware5audi
709:   FUNC GLOBAL DEFAULT 14 _ZN7android8hardware5audi
710:   FUNC GLOBAL DEFAULT 14 _ZN7android8hardware5audi
711:   OBJECT GLOBAL DEFAULT 18 _ZTTN7android8hardware5au
712:   FUNC GLOBAL DEFAULT 14 _ZN7android8hardware5audi
713:   FUNC GLOBAL DEFAULT 14 _ZN7android8hardware5audi
714:   FUNC GLOBAL DEFAULT 14 _ZN7android8hardware5audi
715:   FUNC GLOBAL DEFAULT 14 _ZN7android8hardware5audi
716:   OBJECT GLOBAL DEFAULT 16 _ZN7android8hardware5audi
717:   FUNC WEAK DEFAULT 14 _ZN7android8hardware7deta
718:   FUNC GLOBAL DEFAULT 14 _ZThn32_N7android8hardwar
719:   FUNC GLOBAL DEFAULT 14 _ZN7android8hardware5audi
720:   FUNC GLOBAL DEFAULT 14 _ZN7android8hardware5audi
721:   FUNC GLOBAL DEFAULT 14 _ZN7android8hardware5audi
722:   OBJECT GLOBAL DEFAULT 18 _ZTCN7android8hardware5au
723:   OBJECT GLOBAL DEFAULT 16 _ZN7android8hardware5audi
724:   FUNC WEAK DEFAULT 14 _ZN7android8hardware7deta
725:   FUNC GLOBAL DEFAULT 14 _ZN7android8hardware5audi
726:   FUNC GLOBAL DEFAULT 14 _ZTv0_n24_N7android8hardw
727:   FUNC GLOBAL DEFAULT 14 _ZN7android8hardware5audi
728:   FUNC GLOBAL DEFAULT 14 _ZN7android8hardware5audi
729:   FUNC GLOBAL DEFAULT 14 _ZN7android8hardware5audi
730:   FUNC GLOBAL DEFAULT 14 _ZN7android8hardware5audi
731:   FUNC GLOBAL DEFAULT 14 _ZN7android8hardware5audi
732:   FUNC GLOBAL DEFAULT 14 _ZN7android8hardware5audi
733:   FUNC GLOBAL DEFAULT 14 _ZN7android8hardware5audi
734:   FUNC GLOBAL DEFAULT 14 _ZN7android8hardware5audi
735:   FUNC GLOBAL DEFAULT 14 _ZN7android8hardware5audi
736:   FUNC WEAK DEFAULT 14 _ZN7android8hardware7deta
737:   FUNC GLOBAL DEFAULT 14 _ZN7android8hardware5audi
738:   FUNC WEAK DEFAULT 14 _ZN7android8hardware7deta
739:   OBJECT GLOBAL DEFAULT 16 _ZN7android8hardware5audi
740:   FUNC GLOBAL DEFAULT 14 _ZN7android8hardware5audi
741:   FUNC GLOBAL DEFAULT 14 _ZN7android8hardware5audi
742:   OBJECT GLOBAL DEFAULT 18 _ZTCN7android8hardware5au
743:   FUNC GLOBAL DEFAULT 14 _ZN7android8hardware5audi
744:   OBJECT GLOBAL DEFAULT 18 _ZTCN7android8hardware5au
745:   FUNC GLOBAL DEFAULT 14 _ZN7android8hardware5audi
746:   FUNC GLOBAL DEFAULT 14 _ZN7android8hardware5audi
747:   FUNC GLOBAL DEFAULT 14 _ZN7android8hardware5audi
748:   OBJECT GLOBAL DEFAULT 18 _ZTCN7android8hardware5au
749:   FUNC GLOBAL DEFAULT 14 _ZN7android8hardware5audi
750:   OBJECT GLOBAL DEFAULT 18 _ZTVN7android8hardware5au
751:   OBJECT GLOBAL DEFAULT 18 _ZTVN7android8hardware5au
752:   FUNC GLOBAL DEFAULT 14 _ZN7android8hardware5audi
753:   FUNC GLOBAL DEFAULT 14 _ZN7android8hardware5audi
754:   FUNC GLOBAL DEFAULT 14 _ZN7android8hardware5audi
755:   OBJECT WEAK DEFAULT 18 _ZTCN7android8hardware5au
756:   FUNC GLOBAL DEFAULT 14 _ZN7android8hardware5audi
757:   FUNC GLOBAL DEFAULT 14 _ZN7android8hardware5audi
758:   FUNC GLOBAL DEFAULT 14 _ZN7android8hardware5audi
759:   FUNC GLOBAL DEFAULT 14 _ZN7android8hardware5audi
760:   FUNC GLOBAL DEFAULT 14 _ZN7android8hardware5audi
761:   FUNC GLOBAL DEFAULT 14 _ZN7android8hardware5audi
762:   FUNC WEAK DEFAULT 14 _ZNSt3__16__treeINS_12__v
763:   OBJECT GLOBAL DEFAULT 18 _ZTCN7android8hardware5au
764:   FUNC GLOBAL DEFAULT 14 _ZN7android8hardware5audi
765:   FUNC GLOBAL DEFAULT 14 _ZN7android8hardware5audi
766:   FUNC GLOBAL DEFAULT 14 _ZN7android8hardware5audi
767:   FUNC GLOBAL DEFAULT 14 _ZN7android8hardware5audi
768:   FUNC GLOBAL DEFAULT 14 _ZN7android8hardware5audi
769:   FUNC GLOBAL DEFAULT 14 _ZN7android8hardware5audi
770:   FUNC GLOBAL DEFAULT 14 _ZN7android8hardware5audi
771:   OBJECT GLOBAL DEFAULT 18 _ZTCN7android8hardware5au
772:   FUNC GLOBAL DEFAULT 14 _ZN7android8hardware5audi
773:   FUNC GLOBAL DEFAULT 14 _ZN7android8hardware5audi
774:   FUNC GLOBAL DEFAULT 14 _ZN7android8hardware5audi
775:   FUNC GLOBAL DEFAULT 14 _ZN7android8hardware5audi
776:   OBJECT GLOBAL DEFAULT 18 _ZTCN7android8hardware5au
777:   FUNC WEAK DEFAULT 14 _ZN7android8hardware7deta
778:   OBJECT GLOBAL DEFAULT 18 _ZTVN7android8hardware5au
779:   FUNC GLOBAL DEFAULT 14 _ZThn32_N7android8hardwar
780:   FUNC GLOBAL DEFAULT 14 _ZN7android8hardware5audi
781:   FUNC GLOBAL DEFAULT 14 _ZN7android8hardware5audi
782:   OBJECT GLOBAL DEFAULT 18 _ZTVN7android8hardware5au
783:   FUNC GLOBAL DEFAULT 14 _ZThn32_N7android8hardwar
784:   FUNC GLOBAL DEFAULT 14 _ZN7android8hardware5audi
785:   OBJECT GLOBAL DEFAULT 18 _ZTCN7android8hardware5au
786:   OBJECT GLOBAL DEFAULT 18 _ZTCN7android8hardware5au
787:   FUNC GLOBAL DEFAULT 14 _ZN7android8hardware5audi
788:   FUNC GLOBAL DEFAULT 14 _ZN7android8hardware5audi
789:   FUNC GLOBAL DEFAULT 14 _ZN7android8hardware5audi
790:   FUNC GLOBAL DEFAULT 14 _ZN7android8hardware5audi
791:   FUNC GLOBAL DEFAULT 14 _ZN7android8hardware5audi
792:   OBJECT GLOBAL DEFAULT 18 _ZTCN7android8hardware5au
793:   FUNC GLOBAL DEFAULT 14 _ZThn32_N7android8hardwar
794:   FUNC GLOBAL DEFAULT 14 _ZN7android8hardware5audi
795:   FUNC GLOBAL DEFAULT 14 _ZN7android8hardware5audi
796:   FUNC GLOBAL DEFAULT 14 _ZN7android8hardware5audi
797:   FUNC GLOBAL DEFAULT 14 _ZN7android8hardware5audi
798:   OBJECT GLOBAL DEFAULT 18 _ZTCN7android8hardware5au
799:   FUNC GLOBAL DEFAULT 14 _ZN7android8hardware5audi
800:   FUNC GLOBAL DEFAULT 14 _ZN7android8hardware5audi
801:   FUNC GLOBAL DEFAULT 14 _ZN7android8hardware5audi
802:   OBJECT GLOBAL DEFAULT 16 _ZN7android8hardware5audi
803:   FUNC GLOBAL DEFAULT 14 _ZN7android8hardware5audi
804:   FUNC GLOBAL DEFAULT 14 _ZN7android8hardware5audi
805:   FUNC GLOBAL DEFAULT 14 _ZN7android8hardware5audi
806:   FUNC GLOBAL DEFAULT 14 _ZN7android8hardware5audi
807:   FUNC GLOBAL DEFAULT 14 _ZN7android8hardware5audi
808:   FUNC GLOBAL DEFAULT 14 _ZN7android8hardware5audi
809:   OBJECT GLOBAL DEFAULT 18 _ZTCN7android8hardware5au
810:   FUNC GLOBAL DEFAULT 14 _ZN7android8hardware5audi
811:   FUNC GLOBAL DEFAULT 14 _ZN7android8hardware5audi
812:   FUNC GLOBAL DEFAULT 14 _ZN7android8hardware5audi
813:   FUNC GLOBAL DEFAULT 14 _ZN7android8hardware5audi
814:   FUNC GLOBAL DEFAULT 14 _ZN7android8hardware5audi
815:   FUNC GLOBAL DEFAULT 14 _ZN7android8hardware5audi
816:   FUNC GLOBAL DEFAULT 14 _ZN7android8hardware5audi
817:   FUNC GLOBAL DEFAULT 14 _ZN7android8hardware5audi
818:   FUNC GLOBAL DEFAULT 14 _ZN7android8hardware5audi
819:   FUNC GLOBAL DEFAULT 14 _ZN7android8hardware5audi
820:   FUNC GLOBAL DEFAULT 14 _ZN7android8hardware5audi
821:   OBJECT GLOBAL DEFAULT 16 _ZN7android8hardware5audi
822:   FUNC GLOBAL DEFAULT 14 _ZN7android8hardware5audi
823:   FUNC GLOBAL DEFAULT 14 _ZN7android8hardware5audi
824:   FUNC GLOBAL DEFAULT 14 _ZN7android8hardware5audi
825:   OBJECT GLOBAL DEFAULT 18 _ZTCN7android8hardware5au
826:   FUNC GLOBAL DEFAULT 14 _ZN7android8hardware5audi
827:   FUNC GLOBAL DEFAULT 14 _ZN7android8hardware5audi
828:   OBJECT GLOBAL DEFAULT 18 _ZTCN7android8hardware5au
829:   FUNC GLOBAL DEFAULT 14 _ZN7android8hardware5audi
830:   FUNC GLOBAL DEFAULT 14 _ZN7android8hardware5audi
831:   FUNC GLOBAL DEFAULT 14 _ZN7android8hardware5audi
832:   OBJECT WEAK DEFAULT 18 _ZTVN7android8hardware5au
833:   FUNC GLOBAL DEFAULT 14 _ZTv0_n24_N7android8hardw
834:   FUNC GLOBAL DEFAULT 14 _ZN7android8hardware5audi
835:   FUNC GLOBAL DEFAULT 14 _ZN7android8hardware5audi
836:   FUNC GLOBAL DEFAULT 14 _ZN7android8hardware5audi
837:   FUNC GLOBAL DEFAULT 14 _ZN7android8hardware5audi
838:   FUNC GLOBAL DEFAULT 14 _ZN7android8hardware5audi
839:   OBJECT GLOBAL DEFAULT 18 _ZTTN7android8hardware5au
840:   FUNC GLOBAL DEFAULT 14 _ZN7android8hardware5audi
841:   FUNC GLOBAL DEFAULT 14 _ZN7android8hardware5audi
842:   FUNC GLOBAL DEFAULT 14 _ZN7android8hardware5audi
843:   FUNC GLOBAL DEFAULT 14 _ZTv0_n24_N7android8hardw
844:   FUNC WEAK DEFAULT 14 _ZN7android8hardware7deta
845:   FUNC GLOBAL DEFAULT 14 _ZN7android8hardware5audi
846:   FUNC GLOBAL DEFAULT 14 _ZN7android8hardware5audi
847:   FUNC GLOBAL DEFAULT 14 _ZN7android8hardware5audi
848:   FUNC GLOBAL DEFAULT 14 _ZN7android8hardware5audi
849:   FUNC GLOBAL DEFAULT 14 _ZN7android8hardware5audi
850:   FUNC GLOBAL DEFAULT 14 _ZN7android8hardware5audi
851:   OBJECT GLOBAL DEFAULT 18 _ZTCN7android8hardware5au
852:   FUNC GLOBAL DEFAULT 14 _ZN7android8hardware5audi
853:   FUNC GLOBAL DEFAULT 14 _ZN7android8hardware5audi
854:   OBJECT GLOBAL DEFAULT 18 _ZTTN7android8hardware5au
855:   OBJECT GLOBAL DEFAULT 18 _ZTTN7android8hardware5au
856:   FUNC GLOBAL DEFAULT 14 _ZN7android8hardware5audi
857:   FUNC GLOBAL DEFAULT 14 _ZN7android8hardware5audi
858:   FUNC GLOBAL DEFAULT 14 _ZN7android8hardware5audi
859:   FUNC GLOBAL DEFAULT 14 _ZThn32_N7android8hardwar
860:   FUNC GLOBAL DEFAULT 14 _ZN7android8hardware5audi
861:   FUNC GLOBAL DEFAULT 14 _ZN7android8hardware5audi
862:   FUNC GLOBAL DEFAULT 14 _ZN7android8hardware5audi
863:   FUNC GLOBAL DEFAULT 14 _ZN7android8hardware5audi
864:   FUNC GLOBAL DEFAULT 14 _ZN7android8hardware5audi
865:   FUNC GLOBAL DEFAULT 14 _ZN7android8hardware5audi
866:   FUNC GLOBAL DEFAULT 14 _ZN7android8hardware5audi
867:   FUNC GLOBAL DEFAULT 14 _ZN7android8hardware5audi
868:   OBJECT GLOBAL DEFAULT 18 _ZTCN7android8hardware5au
869:   FUNC GLOBAL DEFAULT 14 _ZN7android8hardware5audi
870:   FUNC GLOBAL DEFAULT 14 _ZN7android8hardware5audi
871:   FUNC GLOBAL DEFAULT 14 _ZN7android8hardware5audi
872:   FUNC GLOBAL DEFAULT 14 _ZN7android8hardware5audi
873:   FUNC GLOBAL DEFAULT 14 _ZN7android8hardware5audi
874:   FUNC WEAK DEFAULT 14 _ZN7android8hardware7deta
875:   OBJECT GLOBAL DEFAULT 18 _ZTCN7android8hardware5au
876:   FUNC GLOBAL DEFAULT 14 _ZN7android8hardware5audi
877:   FUNC WEAK DEFAULT 14 _ZN7android8hardware7deta
878:   FUNC GLOBAL DEFAULT 14 _ZN7android8hardware5audi
879:   FUNC GLOBAL DEFAULT 14 _ZN7android8hardware5audi
880:   FUNC GLOBAL DEFAULT 14 _ZN7android8hardware5audi
881:   FUNC GLOBAL DEFAULT 14 _ZN7android8hardware5audi
882:   FUNC GLOBAL DEFAULT 14 _ZN7android8hardware5audi
883:   FUNC GLOBAL DEFAULT 14 _ZN7android8hardware5audi
884:   FUNC GLOBAL DEFAULT 14 _ZN7android8hardware5audi
885:   FUNC GLOBAL DEFAULT 14 _ZN7android8hardware5audi
886:   FUNC GLOBAL DEFAULT 14 _ZN7android8hardware5audi
887:   FUNC WEAK DEFAULT 14 _ZNSt3__16vectorIPvNS_9al
888:   OBJECT WEAK DEFAULT 18 _ZTCN7android8hardware5au
889:   FUNC GLOBAL DEFAULT 14 _ZN7android8hardware5audi
890:   FUNC WEAK DEFAULT 14 _ZN7android8hardware7deta
891:   OBJECT GLOBAL DEFAULT 18 _ZTCN7android8hardware5au
892:   FUNC GLOBAL DEFAULT 14 _ZN7android8hardware5audi
893:   FUNC GLOBAL DEFAULT 14 _ZN7android8hardware5audi
894:   FUNC GLOBAL DEFAULT 14 _ZN7android8hardware5audi
895:   FUNC GLOBAL DEFAULT 14 _ZN7android8hardware5audi
896:   OBJECT GLOBAL DEFAULT 18 _ZTCN7android8hardware5au
897:   FUNC GLOBAL DEFAULT 14 _ZTv0_n24_N7android8hardw
898:   FUNC GLOBAL DEFAULT 14 _ZN7android8hardware5audi
899:   FUNC GLOBAL DEFAULT 14 _ZN7android8hardware5audi
900:   FUNC GLOBAL DEFAULT 14 _ZN7android8hardware5audi
901:   FUNC GLOBAL DEFAULT 14 _ZN7android8hardware5audi
902:   FUNC GLOBAL DEFAULT 14 _ZN7android8hardware5audi
903:   FUNC GLOBAL DEFAULT 14 _ZN7android8hardware5audi
904:   FUNC GLOBAL DEFAULT 14 _ZN7android8hardware5audi
905:   FUNC GLOBAL DEFAULT 14 _ZN7android8hardware5audi
906:   OBJECT GLOBAL DEFAULT 18 _ZTCN7android8hardware5au
907:   FUNC GLOBAL DEFAULT 14 _ZN7android8hardware5audi
908:   FUNC GLOBAL DEFAULT 14 _ZN7android8hardware5audi
909:   FUNC WEAK DEFAULT 14 _ZN7android8hardware7deta
910:   FUNC GLOBAL DEFAULT 14 _ZN7android8hardware5audi
911:   FUNC GLOBAL DEFAULT 14 _ZN7android8hardware5audi
912:   FUNC GLOBAL DEFAULT 14 _ZThn32_N7android8hardwar
913:   FUNC GLOBAL DEFAULT 14 _ZN7android8hardware5audi
914:   FUNC GLOBAL DEFAULT 14 _ZN7android8hardware5audi
915:   OBJECT GLOBAL DEFAULT 18 _ZTTN7android8hardware5au
916:   FUNC GLOBAL DEFAULT 14 _ZN7android8hardware5audi
917:   FUNC GLOBAL DEFAULT 14 _ZN7android8hardware5audi
918:   OBJECT GLOBAL DEFAULT 16 _ZN7android8hardware5audi
919:   FUNC GLOBAL DEFAULT 14 _ZN7android8hardware5audi
920:   FUNC GLOBAL DEFAULT 14 _ZN7android8hardware5audi
921:   FUNC GLOBAL DEFAULT 14 _ZN7android8hardware5audi
922:   FUNC GLOBAL DEFAULT 14 _ZN7android8hardware5audi
923:   FUNC GLOBAL DEFAULT 14 _ZN7android8hardware5audi
924:   FUNC GLOBAL DEFAULT 14 _ZN7android8hardware5audi
925:   FUNC GLOBAL DEFAULT 14 _ZN7android8hardware5audi
926:   FUNC GLOBAL DEFAULT 14 _ZN7android8hardware5audi
927:   FUNC GLOBAL DEFAULT 14 _ZN7android8hardware5audi
928:   FUNC GLOBAL DEFAULT 14 _ZN7android8hardware5audi
929:   FUNC GLOBAL DEFAULT 14 _ZN7android8hardware5audi
930:   FUNC GLOBAL DEFAULT 14 _ZN7android8hardware5audi
931:   FUNC GLOBAL DEFAULT 14 _ZN7android8hardware5audi
932:   FUNC GLOBAL DEFAULT 14 _ZN7android8hardware5audi
933:   FUNC GLOBAL DEFAULT 14 _ZN7android8hardware5audi
934:   FUNC GLOBAL DEFAULT 14 _ZN7android8hardware5audi
935:   FUNC GLOBAL DEFAULT 14 _ZN7android8hardware5audi
936:   FUNC GLOBAL DEFAULT 14 _ZN7android8hardware5audi
937:   FUNC GLOBAL DEFAULT 14 _ZN7android8hardware5audi
938:   FUNC GLOBAL DEFAULT 14 _ZN7android8hardware5audi
939:   OBJECT GLOBAL DEFAULT 18 _ZTVN7android8hardware5au
940:   FUNC GLOBAL DEFAULT 14 _ZN7android8hardware5audi
941:   OBJECT GLOBAL DEFAULT 18 _ZTTN7android8hardware5au
942:   FUNC GLOBAL DEFAULT 14 _ZN7android8hardware5audi
943:   FUNC GLOBAL DEFAULT 14 _ZN7android8hardware5audi
944:   OBJECT GLOBAL DEFAULT 18 _ZTTN7android8hardware5au
945:   FUNC GLOBAL DEFAULT 14 _ZN7android8hardware5audi
946:   OBJECT GLOBAL DEFAULT 18 _ZTTN7android8hardware5au
947:   OBJECT GLOBAL DEFAULT 18 _ZTCN7android8hardware5au
948:   FUNC GLOBAL DEFAULT 14 _ZN7android8hardware5audi
949:   FUNC GLOBAL DEFAULT 14 _ZN7android8hardware5audi
950:   FUNC GLOBAL DEFAULT 14 _ZN7android8hardware5audi
951:   OBJECT GLOBAL DEFAULT 18 _ZTCN7android8hardware5au
952:   FUNC WEAK DEFAULT 14 _ZN7android8hardware7deta
953:   FUNC GLOBAL DEFAULT 14 _ZN7android8hardware5audi
954:   FUNC GLOBAL DEFAULT 14 _ZN7android8hardware5audi
955:   FUNC GLOBAL DEFAULT 14 _ZN7android8hardware5audi
956:   FUNC GLOBAL DEFAULT 14 _ZN7android8hardware5audi
957:   FUNC GLOBAL DEFAULT 14 _ZTv0_n24_N7android8hardw
958:   FUNC GLOBAL DEFAULT 14 _ZN7android8hardware5audi
959:   OBJECT GLOBAL DEFAULT 18 _ZTCN7android8hardware5au
960:   FUNC GLOBAL DEFAULT 14 _ZN7android8hardware5audi
961:   FUNC GLOBAL DEFAULT 14 _ZN7android8hardware5audi
962:   OBJECT GLOBAL DEFAULT 18 _ZTCN7android8hardware5au
963:   FUNC GLOBAL DEFAULT 14 _ZN7android8hardware5audi
964:   FUNC GLOBAL DEFAULT 14 _ZN7android8hardware5audi
965:   FUNC GLOBAL DEFAULT 14 _ZN7android8hardware5audi
966:   FUNC GLOBAL DEFAULT 14 _ZN7android8hardware5audi
967:   FUNC GLOBAL DEFAULT 14 _ZN7android8hardware5audi
968:   FUNC GLOBAL DEFAULT 14 _ZN7android8hardware5audi
969:   FUNC GLOBAL DEFAULT 14 _ZN7android8hardware5audi
970:   FUNC GLOBAL DEFAULT 14 _ZN7android8hardware5audi
971:   FUNC GLOBAL DEFAULT 14 _ZN7android8hardware5audi
972:   FUNC GLOBAL DEFAULT 14 _ZN7android8hardware5audi
973:   OBJECT WEAK DEFAULT 18 _ZTCN7android8hardware5au
974:   OBJECT GLOBAL DEFAULT 18 _ZTCN7android8hardware5au
975:   FUNC GLOBAL DEFAULT 14 _ZN7android8hardware5audi
976:   FUNC WEAK DEFAULT 14 _ZN7android8hardware7deta
977:   FUNC GLOBAL DEFAULT 14 _ZN7android8hardware5audi
978:   FUNC GLOBAL DEFAULT 14 _ZN7android8hardware5audi
979:   FUNC GLOBAL DEFAULT 14 _ZN7android8hardware5audi
980:   FUNC GLOBAL DEFAULT 14 _ZN7android8hardware5audi
981:   FUNC GLOBAL DEFAULT 14 _ZN7android8hardware5audi
982:   FUNC GLOBAL DEFAULT 14 _ZN7android8hardware5audi
983:   FUNC GLOBAL DEFAULT 14 _ZN7android8hardware5audi
984:   OBJECT WEAK DEFAULT 18 _ZTVN7android8hardware5au
985:   FUNC GLOBAL DEFAULT 14 _ZN7android8hardware5audi
986:   FUNC GLOBAL DEFAULT 14 _ZN7android8hardware5audi
987:   FUNC GLOBAL DEFAULT 14 _ZN7android8hardware5audi
988:   FUNC GLOBAL DEFAULT 14 _ZThn32_N7android8hardwar
989:   OBJECT WEAK DEFAULT 18 _ZTCN7android8hardware5au
990:   FUNC GLOBAL DEFAULT 14 _ZN7android8hardware5audi
991:   FUNC GLOBAL DEFAULT 14 _ZN7android8hardware5audi
992:   FUNC GLOBAL DEFAULT 14 _ZN7android8hardware5audi
993:   FUNC GLOBAL DEFAULT 14 _ZN7android8hardware5audi
994:   FUNC GLOBAL DEFAULT 14 _ZN7android8hardware5audi
995:   OBJECT WEAK DEFAULT 18 _ZTCN7android8hardware5au
996:   FUNC GLOBAL DEFAULT 14 _ZN7android8hardware5audi
997:   FUNC GLOBAL DEFAULT 14 _ZN7android8hardware5audi
998:   FUNC GLOBAL DEFAULT 14 _ZN7android8hardware5audi
999:   FUNC GLOBAL DEFAULT 14 _ZN7android8hardware5audi
1000:   FUNC GLOBAL DEFAULT 14 _ZN7android8hardware5audi
1001:   FUNC GLOBAL DEFAULT 14 _ZN7android8hardware5audi
1002:   FUNC GLOBAL DEFAULT 14 _ZN7android8hardware5audi
1003:   FUNC GLOBAL DEFAULT 14 _ZN7android8hardware5audi
1004:   FUNC GLOBAL DEFAULT 14 _ZN7android8hardware5audi
1005:   FUNC GLOBAL DEFAULT 14 _ZN7android8hardware5audi
1006:   FUNC GLOBAL DEFAULT 14 _ZN7android8hardware5audi
1007:   FUNC GLOBAL DEFAULT 14 _ZN7android8hardware5audi
1008:   OBJECT GLOBAL DEFAULT 18 _ZTVN7android8hardware5au
1009:   FUNC GLOBAL DEFAULT 14 _ZN7android8hardware5audi
1010:   FUNC GLOBAL DEFAULT 14 _ZN7android8hardware5audi
1011:   FUNC GLOBAL DEFAULT 14 _ZN7android8hardware5audi
1012:   OBJECT WEAK DEFAULT 18 _ZTCN7android8hardware5au
1013:   FUNC GLOBAL DEFAULT 14 _ZN7android8hardware5audi
1014:   FUNC GLOBAL DEFAULT 14 _ZN7android8hardware5audi
1015:   FUNC GLOBAL DEFAULT 14 _ZN7android8hardware5audi
1016:   FUNC GLOBAL DEFAULT 14 _ZN7android8hardware5audi
1017:   FUNC GLOBAL DEFAULT 14 _ZN7android8hardware5audi
1018:   FUNC GLOBAL DEFAULT 14 _ZN7android8hardware5audi
1019:   FUNC GLOBAL DEFAULT 14 _ZN7android8hardware5audi
1020:   FUNC GLOBAL DEFAULT 14 _ZN7android8hardware5audi
1021:   FUNC GLOBAL DEFAULT 14 _ZN7android8hardware5audi
1022:   FUNC WEAK DEFAULT 14 _ZN7android8hardware7deta
1023:   FUNC GLOBAL DEFAULT 14 _ZN7android8hardware5audi
1024:   FUNC GLOBAL DEFAULT 14 _ZN7android8hardware5audi
1025:   FUNC GLOBAL DEFAULT 14 _ZN7android8hardware5audi
1026:   OBJECT GLOBAL DEFAULT 18 _ZTCN7android8hardware5au
1027:   FUNC GLOBAL DEFAULT 14 _ZN7android8hardware5audi
1028:   FUNC GLOBAL DEFAULT 14 _ZN7android8hardware5audi
1029:   FUNC GLOBAL DEFAULT 14 _ZN7android8hardware5audi
1030:   FUNC GLOBAL DEFAULT 14 _ZN7android8hardware5audi
1031:   FUNC GLOBAL DEFAULT 14 _ZN7android8hardware5audi
1032:   FUNC GLOBAL DEFAULT 14 _ZN7android8hardware5audi
1033:   FUNC GLOBAL DEFAULT 14 _ZN7android8hardware5audi
1034:   FUNC WEAK DEFAULT 14 _ZN7android8hardware7deta
1035:   FUNC GLOBAL DEFAULT 14 _ZN7android8hardware5audi
1036:   FUNC GLOBAL DEFAULT 14 _ZN7android8hardware5audi
1037:   FUNC GLOBAL DEFAULT 14 _ZN7android8hardware5audi
1038:   FUNC GLOBAL DEFAULT 14 _ZN7android8hardware5audi
1039:   FUNC WEAK DEFAULT 14 _ZN7android8hardware7deta
1040:   FUNC GLOBAL DEFAULT 14 _ZN7android8hardware5audi
1041:   FUNC GLOBAL DEFAULT 14 _ZN7android8hardware5audi
1042:   FUNC GLOBAL DEFAULT 14 _ZN7android8hardware5audi
1043:   FUNC GLOBAL DEFAULT 14 _ZN7android8hardware5audi
1044:   FUNC GLOBAL DEFAULT 14 _ZN7android8hardware5audi
1045:   FUNC GLOBAL DEFAULT 14 _ZN7android8hardware5audi
1046:   FUNC GLOBAL DEFAULT 14 _ZN7android8hardware5audi
1047:   OBJECT GLOBAL DEFAULT 18 _ZTVN7android8hardware5au
1048:   FUNC GLOBAL DEFAULT 14 _ZN7android8hardware5audi
1049:   FUNC GLOBAL DEFAULT 14 _ZN7android8hardware5audi
1050:   FUNC GLOBAL DEFAULT 14 _ZN7android8hardware5audi
1051:   OBJECT GLOBAL DEFAULT 18 _ZTCN7android8hardware5au
1052:   FUNC GLOBAL DEFAULT 14 _ZN7android8hardware5audi
1053:   FUNC GLOBAL DEFAULT 14 _ZN7android8hardware5audi
1054:   FUNC GLOBAL DEFAULT 14 _ZN7android8hardware5audi
1055:   OBJECT GLOBAL DEFAULT 18 _ZTCN7android8hardware5au
1056:   FUNC GLOBAL DEFAULT 14 _ZN7android8hardware5audi
1057:   FUNC GLOBAL DEFAULT 14 _ZN7android8hardware5audi
1058:   FUNC GLOBAL DEFAULT 14 _ZN7android8hardware5audi
1059:   FUNC GLOBAL DEFAULT 14 _ZN7android8hardware5audi
1060:   FUNC GLOBAL DEFAULT 14 _ZN7android8hardware5audi
1061:   FUNC GLOBAL DEFAULT 14 _ZN7android8hardware5audi
1062:   OBJECT WEAK DEFAULT 18 _ZTVN7android8hardware5au
1063:   FUNC GLOBAL DEFAULT 14 _ZN7android8hardware5audi
1064:   FUNC GLOBAL DEFAULT 14 _ZN7android8hardware5audi
1065:   FUNC GLOBAL DEFAULT 14 _ZN7android8hardware5audi
1066:   FUNC GLOBAL DEFAULT 14 _ZN7android8hardware5audi
1067:   FUNC GLOBAL DEFAULT 14 _ZN7android8hardware5audi
1068:   FUNC GLOBAL DEFAULT 14 _ZN7android8hardware5audi
1069:   FUNC GLOBAL DEFAULT 14 _ZN7android8hardware5audi
1070:   FUNC GLOBAL DEFAULT 14 _ZN7android8hardware5audi
1071:   FUNC GLOBAL DEFAULT 14 _ZN7android8hardware5audi
1072:   FUNC GLOBAL DEFAULT 14 _ZN7android8hardware5audi
1073:   OBJECT GLOBAL DEFAULT 18 _ZTCN7android8hardware5au
1074:   FUNC GLOBAL DEFAULT 14 _ZN7android8hardware5audi
1075:   FUNC GLOBAL DEFAULT 14 _ZN7android8hardware5audi
1076:   FUNC GLOBAL DEFAULT 14 _ZN7android8hardware5audi
1077:   FUNC WEAK DEFAULT 14 _ZNSt3__16vectorINS_8func
1078:   FUNC GLOBAL DEFAULT 14 _ZN7android8hardware5audi
1079:   FUNC GLOBAL DEFAULT 14 _ZN7android8hardware5audi
1080:   FUNC GLOBAL DEFAULT 14 _ZN7android8hardware5audi
1081:   OBJECT GLOBAL DEFAULT 18 _ZTCN7android8hardware5au
1082:   FUNC GLOBAL DEFAULT 14 _ZN7android8hardware5audi
1083:   FUNC GLOBAL DEFAULT 14 _ZN7android8hardware5audi
1084:   FUNC GLOBAL DEFAULT 14 _ZN7android8hardware5audi
1085:   FUNC GLOBAL DEFAULT 14 _ZN7android8hardware5audi
1086:   FUNC GLOBAL DEFAULT 14 _ZN7android8hardware5audi
1087:   FUNC GLOBAL DEFAULT 14 _ZN7android8hardware5audi
1088:   FUNC GLOBAL DEFAULT 14 _ZN7android8hardware5audi
1089:   FUNC GLOBAL DEFAULT 14 _ZN7android8hardware5audi
1090:   FUNC GLOBAL DEFAULT 14 _ZN7android8hardware5audi
1091:   OBJECT GLOBAL DEFAULT 18 _ZTVN7android8hardware5au
1092:   OBJECT GLOBAL DEFAULT 18 _ZTCN7android8hardware5au
1093:   FUNC GLOBAL DEFAULT 14 _ZN7android8hardware5audi
1094:   FUNC GLOBAL DEFAULT 14 _ZN7android8hardware5audi
1095:   FUNC GLOBAL DEFAULT 14 _ZN7android8hardware5audi
1096:   FUNC GLOBAL DEFAULT 14 _ZN7android8hardware5audi
1097:   FUNC GLOBAL DEFAULT 14 _ZN7android8hardware5audi
1098:   FUNC GLOBAL DEFAULT 14 _ZTv0_n24_N7android8hardw
1099:   FUNC GLOBAL DEFAULT 14 _ZN7android8hardware5audi
1100:   FUNC GLOBAL DEFAULT 14 _ZN7android8hardware5audi
1101:   OBJECT GLOBAL DEFAULT 18 _ZTCN7android8hardware5au
1102:   FUNC GLOBAL DEFAULT 14 _ZN7android8hardware5audi
1103:   FUNC GLOBAL DEFAULT 14 _ZTv0_n24_N7android8hardw
1104:   FUNC GLOBAL DEFAULT 14 _ZN7android8hardware5audi
1105:   FUNC GLOBAL DEFAULT 14 _ZN7android8hardware5audi
1106:   FUNC GLOBAL DEFAULT 14 _ZN7android8hardware5audi
1107:   OBJECT GLOBAL DEFAULT 18 _ZTVN7android8hardware5au
1108:   FUNC GLOBAL DEFAULT 14 _ZN7android8hardware5audi
1109:   FUNC GLOBAL DEFAULT 14 _ZN7android8hardware5audi
1110:   FUNC GLOBAL DEFAULT 14 _ZN7android8hardware5audi
1111:   FUNC GLOBAL DEFAULT 14 _ZN7android8hardware5audi
1112:   FUNC GLOBAL DEFAULT 14 _ZN7android8hardware5audi
1113:   FUNC GLOBAL DEFAULT 14 _ZN7android8hardware5audi
1114:   FUNC GLOBAL DEFAULT 14 _ZN7android8hardware5audi
1115:   FUNC GLOBAL DEFAULT 14 _ZN7android8hardware5audi
1116:   FUNC GLOBAL DEFAULT 14 _ZN7android8hardware5audi
1117:   FUNC GLOBAL DEFAULT 14 _ZN7android8hardware5audi
1118:   FUNC GLOBAL DEFAULT 14 _ZN7android8hardware5audi
1119:   FUNC GLOBAL DEFAULT 14 _ZN7android8hardware5audi
1120:   FUNC GLOBAL DEFAULT 14 _ZTv0_n24_N7android8hardw
1121:   FUNC GLOBAL DEFAULT 14 _ZN7android8hardware5audi
1122:   FUNC GLOBAL DEFAULT 14 _ZN7android8hardware5audi
1123:   FUNC GLOBAL DEFAULT 14 _ZN7android8hardware5audi
1124:   FUNC GLOBAL DEFAULT 14 _ZN7android8hardware5audi
1125:   FUNC GLOBAL DEFAULT 14 _ZN7android8hardware5audi
1126:   FUNC GLOBAL DEFAULT 14 _ZN7android8hardware5audi
1127:   FUNC WEAK DEFAULT 14 _ZN7android8hardware7deta
1128:   FUNC GLOBAL DEFAULT 14 _ZN7android8hardware5audi
1129:   FUNC GLOBAL DEFAULT 14 _ZN7android8hardware5audi
1130:   FUNC GLOBAL DEFAULT 14 _ZN7android8hardware5audi
1131:   FUNC GLOBAL DEFAULT 14 _ZN7android8hardware5audi
1132:   FUNC GLOBAL DEFAULT 14 _ZN7android8hardware5audi
1133:   FUNC GLOBAL DEFAULT 14 _ZN7android8hardware5audi
1134:   FUNC GLOBAL DEFAULT 14 _ZN7android8hardware5audi
1135:   FUNC GLOBAL DEFAULT 14 _ZN7android8hardware5audi
1136:   FUNC GLOBAL DEFAULT 14 _ZN7android8hardware5audi
1137:   FUNC GLOBAL DEFAULT 14 _ZN7android8hardware5audi
1138:   OBJECT GLOBAL DEFAULT 18 _ZTCN7android8hardware5au
1139:   OBJECT GLOBAL DEFAULT 18 _ZTCN7android8hardware5au
1140:   OBJECT GLOBAL DEFAULT 18 _ZTCN7android8hardware5au
1141:   FUNC GLOBAL DEFAULT 14 _ZThn32_N7android8hardwar
1142:   FUNC GLOBAL DEFAULT 14 _ZN7android8hardware5audi
1143:   FUNC GLOBAL DEFAULT 14 _ZN7android8hardware5audi
1144:   OBJECT GLOBAL DEFAULT 18 _ZTTN7android8hardware5au
1145:   FUNC GLOBAL DEFAULT 14 _ZN7android8hardware5audi
1146:   OBJECT GLOBAL DEFAULT 18 _ZTCN7android8hardware5au
1147:   FUNC GLOBAL DEFAULT 14 _ZThn32_N7android8hardwar
1148:   FUNC GLOBAL DEFAULT 14 _ZN7android8hardware5audi
1149:   FUNC WEAK DEFAULT 14 _ZN7android8hardware7deta
1150:   OBJECT GLOBAL DEFAULT 18 _ZTCN7android8hardware5au
1151:   FUNC GLOBAL DEFAULT 14 _ZN7android8hardware5audi
1152:   FUNC GLOBAL DEFAULT 14 _ZN7android8hardware5audi
1153:   OBJECT GLOBAL DEFAULT 18 _ZTCN7android8hardware5au
1154:   FUNC GLOBAL DEFAULT 14 _ZN7android8hardware5audi
1155:   FUNC GLOBAL DEFAULT 14 _ZN7android8hardware5audi
1156:   FUNC GLOBAL DEFAULT 14 _ZThn32_N7android8hardwar
1157:   FUNC GLOBAL DEFAULT 14 _ZN7android8hardware5audi
1158:   FUNC GLOBAL DEFAULT 14 _ZN7android8hardware5audi
1159:   FUNC GLOBAL DEFAULT 14 _ZN7android8hardware5audi
1160:   FUNC GLOBAL DEFAULT 14 _ZN7android8hardware5audi
1161:   OBJECT GLOBAL DEFAULT 18 _ZTCN7android8hardware5au
1162:   FUNC GLOBAL DEFAULT 14 _ZN7android8hardware5audi
1163:   FUNC GLOBAL DEFAULT 14 _ZN7android8hardware5audi
1164:   FUNC GLOBAL DEFAULT 14 _ZN7android8hardware5audi
1165:   FUNC GLOBAL DEFAULT 14 _ZN7android8hardware5audi
1166:   OBJECT GLOBAL DEFAULT 18 _ZTVN7android8hardware5au
1167:   FUNC GLOBAL DEFAULT 14 _ZN7android8hardware5audi
1168:   FUNC GLOBAL DEFAULT 14 _ZN7android8hardware5audi
1169:   OBJECT GLOBAL DEFAULT 18 _ZTCN7android8hardware5au
1170:   FUNC GLOBAL DEFAULT 14 _ZN7android8hardware5audi
1171:   OBJECT GLOBAL DEFAULT 18 _ZTTN7android8hardware5au
1172:   FUNC GLOBAL DEFAULT 14 _ZN7android8hardware5audi
1173:   FUNC GLOBAL DEFAULT 14 _ZN7android8hardware5audi
1174:   FUNC GLOBAL DEFAULT 14 _ZN7android8hardware5audi
1175:   OBJECT GLOBAL DEFAULT 18 _ZTCN7android8hardware5au
1176:   FUNC GLOBAL DEFAULT 14 _ZThn32_N7android8hardwar
1177:   FUNC GLOBAL DEFAULT 14 _ZN7android8hardware5audi
1178:   FUNC GLOBAL DEFAULT 14 _ZN7android8hardware5audi
1179:   OBJECT GLOBAL DEFAULT 18 _ZTCN7android8hardware5au
1180:   FUNC GLOBAL DEFAULT 14 _ZN7android8hardware5audi
1181:   FUNC GLOBAL DEFAULT 14 _ZN7android8hardware5audi
1182:   FUNC GLOBAL DEFAULT 14 _ZN7android8hardware5audi
1183:   OBJECT GLOBAL DEFAULT 18 _ZTCN7android8hardware5au
1184:   FUNC GLOBAL DEFAULT 14 _ZN7android8hardware5audi
1185:   FUNC GLOBAL DEFAULT 14 _ZN7android8hardware5audi
1186:   OBJECT GLOBAL DEFAULT 18 _ZTCN7android8hardware5au
1187:   FUNC GLOBAL DEFAULT 14 _ZN7android8hardware5audi
1188:   FUNC GLOBAL DEFAULT 14 _ZN7android8hardware5audi
1189:   FUNC GLOBAL DEFAULT 14 _ZN7android8hardware5audi
1190:   FUNC GLOBAL DEFAULT 14 _ZN7android8hardware5audi
1191:   FUNC GLOBAL DEFAULT 14 _ZN7android8hardware5audi
1192:   FUNC GLOBAL DEFAULT 14 _ZN7android8hardware5audi
1193:   FUNC GLOBAL DEFAULT 14 _ZN7android8hardware5audi
1194:   FUNC GLOBAL DEFAULT 14 _ZN7android8hardware5audi
1195:   FUNC GLOBAL DEFAULT 14 _ZN7android8hardware5audi
1196:   OBJECT GLOBAL DEFAULT 18 _ZTCN7android8hardware5au
1197:   FUNC GLOBAL DEFAULT 14 _ZN7android8hardware5audi
1198:   FUNC WEAK DEFAULT 14 _ZN7android8hardware7deta
1199:   FUNC GLOBAL DEFAULT 14 _ZN7android8hardware5audi
1200:   FUNC GLOBAL DEFAULT 14 _ZN7android8hardware5audi
1201:   FUNC GLOBAL DEFAULT 14 _ZN7android8hardware5audi
1202:   FUNC GLOBAL DEFAULT 14 _ZN7android8hardware5audi
1203:   FUNC GLOBAL DEFAULT 14 _ZN7android8hardware5audi
1204:   FUNC GLOBAL DEFAULT 14 _ZN7android8hardware5audi
1205:   OBJECT WEAK DEFAULT 18 _ZTCN7android8hardware5au
1206:   FUNC WEAK DEFAULT 14 _ZN7android8hardware10fro
1207:   FUNC GLOBAL DEFAULT 14 _ZN7android8hardware5audi
1208:   FUNC GLOBAL DEFAULT 14 _ZN7android8hardware5audi
1209:   FUNC GLOBAL DEFAULT 14 _ZN7android8hardware5audi
1210:   FUNC GLOBAL DEFAULT 14 _ZN7android8hardware5audi
1211:   FUNC GLOBAL DEFAULT 14 _ZN7android8hardware5audi
1212:   FUNC GLOBAL DEFAULT 14 _ZN7android8hardware5audi
1213:   FUNC GLOBAL DEFAULT 14 _ZN7android8hardware5audi
1214:   FUNC GLOBAL DEFAULT 14 _ZN7android8hardware5audi
1215:   FUNC GLOBAL DEFAULT 14 _ZN7android8hardware5audi
1216:   FUNC GLOBAL DEFAULT 14 _ZN7android8hardware5audi
1217:   OBJECT GLOBAL DEFAULT 18 _ZTCN7android8hardware5au
1218:   FUNC GLOBAL DEFAULT 14 _ZN7android8hardware5audi
1219:   OBJECT WEAK DEFAULT 18 _ZTCN7android8hardware5au
1220:   OBJECT GLOBAL DEFAULT 18 _ZTCN7android8hardware5au
1221:   FUNC GLOBAL DEFAULT 14 _ZN7android8hardware5audi
1222:   FUNC GLOBAL DEFAULT 14 _ZTv0_n24_N7android8hardw
1223:   FUNC GLOBAL DEFAULT 14 _ZN7android8hardware5audi
1224:   FUNC GLOBAL DEFAULT 14 _ZTv0_n24_N7android8hardw
1225:   FUNC GLOBAL DEFAULT 14 _ZN7android8hardware5audi
1226:   OBJECT GLOBAL DEFAULT 18 _ZTCN7android8hardware5au
1227:   FUNC GLOBAL DEFAULT 14 _ZN7android8hardware5audi
1228:   FUNC GLOBAL DEFAULT 14 _ZN7android8hardware5audi
1229:   FUNC GLOBAL DEFAULT 14 _ZN7android8hardware5audi
1230:   FUNC GLOBAL DEFAULT 14 _ZN7android8hardware5audi
1231:   OBJECT GLOBAL DEFAULT 18 _ZTCN7android8hardware5au
1232:   FUNC GLOBAL DEFAULT 14 _ZN7android8hardware5audi
1233:   OBJECT GLOBAL DEFAULT 18 _ZTCN7android8hardware5au
1234:   FUNC GLOBAL DEFAULT 14 _ZN7android8hardware5audi
1235:   OBJECT GLOBAL DEFAULT 18 _ZTTN7android8hardware5au
1236:   FUNC GLOBAL DEFAULT 14 _ZN7android8hardware5audi
1237:   OBJECT GLOBAL DEFAULT 18 _ZTTN7android8hardware5au
1238:   FUNC GLOBAL DEFAULT 14 _ZN7android8hardware5audi
1239:   FUNC GLOBAL DEFAULT 14 _ZN7android8hardware5audi
1240:   OBJECT GLOBAL DEFAULT 18 _ZTCN7android8hardware5au
1241:   FUNC GLOBAL DEFAULT 14 _ZN7android8hardware5audi
1242:   FUNC GLOBAL DEFAULT 14 _ZN7android8hardware5audi
1243:   FUNC GLOBAL DEFAULT 14 _ZN7android8hardware5audi
1244:   FUNC WEAK DEFAULT 14 _ZN7android8hardware7deta
1245:   FUNC GLOBAL DEFAULT 14 _ZThn32_N7android8hardwar
1246:   FUNC GLOBAL DEFAULT 14 _ZN7android8hardware5audi
1247:   FUNC GLOBAL DEFAULT 14 _ZN7android8hardware5audi
1248:   FUNC GLOBAL DEFAULT 14 _ZN7android8hardware5audi
1249:   FUNC WEAK DEFAULT 14 _ZN7android8hardware7deta
1250:   OBJECT WEAK DEFAULT 18 _ZTCN7android8hardware5au
1251:   FUNC GLOBAL DEFAULT 14 _ZN7android8hardware5audi
1252:   FUNC GLOBAL DEFAULT 14 _ZN7android8hardware5audi
1253:   FUNC GLOBAL DEFAULT 14 _ZN7android8hardware5audi
1254:   FUNC GLOBAL DEFAULT 14 _ZN7android8hardware5audi
1255:   OBJECT GLOBAL DEFAULT 18 _ZTCN7android8hardware5au
1256:   FUNC GLOBAL DEFAULT 14 _ZN7android8hardware5audi
1257:   FUNC GLOBAL DEFAULT 14 _ZN7android8hardware5audi
1258:   OBJECT GLOBAL DEFAULT 18 _ZTTN7android8hardware5au
1259:   FUNC GLOBAL DEFAULT 14 _ZN7android8hardware5audi
1260:   FUNC GLOBAL DEFAULT 14 _ZN7android8hardware5audi
1261:   FUNC GLOBAL DEFAULT 14 _ZN7android8hardware5audi
1262:   FUNC GLOBAL DEFAULT 14 _ZN7android8hardware5audi
1263:   FUNC GLOBAL DEFAULT 14 _ZN7android8hardware5audi
1264:   FUNC GLOBAL DEFAULT 14 _ZN7android8hardware5audi
1265:   FUNC GLOBAL DEFAULT 14 _ZN7android8hardware5audi
1266:   FUNC GLOBAL DEFAULT 14 _ZN7android8hardware5audi
1267:   FUNC GLOBAL DEFAULT 14 _ZN7android8hardware5audi
1268:   FUNC GLOBAL DEFAULT 14 _ZTv0_n24_N7android8hardw
1269:   FUNC GLOBAL DEFAULT 14 _ZN7android8hardware5audi
1270:   FUNC GLOBAL DEFAULT 14 _ZN7android8hardware5audi
1271:   FUNC GLOBAL DEFAULT 14 _ZN7android8hardware5audi
1272:   FUNC GLOBAL DEFAULT 14 _ZN7android8hardware5audi
1273:   FUNC GLOBAL DEFAULT 14 _ZN7android8hardware5audi
1274:   FUNC GLOBAL DEFAULT 14 _ZN7android8hardware5audi
1275:   FUNC GLOBAL DEFAULT 14 _ZN7android8hardware5audi
1276:   FUNC GLOBAL DEFAULT 14 _ZThn32_N7android8hardwar
1277:   FUNC GLOBAL DEFAULT 14 _ZN7android8hardware5audi
1278:   FUNC GLOBAL DEFAULT 14 _ZN7android8hardware5audi
1279:   FUNC GLOBAL DEFAULT 14 _ZN7android8hardware5audi
1280:   FUNC GLOBAL DEFAULT 14 _ZN7android8hardware5audi
1281:   OBJECT GLOBAL DEFAULT 18 _ZTTN7android8hardware5au
1282:   FUNC GLOBAL DEFAULT 14 _ZN7android8hardware5audi
1283:   FUNC GLOBAL DEFAULT 14 _ZN7android8hardware5audi
1284:   FUNC GLOBAL DEFAULT 14 _ZN7android8hardware5audi
1285:   FUNC GLOBAL DEFAULT 14 _ZN7android8hardware5audi
1286:   FUNC GLOBAL DEFAULT 14 _ZN7android8hardware5audi
1287:   FUNC GLOBAL DEFAULT 14 _ZN7android8hardware5audi
1288:   FUNC GLOBAL DEFAULT 14 _ZN7android8hardware5audi
1289:   FUNC WEAK DEFAULT 14 _ZNSt3__113__tree_removeI
1290:   FUNC GLOBAL DEFAULT 14 _ZN7android8hardware5audi
1291:   OBJECT GLOBAL DEFAULT 18 _ZTVN7android8hardware5au
1292:   FUNC GLOBAL DEFAULT 14 _ZN7android8hardware5audi
1293:   FUNC GLOBAL DEFAULT 14 _ZThn32_N7android8hardwar
1294:   FUNC GLOBAL DEFAULT 14 _ZN7android8hardware5audi
1295:   OBJECT GLOBAL DEFAULT 18 _ZTTN7android8hardware5au
1296:   FUNC GLOBAL DEFAULT 14 _ZN7android8hardware5audi
1297:   FUNC GLOBAL DEFAULT 14 _ZN7android8hardware5audi
1298:   OBJECT GLOBAL DEFAULT 16 _ZN7android8hardware5audi
1299:   FUNC GLOBAL DEFAULT 14 _ZN7android8hardware5audi
1300:   FUNC GLOBAL DEFAULT 14 _ZN7android8hardware5audi
1301:   FUNC GLOBAL DEFAULT 14 _ZN7android8hardware5audi
1302:   FUNC GLOBAL DEFAULT 14 _ZThn32_N7android8hardwar
1303:   FUNC GLOBAL DEFAULT 14 _ZN7android8hardware5audi
1304:   FUNC GLOBAL DEFAULT 14 _ZN7android8hardware5audi
1305:   OBJECT GLOBAL DEFAULT 18 _ZTCN7android8hardware5au
1306:   FUNC GLOBAL DEFAULT 14 _ZN7android8hardware5audi
1307:   FUNC GLOBAL DEFAULT 14 _ZN7android8hardware5audi
1308:   FUNC GLOBAL DEFAULT 14 _ZN7android8hardware5audi
1309:   FUNC GLOBAL DEFAULT 14 _ZN7android8hardware5audi
1310:   OBJECT WEAK DEFAULT 18 _ZTVN7android8hardware5au
1311:   FUNC GLOBAL DEFAULT 14 _ZN7android8hardware5audi
1312:   FUNC GLOBAL DEFAULT 14 _ZN7android8hardware5audi
1313:   FUNC GLOBAL DEFAULT 14 _ZN7android8hardware5audi
1314:   FUNC GLOBAL DEFAULT 14 _ZN7android8hardware5audi
1315:   FUNC GLOBAL DEFAULT 14 _ZN7android8hardware5audi
1316:   FUNC GLOBAL DEFAULT 14 _ZN7android8hardware5audi
1317:   FUNC GLOBAL DEFAULT 14 _ZN7android8hardware5audi
1318:   FUNC GLOBAL DEFAULT 14 _ZTv0_n24_N7android8hardw
1319:   FUNC GLOBAL DEFAULT 14 _ZN7android8hardware5audi
1320:   FUNC GLOBAL DEFAULT 14 _ZN7android8hardware5audi
1321:   FUNC GLOBAL DEFAULT 14 _ZN7android8hardware5audi
1322:   FUNC GLOBAL DEFAULT 14 _ZThn32_N7android8hardwar
1323:   OBJECT GLOBAL DEFAULT 18 _ZTCN7android8hardware5au
1324:   FUNC GLOBAL DEFAULT 14 _ZN7android8hardware5audi
1325:   FUNC GLOBAL DEFAULT 14 _ZN7android8hardware5audi
1326:   OBJECT GLOBAL DEFAULT 16 _ZN7android8hardware5audi
1327:   FUNC GLOBAL DEFAULT 14 _ZN7android8hardware5audi
1328:   FUNC WEAK DEFAULT 14 _ZN7android8hardware7deta
1329:   FUNC GLOBAL DEFAULT 14 _ZN7android8hardware5audi
1330:   FUNC GLOBAL DEFAULT 14 _ZN7android8hardware5audi
1331:   FUNC GLOBAL DEFAULT 14 _ZN7android8hardware5audi
1332:   FUNC GLOBAL DEFAULT 14 _ZN7android8hardware5audi
1333:   FUNC GLOBAL DEFAULT 14 _ZN7android8hardware5audi
1334:   FUNC GLOBAL DEFAULT 14 _ZN7android8hardware5audi
1335:   FUNC GLOBAL DEFAULT 14 _ZN7android8hardware5audi
1336:   FUNC GLOBAL DEFAULT 14 _ZN7android8hardware5audi
1337:   OBJECT GLOBAL DEFAULT 18 _ZTCN7android8hardware5au
1338:   FUNC WEAK DEFAULT 14 _ZN7android8hardware7deta
1339:   FUNC GLOBAL DEFAULT 14 _ZN7android8hardware5audi
1340:   FUNC GLOBAL DEFAULT 14 _ZN7android8hardware5audi
1341:   FUNC GLOBAL DEFAULT 14 _ZN7android8hardware5audi
1342:   FUNC GLOBAL DEFAULT 14 _ZN7android8hardware5audi
1343:   FUNC GLOBAL DEFAULT 14 _ZTv0_n24_N7android8hardw
1344:   OBJECT GLOBAL DEFAULT 18 _ZTCN7android8hardware5au
1345:   FUNC GLOBAL DEFAULT 14 _ZN7android8hardware5audi
1346:   FUNC GLOBAL DEFAULT 14 _ZN7android8hardware5audi
1347:   OBJECT GLOBAL DEFAULT 18 _ZTCN7android8hardware5au
1348:   FUNC GLOBAL DEFAULT 14 _ZN7android8hardware5audi
1349:   FUNC GLOBAL DEFAULT 14 _ZN7android8hardware5audi
1350:   FUNC WEAK DEFAULT 14 _ZN7android8hardware7deta
1351:   FUNC GLOBAL DEFAULT 14 _ZN7android8hardware5audi
1352:   FUNC GLOBAL DEFAULT 14 _ZN7android8hardware5audi
1353:   FUNC GLOBAL DEFAULT 14 _ZN7android8hardware5audi
1354:   FUNC GLOBAL DEFAULT 14 _ZN7android8hardware5audi
1355:   OBJECT GLOBAL DEFAULT 18 _ZTCN7android8hardware5au
1356:   FUNC GLOBAL DEFAULT 14 _ZN7android8hardware5audi
1357:   FUNC GLOBAL DEFAULT 14 _ZN7android8hardware5audi
1358:   FUNC GLOBAL DEFAULT 14 _ZN7android8hardware5audi
1359:   FUNC GLOBAL DEFAULT 14 _ZN7android8hardware5audi
1360:   OBJECT GLOBAL DEFAULT 18 _ZTVN7android8hardware5au
1361:   OBJECT GLOBAL DEFAULT 18 _ZTCN7android8hardware5au
1362:   FUNC GLOBAL DEFAULT 14 _ZN7android8hardware5audi
1363:   FUNC GLOBAL DEFAULT 14 _ZN7android8hardware5audi
1364:   FUNC GLOBAL DEFAULT 14 _ZN7android8hardware5audi
1365:   FUNC GLOBAL DEFAULT 14 _ZN7android8hardware5audi
1366:   FUNC GLOBAL DEFAULT 14 _ZThn32_N7android8hardwar
1367:   FUNC GLOBAL DEFAULT 14 _ZN7android8hardware5audi
1368:   FUNC GLOBAL DEFAULT 14 _ZN7android8hardware5audi
1369:   FUNC GLOBAL DEFAULT 14 _ZN7android8hardware5audi
1370:   FUNC GLOBAL DEFAULT 14 _ZN7android8hardware5audi
1371:   FUNC GLOBAL DEFAULT 14 _ZN7android8hardware5audi
1372:   FUNC GLOBAL DEFAULT 14 _ZN7android8hardware5audi
1373:   OBJECT GLOBAL DEFAULT 18 _ZTCN7android8hardware5au
1374:   FUNC GLOBAL DEFAULT 14 _ZN7android8hardware5audi
1375:   OBJECT GLOBAL DEFAULT 18 _ZTVN7android8hardware5au
1376:   FUNC GLOBAL DEFAULT 14 _ZN7android8hardware5audi
1377:   FUNC GLOBAL DEFAULT 14 _ZN7android8hardware5audi
1378:   FUNC GLOBAL DEFAULT 14 _ZN7android8hardware5audi
1379:   FUNC GLOBAL DEFAULT 14 _ZN7android8hardware5audi
1380:   FUNC GLOBAL DEFAULT 14 _ZN7android8hardware5audi
1381:   FUNC GLOBAL DEFAULT 14 _ZN7android8hardware5audi
1382:   FUNC GLOBAL DEFAULT 14 _ZN7android8hardware5audi
1383:   FUNC GLOBAL DEFAULT 14 _ZN7android8hardware5audi
1384:   FUNC GLOBAL DEFAULT 14 _ZN7android8hardware5audi
1385:   FUNC GLOBAL DEFAULT 14 _ZN7android8hardware5audi
1386:   FUNC GLOBAL DEFAULT 14 _ZN7android8hardware5audi
1387:   FUNC GLOBAL DEFAULT 14 _ZN7android8hardware5audi
1388:   FUNC GLOBAL DEFAULT 14 _ZN7android8hardware5audi
1389:   FUNC GLOBAL DEFAULT 14 _ZN7android8hardware5audi
1390:   FUNC GLOBAL DEFAULT 14 _ZN7android8hardware5audi
1391:   FUNC GLOBAL DEFAULT 14 _ZN7android8hardware5audi
1392:   FUNC GLOBAL DEFAULT 14 _ZN7android8hardware5audi
1393:   FUNC GLOBAL DEFAULT 14 _ZN7android8hardware5audi
1394:   FUNC GLOBAL DEFAULT 14 _ZN7android8hardware5audi
1395:   FUNC GLOBAL DEFAULT 14 _ZN7android8hardware5audi
1396:   FUNC GLOBAL DEFAULT 14 _ZN7android8hardware5audi
1397:   OBJECT GLOBAL DEFAULT 18 _ZTCN7android8hardware5au
1398:   FUNC WEAK DEFAULT 14 _ZN7android8hardware7deta
1399:   FUNC GLOBAL DEFAULT 14 _ZN7android8hardware5audi
1400:   FUNC GLOBAL DEFAULT 14 _ZN7android8hardware5audi
1401:   OBJECT GLOBAL DEFAULT 18 _ZTVN7android8hardware5au
1402:   FUNC GLOBAL DEFAULT 14 _ZN7android8hardware5audi
1403:   FUNC GLOBAL DEFAULT 14 _ZN7android8hardware5audi
1404:   FUNC GLOBAL DEFAULT 14 _ZN7android8hardware5audi
1405:   OBJECT GLOBAL DEFAULT 18 _ZTTN7android8hardware5au
1406:   OBJECT GLOBAL DEFAULT 18 _ZTCN7android8hardware5au
1407:   FUNC GLOBAL DEFAULT 14 _ZN7android8hardware5audi
1408:   FUNC GLOBAL DEFAULT 14 _ZN7android8hardware5audi
1409:   FUNC GLOBAL DEFAULT 14 _ZN7android8hardware5audi
1410:   OBJECT GLOBAL DEFAULT 18 _ZTVN7android8hardware5au
1411:   FUNC GLOBAL DEFAULT 14 _ZN7android8hardware5audi
1412:   FUNC WEAK DEFAULT 14 _ZNSt3__16__treeINS_12__v
1413:   FUNC GLOBAL DEFAULT 14 _ZN7android8hardware5audi
1414:   FUNC GLOBAL DEFAULT 14 _ZN7android8hardware5audi
1415:   FUNC GLOBAL DEFAULT 14 _ZN7android8hardware5audi
1416:   FUNC GLOBAL DEFAULT 14 _ZN7android8hardware5audi
1417:   FUNC GLOBAL DEFAULT 14 _ZN7android8hardware5audi
1418:   FUNC GLOBAL DEFAULT 14 _ZN7android8hardware5audi
1419:   FUNC GLOBAL DEFAULT 14 _ZN7android8hardware5audi
1420:   OBJECT GLOBAL DEFAULT 18 _ZTTN7android8hardware5au
1421:   FUNC GLOBAL DEFAULT 14 _ZN7android8hardware5audi
1422:   FUNC GLOBAL DEFAULT 14 _ZN7android8hardware5audi
1423:   FUNC GLOBAL DEFAULT 14 _ZN7android8hardware5audi
1424:   FUNC GLOBAL DEFAULT 14 _ZN7android8hardware5audi
1425:   OBJECT GLOBAL DEFAULT 18 _ZTCN7android8hardware5au
1426:   FUNC GLOBAL DEFAULT 14 _ZN7android8hardware5audi
1427:   FUNC GLOBAL DEFAULT 14 _ZN7android8hardware5audi
1428:   FUNC GLOBAL DEFAULT 14 _ZN7android8hardware5audi
1429:   OBJECT GLOBAL DEFAULT 18 _ZTCN7android8hardware5au
1430:   FUNC GLOBAL DEFAULT 14 _ZThn32_N7android8hardwar
1431:   FUNC GLOBAL DEFAULT 14 _ZN7android8hardware5audi
1432:   FUNC GLOBAL DEFAULT 14 _ZN7android8hardware5audi
1433:   FUNC GLOBAL DEFAULT 14 _ZN7android8hardware5audi
1434:   FUNC GLOBAL DEFAULT 14 _ZN7android8hardware5audi
1435:   FUNC GLOBAL DEFAULT 14 _ZN7android8hardware5audi
1436:   FUNC GLOBAL DEFAULT 14 _ZN7android8hardware5audi
1437:   FUNC GLOBAL DEFAULT 14 _ZN7android8hardware5audi
1438:   FUNC GLOBAL DEFAULT 14 _ZN7android8hardware5audi
1439:   FUNC GLOBAL DEFAULT 14 _ZN7android8hardware5audi
1440:   FUNC GLOBAL DEFAULT 14 _ZN7android8hardware5audi
1441:   FUNC GLOBAL DEFAULT 14 _ZN7android8hardware5audi
1442:   FUNC GLOBAL DEFAULT 14 _ZN7android8hardware5audi
1443:   FUNC GLOBAL DEFAULT 14 _ZN7android8hardware5audi
1444:   FUNC GLOBAL DEFAULT 14 _ZN7android8hardware5audi
1445:   FUNC GLOBAL DEFAULT 14 _ZN7android8hardware5audi
1446:   FUNC GLOBAL DEFAULT 14 _ZN7android8hardware5audi
1447:   FUNC GLOBAL DEFAULT 14 _ZN7android8hardware5audi
1448:   OBJECT GLOBAL DEFAULT 18 _ZTCN7android8hardware5au
1449:   FUNC GLOBAL DEFAULT 14 _ZN7android8hardware5audi
1450:   FUNC GLOBAL DEFAULT 14 _ZN7android8hardware5audi
1451:   FUNC GLOBAL DEFAULT 14 _ZN7android8hardware5audi
1452:   FUNC GLOBAL DEFAULT 14 _ZN7android8hardware5audi
1453:   FUNC GLOBAL DEFAULT 14 _ZN7android8hardware5audi
1454:   FUNC GLOBAL DEFAULT 14 _ZN7android8hardware5audi
1455:   FUNC GLOBAL DEFAULT 14 _ZN7android8hardware5audi
1456:   FUNC GLOBAL DEFAULT 14 _ZN7android8hardware5audi
1457:   FUNC GLOBAL DEFAULT 14 _ZN7android8hardware5audi
1458:   FUNC WEAK DEFAULT 14 _ZN7android8hardware7deta
1459:   FUNC GLOBAL DEFAULT 14 _ZN7android8hardware5audi
1460:   FUNC GLOBAL DEFAULT 14 _ZN7android8hardware5audi
1461:   FUNC GLOBAL DEFAULT 14 _ZN7android8hardware5audi
1462:   OBJECT GLOBAL DEFAULT 18 _ZTVN7android8hardware5au
1463:   FUNC GLOBAL DEFAULT 14 _ZN7android8hardware5audi
1464:   FUNC GLOBAL DEFAULT 14 _ZN7android8hardware5audi
1465:   FUNC GLOBAL DEFAULT 14 _ZN7android8hardware5audi
1466:   FUNC GLOBAL DEFAULT 14 _ZN7android8hardware5audi
1467:   FUNC GLOBAL DEFAULT 14 _ZN7android8hardware5audi
1468:   FUNC GLOBAL DEFAULT 14 _ZN7android8hardware5audi
1469:   FUNC GLOBAL DEFAULT 14 _ZN7android8hardware5audi
1470:   FUNC GLOBAL DEFAULT 14 _ZN7android8hardware5audi
1471:   OBJECT GLOBAL DEFAULT 16 _ZN7android8hardware5audi
1472:   FUNC GLOBAL DEFAULT 14 _ZN7android8hardware5audi
1473:   FUNC GLOBAL DEFAULT 14 _ZN7android8hardware5audi
1474:   FUNC GLOBAL DEFAULT 14 _ZN7android8hardware5audi
1475:   FUNC GLOBAL DEFAULT 14 _ZN7android8hardware5audi
1476:   FUNC GLOBAL DEFAULT 14 _ZN7android8hardware5audi
1477:   OBJECT GLOBAL DEFAULT 18 _ZTVN7android8hardware5au
1478:   FUNC GLOBAL DEFAULT 14 _ZTv0_n24_N7android8hardw
1479:   FUNC GLOBAL DEFAULT 14 _ZN7android8hardware5audi
1480:   FUNC GLOBAL DEFAULT 14 _ZN7android8hardware5audi
1481:   FUNC GLOBAL DEFAULT 14 _ZN7android8hardware5audi
1482:   FUNC GLOBAL DEFAULT 14 _ZN7android8hardware5audi
1483:   FUNC GLOBAL DEFAULT 14 _ZN7android8hardware5audi
1484:   FUNC GLOBAL DEFAULT 14 _ZN7android8hardware5audi
1485:   OBJECT GLOBAL DEFAULT 18 _ZTVN7android8hardware5au
1486:   FUNC GLOBAL DEFAULT 14 _ZN7android8hardware5audi
1487:   FUNC GLOBAL DEFAULT 14 _ZN7android8hardware5audi
1488:   FUNC GLOBAL DEFAULT 14 _ZN7android8hardware5audi
1489:   FUNC GLOBAL DEFAULT 14 _ZN7android8hardware5audi
1490:   FUNC GLOBAL DEFAULT 14 _ZN7android8hardware5audi
1491:   FUNC GLOBAL DEFAULT 14 _ZTv0_n24_N7android8hardw
1492:   FUNC GLOBAL DEFAULT 14 _ZN7android8hardware5audi
1493:   FUNC GLOBAL DEFAULT 14 _ZN7android8hardware5audi
1494:   FUNC GLOBAL DEFAULT 14 _ZN7android8hardware5audi
1495:   FUNC GLOBAL DEFAULT 14 _ZN7android8hardware5audi
1496:   FUNC GLOBAL DEFAULT 14 _ZN7android8hardware5audi
1497:   FUNC GLOBAL DEFAULT 14 _ZTv0_n24_N7android8hardw
1498:   FUNC GLOBAL DEFAULT 14 _ZN7android8hardware5audi
1499:   FUNC GLOBAL DEFAULT 14 _ZN7android8hardware5audi
1500:   FUNC GLOBAL DEFAULT 14 _ZN7android8hardware5audi
1501:   FUNC GLOBAL DEFAULT 14 _ZN7android8hardware5audi
1502:   FUNC GLOBAL DEFAULT 14 _ZN7android8hardware5audi
1503:   OBJECT GLOBAL DEFAULT 18 _ZTCN7android8hardware5au
1504:   FUNC GLOBAL DEFAULT 14 _ZN7android8hardware5audi
1505:   FUNC GLOBAL DEFAULT 14 _ZN7android8hardware5audi
1506:   FUNC GLOBAL DEFAULT 14 _ZN7android8hardware5audi
1507:   FUNC GLOBAL DEFAULT 14 _ZN7android8hardware5audi
1508:   FUNC GLOBAL DEFAULT 14 _ZN7android8hardware5audi
1509:   OBJECT GLOBAL DEFAULT 18 _ZTCN7android8hardware5au
1510:   FUNC GLOBAL DEFAULT 14 _ZN7android8hardware5audi
1511:   FUNC GLOBAL DEFAULT 14 _ZN7android8hardware5audi
1512:   OBJECT GLOBAL DEFAULT 18 _ZTCN7android8hardware5au
1513:   FUNC GLOBAL DEFAULT 14 _ZN7android8hardware5audi
1514:   FUNC GLOBAL DEFAULT 14 _ZN7android8hardware5audi
1515:   FUNC GLOBAL DEFAULT 14 _ZN7android8hardware5audi
1516:   FUNC GLOBAL DEFAULT 14 _ZN7android8hardware5audi
1517:   FUNC GLOBAL DEFAULT 14 _ZN7android8hardware5audi
1518:   FUNC GLOBAL DEFAULT 14 _ZN7android8hardware5audi
1519:   FUNC GLOBAL DEFAULT 14 _ZN7android8hardware5audi
1520:   FUNC GLOBAL DEFAULT 14 _ZN7android8hardware5audi
1521:   OBJECT GLOBAL DEFAULT 18 _ZTTN7android8hardware5au
1522:   FUNC GLOBAL DEFAULT 14 _ZN7android8hardware5audi
1523:   FUNC GLOBAL DEFAULT 14 _ZN7android8hardware5audi
1524:   FUNC GLOBAL DEFAULT 14 _ZN7android8hardware5audi
1525:   FUNC GLOBAL DEFAULT 14 _ZN7android8hardware5audi
1526:   FUNC GLOBAL DEFAULT 14 _ZN7android8hardware5audi
1527:   FUNC GLOBAL DEFAULT 14 _ZN7android8hardware5audi
1528:   FUNC GLOBAL DEFAULT 14 _ZN7android8hardware5audi
1529:   FUNC GLOBAL DEFAULT 14 _ZN7android8hardware5audi
1530:   FUNC GLOBAL DEFAULT 14 _ZN7android8hardware5audi
1531:   FUNC GLOBAL DEFAULT 14 _ZN7android8hardware5audi
1532:   FUNC GLOBAL DEFAULT 14 _ZN7android8hardware5audi
1533:   FUNC GLOBAL DEFAULT 14 _ZN7android8hardware5audi
1534:   FUNC GLOBAL DEFAULT 14 _ZN7android8hardware5audi
1535:   OBJECT GLOBAL DEFAULT 18 _ZTCN7android8hardware5au
1536:   FUNC GLOBAL DEFAULT 14 _ZN7android8hardware5audi
1537:   OBJECT GLOBAL DEFAULT 18 _ZTCN7android8hardware5au
1538:   FUNC GLOBAL DEFAULT 14 _ZN7android8hardware5audi
1539:   FUNC GLOBAL DEFAULT 14 _ZN7android8hardware5audi
1540:   FUNC GLOBAL DEFAULT 14 _ZN7android8hardware5audi
1541:   FUNC GLOBAL DEFAULT 14 _ZN7android8hardware5audi
1542:   FUNC GLOBAL DEFAULT 14 _ZN7android8hardware5audi
1543:   FUNC GLOBAL DEFAULT 14 _ZN7android8hardware5audi
1544:   FUNC GLOBAL DEFAULT 14 _ZN7android8hardware5audi
1545:   OBJECT GLOBAL DEFAULT 18 _ZTTN7android8hardware5au
1546:   OBJECT GLOBAL DEFAULT 18 _ZTVN7android8hardware5au
1547:   FUNC GLOBAL DEFAULT 14 _ZThn32_N7android8hardwar
1548:   FUNC GLOBAL DEFAULT 14 _ZN7android8hardware5audi
1549:   FUNC GLOBAL DEFAULT 14 _ZN7android8hardware5audi
1550:   OBJECT GLOBAL DEFAULT 18 _ZTCN7android8hardware5au
1551:   FUNC WEAK DEFAULT 14 _ZN7android8hardware7deta
1552:   FUNC GLOBAL DEFAULT 14 _ZN7android8hardware5audi
1553:   OBJECT GLOBAL DEFAULT 18 _ZTCN7android8hardware5au
1554:   FUNC GLOBAL DEFAULT 14 _ZN7android8hardware5audi
1555:   FUNC GLOBAL DEFAULT 14 _ZN7android8hardware5audi
1556:   FUNC GLOBAL DEFAULT 14 _ZN7android8hardware5audi
1557:   FUNC GLOBAL DEFAULT 14 _ZN7android8hardware5audi
1558:   FUNC GLOBAL DEFAULT 14 _ZThn32_N7android8hardwar
1559:   FUNC GLOBAL DEFAULT 14 _ZN7android8hardware5audi
1560:   FUNC GLOBAL DEFAULT 14 _ZN7android8hardware5audi
1561:   OBJECT GLOBAL DEFAULT 18 _ZTCN7android8hardware5au
1562:   FUNC WEAK DEFAULT 14 _ZN7android8hardware7deta
1563:   FUNC GLOBAL DEFAULT 14 _ZN7android8hardware5audi
1564:   FUNC GLOBAL DEFAULT 14 _ZN7android8hardware5audi
1565:   FUNC GLOBAL DEFAULT 14 _ZN7android8hardware5audi
1566:   OBJECT GLOBAL DEFAULT 18 _ZTCN7android8hardware5au
1567:   FUNC GLOBAL DEFAULT 14 _ZN7android8hardware5audi
1568:   FUNC GLOBAL DEFAULT 14 _ZN7android8hardware5audi
1569:   FUNC GLOBAL DEFAULT 14 _ZN7android8hardware5audi
1570:   FUNC GLOBAL DEFAULT 14 _ZN7android8hardware5audi
1571:   FUNC GLOBAL DEFAULT 14 _ZN7android8hardware5audi
1572:   FUNC GLOBAL DEFAULT 14 _ZN7android8hardware5audi
1573:   FUNC GLOBAL DEFAULT 14 _ZN7android8hardware5audi
1574:   FUNC GLOBAL DEFAULT 14 _ZN7android8hardware5audi
1575:   FUNC GLOBAL DEFAULT 14 _ZN7android8hardware5audi
1576:   FUNC GLOBAL DEFAULT 14 _ZN7android8hardware5audi
1577:   FUNC GLOBAL DEFAULT 14 _ZN7android8hardware5audi
1578:   FUNC GLOBAL DEFAULT 14 _ZN7android8hardware5audi
1579:   OBJECT GLOBAL DEFAULT 18 _ZTCN7android8hardware5au
1580:   FUNC GLOBAL DEFAULT 14 _ZN7android8hardware5audi
1581:   FUNC GLOBAL DEFAULT 14 _ZN7android8hardware5audi
1582:   OBJECT GLOBAL DEFAULT 18 _ZTTN7android8hardware5au
1583:   OBJECT GLOBAL DEFAULT 18 _ZTCN7android8hardware5au
1584:   FUNC GLOBAL DEFAULT 14 _ZN7android8hardware5audi
1585:   FUNC GLOBAL DEFAULT 14 _ZN7android8hardware5audi
1586:   OBJECT GLOBAL DEFAULT 18 _ZTCN7android8hardware5au
1587:   FUNC GLOBAL DEFAULT 14 _ZN7android8hardware5audi
1588:   FUNC GLOBAL DEFAULT 14 _ZN7android8hardware5audi
1589:   FUNC GLOBAL DEFAULT 14 _ZN7android8hardware5audi
1590:   FUNC GLOBAL DEFAULT 14 _ZN7android8hardware5audi
1591:   FUNC GLOBAL DEFAULT 14 _ZN7android8hardware5audi
1592:   FUNC GLOBAL DEFAULT 14 _ZN7android8hardware5audi
1593:   FUNC GLOBAL DEFAULT 14 _ZN7android8hardware5audi
1594:   FUNC GLOBAL DEFAULT 14 _ZN7android8hardware5audi
1595:   FUNC GLOBAL DEFAULT 14 _ZN7android8hardware5audi
1596:   FUNC GLOBAL DEFAULT 14 _ZN7android8hardware5audi
1597:   FUNC WEAK DEFAULT 14 _ZNSt3__16__treeINS_12__v
1598:   OBJECT GLOBAL DEFAULT 18 _ZTTN7android8hardware5au
1599:   FUNC GLOBAL DEFAULT 14 _ZN7android8hardware5audi
1600:   FUNC GLOBAL DEFAULT 14 _ZN7android8hardware5audi
1601:   FUNC GLOBAL DEFAULT 14 _ZN7android8hardware5audi
1602:   FUNC GLOBAL DEFAULT 14 _ZN7android8hardware5audi
1603:   FUNC GLOBAL DEFAULT 14 _ZN7android8hardware5audi
1604:   OBJECT GLOBAL DEFAULT 18 _ZTTN7android8hardware5au
1605:   FUNC GLOBAL DEFAULT 14 _ZN7android8hardware5audi
1606:   FUNC GLOBAL DEFAULT 14 _ZN7android8hardware5audi
1607:   FUNC GLOBAL DEFAULT 14 _ZN7android8hardware5audi
1608:   FUNC GLOBAL DEFAULT 14 _ZN7android8hardware5audi
1609:   FUNC GLOBAL DEFAULT 14 _ZN7android8hardware5audi
1610:   FUNC GLOBAL DEFAULT 14 _ZN7android8hardware5audi
1611:   FUNC GLOBAL DEFAULT 14 _ZN7android8hardware5audi
1612:   FUNC WEAK DEFAULT 14 _ZN7android8hardware7deta
1613:   OBJECT WEAK DEFAULT 18 _ZTVN7android8hardware5au
1614:   FUNC GLOBAL DEFAULT 14 _ZN7android8hardware5audi
1615:   OBJECT GLOBAL DEFAULT 18 _ZTCN7android8hardware5au
1616:   OBJECT GLOBAL DEFAULT 18 _ZTCN7android8hardware5au
1617:   OBJECT GLOBAL DEFAULT 18 _ZTCN7android8hardware5au
1618:   FUNC GLOBAL DEFAULT 14 _ZN7android8hardware5audi
1619:   FUNC GLOBAL DEFAULT 14 _ZN7android8hardware5audi
1620:   OBJECT GLOBAL DEFAULT 16 _ZN7android8hardware5audi
1621:   FUNC GLOBAL DEFAULT 14 _ZN7android8hardware5audi
1622:   FUNC GLOBAL DEFAULT 14 _ZN7android8hardware5audi
1623:   FUNC GLOBAL DEFAULT 14 _ZN7android8hardware5audi
1624:   FUNC GLOBAL DEFAULT 14 _ZN7android8hardware5audi
1625:   FUNC GLOBAL DEFAULT 14 _ZN7android8hardware5audi
1626:   FUNC GLOBAL DEFAULT 14 _ZN7android8hardware5audi
1627:   OBJECT GLOBAL DEFAULT 18 _ZTCN7android8hardware5au
1628:   FUNC GLOBAL DEFAULT 14 _ZN7android8hardware5audi
1629:   FUNC GLOBAL DEFAULT 14 _ZN7android8hardware5audi
1630:   FUNC GLOBAL DEFAULT 14 _ZN7android8hardware5audi
1631:   FUNC GLOBAL DEFAULT 14 _ZTv0_n24_N7android8hardw
1632:   OBJECT GLOBAL DEFAULT 18 _ZTTN7android8hardware5au
1633:   FUNC GLOBAL DEFAULT 14 _ZN7android8hardware5audi
1634:   FUNC GLOBAL DEFAULT 14 _ZN7android8hardware5audi
1635:   FUNC GLOBAL DEFAULT 14 _ZN7android8hardware5audi
1636:   OBJECT GLOBAL DEFAULT 18 _ZTTN7android8hardware5au
1637:   FUNC GLOBAL DEFAULT 14 _ZN7android8hardware5audi
1638:   FUNC GLOBAL DEFAULT 14 _ZN7android8hardware5audi
1639:   OBJECT WEAK DEFAULT 18 _ZTCN7android8hardware5au
1640:   OBJECT GLOBAL DEFAULT 18 _ZTCN7android8hardware5au
1641:   OBJECT GLOBAL DEFAULT 18 _ZTTN7android8hardware5au
1642:   FUNC GLOBAL DEFAULT 14 _ZN7android8hardware5audi
1643:   FUNC GLOBAL DEFAULT 14 _ZN7android8hardware5audi
1644:   FUNC GLOBAL DEFAULT 14 _ZN7android8hardware5audi
1645:   FUNC GLOBAL DEFAULT 14 _ZN7android8hardware5audi
1646:   FUNC GLOBAL DEFAULT 14 _ZN7android8hardware5audi
1647:   FUNC GLOBAL DEFAULT 14 _ZN7android8hardware5audi
1648:   FUNC WEAK DEFAULT 14 _ZNSt3__127__tree_balance
1649:   FUNC GLOBAL DEFAULT 14 _ZN7android8hardware5audi
1650:   FUNC GLOBAL DEFAULT 14 _ZN7android8hardware5audi
1651:   FUNC GLOBAL DEFAULT 14 _ZN7android8hardware5audi
1652:   FUNC GLOBAL DEFAULT 14 _ZN7android8hardware5audi
1653:   FUNC GLOBAL DEFAULT 14 _ZN7android8hardware5audi
1654:   FUNC WEAK DEFAULT 14 _ZN7android8hardware7deta
1655:   FUNC GLOBAL DEFAULT 14 _ZN7android8hardware5audi
1656:   FUNC GLOBAL DEFAULT 14 _ZN7android8hardware5audi
1657:   FUNC GLOBAL DEFAULT 14 _ZN7android8hardware5audi
1658:   FUNC GLOBAL DEFAULT 14 _ZN7android8hardware5audi
1659:   FUNC GLOBAL DEFAULT 14 _ZN7android8hardware5audi
1660:   FUNC GLOBAL DEFAULT 14 _ZN7android8hardware5audi
1661:   FUNC GLOBAL DEFAULT 14 _ZN7android8hardware5audi
1662:   FUNC GLOBAL DEFAULT 14 _ZN7android8hardware5audi
1663:   FUNC GLOBAL DEFAULT 14 _ZN7android8hardware5audi
1664:   FUNC GLOBAL DEFAULT 14 _ZN7android8hardware5audi
1665:   FUNC GLOBAL DEFAULT 14 _ZN7android8hardware5audi
1666:   FUNC GLOBAL DEFAULT 14 _ZN7android8hardware5audi
1667:   FUNC GLOBAL DEFAULT 14 _ZN7android8hardware5audi
1668:   FUNC GLOBAL DEFAULT 14 _ZN7android8hardware5audi
1669:   OBJECT GLOBAL DEFAULT 18 _ZTCN7android8hardware5au
1670:   OBJECT GLOBAL DEFAULT 18 _ZTCN7android8hardware5au
1671:   FUNC GLOBAL DEFAULT 14 _ZN7android8hardware5audi
1672:   FUNC GLOBAL DEFAULT 14 _ZN7android8hardware5audi
1673:   OBJECT GLOBAL DEFAULT 18 _ZTCN7android8hardware5au
1674:   FUNC GLOBAL DEFAULT 14 _ZN7android8hardware5audi
1675:   OBJECT GLOBAL DEFAULT 18 _ZTCN7android8hardware5au
1676:   FUNC GLOBAL DEFAULT 14 _ZN7android8hardware5audi
1677:   FUNC GLOBAL DEFAULT 14 _ZN7android8hardware5audi
1678:   FUNC GLOBAL DEFAULT 14 _ZN7android8hardware5audi
1679:   FUNC GLOBAL DEFAULT 14 _ZN7android8hardware5audi
1680:   FUNC GLOBAL DEFAULT 14 _ZN7android8hardware5audi
1681:   FUNC GLOBAL DEFAULT 14 _ZN7android8hardware5audi
1682:   FUNC GLOBAL DEFAULT 14 _ZN7android8hardware5audi
1683:   FUNC GLOBAL DEFAULT 14 _ZN7android8hardware5audi
1684:   FUNC GLOBAL DEFAULT 14 _ZTv0_n24_N7android8hardw
1685:   FUNC GLOBAL DEFAULT 14 _ZN7android8hardware5audi
1686:   FUNC GLOBAL DEFAULT 14 _ZN7android8hardware5audi
1687:   FUNC GLOBAL DEFAULT 14 _ZN7android8hardware5audi
1688:   FUNC GLOBAL DEFAULT 14 _ZN7android8hardware5audi
1689:   FUNC GLOBAL DEFAULT 14 _ZN7android8hardware5audi
1690:   OBJECT GLOBAL DEFAULT 18 _ZTCN7android8hardware5au
1691:   FUNC GLOBAL DEFAULT 14 _ZN7android8hardware5audi
1692:   FUNC GLOBAL DEFAULT 14 _ZN7android8hardware5audi
1693:   FUNC GLOBAL DEFAULT 14 _ZN7android8hardware5audi
1694:   FUNC GLOBAL DEFAULT 14 _ZN7android8hardware5audi
1695:   FUNC GLOBAL DEFAULT 14 _ZThn32_N7android8hardwar
1696:   FUNC GLOBAL DEFAULT 14 _ZN7android8hardware5audi
1697:   FUNC GLOBAL DEFAULT 14 _ZN7android8hardware5audi
1698:   FUNC GLOBAL DEFAULT 14 _ZN7android8hardware5audi
1699:   FUNC GLOBAL DEFAULT 14 _ZN7android8hardware5audi
1700:   OBJECT GLOBAL DEFAULT 18 _ZTCN7android8hardware5au
1701:   FUNC GLOBAL DEFAULT 14 _ZN7android8hardware5audi
1702:   OBJECT GLOBAL DEFAULT 18 _ZTCN7android8hardware5au
1703:   FUNC GLOBAL DEFAULT 14 _ZN7android8hardware5audi
1704:   OBJECT GLOBAL DEFAULT 18 _ZTCN7android8hardware5au
1705:   FUNC GLOBAL DEFAULT 14 _ZN7android8hardware5audi
1706:   FUNC GLOBAL DEFAULT 14 _ZN7android8hardware5audi
1707:   FUNC GLOBAL DEFAULT 14 _ZN7android8hardware5audi
1708:   FUNC GLOBAL DEFAULT 14 _ZN7android8hardware5audi
1709:   OBJECT GLOBAL DEFAULT 18 _ZTVN7android8hardware5au
1710:   FUNC GLOBAL DEFAULT 14 _ZN7android8hardware5audi
1711:   FUNC GLOBAL DEFAULT 14 _ZThn32_N7android8hardwar
1712:   FUNC GLOBAL DEFAULT 14 _ZN7android8hardware5audi
1713:   FUNC GLOBAL DEFAULT 14 _ZN7android8hardware5audi
1714:   OBJECT GLOBAL DEFAULT 18 _ZTVN7android8hardware5au
1715:   FUNC GLOBAL DEFAULT 14 _ZN7android8hardware5audi
1716:   FUNC WEAK DEFAULT 14 _ZNSt3__16__treeINS_12__v
1717:   OBJECT GLOBAL DEFAULT 18 _ZTVN7android8hardware5au
1718:   FUNC GLOBAL DEFAULT 14 _ZN7android8hardware5audi
1719:   OBJECT GLOBAL DEFAULT 18 _ZTCN7android8hardware5au
1720:   FUNC GLOBAL DEFAULT 14 _ZN7android8hardware5audi
1721:   FUNC GLOBAL DEFAULT 14 _ZN7android8hardware5audi
1722:   OBJECT GLOBAL DEFAULT 18 _ZTCN7android8hardware5au
1723:   OBJECT GLOBAL DEFAULT 18 _ZTCN7android8hardware5au
1724:   FUNC GLOBAL DEFAULT 14 _ZN7android8hardware5audi
1725:   FUNC GLOBAL DEFAULT 14 _ZN7android8hardware5audi
1726:   FUNC GLOBAL DEFAULT 14 _ZN7android8hardware5audi
1727:   FUNC GLOBAL DEFAULT 14 _ZN7android8hardware5audi
1728:   FUNC GLOBAL DEFAULT 14 _ZN7android8hardware5audi
1729:   OBJECT GLOBAL DEFAULT 18 _ZTVN7android8hardware5au
1730:   FUNC GLOBAL DEFAULT 14 _ZN7android8hardware5audi
1731:   OBJECT WEAK DEFAULT 18 _ZTCN7android8hardware5au
1732:   FUNC GLOBAL DEFAULT 14 _ZN7android8hardware5audi
1733:   FUNC GLOBAL DEFAULT 14 _ZN7android8hardware5audi
1734:   FUNC GLOBAL DEFAULT 14 _ZTv0_n24_N7android8hardw
1735:   FUNC WEAK DEFAULT 14 _ZN7android8hardware7deta
1736:   FUNC GLOBAL DEFAULT 14 _ZN7android8hardware5audi
1737:   FUNC GLOBAL DEFAULT 14 _ZN7android8hardware5audi
1738:   OBJECT GLOBAL DEFAULT 18 _ZTTN7android8hardware5au
1739:   FUNC GLOBAL DEFAULT 14 _ZN7android8hardware5audi
1740:   FUNC GLOBAL DEFAULT 14 _ZN7android8hardware5audi
1741:   FUNC GLOBAL DEFAULT 14 _ZN7android8hardware5audi
1742:   FUNC GLOBAL DEFAULT 14 _ZN7android8hardware5audi
1743:   FUNC GLOBAL DEFAULT 14 _ZThn32_N7android8hardwar
1744:   FUNC GLOBAL DEFAULT 14 _ZTv0_n24_N7android8hardw
1745:   FUNC GLOBAL DEFAULT 14 _ZN7android8hardware5audi
1746:   FUNC GLOBAL DEFAULT 14 _ZN7android8hardware5audi
1747:   FUNC GLOBAL DEFAULT 14 _ZN7android8hardware5audi
1748:   FUNC WEAK DEFAULT 14 _ZN7android8hardware7deta
1749:   FUNC GLOBAL DEFAULT 14 _ZN7android8hardware5audi
1750:   FUNC GLOBAL DEFAULT 14 _ZN7android8hardware5audi
1751:   FUNC GLOBAL DEFAULT 14 _ZN7android8hardware5audi
1752:   FUNC GLOBAL DEFAULT 14 _ZN7android8hardware5audi
1753:   FUNC GLOBAL DEFAULT 14 _ZN7android8hardware5audi
1754:   FUNC GLOBAL DEFAULT 14 _ZN7android8hardware5audi
1755:   FUNC GLOBAL DEFAULT 14 _ZN7android8hardware5audi
1756:   FUNC WEAK DEFAULT 14 _ZN7android8hardware7deta
1757:   FUNC GLOBAL DEFAULT 14 _ZN7android8hardware5audi
