 0x0000000e (SONAME)                     Library soname: [server_configurable_flags.so]
  
Symbol   contains 185 entries:
Num:   Type Bind Vis Ndx Name
0:   NOTYPE LOCAL DEFAULT UND
1:   FUNC GLOBAL DEFAULT UND __cxa_atexit@LIBC (2)
2:   FUNC GLOBAL DEFAULT UND __cxa_finalize@LIBC (2)
3:   FUNC GLOBAL DEFAULT UND _ZN7android4base10LogMess
4:   FUNC GLOBAL DEFAULT UND _ZN7android4base10LogMess
5:   FUNC GLOBAL DEFAULT UND _ZN7android4base10LogMess
6:   FUNC GLOBAL DEFAULT UND _ZN7android4base10StartsW
7:   FUNC GLOBAL DEFAULT UND _ZN7android4base11GetProp
8:   FUNC GLOBAL DEFAULT UND _ZN7android4base11SetProp
9:   FUNC GLOBAL DEFAULT UND _ZN7android4base14GetIntP
10:   FUNC GLOBAL DEFAULT UND _ZN7android4base15WriteSt
11:   FUNC GLOBAL DEFAULT UND _ZN7android4base21GetMini
12:   FUNC GLOBAL DEFAULT UND _ZNKSt3__112basic_stringI
13:   FUNC GLOBAL DEFAULT UND _ZNKSt3__119__shared_weak
14:   FUNC GLOBAL DEFAULT UND _ZNKSt3__120__vector_base
15:   FUNC GLOBAL DEFAULT UND _ZNKSt3__121__basic_strin
16:   FUNC GLOBAL DEFAULT UND _ZNKSt3__123__match_any_b
17:   FUNC GLOBAL DEFAULT UND _ZNKSt3__16locale4nameEv
18:   FUNC GLOBAL DEFAULT UND _ZNKSt3__16locale9use_fac
19:   FUNC GLOBAL DEFAULT UND _ZNKSt3__18ios_base6getlo
20:   FUNC GLOBAL DEFAULT UND _ZNSt3__112basic_stringIc
21:   FUNC GLOBAL DEFAULT UND _ZNSt3__112basic_stringIc
22:   FUNC GLOBAL DEFAULT UND _ZNSt3__112basic_stringIc
23:   FUNC GLOBAL DEFAULT UND _ZNSt3__112basic_stringIc
24:   FUNC GLOBAL DEFAULT UND _ZNSt3__112basic_stringIc
25:   FUNC GLOBAL DEFAULT UND _ZNSt3__113basic_ostreamI
26:   FUNC GLOBAL DEFAULT UND _ZNSt3__113basic_ostreamI
27:   FUNC GLOBAL DEFAULT UND _ZNSt3__113basic_ostreamI
28:   FUNC GLOBAL DEFAULT UND _ZNSt3__115__get_classnam
29:   FUNC GLOBAL DEFAULT UND _ZNSt3__119__shared_weak_
30:   FUNC GLOBAL DEFAULT UND _ZNSt3__119__shared_weak_
31:   FUNC GLOBAL DEFAULT UND _ZNSt3__120__get_collatio
32:   OBJECT GLOBAL DEFAULT UND _ZNSt3__15ctypeIcE2idE
33:   FUNC GLOBAL DEFAULT UND _ZNSt3__16localeC1ERKS0_
34:   FUNC GLOBAL DEFAULT UND _ZNSt3__16localeC1Ev
35:   FUNC GLOBAL DEFAULT UND _ZNSt3__16localeD1Ev
36:   OBJECT GLOBAL DEFAULT UND _ZNSt3__17collateIcE2idE
37:   FUNC GLOBAL DEFAULT UND _ZNSt3__18ios_base5clearE
38:   FUNC GLOBAL DEFAULT UND _ZNSt3__19to_stringEi
39:   FUNC GLOBAL DEFAULT UND _ZNSt3__1plIcNS_11char_tr
40:   FUNC GLOBAL DEFAULT UND _ZdlPv
41:   FUNC GLOBAL DEFAULT UND _Znwj
42:   FUNC GLOBAL DEFAULT UND __errno@LIBC (2)
43:   FUNC GLOBAL DEFAULT UND __stack_chk_fail@LIBC (2)
44:   OBJECT GLOBAL DEFAULT UND __stack_chk_guard@LIBC (2)
45:   FUNC GLOBAL DEFAULT UND abort@LIBC (2)
46:   FUNC WEAK DEFAULT UND android_fdsan_close_with_@LIBC_Q (3)
47:   FUNC WEAK DEFAULT UND android_fdsan_create_owne@LIBC_Q (3)
48:   FUNC WEAK DEFAULT UND android_fdsan_exchange_ow@LIBC_Q (3)
49:   FUNC GLOBAL DEFAULT UND close@LIBC (2)
50:   FUNC GLOBAL DEFAULT UND memchr@LIBC (2)
51:   FUNC GLOBAL DEFAULT UND memcmp@LIBC (2)
52:   FUNC GLOBAL DEFAULT UND open@LIBC (2)
53:   FUNC GLOBAL DEFAULT UND property_list
54:   FUNC GLOBAL DEFAULT UND strcmp@LIBC (2)
55:   FUNC GLOBAL DEFAULT UND strlen@LIBC (2)
56:   FUNC GLOBAL DEFAULT UND memcpy@LIBC (2)
57:   FUNC GLOBAL DEFAULT UND memmove@LIBC (2)
58:   FUNC GLOBAL DEFAULT UND memset@LIBC (2)
59:   FUNC WEAK DEFAULT 14 _ZNKSt3__112__match_charI
60:   FUNC WEAK DEFAULT 14 _ZNKSt3__120__bracket_exp
61:   FUNC WEAK DEFAULT 14 _ZNKSt3__120__match_char_
62:   FUNC WEAK DEFAULT 14 _ZNSt3__111basic_regexIcN
63:   FUNC WEAK DEFAULT 14 _ZNSt3__15dequeINS_7__sta
64:   FUNC WEAK DEFAULT 14 _ZNSt3__16vectorINS_4pair
65:   FUNC WEAK DEFAULT 14 _ZNSt3__111basic_regexIcN
66:   FUNC WEAK DEFAULT 14 _ZNSt3__117__owns_two_sta
67:   OBJECT WEAK DEFAULT 18 _ZTVNSt3__117__owns_two_s
68:   FUNC GLOBAL DEFAULT 14 __aeabi_memmove8
69:   FUNC GLOBAL DEFAULT 14 __aeabi_memset8
70:   FUNC WEAK DEFAULT 14 _ZNSt3__111basic_regexIcN
71:   FUNC WEAK DEFAULT 14 _ZNSt3__114__split_buffer
72:   FUNC WEAK DEFAULT 14 _ZNKSt3__121__empty_non_o
73:   FUNC WEAK DEFAULT 14 _ZNSt3__111basic_regexIcN
74:   FUNC WEAK DEFAULT 14 _ZNSt3__111basic_regexIcN
75:   FUNC WEAK DEFAULT 14 _ZNSt3__16vectorINS_9sub_
76:   OBJECT WEAK DEFAULT 18 _ZTVNSt3__128__begin_mark
77:   FUNC WEAK DEFAULT 14 _ZNKSt3__111__end_stateIc
78:   FUNC WEAK DEFAULT 14 _ZNSt3__120__shared_ptr_p
79:   OBJECT WEAK DEFAULT 18 _ZTVNSt3__111__alternateI
80:   FUNC GLOBAL DEFAULT 14 __aeabi_memset
81:   FUNC WEAK DEFAULT 14 _ZNKSt3__112regex_traitsI
82:   FUNC WEAK DEFAULT 14 _ZNKSt3__16__loopIcE6__ex
83:   FUNC WEAK DEFAULT 14 _ZNSt3__16vectorIcNS_9all
84:   OBJECT WEAK DEFAULT 18 _ZTVNSt3__111__match_anyI
85:   OBJECT WEAK DEFAULT 18 _ZTVNSt3__113__empty_stat
86:   OBJECT WEAK DEFAULT 18 _ZTVNSt3__117__repeat_one
87:   OBJECT WEAK DEFAULT 18 _ZTVNSt3__118__back_ref_c
88:   FUNC WEAK DEFAULT 14 _ZNKSt3__111basic_regexIc
89:   FUNC WEAK DEFAULT 14 _ZNSt3__111basic_regexIcN
90:   FUNC WEAK DEFAULT 14 _ZNSt3__111basic_regexIcN
91:   OBJECT WEAK DEFAULT 18 _ZTVNSt3__110__r_anchorIc
92:   FUNC WEAK DEFAULT 14 _ZNKSt3__111__lookaheadIc
93:   FUNC WEAK DEFAULT 14 _ZNSt3__111basic_regexIcN
94:   FUNC WEAK DEFAULT 14 _ZNSt3__111basic_regexIcN
95:   FUNC WEAK DEFAULT 14 _ZNSt3__114__split_buffer
96:   FUNC WEAK DEFAULT 14 _ZNSt3__124__put_characte
97:   FUNC GLOBAL DEFAULT 14 _ZN25server_configurable_
98:   FUNC WEAK DEFAULT 14 _ZNKSt3__110__r_anchorIcE
99:   FUNC WEAK DEFAULT 14 _ZNSt3__111basic_regexIcN
100:   FUNC WEAK DEFAULT 14 _ZNSt3__15dequeINS_7__sta
101:   FUNC WEAK DEFAULT 14 _ZNKSt3__110__back_refIcE
102:   FUNC WEAK DEFAULT 14 _ZNKSt3__112regex_traitsI
103:   FUNC WEAK DEFAULT 14 _ZNSt3__111basic_regexIcN
104:   FUNC WEAK DEFAULT 14 _ZNSt3__111basic_regexIcN
105:   FUNC WEAK DEFAULT 14 _ZNKSt3__112regex_traitsI
106:   FUNC WEAK DEFAULT 14 _ZNKSt3__16__loopIcE12__e
107:   FUNC WEAK DEFAULT 14 _ZNSt3__112__deque_baseIN
108:   FUNC WEAK DEFAULT 14 _ZNSt3__114__split_buffer
109:   OBJECT WEAK DEFAULT 18 _ZTVNSt3__123__match_any_
110:   FUNC WEAK DEFAULT 14 _ZNKSt3__118__match_char_
111:   OBJECT WEAK DEFAULT 18 _ZTVNSt3__118__match_char
112:   OBJECT WEAK DEFAULT 18 _ZTVNSt3__120__bracket_ex
113:   FUNC GLOBAL DEFAULT 14 __aeabi_memmove
114:   FUNC WEAK DEFAULT 14 _ZNKSt3__126__end_marked_
115:   FUNC WEAK DEFAULT 14 _ZNSt3__111basic_regexIcN
116:   FUNC WEAK DEFAULT 14 _ZNSt3__111basic_regexIcN
117:   FUNC WEAK DEFAULT 14 _ZNSt3__111basic_regexIcN
118:   FUNC WEAK DEFAULT 14 _ZNSt3__15dequeINS_7__sta
119:   FUNC WEAK DEFAULT 14 _ZNKSt3__111__alternateIc
120:   FUNC WEAK DEFAULT 14 _ZNSt3__111basic_regexIcN
121:   FUNC WEAK DEFAULT 14 _ZNSt3__111basic_regexIcN
122:   FUNC WEAK DEFAULT 14 _ZNKSt3__116__back_ref_ic
123:   FUNC WEAK DEFAULT 14 _ZNSt3__116__owns_one_sta
124:   FUNC WEAK DEFAULT 14 _ZNSt3__16vectorINS_4pair
125:   OBJECT WEAK DEFAULT 18 _ZTVNSt3__111__lookaheadI
126:   FUNC GLOBAL DEFAULT 14 __aeabi_memclr
127:   FUNC WEAK DEFAULT 14 _ZNSt3__114__split_buffer
128:   FUNC WEAK DEFAULT 14 _ZNSt3__16vectorINS_9sub_
129:   OBJECT WEAK DEFAULT 18 _ZTVNSt3__111__end_stateI
130:   OBJECT WEAK DEFAULT 18 _ZTVNSt3__126__end_marked
131:   FUNC WEAK DEFAULT 14 _ZNKSt3__113__empty_state
132:   FUNC WEAK DEFAULT 14 _ZNSt3__111basic_regexIcN
133:   FUNC GLOBAL DEFAULT 14 __aeabi_memcpy4
134:   FUNC GLOBAL DEFAULT 14 _ZN25server_configurable_
135:   FUNC WEAK DEFAULT 14 _ZNKSt3__111basic_regexIc
136:   FUNC WEAK DEFAULT 14 _ZNKSt3__117__repeat_one_
137:   FUNC WEAK DEFAULT 14 _ZNKSt3__118__back_ref_co
138:   FUNC WEAK DEFAULT 14 _ZNSt3__111basic_regexIcN
139:   FUNC GLOBAL DEFAULT 14 __aeabi_memclr4
140:   FUNC WEAK DEFAULT 14 _ZNKSt3__110__l_anchorIcE
141:   FUNC WEAK DEFAULT 14 _ZNKSt3__111__alternateIc
142:   FUNC WEAK DEFAULT 14 _ZNKSt3__128__begin_marke
143:   FUNC WEAK DEFAULT 14 _ZNKSt3__115__word_bounda
144:   FUNC WEAK DEFAULT 14 _ZNSt3__111basic_regexIcN
145:   FUNC WEAK DEFAULT 14 _ZNSt3__111basic_regexIcN
146:   FUNC WEAK DEFAULT 14 _ZNSt3__120__shared_ptr_p
147:   FUNC WEAK DEFAULT 14 _ZNSt3__16vectorINS_9sub_
148:   OBJECT WEAK DEFAULT 18 _ZTVNSt3__116__owns_one_s
149:   FUNC WEAK DEFAULT 14 _ZNSt3__111basic_regexIcN
150:   FUNC WEAK DEFAULT 14 _ZNSt3__16vectorIcNS_9all
151:   OBJECT WEAK DEFAULT 18 _ZTVNSt3__110__back_refIc
152:   OBJECT WEAK DEFAULT 18 _ZTVNSt3__112__match_char
153:   OBJECT WEAK DEFAULT 18 _ZTVNSt3__116__back_ref_i
154:   OBJECT WEAK DEFAULT 18 _ZTVNSt3__120__match_char
155:   FUNC GLOBAL DEFAULT 14 __aeabi_memcpy8
156:   FUNC WEAK DEFAULT 14 _ZNSt3__111basic_regexIcN
157:   FUNC WEAK DEFAULT 14 _ZNSt3__16vectorINS_12bas
158:   FUNC GLOBAL DEFAULT 14 __aeabi_memclr8
159:   FUNC WEAK DEFAULT 14 _ZNSt3__111basic_regexIcN
160:   FUNC WEAK DEFAULT 14 _ZNSt3__116__owns_one_sta
161:   FUNC WEAK DEFAULT 14 _ZNKSt3__111basic_regexIc
162:   FUNC WEAK DEFAULT 14 _ZNSt3__111basic_regexIcN
163:   FUNC WEAK DEFAULT 14 _ZNSt3__16vectorINS_9sub_
164:   FUNC WEAK DEFAULT 14 _ZNSt3__117__owns_two_sta
165:   FUNC WEAK DEFAULT 14 _ZNSt3__16vectorINS_7__st
166:   OBJECT WEAK DEFAULT 18 _ZTVNSt3__115__word_bound
167:   OBJECT WEAK DEFAULT 18 _ZTVNSt3__16__loopIcEE
168:   FUNC WEAK DEFAULT 14 _ZNSt3__111basic_regexIcN
169:   FUNC WEAK DEFAULT 14 _ZNSt3__114__split_buffer
170:   FUNC WEAK DEFAULT 14 _ZNSt3__16vectorINS_4pair
171:   FUNC WEAK DEFAULT 14 _ZNKSt3__112regex_traitsI
172:   OBJECT WEAK DEFAULT 18 _ZTVNSt3__110__l_anchorIc
173:   OBJECT WEAK DEFAULT 18 _ZTVNSt3__120__shared_ptr
174:   OBJECT WEAK DEFAULT 18 _ZTVNSt3__121__empty_non_
175:   FUNC WEAK DEFAULT 14 _ZNKSt3__111__match_anyIc
176:   FUNC WEAK DEFAULT 14 _ZNSt3__111basic_regexIcN
177:   FUNC WEAK DEFAULT 14 _ZNSt3__16vectorINS_4pair
178:   FUNC GLOBAL DEFAULT 14 __aeabi_memmove4
179:   FUNC GLOBAL DEFAULT 14 __aeabi_memset4
180:   FUNC WEAK DEFAULT 14 _ZNSt3__111basic_regexIcN
181:   FUNC GLOBAL DEFAULT 14 __aeabi_memcpy
182:   FUNC WEAK DEFAULT 14 _ZNKSt3__111basic_regexIc
183:   FUNC WEAK DEFAULT 14 _ZNKSt3__112regex_traitsI
184:   FUNC WEAK DEFAULT 14 _ZNSt3__111basic_regexIcN
