 0x0000000e (SONAME)                     Library soname: [android.hardware.graphics.composer@2.1.so]
  
Symbol   contains 471 entries:
Num:   Type Bind Vis Ndx Name
0:   NOTYPE LOCAL DEFAULT UND
1:   FUNC GLOBAL DEFAULT UND __cxa_finalize@LIBC (2)
2:   FUNC GLOBAL DEFAULT UND _ZN7android14sp_report_ra
3:   FUNC GLOBAL DEFAULT UND _ZN7android21report_syspr
4:   OBJECT GLOBAL DEFAULT UND _ZN7android4hidl4base4V1_
5:   FUNC GLOBAL DEFAULT UND _ZN7android4hidl4base4V1_
6:   FUNC GLOBAL DEFAULT UND _ZN7android4hidl4base4V1_
7:   FUNC GLOBAL DEFAULT UND _ZN7android4hidl4base4V1_
8:   FUNC GLOBAL DEFAULT UND _ZN7android4hidl4base4V1_
9:   FUNC GLOBAL DEFAULT UND _ZN7android4hidl4base4V1_
10:   FUNC GLOBAL DEFAULT UND _ZN7android4hidl4base4V1_
11:   FUNC GLOBAL DEFAULT UND _ZN7android4hidl4base4V1_
12:   FUNC GLOBAL DEFAULT UND _ZN7android4hidl4base4V1_
13:   FUNC GLOBAL DEFAULT UND _ZN7android4hidl4base4V1_
14:   FUNC GLOBAL DEFAULT UND _ZN7android4hidl4base4V1_
15:   FUNC GLOBAL DEFAULT UND _ZN7android4hidl4base4V1_
16:   FUNC GLOBAL DEFAULT UND _ZN7android4hidl4base4V1_
17:   FUNC GLOBAL DEFAULT UND _ZN7android4hidl4base4V1_
18:   FUNC GLOBAL DEFAULT UND _ZN7android4hidl4base4V1_
19:   FUNC GLOBAL DEFAULT UND _ZN7android4hidl4base4V1_
20:   FUNC GLOBAL DEFAULT UND _ZN7android4hidl4base4V1_
21:   FUNC GLOBAL DEFAULT UND _ZN7android4hidl4base4V1_
22:   FUNC GLOBAL DEFAULT UND _ZN7android4hidl4base4V1_
23:   FUNC GLOBAL DEFAULT UND _ZN7android4hidl4base4V1_
24:   FUNC GLOBAL DEFAULT UND _ZN7android4hidl4base4V1_
25:   FUNC GLOBAL DEFAULT UND _ZN7android4hidl4base4V1_
26:   FUNC GLOBAL DEFAULT UND _ZN7android4hidl4base4V1_
27:   FUNC GLOBAL DEFAULT UND _ZN7android4hidl4base4V1_
28:   FUNC GLOBAL DEFAULT UND _ZN7android7RefBase10onFi
29:   FUNC GLOBAL DEFAULT UND _ZN7android7RefBase12weak
30:   FUNC GLOBAL DEFAULT UND _ZN7android7RefBase13onLa
31:   FUNC GLOBAL DEFAULT UND _ZN7android7RefBase15onLa
32:   FUNC GLOBAL DEFAULT UND _ZN7android7RefBase20onIn
33:   FUNC GLOBAL DEFAULT UND _ZN7android7RefBaseC2Ev
34:   FUNC GLOBAL DEFAULT UND _ZN7android7RefBaseD2Ev
35:   FUNC GLOBAL DEFAULT UND _ZN7android8hardware10IIn
36:   FUNC GLOBAL DEFAULT UND _ZN7android8hardware10IIn
37:   FUNC GLOBAL DEFAULT UND _ZN7android8hardware10IIn
38:   FUNC GLOBAL DEFAULT UND _ZN7android8hardware10IIn
39:   FUNC GLOBAL DEFAULT UND _ZN7android8hardware10IIn
40:   FUNC GLOBAL DEFAULT UND _ZN7android8hardware11BpH
41:   FUNC GLOBAL DEFAULT UND _ZN7android8hardware11BpH
42:   FUNC GLOBAL DEFAULT UND _ZN7android8hardware11BpH
43:   FUNC GLOBAL DEFAULT UND _ZN7android8hardware11BpH
44:   FUNC GLOBAL DEFAULT UND _ZN7android8hardware11BpH
45:   FUNC GLOBAL DEFAULT UND _ZN7android8hardware11BpH
46:   FUNC GLOBAL DEFAULT UND _ZN7android8hardware11BpH
47:   FUNC GLOBAL DEFAULT UND _ZN7android8hardware11hid
48:   FUNC GLOBAL DEFAULT UND _ZN7android8hardware11hid
49:   FUNC GLOBAL DEFAULT UND _ZN7android8hardware11hid
50:   FUNC GLOBAL DEFAULT UND _ZN7android8hardware11hid
51:   FUNC GLOBAL DEFAULT UND _ZN7android8hardware11hid
52:   FUNC GLOBAL DEFAULT UND _ZN7android8hardware12Pro
53:   FUNC GLOBAL DEFAULT UND _ZN7android8hardware12Pro
54:   FUNC GLOBAL DEFAULT UND _ZN7android8hardware13wri
55:   FUNC GLOBAL DEFAULT UND _ZN7android8hardware14rea
56:   FUNC GLOBAL DEFAULT UND _ZN7android8hardware21def
57:   FUNC GLOBAL DEFAULT UND _ZN7android8hardware21wri
58:   FUNC GLOBAL DEFAULT UND _ZN7android8hardware22rea
59:   FUNC GLOBAL DEFAULT UND _ZN7android8hardware23get
60:   FUNC GLOBAL DEFAULT UND _ZN7android8hardware27hid
61:   FUNC GLOBAL DEFAULT UND _ZN7android8hardware27hid
62:   FUNC GLOBAL DEFAULT UND _ZN7android8hardware6Parc
63:   FUNC GLOBAL DEFAULT UND _ZN7android8hardware6Parc
64:   FUNC GLOBAL DEFAULT UND _ZN7android8hardware6Parc
65:   FUNC GLOBAL DEFAULT UND _ZN7android8hardware6Parc
66:   FUNC GLOBAL DEFAULT UND _ZN7android8hardware6Parc
67:   FUNC GLOBAL DEFAULT UND _ZN7android8hardware6Parc
68:   FUNC GLOBAL DEFAULT UND _ZN7android8hardware6Parc
69:   FUNC GLOBAL DEFAULT UND _ZN7android8hardware6Stat
70:   FUNC GLOBAL DEFAULT UND _ZN7android8hardware6Stat
71:   FUNC GLOBAL DEFAULT UND _ZN7android8hardware6Stat
72:   FUNC GLOBAL DEFAULT UND _ZN7android8hardware6Stat
73:   FUNC GLOBAL DEFAULT UND _ZN7android8hardware7IBin
74:   FUNC GLOBAL DEFAULT UND _ZN7android8hardware7IBin
75:   FUNC GLOBAL DEFAULT UND _ZN7android8hardware7IBin
76:   FUNC GLOBAL DEFAULT UND _ZN7android8hardware7IBin
77:   FUNC GLOBAL DEFAULT UND _ZN7android8hardware7deta
78:   FUNC GLOBAL DEFAULT UND _ZN7android8hardware7deta
79:   FUNC GLOBAL DEFAULT UND _ZN7android8hardware7deta
80:   FUNC GLOBAL DEFAULT UND _ZN7android8hardware7deta
81:   FUNC GLOBAL DEFAULT UND _ZN7android8hardware7deta
82:   FUNC GLOBAL DEFAULT UND _ZN7android8hardware7deta
83:   FUNC GLOBAL DEFAULT UND _ZN7android8hardware7deta
84:   OBJECT GLOBAL DEFAULT UND _ZN7android8hardware7deta
85:   OBJECT GLOBAL DEFAULT UND _ZN7android8hardware7deta
86:   FUNC GLOBAL DEFAULT UND _ZN7android8hardware7deta
87:   FUNC GLOBAL DEFAULT UND _ZN7android8hardware7deta
88:   FUNC GLOBAL DEFAULT UND _ZN7android8hardware7deta
89:   FUNC GLOBAL DEFAULT UND _ZN7android8hardware7deta
90:   FUNC GLOBAL DEFAULT UND _ZN7android8hardware7deta
91:   FUNC GLOBAL DEFAULT UND _ZN7android8hardware7deta
92:   FUNC GLOBAL DEFAULT UND _ZN7android8hardware7deta
93:   FUNC GLOBAL DEFAULT UND _ZN7android8hardware7deta
94:   FUNC GLOBAL DEFAULT UND _ZN7android8hardware7deta
95:   FUNC GLOBAL DEFAULT UND _ZN7android8hardware7deta
96:   OBJECT GLOBAL DEFAULT UND _ZN7android8hardware7deta
97:   FUNC GLOBAL DEFAULT UND _ZN7android8hardware9BHwB
98:   FUNC GLOBAL DEFAULT UND _ZN7android8hardware9BHwB
99:   FUNC GLOBAL DEFAULT UND _ZN7android8hardware9BHwB
100:   FUNC GLOBAL DEFAULT UND _ZN7android8hardware9BHwB
101:   FUNC GLOBAL DEFAULT UND _ZN7android8hardware9BHwB
102:   FUNC GLOBAL DEFAULT UND _ZN7android8hardware9BHwB
103:   FUNC GLOBAL DEFAULT UND _ZN7android8hardware9BHwB
104:   FUNC GLOBAL DEFAULT UND _ZN7android8hardware9BHwB
105:   FUNC GLOBAL DEFAULT UND _ZN7android8hardware9BHwB
106:   FUNC GLOBAL DEFAULT UND _ZN7android8hardware9BHwB
107:   FUNC GLOBAL DEFAULT UND _ZNK7android7RefBase10cre
108:   FUNC GLOBAL DEFAULT UND _ZNK7android7RefBase11get
109:   FUNC GLOBAL DEFAULT UND _ZNK7android7RefBase9decS
110:   FUNC GLOBAL DEFAULT UND _ZNK7android7RefBase9incS
111:   FUNC GLOBAL DEFAULT UND _ZNK7android8hardware6Par
112:   FUNC GLOBAL DEFAULT UND _ZNK7android8hardware6Par
113:   FUNC GLOBAL DEFAULT UND _ZNK7android8hardware6Par
114:   FUNC GLOBAL DEFAULT UND _ZNK7android8hardware6Par
115:   FUNC GLOBAL DEFAULT UND _ZNK7android8hardware6Par
116:   FUNC GLOBAL DEFAULT UND _ZNK7android8hardware7IBi
117:   FUNC GLOBAL DEFAULT UND _ZNK7android8hardware7det
118:   FUNC GLOBAL DEFAULT UND _ZNK7android8hardware9BHw
119:   FUNC GLOBAL DEFAULT UND _ZNKSt3__120__vector_base
120:   FUNC GLOBAL DEFAULT UND _ZNKSt3__121__basic_strin
121:   FUNC GLOBAL DEFAULT UND _ZNSt3__112basic_stringIc
122:   FUNC GLOBAL DEFAULT UND _ZNSt3__112basic_stringIc
123:   FUNC GLOBAL DEFAULT UND _ZNSt3__15mutex4lockEv
124:   FUNC GLOBAL DEFAULT UND _ZNSt3__15mutex6unlockEv
125:   FUNC GLOBAL DEFAULT UND _ZNSt3__15mutexD1Ev
126:   FUNC GLOBAL DEFAULT UND _ZTv0_n12_N7android4hidl4
127:   FUNC GLOBAL DEFAULT UND _ZTv0_n12_N7android4hidl4
128:   FUNC GLOBAL DEFAULT UND _ZTv0_n12_N7android8hardw
129:   FUNC GLOBAL DEFAULT UND _ZTv0_n12_N7android8hardw
130:   FUNC GLOBAL DEFAULT UND _ZTv0_n12_N7android8hardw
131:   FUNC GLOBAL DEFAULT UND _ZTv0_n12_N7android8hardw
132:   FUNC GLOBAL DEFAULT UND _ZTv0_n12_N7android8hardw
133:   FUNC GLOBAL DEFAULT UND _ZTv0_n12_N7android8hardw
134:   FUNC GLOBAL DEFAULT UND _ZTv0_n12_N7android8hardw
135:   FUNC GLOBAL DEFAULT UND _ZTv0_n12_N7android8hardw
136:   FUNC GLOBAL DEFAULT UND _ZTv0_n16_N7android8hardw
137:   FUNC GLOBAL DEFAULT UND _ZTv0_n20_N7android8hardw
138:   FUNC GLOBAL DEFAULT UND _ZTv0_n24_N7android8hardw
139:   FUNC GLOBAL DEFAULT UND _ZdaPv
140:   FUNC GLOBAL DEFAULT UND _ZdlPv
141:   FUNC GLOBAL DEFAULT UND _Znaj
142:   FUNC GLOBAL DEFAULT UND _Znwj
143:   FUNC GLOBAL DEFAULT UND __android_log_assert@LIBLOG (3)
144:   FUNC GLOBAL DEFAULT UND __cxa_pure_virtual
145:   FUNC GLOBAL DEFAULT UND __stack_chk_fail@LIBC (2)
146:   OBJECT GLOBAL DEFAULT UND __stack_chk_guard@LIBC (2)
147:   FUNC GLOBAL DEFAULT UND abort@LIBC (2)
148:   FUNC GLOBAL DEFAULT UND atrace_begin_body
149:   OBJECT GLOBAL DEFAULT UND atrace_enabled_tags
150:   FUNC GLOBAL DEFAULT UND atrace_end_body
151:   OBJECT GLOBAL DEFAULT UND atrace_is_ready
152:   FUNC GLOBAL DEFAULT UND atrace_setup
153:   FUNC GLOBAL DEFAULT UND memcmp@LIBC (2)
154:   FUNC GLOBAL DEFAULT UND strlen@LIBC (2)
155:   FUNC GLOBAL DEFAULT UND _ZN7android8hardware6Parc
156:   FUNC GLOBAL DEFAULT UND _ZN7android8hardware6Parc
157:   FUNC GLOBAL DEFAULT UND _ZNK7android8hardware6Par
158:   FUNC GLOBAL DEFAULT UND _ZNK7android8hardware6Par
159:   FUNC GLOBAL DEFAULT UND _ZN7android8hardware21wri
160:   FUNC GLOBAL DEFAULT UND _ZN7android8hardware22rea
161:   FUNC GLOBAL DEFAULT UND _ZN7android8hardware6Parc
162:   FUNC GLOBAL DEFAULT UND _ZN7android8hardware6Parc
163:   FUNC GLOBAL DEFAULT UND _ZN7android8hardware6Parc
164:   FUNC GLOBAL DEFAULT UND _ZN7android8hardware6Parc
165:   FUNC GLOBAL DEFAULT UND _ZNK7android8hardware6Par
166:   FUNC GLOBAL DEFAULT UND _ZNK7android8hardware6Par
167:   FUNC GLOBAL DEFAULT UND _ZNK7android8hardware6Par
168:   FUNC GLOBAL DEFAULT UND _ZNK7android8hardware6Par
169:   FUNC GLOBAL DEFAULT UND memcpy@LIBC (2)
170:   FUNC GLOBAL DEFAULT UND memset@LIBC (2)
171:   FUNC WEAK DEFAULT 14 _ZN7android8hardware7deta
172:   OBJECT WEAK DEFAULT 18 _ZTVN7android8hardware8gr
173:   FUNC GLOBAL DEFAULT 14 _ZN7android8hardware8grap
174:   FUNC GLOBAL DEFAULT 14 _ZN7android8hardware8grap
175:   FUNC GLOBAL DEFAULT 14 _ZN7android8hardware8grap
176:   FUNC GLOBAL DEFAULT 14 _ZN7android8hardware8grap
177:   FUNC GLOBAL DEFAULT 14 _ZN7android8hardware8grap
178:   FUNC GLOBAL DEFAULT 14 _ZN7android8hardware8grap
179:   FUNC GLOBAL DEFAULT 14 _ZN7android8hardware8grap
180:   OBJECT GLOBAL DEFAULT 18 _ZTCN7android8hardware8gr
181:   OBJECT GLOBAL DEFAULT 18 _ZTCN7android8hardware8gr
182:   OBJECT GLOBAL DEFAULT 18 _ZTCN7android8hardware8gr
183:   FUNC GLOBAL DEFAULT 14 _ZN7android8hardware8grap
184:   FUNC GLOBAL DEFAULT 14 _ZN7android8hardware8grap
185:   OBJECT GLOBAL DEFAULT 18 _ZTCN7android8hardware8gr
186:   FUNC GLOBAL DEFAULT 14 _ZN7android8hardware8grap
187:   FUNC GLOBAL DEFAULT 14 _ZN7android8hardware8grap
188:   FUNC GLOBAL DEFAULT 14 _ZN7android8hardware8grap
189:   FUNC GLOBAL DEFAULT 14 _ZN7android8hardware8grap
190:   FUNC GLOBAL DEFAULT 14 _ZN7android8hardware8grap
191:   FUNC GLOBAL DEFAULT 14 _ZN7android8hardware8grap
192:   FUNC GLOBAL DEFAULT 14 _ZN7android8hardware8grap
193:   FUNC GLOBAL DEFAULT 14 _ZN7android8hardware8grap
194:   FUNC GLOBAL DEFAULT 14 _ZN7android8hardware8grap
195:   OBJECT GLOBAL DEFAULT 18 _ZTCN7android8hardware8gr
196:   FUNC GLOBAL DEFAULT 14 _ZN7android8hardware8grap
197:   OBJECT GLOBAL DEFAULT 18 _ZTTN7android8hardware8gr
198:   OBJECT GLOBAL DEFAULT 18 _ZTVN7android8hardware8gr
199:   FUNC GLOBAL DEFAULT 14 _ZN7android8hardware8grap
200:   FUNC GLOBAL DEFAULT 14 _ZN7android8hardware8grap
201:   OBJECT GLOBAL DEFAULT 18 _ZTVN7android8hardware8gr
202:   FUNC GLOBAL DEFAULT 14 _ZThn20_N7android8hardwar
203:   FUNC GLOBAL DEFAULT 14 _ZN7android8hardware8grap
204:   FUNC WEAK DEFAULT 14 _ZNSt3__16__treeINS_12__v
205:   OBJECT GLOBAL DEFAULT 18 _ZTCN7android8hardware8gr
206:   OBJECT GLOBAL DEFAULT 18 _ZTCN7android8hardware8gr
207:   OBJECT GLOBAL DEFAULT 18 _ZTTN7android8hardware8gr
208:   FUNC GLOBAL DEFAULT 14 _ZN7android8hardware8grap
209:   FUNC GLOBAL DEFAULT 14 _ZN7android8hardware8grap
210:   FUNC GLOBAL DEFAULT 14 _ZN7android8hardware8grap
211:   FUNC GLOBAL DEFAULT 14 __aeabi_memclr
212:   FUNC GLOBAL DEFAULT 14 __aeabi_memset4
213:   OBJECT GLOBAL DEFAULT 18 _ZTCN7android8hardware8gr
214:   OBJECT GLOBAL DEFAULT 18 _ZTCN7android8hardware8gr
215:   FUNC GLOBAL DEFAULT 14 _ZN7android8hardware8grap
216:   FUNC GLOBAL DEFAULT 14 _ZN7android8hardware8grap
217:   FUNC GLOBAL DEFAULT 14 _ZN7android8hardware8grap
218:   FUNC GLOBAL DEFAULT 14 _ZN7android8hardware8grap
219:   FUNC GLOBAL DEFAULT 14 _ZN7android8hardware8grap
220:   FUNC GLOBAL DEFAULT 14 _ZN7android8hardware8grap
221:   OBJECT GLOBAL DEFAULT 16 _ZN7android8hardware8grap
222:   FUNC GLOBAL DEFAULT 14 _ZN7android8hardware8grap
223:   FUNC GLOBAL DEFAULT 14 _ZTv0_n12_N7android8hardw
224:   FUNC GLOBAL DEFAULT 14 _ZN7android8hardware8grap
225:   FUNC GLOBAL DEFAULT 14 _ZN7android8hardware8grap
226:   FUNC GLOBAL DEFAULT 14 _ZN7android8hardware8grap
227:   FUNC GLOBAL DEFAULT 14 _ZN7android8hardware8grap
228:   FUNC GLOBAL DEFAULT 14 _ZN7android8hardware8grap
229:   FUNC GLOBAL DEFAULT 14 _ZN7android8hardware8grap
230:   OBJECT GLOBAL DEFAULT 18 _ZTCN7android8hardware8gr
231:   OBJECT GLOBAL DEFAULT 18 _ZTVN7android8hardware8gr
232:   FUNC GLOBAL DEFAULT 14 __aeabi_memset8
233:   FUNC GLOBAL DEFAULT 14 _ZN7android8hardware8grap
234:   FUNC GLOBAL DEFAULT 14 _ZN7android8hardware8grap
235:   FUNC GLOBAL DEFAULT 14 _ZN7android8hardware8grap
236:   FUNC GLOBAL DEFAULT 14 _ZN7android8hardware8grap
237:   FUNC GLOBAL DEFAULT 14 _ZN7android8hardware8grap
238:   FUNC GLOBAL DEFAULT 14 _ZN7android8hardware8grap
239:   FUNC GLOBAL DEFAULT 14 _ZN7android8hardware8grap
240:   FUNC GLOBAL DEFAULT 14 _ZN7android8hardware8grap
241:   FUNC GLOBAL DEFAULT 14 _ZN7android8hardware8grap
242:   FUNC GLOBAL DEFAULT 14 _ZN7android8hardware8grap
243:   FUNC GLOBAL DEFAULT 14 _ZN7android8hardware8grap
244:   FUNC GLOBAL DEFAULT 14 _ZN7android8hardware8grap
245:   FUNC GLOBAL DEFAULT 14 _ZN7android8hardware8grap
246:   FUNC GLOBAL DEFAULT 14 _ZN7android8hardware8grap
247:   FUNC GLOBAL DEFAULT 14 _ZTv0_n12_N7android8hardw
248:   FUNC GLOBAL DEFAULT 14 _ZN7android8hardware8grap
249:   OBJECT GLOBAL DEFAULT 18 _ZTCN7android8hardware8gr
250:   FUNC GLOBAL DEFAULT 14 _ZN7android8hardware8grap
251:   FUNC GLOBAL DEFAULT 14 _ZN7android8hardware8grap
252:   FUNC GLOBAL DEFAULT 14 _ZN7android8hardware8grap
253:   FUNC GLOBAL DEFAULT 14 _ZN7android8hardware8grap
254:   OBJECT GLOBAL DEFAULT 18 _ZTTN7android8hardware8gr
255:   FUNC GLOBAL DEFAULT 14 _ZN7android8hardware8grap
256:   FUNC GLOBAL DEFAULT 14 _ZN7android8hardware8grap
257:   FUNC GLOBAL DEFAULT 14 _ZN7android8hardware8grap
258:   FUNC GLOBAL DEFAULT 14 _ZN7android8hardware8grap
259:   FUNC GLOBAL DEFAULT 14 _ZN7android8hardware8grap
260:   FUNC GLOBAL DEFAULT 14 _ZN7android8hardware8grap
261:   OBJECT GLOBAL DEFAULT 18 _ZTVN7android8hardware8gr
262:   FUNC WEAK DEFAULT 14 _ZNSt3__16vectorIN7androi
263:   FUNC GLOBAL DEFAULT 14 _ZN7android8hardware8grap
264:   OBJECT GLOBAL DEFAULT 18 _ZTCN7android8hardware8gr
265:   FUNC GLOBAL DEFAULT 14 _ZN7android8hardware8grap
266:   FUNC GLOBAL DEFAULT 14 _ZN7android8hardware8grap
267:   FUNC GLOBAL DEFAULT 14 _ZN7android8hardware8grap
268:   FUNC WEAK DEFAULT 14 _ZN7android8hardware7deta
269:   OBJECT GLOBAL DEFAULT 18 _ZTVN7android8hardware8gr
270:   OBJECT GLOBAL DEFAULT 18 _ZTCN7android8hardware8gr
271:   FUNC GLOBAL DEFAULT 14 _ZN7android8hardware8grap
272:   FUNC GLOBAL DEFAULT 14 _ZN7android8hardware8grap
273:   FUNC GLOBAL DEFAULT 14 __aeabi_memclr4
274:   FUNC GLOBAL DEFAULT 14 _ZN7android8hardware8grap
275:   FUNC GLOBAL DEFAULT 14 _ZThn20_N7android8hardwar
276:   FUNC GLOBAL DEFAULT 14 _ZN7android8hardware8grap
277:   FUNC GLOBAL DEFAULT 14 _ZN7android8hardware8grap
278:   FUNC GLOBAL DEFAULT 14 _ZN7android8hardware8grap
279:   FUNC GLOBAL DEFAULT 14 _ZN7android8hardware8grap
280:   FUNC GLOBAL DEFAULT 14 _ZN7android8hardware8grap
281:   FUNC GLOBAL DEFAULT 14 _ZN7android8hardware8grap
282:   OBJECT GLOBAL DEFAULT 18 _ZTVN7android8hardware8gr
283:   FUNC GLOBAL DEFAULT 14 _ZN7android8hardware8grap
284:   OBJECT GLOBAL DEFAULT 18 _ZTCN7android8hardware8gr
285:   OBJECT GLOBAL DEFAULT 18 _ZTCN7android8hardware8gr
286:   FUNC GLOBAL DEFAULT 14 __aeabi_memclr8
287:   FUNC GLOBAL DEFAULT 14 _ZN7android8hardware8grap
288:   FUNC GLOBAL DEFAULT 14 _ZN7android8hardware8grap
289:   FUNC GLOBAL DEFAULT 14 _ZN7android8hardware8grap
290:   OBJECT GLOBAL DEFAULT 18 _ZTVN7android8hardware8gr
291:   FUNC GLOBAL DEFAULT 14 _ZN7android8hardware8grap
292:   FUNC GLOBAL DEFAULT 14 __aeabi_memset
293:   FUNC GLOBAL DEFAULT 14 _ZN7android8hardware8grap
294:   FUNC WEAK DEFAULT 14 _ZN7android8hardware7deta
295:   FUNC GLOBAL DEFAULT 14 _ZN7android8hardware8grap
296:   FUNC GLOBAL DEFAULT 14 _ZN7android8hardware8grap
297:   OBJECT GLOBAL DEFAULT 18 _ZTCN7android8hardware8gr
298:   FUNC GLOBAL DEFAULT 14 _ZThn20_N7android8hardwar
299:   FUNC GLOBAL DEFAULT 14 _ZN7android8hardware8grap
300:   FUNC GLOBAL DEFAULT 14 _ZN7android8hardware8grap
301:   FUNC GLOBAL DEFAULT 14 _ZN7android8hardware8grap
302:   FUNC GLOBAL DEFAULT 14 _ZN7android8hardware8grap
303:   FUNC GLOBAL DEFAULT 14 _ZN7android8hardware8grap
304:   FUNC GLOBAL DEFAULT 14 _ZN7android8hardware8grap
305:   FUNC GLOBAL DEFAULT 14 _ZN7android8hardware8grap
306:   FUNC GLOBAL DEFAULT 14 _ZTv0_n12_N7android8hardw
307:   FUNC GLOBAL DEFAULT 14 _ZN7android8hardware8grap
308:   FUNC GLOBAL DEFAULT 14 _ZN7android8hardware8grap
309:   FUNC GLOBAL DEFAULT 14 _ZN7android8hardware8grap
310:   FUNC GLOBAL DEFAULT 14 _ZN7android8hardware8grap
311:   FUNC GLOBAL DEFAULT 14 _ZN7android8hardware8grap
312:   FUNC WEAK DEFAULT 14 _ZNSt3__16vectorINS_8func
313:   FUNC GLOBAL DEFAULT 14 _ZN7android8hardware8grap
314:   FUNC WEAK DEFAULT 14 _ZN7android8hardware10fro
315:   FUNC GLOBAL DEFAULT 14 _ZN7android8hardware8grap
316:   FUNC GLOBAL DEFAULT 14 _ZN7android8hardware8grap
317:   FUNC GLOBAL DEFAULT 14 _ZN7android8hardware8grap
318:   FUNC GLOBAL DEFAULT 14 _ZN7android8hardware8grap
319:   FUNC WEAK DEFAULT 14 _ZNSt3__16__treeINS_12__v
320:   FUNC GLOBAL DEFAULT 14 _ZN7android8hardware8grap
321:   FUNC GLOBAL DEFAULT 14 _ZN7android8hardware8grap
322:   FUNC GLOBAL DEFAULT 14 _ZN7android8hardware8grap
323:   FUNC GLOBAL DEFAULT 14 _ZN7android8hardware8grap
324:   FUNC GLOBAL DEFAULT 14 _ZN7android8hardware8grap
325:   OBJECT GLOBAL DEFAULT 18 _ZTCN7android8hardware8gr
326:   FUNC GLOBAL DEFAULT 14 __aeabi_memcpy4
327:   FUNC GLOBAL DEFAULT 14 _ZN7android8hardware8grap
328:   FUNC GLOBAL DEFAULT 14 _ZN7android8hardware8grap
329:   FUNC GLOBAL DEFAULT 14 _ZN7android8hardware8grap
330:   FUNC GLOBAL DEFAULT 14 _ZN7android8hardware8grap
331:   FUNC GLOBAL DEFAULT 14 _ZN7android8hardware8grap
332:   FUNC GLOBAL DEFAULT 14 _ZN7android8hardware8grap
333:   FUNC GLOBAL DEFAULT 14 _ZN7android8hardware8grap
334:   FUNC GLOBAL DEFAULT 14 _ZN7android8hardware8grap
335:   OBJECT WEAK DEFAULT 18 _ZTCN7android8hardware8gr
336:   FUNC WEAK DEFAULT 14 _ZN7android8hardware7deta
337:   FUNC GLOBAL DEFAULT 14 _ZN7android8hardware8grap
338:   FUNC GLOBAL DEFAULT 14 _ZN7android8hardware8grap
339:   FUNC GLOBAL DEFAULT 14 __aeabi_memcpy8
340:   OBJECT GLOBAL DEFAULT 18 _ZTVN7android8hardware8gr
341:   FUNC GLOBAL DEFAULT 14 _ZN7android8hardware8grap
342:   FUNC GLOBAL DEFAULT 14 _ZN7android8hardware8grap
343:   FUNC GLOBAL DEFAULT 14 _ZN7android8hardware8grap
344:   FUNC GLOBAL DEFAULT 14 _ZN7android8hardware8grap
345:   FUNC GLOBAL DEFAULT 14 _ZN7android8hardware8grap
346:   OBJECT WEAK DEFAULT 18 _ZTVN7android8hardware8gr
347:   FUNC GLOBAL DEFAULT 14 _ZN7android8hardware8grap
348:   FUNC WEAK DEFAULT 14 _ZNSt3__16vectorIPvNS_9al
349:   FUNC GLOBAL DEFAULT 14 _ZN7android8hardware8grap
350:   FUNC GLOBAL DEFAULT 14 _ZN7android8hardware8grap
351:   FUNC GLOBAL DEFAULT 14 _ZN7android8hardware8grap
352:   FUNC GLOBAL DEFAULT 14 _ZN7android8hardware8grap
353:   FUNC GLOBAL DEFAULT 14 _ZN7android8hardware8grap
354:   OBJECT WEAK DEFAULT 18 _ZTCN7android8hardware8gr
355:   OBJECT GLOBAL DEFAULT 16 _ZN7android8hardware8grap
356:   FUNC GLOBAL DEFAULT 14 _ZN7android8hardware8grap
357:   OBJECT GLOBAL DEFAULT 18 _ZTCN7android8hardware8gr
358:   FUNC GLOBAL DEFAULT 14 _ZThn20_N7android8hardwar
359:   FUNC GLOBAL DEFAULT 14 _ZN7android8hardware8grap
360:   FUNC GLOBAL DEFAULT 14 _ZN7android8hardware8grap
361:   FUNC GLOBAL DEFAULT 14 _ZN7android8hardware8grap
362:   OBJECT GLOBAL DEFAULT 18 _ZTCN7android8hardware8gr
363:   OBJECT GLOBAL DEFAULT 18 _ZTCN7android8hardware8gr
364:   FUNC GLOBAL DEFAULT 14 _ZN7android8hardware8grap
365:   FUNC GLOBAL DEFAULT 14 _ZN7android8hardware8grap
366:   OBJECT GLOBAL DEFAULT 18 _ZTCN7android8hardware8gr
367:   FUNC GLOBAL DEFAULT 14 _ZN7android8hardware8grap
368:   FUNC GLOBAL DEFAULT 14 _ZN7android8hardware8grap
369:   FUNC GLOBAL DEFAULT 14 _ZN7android8hardware8grap
370:   FUNC GLOBAL DEFAULT 14 _ZN7android8hardware8grap
371:   FUNC GLOBAL DEFAULT 14 _ZN7android8hardware8grap
372:   FUNC GLOBAL DEFAULT 14 _ZN7android8hardware8grap
373:   OBJECT GLOBAL DEFAULT 18 _ZTCN7android8hardware8gr
374:   FUNC GLOBAL DEFAULT 14 _ZN7android8hardware8grap
375:   FUNC GLOBAL DEFAULT 14 _ZN7android8hardware8grap
376:   FUNC GLOBAL DEFAULT 14 _ZN7android8hardware8grap
377:   FUNC WEAK DEFAULT 14 _ZNSt3__16__treeINS_12__v
378:   FUNC GLOBAL DEFAULT 14 _ZTv0_n12_N7android8hardw
379:   FUNC GLOBAL DEFAULT 14 _ZN7android8hardware8grap
380:   FUNC GLOBAL DEFAULT 14 _ZN7android8hardware8grap
381:   FUNC GLOBAL DEFAULT 14 _ZN7android8hardware8grap
382:   OBJECT GLOBAL DEFAULT 18 _ZTCN7android8hardware8gr
383:   FUNC GLOBAL DEFAULT 14 _ZN7android8hardware8grap
384:   FUNC GLOBAL DEFAULT 14 _ZN7android8hardware8grap
385:   FUNC WEAK DEFAULT 14 _ZNSt3__127__tree_balance
386:   OBJECT GLOBAL DEFAULT 18 _ZTTN7android8hardware8gr
387:   OBJECT GLOBAL DEFAULT 18 _ZTTN7android8hardware8gr
388:   OBJECT GLOBAL DEFAULT 18 _ZTCN7android8hardware8gr
389:   FUNC WEAK DEFAULT 14 _ZN7android8hardware7deta
390:   FUNC GLOBAL DEFAULT 14 _ZN7android8hardware8grap
391:   FUNC GLOBAL DEFAULT 14 _ZN7android8hardware8grap
392:   FUNC GLOBAL DEFAULT 14 _ZN7android8hardware8grap
393:   FUNC GLOBAL DEFAULT 14 _ZN7android8hardware8grap
394:   FUNC GLOBAL DEFAULT 14 _ZN7android8hardware8grap
395:   FUNC GLOBAL DEFAULT 14 _ZTv0_n12_N7android8hardw
396:   FUNC WEAK DEFAULT 14 _ZN7android8hardware7deta
397:   FUNC GLOBAL DEFAULT 14 _ZN7android8hardware8grap
398:   OBJECT GLOBAL DEFAULT 18 _ZTTN7android8hardware8gr
399:   OBJECT GLOBAL DEFAULT 18 _ZTTN7android8hardware8gr
400:   OBJECT GLOBAL DEFAULT 18 _ZTCN7android8hardware8gr
401:   FUNC GLOBAL DEFAULT 14 _ZN7android8hardware8grap
402:   FUNC GLOBAL DEFAULT 14 _ZN7android8hardware8grap
403:   FUNC GLOBAL DEFAULT 14 _ZN7android8hardware8grap
404:   FUNC GLOBAL DEFAULT 14 _ZThn20_N7android8hardwar
405:   FUNC GLOBAL DEFAULT 14 _ZN7android8hardware8grap
406:   FUNC GLOBAL DEFAULT 14 _ZN7android8hardware8grap
407:   FUNC GLOBAL DEFAULT 14 _ZN7android8hardware8grap
408:   FUNC GLOBAL DEFAULT 14 _ZN7android8hardware8grap
409:   FUNC GLOBAL DEFAULT 14 _ZN7android8hardware8grap
410:   FUNC GLOBAL DEFAULT 14 _ZN7android8hardware8grap
411:   FUNC GLOBAL DEFAULT 14 _ZN7android8hardware8grap
412:   FUNC WEAK DEFAULT 14 _ZNSt3__113__tree_removeI
413:   FUNC GLOBAL DEFAULT 14 _ZN7android8hardware8grap
414:   FUNC GLOBAL DEFAULT 14 _ZN7android8hardware8grap
415:   FUNC GLOBAL DEFAULT 14 _ZN7android8hardware8grap
416:   FUNC GLOBAL DEFAULT 14 _ZN7android8hardware8grap
417:   OBJECT GLOBAL DEFAULT 18 _ZTTN7android8hardware8gr
418:   FUNC GLOBAL DEFAULT 14 _ZN7android8hardware8grap
419:   FUNC WEAK DEFAULT 14 _ZNSt3__16__treeINS_12__v
420:   FUNC GLOBAL DEFAULT 14 _ZN7android8hardware8grap
421:   OBJECT WEAK DEFAULT 18 _ZTVN7android8hardware8gr
422:   FUNC GLOBAL DEFAULT 14 _ZN7android8hardware8grap
423:   FUNC GLOBAL DEFAULT 14 _ZN7android8hardware8grap
424:   FUNC GLOBAL DEFAULT 14 _ZN7android8hardware8grap
425:   OBJECT WEAK DEFAULT 18 _ZTCN7android8hardware8gr
426:   FUNC WEAK DEFAULT 14 _ZN7android8hardware10fro
427:   FUNC GLOBAL DEFAULT 14 _ZN7android8hardware8grap
428:   FUNC WEAK DEFAULT 14 _ZNSt3__16__treeINS_12__v
429:   FUNC WEAK DEFAULT 14 _ZN7android8hardware7deta
430:   FUNC GLOBAL DEFAULT 14 _ZN7android8hardware8grap
431:   FUNC GLOBAL DEFAULT 14 _ZN7android8hardware8grap
432:   FUNC GLOBAL DEFAULT 14 _ZN7android8hardware8grap
433:   OBJECT GLOBAL DEFAULT 16 _ZN7android8hardware8grap
434:   FUNC WEAK DEFAULT 14 _ZNSt3__16__treeINS_12__v
435:   OBJECT GLOBAL DEFAULT 18 _ZTTN7android8hardware8gr
436:   FUNC GLOBAL DEFAULT 14 _ZN7android8hardware8grap
437:   FUNC GLOBAL DEFAULT 14 _ZN7android8hardware8grap
438:   FUNC GLOBAL DEFAULT 14 _ZN7android8hardware8grap
439:   FUNC GLOBAL DEFAULT 14 _ZN7android8hardware8grap
440:   FUNC GLOBAL DEFAULT 14 _ZThn20_N7android8hardwar
441:   FUNC GLOBAL DEFAULT 14 _ZN7android8hardware8grap
442:   FUNC GLOBAL DEFAULT 14 _ZN7android8hardware8grap
443:   OBJECT GLOBAL DEFAULT 18 _ZTCN7android8hardware8gr
444:   FUNC GLOBAL DEFAULT 14 _ZN7android8hardware8grap
445:   FUNC GLOBAL DEFAULT 14 _ZN7android8hardware8grap
446:   FUNC GLOBAL DEFAULT 14 _ZN7android8hardware8grap
447:   FUNC WEAK DEFAULT 14 _ZN7android8hardware7deta
448:   FUNC GLOBAL DEFAULT 14 _ZN7android8hardware8grap
449:   OBJECT GLOBAL DEFAULT 18 _ZTVN7android8hardware8gr
450:   FUNC GLOBAL DEFAULT 14 _ZN7android8hardware8grap
451:   FUNC GLOBAL DEFAULT 14 _ZN7android8hardware8grap
452:   FUNC GLOBAL DEFAULT 14 _ZN7android8hardware8grap
453:   FUNC GLOBAL DEFAULT 14 _ZN7android8hardware8grap
454:   FUNC GLOBAL DEFAULT 14 _ZN7android8hardware8grap
455:   FUNC GLOBAL DEFAULT 14 _ZN7android8hardware8grap
456:   FUNC GLOBAL DEFAULT 14 _ZN7android8hardware8grap
457:   FUNC GLOBAL DEFAULT 14 _ZN7android8hardware8grap
458:   FUNC GLOBAL DEFAULT 14 _ZTv0_n12_N7android8hardw
459:   FUNC GLOBAL DEFAULT 14 _ZN7android8hardware8grap
460:   FUNC GLOBAL DEFAULT 14 _ZN7android8hardware8grap
461:   FUNC GLOBAL DEFAULT 14 _ZN7android8hardware8grap
462:   FUNC GLOBAL DEFAULT 14 __aeabi_memcpy
463:   FUNC GLOBAL DEFAULT 14 _ZN7android8hardware8grap
464:   FUNC GLOBAL DEFAULT 14 _ZN7android8hardware8grap
465:   FUNC GLOBAL DEFAULT 14 _ZN7android8hardware8grap
466:   FUNC GLOBAL DEFAULT 14 _ZN7android8hardware8grap
467:   FUNC GLOBAL DEFAULT 14 _ZN7android8hardware8grap
468:   FUNC GLOBAL DEFAULT 14 _ZN7android8hardware8grap
469:   FUNC GLOBAL DEFAULT 14 _ZN7android8hardware8grap
470:   OBJECT GLOBAL DEFAULT 18 _ZTCN7android8hardware8gr
