 0x0000000e (SONAME)                     Library soname: [libc.so]
  
Symbol   contains 1674 entries:
Num:   Type Bind Vis Ndx Name
0:   NOTYPE LOCAL DEFAULT UND
1:   FUNC GLOBAL DEFAULT UND dlerror@LIBC (10)
2:   FUNC GLOBAL DEFAULT UND dlopen@LIBC (10)
3:   FUNC GLOBAL DEFAULT UND dlsym@LIBC (10)
4:   FUNC GLOBAL DEFAULT UND android_dlopen_ext@LIBC (10)
5:   FUNC GLOBAL DEFAULT UND dlclose@LIBC (10)
6:   FUNC GLOBAL DEFAULT UND dl_unwind_find_exidx@LIBC (10)
7:   FUNC GLOBAL DEFAULT UND __loader_shared_globals
8:   FUNC GLOBAL DEFAULT UND android_get_application_t@LIBC_N (11)
9:   FUNC WEAK DEFAULT UND __loader_add_thread_local
10:   FUNC WEAK DEFAULT UND __loader_remove_thread_lo
11:   FUNC WEAK DEFAULT UND __loader_android_get_expo
12:   NOTYPE WEAK DEFAULT UND __cxa_begin_cleanup
13:   NOTYPE WEAK DEFAULT UND __cxa_type_match
14:   NOTYPE WEAK DEFAULT UND __cxa_call_unexpected
15:   FUNC GLOBAL DEFAULT 17 __memchr_chk@@LIBC
16:   FUNC GLOBAL DEFAULT 17 isfinitel@@LIBC
17:   IFUNC GLOBAL DEFAULT 17 strcat@@LIBC
18:   FUNC GLOBAL DEFAULT 17 _Unwind_DeleteException@@LIBC_PRIVATE
19:   FUNC GLOBAL DEFAULT 17 clock@@LIBC
20:   FUNC GLOBAL DEFAULT 17 ppoll@@LIBC
21:   FUNC GLOBAL DEFAULT 17 __p_fqnname@@LIBC
22:   FUNC GLOBAL DEFAULT 17 utmpname@@LIBC
23:   FUNC GLOBAL DEFAULT 17 setnetent@@LIBC_P
24:   FUNC GLOBAL DEFAULT 17 fputs@@LIBC
25:   FUNC GLOBAL DEFAULT 17 llabs@@LIBC
26:   FUNC WEAK DEFAULT 17 pthread_setspecific@@LIBC
27:   FUNC GLOBAL DEFAULT 17 iswgraph@@LIBC
28:   FUNC GLOBAL DEFAULT 17 fchown@@LIBC
29:   FUNC GLOBAL DEFAULT 17 __p_cdname@@LIBC
30:   FUNC GLOBAL DEFAULT 17 munmap@@LIBC
31:   FUNC GLOBAL DEFAULT 17 __FD_ISSET_chk@@LIBC
32:   FUNC GLOBAL DEFAULT 17 __llseek@@LIBC
33:   FUNC GLOBAL DEFAULT 17 process_vm_readv@@LIBC
34:   FUNC GLOBAL DEFAULT 17 posix_fallocate64@@LIBC
35:   FUNC GLOBAL DEFAULT 17 strtold_l@@LIBC
36:   FUNC GLOBAL DEFAULT 17 iswlower_l@@LIBC
37:   FUNC GLOBAL DEFAULT 17 __sigaction@@LIBC
38:   FUNC GLOBAL DEFAULT 17 strntoimax@@LIBC_PRIVATE
39:   FUNC GLOBAL DEFAULT 17 mkfifo@@LIBC
40:   FUNC GLOBAL DEFAULT 17 posix_openpt@@LIBC
41:   FUNC GLOBAL DEFAULT 17 __smakebuf@@LIBC_PRIVATE
42:   FUNC GLOBAL DEFAULT 17 if_freenameindex@@LIBC_N
43:   FUNC GLOBAL DEFAULT 17 readahead@@LIBC
44:   FUNC GLOBAL DEFAULT 17 pthread_barrierattr_getps@@LIBC_N
45:   FUNC WEAK DEFAULT 17 pthread_exit@@LIBC
46:   FUNC GLOBAL DEFAULT 17 iswblank_l@@LIBC
47:   FUNC GLOBAL DEFAULT 17 gethostbyaddr@@LIBC
48:   FUNC GLOBAL DEFAULT 17 toascii@@LIBC
49:   FUNC GLOBAL DEFAULT 17 lseek64@@LIBC
50:   FUNC GLOBAL DEFAULT 17 arc4random_uniform@@LIBC
51:   FUNC GLOBAL DEFAULT 17 epoll_ctl@@LIBC
52:   FUNC GLOBAL DEFAULT 17 eventfd@@LIBC
53:   FUNC GLOBAL DEFAULT 17 sched_get_priority_max@@LIBC
54:   FUNC GLOBAL DEFAULT 17 strcoll@@LIBC
55:   FUNC GLOBAL DEFAULT 17 sigignore@@LIBC_O
56:   FUNC GLOBAL DEFAULT 17 hcreate_r@@LIBC_P
57:   FUNC GLOBAL DEFAULT 17 __get_thread@@LIBC_PRIVATE
58:   FUNC GLOBAL DEFAULT 17 __waitid@@LIBC
59:   FUNC GLOBAL DEFAULT 17 pthread_mutexattr_gettype@@LIBC
60:   FUNC GLOBAL DEFAULT 17 ftw@@LIBC
61:   FUNC GLOBAL DEFAULT 17 tcflush@@LIBC
62:   FUNC GLOBAL DEFAULT 17 fseeko@@LIBC
63:   FUNC GLOBAL DEFAULT 17 jrand48@@LIBC
64:   FUNC GLOBAL DEFAULT 17 htonl@@LIBC
65:   FUNC GLOBAL DEFAULT 17 putwc@@LIBC
66:   FUNC GLOBAL DEFAULT 17 getpriority@@LIBC
67:   FUNC GLOBAL DEFAULT 17 umount@@LIBC
68:   FUNC GLOBAL DEFAULT 17 difftime@@LIBC
69:   FUNC GLOBAL DEFAULT 17 __aeabi_dcmpge@@LIBC_PRIVATE
70:   FUNC GLOBAL DEFAULT 17 umask@@LIBC
71:   FUNC GLOBAL DEFAULT 17 realpath@@LIBC
72:   FUNC GLOBAL DEFAULT 17 sched_rr_get_interval@@LIBC
73:   FUNC GLOBAL DEFAULT 17 localtime64_r@@LIBC
74:   FUNC WEAK DEFAULT 17 pthread_attr_getscope@@LIBC
75:   FUNC GLOBAL DEFAULT 17 __cmpdf2@@LIBC_PRIVATE
76:   FUNC GLOBAL DEFAULT 17 posix_spawnp@@LIBC_P
77:   FUNC GLOBAL DEFAULT 17 __ns_name_uncompress@@LIBC
78:   FUNC GLOBAL DEFAULT 17 setsockopt@@LIBC
79:   FUNC GLOBAL DEFAULT 17 __aeabi_fcmpun@@LIBC_PRIVATE
80:   IFUNC GLOBAL DEFAULT 17 __strcpy_chk@@LIBC
81:   FUNC GLOBAL DEFAULT 17 readlink@@LIBC
82:   FUNC GLOBAL DEFAULT 17 fgetln@@LIBC
83:   FUNC GLOBAL DEFAULT 17 pthread_cond_timedwait_mo@@LIBC
84:   FUNC GLOBAL DEFAULT 17 strtoull@@LIBC
85:   FUNC GLOBAL DEFAULT 17 __isnormal@@LIBC
86:   FUNC GLOBAL DEFAULT 17 sigismember@@LIBC
87:   FUNC WEAK DEFAULT 17 pthread_attr_setguardsize@@LIBC
88:   FUNC GLOBAL DEFAULT 17 sched_getparam@@LIBC
89:   OBJECT GLOBAL DEFAULT 26 __realloc_hook@@LIBC_P
90:   FUNC GLOBAL DEFAULT 17 posix_spawnattr_getschedp@@LIBC_P
91:   FUNC GLOBAL DEFAULT 17 htons@@LIBC
92:   FUNC GLOBAL DEFAULT 17 strlcpy@@LIBC
93:   FUNC GLOBAL DEFAULT 17 __ns_parserr@@LIBC
94:   FUNC GLOBAL DEFAULT 17 memalign@@LIBC
95:   FUNC WEAK DEFAULT 17 pthread_attr_setschedpoli@@LIBC
96:   FUNC GLOBAL DEFAULT 17 fdopendir@@LIBC
97:   FUNC GLOBAL DEFAULT 17 catgets@@LIBC_O
98:   FUNC GLOBAL DEFAULT 17 ptrace@@LIBC
99:   FUNC GLOBAL DEFAULT 17 strtoll_l@@LIBC
100:   FUNC GLOBAL DEFAULT 17 __ns_name_ntol@@LIBC
101:   FUNC GLOBAL DEFAULT 17 fnmatch@@LIBC
102:   FUNC GLOBAL DEFAULT 17 funopen@@LIBC
103:   FUNC GLOBAL DEFAULT 17 mkdirat@@LIBC
104:   OBJECT GLOBAL DEFAULT 21 __p_type_syms@@LIBC
105:   FUNC GLOBAL DEFAULT 17 __fseterr@@LIBC_P
106:   FUNC GLOBAL DEFAULT 17 posix_spawnattr_setsigmas@@LIBC_P
107:   FUNC GLOBAL DEFAULT 17 getsid@@LIBC
108:   FUNC GLOBAL DEFAULT 17 sched_setaffinity@@LIBC
109:   FUNC GLOBAL DEFAULT 17 __get_tls@@LIBC_PRIVATE
110:   FUNC GLOBAL DEFAULT 17 __aeabi_f2d@@LIBC_PRIVATE
111:   FUNC GLOBAL DEFAULT 17 __isfinite@@LIBC
112:   FUNC GLOBAL DEFAULT 17 isnormalf@@LIBC
113:   FUNC GLOBAL DEFAULT 17 mkostemps@@LIBC
114:   FUNC GLOBAL DEFAULT 17 __ns_name_ntop@@LIBC
115:   FUNC GLOBAL DEFAULT 17 lcong48@@LIBC
116:   FUNC GLOBAL DEFAULT 17 ftime@@LIBC_PRIVATE
117:   FUNC GLOBAL DEFAULT 17 getdtablesize@@LIBC_PRIVATE
118:   FUNC WEAK DEFAULT 17 pthread_getschedparam@@LIBC
119:   FUNC GLOBAL DEFAULT 17 usleep@@LIBC
120:   FUNC GLOBAL DEFAULT 17 strncasecmp_l@@LIBC
121:   FUNC GLOBAL DEFAULT 17 atoll@@LIBC
122:   FUNC GLOBAL DEFAULT 17 _toupper@@LIBC
123:   FUNC GLOBAL DEFAULT 17 ftello@@LIBC
124:   FUNC GLOBAL DEFAULT 17 wcswcs@@LIBC_PRIVATE
125:   FUNC GLOBAL DEFAULT 17 gethostname@@LIBC
126:   FUNC GLOBAL DEFAULT 17 pthread_rwlock_timedwrloc@@LIBC
127:   FUNC GLOBAL DEFAULT 17 __aeabi_dcmpgt@@LIBC_PRIVATE
128:   FUNC GLOBAL DEFAULT 17 srandom@@LIBC
129:   FUNC GLOBAL DEFAULT 17 __strlcat_chk@@LIBC
130:   FUNC GLOBAL DEFAULT 17 __aeabi_f2uiz@@LIBC_PRIVATE
131:   FUNC GLOBAL DEFAULT 17 __ledf2@@LIBC_PRIVATE
132:   FUNC GLOBAL DEFAULT 17 strcasecmp@@LIBC
133:   FUNC GLOBAL DEFAULT 17 __memmove_chk@@LIBC
134:   FUNC GLOBAL DEFAULT 17 fdatasync@@LIBC
135:   FUNC GLOBAL DEFAULT 17 getline@@LIBC
136:   FUNC GLOBAL DEFAULT 17 inotify_init1@@LIBC
137:   FUNC GLOBAL DEFAULT 17 sem_timedwait_monotonic_n@@LIBC_P
138:   FUNC GLOBAL DEFAULT 17 __floatundisf@@LIBC_PRIVATE
139:   FUNC GLOBAL DEFAULT 17 isnormall@@LIBC
140:   FUNC GLOBAL DEFAULT 17 sigsuspend64@@LIBC_P
141:   FUNC GLOBAL DEFAULT 17 shmat@@LIBC_O
142:   FUNC GLOBAL DEFAULT 17 __res_hostalias@@LIBC
143:   FUNC GLOBAL DEFAULT 17 gmtime64@@LIBC
144:   FUNC GLOBAL DEFAULT 17 pthread_mutexattr_getpsha@@LIBC
145:   FUNC GLOBAL DEFAULT 17 sigwait64@@LIBC_P
146:   FUNC GLOBAL DEFAULT 17 epoll_wait@@LIBC
147:   FUNC GLOBAL DEFAULT 17 msgsnd@@LIBC_O
148:   OBJECT GLOBAL DEFAULT 26 daylight@@LIBC
149:   FUNC GLOBAL DEFAULT 17 __addsf3@@LIBC_PRIVATE
150:   FUNC GLOBAL DEFAULT 17 __divsf3@@LIBC_PRIVATE
151:   FUNC GLOBAL DEFAULT 17 __subdf3@@LIBC_PRIVATE
152:   FUNC GLOBAL DEFAULT 17 fchmod@@LIBC
153:   FUNC GLOBAL DEFAULT 17 posix_spawnattr_destroy@@LIBC_P
154:   FUNC GLOBAL DEFAULT 17 wcstof_l@@LIBC_P
155:   FUNC GLOBAL DEFAULT 17 __dn_skipname@@LIBC
156:   FUNC GLOBAL DEFAULT 17 gethostbyname_r@@LIBC
157:   FUNC GLOBAL DEFAULT 17 pwrite@@LIBC
158:   FUNC GLOBAL DEFAULT 17 drand48@@LIBC
159:   FUNC WEAK DEFAULT 17 pthread_attr_setinheritsc@@LIBC_P
160:   FUNC GLOBAL DEFAULT 17 fmemopen@@LIBC
161:   FUNC GLOBAL DEFAULT 17 setrlimit64@@LIBC
162:   FUNC GLOBAL DEFAULT 17 abort@@LIBC
163:   FUNC GLOBAL DEFAULT 17 signal@@LIBC
164:   FUNC GLOBAL DEFAULT 17 tempnam@@LIBC
165:   FUNC GLOBAL DEFAULT 17 capget@@LIBC
166:   FUNC GLOBAL DEFAULT 17 pthread_mutex_trylock@@LIBC
167:   FUNC GLOBAL DEFAULT 17 gettimeofday@@LIBC
168:   FUNC GLOBAL DEFAULT 17 __libc_current_sigrtmin@@LIBC
169:   FUNC GLOBAL DEFAULT 17 tolower@@LIBC
170:   FUNC GLOBAL DEFAULT 17 getcwd@@LIBC
171:   FUNC GLOBAL DEFAULT 17 pclose@@LIBC
172:   FUNC GLOBAL DEFAULT 17 remove@@LIBC
173:   FUNC GLOBAL DEFAULT 17 getgrgid@@LIBC
174:   OBJECT GLOBAL DEFAULT 21 sys_siglist@@LIBC
175:   FUNC GLOBAL DEFAULT 17 asprintf@@LIBC
176:   FUNC GLOBAL DEFAULT 17 __futex_wake@@LIBC_PRIVATE
177:   FUNC GLOBAL DEFAULT 17 ispunct@@LIBC
178:   FUNC GLOBAL DEFAULT 17 sem_open@@LIBC
179:   FUNC GLOBAL DEFAULT 17 wcstod@@LIBC
180:   FUNC GLOBAL DEFAULT 17 wcpcpy@@LIBC
181:   FUNC GLOBAL DEFAULT 17 clock_settime@@LIBC
182:   FUNC GLOBAL DEFAULT 17 vwscanf@@LIBC
183:   FUNC GLOBAL DEFAULT 17 __flbf@@LIBC
184:   FUNC GLOBAL DEFAULT 17 __freadable@@LIBC
185:   OBJECT GLOBAL DEFAULT 26 timezone@@LIBC
186:   FUNC GLOBAL DEFAULT 17 setlinebuf@@LIBC
187:   FUNC GLOBAL DEFAULT 17 wcstof@@LIBC
188:   FUNC WEAK DEFAULT 17 android_getaddrinfofornet@@LIBC_PRIVATE
189:   FUNC GLOBAL DEFAULT 17 getservbyname@@LIBC
190:   FUNC GLOBAL DEFAULT 17 pthread_rwlockattr_getpsh@@LIBC
191:   FUNC GLOBAL DEFAULT 17 __aeabi_drsub@@LIBC_PRIVATE
192:   FUNC GLOBAL DEFAULT 17 readdir64@@LIBC
193:   FUNC GLOBAL DEFAULT 17 __openat@@LIBC
194:   FUNC GLOBAL DEFAULT 17 __res_send_setrhook@@LIBC
195:   FUNC GLOBAL DEFAULT 17 sync@@LIBC
196:   FUNC WEAK DEFAULT 17 pthread_attr_setscope@@LIBC
197:   FUNC WEAK DEFAULT 17 __aeabi_memcpy@@LIBC_N
198:   FUNC WEAK DEFAULT 17 __aeabi_memcpy@LIBC_PRIVATE
199:   FUNC GLOBAL DEFAULT 17 execvpe@@LIBC
200:   FUNC GLOBAL DEFAULT 17 __rt_sigsuspend@@LIBC
201:   FUNC GLOBAL DEFAULT 17 tcgetattr@@LIBC
202:   FUNC GLOBAL DEFAULT 17 __strncpy_chk@@LIBC
203:   FUNC GLOBAL DEFAULT 17 pthread_cond_destroy@@LIBC
204:   FUNC GLOBAL DEFAULT 17 sprintf@@LIBC
205:   FUNC GLOBAL DEFAULT 17 __cmsg_nxthdr@@LIBC
206:   FUNC GLOBAL DEFAULT 17 isnan@@LIBC
207:   FUNC GLOBAL DEFAULT 17 vswprintf@@LIBC
208:   FUNC GLOBAL DEFAULT 17 setfsuid@@LIBC
209:   FUNC GLOBAL DEFAULT 17 asctime_r@@LIBC
210:   FUNC GLOBAL DEFAULT 17 __wait4@@LIBC_PRIVATE
211:   FUNC GLOBAL DEFAULT 17 setpwent@@LIBC_O
212:   FUNC GLOBAL DEFAULT 17 strcasecmp_l@@LIBC
213:   FUNC GLOBAL DEFAULT 17 sync_file_range@@LIBC_O
214:   FUNC GLOBAL DEFAULT 17 signalfd64@@LIBC_P
215:   FUNC GLOBAL DEFAULT 17 android_net_res_stats_get@@LIBC_PLATFORM
216:   FUNC GLOBAL DEFAULT 17 pthread_getcpuclockid@@LIBC
217:   FUNC GLOBAL DEFAULT 17 __ioctl@@LIBC
218:   FUNC GLOBAL DEFAULT 17 sched_setparam@@LIBC
219:   FUNC GLOBAL DEFAULT 17 strtoumax@@LIBC
220:   FUNC GLOBAL DEFAULT 17 wcstok@@LIBC
221:   FUNC GLOBAL DEFAULT 17 setns@@LIBC
222:   FUNC GLOBAL DEFAULT 17 basename@@LIBC
223:   FUNC GLOBAL DEFAULT 17 wcrtomb@@LIBC
224:   FUNC GLOBAL DEFAULT 17 wcstol@@LIBC
225:   FUNC GLOBAL DEFAULT 17 fseek@@LIBC
226:   FUNC GLOBAL DEFAULT 17 __open@@LIBC_PRIVATE
227:   FUNC GLOBAL DEFAULT 17 __socket@@LIBC
228:   FUNC GLOBAL DEFAULT 17 fcntl@@LIBC
229:   FUNC GLOBAL DEFAULT 17 openpty@@LIBC
230:   FUNC GLOBAL DEFAULT 17 socketpair@@LIBC
231:   FUNC GLOBAL DEFAULT 17 fscanf@@LIBC
232:   FUNC GLOBAL DEFAULT 17 __gnu_Unwind_Save_VFP_D_1@@LIBC_PRIVATE
233:   FUNC GLOBAL DEFAULT 17 sigemptyset@@LIBC
234:   FUNC GLOBAL DEFAULT 17 ferror_unlocked@@LIBC
235:   FUNC GLOBAL DEFAULT 17 __gnu_Unwind_RaiseExcepti@@LIBC_PRIVATE
236:   FUNC GLOBAL DEFAULT 17 isalnum@@LIBC
237:   FUNC GLOBAL DEFAULT 17 nl_langinfo@@LIBC_O
238:   OBJECT GLOBAL DEFAULT 26 __progname@@LIBC
239:   FUNC GLOBAL DEFAULT 17 posix_spawnattr_init@@LIBC_P
240:   FUNC GLOBAL DEFAULT 17 nice@@LIBC
241:   FUNC GLOBAL DEFAULT 17 fpurge@@LIBC
242:   FUNC GLOBAL DEFAULT 17 localtime_r@@LIBC
243:   FUNC GLOBAL DEFAULT 17 _Unwind_GetLanguageSpecif@@LIBC_PRIVATE
244:   FUNC WEAK DEFAULT 17 __aeabi_memset4@@LIBC_N
245:   FUNC WEAK DEFAULT 17 __aeabi_memset4@LIBC_PRIVATE
246:   FUNC GLOBAL DEFAULT 17 alphasort64@@LIBC
247:   FUNC GLOBAL DEFAULT 17 getpwnam_r@@LIBC
248:   FUNC GLOBAL DEFAULT 17 wcsrchr@@LIBC
249:   FUNC GLOBAL DEFAULT 17 feof@@LIBC
250:   FUNC GLOBAL DEFAULT 17 fsetpos@@LIBC
251:   FUNC GLOBAL DEFAULT 17 index@@LIBC_PRIVATE
252:   FUNC WEAK DEFAULT 17 android_fdsan_set_error_l@@LIBC_Q
253:   FUNC GLOBAL DEFAULT 17 inotify_init@@LIBC
254:   FUNC GLOBAL DEFAULT 17 iswalnum_l@@LIBC
255:   FUNC GLOBAL DEFAULT 17 sscanf@@LIBC
256:   FUNC GLOBAL DEFAULT 17 mkostemp64@@LIBC
257:   FUNC GLOBAL DEFAULT 17 herror@@LIBC
258:   FUNC GLOBAL DEFAULT 17 fread_unlocked@@LIBC_P
259:   FUNC GLOBAL DEFAULT 17 setbuffer@@LIBC
260:   FUNC GLOBAL DEFAULT 17 pthread_condattr_setpshar@@LIBC
261:   FUNC GLOBAL DEFAULT 17 __strrchr_chk@@LIBC
262:   FUNC GLOBAL DEFAULT 17 wmemmove@@LIBC
263:   FUNC WEAK DEFAULT 17 __aeabi_memset8@@LIBC_N
264:   FUNC WEAK DEFAULT 17 __aeabi_memset8@LIBC_PRIVATE
265:   FUNC GLOBAL DEFAULT 17 wctype@@LIBC
266:   FUNC GLOBAL DEFAULT 17 setprotoent@@LIBC_P
267:   FUNC GLOBAL DEFAULT 17 getopt@@LIBC
268:   FUNC GLOBAL DEFAULT 17 __ltdf2@@LIBC_PRIVATE
269:   FUNC GLOBAL DEFAULT 17 mremap@@LIBC
270:   FUNC GLOBAL DEFAULT 17 setsid@@LIBC
271:   FUNC GLOBAL DEFAULT 17 strtoull_l@@LIBC
272:   FUNC GLOBAL DEFAULT 17 nrand48@@LIBC
273:   FUNC GLOBAL DEFAULT 17 __sfp@@LIBC_PRIVATE
274:   FUNC GLOBAL DEFAULT 17 lfind@@LIBC
275:   FUNC WEAK DEFAULT 17 pthread_attr_getschedpara@@LIBC
276:   FUNC GLOBAL DEFAULT 17 __floatunsisf@@LIBC_PRIVATE
277:   OBJECT GLOBAL DEFAULT 21 sys_signame@@LIBC
278:   FUNC GLOBAL DEFAULT 17 getitimer@@LIBC
279:   FUNC GLOBAL DEFAULT 17 inotify_rm_watch@@LIBC
280:   FUNC GLOBAL DEFAULT 17 hstrerror@@LIBC
281:   FUNC GLOBAL DEFAULT 17 getmntent@@LIBC
282:   FUNC GLOBAL DEFAULT 17 __atomic_inc@@LIBC
283:   FUNC GLOBAL DEFAULT 17 openlog@@LIBC
284:   FUNC GLOBAL DEFAULT 17 fflush_unlocked@@LIBC_P
285:   FUNC GLOBAL DEFAULT 17 __fwriting@@LIBC_P
286:   FUNC GLOBAL DEFAULT 17 __aeabi_cfcmple@@LIBC_PRIVATE
287:   FUNC GLOBAL DEFAULT 17 mkfifoat@@LIBC
288:   FUNC GLOBAL DEFAULT 17 __putshort@@LIBC
289:   FUNC GLOBAL DEFAULT 17 sched_getcpu@@LIBC
290:   FUNC GLOBAL DEFAULT 17 connect@@LIBC
291:   FUNC GLOBAL DEFAULT 17 isdigit_l@@LIBC
292:   FUNC GLOBAL DEFAULT 17 iconv_open@@LIBC_P
293:   OBJECT GLOBAL DEFAULT 13 in6addr_loopback@@LIBC_N
294:   FUNC GLOBAL DEFAULT 17 sigblock@@LIBC
295:   FUNC GLOBAL DEFAULT 17 memcmp@@LIBC
296:   FUNC GLOBAL DEFAULT 17 __nedf2@@LIBC_PRIVATE
297:   FUNC GLOBAL DEFAULT 17 ppoll64@@LIBC_P
298:   FUNC GLOBAL DEFAULT 17 accept4@@LIBC
299:   FUNC GLOBAL DEFAULT 17 iconv_close@@LIBC_P
300:   FUNC GLOBAL DEFAULT 17 strcoll_l@@LIBC
301:   FUNC GLOBAL DEFAULT 17 signalfd@@LIBC
302:   FUNC GLOBAL DEFAULT 17 __stpncpy_chk@@LIBC
303:   FUNC GLOBAL DEFAULT 17 pthread_rwlock_destroy@@LIBC
304:   FUNC GLOBAL DEFAULT 17 isinff@@LIBC
305:   FUNC GLOBAL DEFAULT 17 __ns_samename@@LIBC
306:   FUNC GLOBAL DEFAULT 17 sem_timedwait@@LIBC
307:   OBJECT GLOBAL DEFAULT 19 _tolower_tab_@@LIBC
308:   FUNC GLOBAL DEFAULT 17 getpid@@LIBC
309:   FUNC GLOBAL DEFAULT 17 __isnanf@@LIBC
310:   FUNC GLOBAL DEFAULT 17 rand@@LIBC
311:   FUNC GLOBAL DEFAULT 17 sem_unlink@@LIBC
312:   FUNC GLOBAL DEFAULT 17 _getshort@@LIBC
313:   FUNC GLOBAL DEFAULT 17 vmsplice@@LIBC
314:   FUNC GLOBAL DEFAULT 17 __aeabi_dcmpun@@LIBC_PRIVATE
315:   FUNC GLOBAL DEFAULT 17 unshare@@LIBC
316:   FUNC GLOBAL DEFAULT 17 pthread_rwlock_unlock@@LIBC
317:   FUNC GLOBAL DEFAULT 17 malloc_disable@@LIBC_Q
318:   FUNC GLOBAL DEFAULT 17 __truncdfsf2@@LIBC_PRIVATE
319:   FUNC GLOBAL DEFAULT 17 isspace_l@@LIBC
320:   FUNC GLOBAL DEFAULT 17 setlocale@@LIBC
321:   FUNC GLOBAL DEFAULT 17 sigdelset@@LIBC
322:   FUNC GLOBAL DEFAULT 17 __sched_cpufree@@LIBC
323:   FUNC GLOBAL DEFAULT 17 isinfl@@LIBC
324:   FUNC GLOBAL DEFAULT 17 getdelim@@LIBC
325:   FUNC GLOBAL DEFAULT 17 getpwent@@LIBC_O
326:   FUNC GLOBAL DEFAULT 17 wcsncasecmp_l@@LIBC
327:   FUNC GLOBAL DEFAULT 17 globfree@@LIBC_P
328:   FUNC GLOBAL DEFAULT 17 timelocal@@LIBC
329:   FUNC GLOBAL DEFAULT 17 __isnanl@@LIBC
330:   FUNC GLOBAL DEFAULT 17 uselocale@@LIBC
331:   FUNC GLOBAL DEFAULT 17 inet_ntoa@@LIBC
332:   FUNC GLOBAL DEFAULT 17 __aeabi_frsub@@LIBC_PRIVATE
333:   FUNC GLOBAL DEFAULT 17 mkdir@@LIBC
334:   FUNC GLOBAL DEFAULT 17 flistxattr@@LIBC
335:   FUNC GLOBAL DEFAULT 17 posix_spawnattr_setsigdef@@LIBC_P
336:   FUNC GLOBAL DEFAULT 17 fileno_unlocked@@LIBC_N
337:   FUNC WEAK DEFAULT 17 pthread_attr_destroy@@LIBC
338:   FUNC WEAK DEFAULT 17 __system_property_serial@@LIBC
339:   FUNC GLOBAL DEFAULT 17 getnetent@@LIBC_P
340:   FUNC GLOBAL DEFAULT 17 iswalpha_l@@LIBC
341:   FUNC WEAK DEFAULT 17 pthread_key_create@@LIBC
342:   FUNC GLOBAL DEFAULT 17 __res_ownok@@LIBC
343:   FUNC GLOBAL DEFAULT 17 nanosleep@@LIBC
344:   FUNC GLOBAL DEFAULT 17 inet_nsap_addr@@LIBC
345:   FUNC GLOBAL DEFAULT 17 funopen64@@LIBC_N
346:   FUNC GLOBAL DEFAULT 17 __fpending@@LIBC
347:   FUNC GLOBAL DEFAULT 17 vfdprintf@@LIBC
348:   OBJECT GLOBAL DEFAULT 26 __free_hook@@LIBC_P
349:   FUNC GLOBAL DEFAULT 17 clearenv@@LIBC
350:   FUNC GLOBAL DEFAULT 17 getgrgid_r@@LIBC_N
351:   FUNC GLOBAL DEFAULT 17 setgrent@@LIBC_O
352:   FUNC GLOBAL DEFAULT 17 bindresvport@@LIBC
353:   OBJECT GLOBAL DEFAULT 19 __sdidinit@@LIBC_PRIVATE
354:   FUNC GLOBAL DEFAULT 17 sigaction@@LIBC
355:   FUNC GLOBAL DEFAULT 17 strchrnul@@LIBC_N
356:   OBJECT GLOBAL DEFAULT 13 __popcount_tab@@LIBC_PRIVATE
357:   FUNC GLOBAL DEFAULT 17 ftrylockfile@@LIBC
358:   FUNC WEAK DEFAULT 17 pthread_attr_setstacksize@@LIBC
359:   FUNC GLOBAL DEFAULT 17 tzset@@LIBC
360:   FUNC GLOBAL DEFAULT 17 getchar@@LIBC
361:   IFUNC GLOBAL DEFAULT 17 strcpy@@LIBC
362:   FUNC GLOBAL DEFAULT 17 ether_aton@@LIBC
363:   FUNC GLOBAL DEFAULT 17 vfscanf@@LIBC
364:   FUNC GLOBAL DEFAULT 17 pthread_rwlock_trywrlock@@LIBC
365:   FUNC GLOBAL DEFAULT 17 isupper@@LIBC
366:   FUNC GLOBAL DEFAULT 17 _Unwind_Complete@@LIBC_PRIVATE
367:   FUNC GLOBAL DEFAULT 17 __aeabi_uldivmod@@LIBC_PRIVATE
368:   FUNC GLOBAL DEFAULT 17 fstatvfs64@@LIBC
369:   FUNC GLOBAL DEFAULT 17 mlockall@@LIBC
370:   FUNC GLOBAL DEFAULT 17 pthread_mutex_lock_timeou@@LIBC
371:   FUNC WEAK DEFAULT 17 __system_property_get@@LIBC
372:   FUNC GLOBAL DEFAULT 17 strdup@@LIBC
373:   FUNC GLOBAL DEFAULT 17 wcsnrtombs@@LIBC
374:   FUNC GLOBAL DEFAULT 17 pthread_mutexattr_getprot@@LIBC_P
375:   FUNC GLOBAL DEFAULT 17 pthread_spin_unlock@@LIBC_N
376:   FUNC WEAK DEFAULT 17 __cxa_thread_atexit_impl@@LIBC
377:   FUNC GLOBAL DEFAULT 17 seekdir@@LIBC
378:   FUNC GLOBAL DEFAULT 17 statfs64@@LIBC
379:   FUNC GLOBAL DEFAULT 17 iswctype_l@@LIBC
380:   FUNC GLOBAL DEFAULT 17 catopen@@LIBC_O
381:   FUNC GLOBAL DEFAULT 17 __b64_ntop@@LIBC
382:   FUNC GLOBAL DEFAULT 17 utime@@LIBC
383:   FUNC GLOBAL DEFAULT 17 fts_open@@LIBC
384:   FUNC GLOBAL DEFAULT 17 pthread_rwlock_wrlock@@LIBC
385:   FUNC WEAK DEFAULT 17 pthread_key_delete@@LIBC
386:   FUNC GLOBAL DEFAULT 17 duplocale@@LIBC
387:   FUNC GLOBAL DEFAULT 17 strrchr@@LIBC
388:   FUNC GLOBAL DEFAULT 17 __strncpy_chk2@@LIBC
389:   FUNC GLOBAL DEFAULT 17 inet_ntop@@LIBC
390:   FUNC GLOBAL DEFAULT 17 seteuid@@LIBC
391:   FUNC GLOBAL DEFAULT 17 mincore@@LIBC
392:   FUNC GLOBAL DEFAULT 17 msync@@LIBC
393:   FUNC GLOBAL DEFAULT 17 ttyname_r@@LIBC
394:   FUNC GLOBAL DEFAULT 17 posix_spawnattr_setsigdef@@LIBC_P
395:   FUNC GLOBAL DEFAULT 17 setservent@@LIBC
396:   FUNC GLOBAL DEFAULT 17 __res_nameinquery@@LIBC
397:   FUNC GLOBAL DEFAULT 17 err@@LIBC
398:   FUNC WEAK DEFAULT 17 pthread_attr_getdetachsta@@LIBC
399:   FUNC GLOBAL DEFAULT 17 pselect64@@LIBC_P
400:   FUNC GLOBAL DEFAULT 17 siginterrupt@@LIBC
401:   FUNC GLOBAL DEFAULT 17 fwprintf@@LIBC
402:   FUNC GLOBAL DEFAULT 17 fwscanf@@LIBC
403:   FUNC GLOBAL DEFAULT 17 __register_atfork@@LIBC
404:   FUNC GLOBAL DEFAULT 17 eventfd_read@@LIBC
405:   FUNC GLOBAL DEFAULT 17 timer_settime@@LIBC
406:   FUNC WEAK DEFAULT 17 __system_property_update@@LIBC_PLATFORM
407:   FUNC GLOBAL DEFAULT 17 pwrite64@@LIBC
408:   FUNC GLOBAL DEFAULT 17 catclose@@LIBC_O
409:   FUNC GLOBAL DEFAULT 17 __fgets_chk@@LIBC
410:   FUNC GLOBAL DEFAULT 17 wmemcmp@@LIBC
411:   FUNC GLOBAL DEFAULT 17 setpriority@@LIBC
412:   FUNC GLOBAL DEFAULT 17 truncate64@@LIBC
413:   FUNC GLOBAL DEFAULT 17 pthread_rwlockattr_getkin@@LIBC
414:   FUNC GLOBAL DEFAULT 17 posix_madvise@@LIBC
415:   FUNC GLOBAL DEFAULT 17 pthread_rwlockattr_init@@LIBC
416:   FUNC GLOBAL DEFAULT 17 pthread_once@@LIBC
417:   FUNC GLOBAL DEFAULT 17 getgrnam_r@@LIBC_N
418:   FUNC GLOBAL DEFAULT 17 srand48@@LIBC
419:   FUNC GLOBAL DEFAULT 17 __gnu_strerror_r@@LIBC
420:   OBJECT WEAK DEFAULT 26 environ@@LIBC
421:   FUNC GLOBAL DEFAULT 17 dirfd@@LIBC
422:   FUNC GLOBAL DEFAULT 17 getnameinfo@@LIBC
423:   FUNC GLOBAL DEFAULT 17 iscntrl_l@@LIBC
424:   FUNC GLOBAL DEFAULT 17 setpgid@@LIBC
425:   FUNC GLOBAL DEFAULT 17 __fwrite_chk@@LIBC_N
426:   FUNC GLOBAL DEFAULT 17 arc4random_stir@@LIBC_PRIVATE
427:   FUNC GLOBAL DEFAULT 17 poll@@LIBC
428:   FUNC GLOBAL DEFAULT 17 random@@LIBC
429:   FUNC GLOBAL DEFAULT 17 utimes@@LIBC
430:   FUNC GLOBAL DEFAULT 17 wcscmp@@LIBC
431:   FUNC GLOBAL DEFAULT 17 setstate@@LIBC
432:   FUNC GLOBAL DEFAULT 17 getpagesize@@LIBC
433:   FUNC GLOBAL DEFAULT 17 ptsname@@LIBC
434:   FUNC GLOBAL DEFAULT 17 swapon@@LIBC
435:   FUNC GLOBAL DEFAULT 17 write@@LIBC
436:   FUNC GLOBAL DEFAULT 17 pthread_cond_broadcast@@LIBC
437:   FUNC GLOBAL DEFAULT 17 freopen64@@LIBC_N
438:   FUNC GLOBAL DEFAULT 17 __write_chk@@LIBC_N
439:   FUNC GLOBAL DEFAULT 17 __getdents64@@LIBC_PRIVATE
440:   FUNC GLOBAL DEFAULT 17 __aeabi_fsub@@LIBC_PRIVATE
441:   FUNC GLOBAL DEFAULT 17 __timer_settime@@LIBC
442:   FUNC GLOBAL DEFAULT 17 strsignal@@LIBC
443:   FUNC GLOBAL DEFAULT 17 pthread_getname_np@@LIBC_O
444:   FUNC GLOBAL DEFAULT 17 close@@LIBC
445:   FUNC GLOBAL DEFAULT 17 pause@@LIBC
446:   FUNC GLOBAL DEFAULT 17 pthread_sigmask@@LIBC
447:   FUNC GLOBAL DEFAULT 17 posix_spawnattr_setschedp@@LIBC_P
448:   FUNC GLOBAL DEFAULT 17 vwarnx@@LIBC
449:   FUNC GLOBAL DEFAULT 17 __reboot@@LIBC
450:   FUNC GLOBAL DEFAULT 17 verr@@LIBC
451:   FUNC GLOBAL DEFAULT 17 memccpy@@LIBC
452:   FUNC GLOBAL DEFAULT 17 strspn@@LIBC
453:   FUNC GLOBAL DEFAULT 17 ftello64@@LIBC_N
454:   FUNC GLOBAL DEFAULT 17 epoll_create@@LIBC
455:   FUNC GLOBAL DEFAULT 17 regcomp@@LIBC
456:   FUNC GLOBAL DEFAULT 17 getgrent@@LIBC_O
457:   FUNC GLOBAL DEFAULT 17 sigfillset@@LIBC
458:   FUNC GLOBAL DEFAULT 17 towlower_l@@LIBC
459:   FUNC GLOBAL DEFAULT 17 gethostbyname@@LIBC
460:   FUNC GLOBAL DEFAULT 17 __res_mailok@@LIBC
461:   FUNC GLOBAL DEFAULT 17 android_net_res_stats_agg@@LIBC_PLATFORM
462:   FUNC GLOBAL DEFAULT 17 getwc@@LIBC
463:   FUNC GLOBAL DEFAULT 17 remque@@LIBC
464:   FUNC GLOBAL DEFAULT 17 sethostname@@LIBC
465:   FUNC GLOBAL DEFAULT 17 asctime64_r@@LIBC
466:   FUNC WEAK DEFAULT 17 __aeabi_atexit@@LIBC_N
467:   FUNC WEAK DEFAULT 17 __aeabi_atexit@LIBC_PRIVATE
468:   FUNC GLOBAL DEFAULT 17 fstat@@LIBC
469:   FUNC GLOBAL DEFAULT 17 localeconv@@LIBC
470:   FUNC GLOBAL DEFAULT 17 popen@@LIBC
471:   FUNC GLOBAL DEFAULT 17 pthread_attr_getstackaddr@@LIBC_PRIVATE
472:   FUNC GLOBAL DEFAULT 17 pthread_mutexattr_setprot@@LIBC_P
473:   FUNC GLOBAL DEFAULT 17 sigtimedwait@@LIBC
474:   FUNC GLOBAL DEFAULT 17 syslog@@LIBC
475:   FUNC GLOBAL DEFAULT 17 psiginfo@@LIBC
476:   FUNC GLOBAL DEFAULT 17 __memcpy_chk@@LIBC
477:   FUNC GLOBAL DEFAULT 17 funlockfile@@LIBC
478:   FUNC GLOBAL DEFAULT 17 wcslen@@LIBC
479:   FUNC GLOBAL DEFAULT 17 endpwent@@LIBC_O
480:   FUNC GLOBAL DEFAULT 17 printf@@LIBC
481:   FUNC GLOBAL DEFAULT 17 setfsgid@@LIBC
482:   FUNC GLOBAL DEFAULT 17 __atomic_dec@@LIBC
483:   FUNC GLOBAL DEFAULT 17 __aeabi_ddiv@@LIBC_PRIVATE
484:   FUNC GLOBAL DEFAULT 17 gethostbyname2@@LIBC
485:   IFUNC GLOBAL DEFAULT 17 __memset_chk@@LIBC
486:   FUNC GLOBAL DEFAULT 17 __aeabi_cdcmple@@LIBC_PRIVATE
487:   FUNC GLOBAL DEFAULT 17 fstatvfs@@LIBC
488:   FUNC GLOBAL DEFAULT 17 gmtime@@LIBC
489:   FUNC GLOBAL DEFAULT 17 seed48@@LIBC
490:   FUNC GLOBAL DEFAULT 17 alarm@@LIBC
491:   FUNC GLOBAL DEFAULT 17 bcopy@@LIBC_PRIVATE
492:   FUNC GLOBAL DEFAULT 17 if_nametoindex@@LIBC
493:   FUNC GLOBAL DEFAULT 17 pthread_cond_timeout_np@@LIBC
494:   FUNC GLOBAL DEFAULT 17 pthread_mutex_init@@LIBC
495:   FUNC GLOBAL DEFAULT 17 strtod_l@@LIBC_O
496:   FUNC GLOBAL DEFAULT 17 wcswidth@@LIBC
497:   FUNC GLOBAL DEFAULT 17 free_malloc_leak_info@@LIBC_DEPRECATED
498:   FUNC GLOBAL DEFAULT 17 isprint_l@@LIBC
499:   FUNC GLOBAL DEFAULT 17 __sched_getaffinity@@LIBC
500:   FUNC GLOBAL DEFAULT 17 strtoul_l@@LIBC_O
501:   FUNC GLOBAL DEFAULT 17 shmget@@LIBC_O
502:   FUNC GLOBAL DEFAULT 17 unsetenv@@LIBC
503:   FUNC GLOBAL DEFAULT 17 clearerr_unlocked@@LIBC
504:   FUNC GLOBAL DEFAULT 17 pthread_condattr_getclock@@LIBC
505:   FUNC GLOBAL DEFAULT 17 _Unwind_Backtrace@@LIBC_PRIVATE
506:   FUNC GLOBAL DEFAULT 17 pthread_sigmask64@@LIBC_P
507:   FUNC GLOBAL DEFAULT 17 linkat@@LIBC
508:   FUNC WEAK DEFAULT 17 pthread_attr_setdetachsta@@LIBC
509:   FUNC GLOBAL DEFAULT 17 gethostent@@LIBC
510:   FUNC GLOBAL DEFAULT 17 wcscat@@LIBC
511:   FUNC GLOBAL DEFAULT 17 wcsncmp@@LIBC
512:   FUNC GLOBAL DEFAULT 17 listen@@LIBC
513:   FUNC GLOBAL DEFAULT 17 lremovexattr@@LIBC
514:   FUNC WEAK DEFAULT 17 __aeabi_memset@@LIBC_N
515:   FUNC WEAK DEFAULT 17 __aeabi_memset@LIBC_PRIVATE
516:   IFUNC GLOBAL DEFAULT 17 memmove@@LIBC
517:   FUNC GLOBAL DEFAULT 17 __aeabi_fcmple@@LIBC_PRIVATE
518:   FUNC GLOBAL DEFAULT 17 fflush@@LIBC
519:   FUNC GLOBAL DEFAULT 17 pipe2@@LIBC
520:   FUNC GLOBAL DEFAULT 17 iswgraph_l@@LIBC
521:   OBJECT GLOBAL DEFAULT 19 opterr@@LIBC
522:   FUNC GLOBAL DEFAULT 17 fputc_unlocked@@LIBC_P
523:   IFUNC GLOBAL DEFAULT 17 __strcat_chk@@LIBC
524:   FUNC GLOBAL DEFAULT 17 __aeabi_idiv@@LIBC_PRIVATE
525:   FUNC GLOBAL DEFAULT 17 __srget@@LIBC_PRIVATE
526:   FUNC GLOBAL DEFAULT 17 clock_adjtime@@LIBC_N
527:   FUNC GLOBAL DEFAULT 17 getppid@@LIBC
528:   FUNC GLOBAL DEFAULT 17 posix_spawn_file_actions_@@LIBC_P
529:   FUNC GLOBAL DEFAULT 17 listxattr@@LIBC
530:   FUNC WEAK DEFAULT 17 __system_property_add@@LIBC_PLATFORM
531:   FUNC GLOBAL DEFAULT 17 iswblank@@LIBC
532:   FUNC GLOBAL DEFAULT 17 mktemp@@LIBC
533:   FUNC GLOBAL DEFAULT 17 pthread_equal@@LIBC
534:   FUNC GLOBAL DEFAULT 17 isalpha@@LIBC
535:   FUNC GLOBAL DEFAULT 17 sigpending64@@LIBC_P
536:   FUNC GLOBAL DEFAULT 17 semctl@@LIBC_O
537:   FUNC GLOBAL DEFAULT 17 shmdt@@LIBC_O
538:   FUNC GLOBAL DEFAULT 17 __sflags@@LIBC_PRIVATE
539:   FUNC GLOBAL DEFAULT 17 brk@@LIBC
540:   FUNC GLOBAL DEFAULT 17 wcstoul@@LIBC
541:   FUNC GLOBAL DEFAULT 17 getc@@LIBC
542:   FUNC GLOBAL DEFAULT 17 pthread_barrierattr_setps@@LIBC_N
543:   FUNC GLOBAL DEFAULT 17 __gnu_Unwind_ForcedUnwind@@LIBC_PRIVATE
544:   FUNC GLOBAL DEFAULT 17 getuid@@LIBC
545:   FUNC GLOBAL DEFAULT 17 endprotoent@@LIBC_P
546:   FUNC WEAK DEFAULT 17 __pthread_cleanup_push@@LIBC
547:   FUNC GLOBAL DEFAULT 17 __divsi3@@LIBC_PRIVATE
548:   FUNC GLOBAL DEFAULT 17 __aeabi_lmul@@LIBC_PRIVATE
549:   FUNC GLOBAL DEFAULT 17 isxdigit@@LIBC
550:   FUNC GLOBAL DEFAULT 17 sigismember64@@LIBC_P
551:   FUNC GLOBAL DEFAULT 17 _resolv_delete_cache_for_@@LIBC
552:   FUNC GLOBAL DEFAULT 17 vasprintf@@LIBC
553:   FUNC GLOBAL DEFAULT 17 closelog@@LIBC
554:   FUNC GLOBAL DEFAULT 17 iswlower@@LIBC
555:   FUNC GLOBAL DEFAULT 17 initgroups@@LIBC
556:   FUNC GLOBAL DEFAULT 17 creat64@@LIBC
557:   FUNC GLOBAL DEFAULT 17 statvfs64@@LIBC
558:   FUNC GLOBAL DEFAULT 17 wcsnlen@@LIBC
559:   FUNC GLOBAL DEFAULT 17 glob@@LIBC_P
560:   FUNC GLOBAL DEFAULT 17 asctime@@LIBC
561:   FUNC GLOBAL DEFAULT 17 getdents@@LIBC_PRIVATE
562:   FUNC GLOBAL DEFAULT 17 __gnu_Unwind_Restore_WMMX@@LIBC_PRIVATE
563:   FUNC GLOBAL DEFAULT 17 __gnu_unwind_execute@@LIBC_PRIVATE
564:   FUNC GLOBAL DEFAULT 17 __readlink_chk@@LIBC
565:   FUNC GLOBAL DEFAULT 17 getdomainname@@LIBC_O
566:   FUNC GLOBAL DEFAULT 17 strtol_l@@LIBC_O
567:   FUNC GLOBAL DEFAULT 17 __gnu_Unwind_Restore_WMMX@@LIBC_PRIVATE
568:   FUNC GLOBAL DEFAULT 17 __errno@@LIBC
569:   FUNC GLOBAL DEFAULT 17 android_gethostbyaddrforn@@LIBC_PRIVATE
570:   FUNC GLOBAL DEFAULT 17 __stpncpy_chk2@@LIBC
571:   FUNC GLOBAL DEFAULT 17 __aeabi_fcmplt@@LIBC_PRIVATE
572:   FUNC GLOBAL DEFAULT 17 vdprintf@@LIBC
573:   FUNC GLOBAL DEFAULT 17 chroot@@LIBC
574:   FUNC GLOBAL DEFAULT 17 get_nprocs@@LIBC
575:   FUNC GLOBAL DEFAULT 17 __aeabi_ldivmod@@LIBC_PRIVATE
576:   FUNC GLOBAL DEFAULT 17 sem_init@@LIBC
577:   FUNC GLOBAL DEFAULT 17 endservent@@LIBC
578:   FUNC GLOBAL DEFAULT 17 chdir@@LIBC
579:   FUNC GLOBAL DEFAULT 17 fopen64@@LIBC_N
580:   FUNC GLOBAL DEFAULT 17 bind@@LIBC
581:   FUNC GLOBAL DEFAULT 17 posix_spawn_file_actions_@@LIBC_P
582:   FUNC GLOBAL DEFAULT 17 sched_setscheduler@@LIBC
583:   FUNC GLOBAL DEFAULT 17 __recvfrom_chk@@LIBC
584:   FUNC GLOBAL DEFAULT 17 setrlimit@@LIBC
585:   OBJECT GLOBAL DEFAULT 19 stderr@@LIBC
586:   FUNC GLOBAL DEFAULT 17 islower_l@@LIBC
587:   FUNC GLOBAL DEFAULT 17 uname@@LIBC
588:   FUNC GLOBAL DEFAULT 17 __FD_SET_chk@@LIBC
589:   FUNC GLOBAL DEFAULT 17 getutent@@LIBC
590:   FUNC GLOBAL DEFAULT 17 sendmmsg@@LIBC
591:   FUNC GLOBAL DEFAULT 17 nftw64@@LIBC
592:   FUNC GLOBAL DEFAULT 17 scandirat@@LIBC_N
593:   FUNC WEAK DEFAULT 17 pthread_join@@LIBC
594:   FUNC GLOBAL DEFAULT 17 _Unwind_GetRegionStart@@LIBC_PRIVATE
595:   FUNC GLOBAL DEFAULT 17 __popcountsi2@@LIBC_PRIVATE
596:   FUNC GLOBAL DEFAULT 17 fts_read@@LIBC
597:   FUNC GLOBAL DEFAULT 17 rename@@LIBC
598:   FUNC GLOBAL DEFAULT 17 strerror_l@@LIBC
599:   FUNC GLOBAL DEFAULT 17 iswupper_l@@LIBC
600:   FUNC GLOBAL DEFAULT 17 isblank_l@@LIBC
601:   FUNC GLOBAL DEFAULT 17 wcsncat@@LIBC
602:   FUNC GLOBAL DEFAULT 17 __srefill@@LIBC_PRIVATE
603:   FUNC GLOBAL DEFAULT 17 __gedf2@@LIBC_PRIVATE
604:   FUNC GLOBAL DEFAULT 17 mbsrtowcs@@LIBC
605:   FUNC GLOBAL DEFAULT 17 __ppoll_chk@@LIBC
606:   FUNC GLOBAL DEFAULT 17 vsscanf@@LIBC
607:   FUNC GLOBAL DEFAULT 17 vsprintf@@LIBC
608:   FUNC GLOBAL DEFAULT 17 wprintf@@LIBC
609:   OBJECT GLOBAL DEFAULT 26 __stack_chk_guard@@LIBC
610:   FUNC GLOBAL DEFAULT 17 reallocarray@@LIBC_Q
611:   FUNC GLOBAL DEFAULT 17 __unordsf2@@LIBC_PRIVATE
612:   FUNC GLOBAL DEFAULT 17 iscntrl@@LIBC
613:   FUNC GLOBAL DEFAULT 17 strxfrm_l@@LIBC
614:   FUNC GLOBAL DEFAULT 17 __ns_initparse@@LIBC
615:   FUNC GLOBAL DEFAULT 17 gets@@LIBC
616:   FUNC GLOBAL DEFAULT 17 freopen@@LIBC
617:   FUNC GLOBAL DEFAULT 17 pwritev64@@LIBC_N
618:   FUNC GLOBAL DEFAULT 17 getrandom@@LIBC_P
619:   FUNC GLOBAL DEFAULT 17 lockf@@LIBC_N
620:   FUNC GLOBAL DEFAULT 17 pthread_condattr_setclock@@LIBC
621:   FUNC GLOBAL DEFAULT 17 strerror_r@@LIBC
622:   FUNC GLOBAL DEFAULT 17 __strncat_chk@@LIBC
623:   FUNC GLOBAL DEFAULT 17 restore_core_regs@@LIBC_PRIVATE
624:   FUNC GLOBAL DEFAULT 17 _exit@@LIBC
625:   FUNC GLOBAL DEFAULT 17 endgrent@@LIBC_O
626:   FUNC WEAK DEFAULT 17 pthread_gettid_np@@LIBC
627:   FUNC GLOBAL DEFAULT 17 wcstold_l@@LIBC
628:   FUNC GLOBAL DEFAULT 17 setreuid@@LIBC
629:   FUNC GLOBAL DEFAULT 17 putchar@@LIBC
630:   FUNC GLOBAL DEFAULT 17 __set_errno@@LIBC_PRIVATE
631:   FUNC GLOBAL DEFAULT 17 pthread_condattr_destroy@@LIBC
632:   FUNC GLOBAL DEFAULT 17 tkill@@LIBC_PRIVATE
633:   FUNC GLOBAL DEFAULT 17 __cxa_finalize@@LIBC
634:   FUNC GLOBAL DEFAULT 17 toupper@@LIBC
635:   FUNC GLOBAL DEFAULT 17 getentropy@@LIBC_P
636:   FUNC GLOBAL DEFAULT 17 res_init@@LIBC
637:   FUNC GLOBAL DEFAULT 17 strftime_l@@LIBC
638:   FUNC WEAK DEFAULT 17 __pthread_cleanup_pop@@LIBC
639:   FUNC GLOBAL DEFAULT 17 lseek@@LIBC
640:   FUNC GLOBAL DEFAULT 17 fdopen@@LIBC
641:   FUNC GLOBAL DEFAULT 17 fputs_unlocked@@LIBC_P
642:   FUNC GLOBAL DEFAULT 17 sched_yield@@LIBC
643:   FUNC GLOBAL DEFAULT 17 __eqsf2@@LIBC_PRIVATE
644:   FUNC GLOBAL DEFAULT 17 getpgrp@@LIBC
645:   FUNC GLOBAL DEFAULT 17 tcdrain@@LIBC
646:   FUNC GLOBAL DEFAULT 17 __gnu_Unwind_Save_VFP@@LIBC_PRIVATE
647:   FUNC GLOBAL DEFAULT 17 __aeabi_f2iz@@LIBC_PRIVATE
648:   FUNC GLOBAL DEFAULT 17 personality@@LIBC
649:   FUNC GLOBAL DEFAULT 17 creat@@LIBC
650:   FUNC GLOBAL DEFAULT 17 chown@@LIBC
651:   FUNC GLOBAL DEFAULT 17 android_get_device_api_le@@LIBC_Q
652:   FUNC GLOBAL DEFAULT 17 setbuf@@LIBC
653:   FUNC GLOBAL DEFAULT 17 pthread_mutexattr_setpsha@@LIBC
654:   FUNC GLOBAL DEFAULT 17 __epoll_pwait@@LIBC
655:   FUNC GLOBAL DEFAULT 17 localtime@@LIBC
656:   FUNC GLOBAL DEFAULT 17 sysconf@@LIBC
657:   FUNC GLOBAL DEFAULT 17 ftw64@@LIBC
658:   OBJECT GLOBAL DEFAULT 19 __isthreaded@@LIBC
659:   FUNC GLOBAL DEFAULT 17 __lshrdi3@@LIBC_PRIVATE
660:   FUNC GLOBAL DEFAULT 17 rewinddir@@LIBC
661:   FUNC GLOBAL DEFAULT 17 iswdigit@@LIBC
662:   FUNC GLOBAL DEFAULT 17 __umask_chk@@LIBC
663:   FUNC GLOBAL DEFAULT 17 strptime@@LIBC
664:   FUNC GLOBAL DEFAULT 17 strsep@@LIBC
665:   FUNC GLOBAL DEFAULT 17 posix_spawnattr_getschedp@@LIBC_P
666:   FUNC WEAK DEFAULT 17 gai_strerror@@LIBC
667:   FUNC GLOBAL DEFAULT 17 SHA1Init@@LIBC_PRIVATE
668:   FUNC GLOBAL DEFAULT 17 sigaddset@@LIBC
669:   FUNC GLOBAL DEFAULT 17 hdestroy@@LIBC_P
670:   FUNC GLOBAL DEFAULT 17 _Unwind_VRS_Pop@@LIBC_PRIVATE
671:   FUNC GLOBAL DEFAULT 17 valloc@@LIBC
672:   FUNC GLOBAL DEFAULT 17 strncmp@@LIBC
673:   FUNC WEAK DEFAULT 17 android_fdsan_close_with_@@LIBC_Q
674:   FUNC GLOBAL DEFAULT 17 android_fdsan_get_tag_typ@@LIBC_Q
675:   FUNC GLOBAL DEFAULT 17 setegid@@LIBC
676:   FUNC GLOBAL DEFAULT 17 sigdelset64@@LIBC_P
677:   FUNC GLOBAL DEFAULT 17 isxdigit_l@@LIBC
678:   FUNC GLOBAL DEFAULT 17 sem_post@@LIBC
679:   FUNC GLOBAL DEFAULT 17 symlinkat@@LIBC
680:   FUNC GLOBAL DEFAULT 17 ferror@@LIBC
681:   FUNC GLOBAL DEFAULT 17 setuid@@LIBC
682:   FUNC GLOBAL DEFAULT 17 pthread_rwlockattr_setkin@@LIBC
683:   FUNC GLOBAL DEFAULT 17 clock_getres@@LIBC
684:   FUNC GLOBAL DEFAULT 17 faccessat@@LIBC
685:   FUNC GLOBAL DEFAULT 17 fstatat@@LIBC
686:   FUNC GLOBAL DEFAULT 17 execve@@LIBC
687:   FUNC GLOBAL DEFAULT 17 link@@LIBC
688:   FUNC GLOBAL DEFAULT 17 pthread_cond_signal@@LIBC
689:   FUNC GLOBAL DEFAULT 17 pthread_rwlockattr_setpsh@@LIBC
690:   FUNC WEAK DEFAULT 17 android_set_abort_message@@LIBC
691:   FUNC GLOBAL DEFAULT 17 isprint@@LIBC
692:   FUNC GLOBAL DEFAULT 17 freeifaddrs@@LIBC_N
693:   FUNC GLOBAL DEFAULT 17 sem_wait@@LIBC
694:   FUNC GLOBAL DEFAULT 17 __snprintf_chk@@LIBC
695:   FUNC GLOBAL DEFAULT 17 tdelete@@LIBC
696:   FUNC GLOBAL DEFAULT 17 pread@@LIBC
697:   FUNC GLOBAL DEFAULT 17 recvmmsg@@LIBC
698:   FUNC GLOBAL DEFAULT 17 android_fdsan_get_fd_tabl@@LIBC_PLATFORM
699:   FUNC GLOBAL DEFAULT 17 statvfs@@LIBC
700:   FUNC GLOBAL DEFAULT 17 wcstoll_l@@LIBC
701:   FUNC GLOBAL DEFAULT 17 __res_nquery@@LIBC
702:   FUNC GLOBAL DEFAULT 17 pthread_rwlockattr_destro@@LIBC
703:   FUNC GLOBAL DEFAULT 17 mkstemps@@LIBC
704:   FUNC GLOBAL DEFAULT 17 sem_destroy@@LIBC
705:   FUNC GLOBAL DEFAULT 17 posix_spawnattr_getsigmas@@LIBC_P
706:   FUNC GLOBAL DEFAULT 17 setutent@@LIBC
707:   FUNC GLOBAL DEFAULT 17 syscall@@LIBC
708:   FUNC GLOBAL DEFAULT 17 __aeabi_cdrcmple@@LIBC_PRIVATE
709:   FUNC GLOBAL DEFAULT 17 sigaction64@@LIBC_P
710:   FUNC GLOBAL DEFAULT 17 strtoul@@LIBC
711:   FUNC GLOBAL DEFAULT 17 lutimes@@LIBC_O
712:   FUNC GLOBAL DEFAULT 17 __swbuf@@LIBC_PRIVATE
713:   FUNC GLOBAL DEFAULT 17 __fsetlocking@@LIBC
714:   FUNC GLOBAL DEFAULT 17 __gnu_Unwind_Backtrace@@LIBC_PRIVATE
715:   FUNC GLOBAL DEFAULT 17 get_phys_pages@@LIBC
716:   FUNC GLOBAL DEFAULT 17 epoll_pwait64@@LIBC_P
717:   FUNC GLOBAL DEFAULT 17 __gnu_basename@@LIBC
718:   IFUNC GLOBAL DEFAULT 17 memcpy@@LIBC
719:   FUNC GLOBAL DEFAULT 17 __gtdf2@@LIBC_PRIVATE
720:   FUNC GLOBAL DEFAULT 17 getlogin@@LIBC
721:   FUNC GLOBAL DEFAULT 17 fsync@@LIBC
722:   FUNC GLOBAL DEFAULT 17 posix_spawn_file_actions_@@LIBC_P
723:   OBJECT GLOBAL DEFAULT 26 optreset@@LIBC
724:   FUNC GLOBAL DEFAULT 17 labs@@LIBC
725:   FUNC GLOBAL DEFAULT 17 getprogname@@LIBC
726:   FUNC GLOBAL DEFAULT 17 dn_expand@@LIBC
727:   FUNC WEAK DEFAULT 17 pthread_detach@@LIBC
728:   FUNC GLOBAL DEFAULT 17 strnlen@@LIBC
729:   FUNC GLOBAL DEFAULT 17 strtouq@@LIBC
730:   FUNC GLOBAL DEFAULT 17 tsearch@@LIBC
731:   FUNC GLOBAL DEFAULT 17 __swrite@@LIBC_PRIVATE
732:   FUNC GLOBAL DEFAULT 17 get_avphys_pages@@LIBC
733:   FUNC GLOBAL DEFAULT 17 execvp@@LIBC
734:   FUNC GLOBAL DEFAULT 17 strptime_l@@LIBC_P
735:   FUNC GLOBAL DEFAULT 17 __aeabi_dcmple@@LIBC_PRIVATE
736:   FUNC GLOBAL DEFAULT 17 mrand48@@LIBC
737:   FUNC GLOBAL DEFAULT 17 abs@@LIBC
738:   FUNC GLOBAL DEFAULT 17 mlock@@LIBC
739:   FUNC GLOBAL DEFAULT 17 ctime@@LIBC
740:   FUNC GLOBAL DEFAULT 17 _Unwind_GetTextRelBase@@LIBC_PRIVATE
741:   FUNC GLOBAL DEFAULT 17 __floatdidf@@LIBC_PRIVATE
742:   FUNC GLOBAL DEFAULT 17 execl@@LIBC
743:   FUNC GLOBAL DEFAULT 17 statfs@@LIBC
744:   OBJECT GLOBAL DEFAULT 19 _toupper_tab_@@LIBC
745:   FUNC GLOBAL DEFAULT 17 tmpnam@@LIBC
746:   FUNC GLOBAL DEFAULT 17 __sclose@@LIBC_PRIVATE
747:   FUNC GLOBAL DEFAULT 17 select@@LIBC
748:   FUNC GLOBAL DEFAULT 17 iswxdigit@@LIBC
749:   FUNC GLOBAL DEFAULT 17 __ns_sprintrr@@LIBC
750:   FUNC GLOBAL DEFAULT 17 fgetxattr@@LIBC
751:   FUNC GLOBAL DEFAULT 17 timerfd_settime@@LIBC
752:   FUNC GLOBAL DEFAULT 17 kill@@LIBC
753:   FUNC GLOBAL DEFAULT 17 __poll_chk@@LIBC
754:   FUNC GLOBAL DEFAULT 17 __p_cdnname@@LIBC
755:   FUNC GLOBAL DEFAULT 17 __exit@@LIBC
756:   FUNC GLOBAL DEFAULT 17 unlockpt@@LIBC
757:   FUNC GLOBAL DEFAULT 17 _fwalk@@LIBC_PRIVATE
758:   FUNC GLOBAL DEFAULT 17 __gnu_Unwind_Restore_VFP@@LIBC_PRIVATE
759:   FUNC GLOBAL DEFAULT 17 writev@@LIBC
760:   FUNC GLOBAL DEFAULT 17 strncat@@LIBC
761:   OBJECT GLOBAL DEFAULT 19 optopt@@LIBC
762:   FUNC GLOBAL DEFAULT 17 qsort@@LIBC
763:   FUNC GLOBAL DEFAULT 17 __sym_ntop@@LIBC
764:   FUNC GLOBAL DEFAULT 17 __set_tid_address@@LIBC
765:   OBJECT GLOBAL DEFAULT 26 error_print_progname@@LIBC
766:   FUNC GLOBAL DEFAULT 17 posix_fadvise64@@LIBC
767:   FUNC GLOBAL DEFAULT 17 stat64@@LIBC
768:   FUNC GLOBAL DEFAULT 17 wcstoull_l@@LIBC
769:   FUNC GLOBAL DEFAULT 17 wait3@@LIBC_PRIVATE
770:   FUNC GLOBAL DEFAULT 17 chmod@@LIBC
771:   FUNC GLOBAL DEFAULT 17 execv@@LIBC
772:   FUNC GLOBAL DEFAULT 17 isnormal@@LIBC
773:   FUNC GLOBAL DEFAULT 17 getgrouplist@@LIBC
774:   FUNC GLOBAL DEFAULT 17 strtoimax@@LIBC
775:   FUNC GLOBAL DEFAULT 17 wait4@@LIBC
776:   FUNC GLOBAL DEFAULT 17 __p_class@@LIBC
777:   FUNC GLOBAL DEFAULT 17 res_query@@LIBC
778:   FUNC GLOBAL DEFAULT 17 lldiv@@LIBC
779:   FUNC GLOBAL DEFAULT 17 accept@@LIBC
780:   FUNC GLOBAL DEFAULT 17 isalnum_l@@LIBC
781:   FUNC GLOBAL DEFAULT 17 __getpriority@@LIBC
782:   FUNC GLOBAL DEFAULT 17 tdestroy@@LIBC
783:   FUNC GLOBAL DEFAULT 17 __ns_put16@@LIBC
784:   FUNC GLOBAL DEFAULT 17 __res_isourserver@@LIBC
785:   FUNC GLOBAL DEFAULT 17 __sym_ntos@@LIBC
786:   FUNC GLOBAL DEFAULT 17 vfwprintf@@LIBC
787:   FUNC GLOBAL DEFAULT 17 __memrchr_chk@@LIBC
788:   FUNC GLOBAL DEFAULT 17 pthread_mutex_unlock@@LIBC
789:   FUNC GLOBAL DEFAULT 17 ioctl@@LIBC
790:   FUNC GLOBAL DEFAULT 17 fileno@@LIBC
791:   FUNC GLOBAL DEFAULT 17 btowc@@LIBC
792:   FUNC GLOBAL DEFAULT 17 __res_queriesmatch@@LIBC
793:   FUNC GLOBAL DEFAULT 17 malloc_backtrace@@LIBC_Q
794:   FUNC GLOBAL DEFAULT 17 __aeabi_dcmplt@@LIBC_PRIVATE
795:   FUNC GLOBAL DEFAULT 17 wcstoumax@@LIBC
796:   FUNC GLOBAL DEFAULT 17 imaxabs@@LIBC
797:   FUNC WEAK DEFAULT 17 pthread_attr_getguardsize@@LIBC
798:   FUNC GLOBAL DEFAULT 17 __atomic_cmpxchg@@LIBC
799:   FUNC GLOBAL DEFAULT 17 isspace@@LIBC
800:   FUNC GLOBAL DEFAULT 17 sem_close@@LIBC
801:   FUNC GLOBAL DEFAULT 17 towctrans_l@@LIBC_O
802:   FUNC GLOBAL DEFAULT 17 __sym_ston@@LIBC
803:   OBJECT GLOBAL DEFAULT 19 optind@@LIBC
804:   FUNC GLOBAL DEFAULT 17 timelocal64@@LIBC
805:   FUNC GLOBAL DEFAULT 17 lchown@@LIBC
806:   FUNC GLOBAL DEFAULT 17 __ns_skiprr@@LIBC
807:   FUNC GLOBAL DEFAULT 17 __fcntl64@@LIBC
808:   FUNC GLOBAL DEFAULT 17 __udivdi3@@LIBC_PRIVATE
809:   FUNC GLOBAL DEFAULT 17 __libc_current_sigrtmax@@LIBC
810:   FUNC GLOBAL DEFAULT 17 pthread_barrierattr_init@@LIBC_N
811:   FUNC GLOBAL DEFAULT 17 isfinite@@LIBC
812:   FUNC GLOBAL DEFAULT 17 timer_gettime@@LIBC
813:   FUNC GLOBAL DEFAULT 17 iswxdigit_l@@LIBC
814:   FUNC GLOBAL DEFAULT 17 ftell@@LIBC
815:   FUNC GLOBAL DEFAULT 17 realloc@@LIBC
816:   FUNC GLOBAL DEFAULT 17 sigaddset64@@LIBC_P
817:   FUNC GLOBAL DEFAULT 17 clock_gettime@@LIBC
818:   FUNC GLOBAL DEFAULT 17 getprotobynumber@@LIBC
819:   FUNC GLOBAL DEFAULT 17 vfwscanf@@LIBC
820:   FUNC GLOBAL DEFAULT 17 preadv64@@LIBC_N
821:   FUNC GLOBAL DEFAULT 17 __ashrdi3@@LIBC_PRIVATE
822:   FUNC GLOBAL DEFAULT 17 readlinkat@@LIBC
823:   FUNC GLOBAL DEFAULT 17 pthread_rwlock_timedwrloc@@LIBC_P
824:   FUNC GLOBAL DEFAULT 17 posix_spawnattr_getsigmas@@LIBC_P
825:   FUNC GLOBAL DEFAULT 17 waitid@@LIBC
826:   FUNC GLOBAL DEFAULT 17 wcsftime@@LIBC
827:   FUNC GLOBAL DEFAULT 17 shutdown@@LIBC
828:   FUNC GLOBAL DEFAULT 17 malloc_iterate@@LIBC_Q
829:   FUNC GLOBAL DEFAULT 17 sigprocmask@@LIBC
830:   FUNC GLOBAL DEFAULT 17 tfind@@LIBC
831:   FUNC GLOBAL DEFAULT 17 fgetc_unlocked@@LIBC_P
832:   FUNC GLOBAL DEFAULT 17 __getcwd@@LIBC
833:   FUNC GLOBAL DEFAULT 17 mknodat@@LIBC
834:   FUNC GLOBAL DEFAULT 17 msgctl@@LIBC_O
835:   FUNC GLOBAL DEFAULT 17 mbtowc@@LIBC
836:   FUNC GLOBAL DEFAULT 17 ungetc@@LIBC
837:   FUNC GLOBAL DEFAULT 17 __cmpsf2@@LIBC_PRIVATE
838:   FUNC GLOBAL DEFAULT 17 __extendsfdf2@@LIBC_PRIVATE
839:   FUNC GLOBAL DEFAULT 17 __fixunsdfsi@@LIBC_PRIVATE
840:   FUNC GLOBAL DEFAULT 17 __swsetup@@LIBC_PRIVATE
841:   FUNC GLOBAL DEFAULT 17 scanf@@LIBC
842:   FUNC GLOBAL DEFAULT 17 pthread_spin_lock@@LIBC_N
843:   FUNC GLOBAL DEFAULT 17 pthread_mutexattr_destroy@@LIBC
844:   FUNC GLOBAL DEFAULT 17 send@@LIBC
845:   FUNC GLOBAL DEFAULT 17 getgid@@LIBC
846:   FUNC GLOBAL DEFAULT 17 futimesat@@LIBC_O
847:   FUNC GLOBAL DEFAULT 17 wmemcpy@@LIBC
848:   FUNC GLOBAL DEFAULT 17 gmtime_r@@LIBC
849:   FUNC GLOBAL DEFAULT 17 __aeabi_fmul@@LIBC_PRIVATE
850:   FUNC GLOBAL DEFAULT 17 iswpunct@@LIBC
851:   FUNC GLOBAL DEFAULT 17 fstatat64@@LIBC
852:   FUNC GLOBAL DEFAULT 17 munlock@@LIBC
853:   FUNC GLOBAL DEFAULT 17 __sched_cpualloc@@LIBC
854:   FUNC GLOBAL DEFAULT 17 dlmalloc_inspect_all@@LIBC_PRIVATE
855:   FUNC GLOBAL DEFAULT 17 _Unwind_VRS_Set@@LIBC_PRIVATE
856:   FUNC GLOBAL DEFAULT 17 __floatsidf@@LIBC_PRIVATE
857:   FUNC GLOBAL DEFAULT 17 grantpt@@LIBC
858:   FUNC GLOBAL DEFAULT 17 pthread_self@@LIBC
859:   FUNC WEAK DEFAULT 17 android_fdsan_exchange_ow@@LIBC_Q
860:   FUNC GLOBAL DEFAULT 17 __timer_gettime@@LIBC
861:   FUNC GLOBAL DEFAULT 17 vsyslog@@LIBC
862:   FUNC GLOBAL DEFAULT 17 SHA1Transform@@LIBC_PRIVATE
863:   FUNC GLOBAL DEFAULT 17 mallinfo@@LIBC
864:   FUNC GLOBAL DEFAULT 17 newlocale@@LIBC
865:   FUNC GLOBAL DEFAULT 17 psignal@@LIBC
866:   FUNC GLOBAL DEFAULT 17 clearerr@@LIBC
867:   FUNC WEAK DEFAULT 17 __aeabi_memclr4@@LIBC_N
868:   FUNC WEAK DEFAULT 17 __aeabi_memclr4@LIBC_PRIVATE
869:   FUNC GLOBAL DEFAULT 17 fsetxattr@@LIBC
870:   FUNC WEAK DEFAULT 17 __system_property_find@@LIBC
871:   FUNC GLOBAL DEFAULT 17 wcscpy@@LIBC
872:   FUNC GLOBAL DEFAULT 17 vprintf@@LIBC
873:   FUNC WEAK DEFAULT 17 _longjmp@@LIBC
874:   FUNC GLOBAL DEFAULT 17 __fbufsize@@LIBC
875:   FUNC WEAK DEFAULT 17 __aeabi_memmove4@@LIBC_N
876:   FUNC WEAK DEFAULT 17 __aeabi_memmove4@LIBC_PRIVATE
877:   FUNC GLOBAL DEFAULT 17 wcsncasecmp@@LIBC
878:   FUNC GLOBAL DEFAULT 17 res_search@@LIBC
879:   FUNC GLOBAL DEFAULT 17 fremovexattr@@LIBC
880:   FUNC GLOBAL DEFAULT 17 rmdir@@LIBC
881:   FUNC GLOBAL DEFAULT 17 wcsdup@@LIBC
882:   FUNC GLOBAL DEFAULT 17 mbstowcs@@LIBC
883:   FUNC WEAK DEFAULT 17 __aeabi_memclr8@@LIBC_N
884:   FUNC WEAK DEFAULT 17 __aeabi_memclr8@LIBC_PRIVATE
885:   FUNC GLOBAL DEFAULT 17 __gnu_ldivmod_helper@@LIBC_PRIVATE
886:   FUNC GLOBAL DEFAULT 17 __muldf3@@LIBC_PRIVATE
887:   FUNC GLOBAL DEFAULT 17 tolower_l@@LIBC
888:   FUNC GLOBAL DEFAULT 17 fallocate64@@LIBC
889:   FUNC GLOBAL DEFAULT 17 gethostbyaddr_r@@LIBC
890:   FUNC GLOBAL DEFAULT 17 pthread_sigqueue@@LIBC_Q
891:   FUNC GLOBAL DEFAULT 17 free@@LIBC
892:   FUNC WEAK DEFAULT 17 _setjmp@@LIBC
893:   FUNC GLOBAL DEFAULT 17 open@@LIBC
894:   FUNC GLOBAL DEFAULT 17 readdir_r@@LIBC
895:   FUNC GLOBAL DEFAULT 17 __pwrite64_chk@@LIBC_N
896:   FUNC GLOBAL DEFAULT 17 munlockall@@LIBC
897:   FUNC WEAK DEFAULT 17 __aeabi_memmove8@@LIBC_N
898:   FUNC WEAK DEFAULT 17 __aeabi_memmove8@LIBC_PRIVATE
899:   FUNC GLOBAL DEFAULT 17 mmap64@@LIBC
900:   FUNC GLOBAL DEFAULT 17 __fpurge@@LIBC
901:   FUNC GLOBAL DEFAULT 17 iswalnum@@LIBC
902:   FUNC GLOBAL DEFAULT 17 settimeofday@@LIBC
903:   FUNC GLOBAL DEFAULT 17 memswap@@LIBC_PRIVATE
904:   FUNC GLOBAL DEFAULT 17 isalpha_l@@LIBC
905:   FUNC GLOBAL DEFAULT 17 towctrans@@LIBC_O
906:   FUNC GLOBAL DEFAULT 17 mount@@LIBC
907:   FUNC GLOBAL DEFAULT 17 get_malloc_leak_info@@LIBC_DEPRECATED
908:   FUNC GLOBAL DEFAULT 17 __lesf2@@LIBC_PRIVATE
909:   FUNC GLOBAL DEFAULT 17 _resolv_flush_cache_for_n@@LIBC
910:   FUNC GLOBAL DEFAULT 17 getrlimit@@LIBC
911:   FUNC GLOBAL DEFAULT 17 wcscasecmp@@LIBC
912:   FUNC GLOBAL DEFAULT 17 __res_dnok@@LIBC
913:   FUNC GLOBAL DEFAULT 17 __aeabi_llsl@@LIBC_PRIVATE
914:   FUNC GLOBAL DEFAULT 17 lstat@@LIBC
915:   FUNC WEAK DEFAULT 17 __system_property_foreach@@LIBC
916:   FUNC GLOBAL DEFAULT 17 warn@@LIBC
917:   FUNC GLOBAL DEFAULT 17 putc_unlocked@@LIBC
918:   FUNC GLOBAL DEFAULT 17 system@@LIBC
919:   FUNC GLOBAL DEFAULT 17 __subsf3@@LIBC_PRIVATE
920:   FUNC GLOBAL DEFAULT 17 sigwaitinfo@@LIBC
921:   FUNC GLOBAL DEFAULT 17 posix_fallocate@@LIBC
922:   FUNC GLOBAL DEFAULT 17 setregid@@LIBC
923:   FUNC GLOBAL DEFAULT 17 pthread_atfork@@LIBC
924:   FUNC GLOBAL DEFAULT 17 android_gethostbynameforn@@LIBC_PRIVATE
925:   FUNC WEAK DEFAULT 17 pthread_attr_init@@LIBC
926:   FUNC GLOBAL DEFAULT 17 cfsetospeed@@LIBC
927:   FUNC GLOBAL DEFAULT 17 __loc_aton@@LIBC
928:   FUNC GLOBAL DEFAULT 17 getsubopt@@LIBC_O
929:   FUNC GLOBAL DEFAULT 17 posix_memalign@@LIBC
930:   FUNC GLOBAL DEFAULT 17 strchr@@LIBC
931:   FUNC GLOBAL DEFAULT 17 __aeabi_llsr@@LIBC_PRIVATE
932:   FUNC GLOBAL DEFAULT 17 wmempcpy@@LIBC
933:   FUNC GLOBAL DEFAULT 17 vwarn@@LIBC
934:   FUNC GLOBAL DEFAULT 17 killpg@@LIBC
935:   FUNC GLOBAL DEFAULT 17 strtof_l@@LIBC_O
936:   FUNC GLOBAL DEFAULT 17 srand@@LIBC
937:   FUNC GLOBAL DEFAULT 17 swapoff@@LIBC
938:   FUNC GLOBAL DEFAULT 17 timerfd_create@@LIBC
939:   FUNC GLOBAL DEFAULT 17 dup2@@LIBC
940:   FUNC GLOBAL DEFAULT 17 if_nameindex@@LIBC_N
941:   FUNC GLOBAL DEFAULT 17 _getlong@@LIBC
942:   FUNC GLOBAL DEFAULT 17 __aeabi_fadd@@LIBC_PRIVATE
943:   FUNC GLOBAL DEFAULT 17 atof@@LIBC
944:   FUNC GLOBAL DEFAULT 17 dup3@@LIBC
945:   FUNC GLOBAL DEFAULT 17 __rt_sigtimedwait@@LIBC
946:   FUNC GLOBAL DEFAULT 17 sigwaitinfo64@@LIBC_P
947:   FUNC GLOBAL DEFAULT 17 setlogmask@@LIBC
948:   FUNC GLOBAL DEFAULT 17 wcsrtombs@@LIBC
949:   FUNC GLOBAL DEFAULT 17 __res_send_setqhook@@LIBC
950:   FUNC GLOBAL DEFAULT 17 __fixunssfsi@@LIBC_PRIVATE
951:   FUNC GLOBAL DEFAULT 17 pthread_setname_np@@LIBC
952:   FUNC GLOBAL DEFAULT 17 arc4random_buf@@LIBC
953:   FUNC GLOBAL DEFAULT 17 readdir@@LIBC
954:   FUNC GLOBAL DEFAULT 17 openat@@LIBC
955:   FUNC GLOBAL DEFAULT 17 sleep@@LIBC
956:   FUNC GLOBAL DEFAULT 17 wcsncpy@@LIBC
957:   FUNC GLOBAL DEFAULT 17 initstate@@LIBC
958:   FUNC GLOBAL DEFAULT 17 fgets_unlocked@@LIBC_P
959:   FUNC GLOBAL DEFAULT 17 __fpclassify@@LIBC
960:   FUNC GLOBAL DEFAULT 17 tcsetpgrp@@LIBC
961:   FUNC GLOBAL DEFAULT 17 iswctype@@LIBC
962:   FUNC GLOBAL DEFAULT 17 atoi@@LIBC
963:   FUNC GLOBAL DEFAULT 17 towlower@@LIBC
964:   FUNC GLOBAL DEFAULT 17 __fpclassifyd@@LIBC
965:   FUNC GLOBAL DEFAULT 17 freelocale@@LIBC
966:   FUNC GLOBAL DEFAULT 17 wcsspn@@LIBC
967:   FUNC GLOBAL DEFAULT 17 pthread_cond_init@@LIBC
968:   FUNC GLOBAL DEFAULT 17 ctime64@@LIBC
969:   FUNC GLOBAL DEFAULT 17 __getpid@@LIBC
970:   FUNC GLOBAL DEFAULT 17 stpncpy@@LIBC
971:   FUNC GLOBAL DEFAULT 17 recvmsg@@LIBC
972:   FUNC GLOBAL DEFAULT 17 __aeabi_ul2d@@LIBC_PRIVATE
973:   FUNC GLOBAL DEFAULT 17 __fpclassifyf@@LIBC
974:   FUNC GLOBAL DEFAULT 17 atol@@LIBC
975:   FUNC GLOBAL DEFAULT 17 inet_nsap_ntoa@@LIBC
976:   FUNC GLOBAL DEFAULT 17 setgid@@LIBC
977:   FUNC GLOBAL DEFAULT 17 __gnu_unwind_frame@@LIBC_PRIVATE
978:   OBJECT GLOBAL DEFAULT 26 __dso_handle@@LIBC_PRIVATE
979:   FUNC GLOBAL DEFAULT 17 socket@@LIBC
980:   FUNC GLOBAL DEFAULT 17 sigset@@LIBC_O
981:   FUNC GLOBAL DEFAULT 17 unlink@@LIBC
982:   FUNC GLOBAL DEFAULT 17 wcstoull@@LIBC
983:   FUNC GLOBAL DEFAULT 17 insque@@LIBC
984:   FUNC GLOBAL DEFAULT 17 __aeabi_ul2f@@LIBC_PRIVATE
985:   FUNC GLOBAL DEFAULT 17 inet_netof@@LIBC
986:   FUNC GLOBAL DEFAULT 17 eventfd_write@@LIBC
987:   FUNC GLOBAL DEFAULT 17 mbrlen@@LIBC
988:   FUNC GLOBAL DEFAULT 17 posix_fadvise@@LIBC
989:   FUNC GLOBAL DEFAULT 17 scandir@@LIBC
990:   FUNC GLOBAL DEFAULT 17 wcstold@@LIBC
991:   OBJECT GLOBAL DEFAULT 21 __p_class_syms@@LIBC
992:   FUNC GLOBAL DEFAULT 17 wctomb@@LIBC
993:   FUNC GLOBAL DEFAULT 17 cacheflush@@LIBC
994:   FUNC GLOBAL DEFAULT 17 bsd_signal@@LIBC_O
995:   FUNC GLOBAL DEFAULT 17 endutent@@LIBC
996:   FUNC GLOBAL DEFAULT 17 lrand48@@LIBC
997:   FUNC GLOBAL DEFAULT 17 process_vm_writev@@LIBC
998:   FUNC GLOBAL DEFAULT 17 ctime64_r@@LIBC
999:   FUNC GLOBAL DEFAULT 17 pthread_barrier_init@@LIBC_N
1000:   FUNC WEAK DEFAULT 17 __aeabi_memcpy4@@LIBC_N
1001:   FUNC WEAK DEFAULT 17 __aeabi_memcpy4@LIBC_PRIVATE
1002:   FUNC WEAK DEFAULT 17 sigsetjmp@@LIBC
1003:   FUNC GLOBAL DEFAULT 17 __assert@@LIBC
1004:   FUNC GLOBAL DEFAULT 17 __openat_2@@LIBC
1005:   FUNC GLOBAL DEFAULT 17 __fpclassifyl@@LIBC
1006:   FUNC GLOBAL DEFAULT 17 if_indextoname@@LIBC
1007:   FUNC GLOBAL DEFAULT 17 __timer_create@@LIBC
1008:   FUNC GLOBAL DEFAULT 17 setresuid@@LIBC
1009:   FUNC GLOBAL DEFAULT 17 strstr@@LIBC
1010:   FUNC GLOBAL DEFAULT 17 sigrelse@@LIBC_O
1011:   FUNC WEAK DEFAULT 17 __system_property_area_in@@LIBC_PLATFORM
1012:   FUNC GLOBAL DEFAULT 17 ftok@@LIBC
1013:   FUNC GLOBAL DEFAULT 17 __ltsf2@@LIBC_PRIVATE
1014:   FUNC GLOBAL DEFAULT 17 __ptrace@@LIBC
1015:   FUNC GLOBAL DEFAULT 17 symlink@@LIBC
1016:   FUNC GLOBAL DEFAULT 17 cfgetospeed@@LIBC
1017:   FUNC GLOBAL DEFAULT 17 getpeername@@LIBC
1018:   IFUNC GLOBAL DEFAULT 17 stpcpy@@LIBC
1019:   FUNC GLOBAL DEFAULT 17 fwrite_unlocked@@LIBC_P
1020:   FUNC WEAK DEFAULT 17 __aeabi_memcpy8@@LIBC_N
1021:   FUNC WEAK DEFAULT 17 __aeabi_memcpy8@LIBC_PRIVATE
1022:   FUNC GLOBAL DEFAULT 17 __pthread_gettid@@LIBC_PRIVATE
1023:   FUNC GLOBAL DEFAULT 17 malloc_usable_size@@LIBC
1024:   FUNC GLOBAL DEFAULT 17 inet_network@@LIBC
1025:   FUNC GLOBAL DEFAULT 17 posix_spawn_file_actions_@@LIBC_P
1026:   FUNC GLOBAL DEFAULT 17 isgraph@@LIBC
1027:   FUNC WEAK DEFAULT 17 __system_property_read@@LIBC
1028:   FUNC GLOBAL DEFAULT 17 wcstoll@@LIBC
1029:   FUNC GLOBAL DEFAULT 17 get_nprocs_conf@@LIBC
1030:   FUNC GLOBAL DEFAULT 17 pthread_kill@@LIBC
1031:   FUNC GLOBAL DEFAULT 17 sethostent@@LIBC_P
1032:   FUNC GLOBAL DEFAULT 17 __gnu_Unwind_Save_WMMXC@@LIBC_PRIVATE
1033:   FUNC WEAK DEFAULT 17 __system_property_area_se@@LIBC
1034:   FUNC GLOBAL DEFAULT 17 execle@@LIBC
1035:   FUNC GLOBAL DEFAULT 17 android_fdsan_get_owner_t@@LIBC_Q
1036:   FUNC GLOBAL DEFAULT 17 __ctype_get_mb_cur_max@@LIBC
1037:   FUNC GLOBAL DEFAULT 17 pthread_cond_timedwait@@LIBC
1038:   FUNC GLOBAL DEFAULT 17 sigaltstack@@LIBC
1039:   FUNC GLOBAL DEFAULT 17 perror@@LIBC
1040:   FUNC GLOBAL DEFAULT 17 vwprintf@@LIBC
1041:   FUNC GLOBAL DEFAULT 17 __gnu_Unwind_Save_WMMXD@@LIBC_PRIVATE
1042:   FUNC GLOBAL DEFAULT 17 __timer_delete@@LIBC
1043:   FUNC GLOBAL DEFAULT 17 futimes@@LIBC_O
1044:   FUNC GLOBAL DEFAULT 17 iswupper@@LIBC
1045:   FUNC GLOBAL DEFAULT 17 towupper_l@@LIBC
1046:   FUNC GLOBAL DEFAULT 17 ungetwc@@LIBC
1047:   FUNC GLOBAL DEFAULT 17 geteuid@@LIBC
1048:   FUNC GLOBAL DEFAULT 17 getwchar@@LIBC
1049:   FUNC GLOBAL DEFAULT 17 __gnu_Unwind_Restore_VFP_@@LIBC_PRIVATE
1050:   FUNC GLOBAL DEFAULT 17 alphasort@@LIBC
1051:   FUNC GLOBAL DEFAULT 17 __ns_put32@@LIBC
1052:   FUNC GLOBAL DEFAULT 17 getauxval@@LIBC
1053:   FUNC GLOBAL DEFAULT 17 __aeabi_lasr@@LIBC_PRIVATE
1054:   FUNC WEAK DEFAULT 17 android_fdsan_get_error_l@@LIBC_Q
1055:   FUNC GLOBAL DEFAULT 17 gethostbyname2_r@@LIBC
1056:   FUNC GLOBAL DEFAULT 17 __nesf2@@LIBC_PRIVATE
1057:   FUNC GLOBAL DEFAULT 17 sigemptyset64@@LIBC_P
1058:   FUNC GLOBAL DEFAULT 17 msgrcv@@LIBC_O
1059:   FUNC GLOBAL DEFAULT 17 tee@@LIBC
1060:   FUNC GLOBAL DEFAULT 17 __fwritable@@LIBC
1061:   FUNC GLOBAL DEFAULT 17 bzero@@LIBC_PRIVATE
1062:   IFUNC GLOBAL DEFAULT 17 memset@@LIBC
1063:   FUNC GLOBAL DEFAULT 17 __isinf@@LIBC
1064:   FUNC GLOBAL DEFAULT 17 futimens@@LIBC
1065:   FUNC GLOBAL DEFAULT 17 sigpending@@LIBC
1066:   FUNC GLOBAL DEFAULT 17 wcwidth@@LIBC
1067:   FUNC GLOBAL DEFAULT 17 pthread_barrierattr_destr@@LIBC_N
1068:   FUNC GLOBAL DEFAULT 17 __atomic_swap@@LIBC
1069:   FUNC GLOBAL DEFAULT 17 getxattr@@LIBC
1070:   FUNC GLOBAL DEFAULT 17 forkpty@@LIBC
1071:   FUNC GLOBAL DEFAULT 17 tmpfile64@@LIBC_N
1072:   FUNC GLOBAL DEFAULT 17 __adddf3@@LIBC_PRIVATE
1073:   FUNC GLOBAL DEFAULT 17 __aeabi_cfcmpeq@@LIBC_PRIVATE
1074:   FUNC GLOBAL DEFAULT 17 __divdf3@@LIBC_PRIVATE
1075:   FUNC GLOBAL DEFAULT 17 recvfrom@@LIBC
1076:   FUNC GLOBAL DEFAULT 17 fexecve@@LIBC_P
1077:   FUNC GLOBAL DEFAULT 17 lstat64@@LIBC
1078:   FUNC GLOBAL DEFAULT 17 wcsxfrm@@LIBC
1079:   FUNC GLOBAL DEFAULT 17 SHA1Update@@LIBC_PRIVATE
1080:   FUNC GLOBAL DEFAULT 17 __tls_get_addr@@LIBC_Q
1081:   FUNC WEAK DEFAULT 17 pthread_attr_getstacksize@@LIBC
1082:   FUNC GLOBAL DEFAULT 17 isnanf@@LIBC
1083:   FUNC GLOBAL DEFAULT 17 nftw@@LIBC
1084:   FUNC GLOBAL DEFAULT 17 strncasecmp@@LIBC
1085:   FUNC GLOBAL DEFAULT 17 __sprintf_chk@@LIBC
1086:   FUNC GLOBAL DEFAULT 17 _Exit@@LIBC
1087:   FUNC GLOBAL DEFAULT 17 setprogname@@LIBC
1088:   FUNC GLOBAL DEFAULT 17 flock@@LIBC
1089:   FUNC GLOBAL DEFAULT 17 ether_ntoa@@LIBC
1090:   FUNC GLOBAL DEFAULT 17 __floatdisf@@LIBC_PRIVATE
1091:   FUNC GLOBAL DEFAULT 17 getpgid@@LIBC
1092:   FUNC GLOBAL DEFAULT 17 iswpunct_l@@LIBC
1093:   FUNC GLOBAL DEFAULT 17 __p_time@@LIBC
1094:   FUNC GLOBAL DEFAULT 17 hcreate@@LIBC_P
1095:   FUNC GLOBAL DEFAULT 17 adjtimex@@LIBC_N
1096:   FUNC GLOBAL DEFAULT 17 sendfile@@LIBC
1097:   FUNC GLOBAL DEFAULT 17 feof_unlocked@@LIBC
1098:   FUNC GLOBAL DEFAULT 17 fgetpos64@@LIBC_N
1099:   FUNC GLOBAL DEFAULT 17 preadv@@LIBC_N
1100:   FUNC GLOBAL DEFAULT 17 execlp@@LIBC
1101:   OBJECT GLOBAL DEFAULT 19 tzname@@LIBC
1102:   FUNC GLOBAL DEFAULT 17 __sched_cpucount@@LIBC
1103:   FUNC GLOBAL DEFAULT 17 pthread_cond_wait@@LIBC
1104:   FUNC WEAK DEFAULT 17 pthread_setschedparam@@LIBC
1105:   FUNC GLOBAL DEFAULT 17 sched_get_priority_min@@LIBC
1106:   FUNC GLOBAL DEFAULT 17 fgetc@@LIBC
1107:   FUNC GLOBAL DEFAULT 17 pthread_mutexattr_settype@@LIBC
1108:   FUNC GLOBAL DEFAULT 17 ctermid@@LIBC_O
1109:   FUNC GLOBAL DEFAULT 17 fprintf@@LIBC
1110:   FUNC GLOBAL DEFAULT 17 isnanl@@LIBC
1111:   FUNC GLOBAL DEFAULT 17 ftruncate@@LIBC
1112:   FUNC WEAK DEFAULT 17 android_fdsan_create_owne@@LIBC_Q
1113:   FUNC GLOBAL DEFAULT 17 putc@@LIBC
1114:   FUNC GLOBAL DEFAULT 17 wcscasecmp_l@@LIBC
1115:   FUNC GLOBAL DEFAULT 17 putenv@@LIBC
1116:   FUNC GLOBAL DEFAULT 17 sysv_signal@@LIBC_PRIVATE
1117:   FUNC GLOBAL DEFAULT 17 __aeabi_dsub@@LIBC_PRIVATE
1118:   FUNC GLOBAL DEFAULT 17 mkstemp64@@LIBC
1119:   FUNC GLOBAL DEFAULT 17 __ppoll@@LIBC
1120:   FUNC GLOBAL DEFAULT 17 wcstoul_l@@LIBC_P
1121:   FUNC GLOBAL DEFAULT 17 regerror@@LIBC
1122:   FUNC GLOBAL DEFAULT 17 capset@@LIBC
1123:   FUNC GLOBAL DEFAULT 17 pthread_barrier_wait@@LIBC_N
1124:   FUNC WEAK DEFAULT 17 getaddrinfo@@LIBC
1125:   FUNC GLOBAL DEFAULT 17 fputwc@@LIBC
1126:   FUNC GLOBAL DEFAULT 17 timegm@@LIBC
1127:   FUNC GLOBAL DEFAULT 17 read@@LIBC
1128:   FUNC GLOBAL DEFAULT 17 getlogin_r@@LIBC_P
1129:   FUNC GLOBAL DEFAULT 17 mkdtemp@@LIBC
1130:   FUNC GLOBAL DEFAULT 17 __ashldi3@@LIBC_PRIVATE
1131:   FUNC GLOBAL DEFAULT 17 strncpy@@LIBC
1132:   FUNC GLOBAL DEFAULT 17 opendir@@LIBC
1133:   FUNC GLOBAL DEFAULT 17 posix_spawnattr_getsigdef@@LIBC_P
1134:   FUNC GLOBAL DEFAULT 17 hsearch_r@@LIBC_P
1135:   FUNC GLOBAL DEFAULT 17 _Unwind_ForcedUnwind@@LIBC_PRIVATE
1136:   FUNC GLOBAL DEFAULT 17 pthread_mutexattr_init@@LIBC
1137:   FUNC GLOBAL DEFAULT 17 __sendto_chk@@LIBC_O
1138:   FUNC GLOBAL DEFAULT 17 wcscoll_l@@LIBC
1139:   FUNC GLOBAL DEFAULT 17 __restore_core_regs@@LIBC_PRIVATE
1140:   FUNC GLOBAL DEFAULT 17 semget@@LIBC_O
1141:   FUNC GLOBAL DEFAULT 17 __res_nsend@@LIBC
1142:   FUNC GLOBAL DEFAULT 17 _resolv_set_nameservers_f@@LIBC
1143:   FUNC GLOBAL DEFAULT 17 __putlong@@LIBC
1144:   FUNC GLOBAL DEFAULT 17 strntoumax@@LIBC_PRIVATE
1145:   FUNC GLOBAL DEFAULT 17 strndup@@LIBC
1146:   FUNC GLOBAL DEFAULT 17 mblen@@LIBC_O
1147:   FUNC GLOBAL DEFAULT 17 sigqueue@@LIBC
1148:   FUNC GLOBAL DEFAULT 17 __pwrite_chk@@LIBC_N
1149:   FUNC GLOBAL DEFAULT 17 wcspbrk@@LIBC
1150:   FUNC GLOBAL DEFAULT 17 snprintf@@LIBC
1151:   FUNC GLOBAL DEFAULT 17 strerror@@LIBC
1152:   FUNC GLOBAL DEFAULT 17 dirname_r@@LIBC
1153:   FUNC GLOBAL DEFAULT 17 __ns_name_pton@@LIBC
1154:   FUNC GLOBAL DEFAULT 17 telldir@@LIBC
1155:   FUNC GLOBAL DEFAULT 17 dirname@@LIBC
1156:   FUNC GLOBAL DEFAULT 17 __rt_sigaction@@LIBC
1157:   FUNC GLOBAL DEFAULT 17 waitpid@@LIBC
1158:   FUNC GLOBAL DEFAULT 17 __gnu_Unwind_Find_exidx@@LIBC_N
1159:   FUNC GLOBAL DEFAULT 17 __gnu_Unwind_Find_exidx@LIBC_PRIVATE
1160:   FUNC GLOBAL DEFAULT 17 dlmalloc_usable_size@@LIBC_PRIVATE
1161:   FUNC GLOBAL DEFAULT 17 pthread_barrier_destroy@@LIBC_N
1162:   FUNC GLOBAL DEFAULT 17 isatty@@LIBC
1163:   FUNC WEAK DEFAULT 17 __system_property_wait_an@@LIBC_DEPRECATED
1164:   FUNC GLOBAL DEFAULT 17 memrchr@@LIBC
1165:   FUNC GLOBAL DEFAULT 17 hsearch@@LIBC_P
1166:   FUNC GLOBAL DEFAULT 17 getenv@@LIBC
1167:   FUNC WEAK DEFAULT 17 longjmp@@LIBC
1168:   FUNC GLOBAL DEFAULT 17 endmntent@@LIBC
1169:   FUNC GLOBAL DEFAULT 17 fgets@@LIBC
1170:   FUNC GLOBAL DEFAULT 17 sem_getvalue@@LIBC
1171:   FUNC GLOBAL DEFAULT 17 posix_spawnattr_getsigdef@@LIBC_P
1172:   FUNC GLOBAL DEFAULT 17 prlimit64@@LIBC
1173:   OBJECT GLOBAL DEFAULT 19 stdin@@LIBC
1174:   FUNC WEAK DEFAULT 17 fork@@LIBC
1175:   FUNC GLOBAL DEFAULT 17 strtold@@LIBC
1176:   FUNC GLOBAL DEFAULT 17 prctl@@LIBC
1177:   FUNC GLOBAL DEFAULT 17 __aeabi_ui2d@@LIBC_PRIVATE
1178:   FUNC GLOBAL DEFAULT 17 semtimedop@@LIBC_O
1179:   FUNC GLOBAL DEFAULT 17 iswdigit_l@@LIBC
1180:   FUNC GLOBAL DEFAULT 17 _Unwind_GetDataRelBase@@LIBC_PRIVATE
1181:   OBJECT GLOBAL DEFAULT 19 __bionic_libcrt_compat_sy@@LIBC_PRIVATE
1182:   FUNC GLOBAL DEFAULT 17 puts@@LIBC
1183:   FUNC GLOBAL DEFAULT 17 getchar_unlocked@@LIBC
1184:   FUNC GLOBAL DEFAULT 17 __freading@@LIBC_P
1185:   FUNC GLOBAL DEFAULT 17 __aeabi_ui2f@@LIBC_PRIVATE
1186:   FUNC GLOBAL DEFAULT 17 isupper_l@@LIBC
1187:   FUNC GLOBAL DEFAULT 17 timerfd_gettime@@LIBC
1188:   FUNC GLOBAL DEFAULT 17 __sread@@LIBC_PRIVATE
1189:   OBJECT GLOBAL DEFAULT 26 __memalign_hook@@LIBC_P
1190:   FUNC GLOBAL DEFAULT 17 getpwuid_r@@LIBC
1191:   FUNC GLOBAL DEFAULT 17 asctime64@@LIBC
1192:   FUNC GLOBAL DEFAULT 17 __gnu_Unwind_Resume_or_Re@@LIBC_PRIVATE
1193:   FUNC GLOBAL DEFAULT 17 setxattr@@LIBC
1194:   FUNC GLOBAL DEFAULT 17 gettid@@LIBC
1195:   FUNC GLOBAL DEFAULT 17 renameat@@LIBC
1196:   FUNC GLOBAL DEFAULT 17 wcsftime_l@@LIBC_P
1197:   FUNC GLOBAL DEFAULT 17 fputws@@LIBC
1198:   FUNC GLOBAL DEFAULT 17 swscanf@@LIBC
1199:   FUNC WEAK DEFAULT 17 vfork@@LIBC
1200:   FUNC GLOBAL DEFAULT 17 posix_spawnattr_getflags@@LIBC_P
1201:   FUNC WEAK DEFAULT 17 __system_property_find_nt@@LIBC
1202:   FUNC GLOBAL DEFAULT 17 wmemset@@LIBC
1203:   FUNC GLOBAL DEFAULT 17 putw@@LIBC
1204:   FUNC GLOBAL DEFAULT 17 __floatsisf@@LIBC_PRIVATE
1205:   FUNC GLOBAL DEFAULT 17 android_net_res_stats_get@@LIBC_PLATFORM
1206:   FUNC GLOBAL DEFAULT 17 _Unwind_GetCFA@@LIBC_PRIVATE
1207:   FUNC GLOBAL DEFAULT 17 access@@LIBC
1208:   FUNC GLOBAL DEFAULT 17 strtoll@@LIBC
1209:   FUNC GLOBAL DEFAULT 17 fsetpos64@@LIBC_N
1210:   FUNC GLOBAL DEFAULT 17 __fstatfs64@@LIBC
1211:   FUNC GLOBAL DEFAULT 17 __ns_get16@@LIBC
1212:   FUNC WEAK DEFAULT 17 siglongjmp@@LIBC
1213:   FUNC GLOBAL DEFAULT 17 __assert2@@LIBC
1214:   FUNC GLOBAL DEFAULT 17 pread64@@LIBC
1215:   FUNC GLOBAL DEFAULT 17 klogctl@@LIBC
1216:   FUNC GLOBAL DEFAULT 17 localtime64@@LIBC
1217:   FUNC GLOBAL DEFAULT 17 mmap@@LIBC
1218:   FUNC GLOBAL DEFAULT 17 __isinff@@LIBC
1219:   FUNC GLOBAL DEFAULT 17 getrusage@@LIBC
1220:   FUNC GLOBAL DEFAULT 17 __ns_sprintrrf@@LIBC
1221:   FUNC GLOBAL DEFAULT 17 __libc_init@@LIBC
1222:   FUNC GLOBAL DEFAULT 17 getsockname@@LIBC
1223:   FUNC GLOBAL DEFAULT 17 rewind@@LIBC
1224:   FUNC WEAK DEFAULT 17 pthread_attr_getinheritsc@@LIBC_P
1225:   FUNC GLOBAL DEFAULT 17 __ns_msg_getflag@@LIBC
1226:   FUNC GLOBAL DEFAULT 17 posix_spawn@@LIBC_P
1227:   FUNC GLOBAL DEFAULT 17 wcsxfrm_l@@LIBC
1228:   FUNC GLOBAL DEFAULT 17 __fp_nquery@@LIBC
1229:   FUNC GLOBAL DEFAULT 17 __res_querydomain@@LIBC
1230:   FUNC GLOBAL DEFAULT 17 wctob@@LIBC
1231:   FUNC GLOBAL DEFAULT 17 posix_spawnattr_setsigmas@@LIBC_P
1232:   FUNC GLOBAL DEFAULT 17 endhostent@@LIBC_P
1233:   FUNC GLOBAL DEFAULT 17 strtok_r@@LIBC
1234:   FUNC GLOBAL DEFAULT 17 __isinfl@@LIBC
1235:   FUNC GLOBAL DEFAULT 17 mempcpy@@LIBC
1236:   FUNC GLOBAL DEFAULT 17 endnetent@@LIBC_P
1237:   FUNC GLOBAL DEFAULT 17 getnetbyaddr@@LIBC
1238:   FUNC GLOBAL DEFAULT 17 fallocate@@LIBC
1239:   FUNC GLOBAL DEFAULT 17 reboot@@LIBC
1240:   FUNC GLOBAL DEFAULT 17 cfmakeraw@@LIBC
1241:   FUNC GLOBAL DEFAULT 17 iswalpha@@LIBC
1242:   FUNC GLOBAL DEFAULT 17 getc_unlocked@@LIBC
1243:   FUNC GLOBAL DEFAULT 17 pthread_mutex_timedlock_m@@LIBC_P
1244:   FUNC GLOBAL DEFAULT 17 strxfrm@@LIBC
1245:   FUNC GLOBAL DEFAULT 17 cfsetspeed@@LIBC
1246:   FUNC GLOBAL DEFAULT 17 strcasestr@@LIBC
1247:   FUNC GLOBAL DEFAULT 17 __ns_name_pack@@LIBC
1248:   FUNC GLOBAL DEFAULT 17 open_wmemstream@@LIBC
1249:   FUNC GLOBAL DEFAULT 17 atexit@@LIBC_PRIVATE
1250:   FUNC GLOBAL DEFAULT 17 __fp_query@@LIBC
1251:   FUNC GLOBAL DEFAULT 17 ___Unwind_ForcedUnwind@@LIBC_PRIVATE
1252:   FUNC GLOBAL DEFAULT 17 ___Unwind_Backtrace@@LIBC_PRIVATE
1253:   FUNC GLOBAL DEFAULT 17 getprotobyname@@LIBC
1254:   FUNC GLOBAL DEFAULT 17 quick_exit@@LIBC
1255:   FUNC GLOBAL DEFAULT 17 getsockopt@@LIBC
1256:   OBJECT GLOBAL DEFAULT 19 __page_size@@LIBC_PRIVATE
1257:   FUNC GLOBAL DEFAULT 17 issetugid@@LIBC_PRIVATE
1258:   OBJECT GLOBAL DEFAULT 26 __malloc_hook@@LIBC_P
1259:   FUNC GLOBAL DEFAULT 17 __aeabi_uidiv@@LIBC_PRIVATE
1260:   FUNC GLOBAL DEFAULT 17 daemon@@LIBC
1261:   FUNC GLOBAL DEFAULT 17 ether_ntoa_r@@LIBC
1262:   FUNC GLOBAL DEFAULT 17 openat64@@LIBC
1263:   OBJECT WEAK DEFAULT 26 __system_property_area__@@LIBC_PLATFORM
1264:   FUNC GLOBAL DEFAULT 17 c32rtomb@@LIBC
1265:   FUNC GLOBAL DEFAULT 17 times@@LIBC
1266:   FUNC GLOBAL DEFAULT 17 time@@LIBC
1267:   FUNC GLOBAL DEFAULT 17 wcslcat@@LIBC
1268:   FUNC GLOBAL DEFAULT 17 setgroups@@LIBC
1269:   FUNC GLOBAL DEFAULT 17 strtotimeval@@LIBC_PRIVATE
1270:   FUNC GLOBAL DEFAULT 17 __gnu_Unwind_Restore_VFP_@@LIBC_PRIVATE
1271:   FUNC GLOBAL DEFAULT 17 __res_hnok@@LIBC
1272:   FUNC GLOBAL DEFAULT 17 __res_randomid@@LIBC_Q
1273:   FUNC GLOBAL DEFAULT 17 getpt@@LIBC
1274:   FUNC GLOBAL DEFAULT 17 umount2@@LIBC
1275:   FUNC GLOBAL DEFAULT 17 wcstombs@@LIBC
1276:   FUNC GLOBAL DEFAULT 17 __isnan@@LIBC
1277:   OBJECT GLOBAL DEFAULT 26 optarg@@LIBC
1278:   FUNC GLOBAL DEFAULT 17 inet_lnaof@@LIBC
1279:   FUNC GLOBAL DEFAULT 17 setenv@@LIBC
1280:   FUNC GLOBAL DEFAULT 17 __aeabi_cdcmpeq@@LIBC_PRIVATE
1281:   FUNC GLOBAL DEFAULT 17 __muldi3@@LIBC_PRIVATE
1282:   FUNC GLOBAL DEFAULT 17 at_quick_exit@@LIBC
1283:   FUNC GLOBAL DEFAULT 17 ___Unwind_Resume_or_Rethr@@LIBC_PRIVATE
1284:   FUNC GLOBAL DEFAULT 17 __strchr_chk@@LIBC
1285:   FUNC GLOBAL DEFAULT 17 inet_aton@@LIBC
1286:   FUNC GLOBAL DEFAULT 17 error_at_line@@LIBC
1287:   FUNC GLOBAL DEFAULT 17 sendto@@LIBC
1288:   FUNC WEAK DEFAULT 17 android_getaddrinfofornet@@LIBC_Q
1289:   FUNC GLOBAL DEFAULT 17 __res_close@@LIBC
1290:   FUNC GLOBAL DEFAULT 17 arc4random@@LIBC
1291:   FUNC GLOBAL DEFAULT 17 fwide@@LIBC
1292:   OBJECT GLOBAL DEFAULT 26 error_one_per_line@@LIBC
1293:   FUNC GLOBAL DEFAULT 17 ttyname@@LIBC
1294:   FUNC GLOBAL DEFAULT 17 setresgid@@LIBC
1295:   FUNC GLOBAL DEFAULT 17 posix_spawnattr_setflags@@LIBC_P
1296:   FUNC GLOBAL DEFAULT 17 epoll_create1@@LIBC
1297:   FUNC GLOBAL DEFAULT 17 iswcntrl@@LIBC
1298:   FUNC GLOBAL DEFAULT 17 strpbrk@@LIBC
1299:   FUNC GLOBAL DEFAULT 17 _Unwind_RaiseException@@LIBC_PRIVATE
1300:   FUNC GLOBAL DEFAULT 17 timespec_get@@LIBC_Q
1301:   FUNC GLOBAL DEFAULT 17 android_gethostbynameforn@@LIBC_PRIVATE
1302:   FUNC GLOBAL DEFAULT 17 __p_query@@LIBC
1303:   FUNC GLOBAL DEFAULT 17 memchr@@LIBC
1304:   FUNC GLOBAL DEFAULT 17 __gnu_uldivmod_helper@@LIBC_PRIVATE
1305:   FUNC GLOBAL DEFAULT 17 android_fdsan_get_tag_val@@LIBC_Q
1306:   FUNC GLOBAL DEFAULT 17 pipe@@LIBC
1307:   FUNC GLOBAL DEFAULT 17 scandir64@@LIBC
1308:   FUNC GLOBAL DEFAULT 17 sighold@@LIBC_O
1309:   FUNC WEAK DEFAULT 17 __aeabi_memclr@@LIBC_N
1310:   FUNC WEAK DEFAULT 17 __aeabi_memclr@LIBC_PRIVATE
1311:   FUNC GLOBAL DEFAULT 17 getifaddrs@@LIBC_N
1312:   FUNC GLOBAL DEFAULT 17 sched_getscheduler@@LIBC
1313:   FUNC GLOBAL DEFAULT 17 __aeabi_d2iz@@LIBC_PRIVATE
1314:   FUNC GLOBAL DEFAULT 17 semop@@LIBC_O
1315:   FUNC GLOBAL DEFAULT 17 malloc_info@@LIBC
1316:   FUNC GLOBAL DEFAULT 17 mallopt@@LIBC_O
1317:   FUNC GLOBAL DEFAULT 17 __aeabi_fcmpeq@@LIBC_PRIVATE
1318:   FUNC GLOBAL DEFAULT 17 __timer_getoverrun@@LIBC
1319:   FUNC GLOBAL DEFAULT 17 wcscspn@@LIBC
1320:   FUNC GLOBAL DEFAULT 17 SHA1Final@@LIBC_PRIVATE
1321:   FUNC GLOBAL DEFAULT 17 aligned_alloc@@LIBC_P
1322:   FUNC GLOBAL DEFAULT 17 calloc@@LIBC
1323:   FUNC GLOBAL DEFAULT 17 error@@LIBC
1324:   FUNC WEAK DEFAULT 17 __system_property_set@@LIBC
1325:   FUNC GLOBAL DEFAULT 17 getresuid@@LIBC
1326:   FUNC GLOBAL DEFAULT 17 pthread_cond_timedwait_re@@LIBC
1327:   FUNC GLOBAL DEFAULT 17 pthread_rwlock_init@@LIBC
1328:   FUNC GLOBAL DEFAULT 17 isgraph_l@@LIBC
1329:   FUNC GLOBAL DEFAULT 17 fpathconf@@LIBC
1330:   FUNC WEAK DEFAULT 17 __system_property_wait@@LIBC_O
1331:   FUNC GLOBAL DEFAULT 17 raise@@LIBC
1332:   FUNC GLOBAL DEFAULT 17 getopt_long@@LIBC
1333:   FUNC GLOBAL DEFAULT 17 ether_aton_r@@LIBC
1334:   FUNC GLOBAL DEFAULT 17 __open_2@@LIBC
1335:   FUNC GLOBAL DEFAULT 17 _tolower@@LIBC
1336:   FUNC GLOBAL DEFAULT 17 getegid@@LIBC
1337:   FUNC GLOBAL DEFAULT 17 c16rtomb@@LIBC
1338:   FUNC GLOBAL DEFAULT 17 fchownat@@LIBC
1339:   FUNC GLOBAL DEFAULT 17 hasmntopt@@LIBC_O
1340:   FUNC GLOBAL DEFAULT 17 __arm_fadvise64_64@@LIBC_PRIVATE
1341:   FUNC GLOBAL DEFAULT 17 __connect@@LIBC
1342:   FUNC GLOBAL DEFAULT 17 sigfillset64@@LIBC_P
1343:   FUNC GLOBAL DEFAULT 17 strtod@@LIBC
1344:   FUNC GLOBAL DEFAULT 17 __isfinitef@@LIBC
1345:   FUNC GLOBAL DEFAULT 17 __cxa_atexit@@LIBC
1346:   FUNC GLOBAL DEFAULT 17 strtof@@LIBC
1347:   FUNC GLOBAL DEFAULT 17 __dn_comp@@LIBC
1348:   FUNC GLOBAL DEFAULT 17 __p_option@@LIBC
1349:   FUNC GLOBAL DEFAULT 17 arc4random_addrandom@@LIBC_PRIVATE
1350:   FUNC GLOBAL DEFAULT 17 fstatfs@@LIBC
1351:   FUNC GLOBAL DEFAULT 17 errx@@LIBC
1352:   FUNC GLOBAL DEFAULT 17 __sinit@@LIBC_PRIVATE
1353:   FUNC GLOBAL DEFAULT 17 readv@@LIBC
1354:   FUNC WEAK DEFAULT 17 pthread_getspecific@@LIBC
1355:   FUNC GLOBAL DEFAULT 17 getpwnam@@LIBC
1356:   FUNC GLOBAL DEFAULT 17 swab@@LIBC_P
1357:   FUNC GLOBAL DEFAULT 17 wctrans_l@@LIBC_O
1358:   FUNC GLOBAL DEFAULT 17 __pread64_chk@@LIBC
1359:   FUNC GLOBAL DEFAULT 17 __aeabi_uidivmod@@LIBC_PRIVATE
1360:   FUNC GLOBAL DEFAULT 17 inet_addr@@LIBC
1361:   FUNC GLOBAL DEFAULT 17 clock_nanosleep@@LIBC
1362:   FUNC GLOBAL DEFAULT 17 __pselect6@@LIBC
1363:   FUNC GLOBAL DEFAULT 17 sigwait@@LIBC
1364:   FUNC GLOBAL DEFAULT 17 __aeabi_d2f@@LIBC_PRIVATE
1365:   FUNC GLOBAL DEFAULT 17 __isfinitel@@LIBC
1366:   FUNC GLOBAL DEFAULT 17 mkstemp@@LIBC
1367:   OBJECT GLOBAL DEFAULT 13 in6addr_any@@LIBC_N
1368:   FUNC GLOBAL DEFAULT 17 strtok@@LIBC
1369:   FUNC GLOBAL DEFAULT 17 mktime@@LIBC
1370:   FUNC GLOBAL DEFAULT 17 fseeko64@@LIBC_N
1371:   FUNC GLOBAL DEFAULT 17 strtol@@LIBC
1372:   FUNC GLOBAL DEFAULT 17 __strlcpy_chk@@LIBC
1373:   FUNC GLOBAL DEFAULT 17 ftruncate64@@LIBC
1374:   FUNC GLOBAL DEFAULT 17 tcgetpgrp@@LIBC
1375:   FUNC GLOBAL DEFAULT 17 iswprint@@LIBC
1376:   FUNC GLOBAL DEFAULT 17 putwchar@@LIBC
1377:   FUNC GLOBAL DEFAULT 17 ___Unwind_Resume@@LIBC_PRIVATE
1378:   FUNC GLOBAL DEFAULT 17 __gesf2@@LIBC_PRIVATE
1379:   FUNC WEAK DEFAULT 17 setjmp@@LIBC
1380:   FUNC GLOBAL DEFAULT 17 __fread_chk@@LIBC_N
1381:   FUNC GLOBAL DEFAULT 17 verrx@@LIBC
1382:   FUNC GLOBAL DEFAULT 17 ntohl@@LIBC
1383:   FUNC GLOBAL DEFAULT 17 pvalloc@@LIBC
1384:   FUNC GLOBAL DEFAULT 17 ptsname_r@@LIBC
1385:   FUNC GLOBAL DEFAULT 17 wcstoimax@@LIBC
1386:   FUNC WEAK DEFAULT 17 pthread_getattr_np@@LIBC
1387:   FUNC GLOBAL DEFAULT 17 memmem@@LIBC
1388:   FUNC GLOBAL DEFAULT 17 warnx@@LIBC
1389:   FUNC GLOBAL DEFAULT 17 __b64_pton@@LIBC
1390:   FUNC GLOBAL DEFAULT 17 fstat64@@LIBC
1391:   FUNC GLOBAL DEFAULT 17 sigsuspend@@LIBC
1392:   FUNC GLOBAL DEFAULT 17 strtoq@@LIBC
1393:   FUNC GLOBAL DEFAULT 17 wcstod_l@@LIBC_P
1394:   FUNC GLOBAL DEFAULT 17 __pread_chk@@LIBC
1395:   FUNC GLOBAL DEFAULT 17 __ns_name_unpack@@LIBC
1396:   FUNC GLOBAL DEFAULT 17 __ns_format_ttl@@LIBC
1397:   FUNC GLOBAL DEFAULT 17 inet_pton@@LIBC
1398:   OBJECT GLOBAL DEFAULT 19 __page_shift@@LIBC_PRIVATE
1399:   FUNC GLOBAL DEFAULT 17 __res_send@@LIBC
1400:   FUNC GLOBAL DEFAULT 17 __sseek@@LIBC_PRIVATE
1401:   FUNC GLOBAL DEFAULT 17 nl_langinfo_l@@LIBC_O
1402:   FUNC GLOBAL DEFAULT 17 ntohs@@LIBC
1403:   FUNC GLOBAL DEFAULT 17 closedir@@LIBC
1404:   FUNC GLOBAL DEFAULT 17 getpwuid@@LIBC
1405:   FUNC GLOBAL DEFAULT 17 wait@@LIBC
1406:   FUNC GLOBAL DEFAULT 17 dup@@LIBC
1407:   FUNC GLOBAL DEFAULT 17 pthread_mutex_lock@@LIBC
1408:   FUNC GLOBAL DEFAULT 17 android_mallopt@@LIBC_Q
1409:   FUNC GLOBAL DEFAULT 17 msgget@@LIBC_O
1410:   FUNC GLOBAL DEFAULT 17 tcflow@@LIBC
1411:   FUNC GLOBAL DEFAULT 17 ldexp@@LIBC
1412:   FUNC GLOBAL DEFAULT 17 prlimit@@LIBC_N
1413:   FUNC GLOBAL DEFAULT 17 fopen@@LIBC
1414:   FUNC GLOBAL DEFAULT 17 mbrtoc16@@LIBC
1415:   FUNC GLOBAL DEFAULT 17 unlinkat@@LIBC
1416:   FUNC GLOBAL DEFAULT 17 iswspace_l@@LIBC
1417:   FUNC GLOBAL DEFAULT 17 __get_h_errno@@LIBC
1418:   FUNC WEAK DEFAULT 17 pthread_attr_getschedpoli@@LIBC
1419:   FUNC GLOBAL DEFAULT 17 pthread_spin_trylock@@LIBC_N
1420:   FUNC WEAK DEFAULT 17 pthread_create@@LIBC
1421:   FUNC GLOBAL DEFAULT 17 scandirat64@@LIBC_N
1422:   FUNC GLOBAL DEFAULT 17 strlcat@@LIBC
1423:   FUNC GLOBAL DEFAULT 17 wmemchr@@LIBC
1424:   OBJECT GLOBAL DEFAULT 19 _ctype_@@LIBC
1425:   FUNC GLOBAL DEFAULT 17 llistxattr@@LIBC
1426:   FUNC GLOBAL DEFAULT 17 removexattr@@LIBC
1427:   FUNC GLOBAL DEFAULT 17 mbsnrtowcs@@LIBC
1428:   FUNC GLOBAL DEFAULT 17 pthread_rwlock_timedrdloc@@LIBC_P
1429:   FUNC GLOBAL DEFAULT 17 __aeabi_l2d@@LIBC_PRIVATE
1430:   FUNC GLOBAL DEFAULT 17 flockfile@@LIBC
1431:   FUNC GLOBAL DEFAULT 17 lgetxattr@@LIBC
1432:   FUNC GLOBAL DEFAULT 17 mprotect@@LIBC
1433:   FUNC GLOBAL DEFAULT 17 readdir64_r@@LIBC
1434:   FUNC GLOBAL DEFAULT 17 towupper@@LIBC
1435:   OBJECT GLOBAL DEFAULT 19 __sglue@@LIBC_PRIVATE
1436:   FUNC GLOBAL DEFAULT 17 pthread_attr_setstackaddr@@LIBC_PRIVATE
1437:   FUNC GLOBAL DEFAULT 17 __aeabi_l2f@@LIBC_PRIVATE
1438:   FUNC GLOBAL DEFAULT 17 sigprocmask64@@LIBC_P
1439:   FUNC GLOBAL DEFAULT 17 login_tty@@LIBC
1440:   FUNC GLOBAL DEFAULT 17 __ns_get32@@LIBC
1441:   FUNC GLOBAL DEFAULT 17 isascii@@LIBC
1442:   FUNC WEAK DEFAULT 17 pthread_attr_setschedpara@@LIBC
1443:   FUNC GLOBAL DEFAULT 17 pthread_mutex_timedlock@@LIBC
1444:   FUNC WEAK DEFAULT 17 exit@@LIBC
1445:   FUNC GLOBAL DEFAULT 17 wcschr@@LIBC
1446:   FUNC GLOBAL DEFAULT 17 __vsnprintf_chk@@LIBC
1447:   FUNC GLOBAL DEFAULT 17 __fixdfsi@@LIBC_PRIVATE
1448:   FUNC GLOBAL DEFAULT 17 tmpfile@@LIBC
1449:   FUNC WEAK DEFAULT 17 freeaddrinfo@@LIBC
1450:   FUNC GLOBAL DEFAULT 17 nsdispatch@@LIBC
1451:   FUNC GLOBAL DEFAULT 17 __sflush@@LIBC_PRIVATE
1452:   FUNC GLOBAL DEFAULT 17 __aeabi_read_tp@@LIBC_Q
1453:   FUNC GLOBAL DEFAULT 17 toupper_l@@LIBC
1454:   FUNC GLOBAL DEFAULT 17 pselect@@LIBC
1455:   FUNC GLOBAL DEFAULT 17 tcsetattr@@LIBC
1456:   FUNC GLOBAL DEFAULT 17 recv@@LIBC
1457:   FUNC GLOBAL DEFAULT 17 sched_getaffinity@@LIBC
1458:   FUNC WEAK DEFAULT 17 clone@@LIBC
1459:   FUNC GLOBAL DEFAULT 17 android_gethostbyaddrforn@@LIBC_PRIVATE
1460:   FUNC WEAK DEFAULT 17 pthread_attr_getstack@@LIBC
1461:   FUNC GLOBAL DEFAULT 17 __stack_chk_fail@@LIBC
1462:   FUNC GLOBAL DEFAULT 17 __divdi3@@LIBC_PRIVATE
1463:   FUNC GLOBAL DEFAULT 17 lockf64@@LIBC_N
1464:   FUNC GLOBAL DEFAULT 17 wcstol_l@@LIBC_P
1465:   FUNC GLOBAL DEFAULT 17 __res_nmkquery@@LIBC
1466:   FUNC GLOBAL DEFAULT 17 pthread_condattr_init@@LIBC
1467:   FUNC GLOBAL DEFAULT 17 utimensat@@LIBC
1468:   FUNC GLOBAL DEFAULT 17 bsearch@@LIBC
1469:   FUNC GLOBAL DEFAULT 17 wscanf@@LIBC
1470:   FUNC GLOBAL DEFAULT 17 strcspn@@LIBC
1471:   FUNC GLOBAL DEFAULT 17 pwritev@@LIBC_N
1472:   FUNC GLOBAL DEFAULT 17 fts_set@@LIBC
1473:   FUNC GLOBAL DEFAULT 17 dlmalloc@@LIBC_PRIVATE
1474:   FUNC GLOBAL DEFAULT 17 fwrite@@LIBC
1475:   FUNC GLOBAL DEFAULT 17 __isnormalf@@LIBC
1476:   FUNC GLOBAL DEFAULT 17 tgkill@@LIBC
1477:   FUNC GLOBAL DEFAULT 17 iswspace@@LIBC
1478:   FUNC GLOBAL DEFAULT 17 __p_fqname@@LIBC
1479:   FUNC GLOBAL DEFAULT 17 swprintf@@LIBC
1480:   FUNC GLOBAL DEFAULT 17 __gtsf2@@LIBC_PRIVATE
1481:   FUNC GLOBAL DEFAULT 17 pthread_spin_destroy@@LIBC_N
1482:   FUNC WEAK DEFAULT 17 __aeabi_memmove@@LIBC_N
1483:   FUNC WEAK DEFAULT 17 __aeabi_memmove@LIBC_PRIVATE
1484:   FUNC GLOBAL DEFAULT 17 regexec@@LIBC
1485:   FUNC GLOBAL DEFAULT 17 setvbuf@@LIBC
1486:   FUNC GLOBAL DEFAULT 17 ldiv@@LIBC
1487:   FUNC GLOBAL DEFAULT 17 getrlimit64@@LIBC
1488:   FUNC GLOBAL DEFAULT 17 fclose@@LIBC
1489:   FUNC GLOBAL DEFAULT 17 __floatundidf@@LIBC_PRIVATE
1490:   FUNC GLOBAL DEFAULT 17 __hostalias@@LIBC
1491:   FUNC GLOBAL DEFAULT 17 __gnu_Unwind_Save_VFP_D@@LIBC_PRIVATE
1492:   FUNC GLOBAL DEFAULT 17 __vsprintf_chk@@LIBC
1493:   FUNC WEAK DEFAULT 17 __aeabi_unwind_cpp_pr1@@LIBC_PRIVATE
1494:   OBJECT GLOBAL DEFAULT 26 __bionic_brk@@LIBC_PRIVATE
1495:   FUNC GLOBAL DEFAULT 17 wctrans@@LIBC_O
1496:   FUNC GLOBAL DEFAULT 17 __stpcpy_chk@@LIBC
1497:   FUNC GLOBAL DEFAULT 17 inet_makeaddr@@LIBC
1498:   FUNC GLOBAL DEFAULT 17 delete_module@@LIBC
1499:   FUNC WEAK DEFAULT 17 pthread_setschedprio@@LIBC_P
1500:   FUNC GLOBAL DEFAULT 17 madvise@@LIBC
1501:   FUNC GLOBAL DEFAULT 17 __aeabi_dmul@@LIBC_PRIVATE
1502:   FUNC GLOBAL DEFAULT 17 __isnormall@@LIBC
1503:   FUNC GLOBAL DEFAULT 17 getgrnam@@LIBC
1504:   FUNC GLOBAL DEFAULT 17 sigsetmask@@LIBC
1505:   FUNC GLOBAL DEFAULT 17 fstatfs64@@LIBC
1506:   FUNC GLOBAL DEFAULT 17 div@@LIBC
1507:   FUNC WEAK DEFAULT 17 __aeabi_unwind_cpp_pr2@@LIBC_PRIVATE
1508:   FUNC GLOBAL DEFAULT 17 __aeabi_fdiv@@LIBC_PRIVATE
1509:   FUNC GLOBAL DEFAULT 17 __p_secstodate@@LIBC
1510:   FUNC GLOBAL DEFAULT 17 fgetwc@@LIBC
1511:   FUNC GLOBAL DEFAULT 17 syncfs@@LIBC_P
1512:   FUNC GLOBAL DEFAULT 17 _Unwind_Resume@@LIBC_PRIVATE
1513:   OBJECT GLOBAL DEFAULT 19 stdout@@LIBC
1514:   FUNC GLOBAL DEFAULT 17 vfprintf@@LIBC
1515:   FUNC GLOBAL DEFAULT 17 hdestroy_r@@LIBC_P
1516:   FUNC GLOBAL DEFAULT 17 dlmalloc_trim@@LIBC_PRIVATE
1517:   FUNC GLOBAL DEFAULT 17 sem_trywait@@LIBC
1518:   FUNC GLOBAL DEFAULT 17 vsnprintf@@LIBC
1519:   FUNC GLOBAL DEFAULT 17 wcsstr@@LIBC
1520:   FUNC GLOBAL DEFAULT 17 mkostemps64@@LIBC
1521:   FUNC GLOBAL DEFAULT 17 __res_nclose@@LIBC
1522:   FUNC GLOBAL DEFAULT 17 __unorddf2@@LIBC_PRIVATE
1523:   FUNC WEAK DEFAULT 17 __system_property_read_ca@@LIBC_O
1524:   FUNC GLOBAL DEFAULT 17 inotify_add_watch@@LIBC
1525:   FUNC GLOBAL DEFAULT 17 splice@@LIBC
1526:   FUNC GLOBAL DEFAULT 17 __aeabi_dcmpeq@@LIBC_PRIVATE
1527:   FUNC GLOBAL DEFAULT 17 __aeabi_fcmpge@@LIBC_PRIVATE
1528:   FUNC GLOBAL DEFAULT 17 ffs@@LIBC
1529:   FUNC GLOBAL DEFAULT 17 __rt_sigpending@@LIBC
1530:   FUNC GLOBAL DEFAULT 17 posix_spawn_file_actions_@@LIBC_P
1531:   FUNC GLOBAL DEFAULT 17 setdomainname@@LIBC_O
1532:   FUNC GLOBAL DEFAULT 17 isblank@@LIBC
1533:   FUNC GLOBAL DEFAULT 17 mkostemp@@LIBC
1534:   FUNC GLOBAL DEFAULT 17 regfree@@LIBC
1535:   FUNC GLOBAL DEFAULT 17 fgetpos@@LIBC
1536:   FUNC GLOBAL DEFAULT 17 __read_chk@@LIBC
1537:   FUNC GLOBAL DEFAULT 17 timer_getoverrun@@LIBC
1538:   FUNC GLOBAL DEFAULT 17 sigtimedwait64@@LIBC_P
1539:   FUNC GLOBAL DEFAULT 17 iswcntrl_l@@LIBC
1540:   FUNC GLOBAL DEFAULT 17 wctype_l@@LIBC
1541:   FUNC GLOBAL DEFAULT 17 __res_nquerydomain@@LIBC
1542:   FUNC GLOBAL DEFAULT 17 fts_children@@LIBC
1543:   FUNC GLOBAL DEFAULT 17 mbsinit@@LIBC
1544:   FUNC GLOBAL DEFAULT 17 open_memstream@@LIBC
1545:   FUNC GLOBAL DEFAULT 17 lsetxattr@@LIBC
1546:   FUNC GLOBAL DEFAULT 17 mkstemps64@@LIBC
1547:   FUNC GLOBAL DEFAULT 17 tcsendbreak@@LIBC
1548:   FUNC GLOBAL DEFAULT 17 gmtime64_r@@LIBC
1549:   FUNC GLOBAL DEFAULT 17 __res_nsearch@@LIBC
1550:   FUNC GLOBAL DEFAULT 17 acct@@LIBC
1551:   FUNC GLOBAL DEFAULT 17 sendmsg@@LIBC
1552:   FUNC GLOBAL DEFAULT 17 __eqdf2@@LIBC_PRIVATE
1553:   FUNC GLOBAL DEFAULT 17 __fixsfsi@@LIBC_PRIVATE
1554:   FUNC GLOBAL DEFAULT 17 clock_getcpuclockid@@LIBC
1555:   FUNC GLOBAL DEFAULT 17 posix_spawnattr_setpgroup@@LIBC_P
1556:   FUNC GLOBAL DEFAULT 17 mbrtowc@@LIBC
1557:   FUNC GLOBAL DEFAULT 17 __ppoll64_chk@@LIBC
1558:   FUNC GLOBAL DEFAULT 17 pthread_rwlock_tryrdlock@@LIBC
1559:   FUNC GLOBAL DEFAULT 17 _Unwind_Resume_or_Rethrow@@LIBC_PRIVATE
1560:   FUNC GLOBAL DEFAULT 17 islower@@LIBC
1561:   FUNC GLOBAL DEFAULT 17 iconv@@LIBC_P
1562:   FUNC GLOBAL DEFAULT 17 getmntent_r@@LIBC
1563:   FUNC GLOBAL DEFAULT 17 getservent@@LIBC
1564:   FUNC GLOBAL DEFAULT 17 imaxdiv@@LIBC
1565:   FUNC GLOBAL DEFAULT 17 lsearch@@LIBC
1566:   FUNC GLOBAL DEFAULT 17 pthread_rwlock_timedrdloc@@LIBC
1567:   FUNC GLOBAL DEFAULT 17 wcscoll@@LIBC
1568:   FUNC WEAK DEFAULT 17 pthread_attr_setstack@@LIBC
1569:   FUNC WEAK DEFAULT 17 __system_properties_init@@LIBC_Q
1570:   FUNC GLOBAL DEFAULT 17 __dn_count_labels@@LIBC
1571:   FUNC GLOBAL DEFAULT 17 wcpncpy@@LIBC
1572:   FUNC GLOBAL DEFAULT 17 erand48@@LIBC
1573:   FUNC GLOBAL DEFAULT 17 fgetws@@LIBC
1574:   FUNC GLOBAL DEFAULT 17 getprotoent@@LIBC_P
1575:   FUNC GLOBAL DEFAULT 17 __ns_name_skip@@LIBC
1576:   FUNC GLOBAL DEFAULT 17 __res_ninit@@LIBC
1577:   FUNC GLOBAL DEFAULT 17 vscanf@@LIBC
1578:   FUNC GLOBAL DEFAULT 17 pthread_rwlock_rdlock@@LIBC
1579:   FUNC GLOBAL DEFAULT 17 __udivsi3@@LIBC_PRIVATE
1580:   FUNC GLOBAL DEFAULT 17 _Unwind_VRS_Get@@LIBC_PRIVATE
1581:   FUNC GLOBAL DEFAULT 17 __accept4@@LIBC_PRIVATE
1582:   FUNC GLOBAL DEFAULT 17 fts_close@@LIBC
1583:   FUNC GLOBAL DEFAULT 17 getgroups@@LIBC
1584:   FUNC GLOBAL DEFAULT 17 __aeabi_idivmod@@LIBC_PRIVATE
1585:   FUNC GLOBAL DEFAULT 17 mknod@@LIBC
1586:   FUNC GLOBAL DEFAULT 17 __statfs64@@LIBC
1587:   FUNC GLOBAL DEFAULT 17 cfsetispeed@@LIBC
1588:   FUNC GLOBAL DEFAULT 17 __FD_CLR_chk@@LIBC
1589:   FUNC GLOBAL DEFAULT 17 __getcwd_chk@@LIBC_N
1590:   FUNC GLOBAL DEFAULT 17 __aeabi_fcmpgt@@LIBC_PRIVATE
1591:   FUNC GLOBAL DEFAULT 17 sbrk@@LIBC
1592:   FUNC GLOBAL DEFAULT 17 __gnu_Unwind_Resume@@LIBC_PRIVATE
1593:   IFUNC GLOBAL DEFAULT 17 strcmp@@LIBC
1594:   FUNC GLOBAL DEFAULT 17 vswscanf@@LIBC
1595:   FUNC GLOBAL DEFAULT 17 __floatunsidf@@LIBC_PRIVATE
1596:   FUNC GLOBAL DEFAULT 17 shmctl@@LIBC_O
1597:   FUNC GLOBAL DEFAULT 17 dprintf@@LIBC
1598:   FUNC GLOBAL DEFAULT 17 pthread_cond_timedwait_mo@@LIBC
1599:   FUNC GLOBAL DEFAULT 17 __aeabi_dadd@@LIBC_PRIVATE
1600:   FUNC GLOBAL DEFAULT 17 getresgid@@LIBC
1601:   FUNC GLOBAL DEFAULT 17 pthread_spin_init@@LIBC_N
1602:   FUNC GLOBAL DEFAULT 17 res_mkquery@@LIBC
1603:   FUNC GLOBAL DEFAULT 17 wcslcpy@@LIBC
1604:   OBJECT GLOBAL DEFAULT 19 __sF@@LIBC
1605:   FUNC GLOBAL DEFAULT 17 malloc_enable@@LIBC_Q
1606:   FUNC GLOBAL DEFAULT 17 __rt_sigprocmask@@LIBC
1607:   FUNC GLOBAL DEFAULT 17 __aeabi_i2d@@LIBC_PRIVATE
1608:   FUNC GLOBAL DEFAULT 17 stat@@LIBC
1609:   FUNC GLOBAL DEFAULT 17 epoll_pwait@@LIBC
1610:   FUNC GLOBAL DEFAULT 17 setitimer@@LIBC
1611:   FUNC GLOBAL DEFAULT 17 strftime@@LIBC
1612:   FUNC GLOBAL DEFAULT 17 basename_r@@LIBC
1613:   FUNC GLOBAL DEFAULT 17 iswprint_l@@LIBC
1614:   FUNC GLOBAL DEFAULT 17 __mmap2@@LIBC
1615:   FUNC GLOBAL DEFAULT 17 __p_type@@LIBC
1616:   FUNC GLOBAL DEFAULT 17 __aeabi_i2f@@LIBC_PRIVATE
1617:   FUNC GLOBAL DEFAULT 17 fchmodat@@LIBC
1618:   OBJECT GLOBAL DEFAULT 26 error_message_count@@LIBC
1619:   FUNC GLOBAL DEFAULT 17 setmntent@@LIBC
1620:   FUNC GLOBAL DEFAULT 17 timer_create@@LIBC
1621:   FUNC GLOBAL DEFAULT 17 pathconf@@LIBC
1622:   FUNC GLOBAL DEFAULT 17 sigpause@@LIBC_O
1623:   FUNC GLOBAL DEFAULT 17 posix_spawnattr_setschedp@@LIBC_P
1624:   FUNC GLOBAL DEFAULT 17 init_module@@LIBC
1625:   FUNC GLOBAL DEFAULT 17 quotactl@@LIBC_O
1626:   FUNC GLOBAL DEFAULT 17 fdprintf@@LIBC
1627:   FUNC GLOBAL DEFAULT 17 fputc@@LIBC
1628:   FUNC GLOBAL DEFAULT 17 fchdir@@LIBC
1629:   FUNC GLOBAL DEFAULT 17 pthread_condattr_getpshar@@LIBC
1630:   FUNC GLOBAL DEFAULT 17 ispunct_l@@LIBC
1631:   FUNC GLOBAL DEFAULT 17 sysinfo@@LIBC
1632:   FUNC GLOBAL DEFAULT 17 __ns_makecanon@@LIBC
1633:   FUNC GLOBAL DEFAULT 17 posix_spawnattr_getpgroup@@LIBC_P
1634:   FUNC GLOBAL DEFAULT 17 getservbyport@@LIBC
1635:   FUNC GLOBAL DEFAULT 17 __p_rcode@@LIBC
1636:   FUNC GLOBAL DEFAULT 17 truncate@@LIBC
1637:   FUNC GLOBAL DEFAULT 17 __futex_wait@@LIBC_PRIVATE
1638:   FUNC GLOBAL DEFAULT 17 __aeabi_cfrcmple@@LIBC_PRIVATE
1639:   FUNC GLOBAL DEFAULT 17 isinf@@LIBC
1640:   FUNC GLOBAL DEFAULT 17 getnetbyname@@LIBC
1641:   FUNC GLOBAL DEFAULT 17 __loc_ntoa@@LIBC
1642:   FUNC GLOBAL DEFAULT 17 getopt_long_only@@LIBC
1643:   FUNC GLOBAL DEFAULT 17 timegm64@@LIBC
1644:   IFUNC GLOBAL DEFAULT 17 strlen@@LIBC
1645:   FUNC GLOBAL DEFAULT 17 __mulsf3@@LIBC_PRIVATE
1646:   FUNC GLOBAL DEFAULT 17 __getcpu@@LIBC
1647:   FUNC GLOBAL DEFAULT 17 fread@@LIBC
1648:   FUNC GLOBAL DEFAULT 17 tcgetsid@@LIBC
1649:   FUNC GLOBAL DEFAULT 17 twalk@@LIBC
1650:   FUNC GLOBAL DEFAULT 17 open64@@LIBC
1651:   FUNC GLOBAL DEFAULT 17 __ns_name_compress@@LIBC
1652:   FUNC GLOBAL DEFAULT 17 isfinitef@@LIBC
1653:   FUNC GLOBAL DEFAULT 17 timer_delete@@LIBC
1654:   FUNC GLOBAL DEFAULT 17 _flushlbf@@LIBC
1655:   FUNC GLOBAL DEFAULT 17 malloc@@LIBC
1656:   FUNC GLOBAL DEFAULT 17 getloadavg@@LIBC_Q
1657:   FUNC GLOBAL DEFAULT 17 __ns_name_rollback@@LIBC
1658:   FUNC GLOBAL DEFAULT 17 rand_r@@LIBC
1659:   FUNC GLOBAL DEFAULT 17 ___Unwind_RaiseException@@LIBC_PRIVATE
1660:   FUNC GLOBAL DEFAULT 17 __aeabi_d2uiz@@LIBC_PRIVATE
1661:   FUNC GLOBAL DEFAULT 17 pthread_mutex_destroy@@LIBC
1662:   FUNC GLOBAL DEFAULT 17 cfgetispeed@@LIBC
1663:   FUNC GLOBAL DEFAULT 17 isdigit@@LIBC
1664:   FUNC GLOBAL DEFAULT 17 ctime_r@@LIBC
1665:   FUNC GLOBAL DEFAULT 17 mktime64@@LIBC
1666:   FUNC GLOBAL DEFAULT 17 mbrtoc32@@LIBC
1667:   FUNC WEAK DEFAULT 17 __system_property_set_fil@@LIBC_PLATFORM
1668:   FUNC GLOBAL DEFAULT 17 __readlinkat_chk@@LIBC
1669:   FUNC GLOBAL DEFAULT 17 sendfile64@@LIBC
1670:   FUNC GLOBAL DEFAULT 17 __strlen_chk@@LIBC
1671:   FUNC GLOBAL DEFAULT 17 setpgrp@@LIBC
1672:   FUNC GLOBAL DEFAULT 17 putchar_unlocked@@LIBC
1673:   FUNC GLOBAL DEFAULT 17 pututline@@LIBC
