 0x000000000000000e (SONAME)             Library soname: [libsfplugin_ccodec_utils.so]
  
Symbol   contains 608 entries:
Num:   Type Bind Vis Ndx Name
0:   NOTYPE LOCAL DEFAULT UND
1:   FUNC GLOBAL DEFAULT UND __cxa_finalize@LIBC (2)
2:   FUNC GLOBAL DEFAULT UND __cxa_atexit@LIBC (2)
3:   FUNC GLOBAL DEFAULT UND _ZNK13C2GraphicView4dataE
4:   FUNC GLOBAL DEFAULT UND _ZNK13C2GraphicView6layou
5:   FUNC GLOBAL DEFAULT UND _ZN13C2GraphicView4dataEv
6:   FUNC GLOBAL DEFAULT UND _ZN7android4base10LogMess
7:   FUNC GLOBAL DEFAULT UND _ZN7android4base10LogMess
8:   FUNC GLOBAL DEFAULT UND _ZN7android4base10LogMess
9:   FUNC GLOBAL DEFAULT UND __android_log_print@LIBLOG (3)
10:   FUNC GLOBAL DEFAULT UND _ZdlPv
11:   FUNC GLOBAL DEFAULT UND _ZNSt3__15mutex4lockEv
12:   FUNC GLOBAL DEFAULT UND _ZdaPv
13:   FUNC GLOBAL DEFAULT UND _Znwm
14:   FUNC GLOBAL DEFAULT UND _Znam
15:   FUNC GLOBAL DEFAULT UND _ZNSt3__15mutex6unlockEv
16:   FUNC GLOBAL DEFAULT UND _ZNSt3__119__shared_weak_
17:   FUNC GLOBAL DEFAULT UND _ZNSt3__113basic_ostreamI
18:   FUNC GLOBAL DEFAULT UND _ZNSt3__113basic_ostreamI
19:   FUNC GLOBAL DEFAULT UND _ZNKSt3__18ios_base6getlo
20:   FUNC GLOBAL DEFAULT UND _ZNSt3__16localeD1Ev
21:   FUNC GLOBAL DEFAULT UND _ZNKSt3__16locale9use_fac
22:   FUNC GLOBAL DEFAULT UND _ZNSt3__18ios_base5clearE
23:   FUNC GLOBAL DEFAULT UND _ZNKSt3__119__shared_weak
24:   FUNC GLOBAL DEFAULT UND _ZNSt3__119__shared_weak_
25:   FUNC GLOBAL DEFAULT UND _ZNSt3__15mutexD1Ev
26:   OBJECT GLOBAL DEFAULT UND _ZNSt3__15ctypeIcE2idE
27:   FUNC GLOBAL DEFAULT UND _ZN7android10ColorUtils30
28:   FUNC GLOBAL DEFAULT UND _ZN7android10ColorUtils32
29:   FUNC GLOBAL DEFAULT UND _ZN7android10ColorUtils33
30:   FUNC GLOBAL DEFAULT UND _ZN7android10ColorUtils35
31:   FUNC GLOBAL DEFAULT UND _ZN7android10ColorUtils33
32:   FUNC GLOBAL DEFAULT UND _ZN7android10ColorUtils35
33:   FUNC GLOBAL DEFAULT UND _ZN7android10ColorUtils27
34:   FUNC GLOBAL DEFAULT UND _ZNKSt3__112basic_stringI
35:   FUNC GLOBAL DEFAULT UND abort@LIBC (2)
36:   FUNC WEAK DEFAULT UND android_set_abort_message@LIBC (2)
37:   FUNC GLOBAL DEFAULT UND strlen@LIBC (2)
38:   FUNC GLOBAL DEFAULT UND write@LIBC (2)
39:   FUNC GLOBAL DEFAULT UND __cfi_slowpath@LIBC_OMR1 (4)
40:   FUNC GLOBAL DEFAULT UND malloc@LIBC (2)
41:   FUNC GLOBAL DEFAULT UND free@LIBC (2)
42:   FUNC GLOBAL DEFAULT UND fopen@LIBC (2)
43:   FUNC GLOBAL DEFAULT UND memcmp@LIBC (2)
44:   FUNC GLOBAL DEFAULT UND fclose@LIBC (2)
45:   FUNC GLOBAL DEFAULT UND strcmp@LIBC (2)
46:   FUNC GLOBAL DEFAULT UND __fgets_chk@LIBC (2)
47:   FUNC GLOBAL DEFAULT UND strstr@LIBC (2)
48:   FUNC GLOBAL DEFAULT UND getenv@LIBC (2)
49:   FUNC GLOBAL DEFAULT UND __memcpy_chk@LIBC (2)
50:   FUNC GLOBAL DEFAULT UND memset@LIBC (2)
51:   FUNC GLOBAL DEFAULT UND memcpy@LIBC (2)
52:   FUNC GLOBAL DEFAULT UND __stack_chk_fail@LIBC (2)
53:   FUNC GLOBAL DEFAULT 14 ARGBAttenuateRow_C
54:   FUNC GLOBAL DEFAULT 14 MergeUVRow_Any_NEON
55:   FUNC GLOBAL DEFAULT 14 ScaleRowDown38_3_Box_C
56:   FUNC GLOBAL DEFAULT 14 BGRAToUVRow_Any_NEON
57:   FUNC GLOBAL DEFAULT 14 I444ToABGR
58:   FUNC GLOBAL DEFAULT 14 RGB24ToARGB
59:   FUNC GLOBAL DEFAULT 14 SplitUVPlane
60:   FUNC GLOBAL DEFAULT 14 RGB24ToARGBRow_NEON
61:   FUNC GLOBAL DEFAULT 14 ARGBQuantize
62:   FUNC GLOBAL DEFAULT 14 ARGBToYJRow_NEON
63:   FUNC GLOBAL DEFAULT 14 ScaleRowDown38_3_Box_16_C
64:   FUNC GLOBAL DEFAULT 14 _ZNK7android11MemoryBlock
65:   FUNC GLOBAL DEFAULT 14 ARGB4444ToYRow_Any_NEON
66:   FUNC GLOBAL DEFAULT 14 I422ToARGB
67:   FUNC GLOBAL DEFAULT 14 ARGBPolynomial
68:   FUNC GLOBAL DEFAULT 14 RAWToUVRow_NEON
69:   FUNC GLOBAL DEFAULT 14 I400ToARGBRow_NEON
70:   FUNC GLOBAL DEFAULT 14 NV21ToARGBRow_NEON
71:   FUNC GLOBAL DEFAULT 14 BlendPlane
72:   FUNC GLOBAL DEFAULT 14 InterpolateRow_C
73:   FUNC GLOBAL DEFAULT 14 ARGBSobel
74:   FUNC GLOBAL DEFAULT 14 ARGBToRGB24Row_NEON
75:   FUNC GLOBAL DEFAULT 14 ScaleARGBFilterCols_C
76:   FUNC GLOBAL DEFAULT 14 ARGBToUVRow_C
77:   FUNC GLOBAL DEFAULT 14 I422ToRGBA
78:   FUNC GLOBAL DEFAULT 14 YUY2ToUVRow_C
79:   FUNC GLOBAL DEFAULT 14 RAWToYRow_C
80:   FUNC GLOBAL DEFAULT 14 I420ToARGB1555
81:   FUNC GLOBAL DEFAULT 14 I422AlphaToARGBRow_Any_NE
82:   OBJECT GLOBAL DEFAULT 11 kYvuH709Constants
83:   FUNC GLOBAL DEFAULT 14 ScaleARGBRowDownEven_Any_
84:   FUNC GLOBAL DEFAULT 14 _ZN7android8IsYUV420EPKNS
85:   FUNC GLOBAL DEFAULT 14 CopyPlane
86:   FUNC GLOBAL DEFAULT 14 Android420ToARGBMatrix
87:   FUNC GLOBAL DEFAULT 14 ScaleARGBRowDown2Box_Any_
88:   FUNC GLOBAL DEFAULT 14 ABGRToI420
89:   FUNC GLOBAL DEFAULT 14 RGB24ToARGBRow_Any_NEON
90:   FUNC GLOBAL DEFAULT 14 ARGBAttenuateRow_NEON
91:   FUNC GLOBAL DEFAULT 14 NV21ToARGBRow_Any_NEON
92:   FUNC GLOBAL DEFAULT 14 I422ToRGB24Row_NEON
93:   FUNC GLOBAL DEFAULT 14 SobelYRow_C
94:   FUNC GLOBAL DEFAULT 14 FixedDiv1_C
95:   FUNC GLOBAL DEFAULT 14 ARGBQuantizeRow_C
96:   FUNC GLOBAL DEFAULT 14 BGRAToUVRow_C
97:   FUNC GLOBAL DEFAULT 14 RGBAToUVRow_Any_NEON
98:   FUNC GLOBAL DEFAULT 14 ARGB4444ToUVRow_Any_NEON
99:   FUNC GLOBAL DEFAULT 14 I444Copy
100:   FUNC GLOBAL DEFAULT 14 InterpolateRow_NEON
101:   FUNC GLOBAL DEFAULT 14 ARGBToRAWRow_NEON
102:   FUNC GLOBAL DEFAULT 14 _ZN7android33CreateYUV420
103:   FUNC GLOBAL DEFAULT 14 GetARGBBlend
104:   FUNC GLOBAL DEFAULT 14 I420Rect
105:   FUNC GLOBAL DEFAULT 14 ARGBComputeCumulativeSum
106:   FUNC GLOBAL DEFAULT 14 ComputeCumulativeSumRow_C
107:   FUNC GLOBAL DEFAULT 14 ARGBExtractAlphaRow_Any_N
108:   FUNC GLOBAL DEFAULT 14 ARGBToRAWRow_Any_NEON
109:   FUNC GLOBAL DEFAULT 14 ScaleRowDown2Linear_16_C
110:   FUNC GLOBAL DEFAULT 14 ScaleARGBCols_Any_NEON
111:   FUNC GLOBAL DEFAULT 14 ScaleARGBCols_C
112:   FUNC GLOBAL DEFAULT 14 ScaleARGBRowDown2Linear_A
113:   FUNC GLOBAL DEFAULT 14 ABGRToUVRow_C
114:   FUNC GLOBAL DEFAULT 14 RGB565ToYRow_NEON
115:   FUNC GLOBAL DEFAULT 14 NV12ToABGR
116:   FUNC GLOBAL DEFAULT 14 ARGB4444ToARGBRow_NEON
117:   FUNC GLOBAL DEFAULT 14 MirrorRow_NEON
118:   FUNC GLOBAL DEFAULT 14 ARGBSepiaRow_C
119:   FUNC GLOBAL DEFAULT 14 ARGBToYRow_NEON
120:   FUNC GLOBAL DEFAULT 14 YUY2ToYRow_NEON
121:   FUNC GLOBAL DEFAULT 14 RGBAToUVRow_C
122:   FUNC GLOBAL DEFAULT 14 ARGB1555ToYRow_Any_NEON
123:   FUNC GLOBAL DEFAULT 14 NV12ToARGBRow_C
124:   FUNC GLOBAL DEFAULT 14 MipsCpuCaps
125:   FUNC GLOBAL DEFAULT 14 YUY2ToUV422Row_NEON
126:   FUNC GLOBAL DEFAULT 14 ARGBToUVJRow_Any_NEON
127:   FUNC GLOBAL DEFAULT 14 J420ToABGR
128:   FUNC GLOBAL DEFAULT 14 UYVYToARGBRow_NEON
129:   FUNC GLOBAL DEFAULT 14 MaskCpuFlags
130:   FUNC GLOBAL DEFAULT 14 UYVYToUV422Row_C
131:   FUNC GLOBAL DEFAULT 14 BlendPlaneRow_C
132:   FUNC GLOBAL DEFAULT 14 ARGB1555ToI420
133:   FUNC GLOBAL DEFAULT 14 I422ToARGB1555Row_C
134:   FUNC GLOBAL DEFAULT 14 UYVYToARGBRow_Any_NEON
135:   FUNC GLOBAL DEFAULT 14 ARGBToUV444Row_C
136:   FUNC GLOBAL DEFAULT 14 _ZN7android8C2Mapper3mapE
137:   FUNC GLOBAL DEFAULT 14 YUY2ToUVRow_Any_NEON
138:   FUNC GLOBAL DEFAULT 14 ARGBToRGB565DitherRow_NEO
139:   FUNC GLOBAL DEFAULT 14 ARGBToI420
140:   FUNC GLOBAL DEFAULT 14 ARGBToYRow_Any_NEON
141:   FUNC GLOBAL DEFAULT 14 I400ToARGBRow_C
142:   FUNC GLOBAL DEFAULT 14 I422ToRGBARow_Any_NEON
143:   FUNC GLOBAL DEFAULT 14 MergeUVRow_NEON
144:   FUNC GLOBAL DEFAULT 14 ARGBToYJRow_C
145:   FUNC GLOBAL DEFAULT 14 SetRow_NEON
146:   FUNC GLOBAL DEFAULT 14 I444ToARGB
147:   FUNC GLOBAL DEFAULT 14 I420ToARGB4444
148:   FUNC GLOBAL DEFAULT 14 ScaleRowDown2Box_Odd_NEON
149:   FUNC GLOBAL DEFAULT 14 ScaleRowDown38_NEON
150:   FUNC GLOBAL DEFAULT 14 _ZN7android11MemoryBlockC
151:   FUNC GLOBAL DEFAULT 14 Android420ToI420
152:   FUNC GLOBAL DEFAULT 14 ARGBAdd
153:   FUNC GLOBAL DEFAULT 14 NV12ToRGB565Row_Any_NEON
154:   FUNC GLOBAL DEFAULT 14 ARGBAffineRow_C
155:   FUNC GLOBAL DEFAULT 14 ScaleRowDown38_Any_NEON
156:   FUNC GLOBAL DEFAULT 14 I420ToBGRA
157:   FUNC GLOBAL DEFAULT 14 NV12ToARGBRow_Any_NEON
158:   FUNC GLOBAL DEFAULT 14 BGRAToYRow_NEON
159:   FUNC GLOBAL DEFAULT 14 RGB24ToUVRow_C
160:   FUNC GLOBAL DEFAULT 14 CopyPlane_16
161:   FUNC GLOBAL DEFAULT 14 ARGBAddRow_Any_NEON
162:   FUNC GLOBAL DEFAULT 14 ARGBGray
163:   FUNC GLOBAL DEFAULT 14 ARGBSepiaRow_NEON
164:   FUNC GLOBAL DEFAULT 14 ARGBShuffleRow_C
165:   FUNC GLOBAL DEFAULT 14 ScaleSlope
166:   FUNC GLOBAL DEFAULT 14 _ZN7android11MemoryBlock8
167:   FUNC GLOBAL DEFAULT 14 _ZN7android8C2Mapper3mapE
168:   FUNC GLOBAL DEFAULT 14 CopyRow_NEON
169:   OBJECT GLOBAL DEFAULT 11 kYuvI601Constants
170:   FUNC GLOBAL DEFAULT 14 I420ToUYVY
171:   FUNC GLOBAL DEFAULT 14 J400ToARGBRow_Any_NEON
172:   FUNC GLOBAL DEFAULT 14 RGB565ToARGBRow_NEON
173:   FUNC GLOBAL DEFAULT 14 ARGBMirrorRow_C
174:   FUNC GLOBAL DEFAULT 14 ARGBSetRow_NEON
175:   FUNC GLOBAL DEFAULT 14 ARGBColorTable
176:   FUNC GLOBAL DEFAULT 14 ScaleRowDown38_3_Box_Any_
177:   FUNC GLOBAL DEFAULT 14 ABGRToYRow_Any_NEON
178:   FUNC GLOBAL DEFAULT 14 I420Mirror
179:   FUNC GLOBAL DEFAULT 14 RGBAToARGB
180:   FUNC GLOBAL DEFAULT 14 I422ToRGB565
181:   FUNC GLOBAL DEFAULT 14 ScaleFilterCols_Any_NEON
182:   FUNC GLOBAL DEFAULT 14 ScaleFilterCols64_16_C
183:   FUNC GLOBAL DEFAULT 14 ScaleRowDown34_0_Box_NEON
184:   FUNC GLOBAL DEFAULT 14 I422ToARGBRow_C
185:   FUNC GLOBAL DEFAULT 14 I422Copy
186:   FUNC GLOBAL DEFAULT 14 ARGBMultiply
187:   FUNC GLOBAL DEFAULT 14 ScalePlaneBilinearDown_16
188:   FUNC GLOBAL DEFAULT 14 ScaleColsUp2_16_C
189:   FUNC GLOBAL DEFAULT 14 ABGRToUVRow_NEON
190:   FUNC GLOBAL DEFAULT 14 ARGB4444ToARGBRow_Any_NEO
191:   FUNC GLOBAL DEFAULT 14 I444ToARGBRow_NEON
192:   FUNC GLOBAL DEFAULT 14 ARGBAddRow_C
193:   FUNC GLOBAL DEFAULT 14 ScaleAddRows_NEON
194:   FUNC GLOBAL DEFAULT 14 RAWToI420
195:   FUNC GLOBAL DEFAULT 14 ARGB1555ToUVRow_Any_NEON
196:   FUNC GLOBAL DEFAULT 14 ARGBToRGB565DitherRow_C
197:   FUNC GLOBAL DEFAULT 14 ARGBSetRow_C
198:   FUNC GLOBAL DEFAULT 14 SobelXYRow_C
199:   FUNC GLOBAL DEFAULT 14 MergeUVRow_C
200:   FUNC GLOBAL DEFAULT 14 HalfFloatRow_C
201:   FUNC GLOBAL DEFAULT 14 ARGBToARGB1555Row_Any_NEO
202:   FUNC GLOBAL DEFAULT 14 NV12ToARGB
203:   FUNC GLOBAL DEFAULT 14 M420ToARGB
204:   FUNC GLOBAL DEFAULT 14 ARGBUnattenuate
205:   FUNC GLOBAL DEFAULT 14 ARGBSobelXY
206:   FUNC GLOBAL DEFAULT 14 MirrorUVRow_C
207:   FUNC GLOBAL DEFAULT 14 ScaleARGBColsUp2_C
208:   FUNC GLOBAL DEFAULT 14 __cfi_check
209:   FUNC GLOBAL DEFAULT 14 UYVYToI420
210:   FUNC GLOBAL DEFAULT 14 BGRAToYRow_Any_NEON
211:   FUNC GLOBAL DEFAULT 14 I422ToBGRA
212:   FUNC GLOBAL DEFAULT 14 ARGBSepia
213:   FUNC GLOBAL DEFAULT 14 J420ToARGB
214:   FUNC GLOBAL DEFAULT 14 MirrorRow_Any_NEON
215:   FUNC GLOBAL DEFAULT 14 UYVYToI422
216:   FUNC GLOBAL DEFAULT 14 SobelXRow_C
217:   FUNC GLOBAL DEFAULT 14 _ZN7android11MemoryBlockC
218:   FUNC GLOBAL DEFAULT 14 ABGRToYRow_C
219:   FUNC GLOBAL DEFAULT 14 I422ToUYVY
220:   FUNC GLOBAL DEFAULT 14 ARGBMirrorRow_Any_NEON
221:   FUNC GLOBAL DEFAULT 14 ScaleRowDown2Box_16_C
222:   FUNC GLOBAL DEFAULT 14 NV21ToABGR
223:   FUNC GLOBAL DEFAULT 14 I444ToARGBRow_C
224:   FUNC GLOBAL DEFAULT 14 ScaleRowDown34_0_Box_Any_
225:   FUNC GLOBAL DEFAULT 14 ScaleRowDown2_Any_NEON
226:   FUNC GLOBAL DEFAULT 14 ScaleRowDown4Box_NEON
227:   FUNC GLOBAL DEFAULT 14 _ZNK7android11MemoryBlock
228:   FUNC GLOBAL DEFAULT 14 _ZN7android8C2Mapper3mapE
229:   FUNC GLOBAL DEFAULT 14 I420ToRGB565Dither
230:   FUNC GLOBAL DEFAULT 14 SplitUVRow_C
231:   FUNC GLOBAL DEFAULT 14 FixedDiv_C
232:   FUNC GLOBAL DEFAULT 14 ScaleRowDown38_2_Box_NEON
233:   FUNC GLOBAL DEFAULT 14 ScaleARGBCols64_C
234:   FUNC GLOBAL DEFAULT 14 _ZN7android8C2Mapper24Get
235:   FUNC GLOBAL DEFAULT 14 UYVYToARGBRow_C
236:   FUNC GLOBAL DEFAULT 14 I422ToRGBARow_C
237:   FUNC GLOBAL DEFAULT 14 ARGBToRGB565Row_Any_NEON
238:   FUNC GLOBAL DEFAULT 14 ARGBToARGB1555Row_NEON
239:   FUNC GLOBAL DEFAULT 14 UYVYToUVRow_Any_NEON
240:   FUNC GLOBAL DEFAULT 14 ARGB4444ToYRow_NEON
241:   FUNC GLOBAL DEFAULT 14 _ZN7android15MemoryBlockP
242:   FUNC GLOBAL DEFAULT 14 I400ToARGBRow_Any_NEON
243:   FUNC GLOBAL DEFAULT 14 ARGBPolynomialRow_C
244:   FUNC GLOBAL DEFAULT 14 _ZN7android9ImageCopyEPhP
245:   FUNC GLOBAL DEFAULT 14 ScaleARGBRowDownEven_NEON
246:   FUNC GLOBAL DEFAULT 14 ScalePlane
247:   OBJECT GLOBAL DEFAULT 23 cpu_info_
248:   FUNC GLOBAL DEFAULT 14 ScaleARGBFilterCols_NEON
249:   FUNC GLOBAL DEFAULT 14 CopyRow_C
250:   FUNC GLOBAL DEFAULT 14 I422ToARGBRow_NEON
251:   FUNC GLOBAL DEFAULT 14 HalfFloatRow_Any_NEON
252:   FUNC GLOBAL DEFAULT 14 ScaleRowDown2_NEON
253:   FUNC GLOBAL DEFAULT 14 ScaleRowDown34_16_C
254:   FUNC GLOBAL DEFAULT 14 ARGB4444ToUVRow_C
255:   FUNC GLOBAL DEFAULT 14 I400Copy
256:   FUNC GLOBAL DEFAULT 14 ARGBToYJRow_Any_NEON
257:   FUNC GLOBAL DEFAULT 14 ScaleRowDown4_16_C
258:   FUNC GLOBAL DEFAULT 14 RGB565ToYRow_C
259:   FUNC GLOBAL DEFAULT 14 SobelRow_Any_NEON
260:   FUNC GLOBAL DEFAULT 14 ScaleAddRow_16_C
261:   FUNC GLOBAL DEFAULT 14 _ZN7android8C2Mapper3mapE
262:   FUNC GLOBAL DEFAULT 14 RAWToRGB24Row_C
263:   FUNC GLOBAL DEFAULT 14 YUY2ToI420
264:   FUNC GLOBAL DEFAULT 14 ARGB4444ToUVRow_NEON
265:   FUNC GLOBAL DEFAULT 14 I420ToI422
266:   FUNC GLOBAL DEFAULT 14 I422ToUYVYRow_C
267:   FUNC GLOBAL DEFAULT 14 I422AlphaToARGBRow_NEON
268:   FUNC GLOBAL DEFAULT 14 ScaleAddRow_C
269:   FUNC GLOBAL DEFAULT 14 YUY2ToI422
270:   FUNC GLOBAL DEFAULT 14 ARGBGrayRow_C
271:   FUNC GLOBAL DEFAULT 14 InterpolateRow_Any_NEON
272:   FUNC GLOBAL DEFAULT 14 ARGB4444ToYRow_C
273:   FUNC GLOBAL DEFAULT 14 I422ToARGB1555Row_Any_NEO
274:   FUNC GLOBAL DEFAULT 14 I422ToARGBRow_Any_NEON
275:   FUNC GLOBAL DEFAULT 14 ARGBGrayRow_NEON
276:   FUNC GLOBAL DEFAULT 14 ARGBLumaColorTableRow_C
277:   FUNC GLOBAL DEFAULT 14 YUY2ToUV422Row_C
278:   FUNC GLOBAL DEFAULT 14 ARGBInterpolate
279:   FUNC GLOBAL DEFAULT 14 ARGBExtractAlpha
280:   FUNC GLOBAL DEFAULT 14 UYVYToNV12
281:   FUNC GLOBAL DEFAULT 14 ARGBToUVRow_Any_NEON
282:   FUNC GLOBAL DEFAULT 14 I420ToRGB565Matrix
283:   FUNC GLOBAL DEFAULT 14 SobelToPlaneRow_Any_NEON
284:   FUNC GLOBAL DEFAULT 14 _ZN7android8C2Mapper3mapE
285:   FUNC GLOBAL DEFAULT 14 InitCpuFlags
286:   FUNC GLOBAL DEFAULT 14 I400ToI400
287:   FUNC GLOBAL DEFAULT 14 ARGBToARGB4444Row_C
288:   FUNC GLOBAL DEFAULT 14 ScaleRowDown34_C
289:   FUNC GLOBAL DEFAULT 14 ScaleRowDown34_1_Box_Any_
290:   FUNC GLOBAL DEFAULT 14 ARGBToYRow_C
291:   FUNC GLOBAL DEFAULT 14 I422ToARGB4444Row_Any_NEO
292:   FUNC GLOBAL DEFAULT 14 ARGB1555ToARGBRow_NEON
293:   FUNC GLOBAL DEFAULT 14 SplitUVRow_NEON
294:   FUNC GLOBAL DEFAULT 14 ARGBToRGB24Row_Any_NEON
295:   FUNC GLOBAL DEFAULT 14 ScaleFilterRows_NEON
296:   FUNC GLOBAL DEFAULT 14 UYVYToYRow_Any_NEON
297:   FUNC GLOBAL DEFAULT 14 RGB24ToI420
298:   FUNC GLOBAL DEFAULT 14 ARGB4444ToARGB
299:   FUNC GLOBAL DEFAULT 14 ARGBBlendRow_C
300:   FUNC GLOBAL DEFAULT 14 ScaleARGBRowDownEvenBox_A
301:   FUNC GLOBAL DEFAULT 14 NV21ToARGB
302:   FUNC GLOBAL DEFAULT 14 I422ToYUY2Row_NEON
303:   FUNC GLOBAL DEFAULT 14 RGB565ToARGBRow_Any_NEON
304:   FUNC GLOBAL DEFAULT 14 NV21ToARGBRow_C
305:   FUNC GLOBAL DEFAULT 14 ARGBMultiplyRow_C
306:   FUNC GLOBAL DEFAULT 14 I422ToI420
307:   FUNC GLOBAL DEFAULT 14 ARGBCopy
308:   FUNC GLOBAL DEFAULT 14 ARGB4444ToARGBRow_C
309:   FUNC GLOBAL DEFAULT 14 RGBColorMatrix
310:   FUNC GLOBAL DEFAULT 14 ARGBShadeRow_C
311:   FUNC GLOBAL DEFAULT 14 CumulativeSumToAverageRow
312:   FUNC GLOBAL DEFAULT 14 I420Interpolate
313:   FUNC GLOBAL DEFAULT 14 ScaleFilterCols_NEON
314:   FUNC GLOBAL DEFAULT 14 MirrorPlane
315:   FUNC GLOBAL DEFAULT 14 I444ToARGBRow_Any_NEON
316:   FUNC GLOBAL DEFAULT 14 RGBColorTableRow_C
317:   FUNC GLOBAL DEFAULT 14 ARGBToUV444Row_Any_NEON
318:   FUNC GLOBAL DEFAULT 14 ScaleRowDown38_2_Box_C
319:   FUNC GLOBAL DEFAULT 14 ScaleARGBRowDown2Linear_N
320:   FUNC GLOBAL DEFAULT 14 H420ToABGR
321:   FUNC GLOBAL DEFAULT 14 I422ToRGB565Row_Any_NEON
322:   FUNC GLOBAL DEFAULT 14 ARGBCopyAlphaRow_C
323:   FUNC GLOBAL DEFAULT 14 I400ToARGB
324:   FUNC GLOBAL DEFAULT 14 I422AlphaToARGBRow_C
325:   OBJECT GLOBAL DEFAULT 11 kYuvH709Constants
326:   FUNC GLOBAL DEFAULT 14 _ZN7android8C2Mapper3mapE
327:   FUNC GLOBAL DEFAULT 14 J444ToARGB
328:   FUNC GLOBAL DEFAULT 14 ARGBShuffleRow_Any_NEON
329:   FUNC GLOBAL DEFAULT 14 SobelYRow_NEON
330:   FUNC GLOBAL DEFAULT 14 InterpolateRow_16_C
331:   FUNC GLOBAL DEFAULT 14 ScaleARGBRowDown2Box_C
332:   FUNC GLOBAL DEFAULT 14 SobelXRow_NEON
333:   FUNC GLOBAL DEFAULT 14 ScalePlaneBilinearDown
334:   FUNC GLOBAL DEFAULT 14 ScaleRowDown38_2_Box_Any_
335:   FUNC GLOBAL DEFAULT 14 I420ToNV12
336:   FUNC GLOBAL DEFAULT 14 RGB24ToYRow_Any_NEON
337:   FUNC GLOBAL DEFAULT 14 ARGBBlur
338:   FUNC GLOBAL DEFAULT 14 ScaleRowDown4Box_C
339:   FUNC GLOBAL DEFAULT 14 ScaleARGBRowDown2Linear_C
340:   FUNC GLOBAL DEFAULT 14 RGB24ToYRow_NEON
341:   FUNC GLOBAL DEFAULT 14 HalfFloat1Row_Any_NEON
342:   FUNC GLOBAL DEFAULT 14 ScaleARGBRowDownEven_C
343:   FUNC GLOBAL DEFAULT 14 _ZN7android9ImageCopyER13
344:   FUNC GLOBAL DEFAULT 14 YUY2ToYRow_C
345:   FUNC GLOBAL DEFAULT 14 I422ToYUY2Row_C
346:   FUNC GLOBAL DEFAULT 14 YUY2ToNV12
347:   FUNC GLOBAL DEFAULT 14 ScaleFilterCols_C
348:   FUNC GLOBAL DEFAULT 14 I420ToRAW
349:   FUNC GLOBAL DEFAULT 14 ARGBColorMatrix
350:   FUNC GLOBAL DEFAULT 14 ARGBExtractAlphaRow_NEON
351:   FUNC GLOBAL DEFAULT 14 ScalePlaneVertical
352:   FUNC GLOBAL DEFAULT 14 RGBAToYRow_NEON
353:   FUNC GLOBAL DEFAULT 14 RGB24ToUVRow_Any_NEON
354:   FUNC GLOBAL DEFAULT 14 ARGBShuffle
355:   FUNC GLOBAL DEFAULT 14 RAWToARGBRow_Any_NEON
356:   FUNC GLOBAL DEFAULT 14 ARGBToUVJRow_NEON
357:   FUNC GLOBAL DEFAULT 14 ScaleCols_C
358:   FUNC GLOBAL DEFAULT 14 ScaleRowDown34_1_Box_C
359:   FUNC GLOBAL DEFAULT 14 YUY2ToUVRow_NEON
360:   OBJECT GLOBAL DEFAULT 11 kYuvJPEGConstants
361:   OBJECT GLOBAL DEFAULT 11 kYvuJPEGConstants
362:   FUNC GLOBAL DEFAULT 14 RAWToRGB24
363:   FUNC GLOBAL DEFAULT 14 ScaleRowDown34_1_Box_NEON
364:   FUNC GLOBAL DEFAULT 14 BGRAToARGB
365:   FUNC GLOBAL DEFAULT 14 ARGB1555ToUVRow_C
366:   FUNC GLOBAL DEFAULT 14 ARGBToUVJRow_C
367:   OBJECT GLOBAL DEFAULT 11 fixed_invtbl8
368:   FUNC GLOBAL DEFAULT 14 ABGRToYRow_NEON
369:   FUNC GLOBAL DEFAULT 14 H422ToABGR
370:   FUNC GLOBAL DEFAULT 14 ScaleRowDown2Box_Any_NEON
371:   FUNC GLOBAL DEFAULT 14 ARGBAttenuate
372:   FUNC GLOBAL DEFAULT 14 ScaleRowDown38_16_C
373:   OBJECT GLOBAL DEFAULT 19 _ZTVN7android11MemoryBloc
374:   FUNC GLOBAL DEFAULT 14 NV12ToRGB565Row_NEON
375:   FUNC GLOBAL DEFAULT 14 I444ToI420
376:   FUNC GLOBAL DEFAULT 14 ARGBToUVRow_NEON
377:   FUNC GLOBAL DEFAULT 14 RGB565ToUVRow_Any_NEON
378:   FUNC GLOBAL DEFAULT 14 I422ToRGBARow_NEON
379:   FUNC GLOBAL DEFAULT 14 CpuId
380:   FUNC GLOBAL DEFAULT 14 ScalePlaneBilinearUp_16
381:   FUNC GLOBAL DEFAULT 14 _ZN7android11MemoryBlockD
382:   FUNC GLOBAL DEFAULT 14 ABGRToUVRow_Any_NEON
383:   FUNC GLOBAL DEFAULT 14 RGB565ToARGB
384:   FUNC GLOBAL DEFAULT 14 ARGBRect
385:   FUNC GLOBAL DEFAULT 14 ARGBGrayTo
386:   FUNC GLOBAL DEFAULT 14 _ZN7android8C2Mapper3mapE
387:   FUNC GLOBAL DEFAULT 14 _ZN7android8C2Mapper3mapE
388:   FUNC GLOBAL DEFAULT 14 ARGBToABGR
389:   FUNC GLOBAL DEFAULT 14 CopyRow_16_C
390:   FUNC GLOBAL DEFAULT 14 NV12ToRGB565
391:   FUNC GLOBAL DEFAULT 14 I422ToRGB565Row_NEON
392:   FUNC GLOBAL DEFAULT 14 J400ToARGBRow_NEON
393:   FUNC GLOBAL DEFAULT 14 _ZN7android8IsYUV420ERK13
394:   FUNC GLOBAL DEFAULT 14 ARGBCopyAlpha
395:   FUNC GLOBAL DEFAULT 14 ARGBToUV444Row_NEON
396:   FUNC GLOBAL DEFAULT 14 _ZN7android11MemoryBlockC
397:   FUNC GLOBAL DEFAULT 14 Android420ToABGR
398:   FUNC GLOBAL DEFAULT 14 CanonicalFourCC
399:   FUNC GLOBAL DEFAULT 14 ScaleRowDown34_0_Box_16_C
400:   FUNC GLOBAL DEFAULT 14 H420ToARGB
401:   FUNC GLOBAL DEFAULT 14 ARGBSubtractRow_NEON
402:   FUNC GLOBAL DEFAULT 14 _ZN7android21ConvertRGBTo
403:   FUNC GLOBAL DEFAULT 14 RGBAToI420
404:   FUNC GLOBAL DEFAULT 14 ARGBToRGB565DitherRow_Any
405:   FUNC GLOBAL DEFAULT 14 SetRow_Any_NEON
406:   FUNC GLOBAL DEFAULT 14 ScaleRowDown38_3_Box_NEON
407:   FUNC GLOBAL DEFAULT 14 UYVYToUVRow_C
408:   FUNC GLOBAL DEFAULT 14 BGRAToUVRow_NEON
409:   FUNC GLOBAL DEFAULT 14 _ZN7android8C2Mapper3mapE
410:   FUNC GLOBAL DEFAULT 14 RGB24ToARGBRow_C
411:   FUNC GLOBAL DEFAULT 14 ARGBMultiplyRow_Any_NEON
412:   FUNC GLOBAL DEFAULT 14 _ZN7android15MemoryBlockP
413:   FUNC GLOBAL DEFAULT 14 ScaleRowDown2Linear_C
414:   FUNC GLOBAL DEFAULT 14 _ZN7android8C2Mapper3mapE
415:   FUNC GLOBAL DEFAULT 14 RGBAToYRow_C
416:   FUNC GLOBAL DEFAULT 14 RGB565ToARGBRow_C
417:   FUNC GLOBAL DEFAULT 14 NV12ToI420
418:   FUNC GLOBAL DEFAULT 14 _ZN7android8C2Mapper3mapE
419:   FUNC GLOBAL DEFAULT 14 M420ToI420
420:   FUNC GLOBAL DEFAULT 14 RGB565ToYRow_Any_NEON
421:   FUNC GLOBAL DEFAULT 14 ABGRToARGB
422:   FUNC GLOBAL DEFAULT 14 I422ToUYVYRow_Any_NEON
423:   FUNC GLOBAL DEFAULT 14 I420ToRGB24
424:   FUNC GLOBAL DEFAULT 14 UYVYToUV422Row_Any_NEON
425:   FUNC GLOBAL DEFAULT 14 RGBAToYRow_Any_NEON
426:   FUNC GLOBAL DEFAULT 14 YUY2ToARGBRow_C
427:   FUNC GLOBAL DEFAULT 14 RGBColorTable
428:   FUNC GLOBAL DEFAULT 14 ScalePlaneVertical_16
429:   FUNC GLOBAL DEFAULT 14 ARGBToARGB1555Row_C
430:   FUNC GLOBAL DEFAULT 14 RAWToUVRow_C
431:   FUNC GLOBAL DEFAULT 14 _ZN7android11MemoryBlockD
432:   FUNC GLOBAL DEFAULT 14 _ZN7android8C2Mapper21Get
433:   FUNC GLOBAL DEFAULT 14 ARGBAttenuateRow_Any_NEON
434:   FUNC GLOBAL DEFAULT 14 SobelXYRow_NEON
435:   FUNC GLOBAL DEFAULT 14 MirrorUVRow_NEON
436:   FUNC GLOBAL DEFAULT 14 I420Scale
437:   FUNC GLOBAL DEFAULT 14 ScaleRowDown4Box_16_C
438:   FUNC GLOBAL DEFAULT 14 SetPlane
439:   FUNC GLOBAL DEFAULT 14 ARGBColorMatrixRow_C
440:   FUNC GLOBAL DEFAULT 14 ARGBSobelToPlane
441:   FUNC GLOBAL DEFAULT 14 SobelXYRow_Any_NEON
442:   FUNC GLOBAL DEFAULT 14 ARGBToARGB4444Row_NEON
443:   FUNC GLOBAL DEFAULT 14 ScaleRowDown2Linear_NEON
444:   FUNC GLOBAL DEFAULT 14 ScaleRowDown38_2_Box_16_C
445:   FUNC GLOBAL DEFAULT 14 ScaleARGBCols_NEON
446:   FUNC GLOBAL DEFAULT 14 _ZN7android8C2Mapper3mapE
447:   FUNC GLOBAL DEFAULT 14 CopyRow_Any_NEON
448:   FUNC GLOBAL DEFAULT 14 H422ToARGB
449:   FUNC GLOBAL DEFAULT 14 YUY2ToUV422Row_Any_NEON
450:   FUNC GLOBAL DEFAULT 14 ARGBCopyYToAlpha
451:   FUNC GLOBAL DEFAULT 14 ScaleRowDown4Box_Any_NEON
452:   FUNC GLOBAL DEFAULT 14 _ZN7android6IsI420ERK13C2
453:   FUNC GLOBAL DEFAULT 14 _ZN7android6IsNV12EPKNS_1
454:   FUNC GLOBAL DEFAULT 14 BGRAToYRow_C
455:   FUNC GLOBAL DEFAULT 14 ARGBAddRow_NEON
456:   FUNC GLOBAL DEFAULT 14 YUY2ToYRow_Any_NEON
457:   FUNC GLOBAL DEFAULT 14 ARGB1555ToARGB
458:   FUNC GLOBAL DEFAULT 14 I420ToYUY2
459:   FUNC GLOBAL DEFAULT 14 RGB24ToUVRow_NEON
460:   FUNC GLOBAL DEFAULT 14 ConvertFromI420
461:   FUNC GLOBAL DEFAULT 14 I420Blend
462:   FUNC GLOBAL DEFAULT 14 ARGBSubtract
463:   FUNC GLOBAL DEFAULT 14 RAWToYRow_NEON
464:   FUNC GLOBAL DEFAULT 14 ARGB1555ToYRow_NEON
465:   FUNC GLOBAL DEFAULT 14 I420ToNV21
466:   FUNC GLOBAL DEFAULT 14 I422ToARGB4444Row_NEON
467:   FUNC GLOBAL DEFAULT 14 YUY2ToARGBRow_NEON
468:   FUNC GLOBAL DEFAULT 14 MirrorRow_C
469:   FUNC GLOBAL DEFAULT 14 I400Mirror
470:   FUNC GLOBAL DEFAULT 14 ARGBSubtractRow_Any_NEON
471:   FUNC GLOBAL DEFAULT 14 ARGBQuantizeRow_NEON
472:   FUNC GLOBAL DEFAULT 14 ScaleRowDown4_C
473:   FUNC GLOBAL DEFAULT 14 ScaleRowDown2_16_C
474:   FUNC GLOBAL DEFAULT 14 ScaleARGBRowDown2Box_NEON
475:   FUNC GLOBAL DEFAULT 14 _ZN7android11MemoryBlockC
476:   FUNC GLOBAL DEFAULT 14 RGBAToUVRow_NEON
477:   FUNC GLOBAL DEFAULT 14 RAWToRGB24Row_NEON
478:   FUNC GLOBAL DEFAULT 14 ScaleCols_16_C
479:   FUNC GLOBAL DEFAULT 14 _ZN7android15MemoryBlockP
480:   FUNC GLOBAL DEFAULT 14 UYVYToYRow_NEON
481:   FUNC GLOBAL DEFAULT 14 Android420ToARGB
482:   FUNC GLOBAL DEFAULT 14 SobelToPlaneRow_C
483:   FUNC GLOBAL DEFAULT 14 ARGB1555ToUVRow_NEON
484:   FUNC GLOBAL DEFAULT 14 ScaleRowDown2Box_Odd_C
485:   FUNC GLOBAL DEFAULT 14 InterpolatePlane
486:   FUNC GLOBAL DEFAULT 14 _ZN7android6IsI420EPKNS_1
487:   FUNC GLOBAL DEFAULT 14 I422ToUYVYRow_NEON
488:   FUNC GLOBAL DEFAULT 14 J420ToRGB565
489:   FUNC GLOBAL DEFAULT 14 YUY2ToARGBRow_Any_NEON
490:   OBJECT GLOBAL DEFAULT 11 kYvuI601Constants
491:   FUNC GLOBAL DEFAULT 14 ARGBSubtractRow_C
492:   FUNC GLOBAL DEFAULT 14 _ZN7android8C2Mapper3mapE
493:   FUNC GLOBAL DEFAULT 14 I422ToRGB24Row_C
494:   FUNC GLOBAL DEFAULT 14 ARGBMirrorRow_NEON
495:   FUNC GLOBAL DEFAULT 14 RAWToRGB24Row_Any_NEON
496:   FUNC GLOBAL DEFAULT 14 ARGBShadeRow_NEON
497:   FUNC GLOBAL DEFAULT 14 ARGBLumaColorTable
498:   FUNC GLOBAL DEFAULT 14 J422ToABGR
499:   FUNC GLOBAL DEFAULT 14 ARGBColorTableRow_C
500:   FUNC GLOBAL DEFAULT 14 ScalePlaneBilinearUp
501:   FUNC GLOBAL DEFAULT 14 _ZN7android29CreateYUV420
502:   FUNC GLOBAL DEFAULT 14 _ZN7android11MemoryBlockD
503:   FUNC GLOBAL DEFAULT 14 _ZN7android8C2Mapper3mapE
504:   FUNC GLOBAL DEFAULT 14 I420ToABGR
505:   FUNC GLOBAL DEFAULT 14 ScaleARGBRowDown2_C
506:   FUNC GLOBAL DEFAULT 14 ScaleARGBRowDownEvenBox_N
507:   FUNC GLOBAL DEFAULT 14 _ZN7android8C2Mapper3mapE
508:   FUNC GLOBAL DEFAULT 14 J400ToARGB
509:   FUNC GLOBAL DEFAULT 14 I422ToYUY2
510:   FUNC GLOBAL DEFAULT 14 I420ToRGB565
511:   FUNC GLOBAL DEFAULT 14 SobelToPlaneRow_NEON
512:   FUNC GLOBAL DEFAULT 14 RAWToARGB
513:   FUNC GLOBAL DEFAULT 14 ARGBColorMatrixRow_NEON
514:   FUNC GLOBAL DEFAULT 14 ScaleOffset
515:   FUNC GLOBAL DEFAULT 14 I420AlphaToABGR
516:   FUNC GLOBAL DEFAULT 14 UYVYToUV422Row_NEON
517:   FUNC GLOBAL DEFAULT 14 ARGBShuffleRow_NEON
518:   FUNC WEAK DEFAULT 14 _ZNSt3__124__put_characte
519:   FUNC GLOBAL DEFAULT 14 I422ToRGB565Row_C
520:   FUNC GLOBAL DEFAULT 14 ARGB1555ToARGBRow_Any_NEO
521:   FUNC GLOBAL DEFAULT 14 I422ToRGB24Row_Any_NEON
522:   FUNC GLOBAL DEFAULT 14 UYVYToUVRow_NEON
523:   FUNC GLOBAL DEFAULT 14 ARGB4444ToI420
524:   FUNC GLOBAL DEFAULT 14 UYVYToARGB
525:   FUNC GLOBAL DEFAULT 14 H420ToRGB565
526:   FUNC GLOBAL DEFAULT 14 Scale
527:   FUNC GLOBAL DEFAULT 14 NV21ToI420
528:   FUNC GLOBAL DEFAULT 14 UYVYToYRow_C
529:   FUNC GLOBAL DEFAULT 14 J400ToARGBRow_C
530:   FUNC GLOBAL DEFAULT 14 ARGBBlend
531:   FUNC GLOBAL DEFAULT 14 ARGBCopyYToAlphaRow_C
532:   FUNC GLOBAL DEFAULT 14 ARGBToARGB4444Row_Any_NEO
533:   FUNC GLOBAL DEFAULT 14 ScaleFilterCols_16_C
534:   FUNC GLOBAL DEFAULT 14 RAWToYRow_Any_NEON
535:   FUNC GLOBAL DEFAULT 14 I420ToI444
536:   FUNC GLOBAL DEFAULT 14 RAWToARGBRow_C
537:   FUNC GLOBAL DEFAULT 14 ARGB1555ToARGBRow_C
538:   FUNC GLOBAL DEFAULT 14 SobelRow_C
539:   FUNC GLOBAL DEFAULT 14 ScaleFilterCols64_C
540:   FUNC GLOBAL DEFAULT 14 ScaleRowDown34_Any_NEON
541:   FUNC GLOBAL DEFAULT 14 I422ToARGB4444Row_C
542:   FUNC GLOBAL DEFAULT 14 I420ToI400
543:   FUNC GLOBAL DEFAULT 14 ARGBToRGB565Row_NEON
544:   FUNC GLOBAL DEFAULT 14 ScaleARGBRowDownEvenBox_C
545:   FUNC GLOBAL DEFAULT 14 I422ToABGR
546:   FUNC GLOBAL DEFAULT 14 ScaleRowDown2Box_NEON
547:   FUNC GLOBAL DEFAULT 14 ARGBUnattenuateRow_C
548:   FUNC GLOBAL DEFAULT 14 I400ToI420
549:   FUNC GLOBAL DEFAULT 14 RGB24ToYRow_C
550:   FUNC GLOBAL DEFAULT 14 ScaleRowDown2Box_C
551:   FUNC GLOBAL DEFAULT 14 ARGBExtractAlphaRow_C
552:   FUNC GLOBAL DEFAULT 14 RGB565ToUVRow_NEON
553:   FUNC GLOBAL DEFAULT 14 ARGBSetRow_Any_NEON
554:   FUNC GLOBAL DEFAULT 14 SobelRow_NEON
555:   FUNC GLOBAL DEFAULT 14 ARGBToRGB24Row_C
556:   FUNC GLOBAL DEFAULT 14 ScaleColsUp2_C
557:   FUNC GLOBAL DEFAULT 14 ScalePlane_16
558:   FUNC GLOBAL DEFAULT 14 RGB565ToUVRow_C
559:   FUNC GLOBAL DEFAULT 14 SplitUVRow_Any_NEON
560:   FUNC GLOBAL DEFAULT 14 YUY2ToY
561:   FUNC GLOBAL DEFAULT 14 I420Scale_16
562:   FUNC GLOBAL DEFAULT 14 RAWToARGBRow_NEON
563:   FUNC GLOBAL DEFAULT 14 ARGBToRGB565Row_C
564:   FUNC GLOBAL DEFAULT 14 _ZN7android8C2Mapper3mapE
565:   FUNC GLOBAL DEFAULT 14 _ZN7android8C2Mapper3mapE
566:   FUNC GLOBAL DEFAULT 14 I422ToARGB1555Row_NEON
567:   FUNC GLOBAL DEFAULT 14 NV12ToARGBRow_NEON
568:   FUNC GLOBAL DEFAULT 14 ArmCpuCaps
569:   FUNC GLOBAL DEFAULT 14 HalfFloat1Row_NEON
570:   FUNC GLOBAL DEFAULT 14 ARGBToRAWRow_C
571:   FUNC GLOBAL DEFAULT 14 ScaleRowDown2Linear_Any_N
572:   FUNC GLOBAL DEFAULT 14 J422ToARGB
573:   FUNC GLOBAL DEFAULT 14 I422ToYUY2Row_Any_NEON
574:   FUNC GLOBAL DEFAULT 14 NV12ToRGB565Row_C
575:   FUNC GLOBAL DEFAULT 14 ScaleRowDown34_1_Box_16_C
576:   FUNC GLOBAL DEFAULT 14 ScaleARGBRowDown2_NEON
577:   FUNC GLOBAL DEFAULT 14 RAWToUVRow_Any_NEON
578:   FUNC GLOBAL DEFAULT 14 I420ToARGB
579:   FUNC GLOBAL DEFAULT 14 ScaleRowDown34_NEON
580:   FUNC GLOBAL DEFAULT 14 ScaleRowDown4_Any_NEON
581:   FUNC GLOBAL DEFAULT 14 ARGBMultiplyRow_NEON
582:   FUNC GLOBAL DEFAULT 14 ScaleRowDown4_NEON
583:   FUNC GLOBAL DEFAULT 14 I420Copy
584:   FUNC GLOBAL DEFAULT 14 BGRAToI420
585:   FUNC GLOBAL DEFAULT 14 YUY2ToARGB
586:   FUNC GLOBAL DEFAULT 14 I420ToRGBA
587:   FUNC GLOBAL DEFAULT 14 HalfFloatRow_NEON
588:   FUNC GLOBAL DEFAULT 14 ScaleFilterReduce
589:   FUNC GLOBAL DEFAULT 14 ScaleRowDown2_C
590:   FUNC GLOBAL DEFAULT 14 _ZN7android8C2Mapper3mapE
591:   FUNC GLOBAL DEFAULT 14 ARGBToBGRA
592:   FUNC GLOBAL DEFAULT 14 MergeUVPlane
593:   FUNC GLOBAL DEFAULT 14 ARGBShade
594:   FUNC GLOBAL DEFAULT 14 HalfFloatPlane
595:   FUNC GLOBAL DEFAULT 14 I420AlphaToARGB
596:   FUNC GLOBAL DEFAULT 14 SetRow_C
597:   FUNC GLOBAL DEFAULT 14 ScaleRowDown38_C
598:   FUNC GLOBAL DEFAULT 14 ScaleARGBFilterCols_Any_N
599:   FUNC GLOBAL DEFAULT 14 ScaleARGBFilterCols64_C
600:   FUNC GLOBAL DEFAULT 14 ARGBBlendRow_NEON
601:   FUNC GLOBAL DEFAULT 14 ScaleRowDown34_0_Box_C
602:   FUNC GLOBAL DEFAULT 14 ScaleARGBRowDown2_Any_NEO
603:   FUNC GLOBAL DEFAULT 14 _ZN7android8C2Mapper3mapE
604:   FUNC GLOBAL DEFAULT 14 RGB565ToI420
605:   FUNC GLOBAL DEFAULT 14 ARGBMirror
606:   FUNC GLOBAL DEFAULT 14 _ZN7android6IsNV12ERK13C2
607:   FUNC GLOBAL DEFAULT 14 ARGB1555ToYRow_C
