 0x0000000e (SONAME)                     Library soname: [libopenjdkjvm.so]
  
Symbol   contains 152 entries:
Num:   Type Bind Vis Ndx Name
0:   NOTYPE LOCAL DEFAULT UND
1:   FUNC GLOBAL DEFAULT UND __cxa_finalize@LIBC (2)
2:   FUNC GLOBAL DEFAULT UND _ZN3art10ThreadList19Susp
3:   FUNC GLOBAL DEFAULT UND _ZN3art10ThreadList6Resum
4:   FUNC GLOBAL DEFAULT UND _ZN3art17ConditionVariabl
5:   FUNC GLOBAL DEFAULT UND _ZN3art22IndirectReferenc
6:   FUNC GLOBAL DEFAULT UND _ZN3art25ThrowNullPointer
7:   FUNC GLOBAL DEFAULT UND _ZN3art2gc4Heap14CollectG
8:   OBJECT GLOBAL DEFAULT UND _ZN3art5Locks13mutator_lo
9:   OBJECT GLOBAL DEFAULT UND _ZN3art5Locks17thread_lis
10:   OBJECT GLOBAL DEFAULT UND _ZN3art5Locks26thread_sus
11:   FUNC GLOBAL DEFAULT UND _ZN3art5Mutex13ExclusiveL
12:   FUNC GLOBAL DEFAULT UND _ZN3art5Mutex15ExclusiveU
13:   FUNC GLOBAL DEFAULT UND _ZN3art6Thread11Interrupt
14:   OBJECT GLOBAL DEFAULT UND _ZN3art6Thread11is_starte
15:   OBJECT GLOBAL DEFAULT UND _ZN3art6Thread12resume_co
16:   FUNC GLOBAL DEFAULT UND _ZN3art6Thread13IsInterru
17:   FUNC GLOBAL DEFAULT UND _ZN3art6Thread13SetThread
18:   FUNC GLOBAL DEFAULT UND _ZN3art6Thread15GetFlipFu
19:   FUNC GLOBAL DEFAULT UND _ZN3art6Thread17FromManag
20:   FUNC GLOBAL DEFAULT UND _ZN3art6Thread17SetNative
21:   FUNC GLOBAL DEFAULT UND _ZN3art6Thread18CreateNat
22:   FUNC GLOBAL DEFAULT UND _ZN3art6Thread18RunEmptyC
23:   FUNC GLOBAL DEFAULT UND _ZN3art6Thread21RunCheckp
24:   FUNC GLOBAL DEFAULT UND _ZN3art6Thread25PassActiv
25:   FUNC GLOBAL DEFAULT UND _ZN3art6Thread9InterruptE
26:   FUNC GLOBAL DEFAULT UND _ZN3art6mirror6String6Int
27:   FUNC GLOBAL DEFAULT UND _ZN3art7Monitor4WaitEPNS_
28:   FUNC GLOBAL DEFAULT UND _ZN3art7Runtime12CallExit
29:   FUNC GLOBAL DEFAULT UND _ZN3art7Runtime14IsShutti
30:   OBJECT GLOBAL DEFAULT UND _ZN3art7Runtime9instance_
31:   FUNC GLOBAL DEFAULT UND _ZN3art9JavaVMExt17LoadNa
32:   FUNC GLOBAL DEFAULT UND _ZN3artlsERNSt3__113basic
33:   FUNC GLOBAL DEFAULT UND _ZN7android4base10LogMess
34:   FUNC GLOBAL DEFAULT UND _ZN7android4base10LogMess
35:   FUNC GLOBAL DEFAULT UND _ZN7android4base10LogMess
36:   FUNC GLOBAL DEFAULT UND _ZN7android4base21GetMini
37:   FUNC GLOBAL DEFAULT UND _ZNK3art2gc4Heap14GetTota
38:   FUNC GLOBAL DEFAULT UND _ZNK3art6Thread13DecodeJO
39:   FUNC GLOBAL DEFAULT UND _ZNK3art6Thread9HoldsLock
40:   FUNC GLOBAL DEFAULT UND _ZNKSt3__121__basic_strin
41:   FUNC GLOBAL DEFAULT UND _ZNKSt3__16locale9use_fac
42:   FUNC GLOBAL DEFAULT UND _ZNKSt3__18ios_base6getlo
43:   FUNC GLOBAL DEFAULT UND _ZNSt3__113basic_ostreamI
44:   FUNC GLOBAL DEFAULT UND _ZNSt3__113basic_ostreamI
45:   FUNC GLOBAL DEFAULT UND _ZNSt3__113basic_ostreamI
46:   FUNC GLOBAL DEFAULT UND _ZNSt3__113basic_ostreamI
47:   OBJECT GLOBAL DEFAULT UND _ZNSt3__15ctypeIcE2idE
48:   FUNC GLOBAL DEFAULT UND _ZNSt3__16localeD1Ev
49:   FUNC GLOBAL DEFAULT UND _ZNSt3__18ios_base5clearE
50:   FUNC GLOBAL DEFAULT UND _ZdlPv
51:   FUNC GLOBAL DEFAULT UND _Znwj
52:   FUNC GLOBAL DEFAULT UND __errno@LIBC (2)
53:   FUNC GLOBAL DEFAULT UND __gnu_strerror_r@LIBC (2)
54:   FUNC GLOBAL DEFAULT UND __stack_chk_fail@LIBC (2)
55:   OBJECT GLOBAL DEFAULT UND __stack_chk_guard@LIBC (2)
56:   FUNC GLOBAL DEFAULT UND __vsnprintf_chk@LIBC (2)
57:   FUNC GLOBAL DEFAULT UND close@LIBC (2)
58:   FUNC GLOBAL DEFAULT UND connect@LIBC (2)
59:   FUNC GLOBAL DEFAULT UND dlsym@LIBC (3)
60:   FUNC GLOBAL DEFAULT UND exit@LIBC (2)
61:   FUNC GLOBAL DEFAULT UND free@LIBC (2)
62:   FUNC GLOBAL DEFAULT UND fsync@LIBC (2)
63:   FUNC GLOBAL DEFAULT UND gethostname@LIBC (2)
64:   FUNC GLOBAL DEFAULT UND getsockname@LIBC (2)
65:   FUNC GLOBAL DEFAULT UND getsockopt@LIBC (2)
66:   FUNC GLOBAL DEFAULT UND gettimeofday@LIBC (2)
67:   FUNC GLOBAL DEFAULT UND ioctl@LIBC (2)
68:   FUNC GLOBAL DEFAULT UND listen@LIBC (2)
69:   FUNC GLOBAL DEFAULT UND lseek64@LIBC (2)
70:   FUNC GLOBAL DEFAULT UND malloc@LIBC (2)
71:   FUNC GLOBAL DEFAULT UND open@LIBC (2)
72:   FUNC GLOBAL DEFAULT UND pthread_mutex_destroy@LIBC (2)
73:   FUNC GLOBAL DEFAULT UND pthread_mutex_init@LIBC (2)
74:   FUNC GLOBAL DEFAULT UND pthread_mutex_lock@LIBC (2)
75:   FUNC GLOBAL DEFAULT UND pthread_mutex_unlock@LIBC (2)
76:   FUNC GLOBAL DEFAULT UND read@LIBC (2)
77:   FUNC GLOBAL DEFAULT UND sched_yield@LIBC (2)
78:   FUNC GLOBAL DEFAULT UND sendto@LIBC (2)
79:   FUNC GLOBAL DEFAULT UND setsockopt@LIBC (2)
80:   FUNC GLOBAL DEFAULT UND shutdown@LIBC (2)
81:   FUNC GLOBAL DEFAULT UND socket@LIBC (2)
82:   FUNC GLOBAL DEFAULT UND strlen@LIBC (2)
83:   FUNC GLOBAL DEFAULT UND strncpy@LIBC (2)
84:   FUNC GLOBAL DEFAULT UND vfprintf@LIBC (2)
85:   FUNC GLOBAL DEFAULT UND write@LIBC (2)
86:   FUNC GLOBAL DEFAULT UND memcpy@LIBC (2)
87:   FUNC GLOBAL DEFAULT UND memset@LIBC (2)
88:   FUNC GLOBAL DEFAULT 14 JVM_FindSignal
89:   FUNC GLOBAL DEFAULT 14 JVM_GetHostName
90:   FUNC GLOBAL DEFAULT 14 JVM_Listen
91:   FUNC GLOBAL DEFAULT 14 JVM_MaxMemory
92:   FUNC GLOBAL DEFAULT 14 JVM_SetSockOpt
93:   FUNC GLOBAL DEFAULT 14 JVM_SocketClose
94:   FUNC GLOBAL PROTECTED 14 jio_vsnprintf
95:   FUNC GLOBAL DEFAULT 14 JVM_InitializeSocketLibra
96:   FUNC GLOBAL DEFAULT 14 JVM_RawMonitorEnter
97:   FUNC GLOBAL DEFAULT 14 JVM_GetSockName
98:   FUNC GLOBAL DEFAULT 14 JVM_IsInterrupted
99:   FUNC GLOBAL DEFAULT 14 JVM_Open
100:   FUNC GLOBAL DEFAULT 14 JVM_RaiseSignal
101:   FUNC GLOBAL DEFAULT 14 __aeabi_memcpy4
102:   FUNC GLOBAL DEFAULT 14 __aeabi_memset4
103:   FUNC GLOBAL DEFAULT 14 JVM_GetSockOpt
104:   FUNC GLOBAL DEFAULT 14 JVM_HoldsLock
105:   FUNC GLOBAL DEFAULT 14 JVM_RegisterSignal
106:   FUNC GLOBAL DEFAULT 14 __aeabi_memclr
107:   FUNC GLOBAL DEFAULT 14 JVM_Lseek
108:   FUNC GLOBAL DEFAULT 14 JVM_NativePath
109:   FUNC GLOBAL DEFAULT 14 jio_vfprintf
110:   FUNC GLOBAL DEFAULT 14 JVM_GetLastErrorString
111:   FUNC GLOBAL DEFAULT 14 JVM_SocketShutdown
112:   FUNC GLOBAL DEFAULT 14 JVM_Close
113:   FUNC GLOBAL DEFAULT 14 JVM_RawMonitorCreate
114:   FUNC GLOBAL DEFAULT 14 JVM_SetThreadPriority
115:   FUNC GLOBAL DEFAULT 14 JVM_StartThread
116:   FUNC WEAK PROTECTED 14 _ZNSt3__124__put_characte
117:   FUNC GLOBAL DEFAULT 14 __aeabi_memcpy8
118:   FUNC GLOBAL DEFAULT 14 __aeabi_memset8
119:   FUNC GLOBAL DEFAULT 14 JVM_InternString
120:   FUNC GLOBAL DEFAULT 14 JVM_NativeLoad
121:   FUNC GLOBAL DEFAULT 14 JVM_Yield
122:   FUNC GLOBAL DEFAULT 14 __aeabi_memclr4
123:   FUNC GLOBAL DEFAULT 14 JVM_FindLibraryEntry
124:   FUNC GLOBAL DEFAULT 14 JVM_IHashCode
125:   FUNC GLOBAL DEFAULT 14 JVM_Halt
126:   FUNC GLOBAL DEFAULT 14 JVM_IsNaN
127:   FUNC GLOBAL DEFAULT 14 JVM_Sleep
128:   FUNC GLOBAL DEFAULT 14 JVM_Socket
129:   FUNC GLOBAL PROTECTED 14 jio_snprintf
130:   FUNC GLOBAL DEFAULT 14 JVM_ArrayCopy
131:   FUNC GLOBAL DEFAULT 14 JVM_Connect
132:   FUNC GLOBAL DEFAULT 14 JVM_Exit
133:   FUNC GLOBAL DEFAULT 14 JVM_GC
134:   FUNC GLOBAL DEFAULT 14 JVM_Send
135:   FUNC GLOBAL DEFAULT 14 JVM_SocketAvailable
136:   FUNC GLOBAL DEFAULT 14 JVM_CurrentThread
137:   FUNC GLOBAL DEFAULT 14 JVM_FreeMemory
138:   FUNC GLOBAL DEFAULT 14 JVM_NanoTime
139:   FUNC GLOBAL DEFAULT 14 JVM_Write
140:   FUNC GLOBAL DEFAULT 14 __aeabi_memclr8
141:   FUNC GLOBAL DEFAULT 14 JVM_CurrentTimeMillis
142:   FUNC GLOBAL DEFAULT 14 JVM_RawMonitorDestroy
143:   FUNC GLOBAL DEFAULT 14 JVM_RawMonitorExit
144:   FUNC GLOBAL DEFAULT 14 JVM_Read
145:   FUNC GLOBAL DEFAULT 14 JVM_SetNativeThreadName
146:   FUNC GLOBAL DEFAULT 14 JVM_Interrupt
147:   FUNC GLOBAL DEFAULT 14 JVM_Sync
148:   FUNC GLOBAL DEFAULT 14 JVM_TotalMemory
149:   FUNC GLOBAL DEFAULT 14 __aeabi_memcpy
150:   FUNC GLOBAL DEFAULT 14 __aeabi_memset
151:   FUNC GLOBAL DEFAULT 14 jio_fprintf
