 0x0000000e (SONAME)                     Library soname: [libkeymaster_messages.so]
  
Symbol   contains 307 entries:
Num:   Type Bind Vis Ndx Name
0:   NOTYPE LOCAL DEFAULT UND
1:   FUNC GLOBAL DEFAULT UND __cxa_finalize@LIBC (2)
2:   FUNC GLOBAL DEFAULT UND __memset_chk@LIBC (2)
3:   FUNC GLOBAL DEFAULT UND __stack_chk_fail@LIBC (2)
4:   OBJECT GLOBAL DEFAULT UND __stack_chk_guard@LIBC (2)
5:   FUNC GLOBAL DEFAULT UND malloc@LIBC (2)
6:   FUNC GLOBAL DEFAULT UND memcmp@LIBC (2)
7:   FUNC GLOBAL DEFAULT UND qsort@LIBC (2)
8:   FUNC GLOBAL DEFAULT UND abort@LIBC (2)
9:   FUNC GLOBAL DEFAULT UND free@LIBC (2)
10:   FUNC GLOBAL DEFAULT UND memcpy@LIBC (2)
11:   FUNC GLOBAL DEFAULT UND memmove@LIBC (2)
12:   FUNC GLOBAL DEFAULT UND memset@LIBC (2)
13:   FUNC WEAK DEFAULT UND __gnu_Unwind_Find_exidx@LIBC_N (3)
14:   NOTYPE WEAK DEFAULT UND __cxa_begin_cleanup
15:   NOTYPE WEAK DEFAULT UND __cxa_type_match
16:   NOTYPE WEAK DEFAULT UND __cxa_call_unexpected
17:   FUNC GLOBAL DEFAULT 14 _ZNK9keymaster16Authoriza
18:   OBJECT GLOBAL DEFAULT 18 _ZTVN9keymaster29GetKeyCh
19:   OBJECT GLOBAL DEFAULT 22 _ZN9keymaster18TAG_MIN_MA
20:   FUNC GLOBAL DEFAULT 14 _ZN9keymaster26HmacSharin
21:   FUNC GLOBAL DEFAULT 14 _ZN9keymaster28GetKeyChar
22:   FUNC GLOBAL DEFAULT 14 _ZNK9keymaster18UpgradeKe
23:   FUNC GLOBAL DEFAULT 14 _ZN9keymaster16EcCurveToK
24:   FUNC GLOBAL DEFAULT 14 _ZN9keymaster16Authorizat
25:   OBJECT GLOBAL DEFAULT 22 _ZN9keymaster20TAG_APPLIC
26:   FUNC GLOBAL DEFAULT 14 _ZN9keymaster22UpdateOper
27:   FUNC GLOBAL DEFAULT 14 __aeabi_memmove8
28:   FUNC GLOBAL DEFAULT 14 _ZN9keymaster13copy_from_
29:   OBJECT GLOBAL DEFAULT 18 _ZTVN9keymaster17UpgradeK
30:   FUNC GLOBAL DEFAULT 14 _ZN9keymaster16Authorizat
31:   FUNC GLOBAL DEFAULT 14 _ZNK9keymaster16Authoriza
32:   FUNC GLOBAL DEFAULT 14 _ZN9keymaster17UpgradeKey
33:   FUNC GLOBAL DEFAULT 14 _ZN9keymaster23FinishOper
34:   FUNC GLOBAL DEFAULT 14 _ZN9keymaster23ImportWrap
35:   FUNC GLOBAL DEFAULT 14 _ZNK9keymaster16AttestKey
36:   OBJECT GLOBAL DEFAULT 18 _ZTVN9keymaster17ImportKe
37:   OBJECT GLOBAL DEFAULT 22 _ZN9keymaster19TAG_ACTIVE
38:   OBJECT GLOBAL DEFAULT 22 _ZN9keymaster25TAG_ATTEST
39:   OBJECT GLOBAL DEFAULT 22 _ZN9keymaster30TAG_ATTEST
40:   FUNC GLOBAL DEFAULT 14 _ZN9keymaster16ImportKeyR
41:   FUNC GLOBAL DEFAULT 14 _ZN9keymaster17KeymasterR
42:   FUNC GLOBAL DEFAULT 14 _ZNK9keymaster25ComputeSh
43:   OBJECT GLOBAL DEFAULT 18 _ZTVN9keymaster16DeleteKe
44:   OBJECT GLOBAL DEFAULT 18 _ZTVN9keymaster21HmacShar
45:   FUNC GLOBAL DEFAULT 14 _ZN9keymaster16Authorizat
46:   FUNC GLOBAL DEFAULT 14 _ZNK9keymaster16Authoriza
47:   FUNC GLOBAL DEFAULT 14 _ZN9keymaster27copy_size_
48:   FUNC GLOBAL DEFAULT 14 _ZNK9keymaster16Authoriza
49:   OBJECT GLOBAL DEFAULT 22 _ZN9keymaster14TAG_OS_VER
50:   OBJECT GLOBAL DEFAULT 22 _ZN9keymaster23TAG_ATTEST
51:   OBJECT GLOBAL DEFAULT 22 _ZN9keymaster9TAG_NONCEE
52:   FUNC GLOBAL DEFAULT 14 _ZN9keymaster18UpgradeKey
53:   FUNC GLOBAL DEFAULT 14 _ZN9keymaster22BeginOpera
54:   FUNC GLOBAL DEFAULT 14 _ZNK9keymaster17AttestKey
55:   FUNC GLOBAL DEFAULT 14 _ZN9keymaster16Authorizat
56:   FUNC GLOBAL DEFAULT 14 _ZN9keymaster17ExportKeyR
57:   FUNC GLOBAL DEFAULT 14 _ZNK9keymaster17Verificat
58:   FUNC GLOBAL DEFAULT 14 _ZN9keymaster16Authorizat
59:   FUNC GLOBAL DEFAULT 14 _ZN9keymaster28GetKeyChar
60:   FUNC GLOBAL DEFAULT 14 _ZNK9keymaster16ExportKey
61:   FUNC GLOBAL DEFAULT 14 _ZNK9keymaster17AddEntrop
62:   FUNC GLOBAL DEFAULT 14 _ZNK9keymaster22BeginOper
63:   OBJECT GLOBAL DEFAULT 18 _ZTVN9keymaster23UpdateOp
64:   OBJECT GLOBAL DEFAULT 18 _ZTVN9keymaster6BufferE
65:   OBJECT GLOBAL DEFAULT 22 _ZN9keymaster13TAG_UNIQUE
66:   OBJECT GLOBAL DEFAULT 22 _ZN9keymaster14TAG_AUTH_T
67:   FUNC GLOBAL DEFAULT 14 _ZN9keymaster6Logger3LogE
68:   FUNC GLOBAL DEFAULT 14 _ZNK9keymaster6Buffer15av
69:   FUNC GLOBAL DEFAULT 14 _ZNK9keymaster17Keymaster
70:   FUNC GLOBAL DEFAULT 14 _ZN9keymaster16Authorizat
71:   FUNC GLOBAL DEFAULT 14 _ZN9keymaster17AttestKeyR
72:   FUNC GLOBAL DEFAULT 14 _ZNK9keymaster23ImportWra
73:   OBJECT GLOBAL DEFAULT 22 _ZN9keymaster10TAG_ORIGIN
74:   OBJECT GLOBAL DEFAULT 22 _ZN9keymaster17TAG_OS_PAT
75:   FUNC GLOBAL DEFAULT 14 __aeabi_memcpy4
76:   FUNC GLOBAL DEFAULT 14 _ZN9keymaster16ExportKeyR
77:   FUNC WEAK DEFAULT 14 _ZdlPv
78:   FUNC GLOBAL DEFAULT 14 _ZN9keymaster6Logger5Erro
79:   OBJECT GLOBAL DEFAULT 22 _ZN9keymaster24TAG_ATTEST
80:   FUNC GLOBAL DEFAULT 14 _ZN9keymaster10dup_buffer
81:   FUNC GLOBAL DEFAULT 14 _ZN9keymaster17UpgradeKey
82:   FUNC GLOBAL DEFAULT 14 _ZNK9keymaster17ImportKey
83:   FUNC GLOBAL DEFAULT 14 _ZNK9keymaster19GenerateK
84:   FUNC GLOBAL DEFAULT 14 _ZNK9keymaster22UpdateOpe
85:   OBJECT WEAK DEFAULT 13 _ZSt7nothrow
86:   FUNC GLOBAL DEFAULT 14 _ZN9keymaster16Authorizat
87:   OBJECT GLOBAL DEFAULT 22 _ZN9keymaster19TAG_ASSOCI
88:   FUNC GLOBAL DEFAULT 14 _ZN9keymaster23ImportWrap
89:   FUNC GLOBAL DEFAULT 14 _ZNK9keymaster24ImportWra
90:   OBJECT GLOBAL DEFAULT 22 _ZN9keymaster16TAG_CALLER
91:   FUNC GLOBAL DEFAULT 14 _ZN9keymaster16Authorizat
92:   FUNC GLOBAL DEFAULT 14 _ZNK9keymaster16Authoriza
93:   FUNC GLOBAL DEFAULT 14 __aeabi_memcpy8
94:   FUNC GLOBAL DEFAULT 14 _ZNK9keymaster23FinishOpe
95:   OBJECT GLOBAL DEFAULT 22 _ZN9keymaster11empty_para
96:   OBJECT GLOBAL DEFAULT 22 _ZN9keymaster13TAG_ALL_US
97:   OBJECT GLOBAL DEFAULT 18 _ZTVN9keymaster28GetKeyCh
98:   FUNC GLOBAL DEFAULT 14 _ZN9keymaster28GetKeyChar
99:   FUNC GLOBAL DEFAULT 14 _ZNK9keymaster16DeleteKey
100:   OBJECT GLOBAL DEFAULT 18 _ZTVN9keymaster17Hardware
101:   OBJECT GLOBAL DEFAULT 18 _ZTVN9keymaster22BeginOpe
102:   OBJECT GLOBAL DEFAULT 22 _ZN9keymaster24TAG_ATTEST
103:   FUNC GLOBAL DEFAULT 14 _ZN9keymaster21BeginOpera
104:   FUNC GLOBAL DEFAULT 14 _ZNK9keymaster17ImportKey
105:   OBJECT GLOBAL DEFAULT 22 _ZN9keymaster33TAG_TRUSTE
106:   OBJECT GLOBAL DEFAULT 18 _ZTVN9keymaster16ExportKe
107:   FUNC GLOBAL DEFAULT 14 _ZNK9keymaster22FinishOpe
108:   FUNC GLOBAL DEFAULT 14 _ZN9keymaster17AttestKeyR
109:   FUNC GLOBAL DEFAULT 14 _ZNK9keymaster17UpgradeKe
110:   FUNC GLOBAL DEFAULT 14 _ZNK9keymaster28GetKeyCha
111:   OBJECT GLOBAL DEFAULT 18 _ZTVN9keymaster23ImportWr
112:   FUNC GLOBAL DEFAULT 14 _ZN9keymaster16DeleteKeyR
113:   FUNC GLOBAL DEFAULT 14 _ZNK9keymaster22UpdateOpe
114:   FUNC GLOBAL DEFAULT 14 _ZNK9keymaster29GetKeyCha
115:   FUNC GLOBAL DEFAULT 14 _ZN9keymaster16Authorizat
116:   FUNC GLOBAL DEFAULT 14 _ZN9keymaster16AttestKeyR
117:   FUNC GLOBAL DEFAULT 14 _ZN9keymaster16Authorizat
118:   OBJECT GLOBAL DEFAULT 22 _ZN9keymaster14TAG_MAC_LE
119:   FUNC GLOBAL DEFAULT 14 _ZN9keymaster6Logger5Debu
120:   FUNC GLOBAL DEFAULT 14 _ZN9keymaster6Buffer4read
121:   FUNC GLOBAL DEFAULT 14 _ZN9keymaster6Buffer5Clea
122:   FUNC GLOBAL DEFAULT 14 _ZNK9keymaster16Authoriza
123:   FUNC GLOBAL DEFAULT 14 _ZNK9keymaster23UpdateOpe
124:   OBJECT GLOBAL DEFAULT 18 _ZTVN9keymaster18UpgradeK
125:   FUNC GLOBAL DEFAULT 14 _ZN9keymaster16Authorizat
126:   FUNC GLOBAL DEFAULT 14 _ZN9keymaster28GetKeyChar
127:   FUNC GLOBAL DEFAULT 14 _ZNK9keymaster16Authoriza
128:   FUNC GLOBAL DEFAULT 14 _ZN9keymaster18GetVersion
129:   FUNC GLOBAL DEFAULT 14 _ZNK9keymaster17ExportKey
130:   FUNC GLOBAL DEFAULT 14 _ZNK9keymaster6Buffer14Se
131:   OBJECT GLOBAL DEFAULT 22 _ZN9keymaster18TAG_USER_S
132:   FUNC GLOBAL DEFAULT 14 _ZN9keymaster17ExportKeyR
133:   FUNC GLOBAL DEFAULT 14 _ZN9keymaster17UpgradeKey
134:   FUNC GLOBAL DEFAULT 14 _ZN9keymaster17Verificati
135:   OBJECT GLOBAL DEFAULT 22 _ZN9keymaster15TAG_PADDIN
136:   FUNC GLOBAL DEFAULT 14 _ZN9keymaster19GenerateKe
137:   FUNC GLOBAL DEFAULT 14 _ZNK9keymaster18GetVersio
138:   OBJECT GLOBAL DEFAULT 18 _ZTVN9keymaster19Generate
139:   FUNC GLOBAL DEFAULT 14 _ZN9keymaster12StringifyT
140:   OBJECT GLOBAL DEFAULT 22 _ZN9keymaster31TAG_ATTEST
141:   FUNC GLOBAL DEFAULT 14 _ZN9keymaster13append_to_
142:   FUNC GLOBAL DEFAULT 14 _ZN9keymaster17AttestKeyR
143:   FUNC GLOBAL DEFAULT 14 _ZN9keymaster23ImportWrap
144:   FUNC WEAK DEFAULT 14 _ZnajRKSt9nothrow_t
145:   FUNC WEAK DEFAULT 14 __cxa_pure_virtual
146:   FUNC GLOBAL DEFAULT 14 __aeabi_memclr4
147:   FUNC GLOBAL DEFAULT 14 _ZN9keymaster16EcKeySizeT
148:   OBJECT GLOBAL DEFAULT 22 _ZN9keymaster12TAG_EC_CUR
149:   FUNC GLOBAL DEFAULT 14 _ZNK9keymaster16AttestKey
150:   FUNC GLOBAL DEFAULT 14 _ZNK9keymaster21HmacShari
151:   OBJECT GLOBAL DEFAULT 22 _ZN9keymaster6Logger9inst
152:   FUNC GLOBAL DEFAULT 14 _ZN9keymaster19GenerateKe
153:   FUNC GLOBAL DEFAULT 14 _ZN9keymaster28GetKeyChar
154:   FUNC GLOBAL DEFAULT 14 _ZNK9keymaster22BeginOper
155:   FUNC GLOBAL DEFAULT 14 _ZNK9keymaster22FinishOpe
156:   FUNC GLOBAL DEFAULT 14 _ZNK9keymaster25ComputeSh
157:   OBJECT GLOBAL DEFAULT 18 _ZTVN9keymaster17ExportKe
158:   OBJECT GLOBAL DEFAULT 22 _ZN9keymaster21TAG_INCLUD
159:   OBJECT GLOBAL DEFAULT 22 _ZN9keymaster21TAG_MAX_US
160:   FUNC GLOBAL DEFAULT 14 __aeabi_memset4
161:   OBJECT GLOBAL DEFAULT 22 _ZN9keymaster18TAG_USER_A
162:   OBJECT GLOBAL DEFAULT 22 _ZN9keymaster22TAG_ROLLBA
163:   FUNC GLOBAL DEFAULT 14 __aeabi_memclr8
164:   FUNC GLOBAL DEFAULT 14 _ZN9keymaster21HmacSharin
165:   FUNC GLOBAL DEFAULT 14 _ZN9keymaster16Authorizat
166:   FUNC GLOBAL DEFAULT 14 _ZNK9keymaster16Authoriza
167:   OBJECT GLOBAL DEFAULT 22 _ZN9keymaster14TAG_DIGEST
168:   FUNC GLOBAL DEFAULT 14 _ZN9keymaster6Logger4Info
169:   FUNC GLOBAL DEFAULT 14 _ZN9keymaster6Logger6Seve
170:   FUNC GLOBAL DEFAULT 14 _ZN9keymaster6Buffer12Rei
171:   FUNC GLOBAL DEFAULT 14 _ZNK9keymaster6Buffer9Ser
172:   FUNC GLOBAL DEFAULT 14 _ZN9keymaster8memcmp_sEPK
173:   FUNC GLOBAL DEFAULT 14 _ZN9keymaster16AttestKeyR
174:   FUNC GLOBAL DEFAULT 14 _ZN9keymaster16ImportKeyR
175:   FUNC GLOBAL DEFAULT 14 _ZN9keymaster19GenerateKe
176:   FUNC GLOBAL DEFAULT 14 _ZN9keymaster24ImportWrap
177:   FUNC GLOBAL DEFAULT 14 _ZNK9keymaster17AddEntrop
178:   FUNC GLOBAL DEFAULT 14 _ZNK9keymaster17HardwareA
179:   OBJECT GLOBAL DEFAULT 18 _ZTVN9keymaster18GetVersi
180:   FUNC GLOBAL DEFAULT 14 _ZN9keymaster16Authorizat
181:   FUNC GLOBAL DEFAULT 14 __aeabi_memset8
182:   FUNC GLOBAL DEFAULT 14 _ZN9keymaster17AttestKeyR
183:   FUNC GLOBAL DEFAULT 14 _ZNK9keymaster17Keymaster
184:   FUNC GLOBAL DEFAULT 14 _ZNK9keymaster16Authoriza
185:   OBJECT GLOBAL DEFAULT 22 _ZN9keymaster28TAG_UNLOCK
186:   FUNC GLOBAL DEFAULT 14 _ZN9keymaster6Buffer11Des
187:   OBJECT GLOBAL DEFAULT 22 _ZN9keymaster27TAG_BLOB_U
188:   FUNC GLOBAL DEFAULT 14 _ZN9keymaster17HardwareAu
189:   FUNC GLOBAL DEFAULT 14 _ZN9keymaster18UpgradeKey
190:   FUNC GLOBAL DEFAULT 14 _ZNK9keymaster17Verificat
191:   FUNC GLOBAL DEFAULT 14 __aeabi_memmove
192:   FUNC GLOBAL DEFAULT 14 _ZN9keymaster6Logger7Warn
193:   OBJECT GLOBAL DEFAULT 22 _ZN9keymaster23TAG_RSA_PU
194:   FUNC GLOBAL DEFAULT 14 _ZNK9keymaster28GetKeyCha
195:   OBJECT GLOBAL DEFAULT 18 _ZTVN9keymaster25ComputeS
196:   FUNC GLOBAL DEFAULT 14 _ZN9keymaster16Authorizat
197:   OBJECT GLOBAL DEFAULT 22 _ZN9keymaster25TAG_ATTEST
198:   FUNC GLOBAL DEFAULT 14 _ZN9keymaster6Buffer7rese
199:   FUNC GLOBAL DEFAULT 14 _ZNK9keymaster17AttestKey
200:   FUNC GLOBAL DEFAULT 14 _ZNK9keymaster17HardwareA
201:   OBJECT GLOBAL DEFAULT 18 _ZTVN9keymaster16ImportKe
202:   OBJECT GLOBAL DEFAULT 18 _ZTVN9keymaster24ImportWr
203:   FUNC GLOBAL DEFAULT 14 _ZN9keymaster16Authorizat
204:   FUNC GLOBAL DEFAULT 14 _ZN9keymaster16Authorizat
205:   OBJECT GLOBAL DEFAULT 18 _ZTVN9keymaster16Authoriz
206:   FUNC GLOBAL DEFAULT 14 _ZN9keymaster16ExportKeyR
207:   OBJECT GLOBAL DEFAULT 22 _ZN9keymaster25TAG_USAGE_
208:   FUNC GLOBAL DEFAULT 14 _ZN9keymaster6Buffer12Rei
209:   FUNC WEAK DEFAULT 14 _ZnwjRKSt9nothrow_t
210:   OBJECT GLOBAL DEFAULT 18 _ZTVN9keymaster16AttestKe
211:   OBJECT GLOBAL DEFAULT 22 _ZN9keymaster27TAG_MIN_SE
212:   FUNC GLOBAL DEFAULT 14 _ZN9keymaster6Logger3LogE
213:   FUNC GLOBAL DEFAULT 14 _ZN9keymaster16AttestKeyR
214:   FUNC GLOBAL DEFAULT 14 _ZN9keymaster19GenerateKe
215:   FUNC GLOBAL DEFAULT 14 _ZNK9keymaster18GetVersio
216:   FUNC GLOBAL DEFAULT 14 _ZNK9keymaster21HmacShari
217:   OBJECT GLOBAL DEFAULT 18 _ZTVN9keymaster22FinishOp
218:   FUNC GLOBAL DEFAULT 14 _ZNK9keymaster16Authoriza
219:   OBJECT GLOBAL DEFAULT 22 _ZN9keymaster12TAG_KEY_SI
220:   FUNC GLOBAL DEFAULT 14 _ZNK9keymaster6Buffer14av
221:   FUNC GLOBAL DEFAULT 14 _ZN9keymaster17AttestKeyR
222:   FUNC GLOBAL DEFAULT 14 _ZN9keymaster24ImportWrap
223:   FUNC GLOBAL DEFAULT 14 _ZNK9keymaster16ImportKey
224:   OBJECT GLOBAL DEFAULT 22 _ZN9keymaster11TAG_PURPOS
225:   FUNC GLOBAL DEFAULT 14 _ZN9keymaster18UpgradeKey
226:   FUNC GLOBAL DEFAULT 14 _ZNK9keymaster18UpgradeKe
227:   OBJECT GLOBAL DEFAULT 18 _ZTVN9keymaster21BeginOpe
228:   FUNC GLOBAL DEFAULT 14 _ZN9keymaster16Authorizat
229:   OBJECT GLOBAL DEFAULT 22 _ZN9keymaster17TAG_ROOT_O
230:   OBJECT GLOBAL DEFAULT 22 _ZN9keymaster18TAG_APPLIC
231:   FUNC GLOBAL DEFAULT 14 _ZNK9keymaster24ImportWra
232:   OBJECT GLOBAL DEFAULT 18 _ZTVN9keymaster17AddEntro
233:   FUNC GLOBAL DEFAULT 14 _ZN9keymaster16Authorizat
234:   FUNC GLOBAL DEFAULT 14 _ZN9keymaster21BeginOpera
235:   FUNC GLOBAL DEFAULT 14 _ZN9keymaster16Authorizat
236:   FUNC GLOBAL DEFAULT 14 _ZN9keymaster17ImportKeyR
237:   FUNC GLOBAL DEFAULT 14 _ZN9keymaster23ImportWrap
238:   FUNC GLOBAL DEFAULT 14 _ZNK9keymaster21BeginOper
239:   FUNC GLOBAL DEFAULT 14 _ZNK9keymaster26HmacShari
240:   OBJECT GLOBAL DEFAULT 18 _ZTVN9keymaster17AttestKe
241:   FUNC GLOBAL DEFAULT 14 _ZN9keymaster16Authorizat
242:   FUNC GLOBAL DEFAULT 14 _ZNK9keymaster16Authoriza
243:   OBJECT GLOBAL DEFAULT 22 _ZN9keymaster14TAG_BLOCK_
244:   FUNC GLOBAL DEFAULT 14 _ZNK9keymaster16ExportKey
245:   OBJECT GLOBAL DEFAULT 18 _ZTVN9keymaster23FinishOp
246:   FUNC GLOBAL DEFAULT 14 _ZN9keymaster16Authorizat
247:   FUNC GLOBAL DEFAULT 14 _ZNK9keymaster16Authoriza
248:   OBJECT GLOBAL DEFAULT 22 _ZN9keymaster11TAG_USER_I
249:   FUNC GLOBAL DEFAULT 14 __aeabi_memset
250:   FUNC GLOBAL DEFAULT 14 _ZN9keymaster22FinishOper
251:   FUNC GLOBAL DEFAULT 14 _ZNK9keymaster16DeleteKey
252:   FUNC GLOBAL DEFAULT 14 _ZNK9keymaster23UpdateOpe
253:   FUNC GLOBAL DEFAULT 14 _ZN9keymaster16Authorizat
254:   FUNC GLOBAL DEFAULT 14 _ZN9keymaster16AttestKeyR
255:   FUNC GLOBAL DEFAULT 14 _ZN9keymaster17ImportKeyR
256:   FUNC GLOBAL DEFAULT 14 _ZNK9keymaster23ImportWra
257:   FUNC GLOBAL DEFAULT 14 _ZNK9keymaster29GetKeyCha
258:   FUNC WEAK DEFAULT 14 _ZdaPv
259:   OBJECT GLOBAL DEFAULT 22 _ZN9keymaster23TAG_ATTEST
260:   OBJECT GLOBAL DEFAULT 22 _ZN9keymaster31TAG_ORIGIN
261:   FUNC GLOBAL DEFAULT 14 _ZNK9keymaster17ExportKey
262:   FUNC GLOBAL DEFAULT 14 _ZNK9keymaster16Authoriza
263:   FUNC GLOBAL DEFAULT 14 _ZNK9keymaster16Authoriza
264:   FUNC GLOBAL DEFAULT 14 _ZNK9keymaster16Authoriza
265:   FUNC GLOBAL DEFAULT 14 _ZNK9keymaster16Authoriza
266:   OBJECT GLOBAL DEFAULT 22 _ZN9keymaster20TAG_NO_AUT
267:   OBJECT GLOBAL DEFAULT 22 _ZN9keymaster10TAG_DIGEST
268:   OBJECT GLOBAL DEFAULT 22 _ZN9keymaster11TAG_PADDIN
269:   OBJECT GLOBAL DEFAULT 22 _ZN9keymaster20TAG_ALL_AP
270:   FUNC GLOBAL DEFAULT 14 _ZN9keymaster17AddEntropy
271:   FUNC GLOBAL DEFAULT 14 _ZN9keymaster18UpgradeKey
272:   FUNC GLOBAL DEFAULT 14 _ZN9keymaster16DeleteKeyR
273:   FUNC GLOBAL DEFAULT 14 _ZNK9keymaster16Authoriza
274:   OBJECT GLOBAL DEFAULT 22 _ZN9keymaster13TAG_ALGORI
275:   FUNC GLOBAL DEFAULT 14 _ZN9keymaster23UpdateOper
276:   OBJECT GLOBAL DEFAULT 22 _ZN9keymaster21TAG_CREATI
277:   OBJECT GLOBAL DEFAULT 22 _ZN9keymaster26TAG_ATTEST
278:   OBJECT GLOBAL DEFAULT 22 _ZN9keymaster7TAG_KDFE
279:   FUNC GLOBAL DEFAULT 14 _ZN9keymaster16AttestKeyR
280:   FUNC GLOBAL DEFAULT 14 _ZNK9keymaster19GenerateK
281:   FUNC GLOBAL DEFAULT 14 __aeabi_memcpy
282:   FUNC GLOBAL DEFAULT 14 _ZN9keymaster16Authorizat
283:   FUNC GLOBAL DEFAULT 14 _ZN9keymaster16Authorizat
284:   OBJECT GLOBAL DEFAULT 22 _ZN9keymaster23TAG_ALLOW_
285:   FUNC GLOBAL DEFAULT 14 _ZNK9keymaster16ImportKey
286:   FUNC GLOBAL DEFAULT 14 _ZNK9keymaster17UpgradeKe
287:   FUNC GLOBAL DEFAULT 14 _ZNK9keymaster21BeginOper
288:   OBJECT GLOBAL DEFAULT 22 _ZN9keymaster19TAG_BOOTLO
289:   FUNC GLOBAL DEFAULT 14 _ZN9keymaster25ComputeSha
290:   OBJECT GLOBAL DEFAULT 18 _ZTVN9keymaster26HmacShar
291:   FUNC GLOBAL DEFAULT 14 _ZNK9keymaster16Authoriza
292:   OBJECT GLOBAL DEFAULT 22 _ZN9keymaster16TAG_AUTH_T
293:   OBJECT GLOBAL DEFAULT 18 _ZTVN9keymaster22UpdateOp
294:   FUNC GLOBAL DEFAULT 14 _ZN9keymaster17UpgradeKey
295:   FUNC GLOBAL DEFAULT 14 _ZN9keymaster17UpgradeKey
296:   OBJECT GLOBAL DEFAULT 22 _ZN9keymaster11TAG_INVALI
297:   OBJECT GLOBAL DEFAULT 22 _ZN9keymaster26TAG_ECIES_
298:   FUNC GLOBAL DEFAULT 14 _ZNK9keymaster26HmacShari
299:   FUNC GLOBAL DEFAULT 14 __aeabi_memclr
300:   FUNC GLOBAL DEFAULT 14 _ZN9keymaster6Buffer5writ
301:   FUNC GLOBAL DEFAULT 14 _ZN9keymaster16Authorizat
302:   FUNC GLOBAL DEFAULT 14 _ZN9keymaster29GetKeyChar
303:   OBJECT GLOBAL DEFAULT 18 _ZTVN9keymaster17Keymaste
304:   OBJECT GLOBAL DEFAULT 18 _ZTVN9keymaster17Verifica
305:   FUNC GLOBAL DEFAULT 14 _ZNK9keymaster23FinishOpe
306:   FUNC GLOBAL DEFAULT 14 __aeabi_memmove4
