 0x000000000000000e (SONAME)             Library soname: [libappfuse.so]
  
Symbol   contains 116 entries:
Num:   Type Bind Vis Ndx Name
0:   NOTYPE LOCAL DEFAULT UND
1:   FUNC GLOBAL DEFAULT UND __cxa_finalize@LIBC (2)
2:   FUNC GLOBAL DEFAULT UND _ZN7android4base10LogMess
3:   FUNC GLOBAL DEFAULT UND _ZN7android4base10LogMess
4:   FUNC GLOBAL DEFAULT UND _ZN7android4base10LogMess
5:   FUNC GLOBAL DEFAULT UND _ZN7android4base21GetMini
6:   FUNC GLOBAL DEFAULT UND _ZNKSt3__16locale9use_fac
7:   FUNC GLOBAL DEFAULT UND _ZNKSt3__18ios_base6getlo
8:   FUNC GLOBAL DEFAULT UND _ZNSt3__113basic_ostreamI
9:   FUNC GLOBAL DEFAULT UND _ZNSt3__113basic_ostreamI
10:   FUNC GLOBAL DEFAULT UND _ZNSt3__113basic_ostreamI
11:   OBJECT GLOBAL DEFAULT UND _ZNSt3__15ctypeIcE2idE
12:   FUNC GLOBAL DEFAULT UND _ZNSt3__16localeD1Ev
13:   FUNC GLOBAL DEFAULT UND _ZNSt3__18ios_base5clearE
14:   FUNC GLOBAL DEFAULT UND _ZdlPv
15:   FUNC GLOBAL DEFAULT UND _Znwm
16:   FUNC GLOBAL DEFAULT UND __cxa_pure_virtual
17:   FUNC GLOBAL DEFAULT UND __errno@LIBC (2)
18:   FUNC GLOBAL DEFAULT UND __stack_chk_fail@LIBC (2)
19:   FUNC GLOBAL DEFAULT UND __write_chk@LIBC_N (3)
20:   FUNC WEAK DEFAULT UND android_fdsan_close_with_@LIBC_Q (4)
21:   FUNC WEAK DEFAULT UND android_fdsan_create_owne@LIBC_Q (4)
22:   FUNC WEAK DEFAULT UND android_fdsan_exchange_ow@LIBC_Q (4)
23:   FUNC GLOBAL DEFAULT UND atol@LIBC (2)
24:   FUNC GLOBAL DEFAULT UND close@LIBC (2)
25:   FUNC GLOBAL DEFAULT UND epoll_create1@LIBC (2)
26:   FUNC GLOBAL DEFAULT UND eventfd@LIBC (2)
27:   FUNC GLOBAL DEFAULT UND memset@LIBC (2)
28:   FUNC GLOBAL DEFAULT UND _ZNSt3__113basic_ostreamI
29:   FUNC GLOBAL DEFAULT UND _ZNSt3__113basic_ostreamI
30:   FUNC GLOBAL DEFAULT UND _ZNSt3__113basic_ostreamI
31:   FUNC GLOBAL DEFAULT UND _ZNSt3__113basic_ostreamI
32:   FUNC GLOBAL DEFAULT UND read@LIBC (2)
33:   FUNC GLOBAL DEFAULT UND recvfrom@LIBC (2)
34:   FUNC GLOBAL DEFAULT UND sendto@LIBC (2)
35:   FUNC GLOBAL DEFAULT UND setsockopt@LIBC (2)
36:   FUNC GLOBAL DEFAULT UND socketpair@LIBC (2)
37:   FUNC GLOBAL DEFAULT UND strlen@LIBC (2)
38:   FUNC GLOBAL DEFAULT UND usleep@LIBC (2)
39:   FUNC GLOBAL DEFAULT UND write@LIBC (2)
40:   FUNC GLOBAL DEFAULT UND writev@LIBC (2)
41:   FUNC GLOBAL DEFAULT UND _ZNSt3__112__next_primeEm
42:   FUNC GLOBAL DEFAULT UND _ZNSt3__113basic_ostreamI
43:   FUNC GLOBAL DEFAULT UND _ZNSt3__15mutex4lockEv
44:   FUNC GLOBAL DEFAULT UND _ZNSt3__15mutex6unlockEv
45:   FUNC GLOBAL DEFAULT UND _ZNSt3__15mutexD1Ev
46:   FUNC GLOBAL DEFAULT UND abort@LIBC (2)
47:   FUNC GLOBAL DEFAULT UND _ZNKSt3__120__vector_base
48:   FUNC GLOBAL DEFAULT UND epoll_ctl@LIBC (2)
49:   FUNC GLOBAL DEFAULT UND epoll_wait@LIBC (2)
50:   FUNC GLOBAL DEFAULT UND memcpy@LIBC (2)
51:   FUNC GLOBAL DEFAULT 14 _ZN7android4fuse11FuseApp
52:   FUNC GLOBAL DEFAULT 14 _ZN7android4fuse19FuseApp
53:   FUNC WEAK DEFAULT 14 _ZNK7android4fuse11FuseMe
54:   FUNC WEAK DEFAULT 14 _ZNSt3__112__hash_tableIP
55:   FUNC GLOBAL DEFAULT 14 _ZN7android4fuse11FuseApp
56:   FUNC GLOBAL DEFAULT 14 _ZN7android4fuse19FuseApp
57:   FUNC WEAK DEFAULT 14 _ZNK7android4fuse11FuseMe
58:   FUNC WEAK DEFAULT 14 _ZNSt3__16__treeINS_12__v
59:   FUNC GLOBAL DEFAULT 14 _ZNK7android4fuse15EpollC
60:   FUNC GLOBAL DEFAULT 14 _ZN7android4fuse14FuseBri
61:   FUNC GLOBAL DEFAULT 14 _ZN7android4fuse11FuseApp
62:   FUNC WEAK DEFAULT 14 _ZN7android4fuse11FuseMes
63:   FUNC WEAK DEFAULT 14 _ZN7android4fuse11FuseMes
64:   FUNC GLOBAL DEFAULT 14 _ZNK7android4fuse15EpollC
65:   FUNC WEAK DEFAULT 14 _ZNSt3__16__treeINS_12__v
66:   FUNC GLOBAL DEFAULT 14 _ZN7android4fuse15EpollCo
67:   FUNC GLOBAL DEFAULT 14 _ZN7android4fuse11FuseApp
68:   FUNC WEAK DEFAULT 14 _ZN7android4fuse11FuseMes
69:   FUNC WEAK DEFAULT 14 _ZN7android4fuse11FuseMes
70:   FUNC WEAK DEFAULT 14 _ZNSt3__113__tree_removeI
71:   FUNC GLOBAL DEFAULT 14 _ZN7android4fuse10FuseBuf
72:   FUNC WEAK DEFAULT 14 _ZN7android4fuse11FuseMes
73:   FUNC GLOBAL DEFAULT 14 _ZN7android4fuse15EpollCo
74:   FUNC WEAK DEFAULT 14 _ZN7android4fuse11FuseMes
75:   FUNC WEAK DEFAULT 14 _ZN7android4fuse16FuseRes
76:   FUNC WEAK DEFAULT 14 _ZNK7android4fuse11FuseMe
77:   FUNC WEAK DEFAULT 14 _ZNK7android4fuse11FuseMe
78:   FUNC WEAK DEFAULT 14 _ZNSt3__127__tree_balance
79:   FUNC GLOBAL DEFAULT 14 _ZN7android4fuse10FuseBuf
80:   FUNC GLOBAL DEFAULT 14 _ZN7android4fuse11FuseReq
81:   FUNC WEAK DEFAULT 14 _ZN7android4fuse16FuseRes
82:   FUNC WEAK DEFAULT 14 _ZNK7android4fuse11FuseMe
83:   FUNC GLOBAL DEFAULT 14 _ZN7android4fuse11FuseApp
84:   FUNC GLOBAL DEFAULT 14 _ZN7android4fuse11FuseApp
85:   FUNC GLOBAL DEFAULT 14 _ZN7android4fuse15EpollCo
86:   FUNC GLOBAL DEFAULT 14 _ZN7android4fuse14FuseBri
87:   FUNC WEAK DEFAULT 14 _ZNSt3__112__hash_tableIN
88:   FUNC WEAK DEFAULT 14 _ZNSt3__124__put_characte
89:   FUNC GLOBAL DEFAULT 14 _ZN7android4fuse14FuseBri
90:   FUNC GLOBAL DEFAULT 14 _ZN7android4fuse14FuseBri
91:   FUNC GLOBAL DEFAULT 14 _ZN7android4fuse15EpollCo
92:   FUNC GLOBAL DEFAULT 14 _ZN7android4fuse14FuseBri
93:   FUNC WEAK DEFAULT 14 _ZNSt3__112__hash_tableIP
94:   FUNC WEAK DEFAULT 14 _ZNSt3__112__hash_tableIP
95:   FUNC WEAK DEFAULT 14 _ZNSt3__16vectorI11epoll_
96:   FUNC GLOBAL DEFAULT 14 _ZN7android4fuse15EpollCo
97:   FUNC WEAK DEFAULT 14 _ZN7android4fuse16FuseRes
98:   FUNC WEAK DEFAULT 14 _ZNSt3__112__hash_tableIN
99:   FUNC WEAK DEFAULT 14 _ZNSt3__112__hash_tableIN
100:   FUNC GLOBAL DEFAULT 14 _ZN7android4fuse11FuseApp
101:   FUNC GLOBAL DEFAULT 14 _ZN7android4fuse19SetupMe
102:   FUNC GLOBAL DEFAULT 14 _ZN7android4fuse11FuseApp
103:   FUNC GLOBAL DEFAULT 14 _ZN7android4fuse11FuseApp
104:   FUNC WEAK DEFAULT 14 _ZN7android4fuse16FuseRes
105:   FUNC WEAK DEFAULT 14 _ZNK7android4fuse11FuseMe
106:   FUNC WEAK DEFAULT 14 _ZNK7android4fuse11FuseMe
107:   FUNC GLOBAL DEFAULT 14 _ZN7android4fuse14FuseBri
108:   FUNC GLOBAL DEFAULT 14 _ZN7android4fuse14FuseBri
109:   FUNC GLOBAL DEFAULT 14 _ZN7android4fuse11FuseApp
110:   FUNC GLOBAL DEFAULT 14 _ZN7android4fuse19FuseApp
111:   FUNC WEAK DEFAULT 14 _ZNK7android4fuse11FuseMe
112:   OBJECT GLOBAL DEFAULT 18 _ZTVN7android4fuse19FuseA
113:   FUNC WEAK DEFAULT 14 _ZNK7android4fuse11FuseMe
114:   FUNC WEAK DEFAULT 14 _ZNSt3__112__hash_tableIN
115:   FUNC GLOBAL DEFAULT 14 _ZN7android4fuse15EpollCo
