 0x000000000000000e (SONAME)             Library soname: [libstagefright_flacdec.so]
  
Symbol   contains 242 entries:
Num:   Type Bind Vis Ndx Name
0:   NOTYPE LOCAL DEFAULT UND
1:   FUNC GLOBAL DEFAULT UND __cxa_finalize@LIBC (2)
2:   FUNC GLOBAL DEFAULT UND __android_log_print@LIBLOG (3)
3:   FUNC GLOBAL DEFAULT UND __cfi_slowpath@LIBC_OMR1 (4)
4:   FUNC GLOBAL DEFAULT UND _ZnwmRKSt9nothrow_t
5:   FUNC GLOBAL DEFAULT UND free@LIBC (2)
6:   FUNC GLOBAL DEFAULT UND _ZdlPv
7:   FUNC GLOBAL DEFAULT UND realloc@LIBC (2)
8:   OBJECT GLOBAL DEFAULT UND _ZSt7nothrow
9:   FUNC GLOBAL DEFAULT UND abort@LIBC (2)
10:   FUNC WEAK DEFAULT UND android_set_abort_message@LIBC (2)
11:   FUNC GLOBAL DEFAULT UND strlen@LIBC (2)
12:   FUNC GLOBAL DEFAULT UND write@LIBC (2)
13:   FUNC GLOBAL DEFAULT UND calloc@LIBC (2)
14:   FUNC GLOBAL DEFAULT UND malloc@LIBC (2)
15:   FUNC GLOBAL DEFAULT UND fprintf@LIBC (2)
16:   FUNC GLOBAL DEFAULT UND fwrite@LIBC (2)
17:   FUNC GLOBAL DEFAULT UND fputc@LIBC (2)
18:   FUNC GLOBAL DEFAULT UND qsort@LIBC (2)
19:   FUNC GLOBAL DEFAULT UND fclose@LIBC (2)
20:   FUNC GLOBAL DEFAULT UND memcmp@LIBC (2)
21:   FUNC GLOBAL DEFAULT UND ferror@LIBC (2)
22:   FUNC GLOBAL DEFAULT UND fread@LIBC (2)
23:   FUNC GLOBAL DEFAULT UND fseeko@LIBC (2)
24:   FUNC GLOBAL DEFAULT UND ftello@LIBC (2)
25:   FUNC GLOBAL DEFAULT UND fstat@LIBC (2)
26:   FUNC GLOBAL DEFAULT UND fileno@LIBC (2)
27:   FUNC GLOBAL DEFAULT UND feof@LIBC (2)
28:   FUNC GLOBAL DEFAULT UND fopen@LIBC (2)
29:   OBJECT GLOBAL DEFAULT UND stdin@LIBC (2)
30:   FUNC GLOBAL DEFAULT UND memmove@LIBC (2)
31:   FUNC GLOBAL DEFAULT UND memcpy@LIBC (2)
32:   FUNC GLOBAL DEFAULT UND memset@LIBC (2)
33:   FUNC GLOBAL DEFAULT UND __stack_chk_fail@LIBC (2)
34:   FUNC GLOBAL DEFAULT 14 _ZN7android11FLACDecoder5
35:   FUNC GLOBAL DEFAULT 14 FLAC__crc16
36:   OBJECT GLOBAL DEFAULT 11 FLAC__FP_ONE
37:   FUNC GLOBAL DEFAULT 14 FLAC__stream_decoder_get_
38:   FUNC GLOBAL DEFAULT 14 _ZN7android11FLACDecoder1
39:   FUNC GLOBAL DEFAULT 14 FLAC__bitreader_read_rice
40:   FUNC GLOBAL DEFAULT 14 FLAC__fixed_compute_resid
41:   FUNC GLOBAL DEFAULT 14 FLAC__format_sample_rate_
42:   FUNC GLOBAL DEFAULT 14 FLAC__format_cuesheet_is_
43:   OBJECT GLOBAL DEFAULT 18 FLAC__ChannelAssignmentSt
44:   OBJECT GLOBAL DEFAULT 11 FLAC__SUBFRAME_TYPE_FIXED
45:   OBJECT GLOBAL DEFAULT 18 FLAC__StreamDecoderTellSt
46:   FUNC GLOBAL DEFAULT 14 _ZN7android11FLACDecoder1
47:   FUNC GLOBAL DEFAULT 14 FLAC__format_get_max_rice
48:   OBJECT GLOBAL DEFAULT 11 FLAC__STREAM_METADATA_SEE
49:   FUNC GLOBAL DEFAULT 14 FLAC__memory_alloc_aligne
50:   FUNC GLOBAL DEFAULT 14 FLAC__fixed_compute_best_
51:   OBJECT GLOBAL DEFAULT 11 FLAC__STREAM_METADATA_STR
52:   FUNC GLOBAL DEFAULT 14 _ZN7android11FLACDecoder1
53:   OBJECT GLOBAL DEFAULT 11 FLAC__FRAME_HEADER_BITS_P
54:   FUNC GLOBAL DEFAULT 14 FLAC__stream_decoder_get_
55:   OBJECT GLOBAL DEFAULT 11 FLAC__crc16_table
56:   OBJECT GLOBAL DEFAULT 18 FLAC__SubframeTypeString
57:   FUNC GLOBAL DEFAULT 14 FLAC__stream_decoder_init
58:   FUNC GLOBAL DEFAULT 14 FLAC__stream_decoder_set_
59:   FUNC GLOBAL DEFAULT 14 FLAC__bitreader_skip_bits
60:   OBJECT GLOBAL DEFAULT 11 FLAC__STREAM_METADATA_CUE
61:   OBJECT GLOBAL DEFAULT 11 FLAC__STREAM_METADATA_PIC
62:   OBJECT GLOBAL DEFAULT 11 FLAC__SUBFRAME_TYPE_VERBA
63:   FUNC GLOBAL DEFAULT 14 _ZN7android11FLACDecoder1
64:   FUNC GLOBAL DEFAULT 14 FLAC__bitreader_reset_rea
65:   OBJECT GLOBAL DEFAULT 11 FLAC__FP_ZERO
66:   OBJECT GLOBAL DEFAULT 11 FLAC__STREAM_METADATA_PIC
67:   OBJECT GLOBAL DEFAULT 11 FLAC__FRAME_HEADER_BLOCK_
68:   OBJECT GLOBAL DEFAULT 11 FLAC__SUBFRAME_TYPE_LPC_B
69:   FUNC GLOBAL DEFAULT 14 _ZN7android11FLACDecoder1
70:   OBJECT GLOBAL DEFAULT 11 FLAC__STREAM_METADATA_CUE
71:   OBJECT GLOBAL DEFAULT 11 FLAC__STREAM_METADATA_CUE
72:   FUNC GLOBAL DEFAULT 14 FLAC__MD5Init
73:   OBJECT GLOBAL DEFAULT 11 FLAC__crc8_table
74:   FUNC GLOBAL DEFAULT 14 FLAC__format_seektable_is
75:   FUNC GLOBAL DEFAULT 14 FLAC__stream_decoder_set_
76:   OBJECT GLOBAL DEFAULT 18 FLAC__StreamDecoderErrorS
77:   FUNC GLOBAL DEFAULT 14 _ZN7android11FLACDecoder1
78:   OBJECT GLOBAL DEFAULT 11 FLAC__STREAM_METADATA_PIC
79:   FUNC GLOBAL DEFAULT 14 FLAC__stream_decoder_fini
80:   OBJECT GLOBAL DEFAULT 11 FLAC__STREAM_METADATA_STR
81:   FUNC GLOBAL DEFAULT 14 safe_malloc_mul_2op_p
82:   FUNC GLOBAL DEFAULT 14 FLAC__stream_decoder_set_
83:   FUNC GLOBAL DEFAULT 14 FLAC__stream_decoder_set_
84:   FUNC GLOBAL DEFAULT 14 FLAC__stream_decoder_init
85:   FUNC GLOBAL DEFAULT 14 FLAC__bitreader_new
86:   FUNC GLOBAL DEFAULT 14 FLAC__bitreader_dump
87:   FUNC GLOBAL DEFAULT 14 FLAC__bitreader_read_unar
88:   FUNC GLOBAL DEFAULT 14 FLAC__format_get_max_rice
89:   OBJECT GLOBAL DEFAULT 11 FLAC__STREAM_METADATA_PIC
90:   OBJECT GLOBAL DEFAULT 11 FLAC__FRAME_HEADER_BLOCKI
91:   FUNC GLOBAL DEFAULT 14 FLAC__stream_decoder_init
92:   FUNC GLOBAL DEFAULT 14 FLAC__stream_decoder_proc
93:   FUNC GLOBAL DEFAULT 14 _ZN7android11FLACDecoder4
94:   FUNC GLOBAL DEFAULT 14 FLAC__bitreader_read_byte
95:   OBJECT GLOBAL DEFAULT 11 FLAC__STREAM_METADATA_STR
96:   OBJECT GLOBAL DEFAULT 11 FLAC__FRAME_HEADER_ZERO_P
97:   OBJECT GLOBAL DEFAULT 11 FLAC__FRAME_HEADER_CRC_LE
98:   OBJECT GLOBAL DEFAULT 11 FLAC__ENTROPY_CODING_METH
99:   FUNC GLOBAL DEFAULT 14 FLAC__MD5Final
100:   FUNC GLOBAL DEFAULT 14 FLAC__stream_decoder_get_
101:   OBJECT GLOBAL DEFAULT 18 FLAC__StreamDecoderInitSt
102:   FUNC GLOBAL DEFAULT 14 FLAC__memory_alloc_aligne
103:   FUNC GLOBAL DEFAULT 14 FLAC__stream_decoder_set_
104:   FUNC GLOBAL DEFAULT 14 FLAC__stream_decoder_rese
105:   FUNC GLOBAL DEFAULT 14 FLAC__bitreader_free
106:   FUNC GLOBAL DEFAULT 14 FLAC__format_entropy_codi
107:   FUNC GLOBAL DEFAULT 14 FLAC__stream_decoder_init
108:   FUNC GLOBAL DEFAULT 14 FLAC__stream_decoder_set_
109:   FUNC GLOBAL DEFAULT 14 FLAC__stream_decoder_proc
110:   FUNC GLOBAL DEFAULT 14 FLAC__bitreader_is_consum
111:   FUNC GLOBAL DEFAULT 14 FLAC__fixed_compute_best_
112:   FUNC GLOBAL DEFAULT 14 FLAC__format_vorbiscommen
113:   OBJECT GLOBAL DEFAULT 11 FLAC__STREAM_METADATA_CUE
114:   FUNC GLOBAL DEFAULT 14 FLAC__stream_decoder_get_
115:   OBJECT GLOBAL DEFAULT 11 FLAC__FP_ONE_HALF
116:   OBJECT GLOBAL DEFAULT 11 FLAC__STREAM_METADATA_STR
117:   OBJECT GLOBAL DEFAULT 11 FLAC__STREAM_METADATA_CUE
118:   OBJECT GLOBAL DEFAULT 11 FLAC__FRAME_HEADER_SYNC_L
119:   FUNC GLOBAL DEFAULT 14 FLAC__stream_decoder_get_
120:   OBJECT GLOBAL DEFAULT 11 FLAC__STREAM_METADATA_CUE
121:   OBJECT GLOBAL DEFAULT 11 FLAC__STREAM_METADATA_PIC
122:   OBJECT GLOBAL DEFAULT 11 FLAC__STREAM_METADATA_PIC
123:   OBJECT GLOBAL DEFAULT 11 FLAC__FRAME_FOOTER_CRC_LE
124:   FUNC GLOBAL DEFAULT 14 FLAC__MD5Accumulate
125:   FUNC GLOBAL DEFAULT 14 FLAC__stream_decoder_skip
126:   FUNC GLOBAL DEFAULT 14 FLAC__bitreader_skip_byte
127:   FUNC GLOBAL DEFAULT 14 FLAC__format_get_max_rice
128:   OBJECT GLOBAL DEFAULT 11 FLAC__STREAM_METADATA_CUE
129:   OBJECT GLOBAL DEFAULT 18 FLAC__EntropyCodingMethod
130:   FUNC GLOBAL DEFAULT 14 FLAC__lpc_restore_signal
131:   FUNC GLOBAL DEFAULT 14 FLAC__fixed_restore_signa
132:   OBJECT GLOBAL DEFAULT 11 FLAC__STREAM_METADATA_SEE
133:   OBJECT GLOBAL DEFAULT 11 FLAC__SUBFRAME_WASTED_BIT
134:   FUNC GLOBAL DEFAULT 14 _ZN7android11FLACDecoderC
135:   FUNC GLOBAL DEFAULT 14 FLAC__bitreader_read_raw_
136:   OBJECT GLOBAL DEFAULT 11 FLAC__STREAM_METADATA_PIC
137:   OBJECT GLOBAL DEFAULT 11 FLAC__FRAME_HEADER_CHANNE
138:   FUNC GLOBAL DEFAULT 14 FLAC__bitreader_read_rice
139:   FUNC GLOBAL DEFAULT 14 FLAC__format_blocksize_is
140:   OBJECT GLOBAL DEFAULT 11 FLAC__STREAM_METADATA_STR
141:   OBJECT GLOBAL DEFAULT 11 FLAC__ENTROPY_CODING_METH
142:   OBJECT GLOBAL DEFAULT 18 FLAC__MetadataTypeString
143:   FUNC GLOBAL DEFAULT 14 FLAC__stream_decoder_flus
144:   FUNC GLOBAL DEFAULT 14 FLAC__cpu_info
145:   FUNC GLOBAL DEFAULT 14 FLAC__format_picture_is_l
146:   FUNC GLOBAL DEFAULT 14 FLAC__stream_decoder_init
147:   FUNC GLOBAL DEFAULT 14 _ZN7android11FLACDecoderC
148:   OBJECT GLOBAL DEFAULT 11 FLAC__STREAM_METADATA_SEE
149:   OBJECT GLOBAL DEFAULT 11 FLAC__STREAM_METADATA_CUE
150:   OBJECT GLOBAL DEFAULT 11 FLAC__STREAM_METADATA_IS_
151:   FUNC GLOBAL DEFAULT 14 FLAC__fixedpoint_log2
152:   OBJECT GLOBAL DEFAULT 11 FLAC__STREAM_METADATA_STR
153:   OBJECT GLOBAL DEFAULT 11 FLAC__STREAM_METADATA_CUE
154:   OBJECT GLOBAL DEFAULT 18 FLAC__FrameNumberTypeStri
155:   FUNC GLOBAL DEFAULT 14 FLAC__memory_alloc_aligne
156:   FUNC GLOBAL DEFAULT 14 FLAC__stream_decoder_get_
157:   OBJECT GLOBAL DEFAULT 18 FLAC__StreamDecoderSeekSt
158:   FUNC GLOBAL DEFAULT 14 _ZN7android11FLACDecoderD
159:   FUNC GLOBAL DEFAULT 14 FLAC__stream_decoder_new
160:   FUNC GLOBAL DEFAULT 14 FLAC__bitreader_get_read_
161:   FUNC GLOBAL DEFAULT 14 FLAC__crc8_update
162:   OBJECT GLOBAL DEFAULT 11 FLAC__STREAM_SYNC_STRING
163:   OBJECT GLOBAL DEFAULT 11 FLAC__SUBFRAME_LPC_QLP_CO
164:   OBJECT GLOBAL DEFAULT 11 FLAC__SUBFRAME_LPC_QLP_SH
165:   FUNC GLOBAL DEFAULT 14 FLAC__bitreader_delete
166:   FUNC GLOBAL DEFAULT 14 FLAC__format_entropy_codi
167:   OBJECT GLOBAL DEFAULT 11 FLAC__STREAM_METADATA_CUE
168:   OBJECT GLOBAL DEFAULT 11 FLAC__SUBFRAME_TYPE_CONST
169:   FUNC GLOBAL DEFAULT 14 FLAC__memory_alloc_aligne
170:   FUNC GLOBAL DEFAULT 14 _ZN7android11FLACDecoderD
171:   OBJECT GLOBAL DEFAULT 11 FLAC__STREAM_METADATA_SEE
172:   OBJECT GLOBAL DEFAULT 11 FLAC__STREAM_METADATA_CUE
173:   OBJECT GLOBAL DEFAULT 18 FLAC__StreamDecoderReadSt
174:   FUNC GLOBAL DEFAULT 14 _ZN7android11FLACDecoder6
175:   OBJECT GLOBAL DEFAULT 11 FLAC__STREAM_SYNC_LEN
176:   OBJECT GLOBAL DEFAULT 11 FLAC__STREAM_METADATA_CUE
177:   FUNC GLOBAL DEFAULT 14 FLAC__bitreader_read_raw_
178:   FUNC GLOBAL DEFAULT 14 FLAC__format_sample_rate_
179:   OBJECT GLOBAL DEFAULT 11 FLAC__STREAM_METADATA_STR
180:   OBJECT GLOBAL DEFAULT 11 FLAC__STREAM_METADATA_LEN
181:   OBJECT GLOBAL DEFAULT 22 FLAC_API_SUPPORTS_OGG_FLA
182:   OBJECT GLOBAL DEFAULT 18 FLAC__StreamDecoderLength
183:   FUNC GLOBAL DEFAULT 14 _ZN7android11FLACDecoderD
184:   OBJECT GLOBAL DEFAULT 11 FLAC__SUBFRAME_TYPE_LEN
185:   FUNC GLOBAL DEFAULT 14 FLAC__stream_decoder_get_
186:   FUNC GLOBAL DEFAULT 14 __cfi_check
187:   FUNC GLOBAL DEFAULT 14 FLAC__bitreader_init
188:   FUNC GLOBAL DEFAULT 14 FLAC__bitreader_read_raw_
189:   OBJECT GLOBAL DEFAULT 11 FLAC__ENTROPY_CODING_METH
190:   FUNC GLOBAL DEFAULT 14 FLAC__stream_decoder_dele
191:   FUNC GLOBAL DEFAULT 14 FLAC__format_seektable_so
192:   OBJECT GLOBAL DEFAULT 11 FLAC__STREAM_METADATA_CUE
193:   OBJECT GLOBAL DEFAULT 11 FLAC__ENTROPY_CODING_METH
194:   FUNC GLOBAL DEFAULT 14 FLAC__stream_decoder_init
195:   FUNC GLOBAL DEFAULT 14 FLAC__stream_decoder_get_
196:   OBJECT GLOBAL DEFAULT 18 _ZTVN7android11FLACDecode
197:   FUNC GLOBAL DEFAULT 14 FLAC__bitreader_clear
198:   FUNC GLOBAL DEFAULT 14 FLAC__crc8_update_block
199:   OBJECT GLOBAL DEFAULT 11 FLAC__STREAM_SYNC
200:   OBJECT GLOBAL DEFAULT 11 FLAC__STREAM_METADATA_STR
201:   OBJECT GLOBAL DEFAULT 11 FLAC__STREAM_METADATA_VOR
202:   OBJECT GLOBAL DEFAULT 11 FLAC__FP_LN2
203:   OBJECT GLOBAL DEFAULT 11 FLAC__FRAME_HEADER_SAMPLE
204:   OBJECT GLOBAL DEFAULT 11 FLAC__FP_E
205:   FUNC GLOBAL DEFAULT 14 FLAC__lpc_restore_signal_
206:   FUNC GLOBAL DEFAULT 14 FLAC__stream_decoder_get_
207:   FUNC GLOBAL DEFAULT 14 _ZN7android11FLACDecoder1
208:   FUNC GLOBAL DEFAULT 14 FLAC__bitreader_bits_left
209:   FUNC GLOBAL DEFAULT 14 FLAC__bitreader_read_utf8
210:   FUNC GLOBAL DEFAULT 14 FLAC__format_vorbiscommen
211:   FUNC GLOBAL DEFAULT 14 FLAC__format_vorbiscommen
212:   OBJECT GLOBAL DEFAULT 16 FLAC__VENDOR_STRING
213:   OBJECT GLOBAL DEFAULT 11 FLAC__STREAM_METADATA_STR
214:   OBJECT GLOBAL DEFAULT 11 FLAC__FRAME_HEADER_RESERV
215:   OBJECT GLOBAL DEFAULT 11 FLAC__ENTROPY_CODING_METH
216:   OBJECT GLOBAL DEFAULT 18 FLAC__StreamDecoderWriteS
217:   FUNC GLOBAL DEFAULT 14 FLAC__bitreader_get_input
218:   OBJECT GLOBAL DEFAULT 11 FLAC__STREAM_METADATA_APP
219:   OBJECT GLOBAL DEFAULT 11 FLAC__ENTROPY_CODING_METH
220:   FUNC GLOBAL DEFAULT 14 FLAC__stream_decoder_set_
221:   FUNC GLOBAL DEFAULT 14 FLAC__stream_decoder_seek
222:   FUNC GLOBAL DEFAULT 14 FLAC__bitreader_read_utf8
223:   OBJECT GLOBAL DEFAULT 11 FLAC__STREAM_METADATA_TYP
224:   OBJECT GLOBAL DEFAULT 11 FLAC__FRAME_HEADER_SYNC
225:   OBJECT GLOBAL DEFAULT 11 FLAC__ENTROPY_CODING_METH
226:   FUNC GLOBAL DEFAULT 14 FLAC__stream_decoder_proc
227:   FUNC GLOBAL DEFAULT 14 FLAC__bitreader_read_uint
228:   FUNC GLOBAL DEFAULT 14 FLAC__crc8
229:   FUNC GLOBAL DEFAULT 14 FLAC__format_entropy_codi
230:   OBJECT GLOBAL DEFAULT 16 FLAC__VERSION_STRING
231:   OBJECT GLOBAL DEFAULT 11 FLAC__STREAM_METADATA_CUE
232:   OBJECT GLOBAL DEFAULT 18 FLAC__StreamMetadata_Pict
233:   FUNC GLOBAL DEFAULT 14 FLAC__memory_alloc_aligne
234:   FUNC GLOBAL DEFAULT 14 FLAC__stream_decoder_get_
235:   FUNC GLOBAL DEFAULT 14 FLAC__stream_decoder_get_
236:   FUNC GLOBAL DEFAULT 14 FLAC__stream_decoder_set_
237:   OBJECT GLOBAL DEFAULT 11 FLAC__STREAM_METADATA_VOR
238:   OBJECT GLOBAL DEFAULT 11 FLAC__STREAM_METADATA_CUE
239:   OBJECT GLOBAL DEFAULT 11 FLAC__STREAM_METADATA_PIC
240:   OBJECT GLOBAL DEFAULT 11 FLAC__SUBFRAME_ZERO_PAD_L
241:   OBJECT GLOBAL DEFAULT 18 FLAC__StreamDecoderStateS
