 0x000000000000000e (SONAME)             Library soname: [android.hardware.wifi.supplicant@1.0.so]
  
Symbol   contains 1640 entries:
Num:   Type Bind Vis Ndx Name
0:   NOTYPE LOCAL DEFAULT UND
1:   FUNC GLOBAL DEFAULT UND __cxa_finalize@LIBC (2)
2:   FUNC GLOBAL DEFAULT UND _ZN7android14sp_report_ra
3:   FUNC GLOBAL DEFAULT UND _ZN7android21report_syspr
4:   OBJECT GLOBAL DEFAULT UND _ZN7android4hidl4base4V1_
5:   FUNC GLOBAL DEFAULT UND _ZN7android4hidl4base4V1_
6:   FUNC GLOBAL DEFAULT UND _ZN7android4hidl4base4V1_
7:   FUNC GLOBAL DEFAULT UND _ZN7android4hidl4base4V1_
8:   FUNC GLOBAL DEFAULT UND _ZN7android4hidl4base4V1_
9:   FUNC GLOBAL DEFAULT UND _ZN7android4hidl4base4V1_
10:   FUNC GLOBAL DEFAULT UND _ZN7android4hidl4base4V1_
11:   FUNC GLOBAL DEFAULT UND _ZN7android4hidl4base4V1_
12:   FUNC GLOBAL DEFAULT UND _ZN7android4hidl4base4V1_
13:   FUNC GLOBAL DEFAULT UND _ZN7android4hidl4base4V1_
14:   FUNC GLOBAL DEFAULT UND _ZN7android4hidl4base4V1_
15:   FUNC GLOBAL DEFAULT UND _ZN7android4hidl4base4V1_
16:   FUNC GLOBAL DEFAULT UND _ZN7android4hidl4base4V1_
17:   FUNC GLOBAL DEFAULT UND _ZN7android4hidl4base4V1_
18:   FUNC GLOBAL DEFAULT UND _ZN7android4hidl4base4V1_
19:   FUNC GLOBAL DEFAULT UND _ZN7android4hidl4base4V1_
20:   FUNC GLOBAL DEFAULT UND _ZN7android4hidl4base4V1_
21:   FUNC GLOBAL DEFAULT UND _ZN7android4hidl4base4V1_
22:   FUNC GLOBAL DEFAULT UND _ZN7android4hidl4base4V1_
23:   FUNC GLOBAL DEFAULT UND _ZN7android4hidl4base4V1_
24:   FUNC GLOBAL DEFAULT UND _ZN7android4hidl4base4V1_
25:   FUNC GLOBAL DEFAULT UND _ZN7android4hidl4base4V1_
26:   FUNC GLOBAL DEFAULT UND _ZN7android4hidl4base4V1_
27:   FUNC GLOBAL DEFAULT UND _ZN7android4hidl4base4V1_
28:   FUNC GLOBAL DEFAULT UND _ZN7android7RefBase10onFi
29:   FUNC GLOBAL DEFAULT UND _ZN7android7RefBase12weak
30:   FUNC GLOBAL DEFAULT UND _ZN7android7RefBase13onLa
31:   FUNC GLOBAL DEFAULT UND _ZN7android7RefBase15onLa
32:   FUNC GLOBAL DEFAULT UND _ZN7android7RefBase20onIn
33:   FUNC GLOBAL DEFAULT UND _ZN7android7RefBaseC2Ev
34:   FUNC GLOBAL DEFAULT UND _ZN7android7RefBaseD2Ev
35:   FUNC GLOBAL DEFAULT UND _ZN7android8hardware10IIn
36:   FUNC GLOBAL DEFAULT UND _ZN7android8hardware10IIn
37:   FUNC GLOBAL DEFAULT UND _ZN7android8hardware10IIn
38:   FUNC GLOBAL DEFAULT UND _ZN7android8hardware10IIn
39:   FUNC GLOBAL DEFAULT UND _ZN7android8hardware10IIn
40:   FUNC GLOBAL DEFAULT UND _ZN7android8hardware11BpH
41:   FUNC GLOBAL DEFAULT UND _ZN7android8hardware11BpH
42:   FUNC GLOBAL DEFAULT UND _ZN7android8hardware11BpH
43:   FUNC GLOBAL DEFAULT UND _ZN7android8hardware11BpH
44:   FUNC GLOBAL DEFAULT UND _ZN7android8hardware11BpH
45:   FUNC GLOBAL DEFAULT UND _ZN7android8hardware11BpH
46:   FUNC GLOBAL DEFAULT UND _ZN7android8hardware11BpH
47:   FUNC GLOBAL DEFAULT UND _ZN7android8hardware11hid
48:   FUNC GLOBAL DEFAULT UND _ZN7android8hardware11hid
49:   FUNC GLOBAL DEFAULT UND _ZN7android8hardware11hid
50:   FUNC GLOBAL DEFAULT UND _ZN7android8hardware11hid
51:   FUNC GLOBAL DEFAULT UND _ZN7android8hardware11hid
52:   FUNC GLOBAL DEFAULT UND _ZN7android8hardware12Pro
53:   FUNC GLOBAL DEFAULT UND _ZN7android8hardware12Pro
54:   FUNC GLOBAL DEFAULT UND _ZN7android8hardware13wri
55:   FUNC GLOBAL DEFAULT UND _ZN7android8hardware14rea
56:   FUNC GLOBAL DEFAULT UND _ZN7android8hardware21def
57:   FUNC GLOBAL DEFAULT UND _ZN7android8hardware21wri
58:   FUNC GLOBAL DEFAULT UND _ZN7android8hardware22rea
59:   FUNC GLOBAL DEFAULT UND _ZN7android8hardware23get
60:   FUNC GLOBAL DEFAULT UND _ZN7android8hardware27hid
61:   FUNC GLOBAL DEFAULT UND _ZN7android8hardware27hid
62:   FUNC GLOBAL DEFAULT UND _ZN7android8hardware6Parc
63:   FUNC GLOBAL DEFAULT UND _ZN7android8hardware6Parc
64:   FUNC GLOBAL DEFAULT UND _ZN7android8hardware6Parc
65:   FUNC GLOBAL DEFAULT UND _ZN7android8hardware6Parc
66:   FUNC GLOBAL DEFAULT UND _ZN7android8hardware6Parc
67:   FUNC GLOBAL DEFAULT UND _ZN7android8hardware6Parc
68:   FUNC GLOBAL DEFAULT UND _ZN7android8hardware6Parc
69:   FUNC GLOBAL DEFAULT UND _ZN7android8hardware6Parc
70:   FUNC GLOBAL DEFAULT UND _ZN7android8hardware6Stat
71:   FUNC GLOBAL DEFAULT UND _ZN7android8hardware6Stat
72:   FUNC GLOBAL DEFAULT UND _ZN7android8hardware6Stat
73:   FUNC GLOBAL DEFAULT UND _ZN7android8hardware6Stat
74:   FUNC GLOBAL DEFAULT UND _ZN7android8hardware7IBin
75:   FUNC GLOBAL DEFAULT UND _ZN7android8hardware7IBin
76:   FUNC GLOBAL DEFAULT UND _ZN7android8hardware7IBin
77:   FUNC GLOBAL DEFAULT UND _ZN7android8hardware7IBin
78:   FUNC GLOBAL DEFAULT UND _ZN7android8hardware7deta
79:   FUNC GLOBAL DEFAULT UND _ZN7android8hardware7deta
80:   FUNC GLOBAL DEFAULT UND _ZN7android8hardware7deta
81:   FUNC GLOBAL DEFAULT UND _ZN7android8hardware7deta
82:   FUNC GLOBAL DEFAULT UND _ZN7android8hardware7deta
83:   FUNC GLOBAL DEFAULT UND _ZN7android8hardware7deta
84:   FUNC GLOBAL DEFAULT UND _ZN7android8hardware7deta
85:   OBJECT GLOBAL DEFAULT UND _ZN7android8hardware7deta
86:   FUNC GLOBAL DEFAULT UND _ZN7android8hardware7deta
87:   OBJECT GLOBAL DEFAULT UND _ZN7android8hardware7deta
88:   FUNC GLOBAL DEFAULT UND _ZN7android8hardware7deta
89:   FUNC GLOBAL DEFAULT UND _ZN7android8hardware7deta
90:   FUNC GLOBAL DEFAULT UND _ZN7android8hardware7deta
91:   FUNC GLOBAL DEFAULT UND _ZN7android8hardware7deta
92:   FUNC GLOBAL DEFAULT UND _ZN7android8hardware7deta
93:   FUNC GLOBAL DEFAULT UND _ZN7android8hardware7deta
94:   FUNC GLOBAL DEFAULT UND _ZN7android8hardware7deta
95:   FUNC GLOBAL DEFAULT UND _ZN7android8hardware7deta
96:   FUNC GLOBAL DEFAULT UND _ZN7android8hardware7deta
97:   FUNC GLOBAL DEFAULT UND _ZN7android8hardware7deta
98:   OBJECT GLOBAL DEFAULT UND _ZN7android8hardware7deta
99:   FUNC GLOBAL DEFAULT UND _ZN7android8hardware9BHwB
100:   FUNC GLOBAL DEFAULT UND _ZN7android8hardware9BHwB
101:   FUNC GLOBAL DEFAULT UND _ZN7android8hardware9BHwB
102:   FUNC GLOBAL DEFAULT UND _ZN7android8hardware9BHwB
103:   FUNC GLOBAL DEFAULT UND _ZN7android8hardware9BHwB
104:   FUNC GLOBAL DEFAULT UND _ZN7android8hardware9BHwB
105:   FUNC GLOBAL DEFAULT UND _ZN7android8hardware9BHwB
106:   FUNC GLOBAL DEFAULT UND _ZN7android8hardware9BHwB
107:   FUNC GLOBAL DEFAULT UND _ZN7android8hardware9BHwB
108:   FUNC GLOBAL DEFAULT UND _ZN7android8hardware9BHwB
109:   FUNC GLOBAL DEFAULT UND _ZNK7android7RefBase10cre
110:   FUNC GLOBAL DEFAULT UND _ZNK7android7RefBase11get
111:   FUNC GLOBAL DEFAULT UND _ZNK7android7RefBase9decS
112:   FUNC GLOBAL DEFAULT UND _ZNK7android7RefBase9incS
113:   FUNC GLOBAL DEFAULT UND _ZNK7android8hardware6Par
114:   FUNC GLOBAL DEFAULT UND _ZNK7android8hardware6Par
115:   FUNC GLOBAL DEFAULT UND _ZNK7android8hardware6Par
116:   FUNC GLOBAL DEFAULT UND _ZNK7android8hardware6Par
117:   FUNC GLOBAL DEFAULT UND _ZNK7android8hardware6Par
118:   FUNC GLOBAL DEFAULT UND _ZNK7android8hardware6Par
119:   FUNC GLOBAL DEFAULT UND _ZNK7android8hardware7IBi
120:   FUNC GLOBAL DEFAULT UND _ZNK7android8hardware7det
121:   FUNC GLOBAL DEFAULT UND _ZNK7android8hardware9BHw
122:   FUNC GLOBAL DEFAULT UND _ZNKSt3__120__vector_base
123:   FUNC GLOBAL DEFAULT UND _ZNKSt3__121__basic_strin
124:   FUNC GLOBAL DEFAULT UND _ZNSt3__112basic_stringIc
125:   FUNC GLOBAL DEFAULT UND _ZNSt3__112basic_stringIc
126:   FUNC GLOBAL DEFAULT UND _ZNSt3__15mutex4lockEv
127:   FUNC GLOBAL DEFAULT UND _ZNSt3__15mutex6unlockEv
128:   FUNC GLOBAL DEFAULT UND _ZNSt3__15mutexD1Ev
129:   FUNC GLOBAL DEFAULT UND _ZTv0_n24_N7android4hidl4
130:   FUNC GLOBAL DEFAULT UND _ZTv0_n24_N7android4hidl4
131:   FUNC GLOBAL DEFAULT UND _ZTv0_n24_N7android8hardw
132:   FUNC GLOBAL DEFAULT UND _ZTv0_n24_N7android8hardw
133:   FUNC GLOBAL DEFAULT UND _ZTv0_n24_N7android8hardw
134:   FUNC GLOBAL DEFAULT UND _ZTv0_n24_N7android8hardw
135:   FUNC GLOBAL DEFAULT UND _ZTv0_n24_N7android8hardw
136:   FUNC GLOBAL DEFAULT UND _ZTv0_n24_N7android8hardw
137:   FUNC GLOBAL DEFAULT UND _ZTv0_n24_N7android8hardw
138:   FUNC GLOBAL DEFAULT UND _ZTv0_n24_N7android8hardw
139:   FUNC GLOBAL DEFAULT UND _ZTv0_n32_N7android8hardw
140:   FUNC GLOBAL DEFAULT UND _ZTv0_n40_N7android8hardw
141:   FUNC GLOBAL DEFAULT UND _ZTv0_n48_N7android8hardw
142:   FUNC GLOBAL DEFAULT UND _ZdaPv
143:   FUNC GLOBAL DEFAULT UND _ZdlPv
144:   FUNC GLOBAL DEFAULT UND _Znam
145:   FUNC GLOBAL DEFAULT UND _Znwm
146:   FUNC GLOBAL DEFAULT UND __android_log_assert@LIBLOG (3)
147:   FUNC GLOBAL DEFAULT UND __cxa_pure_virtual
148:   FUNC GLOBAL DEFAULT UND __stack_chk_fail@LIBC (2)
149:   FUNC GLOBAL DEFAULT UND abort@LIBC (2)
150:   FUNC GLOBAL DEFAULT UND atrace_begin_body
151:   OBJECT GLOBAL DEFAULT UND atrace_enabled_tags
152:   FUNC GLOBAL DEFAULT UND atrace_end_body
153:   OBJECT GLOBAL DEFAULT UND atrace_is_ready
154:   FUNC GLOBAL DEFAULT UND atrace_setup
155:   FUNC GLOBAL DEFAULT UND memcmp@LIBC (2)
156:   FUNC GLOBAL DEFAULT UND memcpy@LIBC (2)
157:   FUNC GLOBAL DEFAULT UND memset@LIBC (2)
158:   FUNC GLOBAL DEFAULT UND strlen@LIBC (2)
159:   FUNC GLOBAL DEFAULT UND _ZN7android8hardware11hid
160:   FUNC GLOBAL DEFAULT UND _ZN7android8hardware6Parc
161:   FUNC GLOBAL DEFAULT UND _ZNK7android8hardware6Par
162:   FUNC GLOBAL DEFAULT UND _ZN7android8hardware6Parc
163:   FUNC GLOBAL DEFAULT UND _ZN7android8hardware6Parc
164:   FUNC GLOBAL DEFAULT UND _ZNK7android8hardware6Par
165:   FUNC GLOBAL DEFAULT UND _ZNK7android8hardware6Par
166:   FUNC GLOBAL DEFAULT 14 _ZN7android8hardware4wifi
167:   FUNC GLOBAL DEFAULT 14 _ZN7android8hardware4wifi
168:   FUNC GLOBAL DEFAULT 14 _ZN7android8hardware4wifi
169:   FUNC GLOBAL DEFAULT 14 _ZN7android8hardware4wifi
170:   FUNC GLOBAL DEFAULT 14 _ZN7android8hardware4wifi
171:   FUNC GLOBAL DEFAULT 14 _ZN7android8hardware4wifi
172:   FUNC GLOBAL DEFAULT 14 _ZN7android8hardware4wifi
173:   OBJECT WEAK DEFAULT 18 _ZTVN7android8hardware4wi
174:   FUNC GLOBAL DEFAULT 14 _ZN7android8hardware4wifi
175:   FUNC GLOBAL DEFAULT 14 _ZN7android8hardware4wifi
176:   FUNC GLOBAL DEFAULT 14 _ZN7android8hardware4wifi
177:   FUNC GLOBAL DEFAULT 14 _ZN7android8hardware4wifi
178:   FUNC GLOBAL DEFAULT 14 _ZN7android8hardware4wifi
179:   FUNC GLOBAL DEFAULT 14 _ZN7android8hardware4wifi
180:   FUNC WEAK DEFAULT 14 _ZN7android8hardware10fro
181:   FUNC GLOBAL DEFAULT 14 _ZN7android8hardware4wifi
182:   FUNC GLOBAL DEFAULT 14 _ZN7android8hardware4wifi
183:   FUNC GLOBAL DEFAULT 14 _ZN7android8hardware4wifi
184:   OBJECT GLOBAL DEFAULT 18 _ZTTN7android8hardware4wi
185:   FUNC WEAK DEFAULT 14 _ZN7android8hardware7deta
186:   OBJECT GLOBAL DEFAULT 18 _ZTCN7android8hardware4wi
187:   FUNC GLOBAL DEFAULT 14 _ZN7android8hardware4wifi
188:   FUNC GLOBAL DEFAULT 14 _ZN7android8hardware4wifi
189:   FUNC GLOBAL DEFAULT 14 _ZN7android8hardware4wifi
190:   FUNC GLOBAL DEFAULT 14 _ZN7android8hardware4wifi
191:   FUNC GLOBAL DEFAULT 14 _ZN7android8hardware4wifi
192:   FUNC GLOBAL DEFAULT 14 _ZN7android8hardware4wifi
193:   FUNC WEAK DEFAULT 14 _ZN7android8hardware7deta
194:   FUNC GLOBAL DEFAULT 14 _ZN7android8hardware4wifi
195:   FUNC GLOBAL DEFAULT 14 _ZN7android8hardware4wifi
196:   FUNC GLOBAL DEFAULT 14 _ZN7android8hardware4wifi
197:   FUNC WEAK DEFAULT 14 _ZNSt3__16__treeINS_12__v
198:   FUNC GLOBAL DEFAULT 14 _ZN7android8hardware4wifi
199:   OBJECT GLOBAL DEFAULT 18 _ZTCN7android8hardware4wi
200:   OBJECT GLOBAL DEFAULT 18 _ZTCN7android8hardware4wi
201:   FUNC GLOBAL DEFAULT 14 _ZN7android8hardware4wifi
202:   FUNC GLOBAL DEFAULT 14 _ZN7android8hardware4wifi
203:   FUNC GLOBAL DEFAULT 14 _ZN7android8hardware4wifi
204:   FUNC GLOBAL DEFAULT 14 _ZN7android8hardware4wifi
205:   FUNC GLOBAL DEFAULT 14 _ZN7android8hardware4wifi
206:   OBJECT GLOBAL DEFAULT 18 _ZTCN7android8hardware4wi
207:   FUNC GLOBAL DEFAULT 14 _ZN7android8hardware4wifi
208:   OBJECT WEAK DEFAULT 18 _ZTVN7android8hardware4wi
209:   FUNC GLOBAL DEFAULT 14 _ZN7android8hardware4wifi
210:   FUNC GLOBAL DEFAULT 14 _ZN7android8hardware4wifi
211:   FUNC GLOBAL DEFAULT 14 _ZN7android8hardware4wifi
212:   FUNC GLOBAL DEFAULT 14 _ZN7android8hardware4wifi
213:   OBJECT GLOBAL DEFAULT 18 _ZTVN7android8hardware4wi
214:   FUNC GLOBAL DEFAULT 14 _ZN7android8hardware4wifi
215:   FUNC GLOBAL DEFAULT 14 _ZN7android8hardware4wifi
216:   FUNC GLOBAL DEFAULT 14 _ZN7android8hardware4wifi
217:   FUNC GLOBAL DEFAULT 14 _ZN7android8hardware4wifi
218:   FUNC GLOBAL DEFAULT 14 _ZN7android8hardware4wifi
219:   FUNC GLOBAL DEFAULT 14 _ZN7android8hardware4wifi
220:   FUNC GLOBAL DEFAULT 14 _ZN7android8hardware4wifi
221:   FUNC GLOBAL DEFAULT 14 _ZN7android8hardware4wifi
222:   FUNC GLOBAL DEFAULT 14 _ZN7android8hardware4wifi
223:   FUNC GLOBAL DEFAULT 14 _ZN7android8hardware4wifi
224:   FUNC WEAK DEFAULT 14 _ZN7android8hardware7deta
225:   FUNC GLOBAL DEFAULT 14 _ZN7android8hardware4wifi
226:   FUNC GLOBAL DEFAULT 14 _ZN7android8hardware4wifi
227:   FUNC GLOBAL DEFAULT 14 _ZN7android8hardware4wifi
228:   OBJECT GLOBAL DEFAULT 18 _ZTTN7android8hardware4wi
229:   OBJECT GLOBAL DEFAULT 18 _ZTCN7android8hardware4wi
230:   FUNC GLOBAL DEFAULT 14 _ZN7android8hardware4wifi
231:   FUNC GLOBAL DEFAULT 14 _ZN7android8hardware4wifi
232:   FUNC GLOBAL DEFAULT 14 _ZN7android8hardware4wifi
233:   FUNC GLOBAL DEFAULT 14 _ZN7android8hardware4wifi
234:   OBJECT GLOBAL DEFAULT 18 _ZTCN7android8hardware4wi
235:   FUNC GLOBAL DEFAULT 14 _ZN7android8hardware4wifi
236:   FUNC GLOBAL DEFAULT 14 _ZN7android8hardware4wifi
237:   FUNC WEAK DEFAULT 14 _ZN7android8hardware7deta
238:   FUNC GLOBAL DEFAULT 14 _ZN7android8hardware4wifi
239:   OBJECT GLOBAL DEFAULT 18 _ZTCN7android8hardware4wi
240:   FUNC GLOBAL DEFAULT 14 _ZN7android8hardware4wifi
241:   FUNC GLOBAL DEFAULT 14 _ZN7android8hardware4wifi
242:   FUNC GLOBAL DEFAULT 14 _ZN7android8hardware4wifi
243:   FUNC GLOBAL DEFAULT 14 _ZN7android8hardware4wifi
244:   FUNC GLOBAL DEFAULT 14 _ZN7android8hardware4wifi
245:   FUNC GLOBAL DEFAULT 14 _ZN7android8hardware4wifi
246:   FUNC GLOBAL DEFAULT 14 _ZN7android8hardware4wifi
247:   FUNC GLOBAL DEFAULT 14 _ZN7android8hardware4wifi
248:   FUNC GLOBAL DEFAULT 14 _ZN7android8hardware4wifi
249:   FUNC GLOBAL DEFAULT 14 _ZN7android8hardware4wifi
250:   FUNC GLOBAL DEFAULT 14 _ZN7android8hardware4wifi
251:   FUNC GLOBAL DEFAULT 14 _ZN7android8hardware4wifi
252:   FUNC GLOBAL DEFAULT 14 _ZN7android8hardware4wifi
253:   FUNC GLOBAL DEFAULT 14 _ZN7android8hardware4wifi
254:   FUNC GLOBAL DEFAULT 14 _ZN7android8hardware4wifi
255:   FUNC WEAK DEFAULT 14 _ZN7android8hardware7deta
256:   FUNC GLOBAL DEFAULT 14 _ZN7android8hardware4wifi
257:   FUNC GLOBAL DEFAULT 14 _ZN7android8hardware4wifi
258:   FUNC GLOBAL DEFAULT 14 _ZN7android8hardware4wifi
259:   OBJECT GLOBAL DEFAULT 18 _ZTVN7android8hardware4wi
260:   FUNC GLOBAL DEFAULT 14 _ZN7android8hardware4wifi
261:   OBJECT GLOBAL DEFAULT 18 _ZTTN7android8hardware4wi
262:   FUNC GLOBAL DEFAULT 14 _ZN7android8hardware4wifi
263:   FUNC GLOBAL DEFAULT 14 _ZN7android8hardware4wifi
264:   FUNC GLOBAL DEFAULT 14 _ZN7android8hardware4wifi
265:   FUNC WEAK DEFAULT 14 _ZNSt3__16__treeINS_12__v
266:   FUNC GLOBAL DEFAULT 14 _ZN7android8hardware4wifi
267:   FUNC GLOBAL DEFAULT 14 _ZN7android8hardware4wifi
268:   FUNC GLOBAL DEFAULT 14 _ZN7android8hardware4wifi
269:   FUNC GLOBAL DEFAULT 14 _ZN7android8hardware4wifi
270:   FUNC GLOBAL DEFAULT 14 _ZN7android8hardware4wifi
271:   FUNC GLOBAL DEFAULT 14 _ZN7android8hardware4wifi
272:   FUNC GLOBAL DEFAULT 14 _ZN7android8hardware4wifi
273:   FUNC GLOBAL DEFAULT 14 _ZThn32_N7android8hardwar
274:   FUNC GLOBAL DEFAULT 14 _ZN7android8hardware4wifi
275:   FUNC GLOBAL DEFAULT 14 _ZN7android8hardware4wifi
276:   FUNC GLOBAL DEFAULT 14 _ZN7android8hardware4wifi
277:   FUNC GLOBAL DEFAULT 14 _ZN7android8hardware4wifi
278:   FUNC GLOBAL DEFAULT 14 _ZN7android8hardware4wifi
279:   OBJECT WEAK DEFAULT 18 _ZTVN7android8hardware4wi
280:   OBJECT GLOBAL DEFAULT 18 _ZTCN7android8hardware4wi
281:   FUNC GLOBAL DEFAULT 14 _ZN7android8hardware4wifi
282:   FUNC WEAK DEFAULT 14 _ZN7android8hardware10fro
283:   OBJECT GLOBAL DEFAULT 18 _ZTCN7android8hardware4wi
284:   FUNC GLOBAL DEFAULT 14 _ZN7android8hardware4wifi
285:   OBJECT GLOBAL DEFAULT 18 _ZTTN7android8hardware4wi
286:   OBJECT GLOBAL DEFAULT 18 _ZTCN7android8hardware4wi
287:   FUNC WEAK DEFAULT 14 _ZNSt3__16__treeINS_12__v
288:   FUNC GLOBAL DEFAULT 14 _ZN7android8hardware4wifi
289:   FUNC GLOBAL DEFAULT 14 _ZN7android8hardware4wifi
290:   FUNC GLOBAL DEFAULT 14 _ZN7android8hardware4wifi
291:   FUNC GLOBAL DEFAULT 14 _ZN7android8hardware4wifi
292:   OBJECT GLOBAL DEFAULT 18 _ZTVN7android8hardware4wi
293:   FUNC GLOBAL DEFAULT 14 _ZN7android8hardware4wifi
294:   FUNC GLOBAL DEFAULT 14 _ZN7android8hardware4wifi
295:   FUNC GLOBAL DEFAULT 14 _ZN7android8hardware4wifi
296:   FUNC GLOBAL DEFAULT 14 _ZN7android8hardware4wifi
297:   OBJECT GLOBAL DEFAULT 18 _ZTCN7android8hardware4wi
298:   FUNC GLOBAL DEFAULT 14 _ZN7android8hardware4wifi
299:   FUNC GLOBAL DEFAULT 14 _ZN7android8hardware4wifi
300:   FUNC GLOBAL DEFAULT 14 _ZN7android8hardware4wifi
301:   OBJECT GLOBAL DEFAULT 18 _ZTVN7android8hardware4wi
302:   FUNC GLOBAL DEFAULT 14 _ZN7android8hardware4wifi
303:   FUNC GLOBAL DEFAULT 14 _ZN7android8hardware4wifi
304:   FUNC GLOBAL DEFAULT 14 _ZN7android8hardware4wifi
305:   FUNC GLOBAL DEFAULT 14 _ZN7android8hardware4wifi
306:   FUNC GLOBAL DEFAULT 14 _ZN7android8hardware4wifi
307:   FUNC GLOBAL DEFAULT 14 _ZN7android8hardware4wifi
308:   FUNC GLOBAL DEFAULT 14 _ZN7android8hardware4wifi
309:   FUNC GLOBAL DEFAULT 14 _ZN7android8hardware4wifi
310:   FUNC GLOBAL DEFAULT 14 _ZN7android8hardware4wifi
311:   FUNC GLOBAL DEFAULT 14 _ZN7android8hardware4wifi
312:   FUNC GLOBAL DEFAULT 14 _ZN7android8hardware4wifi
313:   FUNC GLOBAL DEFAULT 14 _ZN7android8hardware4wifi
314:   FUNC GLOBAL DEFAULT 14 _ZN7android8hardware4wifi
315:   FUNC GLOBAL DEFAULT 14 _ZTv0_n24_N7android8hardw
316:   FUNC GLOBAL DEFAULT 14 _ZN7android8hardware4wifi
317:   FUNC GLOBAL DEFAULT 14 _ZN7android8hardware4wifi
318:   FUNC GLOBAL DEFAULT 14 _ZN7android8hardware4wifi
319:   OBJECT GLOBAL DEFAULT 18 _ZTVN7android8hardware4wi
320:   FUNC GLOBAL DEFAULT 14 _ZN7android8hardware4wifi
321:   FUNC GLOBAL DEFAULT 14 _ZN7android8hardware4wifi
322:   FUNC GLOBAL DEFAULT 14 _ZN7android8hardware4wifi
323:   FUNC GLOBAL DEFAULT 14 _ZN7android8hardware4wifi
324:   FUNC GLOBAL DEFAULT 14 _ZN7android8hardware4wifi
325:   FUNC GLOBAL DEFAULT 14 _ZN7android8hardware4wifi
326:   OBJECT GLOBAL DEFAULT 18 _ZTTN7android8hardware4wi
327:   OBJECT GLOBAL DEFAULT 18 _ZTVN7android8hardware4wi
328:   OBJECT GLOBAL DEFAULT 18 _ZTCN7android8hardware4wi
329:   FUNC GLOBAL DEFAULT 14 _ZN7android8hardware4wifi
330:   FUNC GLOBAL DEFAULT 14 _ZN7android8hardware4wifi
331:   FUNC GLOBAL DEFAULT 14 _ZTv0_n24_N7android8hardw
332:   FUNC GLOBAL DEFAULT 14 _ZN7android8hardware4wifi
333:   FUNC GLOBAL DEFAULT 14 _ZN7android8hardware4wifi
334:   FUNC GLOBAL DEFAULT 14 _ZN7android8hardware4wifi
335:   FUNC GLOBAL DEFAULT 14 _ZThn32_N7android8hardwar
336:   FUNC GLOBAL DEFAULT 14 _ZN7android8hardware4wifi
337:   FUNC GLOBAL DEFAULT 14 _ZN7android8hardware4wifi
338:   FUNC GLOBAL DEFAULT 14 _ZN7android8hardware4wifi
339:   FUNC GLOBAL DEFAULT 14 _ZN7android8hardware4wifi
340:   FUNC GLOBAL DEFAULT 14 _ZN7android8hardware4wifi
341:   FUNC GLOBAL DEFAULT 14 _ZN7android8hardware4wifi
342:   FUNC GLOBAL DEFAULT 14 _ZN7android8hardware4wifi
343:   FUNC GLOBAL DEFAULT 14 _ZN7android8hardware4wifi
344:   FUNC WEAK DEFAULT 14 _ZN7android8hardware7deta
345:   FUNC GLOBAL DEFAULT 14 _ZN7android8hardware4wifi
346:   FUNC GLOBAL DEFAULT 14 _ZN7android8hardware4wifi
347:   OBJECT GLOBAL DEFAULT 18 _ZTVN7android8hardware4wi
348:   FUNC GLOBAL DEFAULT 14 _ZN7android8hardware4wifi
349:   FUNC GLOBAL DEFAULT 14 _ZN7android8hardware4wifi
350:   FUNC GLOBAL DEFAULT 14 _ZN7android8hardware4wifi
351:   FUNC GLOBAL DEFAULT 14 _ZN7android8hardware4wifi
352:   FUNC GLOBAL DEFAULT 14 _ZN7android8hardware4wifi
353:   FUNC GLOBAL DEFAULT 14 _ZN7android8hardware4wifi
354:   FUNC GLOBAL DEFAULT 14 _ZN7android8hardware4wifi
355:   OBJECT GLOBAL DEFAULT 18 _ZTCN7android8hardware4wi
356:   FUNC GLOBAL DEFAULT 14 _ZN7android8hardware4wifi
357:   FUNC GLOBAL DEFAULT 14 _ZN7android8hardware4wifi
358:   OBJECT GLOBAL DEFAULT 18 _ZTCN7android8hardware4wi
359:   FUNC GLOBAL DEFAULT 14 _ZN7android8hardware4wifi
360:   FUNC GLOBAL DEFAULT 14 _ZN7android8hardware4wifi
361:   FUNC GLOBAL DEFAULT 14 _ZN7android8hardware4wifi
362:   FUNC GLOBAL DEFAULT 14 _ZN7android8hardware4wifi
363:   FUNC GLOBAL DEFAULT 14 _ZN7android8hardware4wifi
364:   FUNC GLOBAL DEFAULT 14 _ZN7android8hardware4wifi
365:   FUNC GLOBAL DEFAULT 14 _ZN7android8hardware4wifi
366:   FUNC GLOBAL DEFAULT 14 _ZN7android8hardware4wifi
367:   FUNC GLOBAL DEFAULT 14 _ZN7android8hardware4wifi
368:   FUNC GLOBAL DEFAULT 14 _ZN7android8hardware4wifi
369:   FUNC GLOBAL DEFAULT 14 _ZN7android8hardware4wifi
370:   FUNC GLOBAL DEFAULT 14 _ZN7android8hardware4wifi
371:   FUNC GLOBAL DEFAULT 14 _ZN7android8hardware4wifi
372:   FUNC GLOBAL DEFAULT 14 _ZN7android8hardware4wifi
373:   FUNC GLOBAL DEFAULT 14 _ZN7android8hardware4wifi
374:   FUNC GLOBAL DEFAULT 14 _ZN7android8hardware4wifi
375:   FUNC GLOBAL DEFAULT 14 _ZN7android8hardware4wifi
376:   FUNC GLOBAL DEFAULT 14 _ZTv0_n24_N7android8hardw
377:   FUNC GLOBAL DEFAULT 14 _ZN7android8hardware4wifi
378:   FUNC GLOBAL DEFAULT 14 _ZN7android8hardware4wifi
379:   FUNC GLOBAL DEFAULT 14 _ZN7android8hardware4wifi
380:   FUNC WEAK DEFAULT 14 _ZN7android8hardware7deta
381:   FUNC GLOBAL DEFAULT 14 _ZN7android8hardware4wifi
382:   FUNC GLOBAL DEFAULT 14 _ZN7android8hardware4wifi
383:   OBJECT GLOBAL DEFAULT 18 _ZTCN7android8hardware4wi
384:   FUNC GLOBAL DEFAULT 14 _ZN7android8hardware4wifi
385:   FUNC WEAK DEFAULT 14 _ZN7android8hardware7deta
386:   FUNC GLOBAL DEFAULT 14 _ZN7android8hardware4wifi
387:   FUNC GLOBAL DEFAULT 14 _ZN7android8hardware4wifi
388:   OBJECT GLOBAL DEFAULT 18 _ZTCN7android8hardware4wi
389:   FUNC GLOBAL DEFAULT 14 _ZN7android8hardware4wifi
390:   FUNC GLOBAL DEFAULT 14 _ZThn32_N7android8hardwar
391:   FUNC GLOBAL DEFAULT 14 _ZN7android8hardware4wifi
392:   FUNC GLOBAL DEFAULT 14 _ZN7android8hardware4wifi
393:   FUNC GLOBAL DEFAULT 14 _ZTv0_n24_N7android8hardw
394:   FUNC GLOBAL DEFAULT 14 _ZN7android8hardware4wifi
395:   FUNC GLOBAL DEFAULT 14 _ZN7android8hardware4wifi
396:   FUNC GLOBAL DEFAULT 14 _ZN7android8hardware4wifi
397:   FUNC WEAK DEFAULT 14 _ZN7android8hardware7deta
398:   FUNC GLOBAL DEFAULT 14 _ZN7android8hardware4wifi
399:   OBJECT GLOBAL DEFAULT 16 _ZN7android8hardware4wifi
400:   FUNC WEAK DEFAULT 14 _ZN7android8hardware7deta
401:   FUNC GLOBAL DEFAULT 14 _ZN7android8hardware4wifi
402:   FUNC GLOBAL DEFAULT 14 _ZN7android8hardware4wifi
403:   FUNC GLOBAL DEFAULT 14 _ZN7android8hardware4wifi
404:   FUNC GLOBAL DEFAULT 14 _ZThn32_N7android8hardwar
405:   OBJECT GLOBAL DEFAULT 18 _ZTVN7android8hardware4wi
406:   OBJECT GLOBAL DEFAULT 18 _ZTCN7android8hardware4wi
407:   FUNC GLOBAL DEFAULT 14 _ZN7android8hardware4wifi
408:   OBJECT GLOBAL DEFAULT 18 _ZTCN7android8hardware4wi
409:   FUNC GLOBAL DEFAULT 14 _ZN7android8hardware4wifi
410:   FUNC GLOBAL DEFAULT 14 _ZN7android8hardware4wifi
411:   FUNC GLOBAL DEFAULT 14 _ZN7android8hardware4wifi
412:   FUNC GLOBAL DEFAULT 14 _ZN7android8hardware4wifi
413:   FUNC GLOBAL DEFAULT 14 _ZN7android8hardware4wifi
414:   FUNC GLOBAL DEFAULT 14 _ZN7android8hardware4wifi
415:   FUNC GLOBAL DEFAULT 14 _ZN7android8hardware4wifi
416:   FUNC GLOBAL DEFAULT 14 _ZN7android8hardware4wifi
417:   FUNC GLOBAL DEFAULT 14 _ZN7android8hardware4wifi
418:   FUNC GLOBAL DEFAULT 14 _ZN7android8hardware4wifi
419:   FUNC GLOBAL DEFAULT 14 _ZN7android8hardware4wifi
420:   FUNC GLOBAL DEFAULT 14 _ZN7android8hardware4wifi
421:   FUNC GLOBAL DEFAULT 14 _ZN7android8hardware4wifi
422:   FUNC GLOBAL DEFAULT 14 _ZN7android8hardware4wifi
423:   FUNC GLOBAL DEFAULT 14 _ZN7android8hardware4wifi
424:   FUNC GLOBAL DEFAULT 14 _ZN7android8hardware4wifi
425:   FUNC GLOBAL DEFAULT 14 _ZN7android8hardware4wifi
426:   FUNC GLOBAL DEFAULT 14 _ZN7android8hardware4wifi
427:   OBJECT GLOBAL DEFAULT 18 _ZTCN7android8hardware4wi
428:   FUNC GLOBAL DEFAULT 14 _ZN7android8hardware4wifi
429:   OBJECT GLOBAL DEFAULT 18 _ZTCN7android8hardware4wi
430:   FUNC GLOBAL DEFAULT 14 _ZN7android8hardware4wifi
431:   FUNC GLOBAL DEFAULT 14 _ZN7android8hardware4wifi
432:   FUNC GLOBAL DEFAULT 14 _ZN7android8hardware4wifi
433:   FUNC GLOBAL DEFAULT 14 _ZN7android8hardware4wifi
434:   OBJECT GLOBAL DEFAULT 18 _ZTVN7android8hardware4wi
435:   FUNC GLOBAL DEFAULT 14 _ZN7android8hardware4wifi
436:   FUNC GLOBAL DEFAULT 14 _ZN7android8hardware4wifi
437:   FUNC GLOBAL DEFAULT 14 _ZN7android8hardware4wifi
438:   FUNC GLOBAL DEFAULT 14 _ZN7android8hardware4wifi
439:   OBJECT GLOBAL DEFAULT 18 _ZTCN7android8hardware4wi
440:   FUNC GLOBAL DEFAULT 14 _ZN7android8hardware4wifi
441:   FUNC WEAK DEFAULT 14 _ZN7android8hardware7deta
442:   FUNC GLOBAL DEFAULT 14 _ZN7android8hardware4wifi
443:   OBJECT GLOBAL DEFAULT 18 _ZTCN7android8hardware4wi
444:   FUNC GLOBAL DEFAULT 14 _ZN7android8hardware4wifi
445:   OBJECT GLOBAL DEFAULT 18 _ZTCN7android8hardware4wi
446:   OBJECT GLOBAL DEFAULT 18 _ZTTN7android8hardware4wi
447:   FUNC GLOBAL DEFAULT 14 _ZThn32_N7android8hardwar
448:   FUNC GLOBAL DEFAULT 14 _ZN7android8hardware4wifi
449:   FUNC GLOBAL DEFAULT 14 _ZN7android8hardware4wifi
450:   FUNC GLOBAL DEFAULT 14 _ZN7android8hardware4wifi
451:   FUNC GLOBAL DEFAULT 14 _ZN7android8hardware4wifi
452:   FUNC GLOBAL DEFAULT 14 _ZN7android8hardware4wifi
453:   FUNC GLOBAL DEFAULT 14 _ZN7android8hardware4wifi
454:   FUNC GLOBAL DEFAULT 14 _ZN7android8hardware4wifi
455:   FUNC GLOBAL DEFAULT 14 _ZN7android8hardware4wifi
456:   FUNC GLOBAL DEFAULT 14 _ZThn32_N7android8hardwar
457:   FUNC GLOBAL DEFAULT 14 _ZN7android8hardware4wifi
458:   FUNC GLOBAL DEFAULT 14 _ZN7android8hardware4wifi
459:   FUNC GLOBAL DEFAULT 14 _ZN7android8hardware4wifi
460:   FUNC GLOBAL DEFAULT 14 _ZN7android8hardware4wifi
461:   FUNC GLOBAL DEFAULT 14 _ZN7android8hardware4wifi
462:   FUNC GLOBAL DEFAULT 14 _ZN7android8hardware4wifi
463:   FUNC GLOBAL DEFAULT 14 _ZN7android8hardware4wifi
464:   FUNC GLOBAL DEFAULT 14 _ZN7android8hardware4wifi
465:   FUNC GLOBAL DEFAULT 14 _ZN7android8hardware4wifi
466:   FUNC GLOBAL DEFAULT 14 _ZN7android8hardware4wifi
467:   FUNC GLOBAL DEFAULT 14 _ZN7android8hardware4wifi
468:   OBJECT WEAK DEFAULT 18 _ZTCN7android8hardware4wi
469:   FUNC GLOBAL DEFAULT 14 _ZN7android8hardware4wifi
470:   OBJECT GLOBAL DEFAULT 18 _ZTCN7android8hardware4wi
471:   FUNC GLOBAL DEFAULT 14 _ZN7android8hardware4wifi
472:   OBJECT GLOBAL DEFAULT 18 _ZTTN7android8hardware4wi
473:   FUNC GLOBAL DEFAULT 14 _ZN7android8hardware4wifi
474:   OBJECT GLOBAL DEFAULT 18 _ZTVN7android8hardware4wi
475:   FUNC GLOBAL DEFAULT 14 _ZN7android8hardware4wifi
476:   FUNC GLOBAL DEFAULT 14 _ZN7android8hardware4wifi
477:   FUNC GLOBAL DEFAULT 14 _ZN7android8hardware4wifi
478:   OBJECT WEAK DEFAULT 18 _ZTCN7android8hardware4wi
479:   FUNC GLOBAL DEFAULT 14 _ZN7android8hardware4wifi
480:   FUNC GLOBAL DEFAULT 14 _ZN7android8hardware4wifi
481:   FUNC GLOBAL DEFAULT 14 _ZN7android8hardware4wifi
482:   OBJECT WEAK DEFAULT 18 _ZTVN7android8hardware4wi
483:   FUNC GLOBAL DEFAULT 14 _ZN7android8hardware4wifi
484:   OBJECT WEAK DEFAULT 18 _ZTCN7android8hardware4wi
485:   FUNC GLOBAL DEFAULT 14 _ZN7android8hardware4wifi
486:   FUNC GLOBAL DEFAULT 14 _ZN7android8hardware4wifi
487:   FUNC GLOBAL DEFAULT 14 _ZThn32_N7android8hardwar
488:   FUNC GLOBAL DEFAULT 14 _ZN7android8hardware4wifi
489:   FUNC GLOBAL DEFAULT 14 _ZN7android8hardware4wifi
490:   FUNC GLOBAL DEFAULT 14 _ZN7android8hardware4wifi
491:   FUNC GLOBAL DEFAULT 14 _ZN7android8hardware4wifi
492:   FUNC GLOBAL DEFAULT 14 _ZN7android8hardware4wifi
493:   FUNC GLOBAL DEFAULT 14 _ZN7android8hardware4wifi
494:   FUNC GLOBAL DEFAULT 14 _ZN7android8hardware4wifi
495:   FUNC GLOBAL DEFAULT 14 _ZN7android8hardware4wifi
496:   OBJECT WEAK DEFAULT 18 _ZTVN7android8hardware4wi
497:   FUNC GLOBAL DEFAULT 14 _ZN7android8hardware4wifi
498:   FUNC GLOBAL DEFAULT 14 _ZN7android8hardware4wifi
499:   FUNC GLOBAL DEFAULT 14 _ZN7android8hardware4wifi
500:   FUNC GLOBAL DEFAULT 14 _ZN7android8hardware4wifi
501:   FUNC GLOBAL DEFAULT 14 _ZN7android8hardware4wifi
502:   FUNC GLOBAL DEFAULT 14 _ZN7android8hardware4wifi
503:   FUNC GLOBAL DEFAULT 14 _ZN7android8hardware4wifi
504:   FUNC GLOBAL DEFAULT 14 _ZN7android8hardware4wifi
505:   FUNC GLOBAL DEFAULT 14 _ZN7android8hardware4wifi
506:   FUNC GLOBAL DEFAULT 14 _ZN7android8hardware4wifi
507:   FUNC GLOBAL DEFAULT 14 _ZN7android8hardware4wifi
508:   FUNC GLOBAL DEFAULT 14 _ZN7android8hardware4wifi
509:   FUNC GLOBAL DEFAULT 14 _ZN7android8hardware4wifi
510:   FUNC GLOBAL DEFAULT 14 _ZN7android8hardware4wifi
511:   FUNC WEAK DEFAULT 14 _ZN7android8hardware10fro
512:   FUNC GLOBAL DEFAULT 14 _ZN7android8hardware4wifi
513:   FUNC GLOBAL DEFAULT 14 _ZN7android8hardware4wifi
514:   FUNC GLOBAL DEFAULT 14 _ZN7android8hardware4wifi
515:   FUNC GLOBAL DEFAULT 14 _ZN7android8hardware4wifi
516:   FUNC GLOBAL DEFAULT 14 _ZN7android8hardware4wifi
517:   FUNC WEAK DEFAULT 14 _ZN7android8hardware7deta
518:   OBJECT GLOBAL DEFAULT 18 _ZTCN7android8hardware4wi
519:   FUNC GLOBAL DEFAULT 14 _ZN7android8hardware4wifi
520:   FUNC GLOBAL DEFAULT 14 _ZN7android8hardware4wifi
521:   FUNC GLOBAL DEFAULT 14 _ZN7android8hardware4wifi
522:   OBJECT GLOBAL DEFAULT 16 _ZN7android8hardware4wifi
523:   FUNC GLOBAL DEFAULT 14 _ZN7android8hardware4wifi
524:   FUNC GLOBAL DEFAULT 14 _ZN7android8hardware4wifi
525:   FUNC GLOBAL DEFAULT 14 _ZN7android8hardware4wifi
526:   FUNC GLOBAL DEFAULT 14 _ZN7android8hardware4wifi
527:   FUNC GLOBAL DEFAULT 14 _ZN7android8hardware4wifi
528:   FUNC GLOBAL DEFAULT 14 _ZN7android8hardware4wifi
529:   FUNC GLOBAL DEFAULT 14 _ZN7android8hardware4wifi
530:   FUNC GLOBAL DEFAULT 14 _ZN7android8hardware4wifi
531:   FUNC GLOBAL DEFAULT 14 _ZN7android8hardware4wifi
532:   FUNC GLOBAL DEFAULT 14 _ZN7android8hardware4wifi
533:   FUNC GLOBAL DEFAULT 14 _ZN7android8hardware4wifi
534:   FUNC GLOBAL DEFAULT 14 _ZN7android8hardware4wifi
535:   OBJECT GLOBAL DEFAULT 18 _ZTVN7android8hardware4wi
536:   FUNC GLOBAL DEFAULT 14 _ZN7android8hardware4wifi
537:   FUNC GLOBAL DEFAULT 14 _ZN7android8hardware4wifi
538:   FUNC GLOBAL DEFAULT 14 _ZN7android8hardware4wifi
539:   FUNC GLOBAL DEFAULT 14 _ZN7android8hardware4wifi
540:   FUNC GLOBAL DEFAULT 14 _ZN7android8hardware4wifi
541:   FUNC GLOBAL DEFAULT 14 _ZN7android8hardware4wifi
542:   OBJECT GLOBAL DEFAULT 18 _ZTCN7android8hardware4wi
543:   OBJECT GLOBAL DEFAULT 18 _ZTVN7android8hardware4wi
544:   FUNC GLOBAL DEFAULT 14 _ZN7android8hardware4wifi
545:   FUNC GLOBAL DEFAULT 14 _ZN7android8hardware4wifi
546:   FUNC GLOBAL DEFAULT 14 _ZN7android8hardware4wifi
547:   FUNC GLOBAL DEFAULT 14 _ZN7android8hardware4wifi
548:   FUNC GLOBAL DEFAULT 14 _ZTv0_n24_N7android8hardw
549:   OBJECT WEAK DEFAULT 18 _ZTCN7android8hardware4wi
550:   FUNC WEAK DEFAULT 14 _ZN7android8hardware7deta
551:   FUNC GLOBAL DEFAULT 14 _ZThn32_N7android8hardwar
552:   FUNC GLOBAL DEFAULT 14 _ZN7android8hardware4wifi
553:   FUNC GLOBAL DEFAULT 14 _ZN7android8hardware4wifi
554:   FUNC GLOBAL DEFAULT 14 _ZN7android8hardware4wifi
555:   FUNC GLOBAL DEFAULT 14 _ZN7android8hardware4wifi
556:   OBJECT GLOBAL DEFAULT 18 _ZTCN7android8hardware4wi
557:   FUNC GLOBAL DEFAULT 14 _ZN7android8hardware4wifi
558:   FUNC GLOBAL DEFAULT 14 _ZN7android8hardware4wifi
559:   OBJECT GLOBAL DEFAULT 18 _ZTCN7android8hardware4wi
560:   FUNC GLOBAL DEFAULT 14 _ZN7android8hardware4wifi
561:   FUNC GLOBAL DEFAULT 14 _ZN7android8hardware4wifi
562:   FUNC GLOBAL DEFAULT 14 _ZN7android8hardware4wifi
563:   FUNC GLOBAL DEFAULT 14 _ZN7android8hardware4wifi
564:   FUNC GLOBAL DEFAULT 14 _ZN7android8hardware4wifi
565:   FUNC GLOBAL DEFAULT 14 _ZN7android8hardware4wifi
566:   FUNC GLOBAL DEFAULT 14 _ZN7android8hardware4wifi
567:   FUNC GLOBAL DEFAULT 14 _ZN7android8hardware4wifi
568:   FUNC GLOBAL DEFAULT 14 _ZN7android8hardware4wifi
569:   FUNC GLOBAL DEFAULT 14 _ZN7android8hardware4wifi
570:   FUNC GLOBAL DEFAULT 14 _ZN7android8hardware4wifi
571:   FUNC GLOBAL DEFAULT 14 _ZN7android8hardware4wifi
572:   FUNC GLOBAL DEFAULT 14 _ZN7android8hardware4wifi
573:   FUNC GLOBAL DEFAULT 14 _ZN7android8hardware4wifi
574:   FUNC GLOBAL DEFAULT 14 _ZN7android8hardware4wifi
575:   FUNC GLOBAL DEFAULT 14 _ZN7android8hardware4wifi
576:   FUNC GLOBAL DEFAULT 14 _ZN7android8hardware4wifi
577:   OBJECT GLOBAL DEFAULT 18 _ZTCN7android8hardware4wi
578:   FUNC GLOBAL DEFAULT 14 _ZN7android8hardware4wifi
579:   FUNC GLOBAL DEFAULT 14 _ZN7android8hardware4wifi
580:   FUNC GLOBAL DEFAULT 14 _ZN7android8hardware4wifi
581:   FUNC GLOBAL DEFAULT 14 _ZN7android8hardware4wifi
582:   FUNC GLOBAL DEFAULT 14 _ZN7android8hardware4wifi
583:   FUNC GLOBAL DEFAULT 14 _ZN7android8hardware4wifi
584:   FUNC GLOBAL DEFAULT 14 _ZN7android8hardware4wifi
585:   OBJECT GLOBAL DEFAULT 18 _ZTCN7android8hardware4wi
586:   FUNC GLOBAL DEFAULT 14 _ZN7android8hardware4wifi
587:   FUNC GLOBAL DEFAULT 14 _ZN7android8hardware4wifi
588:   OBJECT GLOBAL DEFAULT 18 _ZTCN7android8hardware4wi
589:   FUNC GLOBAL DEFAULT 14 _ZN7android8hardware4wifi
590:   FUNC GLOBAL DEFAULT 14 _ZN7android8hardware4wifi
591:   FUNC GLOBAL DEFAULT 14 _ZN7android8hardware4wifi
592:   FUNC GLOBAL DEFAULT 14 _ZN7android8hardware4wifi
593:   FUNC GLOBAL DEFAULT 14 _ZN7android8hardware4wifi
594:   FUNC GLOBAL DEFAULT 14 _ZN7android8hardware4wifi
595:   OBJECT GLOBAL DEFAULT 18 _ZTCN7android8hardware4wi
596:   FUNC GLOBAL DEFAULT 14 _ZN7android8hardware4wifi
597:   FUNC GLOBAL DEFAULT 14 _ZN7android8hardware4wifi
598:   FUNC GLOBAL DEFAULT 14 _ZN7android8hardware4wifi
599:   FUNC GLOBAL DEFAULT 14 _ZN7android8hardware4wifi
600:   FUNC GLOBAL DEFAULT 14 _ZN7android8hardware4wifi
601:   FUNC GLOBAL DEFAULT 14 _ZN7android8hardware4wifi
602:   FUNC GLOBAL DEFAULT 14 _ZN7android8hardware4wifi
603:   FUNC GLOBAL DEFAULT 14 _ZTv0_n24_N7android8hardw
604:   OBJECT GLOBAL DEFAULT 18 _ZTCN7android8hardware4wi
605:   FUNC GLOBAL DEFAULT 14 _ZN7android8hardware4wifi
606:   FUNC GLOBAL DEFAULT 14 _ZN7android8hardware4wifi
607:   FUNC GLOBAL DEFAULT 14 _ZN7android8hardware4wifi
608:   FUNC GLOBAL DEFAULT 14 _ZN7android8hardware4wifi
609:   FUNC GLOBAL DEFAULT 14 _ZN7android8hardware4wifi
610:   OBJECT WEAK DEFAULT 18 _ZTCN7android8hardware4wi
611:   FUNC GLOBAL DEFAULT 14 _ZN7android8hardware4wifi
612:   FUNC GLOBAL DEFAULT 14 _ZN7android8hardware4wifi
613:   FUNC GLOBAL DEFAULT 14 _ZN7android8hardware4wifi
614:   FUNC GLOBAL DEFAULT 14 _ZN7android8hardware4wifi
615:   FUNC GLOBAL DEFAULT 14 _ZTv0_n24_N7android8hardw
616:   FUNC GLOBAL DEFAULT 14 _ZN7android8hardware4wifi
617:   FUNC WEAK DEFAULT 14 _ZNSt3__16vectorIN7androi
618:   FUNC GLOBAL DEFAULT 14 _ZN7android8hardware4wifi
619:   FUNC GLOBAL DEFAULT 14 _ZN7android8hardware4wifi
620:   FUNC GLOBAL DEFAULT 14 _ZN7android8hardware4wifi
621:   FUNC WEAK DEFAULT 14 _ZN7android8hardware7deta
622:   FUNC GLOBAL DEFAULT 14 _ZN7android8hardware4wifi
623:   OBJECT GLOBAL DEFAULT 18 _ZTCN7android8hardware4wi
624:   FUNC GLOBAL DEFAULT 14 _ZN7android8hardware4wifi
625:   OBJECT WEAK DEFAULT 18 _ZTCN7android8hardware4wi
626:   FUNC GLOBAL DEFAULT 14 _ZN7android8hardware4wifi
627:   FUNC GLOBAL DEFAULT 14 _ZN7android8hardware4wifi
628:   OBJECT GLOBAL DEFAULT 18 _ZTCN7android8hardware4wi
629:   FUNC GLOBAL DEFAULT 14 _ZN7android8hardware4wifi
630:   FUNC GLOBAL DEFAULT 14 _ZN7android8hardware4wifi
631:   FUNC GLOBAL DEFAULT 14 _ZN7android8hardware4wifi
632:   FUNC GLOBAL DEFAULT 14 _ZN7android8hardware4wifi
633:   FUNC GLOBAL DEFAULT 14 _ZN7android8hardware4wifi
634:   FUNC GLOBAL DEFAULT 14 _ZN7android8hardware4wifi
635:   FUNC GLOBAL DEFAULT 14 _ZN7android8hardware4wifi
636:   FUNC GLOBAL DEFAULT 14 _ZN7android8hardware4wifi
637:   FUNC GLOBAL DEFAULT 14 _ZN7android8hardware4wifi
638:   FUNC GLOBAL DEFAULT 14 _ZN7android8hardware4wifi
639:   FUNC GLOBAL DEFAULT 14 _ZN7android8hardware4wifi
640:   OBJECT GLOBAL DEFAULT 18 _ZTCN7android8hardware4wi
641:   FUNC GLOBAL DEFAULT 14 _ZTv0_n24_N7android8hardw
642:   FUNC WEAK DEFAULT 14 _ZN7android8hardware7deta
643:   OBJECT WEAK DEFAULT 18 _ZTCN7android8hardware4wi
644:   FUNC GLOBAL DEFAULT 14 _ZN7android8hardware4wifi
645:   FUNC GLOBAL DEFAULT 14 _ZN7android8hardware4wifi
646:   FUNC GLOBAL DEFAULT 14 _ZN7android8hardware4wifi
647:   FUNC GLOBAL DEFAULT 14 _ZN7android8hardware4wifi
648:   FUNC GLOBAL DEFAULT 14 _ZN7android8hardware4wifi
649:   FUNC GLOBAL DEFAULT 14 _ZN7android8hardware4wifi
650:   FUNC GLOBAL DEFAULT 14 _ZN7android8hardware4wifi
651:   FUNC GLOBAL DEFAULT 14 _ZTv0_n24_N7android8hardw
652:   FUNC GLOBAL DEFAULT 14 _ZN7android8hardware4wifi
653:   FUNC GLOBAL DEFAULT 14 _ZN7android8hardware4wifi
654:   FUNC GLOBAL DEFAULT 14 _ZN7android8hardware4wifi
655:   FUNC GLOBAL DEFAULT 14 _ZN7android8hardware4wifi
656:   FUNC GLOBAL DEFAULT 14 _ZN7android8hardware4wifi
657:   FUNC GLOBAL DEFAULT 14 _ZN7android8hardware4wifi
658:   FUNC GLOBAL DEFAULT 14 _ZN7android8hardware4wifi
659:   FUNC GLOBAL DEFAULT 14 _ZN7android8hardware4wifi
660:   FUNC GLOBAL DEFAULT 14 _ZN7android8hardware4wifi
661:   FUNC GLOBAL DEFAULT 14 _ZN7android8hardware4wifi
662:   FUNC GLOBAL DEFAULT 14 _ZTv0_n24_N7android8hardw
663:   FUNC GLOBAL DEFAULT 14 _ZN7android8hardware4wifi
664:   OBJECT GLOBAL DEFAULT 18 _ZTVN7android8hardware4wi
665:   FUNC GLOBAL DEFAULT 14 _ZN7android8hardware4wifi
666:   FUNC GLOBAL DEFAULT 14 _ZN7android8hardware4wifi
667:   OBJECT GLOBAL DEFAULT 18 _ZTTN7android8hardware4wi
668:   FUNC GLOBAL DEFAULT 14 _ZN7android8hardware4wifi
669:   OBJECT GLOBAL DEFAULT 18 _ZTCN7android8hardware4wi
670:   FUNC GLOBAL DEFAULT 14 _ZN7android8hardware4wifi
671:   FUNC GLOBAL DEFAULT 14 _ZTv0_n24_N7android8hardw
672:   FUNC GLOBAL DEFAULT 14 _ZN7android8hardware4wifi
673:   OBJECT GLOBAL DEFAULT 18 _ZTCN7android8hardware4wi
674:   FUNC GLOBAL DEFAULT 14 _ZN7android8hardware4wifi
675:   FUNC GLOBAL DEFAULT 14 _ZN7android8hardware4wifi
676:   FUNC GLOBAL DEFAULT 14 _ZN7android8hardware4wifi
677:   FUNC GLOBAL DEFAULT 14 _ZN7android8hardware4wifi
678:   FUNC GLOBAL DEFAULT 14 _ZN7android8hardware4wifi
679:   FUNC GLOBAL DEFAULT 14 _ZN7android8hardware4wifi
680:   FUNC GLOBAL DEFAULT 14 _ZN7android8hardware4wifi
681:   FUNC GLOBAL DEFAULT 14 _ZN7android8hardware4wifi
682:   FUNC GLOBAL DEFAULT 14 _ZN7android8hardware4wifi
683:   FUNC GLOBAL DEFAULT 14 _ZN7android8hardware4wifi
684:   FUNC GLOBAL DEFAULT 14 _ZN7android8hardware4wifi
685:   FUNC GLOBAL DEFAULT 14 _ZN7android8hardware4wifi
686:   OBJECT WEAK DEFAULT 18 _ZTCN7android8hardware4wi
687:   FUNC GLOBAL DEFAULT 14 _ZN7android8hardware4wifi
688:   OBJECT GLOBAL DEFAULT 18 _ZTCN7android8hardware4wi
689:   FUNC GLOBAL DEFAULT 14 _ZN7android8hardware4wifi
690:   FUNC GLOBAL DEFAULT 14 _ZN7android8hardware4wifi
691:   FUNC GLOBAL DEFAULT 14 _ZN7android8hardware4wifi
692:   FUNC GLOBAL DEFAULT 14 _ZN7android8hardware4wifi
693:   FUNC GLOBAL DEFAULT 14 _ZN7android8hardware4wifi
694:   FUNC GLOBAL DEFAULT 14 _ZN7android8hardware4wifi
695:   OBJECT GLOBAL DEFAULT 18 _ZTTN7android8hardware4wi
696:   FUNC GLOBAL DEFAULT 14 _ZN7android8hardware4wifi
697:   FUNC GLOBAL DEFAULT 14 _ZN7android8hardware4wifi
698:   FUNC GLOBAL DEFAULT 14 _ZTv0_n24_N7android8hardw
699:   FUNC GLOBAL DEFAULT 14 _ZN7android8hardware4wifi
700:   FUNC GLOBAL DEFAULT 14 _ZN7android8hardware4wifi
701:   FUNC WEAK DEFAULT 14 _ZN7android8hardware7deta
702:   FUNC GLOBAL DEFAULT 14 _ZN7android8hardware4wifi
703:   FUNC GLOBAL DEFAULT 14 _ZN7android8hardware4wifi
704:   FUNC GLOBAL DEFAULT 14 _ZN7android8hardware4wifi
705:   OBJECT GLOBAL DEFAULT 18 _ZTCN7android8hardware4wi
706:   FUNC WEAK DEFAULT 14 _ZNSt3__127__tree_balance
707:   FUNC GLOBAL DEFAULT 14 _ZTv0_n24_N7android8hardw
708:   FUNC GLOBAL DEFAULT 14 _ZN7android8hardware4wifi
709:   FUNC GLOBAL DEFAULT 14 _ZTv0_n24_N7android8hardw
710:   FUNC GLOBAL DEFAULT 14 _ZN7android8hardware4wifi
711:   FUNC GLOBAL DEFAULT 14 _ZN7android8hardware4wifi
712:   OBJECT GLOBAL DEFAULT 18 _ZTVN7android8hardware4wi
713:   FUNC GLOBAL DEFAULT 14 _ZN7android8hardware4wifi
714:   FUNC GLOBAL DEFAULT 14 _ZN7android8hardware4wifi
715:   FUNC GLOBAL DEFAULT 14 _ZN7android8hardware4wifi
716:   FUNC GLOBAL DEFAULT 14 _ZN7android8hardware4wifi
717:   FUNC GLOBAL DEFAULT 14 _ZN7android8hardware4wifi
718:   OBJECT GLOBAL DEFAULT 18 _ZTCN7android8hardware4wi
719:   FUNC GLOBAL DEFAULT 14 _ZN7android8hardware4wifi
720:   FUNC GLOBAL DEFAULT 14 _ZN7android8hardware4wifi
721:   FUNC GLOBAL DEFAULT 14 _ZN7android8hardware4wifi
722:   FUNC GLOBAL DEFAULT 14 _ZN7android8hardware4wifi
723:   FUNC GLOBAL DEFAULT 14 _ZN7android8hardware4wifi
724:   FUNC GLOBAL DEFAULT 14 _ZTv0_n24_N7android8hardw
725:   FUNC GLOBAL DEFAULT 14 _ZN7android8hardware4wifi
726:   FUNC GLOBAL DEFAULT 14 _ZN7android8hardware4wifi
727:   FUNC GLOBAL DEFAULT 14 _ZN7android8hardware4wifi
728:   FUNC GLOBAL DEFAULT 14 _ZN7android8hardware4wifi
729:   FUNC GLOBAL DEFAULT 14 _ZN7android8hardware4wifi
730:   FUNC GLOBAL DEFAULT 14 _ZN7android8hardware4wifi
731:   FUNC GLOBAL DEFAULT 14 _ZN7android8hardware4wifi
732:   OBJECT GLOBAL DEFAULT 18 _ZTVN7android8hardware4wi
733:   FUNC GLOBAL DEFAULT 14 _ZN7android8hardware4wifi
734:   FUNC GLOBAL DEFAULT 14 _ZTv0_n24_N7android8hardw
735:   FUNC GLOBAL DEFAULT 14 _ZN7android8hardware4wifi
736:   FUNC GLOBAL DEFAULT 14 _ZN7android8hardware4wifi
737:   FUNC GLOBAL DEFAULT 14 _ZN7android8hardware4wifi
738:   FUNC GLOBAL DEFAULT 14 _ZThn32_N7android8hardwar
739:   FUNC GLOBAL DEFAULT 14 _ZTv0_n24_N7android8hardw
740:   FUNC GLOBAL DEFAULT 14 _ZN7android8hardware4wifi
741:   FUNC GLOBAL DEFAULT 14 _ZN7android8hardware4wifi
742:   FUNC GLOBAL DEFAULT 14 _ZN7android8hardware4wifi
743:   OBJECT GLOBAL DEFAULT 18 _ZTTN7android8hardware4wi
744:   FUNC GLOBAL DEFAULT 14 _ZN7android8hardware4wifi
745:   FUNC GLOBAL DEFAULT 14 _ZN7android8hardware4wifi
746:   FUNC GLOBAL DEFAULT 14 _ZN7android8hardware4wifi
747:   FUNC WEAK DEFAULT 14 _ZN7android8hardware10fro
748:   FUNC WEAK DEFAULT 14 _ZN7android8hardware7deta
749:   OBJECT GLOBAL DEFAULT 18 _ZTCN7android8hardware4wi
750:   FUNC GLOBAL DEFAULT 14 _ZN7android8hardware4wifi
751:   FUNC GLOBAL DEFAULT 14 _ZN7android8hardware4wifi
752:   FUNC GLOBAL DEFAULT 14 _ZN7android8hardware4wifi
753:   FUNC GLOBAL DEFAULT 14 _ZN7android8hardware4wifi
754:   OBJECT GLOBAL DEFAULT 18 _ZTTN7android8hardware4wi
755:   OBJECT GLOBAL DEFAULT 18 _ZTVN7android8hardware4wi
756:   FUNC GLOBAL DEFAULT 14 _ZN7android8hardware4wifi
757:   FUNC GLOBAL DEFAULT 14 _ZN7android8hardware4wifi
758:   FUNC GLOBAL DEFAULT 14 _ZN7android8hardware4wifi
759:   FUNC GLOBAL DEFAULT 14 _ZN7android8hardware4wifi
760:   FUNC GLOBAL DEFAULT 14 _ZN7android8hardware4wifi
761:   FUNC GLOBAL DEFAULT 14 _ZN7android8hardware4wifi
762:   FUNC GLOBAL DEFAULT 14 _ZN7android8hardware4wifi
763:   OBJECT GLOBAL DEFAULT 18 _ZTCN7android8hardware4wi
764:   FUNC GLOBAL DEFAULT 14 _ZN7android8hardware4wifi
765:   OBJECT GLOBAL DEFAULT 18 _ZTCN7android8hardware4wi
766:   FUNC GLOBAL DEFAULT 14 _ZTv0_n24_N7android8hardw
767:   FUNC GLOBAL DEFAULT 14 _ZN7android8hardware4wifi
768:   FUNC GLOBAL DEFAULT 14 _ZN7android8hardware4wifi
769:   FUNC GLOBAL DEFAULT 14 _ZN7android8hardware4wifi
770:   FUNC GLOBAL DEFAULT 14 _ZN7android8hardware4wifi
771:   FUNC GLOBAL DEFAULT 14 _ZN7android8hardware4wifi
772:   FUNC GLOBAL DEFAULT 14 _ZN7android8hardware4wifi
773:   FUNC WEAK DEFAULT 14 _ZN7android8hardware7deta
774:   FUNC GLOBAL DEFAULT 14 _ZN7android8hardware4wifi
775:   FUNC GLOBAL DEFAULT 14 _ZN7android8hardware4wifi
776:   FUNC GLOBAL DEFAULT 14 _ZN7android8hardware4wifi
777:   OBJECT GLOBAL DEFAULT 18 _ZTTN7android8hardware4wi
778:   FUNC GLOBAL DEFAULT 14 _ZN7android8hardware4wifi
779:   FUNC GLOBAL DEFAULT 14 _ZN7android8hardware4wifi
780:   FUNC GLOBAL DEFAULT 14 _ZN7android8hardware4wifi
781:   FUNC GLOBAL DEFAULT 14 _ZN7android8hardware4wifi
782:   FUNC GLOBAL DEFAULT 14 _ZTv0_n24_N7android8hardw
783:   FUNC GLOBAL DEFAULT 14 _ZN7android8hardware4wifi
784:   FUNC GLOBAL DEFAULT 14 _ZN7android8hardware4wifi
785:   FUNC GLOBAL DEFAULT 14 _ZN7android8hardware4wifi
786:   FUNC GLOBAL DEFAULT 14 _ZN7android8hardware4wifi
787:   FUNC GLOBAL DEFAULT 14 _ZN7android8hardware4wifi
788:   FUNC GLOBAL DEFAULT 14 _ZN7android8hardware4wifi
789:   FUNC GLOBAL DEFAULT 14 _ZN7android8hardware4wifi
790:   FUNC GLOBAL DEFAULT 14 _ZN7android8hardware4wifi
791:   FUNC GLOBAL DEFAULT 14 _ZN7android8hardware4wifi
792:   FUNC GLOBAL DEFAULT 14 _ZN7android8hardware4wifi
793:   FUNC GLOBAL DEFAULT 14 _ZN7android8hardware4wifi
794:   FUNC GLOBAL DEFAULT 14 _ZN7android8hardware4wifi
795:   FUNC GLOBAL DEFAULT 14 _ZN7android8hardware4wifi
796:   OBJECT GLOBAL DEFAULT 18 _ZTVN7android8hardware4wi
797:   FUNC GLOBAL DEFAULT 14 _ZN7android8hardware4wifi
798:   OBJECT WEAK DEFAULT 18 _ZTVN7android8hardware4wi
799:   FUNC GLOBAL DEFAULT 14 _ZTv0_n24_N7android8hardw
800:   FUNC GLOBAL DEFAULT 14 _ZN7android8hardware4wifi
801:   FUNC GLOBAL DEFAULT 14 _ZN7android8hardware4wifi
802:   FUNC GLOBAL DEFAULT 14 _ZN7android8hardware4wifi
803:   FUNC GLOBAL DEFAULT 14 _ZN7android8hardware4wifi
804:   FUNC GLOBAL DEFAULT 14 _ZN7android8hardware4wifi
805:   FUNC GLOBAL DEFAULT 14 _ZN7android8hardware4wifi
806:   FUNC GLOBAL DEFAULT 14 _ZN7android8hardware4wifi
807:   FUNC GLOBAL DEFAULT 14 _ZN7android8hardware4wifi
808:   OBJECT GLOBAL DEFAULT 18 _ZTVN7android8hardware4wi
809:   FUNC GLOBAL DEFAULT 14 _ZN7android8hardware4wifi
810:   FUNC GLOBAL DEFAULT 14 _ZN7android8hardware4wifi
811:   FUNC GLOBAL DEFAULT 14 _ZThn32_N7android8hardwar
812:   FUNC GLOBAL DEFAULT 14 _ZN7android8hardware4wifi
813:   OBJECT GLOBAL DEFAULT 18 _ZTTN7android8hardware4wi
814:   FUNC GLOBAL DEFAULT 14 _ZN7android8hardware4wifi
815:   FUNC GLOBAL DEFAULT 14 _ZTv0_n24_N7android8hardw
816:   FUNC GLOBAL DEFAULT 14 _ZN7android8hardware4wifi
817:   FUNC GLOBAL DEFAULT 14 _ZN7android8hardware4wifi
818:   OBJECT GLOBAL DEFAULT 16 _ZN7android8hardware4wifi
819:   FUNC GLOBAL DEFAULT 14 _ZN7android8hardware4wifi
820:   FUNC GLOBAL DEFAULT 14 _ZN7android8hardware4wifi
821:   FUNC GLOBAL DEFAULT 14 _ZN7android8hardware4wifi
822:   FUNC GLOBAL DEFAULT 14 _ZN7android8hardware4wifi
823:   FUNC GLOBAL DEFAULT 14 _ZN7android8hardware4wifi
824:   FUNC GLOBAL DEFAULT 14 _ZN7android8hardware4wifi
825:   FUNC GLOBAL DEFAULT 14 _ZN7android8hardware4wifi
826:   OBJECT GLOBAL DEFAULT 18 _ZTCN7android8hardware4wi
827:   FUNC GLOBAL DEFAULT 14 _ZN7android8hardware4wifi
828:   FUNC GLOBAL DEFAULT 14 _ZN7android8hardware4wifi
829:   FUNC GLOBAL DEFAULT 14 _ZN7android8hardware4wifi
830:   FUNC GLOBAL DEFAULT 14 _ZN7android8hardware4wifi
831:   FUNC GLOBAL DEFAULT 14 _ZN7android8hardware4wifi
832:   FUNC GLOBAL DEFAULT 14 _ZN7android8hardware4wifi
833:   FUNC GLOBAL DEFAULT 14 _ZN7android8hardware4wifi
834:   FUNC WEAK DEFAULT 14 _ZN7android8hardware7deta
835:   FUNC GLOBAL DEFAULT 14 _ZN7android8hardware4wifi
836:   FUNC GLOBAL DEFAULT 14 _ZN7android8hardware4wifi
837:   OBJECT GLOBAL DEFAULT 18 _ZTVN7android8hardware4wi
838:   FUNC GLOBAL DEFAULT 14 _ZN7android8hardware4wifi
839:   FUNC GLOBAL DEFAULT 14 _ZN7android8hardware4wifi
840:   OBJECT GLOBAL DEFAULT 18 _ZTTN7android8hardware4wi
841:   FUNC GLOBAL DEFAULT 14 _ZN7android8hardware4wifi
842:   FUNC GLOBAL DEFAULT 14 _ZN7android8hardware4wifi
843:   FUNC GLOBAL DEFAULT 14 _ZN7android8hardware4wifi
844:   FUNC WEAK DEFAULT 14 _ZN7android8hardware10fro
845:   FUNC GLOBAL DEFAULT 14 _ZN7android8hardware4wifi
846:   FUNC GLOBAL DEFAULT 14 _ZN7android8hardware4wifi
847:   FUNC GLOBAL DEFAULT 14 _ZN7android8hardware4wifi
848:   FUNC GLOBAL DEFAULT 14 _ZN7android8hardware4wifi
849:   OBJECT GLOBAL DEFAULT 18 _ZTCN7android8hardware4wi
850:   FUNC GLOBAL DEFAULT 14 _ZN7android8hardware4wifi
851:   FUNC GLOBAL DEFAULT 14 _ZN7android8hardware4wifi
852:   FUNC GLOBAL DEFAULT 14 _ZN7android8hardware4wifi
853:   FUNC GLOBAL DEFAULT 14 _ZN7android8hardware4wifi
854:   FUNC GLOBAL DEFAULT 14 _ZN7android8hardware4wifi
855:   FUNC GLOBAL DEFAULT 14 _ZN7android8hardware4wifi
856:   FUNC GLOBAL DEFAULT 14 _ZTv0_n24_N7android8hardw
857:   FUNC GLOBAL DEFAULT 14 _ZN7android8hardware4wifi
858:   FUNC GLOBAL DEFAULT 14 _ZN7android8hardware4wifi
859:   FUNC WEAK DEFAULT 14 _ZNSt3__16__treeINS_12__v
860:   FUNC GLOBAL DEFAULT 14 _ZN7android8hardware4wifi
861:   FUNC GLOBAL DEFAULT 14 _ZN7android8hardware4wifi
862:   FUNC GLOBAL DEFAULT 14 _ZN7android8hardware4wifi
863:   OBJECT GLOBAL DEFAULT 18 _ZTTN7android8hardware4wi
864:   FUNC GLOBAL DEFAULT 14 _ZN7android8hardware4wifi
865:   FUNC GLOBAL DEFAULT 14 _ZN7android8hardware4wifi
866:   FUNC GLOBAL DEFAULT 14 _ZN7android8hardware4wifi
867:   FUNC GLOBAL DEFAULT 14 _ZN7android8hardware4wifi
868:   FUNC GLOBAL DEFAULT 14 _ZN7android8hardware4wifi
869:   FUNC GLOBAL DEFAULT 14 _ZN7android8hardware4wifi
870:   FUNC GLOBAL DEFAULT 14 _ZN7android8hardware4wifi
871:   FUNC GLOBAL DEFAULT 14 _ZN7android8hardware4wifi
872:   FUNC GLOBAL DEFAULT 14 _ZN7android8hardware4wifi
873:   FUNC GLOBAL DEFAULT 14 _ZN7android8hardware4wifi
874:   OBJECT GLOBAL DEFAULT 18 _ZTVN7android8hardware4wi
875:   FUNC GLOBAL DEFAULT 14 _ZN7android8hardware4wifi
876:   FUNC GLOBAL DEFAULT 14 _ZN7android8hardware4wifi
877:   FUNC GLOBAL DEFAULT 14 _ZN7android8hardware4wifi
878:   FUNC GLOBAL DEFAULT 14 _ZN7android8hardware4wifi
879:   FUNC GLOBAL DEFAULT 14 _ZN7android8hardware4wifi
880:   FUNC GLOBAL DEFAULT 14 _ZN7android8hardware4wifi
881:   FUNC GLOBAL DEFAULT 14 _ZN7android8hardware4wifi
882:   FUNC GLOBAL DEFAULT 14 _ZN7android8hardware4wifi
883:   OBJECT GLOBAL DEFAULT 18 _ZTCN7android8hardware4wi
884:   OBJECT GLOBAL DEFAULT 18 _ZTVN7android8hardware4wi
885:   OBJECT GLOBAL DEFAULT 16 _ZN7android8hardware4wifi
886:   FUNC GLOBAL DEFAULT 14 _ZN7android8hardware4wifi
887:   FUNC GLOBAL DEFAULT 14 _ZN7android8hardware4wifi
888:   FUNC GLOBAL DEFAULT 14 _ZN7android8hardware4wifi
889:   FUNC GLOBAL DEFAULT 14 _ZN7android8hardware4wifi
890:   FUNC GLOBAL DEFAULT 14 _ZN7android8hardware4wifi
891:   FUNC GLOBAL DEFAULT 14 _ZN7android8hardware4wifi
892:   OBJECT WEAK DEFAULT 18 _ZTVN7android8hardware11B
893:   FUNC GLOBAL DEFAULT 14 _ZN7android8hardware4wifi
894:   FUNC GLOBAL DEFAULT 14 _ZN7android8hardware4wifi
895:   FUNC GLOBAL DEFAULT 14 _ZN7android8hardware4wifi
896:   FUNC GLOBAL DEFAULT 14 _ZN7android8hardware4wifi
897:   FUNC GLOBAL DEFAULT 14 _ZN7android8hardware4wifi
898:   OBJECT WEAK DEFAULT 18 _ZTVN7android8hardware4wi
899:   OBJECT GLOBAL DEFAULT 18 _ZTCN7android8hardware4wi
900:   FUNC GLOBAL DEFAULT 14 _ZN7android8hardware4wifi
901:   FUNC GLOBAL DEFAULT 14 _ZN7android8hardware4wifi
902:   FUNC GLOBAL DEFAULT 14 _ZN7android8hardware4wifi
903:   OBJECT GLOBAL DEFAULT 18 _ZTCN7android8hardware4wi
904:   FUNC GLOBAL DEFAULT 14 _ZN7android8hardware4wifi
905:   OBJECT GLOBAL DEFAULT 18 _ZTVN7android8hardware4wi
906:   FUNC GLOBAL DEFAULT 14 _ZN7android8hardware4wifi
907:   FUNC GLOBAL DEFAULT 14 _ZN7android8hardware4wifi
908:   FUNC GLOBAL DEFAULT 14 _ZN7android8hardware4wifi
909:   FUNC GLOBAL DEFAULT 14 _ZN7android8hardware4wifi
910:   FUNC GLOBAL DEFAULT 14 _ZN7android8hardware4wifi
911:   OBJECT GLOBAL DEFAULT 18 _ZTVN7android8hardware4wi
912:   FUNC GLOBAL DEFAULT 14 _ZN7android8hardware4wifi
913:   FUNC GLOBAL DEFAULT 14 _ZN7android8hardware4wifi
914:   OBJECT GLOBAL DEFAULT 18 _ZTTN7android8hardware4wi
915:   FUNC GLOBAL DEFAULT 14 _ZN7android8hardware4wifi
916:   FUNC GLOBAL DEFAULT 14 _ZN7android8hardware4wifi
917:   OBJECT GLOBAL DEFAULT 18 _ZTCN7android8hardware4wi
918:   OBJECT GLOBAL DEFAULT 18 _ZTTN7android8hardware4wi
919:   FUNC GLOBAL DEFAULT 14 _ZN7android8hardware4wifi
920:   OBJECT GLOBAL DEFAULT 18 _ZTVN7android8hardware4wi
921:   FUNC GLOBAL DEFAULT 14 _ZN7android8hardware4wifi
922:   OBJECT GLOBAL DEFAULT 18 _ZTCN7android8hardware4wi
923:   OBJECT GLOBAL DEFAULT 18 _ZTCN7android8hardware4wi
924:   FUNC GLOBAL DEFAULT 14 _ZN7android8hardware4wifi
925:   FUNC GLOBAL DEFAULT 14 _ZN7android8hardware4wifi
926:   FUNC GLOBAL DEFAULT 14 _ZN7android8hardware4wifi
927:   OBJECT GLOBAL DEFAULT 18 _ZTVN7android8hardware4wi
928:   OBJECT WEAK DEFAULT 18 _ZTVN7android8hardware4wi
929:   FUNC GLOBAL DEFAULT 14 _ZN7android8hardware4wifi
930:   OBJECT GLOBAL DEFAULT 18 _ZTVN7android8hardware4wi
931:   FUNC GLOBAL DEFAULT 14 _ZN7android8hardware4wifi
932:   FUNC GLOBAL DEFAULT 14 _ZN7android8hardware4wifi
933:   FUNC GLOBAL DEFAULT 14 _ZN7android8hardware4wifi
934:   OBJECT GLOBAL DEFAULT 18 _ZTTN7android8hardware4wi
935:   OBJECT GLOBAL DEFAULT 18 _ZTCN7android8hardware4wi
936:   FUNC GLOBAL DEFAULT 14 _ZN7android8hardware4wifi
937:   FUNC GLOBAL DEFAULT 14 _ZN7android8hardware4wifi
938:   FUNC GLOBAL DEFAULT 14 _ZN7android8hardware4wifi
939:   FUNC GLOBAL DEFAULT 14 _ZN7android8hardware4wifi
940:   FUNC GLOBAL DEFAULT 14 _ZN7android8hardware4wifi
941:   FUNC GLOBAL DEFAULT 14 _ZN7android8hardware4wifi
942:   FUNC GLOBAL DEFAULT 14 _ZN7android8hardware4wifi
943:   FUNC GLOBAL DEFAULT 14 _ZN7android8hardware4wifi
944:   FUNC GLOBAL DEFAULT 14 _ZN7android8hardware4wifi
945:   FUNC GLOBAL DEFAULT 14 _ZN7android8hardware4wifi
946:   FUNC GLOBAL DEFAULT 14 _ZN7android8hardware4wifi
947:   FUNC GLOBAL DEFAULT 14 _ZN7android8hardware4wifi
948:   FUNC GLOBAL DEFAULT 14 _ZN7android8hardware4wifi
949:   FUNC GLOBAL DEFAULT 14 _ZN7android8hardware4wifi
950:   FUNC GLOBAL DEFAULT 14 _ZN7android8hardware4wifi
951:   FUNC GLOBAL DEFAULT 14 _ZN7android8hardware4wifi
952:   FUNC GLOBAL DEFAULT 14 _ZN7android8hardware4wifi
953:   FUNC GLOBAL DEFAULT 14 _ZN7android8hardware4wifi
954:   FUNC GLOBAL DEFAULT 14 _ZN7android8hardware4wifi
955:   FUNC GLOBAL DEFAULT 14 _ZN7android8hardware4wifi
956:   FUNC GLOBAL DEFAULT 14 _ZN7android8hardware4wifi
957:   FUNC GLOBAL DEFAULT 14 _ZN7android8hardware4wifi
958:   OBJECT GLOBAL DEFAULT 18 _ZTVN7android8hardware4wi
959:   OBJECT GLOBAL DEFAULT 18 _ZTCN7android8hardware4wi
960:   FUNC GLOBAL DEFAULT 14 _ZN7android8hardware4wifi
961:   FUNC GLOBAL DEFAULT 14 _ZN7android8hardware4wifi
962:   FUNC GLOBAL DEFAULT 14 _ZN7android8hardware4wifi
963:   FUNC GLOBAL DEFAULT 14 _ZN7android8hardware4wifi
964:   FUNC GLOBAL DEFAULT 14 _ZN7android8hardware4wifi
965:   OBJECT GLOBAL DEFAULT 18 _ZTTN7android8hardware4wi
966:   FUNC GLOBAL DEFAULT 14 _ZN7android8hardware4wifi
967:   OBJECT GLOBAL DEFAULT 18 _ZTTN7android8hardware4wi
968:   FUNC GLOBAL DEFAULT 14 _ZN7android8hardware4wifi
969:   FUNC GLOBAL DEFAULT 14 _ZN7android8hardware4wifi
970:   FUNC GLOBAL DEFAULT 14 _ZN7android8hardware4wifi
971:   OBJECT GLOBAL DEFAULT 18 _ZTTN7android8hardware4wi
972:   FUNC GLOBAL DEFAULT 14 _ZN7android8hardware4wifi
973:   FUNC GLOBAL DEFAULT 14 _ZThn32_N7android8hardwar
974:   FUNC GLOBAL DEFAULT 14 _ZN7android8hardware4wifi
975:   FUNC GLOBAL DEFAULT 14 _ZN7android8hardware4wifi
976:   OBJECT GLOBAL DEFAULT 18 _ZTVN7android8hardware4wi
977:   FUNC GLOBAL DEFAULT 14 _ZN7android8hardware4wifi
978:   FUNC GLOBAL DEFAULT 14 _ZN7android8hardware4wifi
979:   FUNC GLOBAL DEFAULT 14 _ZN7android8hardware4wifi
980:   FUNC GLOBAL DEFAULT 14 _ZN7android8hardware4wifi
981:   FUNC GLOBAL DEFAULT 14 _ZN7android8hardware4wifi
982:   FUNC GLOBAL DEFAULT 14 _ZN7android8hardware4wifi
983:   FUNC GLOBAL DEFAULT 14 _ZN7android8hardware4wifi
984:   FUNC GLOBAL DEFAULT 14 _ZN7android8hardware4wifi
985:   FUNC GLOBAL DEFAULT 14 _ZN7android8hardware4wifi
986:   FUNC GLOBAL DEFAULT 14 _ZN7android8hardware4wifi
987:   FUNC GLOBAL DEFAULT 14 _ZN7android8hardware4wifi
988:   FUNC GLOBAL DEFAULT 14 _ZN7android8hardware4wifi
989:   FUNC GLOBAL DEFAULT 14 _ZN7android8hardware4wifi
990:   FUNC GLOBAL DEFAULT 14 _ZN7android8hardware4wifi
991:   FUNC GLOBAL DEFAULT 14 _ZN7android8hardware4wifi
992:   OBJECT GLOBAL DEFAULT 18 _ZTCN7android8hardware4wi
993:   FUNC GLOBAL DEFAULT 14 _ZN7android8hardware4wifi
994:   FUNC GLOBAL DEFAULT 14 _ZN7android8hardware4wifi
995:   OBJECT GLOBAL DEFAULT 18 _ZTCN7android8hardware4wi
996:   OBJECT WEAK DEFAULT 18 _ZTTN7android8hardware11B
997:   FUNC GLOBAL DEFAULT 14 _ZN7android8hardware4wifi
998:   FUNC GLOBAL DEFAULT 14 _ZN7android8hardware4wifi
999:   FUNC GLOBAL DEFAULT 14 _ZN7android8hardware4wifi
1000:   OBJECT GLOBAL DEFAULT 18 _ZTCN7android8hardware4wi
1001:   OBJECT GLOBAL DEFAULT 16 _ZN7android8hardware4wifi
1002:   FUNC GLOBAL DEFAULT 14 _ZN7android8hardware4wifi
1003:   FUNC GLOBAL DEFAULT 14 _ZN7android8hardware4wifi
1004:   FUNC GLOBAL DEFAULT 14 _ZN7android8hardware4wifi
1005:   FUNC GLOBAL DEFAULT 14 _ZN7android8hardware4wifi
1006:   FUNC GLOBAL DEFAULT 14 _ZN7android8hardware4wifi
1007:   FUNC GLOBAL DEFAULT 14 _ZN7android8hardware4wifi
1008:   FUNC GLOBAL DEFAULT 14 _ZN7android8hardware4wifi
1009:   FUNC GLOBAL DEFAULT 14 _ZN7android8hardware4wifi
1010:   FUNC GLOBAL DEFAULT 14 _ZN7android8hardware4wifi
1011:   FUNC GLOBAL DEFAULT 14 _ZN7android8hardware4wifi
1012:   FUNC GLOBAL DEFAULT 14 _ZN7android8hardware4wifi
1013:   OBJECT GLOBAL DEFAULT 16 _ZN7android8hardware4wifi
1014:   FUNC GLOBAL DEFAULT 14 _ZN7android8hardware4wifi
1015:   FUNC GLOBAL DEFAULT 14 _ZN7android8hardware4wifi
1016:   FUNC GLOBAL DEFAULT 14 _ZThn32_N7android8hardwar
1017:   FUNC GLOBAL DEFAULT 14 _ZN7android8hardware4wifi
1018:   FUNC GLOBAL DEFAULT 14 _ZN7android8hardware4wifi
1019:   FUNC GLOBAL DEFAULT 14 _ZN7android8hardware4wifi
1020:   FUNC GLOBAL DEFAULT 14 _ZN7android8hardware4wifi
1021:   FUNC GLOBAL DEFAULT 14 _ZN7android8hardware4wifi
1022:   FUNC GLOBAL DEFAULT 14 _ZN7android8hardware4wifi
1023:   FUNC GLOBAL DEFAULT 14 _ZN7android8hardware4wifi
1024:   FUNC GLOBAL DEFAULT 14 _ZN7android8hardware4wifi
1025:   FUNC GLOBAL DEFAULT 14 _ZN7android8hardware4wifi
1026:   OBJECT GLOBAL DEFAULT 18 _ZTCN7android8hardware4wi
1027:   FUNC GLOBAL DEFAULT 14 _ZN7android8hardware4wifi
1028:   FUNC GLOBAL DEFAULT 14 _ZN7android8hardware4wifi
1029:   FUNC GLOBAL DEFAULT 14 _ZN7android8hardware4wifi
1030:   FUNC GLOBAL DEFAULT 14 _ZN7android8hardware4wifi
1031:   FUNC GLOBAL DEFAULT 14 _ZN7android8hardware4wifi
1032:   OBJECT GLOBAL DEFAULT 18 _ZTVN7android8hardware4wi
1033:   FUNC GLOBAL DEFAULT 14 _ZN7android8hardware4wifi
1034:   FUNC GLOBAL DEFAULT 14 _ZN7android8hardware4wifi
1035:   FUNC GLOBAL DEFAULT 14 _ZN7android8hardware4wifi
1036:   FUNC WEAK DEFAULT 14 _ZNSt3__16__treeINS_12__v
1037:   FUNC WEAK DEFAULT 14 _ZN7android8hardware7deta
1038:   FUNC GLOBAL DEFAULT 14 _ZN7android8hardware4wifi
1039:   FUNC GLOBAL DEFAULT 14 _ZN7android8hardware4wifi
1040:   OBJECT GLOBAL DEFAULT 18 _ZTCN7android8hardware4wi
1041:   FUNC GLOBAL DEFAULT 14 _ZN7android8hardware4wifi
1042:   FUNC GLOBAL DEFAULT 14 _ZN7android8hardware4wifi
1043:   FUNC GLOBAL DEFAULT 14 _ZN7android8hardware4wifi
1044:   FUNC GLOBAL DEFAULT 14 _ZN7android8hardware4wifi
1045:   FUNC GLOBAL DEFAULT 14 _ZN7android8hardware4wifi
1046:   FUNC GLOBAL DEFAULT 14 _ZN7android8hardware4wifi
1047:   FUNC GLOBAL DEFAULT 14 _ZN7android8hardware4wifi
1048:   FUNC GLOBAL DEFAULT 14 _ZN7android8hardware4wifi
1049:   OBJECT GLOBAL DEFAULT 18 _ZTTN7android8hardware4wi
1050:   FUNC GLOBAL DEFAULT 14 _ZN7android8hardware4wifi
1051:   FUNC GLOBAL DEFAULT 14 _ZN7android8hardware4wifi
1052:   FUNC GLOBAL DEFAULT 14 _ZN7android8hardware4wifi
1053:   FUNC GLOBAL DEFAULT 14 _ZN7android8hardware4wifi
1054:   FUNC GLOBAL DEFAULT 14 _ZN7android8hardware4wifi
1055:   FUNC GLOBAL DEFAULT 14 _ZN7android8hardware4wifi
1056:   FUNC WEAK DEFAULT 14 _ZN7android8hardware7deta
1057:   FUNC GLOBAL DEFAULT 14 _ZN7android8hardware4wifi
1058:   FUNC GLOBAL DEFAULT 14 _ZN7android8hardware4wifi
1059:   FUNC GLOBAL DEFAULT 14 _ZN7android8hardware4wifi
1060:   FUNC GLOBAL DEFAULT 14 _ZN7android8hardware4wifi
1061:   OBJECT GLOBAL DEFAULT 18 _ZTCN7android8hardware4wi
1062:   FUNC GLOBAL DEFAULT 14 _ZN7android8hardware4wifi
1063:   FUNC GLOBAL DEFAULT 14 _ZN7android8hardware4wifi
1064:   FUNC GLOBAL DEFAULT 14 _ZN7android8hardware4wifi
1065:   FUNC GLOBAL DEFAULT 14 _ZN7android8hardware4wifi
1066:   FUNC GLOBAL DEFAULT 14 _ZN7android8hardware4wifi
1067:   FUNC GLOBAL DEFAULT 14 _ZN7android8hardware4wifi
1068:   OBJECT GLOBAL DEFAULT 18 _ZTCN7android8hardware4wi
1069:   FUNC GLOBAL DEFAULT 14 _ZN7android8hardware4wifi
1070:   FUNC GLOBAL DEFAULT 14 _ZN7android8hardware4wifi
1071:   FUNC GLOBAL DEFAULT 14 _ZN7android8hardware4wifi
1072:   OBJECT GLOBAL DEFAULT 18 _ZTCN7android8hardware4wi
1073:   FUNC GLOBAL DEFAULT 14 _ZN7android8hardware4wifi
1074:   FUNC GLOBAL DEFAULT 14 _ZN7android8hardware4wifi
1075:   FUNC GLOBAL DEFAULT 14 _ZN7android8hardware4wifi
1076:   FUNC GLOBAL DEFAULT 14 _ZN7android8hardware4wifi
1077:   FUNC GLOBAL DEFAULT 14 _ZN7android8hardware4wifi
1078:   FUNC GLOBAL DEFAULT 14 _ZN7android8hardware4wifi
1079:   OBJECT GLOBAL DEFAULT 18 _ZTTN7android8hardware4wi
1080:   FUNC GLOBAL DEFAULT 14 _ZN7android8hardware4wifi
1081:   OBJECT GLOBAL DEFAULT 18 _ZTTN7android8hardware4wi
1082:   FUNC GLOBAL DEFAULT 14 _ZN7android8hardware4wifi
1083:   FUNC GLOBAL DEFAULT 14 _ZN7android8hardware4wifi
1084:   FUNC GLOBAL DEFAULT 14 _ZN7android8hardware4wifi
1085:   FUNC GLOBAL DEFAULT 14 _ZN7android8hardware4wifi
1086:   FUNC GLOBAL DEFAULT 14 _ZN7android8hardware4wifi
1087:   FUNC GLOBAL DEFAULT 14 _ZN7android8hardware4wifi
1088:   FUNC GLOBAL DEFAULT 14 _ZN7android8hardware4wifi
1089:   FUNC GLOBAL DEFAULT 14 _ZN7android8hardware4wifi
1090:   OBJECT GLOBAL DEFAULT 18 _ZTCN7android8hardware4wi
1091:   FUNC GLOBAL DEFAULT 14 _ZN7android8hardware4wifi
1092:   FUNC GLOBAL DEFAULT 14 _ZN7android8hardware4wifi
1093:   OBJECT GLOBAL DEFAULT 18 _ZTTN7android8hardware4wi
1094:   FUNC GLOBAL DEFAULT 14 _ZN7android8hardware4wifi
1095:   FUNC GLOBAL DEFAULT 14 _ZN7android8hardware4wifi
1096:   FUNC GLOBAL DEFAULT 14 _ZN7android8hardware4wifi
1097:   OBJECT GLOBAL DEFAULT 18 _ZTTN7android8hardware4wi
1098:   FUNC GLOBAL DEFAULT 14 _ZN7android8hardware4wifi
1099:   FUNC GLOBAL DEFAULT 14 _ZN7android8hardware4wifi
1100:   FUNC GLOBAL DEFAULT 14 _ZN7android8hardware4wifi
1101:   FUNC GLOBAL DEFAULT 14 _ZN7android8hardware4wifi
1102:   OBJECT GLOBAL DEFAULT 18 _ZTCN7android8hardware4wi
1103:   FUNC GLOBAL DEFAULT 14 _ZTv0_n24_N7android8hardw
1104:   FUNC GLOBAL DEFAULT 14 _ZN7android8hardware4wifi
1105:   FUNC GLOBAL DEFAULT 14 _ZN7android8hardware4wifi
1106:   FUNC GLOBAL DEFAULT 14 _ZN7android8hardware4wifi
1107:   FUNC GLOBAL DEFAULT 14 _ZN7android8hardware4wifi
1108:   FUNC GLOBAL DEFAULT 14 _ZN7android8hardware4wifi
1109:   FUNC GLOBAL DEFAULT 14 _ZN7android8hardware4wifi
1110:   FUNC GLOBAL DEFAULT 14 _ZN7android8hardware4wifi
1111:   FUNC GLOBAL DEFAULT 14 _ZN7android8hardware4wifi
1112:   FUNC GLOBAL DEFAULT 14 _ZN7android8hardware4wifi
1113:   FUNC GLOBAL DEFAULT 14 _ZN7android8hardware4wifi
1114:   FUNC GLOBAL DEFAULT 14 _ZN7android8hardware4wifi
1115:   FUNC GLOBAL DEFAULT 14 _ZN7android8hardware4wifi
1116:   FUNC GLOBAL DEFAULT 14 _ZN7android8hardware4wifi
1117:   FUNC GLOBAL DEFAULT 14 _ZN7android8hardware4wifi
1118:   OBJECT GLOBAL DEFAULT 18 _ZTCN7android8hardware4wi
1119:   FUNC GLOBAL DEFAULT 14 _ZN7android8hardware4wifi
1120:   OBJECT GLOBAL DEFAULT 18 _ZTCN7android8hardware4wi
1121:   FUNC GLOBAL DEFAULT 14 _ZN7android8hardware4wifi
1122:   FUNC GLOBAL DEFAULT 14 _ZN7android8hardware4wifi
1123:   OBJECT GLOBAL DEFAULT 16 _ZN7android8hardware4wifi
1124:   FUNC GLOBAL DEFAULT 14 _ZN7android8hardware4wifi
1125:   FUNC GLOBAL DEFAULT 14 _ZN7android8hardware4wifi
1126:   FUNC GLOBAL DEFAULT 14 _ZN7android8hardware4wifi
1127:   FUNC GLOBAL DEFAULT 14 _ZN7android8hardware4wifi
1128:   FUNC GLOBAL DEFAULT 14 _ZN7android8hardware4wifi
1129:   FUNC GLOBAL DEFAULT 14 _ZN7android8hardware4wifi
1130:   FUNC GLOBAL DEFAULT 14 _ZN7android8hardware4wifi
1131:   FUNC GLOBAL DEFAULT 14 _ZN7android8hardware4wifi
1132:   FUNC GLOBAL DEFAULT 14 _ZN7android8hardware4wifi
1133:   FUNC GLOBAL DEFAULT 14 _ZN7android8hardware4wifi
1134:   FUNC GLOBAL DEFAULT 14 _ZN7android8hardware4wifi
1135:   FUNC GLOBAL DEFAULT 14 _ZN7android8hardware4wifi
1136:   FUNC GLOBAL DEFAULT 14 _ZN7android8hardware4wifi
1137:   OBJECT GLOBAL DEFAULT 18 _ZTCN7android8hardware4wi
1138:   FUNC GLOBAL DEFAULT 14 _ZN7android8hardware4wifi
1139:   FUNC GLOBAL DEFAULT 14 _ZN7android8hardware4wifi
1140:   FUNC GLOBAL DEFAULT 14 _ZN7android8hardware4wifi
1141:   FUNC GLOBAL DEFAULT 14 _ZN7android8hardware4wifi
1142:   FUNC GLOBAL DEFAULT 14 _ZN7android8hardware4wifi
1143:   OBJECT GLOBAL DEFAULT 18 _ZTCN7android8hardware4wi
1144:   FUNC GLOBAL DEFAULT 14 _ZN7android8hardware4wifi
1145:   FUNC GLOBAL DEFAULT 14 _ZN7android8hardware4wifi
1146:   FUNC GLOBAL DEFAULT 14 _ZN7android8hardware4wifi
1147:   OBJECT GLOBAL DEFAULT 18 _ZTCN7android8hardware4wi
1148:   FUNC GLOBAL DEFAULT 14 _ZN7android8hardware4wifi
1149:   FUNC GLOBAL DEFAULT 14 _ZN7android8hardware4wifi
1150:   OBJECT GLOBAL DEFAULT 18 _ZTVN7android8hardware4wi
1151:   OBJECT GLOBAL DEFAULT 16 _ZN7android8hardware4wifi
1152:   OBJECT GLOBAL DEFAULT 18 _ZTCN7android8hardware4wi
1153:   FUNC GLOBAL DEFAULT 14 _ZN7android8hardware4wifi
1154:   FUNC GLOBAL DEFAULT 14 _ZN7android8hardware4wifi
1155:   OBJECT GLOBAL DEFAULT 18 _ZTCN7android8hardware4wi
1156:   FUNC GLOBAL DEFAULT 14 _ZN7android8hardware4wifi
1157:   FUNC GLOBAL DEFAULT 14 _ZN7android8hardware4wifi
1158:   OBJECT WEAK DEFAULT 18 _ZTCN7android8hardware11B
1159:   FUNC GLOBAL DEFAULT 14 _ZN7android8hardware4wifi
1160:   FUNC GLOBAL DEFAULT 14 _ZN7android8hardware4wifi
1161:   FUNC GLOBAL DEFAULT 14 _ZN7android8hardware4wifi
1162:   FUNC GLOBAL DEFAULT 14 _ZN7android8hardware4wifi
1163:   FUNC GLOBAL DEFAULT 14 _ZN7android8hardware4wifi
1164:   FUNC GLOBAL DEFAULT 14 _ZN7android8hardware4wifi
1165:   FUNC GLOBAL DEFAULT 14 _ZN7android8hardware4wifi
1166:   FUNC GLOBAL DEFAULT 14 _ZN7android8hardware4wifi
1167:   FUNC GLOBAL DEFAULT 14 _ZN7android8hardware4wifi
1168:   FUNC GLOBAL DEFAULT 14 _ZN7android8hardware4wifi
1169:   FUNC GLOBAL DEFAULT 14 _ZN7android8hardware4wifi
1170:   FUNC GLOBAL DEFAULT 14 _ZTv0_n24_N7android8hardw
1171:   FUNC GLOBAL DEFAULT 14 _ZN7android8hardware4wifi
1172:   OBJECT GLOBAL DEFAULT 18 _ZTCN7android8hardware4wi
1173:   FUNC GLOBAL DEFAULT 14 _ZN7android8hardware4wifi
1174:   FUNC GLOBAL DEFAULT 14 _ZN7android8hardware4wifi
1175:   FUNC WEAK DEFAULT 14 _ZN7android8hardware7deta
1176:   OBJECT GLOBAL DEFAULT 18 _ZTCN7android8hardware4wi
1177:   FUNC GLOBAL DEFAULT 14 _ZN7android8hardware4wifi
1178:   FUNC GLOBAL DEFAULT 14 _ZN7android8hardware4wifi
1179:   FUNC GLOBAL DEFAULT 14 _ZN7android8hardware4wifi
1180:   FUNC GLOBAL DEFAULT 14 _ZN7android8hardware4wifi
1181:   FUNC GLOBAL DEFAULT 14 _ZN7android8hardware4wifi
1182:   FUNC GLOBAL DEFAULT 14 _ZN7android8hardware4wifi
1183:   FUNC GLOBAL DEFAULT 14 _ZN7android8hardware4wifi
1184:   OBJECT GLOBAL DEFAULT 16 _ZN7android8hardware4wifi
1185:   FUNC GLOBAL DEFAULT 14 _ZN7android8hardware4wifi
1186:   FUNC GLOBAL DEFAULT 14 _ZN7android8hardware4wifi
1187:   FUNC GLOBAL DEFAULT 14 _ZN7android8hardware4wifi
1188:   FUNC GLOBAL DEFAULT 14 _ZN7android8hardware4wifi
1189:   FUNC GLOBAL DEFAULT 14 _ZN7android8hardware4wifi
1190:   FUNC GLOBAL DEFAULT 14 _ZN7android8hardware4wifi
1191:   FUNC GLOBAL DEFAULT 14 _ZN7android8hardware4wifi
1192:   FUNC GLOBAL DEFAULT 14 _ZN7android8hardware4wifi
1193:   FUNC GLOBAL DEFAULT 14 _ZN7android8hardware4wifi
1194:   FUNC GLOBAL DEFAULT 14 _ZN7android8hardware4wifi
1195:   FUNC GLOBAL DEFAULT 14 _ZN7android8hardware4wifi
1196:   OBJECT GLOBAL DEFAULT 18 _ZTCN7android8hardware4wi
1197:   FUNC GLOBAL DEFAULT 14 _ZN7android8hardware4wifi
1198:   FUNC GLOBAL DEFAULT 14 _ZThn32_N7android8hardwar
1199:   FUNC GLOBAL DEFAULT 14 _ZN7android8hardware4wifi
1200:   FUNC GLOBAL DEFAULT 14 _ZN7android8hardware4wifi
1201:   FUNC GLOBAL DEFAULT 14 _ZN7android8hardware4wifi
1202:   FUNC GLOBAL DEFAULT 14 _ZN7android8hardware4wifi
1203:   FUNC GLOBAL DEFAULT 14 _ZN7android8hardware4wifi
1204:   FUNC GLOBAL DEFAULT 14 _ZN7android8hardware4wifi
1205:   OBJECT GLOBAL DEFAULT 18 _ZTCN7android8hardware4wi
1206:   FUNC GLOBAL DEFAULT 14 _ZN7android8hardware4wifi
1207:   FUNC GLOBAL DEFAULT 14 _ZN7android8hardware4wifi
1208:   FUNC GLOBAL DEFAULT 14 _ZN7android8hardware4wifi
1209:   OBJECT GLOBAL DEFAULT 18 _ZTCN7android8hardware4wi
1210:   FUNC GLOBAL DEFAULT 14 _ZN7android8hardware4wifi
1211:   OBJECT GLOBAL DEFAULT 18 _ZTVN7android8hardware4wi
1212:   FUNC GLOBAL DEFAULT 14 _ZN7android8hardware4wifi
1213:   FUNC GLOBAL DEFAULT 14 _ZN7android8hardware4wifi
1214:   FUNC GLOBAL DEFAULT 14 _ZN7android8hardware4wifi
1215:   FUNC WEAK DEFAULT 14 _ZN7android8hardware7deta
1216:   FUNC WEAK DEFAULT 14 _ZN7android8hardware7deta
1217:   FUNC GLOBAL DEFAULT 14 _ZN7android8hardware4wifi
1218:   OBJECT GLOBAL DEFAULT 18 _ZTCN7android8hardware4wi
1219:   FUNC GLOBAL DEFAULT 14 _ZN7android8hardware4wifi
1220:   FUNC GLOBAL DEFAULT 14 _ZN7android8hardware4wifi
1221:   FUNC GLOBAL DEFAULT 14 _ZN7android8hardware4wifi
1222:   FUNC GLOBAL DEFAULT 14 _ZN7android8hardware4wifi
1223:   FUNC WEAK DEFAULT 14 _ZN7android8hardware7deta
1224:   FUNC GLOBAL DEFAULT 14 _ZN7android8hardware4wifi
1225:   FUNC GLOBAL DEFAULT 14 _ZN7android8hardware4wifi
1226:   FUNC GLOBAL DEFAULT 14 _ZN7android8hardware4wifi
1227:   FUNC GLOBAL DEFAULT 14 _ZN7android8hardware4wifi
1228:   FUNC GLOBAL DEFAULT 14 _ZN7android8hardware4wifi
1229:   FUNC GLOBAL DEFAULT 14 _ZN7android8hardware4wifi
1230:   FUNC GLOBAL DEFAULT 14 _ZN7android8hardware4wifi
1231:   FUNC GLOBAL DEFAULT 14 _ZN7android8hardware4wifi
1232:   FUNC GLOBAL DEFAULT 14 _ZN7android8hardware4wifi
1233:   OBJECT WEAK DEFAULT 18 _ZTCN7android8hardware11B
1234:   FUNC GLOBAL DEFAULT 14 _ZN7android8hardware4wifi
1235:   OBJECT GLOBAL DEFAULT 18 _ZTTN7android8hardware4wi
1236:   FUNC GLOBAL DEFAULT 14 _ZN7android8hardware4wifi
1237:   FUNC GLOBAL DEFAULT 14 _ZN7android8hardware4wifi
1238:   FUNC GLOBAL DEFAULT 14 _ZN7android8hardware4wifi
1239:   FUNC GLOBAL DEFAULT 14 _ZN7android8hardware4wifi
1240:   FUNC GLOBAL DEFAULT 14 _ZN7android8hardware4wifi
1241:   FUNC GLOBAL DEFAULT 14 _ZN7android8hardware4wifi
1242:   FUNC GLOBAL DEFAULT 14 _ZN7android8hardware4wifi
1243:   FUNC GLOBAL DEFAULT 14 _ZN7android8hardware4wifi
1244:   OBJECT GLOBAL DEFAULT 18 _ZTCN7android8hardware4wi
1245:   FUNC GLOBAL DEFAULT 14 _ZN7android8hardware4wifi
1246:   FUNC GLOBAL DEFAULT 14 _ZN7android8hardware4wifi
1247:   FUNC GLOBAL DEFAULT 14 _ZN7android8hardware4wifi
1248:   FUNC GLOBAL DEFAULT 14 _ZN7android8hardware4wifi
1249:   FUNC GLOBAL DEFAULT 14 _ZN7android8hardware4wifi
1250:   OBJECT GLOBAL DEFAULT 18 _ZTTN7android8hardware4wi
1251:   FUNC GLOBAL DEFAULT 14 _ZN7android8hardware4wifi
1252:   FUNC WEAK DEFAULT 14 _ZN7android8hardware7deta
1253:   FUNC GLOBAL DEFAULT 14 _ZN7android8hardware4wifi
1254:   FUNC GLOBAL DEFAULT 14 _ZThn32_N7android8hardwar
1255:   FUNC GLOBAL DEFAULT 14 _ZN7android8hardware4wifi
1256:   FUNC GLOBAL DEFAULT 14 _ZN7android8hardware4wifi
1257:   FUNC GLOBAL DEFAULT 14 _ZN7android8hardware4wifi
1258:   FUNC GLOBAL DEFAULT 14 _ZN7android8hardware4wifi
1259:   FUNC GLOBAL DEFAULT 14 _ZN7android8hardware4wifi
1260:   FUNC GLOBAL DEFAULT 14 _ZN7android8hardware4wifi
1261:   OBJECT WEAK DEFAULT 18 _ZTCN7android8hardware4wi
1262:   FUNC GLOBAL DEFAULT 14 _ZN7android8hardware4wifi
1263:   FUNC GLOBAL DEFAULT 14 _ZN7android8hardware4wifi
1264:   OBJECT GLOBAL DEFAULT 16 _ZN7android8hardware4wifi
1265:   FUNC GLOBAL DEFAULT 14 _ZN7android8hardware4wifi
1266:   FUNC WEAK DEFAULT 14 _ZN7android8hardware7deta
1267:   OBJECT WEAK DEFAULT 18 _ZTVN7android8hardware4wi
1268:   FUNC GLOBAL DEFAULT 14 _ZN7android8hardware4wifi
1269:   FUNC GLOBAL DEFAULT 14 _ZN7android8hardware4wifi
1270:   FUNC GLOBAL DEFAULT 14 _ZN7android8hardware4wifi
1271:   OBJECT GLOBAL DEFAULT 18 _ZTCN7android8hardware4wi
1272:   FUNC GLOBAL DEFAULT 14 _ZN7android8hardware4wifi
1273:   FUNC GLOBAL DEFAULT 14 _ZN7android8hardware4wifi
1274:   FUNC GLOBAL DEFAULT 14 _ZN7android8hardware4wifi
1275:   FUNC GLOBAL DEFAULT 14 _ZN7android8hardware4wifi
1276:   FUNC GLOBAL DEFAULT 14 _ZN7android8hardware4wifi
1277:   OBJECT WEAK DEFAULT 18 _ZTCN7android8hardware11B
1278:   FUNC GLOBAL DEFAULT 14 _ZN7android8hardware4wifi
1279:   FUNC GLOBAL DEFAULT 14 _ZN7android8hardware4wifi
1280:   FUNC GLOBAL DEFAULT 14 _ZN7android8hardware4wifi
1281:   FUNC GLOBAL DEFAULT 14 _ZN7android8hardware4wifi
1282:   OBJECT GLOBAL DEFAULT 18 _ZTCN7android8hardware4wi
1283:   FUNC GLOBAL DEFAULT 14 _ZN7android8hardware4wifi
1284:   FUNC GLOBAL DEFAULT 14 _ZN7android8hardware4wifi
1285:   FUNC GLOBAL DEFAULT 14 _ZN7android8hardware4wifi
1286:   FUNC GLOBAL DEFAULT 14 _ZN7android8hardware4wifi
1287:   FUNC GLOBAL DEFAULT 14 _ZN7android8hardware4wifi
1288:   OBJECT GLOBAL DEFAULT 18 _ZTTN7android8hardware4wi
1289:   FUNC GLOBAL DEFAULT 14 _ZN7android8hardware4wifi
1290:   FUNC GLOBAL DEFAULT 14 _ZN7android8hardware4wifi
1291:   FUNC GLOBAL DEFAULT 14 _ZN7android8hardware4wifi
1292:   FUNC GLOBAL DEFAULT 14 _ZN7android8hardware4wifi
1293:   FUNC GLOBAL DEFAULT 14 _ZN7android8hardware4wifi
1294:   FUNC GLOBAL DEFAULT 14 _ZN7android8hardware4wifi
1295:   FUNC GLOBAL DEFAULT 14 _ZN7android8hardware4wifi
1296:   OBJECT GLOBAL DEFAULT 18 _ZTCN7android8hardware4wi
1297:   FUNC GLOBAL DEFAULT 14 _ZN7android8hardware4wifi
1298:   FUNC GLOBAL DEFAULT 14 _ZN7android8hardware4wifi
1299:   FUNC GLOBAL DEFAULT 14 _ZN7android8hardware4wifi
1300:   OBJECT GLOBAL DEFAULT 18 _ZTCN7android8hardware4wi
1301:   FUNC GLOBAL DEFAULT 14 _ZN7android8hardware4wifi
1302:   FUNC GLOBAL DEFAULT 14 _ZN7android8hardware4wifi
1303:   FUNC GLOBAL DEFAULT 14 _ZN7android8hardware4wifi
1304:   OBJECT GLOBAL DEFAULT 18 _ZTCN7android8hardware4wi
1305:   FUNC GLOBAL DEFAULT 14 _ZN7android8hardware4wifi
1306:   FUNC GLOBAL DEFAULT 14 _ZN7android8hardware4wifi
1307:   FUNC WEAK DEFAULT 14 _ZN7android8hardware7deta
1308:   FUNC GLOBAL DEFAULT 14 _ZN7android8hardware4wifi
1309:   OBJECT GLOBAL DEFAULT 18 _ZTCN7android8hardware4wi
1310:   OBJECT GLOBAL DEFAULT 18 _ZTTN7android8hardware4wi
1311:   FUNC GLOBAL DEFAULT 14 _ZN7android8hardware4wifi
1312:   OBJECT GLOBAL DEFAULT 18 _ZTVN7android8hardware4wi
1313:   FUNC GLOBAL DEFAULT 14 _ZN7android8hardware4wifi
1314:   FUNC GLOBAL DEFAULT 14 _ZN7android8hardware4wifi
1315:   FUNC GLOBAL DEFAULT 14 _ZN7android8hardware4wifi
1316:   FUNC GLOBAL DEFAULT 14 _ZN7android8hardware4wifi
1317:   FUNC GLOBAL DEFAULT 14 _ZN7android8hardware4wifi
1318:   FUNC GLOBAL DEFAULT 14 _ZN7android8hardware4wifi
1319:   FUNC GLOBAL DEFAULT 14 _ZN7android8hardware4wifi
1320:   FUNC GLOBAL DEFAULT 14 _ZN7android8hardware4wifi
1321:   FUNC GLOBAL DEFAULT 14 _ZN7android8hardware4wifi
1322:   OBJECT GLOBAL DEFAULT 18 _ZTCN7android8hardware4wi
1323:   FUNC WEAK DEFAULT 14 _ZN7android8hardware10fro
1324:   OBJECT GLOBAL DEFAULT 16 _ZN7android8hardware4wifi
1325:   FUNC GLOBAL DEFAULT 14 _ZN7android8hardware4wifi
1326:   OBJECT GLOBAL DEFAULT 18 _ZTCN7android8hardware4wi
1327:   FUNC GLOBAL DEFAULT 14 _ZN7android8hardware4wifi
1328:   OBJECT GLOBAL DEFAULT 18 _ZTCN7android8hardware4wi
1329:   OBJECT GLOBAL DEFAULT 18 _ZTCN7android8hardware4wi
1330:   FUNC GLOBAL DEFAULT 14 _ZN7android8hardware4wifi
1331:   OBJECT GLOBAL DEFAULT 18 _ZTVN7android8hardware4wi
1332:   FUNC GLOBAL DEFAULT 14 _ZN7android8hardware4wifi
1333:   FUNC GLOBAL DEFAULT 14 _ZN7android8hardware4wifi
1334:   FUNC GLOBAL DEFAULT 14 _ZN7android8hardware4wifi
1335:   OBJECT WEAK DEFAULT 18 _ZTVN7android8hardware4wi
1336:   FUNC GLOBAL DEFAULT 14 _ZN7android8hardware4wifi
1337:   FUNC GLOBAL DEFAULT 14 _ZN7android8hardware4wifi
1338:   FUNC GLOBAL DEFAULT 14 _ZN7android8hardware4wifi
1339:   OBJECT GLOBAL DEFAULT 16 _ZN7android8hardware4wifi
1340:   FUNC GLOBAL DEFAULT 14 _ZN7android8hardware4wifi
1341:   FUNC GLOBAL DEFAULT 14 _ZN7android8hardware4wifi
1342:   OBJECT GLOBAL DEFAULT 18 _ZTCN7android8hardware4wi
1343:   FUNC GLOBAL DEFAULT 14 _ZN7android8hardware4wifi
1344:   FUNC GLOBAL DEFAULT 14 _ZN7android8hardware4wifi
1345:   FUNC GLOBAL DEFAULT 14 _ZN7android8hardware4wifi
1346:   OBJECT WEAK DEFAULT 18 _ZTVN7android8hardware4wi
1347:   FUNC GLOBAL DEFAULT 14 _ZN7android8hardware4wifi
1348:   OBJECT GLOBAL DEFAULT 18 _ZTVN7android8hardware4wi
1349:   FUNC GLOBAL DEFAULT 14 _ZN7android8hardware4wifi
1350:   FUNC GLOBAL DEFAULT 14 _ZThn32_N7android8hardwar
1351:   FUNC GLOBAL DEFAULT 14 _ZN7android8hardware4wifi
1352:   FUNC GLOBAL DEFAULT 14 _ZN7android8hardware4wifi
1353:   FUNC GLOBAL DEFAULT 14 _ZN7android8hardware4wifi
1354:   FUNC GLOBAL DEFAULT 14 _ZN7android8hardware4wifi
1355:   FUNC GLOBAL DEFAULT 14 _ZN7android8hardware4wifi
1356:   FUNC GLOBAL DEFAULT 14 _ZN7android8hardware4wifi
1357:   FUNC GLOBAL DEFAULT 14 _ZN7android8hardware4wifi
1358:   FUNC GLOBAL DEFAULT 14 _ZN7android8hardware4wifi
1359:   FUNC WEAK DEFAULT 14 _ZN7android8hardware7deta
1360:   FUNC GLOBAL DEFAULT 14 _ZN7android8hardware4wifi
1361:   OBJECT GLOBAL DEFAULT 18 _ZTTN7android8hardware4wi
1362:   FUNC GLOBAL DEFAULT 14 _ZN7android8hardware4wifi
1363:   OBJECT GLOBAL DEFAULT 18 _ZTCN7android8hardware4wi
1364:   FUNC GLOBAL DEFAULT 14 _ZN7android8hardware4wifi
1365:   FUNC GLOBAL DEFAULT 14 _ZN7android8hardware4wifi
1366:   FUNC GLOBAL DEFAULT 14 _ZN7android8hardware4wifi
1367:   FUNC GLOBAL DEFAULT 14 _ZN7android8hardware4wifi
1368:   OBJECT GLOBAL DEFAULT 18 _ZTTN7android8hardware4wi
1369:   OBJECT GLOBAL DEFAULT 18 _ZTTN7android8hardware4wi
1370:   FUNC GLOBAL DEFAULT 14 _ZN7android8hardware4wifi
1371:   FUNC GLOBAL DEFAULT 14 _ZN7android8hardware4wifi
1372:   OBJECT GLOBAL DEFAULT 18 _ZTCN7android8hardware4wi
1373:   FUNC GLOBAL DEFAULT 14 _ZN7android8hardware4wifi
1374:   FUNC GLOBAL DEFAULT 14 _ZN7android8hardware4wifi
1375:   FUNC GLOBAL DEFAULT 14 _ZN7android8hardware4wifi
1376:   FUNC GLOBAL DEFAULT 14 _ZN7android8hardware4wifi
1377:   FUNC GLOBAL DEFAULT 14 _ZN7android8hardware4wifi
1378:   OBJECT GLOBAL DEFAULT 18 _ZTCN7android8hardware4wi
1379:   FUNC GLOBAL DEFAULT 14 _ZN7android8hardware4wifi
1380:   FUNC GLOBAL DEFAULT 14 _ZN7android8hardware4wifi
1381:   FUNC GLOBAL DEFAULT 14 _ZN7android8hardware4wifi
1382:   FUNC GLOBAL DEFAULT 14 _ZN7android8hardware4wifi
1383:   FUNC GLOBAL DEFAULT 14 _ZN7android8hardware4wifi
1384:   FUNC GLOBAL DEFAULT 14 _ZN7android8hardware4wifi
1385:   FUNC GLOBAL DEFAULT 14 _ZN7android8hardware4wifi
1386:   FUNC GLOBAL DEFAULT 14 _ZN7android8hardware4wifi
1387:   OBJECT GLOBAL DEFAULT 18 _ZTCN7android8hardware4wi
1388:   OBJECT GLOBAL DEFAULT 18 _ZTCN7android8hardware4wi
1389:   FUNC GLOBAL DEFAULT 14 _ZN7android8hardware4wifi
1390:   OBJECT WEAK DEFAULT 18 _ZTCN7android8hardware4wi
1391:   FUNC GLOBAL DEFAULT 14 _ZN7android8hardware4wifi
1392:   FUNC GLOBAL DEFAULT 14 _ZN7android8hardware4wifi
1393:   FUNC GLOBAL DEFAULT 14 _ZN7android8hardware4wifi
1394:   OBJECT GLOBAL DEFAULT 18 _ZTCN7android8hardware4wi
1395:   FUNC WEAK DEFAULT 14 _ZN7android8hardware7deta
1396:   OBJECT GLOBAL DEFAULT 18 _ZTCN7android8hardware4wi
1397:   FUNC GLOBAL DEFAULT 14 _ZN7android8hardware4wifi
1398:   FUNC GLOBAL DEFAULT 14 _ZN7android8hardware4wifi
1399:   FUNC WEAK DEFAULT 14 _ZNSt3__16vectorINS_8func
1400:   FUNC GLOBAL DEFAULT 14 _ZN7android8hardware4wifi
1401:   OBJECT GLOBAL DEFAULT 18 _ZTTN7android8hardware4wi
1402:   FUNC GLOBAL DEFAULT 14 _ZN7android8hardware4wifi
1403:   FUNC GLOBAL DEFAULT 14 _ZN7android8hardware4wifi
1404:   FUNC GLOBAL DEFAULT 14 _ZN7android8hardware4wifi
1405:   OBJECT GLOBAL DEFAULT 18 _ZTTN7android8hardware4wi
1406:   FUNC GLOBAL DEFAULT 14 _ZN7android8hardware4wifi
1407:   FUNC GLOBAL DEFAULT 14 _ZN7android8hardware4wifi
1408:   FUNC GLOBAL DEFAULT 14 _ZN7android8hardware4wifi
1409:   FUNC GLOBAL DEFAULT 14 _ZN7android8hardware4wifi
1410:   FUNC GLOBAL DEFAULT 14 _ZN7android8hardware4wifi
1411:   FUNC GLOBAL DEFAULT 14 _ZN7android8hardware4wifi
1412:   OBJECT GLOBAL DEFAULT 18 _ZTCN7android8hardware4wi
1413:   FUNC GLOBAL DEFAULT 14 _ZN7android8hardware4wifi
1414:   FUNC GLOBAL DEFAULT 14 _ZThn32_N7android8hardwar
1415:   FUNC GLOBAL DEFAULT 14 _ZN7android8hardware4wifi
1416:   FUNC GLOBAL DEFAULT 14 _ZN7android8hardware4wifi
1417:   FUNC GLOBAL DEFAULT 14 _ZN7android8hardware4wifi
1418:   FUNC GLOBAL DEFAULT 14 _ZN7android8hardware4wifi
1419:   FUNC WEAK DEFAULT 14 _ZNSt3__16__treeINS_12__v
1420:   FUNC GLOBAL DEFAULT 14 _ZN7android8hardware4wifi
1421:   FUNC GLOBAL DEFAULT 14 _ZN7android8hardware4wifi
1422:   FUNC GLOBAL DEFAULT 14 _ZN7android8hardware4wifi
1423:   FUNC GLOBAL DEFAULT 14 _ZN7android8hardware4wifi
1424:   FUNC GLOBAL DEFAULT 14 _ZN7android8hardware4wifi
1425:   FUNC GLOBAL DEFAULT 14 _ZN7android8hardware4wifi
1426:   FUNC GLOBAL DEFAULT 14 _ZN7android8hardware4wifi
1427:   FUNC GLOBAL DEFAULT 14 _ZN7android8hardware4wifi
1428:   OBJECT GLOBAL DEFAULT 18 _ZTVN7android8hardware4wi
1429:   OBJECT GLOBAL DEFAULT 18 _ZTCN7android8hardware4wi
1430:   FUNC GLOBAL DEFAULT 14 _ZN7android8hardware4wifi
1431:   OBJECT GLOBAL DEFAULT 18 _ZTCN7android8hardware4wi
1432:   OBJECT GLOBAL DEFAULT 18 _ZTCN7android8hardware4wi
1433:   FUNC GLOBAL DEFAULT 14 _ZN7android8hardware4wifi
1434:   FUNC GLOBAL DEFAULT 14 _ZN7android8hardware4wifi
1435:   FUNC GLOBAL DEFAULT 14 _ZN7android8hardware4wifi
1436:   FUNC GLOBAL DEFAULT 14 _ZN7android8hardware4wifi
1437:   FUNC GLOBAL DEFAULT 14 _ZN7android8hardware4wifi
1438:   FUNC GLOBAL DEFAULT 14 _ZN7android8hardware4wifi
1439:   FUNC GLOBAL DEFAULT 14 _ZN7android8hardware4wifi
1440:   FUNC GLOBAL DEFAULT 14 _ZThn32_N7android8hardwar
1441:   FUNC GLOBAL DEFAULT 14 _ZN7android8hardware4wifi
1442:   FUNC GLOBAL DEFAULT 14 _ZN7android8hardware4wifi
1443:   FUNC GLOBAL DEFAULT 14 _ZN7android8hardware4wifi
1444:   FUNC GLOBAL DEFAULT 14 _ZN7android8hardware4wifi
1445:   FUNC GLOBAL DEFAULT 14 _ZN7android8hardware4wifi
1446:   FUNC GLOBAL DEFAULT 14 _ZN7android8hardware4wifi
1447:   FUNC GLOBAL DEFAULT 14 _ZN7android8hardware4wifi
1448:   FUNC GLOBAL DEFAULT 14 _ZN7android8hardware4wifi
1449:   FUNC GLOBAL DEFAULT 14 _ZN7android8hardware4wifi
1450:   FUNC GLOBAL DEFAULT 14 _ZN7android8hardware4wifi
1451:   FUNC GLOBAL DEFAULT 14 _ZN7android8hardware4wifi
1452:   FUNC GLOBAL DEFAULT 14 _ZN7android8hardware4wifi
1453:   FUNC GLOBAL DEFAULT 14 _ZN7android8hardware4wifi
1454:   FUNC GLOBAL DEFAULT 14 _ZN7android8hardware4wifi
1455:   FUNC GLOBAL DEFAULT 14 _ZN7android8hardware4wifi
1456:   FUNC GLOBAL DEFAULT 14 _ZN7android8hardware4wifi
1457:   OBJECT GLOBAL DEFAULT 18 _ZTCN7android8hardware4wi
1458:   FUNC GLOBAL DEFAULT 14 _ZN7android8hardware4wifi
1459:   FUNC GLOBAL DEFAULT 14 _ZN7android8hardware4wifi
1460:   FUNC GLOBAL DEFAULT 14 _ZN7android8hardware4wifi
1461:   FUNC GLOBAL DEFAULT 14 _ZN7android8hardware4wifi
1462:   FUNC GLOBAL DEFAULT 14 _ZN7android8hardware4wifi
1463:   FUNC GLOBAL DEFAULT 14 _ZN7android8hardware4wifi
1464:   FUNC GLOBAL DEFAULT 14 _ZN7android8hardware4wifi
1465:   OBJECT GLOBAL DEFAULT 18 _ZTCN7android8hardware4wi
1466:   FUNC GLOBAL DEFAULT 14 _ZN7android8hardware4wifi
1467:   FUNC GLOBAL DEFAULT 14 _ZN7android8hardware4wifi
1468:   FUNC WEAK DEFAULT 14 _ZN7android8hardware7deta
1469:   FUNC GLOBAL DEFAULT 14 _ZN7android8hardware4wifi
1470:   FUNC GLOBAL DEFAULT 14 _ZN7android8hardware4wifi
1471:   FUNC GLOBAL DEFAULT 14 _ZN7android8hardware4wifi
1472:   OBJECT GLOBAL DEFAULT 18 _ZTCN7android8hardware4wi
1473:   FUNC GLOBAL DEFAULT 14 _ZN7android8hardware4wifi
1474:   OBJECT GLOBAL DEFAULT 18 _ZTCN7android8hardware4wi
1475:   FUNC GLOBAL DEFAULT 14 _ZN7android8hardware4wifi
1476:   FUNC GLOBAL DEFAULT 14 _ZN7android8hardware4wifi
1477:   FUNC GLOBAL DEFAULT 14 _ZN7android8hardware4wifi
1478:   OBJECT GLOBAL DEFAULT 18 _ZTCN7android8hardware4wi
1479:   FUNC WEAK DEFAULT 14 _ZN7android8hardware7deta
1480:   FUNC GLOBAL DEFAULT 14 _ZN7android8hardware4wifi
1481:   FUNC GLOBAL DEFAULT 14 _ZN7android8hardware4wifi
1482:   OBJECT WEAK DEFAULT 18 _ZTCN7android8hardware4wi
1483:   FUNC GLOBAL DEFAULT 14 _ZN7android8hardware4wifi
1484:   FUNC GLOBAL DEFAULT 14 _ZN7android8hardware4wifi
1485:   FUNC GLOBAL DEFAULT 14 _ZN7android8hardware4wifi
1486:   FUNC GLOBAL DEFAULT 14 _ZN7android8hardware4wifi
1487:   FUNC GLOBAL DEFAULT 14 _ZN7android8hardware4wifi
1488:   FUNC GLOBAL DEFAULT 14 _ZN7android8hardware4wifi
1489:   FUNC GLOBAL DEFAULT 14 _ZN7android8hardware4wifi
1490:   FUNC GLOBAL DEFAULT 14 _ZN7android8hardware4wifi
1491:   OBJECT GLOBAL DEFAULT 18 _ZTCN7android8hardware4wi
1492:   FUNC GLOBAL DEFAULT 14 _ZThn32_N7android8hardwar
1493:   FUNC GLOBAL DEFAULT 14 _ZN7android8hardware4wifi
1494:   FUNC GLOBAL DEFAULT 14 _ZN7android8hardware4wifi
1495:   OBJECT GLOBAL DEFAULT 18 _ZTTN7android8hardware4wi
1496:   FUNC GLOBAL DEFAULT 14 _ZN7android8hardware4wifi
1497:   FUNC GLOBAL DEFAULT 14 _ZN7android8hardware4wifi
1498:   FUNC GLOBAL DEFAULT 14 _ZN7android8hardware4wifi
1499:   FUNC GLOBAL DEFAULT 14 _ZN7android8hardware4wifi
1500:   FUNC GLOBAL DEFAULT 14 _ZN7android8hardware4wifi
1501:   FUNC GLOBAL DEFAULT 14 _ZN7android8hardware4wifi
1502:   FUNC GLOBAL DEFAULT 14 _ZN7android8hardware4wifi
1503:   FUNC GLOBAL DEFAULT 14 _ZN7android8hardware4wifi
1504:   FUNC WEAK DEFAULT 14 _ZN7android8hardware7deta
1505:   OBJECT GLOBAL DEFAULT 18 _ZTCN7android8hardware4wi
1506:   FUNC GLOBAL DEFAULT 14 _ZN7android8hardware4wifi
1507:   OBJECT GLOBAL DEFAULT 18 _ZTCN7android8hardware4wi
1508:   FUNC GLOBAL DEFAULT 14 _ZN7android8hardware4wifi
1509:   FUNC GLOBAL DEFAULT 14 _ZN7android8hardware4wifi
1510:   OBJECT GLOBAL DEFAULT 18 _ZTCN7android8hardware4wi
1511:   FUNC GLOBAL DEFAULT 14 _ZN7android8hardware4wifi
1512:   FUNC GLOBAL DEFAULT 14 _ZN7android8hardware4wifi
1513:   FUNC WEAK DEFAULT 14 _ZN7android8hardware7deta
1514:   FUNC GLOBAL DEFAULT 14 _ZN7android8hardware4wifi
1515:   FUNC GLOBAL DEFAULT 14 _ZThn32_N7android8hardwar
1516:   FUNC GLOBAL DEFAULT 14 _ZN7android8hardware4wifi
1517:   FUNC GLOBAL DEFAULT 14 _ZN7android8hardware4wifi
1518:   FUNC GLOBAL DEFAULT 14 _ZN7android8hardware4wifi
1519:   FUNC GLOBAL DEFAULT 14 _ZN7android8hardware4wifi
1520:   FUNC WEAK DEFAULT 14 _ZNSt3__16vectorIPvNS_9al
1521:   FUNC GLOBAL DEFAULT 14 _ZN7android8hardware4wifi
1522:   FUNC GLOBAL DEFAULT 14 _ZN7android8hardware4wifi
1523:   FUNC GLOBAL DEFAULT 14 _ZN7android8hardware4wifi
1524:   FUNC GLOBAL DEFAULT 14 _ZN7android8hardware4wifi
1525:   FUNC GLOBAL DEFAULT 14 _ZN7android8hardware4wifi
1526:   FUNC GLOBAL DEFAULT 14 _ZN7android8hardware4wifi
1527:   FUNC GLOBAL DEFAULT 14 _ZN7android8hardware4wifi
1528:   FUNC GLOBAL DEFAULT 14 _ZN7android8hardware4wifi
1529:   FUNC GLOBAL DEFAULT 14 _ZN7android8hardware4wifi
1530:   FUNC GLOBAL DEFAULT 14 _ZN7android8hardware4wifi
1531:   OBJECT GLOBAL DEFAULT 18 _ZTCN7android8hardware4wi
1532:   FUNC GLOBAL DEFAULT 14 _ZN7android8hardware4wifi
1533:   FUNC GLOBAL DEFAULT 14 _ZN7android8hardware4wifi
1534:   FUNC WEAK DEFAULT 14 _ZNSt3__113__tree_removeI
1535:   FUNC GLOBAL DEFAULT 14 _ZN7android8hardware4wifi
1536:   OBJECT GLOBAL DEFAULT 18 _ZTCN7android8hardware4wi
1537:   FUNC GLOBAL DEFAULT 14 _ZN7android8hardware4wifi
1538:   FUNC GLOBAL DEFAULT 14 _ZN7android8hardware4wifi
1539:   FUNC GLOBAL DEFAULT 14 _ZN7android8hardware4wifi
1540:   FUNC GLOBAL DEFAULT 14 _ZN7android8hardware4wifi
1541:   FUNC GLOBAL DEFAULT 14 _ZN7android8hardware4wifi
1542:   FUNC GLOBAL DEFAULT 14 _ZN7android8hardware4wifi
1543:   FUNC GLOBAL DEFAULT 14 _ZN7android8hardware4wifi
1544:   FUNC GLOBAL DEFAULT 14 _ZN7android8hardware4wifi
1545:   FUNC GLOBAL DEFAULT 14 _ZN7android8hardware4wifi
1546:   FUNC GLOBAL DEFAULT 14 _ZN7android8hardware4wifi
1547:   FUNC GLOBAL DEFAULT 14 _ZN7android8hardware4wifi
1548:   FUNC GLOBAL DEFAULT 14 _ZN7android8hardware4wifi
1549:   OBJECT GLOBAL DEFAULT 18 _ZTCN7android8hardware4wi
1550:   FUNC GLOBAL DEFAULT 14 _ZN7android8hardware4wifi
1551:   FUNC GLOBAL DEFAULT 14 _ZN7android8hardware4wifi
1552:   OBJECT WEAK DEFAULT 18 _ZTCN7android8hardware4wi
1553:   FUNC GLOBAL DEFAULT 14 _ZThn32_N7android8hardwar
1554:   FUNC GLOBAL DEFAULT 14 _ZN7android8hardware4wifi
1555:   FUNC GLOBAL DEFAULT 14 _ZN7android8hardware4wifi
1556:   FUNC GLOBAL DEFAULT 14 _ZN7android8hardware4wifi
1557:   FUNC GLOBAL DEFAULT 14 _ZN7android8hardware4wifi
1558:   FUNC GLOBAL DEFAULT 14 _ZN7android8hardware4wifi
1559:   FUNC GLOBAL DEFAULT 14 _ZN7android8hardware4wifi
1560:   FUNC GLOBAL DEFAULT 14 _ZN7android8hardware4wifi
1561:   FUNC GLOBAL DEFAULT 14 _ZN7android8hardware4wifi
1562:   FUNC GLOBAL DEFAULT 14 _ZN7android8hardware4wifi
1563:   FUNC GLOBAL DEFAULT 14 _ZN7android8hardware4wifi
1564:   FUNC GLOBAL DEFAULT 14 _ZN7android8hardware4wifi
1565:   FUNC GLOBAL DEFAULT 14 _ZN7android8hardware4wifi
1566:   FUNC GLOBAL DEFAULT 14 _ZN7android8hardware4wifi
1567:   FUNC GLOBAL DEFAULT 14 _ZN7android8hardware4wifi
1568:   FUNC GLOBAL DEFAULT 14 _ZN7android8hardware4wifi
1569:   FUNC GLOBAL DEFAULT 14 _ZN7android8hardware4wifi
1570:   FUNC GLOBAL DEFAULT 14 _ZN7android8hardware4wifi
1571:   FUNC GLOBAL DEFAULT 14 _ZN7android8hardware4wifi
1572:   FUNC GLOBAL DEFAULT 14 _ZN7android8hardware4wifi
1573:   FUNC GLOBAL DEFAULT 14 _ZN7android8hardware4wifi
1574:   FUNC GLOBAL DEFAULT 14 _ZN7android8hardware4wifi
1575:   FUNC GLOBAL DEFAULT 14 _ZN7android8hardware4wifi
1576:   FUNC GLOBAL DEFAULT 14 _ZN7android8hardware4wifi
1577:   FUNC GLOBAL DEFAULT 14 _ZN7android8hardware4wifi
1578:   FUNC GLOBAL DEFAULT 14 _ZN7android8hardware4wifi
1579:   FUNC GLOBAL DEFAULT 14 _ZThn32_N7android8hardwar
1580:   FUNC GLOBAL DEFAULT 14 _ZN7android8hardware4wifi
1581:   FUNC GLOBAL DEFAULT 14 _ZN7android8hardware4wifi
1582:   FUNC GLOBAL DEFAULT 14 _ZN7android8hardware4wifi
1583:   FUNC GLOBAL DEFAULT 14 _ZN7android8hardware4wifi
1584:   FUNC GLOBAL DEFAULT 14 _ZN7android8hardware4wifi
1585:   FUNC GLOBAL DEFAULT 14 _ZThn32_N7android8hardwar
1586:   FUNC GLOBAL DEFAULT 14 _ZN7android8hardware4wifi
1587:   OBJECT GLOBAL DEFAULT 18 _ZTVN7android8hardware4wi
1588:   FUNC GLOBAL DEFAULT 14 _ZN7android8hardware4wifi
1589:   FUNC GLOBAL DEFAULT 14 _ZN7android8hardware4wifi
1590:   FUNC GLOBAL DEFAULT 14 _ZN7android8hardware4wifi
1591:   FUNC GLOBAL DEFAULT 14 _ZN7android8hardware4wifi
1592:   FUNC GLOBAL DEFAULT 14 _ZN7android8hardware4wifi
1593:   FUNC WEAK DEFAULT 14 _ZN7android8hardware7deta
1594:   FUNC GLOBAL DEFAULT 14 _ZN7android8hardware4wifi
1595:   FUNC GLOBAL DEFAULT 14 _ZN7android8hardware4wifi
1596:   FUNC GLOBAL DEFAULT 14 _ZN7android8hardware4wifi
1597:   FUNC GLOBAL DEFAULT 14 _ZN7android8hardware4wifi
1598:   OBJECT GLOBAL DEFAULT 18 _ZTCN7android8hardware4wi
1599:   OBJECT WEAK DEFAULT 18 _ZTCN7android8hardware11B
1600:   OBJECT GLOBAL DEFAULT 18 _ZTCN7android8hardware4wi
1601:   OBJECT GLOBAL DEFAULT 18 _ZTCN7android8hardware4wi
1602:   OBJECT WEAK DEFAULT 18 _ZTVN7android8hardware4wi
1603:   FUNC GLOBAL DEFAULT 14 _ZN7android8hardware4wifi
1604:   FUNC GLOBAL DEFAULT 14 _ZN7android8hardware4wifi
1605:   FUNC GLOBAL DEFAULT 14 _ZN7android8hardware4wifi
1606:   FUNC GLOBAL DEFAULT 14 _ZN7android8hardware4wifi
1607:   FUNC GLOBAL DEFAULT 14 _ZN7android8hardware4wifi
1608:   FUNC GLOBAL DEFAULT 14 _ZN7android8hardware4wifi
1609:   FUNC GLOBAL DEFAULT 14 _ZN7android8hardware4wifi
1610:   FUNC GLOBAL DEFAULT 14 _ZThn32_N7android8hardwar
1611:   FUNC GLOBAL DEFAULT 14 _ZN7android8hardware4wifi
1612:   FUNC GLOBAL DEFAULT 14 _ZN7android8hardware4wifi
1613:   FUNC GLOBAL DEFAULT 14 _ZN7android8hardware4wifi
1614:   FUNC GLOBAL DEFAULT 14 _ZN7android8hardware4wifi
1615:   FUNC GLOBAL DEFAULT 14 _ZN7android8hardware4wifi
1616:   FUNC GLOBAL DEFAULT 14 _ZN7android8hardware4wifi
1617:   FUNC GLOBAL DEFAULT 14 _ZN7android8hardware4wifi
1618:   OBJECT GLOBAL DEFAULT 18 _ZTCN7android8hardware4wi
1619:   FUNC GLOBAL DEFAULT 14 _ZN7android8hardware4wifi
1620:   FUNC GLOBAL DEFAULT 14 _ZN7android8hardware4wifi
1621:   FUNC WEAK DEFAULT 14 _ZN7android8hardware10fro
1622:   FUNC GLOBAL DEFAULT 14 _ZN7android8hardware4wifi
1623:   FUNC GLOBAL DEFAULT 14 _ZN7android8hardware4wifi
1624:   FUNC GLOBAL DEFAULT 14 _ZN7android8hardware4wifi
1625:   FUNC GLOBAL DEFAULT 14 _ZN7android8hardware4wifi
1626:   FUNC GLOBAL DEFAULT 14 _ZN7android8hardware4wifi
1627:   FUNC GLOBAL DEFAULT 14 _ZN7android8hardware4wifi
1628:   FUNC GLOBAL DEFAULT 14 _ZN7android8hardware4wifi
1629:   FUNC GLOBAL DEFAULT 14 _ZN7android8hardware4wifi
1630:   FUNC GLOBAL DEFAULT 14 _ZN7android8hardware4wifi
1631:   FUNC GLOBAL DEFAULT 14 _ZN7android8hardware4wifi
1632:   FUNC GLOBAL DEFAULT 14 _ZN7android8hardware4wifi
1633:   FUNC GLOBAL DEFAULT 14 _ZThn32_N7android8hardwar
1634:   FUNC GLOBAL DEFAULT 14 _ZN7android8hardware4wifi
1635:   FUNC GLOBAL DEFAULT 14 _ZN7android8hardware4wifi
1636:   FUNC GLOBAL DEFAULT 14 _ZN7android8hardware4wifi
1637:   FUNC GLOBAL DEFAULT 14 _ZN7android8hardware4wifi
1638:   FUNC GLOBAL DEFAULT 14 _ZN7android8hardware4wifi
1639:   FUNC GLOBAL DEFAULT 14 _ZN7android8hardware4wifi
