 0x000000000000000e (SONAME)             Library soname: [liblog.so]
  
Symbol   contains 9 entries:
Num:   Type Bind Vis Ndx Name
0:   NOTYPE LOCAL DEFAULT UND
1:   FUNC GLOBAL DEFAULT 7 __android_log_assert@@LIBLOG
2:   FUNC GLOBAL DEFAULT 7 __android_log_is_loggable@@LIBLOG_M
3:   FUNC GLOBAL DEFAULT 7 __android_log_is_loggable@@LIBLOG_O
4:   FUNC GLOBAL DEFAULT 7 __android_log_buf_print@@LIBLOG
5:   FUNC GLOBAL DEFAULT 7 __android_log_buf_write@@LIBLOG
6:   FUNC GLOBAL DEFAULT 7 __android_log_print@@LIBLOG
7:   FUNC GLOBAL DEFAULT 7 __android_log_vprint@@LIBLOG
8:   FUNC GLOBAL DEFAULT 7 __android_log_write@@LIBLOG
