 0x000000000000000e (SONAME)             Library soname: [android.hardware.gnss@2.0.so]
  
Symbol   contains 1376 entries:
Num:   Type Bind Vis Ndx Name
0:   NOTYPE LOCAL DEFAULT UND
1:   FUNC GLOBAL DEFAULT UND __cxa_finalize@LIBC (2)
2:   FUNC GLOBAL DEFAULT UND _ZN7android14sp_report_ra
3:   FUNC GLOBAL DEFAULT UND _ZN7android21report_syspr
4:   OBJECT GLOBAL DEFAULT UND _ZN7android4hidl4base4V1_
5:   FUNC GLOBAL DEFAULT UND _ZN7android4hidl4base4V1_
6:   FUNC GLOBAL DEFAULT UND _ZN7android4hidl4base4V1_
7:   FUNC GLOBAL DEFAULT UND _ZN7android4hidl4base4V1_
8:   FUNC GLOBAL DEFAULT UND _ZN7android4hidl4base4V1_
9:   FUNC GLOBAL DEFAULT UND _ZN7android4hidl4base4V1_
10:   FUNC GLOBAL DEFAULT UND _ZN7android4hidl4base4V1_
11:   FUNC GLOBAL DEFAULT UND _ZN7android4hidl4base4V1_
12:   FUNC GLOBAL DEFAULT UND _ZN7android4hidl4base4V1_
13:   FUNC GLOBAL DEFAULT UND _ZN7android4hidl4base4V1_
14:   FUNC GLOBAL DEFAULT UND _ZN7android4hidl4base4V1_
15:   FUNC GLOBAL DEFAULT UND _ZN7android4hidl4base4V1_
16:   FUNC GLOBAL DEFAULT UND _ZN7android4hidl4base4V1_
17:   FUNC GLOBAL DEFAULT UND _ZN7android4hidl4base4V1_
18:   FUNC GLOBAL DEFAULT UND _ZN7android4hidl4base4V1_
19:   FUNC GLOBAL DEFAULT UND _ZN7android4hidl4base4V1_
20:   FUNC GLOBAL DEFAULT UND _ZN7android4hidl4base4V1_
21:   FUNC GLOBAL DEFAULT UND _ZN7android4hidl4base4V1_
22:   FUNC GLOBAL DEFAULT UND _ZN7android4hidl4base4V1_
23:   FUNC GLOBAL DEFAULT UND _ZN7android4hidl4base4V1_
24:   FUNC GLOBAL DEFAULT UND _ZN7android4hidl4base4V1_
25:   FUNC GLOBAL DEFAULT UND _ZN7android4hidl4base4V1_
26:   FUNC GLOBAL DEFAULT UND _ZN7android4hidl4base4V1_
27:   FUNC GLOBAL DEFAULT UND _ZN7android4hidl4base4V1_
28:   FUNC GLOBAL DEFAULT UND _ZN7android7RefBase10onFi
29:   FUNC GLOBAL DEFAULT UND _ZN7android7RefBase12weak
30:   FUNC GLOBAL DEFAULT UND _ZN7android7RefBase13onLa
31:   FUNC GLOBAL DEFAULT UND _ZN7android7RefBase15onLa
32:   FUNC GLOBAL DEFAULT UND _ZN7android7RefBase20onIn
33:   FUNC GLOBAL DEFAULT UND _ZN7android7RefBaseC2Ev
34:   FUNC GLOBAL DEFAULT UND _ZN7android7RefBaseD2Ev
35:   FUNC GLOBAL DEFAULT UND _ZN7android8hardware10IIn
36:   FUNC GLOBAL DEFAULT UND _ZN7android8hardware10IIn
37:   FUNC GLOBAL DEFAULT UND _ZN7android8hardware10IIn
38:   FUNC GLOBAL DEFAULT UND _ZN7android8hardware10IIn
39:   FUNC GLOBAL DEFAULT UND _ZN7android8hardware10IIn
40:   FUNC GLOBAL DEFAULT UND _ZN7android8hardware11BpH
41:   FUNC GLOBAL DEFAULT UND _ZN7android8hardware11BpH
42:   FUNC GLOBAL DEFAULT UND _ZN7android8hardware11BpH
43:   FUNC GLOBAL DEFAULT UND _ZN7android8hardware11BpH
44:   FUNC GLOBAL DEFAULT UND _ZN7android8hardware11BpH
45:   FUNC GLOBAL DEFAULT UND _ZN7android8hardware11BpH
46:   FUNC GLOBAL DEFAULT UND _ZN7android8hardware11BpH
47:   FUNC GLOBAL DEFAULT UND _ZN7android8hardware11hid
48:   FUNC GLOBAL DEFAULT UND _ZN7android8hardware11hid
49:   FUNC GLOBAL DEFAULT UND _ZN7android8hardware11hid
50:   FUNC GLOBAL DEFAULT UND _ZN7android8hardware11hid
51:   FUNC GLOBAL DEFAULT UND _ZN7android8hardware11hid
52:   FUNC GLOBAL DEFAULT UND _ZN7android8hardware12Pro
53:   FUNC GLOBAL DEFAULT UND _ZN7android8hardware12Pro
54:   FUNC GLOBAL DEFAULT UND _ZN7android8hardware13wri
55:   FUNC GLOBAL DEFAULT UND _ZN7android8hardware14rea
56:   FUNC GLOBAL DEFAULT UND _ZN7android8hardware21def
57:   FUNC GLOBAL DEFAULT UND _ZN7android8hardware21wri
58:   FUNC GLOBAL DEFAULT UND _ZN7android8hardware22rea
59:   FUNC GLOBAL DEFAULT UND _ZN7android8hardware23get
60:   FUNC GLOBAL DEFAULT UND _ZN7android8hardware27hid
61:   FUNC GLOBAL DEFAULT UND _ZN7android8hardware27hid
62:   FUNC GLOBAL DEFAULT UND _ZN7android8hardware6Parc
63:   FUNC GLOBAL DEFAULT UND _ZN7android8hardware6Parc
64:   FUNC GLOBAL DEFAULT UND _ZN7android8hardware6Parc
65:   FUNC GLOBAL DEFAULT UND _ZN7android8hardware6Parc
66:   FUNC GLOBAL DEFAULT UND _ZN7android8hardware6Parc
67:   FUNC GLOBAL DEFAULT UND _ZN7android8hardware6Parc
68:   FUNC GLOBAL DEFAULT UND _ZN7android8hardware6Parc
69:   FUNC GLOBAL DEFAULT UND _ZN7android8hardware6Parc
70:   FUNC GLOBAL DEFAULT UND _ZN7android8hardware6Parc
71:   FUNC GLOBAL DEFAULT UND _ZN7android8hardware6Stat
72:   FUNC GLOBAL DEFAULT UND _ZN7android8hardware6Stat
73:   FUNC GLOBAL DEFAULT UND _ZN7android8hardware6Stat
74:   FUNC GLOBAL DEFAULT UND _ZN7android8hardware6Stat
75:   FUNC GLOBAL DEFAULT UND _ZN7android8hardware7IBin
76:   FUNC GLOBAL DEFAULT UND _ZN7android8hardware7IBin
77:   FUNC GLOBAL DEFAULT UND _ZN7android8hardware7IBin
78:   FUNC GLOBAL DEFAULT UND _ZN7android8hardware7IBin
79:   FUNC GLOBAL DEFAULT UND _ZN7android8hardware7deta
80:   FUNC GLOBAL DEFAULT UND _ZN7android8hardware7deta
81:   FUNC GLOBAL DEFAULT UND _ZN7android8hardware7deta
82:   FUNC GLOBAL DEFAULT UND _ZN7android8hardware7deta
83:   FUNC GLOBAL DEFAULT UND _ZN7android8hardware7deta
84:   FUNC GLOBAL DEFAULT UND _ZN7android8hardware7deta
85:   FUNC GLOBAL DEFAULT UND _ZN7android8hardware7deta
86:   OBJECT GLOBAL DEFAULT UND _ZN7android8hardware7deta
87:   FUNC GLOBAL DEFAULT UND _ZN7android8hardware7deta
88:   OBJECT GLOBAL DEFAULT UND _ZN7android8hardware7deta
89:   FUNC GLOBAL DEFAULT UND _ZN7android8hardware7deta
90:   FUNC GLOBAL DEFAULT UND _ZN7android8hardware7deta
91:   FUNC GLOBAL DEFAULT UND _ZN7android8hardware7deta
92:   FUNC GLOBAL DEFAULT UND _ZN7android8hardware7deta
93:   FUNC GLOBAL DEFAULT UND _ZN7android8hardware7deta
94:   FUNC GLOBAL DEFAULT UND _ZN7android8hardware7deta
95:   FUNC GLOBAL DEFAULT UND _ZN7android8hardware7deta
96:   FUNC GLOBAL DEFAULT UND _ZN7android8hardware7deta
97:   FUNC GLOBAL DEFAULT UND _ZN7android8hardware7deta
98:   FUNC GLOBAL DEFAULT UND _ZN7android8hardware7deta
99:   OBJECT GLOBAL DEFAULT UND _ZN7android8hardware7deta
100:   FUNC GLOBAL DEFAULT UND _ZN7android8hardware9BHwB
101:   FUNC GLOBAL DEFAULT UND _ZN7android8hardware9BHwB
102:   FUNC GLOBAL DEFAULT UND _ZN7android8hardware9BHwB
103:   FUNC GLOBAL DEFAULT UND _ZN7android8hardware9BHwB
104:   FUNC GLOBAL DEFAULT UND _ZN7android8hardware9BHwB
105:   FUNC GLOBAL DEFAULT UND _ZN7android8hardware9BHwB
106:   FUNC GLOBAL DEFAULT UND _ZN7android8hardware9BHwB
107:   FUNC GLOBAL DEFAULT UND _ZN7android8hardware9BHwB
108:   FUNC GLOBAL DEFAULT UND _ZN7android8hardware9BHwB
109:   FUNC GLOBAL DEFAULT UND _ZN7android8hardware9BHwB
110:   FUNC GLOBAL DEFAULT UND _ZNK7android7RefBase10cre
111:   FUNC GLOBAL DEFAULT UND _ZNK7android7RefBase11get
112:   FUNC GLOBAL DEFAULT UND _ZNK7android7RefBase9decS
113:   FUNC GLOBAL DEFAULT UND _ZNK7android7RefBase9incS
114:   FUNC GLOBAL DEFAULT UND _ZNK7android8hardware6Par
115:   FUNC GLOBAL DEFAULT UND _ZNK7android8hardware6Par
116:   FUNC GLOBAL DEFAULT UND _ZNK7android8hardware6Par
117:   FUNC GLOBAL DEFAULT UND _ZNK7android8hardware6Par
118:   FUNC GLOBAL DEFAULT UND _ZNK7android8hardware6Par
119:   FUNC GLOBAL DEFAULT UND _ZNK7android8hardware6Par
120:   FUNC GLOBAL DEFAULT UND _ZNK7android8hardware6Par
121:   FUNC GLOBAL DEFAULT UND _ZNK7android8hardware7IBi
122:   FUNC GLOBAL DEFAULT UND _ZNK7android8hardware7det
123:   FUNC GLOBAL DEFAULT UND _ZNK7android8hardware9BHw
124:   FUNC GLOBAL DEFAULT UND _ZNKSt3__120__vector_base
125:   FUNC GLOBAL DEFAULT UND _ZNKSt3__121__basic_strin
126:   FUNC GLOBAL DEFAULT UND _ZNSt3__112basic_stringIc
127:   FUNC GLOBAL DEFAULT UND _ZNSt3__15mutex4lockEv
128:   FUNC GLOBAL DEFAULT UND _ZNSt3__15mutex6unlockEv
129:   FUNC GLOBAL DEFAULT UND _ZNSt3__15mutexD1Ev
130:   FUNC GLOBAL DEFAULT UND _ZTv0_n24_N7android4hidl4
131:   FUNC GLOBAL DEFAULT UND _ZTv0_n24_N7android4hidl4
132:   FUNC GLOBAL DEFAULT UND _ZTv0_n24_N7android8hardw
133:   FUNC GLOBAL DEFAULT UND _ZTv0_n24_N7android8hardw
134:   FUNC GLOBAL DEFAULT UND _ZTv0_n24_N7android8hardw
135:   FUNC GLOBAL DEFAULT UND _ZTv0_n24_N7android8hardw
136:   FUNC GLOBAL DEFAULT UND _ZTv0_n24_N7android8hardw
137:   FUNC GLOBAL DEFAULT UND _ZTv0_n24_N7android8hardw
138:   FUNC GLOBAL DEFAULT UND _ZTv0_n24_N7android8hardw
139:   FUNC GLOBAL DEFAULT UND _ZTv0_n24_N7android8hardw
140:   FUNC GLOBAL DEFAULT UND _ZTv0_n32_N7android8hardw
141:   FUNC GLOBAL DEFAULT UND _ZTv0_n40_N7android8hardw
142:   FUNC GLOBAL DEFAULT UND _ZTv0_n48_N7android8hardw
143:   FUNC GLOBAL DEFAULT UND _ZdaPv
144:   FUNC GLOBAL DEFAULT UND _ZdlPv
145:   FUNC GLOBAL DEFAULT UND _Znam
146:   FUNC GLOBAL DEFAULT UND _Znwm
147:   FUNC GLOBAL DEFAULT UND __cxa_pure_virtual
148:   FUNC GLOBAL DEFAULT UND __stack_chk_fail@LIBC (2)
149:   FUNC GLOBAL DEFAULT UND abort@LIBC (2)
150:   FUNC GLOBAL DEFAULT UND atrace_begin_body
151:   OBJECT GLOBAL DEFAULT UND atrace_enabled_tags
152:   FUNC GLOBAL DEFAULT UND atrace_end_body
153:   OBJECT GLOBAL DEFAULT UND atrace_is_ready
154:   FUNC GLOBAL DEFAULT UND atrace_setup
155:   FUNC GLOBAL DEFAULT UND memcmp@LIBC (2)
156:   FUNC GLOBAL DEFAULT UND memcpy@LIBC (2)
157:   FUNC GLOBAL DEFAULT UND memset@LIBC (2)
158:   FUNC GLOBAL DEFAULT UND strlen@LIBC (2)
159:   FUNC GLOBAL DEFAULT UND _ZN7android8hardware4gnss
160:   FUNC GLOBAL DEFAULT UND _ZN7android8hardware4gnss
161:   FUNC GLOBAL DEFAULT UND _ZN7android8hardware4gnss
162:   FUNC GLOBAL DEFAULT UND _ZN7android8hardware4gnss
163:   FUNC GLOBAL DEFAULT UND _ZN7android8hardware4gnss
164:   FUNC GLOBAL DEFAULT UND _ZN7android8hardware4gnss
165:   FUNC GLOBAL DEFAULT UND _ZN7android8hardware4gnss
166:   FUNC GLOBAL DEFAULT UND _ZN7android8hardware4gnss
167:   FUNC GLOBAL DEFAULT UND _ZN7android8hardware4gnss
168:   FUNC GLOBAL DEFAULT UND _ZN7android8hardware4gnss
169:   OBJECT GLOBAL DEFAULT UND _ZN7android8hardware4gnss
170:   FUNC GLOBAL DEFAULT UND _ZN7android8hardware4gnss
171:   FUNC GLOBAL DEFAULT UND _ZN7android8hardware4gnss
172:   FUNC GLOBAL DEFAULT UND _ZN7android8hardware4gnss
173:   FUNC GLOBAL DEFAULT UND _ZN7android8hardware4gnss
174:   FUNC GLOBAL DEFAULT UND _ZN7android8hardware4gnss
175:   FUNC GLOBAL DEFAULT UND _ZN7android8hardware4gnss
176:   FUNC GLOBAL DEFAULT UND _ZN7android8hardware4gnss
177:   FUNC GLOBAL DEFAULT UND _ZN7android8hardware4gnss
178:   FUNC GLOBAL DEFAULT UND _ZN7android8hardware4gnss
179:   FUNC GLOBAL DEFAULT UND _ZN7android8hardware4gnss
180:   OBJECT GLOBAL DEFAULT UND _ZN7android8hardware4gnss
181:   FUNC GLOBAL DEFAULT UND _ZN7android8hardware4gnss
182:   OBJECT GLOBAL DEFAULT UND _ZN7android8hardware4gnss
183:   FUNC GLOBAL DEFAULT UND _ZN7android8hardware4gnss
184:   OBJECT GLOBAL DEFAULT UND _ZN7android8hardware4gnss
185:   FUNC GLOBAL DEFAULT UND _ZN7android8hardware4gnss
186:   FUNC GLOBAL DEFAULT UND _ZN7android8hardware4gnss
187:   FUNC GLOBAL DEFAULT UND _ZN7android8hardware4gnss
188:   FUNC GLOBAL DEFAULT UND _ZN7android8hardware4gnss
189:   FUNC GLOBAL DEFAULT UND _ZN7android8hardware4gnss
190:   FUNC GLOBAL DEFAULT UND _ZN7android8hardware4gnss
191:   FUNC GLOBAL DEFAULT UND _ZN7android8hardware4gnss
192:   FUNC GLOBAL DEFAULT UND _ZN7android8hardware4gnss
193:   FUNC GLOBAL DEFAULT UND _ZN7android8hardware4gnss
194:   FUNC GLOBAL DEFAULT UND _ZN7android8hardware4gnss
195:   FUNC GLOBAL DEFAULT UND _ZN7android8hardware4gnss
196:   FUNC GLOBAL DEFAULT UND _ZN7android8hardware4gnss
197:   FUNC GLOBAL DEFAULT UND _ZN7android8hardware4gnss
198:   FUNC GLOBAL DEFAULT UND _ZN7android8hardware4gnss
199:   FUNC GLOBAL DEFAULT UND _ZN7android8hardware4gnss
200:   FUNC GLOBAL DEFAULT UND _ZN7android8hardware4gnss
201:   FUNC GLOBAL DEFAULT UND _ZN7android8hardware4gnss
202:   FUNC GLOBAL DEFAULT UND _ZN7android8hardware4gnss
203:   FUNC GLOBAL DEFAULT UND _ZN7android8hardware4gnss
204:   FUNC GLOBAL DEFAULT UND _ZN7android8hardware4gnss
205:   FUNC GLOBAL DEFAULT UND _ZN7android8hardware4gnss
206:   FUNC GLOBAL DEFAULT UND _ZN7android8hardware4gnss
207:   FUNC GLOBAL DEFAULT UND _ZN7android8hardware4gnss
208:   FUNC GLOBAL DEFAULT UND _ZN7android8hardware4gnss
209:   FUNC GLOBAL DEFAULT UND _ZN7android8hardware4gnss
210:   FUNC GLOBAL DEFAULT UND _ZN7android8hardware4gnss
211:   FUNC GLOBAL DEFAULT UND _ZN7android8hardware4gnss
212:   FUNC GLOBAL DEFAULT UND _ZN7android8hardware4gnss
213:   FUNC GLOBAL DEFAULT UND _ZN7android8hardware4gnss
214:   FUNC GLOBAL DEFAULT UND _ZN7android8hardware4gnss
215:   FUNC GLOBAL DEFAULT UND _ZN7android8hardware4gnss
216:   FUNC GLOBAL DEFAULT UND _ZN7android8hardware4gnss
217:   FUNC GLOBAL DEFAULT UND _ZN7android8hardware4gnss
218:   FUNC GLOBAL DEFAULT UND _ZN7android8hardware4gnss
219:   FUNC GLOBAL DEFAULT UND _ZN7android8hardware4gnss
220:   FUNC GLOBAL DEFAULT UND _ZN7android8hardware4gnss
221:   FUNC GLOBAL DEFAULT UND _ZN7android8hardware4gnss
222:   FUNC GLOBAL DEFAULT UND _ZN7android8hardware4gnss
223:   FUNC GLOBAL DEFAULT UND _ZN7android8hardware4gnss
224:   FUNC GLOBAL DEFAULT UND _ZN7android8hardware4gnss
225:   FUNC GLOBAL DEFAULT UND _ZN7android8hardware4gnss
226:   FUNC GLOBAL DEFAULT UND _ZN7android8hardware4gnss
227:   FUNC GLOBAL DEFAULT UND _ZN7android8hardware4gnss
228:   FUNC GLOBAL DEFAULT UND _ZN7android8hardware4gnss
229:   FUNC GLOBAL DEFAULT UND _ZN7android8hardware4gnss
230:   FUNC GLOBAL DEFAULT UND _ZN7android8hardware4gnss
231:   OBJECT GLOBAL DEFAULT UND _ZN7android8hardware4gnss
232:   FUNC GLOBAL DEFAULT UND _ZN7android8hardware4gnss
233:   FUNC GLOBAL DEFAULT UND _ZN7android8hardware4gnss
234:   FUNC GLOBAL DEFAULT UND _ZN7android8hardware4gnss
235:   FUNC GLOBAL DEFAULT UND _ZN7android8hardware4gnss
236:   FUNC GLOBAL DEFAULT UND _ZN7android8hardware4gnss
237:   FUNC GLOBAL DEFAULT UND _ZN7android8hardware4gnss
238:   FUNC GLOBAL DEFAULT UND _ZN7android8hardware4gnss
239:   FUNC GLOBAL DEFAULT UND _ZN7android8hardware4gnss
240:   FUNC GLOBAL DEFAULT UND _ZN7android8hardware4gnss
241:   FUNC GLOBAL DEFAULT UND _ZN7android8hardware4gnss
242:   FUNC GLOBAL DEFAULT UND _ZN7android8hardware4gnss
243:   FUNC GLOBAL DEFAULT UND _ZN7android8hardware4gnss
244:   FUNC GLOBAL DEFAULT UND _ZN7android8hardware4gnss
245:   FUNC GLOBAL DEFAULT UND _ZN7android8hardware4gnss
246:   FUNC GLOBAL DEFAULT UND _ZN7android8hardware4gnss
247:   FUNC GLOBAL DEFAULT UND _ZN7android8hardware4gnss
248:   FUNC GLOBAL DEFAULT UND _ZN7android8hardware4gnss
249:   FUNC GLOBAL DEFAULT UND _ZN7android8hardware4gnss
250:   FUNC GLOBAL DEFAULT UND _ZN7android8hardware4gnss
251:   FUNC GLOBAL DEFAULT UND _ZN7android8hardware4gnss
252:   FUNC GLOBAL DEFAULT UND _ZNSt3__112basic_stringIc
253:   OBJECT GLOBAL DEFAULT UND _ZN7android8hardware4gnss
254:   FUNC GLOBAL DEFAULT UND _ZN7android8hardware4gnss
255:   FUNC GLOBAL DEFAULT UND _ZN7android8hardware4gnss
256:   FUNC GLOBAL DEFAULT UND _ZN7android8hardware4gnss
257:   FUNC GLOBAL DEFAULT UND _ZN7android8hardware4gnss
258:   FUNC GLOBAL DEFAULT UND _ZN7android8hardware4gnss
259:   FUNC GLOBAL DEFAULT UND _ZN7android8hardware4gnss
260:   FUNC GLOBAL DEFAULT UND _ZN7android8hardware4gnss
261:   FUNC GLOBAL DEFAULT UND _ZN7android8hardware4gnss
262:   FUNC GLOBAL DEFAULT UND _ZN7android8hardware4gnss
263:   FUNC GLOBAL DEFAULT UND _ZN7android8hardware4gnss
264:   FUNC GLOBAL DEFAULT UND _ZN7android8hardware4gnss
265:   FUNC GLOBAL DEFAULT UND _ZN7android8hardware4gnss
266:   FUNC GLOBAL DEFAULT UND _ZN7android8hardware4gnss
267:   FUNC GLOBAL DEFAULT UND _ZN7android8hardware4gnss
268:   FUNC GLOBAL DEFAULT UND _ZN7android8hardware4gnss
269:   FUNC GLOBAL DEFAULT UND _ZN7android8hardware4gnss
270:   FUNC GLOBAL DEFAULT UND _ZN7android8hardware4gnss
271:   FUNC GLOBAL DEFAULT UND _ZN7android8hardware4gnss
272:   FUNC GLOBAL DEFAULT UND _ZN7android8hardware4gnss
273:   FUNC GLOBAL DEFAULT UND _ZN7android8hardware4gnss
274:   FUNC GLOBAL DEFAULT UND _ZN7android8hardware4gnss
275:   FUNC GLOBAL DEFAULT UND _ZN7android8hardware4gnss
276:   FUNC GLOBAL DEFAULT UND _ZN7android8hardware6Parc
277:   FUNC GLOBAL DEFAULT UND _ZNK7android8hardware6Par
278:   OBJECT GLOBAL DEFAULT UND _ZN7android8hardware4gnss
279:   FUNC GLOBAL DEFAULT UND _ZN7android8hardware4gnss
280:   FUNC GLOBAL DEFAULT UND _ZN7android8hardware4gnss
281:   FUNC GLOBAL DEFAULT UND _ZN7android8hardware4gnss
282:   FUNC GLOBAL DEFAULT UND _ZN7android8hardware4gnss
283:   FUNC GLOBAL DEFAULT UND _ZN7android8hardware4gnss
284:   FUNC GLOBAL DEFAULT UND _ZN7android8hardware4gnss
285:   FUNC GLOBAL DEFAULT UND _ZN7android8hardware4gnss
286:   FUNC GLOBAL DEFAULT UND _ZN7android8hardware4gnss
287:   FUNC GLOBAL DEFAULT UND _ZN7android8hardware4gnss
288:   FUNC GLOBAL DEFAULT UND _ZN7android8hardware4gnss
289:   FUNC GLOBAL DEFAULT UND _ZN7android8hardware4gnss
290:   FUNC GLOBAL DEFAULT UND _ZN7android8hardware4gnss
291:   FUNC GLOBAL DEFAULT UND _ZN7android8hardware4gnss
292:   FUNC GLOBAL DEFAULT UND _ZN7android8hardware4gnss
293:   FUNC GLOBAL DEFAULT UND _ZN7android8hardware4gnss
294:   FUNC GLOBAL DEFAULT UND _ZN7android8hardware4gnss
295:   FUNC GLOBAL DEFAULT UND _ZN7android8hardware4gnss
296:   FUNC GLOBAL DEFAULT UND _ZN7android8hardware4gnss
297:   FUNC GLOBAL DEFAULT UND _ZN7android8hardware4gnss
298:   FUNC GLOBAL DEFAULT UND _ZN7android8hardware4gnss
299:   FUNC GLOBAL DEFAULT UND _ZN7android8hardware4gnss
300:   FUNC GLOBAL DEFAULT UND _ZN7android8hardware4gnss
301:   FUNC GLOBAL DEFAULT UND _ZN7android8hardware4gnss
302:   FUNC GLOBAL DEFAULT UND _ZN7android8hardware4gnss
303:   FUNC GLOBAL DEFAULT UND _ZN7android8hardware4gnss
304:   FUNC GLOBAL DEFAULT UND _ZN7android8hardware4gnss
305:   FUNC GLOBAL DEFAULT UND _ZN7android8hardware4gnss
306:   FUNC GLOBAL DEFAULT UND _ZN7android8hardware4gnss
307:   OBJECT GLOBAL DEFAULT UND _ZN7android8hardware4gnss
308:   FUNC GLOBAL DEFAULT UND _ZN7android8hardware4gnss
309:   FUNC GLOBAL DEFAULT UND _ZN7android8hardware4gnss
310:   FUNC GLOBAL DEFAULT UND _ZN7android8hardware4gnss
311:   FUNC GLOBAL DEFAULT UND _ZN7android8hardware4gnss
312:   FUNC GLOBAL DEFAULT UND _ZN7android8hardware4gnss
313:   FUNC GLOBAL DEFAULT UND _ZN7android8hardware4gnss
314:   FUNC GLOBAL DEFAULT UND _ZN7android8hardware4gnss
315:   FUNC GLOBAL DEFAULT UND _ZN7android8hardware4gnss
316:   FUNC GLOBAL DEFAULT UND _ZN7android8hardware4gnss
317:   FUNC GLOBAL DEFAULT UND _ZN7android8hardware4gnss
318:   FUNC GLOBAL DEFAULT UND _ZN7android8hardware4gnss
319:   FUNC GLOBAL DEFAULT UND _ZN7android8hardware4gnss
320:   FUNC GLOBAL DEFAULT UND _ZN7android8hardware4gnss
321:   FUNC GLOBAL DEFAULT UND _ZN7android8hardware4gnss
322:   FUNC GLOBAL DEFAULT UND _ZN7android8hardware6Parc
323:   FUNC GLOBAL DEFAULT UND _ZNK7android8hardware6Par
324:   OBJECT GLOBAL DEFAULT UND _ZN7android8hardware4gnss
325:   FUNC GLOBAL DEFAULT UND _ZN7android8hardware4gnss
326:   FUNC GLOBAL DEFAULT UND _ZN7android8hardware4gnss
327:   FUNC GLOBAL DEFAULT UND _ZN7android8hardware4gnss
328:   FUNC GLOBAL DEFAULT UND _ZN7android8hardware4gnss
329:   FUNC GLOBAL DEFAULT UND _ZN7android8hardware4gnss
330:   FUNC GLOBAL DEFAULT UND _ZN7android8hardware4gnss
331:   FUNC GLOBAL DEFAULT UND _ZN7android8hardware4gnss
332:   FUNC GLOBAL DEFAULT UND _ZN7android8hardware4gnss
333:   FUNC GLOBAL DEFAULT UND _ZN7android8hardware4gnss
334:   FUNC GLOBAL DEFAULT UND _ZN7android8hardware4gnss
335:   FUNC GLOBAL DEFAULT UND _ZN7android8hardware4gnss
336:   FUNC GLOBAL DEFAULT UND _ZN7android8hardware4gnss
337:   FUNC GLOBAL DEFAULT UND _ZN7android8hardware4gnss
338:   FUNC GLOBAL DEFAULT UND _ZN7android8hardware4gnss
339:   FUNC GLOBAL DEFAULT UND _ZN7android8hardware4gnss
340:   FUNC GLOBAL DEFAULT UND _ZN7android8hardware4gnss
341:   FUNC GLOBAL DEFAULT UND _ZN7android8hardware4gnss
342:   FUNC GLOBAL DEFAULT UND _ZN7android8hardware4gnss
343:   FUNC GLOBAL DEFAULT UND _ZN7android8hardware4gnss
344:   FUNC GLOBAL DEFAULT UND _ZN7android8hardware4gnss
345:   FUNC GLOBAL DEFAULT UND _ZN7android8hardware4gnss
346:   FUNC GLOBAL DEFAULT UND _ZN7android8hardware4gnss
347:   FUNC GLOBAL DEFAULT UND _ZN7android8hardware4gnss
348:   FUNC GLOBAL DEFAULT UND _ZN7android8hardware4gnss
349:   OBJECT GLOBAL DEFAULT UND _ZN7android8hardware4gnss
350:   FUNC GLOBAL DEFAULT UND _ZN7android8hardware4gnss
351:   FUNC GLOBAL DEFAULT UND _ZN7android8hardware4gnss
352:   FUNC GLOBAL DEFAULT UND _ZN7android8hardware4gnss
353:   FUNC GLOBAL DEFAULT UND _ZN7android8hardware4gnss
354:   FUNC GLOBAL DEFAULT UND _ZN7android8hardware4gnss
355:   FUNC GLOBAL DEFAULT UND _ZN7android8hardware4gnss
356:   FUNC GLOBAL DEFAULT UND _ZN7android8hardware4gnss
357:   FUNC GLOBAL DEFAULT UND _ZN7android8hardware4gnss
358:   FUNC GLOBAL DEFAULT UND _ZN7android8hardware4gnss
359:   FUNC GLOBAL DEFAULT UND _ZN7android8hardware4gnss
360:   FUNC GLOBAL DEFAULT UND _ZN7android8hardware4gnss
361:   FUNC GLOBAL DEFAULT UND _ZN7android8hardware4gnss
362:   OBJECT GLOBAL DEFAULT UND _ZN7android8hardware4gnss
363:   FUNC GLOBAL DEFAULT UND _ZN7android8hardware4gnss
364:   FUNC GLOBAL DEFAULT UND _ZN7android8hardware4gnss
365:   FUNC GLOBAL DEFAULT UND _ZN7android8hardware4gnss
366:   FUNC GLOBAL DEFAULT UND _ZN7android8hardware4gnss
367:   FUNC GLOBAL DEFAULT UND _ZN7android8hardware4gnss
368:   FUNC GLOBAL DEFAULT UND _ZN7android8hardware4gnss
369:   FUNC GLOBAL DEFAULT UND _ZN7android8hardware4gnss
370:   FUNC GLOBAL DEFAULT UND _ZN7android8hardware4gnss
371:   FUNC GLOBAL DEFAULT UND _ZN7android8hardware4gnss
372:   FUNC GLOBAL DEFAULT UND _ZN7android8hardware4gnss
373:   FUNC GLOBAL DEFAULT UND _ZN7android8hardware4gnss
374:   FUNC GLOBAL DEFAULT UND _ZN7android8hardware4gnss
375:   FUNC GLOBAL DEFAULT UND __android_log_assert@LIBLOG (3)
376:   OBJECT GLOBAL DEFAULT UND _ZN7android8hardware4gnss
377:   FUNC GLOBAL DEFAULT UND _ZN7android8hardware4gnss
378:   FUNC GLOBAL DEFAULT UND _ZN7android8hardware4gnss
379:   FUNC GLOBAL DEFAULT UND _ZN7android8hardware4gnss
380:   FUNC GLOBAL DEFAULT UND _ZN7android8hardware4gnss
381:   FUNC GLOBAL DEFAULT UND _ZN7android8hardware4gnss
382:   FUNC GLOBAL DEFAULT UND _ZN7android8hardware4gnss
383:   FUNC GLOBAL DEFAULT UND _ZN7android8hardware4gnss
384:   FUNC GLOBAL DEFAULT UND _ZN7android8hardware4gnss
385:   FUNC GLOBAL DEFAULT UND _ZN7android8hardware4gnss
386:   FUNC GLOBAL DEFAULT UND _ZN7android8hardware4gnss
387:   FUNC GLOBAL DEFAULT UND _ZN7android8hardware4gnss
388:   FUNC GLOBAL DEFAULT UND _ZN7android8hardware4gnss
389:   FUNC GLOBAL DEFAULT UND _ZN7android8hardware4gnss
390:   FUNC GLOBAL DEFAULT UND _ZN7android8hardware4gnss
391:   OBJECT GLOBAL DEFAULT UND _ZN7android8hardware4gnss
392:   FUNC GLOBAL DEFAULT UND _ZN7android8hardware4gnss
393:   FUNC GLOBAL DEFAULT UND _ZN7android8hardware4gnss
394:   FUNC GLOBAL DEFAULT UND _ZN7android8hardware4gnss
395:   FUNC GLOBAL DEFAULT UND _ZN7android8hardware4gnss
396:   FUNC GLOBAL DEFAULT UND _ZN7android8hardware4gnss
397:   FUNC GLOBAL DEFAULT UND _ZN7android8hardware4gnss
398:   FUNC GLOBAL DEFAULT UND _ZN7android8hardware4gnss
399:   FUNC GLOBAL DEFAULT UND _ZN7android8hardware4gnss
400:   FUNC GLOBAL DEFAULT UND _ZN7android8hardware4gnss
401:   FUNC GLOBAL DEFAULT UND _ZN7android8hardware4gnss
402:   FUNC GLOBAL DEFAULT UND _ZN7android8hardware4gnss
403:   FUNC GLOBAL DEFAULT UND _ZN7android8hardware4gnss
404:   OBJECT GLOBAL DEFAULT UND _ZN7android8hardware4gnss
405:   FUNC GLOBAL DEFAULT UND _ZN7android8hardware4gnss
406:   FUNC GLOBAL DEFAULT UND _ZN7android8hardware4gnss
407:   FUNC GLOBAL DEFAULT UND _ZN7android8hardware4gnss
408:   FUNC GLOBAL DEFAULT UND _ZN7android8hardware4gnss
409:   FUNC GLOBAL DEFAULT UND _ZN7android8hardware4gnss
410:   FUNC GLOBAL DEFAULT UND _ZN7android8hardware4gnss
411:   FUNC GLOBAL DEFAULT UND _ZN7android8hardware4gnss
412:   FUNC GLOBAL DEFAULT UND _ZN7android8hardware4gnss
413:   FUNC GLOBAL DEFAULT UND _ZN7android8hardware4gnss
414:   FUNC GLOBAL DEFAULT UND _ZN7android8hardware4gnss
415:   FUNC GLOBAL DEFAULT UND _ZN7android8hardware4gnss
416:   FUNC GLOBAL DEFAULT UND _ZN7android8hardware4gnss
417:   OBJECT GLOBAL DEFAULT UND _ZN7android8hardware4gnss
418:   FUNC GLOBAL DEFAULT UND _ZN7android8hardware4gnss
419:   FUNC GLOBAL DEFAULT UND _ZN7android8hardware4gnss
420:   FUNC GLOBAL DEFAULT UND _ZN7android8hardware4gnss
421:   FUNC GLOBAL DEFAULT UND _ZN7android8hardware4gnss
422:   FUNC GLOBAL DEFAULT UND _ZN7android8hardware4gnss
423:   FUNC GLOBAL DEFAULT UND _ZN7android8hardware4gnss
424:   FUNC GLOBAL DEFAULT UND _ZN7android8hardware4gnss
425:   FUNC GLOBAL DEFAULT UND _ZN7android8hardware4gnss
426:   FUNC GLOBAL DEFAULT UND _ZN7android8hardware4gnss
427:   FUNC GLOBAL DEFAULT UND _ZN7android8hardware4gnss
428:   FUNC GLOBAL DEFAULT UND _ZN7android8hardware4gnss
429:   FUNC GLOBAL DEFAULT UND _ZN7android8hardware4gnss
430:   FUNC WEAK DEFAULT 14 _ZNSt3__16__treeINS_12__v
431:   FUNC WEAK DEFAULT 14 _ZN7android8hardware10fro
432:   FUNC GLOBAL DEFAULT 14 _ZN7android8hardware4gnss
433:   OBJECT GLOBAL DEFAULT 18 _ZTTN7android8hardware4gn
434:   OBJECT WEAK DEFAULT 18 _ZTVN7android8hardware4gn
435:   FUNC GLOBAL DEFAULT 14 _ZN7android8hardware4gnss
436:   FUNC GLOBAL DEFAULT 14 _ZN7android8hardware4gnss
437:   FUNC GLOBAL DEFAULT 14 _ZN7android8hardware4gnss
438:   OBJECT GLOBAL DEFAULT 18 _ZTCN7android8hardware4gn
439:   OBJECT GLOBAL DEFAULT 18 _ZTTN7android8hardware4gn
440:   OBJECT GLOBAL DEFAULT 18 _ZTVN7android8hardware4gn
441:   FUNC GLOBAL DEFAULT 14 _ZN7android8hardware4gnss
442:   FUNC GLOBAL DEFAULT 14 _ZN7android8hardware4gnss
443:   FUNC WEAK DEFAULT 14 _ZN7android8hardware7deta
444:   FUNC GLOBAL DEFAULT 14 _ZN7android8hardware4gnss
445:   FUNC GLOBAL DEFAULT 14 _ZN7android8hardware4gnss
446:   OBJECT WEAK DEFAULT 18 _ZTVN7android8hardware4gn
447:   FUNC GLOBAL DEFAULT 14 _ZN7android8hardware4gnss
448:   FUNC GLOBAL DEFAULT 14 _ZN7android8hardware4gnss
449:   FUNC GLOBAL DEFAULT 14 _ZN7android8hardware4gnss
450:   OBJECT GLOBAL DEFAULT 18 _ZTCN7android8hardware4gn
451:   FUNC GLOBAL DEFAULT 14 _ZTv0_n24_N7android8hardw
452:   FUNC GLOBAL DEFAULT 14 _ZN7android8hardware4gnss
453:   FUNC GLOBAL DEFAULT 14 _ZN7android8hardware4gnss
454:   FUNC WEAK DEFAULT 14 _ZN7android8hardware7deta
455:   FUNC GLOBAL DEFAULT 14 _ZN7android8hardware4gnss
456:   FUNC GLOBAL DEFAULT 14 _ZN7android8hardware4gnss
457:   FUNC GLOBAL DEFAULT 14 _ZN7android8hardware4gnss
458:   FUNC GLOBAL DEFAULT 14 _ZN7android8hardware4gnss
459:   OBJECT GLOBAL DEFAULT 18 _ZTCN7android8hardware4gn
460:   FUNC WEAK DEFAULT 14 _ZN7android8hardware7deta
461:   OBJECT WEAK DEFAULT 18 _ZTCN7android8hardware4gn
462:   FUNC GLOBAL DEFAULT 14 _ZN7android8hardware4gnss
463:   FUNC GLOBAL DEFAULT 14 _ZN7android8hardware4gnss
464:   FUNC GLOBAL DEFAULT 14 _ZN7android8hardware4gnss
465:   FUNC GLOBAL DEFAULT 14 _ZN7android8hardware4gnss
466:   FUNC WEAK DEFAULT 14 _ZN7android8hardware7deta
467:   FUNC GLOBAL DEFAULT 14 _ZN7android8hardware4gnss
468:   FUNC GLOBAL DEFAULT 14 _ZThn32_N7android8hardwar
469:   FUNC WEAK DEFAULT 14 _ZN7android8hardware7deta
470:   OBJECT GLOBAL DEFAULT 18 _ZTCN7android8hardware4gn
471:   OBJECT WEAK DEFAULT 18 _ZTVN7android8hardware4gn
472:   FUNC GLOBAL DEFAULT 14 _ZN7android8hardware4gnss
473:   OBJECT GLOBAL DEFAULT 18 _ZTCN7android8hardware4gn
474:   FUNC GLOBAL DEFAULT 14 _ZN7android8hardware4gnss
475:   FUNC GLOBAL DEFAULT 14 _ZN7android8hardware4gnss
476:   FUNC GLOBAL DEFAULT 14 _ZN7android8hardware4gnss
477:   FUNC GLOBAL DEFAULT 14 _ZN7android8hardware4gnss
478:   FUNC GLOBAL DEFAULT 14 _ZN7android8hardware4gnss
479:   OBJECT GLOBAL DEFAULT 18 _ZTCN7android8hardware4gn
480:   FUNC GLOBAL DEFAULT 14 _ZTv0_n24_N7android8hardw
481:   OBJECT WEAK DEFAULT 18 _ZTCN7android8hardware4gn
482:   OBJECT GLOBAL DEFAULT 18 _ZTTN7android8hardware4gn
483:   OBJECT WEAK DEFAULT 18 _ZTVN7android8hardware4gn
484:   FUNC GLOBAL DEFAULT 14 _ZN7android8hardware4gnss
485:   FUNC GLOBAL DEFAULT 14 _ZN7android8hardware4gnss
486:   FUNC GLOBAL DEFAULT 14 _ZN7android8hardware4gnss
487:   OBJECT GLOBAL DEFAULT 18 _ZTCN7android8hardware4gn
488:   OBJECT GLOBAL DEFAULT 18 _ZTCN7android8hardware4gn
489:   OBJECT GLOBAL DEFAULT 18 _ZTCN7android8hardware4gn
490:   FUNC GLOBAL DEFAULT 14 _ZThn32_N7android8hardwar
491:   FUNC GLOBAL DEFAULT 14 _ZN7android8hardware4gnss
492:   FUNC GLOBAL DEFAULT 14 _ZN7android8hardware4gnss
493:   FUNC GLOBAL DEFAULT 14 _ZN7android8hardware4gnss
494:   FUNC GLOBAL DEFAULT 14 _ZN7android8hardware4gnss
495:   OBJECT GLOBAL DEFAULT 18 _ZTCN7android8hardware4gn
496:   OBJECT GLOBAL DEFAULT 18 _ZTTN7android8hardware4gn
497:   FUNC GLOBAL DEFAULT 14 _ZN7android8hardware4gnss
498:   OBJECT GLOBAL DEFAULT 18 _ZTTN7android8hardware4gn
499:   OBJECT GLOBAL DEFAULT 18 _ZTCN7android8hardware4gn
500:   FUNC WEAK DEFAULT 14 _ZNSt3__16vectorIPvNS_9al
501:   OBJECT GLOBAL DEFAULT 18 _ZTVN7android8hardware4gn
502:   FUNC GLOBAL DEFAULT 14 _ZN7android8hardware4gnss
503:   FUNC GLOBAL DEFAULT 14 _ZN7android8hardware4gnss
504:   FUNC GLOBAL DEFAULT 14 _ZN7android8hardware4gnss
505:   FUNC GLOBAL DEFAULT 14 _ZN7android8hardware4gnss
506:   FUNC GLOBAL DEFAULT 14 _ZN7android8hardware4gnss
507:   FUNC GLOBAL DEFAULT 14 _ZN7android8hardware4gnss
508:   OBJECT WEAK DEFAULT 18 _ZTCN7android8hardware4gn
509:   FUNC GLOBAL DEFAULT 14 _ZN7android8hardware4gnss
510:   FUNC GLOBAL DEFAULT 14 _ZN7android8hardware4gnss
511:   FUNC GLOBAL DEFAULT 14 _ZN7android8hardware4gnss
512:   FUNC GLOBAL DEFAULT 14 _ZN7android8hardware4gnss
513:   FUNC GLOBAL DEFAULT 14 _ZN7android8hardware4gnss
514:   FUNC GLOBAL DEFAULT 14 _ZN7android8hardware4gnss
515:   OBJECT GLOBAL DEFAULT 18 _ZTTN7android8hardware4gn
516:   FUNC GLOBAL DEFAULT 14 _ZN7android8hardware4gnss
517:   FUNC GLOBAL DEFAULT 14 _ZN7android8hardware4gnss
518:   OBJECT WEAK DEFAULT 18 _ZTCN7android8hardware4gn
519:   FUNC GLOBAL DEFAULT 14 _ZN7android8hardware4gnss
520:   FUNC WEAK DEFAULT 14 _ZN7android8hardware10fro
521:   OBJECT WEAK DEFAULT 18 _ZTCN7android8hardware4gn
522:   OBJECT GLOBAL DEFAULT 18 _ZTCN7android8hardware4gn
523:   FUNC GLOBAL DEFAULT 14 _ZN7android8hardware4gnss
524:   FUNC GLOBAL DEFAULT 14 _ZN7android8hardware4gnss
525:   FUNC GLOBAL DEFAULT 14 _ZN7android8hardware4gnss
526:   FUNC WEAK DEFAULT 14 _ZN7android8hardware7deta
527:   FUNC GLOBAL DEFAULT 14 _ZN7android8hardware4gnss
528:   FUNC GLOBAL DEFAULT 14 _ZN7android8hardware4gnss
529:   FUNC GLOBAL DEFAULT 14 _ZN7android8hardware4gnss
530:   FUNC GLOBAL DEFAULT 14 _ZN7android8hardware4gnss
531:   FUNC GLOBAL DEFAULT 14 _ZN7android8hardware4gnss
532:   OBJECT GLOBAL DEFAULT 18 _ZTCN7android8hardware4gn
533:   OBJECT GLOBAL DEFAULT 18 _ZTTN7android8hardware4gn
534:   FUNC GLOBAL DEFAULT 14 _ZN7android8hardware4gnss
535:   FUNC GLOBAL DEFAULT 14 _ZN7android8hardware4gnss
536:   FUNC GLOBAL DEFAULT 14 _ZN7android8hardware4gnss
537:   OBJECT GLOBAL DEFAULT 18 _ZTVN7android8hardware4gn
538:   OBJECT GLOBAL DEFAULT 18 _ZTTN7android8hardware4gn
539:   OBJECT GLOBAL DEFAULT 18 _ZTCN7android8hardware4gn
540:   FUNC GLOBAL DEFAULT 14 _ZN7android8hardware4gnss
541:   FUNC GLOBAL DEFAULT 14 _ZN7android8hardware4gnss
542:   FUNC GLOBAL DEFAULT 14 _ZN7android8hardware4gnss
543:   OBJECT GLOBAL DEFAULT 18 _ZTCN7android8hardware4gn
544:   FUNC GLOBAL DEFAULT 14 _ZN7android8hardware4gnss
545:   FUNC GLOBAL DEFAULT 14 _ZN7android8hardware4gnss
546:   FUNC WEAK DEFAULT 14 _ZN7android8hardware7deta
547:   FUNC GLOBAL DEFAULT 14 _ZTv0_n24_N7android8hardw
548:   FUNC GLOBAL DEFAULT 14 _ZN7android8hardware4gnss
549:   OBJECT GLOBAL DEFAULT 18 _ZTCN7android8hardware4gn
550:   OBJECT GLOBAL DEFAULT 18 _ZTCN7android8hardware4gn
551:   OBJECT GLOBAL DEFAULT 18 _ZTCN7android8hardware4gn
552:   FUNC GLOBAL DEFAULT 14 _ZN7android8hardware4gnss
553:   FUNC GLOBAL DEFAULT 14 _ZN7android8hardware4gnss
554:   OBJECT GLOBAL DEFAULT 18 _ZTTN7android8hardware4gn
555:   FUNC GLOBAL DEFAULT 14 _ZN7android8hardware4gnss
556:   FUNC GLOBAL DEFAULT 14 _ZN7android8hardware4gnss
557:   FUNC GLOBAL DEFAULT 14 _ZN7android8hardware4gnss
558:   FUNC GLOBAL DEFAULT 14 _ZN7android8hardware4gnss
559:   FUNC GLOBAL DEFAULT 14 _ZN7android8hardware4gnss
560:   FUNC WEAK DEFAULT 14 _ZN7android8hardware7deta
561:   FUNC GLOBAL DEFAULT 14 _ZN7android8hardware4gnss
562:   FUNC GLOBAL DEFAULT 14 _ZN7android8hardware4gnss
563:   FUNC GLOBAL DEFAULT 14 _ZN7android8hardware4gnss
564:   FUNC GLOBAL DEFAULT 14 _ZThn32_N7android8hardwar
565:   FUNC WEAK DEFAULT 14 _ZN7android8hardware10fro
566:   OBJECT GLOBAL DEFAULT 18 _ZTCN7android8hardware4gn
567:   FUNC GLOBAL DEFAULT 14 _ZN7android8hardware4gnss
568:   FUNC GLOBAL DEFAULT 14 _ZN7android8hardware4gnss
569:   FUNC GLOBAL DEFAULT 14 _ZN7android8hardware4gnss
570:   FUNC GLOBAL DEFAULT 14 _ZN7android8hardware4gnss
571:   FUNC GLOBAL DEFAULT 14 _ZN7android8hardware4gnss
572:   FUNC GLOBAL DEFAULT 14 _ZN7android8hardware4gnss
573:   OBJECT WEAK DEFAULT 18 _ZTVN7android8hardware4gn
574:   FUNC GLOBAL DEFAULT 14 _ZN7android8hardware4gnss
575:   FUNC GLOBAL DEFAULT 14 _ZN7android8hardware4gnss
576:   FUNC WEAK DEFAULT 14 _ZN7android8hardware7deta
577:   OBJECT GLOBAL DEFAULT 18 _ZTCN7android8hardware4gn
578:   FUNC GLOBAL DEFAULT 14 _ZN7android8hardware4gnss
579:   FUNC GLOBAL DEFAULT 14 _ZN7android8hardware4gnss
580:   FUNC GLOBAL DEFAULT 14 _ZN7android8hardware4gnss
581:   FUNC WEAK DEFAULT 14 _ZN7android8hardware7deta
582:   OBJECT GLOBAL DEFAULT 18 _ZTCN7android8hardware4gn
583:   OBJECT GLOBAL DEFAULT 18 _ZTTN7android8hardware4gn
584:   FUNC GLOBAL DEFAULT 14 _ZN7android8hardware4gnss
585:   FUNC GLOBAL DEFAULT 14 _ZN7android8hardware4gnss
586:   FUNC GLOBAL DEFAULT 14 _ZN7android8hardware4gnss
587:   OBJECT GLOBAL DEFAULT 18 _ZTVN7android8hardware4gn
588:   FUNC WEAK DEFAULT 14 _ZN7android8hardware7deta
589:   FUNC GLOBAL DEFAULT 14 _ZN7android8hardware4gnss
590:   OBJECT WEAK DEFAULT 18 _ZTCN7android8hardware4gn
591:   FUNC GLOBAL DEFAULT 14 _ZN7android8hardware4gnss
592:   FUNC GLOBAL DEFAULT 14 _ZN7android8hardware4gnss
593:   FUNC GLOBAL DEFAULT 14 _ZN7android8hardware4gnss
594:   FUNC GLOBAL DEFAULT 14 _ZN7android8hardware4gnss
595:   OBJECT WEAK DEFAULT 18 _ZTCN7android8hardware4gn
596:   FUNC WEAK DEFAULT 14 _ZN7android8hardware10fro
597:   FUNC GLOBAL DEFAULT 14 _ZN7android8hardware4gnss
598:   FUNC GLOBAL DEFAULT 14 _ZN7android8hardware4gnss
599:   FUNC GLOBAL DEFAULT 14 _ZN7android8hardware4gnss
600:   FUNC GLOBAL DEFAULT 14 _ZN7android8hardware4gnss
601:   FUNC GLOBAL DEFAULT 14 _ZN7android8hardware4gnss
602:   FUNC GLOBAL DEFAULT 14 _ZN7android8hardware4gnss
603:   FUNC GLOBAL DEFAULT 14 _ZN7android8hardware4gnss
604:   FUNC GLOBAL DEFAULT 14 _ZN7android8hardware4gnss
605:   FUNC WEAK DEFAULT 14 _ZN7android8hardware7deta
606:   OBJECT GLOBAL DEFAULT 18 _ZTCN7android8hardware4gn
607:   FUNC GLOBAL DEFAULT 14 _ZN7android8hardware4gnss
608:   FUNC GLOBAL DEFAULT 14 _ZThn32_N7android8hardwar
609:   FUNC GLOBAL DEFAULT 14 _ZN7android8hardware4gnss
610:   FUNC GLOBAL DEFAULT 14 _ZN7android8hardware4gnss
611:   FUNC GLOBAL DEFAULT 14 _ZN7android8hardware4gnss
612:   FUNC GLOBAL DEFAULT 14 _ZN7android8hardware4gnss
613:   FUNC GLOBAL DEFAULT 14 _ZN7android8hardware4gnss
614:   FUNC GLOBAL DEFAULT 14 _ZN7android8hardware4gnss
615:   FUNC GLOBAL DEFAULT 14 _ZN7android8hardware4gnss
616:   FUNC GLOBAL DEFAULT 14 _ZN7android8hardware4gnss
617:   FUNC GLOBAL DEFAULT 14 _ZN7android8hardware4gnss
618:   FUNC WEAK DEFAULT 14 _ZN7android8hardware7deta
619:   FUNC GLOBAL DEFAULT 14 _ZN7android8hardware4gnss
620:   FUNC GLOBAL DEFAULT 14 _ZN7android8hardware4gnss
621:   OBJECT GLOBAL DEFAULT 18 _ZTCN7android8hardware4gn
622:   FUNC GLOBAL DEFAULT 14 _ZN7android8hardware4gnss
623:   OBJECT GLOBAL DEFAULT 18 _ZTCN7android8hardware4gn
624:   FUNC WEAK DEFAULT 14 _ZN7android8hardware7deta
625:   FUNC GLOBAL DEFAULT 14 _ZThn32_N7android8hardwar
626:   FUNC GLOBAL DEFAULT 14 _ZTv0_n24_N7android8hardw
627:   FUNC GLOBAL DEFAULT 14 _ZN7android8hardware4gnss
628:   FUNC GLOBAL DEFAULT 14 _ZN7android8hardware4gnss
629:   OBJECT GLOBAL DEFAULT 18 _ZTCN7android8hardware4gn
630:   OBJECT GLOBAL DEFAULT 18 _ZTCN7android8hardware4gn
631:   FUNC WEAK DEFAULT 14 _ZN7android8hardware7deta
632:   FUNC GLOBAL DEFAULT 14 _ZN7android8hardware4gnss
633:   FUNC GLOBAL DEFAULT 14 _ZN7android8hardware4gnss
634:   FUNC GLOBAL DEFAULT 14 _ZN7android8hardware4gnss
635:   FUNC GLOBAL DEFAULT 14 _ZN7android8hardware4gnss
636:   FUNC GLOBAL DEFAULT 14 _ZN7android8hardware4gnss
637:   OBJECT GLOBAL DEFAULT 18 _ZTCN7android8hardware4gn
638:   OBJECT GLOBAL DEFAULT 18 _ZTCN7android8hardware4gn
639:   FUNC GLOBAL DEFAULT 14 _ZN7android8hardware4gnss
640:   FUNC GLOBAL DEFAULT 14 _ZN7android8hardware4gnss
641:   FUNC GLOBAL DEFAULT 14 _ZN7android8hardware4gnss
642:   FUNC GLOBAL DEFAULT 14 _ZN7android8hardware4gnss
643:   FUNC GLOBAL DEFAULT 14 _ZN7android8hardware4gnss
644:   FUNC GLOBAL DEFAULT 14 _ZN7android8hardware4gnss
645:   FUNC GLOBAL DEFAULT 14 _ZN7android8hardware4gnss
646:   FUNC GLOBAL DEFAULT 14 _ZN7android8hardware4gnss
647:   FUNC GLOBAL DEFAULT 14 _ZN7android8hardware4gnss
648:   OBJECT GLOBAL DEFAULT 18 _ZTCN7android8hardware4gn
649:   OBJECT WEAK DEFAULT 18 _ZTCN7android8hardware4gn
650:   OBJECT GLOBAL DEFAULT 18 _ZTCN7android8hardware4gn
651:   FUNC GLOBAL DEFAULT 14 _ZN7android8hardware4gnss
652:   FUNC GLOBAL DEFAULT 14 _ZN7android8hardware4gnss
653:   FUNC GLOBAL DEFAULT 14 _ZN7android8hardware4gnss
654:   FUNC GLOBAL DEFAULT 14 _ZN7android8hardware4gnss
655:   FUNC GLOBAL DEFAULT 14 _ZN7android8hardware4gnss
656:   FUNC GLOBAL DEFAULT 14 _ZN7android8hardware4gnss
657:   OBJECT GLOBAL DEFAULT 18 _ZTCN7android8hardware4gn
658:   FUNC GLOBAL DEFAULT 14 _ZN7android8hardware4gnss
659:   FUNC WEAK DEFAULT 14 _ZN7android8hardware7deta
660:   FUNC GLOBAL DEFAULT 14 _ZN7android8hardware4gnss
661:   FUNC GLOBAL DEFAULT 14 _ZN7android8hardware4gnss
662:   FUNC GLOBAL DEFAULT 14 _ZN7android8hardware4gnss
663:   FUNC GLOBAL DEFAULT 14 _ZTv0_n24_N7android8hardw
664:   FUNC GLOBAL DEFAULT 14 _ZN7android8hardware4gnss
665:   OBJECT GLOBAL DEFAULT 18 _ZTCN7android8hardware4gn
666:   FUNC GLOBAL DEFAULT 14 _ZN7android8hardware4gnss
667:   FUNC GLOBAL DEFAULT 14 _ZN7android8hardware4gnss
668:   FUNC GLOBAL DEFAULT 14 _ZN7android8hardware4gnss
669:   OBJECT GLOBAL DEFAULT 18 _ZTVN7android8hardware4gn
670:   OBJECT GLOBAL DEFAULT 18 _ZTVN7android8hardware4gn
671:   FUNC GLOBAL DEFAULT 14 _ZN7android8hardware4gnss
672:   OBJECT GLOBAL DEFAULT 18 _ZTCN7android8hardware4gn
673:   FUNC GLOBAL DEFAULT 14 _ZN7android8hardware4gnss
674:   FUNC GLOBAL DEFAULT 14 _ZN7android8hardware4gnss
675:   FUNC GLOBAL DEFAULT 14 _ZN7android8hardware4gnss
676:   FUNC GLOBAL DEFAULT 14 _ZN7android8hardware4gnss
677:   FUNC GLOBAL DEFAULT 14 _ZN7android8hardware4gnss
678:   FUNC GLOBAL DEFAULT 14 _ZN7android8hardware4gnss
679:   FUNC WEAK DEFAULT 14 _ZN7android8hardware7deta
680:   FUNC GLOBAL DEFAULT 14 _ZThn32_N7android8hardwar
681:   FUNC WEAK DEFAULT 14 _ZNSt3__113__tree_removeI
682:   OBJECT GLOBAL DEFAULT 18 _ZTVN7android8hardware4gn
683:   OBJECT GLOBAL DEFAULT 18 _ZTTN7android8hardware4gn
684:   FUNC GLOBAL DEFAULT 14 _ZN7android8hardware4gnss
685:   OBJECT GLOBAL DEFAULT 18 _ZTCN7android8hardware4gn
686:   FUNC GLOBAL DEFAULT 14 _ZN7android8hardware4gnss
687:   FUNC GLOBAL DEFAULT 14 _ZN7android8hardware4gnss
688:   FUNC GLOBAL DEFAULT 14 _ZN7android8hardware4gnss
689:   FUNC GLOBAL DEFAULT 14 _ZN7android8hardware4gnss
690:   OBJECT GLOBAL DEFAULT 18 _ZTCN7android8hardware4gn
691:   FUNC WEAK DEFAULT 14 _ZNSt3__16__treeINS_12__v
692:   FUNC GLOBAL DEFAULT 14 _ZN7android8hardware4gnss
693:   FUNC GLOBAL DEFAULT 14 _ZN7android8hardware4gnss
694:   FUNC WEAK DEFAULT 14 _ZN7android8hardware7deta
695:   FUNC GLOBAL DEFAULT 14 _ZN7android8hardware4gnss
696:   FUNC GLOBAL DEFAULT 14 _ZN7android8hardware4gnss
697:   FUNC GLOBAL DEFAULT 14 _ZN7android8hardware4gnss
698:   FUNC GLOBAL DEFAULT 14 _ZN7android8hardware4gnss
699:   FUNC GLOBAL DEFAULT 14 _ZN7android8hardware4gnss
700:   FUNC GLOBAL DEFAULT 14 _ZN7android8hardware4gnss
701:   FUNC GLOBAL DEFAULT 14 _ZN7android8hardware4gnss
702:   FUNC GLOBAL DEFAULT 14 _ZN7android8hardware4gnss
703:   FUNC GLOBAL DEFAULT 14 _ZN7android8hardware4gnss
704:   OBJECT GLOBAL DEFAULT 18 _ZTCN7android8hardware4gn
705:   FUNC GLOBAL DEFAULT 14 _ZN7android8hardware4gnss
706:   OBJECT GLOBAL DEFAULT 18 _ZTCN7android8hardware4gn
707:   FUNC WEAK DEFAULT 14 _ZNSt3__16vectorINS_8func
708:   FUNC GLOBAL DEFAULT 14 _ZN7android8hardware4gnss
709:   FUNC GLOBAL DEFAULT 14 _ZN7android8hardware4gnss
710:   FUNC GLOBAL DEFAULT 14 _ZN7android8hardware4gnss
711:   OBJECT GLOBAL DEFAULT 18 _ZTCN7android8hardware4gn
712:   FUNC GLOBAL DEFAULT 14 _ZThn32_N7android8hardwar
713:   OBJECT GLOBAL DEFAULT 18 _ZTCN7android8hardware4gn
714:   FUNC GLOBAL DEFAULT 14 _ZN7android8hardware4gnss
715:   FUNC GLOBAL DEFAULT 14 _ZN7android8hardware4gnss
716:   FUNC GLOBAL DEFAULT 14 _ZN7android8hardware4gnss
717:   FUNC GLOBAL DEFAULT 14 _ZN7android8hardware4gnss
718:   FUNC GLOBAL DEFAULT 14 _ZN7android8hardware4gnss
719:   FUNC WEAK DEFAULT 14 _ZN7android8hardware7deta
720:   FUNC GLOBAL DEFAULT 14 _ZN7android8hardware4gnss
721:   OBJECT GLOBAL DEFAULT 18 _ZTCN7android8hardware4gn
722:   FUNC GLOBAL DEFAULT 14 _ZN7android8hardware4gnss
723:   OBJECT GLOBAL DEFAULT 18 _ZTCN7android8hardware4gn
724:   FUNC WEAK DEFAULT 14 _ZN7android8hardware10fro
725:   FUNC GLOBAL DEFAULT 14 _ZN7android8hardware4gnss
726:   FUNC GLOBAL DEFAULT 14 _ZN7android8hardware4gnss
727:   FUNC GLOBAL DEFAULT 14 _ZN7android8hardware4gnss
728:   OBJECT GLOBAL DEFAULT 18 _ZTCN7android8hardware4gn
729:   FUNC GLOBAL DEFAULT 14 _ZN7android8hardware4gnss
730:   FUNC WEAK DEFAULT 14 _ZN7android8hardware7deta
731:   OBJECT GLOBAL DEFAULT 18 _ZTCN7android8hardware4gn
732:   FUNC WEAK DEFAULT 14 _ZN7android8hardware7deta
733:   FUNC GLOBAL DEFAULT 14 _ZN7android8hardware4gnss
734:   OBJECT GLOBAL DEFAULT 18 _ZTCN7android8hardware4gn
735:   OBJECT GLOBAL DEFAULT 18 _ZTCN7android8hardware4gn
736:   FUNC GLOBAL DEFAULT 14 _ZN7android8hardware4gnss
737:   FUNC GLOBAL DEFAULT 14 _ZN7android8hardware4gnss
738:   FUNC GLOBAL DEFAULT 14 _ZN7android8hardware4gnss
739:   FUNC GLOBAL DEFAULT 14 _ZN7android8hardware4gnss
740:   FUNC GLOBAL DEFAULT 14 _ZN7android8hardware4gnss
741:   FUNC GLOBAL DEFAULT 14 _ZN7android8hardware4gnss
742:   FUNC GLOBAL DEFAULT 14 _ZN7android8hardware4gnss
743:   FUNC GLOBAL DEFAULT 14 _ZN7android8hardware4gnss
744:   FUNC GLOBAL DEFAULT 14 _ZN7android8hardware4gnss
745:   FUNC GLOBAL DEFAULT 14 _ZN7android8hardware4gnss
746:   FUNC WEAK DEFAULT 14 _ZN7android8hardware7deta
747:   FUNC GLOBAL DEFAULT 14 _ZN7android8hardware4gnss
748:   OBJECT GLOBAL DEFAULT 18 _ZTCN7android8hardware4gn
749:   FUNC GLOBAL DEFAULT 14 _ZN7android8hardware4gnss
750:   FUNC GLOBAL DEFAULT 14 _ZN7android8hardware4gnss
751:   OBJECT GLOBAL DEFAULT 18 _ZTCN7android8hardware4gn
752:   FUNC GLOBAL DEFAULT 14 _ZN7android8hardware4gnss
753:   FUNC GLOBAL DEFAULT 14 _ZN7android8hardware4gnss
754:   FUNC GLOBAL DEFAULT 14 _ZN7android8hardware4gnss
755:   OBJECT GLOBAL DEFAULT 18 _ZTTN7android8hardware4gn
756:   OBJECT GLOBAL DEFAULT 18 _ZTCN7android8hardware4gn
757:   OBJECT GLOBAL DEFAULT 18 _ZTVN7android8hardware4gn
758:   OBJECT GLOBAL DEFAULT 18 _ZTCN7android8hardware4gn
759:   FUNC GLOBAL DEFAULT 14 _ZN7android8hardware4gnss
760:   FUNC GLOBAL DEFAULT 14 _ZN7android8hardware4gnss
761:   FUNC GLOBAL DEFAULT 14 _ZN7android8hardware4gnss
762:   FUNC WEAK DEFAULT 14 _ZN7android8hardware7deta
763:   FUNC GLOBAL DEFAULT 14 _ZN7android8hardware4gnss
764:   FUNC GLOBAL DEFAULT 14 _ZN7android8hardware4gnss
765:   OBJECT GLOBAL DEFAULT 18 _ZTCN7android8hardware4gn
766:   FUNC WEAK DEFAULT 14 _ZNSt3__16__treeINS_12__v
767:   FUNC GLOBAL DEFAULT 14 _ZN7android8hardware4gnss
768:   FUNC GLOBAL DEFAULT 14 _ZN7android8hardware4gnss
769:   FUNC GLOBAL DEFAULT 14 _ZN7android8hardware4gnss
770:   FUNC GLOBAL DEFAULT 14 _ZN7android8hardware4gnss
771:   FUNC WEAK DEFAULT 14 _ZN7android8hardware7deta
772:   FUNC GLOBAL DEFAULT 14 _ZN7android8hardware4gnss
773:   FUNC GLOBAL DEFAULT 14 _ZThn32_N7android8hardwar
774:   FUNC GLOBAL DEFAULT 14 _ZN7android8hardware4gnss
775:   FUNC GLOBAL DEFAULT 14 _ZTv0_n24_N7android8hardw
776:   OBJECT GLOBAL DEFAULT 18 _ZTTN7android8hardware4gn
777:   FUNC GLOBAL DEFAULT 14 _ZN7android8hardware4gnss
778:   FUNC GLOBAL DEFAULT 14 _ZN7android8hardware4gnss
779:   FUNC WEAK DEFAULT 14 _ZNSt3__16__treeINS_12__v
780:   FUNC GLOBAL DEFAULT 14 _ZN7android8hardware4gnss
781:   FUNC GLOBAL DEFAULT 14 _ZN7android8hardware4gnss
782:   OBJECT GLOBAL DEFAULT 18 _ZTCN7android8hardware4gn
783:   FUNC GLOBAL DEFAULT 14 _ZN7android8hardware4gnss
784:   FUNC GLOBAL DEFAULT 14 _ZTv0_n24_N7android8hardw
785:   FUNC GLOBAL DEFAULT 14 _ZN7android8hardware4gnss
786:   OBJECT GLOBAL DEFAULT 18 _ZTVN7android8hardware4gn
787:   OBJECT GLOBAL DEFAULT 18 _ZTTN7android8hardware4gn
788:   OBJECT GLOBAL DEFAULT 18 _ZTCN7android8hardware4gn
789:   FUNC GLOBAL DEFAULT 14 _ZN7android8hardware4gnss
790:   FUNC WEAK DEFAULT 14 _ZN7android8hardware7deta
791:   OBJECT GLOBAL DEFAULT 18 _ZTVN7android8hardware4gn
792:   OBJECT GLOBAL DEFAULT 16 _ZN7android8hardware4gnss
793:   OBJECT GLOBAL DEFAULT 18 _ZTCN7android8hardware4gn
794:   FUNC GLOBAL DEFAULT 14 _ZTv0_n24_N7android8hardw
795:   FUNC WEAK DEFAULT 14 _ZN7android8hardware7deta
796:   FUNC GLOBAL DEFAULT 14 _ZN7android8hardware4gnss
797:   OBJECT GLOBAL DEFAULT 18 _ZTCN7android8hardware4gn
798:   FUNC GLOBAL DEFAULT 14 _ZN7android8hardware4gnss
799:   FUNC GLOBAL DEFAULT 14 _ZN7android8hardware4gnss
800:   FUNC WEAK DEFAULT 14 _ZN7android8hardware7deta
801:   OBJECT GLOBAL DEFAULT 18 _ZTCN7android8hardware4gn
802:   FUNC GLOBAL DEFAULT 14 _ZN7android8hardware4gnss
803:   FUNC WEAK DEFAULT 14 _ZN7android8hardware7deta
804:   FUNC GLOBAL DEFAULT 14 _ZN7android8hardware4gnss
805:   FUNC GLOBAL DEFAULT 14 _ZN7android8hardware4gnss
806:   FUNC GLOBAL DEFAULT 14 _ZN7android8hardware4gnss
807:   FUNC GLOBAL DEFAULT 14 _ZN7android8hardware4gnss
808:   OBJECT GLOBAL DEFAULT 18 _ZTCN7android8hardware4gn
809:   FUNC GLOBAL DEFAULT 14 _ZN7android8hardware4gnss
810:   FUNC GLOBAL DEFAULT 14 _ZN7android8hardware4gnss
811:   OBJECT GLOBAL DEFAULT 18 _ZTCN7android8hardware4gn
812:   OBJECT GLOBAL DEFAULT 18 _ZTCN7android8hardware4gn
813:   FUNC GLOBAL DEFAULT 14 _ZN7android8hardware4gnss
814:   OBJECT GLOBAL DEFAULT 18 _ZTCN7android8hardware4gn
815:   FUNC GLOBAL DEFAULT 14 _ZN7android8hardware4gnss
816:   OBJECT GLOBAL DEFAULT 18 _ZTTN7android8hardware4gn
817:   OBJECT GLOBAL DEFAULT 18 _ZTCN7android8hardware4gn
818:   FUNC GLOBAL DEFAULT 14 _ZN7android8hardware4gnss
819:   OBJECT GLOBAL DEFAULT 18 _ZTCN7android8hardware4gn
820:   FUNC GLOBAL DEFAULT 14 _ZN7android8hardware4gnss
821:   FUNC GLOBAL DEFAULT 14 _ZN7android8hardware4gnss
822:   OBJECT GLOBAL DEFAULT 18 _ZTCN7android8hardware4gn
823:   OBJECT GLOBAL DEFAULT 18 _ZTTN7android8hardware4gn
824:   FUNC GLOBAL DEFAULT 14 _ZN7android8hardware4gnss
825:   OBJECT GLOBAL DEFAULT 18 _ZTCN7android8hardware4gn
826:   OBJECT GLOBAL DEFAULT 18 _ZTCN7android8hardware4gn
827:   FUNC WEAK DEFAULT 14 _ZN7android8hardware7deta
828:   FUNC WEAK DEFAULT 14 _ZN7android8hardware7deta
829:   FUNC GLOBAL DEFAULT 14 _ZN7android8hardware4gnss
830:   FUNC GLOBAL DEFAULT 14 _ZN7android8hardware4gnss
831:   FUNC WEAK DEFAULT 14 _ZN7android8hardware7deta
832:   FUNC GLOBAL DEFAULT 14 _ZN7android8hardware4gnss
833:   FUNC GLOBAL DEFAULT 14 _ZN7android8hardware4gnss
834:   FUNC WEAK DEFAULT 14 _ZNSt3__16__treeINS_12__v
835:   FUNC GLOBAL DEFAULT 14 _ZN7android8hardware4gnss
836:   OBJECT GLOBAL DEFAULT 18 _ZTCN7android8hardware4gn
837:   FUNC GLOBAL DEFAULT 14 _ZN7android8hardware4gnss
838:   FUNC GLOBAL DEFAULT 14 _ZTv0_n24_N7android8hardw
839:   FUNC GLOBAL DEFAULT 14 _ZN7android8hardware4gnss
840:   FUNC GLOBAL DEFAULT 14 _ZN7android8hardware4gnss
841:   FUNC GLOBAL DEFAULT 14 _ZN7android8hardware4gnss
842:   FUNC GLOBAL DEFAULT 14 _ZN7android8hardware4gnss
843:   FUNC GLOBAL DEFAULT 14 _ZN7android8hardware4gnss
844:   FUNC GLOBAL DEFAULT 14 _ZN7android8hardware4gnss
845:   FUNC GLOBAL DEFAULT 14 _ZN7android8hardware4gnss
846:   FUNC GLOBAL DEFAULT 14 _ZN7android8hardware4gnss
847:   FUNC GLOBAL DEFAULT 14 _ZN7android8hardware4gnss
848:   FUNC WEAK DEFAULT 14 _ZNSt3__16__treeINS_12__v
849:   FUNC GLOBAL DEFAULT 14 _ZN7android8hardware4gnss
850:   FUNC GLOBAL DEFAULT 14 _ZN7android8hardware4gnss
851:   FUNC GLOBAL DEFAULT 14 _ZTv0_n24_N7android8hardw
852:   FUNC GLOBAL DEFAULT 14 _ZN7android8hardware4gnss
853:   FUNC GLOBAL DEFAULT 14 _ZThn32_N7android8hardwar
854:   FUNC GLOBAL DEFAULT 14 _ZN7android8hardware4gnss
855:   OBJECT GLOBAL DEFAULT 18 _ZTCN7android8hardware4gn
856:   FUNC GLOBAL DEFAULT 14 _ZN7android8hardware4gnss
857:   FUNC GLOBAL DEFAULT 14 _ZN7android8hardware4gnss
858:   FUNC WEAK DEFAULT 14 _ZN7android8hardware7deta
859:   OBJECT GLOBAL DEFAULT 18 _ZTCN7android8hardware4gn
860:   FUNC WEAK DEFAULT 14 _ZN7android8hardware7deta
861:   FUNC GLOBAL DEFAULT 14 _ZN7android8hardware4gnss
862:   FUNC GLOBAL DEFAULT 14 _ZN7android8hardware4gnss
863:   FUNC GLOBAL DEFAULT 14 _ZTv0_n24_N7android8hardw
864:   FUNC GLOBAL DEFAULT 14 _ZN7android8hardware4gnss
865:   FUNC GLOBAL DEFAULT 14 _ZN7android8hardware4gnss
866:   FUNC WEAK DEFAULT 14 _ZN7android8hardware7deta
867:   OBJECT GLOBAL DEFAULT 18 _ZTCN7android8hardware4gn
868:   FUNC GLOBAL DEFAULT 14 _ZTv0_n24_N7android8hardw
869:   FUNC GLOBAL DEFAULT 14 _ZThn32_N7android8hardwar
870:   OBJECT GLOBAL DEFAULT 16 _ZN7android8hardware4gnss
871:   FUNC GLOBAL DEFAULT 14 _ZN7android8hardware4gnss
872:   FUNC WEAK DEFAULT 14 _ZN7android8hardware7deta
873:   FUNC GLOBAL DEFAULT 14 _ZN7android8hardware4gnss
874:   FUNC GLOBAL DEFAULT 14 _ZN7android8hardware4gnss
875:   FUNC GLOBAL DEFAULT 14 _ZN7android8hardware4gnss
876:   FUNC GLOBAL DEFAULT 14 _ZN7android8hardware4gnss
877:   FUNC GLOBAL DEFAULT 14 _ZN7android8hardware4gnss
878:   FUNC GLOBAL DEFAULT 14 _ZN7android8hardware4gnss
879:   FUNC WEAK DEFAULT 14 _ZN7android8hardware7deta
880:   FUNC GLOBAL DEFAULT 14 _ZN7android8hardware4gnss
881:   OBJECT GLOBAL DEFAULT 18 _ZTCN7android8hardware4gn
882:   FUNC GLOBAL DEFAULT 14 _ZN7android8hardware4gnss
883:   FUNC GLOBAL DEFAULT 14 _ZN7android8hardware4gnss
884:   OBJECT GLOBAL DEFAULT 18 _ZTCN7android8hardware4gn
885:   FUNC GLOBAL DEFAULT 14 _ZN7android8hardware4gnss
886:   FUNC GLOBAL DEFAULT 14 _ZN7android8hardware4gnss
887:   FUNC GLOBAL DEFAULT 14 _ZN7android8hardware4gnss
888:   OBJECT GLOBAL DEFAULT 18 _ZTTN7android8hardware4gn
889:   FUNC GLOBAL DEFAULT 14 _ZN7android8hardware4gnss
890:   FUNC GLOBAL DEFAULT 14 _ZN7android8hardware4gnss
891:   FUNC GLOBAL DEFAULT 14 _ZN7android8hardware4gnss
892:   OBJECT GLOBAL DEFAULT 18 _ZTVN7android8hardware4gn
893:   FUNC GLOBAL DEFAULT 14 _ZThn32_N7android8hardwar
894:   FUNC GLOBAL DEFAULT 14 _ZN7android8hardware4gnss
895:   FUNC GLOBAL DEFAULT 14 _ZN7android8hardware4gnss
896:   OBJECT GLOBAL DEFAULT 18 _ZTVN7android8hardware4gn
897:   OBJECT GLOBAL DEFAULT 18 _ZTTN7android8hardware4gn
898:   FUNC GLOBAL DEFAULT 14 _ZN7android8hardware4gnss
899:   FUNC GLOBAL DEFAULT 14 _ZN7android8hardware4gnss
900:   OBJECT GLOBAL DEFAULT 18 _ZTVN7android8hardware4gn
901:   OBJECT GLOBAL DEFAULT 18 _ZTTN7android8hardware4gn
902:   FUNC GLOBAL DEFAULT 14 _ZN7android8hardware4gnss
903:   FUNC GLOBAL DEFAULT 14 _ZN7android8hardware4gnss
904:   FUNC GLOBAL DEFAULT 14 _ZN7android8hardware4gnss
905:   FUNC GLOBAL DEFAULT 14 _ZN7android8hardware4gnss
906:   FUNC GLOBAL DEFAULT 14 _ZN7android8hardware4gnss
907:   FUNC GLOBAL DEFAULT 14 _ZN7android8hardware4gnss
908:   OBJECT GLOBAL DEFAULT 18 _ZTCN7android8hardware4gn
909:   FUNC WEAK DEFAULT 14 _ZN7android8hardware7deta
910:   FUNC GLOBAL DEFAULT 14 _ZN7android8hardware4gnss
911:   OBJECT GLOBAL DEFAULT 18 _ZTCN7android8hardware4gn
912:   FUNC GLOBAL DEFAULT 14 _ZN7android8hardware4gnss
913:   FUNC GLOBAL DEFAULT 14 _ZN7android8hardware4gnss
914:   OBJECT GLOBAL DEFAULT 16 _ZN7android8hardware4gnss
915:   OBJECT GLOBAL DEFAULT 18 _ZTCN7android8hardware4gn
916:   OBJECT GLOBAL DEFAULT 18 _ZTTN7android8hardware4gn
917:   FUNC GLOBAL DEFAULT 14 _ZN7android8hardware4gnss
918:   FUNC GLOBAL DEFAULT 14 _ZN7android8hardware4gnss
919:   FUNC GLOBAL DEFAULT 14 _ZN7android8hardware4gnss
920:   FUNC GLOBAL DEFAULT 14 _ZN7android8hardware4gnss
921:   FUNC GLOBAL DEFAULT 14 _ZThn32_N7android8hardwar
922:   FUNC GLOBAL DEFAULT 14 _ZN7android8hardware4gnss
923:   FUNC GLOBAL DEFAULT 14 _ZN7android8hardware4gnss
924:   OBJECT GLOBAL DEFAULT 18 _ZTVN7android8hardware4gn
925:   FUNC GLOBAL DEFAULT 14 _ZN7android8hardware4gnss
926:   FUNC WEAK DEFAULT 14 _ZN7android8hardware7deta
927:   FUNC GLOBAL DEFAULT 14 _ZN7android8hardware4gnss
928:   FUNC GLOBAL DEFAULT 14 _ZN7android8hardware4gnss
929:   FUNC GLOBAL DEFAULT 14 _ZN7android8hardware4gnss
930:   FUNC GLOBAL DEFAULT 14 _ZN7android8hardware4gnss
931:   FUNC GLOBAL DEFAULT 14 _ZN7android8hardware4gnss
932:   FUNC GLOBAL DEFAULT 14 _ZN7android8hardware4gnss
933:   FUNC GLOBAL DEFAULT 14 _ZN7android8hardware4gnss
934:   FUNC GLOBAL DEFAULT 14 _ZN7android8hardware4gnss
935:   FUNC GLOBAL DEFAULT 14 _ZN7android8hardware4gnss
936:   FUNC GLOBAL DEFAULT 14 _ZN7android8hardware4gnss
937:   FUNC GLOBAL DEFAULT 14 _ZN7android8hardware4gnss
938:   OBJECT GLOBAL DEFAULT 18 _ZTCN7android8hardware4gn
939:   FUNC GLOBAL DEFAULT 14 _ZN7android8hardware4gnss
940:   OBJECT GLOBAL DEFAULT 18 _ZTTN7android8hardware4gn
941:   FUNC GLOBAL DEFAULT 14 _ZN7android8hardware4gnss
942:   FUNC GLOBAL DEFAULT 14 _ZN7android8hardware4gnss
943:   FUNC GLOBAL DEFAULT 14 _ZN7android8hardware4gnss
944:   OBJECT WEAK DEFAULT 18 _ZTVN7android8hardware4gn
945:   FUNC GLOBAL DEFAULT 14 _ZN7android8hardware4gnss
946:   OBJECT GLOBAL DEFAULT 18 _ZTVN7android8hardware4gn
947:   FUNC GLOBAL DEFAULT 14 _ZN7android8hardware4gnss
948:   FUNC GLOBAL DEFAULT 14 _ZN7android8hardware4gnss
949:   FUNC GLOBAL DEFAULT 14 _ZN7android8hardware4gnss
950:   FUNC GLOBAL DEFAULT 14 _ZN7android8hardware4gnss
951:   FUNC WEAK DEFAULT 14 _ZN7android8hardware7deta
952:   FUNC GLOBAL DEFAULT 14 _ZN7android8hardware4gnss
953:   FUNC GLOBAL DEFAULT 14 _ZN7android8hardware4gnss
954:   FUNC WEAK DEFAULT 14 _ZN7android8hardware7deta
955:   OBJECT WEAK DEFAULT 18 _ZTVN7android8hardware4gn
956:   FUNC GLOBAL DEFAULT 14 _ZN7android8hardware4gnss
957:   FUNC GLOBAL DEFAULT 14 _ZN7android8hardware4gnss
958:   FUNC GLOBAL DEFAULT 14 _ZN7android8hardware4gnss
959:   FUNC GLOBAL DEFAULT 14 _ZN7android8hardware4gnss
960:   FUNC WEAK DEFAULT 14 _ZN7android8hardware10fro
961:   OBJECT GLOBAL DEFAULT 18 _ZTCN7android8hardware4gn
962:   FUNC GLOBAL DEFAULT 14 _ZThn32_N7android8hardwar
963:   FUNC GLOBAL DEFAULT 14 _ZN7android8hardware4gnss
964:   OBJECT GLOBAL DEFAULT 18 _ZTCN7android8hardware4gn
965:   FUNC GLOBAL DEFAULT 14 _ZN7android8hardware4gnss
966:   FUNC GLOBAL DEFAULT 14 _ZN7android8hardware4gnss
967:   FUNC GLOBAL DEFAULT 14 _ZN7android8hardware4gnss
968:   FUNC GLOBAL DEFAULT 14 _ZN7android8hardware4gnss
969:   FUNC GLOBAL DEFAULT 14 _ZN7android8hardware4gnss
970:   OBJECT GLOBAL DEFAULT 18 _ZTCN7android8hardware4gn
971:   FUNC GLOBAL DEFAULT 14 _ZN7android8hardware4gnss
972:   FUNC GLOBAL DEFAULT 14 _ZN7android8hardware4gnss
973:   FUNC GLOBAL DEFAULT 14 _ZN7android8hardware4gnss
974:   FUNC GLOBAL DEFAULT 14 _ZTv0_n24_N7android8hardw
975:   FUNC GLOBAL DEFAULT 14 _ZN7android8hardware4gnss
976:   OBJECT GLOBAL DEFAULT 16 _ZN7android8hardware4gnss
977:   FUNC GLOBAL DEFAULT 14 _ZN7android8hardware4gnss
978:   FUNC WEAK DEFAULT 14 _ZN7android8hardware7deta
979:   FUNC GLOBAL DEFAULT 14 _ZN7android8hardware4gnss
980:   FUNC GLOBAL DEFAULT 14 _ZN7android8hardware4gnss
981:   FUNC GLOBAL DEFAULT 14 _ZN7android8hardware4gnss
982:   FUNC GLOBAL DEFAULT 14 _ZN7android8hardware4gnss
983:   FUNC GLOBAL DEFAULT 14 _ZN7android8hardware4gnss
984:   FUNC GLOBAL DEFAULT 14 _ZN7android8hardware4gnss
985:   FUNC GLOBAL DEFAULT 14 _ZN7android8hardware4gnss
986:   FUNC GLOBAL DEFAULT 14 _ZN7android8hardware4gnss
987:   FUNC GLOBAL DEFAULT 14 _ZN7android8hardware4gnss
988:   FUNC GLOBAL DEFAULT 14 _ZN7android8hardware4gnss
989:   FUNC GLOBAL DEFAULT 14 _ZN7android8hardware4gnss
990:   FUNC GLOBAL DEFAULT 14 _ZN7android8hardware4gnss
991:   FUNC GLOBAL DEFAULT 14 _ZN7android8hardware4gnss
992:   FUNC GLOBAL DEFAULT 14 _ZTv0_n24_N7android8hardw
993:   FUNC GLOBAL DEFAULT 14 _ZN7android8hardware4gnss
994:   OBJECT GLOBAL DEFAULT 18 _ZTTN7android8hardware4gn
995:   FUNC GLOBAL DEFAULT 14 _ZN7android8hardware4gnss
996:   FUNC GLOBAL DEFAULT 14 _ZN7android8hardware4gnss
997:   OBJECT WEAK DEFAULT 18 _ZTCN7android8hardware4gn
998:   FUNC GLOBAL DEFAULT 14 _ZN7android8hardware4gnss
999:   FUNC GLOBAL DEFAULT 14 _ZN7android8hardware4gnss
1000:   FUNC GLOBAL DEFAULT 14 _ZN7android8hardware4gnss
1001:   FUNC GLOBAL DEFAULT 14 _ZThn32_N7android8hardwar
1002:   FUNC GLOBAL DEFAULT 14 _ZN7android8hardware4gnss
1003:   FUNC GLOBAL DEFAULT 14 _ZN7android8hardware4gnss
1004:   FUNC GLOBAL DEFAULT 14 _ZN7android8hardware4gnss
1005:   FUNC WEAK DEFAULT 14 _ZN7android8hardware7deta
1006:   FUNC GLOBAL DEFAULT 14 _ZN7android8hardware4gnss
1007:   FUNC GLOBAL DEFAULT 14 _ZN7android8hardware4gnss
1008:   FUNC GLOBAL DEFAULT 14 _ZN7android8hardware4gnss
1009:   FUNC GLOBAL DEFAULT 14 _ZN7android8hardware4gnss
1010:   OBJECT GLOBAL DEFAULT 16 _ZN7android8hardware4gnss
1011:   OBJECT GLOBAL DEFAULT 18 _ZTCN7android8hardware4gn
1012:   FUNC GLOBAL DEFAULT 14 _ZN7android8hardware4gnss
1013:   FUNC GLOBAL DEFAULT 14 _ZN7android8hardware4gnss
1014:   FUNC WEAK DEFAULT 14 _ZN7android8hardware7deta
1015:   FUNC GLOBAL DEFAULT 14 _ZN7android8hardware4gnss
1016:   FUNC GLOBAL DEFAULT 14 _ZN7android8hardware4gnss
1017:   FUNC GLOBAL DEFAULT 14 _ZN7android8hardware4gnss
1018:   OBJECT GLOBAL DEFAULT 18 _ZTCN7android8hardware4gn
1019:   FUNC GLOBAL DEFAULT 14 _ZN7android8hardware4gnss
1020:   FUNC GLOBAL DEFAULT 14 _ZN7android8hardware4gnss
1021:   FUNC WEAK DEFAULT 14 _ZN7android8hardware7deta
1022:   FUNC GLOBAL DEFAULT 14 _ZN7android8hardware4gnss
1023:   OBJECT GLOBAL DEFAULT 18 _ZTVN7android8hardware4gn
1024:   FUNC GLOBAL DEFAULT 14 _ZN7android8hardware4gnss
1025:   OBJECT GLOBAL DEFAULT 18 _ZTCN7android8hardware4gn
1026:   FUNC GLOBAL DEFAULT 14 _ZN7android8hardware4gnss
1027:   OBJECT GLOBAL DEFAULT 18 _ZTCN7android8hardware4gn
1028:   FUNC GLOBAL DEFAULT 14 _ZN7android8hardware4gnss
1029:   FUNC GLOBAL DEFAULT 14 _ZN7android8hardware4gnss
1030:   FUNC GLOBAL DEFAULT 14 _ZN7android8hardware4gnss
1031:   FUNC GLOBAL DEFAULT 14 _ZN7android8hardware4gnss
1032:   FUNC GLOBAL DEFAULT 14 _ZN7android8hardware4gnss
1033:   FUNC GLOBAL DEFAULT 14 _ZN7android8hardware4gnss
1034:   FUNC GLOBAL DEFAULT 14 _ZN7android8hardware4gnss
1035:   FUNC WEAK DEFAULT 14 _ZN7android8hardware10fro
1036:   FUNC WEAK DEFAULT 14 _ZN7android8hardware7deta
1037:   FUNC GLOBAL DEFAULT 14 _ZN7android8hardware4gnss
1038:   FUNC GLOBAL DEFAULT 14 _ZN7android8hardware4gnss
1039:   OBJECT GLOBAL DEFAULT 16 _ZN7android8hardware4gnss
1040:   OBJECT GLOBAL DEFAULT 18 _ZTCN7android8hardware4gn
1041:   FUNC GLOBAL DEFAULT 14 _ZN7android8hardware4gnss
1042:   FUNC GLOBAL DEFAULT 14 _ZN7android8hardware4gnss
1043:   OBJECT GLOBAL DEFAULT 18 _ZTTN7android8hardware4gn
1044:   FUNC GLOBAL DEFAULT 14 _ZN7android8hardware4gnss
1045:   FUNC GLOBAL DEFAULT 14 _ZThn32_N7android8hardwar
1046:   FUNC GLOBAL DEFAULT 14 _ZN7android8hardware4gnss
1047:   FUNC GLOBAL DEFAULT 14 _ZN7android8hardware4gnss
1048:   FUNC GLOBAL DEFAULT 14 _ZN7android8hardware4gnss
1049:   OBJECT WEAK DEFAULT 18 _ZTVN7android8hardware4gn
1050:   FUNC GLOBAL DEFAULT 14 _ZN7android8hardware4gnss
1051:   FUNC GLOBAL DEFAULT 14 _ZN7android8hardware4gnss
1052:   OBJECT GLOBAL DEFAULT 18 _ZTCN7android8hardware4gn
1053:   FUNC GLOBAL DEFAULT 14 _ZN7android8hardware4gnss
1054:   FUNC GLOBAL DEFAULT 14 _ZN7android8hardware4gnss
1055:   FUNC GLOBAL DEFAULT 14 _ZN7android8hardware4gnss
1056:   OBJECT GLOBAL DEFAULT 18 _ZTCN7android8hardware4gn
1057:   FUNC GLOBAL DEFAULT 14 _ZN7android8hardware4gnss
1058:   FUNC GLOBAL DEFAULT 14 _ZN7android8hardware4gnss
1059:   FUNC GLOBAL DEFAULT 14 _ZN7android8hardware4gnss
1060:   FUNC GLOBAL DEFAULT 14 _ZN7android8hardware4gnss
1061:   FUNC GLOBAL DEFAULT 14 _ZN7android8hardware4gnss
1062:   OBJECT GLOBAL DEFAULT 18 _ZTCN7android8hardware4gn
1063:   FUNC GLOBAL DEFAULT 14 _ZN7android8hardware4gnss
1064:   FUNC GLOBAL DEFAULT 14 _ZThn32_N7android8hardwar
1065:   FUNC GLOBAL DEFAULT 14 _ZN7android8hardware4gnss
1066:   FUNC GLOBAL DEFAULT 14 _ZN7android8hardware4gnss
1067:   FUNC WEAK DEFAULT 14 _ZN7android8hardware10fro
1068:   FUNC GLOBAL DEFAULT 14 _ZN7android8hardware4gnss
1069:   FUNC GLOBAL DEFAULT 14 _ZN7android8hardware4gnss
1070:   FUNC GLOBAL DEFAULT 14 _ZN7android8hardware4gnss
1071:   OBJECT GLOBAL DEFAULT 18 _ZTVN7android8hardware4gn
1072:   FUNC GLOBAL DEFAULT 14 _ZN7android8hardware4gnss
1073:   FUNC GLOBAL DEFAULT 14 _ZN7android8hardware4gnss
1074:   FUNC GLOBAL DEFAULT 14 _ZN7android8hardware4gnss
1075:   FUNC GLOBAL DEFAULT 14 _ZN7android8hardware4gnss
1076:   FUNC GLOBAL DEFAULT 14 _ZN7android8hardware4gnss
1077:   FUNC GLOBAL DEFAULT 14 _ZN7android8hardware4gnss
1078:   FUNC GLOBAL DEFAULT 14 _ZN7android8hardware4gnss
1079:   OBJECT GLOBAL DEFAULT 18 _ZTCN7android8hardware4gn
1080:   FUNC GLOBAL DEFAULT 14 _ZN7android8hardware4gnss
1081:   OBJECT GLOBAL DEFAULT 18 _ZTCN7android8hardware4gn
1082:   FUNC GLOBAL DEFAULT 14 _ZN7android8hardware4gnss
1083:   FUNC GLOBAL DEFAULT 14 _ZN7android8hardware4gnss
1084:   FUNC GLOBAL DEFAULT 14 _ZN7android8hardware4gnss
1085:   OBJECT GLOBAL DEFAULT 18 _ZTVN7android8hardware4gn
1086:   FUNC GLOBAL DEFAULT 14 _ZN7android8hardware4gnss
1087:   OBJECT GLOBAL DEFAULT 18 _ZTCN7android8hardware4gn
1088:   FUNC GLOBAL DEFAULT 14 _ZN7android8hardware4gnss
1089:   FUNC GLOBAL DEFAULT 14 _ZN7android8hardware4gnss
1090:   OBJECT GLOBAL DEFAULT 18 _ZTCN7android8hardware4gn
1091:   OBJECT GLOBAL DEFAULT 18 _ZTCN7android8hardware4gn
1092:   OBJECT GLOBAL DEFAULT 18 _ZTCN7android8hardware4gn
1093:   FUNC GLOBAL DEFAULT 14 _ZN7android8hardware4gnss
1094:   FUNC GLOBAL DEFAULT 14 _ZN7android8hardware4gnss
1095:   FUNC WEAK DEFAULT 14 _ZN7android8hardware7deta
1096:   FUNC GLOBAL DEFAULT 14 _ZN7android8hardware4gnss
1097:   FUNC GLOBAL DEFAULT 14 _ZN7android8hardware4gnss
1098:   FUNC GLOBAL DEFAULT 14 _ZN7android8hardware4gnss
1099:   FUNC GLOBAL DEFAULT 14 _ZN7android8hardware4gnss
1100:   FUNC GLOBAL DEFAULT 14 _ZN7android8hardware4gnss
1101:   FUNC GLOBAL DEFAULT 14 _ZN7android8hardware4gnss
1102:   FUNC GLOBAL DEFAULT 14 _ZN7android8hardware4gnss
1103:   FUNC GLOBAL DEFAULT 14 _ZN7android8hardware4gnss
1104:   FUNC WEAK DEFAULT 14 _ZN7android8hardware7deta
1105:   FUNC GLOBAL DEFAULT 14 _ZN7android8hardware4gnss
1106:   FUNC GLOBAL DEFAULT 14 _ZN7android8hardware4gnss
1107:   FUNC GLOBAL DEFAULT 14 _ZN7android8hardware4gnss
1108:   OBJECT GLOBAL DEFAULT 18 _ZTCN7android8hardware4gn
1109:   FUNC GLOBAL DEFAULT 14 _ZN7android8hardware4gnss
1110:   FUNC GLOBAL DEFAULT 14 _ZN7android8hardware4gnss
1111:   OBJECT GLOBAL DEFAULT 18 _ZTTN7android8hardware4gn
1112:   FUNC GLOBAL DEFAULT 14 _ZN7android8hardware4gnss
1113:   FUNC GLOBAL DEFAULT 14 _ZN7android8hardware4gnss
1114:   FUNC GLOBAL DEFAULT 14 _ZN7android8hardware4gnss
1115:   FUNC GLOBAL DEFAULT 14 _ZN7android8hardware4gnss
1116:   FUNC GLOBAL DEFAULT 14 _ZN7android8hardware4gnss
1117:   FUNC GLOBAL DEFAULT 14 _ZN7android8hardware4gnss
1118:   FUNC GLOBAL DEFAULT 14 _ZN7android8hardware4gnss
1119:   OBJECT GLOBAL DEFAULT 18 _ZTTN7android8hardware4gn
1120:   FUNC GLOBAL DEFAULT 14 _ZN7android8hardware4gnss
1121:   OBJECT GLOBAL DEFAULT 18 _ZTCN7android8hardware4gn
1122:   FUNC GLOBAL DEFAULT 14 _ZTv0_n24_N7android8hardw
1123:   FUNC GLOBAL DEFAULT 14 _ZN7android8hardware4gnss
1124:   FUNC GLOBAL DEFAULT 14 _ZN7android8hardware4gnss
1125:   FUNC GLOBAL DEFAULT 14 _ZN7android8hardware4gnss
1126:   OBJECT GLOBAL DEFAULT 18 _ZTVN7android8hardware4gn
1127:   OBJECT GLOBAL DEFAULT 18 _ZTTN7android8hardware4gn
1128:   OBJECT GLOBAL DEFAULT 18 _ZTCN7android8hardware4gn
1129:   OBJECT WEAK DEFAULT 18 _ZTVN7android8hardware4gn
1130:   FUNC GLOBAL DEFAULT 14 _ZN7android8hardware4gnss
1131:   OBJECT WEAK DEFAULT 18 _ZTCN7android8hardware4gn
1132:   FUNC GLOBAL DEFAULT 14 _ZN7android8hardware4gnss
1133:   FUNC WEAK DEFAULT 14 _ZN7android8hardware7deta
1134:   FUNC GLOBAL DEFAULT 14 _ZN7android8hardware4gnss
1135:   FUNC GLOBAL DEFAULT 14 _ZN7android8hardware4gnss
1136:   OBJECT GLOBAL DEFAULT 18 _ZTCN7android8hardware4gn
1137:   FUNC GLOBAL DEFAULT 14 _ZN7android8hardware4gnss
1138:   FUNC GLOBAL DEFAULT 14 _ZN7android8hardware4gnss
1139:   FUNC GLOBAL DEFAULT 14 _ZN7android8hardware4gnss
1140:   FUNC GLOBAL DEFAULT 14 _ZN7android8hardware4gnss
1141:   FUNC GLOBAL DEFAULT 14 _ZN7android8hardware4gnss
1142:   FUNC GLOBAL DEFAULT 14 _ZN7android8hardware4gnss
1143:   OBJECT GLOBAL DEFAULT 18 _ZTCN7android8hardware4gn
1144:   FUNC WEAK DEFAULT 14 _ZN7android8hardware7deta
1145:   OBJECT GLOBAL DEFAULT 18 _ZTVN7android8hardware4gn
1146:   FUNC GLOBAL DEFAULT 14 _ZN7android8hardware4gnss
1147:   FUNC GLOBAL DEFAULT 14 _ZN7android8hardware4gnss
1148:   FUNC GLOBAL DEFAULT 14 _ZN7android8hardware4gnss
1149:   FUNC GLOBAL DEFAULT 14 _ZN7android8hardware4gnss
1150:   OBJECT GLOBAL DEFAULT 18 _ZTCN7android8hardware4gn
1151:   FUNC GLOBAL DEFAULT 14 _ZN7android8hardware4gnss
1152:   FUNC GLOBAL DEFAULT 14 _ZN7android8hardware4gnss
1153:   FUNC GLOBAL DEFAULT 14 _ZN7android8hardware4gnss
1154:   FUNC GLOBAL DEFAULT 14 _ZN7android8hardware4gnss
1155:   FUNC GLOBAL DEFAULT 14 _ZN7android8hardware4gnss
1156:   FUNC GLOBAL DEFAULT 14 _ZN7android8hardware4gnss
1157:   FUNC GLOBAL DEFAULT 14 _ZN7android8hardware4gnss
1158:   FUNC GLOBAL DEFAULT 14 _ZN7android8hardware4gnss
1159:   OBJECT GLOBAL DEFAULT 18 _ZTCN7android8hardware4gn
1160:   FUNC GLOBAL DEFAULT 14 _ZN7android8hardware4gnss
1161:   FUNC GLOBAL DEFAULT 14 _ZN7android8hardware4gnss
1162:   FUNC GLOBAL DEFAULT 14 _ZN7android8hardware4gnss
1163:   OBJECT GLOBAL DEFAULT 18 _ZTTN7android8hardware4gn
1164:   FUNC GLOBAL DEFAULT 14 _ZN7android8hardware4gnss
1165:   FUNC GLOBAL DEFAULT 14 _ZN7android8hardware4gnss
1166:   FUNC GLOBAL DEFAULT 14 _ZN7android8hardware4gnss
1167:   OBJECT GLOBAL DEFAULT 18 _ZTCN7android8hardware4gn
1168:   FUNC GLOBAL DEFAULT 14 _ZN7android8hardware4gnss
1169:   FUNC GLOBAL DEFAULT 14 _ZN7android8hardware4gnss
1170:   FUNC GLOBAL DEFAULT 14 _ZN7android8hardware4gnss
1171:   FUNC GLOBAL DEFAULT 14 _ZN7android8hardware4gnss
1172:   FUNC GLOBAL DEFAULT 14 _ZN7android8hardware4gnss
1173:   FUNC GLOBAL DEFAULT 14 _ZN7android8hardware4gnss
1174:   FUNC WEAK DEFAULT 14 _ZN7android8hardware7deta
1175:   OBJECT GLOBAL DEFAULT 18 _ZTCN7android8hardware4gn
1176:   FUNC GLOBAL DEFAULT 14 _ZN7android8hardware4gnss
1177:   FUNC GLOBAL DEFAULT 14 _ZN7android8hardware4gnss
1178:   FUNC GLOBAL DEFAULT 14 _ZN7android8hardware4gnss
1179:   FUNC GLOBAL DEFAULT 14 _ZN7android8hardware4gnss
1180:   FUNC GLOBAL DEFAULT 14 _ZN7android8hardware4gnss
1181:   FUNC GLOBAL DEFAULT 14 _ZN7android8hardware4gnss
1182:   FUNC GLOBAL DEFAULT 14 _ZN7android8hardware4gnss
1183:   FUNC GLOBAL DEFAULT 14 _ZN7android8hardware4gnss
1184:   FUNC GLOBAL DEFAULT 14 _ZThn32_N7android8hardwar
1185:   OBJECT GLOBAL DEFAULT 18 _ZTCN7android8hardware4gn
1186:   FUNC GLOBAL DEFAULT 14 _ZN7android8hardware4gnss
1187:   FUNC GLOBAL DEFAULT 14 _ZN7android8hardware4gnss
1188:   OBJECT GLOBAL DEFAULT 18 _ZTCN7android8hardware4gn
1189:   FUNC GLOBAL DEFAULT 14 _ZN7android8hardware4gnss
1190:   FUNC GLOBAL DEFAULT 14 _ZTv0_n24_N7android8hardw
1191:   OBJECT GLOBAL DEFAULT 18 _ZTCN7android8hardware4gn
1192:   FUNC GLOBAL DEFAULT 14 _ZThn32_N7android8hardwar
1193:   FUNC GLOBAL DEFAULT 14 _ZN7android8hardware4gnss
1194:   OBJECT GLOBAL DEFAULT 18 _ZTCN7android8hardware4gn
1195:   OBJECT GLOBAL DEFAULT 16 _ZN7android8hardware4gnss
1196:   OBJECT WEAK DEFAULT 18 _ZTVN7android8hardware4gn
1197:   FUNC WEAK DEFAULT 14 _ZNSt3__127__tree_balance
1198:   FUNC GLOBAL DEFAULT 14 _ZN7android8hardware4gnss
1199:   FUNC GLOBAL DEFAULT 14 _ZN7android8hardware4gnss
1200:   OBJECT GLOBAL DEFAULT 18 _ZTVN7android8hardware4gn
1201:   FUNC WEAK DEFAULT 14 _ZN7android8hardware7deta
1202:   FUNC WEAK DEFAULT 14 _ZN7android8hardware7deta
1203:   FUNC GLOBAL DEFAULT 14 _ZN7android8hardware4gnss
1204:   FUNC GLOBAL DEFAULT 14 _ZTv0_n24_N7android8hardw
1205:   FUNC WEAK DEFAULT 14 _ZN7android8hardware10fro
1206:   FUNC GLOBAL DEFAULT 14 _ZN7android8hardware4gnss
1207:   FUNC WEAK DEFAULT 14 _ZN7android8hardware7deta
1208:   FUNC GLOBAL DEFAULT 14 _ZN7android8hardware4gnss
1209:   FUNC GLOBAL DEFAULT 14 _ZN7android8hardware4gnss
1210:   FUNC GLOBAL DEFAULT 14 _ZN7android8hardware4gnss
1211:   FUNC GLOBAL DEFAULT 14 _ZN7android8hardware4gnss
1212:   FUNC GLOBAL DEFAULT 14 _ZN7android8hardware4gnss
1213:   FUNC GLOBAL DEFAULT 14 _ZN7android8hardware4gnss
1214:   FUNC GLOBAL DEFAULT 14 _ZN7android8hardware4gnss
1215:   FUNC GLOBAL DEFAULT 14 _ZTv0_n24_N7android8hardw
1216:   FUNC GLOBAL DEFAULT 14 _ZN7android8hardware4gnss
1217:   FUNC GLOBAL DEFAULT 14 _ZN7android8hardware4gnss
1218:   FUNC GLOBAL DEFAULT 14 _ZN7android8hardware4gnss
1219:   OBJECT GLOBAL DEFAULT 18 _ZTVN7android8hardware4gn
1220:   OBJECT GLOBAL DEFAULT 18 _ZTCN7android8hardware4gn
1221:   FUNC GLOBAL DEFAULT 14 _ZN7android8hardware4gnss
1222:   FUNC WEAK DEFAULT 14 _ZN7android8hardware7deta
1223:   FUNC WEAK DEFAULT 14 _ZN7android8hardware7deta
1224:   FUNC GLOBAL DEFAULT 14 _ZN7android8hardware4gnss
1225:   FUNC GLOBAL DEFAULT 14 _ZN7android8hardware4gnss
1226:   FUNC GLOBAL DEFAULT 14 _ZN7android8hardware4gnss
1227:   FUNC GLOBAL DEFAULT 14 _ZN7android8hardware4gnss
1228:   FUNC GLOBAL DEFAULT 14 _ZN7android8hardware4gnss
1229:   OBJECT GLOBAL DEFAULT 18 _ZTTN7android8hardware4gn
1230:   FUNC GLOBAL DEFAULT 14 _ZN7android8hardware4gnss
1231:   FUNC GLOBAL DEFAULT 14 _ZN7android8hardware4gnss
1232:   OBJECT GLOBAL DEFAULT 18 _ZTCN7android8hardware4gn
1233:   OBJECT GLOBAL DEFAULT 18 _ZTVN7android8hardware4gn
1234:   FUNC GLOBAL DEFAULT 14 _ZN7android8hardware4gnss
1235:   OBJECT GLOBAL DEFAULT 18 _ZTCN7android8hardware4gn
1236:   FUNC WEAK DEFAULT 14 _ZN7android8hardware10fro
1237:   FUNC GLOBAL DEFAULT 14 _ZN7android8hardware4gnss
1238:   OBJECT GLOBAL DEFAULT 16 _ZN7android8hardware4gnss
1239:   FUNC GLOBAL DEFAULT 14 _ZThn32_N7android8hardwar
1240:   FUNC GLOBAL DEFAULT 14 _ZN7android8hardware4gnss
1241:   FUNC GLOBAL DEFAULT 14 _ZN7android8hardware4gnss
1242:   FUNC GLOBAL DEFAULT 14 _ZN7android8hardware4gnss
1243:   OBJECT WEAK DEFAULT 18 _ZTCN7android8hardware4gn
1244:   FUNC GLOBAL DEFAULT 14 _ZN7android8hardware4gnss
1245:   OBJECT GLOBAL DEFAULT 18 _ZTVN7android8hardware4gn
1246:   FUNC WEAK DEFAULT 14 _ZN7android8hardware7deta
1247:   OBJECT WEAK DEFAULT 18 _ZTVN7android8hardware4gn
1248:   OBJECT GLOBAL DEFAULT 18 _ZTCN7android8hardware4gn
1249:   FUNC GLOBAL DEFAULT 14 _ZN7android8hardware4gnss
1250:   OBJECT GLOBAL DEFAULT 18 _ZTTN7android8hardware4gn
1251:   FUNC GLOBAL DEFAULT 14 _ZN7android8hardware4gnss
1252:   FUNC GLOBAL DEFAULT 14 _ZN7android8hardware4gnss
1253:   FUNC WEAK DEFAULT 14 _ZN7android8hardware10fro
1254:   FUNC GLOBAL DEFAULT 14 _ZThn32_N7android8hardwar
1255:   FUNC GLOBAL DEFAULT 14 _ZN7android8hardware4gnss
1256:   FUNC GLOBAL DEFAULT 14 _ZN7android8hardware4gnss
1257:   FUNC GLOBAL DEFAULT 14 _ZN7android8hardware4gnss
1258:   FUNC GLOBAL DEFAULT 14 _ZN7android8hardware4gnss
1259:   FUNC GLOBAL DEFAULT 14 _ZN7android8hardware4gnss
1260:   OBJECT GLOBAL DEFAULT 18 _ZTVN7android8hardware4gn
1261:   FUNC WEAK DEFAULT 14 _ZNSt3__16vectorIN7androi
1262:   FUNC GLOBAL DEFAULT 14 _ZN7android8hardware4gnss
1263:   OBJECT GLOBAL DEFAULT 18 _ZTCN7android8hardware4gn
1264:   OBJECT GLOBAL DEFAULT 18 _ZTCN7android8hardware4gn
1265:   FUNC GLOBAL DEFAULT 14 _ZN7android8hardware4gnss
1266:   FUNC GLOBAL DEFAULT 14 _ZN7android8hardware4gnss
1267:   OBJECT GLOBAL DEFAULT 18 _ZTCN7android8hardware4gn
1268:   OBJECT GLOBAL DEFAULT 18 _ZTCN7android8hardware4gn
1269:   OBJECT GLOBAL DEFAULT 18 _ZTTN7android8hardware4gn
1270:   OBJECT GLOBAL DEFAULT 18 _ZTCN7android8hardware4gn
1271:   FUNC GLOBAL DEFAULT 14 _ZN7android8hardware4gnss
1272:   OBJECT GLOBAL DEFAULT 18 _ZTVN7android8hardware4gn
1273:   OBJECT GLOBAL DEFAULT 18 _ZTCN7android8hardware4gn
1274:   FUNC WEAK DEFAULT 14 _ZN7android8hardware7deta
1275:   OBJECT GLOBAL DEFAULT 18 _ZTTN7android8hardware4gn
1276:   FUNC WEAK DEFAULT 14 _ZN7android8hardware7deta
1277:   OBJECT GLOBAL DEFAULT 18 _ZTVN7android8hardware4gn
1278:   FUNC GLOBAL DEFAULT 14 _ZN7android8hardware4gnss
1279:   FUNC GLOBAL DEFAULT 14 _ZN7android8hardware4gnss
1280:   FUNC GLOBAL DEFAULT 14 _ZN7android8hardware4gnss
1281:   FUNC GLOBAL DEFAULT 14 _ZN7android8hardware4gnss
1282:   FUNC GLOBAL DEFAULT 14 _ZN7android8hardware4gnss
1283:   FUNC GLOBAL DEFAULT 14 _ZN7android8hardware4gnss
1284:   FUNC GLOBAL DEFAULT 14 _ZN7android8hardware4gnss
1285:   FUNC GLOBAL DEFAULT 14 _ZN7android8hardware4gnss
1286:   FUNC GLOBAL DEFAULT 14 _ZN7android8hardware4gnss
1287:   FUNC GLOBAL DEFAULT 14 _ZN7android8hardware4gnss
1288:   FUNC GLOBAL DEFAULT 14 _ZN7android8hardware4gnss
1289:   FUNC GLOBAL DEFAULT 14 _ZN7android8hardware4gnss
1290:   FUNC GLOBAL DEFAULT 14 _ZN7android8hardware4gnss
1291:   FUNC GLOBAL DEFAULT 14 _ZN7android8hardware4gnss
1292:   OBJECT GLOBAL DEFAULT 18 _ZTVN7android8hardware4gn
1293:   FUNC GLOBAL DEFAULT 14 _ZN7android8hardware4gnss
1294:   FUNC GLOBAL DEFAULT 14 _ZN7android8hardware4gnss
1295:   OBJECT GLOBAL DEFAULT 18 _ZTCN7android8hardware4gn
1296:   OBJECT GLOBAL DEFAULT 18 _ZTVN7android8hardware4gn
1297:   FUNC GLOBAL DEFAULT 14 _ZN7android8hardware4gnss
1298:   OBJECT GLOBAL DEFAULT 18 _ZTVN7android8hardware4gn
1299:   OBJECT GLOBAL DEFAULT 18 _ZTVN7android8hardware4gn
1300:   FUNC GLOBAL DEFAULT 14 _ZN7android8hardware4gnss
1301:   FUNC GLOBAL DEFAULT 14 _ZN7android8hardware4gnss
1302:   FUNC GLOBAL DEFAULT 14 _ZN7android8hardware4gnss
1303:   FUNC GLOBAL DEFAULT 14 _ZN7android8hardware4gnss
1304:   OBJECT GLOBAL DEFAULT 16 _ZN7android8hardware4gnss
1305:   OBJECT GLOBAL DEFAULT 18 _ZTCN7android8hardware4gn
1306:   FUNC GLOBAL DEFAULT 14 _ZN7android8hardware4gnss
1307:   OBJECT GLOBAL DEFAULT 18 _ZTVN7android8hardware4gn
1308:   OBJECT GLOBAL DEFAULT 16 _ZN7android8hardware4gnss
1309:   OBJECT GLOBAL DEFAULT 18 _ZTCN7android8hardware4gn
1310:   FUNC GLOBAL DEFAULT 14 _ZN7android8hardware4gnss
1311:   FUNC GLOBAL DEFAULT 14 _ZN7android8hardware4gnss
1312:   OBJECT GLOBAL DEFAULT 18 _ZTCN7android8hardware4gn
1313:   FUNC GLOBAL DEFAULT 14 _ZN7android8hardware4gnss
1314:   FUNC WEAK DEFAULT 14 _ZN7android8hardware7deta
1315:   FUNC GLOBAL DEFAULT 14 _ZN7android8hardware4gnss
1316:   FUNC GLOBAL DEFAULT 14 _ZN7android8hardware4gnss
1317:   FUNC GLOBAL DEFAULT 14 _ZN7android8hardware4gnss
1318:   OBJECT GLOBAL DEFAULT 18 _ZTCN7android8hardware4gn
1319:   FUNC GLOBAL DEFAULT 14 _ZN7android8hardware4gnss
1320:   OBJECT GLOBAL DEFAULT 18 _ZTVN7android8hardware4gn
1321:   FUNC WEAK DEFAULT 14 _ZN7android8hardware7deta
1322:   FUNC GLOBAL DEFAULT 14 _ZN7android8hardware4gnss
1323:   FUNC WEAK DEFAULT 14 _ZN7android8hardware7deta
1324:   FUNC GLOBAL DEFAULT 14 _ZN7android8hardware4gnss
1325:   FUNC GLOBAL DEFAULT 14 _ZN7android8hardware4gnss
1326:   FUNC WEAK DEFAULT 14 _ZN7android8hardware7deta
1327:   OBJECT GLOBAL DEFAULT 18 _ZTCN7android8hardware4gn
1328:   FUNC GLOBAL DEFAULT 14 _ZN7android8hardware4gnss
1329:   FUNC GLOBAL DEFAULT 14 _ZN7android8hardware4gnss
1330:   FUNC GLOBAL DEFAULT 14 _ZN7android8hardware4gnss
1331:   FUNC WEAK DEFAULT 14 _ZN7android8hardware10fro
1332:   FUNC GLOBAL DEFAULT 14 _ZN7android8hardware4gnss
1333:   FUNC GLOBAL DEFAULT 14 _ZN7android8hardware4gnss
1334:   FUNC GLOBAL DEFAULT 14 _ZN7android8hardware4gnss
1335:   FUNC WEAK DEFAULT 14 _ZN7android8hardware7deta
1336:   FUNC GLOBAL DEFAULT 14 _ZN7android8hardware4gnss
1337:   OBJECT GLOBAL DEFAULT 18 _ZTCN7android8hardware4gn
1338:   FUNC GLOBAL DEFAULT 14 _ZN7android8hardware4gnss
1339:   FUNC GLOBAL DEFAULT 14 _ZN7android8hardware4gnss
1340:   FUNC GLOBAL DEFAULT 14 _ZN7android8hardware4gnss
1341:   FUNC WEAK DEFAULT 14 _ZN7android8hardware7deta
1342:   OBJECT GLOBAL DEFAULT 18 _ZTTN7android8hardware4gn
1343:   FUNC GLOBAL DEFAULT 14 _ZThn32_N7android8hardwar
1344:   FUNC GLOBAL DEFAULT 14 _ZN7android8hardware4gnss
1345:   FUNC WEAK DEFAULT 14 _ZN7android8hardware7deta
1346:   FUNC GLOBAL DEFAULT 14 _ZTv0_n24_N7android8hardw
1347:   FUNC GLOBAL DEFAULT 14 _ZN7android8hardware4gnss
1348:   FUNC GLOBAL DEFAULT 14 _ZN7android8hardware4gnss
1349:   OBJECT GLOBAL DEFAULT 18 _ZTCN7android8hardware4gn
1350:   OBJECT GLOBAL DEFAULT 18 _ZTTN7android8hardware4gn
1351:   OBJECT GLOBAL DEFAULT 18 _ZTCN7android8hardware4gn
1352:   FUNC GLOBAL DEFAULT 14 _ZN7android8hardware4gnss
1353:   FUNC GLOBAL DEFAULT 14 _ZN7android8hardware4gnss
1354:   OBJECT GLOBAL DEFAULT 16 _ZN7android8hardware4gnss
1355:   OBJECT GLOBAL DEFAULT 18 _ZTCN7android8hardware4gn
1356:   FUNC GLOBAL DEFAULT 14 _ZTv0_n24_N7android8hardw
1357:   FUNC GLOBAL DEFAULT 14 _ZTv0_n24_N7android8hardw
1358:   FUNC GLOBAL DEFAULT 14 _ZN7android8hardware4gnss
1359:   FUNC GLOBAL DEFAULT 14 _ZN7android8hardware4gnss
1360:   FUNC GLOBAL DEFAULT 14 _ZN7android8hardware4gnss
1361:   FUNC GLOBAL DEFAULT 14 _ZN7android8hardware4gnss
1362:   FUNC GLOBAL DEFAULT 14 _ZN7android8hardware4gnss
1363:   FUNC GLOBAL DEFAULT 14 _ZN7android8hardware4gnss
1364:   FUNC GLOBAL DEFAULT 14 _ZN7android8hardware4gnss
1365:   FUNC GLOBAL DEFAULT 14 _ZN7android8hardware4gnss
1366:   FUNC GLOBAL DEFAULT 14 _ZN7android8hardware4gnss
1367:   FUNC GLOBAL DEFAULT 14 _ZN7android8hardware4gnss
1368:   FUNC GLOBAL DEFAULT 14 _ZN7android8hardware4gnss
1369:   OBJECT GLOBAL DEFAULT 18 _ZTCN7android8hardware4gn
1370:   FUNC GLOBAL DEFAULT 14 _ZThn32_N7android8hardwar
1371:   FUNC GLOBAL DEFAULT 14 _ZN7android8hardware4gnss
1372:   FUNC GLOBAL DEFAULT 14 _ZTv0_n24_N7android8hardw
1373:   FUNC GLOBAL DEFAULT 14 _ZN7android8hardware4gnss
1374:   FUNC GLOBAL DEFAULT 14 _ZN7android8hardware4gnss
1375:   FUNC GLOBAL DEFAULT 14 _ZN7android8hardware4gnss
