 0x000000000000000e (SONAME)             Library soname: [libRSCpuRef.so]
  
Symbol   contains 839 entries:
Num:   Type Bind Vis Ndx Name
0:   NOTYPE LOCAL DEFAULT UND
1:   FUNC GLOBAL DEFAULT UND __cxa_finalize@LIBC (2)
2:   FUNC GLOBAL DEFAULT UND __cxa_atexit@LIBC (2)
3:   FUNC GLOBAL DEFAULT UND _ZN7android12renderscript
4:   FUNC GLOBAL DEFAULT UND _ZN7android12renderscript
5:   FUNC GLOBAL DEFAULT UND _ZN7android12renderscript
6:   FUNC GLOBAL DEFAULT UND _ZN7android12renderscript
7:   FUNC GLOBAL DEFAULT UND _ZN7android12renderscript
8:   FUNC GLOBAL DEFAULT UND _ZNK7android12renderscrip
9:   FUNC GLOBAL DEFAULT UND _ZNSt3__112basic_stringIc
10:   FUNC GLOBAL DEFAULT UND _ZdaPv
11:   FUNC GLOBAL DEFAULT UND _ZdlPv
12:   FUNC GLOBAL DEFAULT UND _Znam
13:   FUNC GLOBAL DEFAULT UND _Znwm
14:   FUNC GLOBAL DEFAULT UND __android_log_print@LIBLOG (3)
15:   FUNC GLOBAL DEFAULT UND __cxa_pure_virtual
16:   FUNC GLOBAL DEFAULT UND __fgets_chk@LIBC (2)
17:   FUNC GLOBAL DEFAULT UND __stack_chk_fail@LIBC (2)
18:   FUNC GLOBAL DEFAULT UND __vsprintf_chk@LIBC (2)
19:   FUNC GLOBAL DEFAULT UND calloc@LIBC (2)
20:   FUNC GLOBAL DEFAULT UND fclose@LIBC (2)
21:   FUNC GLOBAL DEFAULT UND fopen@LIBC (2)
22:   FUNC GLOBAL DEFAULT UND free@LIBC (2)
23:   FUNC GLOBAL DEFAULT UND gettid@LIBC (2)
24:   FUNC GLOBAL DEFAULT UND malloc@LIBC (2)
25:   FUNC GLOBAL DEFAULT UND memalign@LIBC (2)
26:   FUNC GLOBAL DEFAULT UND memcpy@LIBC (2)
27:   FUNC GLOBAL DEFAULT UND memset@LIBC (2)
28:   FUNC GLOBAL DEFAULT UND pthread_attr_destroy@LIBC (2)
29:   FUNC GLOBAL DEFAULT UND pthread_attr_init@LIBC (2)
30:   FUNC GLOBAL DEFAULT UND pthread_create@LIBC (2)
31:   FUNC GLOBAL DEFAULT UND pthread_getspecific@LIBC (2)
32:   FUNC GLOBAL DEFAULT UND pthread_join@LIBC (2)
33:   FUNC GLOBAL DEFAULT UND pthread_key_create@LIBC (2)
34:   FUNC GLOBAL DEFAULT UND pthread_key_delete@LIBC (2)
35:   FUNC GLOBAL DEFAULT UND pthread_mutex_lock@LIBC (2)
36:   FUNC GLOBAL DEFAULT UND pthread_mutex_unlock@LIBC (2)
37:   FUNC GLOBAL DEFAULT UND pthread_setspecific@LIBC (2)
38:   FUNC GLOBAL DEFAULT UND setpriority@LIBC (2)
39:   FUNC GLOBAL DEFAULT UND strlcpy@LIBC (2)
40:   FUNC GLOBAL DEFAULT UND strstr@LIBC (2)
41:   FUNC GLOBAL DEFAULT UND sysconf@LIBC (2)
42:   FUNC GLOBAL DEFAULT UND usleep@LIBC (2)
43:   FUNC GLOBAL DEFAULT UND _ZN7android12renderscript
44:   FUNC GLOBAL DEFAULT UND _ZN7android12renderscript
45:   FUNC GLOBAL DEFAULT UND _ZNKSt3__112basic_stringI
46:   FUNC GLOBAL DEFAULT UND _ZNKSt3__121__basic_strin
47:   FUNC GLOBAL DEFAULT UND _ZNSt3__112basic_stringIc
48:   FUNC GLOBAL DEFAULT UND _ZNSt3__112basic_stringIc
49:   FUNC GLOBAL DEFAULT UND _ZNSt3__112basic_stringIc
50:   FUNC GLOBAL DEFAULT UND _ZNSt3__112basic_stringIc
51:   FUNC GLOBAL DEFAULT UND _ZNSt3__112basic_stringIc
52:   FUNC GLOBAL DEFAULT UND _ZNSt3__112basic_stringIc
53:   FUNC GLOBAL DEFAULT UND _ZNSt3__112basic_stringIc
54:   FUNC GLOBAL DEFAULT UND _ZNSt3__1plIcNS_11char_tr
55:   FUNC GLOBAL DEFAULT UND __cxa_guard_acquire
56:   FUNC GLOBAL DEFAULT UND __cxa_guard_release
57:   FUNC GLOBAL DEFAULT UND __errno@LIBC (2)
58:   FUNC GLOBAL DEFAULT UND __open_2@LIBC (2)
59:   FUNC GLOBAL DEFAULT UND __strlen_chk@LIBC (2)
60:   FUNC GLOBAL DEFAULT UND __strncat_chk@LIBC (2)
61:   FUNC GLOBAL DEFAULT UND __strrchr_chk@LIBC (2)
62:   FUNC GLOBAL DEFAULT UND access@LIBC (2)
63:   FUNC GLOBAL DEFAULT UND android_dlopen_ext@LIBC (4)
64:   FUNC GLOBAL DEFAULT UND arc4random@LIBC (2)
65:   FUNC GLOBAL DEFAULT UND close@LIBC (2)
66:   FUNC GLOBAL DEFAULT UND dladdr@LIBC (4)
67:   FUNC GLOBAL DEFAULT UND dlerror@LIBC (4)
68:   FUNC GLOBAL DEFAULT UND dlopen@LIBC (4)
69:   FUNC GLOBAL DEFAULT UND dlsym@LIBC (4)
70:   FUNC GLOBAL DEFAULT UND memchr@LIBC (2)
71:   FUNC GLOBAL DEFAULT UND memcmp@LIBC (2)
72:   FUNC GLOBAL DEFAULT UND mkdir@LIBC (2)
73:   FUNC GLOBAL DEFAULT UND sscanf@LIBC (2)
74:   FUNC GLOBAL DEFAULT UND strcmp@LIBC (2)
75:   FUNC GLOBAL DEFAULT UND strerror@LIBC (2)
76:   FUNC GLOBAL DEFAULT UND strlen@LIBC (2)
77:   FUNC GLOBAL DEFAULT UND strnlen@LIBC (2)
78:   FUNC GLOBAL DEFAULT UND unlink@LIBC (2)
79:   FUNC GLOBAL DEFAULT UND _ZN6bcinfo17MetadataExtra@libbcinfo (5)
80:   FUNC GLOBAL DEFAULT UND _ZN6bcinfo17MetadataExtra@libbcinfo (5)
81:   FUNC GLOBAL DEFAULT UND _ZN6bcinfo17MetadataExtra@libbcinfo (5)
82:   FUNC GLOBAL DEFAULT UND _ZN7android12renderscript
83:   FUNC GLOBAL DEFAULT UND _ZN7android12renderscript
84:   FUNC GLOBAL DEFAULT UND _ZN7android12renderscript
85:   FUNC GLOBAL DEFAULT UND _ZNK7android12renderscrip
86:   FUNC GLOBAL DEFAULT UND _ZNK7android12renderscrip
87:   FUNC GLOBAL DEFAULT UND _ZNK7android12renderscrip
88:   FUNC GLOBAL DEFAULT UND _ZNK7android12renderscrip
89:   FUNC GLOBAL DEFAULT UND _ZNKSt3__120__vector_base
90:   FUNC GLOBAL DEFAULT UND _ZNSt3__112basic_stringIc
91:   FUNC GLOBAL DEFAULT UND _ZNSt3__112basic_stringIc
92:   FUNC GLOBAL DEFAULT UND _ZNSt3__113basic_istreamI
93:   FUNC GLOBAL DEFAULT UND _ZNSt3__113basic_istreamI
94:   FUNC GLOBAL DEFAULT UND _ZNSt3__113basic_ostreamI
95:   FUNC GLOBAL DEFAULT UND _ZNSt3__113basic_ostreamI
96:   FUNC GLOBAL DEFAULT UND _ZNSt3__113basic_ostreamI
97:   FUNC GLOBAL DEFAULT UND _ZNSt3__114basic_iostream
98:   FUNC GLOBAL DEFAULT UND _ZNSt3__114basic_iostream
99:   FUNC GLOBAL DEFAULT UND _ZNSt3__114basic_iostream
100:   FUNC GLOBAL DEFAULT UND _ZNSt3__115basic_streambu
101:   FUNC GLOBAL DEFAULT UND _ZNSt3__115basic_streambu
102:   FUNC GLOBAL DEFAULT UND _ZNSt3__115basic_streambu
103:   FUNC GLOBAL DEFAULT UND _ZNSt3__115basic_streambu
104:   FUNC GLOBAL DEFAULT UND _ZNSt3__115basic_streambu
105:   FUNC GLOBAL DEFAULT UND _ZNSt3__115basic_streambu
106:   FUNC GLOBAL DEFAULT UND _ZNSt3__115basic_streambu
107:   FUNC GLOBAL DEFAULT UND _ZNSt3__115basic_streambu
108:   FUNC GLOBAL DEFAULT UND _ZNSt3__115basic_streambu
109:   FUNC GLOBAL DEFAULT UND _ZNSt3__18ios_base4initEP
110:   FUNC GLOBAL DEFAULT UND _ZNSt3__19basic_iosIcNS_1
111:   FUNC GLOBAL DEFAULT UND _ZThn16_NSt3__114basic_io
112:   FUNC GLOBAL DEFAULT UND _ZThn16_NSt3__114basic_io
113:   FUNC GLOBAL DEFAULT UND _ZTv0_n24_NSt3__113basic_
114:   FUNC GLOBAL DEFAULT UND _ZTv0_n24_NSt3__113basic_
115:   FUNC GLOBAL DEFAULT UND _ZTv0_n24_NSt3__113basic_
116:   FUNC GLOBAL DEFAULT UND _ZTv0_n24_NSt3__113basic_
117:   FUNC GLOBAL DEFAULT UND _ZTv0_n24_NSt3__114basic_
118:   FUNC GLOBAL DEFAULT UND _ZTv0_n24_NSt3__114basic_
119:   FUNC GLOBAL DEFAULT UND __read_chk@LIBC (2)
120:   FUNC GLOBAL DEFAULT UND abort@LIBC (2)
121:   FUNC GLOBAL DEFAULT UND adler32
122:   FUNC GLOBAL DEFAULT UND dlclose@LIBC (4)
123:   FUNC GLOBAL DEFAULT UND fwrite@LIBC (2)
124:   FUNC GLOBAL DEFAULT UND _ZN7android12renderscript
125:   FUNC GLOBAL DEFAULT UND _ZN7android12renderscript
126:   FUNC GLOBAL DEFAULT UND _ZN7android12renderscript
127:   FUNC GLOBAL DEFAULT UND _ZN7android12renderscript
128:   FUNC GLOBAL DEFAULT UND _ZN7android12renderscript
129:   FUNC GLOBAL DEFAULT UND _ZN7android12renderscript
130:   FUNC GLOBAL DEFAULT UND _ZN7android12renderscript
131:   FUNC GLOBAL DEFAULT UND _ZN7android12renderscript
132:   FUNC GLOBAL DEFAULT UND _ZN7android12renderscript
133:   FUNC GLOBAL DEFAULT UND _ZN7android12renderscript
134:   FUNC GLOBAL DEFAULT UND _ZN7android12renderscript
135:   FUNC GLOBAL DEFAULT UND _ZN7android12renderscript
136:   FUNC GLOBAL DEFAULT UND acosf@LIBC (6)
137:   FUNC GLOBAL DEFAULT UND acoshf@LIBC (6)
138:   FUNC GLOBAL DEFAULT UND asinf@LIBC (6)
139:   FUNC GLOBAL DEFAULT UND asinhf@LIBC (6)
140:   FUNC GLOBAL DEFAULT UND atan2f@LIBC (6)
141:   FUNC GLOBAL DEFAULT UND atanf@LIBC (6)
142:   FUNC GLOBAL DEFAULT UND atanhf@LIBC (6)
143:   FUNC GLOBAL DEFAULT UND cbrtf@LIBC (6)
144:   FUNC GLOBAL DEFAULT UND cosf@LIBC (6)
145:   FUNC GLOBAL DEFAULT UND coshf@LIBC (6)
146:   FUNC GLOBAL DEFAULT UND erfcf@LIBC (6)
147:   FUNC GLOBAL DEFAULT UND erff@LIBC (6)
148:   FUNC GLOBAL DEFAULT UND exp2f@LIBC (6)
149:   FUNC GLOBAL DEFAULT UND expf@LIBC (6)
150:   FUNC GLOBAL DEFAULT UND expm1f@LIBC (6)
151:   FUNC GLOBAL DEFAULT UND fdimf@LIBC (6)
152:   FUNC GLOBAL DEFAULT UND fmodf@LIBC (6)
153:   FUNC GLOBAL DEFAULT UND frexpf@LIBC (6)
154:   FUNC GLOBAL DEFAULT UND hypotf@LIBC (6)
155:   FUNC GLOBAL DEFAULT UND ilogbf@LIBC (6)
156:   FUNC GLOBAL DEFAULT UND ldexpf@LIBC (6)
157:   FUNC GLOBAL DEFAULT UND lgammaf@LIBC (6)
158:   FUNC GLOBAL DEFAULT UND lgammaf_r@LIBC (6)
159:   FUNC GLOBAL DEFAULT UND log10f@LIBC (6)
160:   FUNC GLOBAL DEFAULT UND log1pf@LIBC (6)
161:   FUNC GLOBAL DEFAULT UND logbf@LIBC (6)
162:   FUNC GLOBAL DEFAULT UND logf@LIBC (6)
163:   FUNC GLOBAL DEFAULT UND modff@LIBC (6)
164:   FUNC GLOBAL DEFAULT UND nextafterf@LIBC (6)
165:   FUNC GLOBAL DEFAULT UND powf@LIBC (6)
166:   FUNC GLOBAL DEFAULT UND rand@LIBC (2)
167:   FUNC GLOBAL DEFAULT UND remainderf@LIBC (6)
168:   FUNC GLOBAL DEFAULT UND remquof@LIBC (6)
169:   FUNC GLOBAL DEFAULT UND sinf@LIBC (6)
170:   FUNC GLOBAL DEFAULT UND sinhf@LIBC (6)
171:   FUNC GLOBAL DEFAULT UND tanf@LIBC (6)
172:   FUNC GLOBAL DEFAULT UND tanhf@LIBC (6)
173:   FUNC GLOBAL DEFAULT UND tgammaf@LIBC (6)
174:   FUNC GLOBAL DEFAULT UND _ZN7android12renderscript
175:   FUNC GLOBAL DEFAULT UND _ZN7android12renderscript
176:   FUNC GLOBAL DEFAULT UND _ZNKSt3__16locale9use_fac
177:   FUNC GLOBAL DEFAULT UND _ZNKSt3__18ios_base6getlo
178:   FUNC GLOBAL DEFAULT UND _ZNSt3__113basic_ostreamI
179:   FUNC GLOBAL DEFAULT UND _ZNSt3__113basic_ostreamI
180:   FUNC GLOBAL DEFAULT UND _ZNSt3__113basic_ostreamI
181:   OBJECT GLOBAL DEFAULT UND _ZNSt3__15ctypeIcE2idE
182:   FUNC GLOBAL DEFAULT UND _ZNSt3__16localeD1Ev
183:   FUNC GLOBAL DEFAULT UND _ZNSt3__18ios_base5clearE
184:   FUNC GLOBAL DEFAULT UND strndup@LIBC (2)
185:   FUNC GLOBAL DEFAULT UND _ZNK7android12renderscrip
186:   FUNC GLOBAL DEFAULT UND _ZNK7android12renderscrip
187:   FUNC GLOBAL DEFAULT UND cblas_cgbmv
188:   FUNC GLOBAL DEFAULT UND cblas_cgemm
189:   FUNC GLOBAL DEFAULT UND cblas_cgemv
190:   FUNC GLOBAL DEFAULT UND cblas_cgerc
191:   FUNC GLOBAL DEFAULT UND cblas_cgeru
192:   FUNC GLOBAL DEFAULT UND cblas_chbmv
193:   FUNC GLOBAL DEFAULT UND cblas_chemm
194:   FUNC GLOBAL DEFAULT UND cblas_chemv
195:   FUNC GLOBAL DEFAULT UND cblas_cher
196:   FUNC GLOBAL DEFAULT UND cblas_cher2
197:   FUNC GLOBAL DEFAULT UND cblas_cher2k
198:   FUNC GLOBAL DEFAULT UND cblas_cherk
199:   FUNC GLOBAL DEFAULT UND cblas_chpmv
200:   FUNC GLOBAL DEFAULT UND cblas_chpr
201:   FUNC GLOBAL DEFAULT UND cblas_chpr2
202:   FUNC GLOBAL DEFAULT UND cblas_csymm
203:   FUNC GLOBAL DEFAULT UND cblas_csyr2k
204:   FUNC GLOBAL DEFAULT UND cblas_csyrk
205:   FUNC GLOBAL DEFAULT UND cblas_ctbmv
206:   FUNC GLOBAL DEFAULT UND cblas_ctbsv
207:   FUNC GLOBAL DEFAULT UND cblas_ctpmv
208:   FUNC GLOBAL DEFAULT UND cblas_ctpsv
209:   FUNC GLOBAL DEFAULT UND cblas_ctrmm
210:   FUNC GLOBAL DEFAULT UND cblas_ctrmv
211:   FUNC GLOBAL DEFAULT UND cblas_ctrsm
212:   FUNC GLOBAL DEFAULT UND cblas_ctrsv
213:   FUNC GLOBAL DEFAULT UND cblas_dgbmv
214:   FUNC GLOBAL DEFAULT UND cblas_dgemm
215:   FUNC GLOBAL DEFAULT UND cblas_dgemv
216:   FUNC GLOBAL DEFAULT UND cblas_dger
217:   FUNC GLOBAL DEFAULT UND cblas_dsbmv
218:   FUNC GLOBAL DEFAULT UND cblas_dspmv
219:   FUNC GLOBAL DEFAULT UND cblas_dspr
220:   FUNC GLOBAL DEFAULT UND cblas_dspr2
221:   FUNC GLOBAL DEFAULT UND cblas_dsymm
222:   FUNC GLOBAL DEFAULT UND cblas_dsymv
223:   FUNC GLOBAL DEFAULT UND cblas_dsyr
224:   FUNC GLOBAL DEFAULT UND cblas_dsyr2
225:   FUNC GLOBAL DEFAULT UND cblas_dsyr2k
226:   FUNC GLOBAL DEFAULT UND cblas_dsyrk
227:   FUNC GLOBAL DEFAULT UND cblas_dtbmv
228:   FUNC GLOBAL DEFAULT UND cblas_dtbsv
229:   FUNC GLOBAL DEFAULT UND cblas_dtpmv
230:   FUNC GLOBAL DEFAULT UND cblas_dtpsv
231:   FUNC GLOBAL DEFAULT UND cblas_dtrmm
232:   FUNC GLOBAL DEFAULT UND cblas_dtrmv
233:   FUNC GLOBAL DEFAULT UND cblas_dtrsm
234:   FUNC GLOBAL DEFAULT UND cblas_dtrsv
235:   FUNC GLOBAL DEFAULT UND cblas_sgbmv
236:   FUNC GLOBAL DEFAULT UND cblas_sgemm
237:   FUNC GLOBAL DEFAULT UND cblas_sgemv
238:   FUNC GLOBAL DEFAULT UND cblas_sger
239:   FUNC GLOBAL DEFAULT UND cblas_ssbmv
240:   FUNC GLOBAL DEFAULT UND cblas_sspmv
241:   FUNC GLOBAL DEFAULT UND cblas_sspr
242:   FUNC GLOBAL DEFAULT UND cblas_sspr2
243:   FUNC GLOBAL DEFAULT UND cblas_ssymm
244:   FUNC GLOBAL DEFAULT UND cblas_ssymv
245:   FUNC GLOBAL DEFAULT UND cblas_ssyr
246:   FUNC GLOBAL DEFAULT UND cblas_ssyr2
247:   FUNC GLOBAL DEFAULT UND cblas_ssyr2k
248:   FUNC GLOBAL DEFAULT UND cblas_ssyrk
249:   FUNC GLOBAL DEFAULT UND cblas_stbmv
250:   FUNC GLOBAL DEFAULT UND cblas_stbsv
251:   FUNC GLOBAL DEFAULT UND cblas_stpmv
252:   FUNC GLOBAL DEFAULT UND cblas_stpsv
253:   FUNC GLOBAL DEFAULT UND cblas_strmm
254:   FUNC GLOBAL DEFAULT UND cblas_strmv
255:   FUNC GLOBAL DEFAULT UND cblas_strsm
256:   FUNC GLOBAL DEFAULT UND cblas_strsv
257:   FUNC GLOBAL DEFAULT UND cblas_zgbmv
258:   FUNC GLOBAL DEFAULT UND cblas_zgemm
259:   FUNC GLOBAL DEFAULT UND cblas_zgemv
260:   FUNC GLOBAL DEFAULT UND cblas_zgerc
261:   FUNC GLOBAL DEFAULT UND cblas_zgeru
262:   FUNC GLOBAL DEFAULT UND cblas_zhbmv
263:   FUNC GLOBAL DEFAULT UND cblas_zhemm
264:   FUNC GLOBAL DEFAULT UND cblas_zhemv
265:   FUNC GLOBAL DEFAULT UND cblas_zher
266:   FUNC GLOBAL DEFAULT UND cblas_zher2
267:   FUNC GLOBAL DEFAULT UND cblas_zher2k
268:   FUNC GLOBAL DEFAULT UND cblas_zherk
269:   FUNC GLOBAL DEFAULT UND cblas_zhpmv
270:   FUNC GLOBAL DEFAULT UND cblas_zhpr
271:   FUNC GLOBAL DEFAULT UND cblas_zhpr2
272:   FUNC GLOBAL DEFAULT UND cblas_zsymm
273:   FUNC GLOBAL DEFAULT UND cblas_zsyr2k
274:   FUNC GLOBAL DEFAULT UND cblas_zsyrk
275:   FUNC GLOBAL DEFAULT UND cblas_ztbmv
276:   FUNC GLOBAL DEFAULT UND cblas_ztbsv
277:   FUNC GLOBAL DEFAULT UND cblas_ztpmv
278:   FUNC GLOBAL DEFAULT UND cblas_ztpsv
279:   FUNC GLOBAL DEFAULT UND cblas_ztrmm
280:   FUNC GLOBAL DEFAULT UND cblas_ztrmv
281:   FUNC GLOBAL DEFAULT UND cblas_ztrsm
282:   FUNC GLOBAL DEFAULT UND cblas_ztrsv
283:   FUNC GLOBAL DEFAULT UND realloc@LIBC (2)
284:   FUNC GLOBAL DEFAULT UND munmap@LIBC (2)
285:   FUNC GLOBAL DEFAULT UND __memcpy_chk@LIBC (2)
286:   FUNC GLOBAL DEFAULT UND fprintf@LIBC (2)
287:   FUNC GLOBAL DEFAULT UND posix_memalign@LIBC (2)
288:   FUNC GLOBAL DEFAULT UND pthread_cond_destroy@LIBC (2)
289:   FUNC GLOBAL DEFAULT UND pthread_cond_init@LIBC (2)
290:   FUNC GLOBAL DEFAULT UND pthread_cond_signal@LIBC (2)
291:   FUNC GLOBAL DEFAULT UND pthread_cond_wait@LIBC (2)
292:   FUNC GLOBAL DEFAULT UND pthread_mutex_destroy@LIBC (2)
293:   FUNC GLOBAL DEFAULT UND pthread_mutex_init@LIBC (2)
294:   OBJECT GLOBAL DEFAULT UND stderr@LIBC (2)
295:   FUNC WEAK DEFAULT 14 _ZNSt3__16__treeINS_12bas
296:   FUNC GLOBAL DEFAULT 14 _ZN7android12renderscript
297:   FUNC GLOBAL DEFAULT 14 _ZN7android12renderscript
298:   FUNC GLOBAL DEFAULT 14 _ZN7android12renderscript
299:   OBJECT GLOBAL DEFAULT 18 _ZTVN7android12renderscri
300:   FUNC GLOBAL DEFAULT 14 rsdIntrinsicBlend_K
301:   FUNC WEAK DEFAULT 14 _ZN8gemmlowp16SingleThrea
302:   FUNC GLOBAL DEFAULT 14 _Z17rsMatrixTransposeP12r
303:   FUNC GLOBAL DEFAULT 14 _Z8SC_sqrtff
304:   FUNC GLOBAL DEFAULT 14 _ZN7android12renderscript
305:   FUNC GLOBAL DEFAULT 14 _ZN7android12renderscript
306:   FUNC GLOBAL DEFAULT 14 _ZN7android12renderscript
307:   FUNC GLOBAL DEFAULT 14 _ZN7android12renderscript
308:   FUNC WEAK DEFAULT 14 _ZN8gemmlowp16SingleThrea
309:   FUNC WEAK DEFAULT 14 _ZN8gemmlowp17DispatchGem
310:   FUNC WEAK DEFAULT 14 _ZN8gemmlowp17DispatchGem
311:   FUNC GLOBAL DEFAULT 14 _Z8SC_cbrtff
312:   FUNC GLOBAL DEFAULT 14 _ZN7android12renderscript
313:   FUNC GLOBAL DEFAULT 14 _ZN7android12renderscript
314:   OBJECT WEAK DEFAULT 18 _ZTVN8gemmlowp21GemmWithP
315:   FUNC GLOBAL DEFAULT 14 _ZN7android12renderscript
316:   FUNC GLOBAL DEFAULT 14 _Z12SC_lgammaf_rfPi
317:   FUNC GLOBAL DEFAULT 14 _Z17rsMatrixTransposeP12r
318:   FUNC WEAK DEFAULT 14 _ZNSt3__16vectorIPKvNS_9a
319:   FUNC GLOBAL DEFAULT 14 _ZN7android12renderscript
320:   FUNC GLOBAL DEFAULT 14 _ZN7android12renderscript
321:   OBJECT GLOBAL DEFAULT 18 _ZTVN7android12renderscri
322:   FUNC GLOBAL DEFAULT 14 blend_line_DIFFERENCE
323:   FUNC GLOBAL DEFAULT 14 blend_line_DST
324:   OBJECT WEAK DEFAULT 18 _ZTVN8gemmlowp21GemmWithP
325:   OBJECT WEAK DEFAULT 18 _ZTVN8gemmlowp21GemmWithP
326:   FUNC GLOBAL DEFAULT 14 _ZN7android12renderscript
327:   FUNC GLOBAL DEFAULT 14 _ZN7android12renderscript
328:   FUNC GLOBAL DEFAULT 14 _ZN7android12renderscript
329:   FUNC WEAK DEFAULT 14 _ZN8gemmlowp15MultiThread
330:   OBJECT WEAK DEFAULT 18 _ZTVN8gemmlowp21GemmWithP
331:   FUNC GLOBAL DEFAULT 14 _ZN7android12renderscript
332:   OBJECT GLOBAL DEFAULT 18 _ZTVN7android12renderscri
333:   FUNC GLOBAL DEFAULT 14 _ZN7android12renderscript
334:   FUNC WEAK DEFAULT 14 _ZNSt3__127__tree_balance
335:   FUNC GLOBAL DEFAULT 14 _ZN7android12renderscript
336:   OBJECT WEAK DEFAULT 18 _ZTCNSt3__118basic_string
337:   OBJECT WEAK DEFAULT 18 _ZTVNSt3__118basic_string
338:   FUNC GLOBAL DEFAULT 14 blend_line_DST_ATOP
339:   FUNC GLOBAL DEFAULT 14 blend_line_DST_OVER
340:   FUNC GLOBAL DEFAULT 14 _ZN7android12renderscript
341:   FUNC GLOBAL DEFAULT 14 _ZN7android12renderscript
342:   OBJECT GLOBAL DEFAULT 18 _ZTVN7android12renderscri
343:   FUNC WEAK DEFAULT 14 _ZNSt3__16vectorIjNS_9all
344:   FUNC GLOBAL DEFAULT 14 blend_line_MULTIPLY
345:   FUNC WEAK DEFAULT 14 _ZN8gemmlowp12UnpackResul
346:   FUNC GLOBAL DEFAULT 14 _ZN7android12renderscript
347:   OBJECT GLOBAL DEFAULT 18 _ZTVN7android12renderscri
348:   FUNC WEAK DEFAULT 14 _ZN8gemmlowp12UnpackResul
349:   FUNC WEAK DEFAULT 14 _ZN8gemmlowp15MultiThread
350:   FUNC WEAK DEFAULT 14 _ZN8gemmlowp16SingleThrea
351:   FUNC WEAK DEFAULT 14 _ZN8gemmlowp17DispatchGem
352:   FUNC WEAK DEFAULT 14 _ZN8gemmlowp17DispatchGem
353:   FUNC GLOBAL DEFAULT 14 _ZN8gemmlowp18eight_bit_i
354:   FUNC WEAK DEFAULT 14 _ZNSt3__16vectorIPN8gemml
355:   OBJECT GLOBAL DEFAULT 18 _ZTVN7android12renderscri
356:   FUNC GLOBAL DEFAULT 14 _Z8SC_tanhff
357:   FUNC WEAK DEFAULT 14 _ZN8gemmlowp15MultiThread
358:   FUNC WEAK DEFAULT 14 _ZN8gemmlowp15MultiThread
359:   FUNC GLOBAL DEFAULT 14 _ZN7android12renderscript
360:   FUNC WEAK DEFAULT 14 _ZN8gemmlowp12UnpackResul
361:   FUNC WEAK DEFAULT 14 _ZN8gemmlowp12UnpackResul
362:   OBJECT WEAK DEFAULT 18 _ZTVN8gemmlowp21GemmWithP
363:   FUNC GLOBAL DEFAULT 14 _ZNK7android12renderscrip
364:   OBJECT WEAK DEFAULT 18 _ZTTNSt3__118basic_string
365:   FUNC GLOBAL DEFAULT 14 _ZN7android12renderscript
366:   FUNC GLOBAL DEFAULT 14 _ZN7android12renderscript
367:   FUNC GLOBAL DEFAULT 14 rsdIntrinsicColorMatrix_f
368:   FUNC WEAK DEFAULT 14 _ZN8gemmlowp15MultiThread
369:   FUNC WEAK DEFAULT 14 _ZN8gemmlowp15MultiThread
370:   FUNC GLOBAL DEFAULT 14 _ZN7android12renderscript
371:   FUNC GLOBAL DEFAULT 14 _ZN7android12renderscript
372:   FUNC GLOBAL DEFAULT 14 _Z7SC_fmaffff
373:   FUNC GLOBAL DEFAULT 14 _ZN7android12renderscript
374:   FUNC WEAK DEFAULT 14 _ZN8gemmlowp17DispatchGem
375:   FUNC GLOBAL DEFAULT 14 _ZN7android12renderscript
376:   FUNC GLOBAL DEFAULT 14 _ZNK7android12renderscrip
377:   FUNC GLOBAL DEFAULT 14 _Z10SC_tgammaff
378:   FUNC GLOBAL DEFAULT 14 _ZN7android12renderscript
379:   FUNC GLOBAL DEFAULT 14 _ZN7android12renderscript
380:   FUNC GLOBAL DEFAULT 14 _ZN7android12renderscript
381:   FUNC WEAK DEFAULT 14 _ZN8gemmlowp16SingleThrea
382:   FUNC GLOBAL DEFAULT 14 _ZN7android12renderscript
383:   FUNC GLOBAL DEFAULT 14 _ZN7android12renderscript
384:   FUNC GLOBAL DEFAULT 14 _ZN7android12renderscript
385:   FUNC GLOBAL DEFAULT 14 _ZN7android12renderscript
386:   FUNC GLOBAL DEFAULT 14 _ZN7android12renderscript
387:   FUNC WEAK DEFAULT 14 _ZN8gemmlowp16SingleThrea
388:   FUNC GLOBAL DEFAULT 14 _ZN7android12renderscript
389:   FUNC GLOBAL DEFAULT 14 _Z9SC_hypotfff
390:   FUNC GLOBAL DEFAULT 14 _ZN7android12renderscript
391:   OBJECT WEAK DEFAULT 18 _ZTVN8gemmlowp21GemmWithP
392:   OBJECT WEAK DEFAULT 18 _ZTVN8gemmlowp21GemmWithP
393:   FUNC GLOBAL DEFAULT 14 _Z9SC_atanhff
394:   FUNC GLOBAL DEFAULT 14 _ZN7android12renderscript
395:   FUNC WEAK DEFAULT 14 _ZN8gemmlowp15MultiThread
396:   FUNC GLOBAL DEFAULT 14 _Z15rsMatrixInverseP12rs_
397:   OBJECT GLOBAL DEFAULT 18 _ZTVN7android12renderscri
398:   FUNC GLOBAL DEFAULT 14 _ZN7android12renderscript
399:   FUNC WEAK DEFAULT 14 _ZN8gemmlowp16SingleThrea
400:   FUNC WEAK DEFAULT 14 _ZN8gemmlowp17DispatchGem
401:   FUNC GLOBAL DEFAULT 14 _ZNK7android12renderscrip
402:   FUNC GLOBAL DEFAULT 14 _ZN7android12renderscript
403:   FUNC WEAK DEFAULT 14 _ZN8gemmlowp16SingleThrea
404:   FUNC WEAK DEFAULT 14 _ZN8gemmlowp17DispatchGem
405:   OBJECT GLOBAL DEFAULT 18 _ZTVN7android12renderscri
406:   FUNC GLOBAL DEFAULT 14 blend_line_XOR
407:   FUNC WEAK DEFAULT 14 _ZN8gemmlowp12UnpackResul
408:   FUNC GLOBAL DEFAULT 14 _ZN7android12renderscript
409:   FUNC GLOBAL DEFAULT 14 blend_line_DST_OUT
410:   FUNC GLOBAL DEFAULT 14 _ZN7android12renderscript
411:   FUNC GLOBAL DEFAULT 14 _Z9SC_log10ff
412:   FUNC GLOBAL DEFAULT 14 _ZN7android12renderscript
413:   FUNC GLOBAL DEFAULT 14 _ZN7android12renderscript
414:   FUNC GLOBAL DEFAULT 14 _ZN7android12renderscript
415:   FUNC WEAK DEFAULT 14 _ZN8gemmlowp15MultiThread
416:   OBJECT WEAK DEFAULT 18 _ZTVN8gemmlowp21GemmWithP
417:   FUNC GLOBAL DEFAULT 14 _ZN7android12renderscript
418:   FUNC GLOBAL DEFAULT 14 _ZN7android12renderscript
419:   FUNC GLOBAL DEFAULT 14 _ZN7android12renderscript
420:   OBJECT WEAK DEFAULT 18 _ZTVN8gemmlowp21GemmWithP
421:   FUNC WEAK DEFAULT 14 _ZNSt3__16__treeINS_12bas
422:   FUNC GLOBAL DEFAULT 14 _Z24rsMatrixInverseTransp
423:   FUNC GLOBAL DEFAULT 14 _ZN7android12renderscript
424:   FUNC GLOBAL DEFAULT 14 _ZN7android12renderscript
425:   FUNC WEAK DEFAULT 14 _ZNSt3__16vectorIPKN7andr
426:   FUNC WEAK DEFAULT 14 _ZNSt3__115basic_stringbu
427:   FUNC GLOBAL DEFAULT 14 rsdIntrinsic3DLUT_K
428:   FUNC WEAK DEFAULT 14 _ZN8gemmlowp17DispatchGem
429:   FUNC GLOBAL DEFAULT 14 _ZN7android12renderscript
430:   FUNC GLOBAL DEFAULT 14 _ZN7android12renderscript
431:   FUNC GLOBAL DEFAULT 14 _ZN7android12renderscript
432:   OBJECT GLOBAL DEFAULT 18 _ZTVN7android12renderscri
433:   FUNC WEAK DEFAULT 14 _ZN8gemmlowp16SingleThrea
434:   FUNC WEAK DEFAULT 14 _ZN8gemmlowp17DispatchGem
435:   FUNC GLOBAL DEFAULT 14 _ZN7android12renderscript
436:   FUNC GLOBAL DEFAULT 14 _ZN7android12renderscript
437:   FUNC GLOBAL DEFAULT 14 blend_line_ADD
438:   FUNC WEAK DEFAULT 14 _ZN8gemmlowp15MultiThread
439:   FUNC GLOBAL DEFAULT 14 _ZN7android12renderscript
440:   FUNC GLOBAL DEFAULT 14 _ZN7android12renderscript
441:   FUNC GLOBAL DEFAULT 14 _ZN7android12renderscript
442:   FUNC WEAK DEFAULT 14 _ZN8gemmlowp12UnpackResul
443:   FUNC WEAK DEFAULT 14 _ZN8gemmlowp12UnpackResul
444:   FUNC WEAK DEFAULT 14 _ZN8gemmlowp16SingleThrea
445:   FUNC WEAK DEFAULT 14 _ZN8gemmlowp17DispatchGem
446:   OBJECT WEAK DEFAULT 18 _ZTVN8gemmlowp21GemmWithP
447:   FUNC GLOBAL DEFAULT 14 _ZN7android12renderscript
448:   FUNC WEAK DEFAULT 14 _ZN8gemmlowp15MultiThread
449:   FUNC WEAK DEFAULT 14 _ZN8gemmlowp16SingleThrea
450:   OBJECT WEAK DEFAULT 18 _ZTVN8gemmlowp21GemmWithP
451:   FUNC GLOBAL DEFAULT 14 _ZN7android12renderscript
452:   OBJECT WEAK DEFAULT 18 _ZTVNSt3__115basic_string
453:   FUNC GLOBAL DEFAULT 14 _Z17rsMatrixLoadOrthoP12r
454:   FUNC GLOBAL DEFAULT 14 _Z8SC_coshff
455:   FUNC GLOBAL DEFAULT 14 _ZN7android12renderscript
456:   FUNC GLOBAL DEFAULT 14 _ZN7android12renderscript
457:   FUNC GLOBAL DEFAULT 14 rsdIntrinsicConvolve3x3_K
458:   FUNC GLOBAL DEFAULT 14 _ZN7android12renderscript
459:   FUNC GLOBAL DEFAULT 14 _ZN7android12renderscript
460:   FUNC WEAK DEFAULT 14 _ZNSt3__16vectorIPKvNS_9a
461:   FUNC WEAK DEFAULT 14 _ZN8gemmlowp17DispatchGem
462:   FUNC GLOBAL DEFAULT 14 _ZN7android12renderscript
463:   FUNC GLOBAL DEFAULT 14 _ZN7android12renderscript
464:   FUNC GLOBAL DEFAULT 14 rsdIntrinsicYuv_K
465:   FUNC WEAK DEFAULT 14 _ZN8gemmlowp17DispatchGem
466:   FUNC GLOBAL DEFAULT 14 _Z7SC_sinff
467:   FUNC GLOBAL DEFAULT 14 _ZN7android12renderscript
468:   FUNC GLOBAL DEFAULT 14 _Z8SC_fmaxfff
469:   FUNC GLOBAL DEFAULT 14 rsdIntrinsicConvolve5x5_K
470:   FUNC GLOBAL DEFAULT 14 _ZN7android12renderscript
471:   FUNC GLOBAL DEFAULT 14 _ZN7android12renderscript
472:   FUNC WEAK DEFAULT 14 _ZN8gemmlowp16SingleThrea
473:   OBJECT WEAK DEFAULT 18 _ZTVN8gemmlowp21GemmWithP
474:   FUNC GLOBAL DEFAULT 14 _ZN7android12renderscript
475:   FUNC GLOBAL DEFAULT 14 _ZN7android12renderscript
476:   FUNC GLOBAL DEFAULT 14 _Z7SC_erfff
477:   FUNC WEAK DEFAULT 14 _ZN8gemmlowp15MultiThread
478:   FUNC WEAK DEFAULT 14 _ZN8gemmlowp15MultiThread
479:   OBJECT WEAK DEFAULT 18 _ZTVN8gemmlowp21GemmWithP
480:   FUNC GLOBAL DEFAULT 14 _ZN7android12renderscript
481:   FUNC GLOBAL DEFAULT 14 _ZN7android12renderscript
482:   FUNC GLOBAL DEFAULT 14 _ZN7android12renderscript
483:   FUNC GLOBAL DEFAULT 14 _ZN7android12renderscript
484:   OBJECT WEAK DEFAULT 18 _ZTVN8gemmlowp21GemmWithP
485:   FUNC GLOBAL DEFAULT 14 _ZN7android12renderscript
486:   FUNC GLOBAL DEFAULT 14 _ZN7android12renderscript
487:   FUNC GLOBAL DEFAULT 14 _Z9SC_acoshff
488:   FUNC GLOBAL DEFAULT 14 _ZN7android12renderscript
489:   FUNC GLOBAL DEFAULT 14 _ZN7android12renderscript
490:   FUNC WEAK DEFAULT 14 _ZN8gemmlowp16SingleThrea
491:   FUNC GLOBAL DEFAULT 14 _ZN7android12renderscript
492:   FUNC GLOBAL DEFAULT 14 _ZN7android12renderscript
493:   FUNC GLOBAL DEFAULT 14 _ZN7android12renderscript
494:   FUNC GLOBAL DEFAULT 14 _ZN7android12renderscript
495:   FUNC WEAK DEFAULT 14 _ZN8gemmlowp16SingleThrea
496:   FUNC GLOBAL DEFAULT 14 _ZN7android12renderscript
497:   FUNC WEAK DEFAULT 14 _ZNSt3__16vectorIPKcNS_9a
498:   FUNC GLOBAL DEFAULT 14 _Z13SC_remainderfff
499:   FUNC GLOBAL DEFAULT 14 _ZN7android12renderscript
500:   OBJECT WEAK DEFAULT 22 _ZGVZN8gemmlowp13GlobalMu
501:   FUNC GLOBAL DEFAULT 14 _ZN7android12renderscript
502:   FUNC GLOBAL DEFAULT 14 _ZN7android12renderscript
503:   FUNC GLOBAL DEFAULT 14 _ZN7android12renderscript
504:   FUNC GLOBAL DEFAULT 14 _Z7SC_tanff
505:   FUNC GLOBAL DEFAULT 14 _ZN7android12renderscript
506:   FUNC GLOBAL DEFAULT 14 _ZN7android12renderscript
507:   FUNC GLOBAL DEFAULT 14 _ZN7android12renderscript
508:   FUNC GLOBAL DEFAULT 14 _ZN7android12renderscript
509:   FUNC GLOBAL DEFAULT 14 _ZN7android12renderscript
510:   FUNC GLOBAL DEFAULT 14 blend_line_DST_IN
511:   FUNC GLOBAL DEFAULT 14 _ZN7android12renderscript
512:   FUNC GLOBAL DEFAULT 14 _Z13SC_nextafterfff
513:   FUNC GLOBAL DEFAULT 14 _ZN7android12renderscript
514:   FUNC WEAK DEFAULT 14 _ZN8gemmlowp15MultiThread
515:   FUNC WEAK DEFAULT 14 _ZN8gemmlowp17DispatchGem
516:   FUNC GLOBAL DEFAULT 14 _ZNK7android12renderscrip
517:   FUNC GLOBAL DEFAULT 14 _ZN7android12renderscript
518:   FUNC GLOBAL DEFAULT 14 _ZN7android12renderscript
519:   FUNC WEAK DEFAULT 14 _ZN8gemmlowp15MultiThread
520:   OBJECT WEAK DEFAULT 18 _ZTVN8gemmlowp21GemmWithP
521:   FUNC GLOBAL DEFAULT 14 _ZN7android12renderscript
522:   FUNC GLOBAL DEFAULT 14 _Z9SC_atan2fff
523:   OBJECT WEAK DEFAULT 18 _ZTVN8gemmlowp13DefaultKe
524:   FUNC GLOBAL DEFAULT 14 _ZN7android12renderscript
525:   FUNC GLOBAL DEFAULT 14 _ZN7android12renderscript
526:   FUNC GLOBAL DEFAULT 14 _Z17rsMatrixLoadScaleP12r
527:   FUNC GLOBAL DEFAULT 14 _Z9SC_ldexpffi
528:   FUNC GLOBAL DEFAULT 14 _ZN7android12renderscript
529:   FUNC GLOBAL DEFAULT 14 _ZN7android12renderscript
530:   FUNC GLOBAL DEFAULT 14 blend_line_CLEAR
531:   OBJECT WEAK DEFAULT 22 _ZGVZN8gemmlowp22GetHardw
532:   FUNC WEAK DEFAULT 14 _ZN8gemmlowp16SingleThrea
533:   FUNC GLOBAL DEFAULT 14 _ZN7android12renderscript
534:   FUNC GLOBAL DEFAULT 14 _ZNK7android12renderscrip
535:   FUNC GLOBAL DEFAULT 14 _ZN7android12renderscript
536:   FUNC WEAK DEFAULT 14 _ZN8gemmlowp16SingleThrea
537:   FUNC WEAK DEFAULT 14 _ZN8gemmlowp17DispatchGem
538:   OBJECT GLOBAL DEFAULT 18 _ZTVN7android12renderscri
539:   FUNC WEAK DEFAULT 14 _ZN8gemmlowp15MultiThread
540:   FUNC WEAK DEFAULT 14 _ZN8gemmlowp16SingleThrea
541:   FUNC WEAK DEFAULT 14 _ZN8gemmlowp17DispatchGem
542:   FUNC GLOBAL DEFAULT 14 _Z8SC_asinff
543:   FUNC GLOBAL DEFAULT 14 _ZN7android12renderscript
544:   FUNC GLOBAL DEFAULT 14 _ZN7android12renderscript
545:   FUNC WEAK DEFAULT 14 _ZN8gemmlowp17DispatchGem
546:   FUNC WEAK DEFAULT 14 _ZN8gemmlowp17DispatchGem
547:   FUNC GLOBAL DEFAULT 14 _ZN7android12renderscript
548:   FUNC GLOBAL DEFAULT 14 _ZN7android12renderscript
549:   OBJECT WEAK DEFAULT 18 _ZTVN8gemmlowp21GemmWithP
550:   OBJECT WEAK DEFAULT 18 _ZTVN8gemmlowp21GemmWithP
551:   FUNC GLOBAL DEFAULT 14 _ZN7android12renderscript
552:   FUNC GLOBAL DEFAULT 14 _ZN7android12renderscript
553:   FUNC GLOBAL DEFAULT 14 _ZN7android12renderscript
554:   FUNC GLOBAL DEFAULT 14 _ZN7android12renderscript
555:   FUNC GLOBAL DEFAULT 14 _ZN7android12renderscript
556:   FUNC WEAK DEFAULT 14 _ZN8gemmlowp17DispatchGem
557:   FUNC GLOBAL DEFAULT 14 _Z10SC_abs_i32i
558:   FUNC GLOBAL DEFAULT 14 _ZN7android12renderscript
559:   FUNC GLOBAL DEFAULT 14 _ZN7android12renderscript
560:   FUNC GLOBAL DEFAULT 14 _ZN7android12renderscript
561:   FUNC GLOBAL DEFAULT 14 _ZN7android12renderscript
562:   FUNC WEAK DEFAULT 14 _ZN8gemmlowp17DispatchGem
563:   FUNC WEAK DEFAULT 14 _ZNSt3__115basic_stringbu
564:   FUNC GLOBAL DEFAULT 14 _ZN7android12renderscript
565:   FUNC GLOBAL DEFAULT 14 rsdIntrinsicColorMatrix_i
566:   FUNC GLOBAL DEFAULT 14 _ZN7android12renderscript
567:   FUNC WEAK DEFAULT 14 _ZN8gemmlowp16SingleThrea
568:   FUNC WEAK DEFAULT 14 _ZN8gemmlowp16SingleThrea
569:   FUNC GLOBAL DEFAULT 14 _ZN7android12renderscript
570:   FUNC GLOBAL DEFAULT 14 _ZN7android12renderscript
571:   FUNC GLOBAL DEFAULT 14 rsdIntrinsicColorMatrixSe
572:   FUNC GLOBAL DEFAULT 14 _Z8SC_atanff
573:   FUNC GLOBAL DEFAULT 14 _Z8SC_logbff
574:   FUNC GLOBAL DEFAULT 14 _ZN7android12renderscript
575:   FUNC GLOBAL DEFAULT 14 _ZN7android12renderscript
576:   FUNC GLOBAL DEFAULT 14 _ZN7android12renderscript
577:   FUNC GLOBAL DEFAULT 14 _ZN7android12renderscript
578:   FUNC GLOBAL DEFAULT 14 _ZNK7android12renderscrip
579:   FUNC GLOBAL DEFAULT 14 _Z12SC_copysignfff
580:   FUNC GLOBAL DEFAULT 14 _ZN7android12renderscript
581:   FUNC GLOBAL DEFAULT 14 _ZN7android12renderscript
582:   OBJECT WEAK DEFAULT 18 _ZTVN8gemmlowp21GemmWithP
583:   OBJECT WEAK DEFAULT 18 _ZTVN8gemmlowp21GemmWithP
584:   FUNC GLOBAL DEFAULT 14 _Z8SC_fdimfff
585:   FUNC WEAK DEFAULT 14 _ZN7android12renderscript
586:   FUNC GLOBAL DEFAULT 14 _ZN7android12renderscript
587:   FUNC GLOBAL DEFAULT 14 _ZN7android12renderscript
588:   FUNC WEAK DEFAULT 14 _ZNSt3__16vectorIPFvPK24R
589:   FUNC GLOBAL DEFAULT 14 rsdIntrinsicBlurU1_K
590:   FUNC GLOBAL DEFAULT 14 _ZN7android12renderscript
591:   FUNC GLOBAL DEFAULT 14 _ZN7android12renderscript
592:   FUNC GLOBAL DEFAULT 14 _ZN7android12renderscript
593:   FUNC GLOBAL DEFAULT 14 _ZN7android12renderscript
594:   FUNC GLOBAL DEFAULT 14 _ZN7android12renderscript
595:   FUNC GLOBAL DEFAULT 14 blend_line_SRC_OUT
596:   FUNC WEAK DEFAULT 14 _ZN8gemmlowp17DispatchGem
597:   OBJECT GLOBAL DEFAULT 16 _ZN7android12renderscript
598:   FUNC GLOBAL DEFAULT 14 _Z14rsMatrixRotateP12rs_m
599:   FUNC WEAK DEFAULT 14 _ZNSt3__16vectorIPN7andro
600:   FUNC GLOBAL DEFAULT 14 _ZN7android12renderscript
601:   FUNC WEAK DEFAULT 14 _ZN8gemmlowp17DispatchGem
602:   FUNC WEAK DEFAULT 14 _ZN8gemmlowp17DispatchGem
603:   FUNC WEAK DEFAULT 14 _ZN8gemmlowp17DispatchGem
604:   FUNC GLOBAL DEFAULT 14 _ZN7android12renderscript
605:   FUNC WEAK DEFAULT 14 _ZNSt3__16vectorIPKcNS_9a
606:   FUNC GLOBAL DEFAULT 14 rsdIntrinsicBlurU4_K
607:   FUNC WEAK DEFAULT 14 _ZN8gemmlowp15MultiThread
608:   FUNC WEAK DEFAULT 14 _ZN8gemmlowp16SingleThrea
609:   FUNC WEAK DEFAULT 14 _ZN8gemmlowp17DispatchGem
610:   FUNC WEAK DEFAULT 14 _ZN8gemmlowp17DispatchGem
611:   FUNC GLOBAL DEFAULT 14 _Z8SC_fmodfff
612:   FUNC GLOBAL DEFAULT 14 _Z8SC_modfffPf
613:   FUNC WEAK DEFAULT 14 _ZNSt3__16vectorINS_12bas
614:   FUNC GLOBAL DEFAULT 14 rsdIntrinsicResize_oscctl
615:   OBJECT WEAK DEFAULT 18 _ZTVN8gemmlowp21GemmWithP
616:   FUNC GLOBAL DEFAULT 14 _ZNK7android12renderscrip
617:   OBJECT GLOBAL DEFAULT 18 _ZTVN7android12renderscri
618:   OBJECT WEAK DEFAULT 18 _ZTVN8gemmlowp21GemmWithP
619:   OBJECT GLOBAL DEFAULT 16 _ZN7android12renderscript
620:   FUNC GLOBAL DEFAULT 14 _Z9SC_frexpffPi
621:   FUNC GLOBAL DEFAULT 14 _ZN7android12renderscript
622:   FUNC WEAK DEFAULT 14 _ZN8gemmlowp16SingleThrea
623:   FUNC GLOBAL DEFAULT 14 _ZN7android12renderscript
624:   FUNC WEAK DEFAULT 14 _ZNKSt3__115basic_stringb
625:   FUNC GLOBAL DEFAULT 14 _Z8SC_erfcff
626:   FUNC GLOBAL DEFAULT 14 _ZN7android12renderscript
627:   FUNC GLOBAL DEFAULT 14 _ZN7android12renderscript
628:   FUNC WEAK DEFAULT 14 _ZN8gemmlowp15MultiThread
629:   FUNC WEAK DEFAULT 14 _ZN8gemmlowp16SingleThrea
630:   FUNC GLOBAL DEFAULT 14 _ZN7android12renderscript
631:   FUNC GLOBAL DEFAULT 14 _ZN7android12renderscript
632:   FUNC GLOBAL DEFAULT 14 _ZN7android12renderscript
633:   FUNC GLOBAL DEFAULT 14 _ZN7android12renderscript
634:   FUNC WEAK DEFAULT 14 _ZN8gemmlowp15MultiThread
635:   FUNC WEAK DEFAULT 14 _ZN8gemmlowp15MultiThread
636:   FUNC WEAK DEFAULT 14 _ZNSt3__124__put_characte
637:   FUNC GLOBAL DEFAULT 14 _ZN7android12renderscript
638:   FUNC GLOBAL DEFAULT 14 _ZN7android12renderscript
639:   FUNC WEAK DEFAULT 14 _ZN8gemmlowp15MultiThread
640:   FUNC GLOBAL DEFAULT 14 _ZN7android12renderscript
641:   FUNC WEAK DEFAULT 14 _ZN8gemmlowp15MultiThread
642:   FUNC WEAK DEFAULT 14 _ZN8gemmlowp15MultiThread
643:   OBJECT WEAK DEFAULT 18 _ZTVN8gemmlowp21GemmWithP
644:   FUNC GLOBAL DEFAULT 14 _ZN7android12renderscript
645:   FUNC GLOBAL DEFAULT 14 _Z17rsMatrixTranslateP12r
646:   FUNC GLOBAL DEFAULT 14 _Z9SC_truncff
647:   FUNC GLOBAL DEFAULT 14 _ZN7android12renderscript
648:   FUNC GLOBAL DEFAULT 14 _ZN7android12renderscript
649:   FUNC GLOBAL DEFAULT 14 _ZN7android12renderscript
650:   FUNC GLOBAL DEFAULT 14 _ZN7android12renderscript
651:   FUNC WEAK DEFAULT 14 _ZN8gemmlowp15MultiThread
652:   FUNC WEAK DEFAULT 14 _ZN8gemmlowp15MultiThread
653:   FUNC GLOBAL DEFAULT 14 _ZN8gemmlowp18eight_bit_i
654:   OBJECT WEAK DEFAULT 18 _ZTVN8gemmlowp21GemmWithP
655:   FUNC GLOBAL DEFAULT 14 _ZN7android12renderscript
656:   FUNC GLOBAL DEFAULT 14 _ZN7android12renderscript
657:   FUNC GLOBAL DEFAULT 14 _ZN7android12renderscript
658:   FUNC WEAK DEFAULT 14 _ZN8gemmlowp16SingleThrea
659:   OBJECT GLOBAL DEFAULT 16 _ZN7android12renderscript
660:   FUNC GLOBAL DEFAULT 14 _Z7SC_logff
661:   OBJECT GLOBAL DEFAULT 18 _ZTVN7android12renderscri
662:   FUNC GLOBAL DEFAULT 14 _ZN7android12renderscript
663:   FUNC GLOBAL DEFAULT 14 rsdIntrinsicResizeB1_K
664:   FUNC WEAK DEFAULT 14 _ZN8gemmlowp16SingleThrea
665:   FUNC GLOBAL DEFAULT 14 _ZN7android12renderscript
666:   FUNC GLOBAL DEFAULT 14 _ZN7android12renderscript
667:   FUNC GLOBAL DEFAULT 14 _ZN7android12renderscript
668:   FUNC GLOBAL DEFAULT 14 rsdIntrinsicResizeB2_K
669:   FUNC GLOBAL DEFAULT 14 rsdIntrinsicYuv2_K
670:   FUNC WEAK DEFAULT 14 _ZN8gemmlowp16SingleThrea
671:   FUNC GLOBAL DEFAULT 14 _ZN7android12renderscript
672:   FUNC GLOBAL DEFAULT 14 _ZN7android12renderscript
673:   FUNC GLOBAL DEFAULT 14 _ZNK7android12renderscrip
674:   FUNC GLOBAL DEFAULT 14 _ZN7android12renderscript
675:   FUNC GLOBAL DEFAULT 14 _ZN7android12renderscript
676:   FUNC GLOBAL DEFAULT 14 _ZN7android12renderscript
677:   FUNC GLOBAL DEFAULT 14 _Z7SC_cosff
678:   FUNC GLOBAL DEFAULT 14 _Z9SC_log1pff
679:   OBJECT GLOBAL DEFAULT 18 _ZTVN7android12renderscri
680:   FUNC GLOBAL DEFAULT 14 _ZN7android12renderscript
681:   FUNC GLOBAL DEFAULT 14 _ZN7android12renderscript
682:   FUNC GLOBAL DEFAULT 14 rsdIntrinsicResizeB4_K
683:   FUNC GLOBAL DEFAULT 14 _ZN7android12renderscript
684:   FUNC GLOBAL DEFAULT 14 _ZN7android12renderscript
685:   FUNC GLOBAL DEFAULT 14 _ZN7android12renderscript
686:   OBJECT GLOBAL DEFAULT 18 _ZTVN7android12renderscri
687:   FUNC WEAK DEFAULT 14 _ZNSt3__115basic_stringbu
688:   FUNC GLOBAL DEFAULT 14 _Z8SC_exp2ff
689:   FUNC GLOBAL DEFAULT 14 _ZN7android12renderscript
690:   FUNC GLOBAL DEFAULT 14 _ZN7android12renderscript
691:   FUNC GLOBAL DEFAULT 14 _ZN7android12renderscript
692:   FUNC GLOBAL DEFAULT 14 _ZN7android12renderscript
693:   FUNC GLOBAL DEFAULT 14 _ZN7android12renderscript
694:   FUNC WEAK DEFAULT 14 _ZN8gemmlowp17DispatchGem
695:   FUNC GLOBAL DEFAULT 14 _ZN7android12renderscript
696:   FUNC WEAK DEFAULT 14 _ZN8gemmlowp17DispatchGem
697:   FUNC GLOBAL DEFAULT 14 _ZN7android12renderscript
698:   FUNC GLOBAL DEFAULT 14 _ZNK7android12renderscrip
699:   FUNC GLOBAL DEFAULT 14 _Z13rsMatrixScaleP12rs_ma
700:   FUNC WEAK DEFAULT 14 _ZN8gemmlowp15MultiThread
701:   FUNC WEAK DEFAULT 14 _ZN8gemmlowp15MultiThread
702:   OBJECT WEAK DEFAULT 18 _ZTCNSt3__118basic_string
703:   FUNC GLOBAL DEFAULT 14 _Z9SC_expm1ff
704:   FUNC GLOBAL DEFAULT 14 _ZN7android12renderscript
705:   FUNC GLOBAL DEFAULT 14 _ZN7android12renderscript
706:   FUNC WEAK DEFAULT 14 _ZN8gemmlowp15MultiThread
707:   FUNC WEAK DEFAULT 14 _ZN8gemmlowp16SingleThrea
708:   OBJECT WEAK DEFAULT 18 _ZTVN8gemmlowp21GemmWithP
709:   FUNC GLOBAL DEFAULT 14 _Z8SC_rintff
710:   OBJECT WEAK DEFAULT 18 _ZTVN8gemmlowp21GemmWithP
711:   OBJECT WEAK DEFAULT 18 _ZTVN8gemmlowp21GemmWithP
712:   OBJECT WEAK DEFAULT 18 _ZTVN8gemmlowp21GemmWithP
713:   FUNC GLOBAL DEFAULT 14 _ZN7android12renderscript
714:   FUNC GLOBAL DEFAULT 14 _ZN7android12renderscript
715:   FUNC GLOBAL DEFAULT 14 _ZN7android12renderscript
716:   FUNC GLOBAL DEFAULT 14 _ZN7android12renderscript
717:   FUNC GLOBAL DEFAULT 14 _Z9SC_roundff
718:   FUNC GLOBAL DEFAULT 14 blend_line_SRC
719:   FUNC GLOBAL DEFAULT 14 _ZN7android12renderscript
720:   FUNC GLOBAL DEFAULT 14 _ZN7android12renderscript
721:   FUNC GLOBAL DEFAULT 14 _ZN7android12renderscript
722:   FUNC GLOBAL DEFAULT 14 _ZN7android12renderscript
723:   FUNC GLOBAL DEFAULT 14 _ZN7android12renderscript
724:   FUNC GLOBAL DEFAULT 14 _Z9SC_floorff
725:   FUNC GLOBAL DEFAULT 14 _ZN7android12renderscript
726:   FUNC GLOBAL DEFAULT 14 _ZN7android12renderscript
727:   FUNC WEAK DEFAULT 14 _ZNSt3__16vectorIPN8gemml
728:   FUNC WEAK DEFAULT 14 _ZNSt3__16__treeINS_12bas
729:   FUNC GLOBAL DEFAULT 14 _ZN7android12renderscript
730:   FUNC GLOBAL DEFAULT 14 _ZN7android12renderscript
731:   FUNC GLOBAL DEFAULT 14 _Z8SC_ceilff
732:   FUNC GLOBAL DEFAULT 14 _ZN7android12renderscript
733:   OBJECT WEAK DEFAULT 18 _ZTVN8gemmlowp21GemmWithP
734:   OBJECT WEAK DEFAULT 18 _ZTVN8gemmlowp21GemmWithP
735:   FUNC GLOBAL DEFAULT 14 _ZN7android12renderscript
736:   FUNC GLOBAL DEFAULT 14 _ZN7android12renderscript
737:   FUNC GLOBAL DEFAULT 14 _Z8SC_acosff
738:   FUNC WEAK DEFAULT 14 _ZNSt3__16vectorIhNS_9all
739:   FUNC GLOBAL DEFAULT 14 _ZN7android12renderscript
740:   FUNC GLOBAL DEFAULT 14 rsdIntrinsicColorMatrixSe
741:   FUNC GLOBAL DEFAULT 14 _ZN7android12renderscript
742:   OBJECT WEAK DEFAULT 18 _ZTVN8gemmlowp21GemmWithP
743:   FUNC GLOBAL DEFAULT 14 _ZN7android12renderscript
744:   FUNC GLOBAL DEFAULT 14 _ZN7android12renderscript
745:   FUNC GLOBAL DEFAULT 14 _ZN7android12renderscript
746:   FUNC WEAK DEFAULT 14 _ZNSt3__115basic_stringbu
747:   FUNC GLOBAL DEFAULT 14 _ZN7android12renderscript
748:   FUNC GLOBAL DEFAULT 14 _ZN7android12renderscript
749:   FUNC GLOBAL DEFAULT 14 _ZN7android12renderscript
750:   FUNC WEAK DEFAULT 14 _ZN8gemmlowp16SingleThrea
751:   FUNC GLOBAL DEFAULT 14 _ZN7android12renderscript
752:   FUNC GLOBAL DEFAULT 14 _ZNK7android12renderscrip
753:   FUNC GLOBAL DEFAULT 14 _Z10SC_remquofffPi
754:   FUNC GLOBAL DEFAULT 14 _Z19rsMatrixLoadFrustumP1
755:   FUNC GLOBAL DEFAULT 14 _ZN7android12renderscript
756:   FUNC GLOBAL DEFAULT 14 _ZN7android12renderscript
757:   FUNC GLOBAL DEFAULT 14 _ZN7android12renderscript
758:   FUNC WEAK DEFAULT 14 _ZN8gemmlowp16SingleThrea
759:   FUNC GLOBAL DEFAULT 14 _Z7SC_powfff
760:   FUNC GLOBAL DEFAULT 14 _ZN7android12renderscript
761:   FUNC GLOBAL DEFAULT 14 _ZN7android12renderscript
762:   FUNC WEAK DEFAULT 14 _ZN8gemmlowp15MultiThread
763:   FUNC WEAK DEFAULT 14 _ZN8gemmlowp16SingleThrea
764:   OBJECT WEAK DEFAULT 22 _ZZN8gemmlowp22GetHardwar
765:   FUNC GLOBAL DEFAULT 14 _Z7SC_expff
766:   FUNC GLOBAL DEFAULT 14 _ZN7android12renderscript
767:   FUNC GLOBAL DEFAULT 14 _ZN7android12renderscript
768:   OBJECT WEAK DEFAULT 18 _ZTVN8gemmlowp21GemmWithP
769:   OBJECT WEAK DEFAULT 22 _ZZN8gemmlowp13GlobalMute
770:   FUNC GLOBAL DEFAULT 14 _ZN7android12renderscript
771:   FUNC WEAK DEFAULT 14 _ZN8gemmlowp15MultiThread
772:   FUNC WEAK DEFAULT 14 _ZN8gemmlowp15MultiThread
773:   FUNC GLOBAL DEFAULT 14 _ZN7android12renderscript
774:   FUNC GLOBAL DEFAULT 14 _Z9SC_ilogbff
775:   FUNC GLOBAL DEFAULT 14 _Z9SC_randf2ff
776:   FUNC GLOBAL DEFAULT 14 _ZN8gemmlowp18eight_bit_i
777:   FUNC GLOBAL DEFAULT 14 _ZN7android12renderscript
778:   FUNC GLOBAL DEFAULT 14 _ZN7android12renderscript
779:   FUNC GLOBAL DEFAULT 14 _ZN7android12renderscript
780:   FUNC GLOBAL DEFAULT 14 _ZN7android12renderscript
781:   FUNC GLOBAL DEFAULT 14 blend_line_SRC_IN
782:   FUNC GLOBAL DEFAULT 14 _Z10SC_lgammaff
783:   OBJECT GLOBAL DEFAULT 18 _ZTVN7android12renderscri
784:   FUNC GLOBAL DEFAULT 14 blend_line_SUBTRACT
785:   FUNC WEAK DEFAULT 14 _ZN8gemmlowp16SingleThrea
786:   FUNC GLOBAL DEFAULT 14 _Z8SC_sinhff
787:   FUNC GLOBAL DEFAULT 14 rsdIntrinsicYuvR_K
788:   FUNC WEAK DEFAULT 14 _ZN8gemmlowp17DispatchGem
789:   FUNC WEAK DEFAULT 14 _ZN8gemmlowp17DispatchGem
790:   FUNC GLOBAL DEFAULT 14 _ZN7android12renderscript
791:   FUNC GLOBAL DEFAULT 14 _ZN7android12renderscript
792:   FUNC WEAK DEFAULT 14 _ZN8gemmlowp16SingleThrea
793:   FUNC WEAK DEFAULT 14 _ZN8gemmlowp16SingleThrea
794:   FUNC WEAK DEFAULT 14 _ZNSt3__16vectorIPKcNS_9a
795:   FUNC GLOBAL DEFAULT 14 _ZN7android12renderscript
796:   FUNC GLOBAL DEFAULT 14 _ZN7android12renderscript
797:   FUNC WEAK DEFAULT 14 _ZN8gemmlowp17DispatchGem
798:   FUNC WEAK DEFAULT 14 _ZN8gemmlowp17DispatchGem
799:   OBJECT WEAK DEFAULT 18 _ZTVN8gemmlowp21GemmWithP
800:   FUNC GLOBAL DEFAULT 14 _ZN7android12renderscript
801:   FUNC GLOBAL DEFAULT 14 _ZN7android12renderscript
802:   FUNC GLOBAL DEFAULT 14 _ZN7android12renderscript
803:   FUNC GLOBAL DEFAULT 14 _ZN7android12renderscript
804:   FUNC GLOBAL DEFAULT 14 _ZN7android12renderscript
805:   FUNC GLOBAL DEFAULT 14 _ZN7android12renderscript
806:   FUNC GLOBAL DEFAULT 14 _ZN7android12renderscript
807:   OBJECT WEAK DEFAULT 18 _ZTCNSt3__118basic_string
808:   FUNC GLOBAL DEFAULT 14 _Z8SC_fminfff
809:   FUNC GLOBAL DEFAULT 14 _ZN7android12renderscript
810:   FUNC GLOBAL DEFAULT 14 _ZN7android12renderscript
811:   FUNC WEAK DEFAULT 14 _ZN8gemmlowp12UnpackResul
812:   FUNC WEAK DEFAULT 14 _ZN8gemmlowp15MultiThread
813:   FUNC WEAK DEFAULT 14 _ZN8gemmlowp16SingleThrea
814:   FUNC GLOBAL DEFAULT 14 _ZN7android12renderscript
815:   FUNC GLOBAL DEFAULT 14 _ZN7android12renderscript
816:   FUNC GLOBAL DEFAULT 14 _ZN7android12renderscript
817:   FUNC WEAK DEFAULT 14 _ZN8gemmlowp15MultiThread
818:   FUNC GLOBAL DEFAULT 14 _ZN7android12renderscript
819:   FUNC GLOBAL DEFAULT 14 _ZN7android12renderscript
820:   OBJECT GLOBAL DEFAULT 22 _ZN7android12renderscript
821:   FUNC GLOBAL DEFAULT 14 _ZN7android12renderscript
822:   FUNC GLOBAL DEFAULT 14 _Z23rsMatrixLoadPerspecti
823:   FUNC GLOBAL DEFAULT 14 _Z9SC_asinhff
824:   FUNC GLOBAL DEFAULT 14 blend_line_SRC_ATOP
825:   FUNC GLOBAL DEFAULT 14 blend_line_SRC_OVER
826:   FUNC GLOBAL DEFAULT 14 _Z18rsMatrixLoadRotateP12
827:   FUNC GLOBAL DEFAULT 14 _ZN8gemmlowp18eight_bit_i
828:   FUNC GLOBAL DEFAULT 14 _ZN7android12renderscript
829:   FUNC GLOBAL DEFAULT 14 _ZN7android12renderscript
830:   FUNC GLOBAL DEFAULT 14 _ZN7android12renderscript
831:   FUNC GLOBAL DEFAULT 14 _ZN7android12renderscript
832:   FUNC GLOBAL DEFAULT 14 _ZN7android12renderscript
833:   FUNC GLOBAL DEFAULT 14 _Z17rsMatrixTransposeP12r
834:   FUNC GLOBAL DEFAULT 14 _Z21rsMatrixLoadTranslate
835:   FUNC GLOBAL DEFAULT 14 _ZN7android12renderscript
836:   OBJECT GLOBAL DEFAULT 18 _ZTVN7android12renderscri
837:   OBJECT GLOBAL DEFAULT 18 _ZTVN7android12renderscri
838:   FUNC WEAK DEFAULT 14 _ZN8gemmlowp17DispatchGem
