 0x0000000e (SONAME)                     Library soname: [libnblog.so]
  
Symbol   contains 636 entries:
Num:   Type Bind Vis Ndx Name
0:   NOTYPE LOCAL DEFAULT UND
1:   FUNC GLOBAL DEFAULT UND __cxa_atexit@LIBC (2)
2:   FUNC GLOBAL DEFAULT UND __cxa_finalize@LIBC (2)
3:   FUNC GLOBAL DEFAULT UND _ZN23audio_utils_fifo_wri
4:   FUNC GLOBAL DEFAULT UND _ZdlPv
5:   FUNC GLOBAL DEFAULT UND _Znwj
6:   FUNC GLOBAL DEFAULT UND __android_log_print@LIBLOG (3)
7:   FUNC GLOBAL DEFAULT UND __stack_chk_fail@LIBC (2)
8:   OBJECT GLOBAL DEFAULT UND __stack_chk_guard@LIBC (2)
9:   FUNC GLOBAL DEFAULT UND _ZN16audio_utils_fifoC1Ej
10:   FUNC GLOBAL DEFAULT UND _ZN16audio_utils_fifoD1Ev
11:   FUNC GLOBAL DEFAULT UND _ZN23audio_utils_fifo_wri
12:   FUNC GLOBAL DEFAULT UND _ZN7android6Thread10ready
13:   FUNC GLOBAL DEFAULT UND _ZN7android6Thread11reque
14:   FUNC GLOBAL DEFAULT UND _ZN7android6Thread3runEPK
15:   FUNC GLOBAL DEFAULT UND _ZN7android6Thread4joinEv
16:   FUNC GLOBAL DEFAULT UND _ZN7android6ThreadC2Eb
17:   FUNC GLOBAL DEFAULT UND _ZN7android6ThreadD0Ev
18:   FUNC GLOBAL DEFAULT UND _ZN7android6ThreadD1Ev
19:   FUNC GLOBAL DEFAULT UND _ZN7android6ThreadD2Ev
20:   FUNC GLOBAL DEFAULT UND _ZN7android7RefBase10onFi
21:   FUNC GLOBAL DEFAULT UND _ZN7android7RefBase13onLa
22:   FUNC GLOBAL DEFAULT UND _ZN7android7RefBase15onLa
23:   FUNC GLOBAL DEFAULT UND _ZN7android7RefBase20onIn
24:   FUNC GLOBAL DEFAULT UND _ZN7android7RefBaseC2Ev
25:   FUNC GLOBAL DEFAULT UND _ZN7android7RefBaseD2Ev
26:   FUNC GLOBAL DEFAULT UND _ZN7android7String812appe
27:   FUNC GLOBAL DEFAULT UND _ZN7android8String16C1EPK
28:   FUNC GLOBAL DEFAULT UND _ZN7android8String16D1Ev
29:   FUNC GLOBAL DEFAULT UND _ZNK7android7RefBase9decS
30:   FUNC GLOBAL DEFAULT UND _ZNK7android7RefBase9incS
31:   FUNC GLOBAL DEFAULT UND _ZNK7android8String164siz
32:   FUNC GLOBAL DEFAULT UND _ZNKSt3__120__vector_base
33:   FUNC GLOBAL DEFAULT UND _ZTv0_n12_N7android6Threa
34:   FUNC GLOBAL DEFAULT UND _ZTv0_n12_N7android6Threa
35:   FUNC GLOBAL DEFAULT UND _ZdaPv
36:   FUNC GLOBAL DEFAULT UND __cxa_pure_virtual
37:   FUNC GLOBAL DEFAULT UND abort@LIBC (2)
38:   FUNC GLOBAL DEFAULT UND pthread_cond_destroy@LIBC (2)
39:   FUNC GLOBAL DEFAULT UND pthread_cond_init@LIBC (2)
40:   FUNC GLOBAL DEFAULT UND pthread_cond_signal@LIBC (2)
41:   FUNC GLOBAL DEFAULT UND pthread_cond_wait@LIBC (2)
42:   FUNC GLOBAL DEFAULT UND pthread_condattr_destroy@LIBC (2)
43:   FUNC GLOBAL DEFAULT UND pthread_condattr_init@LIBC (2)
44:   FUNC GLOBAL DEFAULT UND pthread_condattr_setclock@LIBC (2)
45:   FUNC GLOBAL DEFAULT UND pthread_mutex_destroy@LIBC (2)
46:   FUNC GLOBAL DEFAULT UND pthread_mutex_init@LIBC (2)
47:   FUNC GLOBAL DEFAULT UND pthread_mutex_lock@LIBC (2)
48:   FUNC GLOBAL DEFAULT UND pthread_mutex_unlock@LIBC (2)
49:   FUNC GLOBAL DEFAULT UND strzcmp16
50:   FUNC GLOBAL DEFAULT UND systemTime
51:   FUNC GLOBAL DEFAULT UND _ZN7android7String85clear
52:   FUNC GLOBAL DEFAULT UND _ZN7android7String8C1Ev
53:   FUNC GLOBAL DEFAULT UND _ZN7android7String8D1Ev
54:   FUNC GLOBAL DEFAULT UND _ZNK7android7String86leng
55:   FUNC GLOBAL DEFAULT UND _ZNKSt3__121__basic_strin
56:   FUNC GLOBAL DEFAULT UND _ZNKSt3__16locale9use_fac
57:   FUNC GLOBAL DEFAULT UND _ZNKSt3__18ios_base6getlo
58:   FUNC GLOBAL DEFAULT UND _ZNSt3__112basic_stringIc
59:   FUNC GLOBAL DEFAULT UND _ZNSt3__112basic_stringIc
60:   FUNC GLOBAL DEFAULT UND _ZNSt3__112basic_stringIc
61:   FUNC GLOBAL DEFAULT UND _ZNSt3__113basic_istreamI
62:   FUNC GLOBAL DEFAULT UND _ZNSt3__113basic_istreamI
63:   FUNC GLOBAL DEFAULT UND _ZNSt3__113basic_ostreamI
64:   FUNC GLOBAL DEFAULT UND _ZNSt3__113basic_ostreamI
65:   FUNC GLOBAL DEFAULT UND _ZNSt3__113basic_ostreamI
66:   FUNC GLOBAL DEFAULT UND _ZNSt3__113basic_ostreamI
67:   FUNC GLOBAL DEFAULT UND _ZNSt3__113basic_ostreamI
68:   FUNC GLOBAL DEFAULT UND _ZNSt3__113basic_ostreamI
69:   FUNC GLOBAL DEFAULT UND _ZNSt3__113basic_ostreamI
70:   FUNC GLOBAL DEFAULT UND _ZNSt3__113basic_ostreamI
71:   FUNC GLOBAL DEFAULT UND _ZNSt3__114basic_iostream
72:   FUNC GLOBAL DEFAULT UND _ZNSt3__114basic_iostream
73:   FUNC GLOBAL DEFAULT UND _ZNSt3__114basic_iostream
74:   FUNC GLOBAL DEFAULT UND _ZNSt3__115basic_streambu
75:   FUNC GLOBAL DEFAULT UND _ZNSt3__115basic_streambu
76:   FUNC GLOBAL DEFAULT UND _ZNSt3__115basic_streambu
77:   FUNC GLOBAL DEFAULT UND _ZNSt3__115basic_streambu
78:   FUNC GLOBAL DEFAULT UND _ZNSt3__115basic_streambu
79:   FUNC GLOBAL DEFAULT UND _ZNSt3__115basic_streambu
80:   FUNC GLOBAL DEFAULT UND _ZNSt3__115basic_streambu
81:   FUNC GLOBAL DEFAULT UND _ZNSt3__115basic_streambu
82:   FUNC GLOBAL DEFAULT UND _ZNSt3__115basic_streambu
83:   OBJECT GLOBAL DEFAULT UND _ZNSt3__15ctypeIcE2idE
84:   FUNC GLOBAL DEFAULT UND _ZNSt3__16localeD1Ev
85:   FUNC GLOBAL DEFAULT UND _ZNSt3__18ios_base4initEP
86:   FUNC GLOBAL DEFAULT UND _ZNSt3__18ios_base5clearE
87:   FUNC GLOBAL DEFAULT UND _ZNSt3__19basic_iosIcNS_1
88:   FUNC GLOBAL DEFAULT UND _ZThn8_NSt3__114basic_ios
89:   FUNC GLOBAL DEFAULT UND _ZThn8_NSt3__114basic_ios
90:   FUNC GLOBAL DEFAULT UND _ZTv0_n12_NSt3__113basic_
91:   FUNC GLOBAL DEFAULT UND _ZTv0_n12_NSt3__113basic_
92:   FUNC GLOBAL DEFAULT UND _ZTv0_n12_NSt3__113basic_
93:   FUNC GLOBAL DEFAULT UND _ZTv0_n12_NSt3__113basic_
94:   FUNC GLOBAL DEFAULT UND _ZTv0_n12_NSt3__114basic_
95:   FUNC GLOBAL DEFAULT UND _ZTv0_n12_NSt3__114basic_
96:   FUNC GLOBAL DEFAULT UND __cxa_guard_acquire
97:   FUNC GLOBAL DEFAULT UND __cxa_guard_release
98:   FUNC GLOBAL DEFAULT UND __vsnprintf_chk@LIBC (2)
99:   FUNC GLOBAL DEFAULT UND dprintf@LIBC (2)
100:   FUNC GLOBAL DEFAULT UND log@LIBC (4)
101:   FUNC GLOBAL DEFAULT UND log2@LIBC (4)
102:   FUNC GLOBAL DEFAULT UND lround@LIBC (4)
103:   FUNC GLOBAL DEFAULT UND strlen@LIBC (2)
104:   FUNC GLOBAL DEFAULT UND _ZN23audio_utils_fifo_rea
105:   FUNC GLOBAL DEFAULT UND _ZN23audio_utils_fifo_rea
106:   FUNC GLOBAL DEFAULT UND _ZN7android14sp_report_ra
107:   FUNC GLOBAL DEFAULT UND _ZN7android7String86appen
108:   FUNC GLOBAL DEFAULT UND _ZN7android7String86appen
109:   FUNC GLOBAL DEFAULT UND _ZNK7android7IMemory7poin
110:   FUNC GLOBAL DEFAULT UND _ZNSt3__112__next_primeEj
111:   FUNC GLOBAL DEFAULT UND _ZNSt3__112basic_stringIc
112:   FUNC GLOBAL DEFAULT UND _Znaj
113:   FUNC GLOBAL DEFAULT UND _ZN7android18MediaAnalyti
114:   FUNC GLOBAL DEFAULT UND _ZN7android18MediaAnalyti
115:   FUNC GLOBAL DEFAULT UND _ZN7android18MediaAnalyti
116:   FUNC GLOBAL DEFAULT UND _ZN7android18MediaAnalyti
117:   FUNC GLOBAL DEFAULT UND _ZN7android18MediaAnalyti
118:   FUNC GLOBAL DEFAULT UND _ZN7android18MediaAnalyti
119:   FUNC GLOBAL DEFAULT UND _ZNK7android18MediaAnalyt
120:   FUNC GLOBAL DEFAULT UND _ZNKSt3__16locale9has_fac
121:   FUNC GLOBAL DEFAULT UND _ZNSt3__113basic_ostreamI
122:   FUNC GLOBAL DEFAULT UND _ZNSt3__113basic_ostreamI
123:   FUNC GLOBAL DEFAULT UND _ZNSt3__16localeC1ERKS0_
124:   OBJECT GLOBAL DEFAULT UND _ZNSt3__17codecvtIcc9mbst
125:   FUNC GLOBAL DEFAULT UND __write_chk@LIBC_N (5)
126:   FUNC GLOBAL DEFAULT UND fclose@LIBC (2)
127:   FUNC GLOBAL DEFAULT UND fflush@LIBC (2)
128:   FUNC GLOBAL DEFAULT UND fopen@LIBC (2)
129:   FUNC GLOBAL DEFAULT UND fread@LIBC (2)
130:   FUNC GLOBAL DEFAULT UND fseek@LIBC (2)
131:   FUNC GLOBAL DEFAULT UND fseeko@LIBC (2)
132:   FUNC GLOBAL DEFAULT UND ftello@LIBC (2)
133:   FUNC GLOBAL DEFAULT UND fwrite@LIBC (2)
134:   FUNC GLOBAL DEFAULT UND gettimeofday@LIBC (2)
135:   FUNC GLOBAL DEFAULT UND localtime_r@LIBC (2)
136:   FUNC GLOBAL DEFAULT UND strftime@LIBC (2)
137:   FUNC GLOBAL DEFAULT UND write@LIBC (2)
138:   FUNC GLOBAL DEFAULT UND roundup
139:   FUNC GLOBAL DEFAULT UND __android_log_assert@LIBLOG (3)
140:   FUNC GLOBAL DEFAULT UND __strlen_chk@LIBC (2)
141:   FUNC GLOBAL DEFAULT UND clock_gettime@LIBC (2)
142:   FUNC GLOBAL DEFAULT UND getpid@LIBC (2)
143:   FUNC GLOBAL DEFAULT UND prctl@LIBC (2)
144:   FUNC GLOBAL DEFAULT UND _ZNKSt3__112basic_stringI
145:   FUNC GLOBAL DEFAULT UND __strchr_chk@LIBC (2)
146:   FUNC GLOBAL DEFAULT UND exit@LIBC (2)
147:   FUNC GLOBAL DEFAULT UND free@LIBC (2)
148:   FUNC GLOBAL DEFAULT UND malloc@LIBC (2)
149:   FUNC GLOBAL DEFAULT UND modf@LIBC (4)
150:   FUNC GLOBAL DEFAULT UND strcmp@LIBC (2)
151:   FUNC GLOBAL DEFAULT UND _ZNSt3__112basic_stringIc
152:   FUNC GLOBAL DEFAULT UND _ZNSt3__112basic_stringIc
153:   FUNC GLOBAL DEFAULT UND _ZNSt3__112basic_stringIc
154:   FUNC GLOBAL DEFAULT UND _ZNSt3__112basic_stringIc
155:   FUNC GLOBAL DEFAULT UND _ZNSt3__112basic_stringIc
156:   FUNC GLOBAL DEFAULT UND __memcpy_chk@LIBC (2)
157:   FUNC GLOBAL DEFAULT UND strpbrk@LIBC (2)
158:   FUNC GLOBAL DEFAULT UND memcpy@LIBC (2)
159:   FUNC GLOBAL DEFAULT UND memmove@LIBC (2)
160:   FUNC GLOBAL DEFAULT UND memset@LIBC (2)
161:   FUNC WEAK DEFAULT 14 _ZNSt3__16__treeINS_12__v
162:   FUNC GLOBAL DEFAULT 14 _ZN4Json13valueToStringEj
163:   FUNC GLOBAL DEFAULT 14 _ZNK7android5NBLog11Forma
164:   FUNC GLOBAL DEFAULT 14 _ZN7android5NBLog11MergeT
165:   FUNC WEAK DEFAULT 14 _ZNSt3__114__split_buffer
166:   FUNC GLOBAL DEFAULT 14 _ZNK7android17ReportPerfo
167:   FUNC WEAK DEFAULT 14 _ZNSt3__114__split_buffer
168:   FUNC GLOBAL DEFAULT 14 _ZN4Json5Value14setOffset
169:   FUNC GLOBAL DEFAULT 14 _ZNK4Json5Value8asStringE
170:   FUNC WEAK DEFAULT 14 _ZNSt3__16__treeINS_12__v
171:   FUNC WEAK DEFAULT 14 _ZNSt3__16vectorIN7androi
172:   FUNC GLOBAL DEFAULT 14 _ZN4Json5Value11CommentIn
173:   FUNC GLOBAL DEFAULT 14 _ZN4Json5Value8CZStringC1
174:   FUNC GLOBAL DEFAULT 14 _ZNK4Json5ValueltERKS0_
175:   FUNC GLOBAL DEFAULT 14 _ZN4Json12PathArgumentC1E
176:   FUNC GLOBAL DEFAULT 14 _ZN4Json5ValueC2Ex
177:   FUNC GLOBAL DEFAULT 14 _ZNK4Json5Value5emptyEv
178:   FUNC GLOBAL DEFAULT 14 _ZN4Json5ValueC2Ey
179:   FUNC GLOBAL DEFAULT 14 _ZNK4Json5Value14getOffse
180:   FUNC GLOBAL DEFAULT 14 _ZNK7android5NBLog6Merger
181:   FUNC WEAK DEFAULT 14 _ZNSt3__113basic_filebufI
182:   OBJECT GLOBAL DEFAULT 12 _ZN4Json5Value6maxIntE
183:   FUNC GLOBAL DEFAULT 14 _ZNK4Json4Path7resolveERK
184:   FUNC GLOBAL DEFAULT 14 __aeabi_ldivmod
185:   FUNC GLOBAL DEFAULT 14 _ZN7android5NBLog6Writer3
186:   FUNC GLOBAL DEFAULT 14 __aeabi_memcpy4
187:   FUNC GLOBAL DEFAULT 14 _ZN7android17ReportPerfor
188:   FUNC GLOBAL DEFAULT 14 _ZN7android5NBLog6Merger9
189:   OBJECT GLOBAL DEFAULT 18 _ZTVN7android5NBLog11Merg
190:   FUNC GLOBAL DEFAULT 14 _ZN7android5NBLog13EntryI
191:   FUNC GLOBAL DEFAULT 14 _ZN7android5NBLog6WriterC
192:   FUNC GLOBAL DEFAULT 14 _ZN4Json18ValueConstItera
193:   FUNC GLOBAL DEFAULT 14 _ZN4Json10FastWriter10wri
194:   FUNC GLOBAL DEFAULT 14 _ZN4Json6WriterD0Ev
195:   OBJECT WEAK DEFAULT 18 _ZTCNSt3__119basic_ostrin
196:   FUNC GLOBAL DEFAULT 14 __aeabi_memcpy
197:   FUNC GLOBAL DEFAULT 14 _ZN7android5NBLog6Merger5
198:   FUNC GLOBAL DEFAULT 14 _ZN7android5NBLog6ReaderD
199:   OBJECT WEAK DEFAULT 18 _ZTVN7android5NBLog11Merg
200:   OBJECT WEAK DEFAULT 23 _ZGVZ26audio_utils_plot_h
201:   FUNC GLOBAL DEFAULT 14 _ZN7android5NBLog6ReaderC
202:   FUNC GLOBAL DEFAULT 14 _ZN4Json5Value8CZStringC1
203:   FUNC GLOBAL DEFAULT 14 _ZNK4Json5Value7compareER
204:   FUNC GLOBAL DEFAULT 14 _ZNK4Json5Value8isMemberE
205:   FUNC WEAK DEFAULT 14 _ZNSt3__16__treeINS_12__v
206:   FUNC GLOBAL DEFAULT 14 _ZN4Json18StyledStreamWri
207:   FUNC GLOBAL DEFAULT 14 __aeabi_uidivmod
208:   FUNC GLOBAL DEFAULT 14 __aeabi_memcpy8
209:   FUNC GLOBAL DEFAULT 14 _ZN7android5NBLoggtERKNS0
210:   FUNC GLOBAL DEFAULT 14 _ZN4Json4Path11invalidPat
211:   FUNC GLOBAL DEFAULT 14 _ZNK4Json5ValueneERKS0_
212:   FUNC GLOBAL DEFAULT 14 _ZN4Json18StyledStreamWri
213:   FUNC GLOBAL DEFAULT 14 _ZN7android17ReportPerfor
214:   FUNC GLOBAL DEFAULT 14 _ZN7android5NBLog6WriterD
215:   FUNC GLOBAL DEFAULT 14 _ZN4Json5Value5beginEv
216:   FUNC GLOBAL DEFAULT 14 _ZNK4Json5Value8asDoubleE
217:   FUNC GLOBAL DEFAULT 14 _ZN4Json18StyledStreamWri
218:   FUNC GLOBAL DEFAULT 14 _ZN7android5NBLog10DumpRe
219:   FUNC GLOBAL DEFAULT 14 _ZN7android17ReportPerfor
220:   FUNC GLOBAL DEFAULT 14 _ZN4Json13valueToStringEx
221:   FUNC GLOBAL DEFAULT 14 _ZN4Json5ValueC2EPKc
222:   FUNC GLOBAL DEFAULT 14 _ZNK4Json17ValueIteratorB
223:   FUNC GLOBAL DEFAULT 14 _ZN4Json13valueToStringEy
224:   FUNC GLOBAL DEFAULT 14 _ZN4Json12StyledWriter10w
225:   FUNC GLOBAL DEFAULT 14 _ZNK7android5NBLog13Entry
226:   FUNC WEAK DEFAULT 14 _ZNSt3__113basic_filebufI
227:   FUNC GLOBAL DEFAULT 14 _ZN4Json12PathArgumentC1E
228:   FUNC GLOBAL DEFAULT 14 _ZN4Json10FastWriterC2Ev
229:   FUNC GLOBAL DEFAULT 14 __udivsi3
230:   FUNC GLOBAL DEFAULT 14 _ZTv0_n12_N7android5NBLog
231:   FUNC WEAK DEFAULT 14 _ZNSt3__113basic_filebufI
232:   FUNC GLOBAL DEFAULT 14 _ZN4Json4PathC2ERKNSt3__1
233:   FUNC GLOBAL DEFAULT 14 _ZN4Json5ValueC1ERKNS_12S
234:   FUNC GLOBAL DEFAULT 14 _ZNK4Json5Value3getERKNSt
235:   FUNC GLOBAL DEFAULT 14 _ZNK4Json5Value4sizeEv
236:   FUNC GLOBAL DEFAULT 14 _ZN7android5NBLog10DumpRe
237:   OBJECT GLOBAL DEFAULT 18 _ZTCN7android5NBLog11Merg
238:   FUNC GLOBAL DEFAULT 14 _ZN4Json17ValueIteratorBa
239:   OBJECT WEAK DEFAULT 18 _ZTVN7android5NBLog6Merge
240:   FUNC GLOBAL DEFAULT 14 __aeabi_l2d
241:   FUNC WEAK DEFAULT 14 _ZNSt3__114__split_buffer
242:   FUNC WEAK DEFAULT 14 _ZNSt3__15dequeIxNS_9allo
243:   FUNC GLOBAL DEFAULT 14 _ZNK4Json5Value5isIntEv
244:   FUNC GLOBAL DEFAULT 14 _ZNK7android17ReportPerfo
245:   FUNC GLOBAL DEFAULT 14 _ZN4Json5Value5clearEv
246:   FUNC WEAK DEFAULT 14 _ZNSt3__16vectorINS_12bas
247:   FUNC GLOBAL DEFAULT 14 _ZN4Json12StyledWriterC1E
248:   FUNC GLOBAL DEFAULT 14 _ZNK7android5NBLog6Writer
249:   FUNC GLOBAL DEFAULT 14 _ZN4Json17ValueIteratorBa
250:   FUNC GLOBAL DEFAULT 14 __aeabi_l2f
251:   FUNC GLOBAL DEFAULT 14 __aeabi_memclr4
252:   FUNC WEAK DEFAULT 14 _ZNSt3__15dequeINS_4pairI
253:   FUNC GLOBAL DEFAULT 14 _ZN4Json13ValueIteratoraS
254:   FUNC GLOBAL DEFAULT 14 __floatundidf
255:   FUNC GLOBAL DEFAULT 14 __aeabi_d2lz
256:   FUNC GLOBAL DEFAULT 14 _ZN7android5NBLog6ReaderC
257:   FUNC WEAK DEFAULT 14 _ZNSt3__112__hash_tableIN
258:   OBJECT WEAK DEFAULT 18 _ZTTNSt3__114basic_ofstre
259:   FUNC GLOBAL DEFAULT 14 _ZN4Json5Value11CommentIn
260:   FUNC WEAK DEFAULT 14 _ZNSt3__114__split_buffer
261:   FUNC GLOBAL DEFAULT 14 _ZN7android5NBLog6Writer3
262:   FUNC GLOBAL DEFAULT 14 _ZNK4Json5Value6isNullEv
263:   FUNC GLOBAL DEFAULT 14 _ZN4Json12StyledWriter8un
264:   FUNC GLOBAL DEFAULT 14 _ZN4Json18StyledStreamWri
265:   FUNC GLOBAL DEFAULT 14 __aeabi_memclr8
266:   FUNC GLOBAL DEFAULT 14 _ZN4Json17ValueIteratorBa
267:   FUNC GLOBAL DEFAULT 14 _ZNK4Json4Path4makeERNS_5
268:   OBJECT GLOBAL DEFAULT 18 _ZTVN4Json6WriterE
269:   FUNC GLOBAL DEFAULT 14 _ZNK7android5NBLog11Forma
270:   FUNC WEAK DEFAULT 14 _ZNSt3__15dequeIxNS_9allo
271:   FUNC GLOBAL DEFAULT 14 _ZN4Json12StyledWriter5wr
272:   FUNC GLOBAL DEFAULT 14 _ZN4Json5ValueixERKNS_12S
273:   FUNC GLOBAL DEFAULT 14 _ZNK4Json5Value14getOffse
274:   FUNC GLOBAL DEFAULT 14 _ZNK4Json5Value7asInt64Ev
275:   FUNC GLOBAL DEFAULT 14 _ZNK4Json5Value8CZString1
276:   FUNC GLOBAL DEFAULT 14 _ZNK7android5NBLog13Entry
277:   FUNC GLOBAL DEFAULT 14 _ZN7android5NBLog11MergeT
278:   FUNC GLOBAL DEFAULT 14 _ZN4Json5Value11CommentIn
279:   FUNC GLOBAL DEFAULT 14 _ZN4Json18StyledStreamWri
280:   FUNC GLOBAL DEFAULT 14 _ZN7android5NBLog13EntryI
281:   FUNC GLOBAL DEFAULT 14 _ZN7android5NBLog11MergeR
282:   OBJECT WEAK DEFAULT 23 _ZZ26audio_utils_plot_his
283:   OBJECT GLOBAL DEFAULT 12 _ZN4Json5Value6minIntE
284:   FUNC GLOBAL DEFAULT 14 _ZN4Json12StyledWriter18h
285:   FUNC GLOBAL DEFAULT 14 __floatdidf
286:   FUNC GLOBAL DEFAULT 14 _ZN4Json12PathArgumentC2E
287:   FUNC GLOBAL DEFAULT 14 _ZN4Json5Value8CZString4s
288:   FUNC GLOBAL DEFAULT 14 _ZNK7android5NBLog11Forma
289:   FUNC GLOBAL DEFAULT 14 _ZNK7android5NBLog13Entry
290:   FUNC WEAK DEFAULT 14 _ZNSt3__113basic_filebufI
291:   FUNC WEAK DEFAULT 14 _ZNSt3__16vectorIPKN4Json
292:   FUNC GLOBAL DEFAULT 14 _ZN4Json10FastWriter18omi
293:   FUNC GLOBAL DEFAULT 14 _ZN4Json18StyledStreamWri
294:   FUNC GLOBAL DEFAULT 14 _ZN4Json18StyledStreamWri
295:   FUNC WEAK DEFAULT 14 _ZNSt3__124__put_characte
296:   FUNC GLOBAL DEFAULT 14 _ZN4Json5ValueaSES0_
297:   FUNC GLOBAL DEFAULT 14 _ZN4Json17ValueIteratorBa
298:   FUNC GLOBAL DEFAULT 14 _ZN4Json5ValueixERKNSt3__
299:   FUNC GLOBAL DEFAULT 14 _ZNK7android5NBLog14Histo
300:   FUNC WEAK DEFAULT 14 _ZNSt3__114__split_buffer
301:   FUNC GLOBAL DEFAULT 14 _ZN4Json5Value6appendERKS
302:   FUNC GLOBAL DEFAULT 14 _ZN7android17ReportPerfor
303:   FUNC GLOBAL DEFAULT 14 _ZN4Json10FastWriter20dro
304:   OBJECT GLOBAL DEFAULT 18 _ZTVN4Json10FastWriterE
305:   FUNC GLOBAL DEFAULT 14 __udivmodsi4
306:   FUNC GLOBAL DEFAULT 14 _ZN7android5NBLog6Writer3
307:   FUNC GLOBAL DEFAULT 14 _ZNK7android5NBLog13Entry
308:   FUNC GLOBAL DEFAULT 14 _ZN4Json13ValueIteratorC1
309:   FUNC GLOBAL DEFAULT 14 _ZN4Json18ValueConstItera
310:   FUNC GLOBAL DEFAULT 14 _ZN4Json6WriterD1Ev
311:   FUNC GLOBAL DEFAULT 14 _ZN4Json5Value8CZStringC2
312:   FUNC GLOBAL DEFAULT 14 _ZNK4Json5Value3getEjRKS0
313:   FUNC GLOBAL DEFAULT 14 _ZNK4Json5Value6isBoolEv
314:   FUNC GLOBAL DEFAULT 14 __divdi3
315:   FUNC GLOBAL DEFAULT 14 _ZNK7android5NBLog14Histo
316:   FUNC WEAK DEFAULT 14 _ZNSt3__113basic_filebufI
317:   OBJECT WEAK DEFAULT 18 _ZTVNSt3__113basic_filebu
318:   FUNC GLOBAL DEFAULT 14 _ZN4Json13ValueIteratorC2
319:   FUNC GLOBAL DEFAULT 14 _ZN4Json17ValueIteratorBa
320:   FUNC GLOBAL DEFAULT 14 _ZN4Json18ValueConstItera
321:   FUNC GLOBAL DEFAULT 14 __fixunsdfdi
322:   FUNC GLOBAL DEFAULT 14 _ZN4Json5ValueD1Ev
323:   FUNC WEAK DEFAULT 14 _ZNSt3__113basic_filebufI
324:   FUNC GLOBAL DEFAULT 14 _ZN7android5NBLog6WriterC
325:   FUNC GLOBAL DEFAULT 14 _ZN4Json10FastWriter23ena
326:   FUNC GLOBAL DEFAULT 14 _ZNK7android5NBLog13Entry
327:   FUNC GLOBAL DEFAULT 14 _ZN7android17ReportPerfor
328:   FUNC GLOBAL DEFAULT 14 _ZN7android5NBLog6ReaderC
329:   FUNC GLOBAL DEFAULT 14 _ZN4Json12StyledWriter11w
330:   FUNC GLOBAL DEFAULT 14 _ZN4Json18StyledStreamWri
331:   FUNC GLOBAL DEFAULT 14 _ZN4Json12PathArgumentC1E
332:   FUNC GLOBAL DEFAULT 14 _ZNK4Json5Value4typeEv
333:   FUNC GLOBAL DEFAULT 14 _ZNK4Json5Value6asBoolEv
334:   FUNC GLOBAL DEFAULT 14 _ZN4Json12PathArgumentC2E
335:   FUNC GLOBAL DEFAULT 14 _ZN4Json5Value6resizeEj
336:   FUNC GLOBAL DEFAULT 14 _ZN4Json5ValueC2ENS_9Valu
337:   FUNC GLOBAL DEFAULT 14 _ZN4Json5ValueC2ERKNSt3__
338:   FUNC GLOBAL DEFAULT 14 _ZN4Json12StyledWriter12n
339:   FUNC GLOBAL DEFAULT 14 _ZN7android5NBLog6MergerC
340:   OBJECT GLOBAL DEFAULT 18 _ZTTN7android5NBLog11Merg
341:   FUNC GLOBAL DEFAULT 14 _ZTv0_n12_N7android5NBLog
342:   FUNC WEAK DEFAULT 14 _ZNSt3__15dequeINS_4pairI
343:   FUNC WEAK DEFAULT 14 _ZNSt3__15dequeIxNS_9allo
344:   OBJECT WEAK DEFAULT 18 _ZTTNSt3__118basic_string
345:   OBJECT GLOBAL DEFAULT 23 _ZN7android5NBLog6Reader1
346:   FUNC GLOBAL DEFAULT 14 _ZN7android5NBLog6Writer5
347:   FUNC GLOBAL DEFAULT 14 _ZN4Json13ValueIteratorC1
348:   FUNC GLOBAL DEFAULT 14 _ZN4Json12StyledWriter6in
349:   FUNC WEAK DEFAULT 14 _ZNSt3__114__split_buffer
350:   FUNC GLOBAL DEFAULT 14 _ZN4Json5ValueC2ERKS0_
351:   FUNC WEAK DEFAULT 14 _ZNSt3__114__split_buffer
352:   FUNC GLOBAL DEFAULT 14 _ZNK4Json5Value10hasComme
353:   FUNC GLOBAL DEFAULT 14 _ZNK4Json5Value3getEPKcRK
354:   FUNC GLOBAL DEFAULT 14 _ZNK4Json5Value5beginEv
355:   FUNC GLOBAL DEFAULT 14 _ZNK4Json5Value8CZString5
356:   FUNC GLOBAL DEFAULT 14 __floatundisf
357:   OBJECT GLOBAL DEFAULT 18 _ZTVN7android5NBLog6Write
358:   FUNC GLOBAL DEFAULT 14 _ZN4Json5ValueC1EPKcS2_
359:   FUNC WEAK DEFAULT 14 _ZNSt3__112__deque_baseIN
360:   FUNC GLOBAL DEFAULT 14 _ZNK7android5NBLog6Reader
361:   OBJECT GLOBAL DEFAULT 18 _ZTVN4Json12StyledWriterE
362:   FUNC GLOBAL DEFAULT 14 _ZN4Json13ValueIteratorC2
363:   FUNC WEAK DEFAULT 14 _ZNSt3__16vectorIN4Json12
364:   FUNC WEAK DEFAULT 14 _ZNSt3__114__split_buffer
365:   FUNC WEAK DEFAULT 14 _ZNSt3__115basic_stringbu
366:   FUNC GLOBAL DEFAULT 14 _ZN4Json12StyledWriterC2E
367:   FUNC GLOBAL DEFAULT 14 _ZNK7android5NBLog11Forma
368:   FUNC GLOBAL DEFAULT 14 _ZN7android5NBLog11MergeR
369:   FUNC WEAK DEFAULT 14 _ZNSt3__114__split_buffer
370:   FUNC GLOBAL DEFAULT 14 _ZNK4Json5Value6isUIntEv
371:   FUNC GLOBAL DEFAULT 14 _ZNK4Json5Value8CZStringe
372:   FUNC GLOBAL DEFAULT 14 _ZNK7android5NBLog13Entry
373:   FUNC GLOBAL DEFAULT 14 _ZN7android17ReportPerfor
374:   FUNC GLOBAL DEFAULT 14 _ZN4Json4Path12addPathInA
375:   FUNC WEAK DEFAULT 14 _ZNSt3__16__treeINS_12__v
376:   FUNC GLOBAL DEFAULT 14 __aeabi_ul2d
377:   FUNC GLOBAL DEFAULT 14 _ZN7android17ReportPerfor
378:   FUNC GLOBAL DEFAULT 14 _ZN7android17ReportPerfor
379:   OBJECT WEAK DEFAULT 18 _ZTCNSt3__118basic_string
380:   FUNC GLOBAL DEFAULT 14 _ZN4Json13ValueIteratorC1
381:   FUNC GLOBAL DEFAULT 14 _ZN4Json18ValueConstItera
382:   FUNC GLOBAL DEFAULT 14 _ZN4Json18StyledStreamWri
383:   FUNC GLOBAL DEFAULT 14 _ZNK4Json5Value7asFloatEv
384:   FUNC GLOBAL DEFAULT 14 _ZNK4Json5ValuegeERKS0_
385:   FUNC GLOBAL DEFAULT 14 __aeabi_ul2f
386:   FUNC GLOBAL DEFAULT 14 __floatdisf
387:   OBJECT WEAK DEFAULT 18 _ZTCNSt3__118basic_string
388:   FUNC GLOBAL DEFAULT 14 _ZN4Json5ValueC1ERKNSt3__
389:   FUNC WEAK DEFAULT 14 _ZNSt3__114basic_ofstream
390:   FUNC GLOBAL DEFAULT 14 _ZN4Json5Value10setCommen
391:   OBJECT GLOBAL DEFAULT 12 _ZN4Json5Value7maxUIntE
392:   FUNC GLOBAL DEFAULT 14 _ZNK4Json17ValueIteratorB
393:   FUNC GLOBAL DEFAULT 14 __aeabi_uidiv
394:   FUNC GLOBAL DEFAULT 14 _ZN7android5NBLog13EntryI
395:   FUNC WEAK DEFAULT 14 _ZNSt3__114__split_buffer
396:   FUNC GLOBAL DEFAULT 14 _ZN4Json5Value8CZStringC2
397:   FUNC GLOBAL DEFAULT 14 _ZNK4Json5Value8isUInt64E
398:   FUNC GLOBAL DEFAULT 14 _ZNK4Json5ValueixERKNSt3_
399:   FUNC GLOBAL DEFAULT 14 __aeabi_memmove4
400:   FUNC WEAK DEFAULT 14 _ZNSt3__16vectorIN4Json12
401:   FUNC GLOBAL DEFAULT 14 _ZN7android5NBLog11MergeT
402:   FUNC WEAK DEFAULT 14 _ZNSt3__16vectorINS_12bas
403:   FUNC GLOBAL DEFAULT 14 _ZN7android5NBLog6MergerC
404:   FUNC WEAK DEFAULT 14 _ZNSt3__115basic_stringbu
405:   FUNC GLOBAL DEFAULT 14 _ZN4Json10FastWriter5writ
406:   FUNC GLOBAL DEFAULT 14 _ZNK4Json17ValueIteratorB
407:   FUNC GLOBAL DEFAULT 14 _ZNK4Json5Value9isNumeric
408:   FUNC WEAK DEFAULT 14 _ZNSt3__113__tree_removeI
409:   FUNC GLOBAL DEFAULT 14 __aeabi_memmove8
410:   FUNC GLOBAL DEFAULT 14 _ZN7android5NBLog11MergeT
411:   FUNC GLOBAL DEFAULT 14 _ZN7android5NBLog6Writer8
412:   FUNC GLOBAL DEFAULT 14 _ZN4Json17ValueIteratorBa
413:   FUNC GLOBAL DEFAULT 14 _ZN4JsonlsERNSt3__113basi
414:   FUNC GLOBAL DEFAULT 14 _ZN7android17ReportPerfor
415:   OBJECT WEAK DEFAULT 18 _ZTCNSt3__114basic_ofstre
416:   FUNC GLOBAL DEFAULT 14 _ZN7android5NBLog12Locked
417:   OBJECT GLOBAL DEFAULT 18 _ZN4Json5Value4nullE
418:   FUNC GLOBAL DEFAULT 14 _ZNK4Json5Value6asUIntEv
419:   FUNC WEAK DEFAULT 14 _ZNSt3__16__treeINS_12__v
420:   FUNC GLOBAL DEFAULT 14 _ZN4Json12PathArgumentC2E
421:   FUNC GLOBAL DEFAULT 14 _ZNK4Json5Value14getMembe
422:   FUNC GLOBAL DEFAULT 14 _ZN4Json12StyledWriter15w
423:   FUNC GLOBAL DEFAULT 14 _ZN7android17ReportPerfor
424:   OBJECT WEAK DEFAULT 23 _ZZ26audio_utils_plot_his
425:   FUNC GLOBAL DEFAULT 14 _ZN4Json6WriterD2Ev
426:   FUNC GLOBAL DEFAULT 14 _ZN4Json18ValueConstItera
427:   OBJECT GLOBAL DEFAULT 18 _ZN4Json8kNullRefE
428:   OBJECT WEAK DEFAULT 18 _ZTVNSt3__119basic_ostrin
429:   FUNC GLOBAL DEFAULT 14 _ZNK4Json5Value9asCString
430:   FUNC GLOBAL DEFAULT 14 _ZN7android5NBLog11MergeR
431:   FUNC GLOBAL DEFAULT 14 _ZN7android5NBLog6ReaderC
432:   FUNC WEAK DEFAULT 14 _ZNSt3__114__split_buffer
433:   FUNC WEAK DEFAULT 14 _ZNSt3__114__split_buffer
434:   FUNC GLOBAL DEFAULT 14 _ZNK4Json5Value8CZStringl
435:   FUNC GLOBAL DEFAULT 14 _ZN4Json5Value11CommentIn
436:   FUNC GLOBAL DEFAULT 14 _ZN4Json5ValueD2Ev
437:   FUNC GLOBAL DEFAULT 14 _ZNK4Json5Value10isIntegr
438:   FUNC GLOBAL DEFAULT 14 _ZN4Json12StyledWriter9pu
439:   FUNC GLOBAL DEFAULT 14 _ZN7android17ReportPerfor
440:   FUNC WEAK DEFAULT 14 _ZNSt3__15dequeINS_4pairI
441:   FUNC WEAK DEFAULT 14 _ZNSt3__15dequeINS_4pairI
442:   OBJECT GLOBAL DEFAULT 12 _ZN4Json5Value9maxUInt64E
443:   FUNC GLOBAL DEFAULT 14 _ZN4Json5ValueC1ERKS0_
444:   FUNC GLOBAL DEFAULT 14 __aeabi_uldivmod
445:   FUNC WEAK DEFAULT 14 _ZNSt3__112__hash_tableIN
446:   FUNC GLOBAL DEFAULT 14 _ZN4Json18StyledStreamWri
447:   FUNC GLOBAL DEFAULT 14 _ZNK7android5NBLog13Entry
448:   FUNC GLOBAL DEFAULT 14 _ZN7android5NBLog6Reader1
449:   FUNC WEAK DEFAULT 14 _ZNSt3__113basic_filebufI
450:   FUNC GLOBAL DEFAULT 14 _ZNK4Json17ValueIteratorB
451:   FUNC GLOBAL DEFAULT 14 _ZNK4Json5Value5asIntEv
452:   FUNC GLOBAL DEFAULT 14 _ZN4Json18StyledStreamWri
453:   FUNC GLOBAL DEFAULT 14 _ZN7android17ReportPerfor
454:   FUNC GLOBAL DEFAULT 14 _ZN7android5NBLog11MergeT
455:   FUNC GLOBAL DEFAULT 14 _ZN7android5NBLog10DumpRe
456:   FUNC GLOBAL DEFAULT 14 _ZN4Json13ValueIteratorC2
457:   FUNC GLOBAL DEFAULT 14 _ZNK4Json5Value8isStringE
458:   FUNC GLOBAL DEFAULT 14 _ZN7android5NBLog13EntryI
459:   FUNC GLOBAL DEFAULT 14 _ZNK7android5NBLog13Entry
460:   FUNC GLOBAL DEFAULT 14 _ZNK4Json5ValueleERKS0_
461:   FUNC GLOBAL DEFAULT 14 _ZN4Json5ValueC1Eb
462:   FUNC WEAK DEFAULT 14 _ZNSt3__114__split_buffer
463:   OBJECT GLOBAL DEFAULT 12 _ZN4Json5Value14maxLarges
464:   FUNC GLOBAL DEFAULT 14 __aeabi_memset
465:   FUNC GLOBAL DEFAULT 14 _ZN7android5NBLog6ReaderD
466:   FUNC GLOBAL DEFAULT 14 _ZN4Json5ValueC1Ed
467:   FUNC GLOBAL DEFAULT 14 _ZNK4Json5Value8isDoubleE
468:   FUNC GLOBAL DEFAULT 14 _ZNK7android5NBLog5Entry1
469:   FUNC GLOBAL DEFAULT 14 _ZN7android5NBLog11MergeT
470:   FUNC WEAK DEFAULT 14 _ZNSt3__127__tree_balance
471:   OBJECT GLOBAL DEFAULT 12 _ZN4Json5Value8minInt64E
472:   FUNC GLOBAL DEFAULT 14 _ZN4Json5ValueC2EPKcS2_
473:   OBJECT GLOBAL DEFAULT 18 _ZTVN7android5NBLog6Reade
474:   FUNC GLOBAL DEFAULT 14 _ZN7android5NBLog6WriterC
475:   FUNC GLOBAL DEFAULT 14 _ZN7android5NBLog6WriterD
476:   FUNC GLOBAL DEFAULT 14 _ZN4Json12StyledWriter23w
477:   FUNC GLOBAL DEFAULT 14 _ZN4Json18StyledStreamWri
478:   FUNC GLOBAL DEFAULT 14 _ZNK7android5NBLog13Entry
479:   FUNC GLOBAL DEFAULT 14 _ZN7android5NBLog12Locked
480:   FUNC GLOBAL DEFAULT 14 _ZNK4Json5Value12asLarges
481:   FUNC GLOBAL DEFAULT 14 _ZNK4Json5ValuentEv
482:   FUNC GLOBAL DEFAULT 14 _ZNK7android5NBLog14Histo
483:   FUNC GLOBAL DEFAULT 14 _ZN7android5NBLog11MergeR
484:   FUNC GLOBAL DEFAULT 14 _ZN4Json5Value16resolveRe
485:   FUNC GLOBAL DEFAULT 14 _ZN4Json5Value8CZStringC1
486:   FUNC WEAK DEFAULT 14 _ZNSt3__114__split_buffer
487:   OBJECT WEAK DEFAULT 18 _ZTVNSt3__118basic_string
488:   FUNC GLOBAL DEFAULT 14 _ZN7android5NBLog10DumpRe
489:   FUNC GLOBAL DEFAULT 14 _ZN4Json5ValueC1Ei
490:   FUNC GLOBAL DEFAULT 14 _ZN7android5NBLog6Writer1
491:   FUNC GLOBAL DEFAULT 14 _ZN4Json12StyledWriter14i
492:   FUNC WEAK DEFAULT 14 _ZNSt3__113basic_filebufI
493:   FUNC GLOBAL DEFAULT 14 _ZN4Json5Value10setCommen
494:   FUNC GLOBAL DEFAULT 14 _ZN4Json5ValueC1Ej
495:   FUNC GLOBAL DEFAULT 14 _ZN4Json18StyledStreamWri
496:   FUNC GLOBAL DEFAULT 14 _ZN7android5NBLog13Abstra
497:   FUNC GLOBAL DEFAULT 14 _ZN7android5NBLog11MergeR
498:   OBJECT GLOBAL DEFAULT 18 _ZTVN7android5NBLog11Form
499:   OBJECT GLOBAL DEFAULT 18 _ZTVN7android5NBLog14Hist
500:   FUNC WEAK DEFAULT 14 _ZNSt3__114__split_buffer
501:   FUNC WEAK DEFAULT 14 _ZNKSt3__115basic_stringb
502:   FUNC WEAK DEFAULT 14 _ZNSt3__16__treeINS_12__v
503:   FUNC WEAK DEFAULT 14 _ZNSt3__15dequeIxNS_9allo
504:   OBJECT GLOBAL DEFAULT 23 _ZN7android5NBLog6Reader1
505:   FUNC GLOBAL DEFAULT 14 _ZNK4Json5ValueixEi
506:   FUNC GLOBAL DEFAULT 14 _ZN4Json19valueToQuotedSt
507:   FUNC GLOBAL DEFAULT 14 _ZN7android5NBLog11MergeT
508:   FUNC WEAK DEFAULT 14 _ZNSt3__114__split_buffer
509:   FUNC GLOBAL DEFAULT 14 _ZN4Json4Path8makePathERK
510:   FUNC GLOBAL DEFAULT 14 _ZN4Json5Value9initBasicE
511:   FUNC GLOBAL DEFAULT 14 _ZNK4Json17ValueIteratorB
512:   FUNC GLOBAL DEFAULT 14 _ZNK4Json5ValueixEj
513:   FUNC GLOBAL DEFAULT 14 _ZN7android5NBLog6Writer1
514:   FUNC GLOBAL DEFAULT 14 _ZNK4Json5Value7isArrayEv
515:   FUNC GLOBAL DEFAULT 14 _ZNK7android5NBLog11Forma
516:   FUNC GLOBAL DEFAULT 14 _ZNK7android5NBLog11Forma
517:   OBJECT WEAK DEFAULT 23 _ZGVZ26audio_utils_plot_h
518:   FUNC GLOBAL DEFAULT 14 _ZN7android5NBLog10DumpRe
519:   OBJECT WEAK DEFAULT 18 _ZTCNSt3__118basic_string
520:   FUNC GLOBAL DEFAULT 14 _ZN4Json5ValueixEPKc
521:   FUNC WEAK DEFAULT 14 _ZNSt3__113basic_filebufI
522:   FUNC GLOBAL DEFAULT 14 _ZN4Json5Value8CZStringD1
523:   FUNC GLOBAL DEFAULT 14 _ZN4Json12StyledWriter15w
524:   FUNC GLOBAL DEFAULT 14 _ZNK7android17ReportPerfo
525:   FUNC WEAK DEFAULT 14 _ZNSt3__113basic_filebufI
526:   FUNC GLOBAL DEFAULT 14 _ZN7android5NBLog6Writer4
527:   FUNC GLOBAL DEFAULT 14 _ZN4Json18StyledStreamWri
528:   FUNC GLOBAL DEFAULT 14 _ZN7android5NBLog11MergeR
529:   FUNC GLOBAL DEFAULT 14 _ZN7android5NBLog6Writer1
530:   FUNC GLOBAL DEFAULT 14 _ZN4Json12PathArgumentC2E
531:   FUNC GLOBAL DEFAULT 14 _ZNK4Json5Value7isInt64Ev
532:   OBJECT WEAK DEFAULT 18 _ZTTNSt3__119basic_ostrin
533:   FUNC WEAK DEFAULT 14 _ZNSt3__115basic_stringbu
534:   FUNC GLOBAL DEFAULT 14 _ZNK4Json4Path7resolveERK
535:   FUNC WEAK DEFAULT 14 _ZNSt3__113basic_filebufI
536:   FUNC GLOBAL DEFAULT 14 _ZN7android5NBLog12Locked
537:   FUNC GLOBAL DEFAULT 14 _ZN4Json13ValueIteratorC2
538:   FUNC GLOBAL DEFAULT 14 _ZN7android5NBLog13EntryI
539:   FUNC WEAK DEFAULT 14 _ZNSt3__15dequeINS_4pairI
540:   FUNC WEAK DEFAULT 14 _ZNSt3__114__split_buffer
541:   FUNC GLOBAL DEFAULT 14 _ZN4Json4PathC1ERKNSt3__1
542:   FUNC GLOBAL DEFAULT 14 _ZN4Json5Value11CommentIn
543:   FUNC GLOBAL DEFAULT 14 _ZN4Json5Value8CZStringaS
544:   FUNC GLOBAL DEFAULT 14 _ZNK4Json5ValuegtERKS0_
545:   FUNC WEAK DEFAULT 14 _ZNSt3__15dequeINS_4pairI
546:   FUNC WEAK DEFAULT 14 _ZNSt3__16__treeINS_12__v
547:   FUNC GLOBAL DEFAULT 14 _ZN4Json5ValueC1Ex
548:   FUNC GLOBAL DEFAULT 14 _ZN4Json5Value12removeMem
549:   FUNC GLOBAL DEFAULT 14 _ZN7android5NBLog13EntryI
550:   FUNC GLOBAL DEFAULT 14 _ZNK7android5NBLog14Histo
551:   FUNC WEAK DEFAULT 14 _ZNSt3__15dequeINS_4pairI
552:   OBJECT GLOBAL DEFAULT 12 _ZN4Json5Value13maxLarges
553:   FUNC GLOBAL DEFAULT 14 _ZN4Json5Value14setOffset
554:   FUNC GLOBAL DEFAULT 14 _ZN4Json5ValueC1Ey
555:   FUNC GLOBAL DEFAULT 14 _ZNK4Json5Value14toStyled
556:   FUNC GLOBAL DEFAULT 14 _ZN7android5NBLog6Writer1
557:   FUNC GLOBAL DEFAULT 14 _ZNK7android5NBLog12Locke
558:   FUNC GLOBAL DEFAULT 14 _ZNK4Json17ValueIteratorB
559:   FUNC GLOBAL DEFAULT 14 _ZNK4Json5Value15isConver
560:   FUNC GLOBAL DEFAULT 14 _ZNK4Json5Value8CZString5
561:   FUNC GLOBAL DEFAULT 14 _ZNK4Json5ValueeqERKS0_
562:   FUNC GLOBAL DEFAULT 14 __divmoddi4
563:   FUNC GLOBAL DEFAULT 14 _ZN7android5NBLog11MergeR
564:   FUNC WEAK DEFAULT 14 _ZNSt3__125__lexicographi
565:   FUNC GLOBAL DEFAULT 14 _ZN7android5NBLog13EntryI
566:   FUNC WEAK DEFAULT 14 _ZNSt3__114__split_buffer
567:   FUNC GLOBAL DEFAULT 14 _ZN7android5NBLog8Timelin
568:   FUNC GLOBAL DEFAULT 14 _ZN4Json5ValueC2Eb
569:   FUNC GLOBAL DEFAULT 14 _ZN4Json12PathArgumentC1E
570:   FUNC GLOBAL DEFAULT 14 _ZN4Json5ValueixEi
571:   FUNC GLOBAL DEFAULT 14 _ZN7android5NBLog10DumpRe
572:   FUNC GLOBAL DEFAULT 14 _ZN7android5NBLog6ReaderD
573:   FUNC GLOBAL DEFAULT 14 _ZN4Json5ValueC2Ed
574:   FUNC GLOBAL DEFAULT 14 _ZN4Json5ValueixEj
575:   FUNC GLOBAL DEFAULT 14 _ZN4Json18StyledStreamWri
576:   FUNC GLOBAL DEFAULT 14 __udivmoddi4
577:   FUNC GLOBAL DEFAULT 14 _ZN7android5NBLog6Writer1
578:   FUNC GLOBAL DEFAULT 14 _ZN4Json5Value3endEv
579:   FUNC WEAK DEFAULT 14 _ZNSt3__16__treeINS_12__v
580:   OBJECT WEAK DEFAULT 18 _ZTVNSt3__114basic_ofstre
581:   FUNC GLOBAL DEFAULT 14 _ZN7android5NBLog6WriterD
582:   FUNC GLOBAL DEFAULT 14 _ZNK7android5NBLog11Forma
583:   FUNC GLOBAL DEFAULT 14 _ZN7android17ReportPerfor
584:   FUNC WEAK DEFAULT 14 _ZNSt3__15dequeINS_4pairI
585:   FUNC WEAK DEFAULT 14 _ZNSt3__112__hash_tableIN
586:   FUNC GLOBAL DEFAULT 14 _ZNK4Json5Value10getComme
587:   FUNC GLOBAL DEFAULT 14 _ZN7android5NBLog6WriterC
588:   FUNC GLOBAL DEFAULT 14 _ZN4Json13ValueIteratorC1
589:   FUNC GLOBAL DEFAULT 14 _ZN4Json5ValueC2Ei
590:   FUNC GLOBAL DEFAULT 14 __aeabi_d2ulz
591:   FUNC GLOBAL DEFAULT 14 _ZN4Json10FastWriterC1Ev
592:   FUNC GLOBAL DEFAULT 14 _ZN7android5NBLog13EntryI
593:   FUNC GLOBAL DEFAULT 14 _ZNK7android5NBLog11Forma
594:   FUNC GLOBAL DEFAULT 14 __aeabi_memmove
595:   OBJECT WEAK DEFAULT 18 _ZTVNSt3__115basic_string
596:   FUNC GLOBAL DEFAULT 14 _ZN4Json5Value4swapERS0_
597:   FUNC GLOBAL DEFAULT 14 _ZN4Json5ValueC2Ej
598:   FUNC GLOBAL DEFAULT 14 _ZNK4Json5Value8isMemberE
599:   FUNC GLOBAL DEFAULT 14 __aeabi_memclr
600:   FUNC WEAK DEFAULT 14 _ZNSt3__16__treeINS_12__v
601:   FUNC WEAK DEFAULT 14 _ZNSt3__15dequeINS_4pairI
602:   FUNC GLOBAL DEFAULT 14 _ZNK4Json5ValueixEPKc
603:   FUNC GLOBAL DEFAULT 14 _ZN4Json12StyledWriter32w
604:   FUNC GLOBAL DEFAULT 14 _ZN7android17ReportPerfor
605:   FUNC WEAK DEFAULT 14 _ZNSt3__115basic_stringbu
606:   FUNC GLOBAL DEFAULT 14 _ZN4Json5Value12removeMem
607:   OBJECT GLOBAL DEFAULT 12 _ZN4Json5Value8maxInt64E
608:   FUNC GLOBAL DEFAULT 14 _ZNK4Json5Value13asLarges
609:   FUNC GLOBAL DEFAULT 14 _ZN4Json13valueToStringEb
610:   FUNC GLOBAL DEFAULT 14 _ZN4Json5ValueC1EPKc
611:   FUNC GLOBAL DEFAULT 14 _ZNK4Json5Value8isObjectE
612:   FUNC GLOBAL DEFAULT 14 _ZN7android5NBLog11MergeT
613:   FUNC GLOBAL DEFAULT 14 _ZN4Json13valueToStringEd
614:   FUNC GLOBAL DEFAULT 14 _ZN4Json5Value8CZStringC2
615:   FUNC GLOBAL DEFAULT 14 _ZNK4Json5Value8asUInt64E
616:   FUNC GLOBAL DEFAULT 14 _ZN7android5NBLog12Locked
617:   FUNC GLOBAL DEFAULT 14 _ZN4Json17ValueIteratorBa
618:   FUNC GLOBAL DEFAULT 14 _ZNK4Json5Value12isValidI
619:   FUNC GLOBAL DEFAULT 14 __aeabi_memset4
620:   FUNC WEAK DEFAULT 14 _ZNSt3__16__treeINS_12__v
621:   FUNC GLOBAL DEFAULT 14 _ZN4Json5ValueC1ENS_9Valu
622:   FUNC GLOBAL DEFAULT 14 _ZN7android5NBLog6Writer9
623:   OBJECT GLOBAL DEFAULT 18 _ZTVN7android5NBLog12Lock
624:   FUNC WEAK DEFAULT 14 _ZNSt3__16vectorINS_12bas
625:   FUNC GLOBAL DEFAULT 14 _ZN7android5NBLog6Reader1
626:   FUNC WEAK DEFAULT 14 _ZNSt3__114__split_buffer
627:   FUNC GLOBAL DEFAULT 14 _ZN4Json5Value8CZStringD2
628:   FUNC GLOBAL DEFAULT 14 _ZN7android5NBLog10DumpRe
629:   FUNC GLOBAL DEFAULT 14 _ZN7android5NBLog10DumpRe
630:   OBJECT GLOBAL DEFAULT 12 _ZN4Json5Value13minLarges
631:   FUNC GLOBAL DEFAULT 14 _ZN4Json5ValueC2ERKNS_12S
632:   FUNC GLOBAL DEFAULT 14 _ZNK4Json5Value3endEv
633:   FUNC GLOBAL DEFAULT 14 _ZN4Json13valueToStringEi
634:   FUNC GLOBAL DEFAULT 14 __fixdfdi
635:   FUNC GLOBAL DEFAULT 14 __aeabi_memset8
