 0x0000000e (SONAME)                     Library soname: [libresourcemanagerservice.so]
  
Symbol   contains 209 entries:
Num:   Type Bind Vis Ndx Name
0:   NOTYPE LOCAL DEFAULT UND
1:   FUNC GLOBAL DEFAULT UND __cxa_finalize@LIBC (2)
2:   FUNC GLOBAL DEFAULT UND _ZN7android10IInterface8a
3:   FUNC GLOBAL DEFAULT UND _ZN7android10IInterfaceD0
4:   FUNC GLOBAL DEFAULT UND _ZN7android10IInterfaceD1
5:   FUNC GLOBAL DEFAULT UND _ZN7android10VectorImpl12
6:   FUNC GLOBAL DEFAULT UND _ZN7android10VectorImpl13
7:   FUNC GLOBAL DEFAULT UND _ZN7android10VectorImpl13
8:   FUNC GLOBAL DEFAULT UND _ZN7android10VectorImpl16
9:   FUNC GLOBAL DEFAULT UND _ZN7android10VectorImpl8i
10:   FUNC GLOBAL DEFAULT UND _ZN7android10VectorImplC2
11:   FUNC GLOBAL DEFAULT UND _ZN7android10VectorImplC2
12:   FUNC GLOBAL DEFAULT UND _ZN7android10VectorImplD2
13:   FUNC GLOBAL DEFAULT UND _ZN7android11ProcessInfoC
14:   FUNC GLOBAL DEFAULT UND _ZN7android13MediaResourc
15:   FUNC GLOBAL DEFAULT UND _ZN7android13MediaResourc
16:   FUNC GLOBAL DEFAULT UND _ZN7android14IPCThreadSta
17:   FUNC GLOBAL DEFAULT UND _ZN7android14sp_report_ra
18:   FUNC GLOBAL DEFAULT UND _ZN7android15BatteryNotif
19:   FUNC GLOBAL DEFAULT UND _ZN7android15BatteryNotif
20:   FUNC GLOBAL DEFAULT UND _ZN7android15BatteryNotif
21:   FUNC GLOBAL DEFAULT UND _ZN7android15BatteryNotif
22:   FUNC GLOBAL DEFAULT UND _ZN7android16SortedVector
23:   FUNC GLOBAL DEFAULT UND _ZN7android16SortedVector
24:   FUNC GLOBAL DEFAULT UND _ZN7android16SortedVector
25:   FUNC GLOBAL DEFAULT UND _ZN7android16SortedVector
26:   FUNC GLOBAL DEFAULT UND _ZN7android18requestCpuse
27:   FUNC GLOBAL DEFAULT UND _ZN7android21IMediaResour
28:   FUNC GLOBAL DEFAULT UND _ZN7android21defaultServi
29:   FUNC GLOBAL DEFAULT UND _ZN7android22checkCalling
30:   OBJECT GLOBAL DEFAULT UND _ZN7android23IResourceMan
31:   FUNC GLOBAL DEFAULT UND _ZN7android23IResourceMan
32:   FUNC GLOBAL DEFAULT UND _ZN7android23IResourceMan
33:   FUNC GLOBAL DEFAULT UND _ZN7android23IResourceMan
34:   FUNC GLOBAL DEFAULT UND _ZN7android23IResourceMan
35:   FUNC GLOBAL DEFAULT UND _ZN7android24BnResourceMa
36:   OBJECT GLOBAL DEFAULT UND _ZN7android35kPolicySuppo
37:   OBJECT GLOBAL DEFAULT UND _ZN7android39kPolicySuppo
38:   FUNC GLOBAL DEFAULT UND _ZN7android7BBinder10onTr
39:   FUNC GLOBAL DEFAULT UND _ZN7android7BBinder10ping
40:   FUNC GLOBAL DEFAULT UND _ZN7android7BBinder11link
41:   FUNC GLOBAL DEFAULT UND _ZN7android7BBinder11loca
42:   FUNC GLOBAL DEFAULT UND _ZN7android7BBinder12atta
43:   FUNC GLOBAL DEFAULT UND _ZN7android7BBinder12deta
44:   FUNC GLOBAL DEFAULT UND _ZN7android7BBinder13unli
45:   FUNC GLOBAL DEFAULT UND _ZN7android7BBinder4dumpE
46:   FUNC GLOBAL DEFAULT UND _ZN7android7BBinder8trans
47:   FUNC GLOBAL DEFAULT UND _ZN7android7BBinderC2Ev
48:   FUNC GLOBAL DEFAULT UND _ZN7android7BBinderD0Ev
49:   FUNC GLOBAL DEFAULT UND _ZN7android7BBinderD1Ev
50:   FUNC GLOBAL DEFAULT UND _ZN7android7BBinderD2Ev
51:   FUNC GLOBAL DEFAULT UND _ZN7android7IBinder11loca
52:   FUNC GLOBAL DEFAULT UND _ZN7android7IBinder12remo
53:   FUNC GLOBAL DEFAULT UND _ZN7android7IBinder19quer
54:   FUNC GLOBAL DEFAULT UND _ZN7android7IBinderD0Ev
55:   FUNC GLOBAL DEFAULT UND _ZN7android7IBinderD1Ev
56:   FUNC GLOBAL DEFAULT UND _ZN7android7RefBase10onFi
57:   FUNC GLOBAL DEFAULT UND _ZN7android7RefBase10rena
58:   FUNC GLOBAL DEFAULT UND _ZN7android7RefBase11rena
59:   FUNC GLOBAL DEFAULT UND _ZN7android7RefBase12weak
60:   FUNC GLOBAL DEFAULT UND _ZN7android7RefBase12weak
61:   FUNC GLOBAL DEFAULT UND _ZN7android7RefBase12weak
62:   FUNC GLOBAL DEFAULT UND _ZN7android7RefBase13onLa
63:   FUNC GLOBAL DEFAULT UND _ZN7android7RefBase15onLa
64:   FUNC GLOBAL DEFAULT UND _ZN7android7RefBase20onIn
65:   FUNC GLOBAL DEFAULT UND _ZN7android7RefBaseC2Ev
66:   FUNC GLOBAL DEFAULT UND _ZN7android7RefBaseD2Ev
67:   FUNC GLOBAL DEFAULT UND _ZN7android7String812appe
68:   FUNC GLOBAL DEFAULT UND _ZN7android7String85setTo
69:   FUNC GLOBAL DEFAULT UND _ZN7android7String86appen
70:   FUNC GLOBAL DEFAULT UND _ZN7android7String86appen
71:   FUNC GLOBAL DEFAULT UND _ZN7android7String86forma
72:   FUNC GLOBAL DEFAULT UND _ZN7android7String8C1ERKS
73:   FUNC GLOBAL DEFAULT UND _ZN7android7String8C1Ev
74:   FUNC GLOBAL DEFAULT UND _ZN7android7String8D1Ev
75:   FUNC GLOBAL DEFAULT UND _ZN7android8String16C1EPK
76:   FUNC GLOBAL DEFAULT UND _ZN7android8String16D1Ev
77:   OBJECT GLOBAL DEFAULT UND _ZN7android9SingletonINS_
78:   OBJECT GLOBAL DEFAULT UND _ZN7android9SingletonINS_
79:   FUNC GLOBAL DEFAULT UND _ZNK7android13MediaResour
80:   FUNC GLOBAL DEFAULT UND _ZNK7android14IPCThreadSt
81:   FUNC GLOBAL DEFAULT UND _ZNK7android14IPCThreadSt
82:   FUNC GLOBAL DEFAULT UND _ZNK7android16SortedVecto
83:   FUNC GLOBAL DEFAULT UND _ZNK7android19MediaResour
84:   FUNC GLOBAL DEFAULT UND _ZNK7android23IResourceMa
85:   FUNC GLOBAL DEFAULT UND _ZNK7android7BBinder10fin
86:   FUNC GLOBAL DEFAULT UND _ZNK7android7BBinder13isB
87:   FUNC GLOBAL DEFAULT UND _ZNK7android7BBinder22get
88:   FUNC GLOBAL DEFAULT UND _ZNK7android7IBinder13che
89:   FUNC GLOBAL DEFAULT UND _ZNK7android7RefBase10cre
90:   FUNC GLOBAL DEFAULT UND _ZNK7android7RefBase9decS
91:   FUNC GLOBAL DEFAULT UND _ZNK7android7RefBase9incS
92:   FUNC GLOBAL DEFAULT UND _ZNK7android7String86leng
93:   FUNC GLOBAL DEFAULT UND _ZNK7android8String164siz
94:   FUNC GLOBAL DEFAULT UND _ZThn4_N7android24BnResou
95:   FUNC GLOBAL DEFAULT UND _ZTv0_n12_N7android10IInt
96:   FUNC GLOBAL DEFAULT UND _ZTv0_n12_N7android10IInt
97:   FUNC GLOBAL DEFAULT UND _ZTv0_n12_N7android23IRes
98:   FUNC GLOBAL DEFAULT UND _ZTv0_n12_N7android23IRes
99:   FUNC GLOBAL DEFAULT UND _ZTv0_n12_N7android7BBind
100:   FUNC GLOBAL DEFAULT UND _ZTv0_n12_N7android7BBind
101:   FUNC GLOBAL DEFAULT UND _ZTv0_n12_N7android7IBind
102:   FUNC GLOBAL DEFAULT UND _ZTv0_n12_N7android7IBind
103:   FUNC GLOBAL DEFAULT UND _ZdlPv
104:   FUNC GLOBAL DEFAULT UND _Znwj
105:   FUNC GLOBAL DEFAULT UND __android_log_assert@LIBLOG (3)
106:   FUNC GLOBAL DEFAULT UND __android_log_print@LIBLOG (3)
107:   FUNC GLOBAL DEFAULT UND __cxa_pure_virtual
108:   FUNC GLOBAL DEFAULT UND __stack_chk_fail@LIBC (2)
109:   OBJECT GLOBAL DEFAULT UND __stack_chk_guard@LIBC (2)
110:   FUNC GLOBAL DEFAULT UND __vsnprintf_chk@LIBC (2)
111:   FUNC GLOBAL DEFAULT UND pthread_mutex_destroy@LIBC (2)
112:   FUNC GLOBAL DEFAULT UND pthread_mutex_init@LIBC (2)
113:   FUNC GLOBAL DEFAULT UND pthread_mutex_lock@LIBC (2)
114:   FUNC GLOBAL DEFAULT UND pthread_mutex_unlock@LIBC (2)
115:   FUNC GLOBAL DEFAULT UND strcmp@LIBC (2)
116:   FUNC GLOBAL DEFAULT UND strzcmp16
117:   FUNC GLOBAL DEFAULT UND write@LIBC (2)
118:   FUNC GLOBAL DEFAULT UND _ZNKSt3__120__vector_base
119:   FUNC GLOBAL DEFAULT UND abort@LIBC (2)
120:   FUNC GLOBAL DEFAULT UND localtime@LIBC (2)
121:   FUNC GLOBAL DEFAULT UND strftime@LIBC (2)
122:   FUNC GLOBAL DEFAULT UND time@LIBC (2)
123:   FUNC GLOBAL DEFAULT UND memmove@LIBC (2)
124:   FUNC GLOBAL DEFAULT UND memset@LIBC (2)
125:   FUNC GLOBAL DEFAULT 13 _ZN7android22ResourceMana
126:   FUNC WEAK DEFAULT 13 _ZNK7android12SortedVecto
127:   FUNC WEAK DEFAULT 13 _ZNK7android6VectorINS_2s
128:   FUNC GLOBAL DEFAULT 13 _ZThn4_N7android22Resourc
129:   FUNC GLOBAL DEFAULT 13 _ZN7android22ResourceMana
130:   FUNC WEAK DEFAULT 13 _ZNK7android12SortedVecto
131:   FUNC WEAK DEFAULT 13 _ZNK7android12SortedVecto
132:   FUNC WEAK DEFAULT 13 _ZNK7android12SortedVecto
133:   FUNC GLOBAL DEFAULT 13 _ZThn4_N7android22Resourc
134:   FUNC GLOBAL DEFAULT 13 _ZN7android22ResourceMana
135:   FUNC WEAK DEFAULT 13 _ZNK7android12SortedVecto
136:   FUNC WEAK DEFAULT 13 _ZNK7android6VectorINS_2s
137:   OBJECT GLOBAL DEFAULT 17 _ZTVN7android22ResourceMa
138:   FUNC GLOBAL DEFAULT 13 _ZN7android10ServiceLogC2
139:   FUNC GLOBAL DEFAULT 13 __aeabi_memset4
140:   FUNC GLOBAL DEFAULT 13 _ZN7android22ResourceMana
141:   FUNC GLOBAL DEFAULT 13 _ZN7android22ResourceMana
142:   FUNC GLOBAL DEFAULT 13 _ZN7android22ResourceMana
143:   OBJECT GLOBAL DEFAULT 17 _ZTCN7android22ResourceMa
144:   FUNC GLOBAL DEFAULT 13 _ZTv0_n12_N7android22Reso
145:   FUNC WEAK DEFAULT 13 _ZN7android11BnInterfaceI
146:   FUNC WEAK DEFAULT 13 _ZNK7android12SortedVecto
147:   FUNC GLOBAL DEFAULT 13 _ZN7android10ServiceLogC1
148:   FUNC GLOBAL DEFAULT 13 _ZN7android22ResourceMana
149:   FUNC GLOBAL DEFAULT 13 _ZN7android22ResourceMana
150:   FUNC GLOBAL DEFAULT 13 _ZTv0_n12_N7android22Reso
151:   FUNC GLOBAL DEFAULT 13 _ZNK7android10ServiceLog7
152:   FUNC GLOBAL DEFAULT 13 __aeabi_memset8
153:   FUNC GLOBAL DEFAULT 13 _ZN7android22ResourceMana
154:   OBJECT GLOBAL DEFAULT 17 _ZTCN7android22ResourceMa
155:   FUNC GLOBAL DEFAULT 13 _ZN7android22ResourceMana
156:   OBJECT WEAK DEFAULT 17 _ZTVN7android6VectorINS_2
157:   FUNC GLOBAL DEFAULT 13 __aeabi_memclr4
158:   FUNC GLOBAL DEFAULT 13 _ZN7android22ResourceMana
159:   FUNC GLOBAL DEFAULT 13 _ZN7android22ResourceMana
160:   FUNC WEAK DEFAULT 13 _ZNK7android12SortedVecto
161:   FUNC WEAK DEFAULT 13 _ZNK7android12SortedVecto
162:   FUNC WEAK DEFAULT 13 _ZNK7android12SortedVecto
163:   FUNC WEAK DEFAULT 13 _ZNK7android6VectorINS_2s
164:   FUNC WEAK DEFAULT 13 _ZNSt3__16__treeINS_12__v
165:   FUNC GLOBAL DEFAULT 13 __aeabi_memmove
166:   FUNC GLOBAL DEFAULT 13 _ZN7android22ResourceMana
167:   OBJECT GLOBAL DEFAULT 17 _ZTCN7android22ResourceMa
168:   OBJECT GLOBAL DEFAULT 17 _ZTCN7android22ResourceMa
169:   OBJECT GLOBAL DEFAULT 17 _ZTTN7android22ResourceMa
170:   FUNC GLOBAL DEFAULT 13 __aeabi_memmove4
171:   FUNC GLOBAL DEFAULT 13 _ZN7android10ServiceLog3a
172:   FUNC WEAK DEFAULT 13 _ZNK7android6VectorINS_2s
173:   FUNC WEAK DEFAULT 13 _ZNSt3__113__tree_removeI
174:   FUNC GLOBAL DEFAULT 13 _ZN7android22ResourceMana
175:   FUNC GLOBAL DEFAULT 13 _ZN7android22ResourceMana
176:   FUNC GLOBAL DEFAULT 13 _ZN7android22ResourceMana
177:   FUNC GLOBAL DEFAULT 13 _ZN7android22ResourceMana
178:   FUNC WEAK DEFAULT 13 _ZNSt3__16__treeINS_12__v
179:   FUNC GLOBAL DEFAULT 13 __aeabi_memclr8
180:   FUNC WEAK DEFAULT 13 _ZNSt3__16__treeINS_12__v
181:   FUNC GLOBAL DEFAULT 13 _ZN7android10ServiceLogC2
182:   FUNC GLOBAL DEFAULT 13 __aeabi_memmove8
183:   FUNC GLOBAL DEFAULT 13 _ZN7android22ResourceMana
184:   FUNC GLOBAL DEFAULT 13 _ZN7android22ResourceMana
185:   FUNC WEAK DEFAULT 13 _ZNK7android12SortedVecto
186:   FUNC GLOBAL DEFAULT 13 _ZN7android22ResourceMana
187:   FUNC WEAK DEFAULT 13 _ZNK7android12SortedVecto
188:   FUNC WEAK DEFAULT 13 _ZNK7android12SortedVecto
189:   FUNC WEAK DEFAULT 13 _ZNK7android12SortedVecto
190:   FUNC WEAK DEFAULT 13 _ZNK7android6VectorINS_2s
191:   FUNC WEAK DEFAULT 13 _ZNSt3__127__tree_balance
192:   OBJECT GLOBAL DEFAULT 17 _ZTCN7android22ResourceMa
193:   OBJECT WEAK DEFAULT 17 _ZTVN7android12SortedVect
194:   FUNC WEAK DEFAULT 13 _ZNSt3__16vectorIN7androi
195:   FUNC GLOBAL DEFAULT 13 __aeabi_memset
196:   FUNC GLOBAL DEFAULT 13 _ZN7android10ServiceLogC1
197:   FUNC GLOBAL DEFAULT 13 _ZN7android22ResourceMana
198:   FUNC WEAK DEFAULT 13 _ZNSt3__16__treeINS_12__v
199:   OBJECT WEAK DEFAULT 17 _ZTVN7android12SortedVect
200:   FUNC GLOBAL DEFAULT 13 _ZN7android22ResourceMana
201:   FUNC WEAK DEFAULT 13 _ZNK7android12SortedVecto
202:   FUNC GLOBAL DEFAULT 13 _ZThn4_N7android22Resourc
203:   FUNC GLOBAL DEFAULT 13 _ZNK7android10ServiceLog8
204:   FUNC WEAK DEFAULT 13 _ZNK7android6VectorINS_2s
205:   OBJECT GLOBAL DEFAULT 17 _ZTCN7android22ResourceMa
206:   OBJECT WEAK DEFAULT 17 _ZTVN7android18SystemCall
207:   OBJECT WEAK DEFAULT 17 _ZTVN7android10ServiceLog
208:   FUNC GLOBAL DEFAULT 13 __aeabi_memclr
