 0x000000000000000e (SONAME)             Library soname: [android.frameworks.sensorservice@1.0.so]
  
Symbol   contains 465 entries:
Num:   Type Bind Vis Ndx Name
0:   NOTYPE LOCAL DEFAULT UND
1:   FUNC GLOBAL DEFAULT UND __cxa_finalize@LIBC (2)
2:   FUNC GLOBAL DEFAULT UND _ZN7android14sp_report_ra
3:   FUNC GLOBAL DEFAULT UND _ZN7android21report_syspr
4:   OBJECT GLOBAL DEFAULT UND _ZN7android4hidl4base4V1_
5:   FUNC GLOBAL DEFAULT UND _ZN7android4hidl4base4V1_
6:   FUNC GLOBAL DEFAULT UND _ZN7android4hidl4base4V1_
7:   FUNC GLOBAL DEFAULT UND _ZN7android4hidl4base4V1_
8:   FUNC GLOBAL DEFAULT UND _ZN7android4hidl4base4V1_
9:   FUNC GLOBAL DEFAULT UND _ZN7android4hidl4base4V1_
10:   FUNC GLOBAL DEFAULT UND _ZN7android4hidl4base4V1_
11:   FUNC GLOBAL DEFAULT UND _ZN7android4hidl4base4V1_
12:   FUNC GLOBAL DEFAULT UND _ZN7android4hidl4base4V1_
13:   FUNC GLOBAL DEFAULT UND _ZN7android4hidl4base4V1_
14:   FUNC GLOBAL DEFAULT UND _ZN7android4hidl4base4V1_
15:   FUNC GLOBAL DEFAULT UND _ZN7android4hidl4base4V1_
16:   FUNC GLOBAL DEFAULT UND _ZN7android4hidl4base4V1_
17:   FUNC GLOBAL DEFAULT UND _ZN7android4hidl4base4V1_
18:   FUNC GLOBAL DEFAULT UND _ZN7android4hidl4base4V1_
19:   FUNC GLOBAL DEFAULT UND _ZN7android4hidl4base4V1_
20:   FUNC GLOBAL DEFAULT UND _ZN7android4hidl4base4V1_
21:   FUNC GLOBAL DEFAULT UND _ZN7android4hidl4base4V1_
22:   FUNC GLOBAL DEFAULT UND _ZN7android4hidl4base4V1_
23:   FUNC GLOBAL DEFAULT UND _ZN7android4hidl4base4V1_
24:   FUNC GLOBAL DEFAULT UND _ZN7android4hidl4base4V1_
25:   FUNC GLOBAL DEFAULT UND _ZN7android4hidl4base4V1_
26:   FUNC GLOBAL DEFAULT UND _ZN7android4hidl4base4V1_
27:   FUNC GLOBAL DEFAULT UND _ZN7android4hidl4base4V1_
28:   FUNC GLOBAL DEFAULT UND _ZN7android7RefBase10onFi
29:   FUNC GLOBAL DEFAULT UND _ZN7android7RefBase12weak
30:   FUNC GLOBAL DEFAULT UND _ZN7android7RefBase13onLa
31:   FUNC GLOBAL DEFAULT UND _ZN7android7RefBase15onLa
32:   FUNC GLOBAL DEFAULT UND _ZN7android7RefBase20onIn
33:   FUNC GLOBAL DEFAULT UND _ZN7android7RefBaseC2Ev
34:   FUNC GLOBAL DEFAULT UND _ZN7android7RefBaseD2Ev
35:   FUNC GLOBAL DEFAULT UND _ZN7android8hardware10IIn
36:   FUNC GLOBAL DEFAULT UND _ZN7android8hardware10IIn
37:   FUNC GLOBAL DEFAULT UND _ZN7android8hardware10IIn
38:   FUNC GLOBAL DEFAULT UND _ZN7android8hardware10IIn
39:   FUNC GLOBAL DEFAULT UND _ZN7android8hardware10IIn
40:   FUNC GLOBAL DEFAULT UND _ZN7android8hardware11BpH
41:   FUNC GLOBAL DEFAULT UND _ZN7android8hardware11BpH
42:   FUNC GLOBAL DEFAULT UND _ZN7android8hardware11BpH
43:   FUNC GLOBAL DEFAULT UND _ZN7android8hardware11BpH
44:   FUNC GLOBAL DEFAULT UND _ZN7android8hardware11BpH
45:   FUNC GLOBAL DEFAULT UND _ZN7android8hardware11BpH
46:   FUNC GLOBAL DEFAULT UND _ZN7android8hardware11BpH
47:   FUNC GLOBAL DEFAULT UND _ZN7android8hardware11hid
48:   FUNC GLOBAL DEFAULT UND _ZN7android8hardware11hid
49:   FUNC GLOBAL DEFAULT UND _ZN7android8hardware11hid
50:   FUNC GLOBAL DEFAULT UND _ZN7android8hardware11hid
51:   FUNC GLOBAL DEFAULT UND _ZN7android8hardware11hid
52:   FUNC GLOBAL DEFAULT UND _ZN7android8hardware12Pro
53:   FUNC GLOBAL DEFAULT UND _ZN7android8hardware12Pro
54:   FUNC GLOBAL DEFAULT UND _ZN7android8hardware13wri
55:   FUNC GLOBAL DEFAULT UND _ZN7android8hardware14rea
56:   FUNC GLOBAL DEFAULT UND _ZN7android8hardware21def
57:   FUNC GLOBAL DEFAULT UND _ZN7android8hardware23get
58:   FUNC GLOBAL DEFAULT UND _ZN7android8hardware27hid
59:   FUNC GLOBAL DEFAULT UND _ZN7android8hardware27hid
60:   FUNC GLOBAL DEFAULT UND _ZN7android8hardware6Parc
61:   FUNC GLOBAL DEFAULT UND _ZN7android8hardware6Parc
62:   FUNC GLOBAL DEFAULT UND _ZN7android8hardware6Parc
63:   FUNC GLOBAL DEFAULT UND _ZN7android8hardware6Parc
64:   FUNC GLOBAL DEFAULT UND _ZN7android8hardware6Stat
65:   FUNC GLOBAL DEFAULT UND _ZN7android8hardware6Stat
66:   FUNC GLOBAL DEFAULT UND _ZN7android8hardware6Stat
67:   FUNC GLOBAL DEFAULT UND _ZN7android8hardware6Stat
68:   FUNC GLOBAL DEFAULT UND _ZN7android8hardware7IBin
69:   FUNC GLOBAL DEFAULT UND _ZN7android8hardware7IBin
70:   FUNC GLOBAL DEFAULT UND _ZN7android8hardware7IBin
71:   FUNC GLOBAL DEFAULT UND _ZN7android8hardware7IBin
72:   FUNC GLOBAL DEFAULT UND _ZN7android8hardware7deta
73:   FUNC GLOBAL DEFAULT UND _ZN7android8hardware7deta
74:   FUNC GLOBAL DEFAULT UND _ZN7android8hardware7deta
75:   FUNC GLOBAL DEFAULT UND _ZN7android8hardware7deta
76:   FUNC GLOBAL DEFAULT UND _ZN7android8hardware7deta
77:   FUNC GLOBAL DEFAULT UND _ZN7android8hardware7deta
78:   FUNC GLOBAL DEFAULT UND _ZN7android8hardware7deta
79:   OBJECT GLOBAL DEFAULT UND _ZN7android8hardware7deta
80:   FUNC GLOBAL DEFAULT UND _ZN7android8hardware7deta
81:   OBJECT GLOBAL DEFAULT UND _ZN7android8hardware7deta
82:   FUNC GLOBAL DEFAULT UND _ZN7android8hardware7deta
83:   FUNC GLOBAL DEFAULT UND _ZN7android8hardware7deta
84:   FUNC GLOBAL DEFAULT UND _ZN7android8hardware7deta
85:   FUNC GLOBAL DEFAULT UND _ZN7android8hardware7deta
86:   FUNC GLOBAL DEFAULT UND _ZN7android8hardware7deta
87:   FUNC GLOBAL DEFAULT UND _ZN7android8hardware7deta
88:   FUNC GLOBAL DEFAULT UND _ZN7android8hardware7deta
89:   FUNC GLOBAL DEFAULT UND _ZN7android8hardware7deta
90:   FUNC GLOBAL DEFAULT UND _ZN7android8hardware7deta
91:   OBJECT GLOBAL DEFAULT UND _ZN7android8hardware7deta
92:   FUNC GLOBAL DEFAULT UND _ZN7android8hardware9BHwB
93:   FUNC GLOBAL DEFAULT UND _ZN7android8hardware9BHwB
94:   FUNC GLOBAL DEFAULT UND _ZN7android8hardware9BHwB
95:   FUNC GLOBAL DEFAULT UND _ZN7android8hardware9BHwB
96:   FUNC GLOBAL DEFAULT UND _ZN7android8hardware9BHwB
97:   FUNC GLOBAL DEFAULT UND _ZN7android8hardware9BHwB
98:   FUNC GLOBAL DEFAULT UND _ZN7android8hardware9BHwB
99:   FUNC GLOBAL DEFAULT UND _ZN7android8hardware9BHwB
100:   FUNC GLOBAL DEFAULT UND _ZN7android8hardware9BHwB
101:   FUNC GLOBAL DEFAULT UND _ZN7android8hardware9BHwB
102:   FUNC GLOBAL DEFAULT UND _ZNK7android7RefBase10cre
103:   FUNC GLOBAL DEFAULT UND _ZNK7android7RefBase11get
104:   FUNC GLOBAL DEFAULT UND _ZNK7android7RefBase9decS
105:   FUNC GLOBAL DEFAULT UND _ZNK7android7RefBase9incS
106:   FUNC GLOBAL DEFAULT UND _ZNK7android8hardware6Par
107:   FUNC GLOBAL DEFAULT UND _ZNK7android8hardware6Par
108:   FUNC GLOBAL DEFAULT UND _ZNK7android8hardware7IBi
109:   FUNC GLOBAL DEFAULT UND _ZNK7android8hardware7det
110:   FUNC GLOBAL DEFAULT UND _ZNK7android8hardware9BHw
111:   FUNC GLOBAL DEFAULT UND _ZNKSt3__120__vector_base
112:   FUNC GLOBAL DEFAULT UND _ZNKSt3__121__basic_strin
113:   FUNC GLOBAL DEFAULT UND _ZNSt3__112basic_stringIc
114:   FUNC GLOBAL DEFAULT UND _ZNSt3__15mutex4lockEv
115:   FUNC GLOBAL DEFAULT UND _ZNSt3__15mutex6unlockEv
116:   FUNC GLOBAL DEFAULT UND _ZNSt3__15mutexD1Ev
117:   FUNC GLOBAL DEFAULT UND _ZTv0_n24_N7android4hidl4
118:   FUNC GLOBAL DEFAULT UND _ZTv0_n24_N7android4hidl4
119:   FUNC GLOBAL DEFAULT UND _ZTv0_n24_N7android8hardw
120:   FUNC GLOBAL DEFAULT UND _ZTv0_n24_N7android8hardw
121:   FUNC GLOBAL DEFAULT UND _ZTv0_n24_N7android8hardw
122:   FUNC GLOBAL DEFAULT UND _ZTv0_n24_N7android8hardw
123:   FUNC GLOBAL DEFAULT UND _ZTv0_n24_N7android8hardw
124:   FUNC GLOBAL DEFAULT UND _ZTv0_n24_N7android8hardw
125:   FUNC GLOBAL DEFAULT UND _ZTv0_n24_N7android8hardw
126:   FUNC GLOBAL DEFAULT UND _ZTv0_n24_N7android8hardw
127:   FUNC GLOBAL DEFAULT UND _ZTv0_n32_N7android8hardw
128:   FUNC GLOBAL DEFAULT UND _ZTv0_n40_N7android8hardw
129:   FUNC GLOBAL DEFAULT UND _ZTv0_n48_N7android8hardw
130:   FUNC GLOBAL DEFAULT UND _ZdaPv
131:   FUNC GLOBAL DEFAULT UND _ZdlPv
132:   FUNC GLOBAL DEFAULT UND _Znam
133:   FUNC GLOBAL DEFAULT UND _Znwm
134:   FUNC GLOBAL DEFAULT UND __android_log_assert@LIBLOG (3)
135:   FUNC GLOBAL DEFAULT UND __cxa_pure_virtual
136:   FUNC GLOBAL DEFAULT UND __stack_chk_fail@LIBC (2)
137:   FUNC GLOBAL DEFAULT UND abort@LIBC (2)
138:   FUNC GLOBAL DEFAULT UND atrace_begin_body
139:   OBJECT GLOBAL DEFAULT UND atrace_enabled_tags
140:   FUNC GLOBAL DEFAULT UND atrace_end_body
141:   OBJECT GLOBAL DEFAULT UND atrace_is_ready
142:   FUNC GLOBAL DEFAULT UND atrace_setup
143:   FUNC GLOBAL DEFAULT UND memcmp@LIBC (2)
144:   FUNC GLOBAL DEFAULT UND memcpy@LIBC (2)
145:   FUNC GLOBAL DEFAULT UND memset@LIBC (2)
146:   FUNC GLOBAL DEFAULT UND strlen@LIBC (2)
147:   FUNC GLOBAL DEFAULT UND _ZN7android8hardware6Parc
148:   FUNC GLOBAL DEFAULT UND _ZNK7android8hardware6Par
149:   FUNC GLOBAL DEFAULT UND _ZN7android8hardware6Parc
150:   FUNC GLOBAL DEFAULT UND _ZNK7android8hardware6Par
151:   FUNC GLOBAL DEFAULT UND _ZN7android8hardware11hid
152:   FUNC GLOBAL DEFAULT UND _ZN7android8hardware11hid
153:   FUNC GLOBAL DEFAULT UND _ZN7android8hardware11hid
154:   FUNC GLOBAL DEFAULT UND _ZN7android8hardware21wri
155:   FUNC GLOBAL DEFAULT UND _ZN7android8hardware22rea
156:   FUNC GLOBAL DEFAULT UND _ZN7android8hardware6Parc
157:   FUNC GLOBAL DEFAULT UND _ZN7android8hardware6Parc
158:   FUNC GLOBAL DEFAULT UND _ZN7android8hardware6Parc
159:   FUNC GLOBAL DEFAULT UND _ZN7android8hardware6Parc
160:   FUNC GLOBAL DEFAULT UND _ZN7android8hardware7deta
161:   FUNC GLOBAL DEFAULT UND _ZN7android8hardware7sens
162:   FUNC GLOBAL DEFAULT UND _ZN7android8hardware7sens
163:   FUNC GLOBAL DEFAULT UND _ZNK7android8hardware11hi
164:   FUNC GLOBAL DEFAULT UND _ZNK7android8hardware6Par
165:   FUNC GLOBAL DEFAULT UND _ZNK7android8hardware6Par
166:   FUNC GLOBAL DEFAULT UND _ZNK7android8hardware6Par
167:   FUNC GLOBAL DEFAULT UND _ZNK7android8hardware6Par
168:   FUNC GLOBAL DEFAULT UND _ZNSt3__112basic_stringIc
169:   OBJECT GLOBAL DEFAULT 18 _ZTCN7android10frameworks
170:   FUNC GLOBAL DEFAULT 14 _ZN7android10frameworks13
171:   FUNC GLOBAL DEFAULT 14 _ZN7android10frameworks13
172:   FUNC WEAK DEFAULT 14 _ZN7android8hardware10fro
173:   OBJECT WEAK DEFAULT 18 _ZTCN7android10frameworks
174:   FUNC GLOBAL DEFAULT 14 _ZN7android10frameworks13
175:   FUNC GLOBAL DEFAULT 14 _ZN7android10frameworks13
176:   OBJECT GLOBAL DEFAULT 18 _ZTTN7android10frameworks
177:   OBJECT GLOBAL DEFAULT 18 _ZTTN7android10frameworks
178:   FUNC GLOBAL DEFAULT 14 _ZN7android10frameworks13
179:   FUNC GLOBAL DEFAULT 14 _ZN7android10frameworks13
180:   FUNC GLOBAL DEFAULT 14 _ZN7android10frameworks13
181:   FUNC GLOBAL DEFAULT 14 _ZN7android10frameworks13
182:   FUNC WEAK DEFAULT 14 _ZN7android8hardware7deta
183:   FUNC GLOBAL DEFAULT 14 _ZThn32_N7android10framew
184:   FUNC GLOBAL DEFAULT 14 _ZN7android10frameworks13
185:   FUNC GLOBAL DEFAULT 14 _ZN7android10frameworks13
186:   OBJECT GLOBAL DEFAULT 18 _ZTCN7android10frameworks
187:   FUNC GLOBAL DEFAULT 14 _ZN7android10frameworks13
188:   FUNC WEAK DEFAULT 14 _ZNSt3__16vectorIPvNS_9al
189:   FUNC GLOBAL DEFAULT 14 _ZN7android10frameworks13
190:   FUNC GLOBAL DEFAULT 14 _ZN7android10frameworks13
191:   FUNC GLOBAL DEFAULT 14 _ZN7android10frameworks13
192:   FUNC WEAK DEFAULT 14 _ZN7android8hardware7deta
193:   FUNC GLOBAL DEFAULT 14 _ZN7android10frameworks13
194:   FUNC WEAK DEFAULT 14 _ZN7android8hardware7deta
195:   FUNC GLOBAL DEFAULT 14 _ZN7android10frameworks13
196:   FUNC GLOBAL DEFAULT 14 _ZN7android10frameworks13
197:   FUNC GLOBAL DEFAULT 14 _ZN7android10frameworks13
198:   FUNC GLOBAL DEFAULT 14 _ZN7android10frameworks13
199:   FUNC GLOBAL DEFAULT 14 _ZN7android10frameworks13
200:   OBJECT GLOBAL DEFAULT 18 _ZTCN7android10frameworks
201:   FUNC GLOBAL DEFAULT 14 _ZN7android10frameworks13
202:   OBJECT GLOBAL DEFAULT 18 _ZTCN7android10frameworks
203:   FUNC WEAK DEFAULT 14 _ZN7android8hardware7deta
204:   FUNC GLOBAL DEFAULT 14 _ZN7android10frameworks13
205:   FUNC GLOBAL DEFAULT 14 _ZN7android10frameworks13
206:   OBJECT GLOBAL DEFAULT 18 _ZTVN7android10frameworks
207:   FUNC GLOBAL DEFAULT 14 _ZN7android10frameworks13
208:   FUNC GLOBAL DEFAULT 14 _ZN7android10frameworks13
209:   OBJECT GLOBAL DEFAULT 18 _ZTVN7android10frameworks
210:   FUNC GLOBAL DEFAULT 14 _ZN7android10frameworks13
211:   FUNC GLOBAL DEFAULT 14 _ZN7android10frameworks13
212:   FUNC GLOBAL DEFAULT 14 _ZN7android10frameworks13
213:   FUNC GLOBAL DEFAULT 14 _ZN7android10frameworks13
214:   FUNC GLOBAL DEFAULT 14 _ZN7android10frameworks13
215:   OBJECT GLOBAL DEFAULT 18 _ZTCN7android10frameworks
216:   OBJECT GLOBAL DEFAULT 18 _ZTCN7android10frameworks
217:   FUNC GLOBAL DEFAULT 14 _ZN7android10frameworks13
218:   FUNC GLOBAL DEFAULT 14 _ZN7android10frameworks13
219:   FUNC GLOBAL DEFAULT 14 _ZN7android10frameworks13
220:   OBJECT WEAK DEFAULT 18 _ZTVN7android10frameworks
221:   OBJECT GLOBAL DEFAULT 18 _ZTVN7android10frameworks
222:   OBJECT GLOBAL DEFAULT 18 _ZTTN7android10frameworks
223:   FUNC WEAK DEFAULT 14 _ZNSt3__113__tree_removeI
224:   FUNC GLOBAL DEFAULT 14 _ZTv0_n24_N7android10fram
225:   FUNC GLOBAL DEFAULT 14 _ZThn32_N7android10framew
226:   OBJECT GLOBAL DEFAULT 18 _ZTCN7android10frameworks
227:   OBJECT GLOBAL DEFAULT 18 _ZTCN7android10frameworks
228:   FUNC GLOBAL DEFAULT 14 _ZN7android10frameworks13
229:   FUNC GLOBAL DEFAULT 14 _ZN7android10frameworks13
230:   FUNC GLOBAL DEFAULT 14 _ZN7android10frameworks13
231:   FUNC GLOBAL DEFAULT 14 _ZN7android10frameworks13
232:   OBJECT GLOBAL DEFAULT 18 _ZTTN7android10frameworks
233:   OBJECT GLOBAL DEFAULT 18 _ZTTN7android10frameworks
234:   FUNC GLOBAL DEFAULT 14 _ZN7android10frameworks13
235:   FUNC WEAK DEFAULT 14 _ZN7android8hardware7deta
236:   FUNC GLOBAL DEFAULT 14 _ZN7android10frameworks13
237:   OBJECT WEAK DEFAULT 18 _ZTVN7android10frameworks
238:   FUNC GLOBAL DEFAULT 14 _ZN7android10frameworks13
239:   FUNC GLOBAL DEFAULT 14 _ZN7android10frameworks13
240:   FUNC GLOBAL DEFAULT 14 _ZN7android10frameworks13
241:   FUNC GLOBAL DEFAULT 14 _ZN7android10frameworks13
242:   FUNC GLOBAL DEFAULT 14 _ZN7android10frameworks13
243:   FUNC GLOBAL DEFAULT 14 _ZN7android10frameworks13
244:   FUNC GLOBAL DEFAULT 14 _ZN7android10frameworks13
245:   OBJECT GLOBAL DEFAULT 18 _ZTCN7android10frameworks
246:   FUNC GLOBAL DEFAULT 14 _ZN7android10frameworks13
247:   FUNC GLOBAL DEFAULT 14 _ZN7android10frameworks13
248:   FUNC GLOBAL DEFAULT 14 _ZN7android10frameworks13
249:   OBJECT GLOBAL DEFAULT 18 _ZTVN7android10frameworks
250:   FUNC GLOBAL DEFAULT 14 _ZN7android10frameworks13
251:   FUNC GLOBAL DEFAULT 14 _ZN7android10frameworks13
252:   FUNC GLOBAL DEFAULT 14 _ZN7android10frameworks13
253:   FUNC GLOBAL DEFAULT 14 _ZN7android10frameworks13
254:   FUNC GLOBAL DEFAULT 14 _ZN7android10frameworks13
255:   FUNC GLOBAL DEFAULT 14 _ZN7android10frameworks13
256:   FUNC GLOBAL DEFAULT 14 _ZN7android10frameworks13
257:   OBJECT GLOBAL DEFAULT 18 _ZTCN7android10frameworks
258:   FUNC GLOBAL DEFAULT 14 _ZN7android10frameworks13
259:   FUNC GLOBAL DEFAULT 14 _ZN7android10frameworks13
260:   OBJECT GLOBAL DEFAULT 18 _ZTTN7android10frameworks
261:   FUNC GLOBAL DEFAULT 14 _ZN7android10frameworks13
262:   OBJECT GLOBAL DEFAULT 18 _ZTCN7android10frameworks
263:   FUNC GLOBAL DEFAULT 14 _ZN7android10frameworks13
264:   FUNC GLOBAL DEFAULT 14 _ZThn32_N7android10framew
265:   FUNC GLOBAL DEFAULT 14 _ZN7android10frameworks13
266:   FUNC WEAK DEFAULT 14 _ZNSt3__16__treeINS_12__v
267:   FUNC WEAK DEFAULT 14 _ZNSt3__16__treeINS_12__v
268:   OBJECT GLOBAL DEFAULT 18 _ZTCN7android10frameworks
269:   FUNC GLOBAL DEFAULT 14 _ZN7android10frameworks13
270:   FUNC WEAK DEFAULT 14 _ZNSt3__16__treeINS_12__v
271:   OBJECT GLOBAL DEFAULT 18 _ZTCN7android10frameworks
272:   FUNC GLOBAL DEFAULT 14 _ZN7android10frameworks13
273:   OBJECT WEAK DEFAULT 18 _ZTVN7android10frameworks
274:   FUNC GLOBAL DEFAULT 14 _ZN7android10frameworks13
275:   OBJECT GLOBAL DEFAULT 16 _ZN7android10frameworks13
276:   FUNC GLOBAL DEFAULT 14 _ZN7android10frameworks13
277:   FUNC GLOBAL DEFAULT 14 _ZN7android10frameworks13
278:   FUNC GLOBAL DEFAULT 14 _ZN7android10frameworks13
279:   FUNC GLOBAL DEFAULT 14 _ZN7android10frameworks13
280:   FUNC GLOBAL DEFAULT 14 _ZN7android10frameworks13
281:   FUNC GLOBAL DEFAULT 14 _ZN7android10frameworks13
282:   OBJECT GLOBAL DEFAULT 18 _ZTCN7android10frameworks
283:   OBJECT GLOBAL DEFAULT 18 _ZTCN7android10frameworks
284:   FUNC WEAK DEFAULT 14 _ZNSt3__127__tree_balance
285:   FUNC GLOBAL DEFAULT 14 _ZN7android10frameworks13
286:   OBJECT GLOBAL DEFAULT 18 _ZTCN7android10frameworks
287:   FUNC GLOBAL DEFAULT 14 _ZN7android10frameworks13
288:   FUNC GLOBAL DEFAULT 14 _ZN7android10frameworks13
289:   FUNC GLOBAL DEFAULT 14 _ZN7android10frameworks13
290:   FUNC GLOBAL DEFAULT 14 _ZN7android10frameworks13
291:   FUNC GLOBAL DEFAULT 14 _ZN7android10frameworks13
292:   FUNC GLOBAL DEFAULT 14 _ZN7android10frameworks13
293:   FUNC GLOBAL DEFAULT 14 _ZN7android10frameworks13
294:   FUNC GLOBAL DEFAULT 14 _ZTv0_n24_N7android10fram
295:   FUNC GLOBAL DEFAULT 14 _ZN7android10frameworks13
296:   FUNC GLOBAL DEFAULT 14 _ZN7android10frameworks13
297:   OBJECT GLOBAL DEFAULT 18 _ZTCN7android10frameworks
298:   FUNC GLOBAL DEFAULT 14 _ZThn32_N7android10framew
299:   FUNC GLOBAL DEFAULT 14 _ZN7android10frameworks13
300:   FUNC GLOBAL DEFAULT 14 _ZN7android10frameworks13
301:   FUNC GLOBAL DEFAULT 14 _ZN7android10frameworks13
302:   FUNC GLOBAL DEFAULT 14 _ZN7android10frameworks13
303:   FUNC GLOBAL DEFAULT 14 _ZN7android10frameworks13
304:   FUNC GLOBAL DEFAULT 14 _ZN7android10frameworks13
305:   FUNC GLOBAL DEFAULT 14 _ZTv0_n24_N7android10fram
306:   FUNC GLOBAL DEFAULT 14 _ZN7android10frameworks13
307:   FUNC GLOBAL DEFAULT 14 _ZThn32_N7android10framew
308:   FUNC GLOBAL DEFAULT 14 _ZN7android10frameworks13
309:   FUNC GLOBAL DEFAULT 14 _ZN7android10frameworks13
310:   FUNC GLOBAL DEFAULT 14 _ZN7android10frameworks13
311:   FUNC GLOBAL DEFAULT 14 _ZTv0_n24_N7android10fram
312:   FUNC WEAK DEFAULT 14 _ZN7android8hardware7deta
313:   OBJECT GLOBAL DEFAULT 18 _ZTCN7android10frameworks
314:   FUNC GLOBAL DEFAULT 14 _ZN7android10frameworks13
315:   FUNC GLOBAL DEFAULT 14 _ZN7android10frameworks13
316:   FUNC GLOBAL DEFAULT 14 _ZN7android10frameworks13
317:   FUNC GLOBAL DEFAULT 14 _ZN7android10frameworks13
318:   OBJECT GLOBAL DEFAULT 16 _ZN7android10frameworks13
319:   FUNC GLOBAL DEFAULT 14 _ZN7android10frameworks13
320:   FUNC GLOBAL DEFAULT 14 _ZN7android10frameworks13
321:   FUNC GLOBAL DEFAULT 14 _ZN7android10frameworks13
322:   FUNC GLOBAL DEFAULT 14 _ZN7android10frameworks13
323:   FUNC GLOBAL DEFAULT 14 _ZN7android10frameworks13
324:   FUNC GLOBAL DEFAULT 14 _ZN7android10frameworks13
325:   FUNC GLOBAL DEFAULT 14 _ZN7android10frameworks13
326:   FUNC GLOBAL DEFAULT 14 _ZN7android10frameworks13
327:   OBJECT GLOBAL DEFAULT 18 _ZTCN7android10frameworks
328:   OBJECT GLOBAL DEFAULT 18 _ZTTN7android10frameworks
329:   FUNC GLOBAL DEFAULT 14 _ZN7android10frameworks13
330:   FUNC GLOBAL DEFAULT 14 _ZN7android10frameworks13
331:   FUNC GLOBAL DEFAULT 14 _ZN7android10frameworks13
332:   FUNC GLOBAL DEFAULT 14 _ZN7android10frameworks13
333:   FUNC WEAK DEFAULT 14 _ZNSt3__16__treeINS_12__v
334:   FUNC WEAK DEFAULT 14 _ZNSt3__16vectorINS_8func
335:   OBJECT GLOBAL DEFAULT 18 _ZTCN7android10frameworks
336:   FUNC WEAK DEFAULT 14 _ZN7android8hardware7deta
337:   OBJECT GLOBAL DEFAULT 18 _ZTTN7android10frameworks
338:   FUNC GLOBAL DEFAULT 14 _ZN7android10frameworks13
339:   FUNC GLOBAL DEFAULT 14 _ZN7android10frameworks13
340:   FUNC GLOBAL DEFAULT 14 _ZN7android10frameworks13
341:   OBJECT GLOBAL DEFAULT 18 _ZTVN7android10frameworks
342:   FUNC GLOBAL DEFAULT 14 _ZN7android10frameworks13
343:   FUNC GLOBAL DEFAULT 14 _ZN7android10frameworks13
344:   FUNC GLOBAL DEFAULT 14 _ZN7android10frameworks13
345:   FUNC GLOBAL DEFAULT 14 _ZN7android10frameworks13
346:   OBJECT GLOBAL DEFAULT 18 _ZTCN7android10frameworks
347:   FUNC GLOBAL DEFAULT 14 _ZTv0_n24_N7android10fram
348:   FUNC GLOBAL DEFAULT 14 _ZN7android10frameworks13
349:   OBJECT GLOBAL DEFAULT 18 _ZTCN7android10frameworks
350:   OBJECT GLOBAL DEFAULT 18 _ZTTN7android10frameworks
351:   FUNC WEAK DEFAULT 14 _ZN7android8hardware7deta
352:   FUNC GLOBAL DEFAULT 14 _ZN7android10frameworks13
353:   FUNC GLOBAL DEFAULT 14 _ZN7android10frameworks13
354:   OBJECT GLOBAL DEFAULT 18 _ZTCN7android10frameworks
355:   OBJECT GLOBAL DEFAULT 18 _ZTCN7android10frameworks
356:   FUNC GLOBAL DEFAULT 14 _ZN7android10frameworks13
357:   OBJECT GLOBAL DEFAULT 18 _ZTVN7android10frameworks
358:   FUNC GLOBAL DEFAULT 14 _ZN7android10frameworks13
359:   FUNC GLOBAL DEFAULT 14 _ZN7android10frameworks13
360:   FUNC GLOBAL DEFAULT 14 _ZN7android10frameworks13
361:   FUNC GLOBAL DEFAULT 14 _ZN7android10frameworks13
362:   FUNC GLOBAL DEFAULT 14 _ZN7android10frameworks13
363:   FUNC GLOBAL DEFAULT 14 _ZN7android10frameworks13
364:   FUNC GLOBAL DEFAULT 14 _ZN7android10frameworks13
365:   FUNC GLOBAL DEFAULT 14 _ZN7android10frameworks13
366:   FUNC GLOBAL DEFAULT 14 _ZN7android10frameworks13
367:   FUNC GLOBAL DEFAULT 14 _ZN7android10frameworks13
368:   FUNC WEAK DEFAULT 14 _ZN7android8hardware7deta
369:   FUNC GLOBAL DEFAULT 14 _ZN7android10frameworks13
370:   FUNC GLOBAL DEFAULT 14 _ZN7android10frameworks13
371:   OBJECT GLOBAL DEFAULT 18 _ZTTN7android10frameworks
372:   OBJECT GLOBAL DEFAULT 18 _ZTVN7android10frameworks
373:   OBJECT GLOBAL DEFAULT 18 _ZTCN7android10frameworks
374:   FUNC GLOBAL DEFAULT 14 _ZN7android10frameworks13
375:   FUNC GLOBAL DEFAULT 14 _ZN7android10frameworks13
376:   FUNC GLOBAL DEFAULT 14 _ZN7android10frameworks13
377:   OBJECT GLOBAL DEFAULT 18 _ZTCN7android10frameworks
378:   FUNC GLOBAL DEFAULT 14 _ZN7android10frameworks13
379:   FUNC GLOBAL DEFAULT 14 _ZN7android10frameworks13
380:   FUNC GLOBAL DEFAULT 14 _ZN7android10frameworks13
381:   FUNC GLOBAL DEFAULT 14 _ZThn32_N7android10framew
382:   OBJECT GLOBAL DEFAULT 18 _ZTCN7android10frameworks
383:   FUNC GLOBAL DEFAULT 14 _ZN7android10frameworks13
384:   FUNC GLOBAL DEFAULT 14 _ZN7android10frameworks13
385:   OBJECT GLOBAL DEFAULT 16 _ZN7android10frameworks13
386:   OBJECT GLOBAL DEFAULT 18 _ZTVN7android10frameworks
387:   FUNC GLOBAL DEFAULT 14 _ZN7android10frameworks13
388:   OBJECT GLOBAL DEFAULT 18 _ZTCN7android10frameworks
389:   FUNC GLOBAL DEFAULT 14 _ZN7android10frameworks13
390:   FUNC GLOBAL DEFAULT 14 _ZTv0_n24_N7android10fram
391:   FUNC GLOBAL DEFAULT 14 _ZN7android10frameworks13
392:   FUNC GLOBAL DEFAULT 14 _ZN7android10frameworks13
393:   FUNC GLOBAL DEFAULT 14 _ZThn32_N7android10framew
394:   FUNC GLOBAL DEFAULT 14 _ZN7android10frameworks13
395:   FUNC GLOBAL DEFAULT 14 _ZN7android10frameworks13
396:   FUNC GLOBAL DEFAULT 14 _ZN7android10frameworks13
397:   FUNC GLOBAL DEFAULT 14 _ZN7android10frameworks13
398:   FUNC GLOBAL DEFAULT 14 _ZN7android10frameworks13
399:   OBJECT GLOBAL DEFAULT 18 _ZTTN7android10frameworks
400:   FUNC GLOBAL DEFAULT 14 _ZN7android10frameworks13
401:   FUNC GLOBAL DEFAULT 14 _ZN7android10frameworks13
402:   FUNC GLOBAL DEFAULT 14 _ZN7android10frameworks13
403:   FUNC GLOBAL DEFAULT 14 _ZN7android10frameworks13
404:   FUNC GLOBAL DEFAULT 14 _ZN7android10frameworks13
405:   FUNC WEAK DEFAULT 14 _ZNSt3__16__treeINS_12__v
406:   OBJECT WEAK DEFAULT 18 _ZTCN7android10frameworks
407:   FUNC GLOBAL DEFAULT 14 _ZN7android10frameworks13
408:   FUNC GLOBAL DEFAULT 14 _ZN7android10frameworks13
409:   FUNC GLOBAL DEFAULT 14 _ZN7android10frameworks13
410:   FUNC GLOBAL DEFAULT 14 _ZTv0_n24_N7android10fram
411:   OBJECT GLOBAL DEFAULT 18 _ZTVN7android10frameworks
412:   OBJECT GLOBAL DEFAULT 18 _ZTTN7android10frameworks
413:   FUNC GLOBAL DEFAULT 14 _ZN7android10frameworks13
414:   FUNC GLOBAL DEFAULT 14 _ZN7android10frameworks13
415:   FUNC GLOBAL DEFAULT 14 _ZN7android10frameworks13
416:   OBJECT GLOBAL DEFAULT 18 _ZTVN7android10frameworks
417:   FUNC GLOBAL DEFAULT 14 _ZN7android10frameworks13
418:   FUNC GLOBAL DEFAULT 14 _ZN7android10frameworks13
419:   FUNC GLOBAL DEFAULT 14 _ZN7android10frameworks13
420:   FUNC GLOBAL DEFAULT 14 _ZN7android10frameworks13
421:   FUNC WEAK DEFAULT 14 _ZN7android8hardware10fro
422:   FUNC GLOBAL DEFAULT 14 _ZN7android10frameworks13
423:   OBJECT GLOBAL DEFAULT 18 _ZTCN7android10frameworks
424:   OBJECT WEAK DEFAULT 18 _ZTCN7android10frameworks
425:   FUNC GLOBAL DEFAULT 14 _ZN7android10frameworks13
426:   FUNC GLOBAL DEFAULT 14 _ZN7android10frameworks13
427:   FUNC GLOBAL DEFAULT 14 _ZN7android10frameworks13
428:   FUNC GLOBAL DEFAULT 14 _ZN7android10frameworks13
429:   FUNC GLOBAL DEFAULT 14 _ZN7android10frameworks13
430:   FUNC GLOBAL DEFAULT 14 _ZN7android10frameworks13
431:   FUNC GLOBAL DEFAULT 14 _ZN7android10frameworks13
432:   OBJECT WEAK DEFAULT 18 _ZTVN7android10frameworks
433:   FUNC GLOBAL DEFAULT 14 _ZN7android10frameworks13
434:   OBJECT GLOBAL DEFAULT 16 _ZN7android10frameworks13
435:   FUNC GLOBAL DEFAULT 14 _ZN7android10frameworks13
436:   FUNC WEAK DEFAULT 14 _ZN7android8hardware7deta
437:   FUNC GLOBAL DEFAULT 14 _ZN7android10frameworks13
438:   FUNC GLOBAL DEFAULT 14 _ZTv0_n24_N7android10fram
439:   FUNC GLOBAL DEFAULT 14 _ZN7android10frameworks13
440:   OBJECT GLOBAL DEFAULT 18 _ZTCN7android10frameworks
441:   FUNC GLOBAL DEFAULT 14 _ZN7android10frameworks13
442:   FUNC WEAK DEFAULT 14 _ZNSt3__16__treeINS_12__v
443:   FUNC WEAK DEFAULT 14 _ZNSt3__16vectorIN7androi
444:   OBJECT GLOBAL DEFAULT 18 _ZTCN7android10frameworks
445:   OBJECT GLOBAL DEFAULT 18 _ZTVN7android10frameworks
446:   OBJECT GLOBAL DEFAULT 18 _ZTCN7android10frameworks
447:   OBJECT GLOBAL DEFAULT 18 _ZTCN7android10frameworks
448:   FUNC GLOBAL DEFAULT 14 _ZN7android10frameworks13
449:   FUNC WEAK DEFAULT 14 _ZN7android8hardware10fro
450:   OBJECT GLOBAL DEFAULT 18 _ZTCN7android10frameworks
451:   FUNC GLOBAL DEFAULT 14 _ZN7android10frameworks13
452:   FUNC WEAK DEFAULT 14 _ZN7android8hardware7deta
453:   FUNC GLOBAL DEFAULT 14 _ZN7android10frameworks13
454:   FUNC GLOBAL DEFAULT 14 _ZN7android10frameworks13
455:   FUNC GLOBAL DEFAULT 14 _ZN7android10frameworks13
456:   OBJECT WEAK DEFAULT 18 _ZTCN7android10frameworks
457:   OBJECT GLOBAL DEFAULT 18 _ZTVN7android10frameworks
458:   FUNC GLOBAL DEFAULT 14 _ZThn32_N7android10framew
459:   FUNC GLOBAL DEFAULT 14 _ZN7android10frameworks13
460:   FUNC GLOBAL DEFAULT 14 _ZN7android10frameworks13
461:   FUNC GLOBAL DEFAULT 14 _ZN7android10frameworks13
462:   FUNC GLOBAL DEFAULT 14 _ZN7android10frameworks13
463:   OBJECT GLOBAL DEFAULT 18 _ZTCN7android10frameworks
464:   OBJECT GLOBAL DEFAULT 18 _ZTCN7android10frameworks
