 0x0000000e (SONAME)                     Library soname: [android.hardware.gnss.visibility_control@1.0.so]
  
Symbol   contains 317 entries:
Num:   Type Bind Vis Ndx Name
0:   NOTYPE LOCAL DEFAULT UND
1:   FUNC GLOBAL DEFAULT UND __cxa_finalize@LIBC (2)
2:   FUNC GLOBAL DEFAULT UND _ZN7android14sp_report_ra
3:   FUNC GLOBAL DEFAULT UND _ZN7android21report_syspr
4:   OBJECT GLOBAL DEFAULT UND _ZN7android4hidl4base4V1_
5:   FUNC GLOBAL DEFAULT UND _ZN7android4hidl4base4V1_
6:   FUNC GLOBAL DEFAULT UND _ZN7android4hidl4base4V1_
7:   FUNC GLOBAL DEFAULT UND _ZN7android4hidl4base4V1_
8:   FUNC GLOBAL DEFAULT UND _ZN7android4hidl4base4V1_
9:   FUNC GLOBAL DEFAULT UND _ZN7android4hidl4base4V1_
10:   FUNC GLOBAL DEFAULT UND _ZN7android4hidl4base4V1_
11:   FUNC GLOBAL DEFAULT UND _ZN7android4hidl4base4V1_
12:   FUNC GLOBAL DEFAULT UND _ZN7android4hidl4base4V1_
13:   FUNC GLOBAL DEFAULT UND _ZN7android4hidl4base4V1_
14:   FUNC GLOBAL DEFAULT UND _ZN7android4hidl4base4V1_
15:   FUNC GLOBAL DEFAULT UND _ZN7android4hidl4base4V1_
16:   FUNC GLOBAL DEFAULT UND _ZN7android4hidl4base4V1_
17:   FUNC GLOBAL DEFAULT UND _ZN7android4hidl4base4V1_
18:   FUNC GLOBAL DEFAULT UND _ZN7android4hidl4base4V1_
19:   FUNC GLOBAL DEFAULT UND _ZN7android4hidl4base4V1_
20:   FUNC GLOBAL DEFAULT UND _ZN7android4hidl4base4V1_
21:   FUNC GLOBAL DEFAULT UND _ZN7android4hidl4base4V1_
22:   FUNC GLOBAL DEFAULT UND _ZN7android4hidl4base4V1_
23:   FUNC GLOBAL DEFAULT UND _ZN7android4hidl4base4V1_
24:   FUNC GLOBAL DEFAULT UND _ZN7android4hidl4base4V1_
25:   FUNC GLOBAL DEFAULT UND _ZN7android4hidl4base4V1_
26:   FUNC GLOBAL DEFAULT UND _ZN7android4hidl4base4V1_
27:   FUNC GLOBAL DEFAULT UND _ZN7android4hidl4base4V1_
28:   FUNC GLOBAL DEFAULT UND _ZN7android7RefBase10onFi
29:   FUNC GLOBAL DEFAULT UND _ZN7android7RefBase12weak
30:   FUNC GLOBAL DEFAULT UND _ZN7android7RefBase13onLa
31:   FUNC GLOBAL DEFAULT UND _ZN7android7RefBase15onLa
32:   FUNC GLOBAL DEFAULT UND _ZN7android7RefBase20onIn
33:   FUNC GLOBAL DEFAULT UND _ZN7android7RefBaseC2Ev
34:   FUNC GLOBAL DEFAULT UND _ZN7android7RefBaseD2Ev
35:   FUNC GLOBAL DEFAULT UND _ZN7android8hardware10IIn
36:   FUNC GLOBAL DEFAULT UND _ZN7android8hardware10IIn
37:   FUNC GLOBAL DEFAULT UND _ZN7android8hardware10IIn
38:   FUNC GLOBAL DEFAULT UND _ZN7android8hardware10IIn
39:   FUNC GLOBAL DEFAULT UND _ZN7android8hardware10IIn
40:   FUNC GLOBAL DEFAULT UND _ZN7android8hardware11BpH
41:   FUNC GLOBAL DEFAULT UND _ZN7android8hardware11BpH
42:   FUNC GLOBAL DEFAULT UND _ZN7android8hardware11BpH
43:   FUNC GLOBAL DEFAULT UND _ZN7android8hardware11BpH
44:   FUNC GLOBAL DEFAULT UND _ZN7android8hardware11BpH
45:   FUNC GLOBAL DEFAULT UND _ZN7android8hardware11BpH
46:   FUNC GLOBAL DEFAULT UND _ZN7android8hardware11BpH
47:   FUNC GLOBAL DEFAULT UND _ZN7android8hardware11hid
48:   FUNC GLOBAL DEFAULT UND _ZN7android8hardware11hid
49:   FUNC GLOBAL DEFAULT UND _ZN7android8hardware11hid
50:   FUNC GLOBAL DEFAULT UND _ZN7android8hardware11hid
51:   FUNC GLOBAL DEFAULT UND _ZN7android8hardware11hid
52:   FUNC GLOBAL DEFAULT UND _ZN7android8hardware12Pro
53:   FUNC GLOBAL DEFAULT UND _ZN7android8hardware12Pro
54:   FUNC GLOBAL DEFAULT UND _ZN7android8hardware13wri
55:   FUNC GLOBAL DEFAULT UND _ZN7android8hardware14rea
56:   FUNC GLOBAL DEFAULT UND _ZN7android8hardware21def
57:   FUNC GLOBAL DEFAULT UND _ZN7android8hardware21wri
58:   FUNC GLOBAL DEFAULT UND _ZN7android8hardware22rea
59:   FUNC GLOBAL DEFAULT UND _ZN7android8hardware23get
60:   FUNC GLOBAL DEFAULT UND _ZN7android8hardware27hid
61:   FUNC GLOBAL DEFAULT UND _ZN7android8hardware27hid
62:   FUNC GLOBAL DEFAULT UND _ZN7android8hardware6Parc
63:   FUNC GLOBAL DEFAULT UND _ZN7android8hardware6Parc
64:   FUNC GLOBAL DEFAULT UND _ZN7android8hardware6Parc
65:   FUNC GLOBAL DEFAULT UND _ZN7android8hardware6Parc
66:   FUNC GLOBAL DEFAULT UND _ZN7android8hardware6Parc
67:   FUNC GLOBAL DEFAULT UND _ZN7android8hardware6Parc
68:   FUNC GLOBAL DEFAULT UND _ZN7android8hardware6Parc
69:   FUNC GLOBAL DEFAULT UND _ZN7android8hardware6Stat
70:   FUNC GLOBAL DEFAULT UND _ZN7android8hardware6Stat
71:   FUNC GLOBAL DEFAULT UND _ZN7android8hardware6Stat
72:   FUNC GLOBAL DEFAULT UND _ZN7android8hardware6Stat
73:   FUNC GLOBAL DEFAULT UND _ZN7android8hardware7IBin
74:   FUNC GLOBAL DEFAULT UND _ZN7android8hardware7IBin
75:   FUNC GLOBAL DEFAULT UND _ZN7android8hardware7IBin
76:   FUNC GLOBAL DEFAULT UND _ZN7android8hardware7IBin
77:   FUNC GLOBAL DEFAULT UND _ZN7android8hardware7deta
78:   FUNC GLOBAL DEFAULT UND _ZN7android8hardware7deta
79:   FUNC GLOBAL DEFAULT UND _ZN7android8hardware7deta
80:   FUNC GLOBAL DEFAULT UND _ZN7android8hardware7deta
81:   FUNC GLOBAL DEFAULT UND _ZN7android8hardware7deta
82:   FUNC GLOBAL DEFAULT UND _ZN7android8hardware7deta
83:   FUNC GLOBAL DEFAULT UND _ZN7android8hardware7deta
84:   OBJECT GLOBAL DEFAULT UND _ZN7android8hardware7deta
85:   OBJECT GLOBAL DEFAULT UND _ZN7android8hardware7deta
86:   FUNC GLOBAL DEFAULT UND _ZN7android8hardware7deta
87:   FUNC GLOBAL DEFAULT UND _ZN7android8hardware7deta
88:   FUNC GLOBAL DEFAULT UND _ZN7android8hardware7deta
89:   FUNC GLOBAL DEFAULT UND _ZN7android8hardware7deta
90:   FUNC GLOBAL DEFAULT UND _ZN7android8hardware7deta
91:   FUNC GLOBAL DEFAULT UND _ZN7android8hardware7deta
92:   FUNC GLOBAL DEFAULT UND _ZN7android8hardware7deta
93:   FUNC GLOBAL DEFAULT UND _ZN7android8hardware7deta
94:   FUNC GLOBAL DEFAULT UND _ZN7android8hardware7deta
95:   FUNC GLOBAL DEFAULT UND _ZN7android8hardware7deta
96:   OBJECT GLOBAL DEFAULT UND _ZN7android8hardware7deta
97:   FUNC GLOBAL DEFAULT UND _ZN7android8hardware9BHwB
98:   FUNC GLOBAL DEFAULT UND _ZN7android8hardware9BHwB
99:   FUNC GLOBAL DEFAULT UND _ZN7android8hardware9BHwB
100:   FUNC GLOBAL DEFAULT UND _ZN7android8hardware9BHwB
101:   FUNC GLOBAL DEFAULT UND _ZN7android8hardware9BHwB
102:   FUNC GLOBAL DEFAULT UND _ZN7android8hardware9BHwB
103:   FUNC GLOBAL DEFAULT UND _ZN7android8hardware9BHwB
104:   FUNC GLOBAL DEFAULT UND _ZN7android8hardware9BHwB
105:   FUNC GLOBAL DEFAULT UND _ZN7android8hardware9BHwB
106:   FUNC GLOBAL DEFAULT UND _ZN7android8hardware9BHwB
107:   FUNC GLOBAL DEFAULT UND _ZNK7android7RefBase10cre
108:   FUNC GLOBAL DEFAULT UND _ZNK7android7RefBase11get
109:   FUNC GLOBAL DEFAULT UND _ZNK7android7RefBase9decS
110:   FUNC GLOBAL DEFAULT UND _ZNK7android7RefBase9incS
111:   FUNC GLOBAL DEFAULT UND _ZNK7android8hardware6Par
112:   FUNC GLOBAL DEFAULT UND _ZNK7android8hardware6Par
113:   FUNC GLOBAL DEFAULT UND _ZNK7android8hardware6Par
114:   FUNC GLOBAL DEFAULT UND _ZNK7android8hardware6Par
115:   FUNC GLOBAL DEFAULT UND _ZNK7android8hardware6Par
116:   FUNC GLOBAL DEFAULT UND _ZNK7android8hardware7IBi
117:   FUNC GLOBAL DEFAULT UND _ZNK7android8hardware7det
118:   FUNC GLOBAL DEFAULT UND _ZNK7android8hardware9BHw
119:   FUNC GLOBAL DEFAULT UND _ZNKSt3__120__vector_base
120:   FUNC GLOBAL DEFAULT UND _ZNKSt3__121__basic_strin
121:   FUNC GLOBAL DEFAULT UND _ZNSt3__112basic_stringIc
122:   FUNC GLOBAL DEFAULT UND _ZNSt3__15mutex4lockEv
123:   FUNC GLOBAL DEFAULT UND _ZNSt3__15mutex6unlockEv
124:   FUNC GLOBAL DEFAULT UND _ZNSt3__15mutexD1Ev
125:   FUNC GLOBAL DEFAULT UND _ZTv0_n12_N7android4hidl4
126:   FUNC GLOBAL DEFAULT UND _ZTv0_n12_N7android4hidl4
127:   FUNC GLOBAL DEFAULT UND _ZTv0_n12_N7android8hardw
128:   FUNC GLOBAL DEFAULT UND _ZTv0_n12_N7android8hardw
129:   FUNC GLOBAL DEFAULT UND _ZTv0_n12_N7android8hardw
130:   FUNC GLOBAL DEFAULT UND _ZTv0_n12_N7android8hardw
131:   FUNC GLOBAL DEFAULT UND _ZTv0_n12_N7android8hardw
132:   FUNC GLOBAL DEFAULT UND _ZTv0_n12_N7android8hardw
133:   FUNC GLOBAL DEFAULT UND _ZTv0_n12_N7android8hardw
134:   FUNC GLOBAL DEFAULT UND _ZTv0_n12_N7android8hardw
135:   FUNC GLOBAL DEFAULT UND _ZTv0_n16_N7android8hardw
136:   FUNC GLOBAL DEFAULT UND _ZTv0_n20_N7android8hardw
137:   FUNC GLOBAL DEFAULT UND _ZTv0_n24_N7android8hardw
138:   FUNC GLOBAL DEFAULT UND _ZdaPv
139:   FUNC GLOBAL DEFAULT UND _ZdlPv
140:   FUNC GLOBAL DEFAULT UND _Znaj
141:   FUNC GLOBAL DEFAULT UND _Znwj
142:   FUNC GLOBAL DEFAULT UND __cxa_pure_virtual
143:   FUNC GLOBAL DEFAULT UND __stack_chk_fail@LIBC (2)
144:   OBJECT GLOBAL DEFAULT UND __stack_chk_guard@LIBC (2)
145:   FUNC GLOBAL DEFAULT UND abort@LIBC (2)
146:   FUNC GLOBAL DEFAULT UND atrace_begin_body
147:   OBJECT GLOBAL DEFAULT UND atrace_enabled_tags
148:   FUNC GLOBAL DEFAULT UND atrace_end_body
149:   OBJECT GLOBAL DEFAULT UND atrace_is_ready
150:   FUNC GLOBAL DEFAULT UND atrace_setup
151:   FUNC GLOBAL DEFAULT UND memcmp@LIBC (2)
152:   FUNC GLOBAL DEFAULT UND strlen@LIBC (2)
153:   FUNC GLOBAL DEFAULT UND memcpy@LIBC (2)
154:   FUNC GLOBAL DEFAULT UND memset@LIBC (2)
155:   FUNC GLOBAL DEFAULT 14 _ZN7android8hardware4gnss
156:   FUNC GLOBAL DEFAULT 14 _ZN7android8hardware4gnss
157:   FUNC GLOBAL DEFAULT 14 _ZThn20_N7android8hardwar
158:   FUNC GLOBAL DEFAULT 14 _ZN7android8hardware4gnss
159:   FUNC GLOBAL DEFAULT 14 _ZN7android8hardware4gnss
160:   FUNC GLOBAL DEFAULT 14 _ZN7android8hardware4gnss
161:   FUNC WEAK DEFAULT 14 _ZN7android8hardware7deta
162:   FUNC GLOBAL DEFAULT 14 _ZN7android8hardware4gnss
163:   FUNC GLOBAL DEFAULT 14 _ZN7android8hardware4gnss
164:   FUNC GLOBAL DEFAULT 14 _ZN7android8hardware4gnss
165:   FUNC GLOBAL DEFAULT 14 _ZN7android8hardware4gnss
166:   FUNC GLOBAL DEFAULT 14 _ZN7android8hardware4gnss
167:   FUNC GLOBAL DEFAULT 14 __aeabi_memset4
168:   FUNC GLOBAL DEFAULT 14 _ZN7android8hardware4gnss
169:   FUNC GLOBAL DEFAULT 14 _ZN7android8hardware4gnss
170:   FUNC GLOBAL DEFAULT 14 _ZN7android8hardware4gnss
171:   OBJECT GLOBAL DEFAULT 18 _ZTCN7android8hardware4gn
172:   FUNC GLOBAL DEFAULT 14 _ZN7android8hardware4gnss
173:   OBJECT GLOBAL DEFAULT 18 _ZTTN7android8hardware4gn
174:   OBJECT GLOBAL DEFAULT 18 _ZTVN7android8hardware4gn
175:   FUNC WEAK DEFAULT 14 _ZN7android8hardware10fro
176:   OBJECT GLOBAL DEFAULT 16 _ZN7android8hardware4gnss
177:   OBJECT GLOBAL DEFAULT 18 _ZTCN7android8hardware4gn
178:   FUNC GLOBAL DEFAULT 14 _ZN7android8hardware4gnss
179:   OBJECT WEAK DEFAULT 18 _ZTCN7android8hardware4gn
180:   FUNC GLOBAL DEFAULT 14 _ZN7android8hardware4gnss
181:   FUNC GLOBAL DEFAULT 14 _ZN7android8hardware4gnss
182:   FUNC GLOBAL DEFAULT 14 _ZTv0_n12_N7android8hardw
183:   FUNC GLOBAL DEFAULT 14 __aeabi_memcpy
184:   FUNC GLOBAL DEFAULT 14 _ZN7android8hardware4gnss
185:   OBJECT GLOBAL DEFAULT 18 _ZTCN7android8hardware4gn
186:   FUNC GLOBAL DEFAULT 14 __aeabi_memset8
187:   FUNC GLOBAL DEFAULT 14 _ZN7android8hardware4gnss
188:   FUNC GLOBAL DEFAULT 14 _ZN7android8hardware4gnss
189:   FUNC GLOBAL DEFAULT 14 _ZN7android8hardware4gnss
190:   FUNC WEAK DEFAULT 14 _ZNSt3__16vectorINS_8func
191:   FUNC GLOBAL DEFAULT 14 _ZN7android8hardware4gnss
192:   FUNC GLOBAL DEFAULT 14 __aeabi_memclr4
193:   FUNC GLOBAL DEFAULT 14 _ZN7android8hardware4gnss
194:   FUNC GLOBAL DEFAULT 14 _ZThn20_N7android8hardwar
195:   FUNC GLOBAL DEFAULT 14 _ZN7android8hardware4gnss
196:   FUNC GLOBAL DEFAULT 14 _ZN7android8hardware4gnss
197:   FUNC GLOBAL DEFAULT 14 _ZN7android8hardware4gnss
198:   FUNC GLOBAL DEFAULT 14 _ZN7android8hardware4gnss
199:   FUNC GLOBAL DEFAULT 14 _ZN7android8hardware4gnss
200:   FUNC GLOBAL DEFAULT 14 _ZN7android8hardware4gnss
201:   FUNC GLOBAL DEFAULT 14 _ZN7android8hardware4gnss
202:   FUNC WEAK DEFAULT 14 _ZNSt3__16__treeINS_12__v
203:   OBJECT GLOBAL DEFAULT 18 _ZTTN7android8hardware4gn
204:   OBJECT GLOBAL DEFAULT 18 _ZTCN7android8hardware4gn
205:   FUNC GLOBAL DEFAULT 14 _ZN7android8hardware4gnss
206:   FUNC GLOBAL DEFAULT 14 _ZN7android8hardware4gnss
207:   FUNC WEAK DEFAULT 14 _ZNSt3__113__tree_removeI
208:   OBJECT GLOBAL DEFAULT 18 _ZTCN7android8hardware4gn
209:   FUNC GLOBAL DEFAULT 14 _ZN7android8hardware4gnss
210:   FUNC GLOBAL DEFAULT 14 _ZN7android8hardware4gnss
211:   FUNC GLOBAL DEFAULT 14 __aeabi_memclr8
212:   FUNC GLOBAL DEFAULT 14 _ZN7android8hardware4gnss
213:   FUNC GLOBAL DEFAULT 14 _ZN7android8hardware4gnss
214:   FUNC GLOBAL DEFAULT 14 _ZN7android8hardware4gnss
215:   FUNC GLOBAL DEFAULT 14 _ZN7android8hardware4gnss
216:   OBJECT WEAK DEFAULT 18 _ZTVN7android8hardware4gn
217:   FUNC GLOBAL DEFAULT 14 _ZN7android8hardware4gnss
218:   OBJECT WEAK DEFAULT 18 _ZTCN7android8hardware4gn
219:   FUNC GLOBAL DEFAULT 14 _ZN7android8hardware4gnss
220:   FUNC GLOBAL DEFAULT 14 _ZN7android8hardware4gnss
221:   FUNC GLOBAL DEFAULT 14 _ZN7android8hardware4gnss
222:   FUNC GLOBAL DEFAULT 14 _ZN7android8hardware4gnss
223:   OBJECT GLOBAL DEFAULT 18 _ZTTN7android8hardware4gn
224:   OBJECT GLOBAL DEFAULT 18 _ZTVN7android8hardware4gn
225:   FUNC GLOBAL DEFAULT 14 _ZN7android8hardware4gnss
226:   OBJECT GLOBAL DEFAULT 18 _ZTVN7android8hardware4gn
227:   FUNC GLOBAL DEFAULT 14 _ZN7android8hardware4gnss
228:   FUNC WEAK DEFAULT 14 _ZN7android8hardware7deta
229:   FUNC WEAK DEFAULT 14 _ZNSt3__16__treeINS_12__v
230:   OBJECT GLOBAL DEFAULT 18 _ZTCN7android8hardware4gn
231:   FUNC WEAK DEFAULT 14 _ZN7android8hardware7deta
232:   FUNC GLOBAL DEFAULT 14 _ZTv0_n12_N7android8hardw
233:   FUNC GLOBAL DEFAULT 14 _ZN7android8hardware4gnss
234:   FUNC GLOBAL DEFAULT 14 _ZN7android8hardware4gnss
235:   OBJECT GLOBAL DEFAULT 18 _ZTCN7android8hardware4gn
236:   FUNC GLOBAL DEFAULT 14 _ZN7android8hardware4gnss
237:   FUNC GLOBAL DEFAULT 14 _ZN7android8hardware4gnss
238:   FUNC GLOBAL DEFAULT 14 _ZN7android8hardware4gnss
239:   FUNC GLOBAL DEFAULT 14 _ZN7android8hardware4gnss
240:   FUNC GLOBAL DEFAULT 14 _ZN7android8hardware4gnss
241:   FUNC WEAK DEFAULT 14 _ZNSt3__127__tree_balance
242:   FUNC WEAK DEFAULT 14 _ZNSt3__16__treeINS_12__v
243:   OBJECT GLOBAL DEFAULT 18 _ZTTN7android8hardware4gn
244:   FUNC GLOBAL DEFAULT 14 _ZN7android8hardware4gnss
245:   OBJECT GLOBAL DEFAULT 18 _ZTCN7android8hardware4gn
246:   FUNC GLOBAL DEFAULT 14 _ZN7android8hardware4gnss
247:   FUNC WEAK DEFAULT 14 _ZN7android8hardware7deta
248:   FUNC GLOBAL DEFAULT 14 __aeabi_memset
249:   FUNC GLOBAL DEFAULT 14 _ZN7android8hardware4gnss
250:   OBJECT GLOBAL DEFAULT 18 _ZTCN7android8hardware4gn
251:   FUNC GLOBAL DEFAULT 14 _ZN7android8hardware4gnss
252:   FUNC GLOBAL DEFAULT 14 _ZN7android8hardware4gnss
253:   FUNC WEAK DEFAULT 14 _ZNSt3__16__treeINS_12__v
254:   FUNC WEAK DEFAULT 14 _ZNSt3__16vectorIN7androi
255:   OBJECT WEAK DEFAULT 18 _ZTVN7android8hardware4gn
256:   FUNC GLOBAL DEFAULT 14 _ZN7android8hardware4gnss
257:   FUNC GLOBAL DEFAULT 14 _ZN7android8hardware4gnss
258:   OBJECT GLOBAL DEFAULT 18 _ZTTN7android8hardware4gn
259:   FUNC GLOBAL DEFAULT 14 _ZN7android8hardware4gnss
260:   FUNC GLOBAL DEFAULT 14 _ZN7android8hardware4gnss
261:   FUNC GLOBAL DEFAULT 14 _ZN7android8hardware4gnss
262:   OBJECT GLOBAL DEFAULT 18 _ZTCN7android8hardware4gn
263:   FUNC GLOBAL DEFAULT 14 _ZTv0_n12_N7android8hardw
264:   FUNC GLOBAL DEFAULT 14 _ZN7android8hardware4gnss
265:   OBJECT GLOBAL DEFAULT 18 _ZTCN7android8hardware4gn
266:   FUNC GLOBAL DEFAULT 14 _ZN7android8hardware4gnss
267:   FUNC GLOBAL DEFAULT 14 _ZN7android8hardware4gnss
268:   OBJECT GLOBAL DEFAULT 18 _ZTCN7android8hardware4gn
269:   FUNC GLOBAL DEFAULT 14 _ZThn20_N7android8hardwar
270:   FUNC GLOBAL DEFAULT 14 __aeabi_memclr
271:   FUNC GLOBAL DEFAULT 14 _ZN7android8hardware4gnss
272:   FUNC GLOBAL DEFAULT 14 _ZN7android8hardware4gnss
273:   FUNC WEAK DEFAULT 14 _ZNSt3__16__treeINS_12__v
274:   FUNC GLOBAL DEFAULT 14 _ZN7android8hardware4gnss
275:   FUNC WEAK DEFAULT 14 _ZNSt3__16__treeINS_12__v
276:   FUNC GLOBAL DEFAULT 14 _ZN7android8hardware4gnss
277:   OBJECT GLOBAL DEFAULT 18 _ZTCN7android8hardware4gn
278:   FUNC GLOBAL DEFAULT 14 _ZN7android8hardware4gnss
279:   FUNC GLOBAL DEFAULT 14 _ZN7android8hardware4gnss
280:   FUNC GLOBAL DEFAULT 14 _ZN7android8hardware4gnss
281:   FUNC GLOBAL DEFAULT 14 _ZN7android8hardware4gnss
282:   FUNC GLOBAL DEFAULT 14 _ZN7android8hardware4gnss
283:   OBJECT GLOBAL DEFAULT 18 _ZTCN7android8hardware4gn
284:   FUNC WEAK DEFAULT 14 _ZNSt3__16vectorIPvNS_9al
285:   FUNC GLOBAL DEFAULT 14 _ZN7android8hardware4gnss
286:   OBJECT GLOBAL DEFAULT 18 _ZTTN7android8hardware4gn
287:   OBJECT GLOBAL DEFAULT 16 _ZN7android8hardware4gnss
288:   FUNC GLOBAL DEFAULT 14 _ZN7android8hardware4gnss
289:   OBJECT GLOBAL DEFAULT 18 _ZTCN7android8hardware4gn
290:   FUNC GLOBAL DEFAULT 14 _ZN7android8hardware4gnss
291:   FUNC GLOBAL DEFAULT 14 _ZN7android8hardware4gnss
292:   OBJECT GLOBAL DEFAULT 18 _ZTCN7android8hardware4gn
293:   FUNC GLOBAL DEFAULT 14 _ZN7android8hardware4gnss
294:   FUNC GLOBAL DEFAULT 14 _ZN7android8hardware4gnss
295:   OBJECT GLOBAL DEFAULT 18 _ZTVN7android8hardware4gn
296:   FUNC GLOBAL DEFAULT 14 __aeabi_memcpy4
297:   FUNC GLOBAL DEFAULT 14 _ZN7android8hardware4gnss
298:   OBJECT GLOBAL DEFAULT 18 _ZTCN7android8hardware4gn
299:   OBJECT GLOBAL DEFAULT 18 _ZTVN7android8hardware4gn
300:   FUNC GLOBAL DEFAULT 14 _ZN7android8hardware4gnss
301:   FUNC GLOBAL DEFAULT 14 _ZN7android8hardware4gnss
302:   FUNC GLOBAL DEFAULT 14 _ZN7android8hardware4gnss
303:   FUNC GLOBAL DEFAULT 14 _ZN7android8hardware4gnss
304:   FUNC GLOBAL DEFAULT 14 _ZN7android8hardware4gnss
305:   FUNC GLOBAL DEFAULT 14 _ZThn20_N7android8hardwar
306:   FUNC GLOBAL DEFAULT 14 _ZN7android8hardware4gnss
307:   FUNC GLOBAL DEFAULT 14 _ZTv0_n12_N7android8hardw
308:   FUNC GLOBAL DEFAULT 14 _ZN7android8hardware4gnss
309:   FUNC GLOBAL DEFAULT 14 _ZN7android8hardware4gnss
310:   FUNC WEAK DEFAULT 14 _ZN7android8hardware7deta
311:   OBJECT GLOBAL DEFAULT 18 _ZTCN7android8hardware4gn
312:   OBJECT GLOBAL DEFAULT 18 _ZTVN7android8hardware4gn
313:   FUNC GLOBAL DEFAULT 14 _ZN7android8hardware4gnss
314:   FUNC GLOBAL DEFAULT 14 _ZN7android8hardware4gnss
315:   FUNC GLOBAL DEFAULT 14 _ZN7android8hardware4gnss
316:   FUNC GLOBAL DEFAULT 14 __aeabi_memcpy8
