 0x000000000000000e (SONAME)             Library soname: [android.frameworks.stats@1.0.so]
  
Symbol   contains 295 entries:
Num:   Type Bind Vis Ndx Name
0:   NOTYPE LOCAL DEFAULT UND
1:   FUNC GLOBAL DEFAULT UND __cxa_finalize@LIBC (2)
2:   FUNC GLOBAL DEFAULT UND _ZN7android14sp_report_ra
3:   FUNC GLOBAL DEFAULT UND _ZN7android21report_syspr
4:   OBJECT GLOBAL DEFAULT UND _ZN7android4hidl4base4V1_
5:   FUNC GLOBAL DEFAULT UND _ZN7android4hidl4base4V1_
6:   FUNC GLOBAL DEFAULT UND _ZN7android4hidl4base4V1_
7:   FUNC GLOBAL DEFAULT UND _ZN7android4hidl4base4V1_
8:   FUNC GLOBAL DEFAULT UND _ZN7android4hidl4base4V1_
9:   FUNC GLOBAL DEFAULT UND _ZN7android4hidl4base4V1_
10:   FUNC GLOBAL DEFAULT UND _ZN7android4hidl4base4V1_
11:   FUNC GLOBAL DEFAULT UND _ZN7android4hidl4base4V1_
12:   FUNC GLOBAL DEFAULT UND _ZN7android4hidl4base4V1_
13:   FUNC GLOBAL DEFAULT UND _ZN7android4hidl4base4V1_
14:   FUNC GLOBAL DEFAULT UND _ZN7android4hidl4base4V1_
15:   FUNC GLOBAL DEFAULT UND _ZN7android4hidl4base4V1_
16:   FUNC GLOBAL DEFAULT UND _ZN7android4hidl4base4V1_
17:   FUNC GLOBAL DEFAULT UND _ZN7android4hidl4base4V1_
18:   FUNC GLOBAL DEFAULT UND _ZN7android4hidl4base4V1_
19:   FUNC GLOBAL DEFAULT UND _ZN7android4hidl4base4V1_
20:   FUNC GLOBAL DEFAULT UND _ZN7android4hidl4base4V1_
21:   FUNC GLOBAL DEFAULT UND _ZN7android4hidl4base4V1_
22:   FUNC GLOBAL DEFAULT UND _ZN7android4hidl4base4V1_
23:   FUNC GLOBAL DEFAULT UND _ZN7android4hidl4base4V1_
24:   FUNC GLOBAL DEFAULT UND _ZN7android4hidl4base4V1_
25:   FUNC GLOBAL DEFAULT UND _ZN7android4hidl4base4V1_
26:   FUNC GLOBAL DEFAULT UND _ZN7android4hidl4base4V1_
27:   FUNC GLOBAL DEFAULT UND _ZN7android4hidl4base4V1_
28:   FUNC GLOBAL DEFAULT UND _ZN7android7RefBase10onFi
29:   FUNC GLOBAL DEFAULT UND _ZN7android7RefBase12weak
30:   FUNC GLOBAL DEFAULT UND _ZN7android7RefBase13onLa
31:   FUNC GLOBAL DEFAULT UND _ZN7android7RefBase15onLa
32:   FUNC GLOBAL DEFAULT UND _ZN7android7RefBase20onIn
33:   FUNC GLOBAL DEFAULT UND _ZN7android7RefBaseC2Ev
34:   FUNC GLOBAL DEFAULT UND _ZN7android7RefBaseD2Ev
35:   FUNC GLOBAL DEFAULT UND _ZN7android8hardware10IIn
36:   FUNC GLOBAL DEFAULT UND _ZN7android8hardware10IIn
37:   FUNC GLOBAL DEFAULT UND _ZN7android8hardware10IIn
38:   FUNC GLOBAL DEFAULT UND _ZN7android8hardware10IIn
39:   FUNC GLOBAL DEFAULT UND _ZN7android8hardware10IIn
40:   FUNC GLOBAL DEFAULT UND _ZN7android8hardware11BpH
41:   FUNC GLOBAL DEFAULT UND _ZN7android8hardware11BpH
42:   FUNC GLOBAL DEFAULT UND _ZN7android8hardware11BpH
43:   FUNC GLOBAL DEFAULT UND _ZN7android8hardware11BpH
44:   FUNC GLOBAL DEFAULT UND _ZN7android8hardware11BpH
45:   FUNC GLOBAL DEFAULT UND _ZN7android8hardware11BpH
46:   FUNC GLOBAL DEFAULT UND _ZN7android8hardware11BpH
47:   FUNC GLOBAL DEFAULT UND _ZN7android8hardware11hid
48:   FUNC GLOBAL DEFAULT UND _ZN7android8hardware11hid
49:   FUNC GLOBAL DEFAULT UND _ZN7android8hardware11hid
50:   FUNC GLOBAL DEFAULT UND _ZN7android8hardware11hid
51:   FUNC GLOBAL DEFAULT UND _ZN7android8hardware11hid
52:   FUNC GLOBAL DEFAULT UND _ZN7android8hardware11hid
53:   FUNC GLOBAL DEFAULT UND _ZN7android8hardware12Pro
54:   FUNC GLOBAL DEFAULT UND _ZN7android8hardware12Pro
55:   FUNC GLOBAL DEFAULT UND _ZN7android8hardware13wri
56:   FUNC GLOBAL DEFAULT UND _ZN7android8hardware21def
57:   FUNC GLOBAL DEFAULT UND _ZN7android8hardware23get
58:   FUNC GLOBAL DEFAULT UND _ZN7android8hardware27hid
59:   FUNC GLOBAL DEFAULT UND _ZN7android8hardware27hid
60:   FUNC GLOBAL DEFAULT UND _ZN7android8hardware6Parc
61:   FUNC GLOBAL DEFAULT UND _ZN7android8hardware6Parc
62:   FUNC GLOBAL DEFAULT UND _ZN7android8hardware6Parc
63:   FUNC GLOBAL DEFAULT UND _ZN7android8hardware6Parc
64:   FUNC GLOBAL DEFAULT UND _ZN7android8hardware6Stat
65:   FUNC GLOBAL DEFAULT UND _ZN7android8hardware6Stat
66:   FUNC GLOBAL DEFAULT UND _ZN7android8hardware6Stat
67:   FUNC GLOBAL DEFAULT UND _ZN7android8hardware6Stat
68:   FUNC GLOBAL DEFAULT UND _ZN7android8hardware7IBin
69:   FUNC GLOBAL DEFAULT UND _ZN7android8hardware7IBin
70:   FUNC GLOBAL DEFAULT UND _ZN7android8hardware7IBin
71:   FUNC GLOBAL DEFAULT UND _ZN7android8hardware7IBin
72:   FUNC GLOBAL DEFAULT UND _ZN7android8hardware7deta
73:   FUNC GLOBAL DEFAULT UND _ZN7android8hardware7deta
74:   FUNC GLOBAL DEFAULT UND _ZN7android8hardware7deta
75:   FUNC GLOBAL DEFAULT UND _ZN7android8hardware7deta
76:   FUNC GLOBAL DEFAULT UND _ZN7android8hardware7deta
77:   FUNC GLOBAL DEFAULT UND _ZN7android8hardware7deta
78:   FUNC GLOBAL DEFAULT UND _ZN7android8hardware7deta
79:   OBJECT GLOBAL DEFAULT UND _ZN7android8hardware7deta
80:   FUNC GLOBAL DEFAULT UND _ZN7android8hardware7deta
81:   OBJECT GLOBAL DEFAULT UND _ZN7android8hardware7deta
82:   FUNC GLOBAL DEFAULT UND _ZN7android8hardware7deta
83:   FUNC GLOBAL DEFAULT UND _ZN7android8hardware7deta
84:   FUNC GLOBAL DEFAULT UND _ZN7android8hardware7deta
85:   FUNC GLOBAL DEFAULT UND _ZN7android8hardware7deta
86:   FUNC GLOBAL DEFAULT UND _ZN7android8hardware7deta
87:   FUNC GLOBAL DEFAULT UND _ZN7android8hardware7deta
88:   FUNC GLOBAL DEFAULT UND _ZN7android8hardware7deta
89:   FUNC GLOBAL DEFAULT UND _ZN7android8hardware7deta
90:   FUNC GLOBAL DEFAULT UND _ZN7android8hardware7deta
91:   OBJECT GLOBAL DEFAULT UND _ZN7android8hardware7deta
92:   FUNC GLOBAL DEFAULT UND _ZN7android8hardware9BHwB
93:   FUNC GLOBAL DEFAULT UND _ZN7android8hardware9BHwB
94:   FUNC GLOBAL DEFAULT UND _ZN7android8hardware9BHwB
95:   FUNC GLOBAL DEFAULT UND _ZN7android8hardware9BHwB
96:   FUNC GLOBAL DEFAULT UND _ZN7android8hardware9BHwB
97:   FUNC GLOBAL DEFAULT UND _ZN7android8hardware9BHwB
98:   FUNC GLOBAL DEFAULT UND _ZN7android8hardware9BHwB
99:   FUNC GLOBAL DEFAULT UND _ZN7android8hardware9BHwB
100:   FUNC GLOBAL DEFAULT UND _ZN7android8hardware9BHwB
101:   FUNC GLOBAL DEFAULT UND _ZN7android8hardware9BHwB
102:   FUNC GLOBAL DEFAULT UND _ZNK7android7RefBase10cre
103:   FUNC GLOBAL DEFAULT UND _ZNK7android7RefBase11get
104:   FUNC GLOBAL DEFAULT UND _ZNK7android7RefBase9decS
105:   FUNC GLOBAL DEFAULT UND _ZNK7android7RefBase9incS
106:   FUNC GLOBAL DEFAULT UND _ZNK7android8hardware6Par
107:   FUNC GLOBAL DEFAULT UND _ZNK7android8hardware6Par
108:   FUNC GLOBAL DEFAULT UND _ZNK7android8hardware7IBi
109:   FUNC GLOBAL DEFAULT UND _ZNK7android8hardware7det
110:   FUNC GLOBAL DEFAULT UND _ZNK7android8hardware9BHw
111:   FUNC GLOBAL DEFAULT UND _ZNKSt3__120__vector_base
112:   FUNC GLOBAL DEFAULT UND _ZNKSt3__121__basic_strin
113:   FUNC GLOBAL DEFAULT UND _ZNSt3__112basic_stringIc
114:   FUNC GLOBAL DEFAULT UND _ZNSt3__15mutex4lockEv
115:   FUNC GLOBAL DEFAULT UND _ZNSt3__15mutex6unlockEv
116:   FUNC GLOBAL DEFAULT UND _ZNSt3__15mutexD1Ev
117:   FUNC GLOBAL DEFAULT UND _ZTv0_n24_N7android4hidl4
118:   FUNC GLOBAL DEFAULT UND _ZTv0_n24_N7android4hidl4
119:   FUNC GLOBAL DEFAULT UND _ZTv0_n24_N7android8hardw
120:   FUNC GLOBAL DEFAULT UND _ZTv0_n24_N7android8hardw
121:   FUNC GLOBAL DEFAULT UND _ZTv0_n24_N7android8hardw
122:   FUNC GLOBAL DEFAULT UND _ZTv0_n24_N7android8hardw
123:   FUNC GLOBAL DEFAULT UND _ZTv0_n24_N7android8hardw
124:   FUNC GLOBAL DEFAULT UND _ZTv0_n24_N7android8hardw
125:   FUNC GLOBAL DEFAULT UND _ZTv0_n24_N7android8hardw
126:   FUNC GLOBAL DEFAULT UND _ZTv0_n24_N7android8hardw
127:   FUNC GLOBAL DEFAULT UND _ZTv0_n32_N7android8hardw
128:   FUNC GLOBAL DEFAULT UND _ZTv0_n40_N7android8hardw
129:   FUNC GLOBAL DEFAULT UND _ZTv0_n48_N7android8hardw
130:   FUNC GLOBAL DEFAULT UND _ZdaPv
131:   FUNC GLOBAL DEFAULT UND _ZdlPv
132:   FUNC GLOBAL DEFAULT UND _Znam
133:   FUNC GLOBAL DEFAULT UND _Znwm
134:   FUNC GLOBAL DEFAULT UND __cxa_pure_virtual
135:   FUNC GLOBAL DEFAULT UND __stack_chk_fail@LIBC (2)
136:   FUNC GLOBAL DEFAULT UND abort@LIBC (2)
137:   FUNC GLOBAL DEFAULT UND atrace_begin_body
138:   OBJECT GLOBAL DEFAULT UND atrace_enabled_tags
139:   FUNC GLOBAL DEFAULT UND atrace_end_body
140:   OBJECT GLOBAL DEFAULT UND atrace_is_ready
141:   FUNC GLOBAL DEFAULT UND atrace_setup
142:   FUNC GLOBAL DEFAULT UND memcmp@LIBC (2)
143:   FUNC GLOBAL DEFAULT UND memcpy@LIBC (2)
144:   FUNC GLOBAL DEFAULT UND memset@LIBC (2)
145:   FUNC GLOBAL DEFAULT UND strlen@LIBC (2)
146:   FUNC GLOBAL DEFAULT UND _ZN7android8hardware11hid
147:   FUNC GLOBAL DEFAULT UND _ZN7android8hardware11hid
148:   FUNC GLOBAL DEFAULT UND _ZN7android8hardware21wri
149:   FUNC GLOBAL DEFAULT UND _ZN7android8hardware22rea
150:   FUNC GLOBAL DEFAULT UND _ZN7android8hardware6Parc
151:   FUNC GLOBAL DEFAULT UND _ZNK7android8hardware6Par
152:   FUNC GLOBAL DEFAULT UND _ZNSt3__112basic_stringIc
153:   FUNC GLOBAL DEFAULT UND _ZNSt3__112basic_stringIc
154:   FUNC GLOBAL DEFAULT UND _ZNSt3__19to_stringEi
155:   FUNC GLOBAL DEFAULT UND __android_log_assert@LIBLOG (3)
156:   FUNC GLOBAL DEFAULT 14 _ZN7android10frameworks5s
157:   FUNC GLOBAL DEFAULT 14 _ZN7android10frameworks5s
158:   FUNC GLOBAL DEFAULT 14 _ZN7android10frameworks5s
159:   OBJECT GLOBAL DEFAULT 18 _ZTTN7android10frameworks
160:   FUNC GLOBAL DEFAULT 14 _ZN7android10frameworks5s
161:   FUNC GLOBAL DEFAULT 14 _ZN7android10frameworks5s
162:   FUNC GLOBAL DEFAULT 14 _ZN7android10frameworks5s
163:   FUNC GLOBAL DEFAULT 14 _ZN7android10frameworks5s
164:   FUNC WEAK DEFAULT 14 _ZNSt3__16vectorIN7androi
165:   OBJECT GLOBAL DEFAULT 18 _ZTCN7android10frameworks
166:   FUNC GLOBAL DEFAULT 14 _ZN7android10frameworks5s
167:   FUNC GLOBAL DEFAULT 14 _ZN7android10frameworks5s
168:   FUNC GLOBAL DEFAULT 14 _ZN7android10frameworks5s
169:   FUNC GLOBAL DEFAULT 14 _ZN7android10frameworks5s
170:   FUNC GLOBAL DEFAULT 14 _ZN7android10frameworks5s
171:   FUNC GLOBAL DEFAULT 14 _ZN7android10frameworks5s
172:   FUNC GLOBAL DEFAULT 14 _ZN7android10frameworks5s
173:   FUNC GLOBAL DEFAULT 14 _ZN7android10frameworks5s
174:   FUNC GLOBAL DEFAULT 14 _ZN7android10frameworks5s
175:   FUNC GLOBAL DEFAULT 14 _ZN7android10frameworks5s
176:   FUNC GLOBAL DEFAULT 14 _ZN7android10frameworks5s
177:   FUNC GLOBAL DEFAULT 14 _ZN7android10frameworks5s
178:   FUNC GLOBAL DEFAULT 14 _ZN7android10frameworks5s
179:   FUNC GLOBAL DEFAULT 14 _ZN7android10frameworks5s
180:   FUNC GLOBAL DEFAULT 14 _ZN7android10frameworks5s
181:   OBJECT GLOBAL DEFAULT 18 _ZTCN7android10frameworks
182:   OBJECT GLOBAL DEFAULT 18 _ZTCN7android10frameworks
183:   OBJECT GLOBAL DEFAULT 18 _ZTVN7android10frameworks
184:   FUNC GLOBAL DEFAULT 14 _ZN7android10frameworks5s
185:   FUNC GLOBAL DEFAULT 14 _ZNK7android10frameworks5
186:   FUNC GLOBAL DEFAULT 14 _ZN7android10frameworks5s
187:   FUNC GLOBAL DEFAULT 14 _ZN7android10frameworks5s
188:   FUNC GLOBAL DEFAULT 14 _ZN7android10frameworks5s
189:   FUNC WEAK DEFAULT 14 _ZNSt3__127__tree_balance
190:   OBJECT GLOBAL DEFAULT 18 _ZTCN7android10frameworks
191:   FUNC GLOBAL DEFAULT 14 _ZN7android10frameworks5s
192:   FUNC GLOBAL DEFAULT 14 _ZN7android10frameworks5s
193:   FUNC GLOBAL DEFAULT 14 _ZN7android10frameworks5s
194:   FUNC WEAK DEFAULT 14 _ZNSt3__16__treeINS_12__v
195:   FUNC GLOBAL DEFAULT 14 _ZN7android10frameworks5s
196:   FUNC GLOBAL DEFAULT 14 _ZN7android10frameworks5s
197:   FUNC GLOBAL DEFAULT 14 _ZN7android10frameworks5s
198:   FUNC GLOBAL DEFAULT 14 _ZN7android10frameworks5s
199:   FUNC GLOBAL DEFAULT 14 _ZN7android10frameworks5s
200:   OBJECT GLOBAL DEFAULT 18 _ZTCN7android10frameworks
201:   FUNC GLOBAL DEFAULT 14 _ZN7android10frameworks5s
202:   FUNC GLOBAL DEFAULT 14 _ZN7android10frameworks5s
203:   FUNC GLOBAL DEFAULT 14 _ZN7android10frameworks5s
204:   FUNC GLOBAL DEFAULT 14 _ZN7android10frameworks5s
205:   FUNC GLOBAL DEFAULT 14 _ZN7android10frameworks5s
206:   FUNC WEAK DEFAULT 14 _ZNSt3__16vectorINS_8func
207:   FUNC GLOBAL DEFAULT 14 _ZN7android10frameworks5s
208:   FUNC GLOBAL DEFAULT 14 _ZN7android10frameworks5s
209:   OBJECT GLOBAL DEFAULT 16 _ZN7android10frameworks5s
210:   FUNC GLOBAL DEFAULT 14 _ZN7android10frameworks5s
211:   OBJECT GLOBAL DEFAULT 18 _ZTCN7android10frameworks
212:   FUNC GLOBAL DEFAULT 14 _ZN7android10frameworks5s
213:   FUNC WEAK DEFAULT 14 _ZNSt3__16__treeINS_12__v
214:   FUNC GLOBAL DEFAULT 14 _ZN7android10frameworks5s
215:   OBJECT GLOBAL DEFAULT 18 _ZTCN7android10frameworks
216:   FUNC GLOBAL DEFAULT 14 _ZN7android10frameworks5s
217:   FUNC GLOBAL DEFAULT 14 _ZN7android10frameworks5s
218:   FUNC GLOBAL DEFAULT 14 _ZN7android10frameworks5s
219:   FUNC GLOBAL DEFAULT 14 _ZN7android10frameworks5s
220:   FUNC WEAK DEFAULT 14 _ZNSt3__16__treeINS_12__v
221:   OBJECT GLOBAL DEFAULT 18 _ZTVN7android10frameworks
222:   FUNC GLOBAL DEFAULT 14 _ZNK7android10frameworks5
223:   FUNC GLOBAL DEFAULT 14 _ZN7android10frameworks5s
224:   FUNC GLOBAL DEFAULT 14 _ZN7android10frameworks5s
225:   FUNC GLOBAL DEFAULT 14 _ZN7android10frameworks5s
226:   OBJECT WEAK DEFAULT 18 _ZTCN7android10frameworks
227:   FUNC GLOBAL DEFAULT 14 _ZN7android10frameworks5s
228:   FUNC GLOBAL DEFAULT 14 _ZN7android10frameworks5s
229:   FUNC GLOBAL DEFAULT 14 _ZN7android10frameworks5s
230:   FUNC GLOBAL DEFAULT 14 _ZTv0_n24_N7android10fram
231:   FUNC GLOBAL DEFAULT 14 _ZTv0_n24_N7android10fram
232:   FUNC GLOBAL DEFAULT 14 _ZN7android10frameworks5s
233:   FUNC GLOBAL DEFAULT 14 _ZN7android10frameworks5s
234:   FUNC GLOBAL DEFAULT 14 _ZN7android10frameworks5s
235:   FUNC GLOBAL DEFAULT 14 _ZN7android10frameworks5s
236:   FUNC GLOBAL DEFAULT 14 _ZThn32_N7android10framew
237:   FUNC GLOBAL DEFAULT 14 _ZNK7android10frameworks5
238:   FUNC GLOBAL DEFAULT 14 _ZN7android10frameworks5s
239:   FUNC GLOBAL DEFAULT 14 _ZN7android10frameworks5s
240:   FUNC GLOBAL DEFAULT 14 _ZN7android10frameworks5s
241:   FUNC GLOBAL DEFAULT 14 _ZN7android10frameworks5s
242:   FUNC GLOBAL DEFAULT 14 _ZN7android10frameworks5s
243:   FUNC GLOBAL DEFAULT 14 _ZN7android10frameworks5s
244:   OBJECT GLOBAL DEFAULT 18 _ZTTN7android10frameworks
245:   FUNC GLOBAL DEFAULT 14 _ZThn32_N7android10framew
246:   FUNC GLOBAL DEFAULT 14 _ZN7android10frameworks5s
247:   FUNC GLOBAL DEFAULT 14 _ZN7android10frameworks5s
248:   FUNC GLOBAL DEFAULT 14 _ZN7android10frameworks5s
249:   FUNC WEAK DEFAULT 14 _ZNSt3__113__tree_removeI
250:   FUNC GLOBAL DEFAULT 14 _ZN7android10frameworks5s
251:   FUNC GLOBAL DEFAULT 14 _ZN7android10frameworks5s
252:   FUNC GLOBAL DEFAULT 14 _ZNK7android10frameworks5
253:   FUNC GLOBAL DEFAULT 14 _ZN7android10frameworks5s
254:   FUNC WEAK DEFAULT 14 _ZNSt3__16__treeINS_12__v
255:   FUNC GLOBAL DEFAULT 14 _ZN7android10frameworks5s
256:   FUNC GLOBAL DEFAULT 14 _ZN7android10frameworks5s
257:   FUNC GLOBAL DEFAULT 14 _ZN7android10frameworks5s
258:   FUNC GLOBAL DEFAULT 14 _ZN7android10frameworks5s
259:   FUNC GLOBAL DEFAULT 14 _ZN7android10frameworks5s
260:   FUNC WEAK DEFAULT 14 _ZNSt3__16__treeINS_12__v
261:   OBJECT GLOBAL DEFAULT 18 _ZTTN7android10frameworks
262:   OBJECT GLOBAL DEFAULT 18 _ZTVN7android10frameworks
263:   FUNC GLOBAL DEFAULT 14 _ZN7android10frameworks5s
264:   FUNC GLOBAL DEFAULT 14 _ZN7android10frameworks5s
265:   FUNC GLOBAL DEFAULT 14 _ZN7android10frameworks5s
266:   FUNC GLOBAL DEFAULT 14 _ZN7android10frameworks5s
267:   FUNC GLOBAL DEFAULT 14 _ZN7android10frameworks5s
268:   FUNC GLOBAL DEFAULT 14 _ZN7android10frameworks5s
269:   FUNC GLOBAL DEFAULT 14 _ZN7android10frameworks5s
270:   FUNC GLOBAL DEFAULT 14 _ZN7android10frameworks5s
271:   FUNC GLOBAL DEFAULT 14 _ZN7android10frameworks5s
272:   OBJECT GLOBAL DEFAULT 18 _ZTCN7android10frameworks
273:   OBJECT WEAK DEFAULT 18 _ZTVN7android10frameworks
274:   FUNC GLOBAL DEFAULT 14 _ZN7android10frameworks5s
275:   FUNC GLOBAL DEFAULT 14 _ZNK7android10frameworks5
276:   FUNC WEAK DEFAULT 14 _ZN7android8hardware7deta
277:   FUNC WEAK DEFAULT 14 _ZNSt3__16__treeINS_12__v
278:   FUNC GLOBAL DEFAULT 14 _ZN7android10frameworks5s
279:   FUNC GLOBAL DEFAULT 14 _ZN7android10frameworks5s
280:   FUNC GLOBAL DEFAULT 14 _ZN7android10frameworks5s
281:   FUNC GLOBAL DEFAULT 14 _ZN7android10frameworks5s
282:   FUNC WEAK DEFAULT 14 _ZN7android8hardware7deta
283:   FUNC GLOBAL DEFAULT 14 _ZN7android10frameworks5s
284:   FUNC GLOBAL DEFAULT 14 _ZN7android10frameworks5s
285:   FUNC GLOBAL DEFAULT 14 _ZN7android10frameworks5s
286:   FUNC GLOBAL DEFAULT 14 _ZN7android10frameworks5s
287:   OBJECT GLOBAL DEFAULT 18 _ZTCN7android10frameworks
288:   FUNC GLOBAL DEFAULT 14 _ZN7android10frameworks5s
289:   FUNC GLOBAL DEFAULT 14 _ZN7android10frameworks5s
290:   FUNC GLOBAL DEFAULT 14 _ZN7android10frameworks5s
291:   FUNC GLOBAL DEFAULT 14 _ZN7android10frameworks5s
292:   FUNC GLOBAL DEFAULT 14 _ZN7android10frameworks5s
293:   FUNC WEAK DEFAULT 14 _ZNSt3__16vectorIPvNS_9al
294:   FUNC GLOBAL DEFAULT 14 _ZN7android10frameworks5s
