 0x0000000e (SONAME)                     Library soname: [android.hardware.vibrator@1.3.so]
  
Symbol   contains 309 entries:
Num:   Type Bind Vis Ndx Name
0:   NOTYPE LOCAL DEFAULT UND
1:   FUNC GLOBAL DEFAULT UND __cxa_finalize@LIBC (2)
2:   FUNC GLOBAL DEFAULT UND _ZN7android14sp_report_ra
3:   FUNC GLOBAL DEFAULT UND _ZN7android21report_syspr
4:   OBJECT GLOBAL DEFAULT UND _ZN7android4hidl4base4V1_
5:   FUNC GLOBAL DEFAULT UND _ZN7android4hidl4base4V1_
6:   FUNC GLOBAL DEFAULT UND _ZN7android4hidl4base4V1_
7:   FUNC GLOBAL DEFAULT UND _ZN7android4hidl4base4V1_
8:   FUNC GLOBAL DEFAULT UND _ZN7android4hidl4base4V1_
9:   FUNC GLOBAL DEFAULT UND _ZN7android4hidl4base4V1_
10:   FUNC GLOBAL DEFAULT UND _ZN7android4hidl4base4V1_
11:   FUNC GLOBAL DEFAULT UND _ZN7android4hidl4base4V1_
12:   FUNC GLOBAL DEFAULT UND _ZN7android4hidl4base4V1_
13:   FUNC GLOBAL DEFAULT UND _ZN7android4hidl4base4V1_
14:   FUNC GLOBAL DEFAULT UND _ZN7android4hidl4base4V1_
15:   FUNC GLOBAL DEFAULT UND _ZN7android4hidl4base4V1_
16:   FUNC GLOBAL DEFAULT UND _ZN7android4hidl4base4V1_
17:   FUNC GLOBAL DEFAULT UND _ZN7android4hidl4base4V1_
18:   FUNC GLOBAL DEFAULT UND _ZN7android4hidl4base4V1_
19:   FUNC GLOBAL DEFAULT UND _ZN7android4hidl4base4V1_
20:   FUNC GLOBAL DEFAULT UND _ZN7android4hidl4base4V1_
21:   FUNC GLOBAL DEFAULT UND _ZN7android4hidl4base4V1_
22:   FUNC GLOBAL DEFAULT UND _ZN7android4hidl4base4V1_
23:   FUNC GLOBAL DEFAULT UND _ZN7android4hidl4base4V1_
24:   FUNC GLOBAL DEFAULT UND _ZN7android4hidl4base4V1_
25:   FUNC GLOBAL DEFAULT UND _ZN7android4hidl4base4V1_
26:   FUNC GLOBAL DEFAULT UND _ZN7android4hidl4base4V1_
27:   FUNC GLOBAL DEFAULT UND _ZN7android4hidl4base4V1_
28:   FUNC GLOBAL DEFAULT UND _ZN7android7RefBase10onFi
29:   FUNC GLOBAL DEFAULT UND _ZN7android7RefBase12weak
30:   FUNC GLOBAL DEFAULT UND _ZN7android7RefBase13onLa
31:   FUNC GLOBAL DEFAULT UND _ZN7android7RefBase15onLa
32:   FUNC GLOBAL DEFAULT UND _ZN7android7RefBase20onIn
33:   FUNC GLOBAL DEFAULT UND _ZN7android7RefBaseC2Ev
34:   FUNC GLOBAL DEFAULT UND _ZN7android7RefBaseD2Ev
35:   FUNC GLOBAL DEFAULT UND _ZN7android8hardware10IIn
36:   FUNC GLOBAL DEFAULT UND _ZN7android8hardware10IIn
37:   FUNC GLOBAL DEFAULT UND _ZN7android8hardware10IIn
38:   FUNC GLOBAL DEFAULT UND _ZN7android8hardware10IIn
39:   FUNC GLOBAL DEFAULT UND _ZN7android8hardware10IIn
40:   FUNC GLOBAL DEFAULT UND _ZN7android8hardware11BpH
41:   FUNC GLOBAL DEFAULT UND _ZN7android8hardware11BpH
42:   FUNC GLOBAL DEFAULT UND _ZN7android8hardware11BpH
43:   FUNC GLOBAL DEFAULT UND _ZN7android8hardware11BpH
44:   FUNC GLOBAL DEFAULT UND _ZN7android8hardware11BpH
45:   FUNC GLOBAL DEFAULT UND _ZN7android8hardware11BpH
46:   FUNC GLOBAL DEFAULT UND _ZN7android8hardware11BpH
47:   FUNC GLOBAL DEFAULT UND _ZN7android8hardware11hid
48:   FUNC GLOBAL DEFAULT UND _ZN7android8hardware11hid
49:   FUNC GLOBAL DEFAULT UND _ZN7android8hardware11hid
50:   FUNC GLOBAL DEFAULT UND _ZN7android8hardware11hid
51:   FUNC GLOBAL DEFAULT UND _ZN7android8hardware11hid
52:   FUNC GLOBAL DEFAULT UND _ZN7android8hardware12Pro
53:   FUNC GLOBAL DEFAULT UND _ZN7android8hardware12Pro
54:   FUNC GLOBAL DEFAULT UND _ZN7android8hardware13wri
55:   FUNC GLOBAL DEFAULT UND _ZN7android8hardware14rea
56:   FUNC GLOBAL DEFAULT UND _ZN7android8hardware21def
57:   FUNC GLOBAL DEFAULT UND _ZN7android8hardware23get
58:   FUNC GLOBAL DEFAULT UND _ZN7android8hardware27hid
59:   FUNC GLOBAL DEFAULT UND _ZN7android8hardware27hid
60:   FUNC GLOBAL DEFAULT UND _ZN7android8hardware6Parc
61:   FUNC GLOBAL DEFAULT UND _ZN7android8hardware6Parc
62:   FUNC GLOBAL DEFAULT UND _ZN7android8hardware6Parc
63:   FUNC GLOBAL DEFAULT UND _ZN7android8hardware6Parc
64:   FUNC GLOBAL DEFAULT UND _ZN7android8hardware6Parc
65:   FUNC GLOBAL DEFAULT UND _ZN7android8hardware6Parc
66:   FUNC GLOBAL DEFAULT UND _ZN7android8hardware6Stat
67:   FUNC GLOBAL DEFAULT UND _ZN7android8hardware6Stat
68:   FUNC GLOBAL DEFAULT UND _ZN7android8hardware6Stat
69:   FUNC GLOBAL DEFAULT UND _ZN7android8hardware6Stat
70:   FUNC GLOBAL DEFAULT UND _ZN7android8hardware7IBin
71:   FUNC GLOBAL DEFAULT UND _ZN7android8hardware7IBin
72:   FUNC GLOBAL DEFAULT UND _ZN7android8hardware7IBin
73:   FUNC GLOBAL DEFAULT UND _ZN7android8hardware7IBin
74:   FUNC GLOBAL DEFAULT UND _ZN7android8hardware7deta
75:   FUNC GLOBAL DEFAULT UND _ZN7android8hardware7deta
76:   FUNC GLOBAL DEFAULT UND _ZN7android8hardware7deta
77:   FUNC GLOBAL DEFAULT UND _ZN7android8hardware7deta
78:   FUNC GLOBAL DEFAULT UND _ZN7android8hardware7deta
79:   FUNC GLOBAL DEFAULT UND _ZN7android8hardware7deta
80:   FUNC GLOBAL DEFAULT UND _ZN7android8hardware7deta
81:   OBJECT GLOBAL DEFAULT UND _ZN7android8hardware7deta
82:   OBJECT GLOBAL DEFAULT UND _ZN7android8hardware7deta
83:   FUNC GLOBAL DEFAULT UND _ZN7android8hardware7deta
84:   FUNC GLOBAL DEFAULT UND _ZN7android8hardware7deta
85:   FUNC GLOBAL DEFAULT UND _ZN7android8hardware7deta
86:   FUNC GLOBAL DEFAULT UND _ZN7android8hardware7deta
87:   FUNC GLOBAL DEFAULT UND _ZN7android8hardware7deta
88:   FUNC GLOBAL DEFAULT UND _ZN7android8hardware7deta
89:   FUNC GLOBAL DEFAULT UND _ZN7android8hardware7deta
90:   FUNC GLOBAL DEFAULT UND _ZN7android8hardware7deta
91:   FUNC GLOBAL DEFAULT UND _ZN7android8hardware7deta
92:   OBJECT GLOBAL DEFAULT UND _ZN7android8hardware7deta
93:   FUNC GLOBAL DEFAULT UND _ZN7android8hardware8vibr
94:   FUNC GLOBAL DEFAULT UND _ZN7android8hardware8vibr
95:   FUNC GLOBAL DEFAULT UND _ZN7android8hardware8vibr
96:   FUNC GLOBAL DEFAULT UND _ZN7android8hardware8vibr
97:   FUNC GLOBAL DEFAULT UND _ZN7android8hardware8vibr
98:   FUNC GLOBAL DEFAULT UND _ZN7android8hardware8vibr
99:   FUNC GLOBAL DEFAULT UND _ZN7android8hardware8vibr
100:   FUNC GLOBAL DEFAULT UND _ZN7android8hardware8vibr
101:   FUNC GLOBAL DEFAULT UND _ZN7android8hardware8vibr
102:   FUNC GLOBAL DEFAULT UND _ZN7android8hardware8vibr
103:   OBJECT GLOBAL DEFAULT UND _ZN7android8hardware8vibr
104:   FUNC GLOBAL DEFAULT UND _ZN7android8hardware8vibr
105:   FUNC GLOBAL DEFAULT UND _ZN7android8hardware8vibr
106:   FUNC GLOBAL DEFAULT UND _ZN7android8hardware8vibr
107:   FUNC GLOBAL DEFAULT UND _ZN7android8hardware8vibr
108:   FUNC GLOBAL DEFAULT UND _ZN7android8hardware8vibr
109:   FUNC GLOBAL DEFAULT UND _ZN7android8hardware8vibr
110:   FUNC GLOBAL DEFAULT UND _ZN7android8hardware8vibr
111:   FUNC GLOBAL DEFAULT UND _ZN7android8hardware8vibr
112:   FUNC GLOBAL DEFAULT UND _ZN7android8hardware8vibr
113:   FUNC GLOBAL DEFAULT UND _ZN7android8hardware8vibr
114:   FUNC GLOBAL DEFAULT UND _ZN7android8hardware8vibr
115:   FUNC GLOBAL DEFAULT UND _ZN7android8hardware8vibr
116:   OBJECT GLOBAL DEFAULT UND _ZN7android8hardware8vibr
117:   FUNC GLOBAL DEFAULT UND _ZN7android8hardware8vibr
118:   FUNC GLOBAL DEFAULT UND _ZN7android8hardware8vibr
119:   FUNC GLOBAL DEFAULT UND _ZN7android8hardware8vibr
120:   FUNC GLOBAL DEFAULT UND _ZN7android8hardware8vibr
121:   FUNC GLOBAL DEFAULT UND _ZN7android8hardware8vibr
122:   FUNC GLOBAL DEFAULT UND _ZN7android8hardware8vibr
123:   FUNC GLOBAL DEFAULT UND _ZN7android8hardware8vibr
124:   FUNC GLOBAL DEFAULT UND _ZN7android8hardware8vibr
125:   FUNC GLOBAL DEFAULT UND _ZN7android8hardware8vibr
126:   FUNC GLOBAL DEFAULT UND _ZN7android8hardware8vibr
127:   FUNC GLOBAL DEFAULT UND _ZN7android8hardware8vibr
128:   FUNC GLOBAL DEFAULT UND _ZN7android8hardware8vibr
129:   OBJECT GLOBAL DEFAULT UND _ZN7android8hardware8vibr
130:   FUNC GLOBAL DEFAULT UND _ZN7android8hardware8vibr
131:   FUNC GLOBAL DEFAULT UND _ZN7android8hardware8vibr
132:   FUNC GLOBAL DEFAULT UND _ZN7android8hardware8vibr
133:   FUNC GLOBAL DEFAULT UND _ZN7android8hardware8vibr
134:   FUNC GLOBAL DEFAULT UND _ZN7android8hardware8vibr
135:   FUNC GLOBAL DEFAULT UND _ZN7android8hardware8vibr
136:   FUNC GLOBAL DEFAULT UND _ZN7android8hardware8vibr
137:   FUNC GLOBAL DEFAULT UND _ZN7android8hardware8vibr
138:   FUNC GLOBAL DEFAULT UND _ZN7android8hardware8vibr
139:   FUNC GLOBAL DEFAULT UND _ZN7android8hardware8vibr
140:   FUNC GLOBAL DEFAULT UND _ZN7android8hardware9BHwB
141:   FUNC GLOBAL DEFAULT UND _ZN7android8hardware9BHwB
142:   FUNC GLOBAL DEFAULT UND _ZN7android8hardware9BHwB
143:   FUNC GLOBAL DEFAULT UND _ZN7android8hardware9BHwB
144:   FUNC GLOBAL DEFAULT UND _ZN7android8hardware9BHwB
145:   FUNC GLOBAL DEFAULT UND _ZN7android8hardware9BHwB
146:   FUNC GLOBAL DEFAULT UND _ZN7android8hardware9BHwB
147:   FUNC GLOBAL DEFAULT UND _ZN7android8hardware9BHwB
148:   FUNC GLOBAL DEFAULT UND _ZN7android8hardware9BHwB
149:   FUNC GLOBAL DEFAULT UND _ZN7android8hardware9BHwB
150:   FUNC GLOBAL DEFAULT UND _ZNK7android7RefBase10cre
151:   FUNC GLOBAL DEFAULT UND _ZNK7android7RefBase11get
152:   FUNC GLOBAL DEFAULT UND _ZNK7android7RefBase9decS
153:   FUNC GLOBAL DEFAULT UND _ZNK7android7RefBase9incS
154:   FUNC GLOBAL DEFAULT UND _ZNK7android8hardware6Par
155:   FUNC GLOBAL DEFAULT UND _ZNK7android8hardware6Par
156:   FUNC GLOBAL DEFAULT UND _ZNK7android8hardware6Par
157:   FUNC GLOBAL DEFAULT UND _ZNK7android8hardware6Par
158:   FUNC GLOBAL DEFAULT UND _ZNK7android8hardware7IBi
159:   FUNC GLOBAL DEFAULT UND _ZNK7android8hardware7det
160:   FUNC GLOBAL DEFAULT UND _ZNK7android8hardware9BHw
161:   FUNC GLOBAL DEFAULT UND _ZNKSt3__120__vector_base
162:   FUNC GLOBAL DEFAULT UND _ZNKSt3__121__basic_strin
163:   FUNC GLOBAL DEFAULT UND _ZNSt3__112basic_stringIc
164:   FUNC GLOBAL DEFAULT UND _ZNSt3__15mutex4lockEv
165:   FUNC GLOBAL DEFAULT UND _ZNSt3__15mutex6unlockEv
166:   FUNC GLOBAL DEFAULT UND _ZNSt3__15mutexD1Ev
167:   FUNC GLOBAL DEFAULT UND _ZTv0_n12_N7android4hidl4
168:   FUNC GLOBAL DEFAULT UND _ZTv0_n12_N7android4hidl4
169:   FUNC GLOBAL DEFAULT UND _ZTv0_n12_N7android8hardw
170:   FUNC GLOBAL DEFAULT UND _ZTv0_n12_N7android8hardw
171:   FUNC GLOBAL DEFAULT UND _ZTv0_n12_N7android8hardw
172:   FUNC GLOBAL DEFAULT UND _ZTv0_n12_N7android8hardw
173:   FUNC GLOBAL DEFAULT UND _ZTv0_n12_N7android8hardw
174:   FUNC GLOBAL DEFAULT UND _ZTv0_n12_N7android8hardw
175:   FUNC GLOBAL DEFAULT UND _ZTv0_n12_N7android8hardw
176:   FUNC GLOBAL DEFAULT UND _ZTv0_n12_N7android8hardw
177:   FUNC GLOBAL DEFAULT UND _ZTv0_n16_N7android8hardw
178:   FUNC GLOBAL DEFAULT UND _ZTv0_n20_N7android8hardw
179:   FUNC GLOBAL DEFAULT UND _ZTv0_n24_N7android8hardw
180:   FUNC GLOBAL DEFAULT UND _ZdaPv
181:   FUNC GLOBAL DEFAULT UND _ZdlPv
182:   FUNC GLOBAL DEFAULT UND _Znaj
183:   FUNC GLOBAL DEFAULT UND _Znwj
184:   FUNC GLOBAL DEFAULT UND __android_log_assert@LIBLOG (3)
185:   FUNC GLOBAL DEFAULT UND __cxa_pure_virtual
186:   FUNC GLOBAL DEFAULT UND __stack_chk_fail@LIBC (2)
187:   OBJECT GLOBAL DEFAULT UND __stack_chk_guard@LIBC (2)
188:   FUNC GLOBAL DEFAULT UND abort@LIBC (2)
189:   FUNC GLOBAL DEFAULT UND atrace_begin_body
190:   OBJECT GLOBAL DEFAULT UND atrace_enabled_tags
191:   FUNC GLOBAL DEFAULT UND atrace_end_body
192:   OBJECT GLOBAL DEFAULT UND atrace_is_ready
193:   FUNC GLOBAL DEFAULT UND atrace_setup
194:   FUNC GLOBAL DEFAULT UND memcmp@LIBC (2)
195:   FUNC GLOBAL DEFAULT UND strlen@LIBC (2)
196:   FUNC GLOBAL DEFAULT UND memcpy@LIBC (2)
197:   FUNC GLOBAL DEFAULT UND memset@LIBC (2)
198:   FUNC GLOBAL DEFAULT 14 _ZN7android8hardware8vibr
199:   FUNC GLOBAL DEFAULT 14 _ZN7android8hardware8vibr
200:   FUNC GLOBAL DEFAULT 14 _ZN7android8hardware8vibr
201:   FUNC GLOBAL DEFAULT 14 _ZN7android8hardware8vibr
202:   FUNC GLOBAL DEFAULT 14 _ZN7android8hardware8vibr
203:   FUNC GLOBAL DEFAULT 14 _ZN7android8hardware8vibr
204:   FUNC GLOBAL DEFAULT 14 _ZN7android8hardware8vibr
205:   FUNC GLOBAL DEFAULT 14 _ZTv0_n12_N7android8hardw
206:   FUNC GLOBAL DEFAULT 14 _ZN7android8hardware8vibr
207:   FUNC GLOBAL DEFAULT 14 _ZN7android8hardware8vibr
208:   FUNC GLOBAL DEFAULT 14 _ZN7android8hardware8vibr
209:   FUNC WEAK DEFAULT 14 _ZNSt3__16__treeINS_12__v
210:   OBJECT WEAK DEFAULT 18 _ZTVN7android8hardware8vi
211:   FUNC GLOBAL DEFAULT 14 _ZN7android8hardware8vibr
212:   FUNC GLOBAL DEFAULT 14 _ZN7android8hardware8vibr
213:   FUNC GLOBAL DEFAULT 14 _ZN7android8hardware8vibr
214:   FUNC GLOBAL DEFAULT 14 _ZN7android8hardware8vibr
215:   FUNC GLOBAL DEFAULT 14 _ZN7android8hardware8vibr
216:   FUNC GLOBAL DEFAULT 14 _ZN7android8hardware8vibr
217:   FUNC WEAK DEFAULT 14 _ZNSt3__16vectorIN7androi
218:   FUNC GLOBAL DEFAULT 14 _ZN7android8hardware8vibr
219:   FUNC GLOBAL DEFAULT 14 _ZN7android8hardware8vibr
220:   FUNC GLOBAL DEFAULT 14 _ZN7android8hardware8vibr
221:   FUNC GLOBAL DEFAULT 14 _ZN7android8hardware8vibr
222:   FUNC GLOBAL DEFAULT 14 _ZN7android8hardware8vibr
223:   FUNC WEAK DEFAULT 14 _ZNSt3__16__treeINS_12__v
224:   OBJECT GLOBAL DEFAULT 18 _ZTCN7android8hardware8vi
225:   OBJECT GLOBAL DEFAULT 18 _ZTCN7android8hardware8vi
226:   FUNC GLOBAL DEFAULT 14 _ZN7android8hardware8vibr
227:   FUNC GLOBAL DEFAULT 14 _ZN7android8hardware8vibr
228:   FUNC GLOBAL DEFAULT 14 _ZN7android8hardware8vibr
229:   FUNC GLOBAL DEFAULT 14 _ZN7android8hardware8vibr
230:   FUNC WEAK DEFAULT 14 _ZN7android8hardware7deta
231:   FUNC GLOBAL DEFAULT 14 _ZN7android8hardware8vibr
232:   FUNC WEAK DEFAULT 14 _ZNSt3__16__treeINS_12__v
233:   OBJECT GLOBAL DEFAULT 18 _ZTVN7android8hardware8vi
234:   FUNC GLOBAL DEFAULT 14 _ZN7android8hardware8vibr
235:   FUNC GLOBAL DEFAULT 14 _ZN7android8hardware8vibr
236:   FUNC WEAK DEFAULT 14 _ZNSt3__127__tree_balance
237:   FUNC WEAK DEFAULT 14 _ZNSt3__16vectorIPvNS_9al
238:   OBJECT WEAK DEFAULT 18 _ZTCN7android8hardware8vi
239:   OBJECT GLOBAL DEFAULT 18 _ZTCN7android8hardware8vi
240:   FUNC GLOBAL DEFAULT 14 _ZTv0_n12_N7android8hardw
241:   FUNC GLOBAL DEFAULT 14 __aeabi_memset
242:   FUNC WEAK DEFAULT 14 _ZN7android8hardware7deta
243:   FUNC GLOBAL DEFAULT 14 _ZN7android8hardware8vibr
244:   FUNC GLOBAL DEFAULT 14 _ZN7android8hardware8vibr
245:   FUNC WEAK DEFAULT 14 _ZNSt3__16__treeINS_12__v
246:   OBJECT GLOBAL DEFAULT 18 _ZTCN7android8hardware8vi
247:   OBJECT GLOBAL DEFAULT 18 _ZTCN7android8hardware8vi
248:   OBJECT GLOBAL DEFAULT 18 _ZTTN7android8hardware8vi
249:   FUNC GLOBAL DEFAULT 14 __aeabi_memcpy4
250:   FUNC WEAK DEFAULT 14 _ZNSt3__16vectorINS_8func
251:   FUNC GLOBAL DEFAULT 14 _ZThn20_N7android8hardwar
252:   FUNC GLOBAL DEFAULT 14 _ZN7android8hardware8vibr
253:   FUNC GLOBAL DEFAULT 14 _ZN7android8hardware8vibr
254:   OBJECT GLOBAL DEFAULT 18 _ZTCN7android8hardware8vi
255:   OBJECT GLOBAL DEFAULT 18 _ZTTN7android8hardware8vi
256:   OBJECT GLOBAL DEFAULT 16 _ZN7android8hardware8vibr
257:   FUNC GLOBAL DEFAULT 14 _ZN7android8hardware8vibr
258:   FUNC WEAK DEFAULT 14 _ZNSt3__113__tree_removeI
259:   FUNC WEAK DEFAULT 14 _ZNSt3__16__treeINS_12__v
260:   FUNC GLOBAL DEFAULT 14 __aeabi_memclr
261:   FUNC GLOBAL DEFAULT 14 __aeabi_memclr4
262:   FUNC GLOBAL DEFAULT 14 _ZN7android8hardware8vibr
263:   FUNC GLOBAL DEFAULT 14 _ZN7android8hardware8vibr
264:   FUNC GLOBAL DEFAULT 14 _ZN7android8hardware8vibr
265:   FUNC GLOBAL DEFAULT 14 _ZN7android8hardware8vibr
266:   OBJECT GLOBAL DEFAULT 18 _ZTCN7android8hardware8vi
267:   OBJECT GLOBAL DEFAULT 18 _ZTCN7android8hardware8vi
268:   OBJECT GLOBAL DEFAULT 18 _ZTCN7android8hardware8vi
269:   FUNC GLOBAL DEFAULT 14 __aeabi_memcpy8
270:   FUNC GLOBAL DEFAULT 14 _ZN7android8hardware8vibr
271:   FUNC GLOBAL DEFAULT 14 _ZN7android8hardware8vibr
272:   FUNC GLOBAL DEFAULT 14 _ZN7android8hardware8vibr
273:   FUNC GLOBAL DEFAULT 14 __aeabi_memset4
274:   FUNC GLOBAL DEFAULT 14 _ZN7android8hardware8vibr
275:   OBJECT GLOBAL DEFAULT 18 _ZTCN7android8hardware8vi
276:   OBJECT GLOBAL DEFAULT 18 _ZTVN7android8hardware8vi
277:   FUNC GLOBAL DEFAULT 14 __aeabi_memcpy
278:   FUNC GLOBAL DEFAULT 14 __aeabi_memclr8
279:   FUNC GLOBAL DEFAULT 14 _ZN7android8hardware8vibr
280:   OBJECT GLOBAL DEFAULT 18 _ZTCN7android8hardware8vi
281:   FUNC WEAK DEFAULT 14 _ZN7android8hardware7deta
282:   FUNC GLOBAL DEFAULT 14 _ZN7android8hardware8vibr
283:   OBJECT GLOBAL DEFAULT 18 _ZTTN7android8hardware8vi
284:   FUNC GLOBAL DEFAULT 14 _ZThn20_N7android8hardwar
285:   FUNC GLOBAL DEFAULT 14 __aeabi_memset8
286:   FUNC GLOBAL DEFAULT 14 _ZN7android8hardware8vibr
287:   FUNC GLOBAL DEFAULT 14 _ZN7android8hardware8vibr
288:   FUNC GLOBAL DEFAULT 14 _ZN7android8hardware8vibr
289:   FUNC GLOBAL DEFAULT 14 _ZN7android8hardware8vibr
290:   OBJECT GLOBAL DEFAULT 18 _ZTCN7android8hardware8vi
291:   FUNC GLOBAL DEFAULT 14 _ZN7android8hardware8vibr
292:   FUNC GLOBAL DEFAULT 14 _ZN7android8hardware8vibr
293:   FUNC GLOBAL DEFAULT 14 _ZN7android8hardware8vibr
294:   OBJECT GLOBAL DEFAULT 18 _ZTCN7android8hardware8vi
295:   OBJECT GLOBAL DEFAULT 18 _ZTVN7android8hardware8vi
296:   FUNC GLOBAL DEFAULT 14 _ZN7android8hardware8vibr
297:   FUNC GLOBAL DEFAULT 14 _ZN7android8hardware8vibr
298:   FUNC GLOBAL DEFAULT 14 _ZN7android8hardware8vibr
299:   FUNC GLOBAL DEFAULT 14 _ZN7android8hardware8vibr
300:   FUNC WEAK DEFAULT 14 _ZN7android8hardware7deta
301:   FUNC WEAK DEFAULT 14 _ZN7android8hardware7deta
302:   FUNC GLOBAL DEFAULT 14 _ZN7android8hardware8vibr
303:   FUNC GLOBAL DEFAULT 14 _ZN7android8hardware8vibr
304:   FUNC WEAK DEFAULT 14 _ZNSt3__16__treeINS_12__v
305:   OBJECT GLOBAL DEFAULT 18 _ZTCN7android8hardware8vi
306:   FUNC GLOBAL DEFAULT 14 _ZN7android8hardware8vibr
307:   FUNC GLOBAL DEFAULT 14 _ZN7android8hardware8vibr
308:   OBJECT GLOBAL DEFAULT 18 _ZTCN7android8hardware8vi
