 0x000000000000000e (SONAME)             Library soname: [libjnigraphics.so]
  
Symbol   contains 4 entries:
Num:   Type Bind Vis Ndx Name
0:   NOTYPE LOCAL DEFAULT UND
1:   FUNC GLOBAL DEFAULT 5 AndroidBitmap_getInfo
2:   FUNC GLOBAL DEFAULT 5 AndroidBitmap_lockPixels
3:   FUNC GLOBAL DEFAULT 5 AndroidBitmap_unlockPixel
