 0x0000000e (SONAME)                     Library soname: [android.hardware.wifi@1.0.so]
  
Symbol   contains 1504 entries:
Num:   Type Bind Vis Ndx Name
0:   NOTYPE LOCAL DEFAULT UND
1:   FUNC GLOBAL DEFAULT UND __cxa_finalize@LIBC (2)
2:   FUNC GLOBAL DEFAULT UND _ZN7android14sp_report_ra
3:   FUNC GLOBAL DEFAULT UND _ZN7android21report_syspr
4:   OBJECT GLOBAL DEFAULT UND _ZN7android4hidl4base4V1_
5:   FUNC GLOBAL DEFAULT UND _ZN7android4hidl4base4V1_
6:   FUNC GLOBAL DEFAULT UND _ZN7android4hidl4base4V1_
7:   FUNC GLOBAL DEFAULT UND _ZN7android4hidl4base4V1_
8:   FUNC GLOBAL DEFAULT UND _ZN7android4hidl4base4V1_
9:   FUNC GLOBAL DEFAULT UND _ZN7android4hidl4base4V1_
10:   FUNC GLOBAL DEFAULT UND _ZN7android4hidl4base4V1_
11:   FUNC GLOBAL DEFAULT UND _ZN7android4hidl4base4V1_
12:   FUNC GLOBAL DEFAULT UND _ZN7android4hidl4base4V1_
13:   FUNC GLOBAL DEFAULT UND _ZN7android4hidl4base4V1_
14:   FUNC GLOBAL DEFAULT UND _ZN7android4hidl4base4V1_
15:   FUNC GLOBAL DEFAULT UND _ZN7android4hidl4base4V1_
16:   FUNC GLOBAL DEFAULT UND _ZN7android4hidl4base4V1_
17:   FUNC GLOBAL DEFAULT UND _ZN7android4hidl4base4V1_
18:   FUNC GLOBAL DEFAULT UND _ZN7android4hidl4base4V1_
19:   FUNC GLOBAL DEFAULT UND _ZN7android4hidl4base4V1_
20:   FUNC GLOBAL DEFAULT UND _ZN7android4hidl4base4V1_
21:   FUNC GLOBAL DEFAULT UND _ZN7android4hidl4base4V1_
22:   FUNC GLOBAL DEFAULT UND _ZN7android4hidl4base4V1_
23:   FUNC GLOBAL DEFAULT UND _ZN7android4hidl4base4V1_
24:   FUNC GLOBAL DEFAULT UND _ZN7android4hidl4base4V1_
25:   FUNC GLOBAL DEFAULT UND _ZN7android4hidl4base4V1_
26:   FUNC GLOBAL DEFAULT UND _ZN7android4hidl4base4V1_
27:   FUNC GLOBAL DEFAULT UND _ZN7android4hidl4base4V1_
28:   FUNC GLOBAL DEFAULT UND _ZN7android7RefBase10onFi
29:   FUNC GLOBAL DEFAULT UND _ZN7android7RefBase12weak
30:   FUNC GLOBAL DEFAULT UND _ZN7android7RefBase13onLa
31:   FUNC GLOBAL DEFAULT UND _ZN7android7RefBase15onLa
32:   FUNC GLOBAL DEFAULT UND _ZN7android7RefBase20onIn
33:   FUNC GLOBAL DEFAULT UND _ZN7android7RefBaseC2Ev
34:   FUNC GLOBAL DEFAULT UND _ZN7android7RefBaseD2Ev
35:   FUNC GLOBAL DEFAULT UND _ZN7android8hardware10IIn
36:   FUNC GLOBAL DEFAULT UND _ZN7android8hardware10IIn
37:   FUNC GLOBAL DEFAULT UND _ZN7android8hardware10IIn
38:   FUNC GLOBAL DEFAULT UND _ZN7android8hardware10IIn
39:   FUNC GLOBAL DEFAULT UND _ZN7android8hardware10IIn
40:   FUNC GLOBAL DEFAULT UND _ZN7android8hardware11BpH
41:   FUNC GLOBAL DEFAULT UND _ZN7android8hardware11BpH
42:   FUNC GLOBAL DEFAULT UND _ZN7android8hardware11BpH
43:   FUNC GLOBAL DEFAULT UND _ZN7android8hardware11BpH
44:   FUNC GLOBAL DEFAULT UND _ZN7android8hardware11BpH
45:   FUNC GLOBAL DEFAULT UND _ZN7android8hardware11BpH
46:   FUNC GLOBAL DEFAULT UND _ZN7android8hardware11BpH
47:   FUNC GLOBAL DEFAULT UND _ZN7android8hardware11hid
48:   FUNC GLOBAL DEFAULT UND _ZN7android8hardware11hid
49:   FUNC GLOBAL DEFAULT UND _ZN7android8hardware11hid
50:   FUNC GLOBAL DEFAULT UND _ZN7android8hardware11hid
51:   FUNC GLOBAL DEFAULT UND _ZN7android8hardware11hid
52:   FUNC GLOBAL DEFAULT UND _ZN7android8hardware12Pro
53:   FUNC GLOBAL DEFAULT UND _ZN7android8hardware12Pro
54:   FUNC GLOBAL DEFAULT UND _ZN7android8hardware13wri
55:   FUNC GLOBAL DEFAULT UND _ZN7android8hardware14rea
56:   FUNC GLOBAL DEFAULT UND _ZN7android8hardware21def
57:   FUNC GLOBAL DEFAULT UND _ZN7android8hardware23get
58:   FUNC GLOBAL DEFAULT UND _ZN7android8hardware27hid
59:   FUNC GLOBAL DEFAULT UND _ZN7android8hardware27hid
60:   FUNC GLOBAL DEFAULT UND _ZN7android8hardware6Parc
61:   FUNC GLOBAL DEFAULT UND _ZN7android8hardware6Parc
62:   FUNC GLOBAL DEFAULT UND _ZN7android8hardware6Parc
63:   FUNC GLOBAL DEFAULT UND _ZN7android8hardware6Parc
64:   FUNC GLOBAL DEFAULT UND _ZN7android8hardware6Parc
65:   FUNC GLOBAL DEFAULT UND _ZN7android8hardware6Parc
66:   FUNC GLOBAL DEFAULT UND _ZN7android8hardware6Parc
67:   FUNC GLOBAL DEFAULT UND _ZN7android8hardware6Parc
68:   FUNC GLOBAL DEFAULT UND _ZN7android8hardware6Stat
69:   FUNC GLOBAL DEFAULT UND _ZN7android8hardware6Stat
70:   FUNC GLOBAL DEFAULT UND _ZN7android8hardware6Stat
71:   FUNC GLOBAL DEFAULT UND _ZN7android8hardware6Stat
72:   FUNC GLOBAL DEFAULT UND _ZN7android8hardware7IBin
73:   FUNC GLOBAL DEFAULT UND _ZN7android8hardware7IBin
74:   FUNC GLOBAL DEFAULT UND _ZN7android8hardware7IBin
75:   FUNC GLOBAL DEFAULT UND _ZN7android8hardware7IBin
76:   FUNC GLOBAL DEFAULT UND _ZN7android8hardware7deta
77:   FUNC GLOBAL DEFAULT UND _ZN7android8hardware7deta
78:   FUNC GLOBAL DEFAULT UND _ZN7android8hardware7deta
79:   FUNC GLOBAL DEFAULT UND _ZN7android8hardware7deta
80:   FUNC GLOBAL DEFAULT UND _ZN7android8hardware7deta
81:   FUNC GLOBAL DEFAULT UND _ZN7android8hardware7deta
82:   FUNC GLOBAL DEFAULT UND _ZN7android8hardware7deta
83:   OBJECT GLOBAL DEFAULT UND _ZN7android8hardware7deta
84:   OBJECT GLOBAL DEFAULT UND _ZN7android8hardware7deta
85:   FUNC GLOBAL DEFAULT UND _ZN7android8hardware7deta
86:   FUNC GLOBAL DEFAULT UND _ZN7android8hardware7deta
87:   FUNC GLOBAL DEFAULT UND _ZN7android8hardware7deta
88:   FUNC GLOBAL DEFAULT UND _ZN7android8hardware7deta
89:   FUNC GLOBAL DEFAULT UND _ZN7android8hardware7deta
90:   FUNC GLOBAL DEFAULT UND _ZN7android8hardware7deta
91:   FUNC GLOBAL DEFAULT UND _ZN7android8hardware7deta
92:   FUNC GLOBAL DEFAULT UND _ZN7android8hardware7deta
93:   FUNC GLOBAL DEFAULT UND _ZN7android8hardware7deta
94:   FUNC GLOBAL DEFAULT UND _ZN7android8hardware7deta
95:   OBJECT GLOBAL DEFAULT UND _ZN7android8hardware7deta
96:   FUNC GLOBAL DEFAULT UND _ZN7android8hardware9BHwB
97:   FUNC GLOBAL DEFAULT UND _ZN7android8hardware9BHwB
98:   FUNC GLOBAL DEFAULT UND _ZN7android8hardware9BHwB
99:   FUNC GLOBAL DEFAULT UND _ZN7android8hardware9BHwB
100:   FUNC GLOBAL DEFAULT UND _ZN7android8hardware9BHwB
101:   FUNC GLOBAL DEFAULT UND _ZN7android8hardware9BHwB
102:   FUNC GLOBAL DEFAULT UND _ZN7android8hardware9BHwB
103:   FUNC GLOBAL DEFAULT UND _ZN7android8hardware9BHwB
104:   FUNC GLOBAL DEFAULT UND _ZN7android8hardware9BHwB
105:   FUNC GLOBAL DEFAULT UND _ZN7android8hardware9BHwB
106:   FUNC GLOBAL DEFAULT UND _ZNK7android7RefBase10cre
107:   FUNC GLOBAL DEFAULT UND _ZNK7android7RefBase11get
108:   FUNC GLOBAL DEFAULT UND _ZNK7android7RefBase9decS
109:   FUNC GLOBAL DEFAULT UND _ZNK7android7RefBase9incS
110:   FUNC GLOBAL DEFAULT UND _ZNK7android8hardware6Par
111:   FUNC GLOBAL DEFAULT UND _ZNK7android8hardware6Par
112:   FUNC GLOBAL DEFAULT UND _ZNK7android8hardware6Par
113:   FUNC GLOBAL DEFAULT UND _ZNK7android8hardware6Par
114:   FUNC GLOBAL DEFAULT UND _ZNK7android8hardware6Par
115:   FUNC GLOBAL DEFAULT UND _ZNK7android8hardware6Par
116:   FUNC GLOBAL DEFAULT UND _ZNK7android8hardware7IBi
117:   FUNC GLOBAL DEFAULT UND _ZNK7android8hardware7det
118:   FUNC GLOBAL DEFAULT UND _ZNK7android8hardware9BHw
119:   FUNC GLOBAL DEFAULT UND _ZNKSt3__120__vector_base
120:   FUNC GLOBAL DEFAULT UND _ZNKSt3__121__basic_strin
121:   FUNC GLOBAL DEFAULT UND _ZNSt3__112basic_stringIc
122:   FUNC GLOBAL DEFAULT UND _ZNSt3__112basic_stringIc
123:   FUNC GLOBAL DEFAULT UND _ZNSt3__15mutex4lockEv
124:   FUNC GLOBAL DEFAULT UND _ZNSt3__15mutex6unlockEv
125:   FUNC GLOBAL DEFAULT UND _ZNSt3__15mutexD1Ev
126:   FUNC GLOBAL DEFAULT UND _ZTv0_n12_N7android4hidl4
127:   FUNC GLOBAL DEFAULT UND _ZTv0_n12_N7android4hidl4
128:   FUNC GLOBAL DEFAULT UND _ZTv0_n12_N7android8hardw
129:   FUNC GLOBAL DEFAULT UND _ZTv0_n12_N7android8hardw
130:   FUNC GLOBAL DEFAULT UND _ZTv0_n12_N7android8hardw
131:   FUNC GLOBAL DEFAULT UND _ZTv0_n12_N7android8hardw
132:   FUNC GLOBAL DEFAULT UND _ZTv0_n12_N7android8hardw
133:   FUNC GLOBAL DEFAULT UND _ZTv0_n12_N7android8hardw
134:   FUNC GLOBAL DEFAULT UND _ZTv0_n12_N7android8hardw
135:   FUNC GLOBAL DEFAULT UND _ZTv0_n12_N7android8hardw
136:   FUNC GLOBAL DEFAULT UND _ZTv0_n16_N7android8hardw
137:   FUNC GLOBAL DEFAULT UND _ZTv0_n20_N7android8hardw
138:   FUNC GLOBAL DEFAULT UND _ZTv0_n24_N7android8hardw
139:   FUNC GLOBAL DEFAULT UND _ZdaPv
140:   FUNC GLOBAL DEFAULT UND _ZdlPv
141:   FUNC GLOBAL DEFAULT UND _Znaj
142:   FUNC GLOBAL DEFAULT UND _Znwj
143:   FUNC GLOBAL DEFAULT UND __android_log_assert@LIBLOG (3)
144:   FUNC GLOBAL DEFAULT UND __cxa_pure_virtual
145:   FUNC GLOBAL DEFAULT UND __stack_chk_fail@LIBC (2)
146:   OBJECT GLOBAL DEFAULT UND __stack_chk_guard@LIBC (2)
147:   FUNC GLOBAL DEFAULT UND abort@LIBC (2)
148:   FUNC GLOBAL DEFAULT UND atrace_begin_body
149:   OBJECT GLOBAL DEFAULT UND atrace_enabled_tags
150:   FUNC GLOBAL DEFAULT UND atrace_end_body
151:   OBJECT GLOBAL DEFAULT UND atrace_is_ready
152:   FUNC GLOBAL DEFAULT UND atrace_setup
153:   FUNC GLOBAL DEFAULT UND memcmp@LIBC (2)
154:   FUNC GLOBAL DEFAULT UND strlen@LIBC (2)
155:   FUNC GLOBAL DEFAULT UND _ZN7android8hardware21wri
156:   FUNC GLOBAL DEFAULT UND _ZN7android8hardware22rea
157:   FUNC GLOBAL DEFAULT UND _ZN7android8hardware11hid
158:   FUNC GLOBAL DEFAULT UND _ZN7android8hardware6Parc
159:   FUNC GLOBAL DEFAULT UND _ZNK7android8hardware6Par
160:   FUNC GLOBAL DEFAULT UND _ZN7android8hardware6Parc
161:   FUNC GLOBAL DEFAULT UND _ZN7android8hardware6Parc
162:   FUNC GLOBAL DEFAULT UND _ZNK7android8hardware6Par
163:   FUNC GLOBAL DEFAULT UND _ZNK7android8hardware6Par
164:   FUNC GLOBAL DEFAULT UND memcpy@LIBC (2)
165:   FUNC GLOBAL DEFAULT UND memset@LIBC (2)
166:   FUNC WEAK DEFAULT 14 _ZNSt3__16vectorIPvNS_9al
167:   FUNC GLOBAL DEFAULT 14 __aeabi_memcpy
168:   FUNC GLOBAL DEFAULT 14 _ZTv0_n12_N7android8hardw
169:   OBJECT GLOBAL DEFAULT 18 _ZTTN7android8hardware4wi
170:   OBJECT GLOBAL DEFAULT 18 _ZTCN7android8hardware4wi
171:   FUNC GLOBAL DEFAULT 14 _ZN7android8hardware4wifi
172:   FUNC WEAK DEFAULT 14 _ZN7android8hardware7deta
173:   FUNC GLOBAL DEFAULT 14 _ZN7android8hardware4wifi
174:   FUNC GLOBAL DEFAULT 14 _ZN7android8hardware4wifi
175:   FUNC GLOBAL DEFAULT 14 _ZN7android8hardware4wifi
176:   FUNC GLOBAL DEFAULT 14 _ZN7android8hardware4wifi
177:   FUNC GLOBAL DEFAULT 14 _ZN7android8hardware4wifi
178:   FUNC GLOBAL DEFAULT 14 _ZN7android8hardware4wifi
179:   FUNC GLOBAL DEFAULT 14 _ZN7android8hardware4wifi
180:   FUNC GLOBAL DEFAULT 14 _ZN7android8hardware4wifi
181:   FUNC GLOBAL DEFAULT 14 _ZN7android8hardware4wifi
182:   FUNC GLOBAL DEFAULT 14 _ZN7android8hardware4wifi
183:   FUNC GLOBAL DEFAULT 14 _ZN7android8hardware4wifi
184:   FUNC GLOBAL DEFAULT 14 _ZThn20_N7android8hardwar
185:   OBJECT GLOBAL DEFAULT 18 _ZTTN7android8hardware4wi
186:   FUNC GLOBAL DEFAULT 14 _ZN7android8hardware4wifi
187:   FUNC GLOBAL DEFAULT 14 _ZN7android8hardware4wifi
188:   OBJECT WEAK DEFAULT 18 _ZTCN7android8hardware4wi
189:   FUNC GLOBAL DEFAULT 14 _ZN7android8hardware4wifi
190:   FUNC GLOBAL DEFAULT 14 _ZN7android8hardware4wifi
191:   FUNC GLOBAL DEFAULT 14 _ZN7android8hardware4wifi
192:   FUNC WEAK DEFAULT 14 _ZN7android8hardware10fro
193:   FUNC GLOBAL DEFAULT 14 _ZN7android8hardware4wifi
194:   FUNC GLOBAL DEFAULT 14 _ZN7android8hardware4wifi
195:   FUNC GLOBAL DEFAULT 14 _ZN7android8hardware4wifi
196:   FUNC GLOBAL DEFAULT 14 _ZN7android8hardware4wifi
197:   FUNC GLOBAL DEFAULT 14 _ZN7android8hardware4wifi
198:   OBJECT GLOBAL DEFAULT 18 _ZTVN7android8hardware4wi
199:   FUNC GLOBAL DEFAULT 14 _ZN7android8hardware4wifi
200:   FUNC GLOBAL DEFAULT 14 _ZN7android8hardware4wifi
201:   FUNC GLOBAL DEFAULT 14 _ZN7android8hardware4wifi
202:   FUNC GLOBAL DEFAULT 14 _ZN7android8hardware4wifi
203:   FUNC GLOBAL DEFAULT 14 _ZN7android8hardware4wifi
204:   FUNC GLOBAL DEFAULT 14 _ZN7android8hardware4wifi
205:   FUNC GLOBAL DEFAULT 14 _ZN7android8hardware4wifi
206:   FUNC GLOBAL DEFAULT 14 _ZN7android8hardware4wifi
207:   FUNC GLOBAL DEFAULT 14 _ZN7android8hardware4wifi
208:   FUNC GLOBAL DEFAULT 14 _ZN7android8hardware4wifi
209:   FUNC GLOBAL DEFAULT 14 _ZN7android8hardware4wifi
210:   FUNC GLOBAL DEFAULT 14 _ZN7android8hardware4wifi
211:   FUNC GLOBAL DEFAULT 14 _ZN7android8hardware4wifi
212:   FUNC GLOBAL DEFAULT 14 _ZN7android8hardware4wifi
213:   OBJECT GLOBAL DEFAULT 18 _ZTCN7android8hardware4wi
214:   FUNC GLOBAL DEFAULT 14 _ZN7android8hardware4wifi
215:   FUNC GLOBAL DEFAULT 14 _ZN7android8hardware4wifi
216:   FUNC GLOBAL DEFAULT 14 _ZN7android8hardware4wifi
217:   FUNC GLOBAL DEFAULT 14 _ZN7android8hardware4wifi
218:   FUNC GLOBAL DEFAULT 14 _ZN7android8hardware4wifi
219:   FUNC GLOBAL DEFAULT 14 _ZN7android8hardware4wifi
220:   FUNC GLOBAL DEFAULT 14 _ZN7android8hardware4wifi
221:   FUNC GLOBAL DEFAULT 14 _ZN7android8hardware4wifi
222:   FUNC GLOBAL DEFAULT 14 _ZN7android8hardware4wifi
223:   OBJECT GLOBAL DEFAULT 18 _ZTTN7android8hardware4wi
224:   FUNC GLOBAL DEFAULT 14 _ZN7android8hardware4wifi
225:   FUNC GLOBAL DEFAULT 14 _ZN7android8hardware4wifi
226:   FUNC GLOBAL DEFAULT 14 _ZN7android8hardware4wifi
227:   FUNC GLOBAL DEFAULT 14 _ZN7android8hardware4wifi
228:   FUNC GLOBAL DEFAULT 14 _ZN7android8hardware4wifi
229:   OBJECT GLOBAL DEFAULT 16 _ZN7android8hardware4wifi
230:   FUNC GLOBAL DEFAULT 14 _ZN7android8hardware4wifi
231:   FUNC GLOBAL DEFAULT 14 _ZN7android8hardware4wifi
232:   FUNC GLOBAL DEFAULT 14 _ZN7android8hardware4wifi
233:   FUNC GLOBAL DEFAULT 14 _ZN7android8hardware4wifi
234:   FUNC GLOBAL DEFAULT 14 _ZN7android8hardware4wifi
235:   FUNC GLOBAL DEFAULT 14 _ZN7android8hardware4wifi
236:   OBJECT WEAK DEFAULT 18 _ZTVN7android8hardware4wi
237:   FUNC GLOBAL DEFAULT 14 _ZN7android8hardware4wifi
238:   FUNC GLOBAL DEFAULT 14 _ZN7android8hardware4wifi
239:   OBJECT GLOBAL DEFAULT 18 _ZTCN7android8hardware4wi
240:   FUNC GLOBAL DEFAULT 14 _ZN7android8hardware4wifi
241:   FUNC GLOBAL DEFAULT 14 _ZN7android8hardware4wifi
242:   OBJECT WEAK DEFAULT 18 _ZTCN7android8hardware4wi
243:   FUNC WEAK DEFAULT 14 _ZN7android8hardware7deta
244:   FUNC GLOBAL DEFAULT 14 _ZN7android8hardware4wifi
245:   FUNC WEAK DEFAULT 14 _ZN7android8hardware7deta
246:   FUNC GLOBAL DEFAULT 14 _ZN7android8hardware4wifi
247:   OBJECT GLOBAL DEFAULT 18 _ZTCN7android8hardware4wi
248:   OBJECT GLOBAL DEFAULT 18 _ZTTN7android8hardware4wi
249:   FUNC GLOBAL DEFAULT 14 _ZN7android8hardware4wifi
250:   FUNC GLOBAL DEFAULT 14 _ZN7android8hardware4wifi
251:   FUNC WEAK DEFAULT 14 _ZN7android8hardware7deta
252:   FUNC GLOBAL DEFAULT 14 _ZN7android8hardware4wifi
253:   FUNC GLOBAL DEFAULT 14 _ZN7android8hardware4wifi
254:   FUNC GLOBAL DEFAULT 14 _ZN7android8hardware4wifi
255:   FUNC GLOBAL DEFAULT 14 _ZN7android8hardware4wifi
256:   OBJECT GLOBAL DEFAULT 18 _ZTTN7android8hardware4wi
257:   FUNC GLOBAL DEFAULT 14 _ZN7android8hardware4wifi
258:   FUNC GLOBAL DEFAULT 14 __aeabi_memset
259:   FUNC GLOBAL DEFAULT 14 _ZN7android8hardware4wifi
260:   FUNC GLOBAL DEFAULT 14 _ZN7android8hardware4wifi
261:   OBJECT GLOBAL DEFAULT 18 _ZTCN7android8hardware4wi
262:   FUNC GLOBAL DEFAULT 14 _ZN7android8hardware4wifi
263:   FUNC GLOBAL DEFAULT 14 _ZN7android8hardware4wifi
264:   FUNC GLOBAL DEFAULT 14 _ZN7android8hardware4wifi
265:   FUNC GLOBAL DEFAULT 14 _ZN7android8hardware4wifi
266:   FUNC GLOBAL DEFAULT 14 _ZN7android8hardware4wifi
267:   FUNC GLOBAL DEFAULT 14 _ZThn20_N7android8hardwar
268:   FUNC GLOBAL DEFAULT 14 _ZN7android8hardware4wifi
269:   FUNC GLOBAL DEFAULT 14 _ZN7android8hardware4wifi
270:   FUNC GLOBAL DEFAULT 14 _ZN7android8hardware4wifi
271:   FUNC GLOBAL DEFAULT 14 _ZN7android8hardware4wifi
272:   FUNC GLOBAL DEFAULT 14 _ZN7android8hardware4wifi
273:   FUNC GLOBAL DEFAULT 14 _ZN7android8hardware4wifi
274:   OBJECT GLOBAL DEFAULT 18 _ZTCN7android8hardware4wi
275:   FUNC GLOBAL DEFAULT 14 _ZN7android8hardware4wifi
276:   FUNC GLOBAL DEFAULT 14 _ZN7android8hardware4wifi
277:   FUNC GLOBAL DEFAULT 14 _ZN7android8hardware4wifi
278:   OBJECT GLOBAL DEFAULT 18 _ZTCN7android8hardware4wi
279:   FUNC GLOBAL DEFAULT 14 _ZN7android8hardware4wifi
280:   FUNC GLOBAL DEFAULT 14 _ZN7android8hardware4wifi
281:   FUNC GLOBAL DEFAULT 14 _ZN7android8hardware4wifi
282:   FUNC GLOBAL DEFAULT 14 _ZN7android8hardware4wifi
283:   FUNC GLOBAL DEFAULT 14 _ZN7android8hardware4wifi
284:   FUNC GLOBAL DEFAULT 14 _ZN7android8hardware4wifi
285:   FUNC GLOBAL DEFAULT 14 _ZN7android8hardware4wifi
286:   FUNC GLOBAL DEFAULT 14 _ZN7android8hardware4wifi
287:   FUNC GLOBAL DEFAULT 14 __aeabi_memcpy4
288:   FUNC GLOBAL DEFAULT 14 _ZN7android8hardware4wifi
289:   FUNC GLOBAL DEFAULT 14 _ZN7android8hardware4wifi
290:   OBJECT GLOBAL DEFAULT 18 _ZTCN7android8hardware4wi
291:   FUNC GLOBAL DEFAULT 14 _ZN7android8hardware4wifi
292:   OBJECT WEAK DEFAULT 18 _ZTCN7android8hardware4wi
293:   FUNC GLOBAL DEFAULT 14 _ZN7android8hardware4wifi
294:   FUNC GLOBAL DEFAULT 14 _ZN7android8hardware4wifi
295:   OBJECT GLOBAL DEFAULT 18 _ZTCN7android8hardware4wi
296:   FUNC GLOBAL DEFAULT 14 __aeabi_memcpy8
297:   FUNC GLOBAL DEFAULT 14 _ZN7android8hardware4wifi
298:   OBJECT GLOBAL DEFAULT 18 _ZTCN7android8hardware4wi
299:   FUNC GLOBAL DEFAULT 14 _ZN7android8hardware4wifi
300:   OBJECT GLOBAL DEFAULT 18 _ZTVN7android8hardware4wi
301:   OBJECT GLOBAL DEFAULT 18 _ZTCN7android8hardware4wi
302:   FUNC GLOBAL DEFAULT 14 _ZN7android8hardware4wifi
303:   FUNC GLOBAL DEFAULT 14 _ZN7android8hardware4wifi
304:   FUNC GLOBAL DEFAULT 14 _ZN7android8hardware4wifi
305:   FUNC GLOBAL DEFAULT 14 _ZN7android8hardware4wifi
306:   FUNC GLOBAL DEFAULT 14 _ZN7android8hardware4wifi
307:   OBJECT GLOBAL DEFAULT 18 _ZTTN7android8hardware4wi
308:   FUNC GLOBAL DEFAULT 14 _ZN7android8hardware4wifi
309:   OBJECT GLOBAL DEFAULT 18 _ZTCN7android8hardware4wi
310:   FUNC GLOBAL DEFAULT 14 _ZN7android8hardware4wifi
311:   FUNC GLOBAL DEFAULT 14 _ZN7android8hardware4wifi
312:   FUNC GLOBAL DEFAULT 14 _ZN7android8hardware4wifi
313:   FUNC GLOBAL DEFAULT 14 _ZN7android8hardware4wifi
314:   FUNC GLOBAL DEFAULT 14 _ZN7android8hardware4wifi
315:   FUNC GLOBAL DEFAULT 14 _ZN7android8hardware4wifi
316:   OBJECT GLOBAL DEFAULT 18 _ZTCN7android8hardware4wi
317:   FUNC GLOBAL DEFAULT 14 _ZN7android8hardware4wifi
318:   FUNC GLOBAL DEFAULT 14 _ZN7android8hardware4wifi
319:   FUNC GLOBAL DEFAULT 14 _ZN7android8hardware4wifi
320:   OBJECT GLOBAL DEFAULT 18 _ZTCN7android8hardware4wi
321:   OBJECT GLOBAL DEFAULT 18 _ZTTN7android8hardware4wi
322:   FUNC GLOBAL DEFAULT 14 _ZN7android8hardware4wifi
323:   FUNC GLOBAL DEFAULT 14 _ZN7android8hardware4wifi
324:   FUNC GLOBAL DEFAULT 14 _ZN7android8hardware4wifi
325:   FUNC GLOBAL DEFAULT 14 _ZN7android8hardware4wifi
326:   FUNC GLOBAL DEFAULT 14 _ZN7android8hardware4wifi
327:   FUNC GLOBAL DEFAULT 14 _ZN7android8hardware4wifi
328:   OBJECT GLOBAL DEFAULT 18 _ZTTN7android8hardware4wi
329:   FUNC WEAK DEFAULT 14 _ZN7android8hardware10fro
330:   FUNC GLOBAL DEFAULT 14 _ZN7android8hardware4wifi
331:   FUNC GLOBAL DEFAULT 14 _ZN7android8hardware4wifi
332:   FUNC GLOBAL DEFAULT 14 _ZN7android8hardware4wifi
333:   FUNC GLOBAL DEFAULT 14 _ZN7android8hardware4wifi
334:   OBJECT GLOBAL DEFAULT 18 _ZTTN7android8hardware4wi
335:   FUNC GLOBAL DEFAULT 14 _ZN7android8hardware4wifi
336:   FUNC GLOBAL DEFAULT 14 _ZN7android8hardware4wifi
337:   FUNC GLOBAL DEFAULT 14 _ZN7android8hardware4wifi
338:   FUNC GLOBAL DEFAULT 14 _ZN7android8hardware4wifi
339:   FUNC GLOBAL DEFAULT 14 _ZN7android8hardware4wifi
340:   FUNC GLOBAL DEFAULT 14 _ZN7android8hardware4wifi
341:   OBJECT GLOBAL DEFAULT 18 _ZTTN7android8hardware4wi
342:   FUNC GLOBAL DEFAULT 14 _ZN7android8hardware4wifi
343:   FUNC GLOBAL DEFAULT 14 _ZN7android8hardware4wifi
344:   FUNC GLOBAL DEFAULT 14 _ZN7android8hardware4wifi
345:   FUNC GLOBAL DEFAULT 14 _ZN7android8hardware4wifi
346:   OBJECT GLOBAL DEFAULT 18 _ZTTN7android8hardware4wi
347:   FUNC GLOBAL DEFAULT 14 _ZN7android8hardware4wifi
348:   FUNC GLOBAL DEFAULT 14 _ZN7android8hardware4wifi
349:   FUNC GLOBAL DEFAULT 14 _ZN7android8hardware4wifi
350:   OBJECT GLOBAL DEFAULT 18 _ZTCN7android8hardware4wi
351:   FUNC GLOBAL DEFAULT 14 _ZN7android8hardware4wifi
352:   OBJECT GLOBAL DEFAULT 18 _ZTVN7android8hardware4wi
353:   FUNC GLOBAL DEFAULT 14 _ZN7android8hardware4wifi
354:   FUNC GLOBAL DEFAULT 14 _ZN7android8hardware4wifi
355:   FUNC GLOBAL DEFAULT 14 _ZN7android8hardware4wifi
356:   FUNC GLOBAL DEFAULT 14 _ZN7android8hardware4wifi
357:   FUNC GLOBAL DEFAULT 14 _ZN7android8hardware4wifi
358:   FUNC GLOBAL DEFAULT 14 _ZThn20_N7android8hardwar
359:   FUNC GLOBAL DEFAULT 14 _ZN7android8hardware4wifi
360:   OBJECT GLOBAL DEFAULT 18 _ZTTN7android8hardware4wi
361:   FUNC GLOBAL DEFAULT 14 _ZN7android8hardware4wifi
362:   FUNC WEAK DEFAULT 14 _ZN7android8hardware7deta
363:   OBJECT GLOBAL DEFAULT 18 _ZTTN7android8hardware4wi
364:   OBJECT WEAK DEFAULT 18 _ZTVN7android8hardware4wi
365:   FUNC GLOBAL DEFAULT 14 _ZN7android8hardware4wifi
366:   OBJECT WEAK DEFAULT 18 _ZTCN7android8hardware4wi
367:   FUNC GLOBAL DEFAULT 14 _ZN7android8hardware4wifi
368:   OBJECT GLOBAL DEFAULT 18 _ZTTN7android8hardware4wi
369:   FUNC GLOBAL DEFAULT 14 _ZN7android8hardware4wifi
370:   OBJECT GLOBAL DEFAULT 18 _ZTTN7android8hardware4wi
371:   FUNC GLOBAL DEFAULT 14 _ZN7android8hardware4wifi
372:   FUNC GLOBAL DEFAULT 14 _ZN7android8hardware4wifi
373:   OBJECT GLOBAL DEFAULT 16 _ZN7android8hardware4wifi
374:   FUNC GLOBAL DEFAULT 14 _ZN7android8hardware4wifi
375:   FUNC GLOBAL DEFAULT 14 _ZN7android8hardware4wifi
376:   FUNC GLOBAL DEFAULT 14 _ZN7android8hardware4wifi
377:   FUNC GLOBAL DEFAULT 14 _ZN7android8hardware4wifi
378:   FUNC GLOBAL DEFAULT 14 _ZN7android8hardware4wifi
379:   FUNC GLOBAL DEFAULT 14 _ZN7android8hardware4wifi
380:   FUNC GLOBAL DEFAULT 14 _ZN7android8hardware4wifi
381:   FUNC GLOBAL DEFAULT 14 _ZN7android8hardware4wifi
382:   FUNC GLOBAL DEFAULT 14 _ZN7android8hardware4wifi
383:   FUNC GLOBAL DEFAULT 14 _ZN7android8hardware4wifi
384:   FUNC GLOBAL DEFAULT 14 _ZN7android8hardware4wifi
385:   FUNC GLOBAL DEFAULT 14 _ZN7android8hardware4wifi
386:   FUNC GLOBAL DEFAULT 14 _ZN7android8hardware4wifi
387:   OBJECT GLOBAL DEFAULT 18 _ZTTN7android8hardware4wi
388:   FUNC GLOBAL DEFAULT 14 _ZN7android8hardware4wifi
389:   FUNC GLOBAL DEFAULT 14 _ZN7android8hardware4wifi
390:   FUNC GLOBAL DEFAULT 14 _ZN7android8hardware4wifi
391:   FUNC GLOBAL DEFAULT 14 _ZTv0_n12_N7android8hardw
392:   FUNC GLOBAL DEFAULT 14 _ZN7android8hardware4wifi
393:   FUNC GLOBAL DEFAULT 14 _ZN7android8hardware4wifi
394:   OBJECT GLOBAL DEFAULT 18 _ZTTN7android8hardware4wi
395:   FUNC GLOBAL DEFAULT 14 _ZN7android8hardware4wifi
396:   FUNC GLOBAL DEFAULT 14 _ZN7android8hardware4wifi
397:   FUNC WEAK DEFAULT 14 _ZNSt3__16vectorINS_8func
398:   FUNC GLOBAL DEFAULT 14 _ZN7android8hardware4wifi
399:   FUNC GLOBAL DEFAULT 14 _ZN7android8hardware4wifi
400:   FUNC GLOBAL DEFAULT 14 _ZN7android8hardware4wifi
401:   FUNC GLOBAL DEFAULT 14 _ZN7android8hardware4wifi
402:   FUNC GLOBAL DEFAULT 14 _ZN7android8hardware4wifi
403:   FUNC GLOBAL DEFAULT 14 _ZN7android8hardware4wifi
404:   FUNC GLOBAL DEFAULT 14 _ZN7android8hardware4wifi
405:   OBJECT WEAK DEFAULT 18 _ZTCN7android8hardware4wi
406:   FUNC GLOBAL DEFAULT 14 _ZN7android8hardware4wifi
407:   FUNC GLOBAL DEFAULT 14 _ZN7android8hardware4wifi
408:   FUNC GLOBAL DEFAULT 14 _ZN7android8hardware4wifi
409:   FUNC GLOBAL DEFAULT 14 _ZN7android8hardware4wifi
410:   FUNC GLOBAL DEFAULT 14 _ZN7android8hardware4wifi
411:   FUNC GLOBAL DEFAULT 14 _ZN7android8hardware4wifi
412:   FUNC GLOBAL DEFAULT 14 _ZN7android8hardware4wifi
413:   FUNC WEAK DEFAULT 14 _ZN7android8hardware7deta
414:   FUNC GLOBAL DEFAULT 14 _ZN7android8hardware4wifi
415:   FUNC GLOBAL DEFAULT 14 _ZN7android8hardware4wifi
416:   FUNC WEAK DEFAULT 14 _ZN7android8hardware10fro
417:   OBJECT GLOBAL DEFAULT 18 _ZTTN7android8hardware4wi
418:   FUNC GLOBAL DEFAULT 14 _ZN7android8hardware4wifi
419:   FUNC GLOBAL DEFAULT 14 _ZN7android8hardware4wifi
420:   OBJECT GLOBAL DEFAULT 18 _ZTCN7android8hardware4wi
421:   FUNC GLOBAL DEFAULT 14 _ZN7android8hardware4wifi
422:   FUNC GLOBAL DEFAULT 14 _ZN7android8hardware4wifi
423:   FUNC GLOBAL DEFAULT 14 _ZN7android8hardware4wifi
424:   OBJECT GLOBAL DEFAULT 18 _ZTVN7android8hardware4wi
425:   FUNC GLOBAL DEFAULT 14 _ZN7android8hardware4wifi
426:   FUNC GLOBAL DEFAULT 14 _ZN7android8hardware4wifi
427:   FUNC GLOBAL DEFAULT 14 _ZN7android8hardware4wifi
428:   OBJECT GLOBAL DEFAULT 18 _ZTVN7android8hardware4wi
429:   FUNC GLOBAL DEFAULT 14 _ZN7android8hardware4wifi
430:   FUNC GLOBAL DEFAULT 14 _ZN7android8hardware4wifi
431:   FUNC GLOBAL DEFAULT 14 _ZN7android8hardware4wifi
432:   FUNC WEAK DEFAULT 14 _ZN7android8hardware7deta
433:   FUNC GLOBAL DEFAULT 14 _ZN7android8hardware4wifi
434:   FUNC GLOBAL DEFAULT 14 _ZThn20_N7android8hardwar
435:   FUNC WEAK DEFAULT 14 _ZN7android8hardware10fro
436:   FUNC GLOBAL DEFAULT 14 _ZThn20_N7android8hardwar
437:   FUNC GLOBAL DEFAULT 14 _ZN7android8hardware4wifi
438:   FUNC GLOBAL DEFAULT 14 _ZN7android8hardware4wifi
439:   FUNC GLOBAL DEFAULT 14 _ZN7android8hardware4wifi
440:   FUNC GLOBAL DEFAULT 14 _ZN7android8hardware4wifi
441:   FUNC GLOBAL DEFAULT 14 _ZN7android8hardware4wifi
442:   FUNC GLOBAL DEFAULT 14 _ZN7android8hardware4wifi
443:   OBJECT GLOBAL DEFAULT 18 _ZTTN7android8hardware4wi
444:   FUNC GLOBAL DEFAULT 14 _ZN7android8hardware4wifi
445:   FUNC GLOBAL DEFAULT 14 _ZN7android8hardware4wifi
446:   FUNC GLOBAL DEFAULT 14 _ZN7android8hardware4wifi
447:   FUNC GLOBAL DEFAULT 14 _ZN7android8hardware4wifi
448:   OBJECT GLOBAL DEFAULT 18 _ZTTN7android8hardware4wi
449:   OBJECT WEAK DEFAULT 18 _ZTVN7android8hardware4wi
450:   FUNC GLOBAL DEFAULT 14 _ZN7android8hardware4wifi
451:   FUNC WEAK DEFAULT 14 _ZN7android8hardware7deta
452:   FUNC GLOBAL DEFAULT 14 _ZN7android8hardware4wifi
453:   OBJECT GLOBAL DEFAULT 18 _ZTCN7android8hardware4wi
454:   FUNC GLOBAL DEFAULT 14 _ZN7android8hardware4wifi
455:   OBJECT GLOBAL DEFAULT 18 _ZTCN7android8hardware4wi
456:   FUNC GLOBAL DEFAULT 14 _ZN7android8hardware4wifi
457:   FUNC GLOBAL DEFAULT 14 _ZN7android8hardware4wifi
458:   OBJECT GLOBAL DEFAULT 18 _ZTCN7android8hardware4wi
459:   FUNC GLOBAL DEFAULT 14 _ZN7android8hardware4wifi
460:   FUNC WEAK DEFAULT 14 _ZN7android8hardware10fro
461:   OBJECT GLOBAL DEFAULT 18 _ZTCN7android8hardware4wi
462:   FUNC GLOBAL DEFAULT 14 _ZN7android8hardware4wifi
463:   FUNC GLOBAL DEFAULT 14 _ZN7android8hardware4wifi
464:   FUNC GLOBAL DEFAULT 14 _ZN7android8hardware4wifi
465:   FUNC WEAK DEFAULT 14 _ZN7android8hardware7deta
466:   FUNC GLOBAL DEFAULT 14 _ZN7android8hardware4wifi
467:   FUNC GLOBAL DEFAULT 14 _ZN7android8hardware4wifi
468:   OBJECT GLOBAL DEFAULT 18 _ZTCN7android8hardware4wi
469:   FUNC GLOBAL DEFAULT 14 _ZN7android8hardware4wifi
470:   FUNC GLOBAL DEFAULT 14 _ZN7android8hardware4wifi
471:   FUNC WEAK DEFAULT 14 _ZN7android8hardware7deta
472:   OBJECT GLOBAL DEFAULT 18 _ZTCN7android8hardware4wi
473:   FUNC GLOBAL DEFAULT 14 _ZN7android8hardware4wifi
474:   FUNC GLOBAL DEFAULT 14 _ZN7android8hardware4wifi
475:   FUNC GLOBAL DEFAULT 14 _ZN7android8hardware4wifi
476:   FUNC GLOBAL DEFAULT 14 _ZN7android8hardware4wifi
477:   FUNC GLOBAL DEFAULT 14 _ZN7android8hardware4wifi
478:   FUNC GLOBAL DEFAULT 14 _ZN7android8hardware4wifi
479:   OBJECT GLOBAL DEFAULT 18 _ZTCN7android8hardware4wi
480:   FUNC GLOBAL DEFAULT 14 _ZN7android8hardware4wifi
481:   FUNC GLOBAL DEFAULT 14 _ZN7android8hardware4wifi
482:   FUNC GLOBAL DEFAULT 14 _ZN7android8hardware4wifi
483:   FUNC GLOBAL DEFAULT 14 _ZN7android8hardware4wifi
484:   FUNC GLOBAL DEFAULT 14 _ZN7android8hardware4wifi
485:   FUNC GLOBAL DEFAULT 14 _ZN7android8hardware4wifi
486:   FUNC GLOBAL DEFAULT 14 _ZN7android8hardware4wifi
487:   FUNC GLOBAL DEFAULT 14 _ZN7android8hardware4wifi
488:   FUNC GLOBAL DEFAULT 14 _ZN7android8hardware4wifi
489:   OBJECT GLOBAL DEFAULT 18 _ZTCN7android8hardware4wi
490:   OBJECT GLOBAL DEFAULT 18 _ZTCN7android8hardware4wi
491:   FUNC GLOBAL DEFAULT 14 _ZTv0_n12_N7android8hardw
492:   FUNC GLOBAL DEFAULT 14 _ZN7android8hardware4wifi
493:   FUNC WEAK DEFAULT 14 _ZN7android8hardware7deta
494:   FUNC GLOBAL DEFAULT 14 _ZN7android8hardware4wifi
495:   FUNC WEAK DEFAULT 14 _ZN7android8hardware7deta
496:   OBJECT GLOBAL DEFAULT 18 _ZTTN7android8hardware4wi
497:   OBJECT GLOBAL DEFAULT 18 _ZTCN7android8hardware4wi
498:   FUNC GLOBAL DEFAULT 14 _ZN7android8hardware4wifi
499:   FUNC GLOBAL DEFAULT 14 _ZN7android8hardware4wifi
500:   FUNC GLOBAL DEFAULT 14 _ZN7android8hardware4wifi
501:   FUNC GLOBAL DEFAULT 14 _ZN7android8hardware4wifi
502:   OBJECT GLOBAL DEFAULT 18 _ZTVN7android8hardware4wi
503:   FUNC GLOBAL DEFAULT 14 _ZN7android8hardware4wifi
504:   FUNC GLOBAL DEFAULT 14 _ZN7android8hardware4wifi
505:   FUNC GLOBAL DEFAULT 14 _ZN7android8hardware4wifi
506:   FUNC GLOBAL DEFAULT 14 _ZThn20_N7android8hardwar
507:   FUNC GLOBAL DEFAULT 14 _ZTv0_n12_N7android8hardw
508:   FUNC GLOBAL DEFAULT 14 _ZN7android8hardware4wifi
509:   FUNC GLOBAL DEFAULT 14 _ZN7android8hardware4wifi
510:   OBJECT GLOBAL DEFAULT 18 _ZTCN7android8hardware4wi
511:   FUNC GLOBAL DEFAULT 14 _ZN7android8hardware4wifi
512:   OBJECT GLOBAL DEFAULT 18 _ZTVN7android8hardware4wi
513:   FUNC GLOBAL DEFAULT 14 _ZN7android8hardware4wifi
514:   FUNC GLOBAL DEFAULT 14 _ZN7android8hardware4wifi
515:   FUNC GLOBAL DEFAULT 14 _ZN7android8hardware4wifi
516:   FUNC GLOBAL DEFAULT 14 _ZN7android8hardware4wifi
517:   FUNC GLOBAL DEFAULT 14 _ZN7android8hardware4wifi
518:   FUNC GLOBAL DEFAULT 14 _ZN7android8hardware4wifi
519:   FUNC GLOBAL DEFAULT 14 _ZN7android8hardware4wifi
520:   FUNC GLOBAL DEFAULT 14 _ZN7android8hardware4wifi
521:   FUNC GLOBAL DEFAULT 14 _ZN7android8hardware4wifi
522:   FUNC GLOBAL DEFAULT 14 _ZN7android8hardware4wifi
523:   OBJECT GLOBAL DEFAULT 18 _ZTCN7android8hardware4wi
524:   FUNC GLOBAL DEFAULT 14 _ZN7android8hardware4wifi
525:   FUNC GLOBAL DEFAULT 14 _ZN7android8hardware4wifi
526:   FUNC GLOBAL DEFAULT 14 _ZN7android8hardware4wifi
527:   FUNC GLOBAL DEFAULT 14 _ZN7android8hardware4wifi
528:   FUNC GLOBAL DEFAULT 14 _ZN7android8hardware4wifi
529:   FUNC GLOBAL DEFAULT 14 _ZN7android8hardware4wifi
530:   FUNC GLOBAL DEFAULT 14 _ZN7android8hardware4wifi
531:   FUNC GLOBAL DEFAULT 14 _ZN7android8hardware4wifi
532:   FUNC GLOBAL DEFAULT 14 _ZN7android8hardware4wifi
533:   OBJECT GLOBAL DEFAULT 18 _ZTCN7android8hardware4wi
534:   FUNC GLOBAL DEFAULT 14 _ZN7android8hardware4wifi
535:   FUNC GLOBAL DEFAULT 14 _ZN7android8hardware4wifi
536:   FUNC GLOBAL DEFAULT 14 __aeabi_memset4
537:   FUNC GLOBAL DEFAULT 14 _ZN7android8hardware4wifi
538:   FUNC GLOBAL DEFAULT 14 _ZN7android8hardware4wifi
539:   FUNC GLOBAL DEFAULT 14 _ZN7android8hardware4wifi
540:   FUNC GLOBAL DEFAULT 14 _ZN7android8hardware4wifi
541:   FUNC GLOBAL DEFAULT 14 _ZN7android8hardware4wifi
542:   FUNC GLOBAL DEFAULT 14 _ZTv0_n12_N7android8hardw
543:   FUNC GLOBAL DEFAULT 14 _ZN7android8hardware4wifi
544:   FUNC GLOBAL DEFAULT 14 _ZN7android8hardware4wifi
545:   FUNC GLOBAL DEFAULT 14 _ZN7android8hardware4wifi
546:   FUNC GLOBAL DEFAULT 14 _ZN7android8hardware4wifi
547:   OBJECT GLOBAL DEFAULT 18 _ZTCN7android8hardware4wi
548:   FUNC GLOBAL DEFAULT 14 _ZN7android8hardware4wifi
549:   FUNC GLOBAL DEFAULT 14 _ZN7android8hardware4wifi
550:   OBJECT GLOBAL DEFAULT 18 _ZTCN7android8hardware4wi
551:   FUNC GLOBAL DEFAULT 14 _ZN7android8hardware4wifi
552:   FUNC GLOBAL DEFAULT 14 _ZN7android8hardware4wifi
553:   FUNC GLOBAL DEFAULT 14 _ZN7android8hardware4wifi
554:   FUNC GLOBAL DEFAULT 14 __aeabi_memset8
555:   FUNC GLOBAL DEFAULT 14 _ZN7android8hardware4wifi
556:   FUNC GLOBAL DEFAULT 14 _ZN7android8hardware4wifi
557:   OBJECT GLOBAL DEFAULT 16 _ZN7android8hardware4wifi
558:   FUNC GLOBAL DEFAULT 14 _ZN7android8hardware4wifi
559:   FUNC GLOBAL DEFAULT 14 _ZN7android8hardware4wifi
560:   OBJECT GLOBAL DEFAULT 16 _ZN7android8hardware4wifi
561:   FUNC GLOBAL DEFAULT 14 _ZN7android8hardware4wifi
562:   FUNC GLOBAL DEFAULT 14 _ZN7android8hardware4wifi
563:   FUNC GLOBAL DEFAULT 14 _ZN7android8hardware4wifi
564:   FUNC GLOBAL DEFAULT 14 _ZN7android8hardware4wifi
565:   FUNC WEAK DEFAULT 14 _ZN7android8hardware7deta
566:   FUNC GLOBAL DEFAULT 14 _ZN7android8hardware4wifi
567:   FUNC GLOBAL DEFAULT 14 _ZN7android8hardware4wifi
568:   FUNC GLOBAL DEFAULT 14 _ZN7android8hardware4wifi
569:   FUNC GLOBAL DEFAULT 14 _ZN7android8hardware4wifi
570:   OBJECT GLOBAL DEFAULT 18 _ZTCN7android8hardware4wi
571:   OBJECT WEAK DEFAULT 18 _ZTVN7android8hardware4wi
572:   FUNC GLOBAL DEFAULT 14 _ZN7android8hardware4wifi
573:   FUNC GLOBAL DEFAULT 14 _ZN7android8hardware4wifi
574:   OBJECT GLOBAL DEFAULT 18 _ZTCN7android8hardware4wi
575:   FUNC GLOBAL DEFAULT 14 _ZN7android8hardware4wifi
576:   FUNC GLOBAL DEFAULT 14 _ZN7android8hardware4wifi
577:   FUNC WEAK DEFAULT 14 _ZN7android8hardware7deta
578:   FUNC GLOBAL DEFAULT 14 _ZN7android8hardware4wifi
579:   FUNC GLOBAL DEFAULT 14 _ZN7android8hardware4wifi
580:   FUNC GLOBAL DEFAULT 14 _ZTv0_n12_N7android8hardw
581:   OBJECT GLOBAL DEFAULT 16 _ZN7android8hardware4wifi
582:   FUNC GLOBAL DEFAULT 14 _ZN7android8hardware4wifi
583:   FUNC GLOBAL DEFAULT 14 _ZN7android8hardware4wifi
584:   FUNC GLOBAL DEFAULT 14 _ZN7android8hardware4wifi
585:   FUNC GLOBAL DEFAULT 14 _ZN7android8hardware4wifi
586:   FUNC GLOBAL DEFAULT 14 _ZN7android8hardware4wifi
587:   FUNC GLOBAL DEFAULT 14 _ZN7android8hardware4wifi
588:   FUNC GLOBAL DEFAULT 14 _ZN7android8hardware4wifi
589:   FUNC GLOBAL DEFAULT 14 _ZN7android8hardware4wifi
590:   FUNC GLOBAL DEFAULT 14 _ZN7android8hardware4wifi
591:   FUNC GLOBAL DEFAULT 14 _ZN7android8hardware4wifi
592:   FUNC GLOBAL DEFAULT 14 _ZN7android8hardware4wifi
593:   FUNC GLOBAL DEFAULT 14 _ZN7android8hardware4wifi
594:   FUNC GLOBAL DEFAULT 14 _ZN7android8hardware4wifi
595:   FUNC GLOBAL DEFAULT 14 _ZN7android8hardware4wifi
596:   OBJECT GLOBAL DEFAULT 18 _ZTCN7android8hardware4wi
597:   FUNC GLOBAL DEFAULT 14 _ZN7android8hardware4wifi
598:   FUNC GLOBAL DEFAULT 14 _ZN7android8hardware4wifi
599:   FUNC GLOBAL DEFAULT 14 _ZN7android8hardware4wifi
600:   OBJECT GLOBAL DEFAULT 18 _ZTCN7android8hardware4wi
601:   FUNC GLOBAL DEFAULT 14 _ZN7android8hardware4wifi
602:   FUNC GLOBAL DEFAULT 14 _ZN7android8hardware4wifi
603:   OBJECT WEAK DEFAULT 18 _ZTVN7android8hardware4wi
604:   FUNC GLOBAL DEFAULT 14 _ZN7android8hardware4wifi
605:   FUNC GLOBAL DEFAULT 14 _ZN7android8hardware4wifi
606:   FUNC GLOBAL DEFAULT 14 _ZN7android8hardware4wifi
607:   OBJECT GLOBAL DEFAULT 18 _ZTCN7android8hardware4wi
608:   FUNC GLOBAL DEFAULT 14 _ZN7android8hardware4wifi
609:   FUNC GLOBAL DEFAULT 14 _ZN7android8hardware4wifi
610:   FUNC GLOBAL DEFAULT 14 _ZN7android8hardware4wifi
611:   FUNC GLOBAL DEFAULT 14 _ZN7android8hardware4wifi
612:   FUNC GLOBAL DEFAULT 14 _ZN7android8hardware4wifi
613:   FUNC GLOBAL DEFAULT 14 _ZN7android8hardware4wifi
614:   OBJECT GLOBAL DEFAULT 18 _ZTCN7android8hardware4wi
615:   FUNC GLOBAL DEFAULT 14 _ZN7android8hardware4wifi
616:   OBJECT GLOBAL DEFAULT 18 _ZTCN7android8hardware4wi
617:   FUNC GLOBAL DEFAULT 14 _ZN7android8hardware4wifi
618:   FUNC GLOBAL DEFAULT 14 _ZN7android8hardware4wifi
619:   FUNC GLOBAL DEFAULT 14 _ZN7android8hardware4wifi
620:   OBJECT GLOBAL DEFAULT 18 _ZTVN7android8hardware4wi
621:   FUNC GLOBAL DEFAULT 14 _ZN7android8hardware4wifi
622:   FUNC GLOBAL DEFAULT 14 _ZN7android8hardware4wifi
623:   FUNC GLOBAL DEFAULT 14 _ZN7android8hardware4wifi
624:   FUNC GLOBAL DEFAULT 14 _ZN7android8hardware4wifi
625:   FUNC GLOBAL DEFAULT 14 _ZN7android8hardware4wifi
626:   FUNC GLOBAL DEFAULT 14 _ZN7android8hardware4wifi
627:   OBJECT GLOBAL DEFAULT 18 _ZTCN7android8hardware4wi
628:   FUNC GLOBAL DEFAULT 14 _ZN7android8hardware4wifi
629:   OBJECT GLOBAL DEFAULT 18 _ZTVN7android8hardware4wi
630:   FUNC GLOBAL DEFAULT 14 _ZN7android8hardware4wifi
631:   FUNC GLOBAL DEFAULT 14 _ZN7android8hardware4wifi
632:   FUNC GLOBAL DEFAULT 14 _ZN7android8hardware4wifi
633:   FUNC GLOBAL DEFAULT 14 _ZN7android8hardware4wifi
634:   FUNC GLOBAL DEFAULT 14 _ZN7android8hardware4wifi
635:   FUNC GLOBAL DEFAULT 14 _ZN7android8hardware4wifi
636:   OBJECT GLOBAL DEFAULT 18 _ZTCN7android8hardware4wi
637:   FUNC GLOBAL DEFAULT 14 _ZN7android8hardware4wifi
638:   OBJECT GLOBAL DEFAULT 18 _ZTCN7android8hardware4wi
639:   FUNC GLOBAL DEFAULT 14 _ZN7android8hardware4wifi
640:   FUNC GLOBAL DEFAULT 14 _ZN7android8hardware4wifi
641:   FUNC GLOBAL DEFAULT 14 _ZN7android8hardware4wifi
642:   FUNC GLOBAL DEFAULT 14 _ZN7android8hardware4wifi
643:   FUNC GLOBAL DEFAULT 14 _ZThn20_N7android8hardwar
644:   OBJECT GLOBAL DEFAULT 18 _ZTCN7android8hardware4wi
645:   FUNC GLOBAL DEFAULT 14 _ZN7android8hardware4wifi
646:   OBJECT GLOBAL DEFAULT 18 _ZTCN7android8hardware4wi
647:   FUNC GLOBAL DEFAULT 14 _ZN7android8hardware4wifi
648:   FUNC GLOBAL DEFAULT 14 _ZN7android8hardware4wifi
649:   FUNC WEAK DEFAULT 14 _ZN7android8hardware7deta
650:   OBJECT GLOBAL DEFAULT 18 _ZTCN7android8hardware4wi
651:   OBJECT GLOBAL DEFAULT 18 _ZTCN7android8hardware4wi
652:   FUNC GLOBAL DEFAULT 14 _ZN7android8hardware4wifi
653:   OBJECT GLOBAL DEFAULT 18 _ZTCN7android8hardware4wi
654:   FUNC GLOBAL DEFAULT 14 _ZThn20_N7android8hardwar
655:   OBJECT GLOBAL DEFAULT 18 _ZTVN7android8hardware4wi
656:   FUNC GLOBAL DEFAULT 14 _ZN7android8hardware4wifi
657:   FUNC GLOBAL DEFAULT 14 _ZN7android8hardware4wifi
658:   FUNC GLOBAL DEFAULT 14 _ZN7android8hardware4wifi
659:   FUNC GLOBAL DEFAULT 14 _ZN7android8hardware4wifi
660:   FUNC WEAK DEFAULT 14 _ZN7android8hardware7deta
661:   OBJECT GLOBAL DEFAULT 18 _ZTCN7android8hardware4wi
662:   FUNC GLOBAL DEFAULT 14 _ZN7android8hardware4wifi
663:   FUNC GLOBAL DEFAULT 14 _ZN7android8hardware4wifi
664:   FUNC GLOBAL DEFAULT 14 _ZN7android8hardware4wifi
665:   FUNC GLOBAL DEFAULT 14 _ZThn20_N7android8hardwar
666:   OBJECT WEAK DEFAULT 18 _ZTCN7android8hardware4wi
667:   FUNC GLOBAL DEFAULT 14 __aeabi_memclr4
668:   FUNC GLOBAL DEFAULT 14 _ZN7android8hardware4wifi
669:   FUNC GLOBAL DEFAULT 14 _ZThn20_N7android8hardwar
670:   FUNC GLOBAL DEFAULT 14 _ZN7android8hardware4wifi
671:   FUNC GLOBAL DEFAULT 14 _ZN7android8hardware4wifi
672:   OBJECT GLOBAL DEFAULT 18 _ZTCN7android8hardware4wi
673:   FUNC GLOBAL DEFAULT 14 _ZN7android8hardware4wifi
674:   OBJECT WEAK DEFAULT 18 _ZTVN7android8hardware4wi
675:   FUNC GLOBAL DEFAULT 14 _ZN7android8hardware4wifi
676:   FUNC GLOBAL DEFAULT 14 _ZN7android8hardware4wifi
677:   FUNC GLOBAL DEFAULT 14 _ZN7android8hardware4wifi
678:   FUNC GLOBAL DEFAULT 14 __aeabi_memclr8
679:   OBJECT GLOBAL DEFAULT 18 _ZTCN7android8hardware4wi
680:   FUNC GLOBAL DEFAULT 14 _ZN7android8hardware4wifi
681:   FUNC GLOBAL DEFAULT 14 _ZN7android8hardware4wifi
682:   FUNC WEAK DEFAULT 14 _ZN7android8hardware10fro
683:   FUNC WEAK DEFAULT 14 _ZN7android8hardware7deta
684:   FUNC GLOBAL DEFAULT 14 _ZN7android8hardware4wifi
685:   FUNC GLOBAL DEFAULT 14 _ZN7android8hardware4wifi
686:   FUNC GLOBAL DEFAULT 14 _ZN7android8hardware4wifi
687:   FUNC GLOBAL DEFAULT 14 _ZN7android8hardware4wifi
688:   FUNC GLOBAL DEFAULT 14 _ZN7android8hardware4wifi
689:   FUNC GLOBAL DEFAULT 14 _ZN7android8hardware4wifi
690:   FUNC GLOBAL DEFAULT 14 _ZN7android8hardware4wifi
691:   FUNC GLOBAL DEFAULT 14 _ZN7android8hardware4wifi
692:   OBJECT GLOBAL DEFAULT 18 _ZTTN7android8hardware4wi
693:   FUNC GLOBAL DEFAULT 14 _ZN7android8hardware4wifi
694:   OBJECT GLOBAL DEFAULT 18 _ZTCN7android8hardware4wi
695:   FUNC GLOBAL DEFAULT 14 _ZN7android8hardware4wifi
696:   FUNC GLOBAL DEFAULT 14 _ZN7android8hardware4wifi
697:   OBJECT WEAK DEFAULT 18 _ZTCN7android8hardware4wi
698:   FUNC GLOBAL DEFAULT 14 _ZN7android8hardware4wifi
699:   FUNC GLOBAL DEFAULT 14 _ZN7android8hardware4wifi
700:   FUNC GLOBAL DEFAULT 14 _ZN7android8hardware4wifi
701:   OBJECT GLOBAL DEFAULT 18 _ZTCN7android8hardware4wi
702:   FUNC GLOBAL DEFAULT 14 _ZN7android8hardware4wifi
703:   FUNC GLOBAL DEFAULT 14 _ZN7android8hardware4wifi
704:   FUNC GLOBAL DEFAULT 14 _ZN7android8hardware4wifi
705:   FUNC GLOBAL DEFAULT 14 _ZN7android8hardware4wifi
706:   FUNC GLOBAL DEFAULT 14 _ZN7android8hardware4wifi
707:   FUNC GLOBAL DEFAULT 14 _ZN7android8hardware4wifi
708:   FUNC GLOBAL DEFAULT 14 _ZN7android8hardware4wifi
709:   OBJECT GLOBAL DEFAULT 18 _ZTVN7android8hardware4wi
710:   FUNC GLOBAL DEFAULT 14 _ZN7android8hardware4wifi
711:   FUNC GLOBAL DEFAULT 14 _ZN7android8hardware4wifi
712:   FUNC GLOBAL DEFAULT 14 _ZN7android8hardware4wifi
713:   FUNC GLOBAL DEFAULT 14 _ZN7android8hardware4wifi
714:   FUNC GLOBAL DEFAULT 14 _ZN7android8hardware4wifi
715:   FUNC GLOBAL DEFAULT 14 _ZN7android8hardware4wifi
716:   FUNC GLOBAL DEFAULT 14 _ZN7android8hardware4wifi
717:   FUNC GLOBAL DEFAULT 14 _ZN7android8hardware4wifi
718:   FUNC GLOBAL DEFAULT 14 _ZN7android8hardware4wifi
719:   FUNC GLOBAL DEFAULT 14 _ZN7android8hardware4wifi
720:   FUNC GLOBAL DEFAULT 14 _ZN7android8hardware4wifi
721:   FUNC GLOBAL DEFAULT 14 _ZN7android8hardware4wifi
722:   FUNC GLOBAL DEFAULT 14 _ZN7android8hardware4wifi
723:   FUNC GLOBAL DEFAULT 14 _ZN7android8hardware4wifi
724:   FUNC GLOBAL DEFAULT 14 _ZN7android8hardware4wifi
725:   OBJECT GLOBAL DEFAULT 18 _ZTVN7android8hardware4wi
726:   FUNC GLOBAL DEFAULT 14 _ZN7android8hardware4wifi
727:   FUNC GLOBAL DEFAULT 14 _ZN7android8hardware4wifi
728:   FUNC WEAK DEFAULT 14 _ZNSt3__16vectorIN7androi
729:   FUNC GLOBAL DEFAULT 14 _ZN7android8hardware4wifi
730:   FUNC GLOBAL DEFAULT 14 _ZThn20_N7android8hardwar
731:   FUNC GLOBAL DEFAULT 14 _ZN7android8hardware4wifi
732:   FUNC GLOBAL DEFAULT 14 _ZN7android8hardware4wifi
733:   OBJECT GLOBAL DEFAULT 18 _ZTCN7android8hardware4wi
734:   FUNC GLOBAL DEFAULT 14 _ZN7android8hardware4wifi
735:   FUNC GLOBAL DEFAULT 14 _ZN7android8hardware4wifi
736:   FUNC GLOBAL DEFAULT 14 _ZN7android8hardware4wifi
737:   FUNC GLOBAL DEFAULT 14 _ZN7android8hardware4wifi
738:   OBJECT GLOBAL DEFAULT 18 _ZTCN7android8hardware4wi
739:   FUNC GLOBAL DEFAULT 14 _ZN7android8hardware4wifi
740:   FUNC WEAK DEFAULT 14 _ZN7android8hardware10fro
741:   FUNC GLOBAL DEFAULT 14 _ZN7android8hardware4wifi
742:   FUNC GLOBAL DEFAULT 14 _ZN7android8hardware4wifi
743:   FUNC GLOBAL DEFAULT 14 _ZN7android8hardware4wifi
744:   FUNC GLOBAL DEFAULT 14 _ZN7android8hardware4wifi
745:   OBJECT GLOBAL DEFAULT 18 _ZTVN7android8hardware4wi
746:   FUNC GLOBAL DEFAULT 14 _ZN7android8hardware4wifi
747:   FUNC GLOBAL DEFAULT 14 _ZThn20_N7android8hardwar
748:   OBJECT GLOBAL DEFAULT 18 _ZTCN7android8hardware4wi
749:   FUNC GLOBAL DEFAULT 14 _ZN7android8hardware4wifi
750:   FUNC GLOBAL DEFAULT 14 _ZN7android8hardware4wifi
751:   FUNC GLOBAL DEFAULT 14 _ZN7android8hardware4wifi
752:   FUNC GLOBAL DEFAULT 14 _ZN7android8hardware4wifi
753:   FUNC GLOBAL DEFAULT 14 _ZN7android8hardware4wifi
754:   FUNC GLOBAL DEFAULT 14 _ZN7android8hardware4wifi
755:   FUNC GLOBAL DEFAULT 14 _ZN7android8hardware4wifi
756:   FUNC GLOBAL DEFAULT 14 _ZN7android8hardware4wifi
757:   OBJECT GLOBAL DEFAULT 18 _ZTCN7android8hardware4wi
758:   OBJECT GLOBAL DEFAULT 16 _ZN7android8hardware4wifi
759:   OBJECT GLOBAL DEFAULT 18 _ZTTN7android8hardware4wi
760:   FUNC GLOBAL DEFAULT 14 _ZN7android8hardware4wifi
761:   FUNC GLOBAL DEFAULT 14 _ZN7android8hardware4wifi
762:   OBJECT GLOBAL DEFAULT 18 _ZTTN7android8hardware4wi
763:   FUNC GLOBAL DEFAULT 14 _ZN7android8hardware4wifi
764:   FUNC GLOBAL DEFAULT 14 _ZN7android8hardware4wifi
765:   FUNC WEAK DEFAULT 14 _ZNSt3__16__treeINS_12__v
766:   FUNC GLOBAL DEFAULT 14 _ZN7android8hardware4wifi
767:   OBJECT GLOBAL DEFAULT 18 _ZTVN7android8hardware4wi
768:   OBJECT GLOBAL DEFAULT 18 _ZTVN7android8hardware4wi
769:   FUNC GLOBAL DEFAULT 14 _ZN7android8hardware4wifi
770:   OBJECT GLOBAL DEFAULT 18 _ZTCN7android8hardware4wi
771:   FUNC GLOBAL DEFAULT 14 _ZN7android8hardware4wifi
772:   OBJECT GLOBAL DEFAULT 18 _ZTVN7android8hardware4wi
773:   FUNC GLOBAL DEFAULT 14 _ZTv0_n12_N7android8hardw
774:   FUNC GLOBAL DEFAULT 14 _ZN7android8hardware4wifi
775:   FUNC GLOBAL DEFAULT 14 _ZN7android8hardware4wifi
776:   FUNC GLOBAL DEFAULT 14 _ZN7android8hardware4wifi
777:   FUNC GLOBAL DEFAULT 14 _ZN7android8hardware4wifi
778:   FUNC GLOBAL DEFAULT 14 _ZN7android8hardware4wifi
779:   FUNC GLOBAL DEFAULT 14 _ZN7android8hardware4wifi
780:   FUNC GLOBAL DEFAULT 14 _ZN7android8hardware4wifi
781:   FUNC GLOBAL DEFAULT 14 _ZN7android8hardware4wifi
782:   FUNC GLOBAL DEFAULT 14 _ZN7android8hardware4wifi
783:   OBJECT GLOBAL DEFAULT 18 _ZTCN7android8hardware4wi
784:   FUNC GLOBAL DEFAULT 14 _ZN7android8hardware4wifi
785:   OBJECT GLOBAL DEFAULT 18 _ZTTN7android8hardware4wi
786:   FUNC GLOBAL DEFAULT 14 _ZN7android8hardware4wifi
787:   FUNC GLOBAL DEFAULT 14 _ZN7android8hardware4wifi
788:   FUNC GLOBAL DEFAULT 14 _ZN7android8hardware4wifi
789:   FUNC GLOBAL DEFAULT 14 _ZN7android8hardware4wifi
790:   FUNC GLOBAL DEFAULT 14 _ZN7android8hardware4wifi
791:   FUNC GLOBAL DEFAULT 14 _ZN7android8hardware4wifi
792:   FUNC GLOBAL DEFAULT 14 _ZN7android8hardware4wifi
793:   FUNC GLOBAL DEFAULT 14 _ZN7android8hardware4wifi
794:   OBJECT GLOBAL DEFAULT 18 _ZTCN7android8hardware4wi
795:   OBJECT GLOBAL DEFAULT 18 _ZTVN7android8hardware4wi
796:   FUNC GLOBAL DEFAULT 14 _ZN7android8hardware4wifi
797:   FUNC WEAK DEFAULT 14 _ZN7android8hardware7deta
798:   FUNC GLOBAL DEFAULT 14 _ZN7android8hardware4wifi
799:   FUNC GLOBAL DEFAULT 14 _ZN7android8hardware4wifi
800:   FUNC GLOBAL DEFAULT 14 _ZN7android8hardware4wifi
801:   FUNC GLOBAL DEFAULT 14 _ZN7android8hardware4wifi
802:   FUNC GLOBAL DEFAULT 14 _ZN7android8hardware4wifi
803:   FUNC GLOBAL DEFAULT 14 _ZN7android8hardware4wifi
804:   FUNC GLOBAL DEFAULT 14 _ZN7android8hardware4wifi
805:   FUNC WEAK DEFAULT 14 _ZN7android8hardware7deta
806:   FUNC GLOBAL DEFAULT 14 _ZN7android8hardware4wifi
807:   FUNC GLOBAL DEFAULT 14 _ZN7android8hardware4wifi
808:   FUNC GLOBAL DEFAULT 14 _ZN7android8hardware4wifi
809:   FUNC WEAK DEFAULT 14 _ZN7android8hardware7deta
810:   FUNC GLOBAL DEFAULT 14 _ZN7android8hardware4wifi
811:   FUNC GLOBAL DEFAULT 14 _ZN7android8hardware4wifi
812:   FUNC GLOBAL DEFAULT 14 _ZN7android8hardware4wifi
813:   FUNC GLOBAL DEFAULT 14 _ZN7android8hardware4wifi
814:   FUNC GLOBAL DEFAULT 14 _ZN7android8hardware4wifi
815:   FUNC GLOBAL DEFAULT 14 _ZN7android8hardware4wifi
816:   FUNC GLOBAL DEFAULT 14 _ZN7android8hardware4wifi
817:   FUNC GLOBAL DEFAULT 14 _ZN7android8hardware4wifi
818:   FUNC GLOBAL DEFAULT 14 _ZTv0_n12_N7android8hardw
819:   FUNC WEAK DEFAULT 14 _ZN7android8hardware7deta
820:   FUNC GLOBAL DEFAULT 14 _ZN7android8hardware4wifi
821:   FUNC GLOBAL DEFAULT 14 _ZN7android8hardware4wifi
822:   FUNC GLOBAL DEFAULT 14 _ZN7android8hardware4wifi
823:   FUNC GLOBAL DEFAULT 14 _ZN7android8hardware4wifi
824:   FUNC GLOBAL DEFAULT 14 _ZN7android8hardware4wifi
825:   FUNC GLOBAL DEFAULT 14 _ZN7android8hardware4wifi
826:   FUNC GLOBAL DEFAULT 14 _ZN7android8hardware4wifi
827:   OBJECT GLOBAL DEFAULT 18 _ZTTN7android8hardware4wi
828:   FUNC GLOBAL DEFAULT 14 _ZN7android8hardware4wifi
829:   FUNC GLOBAL DEFAULT 14 _ZN7android8hardware4wifi
830:   FUNC GLOBAL DEFAULT 14 _ZN7android8hardware4wifi
831:   FUNC WEAK DEFAULT 14 _ZN7android8hardware7deta
832:   FUNC GLOBAL DEFAULT 14 _ZN7android8hardware4wifi
833:   FUNC GLOBAL DEFAULT 14 _ZN7android8hardware4wifi
834:   FUNC GLOBAL DEFAULT 14 _ZN7android8hardware4wifi
835:   FUNC GLOBAL DEFAULT 14 _ZN7android8hardware4wifi
836:   FUNC GLOBAL DEFAULT 14 _ZN7android8hardware4wifi
837:   OBJECT GLOBAL DEFAULT 18 _ZTCN7android8hardware4wi
838:   FUNC GLOBAL DEFAULT 14 _ZN7android8hardware4wifi
839:   FUNC GLOBAL DEFAULT 14 _ZN7android8hardware4wifi
840:   FUNC GLOBAL DEFAULT 14 _ZN7android8hardware4wifi
841:   OBJECT GLOBAL DEFAULT 18 _ZTCN7android8hardware4wi
842:   OBJECT WEAK DEFAULT 18 _ZTVN7android8hardware4wi
843:   FUNC GLOBAL DEFAULT 14 _ZN7android8hardware4wifi
844:   FUNC WEAK DEFAULT 14 _ZNSt3__127__tree_balance
845:   FUNC GLOBAL DEFAULT 14 _ZN7android8hardware4wifi
846:   FUNC GLOBAL DEFAULT 14 _ZN7android8hardware4wifi
847:   FUNC GLOBAL DEFAULT 14 _ZN7android8hardware4wifi
848:   OBJECT GLOBAL DEFAULT 18 _ZTCN7android8hardware4wi
849:   FUNC GLOBAL DEFAULT 14 _ZN7android8hardware4wifi
850:   OBJECT GLOBAL DEFAULT 18 _ZTCN7android8hardware4wi
851:   FUNC WEAK DEFAULT 14 _ZN7android8hardware7deta
852:   FUNC GLOBAL DEFAULT 14 _ZN7android8hardware4wifi
853:   FUNC GLOBAL DEFAULT 14 _ZN7android8hardware4wifi
854:   OBJECT GLOBAL DEFAULT 18 _ZTCN7android8hardware4wi
855:   FUNC GLOBAL DEFAULT 14 _ZN7android8hardware4wifi
856:   OBJECT GLOBAL DEFAULT 18 _ZTCN7android8hardware4wi
857:   FUNC GLOBAL DEFAULT 14 _ZN7android8hardware4wifi
858:   FUNC GLOBAL DEFAULT 14 _ZN7android8hardware4wifi
859:   FUNC GLOBAL DEFAULT 14 _ZN7android8hardware4wifi
860:   OBJECT GLOBAL DEFAULT 18 _ZTCN7android8hardware4wi
861:   OBJECT GLOBAL DEFAULT 18 _ZTCN7android8hardware4wi
862:   FUNC GLOBAL DEFAULT 14 _ZN7android8hardware4wifi
863:   OBJECT GLOBAL DEFAULT 18 _ZTCN7android8hardware4wi
864:   FUNC GLOBAL DEFAULT 14 _ZN7android8hardware4wifi
865:   FUNC GLOBAL DEFAULT 14 _ZN7android8hardware4wifi
866:   FUNC GLOBAL DEFAULT 14 _ZN7android8hardware4wifi
867:   FUNC GLOBAL DEFAULT 14 _ZN7android8hardware4wifi
868:   FUNC GLOBAL DEFAULT 14 _ZN7android8hardware4wifi
869:   FUNC GLOBAL DEFAULT 14 _ZN7android8hardware4wifi
870:   FUNC GLOBAL DEFAULT 14 _ZN7android8hardware4wifi
871:   FUNC GLOBAL DEFAULT 14 _ZN7android8hardware4wifi
872:   OBJECT GLOBAL DEFAULT 18 _ZTTN7android8hardware4wi
873:   OBJECT GLOBAL DEFAULT 18 _ZTCN7android8hardware4wi
874:   FUNC GLOBAL DEFAULT 14 _ZN7android8hardware4wifi
875:   FUNC GLOBAL DEFAULT 14 _ZTv0_n12_N7android8hardw
876:   FUNC WEAK DEFAULT 14 _ZN7android8hardware7deta
877:   FUNC GLOBAL DEFAULT 14 _ZN7android8hardware4wifi
878:   FUNC GLOBAL DEFAULT 14 _ZN7android8hardware4wifi
879:   FUNC GLOBAL DEFAULT 14 _ZN7android8hardware4wifi
880:   FUNC GLOBAL DEFAULT 14 _ZN7android8hardware4wifi
881:   FUNC GLOBAL DEFAULT 14 _ZN7android8hardware4wifi
882:   FUNC GLOBAL DEFAULT 14 _ZN7android8hardware4wifi
883:   FUNC GLOBAL DEFAULT 14 _ZN7android8hardware4wifi
884:   OBJECT GLOBAL DEFAULT 18 _ZTVN7android8hardware4wi
885:   FUNC GLOBAL DEFAULT 14 _ZN7android8hardware4wifi
886:   OBJECT GLOBAL DEFAULT 18 _ZTTN7android8hardware4wi
887:   FUNC GLOBAL DEFAULT 14 _ZN7android8hardware4wifi
888:   FUNC GLOBAL DEFAULT 14 _ZN7android8hardware4wifi
889:   FUNC GLOBAL DEFAULT 14 _ZN7android8hardware4wifi
890:   FUNC GLOBAL DEFAULT 14 _ZN7android8hardware4wifi
891:   OBJECT GLOBAL DEFAULT 18 _ZTCN7android8hardware4wi
892:   FUNC GLOBAL DEFAULT 14 _ZN7android8hardware4wifi
893:   FUNC GLOBAL DEFAULT 14 _ZN7android8hardware4wifi
894:   FUNC GLOBAL DEFAULT 14 _ZN7android8hardware4wifi
895:   FUNC GLOBAL DEFAULT 14 _ZN7android8hardware4wifi
896:   FUNC WEAK DEFAULT 14 _ZN7android8hardware7deta
897:   FUNC GLOBAL DEFAULT 14 _ZN7android8hardware4wifi
898:   FUNC GLOBAL DEFAULT 14 _ZN7android8hardware4wifi
899:   FUNC GLOBAL DEFAULT 14 _ZTv0_n12_N7android8hardw
900:   FUNC GLOBAL DEFAULT 14 _ZN7android8hardware4wifi
901:   OBJECT GLOBAL DEFAULT 18 _ZTVN7android8hardware4wi
902:   FUNC GLOBAL DEFAULT 14 _ZN7android8hardware4wifi
903:   FUNC GLOBAL DEFAULT 14 _ZN7android8hardware4wifi
904:   FUNC WEAK DEFAULT 14 _ZN7android8hardware10fro
905:   FUNC GLOBAL DEFAULT 14 _ZN7android8hardware4wifi
906:   FUNC GLOBAL DEFAULT 14 _ZN7android8hardware4wifi
907:   FUNC GLOBAL DEFAULT 14 _ZN7android8hardware4wifi
908:   FUNC GLOBAL DEFAULT 14 _ZN7android8hardware4wifi
909:   FUNC GLOBAL DEFAULT 14 _ZN7android8hardware4wifi
910:   FUNC GLOBAL DEFAULT 14 _ZTv0_n12_N7android8hardw
911:   OBJECT WEAK DEFAULT 18 _ZTVN7android8hardware4wi
912:   FUNC GLOBAL DEFAULT 14 _ZN7android8hardware4wifi
913:   FUNC GLOBAL DEFAULT 14 _ZN7android8hardware4wifi
914:   FUNC GLOBAL DEFAULT 14 _ZN7android8hardware4wifi
915:   OBJECT GLOBAL DEFAULT 18 _ZTCN7android8hardware4wi
916:   FUNC GLOBAL DEFAULT 14 _ZN7android8hardware4wifi
917:   FUNC GLOBAL DEFAULT 14 _ZN7android8hardware4wifi
918:   FUNC GLOBAL DEFAULT 14 _ZN7android8hardware4wifi
919:   FUNC WEAK DEFAULT 14 _ZN7android8hardware7deta
920:   FUNC GLOBAL DEFAULT 14 _ZN7android8hardware4wifi
921:   FUNC GLOBAL DEFAULT 14 _ZN7android8hardware4wifi
922:   FUNC GLOBAL DEFAULT 14 _ZN7android8hardware4wifi
923:   FUNC GLOBAL DEFAULT 14 _ZN7android8hardware4wifi
924:   FUNC GLOBAL DEFAULT 14 _ZN7android8hardware4wifi
925:   FUNC GLOBAL DEFAULT 14 _ZN7android8hardware4wifi
926:   FUNC GLOBAL DEFAULT 14 _ZN7android8hardware4wifi
927:   OBJECT GLOBAL DEFAULT 18 _ZTCN7android8hardware4wi
928:   FUNC GLOBAL DEFAULT 14 _ZN7android8hardware4wifi
929:   FUNC GLOBAL DEFAULT 14 _ZN7android8hardware4wifi
930:   FUNC GLOBAL DEFAULT 14 _ZN7android8hardware4wifi
931:   FUNC GLOBAL DEFAULT 14 _ZN7android8hardware4wifi
932:   FUNC WEAK DEFAULT 14 _ZN7android8hardware7deta
933:   FUNC GLOBAL DEFAULT 14 _ZN7android8hardware4wifi
934:   FUNC GLOBAL DEFAULT 14 _ZN7android8hardware4wifi
935:   FUNC GLOBAL DEFAULT 14 _ZN7android8hardware4wifi
936:   FUNC GLOBAL DEFAULT 14 _ZN7android8hardware4wifi
937:   FUNC GLOBAL DEFAULT 14 _ZN7android8hardware4wifi
938:   FUNC GLOBAL DEFAULT 14 _ZN7android8hardware4wifi
939:   FUNC GLOBAL DEFAULT 14 _ZTv0_n12_N7android8hardw
940:   OBJECT GLOBAL DEFAULT 18 _ZTCN7android8hardware4wi
941:   OBJECT WEAK DEFAULT 18 _ZTCN7android8hardware4wi
942:   FUNC GLOBAL DEFAULT 14 _ZN7android8hardware4wifi
943:   OBJECT GLOBAL DEFAULT 18 _ZTCN7android8hardware4wi
944:   FUNC GLOBAL DEFAULT 14 _ZN7android8hardware4wifi
945:   OBJECT GLOBAL DEFAULT 18 _ZTCN7android8hardware4wi
946:   OBJECT GLOBAL DEFAULT 18 _ZTCN7android8hardware4wi
947:   FUNC GLOBAL DEFAULT 14 _ZN7android8hardware4wifi
948:   FUNC GLOBAL DEFAULT 14 _ZN7android8hardware4wifi
949:   FUNC GLOBAL DEFAULT 14 _ZN7android8hardware4wifi
950:   FUNC GLOBAL DEFAULT 14 _ZN7android8hardware4wifi
951:   FUNC GLOBAL DEFAULT 14 _ZN7android8hardware4wifi
952:   FUNC GLOBAL DEFAULT 14 _ZN7android8hardware4wifi
953:   FUNC GLOBAL DEFAULT 14 _ZN7android8hardware4wifi
954:   FUNC GLOBAL DEFAULT 14 _ZN7android8hardware4wifi
955:   FUNC GLOBAL DEFAULT 14 _ZN7android8hardware4wifi
956:   FUNC GLOBAL DEFAULT 14 _ZN7android8hardware4wifi
957:   FUNC GLOBAL DEFAULT 14 _ZN7android8hardware4wifi
958:   FUNC GLOBAL DEFAULT 14 _ZN7android8hardware4wifi
959:   FUNC GLOBAL DEFAULT 14 _ZN7android8hardware4wifi
960:   FUNC GLOBAL DEFAULT 14 _ZN7android8hardware4wifi
961:   FUNC GLOBAL DEFAULT 14 _ZN7android8hardware4wifi
962:   OBJECT GLOBAL DEFAULT 18 _ZTCN7android8hardware4wi
963:   OBJECT GLOBAL DEFAULT 18 _ZTCN7android8hardware4wi
964:   FUNC GLOBAL DEFAULT 14 _ZN7android8hardware4wifi
965:   FUNC GLOBAL DEFAULT 14 _ZN7android8hardware4wifi
966:   FUNC GLOBAL DEFAULT 14 _ZN7android8hardware4wifi
967:   FUNC GLOBAL DEFAULT 14 _ZN7android8hardware4wifi
968:   OBJECT GLOBAL DEFAULT 18 _ZTCN7android8hardware4wi
969:   FUNC GLOBAL DEFAULT 14 _ZN7android8hardware4wifi
970:   OBJECT GLOBAL DEFAULT 18 _ZTVN7android8hardware4wi
971:   FUNC GLOBAL DEFAULT 14 _ZN7android8hardware4wifi
972:   FUNC GLOBAL DEFAULT 14 _ZN7android8hardware4wifi
973:   FUNC GLOBAL DEFAULT 14 _ZThn20_N7android8hardwar
974:   FUNC GLOBAL DEFAULT 14 _ZN7android8hardware4wifi
975:   FUNC GLOBAL DEFAULT 14 _ZN7android8hardware4wifi
976:   OBJECT GLOBAL DEFAULT 18 _ZTTN7android8hardware4wi
977:   FUNC GLOBAL DEFAULT 14 _ZN7android8hardware4wifi
978:   OBJECT GLOBAL DEFAULT 18 _ZTTN7android8hardware4wi
979:   FUNC GLOBAL DEFAULT 14 _ZN7android8hardware4wifi
980:   FUNC GLOBAL DEFAULT 14 _ZN7android8hardware4wifi
981:   FUNC GLOBAL DEFAULT 14 _ZN7android8hardware4wifi
982:   FUNC GLOBAL DEFAULT 14 _ZN7android8hardware4wifi
983:   OBJECT GLOBAL DEFAULT 18 _ZTCN7android8hardware4wi
984:   FUNC GLOBAL DEFAULT 14 _ZN7android8hardware4wifi
985:   FUNC GLOBAL DEFAULT 14 __aeabi_memclr
986:   OBJECT WEAK DEFAULT 18 _ZTCN7android8hardware4wi
987:   FUNC GLOBAL DEFAULT 14 _ZN7android8hardware4wifi
988:   OBJECT GLOBAL DEFAULT 18 _ZTVN7android8hardware4wi
989:   FUNC GLOBAL DEFAULT 14 _ZN7android8hardware4wifi
990:   FUNC GLOBAL DEFAULT 14 _ZN7android8hardware4wifi
991:   FUNC GLOBAL DEFAULT 14 _ZN7android8hardware4wifi
992:   FUNC GLOBAL DEFAULT 14 _ZN7android8hardware4wifi
993:   FUNC GLOBAL DEFAULT 14 _ZN7android8hardware4wifi
994:   FUNC GLOBAL DEFAULT 14 _ZN7android8hardware4wifi
995:   FUNC GLOBAL DEFAULT 14 _ZN7android8hardware4wifi
996:   FUNC GLOBAL DEFAULT 14 _ZN7android8hardware4wifi
997:   OBJECT GLOBAL DEFAULT 18 _ZTCN7android8hardware4wi
998:   FUNC GLOBAL DEFAULT 14 _ZN7android8hardware4wifi
999:   FUNC GLOBAL DEFAULT 14 _ZN7android8hardware4wifi
1000:   OBJECT GLOBAL DEFAULT 18 _ZTVN7android8hardware4wi
1001:   FUNC WEAK DEFAULT 14 _ZN7android8hardware7deta
1002:   FUNC GLOBAL DEFAULT 14 _ZN7android8hardware4wifi
1003:   OBJECT GLOBAL DEFAULT 18 _ZTCN7android8hardware4wi
1004:   FUNC GLOBAL DEFAULT 14 _ZN7android8hardware4wifi
1005:   OBJECT GLOBAL DEFAULT 18 _ZTVN7android8hardware4wi
1006:   OBJECT GLOBAL DEFAULT 18 _ZTCN7android8hardware4wi
1007:   FUNC WEAK DEFAULT 14 _ZN7android8hardware10fro
1008:   FUNC GLOBAL DEFAULT 14 _ZN7android8hardware4wifi
1009:   FUNC GLOBAL DEFAULT 14 _ZN7android8hardware4wifi
1010:   FUNC GLOBAL DEFAULT 14 _ZN7android8hardware4wifi
1011:   FUNC GLOBAL DEFAULT 14 _ZN7android8hardware4wifi
1012:   FUNC GLOBAL DEFAULT 14 _ZN7android8hardware4wifi
1013:   FUNC GLOBAL DEFAULT 14 _ZN7android8hardware4wifi
1014:   FUNC GLOBAL DEFAULT 14 _ZN7android8hardware4wifi
1015:   OBJECT GLOBAL DEFAULT 18 _ZTCN7android8hardware4wi
1016:   FUNC GLOBAL DEFAULT 14 _ZN7android8hardware4wifi
1017:   FUNC GLOBAL DEFAULT 14 _ZThn20_N7android8hardwar
1018:   FUNC GLOBAL DEFAULT 14 _ZN7android8hardware4wifi
1019:   FUNC GLOBAL DEFAULT 14 _ZN7android8hardware4wifi
1020:   FUNC GLOBAL DEFAULT 14 _ZN7android8hardware4wifi
1021:   FUNC GLOBAL DEFAULT 14 _ZN7android8hardware4wifi
1022:   FUNC GLOBAL DEFAULT 14 _ZN7android8hardware4wifi
1023:   FUNC GLOBAL DEFAULT 14 _ZN7android8hardware4wifi
1024:   FUNC GLOBAL DEFAULT 14 _ZThn20_N7android8hardwar
1025:   FUNC GLOBAL DEFAULT 14 _ZThn20_N7android8hardwar
1026:   FUNC GLOBAL DEFAULT 14 _ZN7android8hardware4wifi
1027:   FUNC GLOBAL DEFAULT 14 _ZN7android8hardware4wifi
1028:   OBJECT GLOBAL DEFAULT 18 _ZTCN7android8hardware4wi
1029:   FUNC GLOBAL DEFAULT 14 _ZN7android8hardware4wifi
1030:   OBJECT GLOBAL DEFAULT 18 _ZTCN7android8hardware4wi
1031:   FUNC GLOBAL DEFAULT 14 _ZN7android8hardware4wifi
1032:   FUNC GLOBAL DEFAULT 14 _ZN7android8hardware4wifi
1033:   FUNC GLOBAL DEFAULT 14 _ZN7android8hardware4wifi
1034:   FUNC WEAK DEFAULT 14 _ZN7android8hardware7deta
1035:   FUNC GLOBAL DEFAULT 14 _ZN7android8hardware4wifi
1036:   FUNC GLOBAL DEFAULT 14 _ZN7android8hardware4wifi
1037:   FUNC GLOBAL DEFAULT 14 _ZN7android8hardware4wifi
1038:   FUNC WEAK DEFAULT 14 _ZN7android8hardware7deta
1039:   FUNC GLOBAL DEFAULT 14 _ZN7android8hardware4wifi
1040:   OBJECT GLOBAL DEFAULT 18 _ZTCN7android8hardware4wi
1041:   FUNC GLOBAL DEFAULT 14 _ZN7android8hardware4wifi
1042:   FUNC GLOBAL DEFAULT 14 _ZN7android8hardware4wifi
1043:   FUNC GLOBAL DEFAULT 14 _ZN7android8hardware4wifi
1044:   FUNC GLOBAL DEFAULT 14 _ZN7android8hardware4wifi
1045:   FUNC GLOBAL DEFAULT 14 _ZN7android8hardware4wifi
1046:   FUNC GLOBAL DEFAULT 14 _ZN7android8hardware4wifi
1047:   FUNC GLOBAL DEFAULT 14 _ZN7android8hardware4wifi
1048:   FUNC GLOBAL DEFAULT 14 _ZN7android8hardware4wifi
1049:   FUNC GLOBAL DEFAULT 14 _ZN7android8hardware4wifi
1050:   FUNC GLOBAL DEFAULT 14 _ZN7android8hardware4wifi
1051:   FUNC GLOBAL DEFAULT 14 _ZN7android8hardware4wifi
1052:   FUNC GLOBAL DEFAULT 14 _ZN7android8hardware4wifi
1053:   FUNC GLOBAL DEFAULT 14 _ZN7android8hardware4wifi
1054:   FUNC GLOBAL DEFAULT 14 _ZN7android8hardware4wifi
1055:   FUNC GLOBAL DEFAULT 14 _ZN7android8hardware4wifi
1056:   OBJECT GLOBAL DEFAULT 18 _ZTCN7android8hardware4wi
1057:   FUNC GLOBAL DEFAULT 14 _ZN7android8hardware4wifi
1058:   FUNC GLOBAL DEFAULT 14 _ZN7android8hardware4wifi
1059:   OBJECT GLOBAL DEFAULT 16 _ZN7android8hardware4wifi
1060:   FUNC GLOBAL DEFAULT 14 _ZN7android8hardware4wifi
1061:   FUNC GLOBAL DEFAULT 14 _ZN7android8hardware4wifi
1062:   FUNC GLOBAL DEFAULT 14 _ZN7android8hardware4wifi
1063:   FUNC GLOBAL DEFAULT 14 _ZN7android8hardware4wifi
1064:   FUNC GLOBAL DEFAULT 14 _ZN7android8hardware4wifi
1065:   FUNC GLOBAL DEFAULT 14 _ZN7android8hardware4wifi
1066:   FUNC GLOBAL DEFAULT 14 _ZN7android8hardware4wifi
1067:   FUNC GLOBAL DEFAULT 14 _ZN7android8hardware4wifi
1068:   FUNC GLOBAL DEFAULT 14 _ZN7android8hardware4wifi
1069:   FUNC GLOBAL DEFAULT 14 _ZN7android8hardware4wifi
1070:   FUNC GLOBAL DEFAULT 14 _ZN7android8hardware4wifi
1071:   FUNC GLOBAL DEFAULT 14 _ZN7android8hardware4wifi
1072:   FUNC GLOBAL DEFAULT 14 _ZN7android8hardware4wifi
1073:   OBJECT GLOBAL DEFAULT 18 _ZTCN7android8hardware4wi
1074:   FUNC GLOBAL DEFAULT 14 _ZN7android8hardware4wifi
1075:   OBJECT GLOBAL DEFAULT 18 _ZTTN7android8hardware4wi
1076:   FUNC WEAK DEFAULT 14 _ZN7android8hardware7deta
1077:   FUNC GLOBAL DEFAULT 14 _ZN7android8hardware4wifi
1078:   OBJECT GLOBAL DEFAULT 18 _ZTTN7android8hardware4wi
1079:   FUNC GLOBAL DEFAULT 14 _ZN7android8hardware4wifi
1080:   FUNC GLOBAL DEFAULT 14 _ZThn20_N7android8hardwar
1081:   FUNC GLOBAL DEFAULT 14 _ZN7android8hardware4wifi
1082:   FUNC GLOBAL DEFAULT 14 _ZN7android8hardware4wifi
1083:   OBJECT GLOBAL DEFAULT 16 _ZN7android8hardware4wifi
1084:   FUNC GLOBAL DEFAULT 14 _ZTv0_n12_N7android8hardw
1085:   FUNC GLOBAL DEFAULT 14 _ZN7android8hardware4wifi
1086:   OBJECT GLOBAL DEFAULT 18 _ZTVN7android8hardware4wi
1087:   FUNC GLOBAL DEFAULT 14 _ZN7android8hardware4wifi
1088:   FUNC GLOBAL DEFAULT 14 _ZN7android8hardware4wifi
1089:   OBJECT WEAK DEFAULT 18 _ZTCN7android8hardware4wi
1090:   FUNC GLOBAL DEFAULT 14 _ZTv0_n12_N7android8hardw
1091:   OBJECT GLOBAL DEFAULT 18 _ZTCN7android8hardware4wi
1092:   FUNC WEAK DEFAULT 14 _ZN7android8hardware7deta
1093:   FUNC GLOBAL DEFAULT 14 _ZN7android8hardware4wifi
1094:   FUNC GLOBAL DEFAULT 14 _ZN7android8hardware4wifi
1095:   OBJECT GLOBAL DEFAULT 18 _ZTCN7android8hardware4wi
1096:   FUNC GLOBAL DEFAULT 14 _ZN7android8hardware4wifi
1097:   FUNC GLOBAL DEFAULT 14 _ZN7android8hardware4wifi
1098:   FUNC GLOBAL DEFAULT 14 _ZN7android8hardware4wifi
1099:   OBJECT WEAK DEFAULT 18 _ZTCN7android8hardware4wi
1100:   OBJECT GLOBAL DEFAULT 18 _ZTCN7android8hardware4wi
1101:   FUNC GLOBAL DEFAULT 14 _ZN7android8hardware4wifi
1102:   OBJECT GLOBAL DEFAULT 18 _ZTCN7android8hardware4wi
1103:   FUNC GLOBAL DEFAULT 14 _ZN7android8hardware4wifi
1104:   FUNC GLOBAL DEFAULT 14 _ZN7android8hardware4wifi
1105:   FUNC GLOBAL DEFAULT 14 _ZN7android8hardware4wifi
1106:   FUNC GLOBAL DEFAULT 14 _ZTv0_n12_N7android8hardw
1107:   FUNC GLOBAL DEFAULT 14 _ZN7android8hardware4wifi
1108:   FUNC GLOBAL DEFAULT 14 _ZN7android8hardware4wifi
1109:   OBJECT GLOBAL DEFAULT 18 _ZTCN7android8hardware4wi
1110:   FUNC GLOBAL DEFAULT 14 _ZN7android8hardware4wifi
1111:   OBJECT GLOBAL DEFAULT 18 _ZTVN7android8hardware4wi
1112:   FUNC GLOBAL DEFAULT 14 _ZN7android8hardware4wifi
1113:   FUNC GLOBAL DEFAULT 14 _ZN7android8hardware4wifi
1114:   FUNC GLOBAL DEFAULT 14 _ZN7android8hardware4wifi
1115:   FUNC GLOBAL DEFAULT 14 _ZN7android8hardware4wifi
1116:   OBJECT GLOBAL DEFAULT 16 _ZN7android8hardware4wifi
1117:   FUNC GLOBAL DEFAULT 14 _ZN7android8hardware4wifi
1118:   OBJECT GLOBAL DEFAULT 16 _ZN7android8hardware4wifi
1119:   FUNC GLOBAL DEFAULT 14 _ZN7android8hardware4wifi
1120:   FUNC GLOBAL DEFAULT 14 _ZN7android8hardware4wifi
1121:   FUNC GLOBAL DEFAULT 14 _ZN7android8hardware4wifi
1122:   FUNC WEAK DEFAULT 14 _ZN7android8hardware7deta
1123:   FUNC GLOBAL DEFAULT 14 _ZN7android8hardware4wifi
1124:   FUNC GLOBAL DEFAULT 14 _ZN7android8hardware4wifi
1125:   FUNC GLOBAL DEFAULT 14 _ZN7android8hardware4wifi
1126:   FUNC GLOBAL DEFAULT 14 _ZN7android8hardware4wifi
1127:   OBJECT WEAK DEFAULT 18 _ZTVN7android8hardware4wi
1128:   FUNC GLOBAL DEFAULT 14 _ZN7android8hardware4wifi
1129:   FUNC GLOBAL DEFAULT 14 _ZN7android8hardware4wifi
1130:   FUNC GLOBAL DEFAULT 14 _ZN7android8hardware4wifi
1131:   OBJECT WEAK DEFAULT 18 _ZTVN7android8hardware4wi
1132:   FUNC GLOBAL DEFAULT 14 _ZN7android8hardware4wifi
1133:   FUNC GLOBAL DEFAULT 14 _ZN7android8hardware4wifi
1134:   FUNC WEAK DEFAULT 14 _ZN7android8hardware7deta
1135:   FUNC GLOBAL DEFAULT 14 _ZTv0_n12_N7android8hardw
1136:   OBJECT GLOBAL DEFAULT 18 _ZTVN7android8hardware4wi
1137:   FUNC GLOBAL DEFAULT 14 _ZN7android8hardware4wifi
1138:   FUNC GLOBAL DEFAULT 14 _ZN7android8hardware4wifi
1139:   FUNC GLOBAL DEFAULT 14 _ZN7android8hardware4wifi
1140:   FUNC GLOBAL DEFAULT 14 _ZN7android8hardware4wifi
1141:   FUNC GLOBAL DEFAULT 14 _ZN7android8hardware4wifi
1142:   FUNC GLOBAL DEFAULT 14 _ZN7android8hardware4wifi
1143:   FUNC GLOBAL DEFAULT 14 _ZN7android8hardware4wifi
1144:   OBJECT GLOBAL DEFAULT 18 _ZTCN7android8hardware4wi
1145:   FUNC GLOBAL DEFAULT 14 _ZN7android8hardware4wifi
1146:   FUNC GLOBAL DEFAULT 14 _ZN7android8hardware4wifi
1147:   FUNC GLOBAL DEFAULT 14 _ZN7android8hardware4wifi
1148:   FUNC GLOBAL DEFAULT 14 _ZN7android8hardware4wifi
1149:   FUNC GLOBAL DEFAULT 14 _ZN7android8hardware4wifi
1150:   FUNC WEAK DEFAULT 14 _ZNSt3__16__treeINS_12__v
1151:   FUNC GLOBAL DEFAULT 14 _ZN7android8hardware4wifi
1152:   FUNC WEAK DEFAULT 14 _ZN7android8hardware7deta
1153:   OBJECT GLOBAL DEFAULT 18 _ZTCN7android8hardware4wi
1154:   FUNC GLOBAL DEFAULT 14 _ZN7android8hardware4wifi
1155:   FUNC GLOBAL DEFAULT 14 _ZN7android8hardware4wifi
1156:   FUNC GLOBAL DEFAULT 14 _ZN7android8hardware4wifi
1157:   FUNC WEAK DEFAULT 14 _ZNSt3__16__treeINS_12__v
1158:   FUNC GLOBAL DEFAULT 14 _ZN7android8hardware4wifi
1159:   FUNC GLOBAL DEFAULT 14 _ZThn20_N7android8hardwar
1160:   FUNC WEAK DEFAULT 14 _ZNSt3__16__treeINS_12__v
1161:   OBJECT GLOBAL DEFAULT 18 _ZTTN7android8hardware4wi
1162:   FUNC GLOBAL DEFAULT 14 _ZN7android8hardware4wifi
1163:   FUNC GLOBAL DEFAULT 14 _ZN7android8hardware4wifi
1164:   FUNC GLOBAL DEFAULT 14 _ZN7android8hardware4wifi
1165:   FUNC GLOBAL DEFAULT 14 _ZN7android8hardware4wifi
1166:   OBJECT GLOBAL DEFAULT 18 _ZTCN7android8hardware4wi
1167:   OBJECT GLOBAL DEFAULT 18 _ZTCN7android8hardware4wi
1168:   FUNC GLOBAL DEFAULT 14 _ZTv0_n12_N7android8hardw
1169:   FUNC GLOBAL DEFAULT 14 _ZN7android8hardware4wifi
1170:   OBJECT WEAK DEFAULT 18 _ZTVN7android8hardware4wi
1171:   FUNC GLOBAL DEFAULT 14 _ZN7android8hardware4wifi
1172:   FUNC GLOBAL DEFAULT 14 _ZN7android8hardware4wifi
1173:   OBJECT WEAK DEFAULT 18 _ZTCN7android8hardware4wi
1174:   FUNC GLOBAL DEFAULT 14 _ZN7android8hardware4wifi
1175:   FUNC GLOBAL DEFAULT 14 _ZN7android8hardware4wifi
1176:   FUNC GLOBAL DEFAULT 14 _ZN7android8hardware4wifi
1177:   FUNC WEAK DEFAULT 14 _ZNSt3__16__treeINS_12__v
1178:   FUNC GLOBAL DEFAULT 14 _ZN7android8hardware4wifi
1179:   FUNC GLOBAL DEFAULT 14 _ZN7android8hardware4wifi
1180:   OBJECT GLOBAL DEFAULT 18 _ZTVN7android8hardware4wi
1181:   FUNC GLOBAL DEFAULT 14 _ZN7android8hardware4wifi
1182:   FUNC GLOBAL DEFAULT 14 _ZN7android8hardware4wifi
1183:   OBJECT GLOBAL DEFAULT 18 _ZTTN7android8hardware4wi
1184:   OBJECT WEAK DEFAULT 18 _ZTVN7android8hardware4wi
1185:   FUNC GLOBAL DEFAULT 14 _ZN7android8hardware4wifi
1186:   FUNC GLOBAL DEFAULT 14 _ZThn20_N7android8hardwar
1187:   FUNC GLOBAL DEFAULT 14 _ZN7android8hardware4wifi
1188:   OBJECT GLOBAL DEFAULT 18 _ZTCN7android8hardware4wi
1189:   FUNC GLOBAL DEFAULT 14 _ZN7android8hardware4wifi
1190:   FUNC GLOBAL DEFAULT 14 _ZN7android8hardware4wifi
1191:   FUNC GLOBAL DEFAULT 14 _ZN7android8hardware4wifi
1192:   FUNC GLOBAL DEFAULT 14 _ZN7android8hardware4wifi
1193:   FUNC GLOBAL DEFAULT 14 _ZN7android8hardware4wifi
1194:   FUNC GLOBAL DEFAULT 14 _ZN7android8hardware4wifi
1195:   FUNC GLOBAL DEFAULT 14 _ZN7android8hardware4wifi
1196:   OBJECT GLOBAL DEFAULT 18 _ZTCN7android8hardware4wi
1197:   OBJECT GLOBAL DEFAULT 18 _ZTCN7android8hardware4wi
1198:   FUNC GLOBAL DEFAULT 14 _ZN7android8hardware4wifi
1199:   FUNC GLOBAL DEFAULT 14 _ZN7android8hardware4wifi
1200:   FUNC GLOBAL DEFAULT 14 _ZN7android8hardware4wifi
1201:   FUNC GLOBAL DEFAULT 14 _ZN7android8hardware4wifi
1202:   FUNC GLOBAL DEFAULT 14 _ZN7android8hardware4wifi
1203:   FUNC GLOBAL DEFAULT 14 _ZN7android8hardware4wifi
1204:   FUNC GLOBAL DEFAULT 14 _ZN7android8hardware4wifi
1205:   OBJECT GLOBAL DEFAULT 18 _ZTCN7android8hardware4wi
1206:   FUNC GLOBAL DEFAULT 14 _ZThn20_N7android8hardwar
1207:   FUNC GLOBAL DEFAULT 14 _ZN7android8hardware4wifi
1208:   OBJECT GLOBAL DEFAULT 18 _ZTCN7android8hardware4wi
1209:   FUNC GLOBAL DEFAULT 14 _ZN7android8hardware4wifi
1210:   OBJECT GLOBAL DEFAULT 18 _ZTVN7android8hardware4wi
1211:   FUNC GLOBAL DEFAULT 14 _ZN7android8hardware4wifi
1212:   FUNC GLOBAL DEFAULT 14 _ZN7android8hardware4wifi
1213:   FUNC GLOBAL DEFAULT 14 _ZN7android8hardware4wifi
1214:   FUNC GLOBAL DEFAULT 14 _ZN7android8hardware4wifi
1215:   FUNC WEAK DEFAULT 14 _ZN7android8hardware10fro
1216:   FUNC GLOBAL DEFAULT 14 _ZN7android8hardware4wifi
1217:   OBJECT GLOBAL DEFAULT 18 _ZTCN7android8hardware4wi
1218:   FUNC GLOBAL DEFAULT 14 _ZN7android8hardware4wifi
1219:   OBJECT GLOBAL DEFAULT 18 _ZTCN7android8hardware4wi
1220:   OBJECT GLOBAL DEFAULT 18 _ZTTN7android8hardware4wi
1221:   FUNC GLOBAL DEFAULT 14 _ZN7android8hardware4wifi
1222:   FUNC GLOBAL DEFAULT 14 _ZN7android8hardware4wifi
1223:   FUNC GLOBAL DEFAULT 14 _ZN7android8hardware4wifi
1224:   FUNC GLOBAL DEFAULT 14 _ZN7android8hardware4wifi
1225:   FUNC GLOBAL DEFAULT 14 _ZN7android8hardware4wifi
1226:   FUNC GLOBAL DEFAULT 14 _ZN7android8hardware4wifi
1227:   OBJECT GLOBAL DEFAULT 18 _ZTCN7android8hardware4wi
1228:   FUNC GLOBAL DEFAULT 14 _ZN7android8hardware4wifi
1229:   FUNC GLOBAL DEFAULT 14 _ZTv0_n12_N7android8hardw
1230:   FUNC GLOBAL DEFAULT 14 _ZN7android8hardware4wifi
1231:   FUNC GLOBAL DEFAULT 14 _ZN7android8hardware4wifi
1232:   FUNC GLOBAL DEFAULT 14 _ZN7android8hardware4wifi
1233:   FUNC GLOBAL DEFAULT 14 _ZN7android8hardware4wifi
1234:   FUNC GLOBAL DEFAULT 14 _ZN7android8hardware4wifi
1235:   OBJECT GLOBAL DEFAULT 18 _ZTCN7android8hardware4wi
1236:   FUNC GLOBAL DEFAULT 14 _ZN7android8hardware4wifi
1237:   FUNC GLOBAL DEFAULT 14 _ZN7android8hardware4wifi
1238:   FUNC GLOBAL DEFAULT 14 _ZN7android8hardware4wifi
1239:   FUNC GLOBAL DEFAULT 14 _ZN7android8hardware4wifi
1240:   FUNC GLOBAL DEFAULT 14 _ZN7android8hardware4wifi
1241:   OBJECT WEAK DEFAULT 18 _ZTCN7android8hardware4wi
1242:   FUNC GLOBAL DEFAULT 14 _ZN7android8hardware4wifi
1243:   FUNC WEAK DEFAULT 14 _ZN7android8hardware7deta
1244:   FUNC GLOBAL DEFAULT 14 _ZN7android8hardware4wifi
1245:   FUNC GLOBAL DEFAULT 14 _ZN7android8hardware4wifi
1246:   FUNC GLOBAL DEFAULT 14 _ZTv0_n12_N7android8hardw
1247:   FUNC GLOBAL DEFAULT 14 _ZN7android8hardware4wifi
1248:   OBJECT GLOBAL DEFAULT 18 _ZTVN7android8hardware4wi
1249:   FUNC GLOBAL DEFAULT 14 _ZN7android8hardware4wifi
1250:   FUNC GLOBAL DEFAULT 14 _ZN7android8hardware4wifi
1251:   FUNC GLOBAL DEFAULT 14 _ZN7android8hardware4wifi
1252:   FUNC GLOBAL DEFAULT 14 _ZN7android8hardware4wifi
1253:   FUNC GLOBAL DEFAULT 14 _ZN7android8hardware4wifi
1254:   FUNC GLOBAL DEFAULT 14 _ZN7android8hardware4wifi
1255:   FUNC GLOBAL DEFAULT 14 _ZN7android8hardware4wifi
1256:   OBJECT GLOBAL DEFAULT 18 _ZTCN7android8hardware4wi
1257:   FUNC GLOBAL DEFAULT 14 _ZN7android8hardware4wifi
1258:   OBJECT GLOBAL DEFAULT 18 _ZTVN7android8hardware4wi
1259:   FUNC GLOBAL DEFAULT 14 _ZN7android8hardware4wifi
1260:   OBJECT GLOBAL DEFAULT 18 _ZTCN7android8hardware4wi
1261:   FUNC GLOBAL DEFAULT 14 _ZN7android8hardware4wifi
1262:   FUNC GLOBAL DEFAULT 14 _ZN7android8hardware4wifi
1263:   FUNC GLOBAL DEFAULT 14 _ZN7android8hardware4wifi
1264:   FUNC GLOBAL DEFAULT 14 _ZN7android8hardware4wifi
1265:   FUNC GLOBAL DEFAULT 14 _ZN7android8hardware4wifi
1266:   FUNC GLOBAL DEFAULT 14 _ZN7android8hardware4wifi
1267:   FUNC GLOBAL DEFAULT 14 _ZN7android8hardware4wifi
1268:   OBJECT GLOBAL DEFAULT 18 _ZTCN7android8hardware4wi
1269:   FUNC GLOBAL DEFAULT 14 _ZN7android8hardware4wifi
1270:   FUNC GLOBAL DEFAULT 14 _ZTv0_n12_N7android8hardw
1271:   FUNC GLOBAL DEFAULT 14 _ZN7android8hardware4wifi
1272:   FUNC GLOBAL DEFAULT 14 _ZN7android8hardware4wifi
1273:   FUNC GLOBAL DEFAULT 14 _ZN7android8hardware4wifi
1274:   FUNC GLOBAL DEFAULT 14 _ZN7android8hardware4wifi
1275:   FUNC WEAK DEFAULT 14 _ZNSt3__113__tree_removeI
1276:   FUNC GLOBAL DEFAULT 14 _ZN7android8hardware4wifi
1277:   FUNC GLOBAL DEFAULT 14 _ZN7android8hardware4wifi
1278:   FUNC GLOBAL DEFAULT 14 _ZN7android8hardware4wifi
1279:   FUNC GLOBAL DEFAULT 14 _ZN7android8hardware4wifi
1280:   FUNC GLOBAL DEFAULT 14 _ZN7android8hardware4wifi
1281:   FUNC GLOBAL DEFAULT 14 _ZN7android8hardware4wifi
1282:   FUNC GLOBAL DEFAULT 14 _ZN7android8hardware4wifi
1283:   FUNC GLOBAL DEFAULT 14 _ZN7android8hardware4wifi
1284:   FUNC GLOBAL DEFAULT 14 _ZN7android8hardware4wifi
1285:   OBJECT GLOBAL DEFAULT 18 _ZTTN7android8hardware4wi
1286:   FUNC GLOBAL DEFAULT 14 _ZN7android8hardware4wifi
1287:   FUNC WEAK DEFAULT 14 _ZN7android8hardware7deta
1288:   FUNC GLOBAL DEFAULT 14 _ZN7android8hardware4wifi
1289:   FUNC GLOBAL DEFAULT 14 _ZN7android8hardware4wifi
1290:   FUNC GLOBAL DEFAULT 14 _ZN7android8hardware4wifi
1291:   OBJECT WEAK DEFAULT 18 _ZTVN7android8hardware4wi
1292:   FUNC GLOBAL DEFAULT 14 _ZN7android8hardware4wifi
1293:   FUNC GLOBAL DEFAULT 14 _ZN7android8hardware4wifi
1294:   FUNC GLOBAL DEFAULT 14 _ZN7android8hardware4wifi
1295:   OBJECT GLOBAL DEFAULT 18 _ZTVN7android8hardware4wi
1296:   FUNC GLOBAL DEFAULT 14 _ZN7android8hardware4wifi
1297:   FUNC GLOBAL DEFAULT 14 _ZN7android8hardware4wifi
1298:   FUNC GLOBAL DEFAULT 14 _ZN7android8hardware4wifi
1299:   FUNC GLOBAL DEFAULT 14 _ZN7android8hardware4wifi
1300:   FUNC GLOBAL DEFAULT 14 _ZN7android8hardware4wifi
1301:   FUNC GLOBAL DEFAULT 14 _ZN7android8hardware4wifi
1302:   FUNC WEAK DEFAULT 14 _ZN7android8hardware7deta
1303:   FUNC GLOBAL DEFAULT 14 _ZN7android8hardware4wifi
1304:   FUNC GLOBAL DEFAULT 14 _ZN7android8hardware4wifi
1305:   FUNC GLOBAL DEFAULT 14 _ZN7android8hardware4wifi
1306:   FUNC GLOBAL DEFAULT 14 _ZN7android8hardware4wifi
1307:   FUNC GLOBAL DEFAULT 14 _ZN7android8hardware4wifi
1308:   OBJECT GLOBAL DEFAULT 18 _ZTCN7android8hardware4wi
1309:   OBJECT GLOBAL DEFAULT 18 _ZTVN7android8hardware4wi
1310:   FUNC GLOBAL DEFAULT 14 _ZN7android8hardware4wifi
1311:   OBJECT GLOBAL DEFAULT 18 _ZTCN7android8hardware4wi
1312:   FUNC GLOBAL DEFAULT 14 _ZThn20_N7android8hardwar
1313:   FUNC GLOBAL DEFAULT 14 _ZN7android8hardware4wifi
1314:   FUNC GLOBAL DEFAULT 14 _ZN7android8hardware4wifi
1315:   FUNC GLOBAL DEFAULT 14 _ZN7android8hardware4wifi
1316:   FUNC GLOBAL DEFAULT 14 _ZN7android8hardware4wifi
1317:   FUNC GLOBAL DEFAULT 14 _ZN7android8hardware4wifi
1318:   FUNC GLOBAL DEFAULT 14 _ZN7android8hardware4wifi
1319:   FUNC GLOBAL DEFAULT 14 _ZN7android8hardware4wifi
1320:   FUNC GLOBAL DEFAULT 14 _ZN7android8hardware4wifi
1321:   FUNC WEAK DEFAULT 14 _ZNSt3__16__treeINS_12__v
1322:   FUNC GLOBAL DEFAULT 14 _ZN7android8hardware4wifi
1323:   FUNC GLOBAL DEFAULT 14 _ZN7android8hardware4wifi
1324:   FUNC GLOBAL DEFAULT 14 _ZN7android8hardware4wifi
1325:   FUNC GLOBAL DEFAULT 14 _ZN7android8hardware4wifi
1326:   FUNC GLOBAL DEFAULT 14 _ZN7android8hardware4wifi
1327:   FUNC GLOBAL DEFAULT 14 _ZN7android8hardware4wifi
1328:   FUNC GLOBAL DEFAULT 14 _ZN7android8hardware4wifi
1329:   FUNC GLOBAL DEFAULT 14 _ZN7android8hardware4wifi
1330:   FUNC GLOBAL DEFAULT 14 _ZN7android8hardware4wifi
1331:   FUNC GLOBAL DEFAULT 14 _ZN7android8hardware4wifi
1332:   FUNC GLOBAL DEFAULT 14 _ZN7android8hardware4wifi
1333:   FUNC GLOBAL DEFAULT 14 _ZN7android8hardware4wifi
1334:   FUNC GLOBAL DEFAULT 14 _ZN7android8hardware4wifi
1335:   FUNC GLOBAL DEFAULT 14 _ZN7android8hardware4wifi
1336:   FUNC GLOBAL DEFAULT 14 _ZN7android8hardware4wifi
1337:   FUNC GLOBAL DEFAULT 14 _ZN7android8hardware4wifi
1338:   FUNC GLOBAL DEFAULT 14 _ZN7android8hardware4wifi
1339:   FUNC GLOBAL DEFAULT 14 _ZN7android8hardware4wifi
1340:   OBJECT GLOBAL DEFAULT 16 _ZN7android8hardware4wifi
1341:   FUNC GLOBAL DEFAULT 14 _ZN7android8hardware4wifi
1342:   FUNC GLOBAL DEFAULT 14 _ZN7android8hardware4wifi
1343:   FUNC GLOBAL DEFAULT 14 _ZN7android8hardware4wifi
1344:   FUNC GLOBAL DEFAULT 14 _ZN7android8hardware4wifi
1345:   FUNC GLOBAL DEFAULT 14 _ZN7android8hardware4wifi
1346:   FUNC GLOBAL DEFAULT 14 _ZN7android8hardware4wifi
1347:   FUNC GLOBAL DEFAULT 14 _ZN7android8hardware4wifi
1348:   OBJECT GLOBAL DEFAULT 18 _ZTTN7android8hardware4wi
1349:   OBJECT GLOBAL DEFAULT 18 _ZTVN7android8hardware4wi
1350:   FUNC GLOBAL DEFAULT 14 _ZN7android8hardware4wifi
1351:   OBJECT GLOBAL DEFAULT 18 _ZTCN7android8hardware4wi
1352:   FUNC GLOBAL DEFAULT 14 _ZN7android8hardware4wifi
1353:   FUNC GLOBAL DEFAULT 14 _ZN7android8hardware4wifi
1354:   FUNC GLOBAL DEFAULT 14 _ZN7android8hardware4wifi
1355:   FUNC GLOBAL DEFAULT 14 _ZN7android8hardware4wifi
1356:   FUNC GLOBAL DEFAULT 14 _ZN7android8hardware4wifi
1357:   FUNC GLOBAL DEFAULT 14 _ZN7android8hardware4wifi
1358:   FUNC GLOBAL DEFAULT 14 _ZN7android8hardware4wifi
1359:   FUNC GLOBAL DEFAULT 14 _ZN7android8hardware4wifi
1360:   FUNC GLOBAL DEFAULT 14 _ZN7android8hardware4wifi
1361:   FUNC GLOBAL DEFAULT 14 _ZN7android8hardware4wifi
1362:   FUNC GLOBAL DEFAULT 14 _ZN7android8hardware4wifi
1363:   FUNC GLOBAL DEFAULT 14 _ZN7android8hardware4wifi
1364:   FUNC GLOBAL DEFAULT 14 _ZN7android8hardware4wifi
1365:   FUNC GLOBAL DEFAULT 14 _ZN7android8hardware4wifi
1366:   FUNC GLOBAL DEFAULT 14 _ZN7android8hardware4wifi
1367:   FUNC GLOBAL DEFAULT 14 _ZN7android8hardware4wifi
1368:   FUNC GLOBAL DEFAULT 14 _ZN7android8hardware4wifi
1369:   FUNC GLOBAL DEFAULT 14 _ZN7android8hardware4wifi
1370:   OBJECT GLOBAL DEFAULT 18 _ZTVN7android8hardware4wi
1371:   OBJECT GLOBAL DEFAULT 18 _ZTCN7android8hardware4wi
1372:   FUNC GLOBAL DEFAULT 14 _ZN7android8hardware4wifi
1373:   FUNC GLOBAL DEFAULT 14 _ZN7android8hardware4wifi
1374:   FUNC GLOBAL DEFAULT 14 _ZN7android8hardware4wifi
1375:   FUNC GLOBAL DEFAULT 14 _ZN7android8hardware4wifi
1376:   FUNC WEAK DEFAULT 14 _ZN7android8hardware7deta
1377:   FUNC GLOBAL DEFAULT 14 _ZN7android8hardware4wifi
1378:   OBJECT GLOBAL DEFAULT 18 _ZTVN7android8hardware4wi
1379:   FUNC GLOBAL DEFAULT 14 _ZN7android8hardware4wifi
1380:   FUNC GLOBAL DEFAULT 14 _ZN7android8hardware4wifi
1381:   OBJECT GLOBAL DEFAULT 18 _ZTTN7android8hardware4wi
1382:   FUNC GLOBAL DEFAULT 14 _ZN7android8hardware4wifi
1383:   FUNC GLOBAL DEFAULT 14 _ZN7android8hardware4wifi
1384:   FUNC GLOBAL DEFAULT 14 _ZN7android8hardware4wifi
1385:   FUNC GLOBAL DEFAULT 14 _ZN7android8hardware4wifi
1386:   FUNC GLOBAL DEFAULT 14 _ZN7android8hardware4wifi
1387:   FUNC GLOBAL DEFAULT 14 _ZN7android8hardware4wifi
1388:   OBJECT GLOBAL DEFAULT 18 _ZTCN7android8hardware4wi
1389:   FUNC GLOBAL DEFAULT 14 _ZN7android8hardware4wifi
1390:   FUNC GLOBAL DEFAULT 14 _ZN7android8hardware4wifi
1391:   FUNC GLOBAL DEFAULT 14 _ZN7android8hardware4wifi
1392:   FUNC GLOBAL DEFAULT 14 _ZN7android8hardware4wifi
1393:   FUNC GLOBAL DEFAULT 14 _ZN7android8hardware4wifi
1394:   FUNC GLOBAL DEFAULT 14 _ZN7android8hardware4wifi
1395:   FUNC GLOBAL DEFAULT 14 _ZN7android8hardware4wifi
1396:   FUNC GLOBAL DEFAULT 14 _ZN7android8hardware4wifi
1397:   FUNC GLOBAL DEFAULT 14 _ZN7android8hardware4wifi
1398:   FUNC GLOBAL DEFAULT 14 _ZN7android8hardware4wifi
1399:   FUNC GLOBAL DEFAULT 14 _ZN7android8hardware4wifi
1400:   FUNC GLOBAL DEFAULT 14 _ZN7android8hardware4wifi
1401:   FUNC GLOBAL DEFAULT 14 _ZN7android8hardware4wifi
1402:   FUNC GLOBAL DEFAULT 14 _ZN7android8hardware4wifi
1403:   FUNC GLOBAL DEFAULT 14 _ZN7android8hardware4wifi
1404:   FUNC GLOBAL DEFAULT 14 _ZN7android8hardware4wifi
1405:   OBJECT GLOBAL DEFAULT 18 _ZTCN7android8hardware4wi
1406:   FUNC GLOBAL DEFAULT 14 _ZN7android8hardware4wifi
1407:   FUNC GLOBAL DEFAULT 14 _ZN7android8hardware4wifi
1408:   FUNC GLOBAL DEFAULT 14 _ZN7android8hardware4wifi
1409:   FUNC GLOBAL DEFAULT 14 _ZN7android8hardware4wifi
1410:   FUNC GLOBAL DEFAULT 14 _ZN7android8hardware4wifi
1411:   OBJECT GLOBAL DEFAULT 18 _ZTCN7android8hardware4wi
1412:   FUNC GLOBAL DEFAULT 14 _ZTv0_n12_N7android8hardw
1413:   FUNC GLOBAL DEFAULT 14 _ZN7android8hardware4wifi
1414:   FUNC GLOBAL DEFAULT 14 _ZN7android8hardware4wifi
1415:   FUNC GLOBAL DEFAULT 14 _ZTv0_n12_N7android8hardw
1416:   OBJECT GLOBAL DEFAULT 18 _ZTCN7android8hardware4wi
1417:   FUNC GLOBAL DEFAULT 14 _ZN7android8hardware4wifi
1418:   OBJECT GLOBAL DEFAULT 18 _ZTVN7android8hardware4wi
1419:   FUNC GLOBAL DEFAULT 14 _ZN7android8hardware4wifi
1420:   FUNC GLOBAL DEFAULT 14 _ZN7android8hardware4wifi
1421:   FUNC GLOBAL DEFAULT 14 _ZN7android8hardware4wifi
1422:   FUNC GLOBAL DEFAULT 14 _ZN7android8hardware4wifi
1423:   FUNC GLOBAL DEFAULT 14 _ZN7android8hardware4wifi
1424:   FUNC GLOBAL DEFAULT 14 _ZThn20_N7android8hardwar
1425:   FUNC GLOBAL DEFAULT 14 _ZN7android8hardware4wifi
1426:   FUNC GLOBAL DEFAULT 14 _ZN7android8hardware4wifi
1427:   FUNC GLOBAL DEFAULT 14 _ZThn20_N7android8hardwar
1428:   FUNC GLOBAL DEFAULT 14 _ZN7android8hardware4wifi
1429:   FUNC GLOBAL DEFAULT 14 _ZN7android8hardware4wifi
1430:   FUNC GLOBAL DEFAULT 14 _ZN7android8hardware4wifi
1431:   FUNC GLOBAL DEFAULT 14 _ZN7android8hardware4wifi
1432:   FUNC GLOBAL DEFAULT 14 _ZN7android8hardware4wifi
1433:   FUNC GLOBAL DEFAULT 14 _ZN7android8hardware4wifi
1434:   FUNC GLOBAL DEFAULT 14 _ZN7android8hardware4wifi
1435:   OBJECT GLOBAL DEFAULT 18 _ZTTN7android8hardware4wi
1436:   FUNC GLOBAL DEFAULT 14 _ZTv0_n12_N7android8hardw
1437:   FUNC GLOBAL DEFAULT 14 _ZN7android8hardware4wifi
1438:   OBJECT GLOBAL DEFAULT 18 _ZTCN7android8hardware4wi
1439:   FUNC GLOBAL DEFAULT 14 _ZN7android8hardware4wifi
1440:   OBJECT GLOBAL DEFAULT 18 _ZTVN7android8hardware4wi
1441:   FUNC GLOBAL DEFAULT 14 _ZN7android8hardware4wifi
1442:   OBJECT GLOBAL DEFAULT 18 _ZTCN7android8hardware4wi
1443:   FUNC GLOBAL DEFAULT 14 _ZN7android8hardware4wifi
1444:   FUNC GLOBAL DEFAULT 14 _ZN7android8hardware4wifi
1445:   FUNC GLOBAL DEFAULT 14 _ZN7android8hardware4wifi
1446:   FUNC GLOBAL DEFAULT 14 _ZTv0_n12_N7android8hardw
1447:   FUNC GLOBAL DEFAULT 14 _ZN7android8hardware4wifi
1448:   FUNC GLOBAL DEFAULT 14 _ZN7android8hardware4wifi
1449:   FUNC GLOBAL DEFAULT 14 _ZN7android8hardware4wifi
1450:   FUNC WEAK DEFAULT 14 _ZN7android8hardware10fro
1451:   FUNC GLOBAL DEFAULT 14 _ZN7android8hardware4wifi
1452:   FUNC GLOBAL DEFAULT 14 _ZN7android8hardware4wifi
1453:   FUNC GLOBAL DEFAULT 14 _ZN7android8hardware4wifi
1454:   FUNC GLOBAL DEFAULT 14 _ZN7android8hardware4wifi
1455:   FUNC GLOBAL DEFAULT 14 _ZN7android8hardware4wifi
1456:   OBJECT GLOBAL DEFAULT 18 _ZTCN7android8hardware4wi
1457:   OBJECT GLOBAL DEFAULT 18 _ZTCN7android8hardware4wi
1458:   FUNC GLOBAL DEFAULT 14 _ZN7android8hardware4wifi
1459:   FUNC GLOBAL DEFAULT 14 _ZN7android8hardware4wifi
1460:   FUNC GLOBAL DEFAULT 14 _ZN7android8hardware4wifi
1461:   FUNC GLOBAL DEFAULT 14 _ZN7android8hardware4wifi
1462:   FUNC GLOBAL DEFAULT 14 _ZTv0_n12_N7android8hardw
1463:   FUNC GLOBAL DEFAULT 14 _ZN7android8hardware4wifi
1464:   OBJECT GLOBAL DEFAULT 16 _ZN7android8hardware4wifi
1465:   OBJECT GLOBAL DEFAULT 16 _ZN7android8hardware4wifi
1466:   FUNC GLOBAL DEFAULT 14 _ZN7android8hardware4wifi
1467:   OBJECT GLOBAL DEFAULT 18 _ZTVN7android8hardware4wi
1468:   FUNC GLOBAL DEFAULT 14 _ZN7android8hardware4wifi
1469:   FUNC GLOBAL DEFAULT 14 _ZN7android8hardware4wifi
1470:   FUNC GLOBAL DEFAULT 14 _ZN7android8hardware4wifi
1471:   FUNC GLOBAL DEFAULT 14 _ZN7android8hardware4wifi
1472:   FUNC GLOBAL DEFAULT 14 _ZN7android8hardware4wifi
1473:   OBJECT GLOBAL DEFAULT 18 _ZTVN7android8hardware4wi
1474:   FUNC GLOBAL DEFAULT 14 _ZThn20_N7android8hardwar
1475:   OBJECT GLOBAL DEFAULT 18 _ZTCN7android8hardware4wi
1476:   FUNC WEAK DEFAULT 14 _ZN7android8hardware7deta
1477:   FUNC GLOBAL DEFAULT 14 _ZN7android8hardware4wifi
1478:   FUNC GLOBAL DEFAULT 14 _ZThn20_N7android8hardwar
1479:   FUNC GLOBAL DEFAULT 14 _ZTv0_n12_N7android8hardw
1480:   FUNC GLOBAL DEFAULT 14 _ZN7android8hardware4wifi
1481:   FUNC GLOBAL DEFAULT 14 _ZN7android8hardware4wifi
1482:   FUNC GLOBAL DEFAULT 14 _ZN7android8hardware4wifi
1483:   FUNC GLOBAL DEFAULT 14 _ZN7android8hardware4wifi
1484:   FUNC GLOBAL DEFAULT 14 _ZN7android8hardware4wifi
1485:   FUNC GLOBAL DEFAULT 14 _ZN7android8hardware4wifi
1486:   FUNC GLOBAL DEFAULT 14 _ZN7android8hardware4wifi
1487:   FUNC WEAK DEFAULT 14 _ZN7android8hardware7deta
1488:   FUNC GLOBAL DEFAULT 14 _ZN7android8hardware4wifi
1489:   FUNC GLOBAL DEFAULT 14 _ZN7android8hardware4wifi
1490:   OBJECT GLOBAL DEFAULT 18 _ZTCN7android8hardware4wi
1491:   FUNC GLOBAL DEFAULT 14 _ZN7android8hardware4wifi
1492:   FUNC GLOBAL DEFAULT 14 _ZN7android8hardware4wifi
1493:   FUNC GLOBAL DEFAULT 14 _ZN7android8hardware4wifi
1494:   FUNC WEAK DEFAULT 14 _ZN7android8hardware10fro
1495:   FUNC GLOBAL DEFAULT 14 _ZN7android8hardware4wifi
1496:   OBJECT GLOBAL DEFAULT 18 _ZTCN7android8hardware4wi
1497:   FUNC GLOBAL DEFAULT 14 _ZN7android8hardware4wifi
1498:   FUNC GLOBAL DEFAULT 14 _ZN7android8hardware4wifi
1499:   FUNC WEAK DEFAULT 14 _ZN7android8hardware7deta
1500:   FUNC GLOBAL DEFAULT 14 _ZN7android8hardware4wifi
1501:   FUNC GLOBAL DEFAULT 14 _ZThn20_N7android8hardwar
1502:   FUNC GLOBAL DEFAULT 14 _ZN7android8hardware4wifi
1503:   OBJECT GLOBAL DEFAULT 18 _ZTCN7android8hardware4wi
