 0x000000000000000e (SONAME)             Library soname: [libnativeloader_lazy.so]
  
Symbol   contains 15 entries:
Num:   Type Bind Vis Ndx Name
0:   NOTYPE LOCAL DEFAULT UND
1:   FUNC GLOBAL DEFAULT UND __cxa_finalize@LIBC (2)
2:   FUNC GLOBAL DEFAULT UND __cxa_guard_acquire
3:   FUNC GLOBAL DEFAULT UND __cxa_guard_release
4:   FUNC GLOBAL DEFAULT UND dlopen@LIBC (3)
5:   FUNC GLOBAL DEFAULT UND dlsym@LIBC (3)
6:   FUNC GLOBAL DEFAULT 13 NativeLoaderFreeErrorMess
7:   FUNC GLOBAL DEFAULT 13 ResetNativeLoader
8:   FUNC GLOBAL DEFAULT 13 CloseNativeLibrary
9:   FUNC GLOBAL DEFAULT 13 CreateClassLoaderNamespac
10:   FUNC GLOBAL DEFAULT 13 FindNamespaceByClassLoade
11:   FUNC GLOBAL DEFAULT 13 FindNativeLoaderNamespace
12:   FUNC GLOBAL DEFAULT 13 InitializeNativeLoader
13:   FUNC GLOBAL DEFAULT 13 OpenNativeLibrary
14:   FUNC GLOBAL DEFAULT 13 OpenNativeLibraryInNamesp
