 0x0000000e (SONAME)                     Library soname: [android.hardware.drm@1.2.so]
  
Symbol   contains 812 entries:
Num:   Type Bind Vis Ndx Name
0:   NOTYPE LOCAL DEFAULT UND
1:   FUNC GLOBAL DEFAULT UND __cxa_finalize@LIBC (2)
2:   FUNC GLOBAL DEFAULT UND _ZN7android14sp_report_ra
3:   FUNC GLOBAL DEFAULT UND _ZN7android21report_syspr
4:   OBJECT GLOBAL DEFAULT UND _ZN7android4hidl4base4V1_
5:   FUNC GLOBAL DEFAULT UND _ZN7android4hidl4base4V1_
6:   FUNC GLOBAL DEFAULT UND _ZN7android4hidl4base4V1_
7:   FUNC GLOBAL DEFAULT UND _ZN7android4hidl4base4V1_
8:   FUNC GLOBAL DEFAULT UND _ZN7android4hidl4base4V1_
9:   FUNC GLOBAL DEFAULT UND _ZN7android4hidl4base4V1_
10:   FUNC GLOBAL DEFAULT UND _ZN7android4hidl4base4V1_
11:   FUNC GLOBAL DEFAULT UND _ZN7android4hidl4base4V1_
12:   FUNC GLOBAL DEFAULT UND _ZN7android4hidl4base4V1_
13:   FUNC GLOBAL DEFAULT UND _ZN7android4hidl4base4V1_
14:   FUNC GLOBAL DEFAULT UND _ZN7android4hidl4base4V1_
15:   FUNC GLOBAL DEFAULT UND _ZN7android4hidl4base4V1_
16:   FUNC GLOBAL DEFAULT UND _ZN7android4hidl4base4V1_
17:   FUNC GLOBAL DEFAULT UND _ZN7android4hidl4base4V1_
18:   FUNC GLOBAL DEFAULT UND _ZN7android4hidl4base4V1_
19:   FUNC GLOBAL DEFAULT UND _ZN7android4hidl4base4V1_
20:   FUNC GLOBAL DEFAULT UND _ZN7android4hidl4base4V1_
21:   FUNC GLOBAL DEFAULT UND _ZN7android4hidl4base4V1_
22:   FUNC GLOBAL DEFAULT UND _ZN7android4hidl4base4V1_
23:   FUNC GLOBAL DEFAULT UND _ZN7android4hidl4base4V1_
24:   FUNC GLOBAL DEFAULT UND _ZN7android4hidl4base4V1_
25:   FUNC GLOBAL DEFAULT UND _ZN7android4hidl4base4V1_
26:   FUNC GLOBAL DEFAULT UND _ZN7android4hidl4base4V1_
27:   FUNC GLOBAL DEFAULT UND _ZN7android4hidl4base4V1_
28:   FUNC GLOBAL DEFAULT UND _ZN7android7RefBase10onFi
29:   FUNC GLOBAL DEFAULT UND _ZN7android7RefBase12weak
30:   FUNC GLOBAL DEFAULT UND _ZN7android7RefBase13onLa
31:   FUNC GLOBAL DEFAULT UND _ZN7android7RefBase15onLa
32:   FUNC GLOBAL DEFAULT UND _ZN7android7RefBase20onIn
33:   FUNC GLOBAL DEFAULT UND _ZN7android7RefBaseC2Ev
34:   FUNC GLOBAL DEFAULT UND _ZN7android7RefBaseD2Ev
35:   FUNC GLOBAL DEFAULT UND _ZN7android8hardware10IIn
36:   FUNC GLOBAL DEFAULT UND _ZN7android8hardware10IIn
37:   FUNC GLOBAL DEFAULT UND _ZN7android8hardware10IIn
38:   FUNC GLOBAL DEFAULT UND _ZN7android8hardware10IIn
39:   FUNC GLOBAL DEFAULT UND _ZN7android8hardware11BpH
40:   FUNC GLOBAL DEFAULT UND _ZN7android8hardware11BpH
41:   FUNC GLOBAL DEFAULT UND _ZN7android8hardware11BpH
42:   FUNC GLOBAL DEFAULT UND _ZN7android8hardware11BpH
43:   FUNC GLOBAL DEFAULT UND _ZN7android8hardware11BpH
44:   FUNC GLOBAL DEFAULT UND _ZN7android8hardware11BpH
45:   FUNC GLOBAL DEFAULT UND _ZN7android8hardware11BpH
46:   FUNC GLOBAL DEFAULT UND _ZN7android8hardware11hid
47:   FUNC GLOBAL DEFAULT UND _ZN7android8hardware11hid
48:   FUNC GLOBAL DEFAULT UND _ZN7android8hardware11hid
49:   FUNC GLOBAL DEFAULT UND _ZN7android8hardware11hid
50:   FUNC GLOBAL DEFAULT UND _ZN7android8hardware11hid
51:   FUNC GLOBAL DEFAULT UND _ZN7android8hardware12Pro
52:   FUNC GLOBAL DEFAULT UND _ZN7android8hardware12Pro
53:   FUNC GLOBAL DEFAULT UND _ZN7android8hardware13wri
54:   FUNC GLOBAL DEFAULT UND _ZN7android8hardware21def
55:   FUNC GLOBAL DEFAULT UND _ZN7android8hardware23get
56:   FUNC GLOBAL DEFAULT UND _ZN7android8hardware27hid
57:   FUNC GLOBAL DEFAULT UND _ZN7android8hardware27hid
58:   OBJECT GLOBAL DEFAULT UND _ZN7android8hardware3drm4
59:   FUNC GLOBAL DEFAULT UND _ZN7android8hardware3drm4
60:   FUNC GLOBAL DEFAULT UND _ZN7android8hardware3drm4
61:   FUNC GLOBAL DEFAULT UND _ZN7android8hardware3drm4
62:   FUNC GLOBAL DEFAULT UND _ZN7android8hardware3drm4
63:   FUNC GLOBAL DEFAULT UND _ZN7android8hardware3drm4
64:   FUNC GLOBAL DEFAULT UND _ZN7android8hardware3drm4
65:   FUNC GLOBAL DEFAULT UND _ZN7android8hardware3drm4
66:   FUNC GLOBAL DEFAULT UND _ZN7android8hardware3drm4
67:   FUNC GLOBAL DEFAULT UND _ZN7android8hardware3drm4
68:   FUNC GLOBAL DEFAULT UND _ZN7android8hardware3drm4
69:   FUNC GLOBAL DEFAULT UND _ZN7android8hardware3drm4
70:   FUNC GLOBAL DEFAULT UND _ZN7android8hardware3drm4
71:   FUNC GLOBAL DEFAULT UND _ZN7android8hardware3drm4
72:   FUNC GLOBAL DEFAULT UND _ZN7android8hardware3drm4
73:   OBJECT GLOBAL DEFAULT UND _ZN7android8hardware3drm4
74:   FUNC GLOBAL DEFAULT UND _ZN7android8hardware3drm4
75:   FUNC GLOBAL DEFAULT UND _ZN7android8hardware3drm4
76:   FUNC GLOBAL DEFAULT UND _ZN7android8hardware3drm4
77:   FUNC GLOBAL DEFAULT UND _ZN7android8hardware3drm4
78:   FUNC GLOBAL DEFAULT UND _ZN7android8hardware3drm4
79:   FUNC GLOBAL DEFAULT UND _ZN7android8hardware3drm4
80:   FUNC GLOBAL DEFAULT UND _ZN7android8hardware3drm4
81:   FUNC GLOBAL DEFAULT UND _ZN7android8hardware3drm4
82:   FUNC GLOBAL DEFAULT UND _ZN7android8hardware3drm4
83:   FUNC GLOBAL DEFAULT UND _ZN7android8hardware3drm4
84:   FUNC GLOBAL DEFAULT UND _ZN7android8hardware6Stat
85:   FUNC GLOBAL DEFAULT UND _ZN7android8hardware6Stat
86:   FUNC GLOBAL DEFAULT UND _ZN7android8hardware6Stat
87:   FUNC GLOBAL DEFAULT UND _ZN7android8hardware7IBin
88:   FUNC GLOBAL DEFAULT UND _ZN7android8hardware7IBin
89:   FUNC GLOBAL DEFAULT UND _ZN7android8hardware7IBin
90:   FUNC GLOBAL DEFAULT UND _ZN7android8hardware7IBin
91:   FUNC GLOBAL DEFAULT UND _ZN7android8hardware7deta
92:   FUNC GLOBAL DEFAULT UND _ZN7android8hardware7deta
93:   FUNC GLOBAL DEFAULT UND _ZN7android8hardware7deta
94:   FUNC GLOBAL DEFAULT UND _ZN7android8hardware7deta
95:   FUNC GLOBAL DEFAULT UND _ZN7android8hardware7deta
96:   FUNC GLOBAL DEFAULT UND _ZN7android8hardware7deta
97:   FUNC GLOBAL DEFAULT UND _ZN7android8hardware7deta
98:   OBJECT GLOBAL DEFAULT UND _ZN7android8hardware7deta
99:   OBJECT GLOBAL DEFAULT UND _ZN7android8hardware7deta
100:   FUNC GLOBAL DEFAULT UND _ZN7android8hardware7deta
101:   FUNC GLOBAL DEFAULT UND _ZN7android8hardware7deta
102:   FUNC GLOBAL DEFAULT UND _ZN7android8hardware7deta
103:   FUNC GLOBAL DEFAULT UND _ZN7android8hardware7deta
104:   FUNC GLOBAL DEFAULT UND _ZN7android8hardware7deta
105:   FUNC GLOBAL DEFAULT UND _ZN7android8hardware7deta
106:   FUNC GLOBAL DEFAULT UND _ZN7android8hardware7deta
107:   FUNC GLOBAL DEFAULT UND _ZN7android8hardware7deta
108:   FUNC GLOBAL DEFAULT UND _ZN7android8hardware7deta
109:   FUNC GLOBAL DEFAULT UND _ZN7android8hardware7deta
110:   OBJECT GLOBAL DEFAULT UND _ZN7android8hardware7deta
111:   FUNC GLOBAL DEFAULT UND _ZN7android8hardware9BHwB
112:   FUNC GLOBAL DEFAULT UND _ZN7android8hardware9BHwB
113:   FUNC GLOBAL DEFAULT UND _ZN7android8hardware9BHwB
114:   FUNC GLOBAL DEFAULT UND _ZN7android8hardware9BHwB
115:   FUNC GLOBAL DEFAULT UND _ZN7android8hardware9BHwB
116:   FUNC GLOBAL DEFAULT UND _ZN7android8hardware9BHwB
117:   FUNC GLOBAL DEFAULT UND _ZN7android8hardware9BHwB
118:   FUNC GLOBAL DEFAULT UND _ZN7android8hardware9BHwB
119:   FUNC GLOBAL DEFAULT UND _ZN7android8hardware9BHwB
120:   FUNC GLOBAL DEFAULT UND _ZN7android8hardware9BHwB
121:   FUNC GLOBAL DEFAULT UND _ZNK7android7RefBase10cre
122:   FUNC GLOBAL DEFAULT UND _ZNK7android7RefBase11get
123:   FUNC GLOBAL DEFAULT UND _ZNK7android7RefBase9decS
124:   FUNC GLOBAL DEFAULT UND _ZNK7android7RefBase9incS
125:   FUNC GLOBAL DEFAULT UND _ZNK7android8hardware7IBi
126:   FUNC GLOBAL DEFAULT UND _ZNK7android8hardware7det
127:   FUNC GLOBAL DEFAULT UND _ZNK7android8hardware9BHw
128:   FUNC GLOBAL DEFAULT UND _ZNKSt3__120__vector_base
129:   FUNC GLOBAL DEFAULT UND _ZNKSt3__121__basic_strin
130:   FUNC GLOBAL DEFAULT UND _ZNSt3__112basic_stringIc
131:   FUNC GLOBAL DEFAULT UND _ZNSt3__112basic_stringIc
132:   FUNC GLOBAL DEFAULT UND _ZNSt3__15mutex4lockEv
133:   FUNC GLOBAL DEFAULT UND _ZNSt3__15mutex6unlockEv
134:   FUNC GLOBAL DEFAULT UND _ZNSt3__15mutexD1Ev
135:   FUNC GLOBAL DEFAULT UND _ZTv0_n12_N7android4hidl4
136:   FUNC GLOBAL DEFAULT UND _ZTv0_n12_N7android4hidl4
137:   FUNC GLOBAL DEFAULT UND _ZTv0_n12_N7android8hardw
138:   FUNC GLOBAL DEFAULT UND _ZTv0_n12_N7android8hardw
139:   FUNC GLOBAL DEFAULT UND _ZTv0_n12_N7android8hardw
140:   FUNC GLOBAL DEFAULT UND _ZTv0_n12_N7android8hardw
141:   FUNC GLOBAL DEFAULT UND _ZTv0_n12_N7android8hardw
142:   FUNC GLOBAL DEFAULT UND _ZTv0_n12_N7android8hardw
143:   FUNC GLOBAL DEFAULT UND _ZTv0_n12_N7android8hardw
144:   FUNC GLOBAL DEFAULT UND _ZTv0_n12_N7android8hardw
145:   FUNC GLOBAL DEFAULT UND _ZTv0_n16_N7android8hardw
146:   FUNC GLOBAL DEFAULT UND _ZTv0_n20_N7android8hardw
147:   FUNC GLOBAL DEFAULT UND _ZTv0_n24_N7android8hardw
148:   FUNC GLOBAL DEFAULT UND _ZdaPv
149:   FUNC GLOBAL DEFAULT UND _ZdlPv
150:   FUNC GLOBAL DEFAULT UND _Znaj
151:   FUNC GLOBAL DEFAULT UND _Znwj
152:   FUNC GLOBAL DEFAULT UND __cxa_pure_virtual
153:   FUNC GLOBAL DEFAULT UND __stack_chk_fail@LIBC (2)
154:   OBJECT GLOBAL DEFAULT UND __stack_chk_guard@LIBC (2)
155:   FUNC GLOBAL DEFAULT UND abort@LIBC (2)
156:   FUNC GLOBAL DEFAULT UND atrace_begin_body
157:   OBJECT GLOBAL DEFAULT UND atrace_enabled_tags
158:   FUNC GLOBAL DEFAULT UND atrace_end_body
159:   OBJECT GLOBAL DEFAULT UND atrace_is_ready
160:   FUNC GLOBAL DEFAULT UND atrace_setup
161:   FUNC GLOBAL DEFAULT UND memcmp@LIBC (2)
162:   FUNC GLOBAL DEFAULT UND strlen@LIBC (2)
163:   FUNC GLOBAL DEFAULT UND _ZN7android8hardware10IIn
164:   FUNC GLOBAL DEFAULT UND _ZN7android8hardware14rea
165:   FUNC GLOBAL DEFAULT UND _ZN7android8hardware21wri
166:   FUNC GLOBAL DEFAULT UND _ZN7android8hardware22rea
167:   OBJECT GLOBAL DEFAULT UND _ZN7android8hardware3drm4
168:   FUNC GLOBAL DEFAULT UND _ZN7android8hardware3drm4
169:   FUNC GLOBAL DEFAULT UND _ZN7android8hardware3drm4
170:   FUNC GLOBAL DEFAULT UND _ZN7android8hardware3drm4
171:   FUNC GLOBAL DEFAULT UND _ZN7android8hardware3drm4
172:   FUNC GLOBAL DEFAULT UND _ZN7android8hardware3drm4
173:   FUNC GLOBAL DEFAULT UND _ZN7android8hardware3drm4
174:   FUNC GLOBAL DEFAULT UND _ZN7android8hardware3drm4
175:   FUNC GLOBAL DEFAULT UND _ZN7android8hardware3drm4
176:   FUNC GLOBAL DEFAULT UND _ZN7android8hardware3drm4
177:   FUNC GLOBAL DEFAULT UND _ZN7android8hardware3drm4
178:   FUNC GLOBAL DEFAULT UND _ZN7android8hardware3drm4
179:   FUNC GLOBAL DEFAULT UND _ZN7android8hardware3drm4
180:   FUNC GLOBAL DEFAULT UND _ZN7android8hardware3drm4
181:   FUNC GLOBAL DEFAULT UND _ZN7android8hardware3drm4
182:   FUNC GLOBAL DEFAULT UND _ZN7android8hardware3drm4
183:   FUNC GLOBAL DEFAULT UND _ZN7android8hardware3drm4
184:   FUNC GLOBAL DEFAULT UND _ZN7android8hardware3drm4
185:   FUNC GLOBAL DEFAULT UND _ZN7android8hardware3drm4
186:   FUNC GLOBAL DEFAULT UND _ZN7android8hardware3drm4
187:   FUNC GLOBAL DEFAULT UND _ZN7android8hardware3drm4
188:   FUNC GLOBAL DEFAULT UND _ZN7android8hardware3drm4
189:   FUNC GLOBAL DEFAULT UND _ZN7android8hardware3drm4
190:   FUNC GLOBAL DEFAULT UND _ZN7android8hardware6Parc
191:   FUNC GLOBAL DEFAULT UND _ZN7android8hardware6Parc
192:   FUNC GLOBAL DEFAULT UND _ZN7android8hardware6Parc
193:   FUNC GLOBAL DEFAULT UND _ZN7android8hardware6Parc
194:   FUNC GLOBAL DEFAULT UND _ZN7android8hardware6Parc
195:   FUNC GLOBAL DEFAULT UND _ZN7android8hardware6Parc
196:   FUNC GLOBAL DEFAULT UND _ZN7android8hardware6Parc
197:   FUNC GLOBAL DEFAULT UND _ZN7android8hardware6Parc
198:   FUNC GLOBAL DEFAULT UND _ZN7android8hardware6Stat
199:   FUNC GLOBAL DEFAULT UND _ZNK7android8hardware6Par
200:   FUNC GLOBAL DEFAULT UND _ZNK7android8hardware6Par
201:   FUNC GLOBAL DEFAULT UND _ZNK7android8hardware6Par
202:   FUNC GLOBAL DEFAULT UND _ZNK7android8hardware6Par
203:   FUNC GLOBAL DEFAULT UND _ZNK7android8hardware6Par
204:   FUNC GLOBAL DEFAULT UND _ZNK7android8hardware6Par
205:   FUNC GLOBAL DEFAULT UND __android_log_assert@LIBLOG (3)
206:   OBJECT GLOBAL DEFAULT UND _ZN7android8hardware3drm4
207:   FUNC GLOBAL DEFAULT UND _ZN7android8hardware3drm4
208:   FUNC GLOBAL DEFAULT UND _ZN7android8hardware3drm4
209:   FUNC GLOBAL DEFAULT UND _ZN7android8hardware3drm4
210:   FUNC GLOBAL DEFAULT UND _ZN7android8hardware3drm4
211:   FUNC GLOBAL DEFAULT UND _ZN7android8hardware3drm4
212:   FUNC GLOBAL DEFAULT UND _ZN7android8hardware3drm4
213:   FUNC GLOBAL DEFAULT UND _ZN7android8hardware3drm4
214:   FUNC GLOBAL DEFAULT UND _ZN7android8hardware3drm4
215:   FUNC GLOBAL DEFAULT UND _ZN7android8hardware3drm4
216:   FUNC GLOBAL DEFAULT UND _ZN7android8hardware3drm4
217:   FUNC GLOBAL DEFAULT UND _ZN7android8hardware3drm4
218:   FUNC GLOBAL DEFAULT UND _ZN7android8hardware3drm4
219:   FUNC GLOBAL DEFAULT UND _ZN7android8hardware3drm4
220:   FUNC GLOBAL DEFAULT UND _ZN7android8hardware3drm4
221:   FUNC GLOBAL DEFAULT UND _ZN7android8hardware3drm4
222:   FUNC GLOBAL DEFAULT UND _ZN7android8hardware3drm4
223:   OBJECT GLOBAL DEFAULT UND _ZN7android8hardware3drm4
224:   FUNC GLOBAL DEFAULT UND _ZN7android8hardware3drm4
225:   FUNC GLOBAL DEFAULT UND _ZN7android8hardware3drm4
226:   FUNC GLOBAL DEFAULT UND _ZN7android8hardware3drm4
227:   FUNC GLOBAL DEFAULT UND _ZN7android8hardware3drm4
228:   FUNC GLOBAL DEFAULT UND _ZN7android8hardware3drm4
229:   FUNC GLOBAL DEFAULT UND _ZN7android8hardware3drm4
230:   FUNC GLOBAL DEFAULT UND _ZN7android8hardware3drm4
231:   FUNC GLOBAL DEFAULT UND _ZN7android8hardware3drm4
232:   FUNC GLOBAL DEFAULT UND _ZN7android8hardware3drm4
233:   FUNC GLOBAL DEFAULT UND _ZN7android8hardware3drm4
234:   OBJECT GLOBAL DEFAULT UND _ZN7android8hardware3drm4
235:   FUNC GLOBAL DEFAULT UND _ZN7android8hardware3drm4
236:   FUNC GLOBAL DEFAULT UND _ZN7android8hardware3drm4
237:   FUNC GLOBAL DEFAULT UND _ZN7android8hardware3drm4
238:   FUNC GLOBAL DEFAULT UND _ZN7android8hardware3drm4
239:   FUNC GLOBAL DEFAULT UND _ZN7android8hardware3drm4
240:   FUNC GLOBAL DEFAULT UND _ZN7android8hardware3drm4
241:   FUNC GLOBAL DEFAULT UND _ZN7android8hardware3drm4
242:   FUNC GLOBAL DEFAULT UND _ZN7android8hardware3drm4
243:   FUNC GLOBAL DEFAULT UND _ZN7android8hardware3drm4
244:   FUNC GLOBAL DEFAULT UND _ZN7android8hardware3drm4
245:   FUNC GLOBAL DEFAULT UND _ZN7android8hardware3drm4
246:   FUNC GLOBAL DEFAULT UND _ZN7android8hardware3drm4
247:   FUNC GLOBAL DEFAULT UND _ZN7android8hardware3drm4
248:   FUNC GLOBAL DEFAULT UND _ZN7android8hardware3drm4
249:   FUNC GLOBAL DEFAULT UND _ZN7android8hardware3drm4
250:   FUNC GLOBAL DEFAULT UND _ZN7android8hardware3drm4
251:   FUNC GLOBAL DEFAULT UND _ZN7android8hardware3drm4
252:   FUNC GLOBAL DEFAULT UND _ZN7android8hardware3drm4
253:   FUNC GLOBAL DEFAULT UND _ZN7android8hardware3drm4
254:   FUNC GLOBAL DEFAULT UND _ZN7android8hardware3drm4
255:   FUNC GLOBAL DEFAULT UND _ZN7android8hardware3drm4
256:   FUNC GLOBAL DEFAULT UND _ZN7android8hardware3drm4
257:   FUNC GLOBAL DEFAULT UND _ZN7android8hardware3drm4
258:   FUNC GLOBAL DEFAULT UND _ZN7android8hardware3drm4
259:   FUNC GLOBAL DEFAULT UND _ZN7android8hardware3drm4
260:   FUNC GLOBAL DEFAULT UND _ZN7android8hardware3drm4
261:   FUNC GLOBAL DEFAULT UND _ZN7android8hardware3drm4
262:   FUNC GLOBAL DEFAULT UND _ZN7android8hardware3drm4
263:   FUNC GLOBAL DEFAULT UND _ZN7android8hardware3drm4
264:   FUNC GLOBAL DEFAULT UND _ZN7android8hardware3drm4
265:   FUNC GLOBAL DEFAULT UND _ZN7android8hardware3drm4
266:   FUNC GLOBAL DEFAULT UND _ZN7android8hardware3drm4
267:   FUNC GLOBAL DEFAULT UND _ZN7android8hardware3drm4
268:   FUNC GLOBAL DEFAULT UND _ZN7android8hardware3drm4
269:   FUNC GLOBAL DEFAULT UND _ZN7android8hardware3drm4
270:   FUNC GLOBAL DEFAULT UND _ZN7android8hardware3drm4
271:   FUNC GLOBAL DEFAULT UND _ZN7android8hardware3drm4
272:   FUNC GLOBAL DEFAULT UND _ZN7android8hardware3drm4
273:   FUNC GLOBAL DEFAULT UND _ZN7android8hardware3drm4
274:   FUNC GLOBAL DEFAULT UND _ZN7android8hardware3drm4
275:   FUNC GLOBAL DEFAULT UND _ZN7android8hardware3drm4
276:   FUNC GLOBAL DEFAULT UND _ZN7android8hardware3drm4
277:   FUNC GLOBAL DEFAULT UND _ZN7android8hardware3drm4
278:   FUNC GLOBAL DEFAULT UND _ZN7android8hardware3drm4
279:   FUNC GLOBAL DEFAULT UND _ZN7android8hardware3drm4
280:   FUNC GLOBAL DEFAULT UND _ZN7android8hardware3drm4
281:   FUNC GLOBAL DEFAULT UND _ZN7android8hardware3drm4
282:   FUNC GLOBAL DEFAULT UND _ZN7android8hardware3drm4
283:   FUNC GLOBAL DEFAULT UND _ZN7android8hardware3drm4
284:   FUNC GLOBAL DEFAULT UND _ZN7android8hardware3drm4
285:   FUNC GLOBAL DEFAULT UND _ZN7android8hardware3drm4
286:   FUNC GLOBAL DEFAULT UND _ZN7android8hardware3drm4
287:   FUNC GLOBAL DEFAULT UND _ZN7android8hardware3drm4
288:   FUNC GLOBAL DEFAULT UND _ZN7android8hardware3drm4
289:   FUNC GLOBAL DEFAULT UND _ZN7android8hardware3drm4
290:   FUNC GLOBAL DEFAULT UND _ZN7android8hardware3drm4
291:   FUNC GLOBAL DEFAULT UND _ZN7android8hardware3drm4
292:   FUNC GLOBAL DEFAULT UND _ZN7android8hardware3drm4
293:   FUNC GLOBAL DEFAULT UND _ZN7android8hardware3drm4
294:   FUNC GLOBAL DEFAULT UND _ZN7android8hardware3drm4
295:   FUNC GLOBAL DEFAULT UND _ZN7android8hardware3drm4
296:   FUNC GLOBAL DEFAULT UND _ZN7android8hardware3drm4
297:   FUNC GLOBAL DEFAULT UND _ZN7android8hardware3drm4
298:   FUNC GLOBAL DEFAULT UND _ZN7android8hardware3drm4
299:   FUNC GLOBAL DEFAULT UND _ZN7android8hardware3drm4
300:   FUNC GLOBAL DEFAULT UND _ZN7android8hardware3drm4
301:   FUNC GLOBAL DEFAULT UND _ZN7android8hardware3drm4
302:   FUNC GLOBAL DEFAULT UND _ZN7android8hardware3drm4
303:   OBJECT GLOBAL DEFAULT UND _ZN7android8hardware3drm4
304:   FUNC GLOBAL DEFAULT UND _ZN7android8hardware3drm4
305:   FUNC GLOBAL DEFAULT UND _ZN7android8hardware3drm4
306:   FUNC GLOBAL DEFAULT UND _ZN7android8hardware3drm4
307:   FUNC GLOBAL DEFAULT UND _ZN7android8hardware3drm4
308:   FUNC GLOBAL DEFAULT UND _ZN7android8hardware3drm4
309:   FUNC GLOBAL DEFAULT UND _ZN7android8hardware3drm4
310:   FUNC GLOBAL DEFAULT UND _ZN7android8hardware3drm4
311:   FUNC GLOBAL DEFAULT UND _ZN7android8hardware3drm4
312:   FUNC GLOBAL DEFAULT UND _ZN7android8hardware3drm4
313:   FUNC GLOBAL DEFAULT UND _ZN7android8hardware3drm4
314:   FUNC GLOBAL DEFAULT UND _ZN7android8hardware3drm4
315:   FUNC GLOBAL DEFAULT UND _ZN7android8hardware3drm4
316:   FUNC GLOBAL DEFAULT UND _ZN7android8hardware3drm4
317:   FUNC GLOBAL DEFAULT UND _ZN7android8hardware3drm4
318:   FUNC GLOBAL DEFAULT UND _ZN7android8hardware3drm4
319:   FUNC GLOBAL DEFAULT UND _ZN7android8hardware3drm4
320:   FUNC GLOBAL DEFAULT UND _ZN7android8hardware3drm4
321:   FUNC GLOBAL DEFAULT UND _ZN7android8hardware3drm4
322:   FUNC GLOBAL DEFAULT UND _ZN7android8hardware3drm4
323:   FUNC GLOBAL DEFAULT UND _ZN7android8hardware3drm4
324:   FUNC GLOBAL DEFAULT UND _ZN7android8hardware3drm4
325:   FUNC GLOBAL DEFAULT UND _ZN7android8hardware3drm4
326:   FUNC GLOBAL DEFAULT UND _ZN7android8hardware3drm4
327:   FUNC GLOBAL DEFAULT UND _ZN7android8hardware3drm4
328:   FUNC GLOBAL DEFAULT UND _ZN7android8hardware3drm4
329:   FUNC GLOBAL DEFAULT UND _ZN7android8hardware3drm4
330:   FUNC GLOBAL DEFAULT UND _ZN7android8hardware3drm4
331:   FUNC GLOBAL DEFAULT UND _ZN7android8hardware3drm4
332:   FUNC GLOBAL DEFAULT UND _ZN7android8hardware3drm4
333:   FUNC GLOBAL DEFAULT UND _ZN7android8hardware3drm4
334:   OBJECT GLOBAL DEFAULT UND _ZN7android8hardware3drm4
335:   FUNC GLOBAL DEFAULT UND _ZN7android8hardware3drm4
336:   FUNC GLOBAL DEFAULT UND _ZN7android8hardware3drm4
337:   FUNC GLOBAL DEFAULT UND _ZN7android8hardware3drm4
338:   FUNC GLOBAL DEFAULT UND _ZN7android8hardware3drm4
339:   FUNC GLOBAL DEFAULT UND _ZN7android8hardware3drm4
340:   FUNC GLOBAL DEFAULT UND _ZN7android8hardware3drm4
341:   FUNC GLOBAL DEFAULT UND _ZN7android8hardware3drm4
342:   FUNC GLOBAL DEFAULT UND _ZN7android8hardware3drm4
343:   FUNC GLOBAL DEFAULT UND _ZN7android8hardware3drm4
344:   FUNC GLOBAL DEFAULT UND _ZN7android8hardware3drm4
345:   FUNC GLOBAL DEFAULT UND _ZN7android8hardware3drm4
346:   FUNC GLOBAL DEFAULT UND _ZN7android8hardware3drm4
347:   FUNC GLOBAL DEFAULT UND _ZN7android8hardware3drm4
348:   FUNC GLOBAL DEFAULT UND _ZN7android8hardware3drm4
349:   FUNC GLOBAL DEFAULT UND _ZN7android8hardware3drm4
350:   FUNC GLOBAL DEFAULT UND _ZN7android8hardware3drm4
351:   FUNC GLOBAL DEFAULT UND memcpy@LIBC (2)
352:   FUNC GLOBAL DEFAULT UND memset@LIBC (2)
353:   FUNC GLOBAL DEFAULT 14 _ZN7android8hardware3drm4
354:   FUNC GLOBAL DEFAULT 14 _ZN7android8hardware3drm4
355:   OBJECT GLOBAL DEFAULT 18 _ZTCN7android8hardware3dr
356:   OBJECT GLOBAL DEFAULT 18 _ZTCN7android8hardware3dr
357:   FUNC GLOBAL DEFAULT 14 _ZTv0_n12_N7android8hardw
358:   FUNC GLOBAL DEFAULT 14 _ZN7android8hardware3drm4
359:   FUNC GLOBAL DEFAULT 14 _ZN7android8hardware3drm4
360:   OBJECT GLOBAL DEFAULT 18 _ZTCN7android8hardware3dr
361:   FUNC GLOBAL DEFAULT 14 _ZN7android8hardware3drm4
362:   FUNC GLOBAL DEFAULT 14 _ZN7android8hardware3drm4
363:   FUNC GLOBAL DEFAULT 14 _ZN7android8hardware3drm4
364:   FUNC GLOBAL DEFAULT 14 _ZN7android8hardware3drm4
365:   FUNC GLOBAL DEFAULT 14 _ZN7android8hardware3drm4
366:   FUNC GLOBAL DEFAULT 14 _ZN7android8hardware3drm4
367:   FUNC WEAK DEFAULT 14 _ZN7android8hardware7deta
368:   FUNC GLOBAL DEFAULT 14 _ZN7android8hardware3drm4
369:   FUNC GLOBAL DEFAULT 14 _ZN7android8hardware3drm4
370:   FUNC GLOBAL DEFAULT 14 _ZN7android8hardware3drm4
371:   OBJECT GLOBAL DEFAULT 18 _ZTVN7android8hardware3dr
372:   FUNC GLOBAL DEFAULT 14 __aeabi_memcpy4
373:   FUNC GLOBAL DEFAULT 14 _ZTv0_n12_N7android8hardw
374:   FUNC GLOBAL DEFAULT 14 _ZN7android8hardware3drm4
375:   FUNC GLOBAL DEFAULT 14 _ZN7android8hardware3drm4
376:   FUNC GLOBAL DEFAULT 14 _ZN7android8hardware3drm4
377:   FUNC GLOBAL DEFAULT 14 _ZN7android8hardware3drm4
378:   FUNC GLOBAL DEFAULT 14 _ZN7android8hardware3drm4
379:   FUNC GLOBAL DEFAULT 14 _ZN7android8hardware3drm4
380:   FUNC GLOBAL DEFAULT 14 _ZN7android8hardware3drm4
381:   FUNC GLOBAL DEFAULT 14 _ZN7android8hardware3drm4
382:   OBJECT GLOBAL DEFAULT 18 _ZTCN7android8hardware3dr
383:   FUNC GLOBAL DEFAULT 14 _ZN7android8hardware3drm4
384:   FUNC GLOBAL DEFAULT 14 __aeabi_memcpy8
385:   FUNC WEAK DEFAULT 14 _ZNSt3__16__treeINS_12__v
386:   OBJECT GLOBAL DEFAULT 18 _ZTCN7android8hardware3dr
387:   FUNC GLOBAL DEFAULT 14 _ZN7android8hardware3drm4
388:   FUNC GLOBAL DEFAULT 14 _ZN7android8hardware3drm4
389:   FUNC GLOBAL DEFAULT 14 _ZN7android8hardware3drm4
390:   OBJECT GLOBAL DEFAULT 18 _ZTTN7android8hardware3dr
391:   FUNC GLOBAL DEFAULT 14 _ZN7android8hardware3drm4
392:   FUNC WEAK DEFAULT 14 _ZNSt3__16vectorIN7androi
393:   OBJECT GLOBAL DEFAULT 18 _ZTVN7android8hardware3dr
394:   FUNC GLOBAL DEFAULT 14 _ZN7android8hardware3drm4
395:   FUNC GLOBAL DEFAULT 14 _ZN7android8hardware3drm4
396:   FUNC GLOBAL DEFAULT 14 _ZN7android8hardware3drm4
397:   FUNC WEAK DEFAULT 14 _ZN7android8hardware7deta
398:   FUNC GLOBAL DEFAULT 14 _ZN7android8hardware3drm4
399:   OBJECT GLOBAL DEFAULT 18 _ZTCN7android8hardware3dr
400:   FUNC GLOBAL DEFAULT 14 _ZN7android8hardware3drm4
401:   FUNC GLOBAL DEFAULT 14 _ZN7android8hardware3drm4
402:   FUNC GLOBAL DEFAULT 14 _ZN7android8hardware3drm4
403:   FUNC GLOBAL DEFAULT 14 _ZN7android8hardware3drm4
404:   FUNC GLOBAL DEFAULT 14 __aeabi_memcpy
405:   FUNC GLOBAL DEFAULT 14 _ZN7android8hardware3drm4
406:   FUNC GLOBAL DEFAULT 14 _ZThn20_N7android8hardwar
407:   FUNC GLOBAL DEFAULT 14 _ZN7android8hardware3drm4
408:   FUNC GLOBAL DEFAULT 14 _ZN7android8hardware3drm4
409:   OBJECT GLOBAL DEFAULT 18 _ZTVN7android8hardware3dr
410:   FUNC GLOBAL DEFAULT 14 _ZN7android8hardware3drm4
411:   FUNC GLOBAL DEFAULT 14 _ZN7android8hardware3drm4
412:   FUNC GLOBAL DEFAULT 14 _ZN7android8hardware3drm4
413:   FUNC GLOBAL DEFAULT 14 _ZN7android8hardware3drm4
414:   OBJECT GLOBAL DEFAULT 18 _ZTCN7android8hardware3dr
415:   FUNC GLOBAL DEFAULT 14 _ZN7android8hardware3drm4
416:   FUNC GLOBAL DEFAULT 14 _ZN7android8hardware3drm4
417:   FUNC GLOBAL DEFAULT 14 _ZN7android8hardware3drm4
418:   FUNC GLOBAL DEFAULT 14 _ZN7android8hardware3drm4
419:   FUNC WEAK DEFAULT 14 _ZN7android8hardware7deta
420:   FUNC GLOBAL DEFAULT 14 _ZN7android8hardware3drm4
421:   FUNC GLOBAL DEFAULT 14 _ZTv0_n12_N7android8hardw
422:   FUNC GLOBAL DEFAULT 14 _ZN7android8hardware3drm4
423:   OBJECT WEAK DEFAULT 18 _ZTCN7android8hardware3dr
424:   FUNC WEAK DEFAULT 14 _ZN7android8hardware7deta
425:   OBJECT GLOBAL DEFAULT 18 _ZTTN7android8hardware3dr
426:   FUNC GLOBAL DEFAULT 14 _ZN7android8hardware3drm4
427:   OBJECT GLOBAL DEFAULT 18 _ZTCN7android8hardware3dr
428:   OBJECT GLOBAL DEFAULT 18 _ZTCN7android8hardware3dr
429:   FUNC GLOBAL DEFAULT 14 _ZThn20_N7android8hardwar
430:   FUNC GLOBAL DEFAULT 14 _ZN7android8hardware3drm4
431:   FUNC GLOBAL DEFAULT 14 _ZN7android8hardware3drm4
432:   OBJECT GLOBAL DEFAULT 18 _ZTCN7android8hardware3dr
433:   OBJECT GLOBAL DEFAULT 18 _ZTVN7android8hardware3dr
434:   FUNC GLOBAL DEFAULT 14 _ZN7android8hardware3drm4
435:   OBJECT GLOBAL DEFAULT 18 _ZTCN7android8hardware3dr
436:   FUNC GLOBAL DEFAULT 14 _ZN7android8hardware3drm4
437:   FUNC GLOBAL DEFAULT 14 _ZN7android8hardware3drm4
438:   FUNC GLOBAL DEFAULT 14 _ZN7android8hardware3drm4
439:   OBJECT GLOBAL DEFAULT 18 _ZTTN7android8hardware3dr
440:   OBJECT WEAK DEFAULT 18 _ZTVN7android8hardware3dr
441:   FUNC GLOBAL DEFAULT 14 _ZN7android8hardware3drm4
442:   OBJECT GLOBAL DEFAULT 18 _ZTCN7android8hardware3dr
443:   FUNC WEAK DEFAULT 14 _ZN7android8hardware7deta
444:   OBJECT GLOBAL DEFAULT 18 _ZTVN7android8hardware3dr
445:   OBJECT GLOBAL DEFAULT 18 _ZTCN7android8hardware3dr
446:   OBJECT GLOBAL DEFAULT 18 _ZTCN7android8hardware3dr
447:   OBJECT GLOBAL DEFAULT 18 _ZTVN7android8hardware3dr
448:   FUNC GLOBAL DEFAULT 14 _ZN7android8hardware3drm4
449:   FUNC GLOBAL DEFAULT 14 _ZN7android8hardware3drm4
450:   OBJECT GLOBAL DEFAULT 18 _ZTCN7android8hardware3dr
451:   FUNC GLOBAL DEFAULT 14 _ZN7android8hardware3drm4
452:   FUNC GLOBAL DEFAULT 14 _ZN7android8hardware3drm4
453:   FUNC GLOBAL DEFAULT 14 _ZN7android8hardware3drm4
454:   FUNC GLOBAL DEFAULT 14 _ZN7android8hardware3drm4
455:   OBJECT GLOBAL DEFAULT 18 _ZTCN7android8hardware3dr
456:   FUNC GLOBAL DEFAULT 14 _ZN7android8hardware3drm4
457:   FUNC GLOBAL DEFAULT 14 _ZN7android8hardware3drm4
458:   FUNC GLOBAL DEFAULT 14 _ZN7android8hardware3drm4
459:   FUNC GLOBAL DEFAULT 14 _ZThn20_N7android8hardwar
460:   FUNC GLOBAL DEFAULT 14 _ZN7android8hardware3drm4
461:   FUNC GLOBAL DEFAULT 14 _ZN7android8hardware3drm4
462:   FUNC GLOBAL DEFAULT 14 _ZN7android8hardware3drm4
463:   FUNC GLOBAL DEFAULT 14 _ZN7android8hardware3drm4
464:   FUNC WEAK DEFAULT 14 _ZN7android8hardware7deta
465:   OBJECT GLOBAL DEFAULT 18 _ZTCN7android8hardware3dr
466:   FUNC GLOBAL DEFAULT 14 _ZN7android8hardware3drm4
467:   FUNC GLOBAL DEFAULT 14 _ZN7android8hardware3drm4
468:   FUNC GLOBAL DEFAULT 14 _ZN7android8hardware3drm4
469:   FUNC GLOBAL DEFAULT 14 _ZN7android8hardware3drm4
470:   FUNC GLOBAL DEFAULT 14 _ZN7android8hardware3drm4
471:   FUNC GLOBAL DEFAULT 14 _ZN7android8hardware3drm4
472:   FUNC GLOBAL DEFAULT 14 _ZN7android8hardware3drm4
473:   FUNC GLOBAL DEFAULT 14 _ZN7android8hardware3drm4
474:   FUNC GLOBAL DEFAULT 14 _ZN7android8hardware3drm4
475:   FUNC GLOBAL DEFAULT 14 _ZN7android8hardware3drm4
476:   FUNC GLOBAL DEFAULT 14 _ZN7android8hardware3drm4
477:   FUNC GLOBAL DEFAULT 14 __aeabi_memset4
478:   FUNC GLOBAL DEFAULT 14 _ZN7android8hardware3drm4
479:   FUNC GLOBAL DEFAULT 14 _ZN7android8hardware3drm4
480:   FUNC GLOBAL DEFAULT 14 _ZN7android8hardware3drm4
481:   OBJECT GLOBAL DEFAULT 18 _ZTVN7android8hardware3dr
482:   FUNC GLOBAL DEFAULT 14 _ZN7android8hardware3drm4
483:   FUNC GLOBAL DEFAULT 14 _ZN7android8hardware3drm4
484:   FUNC GLOBAL DEFAULT 14 _ZThn20_N7android8hardwar
485:   FUNC WEAK DEFAULT 14 _ZN7android8hardware7deta
486:   OBJECT GLOBAL DEFAULT 18 _ZTCN7android8hardware3dr
487:   FUNC GLOBAL DEFAULT 14 _ZN7android8hardware3drm4
488:   FUNC GLOBAL DEFAULT 14 _ZN7android8hardware3drm4
489:   FUNC GLOBAL DEFAULT 14 _ZN7android8hardware3drm4
490:   FUNC GLOBAL DEFAULT 14 _ZN7android8hardware3drm4
491:   FUNC GLOBAL DEFAULT 14 _ZN7android8hardware3drm4
492:   FUNC GLOBAL DEFAULT 14 _ZN7android8hardware3drm4
493:   FUNC GLOBAL DEFAULT 14 _ZN7android8hardware3drm4
494:   FUNC GLOBAL DEFAULT 14 _ZN7android8hardware3drm4
495:   FUNC GLOBAL DEFAULT 14 _ZN7android8hardware3drm4
496:   FUNC GLOBAL DEFAULT 14 __aeabi_memset8
497:   FUNC WEAK DEFAULT 14 _ZNSt3__127__tree_balance
498:   OBJECT GLOBAL DEFAULT 18 _ZTCN7android8hardware3dr
499:   FUNC GLOBAL DEFAULT 14 _ZN7android8hardware3drm4
500:   FUNC GLOBAL DEFAULT 14 _ZN7android8hardware3drm4
501:   FUNC GLOBAL DEFAULT 14 _ZN7android8hardware3drm4
502:   FUNC GLOBAL DEFAULT 14 _ZN7android8hardware3drm4
503:   FUNC GLOBAL DEFAULT 14 _ZN7android8hardware3drm4
504:   FUNC GLOBAL DEFAULT 14 _ZN7android8hardware3drm4
505:   OBJECT GLOBAL DEFAULT 16 _ZN7android8hardware3drm4
506:   FUNC GLOBAL DEFAULT 14 _ZN7android8hardware3drm4
507:   FUNC GLOBAL DEFAULT 14 _ZN7android8hardware3drm4
508:   FUNC GLOBAL DEFAULT 14 _ZN7android8hardware3drm4
509:   OBJECT WEAK DEFAULT 18 _ZTVN7android8hardware3dr
510:   FUNC GLOBAL DEFAULT 14 _ZN7android8hardware3drm4
511:   FUNC GLOBAL DEFAULT 14 _ZN7android8hardware3drm4
512:   FUNC GLOBAL DEFAULT 14 _ZN7android8hardware3drm4
513:   FUNC GLOBAL DEFAULT 14 _ZN7android8hardware3drm4
514:   FUNC GLOBAL DEFAULT 14 _ZN7android8hardware3drm4
515:   FUNC GLOBAL DEFAULT 14 _ZN7android8hardware3drm4
516:   FUNC GLOBAL DEFAULT 14 _ZN7android8hardware3drm4
517:   FUNC GLOBAL DEFAULT 14 _ZN7android8hardware3drm4
518:   FUNC GLOBAL DEFAULT 14 _ZN7android8hardware3drm4
519:   FUNC GLOBAL DEFAULT 14 _ZTv0_n12_N7android8hardw
520:   OBJECT GLOBAL DEFAULT 18 _ZTCN7android8hardware3dr
521:   FUNC WEAK DEFAULT 14 _ZN7android8hardware7deta
522:   FUNC GLOBAL DEFAULT 14 _ZN7android8hardware3drm4
523:   FUNC GLOBAL DEFAULT 14 _ZN7android8hardware3drm4
524:   OBJECT GLOBAL DEFAULT 18 _ZTCN7android8hardware3dr
525:   FUNC GLOBAL DEFAULT 14 _ZN7android8hardware3drm4
526:   FUNC GLOBAL DEFAULT 14 _ZN7android8hardware3drm4
527:   OBJECT GLOBAL DEFAULT 18 _ZTCN7android8hardware3dr
528:   FUNC GLOBAL DEFAULT 14 _ZN7android8hardware3drm4
529:   FUNC WEAK DEFAULT 14 _ZN7android8hardware7deta
530:   FUNC GLOBAL DEFAULT 14 _ZN7android8hardware3drm4
531:   FUNC GLOBAL DEFAULT 14 _ZN7android8hardware3drm4
532:   FUNC GLOBAL DEFAULT 14 _ZN7android8hardware3drm4
533:   FUNC GLOBAL DEFAULT 14 _ZN7android8hardware3drm4
534:   OBJECT GLOBAL DEFAULT 18 _ZTTN7android8hardware3dr
535:   FUNC GLOBAL DEFAULT 14 _ZN7android8hardware3drm4
536:   FUNC WEAK DEFAULT 14 _ZNSt3__16__treeINS_12__v
537:   FUNC GLOBAL DEFAULT 14 _ZThn20_N7android8hardwar
538:   FUNC GLOBAL DEFAULT 14 _ZN7android8hardware3drm4
539:   FUNC GLOBAL DEFAULT 14 _ZN7android8hardware3drm4
540:   FUNC GLOBAL DEFAULT 14 _ZN7android8hardware3drm4
541:   FUNC GLOBAL DEFAULT 14 _ZN7android8hardware3drm4
542:   FUNC GLOBAL DEFAULT 14 _ZN7android8hardware3drm4
543:   OBJECT GLOBAL DEFAULT 18 _ZTVN7android8hardware3dr
544:   FUNC GLOBAL DEFAULT 14 _ZN7android8hardware3drm4
545:   FUNC GLOBAL DEFAULT 14 _ZN7android8hardware3drm4
546:   FUNC GLOBAL DEFAULT 14 _ZN7android8hardware3drm4
547:   FUNC GLOBAL DEFAULT 14 _ZN7android8hardware3drm4
548:   OBJECT GLOBAL DEFAULT 18 _ZTCN7android8hardware3dr
549:   OBJECT GLOBAL DEFAULT 18 _ZTVN7android8hardware3dr
550:   FUNC WEAK DEFAULT 14 _ZNSt3__16vectorIPvNS_9al
551:   FUNC GLOBAL DEFAULT 14 _ZN7android8hardware3drm4
552:   FUNC GLOBAL DEFAULT 14 _ZTv0_n12_N7android8hardw
553:   OBJECT GLOBAL DEFAULT 18 _ZTCN7android8hardware3dr
554:   OBJECT WEAK DEFAULT 18 _ZTVN7android8hardware3dr
555:   FUNC GLOBAL DEFAULT 14 _ZN7android8hardware3drm4
556:   OBJECT GLOBAL DEFAULT 18 _ZTCN7android8hardware3dr
557:   OBJECT WEAK DEFAULT 18 _ZTCN7android8hardware3dr
558:   OBJECT GLOBAL DEFAULT 18 _ZTCN7android8hardware3dr
559:   FUNC GLOBAL DEFAULT 14 _ZN7android8hardware3drm4
560:   FUNC GLOBAL DEFAULT 14 _ZN7android8hardware3drm4
561:   FUNC GLOBAL DEFAULT 14 _ZN7android8hardware3drm4
562:   OBJECT GLOBAL DEFAULT 18 _ZTTN7android8hardware3dr
563:   FUNC GLOBAL DEFAULT 14 _ZN7android8hardware3drm4
564:   FUNC GLOBAL DEFAULT 14 _ZN7android8hardware3drm4
565:   FUNC GLOBAL DEFAULT 14 _ZN7android8hardware3drm4
566:   FUNC GLOBAL DEFAULT 14 _ZN7android8hardware3drm4
567:   FUNC GLOBAL DEFAULT 14 _ZN7android8hardware3drm4
568:   FUNC GLOBAL DEFAULT 14 _ZN7android8hardware3drm4
569:   OBJECT GLOBAL DEFAULT 16 _ZN7android8hardware3drm4
570:   FUNC GLOBAL DEFAULT 14 _ZN7android8hardware3drm4
571:   FUNC GLOBAL DEFAULT 14 _ZN7android8hardware3drm4
572:   OBJECT GLOBAL DEFAULT 18 _ZTCN7android8hardware3dr
573:   OBJECT GLOBAL DEFAULT 18 _ZTTN7android8hardware3dr
574:   FUNC GLOBAL DEFAULT 14 _ZN7android8hardware3drm4
575:   FUNC WEAK DEFAULT 14 _ZNSt3__16vectorINS_8func
576:   OBJECT GLOBAL DEFAULT 18 _ZTVN7android8hardware3dr
577:   OBJECT GLOBAL DEFAULT 16 _ZN7android8hardware3drm4
578:   FUNC GLOBAL DEFAULT 14 _ZN7android8hardware3drm4
579:   FUNC GLOBAL DEFAULT 14 _ZN7android8hardware3drm4
580:   FUNC GLOBAL DEFAULT 14 _ZN7android8hardware3drm4
581:   FUNC GLOBAL DEFAULT 14 _ZN7android8hardware3drm4
582:   FUNC GLOBAL DEFAULT 14 _ZN7android8hardware3drm4
583:   FUNC GLOBAL DEFAULT 14 _ZN7android8hardware3drm4
584:   OBJECT GLOBAL DEFAULT 18 _ZTCN7android8hardware3dr
585:   OBJECT GLOBAL DEFAULT 18 _ZTTN7android8hardware3dr
586:   FUNC GLOBAL DEFAULT 14 _ZN7android8hardware3drm4
587:   FUNC GLOBAL DEFAULT 14 _ZN7android8hardware3drm4
588:   OBJECT GLOBAL DEFAULT 18 _ZTCN7android8hardware3dr
589:   FUNC WEAK DEFAULT 14 _ZN7android8hardware7deta
590:   FUNC GLOBAL DEFAULT 14 _ZN7android8hardware3drm4
591:   FUNC GLOBAL DEFAULT 14 _ZN7android8hardware3drm4
592:   FUNC GLOBAL DEFAULT 14 _ZN7android8hardware3drm4
593:   FUNC GLOBAL DEFAULT 14 _ZN7android8hardware3drm4
594:   FUNC GLOBAL DEFAULT 14 _ZN7android8hardware3drm4
595:   OBJECT GLOBAL DEFAULT 18 _ZTTN7android8hardware3dr
596:   FUNC GLOBAL DEFAULT 14 _ZTv0_n12_N7android8hardw
597:   FUNC GLOBAL DEFAULT 14 _ZN7android8hardware3drm4
598:   FUNC GLOBAL DEFAULT 14 _ZN7android8hardware3drm4
599:   OBJECT WEAK DEFAULT 18 _ZTVN7android8hardware3dr
600:   FUNC GLOBAL DEFAULT 14 _ZN7android8hardware3drm4
601:   FUNC GLOBAL DEFAULT 14 _ZN7android8hardware3drm4
602:   FUNC GLOBAL DEFAULT 14 _ZN7android8hardware3drm4
603:   FUNC GLOBAL DEFAULT 14 _ZN7android8hardware3drm4
604:   OBJECT GLOBAL DEFAULT 18 _ZTCN7android8hardware3dr
605:   FUNC GLOBAL DEFAULT 14 _ZN7android8hardware3drm4
606:   FUNC GLOBAL DEFAULT 14 _ZN7android8hardware3drm4
607:   OBJECT GLOBAL DEFAULT 18 _ZTVN7android8hardware3dr
608:   FUNC GLOBAL DEFAULT 14 _ZN7android8hardware3drm4
609:   FUNC GLOBAL DEFAULT 14 _ZN7android8hardware3drm4
610:   FUNC GLOBAL DEFAULT 14 _ZN7android8hardware3drm4
611:   FUNC GLOBAL DEFAULT 14 _ZN7android8hardware3drm4
612:   OBJECT WEAK DEFAULT 18 _ZTVN7android8hardware3dr
613:   FUNC GLOBAL DEFAULT 14 _ZN7android8hardware3drm4
614:   FUNC GLOBAL DEFAULT 14 _ZN7android8hardware3drm4
615:   OBJECT GLOBAL DEFAULT 18 _ZTCN7android8hardware3dr
616:   FUNC GLOBAL DEFAULT 14 _ZThn20_N7android8hardwar
617:   FUNC GLOBAL DEFAULT 14 _ZN7android8hardware3drm4
618:   OBJECT GLOBAL DEFAULT 18 _ZTCN7android8hardware3dr
619:   FUNC GLOBAL DEFAULT 14 _ZN7android8hardware3drm4
620:   FUNC GLOBAL DEFAULT 14 _ZN7android8hardware3drm4
621:   FUNC GLOBAL DEFAULT 14 _ZN7android8hardware3drm4
622:   FUNC GLOBAL DEFAULT 14 _ZN7android8hardware3drm4
623:   FUNC GLOBAL DEFAULT 14 _ZN7android8hardware3drm4
624:   FUNC GLOBAL DEFAULT 14 _ZN7android8hardware3drm4
625:   FUNC WEAK DEFAULT 14 _ZNSt3__16__treeINS_12__v
626:   FUNC GLOBAL DEFAULT 14 _ZTv0_n12_N7android8hardw
627:   FUNC WEAK DEFAULT 14 _ZN7android8hardware7deta
628:   OBJECT GLOBAL DEFAULT 18 _ZTCN7android8hardware3dr
629:   FUNC GLOBAL DEFAULT 14 _ZN7android8hardware3drm4
630:   FUNC GLOBAL DEFAULT 14 _ZN7android8hardware3drm4
631:   FUNC GLOBAL DEFAULT 14 _ZN7android8hardware3drm4
632:   OBJECT GLOBAL DEFAULT 18 _ZTVN7android8hardware3dr
633:   FUNC GLOBAL DEFAULT 14 _ZN7android8hardware3drm4
634:   OBJECT GLOBAL DEFAULT 18 _ZTCN7android8hardware3dr
635:   FUNC GLOBAL DEFAULT 14 _ZN7android8hardware3drm4
636:   OBJECT GLOBAL DEFAULT 18 _ZTCN7android8hardware3dr
637:   FUNC GLOBAL DEFAULT 14 _ZN7android8hardware3drm4
638:   OBJECT GLOBAL DEFAULT 18 _ZTCN7android8hardware3dr
639:   OBJECT GLOBAL DEFAULT 18 _ZTTN7android8hardware3dr
640:   FUNC GLOBAL DEFAULT 14 _ZN7android8hardware3drm4
641:   OBJECT GLOBAL DEFAULT 16 _ZN7android8hardware3drm4
642:   FUNC GLOBAL DEFAULT 14 _ZN7android8hardware3drm4
643:   OBJECT GLOBAL DEFAULT 18 _ZTCN7android8hardware3dr
644:   OBJECT GLOBAL DEFAULT 18 _ZTCN7android8hardware3dr
645:   FUNC GLOBAL DEFAULT 14 _ZN7android8hardware3drm4
646:   FUNC GLOBAL DEFAULT 14 _ZN7android8hardware3drm4
647:   FUNC GLOBAL DEFAULT 14 _ZN7android8hardware3drm4
648:   FUNC WEAK DEFAULT 14 _ZNSt3__113__tree_removeI
649:   FUNC GLOBAL DEFAULT 14 _ZN7android8hardware3drm4
650:   FUNC GLOBAL DEFAULT 14 _ZN7android8hardware3drm4
651:   FUNC GLOBAL DEFAULT 14 _ZN7android8hardware3drm4
652:   OBJECT WEAK DEFAULT 18 _ZTCN7android8hardware3dr
653:   FUNC GLOBAL DEFAULT 14 _ZN7android8hardware3drm4
654:   FUNC GLOBAL DEFAULT 14 _ZN7android8hardware3drm4
655:   FUNC WEAK DEFAULT 14 _ZN7android8hardware7deta
656:   OBJECT GLOBAL DEFAULT 18 _ZTCN7android8hardware3dr
657:   OBJECT GLOBAL DEFAULT 18 _ZTCN7android8hardware3dr
658:   FUNC GLOBAL DEFAULT 14 _ZN7android8hardware3drm4
659:   FUNC GLOBAL DEFAULT 14 _ZN7android8hardware3drm4
660:   FUNC GLOBAL DEFAULT 14 _ZN7android8hardware3drm4
661:   FUNC WEAK DEFAULT 14 _ZNSt3__16__treeINS_12__v
662:   FUNC GLOBAL DEFAULT 14 _ZN7android8hardware3drm4
663:   OBJECT GLOBAL DEFAULT 18 _ZTCN7android8hardware3dr
664:   FUNC GLOBAL DEFAULT 14 _ZN7android8hardware3drm4
665:   FUNC GLOBAL DEFAULT 14 _ZN7android8hardware3drm4
666:   OBJECT GLOBAL DEFAULT 18 _ZTVN7android8hardware3dr
667:   FUNC GLOBAL DEFAULT 14 _ZN7android8hardware3drm4
668:   OBJECT GLOBAL DEFAULT 18 _ZTCN7android8hardware3dr
669:   FUNC GLOBAL DEFAULT 14 _ZN7android8hardware3drm4
670:   FUNC WEAK DEFAULT 14 _ZN7android8hardware7deta
671:   FUNC GLOBAL DEFAULT 14 _ZN7android8hardware3drm4
672:   FUNC GLOBAL DEFAULT 14 _ZN7android8hardware3drm4
673:   FUNC GLOBAL DEFAULT 14 _ZTv0_n12_N7android8hardw
674:   FUNC GLOBAL DEFAULT 14 _ZN7android8hardware3drm4
675:   FUNC GLOBAL DEFAULT 14 _ZN7android8hardware3drm4
676:   OBJECT GLOBAL DEFAULT 18 _ZTTN7android8hardware3dr
677:   FUNC GLOBAL DEFAULT 14 _ZN7android8hardware3drm4
678:   FUNC GLOBAL DEFAULT 14 _ZN7android8hardware3drm4
679:   OBJECT GLOBAL DEFAULT 18 _ZTCN7android8hardware3dr
680:   FUNC GLOBAL DEFAULT 14 _ZThn20_N7android8hardwar
681:   FUNC GLOBAL DEFAULT 14 _ZN7android8hardware3drm4
682:   FUNC GLOBAL DEFAULT 14 _ZN7android8hardware3drm4
683:   OBJECT GLOBAL DEFAULT 18 _ZTCN7android8hardware3dr
684:   FUNC GLOBAL DEFAULT 14 _ZN7android8hardware3drm4
685:   OBJECT WEAK DEFAULT 18 _ZTCN7android8hardware3dr
686:   FUNC GLOBAL DEFAULT 14 _ZN7android8hardware3drm4
687:   FUNC GLOBAL DEFAULT 14 _ZN7android8hardware3drm4
688:   FUNC GLOBAL DEFAULT 14 _ZN7android8hardware3drm4
689:   FUNC GLOBAL DEFAULT 14 _ZN7android8hardware3drm4
690:   FUNC GLOBAL DEFAULT 14 _ZN7android8hardware3drm4
691:   OBJECT GLOBAL DEFAULT 18 _ZTTN7android8hardware3dr
692:   FUNC GLOBAL DEFAULT 14 __aeabi_memset
693:   FUNC GLOBAL DEFAULT 14 _ZN7android8hardware3drm4
694:   FUNC GLOBAL DEFAULT 14 _ZN7android8hardware3drm4
695:   FUNC GLOBAL DEFAULT 14 _ZN7android8hardware3drm4
696:   OBJECT GLOBAL DEFAULT 18 _ZTTN7android8hardware3dr
697:   FUNC GLOBAL DEFAULT 14 _ZN7android8hardware3drm4
698:   FUNC GLOBAL DEFAULT 14 _ZN7android8hardware3drm4
699:   OBJECT GLOBAL DEFAULT 18 _ZTCN7android8hardware3dr
700:   FUNC WEAK DEFAULT 14 _ZN7android8hardware7deta
701:   FUNC GLOBAL DEFAULT 14 _ZN7android8hardware3drm4
702:   OBJECT GLOBAL DEFAULT 18 _ZTCN7android8hardware3dr
703:   FUNC GLOBAL DEFAULT 14 _ZN7android8hardware3drm4
704:   OBJECT GLOBAL DEFAULT 18 _ZTTN7android8hardware3dr
705:   FUNC GLOBAL DEFAULT 14 _ZN7android8hardware3drm4
706:   FUNC WEAK DEFAULT 14 _ZN7android8hardware7deta
707:   FUNC GLOBAL DEFAULT 14 _ZN7android8hardware3drm4
708:   OBJECT GLOBAL DEFAULT 18 _ZTCN7android8hardware3dr
709:   FUNC GLOBAL DEFAULT 14 _ZN7android8hardware3drm4
710:   FUNC GLOBAL DEFAULT 14 _ZN7android8hardware3drm4
711:   FUNC GLOBAL DEFAULT 14 _ZN7android8hardware3drm4
712:   FUNC GLOBAL DEFAULT 14 _ZN7android8hardware3drm4
713:   OBJECT GLOBAL DEFAULT 18 _ZTCN7android8hardware3dr
714:   FUNC WEAK DEFAULT 14 _ZN7android8hardware7deta
715:   OBJECT GLOBAL DEFAULT 18 _ZTVN7android8hardware3dr
716:   FUNC GLOBAL DEFAULT 14 _ZN7android8hardware3drm4
717:   FUNC GLOBAL DEFAULT 14 __aeabi_memclr4
718:   FUNC GLOBAL DEFAULT 14 _ZN7android8hardware3drm4
719:   OBJECT GLOBAL DEFAULT 18 _ZTCN7android8hardware3dr
720:   FUNC GLOBAL DEFAULT 14 _ZThn20_N7android8hardwar
721:   FUNC GLOBAL DEFAULT 14 _ZN7android8hardware3drm4
722:   OBJECT GLOBAL DEFAULT 18 _ZTCN7android8hardware3dr
723:   FUNC GLOBAL DEFAULT 14 _ZN7android8hardware3drm4
724:   FUNC GLOBAL DEFAULT 14 _ZN7android8hardware3drm4
725:   FUNC GLOBAL DEFAULT 14 _ZN7android8hardware3drm4
726:   FUNC GLOBAL DEFAULT 14 _ZN7android8hardware3drm4
727:   FUNC GLOBAL DEFAULT 14 _ZN7android8hardware3drm4
728:   FUNC GLOBAL DEFAULT 14 _ZN7android8hardware3drm4
729:   FUNC GLOBAL DEFAULT 14 _ZN7android8hardware3drm4
730:   FUNC GLOBAL DEFAULT 14 _ZN7android8hardware3drm4
731:   FUNC GLOBAL DEFAULT 14 _ZTv0_n12_N7android8hardw
732:   FUNC GLOBAL DEFAULT 14 _ZN7android8hardware3drm4
733:   FUNC GLOBAL DEFAULT 14 _ZN7android8hardware3drm4
734:   OBJECT GLOBAL DEFAULT 18 _ZTCN7android8hardware3dr
735:   FUNC GLOBAL DEFAULT 14 _ZN7android8hardware3drm4
736:   FUNC GLOBAL DEFAULT 14 __aeabi_memclr8
737:   FUNC GLOBAL DEFAULT 14 _ZN7android8hardware3drm4
738:   FUNC GLOBAL DEFAULT 14 _ZN7android8hardware3drm4
739:   OBJECT GLOBAL DEFAULT 18 _ZTCN7android8hardware3dr
740:   FUNC WEAK DEFAULT 14 _ZN7android8hardware7deta
741:   FUNC GLOBAL DEFAULT 14 _ZN7android8hardware3drm4
742:   OBJECT GLOBAL DEFAULT 18 _ZTCN7android8hardware3dr
743:   FUNC WEAK DEFAULT 14 _ZNSt3__16__treeINS_12__v
744:   FUNC GLOBAL DEFAULT 14 _ZN7android8hardware3drm4
745:   FUNC GLOBAL DEFAULT 14 _ZN7android8hardware3drm4
746:   FUNC GLOBAL DEFAULT 14 _ZN7android8hardware3drm4
747:   FUNC WEAK DEFAULT 14 _ZN7android8hardware7deta
748:   FUNC GLOBAL DEFAULT 14 _ZN7android8hardware3drm4
749:   FUNC GLOBAL DEFAULT 14 _ZN7android8hardware3drm4
750:   FUNC GLOBAL DEFAULT 14 _ZN7android8hardware3drm4
751:   OBJECT GLOBAL DEFAULT 18 _ZTCN7android8hardware3dr
752:   FUNC WEAK DEFAULT 14 _ZN7android8hardware7deta
753:   FUNC GLOBAL DEFAULT 14 _ZN7android8hardware3drm4
754:   FUNC GLOBAL DEFAULT 14 _ZN7android8hardware3drm4
755:   FUNC GLOBAL DEFAULT 14 _ZN7android8hardware3drm4
756:   FUNC GLOBAL DEFAULT 14 _ZN7android8hardware3drm4
757:   FUNC GLOBAL DEFAULT 14 _ZThn20_N7android8hardwar
758:   FUNC GLOBAL DEFAULT 14 _ZN7android8hardware3drm4
759:   FUNC GLOBAL DEFAULT 14 _ZN7android8hardware3drm4
760:   FUNC GLOBAL DEFAULT 14 _ZN7android8hardware3drm4
761:   FUNC GLOBAL DEFAULT 14 _ZN7android8hardware3drm4
762:   FUNC GLOBAL DEFAULT 14 _ZN7android8hardware3drm4
763:   FUNC GLOBAL DEFAULT 14 _ZN7android8hardware3drm4
764:   FUNC GLOBAL DEFAULT 14 _ZN7android8hardware3drm4
765:   FUNC GLOBAL DEFAULT 14 _ZN7android8hardware3drm4
766:   OBJECT GLOBAL DEFAULT 18 _ZTTN7android8hardware3dr
767:   FUNC GLOBAL DEFAULT 14 _ZN7android8hardware3drm4
768:   FUNC GLOBAL DEFAULT 14 _ZN7android8hardware3drm4
769:   FUNC GLOBAL DEFAULT 14 _ZN7android8hardware3drm4
770:   OBJECT GLOBAL DEFAULT 18 _ZTCN7android8hardware3dr
771:   FUNC GLOBAL DEFAULT 14 _ZN7android8hardware3drm4
772:   OBJECT GLOBAL DEFAULT 18 _ZTCN7android8hardware3dr
773:   FUNC GLOBAL DEFAULT 14 _ZN7android8hardware3drm4
774:   FUNC GLOBAL DEFAULT 14 _ZN7android8hardware3drm4
775:   FUNC GLOBAL DEFAULT 14 _ZN7android8hardware3drm4
776:   FUNC GLOBAL DEFAULT 14 _ZN7android8hardware3drm4
777:   OBJECT GLOBAL DEFAULT 18 _ZTTN7android8hardware3dr
778:   OBJECT GLOBAL DEFAULT 18 _ZTCN7android8hardware3dr
779:   FUNC GLOBAL DEFAULT 14 __aeabi_memclr
780:   FUNC GLOBAL DEFAULT 14 _ZN7android8hardware3drm4
781:   OBJECT WEAK DEFAULT 18 _ZTCN7android8hardware3dr
782:   FUNC GLOBAL DEFAULT 14 _ZTv0_n12_N7android8hardw
783:   FUNC WEAK DEFAULT 14 _ZNSt3__16__treeINS_12__v
784:   OBJECT GLOBAL DEFAULT 18 _ZTCN7android8hardware3dr
785:   FUNC GLOBAL DEFAULT 14 _ZN7android8hardware3drm4
786:   FUNC GLOBAL DEFAULT 14 _ZN7android8hardware3drm4
787:   FUNC GLOBAL DEFAULT 14 _ZN7android8hardware3drm4
788:   OBJECT GLOBAL DEFAULT 16 _ZN7android8hardware3drm4
789:   FUNC GLOBAL DEFAULT 14 _ZN7android8hardware3drm4
790:   FUNC GLOBAL DEFAULT 14 _ZN7android8hardware3drm4
791:   FUNC GLOBAL DEFAULT 14 _ZN7android8hardware3drm4
792:   FUNC GLOBAL DEFAULT 14 _ZN7android8hardware3drm4
793:   OBJECT GLOBAL DEFAULT 18 _ZTCN7android8hardware3dr
794:   OBJECT GLOBAL DEFAULT 18 _ZTCN7android8hardware3dr
795:   FUNC GLOBAL DEFAULT 14 _ZN7android8hardware3drm4
796:   FUNC GLOBAL DEFAULT 14 _ZN7android8hardware3drm4
797:   FUNC GLOBAL DEFAULT 14 _ZN7android8hardware3drm4
798:   FUNC GLOBAL DEFAULT 14 _ZN7android8hardware3drm4
799:   FUNC GLOBAL DEFAULT 14 _ZN7android8hardware3drm4
800:   FUNC GLOBAL DEFAULT 14 _ZN7android8hardware3drm4
801:   FUNC GLOBAL DEFAULT 14 _ZN7android8hardware3drm4
802:   FUNC GLOBAL DEFAULT 14 _ZN7android8hardware3drm4
803:   FUNC GLOBAL DEFAULT 14 _ZN7android8hardware3drm4
804:   FUNC WEAK DEFAULT 14 _ZN7android8hardware7deta
805:   FUNC WEAK DEFAULT 14 _ZN7android8hardware7deta
806:   FUNC GLOBAL DEFAULT 14 _ZN7android8hardware3drm4
807:   FUNC GLOBAL DEFAULT 14 _ZThn20_N7android8hardwar
808:   OBJECT GLOBAL DEFAULT 18 _ZTVN7android8hardware3dr
809:   OBJECT GLOBAL DEFAULT 18 _ZTCN7android8hardware3dr
810:   FUNC GLOBAL DEFAULT 14 _ZN7android8hardware3drm4
811:   FUNC GLOBAL DEFAULT 14 _ZN7android8hardware3drm4
