 0x0000000e (SONAME)                     Library soname: [libinputreporter.so]
  
Symbol   contains 27 entries:
Num:   Type Bind Vis Ndx Name
0:   NOTYPE LOCAL DEFAULT UND
1:   FUNC GLOBAL DEFAULT UND __cxa_finalize@LIBC (2)
2:   FUNC GLOBAL DEFAULT UND _ZN7android7RefBase10onFi
3:   FUNC GLOBAL DEFAULT UND _ZN7android7RefBase13onLa
4:   FUNC GLOBAL DEFAULT UND _ZN7android7RefBase15onLa
5:   FUNC GLOBAL DEFAULT UND _ZN7android7RefBase20onIn
6:   FUNC GLOBAL DEFAULT UND _ZN7android7RefBaseC2Ev
7:   FUNC GLOBAL DEFAULT UND _ZN7android7RefBaseD2Ev
8:   FUNC GLOBAL DEFAULT UND _ZNK7android7RefBase9incS
9:   FUNC GLOBAL DEFAULT UND _ZdlPv
10:   FUNC GLOBAL DEFAULT UND _Znwj
11:   FUNC GLOBAL DEFAULT UND __cxa_pure_virtual
12:   FUNC GLOBAL DEFAULT UND __stack_chk_fail@LIBC (2)
13:   OBJECT GLOBAL DEFAULT UND __stack_chk_guard@LIBC (2)
14:   FUNC GLOBAL DEFAULT UND memset@LIBC (2)
15:   FUNC GLOBAL DEFAULT 12 _ZN7android13InputReporte
16:   FUNC GLOBAL DEFAULT 12 _ZN7android19createInputR
17:   OBJECT GLOBAL DEFAULT 16 _ZTVN7android13InputRepor
18:   FUNC GLOBAL DEFAULT 12 __aeabi_memclr8
19:   FUNC GLOBAL DEFAULT 12 __aeabi_memset8
20:   FUNC GLOBAL DEFAULT 12 __aeabi_memset
21:   FUNC GLOBAL DEFAULT 12 _ZN7android13InputReporte
22:   OBJECT GLOBAL DEFAULT 16 _ZTCN7android13InputRepor
23:   OBJECT GLOBAL DEFAULT 16 _ZTTN7android13InputRepor
24:   FUNC GLOBAL DEFAULT 12 __aeabi_memclr
25:   FUNC GLOBAL DEFAULT 12 __aeabi_memclr4
26:   FUNC GLOBAL DEFAULT 12 __aeabi_memset4
