 0x0000000e (SONAME)                     Library soname: [libmeminfo.so]
  
Symbol   contains 127 entries:
Num:   Type Bind Vis Ndx Name
0:   NOTYPE LOCAL DEFAULT UND
1:   FUNC GLOBAL DEFAULT UND __cxa_atexit@LIBC (2)
2:   FUNC GLOBAL DEFAULT UND __cxa_finalize@LIBC (2)
3:   FUNC GLOBAL DEFAULT UND _ZN7android4base10LogMess
4:   FUNC GLOBAL DEFAULT UND _ZN7android4base10LogMess
5:   FUNC GLOBAL DEFAULT UND _ZN7android4base10LogMess
6:   FUNC GLOBAL DEFAULT UND _ZN7android4base21GetMini
7:   FUNC GLOBAL DEFAULT UND _ZNKSt3__16locale9use_fac
8:   FUNC GLOBAL DEFAULT UND _ZNKSt3__18ios_base6getlo
9:   FUNC GLOBAL DEFAULT UND _ZNSt3__113basic_ostreamI
10:   FUNC GLOBAL DEFAULT UND _ZNSt3__113basic_ostreamI
11:   FUNC GLOBAL DEFAULT UND _ZNSt3__113basic_ostreamI
12:   OBJECT GLOBAL DEFAULT UND _ZNSt3__15ctypeIcE2idE
13:   FUNC GLOBAL DEFAULT UND _ZNSt3__16localeD1Ev
14:   FUNC GLOBAL DEFAULT UND _ZNSt3__18ios_base5clearE
15:   FUNC GLOBAL DEFAULT UND _ZdlPv
16:   FUNC GLOBAL DEFAULT UND _Znwj
17:   FUNC GLOBAL DEFAULT UND __cxa_guard_acquire
18:   FUNC GLOBAL DEFAULT UND __cxa_guard_release
19:   FUNC GLOBAL DEFAULT UND __errno@LIBC (2)
20:   FUNC GLOBAL DEFAULT UND __open_2@LIBC (2)
21:   FUNC GLOBAL DEFAULT UND __pread64_chk@LIBC (2)
22:   FUNC GLOBAL DEFAULT UND __pwrite64_chk@LIBC_N (3)
23:   FUNC GLOBAL DEFAULT UND __stack_chk_fail@LIBC (2)
24:   OBJECT GLOBAL DEFAULT UND __stack_chk_guard@LIBC (2)
25:   FUNC GLOBAL DEFAULT UND access@LIBC (2)
26:   FUNC WEAK DEFAULT UND android_fdsan_close_with_@LIBC_Q (4)
27:   FUNC WEAK DEFAULT UND android_fdsan_create_owne@LIBC_Q (4)
28:   FUNC WEAK DEFAULT UND android_fdsan_exchange_ow@LIBC_Q (4)
29:   FUNC GLOBAL DEFAULT UND close@LIBC (2)
30:   FUNC GLOBAL DEFAULT UND pread64@LIBC (2)
31:   FUNC GLOBAL DEFAULT UND sysconf@LIBC (2)
32:   FUNC GLOBAL DEFAULT UND _ZN7android4base12StringP
33:   FUNC GLOBAL DEFAULT UND _ZN7android4base16ReadFil
34:   FUNC GLOBAL DEFAULT UND _ZN7android4base17WriteSt
35:   FUNC GLOBAL DEFAULT UND _ZNKSt3__120__vector_base
36:   FUNC GLOBAL DEFAULT UND _ZNKSt3__121__basic_strin
37:   FUNC GLOBAL DEFAULT UND _ZNSt3__112basic_stringIc
38:   FUNC GLOBAL DEFAULT UND _ZNSt3__112basic_stringIc
39:   FUNC GLOBAL DEFAULT UND _ZNSt3__113basic_ostreamI
40:   FUNC GLOBAL DEFAULT UND _ZNSt3__113basic_ostreamI
41:   FUNC GLOBAL DEFAULT UND __strlen_chk@LIBC (2)
42:   FUNC GLOBAL DEFAULT UND abort@LIBC (2)
43:   FUNC GLOBAL DEFAULT UND fclose@LIBC (2)
44:   FUNC GLOBAL DEFAULT UND fopen@LIBC (2)
45:   FUNC GLOBAL DEFAULT UND free@LIBC (2)
46:   FUNC GLOBAL DEFAULT UND getline@LIBC (2)
47:   FUNC GLOBAL DEFAULT UND getpagesize@LIBC (2)
48:   FUNC GLOBAL DEFAULT UND isxdigit@LIBC (2)
49:   FUNC GLOBAL DEFAULT UND memcmp@LIBC (2)
50:   FUNC GLOBAL DEFAULT UND sscanf@LIBC (2)
51:   FUNC GLOBAL DEFAULT UND strchr@LIBC (2)
52:   FUNC GLOBAL DEFAULT UND strlen@LIBC (2)
53:   FUNC GLOBAL DEFAULT UND strncmp@LIBC (2)
54:   FUNC GLOBAL DEFAULT UND strtoull@LIBC (2)
55:   FUNC GLOBAL DEFAULT UND _ZNKSt3__112basic_stringI
56:   FUNC GLOBAL DEFAULT UND _ZNKSt3__120__vector_base
57:   FUNC GLOBAL DEFAULT UND _ZNSt3__112basic_stringIc
58:   FUNC GLOBAL DEFAULT UND __read_chk@LIBC (2)
59:   FUNC GLOBAL DEFAULT UND fscanf@LIBC (2)
60:   FUNC GLOBAL DEFAULT UND strstr@LIBC (2)
61:   FUNC GLOBAL DEFAULT UND memcpy@LIBC (2)
62:   FUNC GLOBAL DEFAULT UND memset@LIBC (2)
63:   FUNC GLOBAL DEFAULT 14 _ZN7android7meminfo8PageA
64:   FUNC GLOBAL DEFAULT 14 _ZN7android7meminfo18ForE
65:   FUNC GLOBAL DEFAULT 14 _ZNK7android7meminfo11Pro
66:   FUNC WEAK DEFAULT 14 _ZNSt3__16vectorIN7androi
67:   FUNC GLOBAL DEFAULT 14 _ZN7android7meminfo8pages
68:   FUNC GLOBAL DEFAULT 14 _ZN7android7meminfo11Proc
69:   FUNC GLOBAL DEFAULT 14 _ZN7android7meminfo10SysM
70:   FUNC GLOBAL DEFAULT 14 _ZN7android7meminfo10SysM
71:   FUNC GLOBAL DEFAULT 14 _ZN7android7meminfo10SysM
72:   FUNC GLOBAL DEFAULT 14 _ZN7android7meminfo11Proc
73:   FUNC WEAK DEFAULT 14 _ZNSt3__16vectorItNS_9all
74:   OBJECT GLOBAL DEFAULT 23 _ZN7android7meminfo10SysM
75:   FUNC GLOBAL DEFAULT 14 __aeabi_memcpy4
76:   FUNC GLOBAL DEFAULT 14 __aeabi_memset4
77:   FUNC GLOBAL DEFAULT 14 _ZN7android7meminfo12page
78:   FUNC GLOBAL DEFAULT 14 _ZN7android7meminfo8PageA
79:   FUNC GLOBAL DEFAULT 14 _ZN7android7meminfo10SysM
80:   FUNC GLOBAL DEFAULT 14 _ZN7android7meminfo10SysM
81:   FUNC GLOBAL DEFAULT 14 __aeabi_memclr
82:   FUNC GLOBAL DEFAULT 14 _ZN7android7meminfo11Proc
83:   FUNC WEAK DEFAULT 14 _ZN7android8procinfo18Rea
84:   FUNC GLOBAL DEFAULT 14 __aeabi_uidiv
85:   FUNC GLOBAL DEFAULT 14 __aeabi_uidivmod
86:   FUNC WEAK DEFAULT 14 _ZNSt3__127__tree_balance
87:   FUNC GLOBAL DEFAULT 14 _ZN7android7meminfo12page
88:   FUNC WEAK DEFAULT 14 _ZNSt3__124__put_characte
89:   OBJECT WEAK DEFAULT 23 _ZGVZN7android7meminfo8Pa
90:   FUNC GLOBAL DEFAULT 14 _ZN7android7meminfo11Proc
91:   FUNC GLOBAL DEFAULT 14 __aeabi_memcpy8
92:   FUNC GLOBAL DEFAULT 14 __aeabi_memset8
93:   FUNC GLOBAL DEFAULT 14 _ZNK7android7meminfo8Page
94:   FUNC GLOBAL DEFAULT 14 _ZN7android7meminfo11Proc
95:   FUNC WEAK DEFAULT 14 _ZNSt3__16vectorIyNS_9all
96:   FUNC GLOBAL DEFAULT 14 __aeabi_uldivmod
97:   FUNC GLOBAL DEFAULT 14 _ZN7android7meminfo10SysM
98:   FUNC GLOBAL DEFAULT 14 __aeabi_memclr4
99:   FUNC GLOBAL DEFAULT 14 _ZN7android7meminfo11Proc
100:   FUNC GLOBAL DEFAULT 14 _ZN7android7meminfo11Proc
101:   FUNC GLOBAL DEFAULT 14 _ZN7android7meminfo21Smap
102:   FUNC GLOBAL DEFAULT 14 _ZN7android7meminfo11Proc
103:   FUNC GLOBAL DEFAULT 14 _ZN7android7meminfo24Smap
104:   OBJECT WEAK DEFAULT 23 _ZZN7android7meminfo8Page
105:   FUNC GLOBAL DEFAULT 14 _ZN7android7meminfo15Read
106:   FUNC GLOBAL DEFAULT 14 __udivsi3
107:   FUNC GLOBAL DEFAULT 14 _ZN7android7meminfo11Proc
108:   FUNC GLOBAL DEFAULT 14 _ZN7android7meminfo10SysM
109:   FUNC GLOBAL DEFAULT 14 __udivmodsi4
110:   FUNC GLOBAL DEFAULT 14 _ZN7android7meminfo8PageA
111:   FUNC GLOBAL DEFAULT 14 _ZN7android7meminfo8PageA
112:   FUNC GLOBAL DEFAULT 14 _ZN7android7meminfo8page_
113:   FUNC GLOBAL DEFAULT 14 _ZNK7android7meminfo8Page
114:   FUNC GLOBAL DEFAULT 14 _ZN7android7meminfo11Proc
115:   FUNC GLOBAL DEFAULT 14 _ZN7android7meminfo22IsSm
116:   FUNC GLOBAL DEFAULT 14 __aeabi_memclr8
117:   FUNC GLOBAL DEFAULT 14 __udivmoddi4
118:   FUNC GLOBAL DEFAULT 14 _ZN7android7meminfo11Proc
119:   FUNC WEAK DEFAULT 14 _ZNSt3__16vectorIN7androi
120:   FUNC GLOBAL DEFAULT 14 _ZN7android7meminfo11Proc
121:   FUNC GLOBAL DEFAULT 14 _ZN7android7meminfo11Proc
122:   FUNC WEAK DEFAULT 14 _ZNSt3__16__treeINS_12__v
123:   FUNC GLOBAL DEFAULT 14 __aeabi_memset
124:   FUNC GLOBAL DEFAULT 14 _ZNK7android7meminfo11Pro
125:   FUNC WEAK DEFAULT 14 _ZNSt3__16vectorIyNS_9all
126:   FUNC GLOBAL DEFAULT 14 __aeabi_memcpy
