 0x000000000000000e (SONAME)             Library soname: [libdumpstateaidl.so]
  
Symbol   contains 235 entries:
Num:   Type Bind Vis Ndx Name
0:   NOTYPE LOCAL DEFAULT UND
1:   FUNC GLOBAL DEFAULT UND __cxa_finalize@LIBC (2)
2:   FUNC GLOBAL DEFAULT UND __cxa_atexit@LIBC (2)
3:   FUNC GLOBAL DEFAULT UND _ZN7android10IInterfaceC2
4:   FUNC GLOBAL DEFAULT UND _ZN7android10IInterfaceD0
5:   FUNC GLOBAL DEFAULT UND _ZN7android10IInterfaceD1
6:   FUNC GLOBAL DEFAULT UND _ZN7android10IInterfaceD2
7:   FUNC GLOBAL DEFAULT UND _ZN7android14sp_report_ra
8:   FUNC GLOBAL DEFAULT UND _ZN7android6Parcel10write
9:   FUNC GLOBAL DEFAULT UND _ZN7android6Parcel16write
10:   FUNC GLOBAL DEFAULT UND _ZN7android6Parcel19write
11:   FUNC GLOBAL DEFAULT UND _ZN7android6ParcelC1Ev
12:   FUNC GLOBAL DEFAULT UND _ZN7android6ParcelD1Ev
13:   FUNC GLOBAL DEFAULT UND _ZN7android6binder6Status
14:   FUNC GLOBAL DEFAULT UND _ZN7android6binder6Status
15:   FUNC GLOBAL DEFAULT UND _ZN7android6binder6Status
16:   FUNC GLOBAL DEFAULT UND _ZN7android6binder6Status
17:   FUNC GLOBAL DEFAULT UND _ZN7android7BBinder10onTr
18:   FUNC GLOBAL DEFAULT UND _ZN7android7BBinder10ping
19:   FUNC GLOBAL DEFAULT UND _ZN7android7BBinder11link
20:   FUNC GLOBAL DEFAULT UND _ZN7android7BBinder11loca
21:   FUNC GLOBAL DEFAULT UND _ZN7android7BBinder12atta
22:   FUNC GLOBAL DEFAULT UND _ZN7android7BBinder12deta
23:   FUNC GLOBAL DEFAULT UND _ZN7android7BBinder13unli
24:   FUNC GLOBAL DEFAULT UND _ZN7android7BBinder4dumpE
25:   FUNC GLOBAL DEFAULT UND _ZN7android7BBinder8trans
26:   FUNC GLOBAL DEFAULT UND _ZN7android7BBinderD0Ev
27:   FUNC GLOBAL DEFAULT UND _ZN7android7BBinderD1Ev
28:   FUNC GLOBAL DEFAULT UND _ZN7android7IBinder11loca
29:   FUNC GLOBAL DEFAULT UND _ZN7android7IBinder12remo
30:   FUNC GLOBAL DEFAULT UND _ZN7android7IBinder19quer
31:   FUNC GLOBAL DEFAULT UND _ZN7android7IBinderD0Ev
32:   FUNC GLOBAL DEFAULT UND _ZN7android7IBinderD1Ev
33:   FUNC GLOBAL DEFAULT UND _ZN7android7RefBase10onFi
34:   FUNC GLOBAL DEFAULT UND _ZN7android7RefBase13onLa
35:   FUNC GLOBAL DEFAULT UND _ZN7android7RefBase15onLa
36:   FUNC GLOBAL DEFAULT UND _ZN7android7RefBase20onIn
37:   FUNC GLOBAL DEFAULT UND _ZN7android7RefBaseC2Ev
38:   FUNC GLOBAL DEFAULT UND _ZN7android7RefBaseD2Ev
39:   FUNC GLOBAL DEFAULT UND _ZN7android7String8C1ERKS
40:   FUNC GLOBAL DEFAULT UND _ZN7android7String8C1Ev
41:   FUNC GLOBAL DEFAULT UND _ZN7android7String8D1Ev
42:   FUNC GLOBAL DEFAULT UND _ZN7android8String16C1EPK
43:   FUNC GLOBAL DEFAULT UND _ZN7android8String16D1Ev
44:   FUNC GLOBAL DEFAULT UND _ZN7android9BpRefBase10on
45:   FUNC GLOBAL DEFAULT UND _ZN7android9BpRefBase15on
46:   FUNC GLOBAL DEFAULT UND _ZN7android9BpRefBase20on
47:   FUNC GLOBAL DEFAULT UND _ZN7android9BpRefBaseC2ER
48:   FUNC GLOBAL DEFAULT UND _ZN7android9BpRefBaseD0Ev
49:   FUNC GLOBAL DEFAULT UND _ZN7android9BpRefBaseD1Ev
50:   FUNC GLOBAL DEFAULT UND _ZN7android9BpRefBaseD2Ev
51:   FUNC GLOBAL DEFAULT UND _ZNK7android6Parcel14chec
52:   FUNC GLOBAL DEFAULT UND _ZNK7android6Parcel17read
53:   FUNC GLOBAL DEFAULT UND _ZNK7android6Parcel9readI
54:   FUNC GLOBAL DEFAULT UND _ZNK7android6binder6Statu
55:   FUNC GLOBAL DEFAULT UND _ZNK7android7BBinder10fin
56:   FUNC GLOBAL DEFAULT UND _ZNK7android7BBinder13isB
57:   FUNC GLOBAL DEFAULT UND _ZNK7android7BBinder22get
58:   FUNC GLOBAL DEFAULT UND _ZNK7android7IBinder13che
59:   FUNC GLOBAL DEFAULT UND _ZNK7android7RefBase9decS
60:   FUNC GLOBAL DEFAULT UND _ZNK7android7RefBase9incS
61:   FUNC GLOBAL DEFAULT UND _ZNK7android8String164siz
62:   FUNC GLOBAL DEFAULT UND _ZTv0_n24_N7android10IInt
63:   FUNC GLOBAL DEFAULT UND _ZTv0_n24_N7android10IInt
64:   FUNC GLOBAL DEFAULT UND _ZTv0_n24_N7android7BBind
65:   FUNC GLOBAL DEFAULT UND _ZTv0_n24_N7android7BBind
66:   FUNC GLOBAL DEFAULT UND _ZTv0_n24_N7android7IBind
67:   FUNC GLOBAL DEFAULT UND _ZTv0_n24_N7android7IBind
68:   FUNC GLOBAL DEFAULT UND _ZTv0_n24_N7android9BpRef
69:   FUNC GLOBAL DEFAULT UND _ZTv0_n24_N7android9BpRef
70:   FUNC GLOBAL DEFAULT UND _ZTv0_n32_N7android9BpRef
71:   FUNC GLOBAL DEFAULT UND _ZTv0_n40_N7android9BpRef
72:   FUNC GLOBAL DEFAULT UND _ZTv0_n48_N7android9BpRef
73:   FUNC GLOBAL DEFAULT UND _ZdlPv
74:   FUNC GLOBAL DEFAULT UND _Znwm
75:   FUNC GLOBAL DEFAULT UND __cxa_pure_virtual
76:   FUNC GLOBAL DEFAULT UND __stack_chk_fail@LIBC (2)
77:   FUNC GLOBAL DEFAULT UND strzcmp16
78:   FUNC GLOBAL DEFAULT UND _ZN7android7BBinderD2Ev
79:   FUNC GLOBAL DEFAULT UND _ZN7android10IInterface8a
80:   FUNC GLOBAL DEFAULT UND _ZN7android6Parcel17write
81:   FUNC GLOBAL DEFAULT UND _ZN7android6Parcel25write
82:   FUNC GLOBAL DEFAULT UND _ZN7android6Parcel9writeB
83:   FUNC GLOBAL DEFAULT UND _ZNK7android6Parcel16read
84:   FUNC GLOBAL DEFAULT UND _ZNK7android6Parcel24read
85:   FUNC GLOBAL DEFAULT UND _ZNK7android6Parcel8readB
86:   FUNC GLOBAL DEFAULT UND __errno@LIBC (2)
87:   FUNC WEAK DEFAULT UND android_fdsan_close_with_@LIBC_Q (3)
88:   FUNC WEAK DEFAULT UND android_fdsan_create_owne@LIBC_Q (3)
89:   FUNC GLOBAL DEFAULT UND close@LIBC (2)
90:   FUNC GLOBAL DEFAULT 14 _ZN7android2os19BnDumpsta
91:   FUNC GLOBAL DEFAULT 14 _ZN7android2os19BpDumpsta
92:   FUNC GLOBAL DEFAULT 14 _ZN7android2os25IDumpstat
93:   FUNC GLOBAL DEFAULT 14 _ZNK7android2os18IDumpsta
94:   OBJECT GLOBAL DEFAULT 18 _ZTVN7android2os25IDumpst
95:   OBJECT WEAK DEFAULT 18 _ZTCN7android11BnInterfac
96:   FUNC GLOBAL DEFAULT 14 _ZN7android2os25IDumpstat
97:   OBJECT GLOBAL DEFAULT 18 _ZTCN7android2os19BnDumps
98:   OBJECT GLOBAL DEFAULT 18 _ZTVN7android2os19BnDumps
99:   FUNC GLOBAL DEFAULT 14 _ZN7android2os17IDumpstat
100:   OBJECT GLOBAL DEFAULT 18 _ZTTN7android2os11BnDumps
101:   FUNC GLOBAL DEFAULT 14 _ZN7android2os19BpDumpsta
102:   OBJECT GLOBAL DEFAULT 18 _ZTCN7android2os19BpDumps
103:   OBJECT GLOBAL DEFAULT 18 _ZTTN7android2os16BnDumps
104:   OBJECT GLOBAL DEFAULT 18 _ZTCN7android2os11BnDumps
105:   FUNC GLOBAL DEFAULT 14 _ZN7android2os18IDumpstat
106:   OBJECT GLOBAL DEFAULT 23 _ZN7android2os18IDumpstat
107:   OBJECT GLOBAL DEFAULT 18 _ZTCN7android2os22IDumpst
108:   OBJECT GLOBAL DEFAULT 18 _ZTCN7android2os22IDumpst
109:   OBJECT GLOBAL DEFAULT 18 _ZTVN7android2os22IDumpst
110:   OBJECT WEAK DEFAULT 18 _ZTCN7android11BpInterfac
111:   OBJECT GLOBAL DEFAULT 18 _ZTCN7android2os16BnDumps
112:   FUNC GLOBAL DEFAULT 14 _ZN7android2os11BpDumpsta
113:   OBJECT GLOBAL DEFAULT 18 _ZTVN7android2os11BpDumps
114:   FUNC GLOBAL DEFAULT 14 _ZN7android2os15IDumpstat
115:   FUNC GLOBAL DEFAULT 14 _ZN7android2os15IDumpstat
116:   OBJECT GLOBAL DEFAULT 18 _ZTTN7android2os18IDumpst
117:   OBJECT GLOBAL DEFAULT 18 _ZTCN7android2os16BnDumps
118:   OBJECT GLOBAL DEFAULT 18 _ZTCN7android2os17IDumpst
119:   OBJECT GLOBAL DEFAULT 23 _ZN7android2os15IDumpstat
120:   FUNC GLOBAL DEFAULT 14 _ZN7android2os16BnDumpsta
121:   FUNC GLOBAL DEFAULT 14 _ZN7android2os11BpDumpsta
122:   FUNC WEAK DEFAULT 14 _ZN7android11BnInterfaceI
123:   FUNC GLOBAL DEFAULT 14 _ZN7android2os18IDumpstat
124:   FUNC GLOBAL DEFAULT 14 _ZN7android2os18IDumpstat
125:   OBJECT GLOBAL DEFAULT 18 _ZTCN7android2os11BpDumps
126:   FUNC GLOBAL DEFAULT 14 _ZN7android2os19BpDumpsta
127:   OBJECT GLOBAL DEFAULT 18 _ZTCN7android2os19BnDumps
128:   OBJECT GLOBAL DEFAULT 23 _ZN7android2os15IDumpstat
129:   OBJECT WEAK DEFAULT 18 _ZTVN7android11BnInterfac
130:   FUNC GLOBAL DEFAULT 14 _ZN7android2os10IDumpstat
131:   FUNC GLOBAL DEFAULT 14 _ZN7android2os19BpDumpsta
132:   FUNC GLOBAL DEFAULT 14 _ZN7android2os16BpDumpsta
133:   FUNC GLOBAL DEFAULT 14 _ZNK7android2os15IDumpsta
134:   FUNC GLOBAL DEFAULT 14 _ZThn8_N7android2os19BnDu
135:   FUNC GLOBAL DEFAULT 14 _ZTv0_n24_N7android2os18I
136:   FUNC GLOBAL DEFAULT 14 _ZN7android2os15IDumpstat
137:   OBJECT GLOBAL DEFAULT 18 _ZTVN7android2os16BnDumps
138:   FUNC GLOBAL DEFAULT 14 _ZTv0_n24_N7android2os15I
139:   FUNC GLOBAL DEFAULT 14 _ZN7android2os17IDumpstat
140:   FUNC GLOBAL DEFAULT 14 _ZN7android2os22IDumpstat
141:   FUNC WEAK DEFAULT 14 _ZNK7android6Parcel16read
142:   FUNC GLOBAL DEFAULT 14 _ZN7android2os19BpDumpsta
143:   OBJECT GLOBAL DEFAULT 18 _ZTCN7android2os19BpDumps
144:   OBJECT GLOBAL DEFAULT 18 _ZTCN7android2os19BpDumps
145:   FUNC GLOBAL DEFAULT 14 _ZN7android2os15IDumpstat
146:   OBJECT WEAK DEFAULT 18 _ZTCN7android2os16BpDumps
147:   OBJECT WEAK DEFAULT 18 _ZTCN7android2os16BpDumps
148:   OBJECT GLOBAL DEFAULT 18 _ZTCN7android2os11BpDumps
149:   OBJECT GLOBAL DEFAULT 18 _ZTTN7android2os11BpDumps
150:   FUNC GLOBAL DEFAULT 14 _ZN7android2os25IDumpstat
151:   OBJECT GLOBAL DEFAULT 18 _ZTTN7android2os19BpDumps
152:   FUNC GLOBAL DEFAULT 14 _ZN7android2os18IDumpstat
153:   FUNC GLOBAL DEFAULT 14 _ZN7android2os18IDumpstat
154:   OBJECT GLOBAL DEFAULT 18 _ZTCN7android2os16BnDumps
155:   FUNC GLOBAL DEFAULT 14 _ZN7android2os11BnDumpsta
156:   OBJECT GLOBAL DEFAULT 18 _ZTCN7android2os19BnDumps
157:   OBJECT GLOBAL DEFAULT 18 _ZTCN7android2os16BnDumps
158:   OBJECT WEAK DEFAULT 18 _ZTTN7android11BpInterfac
159:   OBJECT GLOBAL DEFAULT 18 _ZTTN7android2os15IDumpst
160:   FUNC GLOBAL DEFAULT 14 _ZN7android2os10IDumpstat
161:   OBJECT GLOBAL DEFAULT 18 _ZTVN7android2os17IDumpst
162:   FUNC GLOBAL DEFAULT 14 _ZThn8_N7android2os11BnDu
163:   FUNC GLOBAL DEFAULT 14 _ZN7android2os10IDumpstat
164:   FUNC GLOBAL DEFAULT 14 _ZN7android2os10IDumpstat
165:   FUNC WEAK DEFAULT 14 _ZN7android11BnInterfaceI
166:   OBJECT WEAK DEFAULT 18 _ZTCN7android11BpInterfac
167:   OBJECT WEAK DEFAULT 18 _ZTTN7android2os16BpDumps
168:   OBJECT GLOBAL DEFAULT 18 _ZTVN7android2os15IDumpst
169:   FUNC GLOBAL DEFAULT 14 _ZThn8_N7android2os16BnDu
170:   OBJECT GLOBAL DEFAULT 18 _ZTCN7android2os11BnDumps
171:   FUNC GLOBAL DEFAULT 14 _ZN7android2os25IDumpstat
172:   OBJECT GLOBAL DEFAULT 18 _ZTCN7android2os19BnDumps
173:   FUNC GLOBAL DEFAULT 14 _ZTv0_n24_N7android2os18I
174:   OBJECT GLOBAL DEFAULT 18 _ZTTN7android2os22IDumpst
175:   FUNC GLOBAL DEFAULT 14 _ZTv0_n24_N7android2os15I
176:   FUNC GLOBAL DEFAULT 14 _ZN7android2os10IDumpstat
177:   FUNC GLOBAL DEFAULT 14 _ZN7android2os17IDumpstat
178:   FUNC WEAK DEFAULT 14 _ZNK7android6Parcel16read
179:   FUNC GLOBAL DEFAULT 14 _ZN7android2os19BpDumpsta
180:   OBJECT GLOBAL DEFAULT 18 _ZTVN7android2os19BpDumps
181:   FUNC GLOBAL DEFAULT 14 _ZN7android2os16BpDumpsta
182:   OBJECT WEAK DEFAULT 18 _ZTCN7android11BnInterfac
183:   OBJECT WEAK DEFAULT 18 _ZTCN7android2os16BpDumps
184:   OBJECT GLOBAL DEFAULT 18 _ZTCN7android2os11BnDumps
185:   OBJECT GLOBAL DEFAULT 18 _ZTVN7android2os10IDumpst
186:   FUNC GLOBAL DEFAULT 14 _ZTv0_n24_N7android2os10I
187:   OBJECT WEAK DEFAULT 18 _ZTCN7android11BnInterfac
188:   OBJECT GLOBAL DEFAULT 18 _ZTCN7android2os11BnDumps
189:   FUNC GLOBAL DEFAULT 14 _ZN7android2os15IDumpstat
190:   OBJECT WEAK DEFAULT 18 _ZTCN7android11BnInterfac
191:   OBJECT GLOBAL DEFAULT 18 _ZTCN7android2os16BnDumps
192:   OBJECT GLOBAL DEFAULT 18 _ZTTN7android2os17IDumpst
193:   OBJECT WEAK DEFAULT 18 _ZTCN7android11BpInterfac
194:   FUNC GLOBAL DEFAULT 14 _ZN7android2os11BpDumpsta
195:   FUNC GLOBAL DEFAULT 14 _ZN7android2os11BpDumpsta
196:   FUNC GLOBAL DEFAULT 14 _ZNK7android2os10IDumpsta
197:   OBJECT GLOBAL DEFAULT 23 _ZN7android2os18IDumpstat
198:   FUNC GLOBAL DEFAULT 14 _ZN7android2os18IDumpstat
199:   OBJECT GLOBAL DEFAULT 18 _ZTCN7android2os19BpDumps
200:   OBJECT GLOBAL DEFAULT 18 _ZTTN7android2os19BnDumps
201:   OBJECT WEAK DEFAULT 18 _ZTCN7android2os16BpDumps
202:   FUNC WEAK DEFAULT 14 _ZN7android11BnInterfaceI
203:   OBJECT GLOBAL DEFAULT 18 _ZTCN7android2os10IDumpst
204:   FUNC GLOBAL DEFAULT 14 _ZN7android2os19BpDumpsta
205:   FUNC GLOBAL DEFAULT 14 _ZN7android2os25IDumpstat
206:   OBJECT GLOBAL DEFAULT 18 _ZTCN7android2os25IDumpst
207:   OBJECT GLOBAL DEFAULT 18 _ZTCN7android2os25IDumpst
208:   FUNC GLOBAL DEFAULT 14 _ZN7android2os17IDumpstat
209:   FUNC GLOBAL DEFAULT 14 _ZN7android2os18IDumpstat
210:   OBJECT GLOBAL DEFAULT 18 _ZTVN7android2os18IDumpst
211:   OBJECT GLOBAL DEFAULT 18 _ZTCN7android2os15IDumpst
212:   FUNC GLOBAL DEFAULT 14 _ZN7android2os10IDumpstat
213:   OBJECT GLOBAL DEFAULT 18 _ZTCN7android2os11BnDumps
214:   OBJECT GLOBAL DEFAULT 18 _ZTCN7android2os11BpDumps
215:   OBJECT GLOBAL DEFAULT 18 _ZTTN7android2os10IDumpst
216:   OBJECT GLOBAL DEFAULT 18 _ZTTN7android2os25IDumpst
217:   OBJECT GLOBAL DEFAULT 23 _ZN7android2os10IDumpstat
218:   OBJECT WEAK DEFAULT 18 _ZTVN7android2os16BpDumps
219:   FUNC GLOBAL DEFAULT 14 _ZN7android2os10IDumpstat
220:   FUNC GLOBAL DEFAULT 14 _ZN7android2os11BpDumpsta
221:   OBJECT GLOBAL DEFAULT 18 _ZTCN7android2os11BpDumps
222:   OBJECT GLOBAL DEFAULT 18 _ZTVN7android2os11BnDumps
223:   FUNC GLOBAL DEFAULT 14 _ZN7android2os15IDumpstat
224:   FUNC GLOBAL DEFAULT 14 _ZTv0_n24_N7android2os10I
225:   FUNC GLOBAL DEFAULT 14 _ZN7android2os19BpDumpsta
226:   FUNC GLOBAL DEFAULT 14 _ZN7android2os25IDumpstat
227:   OBJECT GLOBAL DEFAULT 18 _ZTCN7android2os18IDumpst
228:   OBJECT GLOBAL DEFAULT 18 _ZTCN7android2os19BnDumps
229:   FUNC GLOBAL DEFAULT 14 _ZN7android2os15IDumpstat
230:   OBJECT WEAK DEFAULT 18 _ZTTN7android11BnInterfac
231:   OBJECT WEAK DEFAULT 18 _ZTVN7android11BpInterfac
232:   OBJECT GLOBAL DEFAULT 23 _ZN7android2os10IDumpstat
233:   OBJECT GLOBAL DEFAULT 18 _ZTCN7android2os17IDumpst
234:   FUNC GLOBAL DEFAULT 14 _ZN7android2os25IDumpstat
