 0x000000000000000e (SONAME)             Library soname: [android.hardware.graphics.common@1.2.so]
  
Symbol   contains 6 entries:
Num:   Type Bind Vis Ndx Name
0:   NOTYPE LOCAL DEFAULT UND
1:   FUNC GLOBAL DEFAULT UND __cxa_finalize@LIBC (2)
2:   FUNC GLOBAL DEFAULT UND _ZN7android8hardware21wri
3:   FUNC GLOBAL DEFAULT UND _ZN7android8hardware22rea
4:   FUNC GLOBAL DEFAULT 12 _ZN7android8hardware8grap
5:   FUNC GLOBAL DEFAULT 12 _ZN7android8hardware8grap
