 0x000000000000000e (SONAME)             Library soname: [libdexfile.so]
  
Symbol   contains 439 entries:
Num:   Type Bind Vis Ndx Name
0:   NOTYPE LOCAL DEFAULT UND
1:   NOTYPE WEAK DEFAULT UND __gmon_start__
2:   NOTYPE WEAK DEFAULT UND _ITM_deregisterTMCloneTab
3:   NOTYPE WEAK DEFAULT UND _ITM_registerTMCloneTable
4:   FUNC WEAK DEFAULT UND __cxa_finalize@GLIBC_2.2.5 (2)
5:   NOTYPE WEAK DEFAULT UND _Jv_RegisterClasses
6:   FUNC GLOBAL DEFAULT UND PaletteTraceBegin@LIBARTPALETTE_1 (3)
7:   FUNC GLOBAL DEFAULT UND PaletteTraceEnd@LIBARTPALETTE_1 (3)
8:   FUNC GLOBAL DEFAULT UND _ZN3art10DupCloexecEi
9:   FUNC GLOBAL DEFAULT UND _ZN3art10IsZipMagicEj
10:   FUNC GLOBAL DEFAULT UND _ZN3art10ZipArchive10Open
11:   FUNC GLOBAL DEFAULT UND _ZN3art10ZipArchiveD1Ev
12:   FUNC GLOBAL DEFAULT UND _ZN3art16OpenAndReadMagic
13:   FUNC GLOBAL DEFAULT UND _ZN3art17ReadMagicAndRese
14:   FUNC GLOBAL DEFAULT UND _ZN3art6MemMap16MapFileAt
15:   FUNC GLOBAL DEFAULT UND _ZN3art6MemMap4swapERS0_
16:   FUNC GLOBAL DEFAULT UND _ZN3art6MemMap7DoResetEv
17:   FUNC GLOBAL DEFAULT UND _ZN3art6MemMap7ProtectEi
18:   FUNC GLOBAL DEFAULT UND _ZN3art6MemMapC1EOS0_
19:   FUNC GLOBAL DEFAULT UND _ZN3art6MemMapD1Ev
20:   FUNC GLOBAL DEFAULT UND _ZN3art8ZipEntry14IsUncom
21:   FUNC GLOBAL DEFAULT UND _ZN3art8ZipEntry15Extract
22:   FUNC GLOBAL DEFAULT UND _ZN3art8ZipEntry19MapDire
23:   FUNC GLOBAL DEFAULT UND _ZN3art8ZipEntry21GetUnco
24:   FUNC GLOBAL DEFAULT UND _ZN3art8ZipEntry8GetCrc32
25:   FUNC GLOBAL DEFAULT UND _ZN7android4base10LogMess
26:   FUNC GLOBAL DEFAULT UND _ZN7android4base10LogMess
27:   FUNC GLOBAL DEFAULT UND _ZN7android4base10LogMess
28:   FUNC GLOBAL DEFAULT UND _ZN7android4base12StringP
29:   FUNC GLOBAL DEFAULT UND _ZN7android4base21GetMini
30:   FUNC GLOBAL DEFAULT UND _ZN9unix_file6FdFile7Rele
31:   FUNC GLOBAL DEFAULT UND _ZN9unix_file6FdFileC1Eib
32:   FUNC GLOBAL DEFAULT UND _ZN9unix_file6FdFileD1Ev
33:   FUNC GLOBAL DEFAULT UND _ZN9unix_file6FdFileaSEOS
34:   FUNC GLOBAL DEFAULT UND _ZNK3art10ZipArchive4Find
35:   FUNC GLOBAL DEFAULT UND _ZNK3art8ZipEntry11IsAlig
36:   FUNC GLOBAL DEFAULT UND _ZNK9unix_file6FdFile2FdE
37:   FUNC GLOBAL DEFAULT UND _ZNKSt3__120__vector_base
38:   FUNC GLOBAL DEFAULT UND _ZNKSt3__121__basic_strin
39:   FUNC GLOBAL DEFAULT UND _ZNKSt3__16locale9use_fac
40:   FUNC GLOBAL DEFAULT UND _ZNKSt3__18ios_base6getlo
41:   FUNC GLOBAL DEFAULT UND _ZNSt3__112basic_stringIc
42:   FUNC GLOBAL DEFAULT UND _ZNSt3__112basic_stringIc
43:   FUNC GLOBAL DEFAULT UND _ZNSt3__112basic_stringIc
44:   FUNC GLOBAL DEFAULT UND _ZNSt3__113basic_ostreamI
45:   FUNC GLOBAL DEFAULT UND _ZNSt3__113basic_ostreamI
46:   FUNC GLOBAL DEFAULT UND _ZNSt3__113basic_ostreamI
47:   OBJECT GLOBAL DEFAULT UND _ZNSt3__15ctypeIcE2idE
48:   FUNC GLOBAL DEFAULT UND _ZNSt3__16localeD1Ev
49:   FUNC GLOBAL DEFAULT UND _ZNSt3__18ios_base5clearE
50:   OBJECT GLOBAL DEFAULT UND _ZTVN9unix_file6FdFileE
51:   FUNC GLOBAL DEFAULT UND _ZdlPv
52:   FUNC GLOBAL DEFAULT UND _Znwm
53:   FUNC GLOBAL DEFAULT UND __errno_location@GLIBC_2.2.5 (4)
54:   FUNC GLOBAL DEFAULT UND __fxstat@GLIBC_2.2.5 (2)
55:   FUNC GLOBAL DEFAULT UND __stack_chk_fail@GLIBC_2.4 (5)
56:   FUNC GLOBAL DEFAULT UND abort@GLIBC_2.2.5 (2)
57:   FUNC GLOBAL DEFAULT UND memcpy@GLIBC_2.14 (6)
58:   FUNC GLOBAL DEFAULT UND memset@GLIBC_2.2.5 (2)
59:   FUNC GLOBAL DEFAULT UND strerror@GLIBC_2.2.5 (2)
60:   FUNC GLOBAL DEFAULT UND strlen@GLIBC_2.2.5 (2)
61:   FUNC GLOBAL DEFAULT UND memmove@GLIBC_2.2.5 (2)
62:   FUNC GLOBAL DEFAULT UND _ZN7android4base13StringA
63:   FUNC GLOBAL DEFAULT UND _ZNSt3__112basic_stringIc
64:   FUNC GLOBAL DEFAULT UND _ZNSt3__112basic_stringIc
65:   FUNC GLOBAL DEFAULT UND _ZNSt3__112basic_stringIc
66:   FUNC GLOBAL DEFAULT UND _ZNSt3__113basic_ostreamI
67:   FUNC GLOBAL DEFAULT UND _ZNSt3__1plIcNS_11char_tr
68:   FUNC GLOBAL DEFAULT UND _ZNSt3__112basic_stringIc
69:   FUNC GLOBAL DEFAULT UND _ZNSt3__113basic_ostreamI
70:   FUNC GLOBAL DEFAULT UND _ZNSt3__113basic_ostreamI
71:   FUNC GLOBAL DEFAULT UND _ZNSt3__113basic_ostreamI
72:   FUNC GLOBAL DEFAULT UND _ZNSt3__113basic_ostreamI
73:   FUNC GLOBAL DEFAULT UND _ZNSt3__113basic_ostreamI
74:   FUNC GLOBAL DEFAULT UND _ZNSt3__113basic_ostreamI
75:   FUNC GLOBAL DEFAULT UND _ZNSt3__115basic_streambu
76:   FUNC GLOBAL DEFAULT UND _ZNSt3__115basic_streambu
77:   FUNC GLOBAL DEFAULT UND _ZNSt3__115basic_streambu
78:   FUNC GLOBAL DEFAULT UND _ZNSt3__115basic_streambu
79:   FUNC GLOBAL DEFAULT UND _ZNSt3__115basic_streambu
80:   FUNC GLOBAL DEFAULT UND _ZNSt3__115basic_streambu
81:   FUNC GLOBAL DEFAULT UND _ZNSt3__115basic_streambu
82:   FUNC GLOBAL DEFAULT UND _ZNSt3__115basic_streambu
83:   FUNC GLOBAL DEFAULT UND _ZNSt3__115basic_streambu
84:   FUNC GLOBAL DEFAULT UND _ZNSt3__18ios_base4initEP
85:   FUNC GLOBAL DEFAULT UND _ZNSt3__19basic_iosIcNS_1
86:   FUNC GLOBAL DEFAULT UND _ZTv0_n24_NSt3__113basic_
87:   FUNC GLOBAL DEFAULT UND _ZTv0_n24_NSt3__113basic_
88:   FUNC GLOBAL DEFAULT UND __cxa_pure_virtual
89:   FUNC GLOBAL DEFAULT UND adler32
90:   FUNC GLOBAL DEFAULT UND strtol@GLIBC_2.2.5 (2)
91:   FUNC GLOBAL DEFAULT UND madvise@GLIBC_2.2.5 (2)
92:   FUNC GLOBAL DEFAULT UND _Z12CloseArchiveP10ZipArc
93:   FUNC GLOBAL DEFAULT UND _Z15ErrorCodeStringi
94:   FUNC GLOBAL DEFAULT UND _Z15ExtractToMemoryP10Zip
95:   FUNC GLOBAL DEFAULT UND _Z21OpenArchiveFromMemory
96:   FUNC GLOBAL DEFAULT UND _Z9FindEntryP10ZipArchive
97:   FUNC GLOBAL DEFAULT UND _ZN9ZipStringC1EPKc
98:   FUNC GLOBAL DEFAULT UND _ZNKSt3__112basic_stringI
99:   FUNC GLOBAL DEFAULT UND _ZNSt3__112basic_stringIc
100:   FUNC GLOBAL DEFAULT UND free@GLIBC_2.2.5 (2)
101:   FUNC GLOBAL DEFAULT UND realpath@GLIBC_2.3 (7)
102:   FUNC GLOBAL DEFAULT UND strrchr@GLIBC_2.2.5 (2)
103:   FUNC GLOBAL DEFAULT UND strcmp@GLIBC_2.2.5 (2)
104:   FUNC GLOBAL DEFAULT UND _ZN7android4base13StringA
105:   FUNC GLOBAL DEFAULT UND _ZNSt3__112__next_primeEm
106:   FUNC GLOBAL DEFAULT UND _ZNSt3__112basic_stringIc
107:   FUNC GLOBAL DEFAULT UND _ZdaPv
108:   FUNC GLOBAL DEFAULT UND _Znam
109:   FUNC GLOBAL DEFAULT UND memcmp@GLIBC_2.2.5 (2)
110:   OBJECT WEAK DEFAULT 21 _ZTCNSt3__119basic_ostrin
111:   FUNC GLOBAL PROTECTED 12 _ZNK3art16ArtDexFileLoade
112:   FUNC GLOBAL PROTECTED 12 _ZN3art16PrettyDescriptor
113:   FUNC GLOBAL PROTECTED 12 _ZN3art7DexFile11FindTryI
114:   FUNC GLOBAL PROTECTED 12 _ZNK3art13DexFileLoader4O
115:   OBJECT WEAK PROTECTED 9 _ZN3art14CompactDexFile16
116:   FUNC GLOBAL PROTECTED 12 _ZN3art18CompactOffsetTab
117:   FUNC GLOBAL PROTECTED 12 _ZN3art15DexFileVerifier2
118:   FUNC WEAK PROTECTED 12 _ZNK3art7DexFile19GetInde
119:   FUNC GLOBAL PROTECTED 12 _ZN3art15DexFileVerifier2
120:   FUNC GLOBAL PROTECTED 12 _ZN3art15DexFileVerifier2
121:   FUNC GLOBAL PROTECTED 12 _ZNK3art9Signature8ToStri
122:   FUNC GLOBAL PROTECTED 12 _ZN3art15StandardDexFile1
123:   FUNC GLOBAL PROTECTED 12 _ZNK3art15StandardDexFile
124:   FUNC GLOBAL PROTECTED 12 _ZN3artlsERNSt3__113basic
125:   FUNC GLOBAL PROTECTED 12 _ZNK3art14CompactDexFile1
126:   FUNC GLOBAL PROTECTED 12 _ZNK3art14CompactDexFile1
127:   FUNC GLOBAL PROTECTED 12 _ZN3artlsERNSt3__113basic
128:   FUNC WEAK PROTECTED 12 _ZNSt3__15dequeINS_5tuple
129:   FUNC WEAK PROTECTED 12 _ZN3art26VarArgsInstructi
130:   FUNC GLOBAL PROTECTED 12 _ZN3art14CountUtf8BytesEP
131:   FUNC GLOBAL PROTECTED 12 _ZN3artlsERNSt3__113basic
132:   FUNC GLOBAL DEFAULT 13 _init
133:   FUNC WEAK PROTECTED 12 _ZNSt3__115basic_stringbu
134:   OBJECT WEAK DEFAULT 21 _ZTVNSt3__115basic_string
135:   FUNC WEAK PROTECTED 12 _ZTv0_n24_NSt3__119basic_
136:   FUNC GLOBAL PROTECTED 12 _ZN3art20CatchHandlerIter
137:   FUNC GLOBAL PROTECTED 12 _ZNK3art15TypeLookupTable
138:   FUNC WEAK PROTECTED 12 _ZN3art15DexFileVerifier2
139:   FUNC GLOBAL PROTECTED 12 _ZN3art22AppendPrettyDesc
140:   FUNC GLOBAL PROTECTED 12 _ZN3art15DexFileVerifier2
141:   FUNC GLOBAL PROTECTED 12 _ZN3art22CountModifiedUtf
142:   FUNC GLOBAL PROTECTED 12 _ZN3art3dexlsERNSt3__113b
143:   FUNC WEAK PROTECTED 12 _ZN3art11DexZipEntryD0Ev
144:   FUNC GLOBAL PROTECTED 12 _ZN3art15DexFileVerifier2
145:   OBJECT GLOBAL PROTECTED 9 _ZN3art15StandardDexFile1
146:   FUNC GLOBAL PROTECTED 12 _ZN3art15DexFileVerifier2
147:   OBJECT GLOBAL PROTECTED 21 _ZN3art11Instruction17kIn
148:   FUNC GLOBAL PROTECTED 12 _ZNK3art16ArtDexFileLoade
149:   FUNC GLOBAL PROTECTED 12 _ZN3artlsERNSt3__113basic
150:   FUNC GLOBAL PROTECTED 12 _ZN3art3dex8tracking24Dex
151:   FUNC GLOBAL PROTECTED 12 _ZN3art3dex8tracking24Dex
152:   FUNC WEAK PROTECTED 12 _ZN3art19InstructionOpera
153:   FUNC GLOBAL PROTECTED 12 _ZN3art14CompactDexFile19
154:   FUNC GLOBAL PROTECTED 12 _ZN3art7DexFileC2EPKhmS2_
155:   FUNC GLOBAL PROTECTED 12 _ZN3art3dex8tracking24Dex
156:   FUNC WEAK PROTECTED 12 _ZN3art15DexFileVerifier2
157:   FUNC GLOBAL PROTECTED 12 _ZN3artlsERNSt3__113basic
158:   OBJECT GLOBAL PROTECTED 21 _ZTVN3art16ArtDexFileLoad
159:   FUNC GLOBAL PROTECTED 12 _ZN3art7DexFile16ReadUnsi
160:   FUNC WEAK PROTECTED 12 _ZNK3art7DexFile17GetInde
161:   FUNC GLOBAL PROTECTED 12 _ZN3art15DexFileVerifier1
162:   FUNC GLOBAL PROTECTED 12 _ZN3artlsERNSt3__113basic
163:   FUNC WEAK PROTECTED 12 _ZNSt3__124__put_characte
164:   FUNC GLOBAL PROTECTED 12 _ZNK3art7DexFile11EnableW
165:   FUNC GLOBAL PROTECTED 12 _ZN3artlsERNSt3__113basic
166:   FUNC WEAK PROTECTED 12 _ZN3art15DexFileVerifier2
167:   FUNC WEAK PROTECTED 12 _ZN3art7HashSetINSt3__14p
168:   OBJECT WEAK PROTECTED 9 _ZN3art18CompactOffsetTab
169:   FUNC GLOBAL PROTECTED 12 _ZN3art15DexFileVerifier1
170:   FUNC GLOBAL PROTECTED 12 _ZN3art15PrintableStringE
171:   FUNC GLOBAL PROTECTED 12 _ZNK3art15StandardDexFile
172:   FUNC GLOBAL PROTECTED 12 _ZN3art14CompactDexFile14
173:   FUNC WEAK PROTECTED 12 _ZN3art9Primitive10Descri
174:   FUNC GLOBAL PROTECTED 12 _ZNK3art16DexLayoutSectio
175:   FUNC GLOBAL PROTECTED 12 _ZN3art13DexFileLoader23G
176:   FUNC GLOBAL PROTECTED 12 _ZN3artlsERNSt3__113basic
177:   FUNC GLOBAL PROTECTED 12 _ZN3art15DexFileVerifier2
178:   FUNC GLOBAL PROTECTED 12 _ZN3art13DexFileLoader22I
179:   FUNC GLOBAL PROTECTED 12 _ZN3art3dex8tracking15Reg
180:   FUNC GLOBAL PROTECTED 12 _ZN3art14CompactDexFile10
181:   FUNC WEAK PROTECTED 12 _ZN3art13DexFileLoaderD0E
182:   FUNC GLOBAL PROTECTED 12 _ZN3art15DexFileVerifier1
183:   FUNC GLOBAL PROTECTED 12 _ZN3art15DexFileVerifier1
184:   FUNC GLOBAL PROTECTED 12 _ZN3art15DexFileVerifier3
185:   FUNC GLOBAL PROTECTED 12 _ZN3art15DexFileVerifier3
186:   OBJECT GLOBAL PROTECTED 9 _ZN3art15StandardDexFile9
187:   FUNC GLOBAL PROTECTED 12 _ZN3art13DexFileLoader12I
188:   FUNC GLOBAL PROTECTED 12 _ZNK3art29NoReceiverInstr
189:   FUNC GLOBAL PROTECTED 12 _ZNK3art7DexFile11FindPro
190:   FUNC GLOBAL PROTECTED 12 _ZNK3art16ArtDexFileLoade
191:   FUNC WEAK PROTECTED 12 _ZNSt3__16vectorINS_10uni
192:   FUNC GLOBAL PROTECTED 12 _ZNK3art7DexFile20CheckMa
193:   FUNC GLOBAL PROTECTED 12 _ZN3art15DexFileVerifier2
194:   FUNC WEAK PROTECTED 12 _ZNSt3__112__hash_tableIN
195:   OBJECT GLOBAL PROTECTED 21 _ZTVN3art29NoReceiverInst
196:   FUNC GLOBAL PROTECTED 12 _ZNK3art16ArtDexFileLoade
197:   FUNC WEAK PROTECTED 12 _ZN3art15DexFileVerifier2
198:   FUNC GLOBAL PROTECTED 12 _ZN3art15DexFileVerifier3
199:   FUNC WEAK PROTECTED 12 _ZNSt3__119basic_ostrings
200:   FUNC GLOBAL PROTECTED 12 _ZN3artlsERNSt3__113basic
201:   FUNC GLOBAL PROTECTED 12 _ZNK3art14CompactDexFile1
202:   FUNC WEAK PROTECTED 12 _ZNSt3__115basic_stringbu
203:   FUNC GLOBAL PROTECTED 12 _ZN3art20CatchHandlerIter
204:   FUNC GLOBAL PROTECTED 12 _ZN3art3dex8tracking24Dex
205:   FUNC GLOBAL PROTECTED 12 _ZN3art15DexFileVerifier2
206:   FUNC GLOBAL PROTECTED 12 _ZNK3art16ArtDexFileLoade
207:   FUNC GLOBAL PROTECTED 12 _ZN3art17IsValidMemberNam
208:   FUNC GLOBAL PROTECTED 12 _ZNK3art11Instruction9Dum
209:   FUNC GLOBAL PROTECTED 12 _ZN3art32ComputeUtf16Hash
210:   FUNC WEAK PROTECTED 12 _ZN3art13ClassAccessor5Fi
211:   FUNC GLOBAL PROTECTED 12 _ZN3art3dex8tracking24Dex
212:   FUNC WEAK PROTECTED 12 _ZN3art15DexFileVerifier2
213:   FUNC GLOBAL PROTECTED 12 _ZN3art15DexFileVerifier2
214:   FUNC GLOBAL PROTECTED 12 _ZNK3art15StandardDexFile
215:   FUNC GLOBAL PROTECTED 12 _ZN3art13DexFileLoader19G
216:   FUNC GLOBAL PROTECTED 12 _ZN3art16ArtDexFileLoader
217:   FUNC GLOBAL PROTECTED 12 _ZN3art7DexFile4InitEPNSt
218:   FUNC WEAK PROTECTED 12 _ZTv0_n24_NSt3__119basic_
219:   FUNC GLOBAL PROTECTED 12 _ZN3art15DexFileVerifier2
220:   FUNC WEAK PROTECTED 12 _ZN3art15DexFileVerifier2
221:   FUNC GLOBAL PROTECTED 12 _ZN3art18CompactOffsetTab
222:   FUNC WEAK PROTECTED 12 _ZN3art15DexFileVerifier2
223:   FUNC GLOBAL PROTECTED 12 _ZN3art22CountModifiedUtf
224:   FUNC GLOBAL PROTECTED 12 _ZNK3art16ArtDexFileLoade
225:   FUNC GLOBAL PROTECTED 12 _ZNK3art7DexFile12FindMet
226:   FUNC GLOBAL PROTECTED 12 _ZNK3art11Instruction7Dum
227:   FUNC GLOBAL PROTECTED 12 _ZNK3art13DexFileLoader19
228:   FUNC GLOBAL PROTECTED 12 _ZN3art15DexFileVerifier1
229:   FUNC GLOBAL PROTECTED 12 _ZN3art15DexFileVerifier2
230:   FUNC GLOBAL PROTECTED 12 _ZN3art7DexFileD0Ev
231:   FUNC GLOBAL PROTECTED 12 _ZN3art13DexFileLoader18I
232:   FUNC GLOBAL PROTECTED 12 _ZN3art15DexFileVerifier1
233:   FUNC GLOBAL PROTECTED 12 _ZN3art43CompareModifiedU
234:   FUNC GLOBAL PROTECTED 12 _ZN3art15DescriptorToDotE
235:   FUNC GLOBAL PROTECTED 12 _ZNK3art7DexFile24GetProt
236:   FUNC GLOBAL PROTECTED 12 _ZN3art15DexFileVerifier2
237:   FUNC GLOBAL PROTECTED 12 _ZN3art15DexFileVerifier2
238:   FUNC GLOBAL PROTECTED 12 _ZN3art15DexFileVerifier2
239:   FUNC GLOBAL PROTECTED 12 _ZN3art15StandardDexFile1
240:   FUNC GLOBAL PROTECTED 12 _ZN3art15TypeLookupTableC
241:   FUNC GLOBAL PROTECTED 12 _ZN3art13DexFileLoader25G
242:   FUNC WEAK PROTECTED 12 _ZNSt3__16vectorIhNS_9all
243:   FUNC GLOBAL PROTECTED 12 _ZN3art18CompactOffsetTab
244:   FUNC WEAK PROTECTED 12 _ZN3art13DexZipArchive4Op
245:   OBJECT GLOBAL PROTECTED 21 _ZTVN3art15StandardDexFil
246:   FUNC GLOBAL PROTECTED 12 _ZNK3art26VarArgsInstruct
247:   FUNC GLOBAL PROTECTED 12 _ZNK3art15StandardDexFile
248:   FUNC GLOBAL PROTECTED 12 _ZN3art23ComputeModifiedU
249:   FUNC WEAK PROTECTED 12 _ZNK3art7DexFile13GetCall
250:   FUNC GLOBAL PROTECTED 12 _ZN3artlsERNSt3__113basic
251:   FUNC GLOBAL PROTECTED 12 _ZN3art15DexFileVerifier1
252:   FUNC WEAK PROTECTED 12 _ZN3art15DexFileVerifier2
253:   FUNC GLOBAL PROTECTED 12 _ZN3art15DexFileVerifier3
254:   FUNC GLOBAL PROTECTED 12 _ZN3artlsERNSt3__113basic
255:   FUNC GLOBAL PROTECTED 12 _ZN3art25EncodedArrayValu
256:   FUNC GLOBAL PROTECTED 12 _ZNK3art13DexFileLoader22
257:   FUNC GLOBAL PROTECTED 12 _ZN3art14CompactDexFile17
258:   FUNC GLOBAL PROTECTED 12 _ZN3art7DexFile13ReadSign
259:   FUNC GLOBAL PROTECTED 12 _ZN3art22IsValidBinaryCla
260:   FUNC WEAK PROTECTED 12 _ZNK3art7DexFile19GetInde
261:   FUNC WEAK PROTECTED 12 _ZNKSt3__115basic_stringb
262:   FUNC GLOBAL PROTECTED 12 _ZN3art15DexFileVerifier1
263:   OBJECT GLOBAL PROTECTED 9 _ZN3art11Instruction23kIn
264:   FUNC GLOBAL PROTECTED 12 _ZNK3art14CompactDexFile1
265:   FUNC WEAK PROTECTED 12 _ZNSt3__115basic_stringbu
266:   FUNC GLOBAL PROTECTED 12 _ZN3art15DexFileVerifier2
267:   FUNC GLOBAL PROTECTED 12 _ZN3art15DexFileVerifier2
268:   FUNC GLOBAL PROTECTED 12 _ZNK3art11Instruction10Du
269:   FUNC GLOBAL PROTECTED 12 _ZN3artlsERNSt3__113basic
270:   FUNC WEAK PROTECTED 12 _ZNK3art14CompactDexFile1
271:   FUNC GLOBAL PROTECTED 12 _ZNK3art7DexFile10PrettyT
272:   FUNC GLOBAL PROTECTED 12 _ZN3art15DexFileVerifier6
273:   FUNC GLOBAL PROTECTED 12 _ZN3art15DexFileVerifier1
274:   FUNC GLOBAL PROTECTED 12 _ZN3art15DexFileVerifier2
275:   FUNC WEAK PROTECTED 12 _ZN3art15DexFileVerifier2
276:   OBJECT GLOBAL PROTECTED 21 _ZTVN3art26VarArgsInstruc
277:   FUNC GLOBAL PROTECTED 12 _ZN3art16PrettyDescriptor
278:   FUNC GLOBAL PROTECTED 12 _ZNK3art13DexFileLoader20
279:   FUNC GLOBAL PROTECTED 12 _ZN3art15DexFileVerifier2
280:   FUNC WEAK PROTECTED 12 _ZNSt3__112__hash_tableIN
281:   OBJECT GLOBAL PROTECTED 21 _ZTVN3art24RangeInstructi
282:   FUNC WEAK PROTECTED 12 _ZN3art16ArtDexFileLoader
283:   FUNC GLOBAL PROTECTED 12 _ZNK3art13DexFileLoader7O
284:   FUNC GLOBAL PROTECTED 12 _ZN3art3dexlsERNSt3__113b
285:   FUNC GLOBAL PROTECTED 12 _ZN3art3dex8tracking24Dex
286:   FUNC GLOBAL PROTECTED 12 _ZN3art15DexFileVerifier1
287:   FUNC WEAK PROTECTED 12 _ZN3art15DexFileVerifier2
288:   OBJECT WEAK PROTECTED 9 _ZN3art14CompactDexFile9k
289:   FUNC GLOBAL PROTECTED 12 _ZN3art18CompactOffsetTab
290:   OBJECT WEAK DEFAULT 21 _ZTTNSt3__119basic_ostrin
291:   FUNC WEAK PROTECTED 12 _ZNSt3__114__split_buffer
292:   FUNC GLOBAL PROTECTED 12 _ZN3artlsERNSt3__113basic
293:   FUNC GLOBAL PROTECTED 12 _ZNK3art7DexFile12FindCla
294:   FUNC WEAK PROTECTED 12 _ZNSt3__119basic_ostrings
295:   FUNC WEAK PROTECTED 12 _ZN3art15DexFileVerifier2
296:   FUNC GLOBAL PROTECTED 12 _ZNK3art7DexFile12FindStr
297:   FUNC GLOBAL PROTECTED 12 _ZN3art15DexFileVerifier1
298:   FUNC GLOBAL PROTECTED 12 _ZN3art15DexFileVerifier9
299:   FUNC GLOBAL PROTECTED 12 _ZN3art15GetJniShortNameE
300:   FUNC WEAK PROTECTED 12 _ZN7android4base13ErrnoRe
301:   FUNC GLOBAL PROTECTED 12 _ZN3art20CatchHandlerIter
302:   FUNC GLOBAL PROTECTED 12 _ZN3artlsERNSt3__113basic
303:   FUNC WEAK PROTECTED 12 _ZN3art15DexFileVerifier2
304:   FUNC GLOBAL PROTECTED 12 _ZN3art14CompactDexFile12
305:   FUNC GLOBAL PROTECTED 12 _ZN3art14CompactDexFileC2
306:   FUNC WEAK PROTECTED 12 _ZN3art15DexFileVerifier2
307:   FUNC GLOBAL PROTECTED 12 _ZNK3art18CompactOffsetTa
308:   FUNC GLOBAL PROTECTED 12 _ZNK3art7DexFile18FindCod
309:   FUNC GLOBAL PROTECTED 12 _ZNK3art7DexFile6Header10
310:   FUNC GLOBAL PROTECTED 12 _ZNK3art16ArtDexFileLoade
311:   FUNC GLOBAL PROTECTED 12 _ZNK3art7DexFile17Calcula
312:   FUNC WEAK PROTECTED 12 _ZNSt3__115basic_stringbu
313:   FUNC GLOBAL PROTECTED 12 _ZN3art20CatchHandlerIter
314:   FUNC GLOBAL PROTECTED 12 _ZNK3art9SignatureeqENSt3
315:   FUNC GLOBAL PROTECTED 12 _ZNK3art7DexFile11FindFie
316:   OBJECT WEAK DEFAULT 21 _ZTVNSt3__119basic_ostrin
317:   FUNC GLOBAL PROTECTED 12 _ZN3art16DescriptorToName
318:   FUNC GLOBAL PROTECTED 12 _ZN3art7DexFile15ReadUnsi
319:   FUNC WEAK PROTECTED 12 _ZNK3art7DexFile18GetInde
320:   FUNC WEAK PROTECTED 12 _ZN3art11DexZipEntryD2Ev
321:   FUNC GLOBAL PROTECTED 12 _ZN3art15DexFileVerifier2
322:   FUNC GLOBAL PROTECTED 12 _ZN3art7DexFileD1Ev
323:   FUNC GLOBAL PROTECTED 12 _ZN3art13PrintableCharEt
324:   FUNC GLOBAL PROTECTED 12 _ZN3art3dex8tracking24Dex
325:   FUNC GLOBAL PROTECTED 12 _ZN3art21PrettyJavaAccess
326:   FUNC GLOBAL PROTECTED 12 _ZN3art15TypeLookupTable6
327:   FUNC GLOBAL PROTECTED 12 _ZNK3art16ArtDexFileLoade
328:   FUNC GLOBAL PROTECTED 12 _ZN3art7DexFile19Checksum
329:   FUNC WEAK PROTECTED 12 _ZNK3art20CodeItemDataAcc
330:   FUNC GLOBAL PROTECTED 12 _ZN3art7DexFile29Initiali
331:   FUNC WEAK PROTECTED 12 _ZN3art15DexFileVerifier2
332:   FUNC WEAK PROTECTED 12 _ZNK3art15StandardDexFile
333:   FUNC GLOBAL PROTECTED 12 _ZN3art15TypeLookupTable1
334:   FUNC GLOBAL PROTECTED 12 _ZN3art15TypeLookupTable4
335:   FUNC GLOBAL PROTECTED 12 _ZNK3art15TypeLookupTable
336:   FUNC GLOBAL PROTECTED 12 _ZNK3art16ArtDexFileLoade
337:   FUNC GLOBAL PROTECTED 12 _ZN3art25EncodedArrayValu
338:   FUNC GLOBAL PROTECTED 12 _ZN3art20CatchHandlerIter
339:   FUNC WEAK PROTECTED 12 _ZNK3art13DexZipArchive4F
340:   FUNC GLOBAL PROTECTED 12 _ZN3art15DexFileVerifier2
341:   FUNC GLOBAL PROTECTED 12 _ZN3art15TypeLookupTable1
342:   FUNC GLOBAL PROTECTED 12 _ZN3art15TypeLookupTableC
343:   FUNC WEAK PROTECTED 12 _ZNSt3__114__split_buffer
344:   FUNC WEAK PROTECTED 12 _ZN3art15DexFileVerifier2
345:   FUNC WEAK PROTECTED 12 _ZNSt3__112__hash_tableIN
346:   FUNC GLOBAL PROTECTED 12 _ZN3art15DexFileVerifier2
347:   FUNC GLOBAL PROTECTED 12 _ZN3art15DexFileVerifier2
348:   FUNC GLOBAL PROTECTED 12 _ZNK3art9Signature6IsVoid
349:   FUNC GLOBAL PROTECTED 12 _ZNK3art14CompactDexFile2
350:   FUNC GLOBAL PROTECTED 12 _ZN3art15DotToDescriptorE
351:   FUNC WEAK PROTECTED 12 _ZNSt3__115basic_stringbu
352:   FUNC GLOBAL PROTECTED 12 _ZN3art15DexFileVerifier2
353:   FUNC GLOBAL PROTECTED 12 _ZNK3art9Signature21GetNu
354:   FUNC GLOBAL PROTECTED 12 _ZN3art9Primitive16Pretty
355:   FUNC GLOBAL PROTECTED 12 _ZN3art20CatchHandlerIter
356:   FUNC WEAK PROTECTED 12 _ZN3art11DexZipEntry7Extr
357:   FUNC GLOBAL PROTECTED 12 _ZN3art15DexFileVerifier2
358:   FUNC GLOBAL PROTECTED 12 _ZN3art15TypeLookupTable1
359:   FUNC GLOBAL DEFAULT 14 _fini
360:   FUNC GLOBAL PROTECTED 12 _ZN3art7DexFile14ReadSign
361:   FUNC GLOBAL PROTECTED 12 _ZN3art16DexLayoutSection
362:   FUNC WEAK PROTECTED 12 _ZN3art13DexFileLoaderD2E
363:   FUNC GLOBAL PROTECTED 12 _ZN3art15DexFileVerifier2
364:   FUNC WEAK PROTECTED 12 _ZN3art15DexFileVerifier2
365:   FUNC GLOBAL PROTECTED 12 _ZNK3art7DexFile12Disable
366:   OBJECT GLOBAL PROTECTED 21 _ZTVN3art14CompactDexFile
367:   FUNC GLOBAL PROTECTED 12 _ZN3artlsERNSt3__113basic
368:   FUNC GLOBAL PROTECTED 12 _ZN3art15DexFileVerifier2
369:   FUNC GLOBAL PROTECTED 12 _ZN3artlsERNSt3__113basic
370:   FUNC GLOBAL PROTECTED 12 _ZN3art13DexFileLoader12I
371:   FUNC GLOBAL PROTECTED 12 _ZN3art18CompactOffsetTab
372:   OBJECT WEAK PROTECTED 21 _ZTVN3art11DexZipEntryE
373:   FUNC GLOBAL PROTECTED 12 _ZN3art15DexFileVerifier2
374:   FUNC GLOBAL PROTECTED 12 _ZN3art15DexFileVerifier2
375:   FUNC GLOBAL PROTECTED 12 _ZN3art15DexFileVerifier2
376:   FUNC WEAK PROTECTED 12 _ZN3art24RangeInstruction
377:   FUNC WEAK PROTECTED 12 _ZN3art29NoReceiverInstru
378:   FUNC GLOBAL PROTECTED 12 _ZN3art19IsValidJniClassN
379:   FUNC GLOBAL PROTECTED 12 _ZNK3art17DexLayoutSectio
380:   FUNC GLOBAL PROTECTED 12 _ZN3art3dex8tracking24Dex
381:   FUNC GLOBAL PROTECTED 12 _ZN3art15DexFileVerifier2
382:   FUNC WEAK PROTECTED 12 _ZN3art15DexFileVerifier2
383:   FUNC WEAK PROTECTED 12 _ZN3art13ClassAccessorC2E
384:   FUNC GLOBAL PROTECTED 12 _ZN3artlsERNSt3__113basic
385:   FUNC GLOBAL PROTECTED 12 _ZNK3art11Instruction28Si
386:   FUNC GLOBAL PROTECTED 12 _ZNK3art11Instruction39Co
387:   FUNC WEAK PROTECTED 12 _ZN3art13ClassAccessor6Me
388:   FUNC GLOBAL PROTECTED 12 _ZNK3art7DexFile14GetPerm
389:   FUNC GLOBAL PROTECTED 12 _ZN3art15DexFileVerifier3
390:   FUNC GLOBAL PROTECTED 12 _ZN3art26ConvertModifiedU
391:   FUNC GLOBAL PROTECTED 12 _ZNK3art7DexFile12PrettyM
392:   FUNC GLOBAL PROTECTED 12 _ZN3art15DexFileVerifier8
393:   FUNC GLOBAL PROTECTED 12 _ZNK3art11Instruction15Ge
394:   FUNC GLOBAL PROTECTED 12 _ZNK3art24RangeInstructio
395:   FUNC GLOBAL PROTECTED 12 _ZN3art13DexFileLoader10O
396:   FUNC GLOBAL PROTECTED 12 _ZNK3art7DexFile10IsReadO
397:   FUNC GLOBAL PROTECTED 12 _ZNK3art7DexFile10FindTyp
398:   OBJECT GLOBAL PROTECTED 21 _ZTVN3art7DexFileE
399:   FUNC GLOBAL PROTECTED 12 _ZNK3art13DexFileLoader21
400:   OBJECT GLOBAL PROTECTED 21 _ZTVN3art13DexFileLoaderE
401:   FUNC GLOBAL PROTECTED 12 _ZN3art9Primitive15BoxedD
402:   FUNC GLOBAL PROTECTED 12 _ZN3art26ConvertUtf16ToMo
403:   FUNC GLOBAL PROTECTED 12 _ZN3art17IsValidDescripto
404:   FUNC GLOBAL PROTECTED 12 _ZN3art25EncodedArrayValu
405:   FUNC GLOBAL PROTECTED 12 _ZNK3art7DexFile14CreateT
406:   FUNC GLOBAL PROTECTED 12 _ZN3art20CatchHandlerIter
407:   FUNC GLOBAL PROTECTED 12 _ZN3art15DexFileVerifier1
408:   FUNC WEAK PROTECTED 12 _ZN3art15DexFileVerifier2
409:   FUNC GLOBAL PROTECTED 12 _ZNK3art11Instruction14Ca
410:   FUNC GLOBAL PROTECTED 12 _ZN3artlsERNSt3__113basic
411:   FUNC GLOBAL PROTECTED 12 _ZN3art26ConvertModifiedU
412:   FUNC WEAK PROTECTED 12 _ZN3art14CompactDexFileD0
413:   FUNC GLOBAL PROTECTED 12 _ZN3art15DexFileVerifier1
414:   FUNC GLOBAL PROTECTED 12 _ZNK3art16ArtDexFileLoade
415:   FUNC GLOBAL PROTECTED 12 _ZNK3art16ArtDexFileLoade
416:   FUNC GLOBAL PROTECTED 12 _ZN3art12MangleForJniERKN
417:   FUNC GLOBAL PROTECTED 12 _ZN3art15DexFileVerifier1
418:   FUNC GLOBAL PROTECTED 12 _ZN3art15DexFileVerifier3
419:   FUNC GLOBAL PROTECTED 12 _ZN3artlsERNSt3__113basic
420:   FUNC GLOBAL PROTECTED 12 _ZN3art15StandardDexFile1
421:   FUNC GLOBAL PROTECTED 12 _ZN3art15DexFileVerifier1
422:   FUNC WEAK PROTECTED 12 _ZN3art15DexFileVerifier2
423:   FUNC GLOBAL PROTECTED 12 _ZN3art7DexFileD2Ev
424:   FUNC GLOBAL PROTECTED 12 _ZNK3art7DexFile10FindTyp
425:   FUNC WEAK PROTECTED 12 _ZN3art13DexFileLoader15G
426:   FUNC GLOBAL PROTECTED 12 _ZN3art14CompactDexFileC1
427:   FUNC GLOBAL PROTECTED 12 _ZN3art18CompactOffsetTab
428:   FUNC GLOBAL PROTECTED 12 _ZN3art7DexFile17Calculat
429:   FUNC GLOBAL PROTECTED 12 _ZNK3art7DexFile11PrettyF
430:   FUNC GLOBAL PROTECTED 12 _ZN3art3dex8tracking24Dex
431:   FUNC GLOBAL PROTECTED 12 _ZN3art15DexFileVerifier2
432:   FUNC WEAK PROTECTED 12 _ZN3art15DexFileVerifier2
433:   FUNC GLOBAL PROTECTED 12 _ZN3art3dexlsERNSt3__113b
434:   FUNC WEAK PROTECTED 12 _ZNSt3__115basic_stringbu
435:   FUNC GLOBAL PROTECTED 12 _ZN3art15StandardDexFile1
436:   FUNC WEAK PROTECTED 12 _ZN3art15DexFileVerifier2
437:   FUNC GLOBAL PROTECTED 12 _ZN3art15DexFileVerifier6
438:   FUNC WEAK PROTECTED 12 _ZN3art15StandardDexFileD
