 0x000000000000000e (SONAME)             Library soname: [libkeystore_binder.so]
  
Symbol   contains 241 entries:
Num:   Type Bind Vis Ndx Name
0:   NOTYPE LOCAL DEFAULT UND
1:   FUNC GLOBAL DEFAULT UND __cxa_finalize@LIBC (2)
2:   FUNC GLOBAL DEFAULT UND __cfi_slowpath@LIBC_OMR1 (3)
3:   FUNC GLOBAL DEFAULT UND _ZN6google8protobuf8inter
4:   FUNC GLOBAL DEFAULT UND _Znwm
5:   FUNC GLOBAL DEFAULT UND _ZN6google8protobuf8inter
6:   FUNC GLOBAL DEFAULT UND _ZN6google8protobuf11Mess
7:   FUNC GLOBAL DEFAULT UND _ZdlPv
8:   FUNC GLOBAL DEFAULT UND _ZN6google8protobuf2io22L
9:   FUNC GLOBAL DEFAULT UND _ZN6google8protobuf2io17C
10:   FUNC GLOBAL DEFAULT UND _ZN6google8protobuf8inter
11:   FUNC GLOBAL DEFAULT UND _ZN6google8protobuf8inter
12:   FUNC GLOBAL DEFAULT UND _ZN6google8protobuf2io17C
13:   FUNC GLOBAL DEFAULT UND _ZN6google8protobuf2io22L
14:   FUNC GLOBAL DEFAULT UND _ZN6google8protobuf8inter
15:   FUNC GLOBAL DEFAULT UND _ZN6google8protobuf2io17C
16:   FUNC GLOBAL DEFAULT UND _ZN6google8protobuf8inter
17:   FUNC GLOBAL DEFAULT UND _ZNK6google8protobuf11Mes
18:   FUNC GLOBAL DEFAULT UND _ZNK6google8protobuf11Mes
19:   FUNC GLOBAL DEFAULT UND _ZN6google8protobuf8inter
20:   FUNC GLOBAL DEFAULT UND _ZN6google8protobuf18Goog
21:   FUNC GLOBAL DEFAULT UND _ZN6google8protobuf8inter
22:   FUNC GLOBAL DEFAULT UND _ZN6google8protobuf2io16C
23:   FUNC GLOBAL DEFAULT UND _ZNSt3__112basic_stringIc
24:   FUNC GLOBAL DEFAULT UND _ZN6google8protobuf2io17C
25:   FUNC GLOBAL DEFAULT UND _ZN6google8protobuf8inter
26:   FUNC GLOBAL DEFAULT UND _ZN6google8protobuf8inter
27:   FUNC GLOBAL DEFAULT UND _ZN6google8protobuf8inter
28:   FUNC GLOBAL DEFAULT UND _ZN6google8protobuf8inter
29:   FUNC GLOBAL DEFAULT UND _ZN6google8protobuf8inter
30:   FUNC GLOBAL DEFAULT UND _ZNKSt3__121__basic_strin
31:   FUNC GLOBAL DEFAULT UND strlen@LIBC (2)
32:   FUNC GLOBAL DEFAULT UND _ZN6google8protobuf5Arena
33:   FUNC GLOBAL DEFAULT UND _ZNSt3__112basic_stringIc
34:   OBJECT GLOBAL DEFAULT UND _ZN6google8protobuf8inter
35:   OBJECT GLOBAL DEFAULT UND _ZTVN6google8protobuf8int
36:   OBJECT GLOBAL DEFAULT UND _ZN6google8protobuf8inter
37:   FUNC GLOBAL DEFAULT UND _ZN7android21defaultServi
38:   FUNC GLOBAL DEFAULT UND _ZN7android8String16C1EPK
39:   FUNC GLOBAL DEFAULT UND _ZN7android8String16D1Ev
40:   FUNC GLOBAL DEFAULT UND __android_log_print@LIBLOG (4)
41:   FUNC GLOBAL DEFAULT UND _ZNK6google8protobuf11Mes
42:   FUNC GLOBAL DEFAULT UND _ZN6google8protobuf11Mess
43:   FUNC GLOBAL DEFAULT UND _ZN7android8String16C1EPK
44:   FUNC GLOBAL DEFAULT UND _ZN7android8security9keym
45:   FUNC GLOBAL DEFAULT UND _ZN7android8security9keym
46:   FUNC GLOBAL DEFAULT UND _ZN7android7BBinderC1Ev
47:   FUNC GLOBAL DEFAULT UND _ZN7android7String8C1ERKN
48:   FUNC GLOBAL DEFAULT UND _ZN7android7String8D1Ev
49:   FUNC GLOBAL DEFAULT UND _ZN7android8hardware9keym
50:   FUNC GLOBAL DEFAULT UND _ZN7android8hardware9keym
51:   FUNC GLOBAL DEFAULT UND __cxa_pure_virtual
52:   FUNC GLOBAL DEFAULT UND _ZNSt3__112basic_stringIc
53:   FUNC GLOBAL DEFAULT UND _ZN7android7RefBaseC2Ev
54:   FUNC GLOBAL DEFAULT UND _ZN7android8security8keys
55:   FUNC GLOBAL DEFAULT UND _ZNK7android7BBinder13isB
56:   FUNC GLOBAL DEFAULT UND _ZN7android7BBinder10ping
57:   FUNC GLOBAL DEFAULT UND _ZN7android7BBinder4dumpE
58:   FUNC GLOBAL DEFAULT UND _ZN7android7BBinder8trans
59:   FUNC GLOBAL DEFAULT UND _ZN7android7BBinder11link
60:   FUNC GLOBAL DEFAULT UND _ZN7android7BBinder13unli
61:   FUNC GLOBAL DEFAULT UND _ZNK7android7IBinder13che
62:   FUNC GLOBAL DEFAULT UND _ZN7android7BBinder12atta
63:   FUNC GLOBAL DEFAULT UND _ZNK7android7BBinder10fin
64:   FUNC GLOBAL DEFAULT UND _ZN7android7BBinder12deta
65:   FUNC GLOBAL DEFAULT UND _ZN7android7BBinder11loca
66:   FUNC GLOBAL DEFAULT UND _ZN7android7IBinder12remo
67:   FUNC GLOBAL DEFAULT UND _ZThn8_N7android8security
68:   FUNC GLOBAL DEFAULT UND _ZN7android7RefBase10onFi
69:   FUNC GLOBAL DEFAULT UND _ZN7android7RefBase15onLa
70:   FUNC GLOBAL DEFAULT UND _ZN7android7RefBase20onIn
71:   FUNC GLOBAL DEFAULT UND _ZN7android7RefBase13onLa
72:   FUNC GLOBAL DEFAULT UND _ZN7android7BBinder10onTr
73:   FUNC GLOBAL DEFAULT UND _ZN7android8security8keys
74:   FUNC GLOBAL DEFAULT UND _ZN7android8security8keys
75:   FUNC GLOBAL DEFAULT UND _ZNK7android8security8key
76:   FUNC GLOBAL DEFAULT UND _ZTv0_n24_N7android8secur
77:   FUNC GLOBAL DEFAULT UND _ZTv0_n24_N7android8secur
78:   FUNC GLOBAL DEFAULT UND _ZN7android10IInterfaceD1
79:   FUNC GLOBAL DEFAULT UND _ZN7android10IInterfaceD0
80:   FUNC GLOBAL DEFAULT UND _ZTv0_n24_N7android10IInt
81:   FUNC GLOBAL DEFAULT UND _ZTv0_n24_N7android10IInt
82:   FUNC GLOBAL DEFAULT UND _ZN7android7IBinder19quer
83:   FUNC GLOBAL DEFAULT UND _ZNK7android7BBinder22get
84:   FUNC GLOBAL DEFAULT UND _ZN7android7BBinderD1Ev
85:   FUNC GLOBAL DEFAULT UND _ZN7android7BBinderD0Ev
86:   FUNC GLOBAL DEFAULT UND _ZTv0_n24_N7android7BBind
87:   FUNC GLOBAL DEFAULT UND _ZTv0_n24_N7android7BBind
88:   FUNC GLOBAL DEFAULT UND _ZN7android7IBinder11loca
89:   FUNC GLOBAL DEFAULT UND _ZN7android7IBinderD1Ev
90:   FUNC GLOBAL DEFAULT UND _ZN7android7IBinderD0Ev
91:   FUNC GLOBAL DEFAULT UND _ZTv0_n24_N7android7IBind
92:   FUNC GLOBAL DEFAULT UND _ZTv0_n24_N7android7IBind
93:   FUNC GLOBAL DEFAULT UND _ZN7android8security8keys
94:   FUNC GLOBAL DEFAULT UND _ZN7android7BBinderC2Ev
95:   FUNC GLOBAL DEFAULT UND _ZNSt3__117__assoc_sub_st
96:   FUNC GLOBAL DEFAULT UND _ZNSt3__118condition_vari
97:   FUNC GLOBAL DEFAULT UND _ZNSt3__15mutexD1Ev
98:   FUNC GLOBAL DEFAULT UND _ZNSt13exception_ptrD1Ev
99:   FUNC GLOBAL DEFAULT UND _ZNSt3__114__shared_count
100:   FUNC GLOBAL DEFAULT UND strzcmp16
101:   FUNC GLOBAL DEFAULT UND _ZNK7android8String164siz
102:   FUNC GLOBAL DEFAULT UND _ZNK7android7RefBase9incS
103:   FUNC GLOBAL DEFAULT UND _ZN7android7RefBaseD2Ev
104:   FUNC GLOBAL DEFAULT UND _ZNSt3__112future_errorC1
105:   FUNC GLOBAL DEFAULT UND abort@LIBC (2)
106:   FUNC GLOBAL DEFAULT UND _ZNSt3__115future_categor
107:   FUNC GLOBAL DEFAULT UND _ZN7android7BBinderD2Ev
108:   FUNC GLOBAL DEFAULT UND _ZN7android8security8keys
109:   FUNC GLOBAL DEFAULT UND _ZN7android6binder6Status
110:   FUNC GLOBAL DEFAULT UND _ZNSt3__118condition_vari
111:   FUNC GLOBAL DEFAULT UND _ZNSt3__15mutex4lockEv
112:   FUNC GLOBAL DEFAULT UND _ZN7android8String16C1ERK
113:   FUNC GLOBAL DEFAULT UND _ZNSt3__15mutex6unlockEv
114:   FUNC GLOBAL DEFAULT UND _ZN7android8hardware7deta
115:   FUNC GLOBAL DEFAULT UND _Znam
116:   FUNC GLOBAL DEFAULT UND _ZN7android8security8keys
117:   FUNC GLOBAL DEFAULT UND _ZThn8_N7android8security
118:   FUNC GLOBAL DEFAULT UND _ZN7android8security8keys
119:   FUNC GLOBAL DEFAULT UND _ZN7android8security8keys
120:   FUNC GLOBAL DEFAULT UND _ZNK7android8security8key
121:   FUNC GLOBAL DEFAULT UND _ZTv0_n24_N7android8secur
122:   FUNC GLOBAL DEFAULT UND _ZTv0_n24_N7android8secur
123:   FUNC GLOBAL DEFAULT UND _ZN7android8security8keys
124:   FUNC GLOBAL DEFAULT UND _ZN7android8security8keys
125:   FUNC GLOBAL DEFAULT UND _ZdaPv
126:   FUNC GLOBAL DEFAULT UND _ZNKSt3__120__vector_base
127:   FUNC GLOBAL DEFAULT UND _ZN7android8security8keys
128:   FUNC GLOBAL DEFAULT UND _ZThn8_N7android8security
129:   FUNC GLOBAL DEFAULT UND _ZN7android8security8keys
130:   FUNC GLOBAL DEFAULT UND _ZN7android8security8keys
131:   FUNC GLOBAL DEFAULT UND _ZNK7android8security8key
132:   FUNC GLOBAL DEFAULT UND _ZTv0_n24_N7android8secur
133:   FUNC GLOBAL DEFAULT UND _ZTv0_n24_N7android8secur
134:   FUNC GLOBAL DEFAULT UND _ZN7android8security8keys
135:   FUNC GLOBAL DEFAULT UND _ZN7android8security8keys
136:   FUNC GLOBAL DEFAULT UND _ZN7android8security8keys
137:   FUNC GLOBAL DEFAULT UND _ZThn8_N7android8security
138:   FUNC GLOBAL DEFAULT UND _ZN7android8security8keys
139:   FUNC GLOBAL DEFAULT UND _ZN7android8security8keys
140:   FUNC GLOBAL DEFAULT UND _ZNK7android8security8key
141:   FUNC GLOBAL DEFAULT UND _ZTv0_n24_N7android8secur
142:   FUNC GLOBAL DEFAULT UND _ZTv0_n24_N7android8secur
143:   FUNC GLOBAL DEFAULT UND _ZN7android8security8keys
144:   FUNC GLOBAL DEFAULT UND _ZN7android8security8keys
145:   FUNC GLOBAL DEFAULT UND _ZNK7android7String86leng
146:   FUNC GLOBAL DEFAULT UND _ZNK7android7RefBase9decS
147:   FUNC GLOBAL DEFAULT UND _ZN7android14sp_report_ra
148:   FUNC GLOBAL DEFAULT UND _ZN7android8security8keys
149:   FUNC GLOBAL DEFAULT UND _ZN7android8hardware9keym
150:   FUNC GLOBAL DEFAULT UND _ZNK7android8hardware9key
151:   FUNC GLOBAL DEFAULT UND _ZN7android8hardware9keym
152:   FUNC GLOBAL DEFAULT UND _ZNSt3__117__assoc_sub_st
153:   FUNC GLOBAL DEFAULT UND _ZSt17rethrow_exceptionSt
154:   FUNC GLOBAL DEFAULT UND _ZNSt13exception_ptrC1ERK
155:   FUNC GLOBAL DEFAULT UND _ZNSt3__112basic_stringIc
156:   OBJECT GLOBAL DEFAULT UND _ZTVNSt3__117__assoc_sub_
157:   OBJECT GLOBAL DEFAULT UND _ZN7android8security8keys
158:   OBJECT GLOBAL DEFAULT UND _ZTVN7android8security8ke
159:   OBJECT GLOBAL DEFAULT UND _ZN7android8security8keys
160:   OBJECT GLOBAL DEFAULT UND _ZTVN7android8security9ke
161:   OBJECT GLOBAL DEFAULT UND _ZTVN7android8security9ke
162:   OBJECT GLOBAL DEFAULT UND _ZTVN7android8security9ke
163:   OBJECT GLOBAL DEFAULT UND _ZN7android8security8keys
164:   OBJECT GLOBAL DEFAULT UND _ZTVN7android8security9ke
165:   OBJECT GLOBAL DEFAULT UND _ZN7android8security8keys
166:   OBJECT GLOBAL DEFAULT UND _ZTVN7android8security9ke
167:   FUNC GLOBAL DEFAULT UND malloc@LIBC (2)
168:   FUNC WEAK DEFAULT UND android_set_abort_message@LIBC (2)
169:   FUNC GLOBAL DEFAULT UND write@LIBC (2)
170:   FUNC GLOBAL DEFAULT UND memset@LIBC (2)
171:   FUNC GLOBAL DEFAULT UND memcpy@LIBC (2)
172:   FUNC GLOBAL DEFAULT UND __stack_chk_fail@LIBC (2)
173:   FUNC GLOBAL DEFAULT 14 _ZN8keystore13EncryptedDa
174:   FUNC GLOBAL DEFAULT 14 _ZNK8keystore13EncryptedD
175:   FUNC GLOBAL DEFAULT 14 _ZN8keystore13EncryptedDa
176:   FUNC GLOBAL DEFAULT 14 _ZN8keystore13EncryptedDa
177:   FUNC GLOBAL DEFAULT 14 _Z18add_softkey_headerPhm
178:   FUNC GLOBAL DEFAULT 14 _ZN8keystore18KeystoreCli
179:   FUNC GLOBAL DEFAULT 14 _ZNK8keystore13EncryptedD
180:   FUNC GLOBAL DEFAULT 14 _ZN8keystore13EncryptedDa
181:   FUNC GLOBAL DEFAULT 14 _ZN8keystore18KeystoreCli
182:   FUNC GLOBAL DEFAULT 14 _ZNK8keystore13EncryptedD
183:   OBJECT GLOBAL DEFAULT 11 _ZN8keystore13EncryptedDa
184:   FUNC GLOBAL DEFAULT 14 _ZN8keystore18KeystoreCli
185:   FUNC GLOBAL DEFAULT 14 _ZN8keystore18KeystoreCli
186:   FUNC WEAK DEFAULT 14 _ZNSt3__113__tree_removeI
187:   FUNC GLOBAL DEFAULT 14 keystore_get
188:   FUNC GLOBAL DEFAULT 14 _Z23get_softkey_header_si
189:   FUNC GLOBAL DEFAULT 14 _ZNK8keystore13EncryptedD
190:   OBJECT GLOBAL DEFAULT 11 _ZN8keystore13EncryptedDa
191:   FUNC GLOBAL DEFAULT 14 _ZN8keystore18KeystoreCli
192:   FUNC GLOBAL DEFAULT 14 __cfi_check
193:   FUNC GLOBAL DEFAULT 14 _ZNK8keystore13EncryptedD
194:   FUNC GLOBAL DEFAULT 14 _ZN8keystore13EncryptedDa
195:   OBJECT GLOBAL DEFAULT 23 _ZN8keystore13EncryptedDa
196:   FUNC GLOBAL DEFAULT 14 _ZN8keystore18KeystoreCli
197:   FUNC GLOBAL DEFAULT 14 _ZN8keystore18KeystoreCli
198:   FUNC WEAK DEFAULT 14 _ZNSt3__127__tree_balance
199:   FUNC GLOBAL DEFAULT 14 _ZN8keystore13EncryptedDa
200:   FUNC GLOBAL DEFAULT 14 _ZN8keystore18KeystoreCli
201:   FUNC WEAK DEFAULT 14 _ZNSt3__16vectorIN7androi
202:   FUNC GLOBAL DEFAULT 14 _ZN8keystore13EncryptedDa
203:   FUNC GLOBAL DEFAULT 14 _ZN8keystore13EncryptedDa
204:   FUNC GLOBAL DEFAULT 14 _ZN8keystore13EncryptedDa
205:   FUNC GLOBAL DEFAULT 14 _ZN8keystore13EncryptedDa
206:   FUNC GLOBAL DEFAULT 14 _ZN8keystore18KeystoreCli
207:   FUNC WEAK DEFAULT 14 _ZNSt3__16vectorINS_12bas
208:   FUNC GLOBAL DEFAULT 14 _ZN8keystore13EncryptedDa
209:   FUNC WEAK DEFAULT 14 _ZNSt3__1plIcNS_11char_tr
210:   FUNC GLOBAL DEFAULT 14 _ZN8keystore18KeystoreCli
211:   FUNC GLOBAL DEFAULT 14 _ZN8keystore18KeystoreCli
212:   FUNC GLOBAL DEFAULT 14 _ZN8keystore18KeystoreCli
213:   FUNC GLOBAL DEFAULT 14 _Z10is_softkeyPKhm
214:   FUNC GLOBAL DEFAULT 14 _ZN8keystore73protobuf_Ad
215:   FUNC GLOBAL DEFAULT 14 _ZN8keystore13EncryptedDa
216:   FUNC GLOBAL DEFAULT 14 _ZN8keystore18KeystoreCli
217:   FUNC GLOBAL DEFAULT 14 _ZN8keystore18KeystoreCli
218:   FUNC GLOBAL DEFAULT 14 _ZN8keystore18KeystoreCli
219:   FUNC GLOBAL DEFAULT 14 _ZN8keystore18KeystoreCli
220:   FUNC GLOBAL DEFAULT 14 _ZN8keystore18KeystoreCli
221:   OBJECT GLOBAL DEFAULT 19 _ZTVN8keystore18KeystoreC
222:   FUNC GLOBAL DEFAULT 14 _ZN8keystore78protobuf_Sh
223:   FUNC GLOBAL DEFAULT 14 _ZN8keystore18KeystoreCli
224:   FUNC GLOBAL DEFAULT 14 _ZN8keystore18KeystoreCli
225:   FUNC WEAK DEFAULT 14 _ZNSt3__16vectorIN7androi
226:   OBJECT GLOBAL DEFAULT 23 _ZN8keystore87static_desc
227:   OBJECT GLOBAL DEFAULT 19 _ZTVN8keystore13Encrypted
228:   FUNC GLOBAL DEFAULT 14 _ZN8keystore13EncryptedDa
229:   FUNC GLOBAL DEFAULT 14 _ZN8keystore18KeystoreCli
230:   FUNC GLOBAL DEFAULT 14 _ZN8keystore18KeystoreCli
231:   FUNC GLOBAL DEFAULT 14 _ZN8keystore13EncryptedDa
232:   FUNC GLOBAL DEFAULT 14 _ZN8keystore13EncryptedDa
233:   FUNC GLOBAL DEFAULT 14 _ZN8keystore13EncryptedDa
234:   OBJECT GLOBAL DEFAULT 11 _ZN8keystore13EncryptedDa
235:   FUNC GLOBAL DEFAULT 14 _ZN8keystore13EncryptedDa
236:   FUNC GLOBAL DEFAULT 14 _ZN8keystore13EncryptedDa
237:   FUNC GLOBAL DEFAULT 14 _ZNK8keystore13EncryptedD
238:   FUNC WEAK DEFAULT 14 _ZN6google8protobuf8inter
239:   FUNC GLOBAL DEFAULT 14 _ZN8keystore18KeystoreCli
240:   FUNC GLOBAL DEFAULT 14 _ZN8keystore18KeystoreCli
