 0x000000000000000e (SONAME)             Library soname: [libsoundtriggerservice.so]
  
Symbol   contains 367 entries:
Num:   Type Bind Vis Ndx Name
0:   NOTYPE LOCAL DEFAULT UND
1:   FUNC GLOBAL DEFAULT UND __cxa_finalize@LIBC (2)
2:   FUNC GLOBAL DEFAULT UND _Znwm
3:   FUNC GLOBAL DEFAULT UND _ZN7android12MemoryDealer
4:   FUNC GLOBAL DEFAULT UND _ZN7android7RefBaseC2Ev
5:   FUNC GLOBAL DEFAULT UND __android_log_print@LIBLOG (3)
6:   FUNC GLOBAL DEFAULT UND __cfi_slowpath@LIBC_OMR1 (4)
7:   FUNC GLOBAL DEFAULT UND _ZN7android7RefBaseD2Ev
8:   FUNC GLOBAL DEFAULT UND _ZdlPv
9:   FUNC GLOBAL DEFAULT UND _ZN7android21captureHotwo
10:   FUNC GLOBAL DEFAULT UND _ZN7android14IPCThreadSta
11:   FUNC GLOBAL DEFAULT UND _ZNK7android14IPCThreadSt
12:   FUNC GLOBAL DEFAULT UND _ZNK7android14IPCThreadSt
13:   FUNC GLOBAL DEFAULT UND _ZN7android7String8C1Ev
14:   FUNC GLOBAL DEFAULT UND _ZN7android22checkCalling
15:   FUNC GLOBAL DEFAULT UND _ZN7android8String16C1EPK
16:   FUNC GLOBAL DEFAULT UND _ZN7android8String16D1Ev
17:   FUNC GLOBAL DEFAULT UND _ZN7android7String812appe
18:   FUNC GLOBAL DEFAULT UND _ZN7android7String86appen
19:   FUNC GLOBAL DEFAULT UND _ZN7android7String8D1Ev
20:   FUNC GLOBAL DEFAULT UND _ZN7android23BnSoundTrigg
21:   FUNC GLOBAL DEFAULT UND _ZNK7android7IMemory7poin
22:   FUNC GLOBAL DEFAULT UND _ZN7android6ThreadC2Eb
23:   FUNC GLOBAL DEFAULT UND _ZN7android6ThreadD2Ev
24:   FUNC GLOBAL DEFAULT UND _ZNK7android6Thread11exit
25:   FUNC GLOBAL DEFAULT UND _ZN7android11AudioSystem2
26:   FUNC GLOBAL DEFAULT UND __android_log_error_write@LIBLOG_M (5)
27:   FUNC GLOBAL DEFAULT UND _ZN7android11AudioSystem2
28:   FUNC GLOBAL DEFAULT UND __android_log_assert@LIBLOG (3)
29:   FUNC GLOBAL DEFAULT UND _ZN7android8String16C1ERK
30:   FUNC GLOBAL DEFAULT UND _ZN7android10IInterface8a
31:   FUNC GLOBAL DEFAULT UND _ZN7android12checkIMemory
32:   FUNC GLOBAL DEFAULT UND __cxa_pure_virtual
33:   FUNC GLOBAL DEFAULT UND _ZNK7android7BBinder13isB
34:   FUNC GLOBAL DEFAULT UND _ZN7android7BBinder10ping
35:   FUNC GLOBAL DEFAULT UND _ZN7android7BBinder4dumpE
36:   FUNC GLOBAL DEFAULT UND _ZN7android7BBinder8trans
37:   FUNC GLOBAL DEFAULT UND _ZN7android7BBinder11link
38:   FUNC GLOBAL DEFAULT UND _ZN7android7BBinder13unli
39:   FUNC GLOBAL DEFAULT UND _ZNK7android7IBinder13che
40:   FUNC GLOBAL DEFAULT UND _ZN7android7BBinder12atta
41:   FUNC GLOBAL DEFAULT UND _ZNK7android7BBinder10fin
42:   FUNC GLOBAL DEFAULT UND _ZN7android7BBinder12deta
43:   FUNC GLOBAL DEFAULT UND _ZN7android7BBinder11loca
44:   FUNC GLOBAL DEFAULT UND _ZN7android7IBinder12remo
45:   FUNC GLOBAL DEFAULT UND _ZThn8_N7android23BnSound
46:   FUNC GLOBAL DEFAULT UND _ZN7android7RefBase10onFi
47:   FUNC GLOBAL DEFAULT UND _ZN7android7RefBase15onLa
48:   FUNC GLOBAL DEFAULT UND _ZN7android7RefBase20onIn
49:   FUNC GLOBAL DEFAULT UND _ZN7android7RefBase13onLa
50:   FUNC GLOBAL DEFAULT UND _ZN7android7BBinder10onTr
51:   FUNC GLOBAL DEFAULT UND _ZN7android22ISoundTrigge
52:   FUNC GLOBAL DEFAULT UND _ZN7android22ISoundTrigge
53:   FUNC GLOBAL DEFAULT UND _ZNK7android22ISoundTrigg
54:   FUNC GLOBAL DEFAULT UND _ZTv0_n24_N7android22ISou
55:   FUNC GLOBAL DEFAULT UND _ZTv0_n24_N7android22ISou
56:   FUNC GLOBAL DEFAULT UND _ZN7android10IInterfaceD1
57:   FUNC GLOBAL DEFAULT UND _ZN7android10IInterfaceD0
58:   FUNC GLOBAL DEFAULT UND _ZTv0_n24_N7android10IInt
59:   FUNC GLOBAL DEFAULT UND _ZTv0_n24_N7android10IInt
60:   FUNC GLOBAL DEFAULT UND _ZN7android7IBinder19quer
61:   FUNC GLOBAL DEFAULT UND _ZNK7android7BBinder22get
62:   FUNC GLOBAL DEFAULT UND _ZN7android7BBinderD1Ev
63:   FUNC GLOBAL DEFAULT UND _ZN7android7BBinderD0Ev
64:   FUNC GLOBAL DEFAULT UND _ZTv0_n24_N7android7BBind
65:   FUNC GLOBAL DEFAULT UND _ZTv0_n24_N7android7BBind
66:   FUNC GLOBAL DEFAULT UND _ZN7android7IBinder11loca
67:   FUNC GLOBAL DEFAULT UND _ZN7android7IBinderD1Ev
68:   FUNC GLOBAL DEFAULT UND _ZN7android7IBinderD0Ev
69:   FUNC GLOBAL DEFAULT UND _ZTv0_n24_N7android7IBind
70:   FUNC GLOBAL DEFAULT UND _ZTv0_n24_N7android7IBind
71:   FUNC GLOBAL DEFAULT UND _ZN7android6ThreadD1Ev
72:   FUNC GLOBAL DEFAULT UND _ZN7android6ThreadD0Ev
73:   FUNC GLOBAL DEFAULT UND _ZN7android6Thread3runEPK
74:   FUNC GLOBAL DEFAULT UND _ZN7android6Thread11reque
75:   FUNC GLOBAL DEFAULT UND _ZN7android6Thread10ready
76:   FUNC GLOBAL DEFAULT UND _ZTv0_n24_N7android6Threa
77:   FUNC GLOBAL DEFAULT UND _ZTv0_n24_N7android6Threa
78:   FUNC GLOBAL DEFAULT UND _ZN7android14BnSoundTrigg
79:   FUNC GLOBAL DEFAULT UND _ZThn8_N7android14BnSound
80:   FUNC GLOBAL DEFAULT UND _ZN7android13ISoundTrigge
81:   FUNC GLOBAL DEFAULT UND _ZN7android13ISoundTrigge
82:   FUNC GLOBAL DEFAULT UND _ZNK7android13ISoundTrigg
83:   FUNC GLOBAL DEFAULT UND _ZTv0_n24_N7android13ISou
84:   FUNC GLOBAL DEFAULT UND _ZTv0_n24_N7android13ISou
85:   FUNC GLOBAL DEFAULT UND _ZN7android22ISoundTrigge
86:   FUNC GLOBAL DEFAULT UND _ZN7android7BBinderC2Ev
87:   FUNC GLOBAL DEFAULT UND pthread_mutex_init@LIBC (2)
88:   FUNC GLOBAL DEFAULT UND pthread_mutex_destroy@LIBC (2)
89:   FUNC GLOBAL DEFAULT UND _ZN7android10VectorImpl13
90:   FUNC GLOBAL DEFAULT UND _ZN7android16SortedVector
91:   FUNC GLOBAL DEFAULT UND _ZN7android7BBinderD2Ev
92:   FUNC GLOBAL DEFAULT UND _ZN7android22ISoundTrigge
93:   FUNC GLOBAL DEFAULT UND pthread_mutex_lock@LIBC (2)
94:   FUNC GLOBAL DEFAULT UND write@LIBC (2)
95:   FUNC GLOBAL DEFAULT UND _ZNK7android7String86leng
96:   FUNC GLOBAL DEFAULT UND systemTime
97:   FUNC GLOBAL DEFAULT UND pthread_mutex_timedlock@LIBC (2)
98:   FUNC GLOBAL DEFAULT UND pthread_mutex_unlock@LIBC (2)
99:   FUNC GLOBAL DEFAULT UND _ZN7android7RefBase12weak
100:   FUNC GLOBAL DEFAULT UND _ZN7android7RefBase12weak
101:   FUNC GLOBAL DEFAULT UND pthread_condattr_init@LIBC (2)
102:   FUNC GLOBAL DEFAULT UND pthread_condattr_setclock@LIBC (2)
103:   FUNC GLOBAL DEFAULT UND pthread_cond_init@LIBC (2)
104:   FUNC GLOBAL DEFAULT UND pthread_condattr_destroy@LIBC (2)
105:   FUNC GLOBAL DEFAULT UND pthread_cond_destroy@LIBC (2)
106:   FUNC GLOBAL DEFAULT UND pthread_cond_wait@LIBC (2)
107:   FUNC GLOBAL DEFAULT UND pthread_cond_broadcast@LIBC (2)
108:   FUNC GLOBAL DEFAULT UND pthread_cond_signal@LIBC (2)
109:   FUNC GLOBAL DEFAULT UND _ZNK7android7IMemory4size
110:   FUNC GLOBAL DEFAULT UND _Znam
111:   FUNC GLOBAL DEFAULT UND _ZdaPv
112:   FUNC GLOBAL DEFAULT UND _ZN7android13ISoundTrigge
113:   FUNC GLOBAL DEFAULT UND _ZN7android13ISoundTrigge
114:   FUNC GLOBAL DEFAULT UND _ZNK7android7RefBase9decS
115:   FUNC GLOBAL DEFAULT UND _ZNK7android7RefBase9incS
116:   FUNC GLOBAL DEFAULT UND _ZN7android16SortedVector
117:   FUNC GLOBAL DEFAULT UND _ZN7android16SortedVector
118:   FUNC GLOBAL DEFAULT UND _ZNK7android7RefBase10cre
119:   FUNC GLOBAL DEFAULT UND _ZN7android14sp_report_ra
120:   FUNC GLOBAL DEFAULT UND _ZNK7android16SortedVecto
121:   FUNC GLOBAL DEFAULT UND _ZN7android7RefBase12weak
122:   FUNC GLOBAL DEFAULT UND _ZN7android10VectorImplC2
123:   FUNC GLOBAL DEFAULT UND _ZN7android7RefBase10rena
124:   FUNC GLOBAL DEFAULT UND _ZN7android7RefBase11rena
125:   FUNC GLOBAL DEFAULT UND _ZN7android10VectorImplD2
126:   FUNC GLOBAL DEFAULT UND _ZN7android10VectorImpl13
127:   FUNC GLOBAL DEFAULT UND _ZN7android10VectorImpl3a
128:   FUNC GLOBAL DEFAULT UND _ZN7android10VectorImpl5c
129:   FUNC GLOBAL DEFAULT UND _ZN7android16SortedVector
130:   FUNC GLOBAL DEFAULT UND strzcmp16
131:   FUNC GLOBAL DEFAULT UND _ZNK7android8String164siz
132:   OBJECT GLOBAL DEFAULT UND _ZN7android22ISoundTrigge
133:   OBJECT GLOBAL DEFAULT UND _ZN7android13ISoundTrigge
134:   FUNC GLOBAL DEFAULT UND strcmp@LIBC (2)
135:   FUNC GLOBAL DEFAULT UND _ZN7android8hardware12sou
136:   FUNC GLOBAL DEFAULT UND _ZN7android15HalDeathHand
137:   FUNC GLOBAL DEFAULT UND _ZN7android8hardware12sou
138:   FUNC GLOBAL DEFAULT UND _ZN7android8hardware12sou
139:   FUNC GLOBAL DEFAULT UND _ZNK7android8hardware11hi
140:   FUNC GLOBAL DEFAULT UND _ZN7android8hardware11hid
141:   FUNC GLOBAL DEFAULT UND free@LIBC (2)
142:   FUNC GLOBAL DEFAULT UND malloc@LIBC (2)
143:   FUNC GLOBAL DEFAULT UND _ZN7android8hardware12sou
144:   FUNC GLOBAL DEFAULT UND _ZN7android8hardware12sou
145:   FUNC GLOBAL DEFAULT UND _ZN7android8hardware12sou
146:   FUNC GLOBAL DEFAULT UND _ZN7android8hardware12sou
147:   FUNC GLOBAL DEFAULT UND _ZN7android8hardware12sou
148:   FUNC GLOBAL DEFAULT UND _ZN7android8hardware12sou
149:   FUNC GLOBAL DEFAULT UND _ZN7android8hardware12sou
150:   FUNC GLOBAL DEFAULT UND _ZN7android8hardware12sou
151:   FUNC GLOBAL DEFAULT UND _ZN7android8hardware12sou
152:   FUNC GLOBAL DEFAULT UND _ZN7android8hardware12sou
153:   FUNC GLOBAL DEFAULT UND _ZN7android8hardware12sou
154:   FUNC GLOBAL DEFAULT UND _ZN7android8hardware12sou
155:   FUNC GLOBAL DEFAULT UND _ZN7android8hardware12sou
156:   FUNC GLOBAL DEFAULT UND _ZN7android8hardware12sou
157:   FUNC GLOBAL DEFAULT UND _ZN7android8hardware12sou
158:   FUNC GLOBAL DEFAULT UND _ZN7android8hardware12sou
159:   FUNC GLOBAL DEFAULT UND _ZN7android8hardware12sou
160:   FUNC GLOBAL DEFAULT UND _ZN7android8hardware12sou
161:   FUNC GLOBAL DEFAULT UND _ZN7android8hardware12sou
162:   FUNC GLOBAL DEFAULT UND _ZN7android8hardware12sou
163:   FUNC GLOBAL DEFAULT UND _ZN7android4hidl4base4V1_
164:   FUNC GLOBAL DEFAULT UND _ZN7android4hidl4base4V1_
165:   FUNC GLOBAL DEFAULT UND _ZN7android4hidl4base4V1_
166:   FUNC GLOBAL DEFAULT UND _ZN7android4hidl4base4V1_
167:   FUNC GLOBAL DEFAULT UND _ZN7android4hidl4base4V1_
168:   FUNC GLOBAL DEFAULT UND _ZN7android4hidl4base4V1_
169:   FUNC GLOBAL DEFAULT UND _ZN7android4hidl4base4V1_
170:   FUNC GLOBAL DEFAULT UND _ZN7android4hidl4base4V1_
171:   FUNC GLOBAL DEFAULT UND _ZN7android4hidl4base4V1_
172:   FUNC GLOBAL DEFAULT UND _ZN7android4hidl4base4V1_
173:   FUNC GLOBAL DEFAULT UND _ZN7android8hardware11hid
174:   FUNC GLOBAL DEFAULT UND _ZN7android8hardware7deta
175:   FUNC GLOBAL DEFAULT UND _ZNK7android8hardware6Sta
176:   FUNC GLOBAL DEFAULT UND _ZN7android8hardware11hid
177:   FUNC GLOBAL DEFAULT UND _ZN7android8hardware11hid
178:   FUNC GLOBAL DEFAULT UND _ZN7android8hardware11hid
179:   FUNC GLOBAL DEFAULT UND _ZN7android8hardware11hid
180:   FUNC GLOBAL DEFAULT UND __strlcpy_chk@LIBC (2)
181:   FUNC GLOBAL DEFAULT UND _ZN7android8hardware9mapM
182:   FUNC GLOBAL DEFAULT UND _ZN7android4hidl9allocato
183:   FUNC GLOBAL DEFAULT UND _ZN7android8hardware11hid
184:   FUNC GLOBAL DEFAULT UND _ZN7android8hardware11hid
185:   FUNC GLOBAL DEFAULT UND _ZNK7android8hardware7det
186:   FUNC GLOBAL DEFAULT UND _ZN7android8hardware7deta
187:   FUNC GLOBAL DEFAULT UND _ZN7android8hardware7deta
188:   FUNC GLOBAL DEFAULT UND _ZNKSt3__121__basic_strin
189:   FUNC GLOBAL DEFAULT UND strlen@LIBC (2)
190:   FUNC GLOBAL DEFAULT UND _ZN7android8hardware11hid
191:   FUNC GLOBAL DEFAULT UND memset@LIBC (2)
192:   FUNC GLOBAL DEFAULT UND memcpy@LIBC (2)
193:   FUNC GLOBAL DEFAULT UND memmove@LIBC (2)
194:   FUNC GLOBAL DEFAULT UND abort@LIBC (2)
195:   FUNC GLOBAL DEFAULT UND __stack_chk_fail@LIBC (2)
196:   FUNC GLOBAL DEFAULT 14 _ZN7android21SoundTrigger
197:   FUNC GLOBAL DEFAULT 14 _ZN7android21SoundTrigger
198:   FUNC GLOBAL DEFAULT 14 _ZN7android21SoundTrigger
199:   FUNC GLOBAL DEFAULT 14 _ZN7android21SoundTrigger
200:   FUNC GLOBAL DEFAULT 14 _ZN7android21SoundTrigger
201:   FUNC GLOBAL DEFAULT 14 _ZN7android19SoundTrigger
202:   FUNC GLOBAL DEFAULT 14 _ZN7android19SoundTrigger
203:   OBJECT GLOBAL DEFAULT 18 _ZTVN7android21SoundTrigg
204:   OBJECT GLOBAL DEFAULT 18 _ZTCN7android21SoundTrigg
205:   FUNC GLOBAL DEFAULT 14 _ZN7android21SoundTrigger
206:   FUNC GLOBAL DEFAULT 14 _ZTv0_n120_N7android19Sou
207:   FUNC GLOBAL DEFAULT 14 _ZN7android21SoundTrigger
208:   FUNC GLOBAL DEFAULT 14 _ZN7android21SoundTrigger
209:   FUNC GLOBAL DEFAULT 14 _ZN7android21SoundTrigger
210:   FUNC GLOBAL DEFAULT 14 _ZThn8_N7android21SoundTr
211:   FUNC GLOBAL DEFAULT 14 _ZTv0_n24_N7android19Soun
212:   FUNC GLOBAL DEFAULT 14 _ZTv0_n136_N7android19Sou
213:   FUNC GLOBAL DEFAULT 14 _ZTv0_n24_N7android21Soun
214:   FUNC GLOBAL DEFAULT 14 _ZN7android21SoundTrigger
215:   FUNC GLOBAL DEFAULT 14 _ZN7android19SoundTrigger
216:   FUNC GLOBAL DEFAULT 14 _ZN7android21SoundTrigger
217:   FUNC GLOBAL DEFAULT 14 _ZN7android21SoundTrigger
218:   FUNC WEAK DEFAULT 14 _ZN7android11BnInterfaceI
219:   OBJECT GLOBAL DEFAULT 18 _ZTVN7android21SoundTrigg
220:   FUNC GLOBAL DEFAULT 14 _ZN7android19SoundTrigger
221:   FUNC GLOBAL DEFAULT 14 _ZN7android19SoundTrigger
222:   FUNC GLOBAL DEFAULT 14 _ZN7android19SoundTrigger
223:   FUNC GLOBAL DEFAULT 14 _ZN7android21SoundTrigger
224:   FUNC GLOBAL DEFAULT 14 _ZTv0_n24_N7android19Soun
225:   FUNC GLOBAL DEFAULT 14 _ZTv0_n24_N7android21Soun
226:   FUNC GLOBAL DEFAULT 14 _ZN7android21SoundTrigger
227:   FUNC GLOBAL DEFAULT 14 _ZN7android21SoundTrigger
228:   FUNC GLOBAL DEFAULT 14 _ZN7android19SoundTrigger
229:   FUNC GLOBAL DEFAULT 14 _ZN7android21SoundTrigger
230:   FUNC GLOBAL DEFAULT 14 _ZN7android21SoundTrigger
231:   OBJECT GLOBAL DEFAULT 18 _ZTCN7android21SoundTrigg
232:   OBJECT GLOBAL DEFAULT 18 _ZTCN7android21SoundTrigg
233:   FUNC GLOBAL DEFAULT 14 _ZN7android19SoundTrigger
234:   FUNC GLOBAL DEFAULT 14 _ZN7android19SoundTrigger
235:   FUNC GLOBAL DEFAULT 14 _ZN7android19SoundTrigger
236:   FUNC GLOBAL DEFAULT 14 _ZN7android21SoundTrigger
237:   FUNC GLOBAL DEFAULT 14 _ZN7android19SoundTrigger
238:   FUNC GLOBAL DEFAULT 14 _ZN7android21SoundTrigger
239:   FUNC GLOBAL DEFAULT 14 _ZN7android21SoundTrigger
240:   FUNC GLOBAL DEFAULT 14 __cfi_check
241:   OBJECT GLOBAL DEFAULT 18 _ZTCN7android21SoundTrigg
242:   FUNC GLOBAL DEFAULT 14 _ZN7android21SoundTrigger
243:   FUNC GLOBAL DEFAULT 14 _ZN7android19SoundTrigger
244:   FUNC GLOBAL DEFAULT 14 _ZN7android21SoundTrigger
245:   FUNC GLOBAL DEFAULT 14 _ZN7android21SoundTrigger
246:   FUNC GLOBAL DEFAULT 14 _ZN7android19SoundTrigger
247:   FUNC GLOBAL DEFAULT 14 _ZTv0_n160_N7android19Sou
248:   FUNC GLOBAL DEFAULT 14 _ZN7android21SoundTrigger
249:   FUNC GLOBAL DEFAULT 14 _ZN7android21SoundTrigger
250:   FUNC GLOBAL DEFAULT 14 _ZThn8_N7android21SoundTr
251:   FUNC GLOBAL DEFAULT 14 _ZN7android21SoundTrigger
252:   FUNC GLOBAL DEFAULT 14 _ZN7android21SoundTrigger
253:   FUNC GLOBAL DEFAULT 14 _ZN7android21SoundTrigger
254:   FUNC GLOBAL DEFAULT 14 _ZN7android21SoundTrigger
255:   OBJECT GLOBAL DEFAULT 18 _ZTCN7android21SoundTrigg
256:   FUNC GLOBAL DEFAULT 14 _ZN7android19SoundTrigger
257:   FUNC GLOBAL DEFAULT 14 _ZN7android19SoundTrigger
258:   FUNC GLOBAL DEFAULT 14 _ZN7android21SoundTrigger
259:   FUNC GLOBAL DEFAULT 14 _ZThn8_N7android21SoundTr
260:   FUNC GLOBAL DEFAULT 14 _ZN7android21SoundTrigger
261:   FUNC GLOBAL DEFAULT 14 _ZN7android21SoundTrigger
262:   OBJECT GLOBAL DEFAULT 18 _ZTVN7android21SoundTrigg
263:   FUNC GLOBAL DEFAULT 14 _ZN7android21SoundTrigger
264:   FUNC GLOBAL DEFAULT 14 _ZN7android21SoundTrigger
265:   FUNC GLOBAL DEFAULT 14 _ZTv0_n24_N7android21Soun
266:   FUNC GLOBAL DEFAULT 14 _ZN7android21SoundTrigger
267:   FUNC GLOBAL DEFAULT 14 _ZN7android21SoundTrigger
268:   FUNC GLOBAL DEFAULT 14 _ZN7android19SoundTrigger
269:   FUNC GLOBAL DEFAULT 14 _ZN7android21SoundTrigger
270:   FUNC GLOBAL DEFAULT 14 _ZN7android21SoundTrigger
271:   FUNC GLOBAL DEFAULT 14 _ZThn32_N7android21SoundT
272:   OBJECT GLOBAL DEFAULT 18 _ZTCN7android19SoundTrigg
273:   FUNC GLOBAL DEFAULT 14 _ZTv0_n24_N7android21Soun
274:   FUNC GLOBAL DEFAULT 14 _ZTv0_n168_N7android19Sou
275:   FUNC GLOBAL DEFAULT 14 _ZN7android21SoundTrigger
276:   FUNC GLOBAL DEFAULT 14 _ZN7android21SoundTrigger
277:   FUNC GLOBAL DEFAULT 14 _ZN7android21SoundTrigger
278:   FUNC GLOBAL DEFAULT 14 _ZN7android21SoundTrigger
279:   FUNC GLOBAL DEFAULT 14 _ZN7android21SoundTrigger
280:   FUNC GLOBAL DEFAULT 14 _ZTv0_n32_N7android21Soun
281:   FUNC GLOBAL DEFAULT 14 _ZN7android21SoundTrigger
282:   FUNC GLOBAL DEFAULT 14 _ZN7android21SoundTrigger
283:   FUNC GLOBAL DEFAULT 14 _ZN7android21SoundTrigger
284:   OBJECT GLOBAL DEFAULT 18 _ZTCN7android21SoundTrigg
285:   FUNC GLOBAL DEFAULT 14 _ZN7android19SoundTrigger
286:   FUNC GLOBAL DEFAULT 14 _ZN7android19SoundTrigger
287:   FUNC GLOBAL DEFAULT 14 _ZN7android21SoundTrigger
288:   FUNC GLOBAL DEFAULT 14 _ZN7android21SoundTrigger
289:   FUNC GLOBAL DEFAULT 14 _ZN7android19SoundTrigger
290:   FUNC GLOBAL DEFAULT 14 _ZN7android21SoundTrigger
291:   FUNC GLOBAL DEFAULT 14 _ZN7android21SoundTrigger
292:   OBJECT GLOBAL DEFAULT 18 _ZTTN7android21SoundTrigg
293:   FUNC GLOBAL DEFAULT 14 _ZN7android21SoundTrigger
294:   FUNC GLOBAL DEFAULT 14 _ZN7android21SoundTrigger
295:   OBJECT GLOBAL DEFAULT 18 _ZTCN7android21SoundTrigg
296:   FUNC GLOBAL DEFAULT 14 _ZN7android21SoundTrigger
297:   FUNC GLOBAL DEFAULT 14 _ZN7android19SoundTrigger
298:   FUNC GLOBAL DEFAULT 14 _ZN7android19SoundTrigger
299:   FUNC GLOBAL DEFAULT 14 _ZN7android21SoundTrigger
300:   FUNC WEAK DEFAULT 14 _ZN7android11BnInterfaceI
301:   FUNC GLOBAL DEFAULT 14 _ZN7android19SoundTrigger
302:   FUNC GLOBAL DEFAULT 14 _ZThn32_N7android21SoundT
303:   FUNC GLOBAL DEFAULT 14 _ZN7android21SoundTrigger
304:   OBJECT GLOBAL DEFAULT 18 _ZTVN7android21SoundTrigg
305:   FUNC GLOBAL DEFAULT 14 _ZN7android19SoundTrigger
306:   FUNC GLOBAL DEFAULT 14 _ZN7android21SoundTrigger
307:   FUNC GLOBAL DEFAULT 14 _ZN7android21SoundTrigger
308:   FUNC GLOBAL DEFAULT 14 _ZN7android21SoundTrigger
309:   OBJECT GLOBAL DEFAULT 18 _ZTCN7android21SoundTrigg
310:   FUNC GLOBAL DEFAULT 14 _ZN7android19SoundTrigger
311:   FUNC GLOBAL DEFAULT 14 _ZN7android19SoundTrigger
312:   FUNC GLOBAL DEFAULT 14 _ZN7android21SoundTrigger
313:   FUNC GLOBAL DEFAULT 14 _ZN7android21SoundTrigger
314:   FUNC GLOBAL DEFAULT 14 _ZTv0_n24_N7android21Soun
315:   OBJECT GLOBAL DEFAULT 18 _ZTCN7android21SoundTrigg
316:   FUNC GLOBAL DEFAULT 14 _ZTv0_n152_N7android19Sou
317:   FUNC GLOBAL DEFAULT 14 _ZN7android19SoundTrigger
318:   FUNC GLOBAL DEFAULT 14 _ZThn8_N7android21SoundTr
319:   FUNC GLOBAL DEFAULT 14 _ZThn32_N7android21SoundT
320:   OBJECT GLOBAL DEFAULT 18 _ZTTN7android21SoundTrigg
321:   FUNC GLOBAL DEFAULT 14 _ZN7android21SoundTrigger
322:   FUNC GLOBAL DEFAULT 14 _ZN7android19SoundTrigger
323:   FUNC GLOBAL DEFAULT 14 _ZN7android19SoundTrigger
324:   OBJECT GLOBAL DEFAULT 18 _ZTTN7android19SoundTrigg
325:   OBJECT GLOBAL DEFAULT 18 _ZTCN7android19SoundTrigg
326:   FUNC GLOBAL DEFAULT 14 _ZTv0_n32_N7android21Soun
327:   FUNC GLOBAL DEFAULT 14 _ZN7android21SoundTrigger
328:   FUNC GLOBAL DEFAULT 14 _ZThn8_N7android21SoundTr
329:   FUNC GLOBAL DEFAULT 14 _ZN7android21SoundTrigger
330:   FUNC GLOBAL DEFAULT 14 _ZN7android21SoundTrigger
331:   FUNC GLOBAL DEFAULT 14 _ZTv0_n24_N7android21Soun
332:   OBJECT GLOBAL DEFAULT 18 _ZTVN7android21SoundTrigg
333:   FUNC GLOBAL DEFAULT 14 _ZN7android19SoundTrigger
334:   FUNC GLOBAL DEFAULT 14 _ZN7android24SoundTrigger
335:   FUNC GLOBAL DEFAULT 14 _ZN7android19SoundTrigger
336:   FUNC GLOBAL DEFAULT 14 _ZN7android19SoundTrigger
337:   FUNC GLOBAL DEFAULT 14 _ZN7android19SoundTrigger
338:   OBJECT GLOBAL DEFAULT 18 _ZTVN7android19SoundTrigg
339:   OBJECT GLOBAL DEFAULT 18 _ZTCN7android19SoundTrigg
340:   FUNC GLOBAL DEFAULT 14 _ZN7android21SoundTrigger
341:   FUNC GLOBAL DEFAULT 14 _ZN7android19SoundTrigger
342:   FUNC GLOBAL DEFAULT 14 _ZN7android19SoundTrigger
343:   FUNC GLOBAL DEFAULT 14 _ZThn8_N7android21SoundTr
344:   FUNC GLOBAL DEFAULT 14 _ZThn8_N7android21SoundTr
345:   OBJECT GLOBAL DEFAULT 18 _ZTCN7android21SoundTrigg
346:   OBJECT GLOBAL DEFAULT 18 _ZTCN7android21SoundTrigg
347:   FUNC GLOBAL DEFAULT 14 _ZN7android21SoundTrigger
348:   FUNC GLOBAL DEFAULT 14 _ZTv0_n32_N7android21Soun
349:   OBJECT GLOBAL DEFAULT 18 _ZTTN7android21SoundTrigg
350:   OBJECT GLOBAL DEFAULT 18 _ZTCN7android21SoundTrigg
351:   FUNC GLOBAL DEFAULT 14 _ZN7android19SoundTrigger
352:   FUNC GLOBAL DEFAULT 14 _ZTv0_n128_N7android19Sou
353:   OBJECT GLOBAL DEFAULT 18 _ZTCN7android21SoundTrigg
354:   OBJECT GLOBAL DEFAULT 18 _ZTCN7android21SoundTrigg
355:   FUNC GLOBAL DEFAULT 14 _ZN7android21SoundTrigger
356:   FUNC GLOBAL DEFAULT 14 _ZN7android21SoundTrigger
357:   FUNC GLOBAL DEFAULT 14 _ZTv0_n120_N7android19Sou
358:   FUNC GLOBAL DEFAULT 14 _ZN7android19SoundTrigger
359:   FUNC GLOBAL DEFAULT 14 _ZTv0_n144_N7android19Sou
360:   FUNC GLOBAL DEFAULT 14 _ZN7android21SoundTrigger
361:   FUNC GLOBAL DEFAULT 14 _ZN7android19SoundTrigger
362:   FUNC GLOBAL DEFAULT 14 _ZN7android19SoundTrigger
363:   FUNC GLOBAL DEFAULT 14 _ZN7android19SoundTrigger
364:   FUNC GLOBAL DEFAULT 14 _ZN7android19SoundTrigger
365:   FUNC GLOBAL DEFAULT 14 _ZN7android19SoundTrigger
366:   OBJECT GLOBAL DEFAULT 18 _ZTCN7android19SoundTrigg
