 0x0000000e (SONAME)                     Library soname: [libbpf_android.so]
  
Symbol   contains 169 entries:
Num:   Type Bind Vis Ndx Name
0:   NOTYPE LOCAL DEFAULT UND
1:   FUNC GLOBAL DEFAULT UND __cxa_atexit@LIBC (2)
2:   FUNC GLOBAL DEFAULT UND __cxa_finalize@LIBC (2)
3:   FUNC GLOBAL DEFAULT UND _ZN7android4base15GetUint
4:   FUNC GLOBAL DEFAULT UND _ZN7android9netdutils8toS
5:   FUNC GLOBAL DEFAULT UND _ZNKSt3__121__basic_strin
6:   FUNC GLOBAL DEFAULT UND _ZNKSt3__16locale9use_fac
7:   FUNC GLOBAL DEFAULT UND _ZNKSt3__18ios_base6getlo
8:   FUNC GLOBAL DEFAULT UND _ZNSt3__112basic_stringIc
9:   FUNC GLOBAL DEFAULT UND _ZNSt3__112basic_stringIc
10:   FUNC GLOBAL DEFAULT UND _ZNSt3__112basic_stringIc
11:   FUNC GLOBAL DEFAULT UND _ZNSt3__113basic_istreamI
12:   FUNC GLOBAL DEFAULT UND _ZNSt3__113basic_istreamI
13:   FUNC GLOBAL DEFAULT UND _ZNSt3__113basic_istreamI
14:   FUNC GLOBAL DEFAULT UND _ZNSt3__113basic_istreamI
15:   FUNC GLOBAL DEFAULT UND _ZNSt3__115basic_streambu
16:   FUNC GLOBAL DEFAULT UND _ZNSt3__115basic_streambu
17:   FUNC GLOBAL DEFAULT UND _ZNSt3__115basic_streambu
18:   FUNC GLOBAL DEFAULT UND _ZNSt3__115basic_streambu
19:   FUNC GLOBAL DEFAULT UND _ZNSt3__115basic_streambu
20:   FUNC GLOBAL DEFAULT UND _ZNSt3__115basic_streambu
21:   FUNC GLOBAL DEFAULT UND _ZNSt3__115basic_streambu
22:   FUNC GLOBAL DEFAULT UND _ZNSt3__115basic_streambu
23:   FUNC GLOBAL DEFAULT UND _ZNSt3__115basic_streambu
24:   OBJECT GLOBAL DEFAULT UND _ZNSt3__15ctypeIcE2idE
25:   FUNC GLOBAL DEFAULT UND _ZNSt3__16localeD1Ev
26:   FUNC GLOBAL DEFAULT UND _ZNSt3__18ios_base4initEP
27:   FUNC GLOBAL DEFAULT UND _ZNSt3__18ios_base5clearE
28:   FUNC GLOBAL DEFAULT UND _ZNSt3__19basic_iosIcNS_1
29:   FUNC GLOBAL DEFAULT UND _ZTv0_n12_NSt3__113basic_
30:   FUNC GLOBAL DEFAULT UND _ZTv0_n12_NSt3__113basic_
31:   FUNC GLOBAL DEFAULT UND _ZdlPv
32:   FUNC GLOBAL DEFAULT UND _Znwj
33:   FUNC GLOBAL DEFAULT UND __android_log_print@LIBLOG (3)
34:   FUNC GLOBAL DEFAULT UND __errno@LIBC (2)
35:   FUNC GLOBAL DEFAULT UND __stack_chk_fail@LIBC (2)
36:   OBJECT GLOBAL DEFAULT UND __stack_chk_guard@LIBC (2)
37:   FUNC GLOBAL DEFAULT UND close@LIBC (2)
38:   FUNC GLOBAL DEFAULT UND getsockopt@LIBC (2)
39:   FUNC GLOBAL DEFAULT UND setrlimit@LIBC (2)
40:   FUNC GLOBAL DEFAULT UND socket@LIBC (2)
41:   FUNC GLOBAL DEFAULT UND sscanf@LIBC (2)
42:   FUNC GLOBAL DEFAULT UND strerror@LIBC (2)
43:   FUNC GLOBAL DEFAULT UND strlen@LIBC (2)
44:   FUNC GLOBAL DEFAULT UND syscall@LIBC (2)
45:   FUNC GLOBAL DEFAULT UND uname@LIBC (2)
46:   FUNC GLOBAL DEFAULT UND _ZN7android4base10StartsW
47:   FUNC GLOBAL DEFAULT UND _ZN7android4base5SplitERK
48:   FUNC GLOBAL DEFAULT UND _ZNKSt3__112basic_stringI
49:   FUNC GLOBAL DEFAULT UND _ZNKSt3__112basic_stringI
50:   FUNC GLOBAL DEFAULT UND _ZNKSt3__112basic_stringI
51:   FUNC GLOBAL DEFAULT UND _ZNKSt3__120__vector_base
52:   FUNC GLOBAL DEFAULT UND _ZNKSt3__16locale9has_fac
53:   FUNC GLOBAL DEFAULT UND _ZNSt3__112basic_stringIc
54:   FUNC GLOBAL DEFAULT UND _ZNSt3__112basic_stringIc
55:   FUNC GLOBAL DEFAULT UND _ZNSt3__112basic_stringIc
56:   FUNC GLOBAL DEFAULT UND _ZNSt3__112basic_stringIc
57:   FUNC GLOBAL DEFAULT UND _ZNSt3__112basic_stringIc
58:   FUNC GLOBAL DEFAULT UND _ZNSt3__113basic_istreamI
59:   FUNC GLOBAL DEFAULT UND _ZNSt3__113basic_istreamI
60:   FUNC GLOBAL DEFAULT UND _ZNSt3__14stoiERKNS_12bas
61:   FUNC GLOBAL DEFAULT UND _ZNSt3__16localeC1ERKS0_
62:   OBJECT GLOBAL DEFAULT UND _ZNSt3__17codecvtIcc9mbst
63:   FUNC GLOBAL DEFAULT UND _ZdaPv
64:   FUNC GLOBAL DEFAULT UND _Znaj
65:   FUNC GLOBAL DEFAULT UND abort@LIBC (2)
66:   FUNC GLOBAL DEFAULT UND access@LIBC (2)
67:   FUNC GLOBAL DEFAULT UND bpf_create_map
68:   FUNC GLOBAL DEFAULT UND bpf_obj_get
69:   FUNC GLOBAL DEFAULT UND bpf_obj_pin
70:   FUNC GLOBAL DEFAULT UND bpf_prog_load
71:   FUNC GLOBAL DEFAULT UND fclose@LIBC (2)
72:   FUNC GLOBAL DEFAULT UND fflush@LIBC (2)
73:   FUNC GLOBAL DEFAULT UND fopen@LIBC (2)
74:   FUNC GLOBAL DEFAULT UND fread@LIBC (2)
75:   FUNC GLOBAL DEFAULT UND fseeko@LIBC (2)
76:   FUNC GLOBAL DEFAULT UND ftello@LIBC (2)
77:   FUNC GLOBAL DEFAULT UND fwrite@LIBC (2)
78:   FUNC GLOBAL DEFAULT UND memcmp@LIBC (2)
79:   FUNC GLOBAL DEFAULT UND strcmp@LIBC (2)
80:   FUNC WEAK DEFAULT UND android_set_abort_message@LIBC (2)
81:   FUNC GLOBAL DEFAULT UND write@LIBC (2)
82:   FUNC GLOBAL DEFAULT UND memcpy@LIBC (2)
83:   FUNC GLOBAL DEFAULT UND memmove@LIBC (2)
84:   FUNC GLOBAL DEFAULT UND memset@LIBC (2)
85:   FUNC GLOBAL DEFAULT 14 _ZN7android3bpf3bpfEiNS_9
86:   FUNC GLOBAL DEFAULT 14 _ZN7android3bpf8loadProgE
87:   FUNC GLOBAL DEFAULT 14 __aeabi_memcpy8
88:   OBJECT WEAK DEFAULT 18 _ZTCNSt3__114basic_ifstre
89:   FUNC GLOBAL DEFAULT 14 __mulodi4
90:   FUNC GLOBAL DEFAULT 14 _ZN7android3bpf11mapRetri
91:   FUNC GLOBAL DEFAULT 14 _ZN7android3bpfeqERKNS0_6
92:   FUNC WEAK DEFAULT 14 _ZNSt3__115basic_stringbu
93:   FUNC WEAK DEFAULT 14 _ZNSt3__16vectorIiNS_9all
94:   FUNC GLOBAL DEFAULT 14 __aeabi_memset4
95:   FUNC GLOBAL DEFAULT 14 _ZN7android3bpf16setrlimi
96:   FUNC WEAK DEFAULT 14 _ZNSt3__118__insertion_so
97:   FUNC GLOBAL DEFAULT 14 _ZN7android3bpf15writeToM
98:   OBJECT WEAK DEFAULT 18 _ZTVNSt3__115basic_string
99:   OBJECT WEAK DEFAULT 18 _ZTVNSt3__113basic_filebu
100:   FUNC GLOBAL DEFAULT 14 _ZN7android3bpf11bpfProgL
101:   FUNC GLOBAL DEFAULT 14 _ZN7android3bpf15getSocke
102:   FUNC GLOBAL DEFAULT 14 _ZN7android3bpfeqERKNS0_8
103:   FUNC WEAK DEFAULT 14 _ZNSt3__115basic_stringbu
104:   FUNC WEAK DEFAULT 14 _ZNSt3__115basic_stringbu
105:   OBJECT WEAK DEFAULT 18 _ZTVNSt3__119basic_istrin
106:   OBJECT WEAK DEFAULT 18 _ZTTNSt3__114basic_ifstre
107:   FUNC GLOBAL DEFAULT 14 __aeabi_memset8
108:   FUNC GLOBAL DEFAULT 14 _ZN7android3bpf18getBpfSu
109:   FUNC WEAK DEFAULT 14 _ZNSt3__113basic_filebufI
110:   FUNC WEAK DEFAULT 14 _ZNSt3__113basic_filebufI
111:   FUNC GLOBAL DEFAULT 14 __aeabi_uidiv
112:   FUNC GLOBAL DEFAULT 14 _ZN7android3bpf14deleteMa
113:   FUNC GLOBAL DEFAULT 14 _ZN7android3bpfeqERKNS0_1
114:   FUNC WEAK DEFAULT 14 _ZNSt3__113basic_filebufI
115:   FUNC WEAK DEFAULT 14 _ZNSt3__17__sort3IRPFb9el
116:   FUNC GLOBAL DEFAULT 14 __aeabi_memclr4
117:   FUNC GLOBAL DEFAULT 14 _ZN7android3bpf13attachPr
118:   FUNC GLOBAL DEFAULT 14 _ZN7android3bpf13getNextM
119:   FUNC GLOBAL DEFAULT 14 _ZN7android3bpf9createMap
120:   FUNC WEAK DEFAULT 14 _ZNSt3__16vectorIcNS_9all
121:   FUNC GLOBAL DEFAULT 14 __aeabi_memmove
122:   OBJECT WEAK DEFAULT 18 _ZTTNSt3__119basic_istrin
123:   FUNC GLOBAL DEFAULT 14 __udivsi3
124:   FUNC GLOBAL DEFAULT 14 __aeabi_memmove4
125:   FUNC WEAK DEFAULT 14 _ZNSt3__113basic_filebufI
126:   FUNC WEAK DEFAULT 14 _ZNSt3__16__sortIRPFb9elf
127:   FUNC WEAK DEFAULT 14 _ZNSt3__16vectorI9elf64_s
128:   FUNC WEAK DEFAULT 14 _ZNSt3__16vectorINS_12bas
129:   FUNC GLOBAL DEFAULT 14 __divmoddi4
130:   FUNC GLOBAL DEFAULT 14 _ZN7android3bpf16BpfLevel
131:   FUNC GLOBAL DEFAULT 14 __aeabi_memcpy
132:   OBJECT WEAK DEFAULT 18 _ZTVNSt3__114basic_ifstre
133:   FUNC GLOBAL DEFAULT 14 __aeabi_memclr8
134:   FUNC WEAK DEFAULT 14 _ZNSt3__115basic_stringbu
135:   FUNC WEAK DEFAULT 14 _ZNSt3__113basic_filebufI
136:   FUNC WEAK DEFAULT 14 _ZNSt3__127__insertion_so
137:   FUNC WEAK DEFAULT 14 _ZNSt3__16vectorIN7androi
138:   FUNC GLOBAL DEFAULT 14 __udivmodsi4
139:   FUNC GLOBAL DEFAULT 14 _ZN7android3bpf20synchron
140:   FUNC GLOBAL DEFAULT 14 _ZN7android3bpf8bpfFdPinE
141:   OBJECT WEAK DEFAULT 18 _ZTCNSt3__119basic_istrin
142:   FUNC GLOBAL DEFAULT 14 __aeabi_ldivmod
143:   FUNC GLOBAL DEFAULT 14 __aeabi_memmove8
144:   FUNC GLOBAL DEFAULT 14 _ZN7android3bpf13detachPr
145:   FUNC GLOBAL DEFAULT 14 _ZN7android3bpf8bpfFdGetE
146:   OBJECT GLOBAL DEFAULT 16 _ZN7android3bpf16sectionN
147:   FUNC WEAK DEFAULT 14 _ZNSt3__113basic_filebufI
148:   FUNC WEAK DEFAULT 14 _ZNSt3__113basic_filebufI
149:   FUNC WEAK DEFAULT 14 _ZNSt3__113basic_filebufI
150:   FUNC GLOBAL DEFAULT 14 __divdi3
151:   FUNC WEAK DEFAULT 14 _ZNSt3__113basic_filebufI
152:   FUNC WEAK DEFAULT 14 _ZNSt3__16vectorIcNS_9all
153:   FUNC GLOBAL DEFAULT 14 __udivmoddi4
154:   FUNC GLOBAL DEFAULT 14 __aeabi_memset
155:   FUNC GLOBAL DEFAULT 14 _ZN7android3bpf14getFirst
156:   FUNC WEAK DEFAULT 14 _ZNSt3__16vectorIiNS_9all
157:   FUNC GLOBAL DEFAULT 14 __aeabi_memcpy4
158:   FUNC GLOBAL DEFAULT 14 _ZN7android3bpf12findMapE
159:   FUNC WEAK DEFAULT 14 _ZNSt3__115basic_stringbu
160:   FUNC WEAK DEFAULT 14 _ZNSt3__17getlineIcNS_11c
161:   FUNC WEAK DEFAULT 14 _ZNSt3__16vectorIN7androi
162:   FUNC WEAK DEFAULT 14 _ZNSt3__113basic_filebufI
163:   FUNC WEAK DEFAULT 14 _ZNSt3__113basic_filebufI
164:   FUNC GLOBAL DEFAULT 14 __aeabi_uldivmod
165:   FUNC WEAK DEFAULT 14 _ZNSt3__16vectorI10elf64_
166:   FUNC WEAK DEFAULT 14 _ZNSt3__17__sort4IRPFb9el
167:   FUNC GLOBAL DEFAULT 14 __aeabi_memclr
168:   FUNC GLOBAL DEFAULT 14 __aeabi_uidivmod
