 0x000000000000000e (SONAME)             Library soname: [android.hardware.cas.native@1.0.so]
  
Symbol   contains 264 entries:
Num:   Type Bind Vis Ndx Name
0:   NOTYPE LOCAL DEFAULT UND
1:   FUNC GLOBAL DEFAULT UND __cxa_finalize@LIBC (2)
2:   FUNC GLOBAL DEFAULT UND _ZN7android14sp_report_ra
3:   FUNC GLOBAL DEFAULT UND _ZN7android21report_syspr
4:   OBJECT GLOBAL DEFAULT UND _ZN7android4hidl4base4V1_
5:   FUNC GLOBAL DEFAULT UND _ZN7android4hidl4base4V1_
6:   FUNC GLOBAL DEFAULT UND _ZN7android4hidl4base4V1_
7:   FUNC GLOBAL DEFAULT UND _ZN7android4hidl4base4V1_
8:   FUNC GLOBAL DEFAULT UND _ZN7android4hidl4base4V1_
9:   FUNC GLOBAL DEFAULT UND _ZN7android4hidl4base4V1_
10:   FUNC GLOBAL DEFAULT UND _ZN7android4hidl4base4V1_
11:   FUNC GLOBAL DEFAULT UND _ZN7android4hidl4base4V1_
12:   FUNC GLOBAL DEFAULT UND _ZN7android4hidl4base4V1_
13:   FUNC GLOBAL DEFAULT UND _ZN7android4hidl4base4V1_
14:   FUNC GLOBAL DEFAULT UND _ZN7android4hidl4base4V1_
15:   FUNC GLOBAL DEFAULT UND _ZN7android4hidl4base4V1_
16:   FUNC GLOBAL DEFAULT UND _ZN7android4hidl4base4V1_
17:   FUNC GLOBAL DEFAULT UND _ZN7android4hidl4base4V1_
18:   FUNC GLOBAL DEFAULT UND _ZN7android4hidl4base4V1_
19:   FUNC GLOBAL DEFAULT UND _ZN7android4hidl4base4V1_
20:   FUNC GLOBAL DEFAULT UND _ZN7android4hidl4base4V1_
21:   FUNC GLOBAL DEFAULT UND _ZN7android4hidl4base4V1_
22:   FUNC GLOBAL DEFAULT UND _ZN7android4hidl4base4V1_
23:   FUNC GLOBAL DEFAULT UND _ZN7android4hidl4base4V1_
24:   FUNC GLOBAL DEFAULT UND _ZN7android4hidl4base4V1_
25:   FUNC GLOBAL DEFAULT UND _ZN7android4hidl4base4V1_
26:   FUNC GLOBAL DEFAULT UND _ZN7android4hidl4base4V1_
27:   FUNC GLOBAL DEFAULT UND _ZN7android4hidl4base4V1_
28:   FUNC GLOBAL DEFAULT UND _ZN7android7RefBase10onFi
29:   FUNC GLOBAL DEFAULT UND _ZN7android7RefBase12weak
30:   FUNC GLOBAL DEFAULT UND _ZN7android7RefBase13onLa
31:   FUNC GLOBAL DEFAULT UND _ZN7android7RefBase15onLa
32:   FUNC GLOBAL DEFAULT UND _ZN7android7RefBase20onIn
33:   FUNC GLOBAL DEFAULT UND _ZN7android7RefBaseC2Ev
34:   FUNC GLOBAL DEFAULT UND _ZN7android7RefBaseD2Ev
35:   FUNC GLOBAL DEFAULT UND _ZN7android8hardware10IIn
36:   FUNC GLOBAL DEFAULT UND _ZN7android8hardware10IIn
37:   FUNC GLOBAL DEFAULT UND _ZN7android8hardware10IIn
38:   FUNC GLOBAL DEFAULT UND _ZN7android8hardware10IIn
39:   FUNC GLOBAL DEFAULT UND _ZN7android8hardware10IIn
40:   FUNC GLOBAL DEFAULT UND _ZN7android8hardware11BpH
41:   FUNC GLOBAL DEFAULT UND _ZN7android8hardware11BpH
42:   FUNC GLOBAL DEFAULT UND _ZN7android8hardware11BpH
43:   FUNC GLOBAL DEFAULT UND _ZN7android8hardware11BpH
44:   FUNC GLOBAL DEFAULT UND _ZN7android8hardware11BpH
45:   FUNC GLOBAL DEFAULT UND _ZN7android8hardware11BpH
46:   FUNC GLOBAL DEFAULT UND _ZN7android8hardware11BpH
47:   FUNC GLOBAL DEFAULT UND _ZN7android8hardware11hid
48:   FUNC GLOBAL DEFAULT UND _ZN7android8hardware11hid
49:   FUNC GLOBAL DEFAULT UND _ZN7android8hardware11hid
50:   FUNC GLOBAL DEFAULT UND _ZN7android8hardware11hid
51:   FUNC GLOBAL DEFAULT UND _ZN7android8hardware11hid
52:   FUNC GLOBAL DEFAULT UND _ZN7android8hardware12Pro
53:   FUNC GLOBAL DEFAULT UND _ZN7android8hardware12Pro
54:   FUNC GLOBAL DEFAULT UND _ZN7android8hardware13wri
55:   FUNC GLOBAL DEFAULT UND _ZN7android8hardware14rea
56:   FUNC GLOBAL DEFAULT UND _ZN7android8hardware21def
57:   FUNC GLOBAL DEFAULT UND _ZN7android8hardware21wri
58:   FUNC GLOBAL DEFAULT UND _ZN7android8hardware22rea
59:   FUNC GLOBAL DEFAULT UND _ZN7android8hardware23get
60:   FUNC GLOBAL DEFAULT UND _ZN7android8hardware27hid
61:   FUNC GLOBAL DEFAULT UND _ZN7android8hardware27hid
62:   OBJECT GLOBAL DEFAULT UND _ZN7android8hardware3cas4
63:   FUNC GLOBAL DEFAULT UND _ZN7android8hardware3cas4
64:   FUNC GLOBAL DEFAULT UND _ZN7android8hardware3cas4
65:   FUNC GLOBAL DEFAULT UND _ZN7android8hardware3cas4
66:   FUNC GLOBAL DEFAULT UND _ZN7android8hardware3cas4
67:   FUNC GLOBAL DEFAULT UND _ZN7android8hardware3cas4
68:   FUNC GLOBAL DEFAULT UND _ZN7android8hardware3cas4
69:   FUNC GLOBAL DEFAULT UND _ZN7android8hardware3cas4
70:   FUNC GLOBAL DEFAULT UND _ZN7android8hardware3cas4
71:   FUNC GLOBAL DEFAULT UND _ZN7android8hardware3cas4
72:   FUNC GLOBAL DEFAULT UND _ZN7android8hardware3cas4
73:   FUNC GLOBAL DEFAULT UND _ZN7android8hardware3cas4
74:   FUNC GLOBAL DEFAULT UND _ZN7android8hardware3cas4
75:   FUNC GLOBAL DEFAULT UND _ZN7android8hardware3cas4
76:   FUNC GLOBAL DEFAULT UND _ZN7android8hardware3cas4
77:   FUNC GLOBAL DEFAULT UND _ZN7android8hardware3cas4
78:   FUNC GLOBAL DEFAULT UND _ZN7android8hardware3cas4
79:   FUNC GLOBAL DEFAULT UND _ZN7android8hardware6Parc
80:   FUNC GLOBAL DEFAULT UND _ZN7android8hardware6Parc
81:   FUNC GLOBAL DEFAULT UND _ZN7android8hardware6Parc
82:   FUNC GLOBAL DEFAULT UND _ZN7android8hardware6Parc
83:   FUNC GLOBAL DEFAULT UND _ZN7android8hardware6Parc
84:   FUNC GLOBAL DEFAULT UND _ZN7android8hardware6Parc
85:   FUNC GLOBAL DEFAULT UND _ZN7android8hardware6Parc
86:   FUNC GLOBAL DEFAULT UND _ZN7android8hardware6Stat
87:   FUNC GLOBAL DEFAULT UND _ZN7android8hardware6Stat
88:   FUNC GLOBAL DEFAULT UND _ZN7android8hardware6Stat
89:   FUNC GLOBAL DEFAULT UND _ZN7android8hardware6Stat
90:   FUNC GLOBAL DEFAULT UND _ZN7android8hardware7IBin
91:   FUNC GLOBAL DEFAULT UND _ZN7android8hardware7IBin
92:   FUNC GLOBAL DEFAULT UND _ZN7android8hardware7IBin
93:   FUNC GLOBAL DEFAULT UND _ZN7android8hardware7IBin
94:   FUNC GLOBAL DEFAULT UND _ZN7android8hardware7deta
95:   FUNC GLOBAL DEFAULT UND _ZN7android8hardware7deta
96:   FUNC GLOBAL DEFAULT UND _ZN7android8hardware7deta
97:   FUNC GLOBAL DEFAULT UND _ZN7android8hardware7deta
98:   FUNC GLOBAL DEFAULT UND _ZN7android8hardware7deta
99:   FUNC GLOBAL DEFAULT UND _ZN7android8hardware7deta
100:   FUNC GLOBAL DEFAULT UND _ZN7android8hardware7deta
101:   OBJECT GLOBAL DEFAULT UND _ZN7android8hardware7deta
102:   FUNC GLOBAL DEFAULT UND _ZN7android8hardware7deta
103:   OBJECT GLOBAL DEFAULT UND _ZN7android8hardware7deta
104:   FUNC GLOBAL DEFAULT UND _ZN7android8hardware7deta
105:   FUNC GLOBAL DEFAULT UND _ZN7android8hardware7deta
106:   FUNC GLOBAL DEFAULT UND _ZN7android8hardware7deta
107:   FUNC GLOBAL DEFAULT UND _ZN7android8hardware7deta
108:   FUNC GLOBAL DEFAULT UND _ZN7android8hardware7deta
109:   FUNC GLOBAL DEFAULT UND _ZN7android8hardware7deta
110:   FUNC GLOBAL DEFAULT UND _ZN7android8hardware7deta
111:   FUNC GLOBAL DEFAULT UND _ZN7android8hardware7deta
112:   FUNC GLOBAL DEFAULT UND _ZN7android8hardware7deta
113:   OBJECT GLOBAL DEFAULT UND _ZN7android8hardware7deta
114:   FUNC GLOBAL DEFAULT UND _ZN7android8hardware9BHwB
115:   FUNC GLOBAL DEFAULT UND _ZN7android8hardware9BHwB
116:   FUNC GLOBAL DEFAULT UND _ZN7android8hardware9BHwB
117:   FUNC GLOBAL DEFAULT UND _ZN7android8hardware9BHwB
118:   FUNC GLOBAL DEFAULT UND _ZN7android8hardware9BHwB
119:   FUNC GLOBAL DEFAULT UND _ZN7android8hardware9BHwB
120:   FUNC GLOBAL DEFAULT UND _ZN7android8hardware9BHwB
121:   FUNC GLOBAL DEFAULT UND _ZN7android8hardware9BHwB
122:   FUNC GLOBAL DEFAULT UND _ZN7android8hardware9BHwB
123:   FUNC GLOBAL DEFAULT UND _ZN7android8hardware9BHwB
124:   FUNC GLOBAL DEFAULT UND _ZNK7android7RefBase10cre
125:   FUNC GLOBAL DEFAULT UND _ZNK7android7RefBase11get
126:   FUNC GLOBAL DEFAULT UND _ZNK7android7RefBase9decS
127:   FUNC GLOBAL DEFAULT UND _ZNK7android7RefBase9incS
128:   FUNC GLOBAL DEFAULT UND _ZNK7android8hardware6Par
129:   FUNC GLOBAL DEFAULT UND _ZNK7android8hardware6Par
130:   FUNC GLOBAL DEFAULT UND _ZNK7android8hardware6Par
131:   FUNC GLOBAL DEFAULT UND _ZNK7android8hardware6Par
132:   FUNC GLOBAL DEFAULT UND _ZNK7android8hardware6Par
133:   FUNC GLOBAL DEFAULT UND _ZNK7android8hardware7IBi
134:   FUNC GLOBAL DEFAULT UND _ZNK7android8hardware7det
135:   FUNC GLOBAL DEFAULT UND _ZNK7android8hardware9BHw
136:   FUNC GLOBAL DEFAULT UND _ZNKSt3__120__vector_base
137:   FUNC GLOBAL DEFAULT UND _ZNKSt3__121__basic_strin
138:   FUNC GLOBAL DEFAULT UND _ZNSt3__112basic_stringIc
139:   FUNC GLOBAL DEFAULT UND _ZNSt3__15mutex4lockEv
140:   FUNC GLOBAL DEFAULT UND _ZNSt3__15mutex6unlockEv
141:   FUNC GLOBAL DEFAULT UND _ZNSt3__15mutexD1Ev
142:   FUNC GLOBAL DEFAULT UND _ZTv0_n24_N7android4hidl4
143:   FUNC GLOBAL DEFAULT UND _ZTv0_n24_N7android4hidl4
144:   FUNC GLOBAL DEFAULT UND _ZTv0_n24_N7android8hardw
145:   FUNC GLOBAL DEFAULT UND _ZTv0_n24_N7android8hardw
146:   FUNC GLOBAL DEFAULT UND _ZTv0_n24_N7android8hardw
147:   FUNC GLOBAL DEFAULT UND _ZTv0_n24_N7android8hardw
148:   FUNC GLOBAL DEFAULT UND _ZTv0_n24_N7android8hardw
149:   FUNC GLOBAL DEFAULT UND _ZTv0_n24_N7android8hardw
150:   FUNC GLOBAL DEFAULT UND _ZTv0_n24_N7android8hardw
151:   FUNC GLOBAL DEFAULT UND _ZTv0_n24_N7android8hardw
152:   FUNC GLOBAL DEFAULT UND _ZTv0_n32_N7android8hardw
153:   FUNC GLOBAL DEFAULT UND _ZTv0_n40_N7android8hardw
154:   FUNC GLOBAL DEFAULT UND _ZTv0_n48_N7android8hardw
155:   FUNC GLOBAL DEFAULT UND _ZdaPv
156:   FUNC GLOBAL DEFAULT UND _ZdlPv
157:   FUNC GLOBAL DEFAULT UND _Znam
158:   FUNC GLOBAL DEFAULT UND _Znwm
159:   FUNC GLOBAL DEFAULT UND __android_log_assert@LIBLOG (3)
160:   FUNC GLOBAL DEFAULT UND __cxa_pure_virtual
161:   FUNC GLOBAL DEFAULT UND __stack_chk_fail@LIBC (2)
162:   FUNC GLOBAL DEFAULT UND abort@LIBC (2)
163:   FUNC GLOBAL DEFAULT UND atrace_begin_body
164:   OBJECT GLOBAL DEFAULT UND atrace_enabled_tags
165:   FUNC GLOBAL DEFAULT UND atrace_end_body
166:   OBJECT GLOBAL DEFAULT UND atrace_is_ready
167:   FUNC GLOBAL DEFAULT UND atrace_setup
168:   FUNC GLOBAL DEFAULT UND memcmp@LIBC (2)
169:   FUNC GLOBAL DEFAULT UND memcpy@LIBC (2)
170:   FUNC GLOBAL DEFAULT UND memset@LIBC (2)
171:   FUNC GLOBAL DEFAULT UND strlen@LIBC (2)
172:   FUNC GLOBAL DEFAULT UND _ZN7android8hardware21wri
173:   FUNC GLOBAL DEFAULT UND _ZN7android8hardware21wri
174:   FUNC GLOBAL DEFAULT UND _ZN7android8hardware22rea
175:   FUNC GLOBAL DEFAULT UND _ZN7android8hardware22rea
176:   FUNC GLOBAL DEFAULT 14 _ZN7android8hardware3cas6
177:   FUNC GLOBAL DEFAULT 14 _ZN7android8hardware3cas6
178:   FUNC GLOBAL DEFAULT 14 _ZN7android8hardware3cas6
179:   FUNC GLOBAL DEFAULT 14 _ZN7android8hardware3cas6
180:   OBJECT GLOBAL DEFAULT 18 _ZTCN7android8hardware3ca
181:   OBJECT GLOBAL DEFAULT 16 _ZN7android8hardware3cas6
182:   FUNC GLOBAL DEFAULT 14 _ZN7android8hardware3cas6
183:   OBJECT GLOBAL DEFAULT 18 _ZTCN7android8hardware3ca
184:   OBJECT GLOBAL DEFAULT 18 _ZTCN7android8hardware3ca
185:   FUNC GLOBAL DEFAULT 14 _ZN7android8hardware3cas6
186:   FUNC GLOBAL DEFAULT 14 _ZN7android8hardware3cas6
187:   FUNC GLOBAL DEFAULT 14 _ZN7android8hardware3cas6
188:   FUNC WEAK DEFAULT 14 _ZNSt3__16vectorIN7androi
189:   OBJECT GLOBAL DEFAULT 18 _ZTTN7android8hardware3ca
190:   FUNC GLOBAL DEFAULT 14 _ZN7android8hardware3cas6
191:   FUNC WEAK DEFAULT 14 _ZN7android8hardware7deta
192:   FUNC GLOBAL DEFAULT 14 _ZTv0_n24_N7android8hardw
193:   FUNC GLOBAL DEFAULT 14 _ZN7android8hardware3cas6
194:   FUNC GLOBAL DEFAULT 14 _ZN7android8hardware3cas6
195:   FUNC GLOBAL DEFAULT 14 _ZN7android8hardware3cas6
196:   FUNC GLOBAL DEFAULT 14 _ZN7android8hardware3cas6
197:   FUNC GLOBAL DEFAULT 14 _ZN7android8hardware3cas6
198:   FUNC GLOBAL DEFAULT 14 _ZN7android8hardware3cas6
199:   FUNC WEAK DEFAULT 14 _ZNSt3__16vectorIPvNS_9al
200:   FUNC GLOBAL DEFAULT 14 _ZN7android8hardware3cas6
201:   FUNC WEAK DEFAULT 14 _ZN7android8hardware7deta
202:   FUNC WEAK DEFAULT 14 _ZNSt3__16__treeINS_12__v
203:   OBJECT GLOBAL DEFAULT 18 _ZTCN7android8hardware3ca
204:   FUNC GLOBAL DEFAULT 14 _ZN7android8hardware3cas6
205:   FUNC GLOBAL DEFAULT 14 _ZN7android8hardware3cas6
206:   FUNC WEAK DEFAULT 14 _ZNSt3__16__treeINS_12__v
207:   OBJECT GLOBAL DEFAULT 18 _ZTCN7android8hardware3ca
208:   OBJECT GLOBAL DEFAULT 18 _ZTCN7android8hardware3ca
209:   FUNC GLOBAL DEFAULT 14 _ZN7android8hardware3cas6
210:   FUNC WEAK DEFAULT 14 _ZNSt3__16vectorINS_8func
211:   OBJECT GLOBAL DEFAULT 18 _ZTVN7android8hardware3ca
212:   FUNC GLOBAL DEFAULT 14 _ZN7android8hardware3cas6
213:   FUNC GLOBAL DEFAULT 14 _ZN7android8hardware3cas6
214:   FUNC GLOBAL DEFAULT 14 _ZN7android8hardware3cas6
215:   FUNC GLOBAL DEFAULT 14 _ZN7android8hardware3cas6
216:   OBJECT GLOBAL DEFAULT 18 _ZTTN7android8hardware3ca
217:   OBJECT GLOBAL DEFAULT 18 _ZTCN7android8hardware3ca
218:   OBJECT GLOBAL DEFAULT 18 _ZTCN7android8hardware3ca
219:   FUNC GLOBAL DEFAULT 14 _ZThn32_N7android8hardwar
220:   FUNC GLOBAL DEFAULT 14 _ZN7android8hardware3cas6
221:   FUNC GLOBAL DEFAULT 14 _ZN7android8hardware3cas6
222:   FUNC GLOBAL DEFAULT 14 _ZN7android8hardware3cas6
223:   FUNC GLOBAL DEFAULT 14 _ZN7android8hardware3cas6
224:   FUNC WEAK DEFAULT 14 _ZNSt3__16__treeINS_12__v
225:   FUNC GLOBAL DEFAULT 14 _ZN7android8hardware3cas6
226:   FUNC GLOBAL DEFAULT 14 _ZN7android8hardware3cas6
227:   FUNC WEAK DEFAULT 14 _ZNSt3__16__treeINS_12__v
228:   FUNC WEAK DEFAULT 14 _ZNSt3__16__treeINS_12__v
229:   OBJECT GLOBAL DEFAULT 18 _ZTTN7android8hardware3ca
230:   FUNC GLOBAL DEFAULT 14 _ZN7android8hardware3cas6
231:   FUNC GLOBAL DEFAULT 14 _ZN7android8hardware3cas6
232:   FUNC GLOBAL DEFAULT 14 _ZN7android8hardware3cas6
233:   FUNC WEAK DEFAULT 14 _ZN7android8hardware7deta
234:   OBJECT WEAK DEFAULT 18 _ZTCN7android8hardware3ca
235:   FUNC GLOBAL DEFAULT 14 _ZN7android8hardware3cas6
236:   FUNC GLOBAL DEFAULT 14 _ZN7android8hardware3cas6
237:   FUNC GLOBAL DEFAULT 14 _ZN7android8hardware3cas6
238:   FUNC GLOBAL DEFAULT 14 _ZN7android8hardware3cas6
239:   FUNC GLOBAL DEFAULT 14 _ZN7android8hardware3cas6
240:   FUNC GLOBAL DEFAULT 14 _ZN7android8hardware3cas6
241:   OBJECT GLOBAL DEFAULT 18 _ZTCN7android8hardware3ca
242:   FUNC GLOBAL DEFAULT 14 _ZTv0_n24_N7android8hardw
243:   FUNC GLOBAL DEFAULT 14 _ZN7android8hardware3cas6
244:   FUNC GLOBAL DEFAULT 14 _ZN7android8hardware3cas6
245:   FUNC GLOBAL DEFAULT 14 _ZN7android8hardware3cas6
246:   FUNC GLOBAL DEFAULT 14 _ZN7android8hardware3cas6
247:   FUNC GLOBAL DEFAULT 14 _ZN7android8hardware3cas6
248:   FUNC WEAK DEFAULT 14 _ZNSt3__16__treeINS_12__v
249:   OBJECT GLOBAL DEFAULT 18 _ZTCN7android8hardware3ca
250:   OBJECT WEAK DEFAULT 18 _ZTVN7android8hardware3ca
251:   OBJECT GLOBAL DEFAULT 18 _ZTVN7android8hardware3ca
252:   FUNC GLOBAL DEFAULT 14 _ZN7android8hardware3cas6
253:   FUNC GLOBAL DEFAULT 14 _ZN7android8hardware3cas6
254:   FUNC GLOBAL DEFAULT 14 _ZN7android8hardware3cas6
255:   FUNC WEAK DEFAULT 14 _ZNSt3__127__tree_balance
256:   OBJECT GLOBAL DEFAULT 18 _ZTCN7android8hardware3ca
257:   FUNC GLOBAL DEFAULT 14 _ZN7android8hardware3cas6
258:   FUNC GLOBAL DEFAULT 14 _ZN7android8hardware3cas6
259:   OBJECT GLOBAL DEFAULT 18 _ZTVN7android8hardware3ca
260:   FUNC GLOBAL DEFAULT 14 _ZN7android8hardware3cas6
261:   FUNC WEAK DEFAULT 14 _ZNSt3__113__tree_removeI
262:   FUNC GLOBAL DEFAULT 14 _ZN7android8hardware3cas6
263:   FUNC GLOBAL DEFAULT 14 _ZThn32_N7android8hardwar
