 0x0000000e (SONAME)                     Library soname: [libtimestats_proto.so]
  
Symbol   contains 303 entries:
Num:   Type Bind Vis Ndx Name
0:   NOTYPE LOCAL DEFAULT UND
1:   FUNC GLOBAL DEFAULT UND __cxa_finalize@LIBC (2)
2:   FUNC GLOBAL DEFAULT UND _ZN6google8protobuf5Arena
3:   FUNC GLOBAL DEFAULT UND _ZN6google8protobuf5Arena
4:   OBJECT GLOBAL DEFAULT UND _ZN6google8protobuf8inter
5:   FUNC GLOBAL DEFAULT UND _ZN6google8protobuf8inter
6:   FUNC GLOBAL DEFAULT UND _ZN7android4base13StringA
7:   FUNC GLOBAL DEFAULT UND _ZNKSt3__120__vector_base
8:   FUNC GLOBAL DEFAULT UND _ZNSt3__112__next_primeEj
9:   FUNC GLOBAL DEFAULT UND _ZNSt3__112basic_stringIc
10:   FUNC GLOBAL DEFAULT UND _ZNSt3__112basic_stringIc
11:   FUNC GLOBAL DEFAULT UND _ZNSt3__112basic_stringIc
12:   FUNC GLOBAL DEFAULT UND _ZdlPv
13:   FUNC GLOBAL DEFAULT UND _Znwj
14:   FUNC GLOBAL DEFAULT UND __stack_chk_fail@LIBC (2)
15:   OBJECT GLOBAL DEFAULT UND __stack_chk_guard@LIBC (2)
16:   FUNC GLOBAL DEFAULT UND abort@LIBC (2)
17:   FUNC GLOBAL DEFAULT UND memcmp@LIBC (2)
18:   FUNC GLOBAL DEFAULT UND _ZN6google8protobuf11Mess
19:   FUNC GLOBAL DEFAULT UND _ZN6google8protobuf18Goog
20:   FUNC GLOBAL DEFAULT UND _ZN6google8protobuf2io16C
21:   FUNC GLOBAL DEFAULT UND _ZN6google8protobuf2io16C
22:   FUNC GLOBAL DEFAULT UND _ZN6google8protobuf2io16C
23:   FUNC GLOBAL DEFAULT UND _ZN6google8protobuf2io16C
24:   FUNC GLOBAL DEFAULT UND _ZN6google8protobuf2io16C
25:   FUNC GLOBAL DEFAULT UND _ZN6google8protobuf2io16C
26:   FUNC GLOBAL DEFAULT UND _ZN6google8protobuf2io16C
27:   FUNC GLOBAL DEFAULT UND _ZN6google8protobuf2io17C
28:   FUNC GLOBAL DEFAULT UND _ZN6google8protobuf2io17C
29:   FUNC GLOBAL DEFAULT UND _ZN6google8protobuf2io17C
30:   FUNC GLOBAL DEFAULT UND _ZN6google8protobuf2io17C
31:   FUNC GLOBAL DEFAULT UND _ZN6google8protobuf2io17C
32:   FUNC GLOBAL DEFAULT UND _ZN6google8protobuf2io22L
33:   FUNC GLOBAL DEFAULT UND _ZN6google8protobuf2io22L
34:   FUNC GLOBAL DEFAULT UND _ZN6google8protobuf8inter
35:   FUNC GLOBAL DEFAULT UND _ZN6google8protobuf8inter
36:   FUNC GLOBAL DEFAULT UND _ZN6google8protobuf8inter
37:   FUNC GLOBAL DEFAULT UND _ZN6google8protobuf8inter
38:   FUNC GLOBAL DEFAULT UND _ZN6google8protobuf8inter
39:   FUNC GLOBAL DEFAULT UND _ZN6google8protobuf8inter
40:   FUNC GLOBAL DEFAULT UND _ZN6google8protobuf8inter
41:   FUNC GLOBAL DEFAULT UND _ZN6google8protobuf8inter
42:   FUNC GLOBAL DEFAULT UND _ZN6google8protobuf8inter
43:   FUNC GLOBAL DEFAULT UND _ZN6google8protobuf8inter
44:   FUNC GLOBAL DEFAULT UND _ZN6google8protobuf8inter
45:   FUNC GLOBAL DEFAULT UND _ZN6google8protobuf8inter
46:   FUNC GLOBAL DEFAULT UND _ZN6google8protobuf8inter
47:   FUNC GLOBAL DEFAULT UND _ZN6google8protobuf8inter
48:   FUNC GLOBAL DEFAULT UND _ZN6google8protobuf8inter
49:   FUNC GLOBAL DEFAULT UND _ZN6google8protobuf8inter
50:   FUNC GLOBAL DEFAULT UND _ZN6google8protobuf8inter
51:   OBJECT GLOBAL DEFAULT UND _ZN6google8protobuf8inter
52:   FUNC GLOBAL DEFAULT UND _ZNK6google8protobuf11Mes
53:   FUNC GLOBAL DEFAULT UND _ZNK6google8protobuf11Mes
54:   OBJECT GLOBAL DEFAULT UND _ZTVN6google8protobuf8int
55:   FUNC GLOBAL DEFAULT UND _ZdaPv
56:   FUNC GLOBAL DEFAULT UND memcpy@LIBC (2)
57:   FUNC GLOBAL DEFAULT UND memset@LIBC (2)
58:   FUNC WEAK DEFAULT 14 _ZN6google8protobuf8inter
59:   OBJECT GLOBAL DEFAULT 12 _ZN7android14surfacefling
60:   FUNC GLOBAL DEFAULT 14 _ZN7android14surfacefling
61:   FUNC GLOBAL DEFAULT 14 _ZN7android14surfacefling
62:   FUNC GLOBAL DEFAULT 14 _ZNK7android14surfaceflin
63:   OBJECT WEAK DEFAULT 18 _ZTVN6google8protobuf8int
64:   FUNC GLOBAL DEFAULT 14 __aeabi_memcpy4
65:   FUNC WEAK DEFAULT 14 _ZNSt3__16vectorIPKN7andr
66:   OBJECT GLOBAL DEFAULT 12 _ZN7android14surfacefling
67:   FUNC GLOBAL DEFAULT 14 _ZN7android14surfacefling
68:   FUNC GLOBAL DEFAULT 14 _ZNK7android14surfaceflin
69:   FUNC GLOBAL DEFAULT 14 _ZNK7android14surfaceflin
70:   FUNC GLOBAL DEFAULT 14 __aeabi_memset4
71:   FUNC GLOBAL DEFAULT 14 __aeabi_memcpy
72:   FUNC WEAK DEFAULT 14 _ZN6google8protobuf8inter
73:   FUNC GLOBAL DEFAULT 14 _ZN7android14surfacefling
74:   FUNC GLOBAL DEFAULT 14 _ZNK7android14surfaceflin
75:   FUNC GLOBAL DEFAULT 14 _ZNK7android14surfaceflin
76:   FUNC WEAK DEFAULT 14 _ZN6google8protobuf8inter
77:   FUNC GLOBAL DEFAULT 14 _ZN7android14surfacefling
78:   OBJECT GLOBAL DEFAULT 23 _ZN7android14surfacefling
79:   OBJECT GLOBAL DEFAULT 12 _ZN7android14surfacefling
80:   OBJECT GLOBAL DEFAULT 12 _ZN7android14surfacefling
81:   FUNC GLOBAL DEFAULT 14 _ZN7android14surfacefling
82:   FUNC GLOBAL DEFAULT 14 _ZN7android14surfacefling
83:   FUNC GLOBAL DEFAULT 14 _ZNK7android14surfaceflin
84:   FUNC GLOBAL DEFAULT 14 __aeabi_memcpy8
85:   FUNC GLOBAL DEFAULT 14 _ZN7android14surfacefling
86:   FUNC GLOBAL DEFAULT 14 __aeabi_memset8
87:   FUNC WEAK DEFAULT 14 _ZN6google8protobuf8inter
88:   FUNC GLOBAL DEFAULT 14 _ZN7android14surfacefling
89:   FUNC GLOBAL DEFAULT 14 _ZN7android14surfacefling
90:   FUNC GLOBAL DEFAULT 14 _ZNK7android14surfaceflin
91:   FUNC GLOBAL DEFAULT 14 _ZNK7android14surfaceflin
92:   FUNC GLOBAL DEFAULT 14 _ZNK7android14surfaceflin
93:   FUNC GLOBAL DEFAULT 14 _ZNK7android14surfaceflin
94:   OBJECT GLOBAL DEFAULT 23 _ZN7android14surfacefling
95:   FUNC GLOBAL DEFAULT 14 _ZNK7android14surfaceflin
96:   FUNC GLOBAL DEFAULT 14 _ZNK7android14surfaceflin
97:   FUNC GLOBAL DEFAULT 14 _ZNK7android14surfaceflin
98:   FUNC GLOBAL DEFAULT 14 __aeabi_ldivmod
99:   FUNC GLOBAL DEFAULT 14 _ZN7android14surfacefling
100:   OBJECT GLOBAL DEFAULT 12 _ZN7android14surfacefling
101:   OBJECT GLOBAL DEFAULT 12 _ZN7android14surfacefling
102:   FUNC GLOBAL DEFAULT 14 _ZN7android14surfacefling
103:   FUNC WEAK DEFAULT 14 _ZN6google8protobuf8inter
104:   OBJECT GLOBAL DEFAULT 12 _ZN7android14surfacefling
105:   FUNC GLOBAL DEFAULT 14 _ZN7android14surfacefling
106:   FUNC GLOBAL DEFAULT 14 _ZN7android14surfacefling
107:   FUNC GLOBAL DEFAULT 14 _ZN7android14surfacefling
108:   OBJECT GLOBAL DEFAULT 18 _ZTVN7android14surfacefli
109:   OBJECT GLOBAL DEFAULT 12 _ZN7android14surfacefling
110:   FUNC GLOBAL DEFAULT 14 _ZN7android14surfacefling
111:   FUNC GLOBAL DEFAULT 14 _ZNK7android14surfaceflin
112:   OBJECT GLOBAL DEFAULT 12 _ZN7android14surfacefling
113:   FUNC GLOBAL DEFAULT 14 _ZN7android14surfacefling
114:   FUNC GLOBAL DEFAULT 14 _ZN7android14surfacefling
115:   FUNC GLOBAL DEFAULT 14 _ZN7android14surfacefling
116:   FUNC GLOBAL DEFAULT 14 _ZN7android14surfacefling
117:   FUNC GLOBAL DEFAULT 14 _ZN7android14surfacefling
118:   FUNC GLOBAL DEFAULT 14 _ZN7android14surfacefling
119:   FUNC GLOBAL DEFAULT 14 _ZNK7android14surfaceflin
120:   FUNC GLOBAL DEFAULT 14 _ZN7android14surfacefling
121:   OBJECT GLOBAL DEFAULT 23 _ZN7android14surfacefling
122:   FUNC GLOBAL DEFAULT 14 _ZN7android14surfacefling
123:   FUNC GLOBAL DEFAULT 14 _ZN7android14surfacefling
124:   FUNC GLOBAL DEFAULT 14 _ZN7android14surfacefling
125:   FUNC GLOBAL DEFAULT 14 _ZN7android14surfacefling
126:   FUNC GLOBAL DEFAULT 14 _ZNK7android14surfaceflin
127:   FUNC GLOBAL DEFAULT 14 _ZNK7android14surfaceflin
128:   FUNC WEAK DEFAULT 14 _ZN6google8protobuf8inter
129:   FUNC GLOBAL DEFAULT 14 _ZN7android14surfacefling
130:   FUNC GLOBAL DEFAULT 14 __aeabi_uidiv
131:   FUNC GLOBAL DEFAULT 14 _ZN7android14surfacefling
132:   FUNC GLOBAL DEFAULT 14 _ZN7android14surfacefling
133:   FUNC GLOBAL DEFAULT 14 _ZN7android14surfacefling
134:   FUNC GLOBAL DEFAULT 14 _ZNK7android14surfaceflin
135:   OBJECT WEAK DEFAULT 16 _ZN6google8protobuf8inter
136:   OBJECT GLOBAL DEFAULT 12 _ZN7android14surfacefling
137:   OBJECT GLOBAL DEFAULT 12 _ZN7android14surfacefling
138:   FUNC GLOBAL DEFAULT 14 _ZN7android14surfacefling
139:   FUNC WEAK DEFAULT 14 _ZNKSt3__112__hash_tableI
140:   OBJECT GLOBAL DEFAULT 23 _ZN7android14surfacefling
141:   FUNC GLOBAL DEFAULT 14 _ZN7android14surfacefling
142:   FUNC GLOBAL DEFAULT 14 _ZN7android14surfacefling
143:   OBJECT GLOBAL DEFAULT 12 _ZN7android14surfacefling
144:   FUNC GLOBAL DEFAULT 14 _ZN7android14surfacefling
145:   OBJECT GLOBAL DEFAULT 12 _ZN7android14surfacefling
146:   FUNC GLOBAL DEFAULT 14 _ZN7android14surfacefling
147:   FUNC GLOBAL DEFAULT 14 _ZN7android14surfacefling
148:   FUNC GLOBAL DEFAULT 14 _ZN7android14surfacefling
149:   FUNC WEAK DEFAULT 14 _ZN6google8protobuf8inter
150:   FUNC GLOBAL DEFAULT 14 _ZN7android14surfacefling
151:   FUNC GLOBAL DEFAULT 14 _ZN7android14surfacefling
152:   OBJECT GLOBAL DEFAULT 12 _ZN7android14surfacefling
153:   FUNC GLOBAL DEFAULT 14 _ZN7android14surfacefling
154:   OBJECT GLOBAL DEFAULT 18 _ZTVN7android14surfacefli
155:   FUNC GLOBAL DEFAULT 14 _ZN7android14surfacefling
156:   FUNC GLOBAL DEFAULT 14 _ZN7android14surfacefling
157:   FUNC GLOBAL DEFAULT 14 _ZNK7android14surfaceflin
158:   FUNC GLOBAL DEFAULT 14 _ZN7android14surfacefling
159:   FUNC GLOBAL DEFAULT 14 _ZN7android14surfacefling
160:   FUNC GLOBAL DEFAULT 14 _ZN7android14surfacefling
161:   FUNC GLOBAL DEFAULT 14 _ZN7android14surfacefling
162:   FUNC WEAK DEFAULT 14 _ZN6google8protobuf8inter
163:   FUNC GLOBAL DEFAULT 14 _ZN7android14surfacefling
164:   FUNC GLOBAL DEFAULT 14 _ZNK7android14surfaceflin
165:   FUNC GLOBAL DEFAULT 14 _ZNK7android14surfaceflin
166:   OBJECT WEAK DEFAULT 18 _ZTVN6google8protobuf8int
167:   FUNC GLOBAL DEFAULT 14 _ZN7android14surfacefling
168:   FUNC GLOBAL DEFAULT 14 _ZN7android14surfacefling
169:   FUNC GLOBAL DEFAULT 14 _ZN7android14surfacefling
170:   FUNC GLOBAL DEFAULT 14 _ZNK7android14surfaceflin
171:   OBJECT WEAK DEFAULT 18 _ZTVN6google8protobuf8int
172:   FUNC GLOBAL DEFAULT 14 _ZN7android14surfacefling
173:   FUNC GLOBAL DEFAULT 14 _ZN7android14surfacefling
174:   FUNC GLOBAL DEFAULT 14 _ZN7android14surfacefling
175:   FUNC GLOBAL DEFAULT 14 _ZN7android14surfacefling
176:   FUNC GLOBAL DEFAULT 14 _ZNK7android14surfaceflin
177:   FUNC WEAK DEFAULT 14 _ZN6google8protobuf8inter
178:   FUNC GLOBAL DEFAULT 14 _ZN7android14surfacefling
179:   FUNC GLOBAL DEFAULT 14 _ZNK7android14surfaceflin
180:   FUNC GLOBAL DEFAULT 14 _ZNK7android14surfaceflin
181:   FUNC WEAK DEFAULT 14 _ZN6google8protobuf8inter
182:   FUNC GLOBAL DEFAULT 14 __aeabi_l2f
183:   FUNC GLOBAL DEFAULT 14 _ZN7android14surfacefling
184:   FUNC GLOBAL DEFAULT 14 _ZN7android14surfacefling
185:   FUNC GLOBAL DEFAULT 14 _ZNK7android14surfaceflin
186:   FUNC GLOBAL DEFAULT 14 _ZN7android14surfacefling
187:   FUNC GLOBAL DEFAULT 14 _ZN7android14surfacefling
188:   FUNC GLOBAL DEFAULT 14 _ZN7android14surfacefling
189:   FUNC GLOBAL DEFAULT 14 _ZN7android14surfacefling
190:   FUNC WEAK DEFAULT 14 _ZN6google8protobuf8inter
191:   FUNC WEAK DEFAULT 14 _ZN6google8protobuf8inter
192:   OBJECT GLOBAL DEFAULT 18 _ZTVN7android14surfacefli
193:   FUNC GLOBAL DEFAULT 14 _ZN7android14surfacefling
194:   FUNC GLOBAL DEFAULT 14 _ZN7android14surfacefling
195:   FUNC GLOBAL DEFAULT 14 _ZN7android14surfacefling
196:   FUNC GLOBAL DEFAULT 14 _ZNK7android14surfaceflin
197:   FUNC GLOBAL DEFAULT 14 _ZN7android14surfacefling
198:   FUNC GLOBAL DEFAULT 14 _ZN7android14surfacefling
199:   OBJECT GLOBAL DEFAULT 12 _ZN7android14surfacefling
200:   OBJECT GLOBAL DEFAULT 12 _ZN7android14surfacefling
201:   OBJECT GLOBAL DEFAULT 12 _ZN7android14surfacefling
202:   FUNC GLOBAL DEFAULT 14 _ZNK7android14surfaceflin
203:   FUNC GLOBAL DEFAULT 14 _ZNK7android14surfaceflin
204:   OBJECT WEAK DEFAULT 18 _ZTVN6google8protobuf8int
205:   OBJECT GLOBAL DEFAULT 18 _ZTVN7android14surfacefli
206:   FUNC GLOBAL DEFAULT 14 __udivmodsi4
207:   FUNC GLOBAL DEFAULT 14 __floatdisf
208:   FUNC GLOBAL DEFAULT 14 _ZN7android14surfacefling
209:   FUNC WEAK DEFAULT 14 _ZN6google8protobuf8inter
210:   FUNC GLOBAL DEFAULT 14 _ZN7android14surfacefling
211:   FUNC GLOBAL DEFAULT 14 _ZN7android14surfacefling
212:   FUNC GLOBAL DEFAULT 14 _ZN7android14surfacefling
213:   OBJECT GLOBAL DEFAULT 23 _ZN7android14surfacefling
214:   FUNC GLOBAL DEFAULT 14 _ZN7android14surfacefling
215:   FUNC GLOBAL DEFAULT 14 _ZNK7android14surfaceflin
216:   FUNC GLOBAL DEFAULT 14 __aeabi_memset
217:   FUNC GLOBAL DEFAULT 14 _ZN7android14surfacefling
218:   OBJECT GLOBAL DEFAULT 12 _ZN7android14surfacefling
219:   FUNC GLOBAL DEFAULT 14 _ZNK7android14surfaceflin
220:   FUNC GLOBAL DEFAULT 14 _ZN7android14surfacefling
221:   OBJECT GLOBAL DEFAULT 23 _ZN7android14surfacefling
222:   FUNC GLOBAL DEFAULT 14 _ZNK7android14surfaceflin
223:   FUNC GLOBAL DEFAULT 14 _ZN7android14surfacefling
224:   FUNC GLOBAL DEFAULT 14 _ZN7android14surfacefling
225:   FUNC GLOBAL DEFAULT 14 _ZN7android14surfacefling
226:   FUNC GLOBAL DEFAULT 14 _ZN7android14surfacefling
227:   FUNC WEAK DEFAULT 14 _ZNSt3__112__hash_tableIN
228:   FUNC GLOBAL DEFAULT 14 _ZN7android14surfacefling
229:   FUNC WEAK DEFAULT 14 _ZN6google8protobuf8inter
230:   FUNC WEAK DEFAULT 14 _ZN6google8protobuf8inter
231:   FUNC GLOBAL DEFAULT 14 _ZN7android14surfacefling
232:   OBJECT GLOBAL DEFAULT 23 _ZN7android14surfacefling
233:   FUNC GLOBAL DEFAULT 14 _ZN7android14surfacefling
234:   OBJECT GLOBAL DEFAULT 18 _ZTVN7android14surfacefli
235:   FUNC WEAK DEFAULT 14 _ZN6google8protobuf8inter
236:   FUNC GLOBAL DEFAULT 14 _ZNK7android14surfaceflin
237:   FUNC GLOBAL DEFAULT 14 _ZN7android14surfacefling
238:   FUNC GLOBAL DEFAULT 14 _ZN7android14surfacefling
239:   FUNC GLOBAL DEFAULT 14 __aeabi_memclr
240:   FUNC WEAK DEFAULT 14 _ZN6google8protobuf8inter
241:   OBJECT GLOBAL DEFAULT 12 _ZN7android14surfacefling
242:   FUNC GLOBAL DEFAULT 14 _ZNK7android14surfaceflin
243:   FUNC GLOBAL DEFAULT 14 _ZNK7android14surfaceflin
244:   FUNC GLOBAL DEFAULT 14 __udivsi3
245:   FUNC WEAK DEFAULT 14 _ZNSt3__112__hash_tableIN
246:   FUNC GLOBAL DEFAULT 14 _ZN7android14surfacefling
247:   FUNC GLOBAL DEFAULT 14 _ZN7android14surfacefling
248:   FUNC GLOBAL DEFAULT 14 __aeabi_memclr4
249:   FUNC GLOBAL DEFAULT 14 _ZN7android14surfacefling
250:   OBJECT GLOBAL DEFAULT 12 _ZN7android14surfacefling
251:   FUNC GLOBAL DEFAULT 14 _ZN7android14surfacefling
252:   FUNC GLOBAL DEFAULT 14 _ZNK7android14surfaceflin
253:   FUNC GLOBAL DEFAULT 14 __udivmoddi4
254:   FUNC GLOBAL DEFAULT 14 _ZN7android14surfacefling
255:   FUNC GLOBAL DEFAULT 14 _ZN7android14surfacefling
256:   FUNC GLOBAL DEFAULT 14 _ZN7android14surfacefling
257:   FUNC GLOBAL DEFAULT 14 _ZN7android14surfacefling
258:   FUNC WEAK DEFAULT 14 _ZN6google8protobuf8inter
259:   FUNC GLOBAL DEFAULT 14 _ZN7android14surfacefling
260:   FUNC GLOBAL DEFAULT 14 _ZN7android14surfacefling
261:   OBJECT GLOBAL DEFAULT 12 _ZN7android14surfacefling
262:   OBJECT WEAK DEFAULT 18 _ZTVN6google8protobuf8int
263:   FUNC GLOBAL DEFAULT 14 _ZNK7android14surfaceflin
264:   FUNC GLOBAL DEFAULT 14 _ZN7android14surfacefling
265:   FUNC GLOBAL DEFAULT 14 _ZNK7android14surfaceflin
266:   FUNC GLOBAL DEFAULT 14 __divdi3
267:   FUNC GLOBAL DEFAULT 14 __aeabi_memclr8
268:   FUNC WEAK DEFAULT 14 _ZNSt3__112__hash_tableIN
269:   OBJECT GLOBAL DEFAULT 12 _ZN7android14surfacefling
270:   FUNC GLOBAL DEFAULT 14 _ZN7android14surfacefling
271:   FUNC GLOBAL DEFAULT 14 _ZNK7android14surfaceflin
272:   FUNC GLOBAL DEFAULT 14 __divmoddi4
273:   OBJECT GLOBAL DEFAULT 12 _ZN7android14surfacefling
274:   FUNC GLOBAL DEFAULT 14 _ZN7android14surfacefling
275:   FUNC GLOBAL DEFAULT 14 _ZN7android14surfacefling
276:   FUNC GLOBAL DEFAULT 14 _ZNK7android14surfaceflin
277:   FUNC GLOBAL DEFAULT 14 __aeabi_uidivmod
278:   FUNC GLOBAL DEFAULT 14 _ZN7android14surfacefling
279:   FUNC WEAK DEFAULT 14 _ZN6google8protobuf8inter
280:   FUNC GLOBAL DEFAULT 14 _ZN7android14surfacefling
281:   FUNC GLOBAL DEFAULT 14 _ZN7android14surfacefling
282:   FUNC GLOBAL DEFAULT 14 _ZNK7android14surfaceflin
283:   FUNC GLOBAL DEFAULT 14 _ZNK7android14surfaceflin
284:   FUNC WEAK DEFAULT 14 _ZN6google8protobuf8inter
285:   FUNC WEAK DEFAULT 14 _ZN6google8protobuf8inter
286:   FUNC GLOBAL DEFAULT 14 _ZN7android14surfacefling
287:   FUNC GLOBAL DEFAULT 14 _ZN7android14surfacefling
288:   FUNC GLOBAL DEFAULT 14 _ZN7android14surfacefling
289:   FUNC GLOBAL DEFAULT 14 _ZN7android14surfacefling
290:   FUNC GLOBAL DEFAULT 14 _ZNK7android14surfaceflin
291:   FUNC GLOBAL DEFAULT 14 _ZN7android14surfacefling
292:   FUNC GLOBAL DEFAULT 14 _ZN7android14surfacefling
293:   FUNC GLOBAL DEFAULT 14 _ZN7android14surfacefling
294:   FUNC GLOBAL DEFAULT 14 _ZNK7android14surfaceflin
295:   OBJECT GLOBAL DEFAULT 18 _ZTVN7android14surfacefli
296:   OBJECT WEAK DEFAULT 16 _ZN6google8protobuf8inter
297:   FUNC WEAK DEFAULT 14 _ZN6google8protobuf8inter
298:   FUNC GLOBAL DEFAULT 14 _ZN7android14surfacefling
299:   FUNC GLOBAL DEFAULT 14 _ZN7android14surfacefling
300:   FUNC GLOBAL DEFAULT 14 _ZN7android14surfacefling
301:   FUNC GLOBAL DEFAULT 14 _ZN7android14surfacefling
302:   OBJECT WEAK DEFAULT 18 _ZTVN6google8protobuf8int
