 0x000000000000000e (SONAME)             Library soname: [libmediandk.so]
  
Symbol   contains 277 entries:
Num:   Type Bind Vis Ndx Name
0:   NOTYPE LOCAL DEFAULT UND
1:   OBJECT GLOBAL DEFAULT 9 AMEDIAFORMAT_KEY_ALBUMART@@LIBMEDIANDK
2:   OBJECT GLOBAL DEFAULT 9 AMEDIAFORMAT_KEY_COLOR_ST@@LIBMEDIANDK
3:   OBJECT GLOBAL DEFAULT 9 AMEDIAFORMAT_KEY_SLICE_HE@@LIBMEDIANDK
4:   FUNC GLOBAL DEFAULT 7 AMediaExtractor_setDataSo@@LIBMEDIANDK
5:   FUNC GLOBAL DEFAULT 7 AMediaFormat_setString@@LIBMEDIANDK
6:   FUNC GLOBAL DEFAULT 7 AImage_getHardwareBuffer@@LIBMEDIANDK
7:   OBJECT GLOBAL DEFAULT 9 AMEDIAFORMAT_KEY_DISPLAY_@@LIBMEDIANDK
8:   OBJECT GLOBAL DEFAULT 9 AMEDIAFORMAT_KEY_LOOP@@LIBMEDIANDK
9:   FUNC GLOBAL DEFAULT 7 AImage_getPlaneData@@LIBMEDIANDK
10:   OBJECT GLOBAL DEFAULT 9 AMEDIAFORMAT_KEY_FLAC_COM@@LIBMEDIANDK
11:   OBJECT GLOBAL DEFAULT 9 AMEDIAFORMAT_KEY_MAX_WIDT@@LIBMEDIANDK
12:   OBJECT GLOBAL DEFAULT 9 AMEDIAFORMAT_KEY_MIME@@LIBMEDIANDK
13:   OBJECT GLOBAL DEFAULT 9 AMEDIAFORMAT_KEY_PUSH_BLA@@LIBMEDIANDK
14:   OBJECT GLOBAL DEFAULT 9 AMEDIAFORMAT_KEY_AAC_DRC_@@LIBMEDIANDK
15:   OBJECT GLOBAL DEFAULT 9 AMEDIAFORMAT_KEY_BITS_PER@@LIBMEDIANDK
16:   OBJECT GLOBAL DEFAULT 9 AMEDIAFORMAT_KEY_CREATE_I@@LIBMEDIANDK
17:   OBJECT GLOBAL DEFAULT 9 AMEDIAFORMAT_KEY_IS_DEFAU@@LIBMEDIANDK
18:   OBJECT GLOBAL DEFAULT 9 AMEDIAFORMAT_KEY_EXIF_SIZ@@LIBMEDIANDK
19:   OBJECT GLOBAL DEFAULT 9 AMEDIAFORMAT_KEY_MPEG_USE@@LIBMEDIANDK
20:   FUNC GLOBAL DEFAULT 7 AMediaDrm_verify@@LIBMEDIANDK
21:   OBJECT GLOBAL DEFAULT 9 AMEDIAFORMAT_KEY_I_FRAME_@@LIBMEDIANDK
22:   FUNC GLOBAL DEFAULT 7 AMediaDrm_queryKeyStatus@@LIBMEDIANDK
23:   FUNC GLOBAL DEFAULT 7 AImage_delete@@LIBMEDIANDK
24:   OBJECT GLOBAL DEFAULT 9 AMEDIAFORMAT_KEY_ENCODER_@@LIBMEDIANDK
25:   OBJECT GLOBAL DEFAULT 9 AMEDIAFORMAT_KEY_HDR_STAT@@LIBMEDIANDK
26:   FUNC GLOBAL DEFAULT 7 AMediaFormat_clear@@LIBMEDIANDK
27:   FUNC GLOBAL DEFAULT 7 AImageReader_getHeight@@LIBMEDIANDK
28:   OBJECT GLOBAL DEFAULT 9 AMEDIAFORMAT_KEY_AAC_SBR_@@LIBMEDIANDK
29:   FUNC GLOBAL DEFAULT 7 AMediaExtractor_setDataSo@@LIBMEDIANDK
30:   FUNC GLOBAL DEFAULT 7 AMediaFormat_setInt64@@LIBMEDIANDK
31:   OBJECT GLOBAL DEFAULT 9 AMEDIAFORMAT_KEY_HAPTIC_C@@LIBMEDIANDK
32:   FUNC GLOBAL DEFAULT 7 AImage_getNumberOfPlanes@@LIBMEDIANDK
33:   OBJECT GLOBAL DEFAULT 9 AMEDIAFORMAT_KEY_AAC_DRC_@@LIBMEDIANDK
34:   OBJECT GLOBAL DEFAULT 9 AMEDIAFORMAT_KEY_AAC_ENCO@@LIBMEDIANDK
35:   OBJECT GLOBAL DEFAULT 9 AMEDIAFORMAT_KEY_AAC_PROF@@LIBMEDIANDK
36:   OBJECT GLOBAL DEFAULT 9 AMEDIAFORMAT_KEY_ESDS@@LIBMEDIANDK
37:   FUNC GLOBAL DEFAULT 7 AMediaDrm_sign@@LIBMEDIANDK
38:   FUNC GLOBAL DEFAULT 7 AMediaExtractor_getFileFo@@LIBMEDIANDK
39:   OBJECT GLOBAL DEFAULT 9 AMEDIAFORMAT_KEY_ALBUM@@LIBMEDIANDK
40:   OBJECT GLOBAL DEFAULT 9 AMEDIAFORMAT_KEY_COMPOSER@@LIBMEDIANDK
41:   OBJECT GLOBAL DEFAULT 9 AMEDIAFORMAT_KEY_EXIF_OFF@@LIBMEDIANDK
42:   FUNC GLOBAL DEFAULT 7 AMediaDrm_provideKeyRespo@@LIBMEDIANDK
43:   FUNC GLOBAL DEFAULT 7 AMediaFormat_setRect@@LIBMEDIANDK
44:   FUNC GLOBAL DEFAULT 7 AImageReader_acquireLates@@LIBMEDIANDK
45:   OBJECT GLOBAL DEFAULT 9 AMEDIAFORMAT_KEY_AUDIO_PR@@LIBMEDIANDK
46:   OBJECT GLOBAL DEFAULT 9 AMEDIAFORMAT_KEY_MAX_HEIG@@LIBMEDIANDK
47:   OBJECT GLOBAL DEFAULT 9 AMEDIAFORMAT_KEY_TARGET_T@@LIBMEDIANDK
48:   FUNC GLOBAL DEFAULT 7 AMediaCodecCryptoInfo_get@@LIBMEDIANDK
49:   FUNC GLOBAL DEFAULT 7 AMediaCodec_queueSecureIn@@LIBMEDIANDK
50:   FUNC GLOBAL DEFAULT 7 AMediaCrypto_new@@LIBMEDIANDK
51:   FUNC GLOBAL DEFAULT 7 AMediaDataSource_newUri@@LIBMEDIANDK
52:   FUNC GLOBAL DEFAULT 7 AMediaMuxer_addTrack@@LIBMEDIANDK
53:   FUNC GLOBAL DEFAULT 7 AImageReader_newWithUsage@@LIBMEDIANDK
54:   OBJECT GLOBAL DEFAULT 9 AMEDIAFORMAT_KEY_CRYPTO_K@@LIBMEDIANDK
55:   FUNC GLOBAL DEFAULT 7 AMediaDrm_isCryptoSchemeS@@LIBMEDIANDK
56:   OBJECT GLOBAL DEFAULT 9 AMEDIAFORMAT_KEY_DISPLAY_@@LIBMEDIANDK
57:   OBJECT GLOBAL DEFAULT 9 AMEDIAFORMAT_KEY_LOCATION@@LIBMEDIANDK
58:   OBJECT GLOBAL DEFAULT 9 AMEDIAFORMAT_KEY_VALID_SA@@LIBMEDIANDK
59:   FUNC GLOBAL DEFAULT 7 AMediaDrm_setPropertyStri@@LIBMEDIANDK
60:   FUNC GLOBAL DEFAULT 7 AMediaExtractor_getSample@@LIBMEDIANDK
61:   FUNC GLOBAL DEFAULT 7 AMediaExtractor_getSample@@LIBMEDIANDK
62:   OBJECT GLOBAL DEFAULT 9 AMEDIAFORMAT_KEY_AUDIO_SE@@LIBMEDIANDK
63:   OBJECT GLOBAL DEFAULT 9 AMEDIAFORMAT_KEY_LANGUAGE@@LIBMEDIANDK
64:   FUNC GLOBAL DEFAULT 7 AMediaCodec_releaseName@@LIBMEDIANDK
65:   FUNC GLOBAL DEFAULT 7 AMediaFormat_getInt32@@LIBMEDIANDK
66:   FUNC GLOBAL DEFAULT 7 AMediaFormat_getSize@@LIBMEDIANDK
67:   FUNC GLOBAL DEFAULT 7 AImageReader_setImageList@@LIBMEDIANDK
68:   OBJECT GLOBAL DEFAULT 9 AMEDIAFORMAT_KEY_LEVEL@@LIBMEDIANDK
69:   OBJECT GLOBAL DEFAULT 9 AMEDIAFORMAT_KEY_PSSH@@LIBMEDIANDK
70:   OBJECT GLOBAL DEFAULT 9 AMEDIAFORMAT_KEY_TIME_US@@LIBMEDIANDK
71:   FUNC GLOBAL DEFAULT 7 AMediaCodec_flush@@LIBMEDIANDK
72:   FUNC GLOBAL DEFAULT 7 AMediaFormat_setFloat@@LIBMEDIANDK
73:   FUNC GLOBAL DEFAULT 7 AImageReader_getWidth@@LIBMEDIANDK
74:   OBJECT GLOBAL DEFAULT 9 AMEDIAFORMAT_KEY_ICC_PROF@@LIBMEDIANDK
75:   OBJECT GLOBAL DEFAULT 9 AMEDIAFORMAT_KEY_TRACK_ID@@LIBMEDIANDK
76:   OBJECT GLOBAL DEFAULT 9 AMEDIAFORMAT_KEY_YEAR@@LIBMEDIANDK
77:   FUNC GLOBAL DEFAULT 7 AMediaDataSource_setGetSi@@LIBMEDIANDK
78:   FUNC GLOBAL DEFAULT 7 AMediaFormat_toString@@LIBMEDIANDK
79:   FUNC GLOBAL DEFAULT 7 AImageReader_getFormat@@LIBMEDIANDK
80:   OBJECT GLOBAL DEFAULT 9 AMEDIAFORMAT_KEY_COLOR_FO@@LIBMEDIANDK
81:   FUNC GLOBAL DEFAULT 7 AMediaCodec_releaseOutput@@LIBMEDIANDK
82:   FUNC GLOBAL DEFAULT 7 AMediaDrm_closeSession@@LIBMEDIANDK
83:   FUNC GLOBAL DEFAULT 7 AMediaExtractor_getTrackC@@LIBMEDIANDK
84:   FUNC GLOBAL DEFAULT 7 AMediaMuxer_start@@LIBMEDIANDK
85:   OBJECT GLOBAL DEFAULT 9 AMEDIAFORMAT_KEY_CSD_HEVC@@LIBMEDIANDK
86:   OBJECT GLOBAL DEFAULT 9 AMEDIAFORMAT_KEY_DISCNUMB@@LIBMEDIANDK
87:   OBJECT GLOBAL DEFAULT 9 AMEDIAFORMAT_KEY_FRAME_RA@@LIBMEDIANDK
88:   FUNC GLOBAL DEFAULT 7 AMediaCodec_start@@LIBMEDIANDK
89:   FUNC GLOBAL DEFAULT 7 AMediaFormat_getString@@LIBMEDIANDK
90:   FUNC GLOBAL DEFAULT 7 AMediaExtractor_advance@@LIBMEDIANDK
91:   OBJECT GLOBAL DEFAULT 9 AMEDIAFORMAT_KEY_CRYPTO_P@@LIBMEDIANDK
92:   OBJECT GLOBAL DEFAULT 9 AMEDIAFORMAT_KEY_TITLE@@LIBMEDIANDK
93:   FUNC GLOBAL DEFAULT 7 AImage_getPlaneRowStride@@LIBMEDIANDK
94:   OBJECT GLOBAL DEFAULT 9 AMEDIAFORMAT_KEY_D263@@LIBMEDIANDK
95:   OBJECT GLOBAL DEFAULT 9 AMEDIAFORMAT_KEY_MANUFACT@@LIBMEDIANDK
96:   FUNC GLOBAL DEFAULT 7 AMediaDataSource_setReadA@@LIBMEDIANDK
97:   FUNC GLOBAL DEFAULT 7 AMediaDrm_getKeyRequest@@LIBMEDIANDK
98:   OBJECT GLOBAL DEFAULT 9 AMEDIAFORMAT_KEY_DISPLAY_@@LIBMEDIANDK
99:   OBJECT GLOBAL DEFAULT 9 AMEDIAFORMAT_KEY_ROTATION@@LIBMEDIANDK
100:   OBJECT GLOBAL DEFAULT 9 AMEDIAFORMAT_KEY_THUMBNAI@@LIBMEDIANDK
101:   FUNC GLOBAL DEFAULT 7 AMediaCodec_releaseOutput@@LIBMEDIANDK
102:   FUNC GLOBAL DEFAULT 7 AMediaDataSource_setUserd@@LIBMEDIANDK
103:   OBJECT GLOBAL DEFAULT 9 AMEDIAFORMAT_KEY_LATENCY@@LIBMEDIANDK
104:   FUNC GLOBAL DEFAULT 7 AImageReader_acquireNextI@@LIBMEDIANDK
105:   OBJECT GLOBAL DEFAULT 9 AMEDIAFORMAT_KEY_CHANNEL_@@LIBMEDIANDK
106:   FUNC GLOBAL DEFAULT 7 AMediaCodec_getInputBuffe@@LIBMEDIANDK
107:   FUNC GLOBAL DEFAULT 7 AMediaExtractor_delete@@LIBMEDIANDK
108:   OBJECT GLOBAL DEFAULT 9 AMEDIAFORMAT_KEY_THUMBNAI@@LIBMEDIANDK
109:   OBJECT GLOBAL DEFAULT 9 AMEDIAFORMAT_KEY_CSD_0@@LIBMEDIANDK
110:   OBJECT GLOBAL DEFAULT 9 AMEDIAFORMAT_KEY_OPERATIN@@LIBMEDIANDK
111:   FUNC GLOBAL DEFAULT 7 AMediaCodec_createPersist@@LIBMEDIANDK
112:   FUNC GLOBAL DEFAULT 7 AImage_getHeight@@LIBMEDIANDK
113:   OBJECT GLOBAL DEFAULT 9 AMEDIAFORMAT_KEY_BIT_RATE@@LIBMEDIANDK
114:   OBJECT GLOBAL DEFAULT 9 AMEDIAFORMAT_KEY_COLOR_TR@@LIBMEDIANDK
115:   OBJECT GLOBAL DEFAULT 9 AMEDIAFORMAT_KEY_CSD_1@@LIBMEDIANDK
116:   OBJECT GLOBAL DEFAULT 9 AMEDIAFORMAT_KEY_SEI@@LIBMEDIANDK
117:   FUNC GLOBAL DEFAULT 7 AMediaCrypto_requiresSecu@@LIBMEDIANDK
118:   FUNC GLOBAL DEFAULT 7 AMediaDrm_createByUUID@@LIBMEDIANDK
119:   FUNC GLOBAL DEFAULT 7 AMediaDrm_restoreKeys@@LIBMEDIANDK
120:   FUNC GLOBAL DEFAULT 7 AMediaExtractor_seekTo@@LIBMEDIANDK
121:   OBJECT GLOBAL DEFAULT 9 AMEDIAFORMAT_KEY_AAC_MAX_@@LIBMEDIANDK
122:   OBJECT GLOBAL DEFAULT 9 AMEDIAFORMAT_KEY_CSD_2@@LIBMEDIANDK
123:   FUNC GLOBAL DEFAULT 7 AMediaCodecActionCode_isR@@LIBMEDIANDK
124:   FUNC GLOBAL DEFAULT 7 AMediaCodecCryptoInfo_new@@LIBMEDIANDK
125:   FUNC GLOBAL DEFAULT 7 AMediaCodec_signalEndOfIn@@LIBMEDIANDK
126:   FUNC GLOBAL DEFAULT 7 AMediaCrypto_delete@@LIBMEDIANDK
127:   FUNC GLOBAL DEFAULT 7 AMediaDataSource_delete@@LIBMEDIANDK
128:   FUNC GLOBAL DEFAULT 7 AMediaExtractor_getSample@@LIBMEDIANDK
129:   FUNC GLOBAL DEFAULT 7 AImageReader_getWindow@@LIBMEDIANDK
130:   OBJECT GLOBAL DEFAULT 9 AMEDIAFORMAT_KEY_WIDTH@@LIBMEDIANDK
131:   FUNC GLOBAL DEFAULT 7 AMediaCodec_createInputSu@@LIBMEDIANDK
132:   FUNC GLOBAL DEFAULT 7 AMediaFormat_delete@@LIBMEDIANDK
133:   OBJECT GLOBAL DEFAULT 9 AMEDIAFORMAT_KEY_MAX_INPU@@LIBMEDIANDK
134:   OBJECT GLOBAL DEFAULT 9 AMEDIAFORMAT_KEY_SAMPLE_R@@LIBMEDIANDK
135:   FUNC GLOBAL DEFAULT 7 AMediaDataSource_close@@LIBMEDIANDK
136:   FUNC GLOBAL DEFAULT 7 AMediaMuxer_writeSampleDa@@LIBMEDIANDK
137:   FUNC GLOBAL DEFAULT 7 AImage_getTimestamp@@LIBMEDIANDK
138:   OBJECT GLOBAL DEFAULT 9 AMEDIAFORMAT_KEY_CHANNEL_@@LIBMEDIANDK
139:   OBJECT GLOBAL DEFAULT 9 AMEDIAFORMAT_KEY_DURATION@@LIBMEDIANDK
140:   OBJECT GLOBAL DEFAULT 9 AMEDIAFORMAT_KEY_SAR_HEIG@@LIBMEDIANDK
141:   FUNC GLOBAL DEFAULT 7 AMediaCrypto_isCryptoSche@@LIBMEDIANDK
142:   FUNC GLOBAL DEFAULT 7 AMediaDataSource_new@@LIBMEDIANDK
143:   FUNC GLOBAL DEFAULT 7 AMediaExtractor_getTrackF@@LIBMEDIANDK
144:   FUNC GLOBAL DEFAULT 7 AMediaExtractor_setDataSo@@LIBMEDIANDK
145:   OBJECT GLOBAL DEFAULT 9 AMEDIAFORMAT_KEY_AAC_DRC_@@LIBMEDIANDK
146:   OBJECT GLOBAL DEFAULT 9 AMEDIAFORMAT_KEY_HEIGHT@@LIBMEDIANDK
147:   FUNC GLOBAL DEFAULT 7 AMediaDrm_getPropertyByte@@LIBMEDIANDK
148:   FUNC GLOBAL DEFAULT 7 AMediaDrm_setOnExpiration@@LIBMEDIANDK
149:   FUNC GLOBAL DEFAULT 7 AMediaFormat_getRect@@LIBMEDIANDK
150:   OBJECT GLOBAL DEFAULT 9 AMEDIAFORMAT_KEY_CDTRACKN@@LIBMEDIANDK
151:   OBJECT GLOBAL DEFAULT 9 AMEDIAFORMAT_KEY_COMPLEXI@@LIBMEDIANDK
152:   OBJECT GLOBAL DEFAULT 9 AMEDIAFORMAT_KEY_CRYPTO_D@@LIBMEDIANDK
153:   OBJECT GLOBAL DEFAULT 9 AMEDIAFORMAT_KEY_GRID_ROW@@LIBMEDIANDK
154:   OBJECT GLOBAL DEFAULT 9 AMEDIAFORMAT_KEY_IS_FORCE@@LIBMEDIANDK
155:   OBJECT GLOBAL DEFAULT 9 AMEDIAFORMAT_KEY_PCM_BIG_@@LIBMEDIANDK
156:   FUNC GLOBAL DEFAULT 7 AMediaCodec_setOutputSurf@@LIBMEDIANDK
157:   FUNC GLOBAL DEFAULT 7 AMediaDataSource_setGetAv@@LIBMEDIANDK
158:   FUNC GLOBAL DEFAULT 7 AMediaFormat_setBuffer@@LIBMEDIANDK
159:   FUNC GLOBAL DEFAULT 7 AImage_getCropRect@@LIBMEDIANDK
160:   OBJECT GLOBAL DEFAULT 9 AMEDIAFORMAT_KEY_CSD@@LIBMEDIANDK
161:   FUNC GLOBAL DEFAULT 7 AMediaCodec_configure@@LIBMEDIANDK
162:   FUNC GLOBAL DEFAULT 7 AMediaDrm_encrypt@@LIBMEDIANDK
163:   OBJECT GLOBAL DEFAULT 9 AMEDIAFORMAT_KEY_ARTIST@@LIBMEDIANDK
164:   OBJECT GLOBAL DEFAULT 9 AMEDIAFORMAT_KEY_MAX_FPS_@@LIBMEDIANDK
165:   FUNC GLOBAL DEFAULT 7 AMediaCodecCryptoInfo_get@@LIBMEDIANDK
166:   FUNC GLOBAL DEFAULT 7 AMediaCodecCryptoInfo_set@@LIBMEDIANDK
167:   FUNC GLOBAL DEFAULT 7 AMediaCodec_delete@@LIBMEDIANDK
168:   FUNC GLOBAL DEFAULT 7 AMediaDrm_provideProvisio@@LIBMEDIANDK
169:   FUNC GLOBAL DEFAULT 7 AImage_getPlanePixelStrid@@LIBMEDIANDK
170:   FUNC GLOBAL DEFAULT 7 AMediaCodec_createCodecBy@@LIBMEDIANDK
171:   FUNC GLOBAL DEFAULT 7 AMediaCodec_releaseCrypto@@LIBMEDIANDK
172:   FUNC GLOBAL DEFAULT 7 AMediaCodec_setAsyncNotif@@LIBMEDIANDK
173:   FUNC GLOBAL DEFAULT 7 AMediaExtractor_new@@LIBMEDIANDK
174:   FUNC GLOBAL DEFAULT 7 AImageReader_delete@@LIBMEDIANDK
175:   OBJECT GLOBAL DEFAULT 9 AMEDIAFORMAT_KEY_GRID_COL@@LIBMEDIANDK
176:   FUNC GLOBAL DEFAULT 7 AMediaDrm_getSecureStops@@LIBMEDIANDK
177:   FUNC GLOBAL DEFAULT 7 AMediaExtractor_getSample@@LIBMEDIANDK
178:   OBJECT GLOBAL DEFAULT 9 AMEDIAFORMAT_KEY_CAPTURE_@@LIBMEDIANDK
179:   OBJECT GLOBAL DEFAULT 9 AMEDIAFORMAT_KEY_TEMPORAL@@LIBMEDIANDK
180:   FUNC GLOBAL DEFAULT 7 AMediaFormat_new@@LIBMEDIANDK
181:   FUNC GLOBAL DEFAULT 7 AMediaFormat_setDouble@@LIBMEDIANDK
182:   FUNC GLOBAL DEFAULT 7 AMediaMuxer_delete@@LIBMEDIANDK
183:   FUNC GLOBAL DEFAULT 7 AImage_deleteAsync@@LIBMEDIANDK
184:   FUNC GLOBAL DEFAULT 7 AImage_getFormat@@LIBMEDIANDK
185:   OBJECT GLOBAL DEFAULT 9 AMEDIAFORMAT_KEY_AAC_DRC_@@LIBMEDIANDK
186:   OBJECT GLOBAL DEFAULT 9 AMEDIAFORMAT_KEY_AUTHOR@@LIBMEDIANDK
187:   FUNC GLOBAL DEFAULT 7 AMediaCodecCryptoInfo_get@@LIBMEDIANDK
188:   FUNC GLOBAL DEFAULT 7 AMediaCodec_getOutputBuff@@LIBMEDIANDK
189:   FUNC GLOBAL DEFAULT 7 AImageReader_acquireLates@@LIBMEDIANDK
190:   OBJECT GLOBAL DEFAULT 9 AMEDIAFORMAT_KEY_INTRA_RE@@LIBMEDIANDK
191:   OBJECT GLOBAL DEFAULT 9 AMEDIAFORMAT_KEY_SAR_WIDT@@LIBMEDIANDK
192:   FUNC GLOBAL DEFAULT 7 AMediaCodec_getName@@LIBMEDIANDK
193:   FUNC GLOBAL DEFAULT 7 AMediaMuxer_setOrientatio@@LIBMEDIANDK
194:   OBJECT GLOBAL DEFAULT 9 AMEDIAFORMAT_KEY_COMPILAT@@LIBMEDIANDK
195:   OBJECT GLOBAL DEFAULT 9 AMEDIAFORMAT_KEY_TRACK_IN@@LIBMEDIANDK
196:   FUNC GLOBAL DEFAULT 7 AMediaFormat_setInt32@@LIBMEDIANDK
197:   OBJECT GLOBAL DEFAULT 9 AMEDIAFORMAT_KEY_BITRATE_@@LIBMEDIANDK
198:   OBJECT GLOBAL DEFAULT 9 AMEDIAFORMAT_KEY_MAX_BIT_@@LIBMEDIANDK
199:   OBJECT GLOBAL DEFAULT 9 AMEDIAFORMAT_KEY_CRYPTO_E@@LIBMEDIANDK
200:   OBJECT GLOBAL DEFAULT 9 AMEDIAFORMAT_KEY_FRAME_CO@@LIBMEDIANDK
201:   OBJECT GLOBAL DEFAULT 9 AMEDIAFORMAT_KEY_MPEG2_ST@@LIBMEDIANDK
202:   OBJECT GLOBAL DEFAULT 9 AMEDIAFORMAT_KEY_TILE_HEI@@LIBMEDIANDK
203:   FUNC GLOBAL DEFAULT 7 AMediaFormat_copy@@LIBMEDIANDK
204:   OBJECT GLOBAL DEFAULT 9 AMEDIAFORMAT_KEY_DATE@@LIBMEDIANDK
205:   OBJECT GLOBAL DEFAULT 9 AMEDIAFORMAT_KEY_IS_ADTS@@LIBMEDIANDK
206:   OBJECT GLOBAL DEFAULT 9 AMEDIAFORMAT_KEY_PRIORITY@@LIBMEDIANDK
207:   FUNC GLOBAL DEFAULT 7 AMediaCodecActionCode_isT@@LIBMEDIANDK
208:   FUNC GLOBAL DEFAULT 7 AMediaCodec_createDecoder@@LIBMEDIANDK
209:   FUNC GLOBAL DEFAULT 7 AMediaCodec_dequeueInputB@@LIBMEDIANDK
210:   FUNC GLOBAL DEFAULT 7 AMediaCodec_queueInputBuf@@LIBMEDIANDK
211:   FUNC GLOBAL DEFAULT 7 AMediaExtractor_selectTra@@LIBMEDIANDK
212:   FUNC GLOBAL DEFAULT 7 AMediaFormat_getInt64@@LIBMEDIANDK
213:   OBJECT GLOBAL DEFAULT 9 AMEDIAFORMAT_KEY_COLOR_RA@@LIBMEDIANDK
214:   OBJECT GLOBAL DEFAULT 9 AMEDIAFORMAT_KEY_IS_AUTOS@@LIBMEDIANDK
215:   FUNC GLOBAL DEFAULT 7 AMediaExtractor_getSample@@LIBMEDIANDK
216:   OBJECT GLOBAL DEFAULT 9 AMEDIAFORMAT_KEY_IS_SYNC_@@LIBMEDIANDK
217:   OBJECT GLOBAL DEFAULT 9 AMEDIAFORMAT_KEY_LYRICIST@@LIBMEDIANDK
218:   FUNC GLOBAL DEFAULT 7 AMediaDataSource_setClose@@LIBMEDIANDK
219:   FUNC GLOBAL DEFAULT 7 AMediaExtractor_getPsshIn@@LIBMEDIANDK
220:   FUNC GLOBAL DEFAULT 7 AMediaCodec_getInputForma@@LIBMEDIANDK
221:   FUNC GLOBAL DEFAULT 7 AMediaDrm_openSession@@LIBMEDIANDK
222:   FUNC GLOBAL DEFAULT 7 AMediaDrm_setPropertyByte@@LIBMEDIANDK
223:   FUNC GLOBAL DEFAULT 7 AMediaCodec_dequeueOutput@@LIBMEDIANDK
224:   OBJECT GLOBAL DEFAULT 9 AMEDIAFORMAT_KEY_PCM_ENCO@@LIBMEDIANDK
225:   FUNC GLOBAL DEFAULT 7 AMediaCodecCryptoInfo_get@@LIBMEDIANDK
226:   OBJECT GLOBAL DEFAULT 9 AMEDIAFORMAT_KEY_GENRE@@LIBMEDIANDK
227:   OBJECT GLOBAL DEFAULT 9 AMEDIAFORMAT_KEY_TEMPORAL@@LIBMEDIANDK
228:   FUNC GLOBAL DEFAULT 7 AMediaDrm_getPropertyStri@@LIBMEDIANDK
229:   FUNC GLOBAL DEFAULT 7 AMediaFormat_getBuffer@@LIBMEDIANDK
230:   FUNC GLOBAL DEFAULT 7 AMediaDrm_getProvisionReq@@LIBMEDIANDK
231:   FUNC GLOBAL DEFAULT 7 AMediaDrm_releaseSecureSt@@LIBMEDIANDK
232:   FUNC GLOBAL DEFAULT 7 AMediaCodec_getBufferForm@@LIBMEDIANDK
233:   FUNC GLOBAL DEFAULT 7 AMediaExtractor_getCached@@LIBMEDIANDK
234:   FUNC GLOBAL DEFAULT 7 AMediaExtractor_unselectT@@LIBMEDIANDK
235:   FUNC GLOBAL DEFAULT 7 AMediaMuxer_new@@LIBMEDIANDK
236:   OBJECT GLOBAL DEFAULT 9 AMEDIAFORMAT_KEY_PROFILE@@LIBMEDIANDK
237:   FUNC GLOBAL DEFAULT 7 AMediaFormat_getFloat@@LIBMEDIANDK
238:   OBJECT GLOBAL DEFAULT 9 AMEDIAFORMAT_KEY_TEXT_FOR@@LIBMEDIANDK
239:   FUNC GLOBAL DEFAULT 7 AMediaDrm_release@@LIBMEDIANDK
240:   FUNC GLOBAL DEFAULT 7 AMediaDrm_setOnEventListe@@LIBMEDIANDK
241:   OBJECT GLOBAL DEFAULT 9 AMEDIAFORMAT_KEY_THUMBNAI@@LIBMEDIANDK
242:   FUNC GLOBAL DEFAULT 7 AMediaCodecCryptoInfo_get@@LIBMEDIANDK
243:   FUNC GLOBAL DEFAULT 7 AMediaFormat_getDouble@@LIBMEDIANDK
244:   FUNC GLOBAL DEFAULT 7 AMediaDrm_removeKeys@@LIBMEDIANDK
245:   OBJECT GLOBAL DEFAULT 9 AMEDIAFORMAT_KEY_CRYPTO_I@@LIBMEDIANDK
246:   OBJECT GLOBAL DEFAULT 9 AMEDIAFORMAT_KEY_MAX_PTS_@@LIBMEDIANDK
247:   FUNC GLOBAL DEFAULT 7 AMediaMuxer_setLocation@@LIBMEDIANDK
248:   OBJECT GLOBAL DEFAULT 9 AMEDIAFORMAT_KEY_CRYPTO_E@@LIBMEDIANDK
249:   OBJECT GLOBAL DEFAULT 9 AMEDIAFORMAT_KEY_CRYPTO_M@@LIBMEDIANDK
250:   FUNC GLOBAL DEFAULT 7 AMediaCodec_stop@@LIBMEDIANDK
251:   FUNC GLOBAL DEFAULT 7 AMediaFormat_setSize@@LIBMEDIANDK
252:   FUNC GLOBAL DEFAULT 7 AImageReader_setBufferRem@@LIBMEDIANDK
253:   OBJECT GLOBAL DEFAULT 9 AMEDIAFORMAT_KEY_CRYPTO_S@@LIBMEDIANDK
254:   OBJECT GLOBAL DEFAULT 9 AMEDIAFORMAT_KEY_REPEAT_P@@LIBMEDIANDK
255:   FUNC GLOBAL DEFAULT 7 AMediaCodec_createEncoder@@LIBMEDIANDK
256:   OBJECT GLOBAL DEFAULT 9 AMEDIAFORMAT_KEY_ALBUMART@@LIBMEDIANDK
257:   OBJECT GLOBAL DEFAULT 9 AMEDIAFORMAT_KEY_ENCODER_@@LIBMEDIANDK
258:   OBJECT GLOBAL DEFAULT 9 AMEDIAFORMAT_KEY_TEMPORAL@@LIBMEDIANDK
259:   FUNC GLOBAL DEFAULT 7 AMediaCodec_setInputSurfa@@LIBMEDIANDK
260:   FUNC GLOBAL DEFAULT 7 AMediaDrm_setOnKeysChange@@LIBMEDIANDK
261:   FUNC GLOBAL DEFAULT 7 AImageReader_getMaxImages@@LIBMEDIANDK
262:   FUNC GLOBAL DEFAULT 7 AImageReader_new@@LIBMEDIANDK
263:   OBJECT GLOBAL DEFAULT 9 AMEDIAFORMAT_KEY_CSD_AVC@@LIBMEDIANDK
264:   FUNC GLOBAL DEFAULT 7 AMediaCodecCryptoInfo_get@@LIBMEDIANDK
265:   FUNC GLOBAL DEFAULT 7 AMediaCodec_setParameters@@LIBMEDIANDK
266:   FUNC GLOBAL DEFAULT 7 AMediaDrm_decrypt@@LIBMEDIANDK
267:   FUNC GLOBAL DEFAULT 7 AMediaExtractor_getSample@@LIBMEDIANDK
268:   FUNC GLOBAL DEFAULT 7 AMediaMuxer_stop@@LIBMEDIANDK
269:   OBJECT GLOBAL DEFAULT 9 AMEDIAFORMAT_KEY_STRIDE@@LIBMEDIANDK
270:   OBJECT GLOBAL DEFAULT 9 AMEDIAFORMAT_KEY_THUMBNAI@@LIBMEDIANDK
271:   OBJECT GLOBAL DEFAULT 9 AMEDIAFORMAT_KEY_TILE_WID@@LIBMEDIANDK
272:   FUNC GLOBAL DEFAULT 7 AImageReader_acquireNextI@@LIBMEDIANDK
273:   FUNC GLOBAL DEFAULT 7 AImage_getWidth@@LIBMEDIANDK
274:   FUNC GLOBAL DEFAULT 7 AMediaCodecCryptoInfo_del@@LIBMEDIANDK
275:   FUNC GLOBAL DEFAULT 7 AMediaCodec_getOutputForm@@LIBMEDIANDK
276:   FUNC GLOBAL DEFAULT 7 AMediaExtractor_readSampl@@LIBMEDIANDK
