 0x0000000e (SONAME)                     Library soname: [libstagefright_codecbase.so]
  
Symbol   contains 67 entries:
Num:   Type Bind Vis Ndx Name
0:   NOTYPE LOCAL DEFAULT UND
1:   FUNC GLOBAL DEFAULT UND __cxa_finalize@LIBC (2)
2:   FUNC GLOBAL DEFAULT UND _ZN7android14sp_report_ra
3:   FUNC GLOBAL DEFAULT UND _ZNK7android7RefBase9decS
4:   FUNC GLOBAL DEFAULT UND _ZNK7android7RefBase9incS
5:   FUNC GLOBAL DEFAULT UND _ZN7android5FenceC1Ei
6:   FUNC GLOBAL DEFAULT UND _ZN7android7AStringC1EPKc
7:   FUNC GLOBAL DEFAULT UND _ZN7android7AStringD1Ev
8:   FUNC GLOBAL DEFAULT UND _ZN7android7AStringaSERKS
9:   FUNC GLOBAL DEFAULT UND _ZNK7android5Fence13getSi
10:   FUNC GLOBAL DEFAULT UND _ZNK7android7AString5c_st
11:   FUNC GLOBAL DEFAULT UND _ZdlPv
12:   FUNC GLOBAL DEFAULT UND _Znwj
13:   FUNC GLOBAL DEFAULT UND __android_log_print@LIBLOG (3)
14:   FUNC GLOBAL DEFAULT UND __errno@LIBC (2)
15:   FUNC WEAK DEFAULT UND android_fdsan_close_with_@LIBC_Q (4)
16:   FUNC WEAK DEFAULT UND android_fdsan_create_owne@LIBC_Q (4)
17:   FUNC GLOBAL DEFAULT UND close@LIBC (2)
18:   FUNC GLOBAL DEFAULT UND dup@LIBC (2)
19:   FUNC GLOBAL DEFAULT UND systemTime
20:   FUNC GLOBAL DEFAULT UND _ZN7android14MediaCodecIn
21:   FUNC GLOBAL DEFAULT UND _ZN7android20MediaCodecIn
22:   FUNC GLOBAL DEFAULT UND _ZN7android8AMessage9setS
23:   FUNC GLOBAL DEFAULT UND _ZNK7android14MediaCodecI
24:   FUNC GLOBAL DEFAULT UND _ZNKSt3__120__vector_base
25:   FUNC GLOBAL DEFAULT UND _ZNKSt3__121__basic_strin
26:   FUNC GLOBAL DEFAULT UND __stack_chk_fail@LIBC (2)
27:   OBJECT GLOBAL DEFAULT UND __stack_chk_guard@LIBC (2)
28:   FUNC GLOBAL DEFAULT UND abort@LIBC (2)
29:   FUNC GLOBAL DEFAULT UND strcmp@LIBC (2)
30:   FUNC GLOBAL DEFAULT UND strlen@LIBC (2)
31:   FUNC WEAK DEFAULT UND android_set_abort_message@LIBC (2)
32:   FUNC GLOBAL DEFAULT UND write@LIBC (2)
33:   FUNC GLOBAL DEFAULT UND memcpy@LIBC (2)
34:   FUNC GLOBAL DEFAULT UND memset@LIBC (2)
35:   FUNC GLOBAL DEFAULT 13 _ZN7android17BufferChanne
36:   FUNC GLOBAL DEFAULT 13 _ZN7android18FrameRenderT
37:   FUNC GLOBAL DEFAULT 13 _ZN7android18FrameRenderT
38:   FUNC GLOBAL DEFAULT 13 _ZN7android18FrameRenderT
39:   FUNC GLOBAL DEFAULT 13 __aeabi_memclr4
40:   FUNC GLOBAL DEFAULT 13 _ZN7android18FrameRenderT
41:   FUNC WEAK DEFAULT 13 _ZNSt3__16vectorIN7androi
42:   FUNC GLOBAL DEFAULT 13 _ZN7android18FrameRenderT
43:   FUNC GLOBAL DEFAULT 13 _ZN7android18FrameRenderT
44:   FUNC GLOBAL DEFAULT 13 _ZN7android18FrameRenderT
45:   FUNC GLOBAL DEFAULT 13 _ZN7android18FrameRenderT
46:   FUNC GLOBAL DEFAULT 13 _ZNK7android18FrameRender
47:   OBJECT GLOBAL DEFAULT 17 _ZTVN7android18FrameRende
48:   FUNC GLOBAL DEFAULT 13 _ZN7android20MediaCodecLi
49:   FUNC GLOBAL DEFAULT 13 _ZN7android20MediaCodecLi
50:   FUNC GLOBAL DEFAULT 13 __aeabi_memcpy4
51:   FUNC GLOBAL DEFAULT 13 __aeabi_memset4
52:   FUNC GLOBAL DEFAULT 13 _ZN7android18FrameRenderT
53:   FUNC GLOBAL DEFAULT 13 _ZN7android18FrameRenderT
54:   FUNC GLOBAL DEFAULT 13 _ZN7android20MediaCodecLi
55:   FUNC GLOBAL DEFAULT 13 _ZNK7android20MediaCodecL
56:   FUNC GLOBAL DEFAULT 13 __aeabi_memclr
57:   FUNC GLOBAL DEFAULT 13 __aeabi_memclr8
58:   FUNC GLOBAL DEFAULT 13 _ZN7android17BufferChanne
59:   FUNC GLOBAL DEFAULT 13 _ZN7android18FrameRenderT
60:   FUNC GLOBAL DEFAULT 13 _ZN7android18FrameRenderT
61:   FUNC GLOBAL DEFAULT 13 _ZNK7android20MediaCodecL
62:   FUNC WEAK DEFAULT 13 _ZNSt3__16vectorINS_4pair
63:   FUNC GLOBAL DEFAULT 13 __aeabi_memcpy
64:   FUNC GLOBAL DEFAULT 13 __aeabi_memcpy8
65:   FUNC GLOBAL DEFAULT 13 __aeabi_memset
66:   FUNC GLOBAL DEFAULT 13 __aeabi_memset8
