 0x0000000e (SONAME)                     Library soname: [libpsi.so]
  
Symbol   contains 23 entries:
Num:   Type Bind Vis Ndx Name
0:   NOTYPE LOCAL DEFAULT UND
1:   FUNC GLOBAL DEFAULT UND __cxa_finalize@LIBC (2)
2:   FUNC GLOBAL DEFAULT UND __android_log_print@LIBLOG (3)
3:   FUNC GLOBAL DEFAULT UND __errno@LIBC (2)
4:   FUNC GLOBAL DEFAULT UND __open_2@LIBC (2)
5:   FUNC GLOBAL DEFAULT UND __stack_chk_fail@LIBC (2)
6:   OBJECT GLOBAL DEFAULT UND __stack_chk_guard@LIBC (2)
7:   FUNC GLOBAL DEFAULT UND __strlen_chk@LIBC (2)
8:   FUNC GLOBAL DEFAULT UND __vsnprintf_chk@LIBC (2)
9:   FUNC GLOBAL DEFAULT UND __write_chk@LIBC_N (4)
10:   FUNC GLOBAL DEFAULT UND close@LIBC (2)
11:   FUNC GLOBAL DEFAULT UND epoll_ctl@LIBC (2)
12:   FUNC GLOBAL DEFAULT UND memset@LIBC (2)
13:   FUNC GLOBAL DEFAULT 13 register_psi_monitor
14:   FUNC GLOBAL DEFAULT 13 __aeabi_memclr
15:   FUNC GLOBAL DEFAULT 13 __aeabi_memclr4
16:   FUNC GLOBAL DEFAULT 13 __aeabi_memclr8
17:   FUNC GLOBAL DEFAULT 13 destroy_psi_monitor
18:   FUNC GLOBAL DEFAULT 13 init_psi_monitor
19:   FUNC GLOBAL DEFAULT 13 unregister_psi_monitor
20:   FUNC GLOBAL DEFAULT 13 __aeabi_memset
21:   FUNC GLOBAL DEFAULT 13 __aeabi_memset4
22:   FUNC GLOBAL DEFAULT 13 __aeabi_memset8
