 0x000000000000000e (SONAME)             Library soname: [libopenjdkjvmd.so]
  
Symbol   contains 157 entries:
Num:   Type Bind Vis Ndx Name
0:   NOTYPE LOCAL DEFAULT UND
1:   FUNC GLOBAL DEFAULT UND __cxa_finalize@LIBC (2)
2:   FUNC GLOBAL DEFAULT UND _ZN3art10ThreadList19Susp
3:   FUNC GLOBAL DEFAULT UND _ZN3art10ThreadList6Resum
4:   FUNC GLOBAL DEFAULT UND _ZN3art17ConditionVariabl
5:   FUNC GLOBAL DEFAULT UND _ZN3art22IndirectReferenc
6:   FUNC GLOBAL DEFAULT UND _ZN3art25ThrowNullPointer
7:   FUNC GLOBAL DEFAULT UND _ZN3art2gc4Heap14CollectG
8:   FUNC GLOBAL DEFAULT UND _ZN3art33ScopedObjectAcce
9:   OBJECT GLOBAL DEFAULT UND _ZN3art5Locks13mutator_lo
10:   OBJECT GLOBAL DEFAULT UND _ZN3art5Locks17thread_lis
11:   FUNC GLOBAL DEFAULT UND _ZN3art5Locks21IsSafeToCa
12:   OBJECT GLOBAL DEFAULT UND _ZN3art5Locks26thread_sus
13:   OBJECT GLOBAL DEFAULT UND _ZN3art5Locks26user_code_
14:   FUNC GLOBAL DEFAULT UND _ZN3art5Mutex13ExclusiveL
15:   FUNC GLOBAL DEFAULT UND _ZN3art5Mutex15ExclusiveU
16:   FUNC GLOBAL DEFAULT UND _ZN3art6GetTidEv
17:   FUNC GLOBAL DEFAULT UND _ZN3art6Thread11Interrupt
18:   OBJECT GLOBAL DEFAULT UND _ZN3art6Thread11is_starte
19:   OBJECT GLOBAL DEFAULT UND _ZN3art6Thread12resume_co
20:   FUNC GLOBAL DEFAULT UND _ZN3art6Thread13IsInterru
21:   FUNC GLOBAL DEFAULT UND _ZN3art6Thread13SetThread
22:   FUNC GLOBAL DEFAULT UND _ZN3art6Thread15GetFlipFu
23:   FUNC GLOBAL DEFAULT UND _ZN3art6Thread15VerifySta
24:   FUNC GLOBAL DEFAULT UND _ZN3art6Thread17FromManag
25:   FUNC GLOBAL DEFAULT UND _ZN3art6Thread17SetNative
26:   FUNC GLOBAL DEFAULT UND _ZN3art6Thread18CreateNat
27:   FUNC GLOBAL DEFAULT UND _ZN3art6Thread18RunEmptyC
28:   FUNC GLOBAL DEFAULT UND _ZN3art6Thread21RunCheckp
29:   FUNC GLOBAL DEFAULT UND _ZN3art6Thread25PassActiv
30:   FUNC GLOBAL DEFAULT UND _ZN3art6Thread9InterruptE
31:   FUNC GLOBAL DEFAULT UND _ZN3art6mirror6String6Int
32:   FUNC GLOBAL DEFAULT UND _ZN3art7Monitor4WaitEPNS_
33:   FUNC GLOBAL DEFAULT UND _ZN3art7Runtime12CallExit
34:   FUNC GLOBAL DEFAULT UND _ZN3art7Runtime14IsShutti
35:   OBJECT GLOBAL DEFAULT UND _ZN3art7Runtime9instance_
36:   FUNC GLOBAL DEFAULT UND _ZN3art9JavaVMExt17LoadNa
37:   OBJECT GLOBAL DEFAULT UND _ZN3art9gAbortingE
38:   FUNC GLOBAL DEFAULT UND _ZN3artlsERNSt3__113basic
39:   FUNC GLOBAL DEFAULT UND _ZN3artlsERNSt3__113basic
40:   FUNC GLOBAL DEFAULT UND _ZN3artlsERNSt3__113basic
41:   FUNC GLOBAL DEFAULT UND _ZN7android4base10LogMess
42:   FUNC GLOBAL DEFAULT UND _ZN7android4base10LogMess
43:   FUNC GLOBAL DEFAULT UND _ZN7android4base10LogMess
44:   FUNC GLOBAL DEFAULT UND _ZN7android4base21GetMini
45:   FUNC GLOBAL DEFAULT UND _ZNK3art17ReaderWriterMut
46:   FUNC GLOBAL DEFAULT UND _ZNK3art2gc4Heap14GetTota
47:   FUNC GLOBAL DEFAULT UND _ZNK3art6Thread13DecodeJO
48:   FUNC GLOBAL DEFAULT UND _ZNK3art6Thread13GetThrea
49:   FUNC GLOBAL DEFAULT UND _ZNK3art6Thread9HoldsLock
50:   FUNC GLOBAL DEFAULT UND _ZNKSt3__121__basic_strin
51:   FUNC GLOBAL DEFAULT UND _ZNKSt3__16locale9use_fac
52:   FUNC GLOBAL DEFAULT UND _ZNKSt3__18ios_base6getlo
53:   FUNC GLOBAL DEFAULT UND _ZNSt3__113basic_ostreamI
54:   FUNC GLOBAL DEFAULT UND _ZNSt3__113basic_ostreamI
55:   FUNC GLOBAL DEFAULT UND _ZNSt3__113basic_ostreamI
56:   FUNC GLOBAL DEFAULT UND _ZNSt3__113basic_ostreamI
57:   FUNC GLOBAL DEFAULT UND _ZNSt3__113basic_ostreamI
58:   FUNC GLOBAL DEFAULT UND _ZNSt3__113basic_ostreamI
59:   FUNC GLOBAL DEFAULT UND _ZNSt3__113basic_ostreamI
60:   FUNC GLOBAL DEFAULT UND _ZNSt3__113basic_ostreamI
61:   OBJECT GLOBAL DEFAULT UND _ZNSt3__15ctypeIcE2idE
62:   FUNC GLOBAL DEFAULT UND _ZNSt3__16localeD1Ev
63:   FUNC GLOBAL DEFAULT UND _ZNSt3__18ios_base5clearE
64:   FUNC GLOBAL DEFAULT UND _ZdlPv
65:   FUNC GLOBAL DEFAULT UND _Znwm
66:   FUNC GLOBAL DEFAULT UND __assert2@LIBC (2)
67:   FUNC GLOBAL DEFAULT UND __errno@LIBC (2)
68:   FUNC GLOBAL DEFAULT UND __gnu_strerror_r@LIBC (2)
69:   FUNC GLOBAL DEFAULT UND __stack_chk_fail@LIBC (2)
70:   FUNC GLOBAL DEFAULT UND __vsnprintf_chk@LIBC (2)
71:   FUNC GLOBAL DEFAULT UND close@LIBC (2)
72:   FUNC GLOBAL DEFAULT UND connect@LIBC (2)
73:   FUNC GLOBAL DEFAULT UND dlsym@LIBC (3)
74:   FUNC GLOBAL DEFAULT UND exit@LIBC (2)
75:   FUNC GLOBAL DEFAULT UND free@LIBC (2)
76:   FUNC GLOBAL DEFAULT UND fsync@LIBC (2)
77:   FUNC GLOBAL DEFAULT UND gethostname@LIBC (2)
78:   FUNC GLOBAL DEFAULT UND getsockname@LIBC (2)
79:   FUNC GLOBAL DEFAULT UND getsockopt@LIBC (2)
80:   FUNC GLOBAL DEFAULT UND gettimeofday@LIBC (2)
81:   FUNC GLOBAL DEFAULT UND ioctl@LIBC (2)
82:   FUNC GLOBAL DEFAULT UND listen@LIBC (2)
83:   FUNC GLOBAL DEFAULT UND lseek64@LIBC (2)
84:   FUNC GLOBAL DEFAULT UND malloc@LIBC (2)
85:   FUNC GLOBAL DEFAULT UND memcpy@LIBC (2)
86:   FUNC GLOBAL DEFAULT UND memset@LIBC (2)
87:   FUNC GLOBAL DEFAULT UND open@LIBC (2)
88:   FUNC GLOBAL DEFAULT UND pthread_mutex_destroy@LIBC (2)
89:   FUNC GLOBAL DEFAULT UND pthread_mutex_init@LIBC (2)
90:   FUNC GLOBAL DEFAULT UND pthread_mutex_lock@LIBC (2)
91:   FUNC GLOBAL DEFAULT UND pthread_mutex_unlock@LIBC (2)
92:   FUNC GLOBAL DEFAULT UND read@LIBC (2)
93:   FUNC GLOBAL DEFAULT UND sched_yield@LIBC (2)
94:   FUNC GLOBAL DEFAULT UND sendto@LIBC (2)
95:   FUNC GLOBAL DEFAULT UND setsockopt@LIBC (2)
96:   FUNC GLOBAL DEFAULT UND shutdown@LIBC (2)
97:   FUNC GLOBAL DEFAULT UND socket@LIBC (2)
98:   FUNC GLOBAL DEFAULT UND strlen@LIBC (2)
99:   FUNC GLOBAL DEFAULT UND strncpy@LIBC (2)
100:   FUNC GLOBAL DEFAULT UND vfprintf@LIBC (2)
101:   FUNC GLOBAL DEFAULT UND write@LIBC (2)
102:   FUNC GLOBAL DEFAULT 14 JVM_ArrayCopy
103:   FUNC GLOBAL DEFAULT 14 JVM_GetSockName
104:   FUNC GLOBAL DEFAULT 14 JVM_RawMonitorDestroy
105:   FUNC GLOBAL DEFAULT 14 JVM_SocketClose
106:   FUNC GLOBAL DEFAULT 14 JVM_NativeLoad
107:   FUNC GLOBAL DEFAULT 14 JVM_GC
108:   FUNC GLOBAL DEFAULT 14 JVM_GetHostName
109:   FUNC GLOBAL DEFAULT 14 JVM_GetSockOpt
110:   FUNC GLOBAL DEFAULT 14 JVM_HoldsLock
111:   FUNC GLOBAL DEFAULT 14 JVM_Listen
112:   FUNC GLOBAL DEFAULT 14 JVM_Read
113:   FUNC GLOBAL DEFAULT 14 JVM_RaiseSignal
114:   FUNC GLOBAL DEFAULT 14 JVM_Yield
115:   FUNC GLOBAL DEFAULT 14 JVM_CurrentThread
116:   FUNC GLOBAL DEFAULT 14 JVM_CurrentTimeMillis
117:   FUNC GLOBAL DEFAULT 14 JVM_Exit
118:   FUNC GLOBAL DEFAULT 14 JVM_FreeMemory
119:   FUNC GLOBAL DEFAULT 14 JVM_GetLastErrorString
120:   FUNC GLOBAL DEFAULT 14 JVM_InternString
121:   FUNC GLOBAL DEFAULT 14 JVM_SocketShutdown
122:   FUNC GLOBAL PROTECTED 14 jio_snprintf
123:   FUNC GLOBAL DEFAULT 14 JVM_Halt
124:   FUNC GLOBAL DEFAULT 14 JVM_NativePath
125:   FUNC GLOBAL DEFAULT 14 JVM_Open
126:   FUNC GLOBAL DEFAULT 14 JVM_RegisterSignal
127:   FUNC GLOBAL DEFAULT 14 JVM_Sleep
128:   FUNC GLOBAL DEFAULT 14 JVM_InitializeSocketLibra
129:   FUNC GLOBAL DEFAULT 14 JVM_MaxMemory
130:   FUNC GLOBAL PROTECTED 14 jio_vsnprintf
131:   FUNC GLOBAL DEFAULT 14 JVM_IHashCode
132:   FUNC GLOBAL DEFAULT 14 JVM_Interrupt
133:   FUNC GLOBAL DEFAULT 14 JVM_RawMonitorEnter
134:   FUNC GLOBAL DEFAULT 14 JVM_Send
135:   FUNC GLOBAL DEFAULT 14 JVM_SetNativeThreadName
136:   FUNC GLOBAL DEFAULT 14 JVM_SetThreadPriority
137:   FUNC GLOBAL DEFAULT 14 JVM_TotalMemory
138:   FUNC GLOBAL DEFAULT 14 JVM_IsInterrupted
139:   FUNC GLOBAL DEFAULT 14 JVM_SetSockOpt
140:   FUNC GLOBAL DEFAULT 14 JVM_Socket
141:   FUNC GLOBAL DEFAULT 14 jio_fprintf
142:   FUNC GLOBAL DEFAULT 14 jio_vfprintf
143:   FUNC GLOBAL DEFAULT 14 JVM_Close
144:   FUNC GLOBAL DEFAULT 14 JVM_FindSignal
145:   FUNC GLOBAL DEFAULT 14 JVM_IsNaN
146:   FUNC GLOBAL DEFAULT 14 JVM_NanoTime
147:   FUNC GLOBAL DEFAULT 14 JVM_RawMonitorCreate
148:   FUNC GLOBAL DEFAULT 14 JVM_RawMonitorExit
149:   FUNC GLOBAL DEFAULT 14 JVM_Connect
150:   FUNC GLOBAL DEFAULT 14 JVM_FindLibraryEntry
151:   FUNC GLOBAL DEFAULT 14 JVM_SocketAvailable
152:   FUNC GLOBAL DEFAULT 14 JVM_Write
153:   FUNC GLOBAL DEFAULT 14 JVM_Lseek
154:   FUNC GLOBAL DEFAULT 14 JVM_Sync
155:   FUNC GLOBAL DEFAULT 14 JVM_StartThread
156:   FUNC WEAK PROTECTED 14 _ZNSt3__124__put_characte
