 0x000000000000000e (SONAME)             Library soname: [libpowermanager.so]
  
Symbol   contains 66 entries:
Num:   Type Bind Vis Ndx Name
0:   NOTYPE LOCAL DEFAULT UND
1:   FUNC GLOBAL DEFAULT UND __cxa_finalize@LIBC (2)
2:   FUNC GLOBAL DEFAULT UND __cxa_atexit@LIBC (2)
3:   FUNC GLOBAL DEFAULT UND _ZN7android10IInterfaceC2
4:   FUNC GLOBAL DEFAULT UND _ZN7android10IInterfaceD0
5:   FUNC GLOBAL DEFAULT UND _ZN7android10IInterfaceD1
6:   FUNC GLOBAL DEFAULT UND _ZN7android10IInterfaceD2
7:   FUNC GLOBAL DEFAULT UND _ZN7android14sp_report_ra
8:   FUNC GLOBAL DEFAULT UND _ZN7android6Parcel10write
9:   FUNC GLOBAL DEFAULT UND _ZN7android6Parcel10write
10:   FUNC GLOBAL DEFAULT UND _ZN7android6Parcel13write
11:   FUNC GLOBAL DEFAULT UND _ZN7android6Parcel13write
12:   FUNC GLOBAL DEFAULT UND _ZN7android6Parcel15write
13:   FUNC GLOBAL DEFAULT UND _ZN7android6Parcel17write
14:   FUNC GLOBAL DEFAULT UND _ZN7android6Parcel19write
15:   FUNC GLOBAL DEFAULT UND _ZN7android6ParcelC1Ev
16:   FUNC GLOBAL DEFAULT UND _ZN7android6ParcelD1Ev
17:   FUNC GLOBAL DEFAULT UND _ZN7android7RefBase10onFi
18:   FUNC GLOBAL DEFAULT UND _ZN7android7RefBase13onLa
19:   FUNC GLOBAL DEFAULT UND _ZN7android7RefBase15onLa
20:   FUNC GLOBAL DEFAULT UND _ZN7android7RefBase20onIn
21:   FUNC GLOBAL DEFAULT UND _ZN7android7RefBaseC2Ev
22:   FUNC GLOBAL DEFAULT UND _ZN7android7RefBaseD2Ev
23:   FUNC GLOBAL DEFAULT UND _ZN7android8String16C1EPK
24:   FUNC GLOBAL DEFAULT UND _ZN7android8String16D1Ev
25:   FUNC GLOBAL DEFAULT UND _ZN7android9BpRefBase10on
26:   FUNC GLOBAL DEFAULT UND _ZN7android9BpRefBase15on
27:   FUNC GLOBAL DEFAULT UND _ZN7android9BpRefBase20on
28:   FUNC GLOBAL DEFAULT UND _ZN7android9BpRefBaseC2ER
29:   FUNC GLOBAL DEFAULT UND _ZN7android9BpRefBaseD0Ev
30:   FUNC GLOBAL DEFAULT UND _ZN7android9BpRefBaseD1Ev
31:   FUNC GLOBAL DEFAULT UND _ZN7android9BpRefBaseD2Ev
32:   FUNC GLOBAL DEFAULT UND _ZNK7android7RefBase9decS
33:   FUNC GLOBAL DEFAULT UND _ZNK7android7RefBase9incS
34:   FUNC GLOBAL DEFAULT UND _ZTv0_n24_N7android10IInt
35:   FUNC GLOBAL DEFAULT UND _ZTv0_n24_N7android10IInt
36:   FUNC GLOBAL DEFAULT UND _ZTv0_n24_N7android9BpRef
37:   FUNC GLOBAL DEFAULT UND _ZTv0_n24_N7android9BpRef
38:   FUNC GLOBAL DEFAULT UND _ZTv0_n32_N7android9BpRef
39:   FUNC GLOBAL DEFAULT UND _ZTv0_n40_N7android9BpRef
40:   FUNC GLOBAL DEFAULT UND _ZTv0_n48_N7android9BpRef
41:   FUNC GLOBAL DEFAULT UND _ZdlPv
42:   FUNC GLOBAL DEFAULT UND _Znwm
43:   FUNC GLOBAL DEFAULT UND __cxa_pure_virtual
44:   FUNC GLOBAL DEFAULT UND __stack_chk_fail@LIBC (2)
45:   FUNC GLOBAL DEFAULT 14 _ZN7android13IPowerManage
46:   OBJECT GLOBAL DEFAULT 18 _ZTCN7android13IPowerMana
47:   OBJECT WEAK DEFAULT 18 _ZTCN7android14BpPowerMan
48:   OBJECT WEAK DEFAULT 18 _ZTCN7android14BpPowerMan
49:   FUNC GLOBAL DEFAULT 14 _ZTv0_n24_N7android13IPow
50:   OBJECT GLOBAL DEFAULT 23 _ZN7android13IPowerManage
51:   OBJECT GLOBAL DEFAULT 18 _ZTTN7android13IPowerMana
52:   FUNC GLOBAL DEFAULT 14 _ZTv0_n24_N7android13IPow
53:   OBJECT GLOBAL DEFAULT 23 _ZN7android13IPowerManage
54:   FUNC GLOBAL DEFAULT 14 _ZN7android13IPowerManage
55:   OBJECT WEAK DEFAULT 18 _ZTTN7android14BpPowerMan
56:   OBJECT GLOBAL DEFAULT 18 _ZTVN7android13IPowerMana
57:   FUNC GLOBAL DEFAULT 14 _ZN7android13IPowerManage
58:   FUNC GLOBAL DEFAULT 14 _ZN7android13IPowerManage
59:   FUNC GLOBAL DEFAULT 14 _ZNK7android13IPowerManag
60:   OBJECT WEAK DEFAULT 18 _ZTCN7android14BpPowerMan
61:   OBJECT WEAK DEFAULT 18 _ZTVN7android14BpPowerMan
62:   FUNC GLOBAL DEFAULT 14 _ZN7android13IPowerManage
63:   FUNC GLOBAL DEFAULT 14 _ZN7android13IPowerManage
64:   FUNC GLOBAL DEFAULT 14 _ZN7android13IPowerManage
65:   OBJECT WEAK DEFAULT 18 _ZTCN7android14BpPowerMan
