 0x0000000e (SONAME)                     Library soname: [android.hardware.camera.device@3.3.so]
  
Symbol   contains 277 entries:
Num:   Type Bind Vis Ndx Name
0:   NOTYPE LOCAL DEFAULT UND
1:   FUNC GLOBAL DEFAULT UND __cxa_finalize@LIBC (2)
2:   FUNC GLOBAL DEFAULT UND _ZN7android14sp_report_ra
3:   FUNC GLOBAL DEFAULT UND _ZN7android21report_syspr
4:   OBJECT GLOBAL DEFAULT UND _ZN7android4hidl4base4V1_
5:   FUNC GLOBAL DEFAULT UND _ZN7android4hidl4base4V1_
6:   FUNC GLOBAL DEFAULT UND _ZN7android4hidl4base4V1_
7:   FUNC GLOBAL DEFAULT UND _ZN7android4hidl4base4V1_
8:   FUNC GLOBAL DEFAULT UND _ZN7android4hidl4base4V1_
9:   FUNC GLOBAL DEFAULT UND _ZN7android4hidl4base4V1_
10:   FUNC GLOBAL DEFAULT UND _ZN7android4hidl4base4V1_
11:   FUNC GLOBAL DEFAULT UND _ZN7android4hidl4base4V1_
12:   FUNC GLOBAL DEFAULT UND _ZN7android4hidl4base4V1_
13:   FUNC GLOBAL DEFAULT UND _ZN7android4hidl4base4V1_
14:   FUNC GLOBAL DEFAULT UND _ZN7android4hidl4base4V1_
15:   FUNC GLOBAL DEFAULT UND _ZN7android4hidl4base4V1_
16:   FUNC GLOBAL DEFAULT UND _ZN7android4hidl4base4V1_
17:   FUNC GLOBAL DEFAULT UND _ZN7android4hidl4base4V1_
18:   FUNC GLOBAL DEFAULT UND _ZN7android4hidl4base4V1_
19:   FUNC GLOBAL DEFAULT UND _ZN7android4hidl4base4V1_
20:   FUNC GLOBAL DEFAULT UND _ZN7android4hidl4base4V1_
21:   FUNC GLOBAL DEFAULT UND _ZN7android4hidl4base4V1_
22:   FUNC GLOBAL DEFAULT UND _ZN7android4hidl4base4V1_
23:   FUNC GLOBAL DEFAULT UND _ZN7android4hidl4base4V1_
24:   FUNC GLOBAL DEFAULT UND _ZN7android4hidl4base4V1_
25:   FUNC GLOBAL DEFAULT UND _ZN7android4hidl4base4V1_
26:   FUNC GLOBAL DEFAULT UND _ZN7android4hidl4base4V1_
27:   FUNC GLOBAL DEFAULT UND _ZN7android4hidl4base4V1_
28:   FUNC GLOBAL DEFAULT UND _ZN7android7RefBase10onFi
29:   FUNC GLOBAL DEFAULT UND _ZN7android7RefBase12weak
30:   FUNC GLOBAL DEFAULT UND _ZN7android7RefBase13onLa
31:   FUNC GLOBAL DEFAULT UND _ZN7android7RefBase15onLa
32:   FUNC GLOBAL DEFAULT UND _ZN7android7RefBase20onIn
33:   FUNC GLOBAL DEFAULT UND _ZN7android7RefBaseC2Ev
34:   FUNC GLOBAL DEFAULT UND _ZN7android7RefBaseD2Ev
35:   FUNC GLOBAL DEFAULT UND _ZN7android8hardware10IIn
36:   FUNC GLOBAL DEFAULT UND _ZN7android8hardware10IIn
37:   FUNC GLOBAL DEFAULT UND _ZN7android8hardware10IIn
38:   FUNC GLOBAL DEFAULT UND _ZN7android8hardware10IIn
39:   FUNC GLOBAL DEFAULT UND _ZN7android8hardware10IIn
40:   FUNC GLOBAL DEFAULT UND _ZN7android8hardware11BpH
41:   FUNC GLOBAL DEFAULT UND _ZN7android8hardware11BpH
42:   FUNC GLOBAL DEFAULT UND _ZN7android8hardware11BpH
43:   FUNC GLOBAL DEFAULT UND _ZN7android8hardware11BpH
44:   FUNC GLOBAL DEFAULT UND _ZN7android8hardware11BpH
45:   FUNC GLOBAL DEFAULT UND _ZN7android8hardware11BpH
46:   FUNC GLOBAL DEFAULT UND _ZN7android8hardware11BpH
47:   FUNC GLOBAL DEFAULT UND _ZN7android8hardware11hid
48:   FUNC GLOBAL DEFAULT UND _ZN7android8hardware11hid
49:   FUNC GLOBAL DEFAULT UND _ZN7android8hardware11hid
50:   FUNC GLOBAL DEFAULT UND _ZN7android8hardware11hid
51:   FUNC GLOBAL DEFAULT UND _ZN7android8hardware11hid
52:   FUNC GLOBAL DEFAULT UND _ZN7android8hardware12Pro
53:   FUNC GLOBAL DEFAULT UND _ZN7android8hardware12Pro
54:   FUNC GLOBAL DEFAULT UND _ZN7android8hardware13wri
55:   FUNC GLOBAL DEFAULT UND _ZN7android8hardware14rea
56:   FUNC GLOBAL DEFAULT UND _ZN7android8hardware21def
57:   FUNC GLOBAL DEFAULT UND _ZN7android8hardware23get
58:   FUNC GLOBAL DEFAULT UND _ZN7android8hardware27hid
59:   FUNC GLOBAL DEFAULT UND _ZN7android8hardware27hid
60:   FUNC GLOBAL DEFAULT UND _ZN7android8hardware6Parc
61:   FUNC GLOBAL DEFAULT UND _ZN7android8hardware6Parc
62:   FUNC GLOBAL DEFAULT UND _ZN7android8hardware6Parc
63:   FUNC GLOBAL DEFAULT UND _ZN7android8hardware6Parc
64:   FUNC GLOBAL DEFAULT UND _ZN7android8hardware6Parc
65:   FUNC GLOBAL DEFAULT UND _ZN7android8hardware6Stat
66:   FUNC GLOBAL DEFAULT UND _ZN7android8hardware6Stat
67:   FUNC GLOBAL DEFAULT UND _ZN7android8hardware6Stat
68:   FUNC GLOBAL DEFAULT UND _ZN7android8hardware6Stat
69:   OBJECT GLOBAL DEFAULT UND _ZN7android8hardware6came
70:   FUNC GLOBAL DEFAULT UND _ZN7android8hardware6came
71:   FUNC GLOBAL DEFAULT UND _ZN7android8hardware6came
72:   FUNC GLOBAL DEFAULT UND _ZN7android8hardware6came
73:   FUNC GLOBAL DEFAULT UND _ZN7android8hardware6came
74:   FUNC GLOBAL DEFAULT UND _ZN7android8hardware6came
75:   FUNC GLOBAL DEFAULT UND _ZN7android8hardware6came
76:   FUNC GLOBAL DEFAULT UND _ZN7android8hardware6came
77:   FUNC GLOBAL DEFAULT UND _ZN7android8hardware6came
78:   FUNC GLOBAL DEFAULT UND _ZN7android8hardware6came
79:   FUNC GLOBAL DEFAULT UND _ZN7android8hardware6came
80:   FUNC GLOBAL DEFAULT UND _ZN7android8hardware6came
81:   FUNC GLOBAL DEFAULT UND _ZN7android8hardware6came
82:   FUNC GLOBAL DEFAULT UND _ZN7android8hardware6came
83:   FUNC GLOBAL DEFAULT UND _ZN7android8hardware6came
84:   FUNC GLOBAL DEFAULT UND _ZN7android8hardware6came
85:   FUNC GLOBAL DEFAULT UND _ZN7android8hardware6came
86:   FUNC GLOBAL DEFAULT UND _ZN7android8hardware6came
87:   FUNC GLOBAL DEFAULT UND _ZN7android8hardware6came
88:   FUNC GLOBAL DEFAULT UND _ZN7android8hardware6came
89:   FUNC GLOBAL DEFAULT UND _ZN7android8hardware6came
90:   FUNC GLOBAL DEFAULT UND _ZN7android8hardware6came
91:   FUNC GLOBAL DEFAULT UND _ZN7android8hardware6came
92:   FUNC GLOBAL DEFAULT UND _ZN7android8hardware6came
93:   FUNC GLOBAL DEFAULT UND _ZN7android8hardware6came
94:   FUNC GLOBAL DEFAULT UND _ZN7android8hardware6came
95:   FUNC GLOBAL DEFAULT UND _ZN7android8hardware6came
96:   FUNC GLOBAL DEFAULT UND _ZN7android8hardware7IBin
97:   FUNC GLOBAL DEFAULT UND _ZN7android8hardware7IBin
98:   FUNC GLOBAL DEFAULT UND _ZN7android8hardware7IBin
99:   FUNC GLOBAL DEFAULT UND _ZN7android8hardware7IBin
100:   FUNC GLOBAL DEFAULT UND _ZN7android8hardware7deta
101:   FUNC GLOBAL DEFAULT UND _ZN7android8hardware7deta
102:   FUNC GLOBAL DEFAULT UND _ZN7android8hardware7deta
103:   FUNC GLOBAL DEFAULT UND _ZN7android8hardware7deta
104:   FUNC GLOBAL DEFAULT UND _ZN7android8hardware7deta
105:   FUNC GLOBAL DEFAULT UND _ZN7android8hardware7deta
106:   FUNC GLOBAL DEFAULT UND _ZN7android8hardware7deta
107:   OBJECT GLOBAL DEFAULT UND _ZN7android8hardware7deta
108:   OBJECT GLOBAL DEFAULT UND _ZN7android8hardware7deta
109:   FUNC GLOBAL DEFAULT UND _ZN7android8hardware7deta
110:   FUNC GLOBAL DEFAULT UND _ZN7android8hardware7deta
111:   FUNC GLOBAL DEFAULT UND _ZN7android8hardware7deta
112:   FUNC GLOBAL DEFAULT UND _ZN7android8hardware7deta
113:   FUNC GLOBAL DEFAULT UND _ZN7android8hardware7deta
114:   FUNC GLOBAL DEFAULT UND _ZN7android8hardware7deta
115:   FUNC GLOBAL DEFAULT UND _ZN7android8hardware7deta
116:   FUNC GLOBAL DEFAULT UND _ZN7android8hardware7deta
117:   FUNC GLOBAL DEFAULT UND _ZN7android8hardware7deta
118:   OBJECT GLOBAL DEFAULT UND _ZN7android8hardware7deta
119:   FUNC GLOBAL DEFAULT UND _ZN7android8hardware9BHwB
120:   FUNC GLOBAL DEFAULT UND _ZN7android8hardware9BHwB
121:   FUNC GLOBAL DEFAULT UND _ZN7android8hardware9BHwB
122:   FUNC GLOBAL DEFAULT UND _ZN7android8hardware9BHwB
123:   FUNC GLOBAL DEFAULT UND _ZN7android8hardware9BHwB
124:   FUNC GLOBAL DEFAULT UND _ZN7android8hardware9BHwB
125:   FUNC GLOBAL DEFAULT UND _ZN7android8hardware9BHwB
126:   FUNC GLOBAL DEFAULT UND _ZN7android8hardware9BHwB
127:   FUNC GLOBAL DEFAULT UND _ZN7android8hardware9BHwB
128:   FUNC GLOBAL DEFAULT UND _ZN7android8hardware9BHwB
129:   FUNC GLOBAL DEFAULT UND _ZNK7android7RefBase10cre
130:   FUNC GLOBAL DEFAULT UND _ZNK7android7RefBase11get
131:   FUNC GLOBAL DEFAULT UND _ZNK7android7RefBase9decS
132:   FUNC GLOBAL DEFAULT UND _ZNK7android7RefBase9incS
133:   FUNC GLOBAL DEFAULT UND _ZNK7android8hardware6Par
134:   FUNC GLOBAL DEFAULT UND _ZNK7android8hardware6Par
135:   FUNC GLOBAL DEFAULT UND _ZNK7android8hardware6Par
136:   FUNC GLOBAL DEFAULT UND _ZNK7android8hardware7IBi
137:   FUNC GLOBAL DEFAULT UND _ZNK7android8hardware7det
138:   FUNC GLOBAL DEFAULT UND _ZNK7android8hardware9BHw
139:   FUNC GLOBAL DEFAULT UND _ZNKSt3__120__vector_base
140:   FUNC GLOBAL DEFAULT UND _ZNKSt3__121__basic_strin
141:   FUNC GLOBAL DEFAULT UND _ZNSt3__112basic_stringIc
142:   FUNC GLOBAL DEFAULT UND _ZNSt3__15mutex4lockEv
143:   FUNC GLOBAL DEFAULT UND _ZNSt3__15mutex6unlockEv
144:   FUNC GLOBAL DEFAULT UND _ZNSt3__15mutexD1Ev
145:   FUNC GLOBAL DEFAULT UND _ZTv0_n12_N7android4hidl4
146:   FUNC GLOBAL DEFAULT UND _ZTv0_n12_N7android4hidl4
147:   FUNC GLOBAL DEFAULT UND _ZTv0_n12_N7android8hardw
148:   FUNC GLOBAL DEFAULT UND _ZTv0_n12_N7android8hardw
149:   FUNC GLOBAL DEFAULT UND _ZTv0_n12_N7android8hardw
150:   FUNC GLOBAL DEFAULT UND _ZTv0_n12_N7android8hardw
151:   FUNC GLOBAL DEFAULT UND _ZTv0_n12_N7android8hardw
152:   FUNC GLOBAL DEFAULT UND _ZTv0_n12_N7android8hardw
153:   FUNC GLOBAL DEFAULT UND _ZTv0_n12_N7android8hardw
154:   FUNC GLOBAL DEFAULT UND _ZTv0_n12_N7android8hardw
155:   FUNC GLOBAL DEFAULT UND _ZTv0_n16_N7android8hardw
156:   FUNC GLOBAL DEFAULT UND _ZTv0_n20_N7android8hardw
157:   FUNC GLOBAL DEFAULT UND _ZTv0_n24_N7android8hardw
158:   FUNC GLOBAL DEFAULT UND _ZdaPv
159:   FUNC GLOBAL DEFAULT UND _ZdlPv
160:   FUNC GLOBAL DEFAULT UND _Znaj
161:   FUNC GLOBAL DEFAULT UND _Znwj
162:   FUNC GLOBAL DEFAULT UND __android_log_assert@LIBLOG (3)
163:   FUNC GLOBAL DEFAULT UND __cxa_pure_virtual
164:   FUNC GLOBAL DEFAULT UND __stack_chk_fail@LIBC (2)
165:   OBJECT GLOBAL DEFAULT UND __stack_chk_guard@LIBC (2)
166:   FUNC GLOBAL DEFAULT UND abort@LIBC (2)
167:   FUNC GLOBAL DEFAULT UND atrace_begin_body
168:   OBJECT GLOBAL DEFAULT UND atrace_enabled_tags
169:   FUNC GLOBAL DEFAULT UND atrace_end_body
170:   OBJECT GLOBAL DEFAULT UND atrace_is_ready
171:   FUNC GLOBAL DEFAULT UND atrace_setup
172:   FUNC GLOBAL DEFAULT UND memcmp@LIBC (2)
173:   FUNC GLOBAL DEFAULT UND strlen@LIBC (2)
174:   FUNC GLOBAL DEFAULT UND _ZN7android8hardware6Parc
175:   FUNC GLOBAL DEFAULT UND _ZNK7android8hardware6Par
176:   FUNC GLOBAL DEFAULT UND memcpy@LIBC (2)
177:   FUNC GLOBAL DEFAULT UND memset@LIBC (2)
178:   FUNC GLOBAL DEFAULT 14 _ZN7android8hardware6came
179:   FUNC GLOBAL DEFAULT 14 _ZN7android8hardware6came
180:   FUNC WEAK DEFAULT 14 _ZNSt3__16vectorINS_8func
181:   OBJECT GLOBAL DEFAULT 18 _ZTCN7android8hardware6ca
182:   FUNC GLOBAL DEFAULT 14 _ZTv0_n12_N7android8hardw
183:   FUNC GLOBAL DEFAULT 14 _ZN7android8hardware6came
184:   FUNC GLOBAL DEFAULT 14 _ZN7android8hardware6came
185:   FUNC GLOBAL DEFAULT 14 _ZN7android8hardware6came
186:   FUNC WEAK DEFAULT 14 _ZNSt3__16vectorIPvNS_9al
187:   FUNC GLOBAL DEFAULT 14 _ZThn20_N7android8hardwar
188:   FUNC GLOBAL DEFAULT 14 _ZN7android8hardware6came
189:   FUNC GLOBAL DEFAULT 14 _ZN7android8hardware6came
190:   FUNC GLOBAL DEFAULT 14 _ZN7android8hardware6came
191:   FUNC GLOBAL DEFAULT 14 _ZN7android8hardware6came
192:   FUNC WEAK DEFAULT 14 _ZN7android8hardware7deta
193:   FUNC WEAK DEFAULT 14 _ZNSt3__16__treeINS_12__v
194:   OBJECT WEAK DEFAULT 18 _ZTVN7android8hardware6ca
195:   FUNC GLOBAL DEFAULT 14 _ZN7android8hardware6came
196:   FUNC WEAK DEFAULT 14 _ZN7android8hardware7deta
197:   FUNC WEAK DEFAULT 14 _ZNSt3__16__treeINS_12__v
198:   FUNC GLOBAL DEFAULT 14 _ZN7android8hardware6came
199:   FUNC GLOBAL DEFAULT 14 _ZN7android8hardware6came
200:   FUNC GLOBAL DEFAULT 14 _ZN7android8hardware6came
201:   FUNC GLOBAL DEFAULT 14 _ZN7android8hardware6came
202:   FUNC GLOBAL DEFAULT 14 _ZN7android8hardware6came
203:   FUNC GLOBAL DEFAULT 14 _ZN7android8hardware6came
204:   FUNC GLOBAL DEFAULT 14 _ZN7android8hardware6came
205:   FUNC GLOBAL DEFAULT 14 _ZN7android8hardware6came
206:   OBJECT GLOBAL DEFAULT 18 _ZTCN7android8hardware6ca
207:   OBJECT GLOBAL DEFAULT 18 _ZTVN7android8hardware6ca
208:   FUNC GLOBAL DEFAULT 14 _ZN7android8hardware6came
209:   FUNC GLOBAL DEFAULT 14 _ZN7android8hardware6came
210:   OBJECT GLOBAL DEFAULT 18 _ZTCN7android8hardware6ca
211:   FUNC GLOBAL DEFAULT 14 __aeabi_memset
212:   FUNC GLOBAL DEFAULT 14 _ZN7android8hardware6came
213:   FUNC GLOBAL DEFAULT 14 _ZN7android8hardware6came
214:   OBJECT GLOBAL DEFAULT 18 _ZTVN7android8hardware6ca
215:   FUNC GLOBAL DEFAULT 14 __aeabi_memclr4
216:   FUNC GLOBAL DEFAULT 14 _ZN7android8hardware6came
217:   FUNC GLOBAL DEFAULT 14 _ZN7android8hardware6came
218:   FUNC GLOBAL DEFAULT 14 _ZThn20_N7android8hardwar
219:   OBJECT GLOBAL DEFAULT 16 _ZN7android8hardware6came
220:   FUNC GLOBAL DEFAULT 14 _ZN7android8hardware6came
221:   FUNC GLOBAL DEFAULT 14 _ZN7android8hardware6came
222:   FUNC GLOBAL DEFAULT 14 __aeabi_memcpy4
223:   FUNC GLOBAL DEFAULT 14 __aeabi_memset4
224:   FUNC GLOBAL DEFAULT 14 _ZN7android8hardware6came
225:   FUNC GLOBAL DEFAULT 14 _ZN7android8hardware6came
226:   FUNC GLOBAL DEFAULT 14 _ZN7android8hardware6came
227:   OBJECT GLOBAL DEFAULT 18 _ZTCN7android8hardware6ca
228:   OBJECT GLOBAL DEFAULT 18 _ZTCN7android8hardware6ca
229:   OBJECT GLOBAL DEFAULT 18 _ZTCN7android8hardware6ca
230:   OBJECT GLOBAL DEFAULT 18 _ZTTN7android8hardware6ca
231:   FUNC GLOBAL DEFAULT 14 __aeabi_memclr8
232:   FUNC GLOBAL DEFAULT 14 _ZN7android8hardware6came
233:   FUNC GLOBAL DEFAULT 14 _ZN7android8hardware6came
234:   FUNC WEAK DEFAULT 14 _ZNSt3__16__treeINS_12__v
235:   FUNC GLOBAL DEFAULT 14 _ZN7android8hardware6came
236:   FUNC GLOBAL DEFAULT 14 _ZN7android8hardware6came
237:   FUNC GLOBAL DEFAULT 14 _ZN7android8hardware6came
238:   FUNC GLOBAL DEFAULT 14 _ZN7android8hardware6came
239:   FUNC WEAK DEFAULT 14 _ZNSt3__16__treeINS_12__v
240:   OBJECT WEAK DEFAULT 18 _ZTCN7android8hardware6ca
241:   OBJECT GLOBAL DEFAULT 18 _ZTVN7android8hardware6ca
242:   FUNC GLOBAL DEFAULT 14 _ZN7android8hardware6came
243:   FUNC GLOBAL DEFAULT 14 _ZN7android8hardware6came
244:   FUNC WEAK DEFAULT 14 _ZN7android8hardware7deta
245:   FUNC GLOBAL DEFAULT 14 _ZTv0_n12_N7android8hardw
246:   FUNC GLOBAL DEFAULT 14 __aeabi_memcpy
247:   FUNC GLOBAL DEFAULT 14 __aeabi_memcpy8
248:   FUNC GLOBAL DEFAULT 14 __aeabi_memset8
249:   FUNC GLOBAL DEFAULT 14 _ZN7android8hardware6came
250:   OBJECT GLOBAL DEFAULT 18 _ZTCN7android8hardware6ca
251:   FUNC GLOBAL DEFAULT 14 _ZN7android8hardware6came
252:   FUNC GLOBAL DEFAULT 14 _ZN7android8hardware6came
253:   FUNC GLOBAL DEFAULT 14 _ZN7android8hardware6came
254:   FUNC WEAK DEFAULT 14 _ZNSt3__16__treeINS_12__v
255:   FUNC WEAK DEFAULT 14 _ZNSt3__16vectorIN7androi
256:   OBJECT GLOBAL DEFAULT 18 _ZTCN7android8hardware6ca
257:   FUNC GLOBAL DEFAULT 14 _ZN7android8hardware6came
258:   OBJECT GLOBAL DEFAULT 18 _ZTCN7android8hardware6ca
259:   OBJECT GLOBAL DEFAULT 18 _ZTTN7android8hardware6ca
260:   FUNC GLOBAL DEFAULT 14 _ZN7android8hardware6came
261:   FUNC GLOBAL DEFAULT 14 _ZN7android8hardware6came
262:   FUNC WEAK DEFAULT 14 _ZNSt3__113__tree_removeI
263:   FUNC GLOBAL DEFAULT 14 __aeabi_memclr
264:   FUNC GLOBAL DEFAULT 14 _ZN7android8hardware6came
265:   FUNC GLOBAL DEFAULT 14 _ZN7android8hardware6came
266:   OBJECT GLOBAL DEFAULT 18 _ZTCN7android8hardware6ca
267:   FUNC GLOBAL DEFAULT 14 _ZN7android8hardware6came
268:   FUNC GLOBAL DEFAULT 14 _ZN7android8hardware6came
269:   FUNC GLOBAL DEFAULT 14 _ZN7android8hardware6came
270:   FUNC GLOBAL DEFAULT 14 _ZN7android8hardware6came
271:   FUNC WEAK DEFAULT 14 _ZNSt3__127__tree_balance
272:   FUNC WEAK DEFAULT 14 _ZNSt3__16__treeINS_12__v
273:   OBJECT GLOBAL DEFAULT 18 _ZTCN7android8hardware6ca
274:   OBJECT GLOBAL DEFAULT 18 _ZTTN7android8hardware6ca
275:   FUNC GLOBAL DEFAULT 14 _ZN7android8hardware6came
276:   FUNC GLOBAL DEFAULT 14 _ZN7android8hardware6came
