 0x000000000000000e (SONAME)             Library soname: [libprofiled.so]
  
Symbol   contains 310 entries:
Num:   Type Bind Vis Ndx Name
0:   NOTYPE LOCAL DEFAULT UND
1:   NOTYPE WEAK DEFAULT UND __gmon_start__
2:   NOTYPE WEAK DEFAULT UND _ITM_deregisterTMCloneTab
3:   NOTYPE WEAK DEFAULT UND _ITM_registerTMCloneTable
4:   FUNC WEAK DEFAULT UND __cxa_finalize@GLIBC_2.2.5 (2)
5:   NOTYPE WEAK DEFAULT UND _Jv_RegisterClasses
6:   FUNC GLOBAL DEFAULT UND PaletteTraceBegin@LIBARTPALETTE_1 (3)
7:   FUNC GLOBAL DEFAULT UND PaletteTraceEnd@LIBARTPALETTE_1 (3)
8:   FUNC GLOBAL DEFAULT UND _ZN3art10DupCloexecEi
9:   FUNC GLOBAL DEFAULT UND _ZN3art10LockedFile11Rele
10:   FUNC GLOBAL DEFAULT UND _ZN3art10LockedFile4OpenE
11:   FUNC GLOBAL DEFAULT UND _ZN3art10ZipArchive10Open
12:   FUNC GLOBAL DEFAULT UND _ZN3art10ZipArchiveD1Ev
13:   FUNC GLOBAL DEFAULT UND _ZN3art13DexFileLoader19G
14:   OBJECT GLOBAL DEFAULT UND _ZN3art13gLogVerbosityE
15:   FUNC GLOBAL DEFAULT UND _ZN3art14ArenaAllocator17
16:   FUNC GLOBAL DEFAULT UND _ZN3art14ArenaAllocatorC1
17:   FUNC GLOBAL DEFAULT UND _ZN3art14ArenaAllocatorD1
18:   FUNC GLOBAL DEFAULT UND _ZN3art15MallocArenaPoolC
19:   FUNC GLOBAL DEFAULT UND _ZN3art15MallocArenaPoolD
20:   FUNC GLOBAL DEFAULT UND _ZN3art2OS16GetFileSizeBy
21:   FUNC GLOBAL DEFAULT UND _ZN3art6MemMapC1EOS0_
22:   FUNC GLOBAL DEFAULT UND _ZN3art6MemMapD1Ev
23:   FUNC GLOBAL DEFAULT UND _ZN3art8NanoTimeEv
24:   FUNC GLOBAL DEFAULT UND _ZN3art8ZipEntry20MapDire
25:   FUNC GLOBAL DEFAULT UND _ZN3art8ZipEntry21GetUnco
26:   FUNC GLOBAL DEFAULT UND _ZN7android4base10LogMess
27:   FUNC GLOBAL DEFAULT UND _ZN7android4base10LogMess
28:   FUNC GLOBAL DEFAULT UND _ZN7android4base10LogMess
29:   FUNC GLOBAL DEFAULT UND _ZN7android4base21GetMini
30:   FUNC GLOBAL DEFAULT UND _ZN7android4base9ReadFull
31:   FUNC GLOBAL DEFAULT UND _ZN9unix_file6FdFile12Cle
32:   FUNC GLOBAL DEFAULT UND _ZNK3art10ZipArchive4Find
33:   FUNC GLOBAL DEFAULT UND _ZNK3art14ArenaAllocator1
34:   FUNC GLOBAL DEFAULT UND _ZNK3art7DexFile10PrettyT
35:   FUNC GLOBAL DEFAULT UND _ZNK3art7DexFile12PrettyM
36:   FUNC GLOBAL DEFAULT UND _ZNK3art8MemStats4DumpERN
37:   FUNC GLOBAL DEFAULT UND _ZNK9unix_file6FdFile2FdE
38:   FUNC GLOBAL DEFAULT UND _ZNKSt3__112basic_stringI
39:   FUNC GLOBAL DEFAULT UND _ZNKSt3__120__vector_base
40:   FUNC GLOBAL DEFAULT UND _ZNKSt3__121__basic_strin
41:   FUNC GLOBAL DEFAULT UND _ZNKSt3__16locale9use_fac
42:   FUNC GLOBAL DEFAULT UND _ZNKSt3__18ios_base6getlo
43:   FUNC GLOBAL DEFAULT UND _ZNSt3__112__next_primeEm
44:   FUNC GLOBAL DEFAULT UND _ZNSt3__112basic_stringIc
45:   FUNC GLOBAL DEFAULT UND _ZNSt3__112basic_stringIc
46:   FUNC GLOBAL DEFAULT UND _ZNSt3__112basic_stringIc
47:   FUNC GLOBAL DEFAULT UND _ZNSt3__112basic_stringIc
48:   FUNC GLOBAL DEFAULT UND _ZNSt3__112basic_stringIc
49:   FUNC GLOBAL DEFAULT UND _ZNSt3__112basic_stringIc
50:   FUNC GLOBAL DEFAULT UND _ZNSt3__112basic_stringIc
51:   FUNC GLOBAL DEFAULT UND _ZNSt3__112basic_stringIc
52:   FUNC GLOBAL DEFAULT UND _ZNSt3__112basic_stringIc
53:   FUNC GLOBAL DEFAULT UND _ZNSt3__112basic_stringIc
54:   FUNC GLOBAL DEFAULT UND _ZNSt3__113basic_ostreamI
55:   FUNC GLOBAL DEFAULT UND _ZNSt3__113basic_ostreamI
56:   FUNC GLOBAL DEFAULT UND _ZNSt3__113basic_ostreamI
57:   FUNC GLOBAL DEFAULT UND _ZNSt3__113basic_ostreamI
58:   FUNC GLOBAL DEFAULT UND _ZNSt3__113basic_ostreamI
59:   FUNC GLOBAL DEFAULT UND _ZNSt3__113basic_ostreamI
60:   FUNC GLOBAL DEFAULT UND _ZNSt3__113basic_ostreamI
61:   FUNC GLOBAL DEFAULT UND _ZNSt3__113basic_ostreamI
62:   FUNC GLOBAL DEFAULT UND _ZNSt3__113basic_ostreamI
63:   FUNC GLOBAL DEFAULT UND _ZNSt3__113basic_ostreamI
64:   FUNC GLOBAL DEFAULT UND _ZNSt3__113basic_ostreamI
65:   FUNC GLOBAL DEFAULT UND _ZNSt3__113basic_ostreamI
66:   FUNC GLOBAL DEFAULT UND _ZNSt3__115basic_streambu
67:   FUNC GLOBAL DEFAULT UND _ZNSt3__115basic_streambu
68:   FUNC GLOBAL DEFAULT UND _ZNSt3__115basic_streambu
69:   FUNC GLOBAL DEFAULT UND _ZNSt3__115basic_streambu
70:   FUNC GLOBAL DEFAULT UND _ZNSt3__115basic_streambu
71:   FUNC GLOBAL DEFAULT UND _ZNSt3__115basic_streambu
72:   FUNC GLOBAL DEFAULT UND _ZNSt3__115basic_streambu
73:   FUNC GLOBAL DEFAULT UND _ZNSt3__115basic_streambu
74:   FUNC GLOBAL DEFAULT UND _ZNSt3__115basic_streambu
75:   OBJECT GLOBAL DEFAULT UND _ZNSt3__15ctypeIcE2idE
76:   FUNC GLOBAL DEFAULT UND _ZNSt3__16__sortIRNS_6__l
77:   FUNC GLOBAL DEFAULT UND _ZNSt3__16localeD1Ev
78:   FUNC GLOBAL DEFAULT UND _ZNSt3__18ios_base4initEP
79:   FUNC GLOBAL DEFAULT UND _ZNSt3__18ios_base5clearE
80:   FUNC GLOBAL DEFAULT UND _ZNSt3__19basic_iosIcNS_1
81:   FUNC GLOBAL DEFAULT UND _ZNSt3__19to_stringEi
82:   FUNC GLOBAL DEFAULT UND _ZNSt3__19to_stringEj
83:   FUNC GLOBAL DEFAULT UND _ZNSt3__19to_stringEm
84:   FUNC GLOBAL DEFAULT UND _ZNSt3__1plIcNS_11char_tr
85:   FUNC GLOBAL DEFAULT UND _ZTv0_n24_NSt3__113basic_
86:   FUNC GLOBAL DEFAULT UND _ZTv0_n24_NSt3__113basic_
87:   FUNC GLOBAL DEFAULT UND _ZdaPv
88:   FUNC GLOBAL DEFAULT UND _ZdlPv
89:   FUNC GLOBAL DEFAULT UND _Znam
90:   FUNC GLOBAL DEFAULT UND _Znwm
91:   FUNC GLOBAL DEFAULT UND __errno_location@GLIBC_2.2.5 (4)
92:   FUNC GLOBAL DEFAULT UND __fxstat@GLIBC_2.2.5 (2)
93:   FUNC GLOBAL DEFAULT UND __stack_chk_fail@GLIBC_2.4 (5)
94:   FUNC GLOBAL DEFAULT UND abort@GLIBC_2.2.5 (2)
95:   FUNC GLOBAL DEFAULT UND deflate
96:   FUNC GLOBAL DEFAULT UND deflateBound
97:   FUNC GLOBAL DEFAULT UND deflateEnd
98:   FUNC GLOBAL DEFAULT UND deflateInit_
99:   FUNC GLOBAL DEFAULT UND inflate
100:   FUNC GLOBAL DEFAULT UND inflateEnd
101:   FUNC GLOBAL DEFAULT UND inflateInit_
102:   FUNC GLOBAL DEFAULT UND lseek@GLIBC_2.2.5 (4)
103:   FUNC GLOBAL DEFAULT UND memcmp@GLIBC_2.2.5 (2)
104:   FUNC GLOBAL DEFAULT UND memcpy@GLIBC_2.14 (6)
105:   FUNC GLOBAL DEFAULT UND memmove@GLIBC_2.2.5 (2)
106:   FUNC GLOBAL DEFAULT UND memset@GLIBC_2.2.5 (2)
107:   FUNC GLOBAL DEFAULT UND rand@GLIBC_2.2.5 (2)
108:   FUNC GLOBAL DEFAULT UND read@GLIBC_2.2.5 (4)
109:   FUNC GLOBAL DEFAULT UND srand@GLIBC_2.2.5 (2)
110:   FUNC GLOBAL DEFAULT UND strerror@GLIBC_2.2.5 (2)
111:   FUNC GLOBAL DEFAULT UND strlen@GLIBC_2.2.5 (2)
112:   FUNC GLOBAL DEFAULT UND write@GLIBC_2.2.5 (4)
113:   FUNC WEAK PROTECTED 12 _ZN3art15dchecked_vectorI
114:   FUNC GLOBAL PROTECTED 12 _ZNK3art22ProfileCompilat
115:   FUNC WEAK PROTECTED 12 _ZNK3art7DexFile11GetClas
116:   OBJECT WEAK PROTECTED 21 _ZTVNSt3__110__function6_
117:   FUNC GLOBAL PROTECTED 12 _ZN3art22ProfileCompilati
118:   FUNC GLOBAL PROTECTED 12 _ZN3art22ProfileCompilati
119:   FUNC WEAK PROTECTED 12 _ZN3art7SafeMapItNS_22Pro
120:   FUNC WEAK PROTECTED 12 _ZNSt3__112__hash_tableIN
121:   FUNC WEAK PROTECTED 12 _ZNSt3__115basic_stringbu
122:   FUNC GLOBAL PROTECTED 12 _ZN3art22ProfileCompilati
123:   FUNC GLOBAL PROTECTED 12 _ZN3art22ProfileCompilati
124:   FUNC WEAK PROTECTED 12 _ZNSt3__112__hash_tableIN
125:   FUNC WEAK PROTECTED 12 _ZNSt3__113__tree_removeI
126:   OBJECT WEAK DEFAULT 21 _ZTTNSt3__119basic_ostrin
127:   FUNC GLOBAL PROTECTED 12 _ZN3art22ProfileCompilati
128:   FUNC GLOBAL PROTECTED 12 _ZN3art22ProfileCompilati
129:   FUNC WEAK PROTECTED 12 _ZNSt3__16__treeIN3art22P
130:   FUNC GLOBAL PROTECTED 12 _ZNK3art22ProfileCompilat
131:   FUNC WEAK PROTECTED 12 _ZNSt3__115basic_stringbu
132:   FUNC WEAK PROTECTED 12 _ZNSt3__16vectorIN3art22P
133:   FUNC WEAK PROTECTED 12 _ZTv0_n24_NSt3__119basic_
134:   FUNC GLOBAL PROTECTED 12 _ZN3art22ProfileCompilati
135:   FUNC WEAK PROTECTED 12 _ZNK3art15dchecked_vector
136:   FUNC WEAK PROTECTED 12 _ZNSt3__110__function6__f
137:   FUNC GLOBAL PROTECTED 12 _ZN3art22ProfileCompilati
138:   FUNC GLOBAL PROTECTED 12 _ZN3art22ProfileCompilati
139:   OBJECT GLOBAL PROTECTED 9 _ZN3art22ProfileCompilati
140:   FUNC GLOBAL PROTECTED 12 _ZN3art22ProfileCompilati
141:   FUNC WEAK PROTECTED 12 _ZNSt3__16vectorIN3art3de
142:   FUNC WEAK PROTECTED 12 _ZNK3art7HashSetINSt3__11
143:   FUNC WEAK PROTECTED 12 _ZNSt3__121__murmur2_or_c
144:   FUNC WEAK PROTECTED 12 _ZNSt3__124__put_characte
145:   FUNC WEAK PROTECTED 12 _ZN3art15dchecked_vectorI
146:   FUNC GLOBAL PROTECTED 12 _ZN3art22ProfileCompilati
147:   FUNC WEAK PROTECTED 12 _ZN3art7HashSetINSt3__112
148:   FUNC GLOBAL PROTECTED 12 _ZNK3art22ProfileCompilat
149:   FUNC WEAK PROTECTED 12 _ZNSt3__16vectorIhNS_9all
150:   FUNC GLOBAL PROTECTED 12 _ZN3art22ProfileCompilati
151:   FUNC WEAK PROTECTED 12 _ZNK3art7DexFile9GetTypeI
152:   FUNC GLOBAL PROTECTED 12 _ZN3art22ProfileCompilati
153:   FUNC GLOBAL PROTECTED 12 _ZN3art22ProfileCompilati
154:   FUNC WEAK PROTECTED 12 _ZNSt3__16vectorIhNS_9all
155:   OBJECT WEAK DEFAULT 21 _ZTCNSt3__119basic_ostrin
156:   FUNC WEAK PROTECTED 12 _ZN3art15dchecked_vectorI
157:   FUNC GLOBAL PROTECTED 12 _ZN3art22ProfileCompilati
158:   FUNC GLOBAL PROTECTED 12 _ZN3art22ProfileCompilati
159:   FUNC WEAK PROTECTED 12 _ZNK3art7SafeMapIhhNSt3__
160:   FUNC WEAK PROTECTED 12 _ZNSt3__16__treeIN3art3de
161:   FUNC WEAK PROTECTED 12 _ZN3art21ArenaAllocatorAd
162:   FUNC GLOBAL PROTECTED 12 _ZN3art22ProfileCompilati
163:   FUNC WEAK PROTECTED 12 _ZNK3art15BitMemoryRegion
164:   FUNC WEAK PROTECTED 12 _ZNSt3__16__treeINS_12__v
165:   FUNC GLOBAL PROTECTED 12 _ZN3art22ProfileCompilati
166:   FUNC GLOBAL PROTECTED 12 _ZN3art22ProfileCompilati
167:   OBJECT GLOBAL PROTECTED 9 _ZN3art22ProfileCompilati
168:   FUNC WEAK PROTECTED 12 _ZNSt3__16__treeIN3art22P
169:   FUNC WEAK PROTECTED 12 _ZNSt3__16vectorItN3art21
170:   FUNC GLOBAL PROTECTED 12 _ZN3art22ProfileCompilati
171:   FUNC WEAK PROTECTED 12 _ZNK3art7DexFile10NumType
172:   FUNC GLOBAL PROTECTED 12 _ZN3art22ProfileCompilati
173:   FUNC GLOBAL PROTECTED 12 _ZN3art22ProfileCompilati
174:   FUNC WEAK PROTECTED 12 _ZNKSt3__115basic_stringb
175:   FUNC WEAK PROTECTED 12 _ZNKSt3__16__treeINS_12__
176:   FUNC WEAK PROTECTED 12 _ZN3art22ProfileCompilati
177:   FUNC GLOBAL PROTECTED 12 _ZN3art22ProfileCompilati
178:   FUNC GLOBAL PROTECTED 12 _ZN3art22ProfileCompilati
179:   FUNC GLOBAL PROTECTED 12 _ZNK3art22ProfileCompilat
180:   FUNC WEAK PROTECTED 12 _ZNSt3__16__treeINS_12__v
181:   FUNC GLOBAL PROTECTED 12 _ZN3art22ProfileCompilati
182:   FUNC GLOBAL PROTECTED 12 _ZN3art22ProfileCompilati
183:   FUNC WEAK PROTECTED 12 _ZN3art7SafeMapIhNSt3__16
184:   FUNC WEAK PROTECTED 12 _ZNSt3__115basic_stringbu
185:   FUNC WEAK PROTECTED 12 _ZNSt3__16__treeINS_12__v
186:   FUNC GLOBAL PROTECTED 12 _ZN3art22ProfileCompilati
187:   FUNC GLOBAL PROTECTED 12 _ZN3art22ProfileCompilati
188:   FUNC GLOBAL PROTECTED 12 _ZNK3art22ProfileCompilat
189:   FUNC WEAK PROTECTED 12 _ZNSt3__16__treeINS_12__v
190:   FUNC GLOBAL PROTECTED 12 _ZN3art22ProfileCompilati
191:   FUNC GLOBAL PROTECTED 12 _ZN3art22ProfileCompilati
192:   FUNC GLOBAL PROTECTED 12 _ZN3art22ProfileCompilati
193:   FUNC WEAK PROTECTED 12 _ZNK3art15dchecked_vector
194:   FUNC WEAK PROTECTED 12 _ZNSt3__16__treeINS_12__v
195:   FUNC GLOBAL PROTECTED 12 _ZN3art22ProfileCompilati
196:   FUNC GLOBAL PROTECTED 12 _ZN3art22ProfileCompilati
197:   FUNC WEAK PROTECTED 12 _ZN3art7HashSetINSt3__112
198:   FUNC WEAK PROTECTED 12 _ZN3art7SafeMapIKNSt3__11
199:   FUNC GLOBAL PROTECTED 12 _ZNK3art22ProfileCompilat
200:   FUNC WEAK PROTECTED 12 _ZN3art14ArenaAllocator5A
201:   FUNC GLOBAL PROTECTED 12 _ZN3art22ProfileCompilati
202:   OBJECT GLOBAL PROTECTED 9 _ZN3art22ProfileCompilati
203:   FUNC GLOBAL PROTECTED 12 _ZN3art22ProfileCompilati
204:   FUNC WEAK PROTECTED 12 _ZN7android4base18MakeEag
205:   FUNC WEAK PROTECTED 12 _ZNK3art22ProfileCompilat
206:   FUNC GLOBAL PROTECTED 12 _ZNK3art22ProfileCompilat
207:   FUNC WEAK PROTECTED 12 _ZNSt3__16__treeINS_12bas
208:   FUNC GLOBAL PROTECTED 12 _ZNK3art22ProfileCompilat
209:   FUNC GLOBAL PROTECTED 12 _ZNK3art22ProfileCompilat
210:   FUNC GLOBAL PROTECTED 12 _ZNK3art22ProfileCompilat
211:   FUNC GLOBAL PROTECTED 12 _ZN3art22ProfileCompilati
212:   FUNC GLOBAL PROTECTED 12 _ZN3art22ProfileCompilati
213:   FUNC WEAK PROTECTED 12 _ZNK3art15BitMemoryRegion
214:   FUNC GLOBAL PROTECTED 12 _ZNK3art22ProfileCompilat
215:   FUNC WEAK PROTECTED 12 _ZNK3art8DataHashclINSt3_
216:   FUNC WEAK PROTECTED 12 _ZNSt3__110__function6__f
217:   FUNC GLOBAL PROTECTED 12 _ZN3art22ProfileCompilati
218:   FUNC GLOBAL PROTECTED 12 _ZNK3art22ProfileCompilat
219:   FUNC WEAK PROTECTED 12 _ZNSt3__16__treeIN3art23D
220:   FUNC GLOBAL PROTECTED 12 _ZN3art22ProfileCompilati
221:   FUNC GLOBAL PROTECTED 12 _ZN3art22ProfileCompilati
222:   FUNC GLOBAL PROTECTED 12 _ZNK3art22ProfileCompilat
223:   FUNC WEAK PROTECTED 12 _ZNKSt3__110__function6__
224:   FUNC WEAK PROTECTED 12 _ZN3art15BitMemoryRegion7
225:   FUNC WEAK PROTECTED 12 _ZN3art7SafeMapItNS0_ItNS
226:   FUNC WEAK PROTECTED 12 _ZNK3art7DexFile12NumStri
227:   FUNC GLOBAL DEFAULT 14 _fini
228:   FUNC WEAK PROTECTED 12 _ZN3art22ProfileCompilati
229:   FUNC WEAK PROTECTED 12 _ZNSt3__121__murmur2_or_c
230:   FUNC WEAK PROTECTED 12 _ZNK3art15BitMemoryRegion
231:   FUNC GLOBAL PROTECTED 12 _ZNK3art22ProfileCompilat
232:   FUNC WEAK PROTECTED 12 _ZNKSt3__110__function6__
233:   FUNC WEAK PROTECTED 12 _ZNSt3__112__hash_tableIN
234:   FUNC WEAK PROTECTED 12 _ZNSt3__16__treeIN3art23D
235:   FUNC WEAK PROTECTED 12 _ZN3art22ProfileCompilati
236:   FUNC GLOBAL PROTECTED 12 _ZN3art22ProfileCompilati
237:   FUNC WEAK PROTECTED 12 _ZNSt3__110__function6__f
238:   FUNC WEAK PROTECTED 12 _ZNSt3__115basic_stringbu
239:   OBJECT WEAK DEFAULT 21 _ZTVNSt3__115basic_string
240:   FUNC GLOBAL PROTECTED 12 _ZN3art22ProfileCompilati
241:   FUNC GLOBAL PROTECTED 12 _ZN3art22ProfileCompilati
242:   FUNC GLOBAL PROTECTED 12 _ZN3art22ProfileCompilati
243:   FUNC WEAK PROTECTED 12 _ZN3art22ProfileCompilati
244:   FUNC GLOBAL PROTECTED 12 _ZN3art22ProfileCompilati
245:   FUNC GLOBAL PROTECTED 12 _ZNK3art22ProfileCompilat
246:   FUNC WEAK PROTECTED 12 _ZNK3art7HashSetINSt3__11
247:   FUNC GLOBAL PROTECTED 12 _ZNK3art22ProfileCompilat
248:   FUNC WEAK PROTECTED 12 _ZNSt3__112__hash_tableIN
249:   FUNC WEAK PROTECTED 12 _ZNSt3__119basic_ostrings
250:   FUNC GLOBAL PROTECTED 12 _ZN3art22ProfileCompilati
251:   FUNC WEAK PROTECTED 12 _ZN3art7HashSetINSt3__112
252:   FUNC GLOBAL PROTECTED 12 _ZNK3art22ProfileCompilat
253:   FUNC GLOBAL PROTECTED 12 _ZNK3art22ProfileCompilat
254:   FUNC GLOBAL PROTECTED 12 _ZNK3art22ProfileCompilat
255:   FUNC WEAK PROTECTED 12 _ZNSt3__124uniform_int_di
256:   FUNC GLOBAL PROTECTED 12 _ZN3art22ProfileCompilati
257:   FUNC WEAK PROTECTED 12 _ZNSt3__112__hash_tableIN
258:   FUNC GLOBAL PROTECTED 12 _ZN3art22ProfileCompilati
259:   FUNC GLOBAL PROTECTED 12 _ZNK3art22ProfileCompilat
260:   FUNC GLOBAL PROTECTED 12 _ZN3art22ProfileCompilati
261:   FUNC GLOBAL PROTECTED 12 _ZN3art22ProfileCompilati
262:   FUNC GLOBAL PROTECTED 12 _ZNK3art22ProfileCompilat
263:   FUNC WEAK PROTECTED 12 _ZNSt3__16__treeINS_12__v
264:   FUNC WEAK PROTECTED 12 _ZN3art15BitMemoryRegion8
265:   FUNC GLOBAL PROTECTED 12 _ZN3art22ProfileCompilati
266:   FUNC GLOBAL PROTECTED 12 _ZN3art22ProfileCompilati
267:   FUNC GLOBAL PROTECTED 12 _ZN3art22ProfileCompilati
268:   FUNC GLOBAL PROTECTED 12 _ZN3art22ProfileCompilati
269:   FUNC WEAK PROTECTED 12 _ZNK3art22ProfileCompilat
270:   FUNC GLOBAL PROTECTED 12 _ZNK3art22ProfileCompilat
271:   FUNC WEAK PROTECTED 12 _ZNK3art7DexFile12NumMeth
272:   FUNC WEAK PROTECTED 12 _ZNSt3__16__treeINS_12__v
273:   FUNC GLOBAL DEFAULT 13 _init
274:   FUNC GLOBAL PROTECTED 12 _ZN3art22ProfileCompilati
275:   FUNC WEAK PROTECTED 12 _ZNSt3__16__treeINS_12__v
276:   FUNC WEAK PROTECTED 12 _ZNSt3__16__treeINS_12__v
277:   FUNC GLOBAL PROTECTED 12 _ZN3art22ProfileCompilati
278:   FUNC GLOBAL PROTECTED 12 _ZN3art22ProfileCompilati
279:   FUNC WEAK PROTECTED 12 _ZNSt3__115basic_stringbu
280:   FUNC WEAK PROTECTED 12 _ZN3art21ArenaAllocatorAd
281:   FUNC GLOBAL PROTECTED 12 _ZN3art22ProfileCompilati
282:   FUNC GLOBAL PROTECTED 12 _ZN3art22ProfileCompilati
283:   FUNC WEAK PROTECTED 12 _ZN3art7SafeMapIhhNSt3__1
284:   FUNC WEAK PROTECTED 12 _ZNK3art15dchecked_vector
285:   FUNC WEAK PROTECTED 12 _ZNK3art7DexFile11GetStri
286:   FUNC WEAK PROTECTED 12 _ZNSt3__112__hash_tableIN
287:   FUNC WEAK PROTECTED 12 _ZNSt3__16__treeINS_12__v
288:   FUNC GLOBAL PROTECTED 12 _ZN3art22ProfileCompilati
289:   FUNC GLOBAL PROTECTED 12 _ZN3art22ProfileCompilati
290:   FUNC WEAK PROTECTED 12 _ZNSt3__127__tree_balance
291:   FUNC WEAK PROTECTED 12 _ZTv0_n24_NSt3__119basic_
292:   FUNC GLOBAL PROTECTED 12 _ZNK3art22ProfileCompilat
293:   FUNC GLOBAL PROTECTED 12 _ZNK3art22ProfileCompilat
294:   FUNC WEAK PROTECTED 12 _ZNSt3__119basic_ostrings
295:   FUNC WEAK PROTECTED 12 _ZNSt3__16__treeINS_12__v
296:   FUNC WEAK PROTECTED 12 _ZNSt3__16__treeINS_12__v
297:   FUNC WEAK PROTECTED 12 _ZNK3art7DexFile12NumClas
298:   FUNC WEAK PROTECTED 12 _ZNSt3__110__function6__f
299:   FUNC WEAK PROTECTED 12 _ZNSt3__16__treeINS_12__v
300:   FUNC GLOBAL PROTECTED 12 _ZNK3art22ProfileCompilat
301:   FUNC WEAK PROTECTED 12 _ZNSt3__112__hash_tableIN
302:   FUNC WEAK PROTECTED 12 _ZNSt3__115basic_stringbu
303:   FUNC WEAK PROTECTED 12 _ZNSt3__16__treeIN3art23D
304:   FUNC WEAK PROTECTED 12 _ZNSt3__16vectorIN3art22P
305:   FUNC WEAK PROTECTED 12 _ZNSt3__16vectorIhN3art21
306:   FUNC WEAK PROTECTED 12 _ZN3art15BitMemoryRegionC
307:   OBJECT GLOBAL PROTECTED 9 _ZN3art22ProfileCompilati
308:   FUNC GLOBAL PROTECTED 12 _ZN3art22ProfileCompilati
309:   OBJECT WEAK DEFAULT 21 _ZTVNSt3__119basic_ostrin
