 0x0000000e (SONAME)                     Library soname: [libm.so]
  
Symbol   contains 351 entries:
Num:   Type Bind Vis Ndx Name
0:   NOTYPE LOCAL DEFAULT UND
1:   FUNC GLOBAL DEFAULT UND __cxa_finalize@LIBC (5)
2:   FUNC GLOBAL DEFAULT UND ldexp@LIBC (5)
3:   FUNC GLOBAL DEFAULT UND __stack_chk_fail@LIBC (5)
4:   OBJECT GLOBAL DEFAULT UND __stack_chk_guard@LIBC (5)
5:   FUNC GLOBAL DEFAULT UND isnanf@LIBC (5)
6:   FUNC GLOBAL DEFAULT UND isxdigit@LIBC (5)
7:   FUNC WEAK DEFAULT UND __gnu_Unwind_Find_exidx@LIBC_N (6)
8:   FUNC GLOBAL DEFAULT UND abort@LIBC (5)
9:   FUNC GLOBAL DEFAULT UND memcpy@LIBC (5)
10:   NOTYPE WEAK DEFAULT UND __cxa_begin_cleanup
11:   NOTYPE WEAK DEFAULT UND __cxa_type_match
12:   NOTYPE WEAK DEFAULT UND __cxa_call_unexpected
13:   FUNC GLOBAL DEFAULT 17 log1p@@LIBC
14:   FUNC GLOBAL DEFAULT 17 tgammal@@LIBC
15:   FUNC GLOBAL DEFAULT 17 atanh@@LIBC
16:   FUNC GLOBAL DEFAULT 17 fesetenv@@LIBC
17:   FUNC GLOBAL DEFAULT 17 roundl@@LIBC
18:   FUNC WEAK DEFAULT 17 truncl@@LIBC
19:   FUNC GLOBAL DEFAULT 17 __gnu_Unwind_Save_VFP_D@@LIBC_DEPRECATED
20:   FUNC GLOBAL DEFAULT 17 ___Unwind_RaiseException@@LIBC_DEPRECATED
21:   FUNC GLOBAL DEFAULT 17 catanf@@LIBC
22:   FUNC GLOBAL DEFAULT 17 asinhf@@LIBC
23:   FUNC GLOBAL DEFAULT 17 cpowl@@LIBC_O
24:   FUNC GLOBAL DEFAULT 17 significandf@@LIBC
25:   FUNC GLOBAL DEFAULT 17 j0@@LIBC
26:   FUNC GLOBAL DEFAULT 17 __signbit@@LIBC
27:   FUNC GLOBAL DEFAULT 17 catanh@@LIBC
28:   FUNC GLOBAL DEFAULT 17 j1@@LIBC
29:   FUNC WEAK DEFAULT 17 log10l@@LIBC
30:   FUNC WEAK DEFAULT 17 remainderl@@LIBC
31:   FUNC GLOBAL DEFAULT 17 scalbf@@LIBC
32:   FUNC GLOBAL DEFAULT 17 _Unwind_ForcedUnwind@@LIBC_DEPRECATED
33:   FUNC GLOBAL DEFAULT 17 acoshf@@LIBC
34:   FUNC WEAK DEFAULT 17 lgammal_r@@LIBC
35:   FUNC GLOBAL DEFAULT 17 sinhf@@LIBC
36:   FUNC WEAK DEFAULT 17 atanl@@LIBC
37:   FUNC GLOBAL DEFAULT 17 conjf@@LIBC
38:   FUNC GLOBAL DEFAULT 17 cacos@@LIBC
39:   FUNC GLOBAL DEFAULT 17 casin@@LIBC
40:   FUNC GLOBAL DEFAULT 17 log@@LIBC
41:   OBJECT GLOBAL DEFAULT 24 signgam@@LIBC
42:   FUNC GLOBAL DEFAULT 17 ctan@@LIBC
43:   FUNC GLOBAL DEFAULT 17 fesetexceptflag@@LIBC
44:   FUNC GLOBAL DEFAULT 17 sqrt@@LIBC
45:   FUNC GLOBAL DEFAULT 17 __gnu_Unwind_Restore_VFP@@LIBC_DEPRECATED
46:   FUNC WEAK DEFAULT 17 catanl@@LIBC_O
47:   FUNC GLOBAL DEFAULT 17 coshf@@LIBC
48:   FUNC WEAK DEFAULT 17 asinhl@@LIBC
49:   FUNC GLOBAL DEFAULT 17 csinf@@LIBC
50:   FUNC GLOBAL DEFAULT 17 csinhf@@LIBC
51:   FUNC GLOBAL DEFAULT 17 frexpf@@LIBC
52:   FUNC GLOBAL DEFAULT 17 scalbln@@LIBC
53:   FUNC GLOBAL DEFAULT 17 significandl@@LIBC
54:   FUNC GLOBAL DEFAULT 17 __fixsfdi@@LIBC_DEPRECATED
55:   FUNC GLOBAL DEFAULT 17 __gnu_Unwind_Save_VFP_D_1@@LIBC_DEPRECATED
56:   FUNC GLOBAL DEFAULT 17 scalb@@LIBC
57:   FUNC GLOBAL DEFAULT 17 log1pf@@LIBC
58:   FUNC GLOBAL DEFAULT 17 csinh@@LIBC
59:   FUNC GLOBAL DEFAULT 17 finitef@@LIBC
60:   FUNC GLOBAL DEFAULT 17 ___Unwind_ForcedUnwind@@LIBC_DEPRECATED
61:   FUNC WEAK DEFAULT 17 acoshl@@LIBC
62:   FUNC WEAK DEFAULT 17 sinhl@@LIBC
63:   FUNC GLOBAL DEFAULT 17 ccoshf@@LIBC
64:   FUNC GLOBAL DEFAULT 17 conjl@@LIBC
65:   FUNC GLOBAL DEFAULT 17 pow@@LIBC
66:   FUNC GLOBAL DEFAULT 17 llroundf@@LIBC
67:   FUNC GLOBAL DEFAULT 17 logbf@@LIBC
68:   FUNC GLOBAL DEFAULT 17 dremf@@LIBC
69:   FUNC GLOBAL DEFAULT 17 __gnu_Unwind_Resume_or_Re@@LIBC_DEPRECATED
70:   FUNC GLOBAL DEFAULT 17 expm1@@LIBC
71:   FUNC GLOBAL DEFAULT 17 gamma@@LIBC
72:   FUNC GLOBAL DEFAULT 17 scalbn@@LIBC
73:   FUNC GLOBAL DEFAULT 17 gamma_r@@LIBC
74:   FUNC GLOBAL DEFAULT 17 __gnu_Unwind_Resume@@LIBC_DEPRECATED
75:   FUNC WEAK DEFAULT 17 coshl@@LIBC
76:   FUNC GLOBAL DEFAULT 17 cbrtf@@LIBC
77:   FUNC WEAK DEFAULT 17 frexpl@@LIBC
78:   FUNC GLOBAL DEFAULT 17 csinhl@@LIBC_O
79:   FUNC GLOBAL DEFAULT 17 csinl@@LIBC_O
80:   FUNC GLOBAL DEFAULT 17 fmod@@LIBC
81:   OBJECT GLOBAL DEFAULT 13 __fe_dfl_env@@LIBC
82:   FUNC WEAK DEFAULT 17 log1pl@@LIBC
83:   FUNC GLOBAL DEFAULT 17 ctanf@@LIBC
84:   FUNC WEAK DEFAULT 17 logbl@@LIBC
85:   FUNC GLOBAL DEFAULT 17 nearbyint@@LIBC
86:   FUNC GLOBAL DEFAULT 17 ccoshl@@LIBC_O
87:   FUNC GLOBAL DEFAULT 17 llroundl@@LIBC
88:   FUNC GLOBAL DEFAULT 17 sqrtf@@LIBC
89:   FUNC GLOBAL DEFAULT 17 __aeabi_d2ulz@@LIBC_DEPRECATED
90:   FUNC GLOBAL DEFAULT 17 ynf@@LIBC
91:   FUNC GLOBAL DEFAULT 17 cabs@@LIBC
92:   FUNC GLOBAL DEFAULT 17 llrint@@LIBC
93:   FUNC GLOBAL DEFAULT 17 __gnu_Unwind_Save_WMMXC@@LIBC_DEPRECATED
94:   FUNC GLOBAL DEFAULT 17 ctanh@@LIBC
95:   FUNC GLOBAL DEFAULT 17 nearbyintf@@LIBC
96:   FUNC GLOBAL DEFAULT 17 __gnu_Unwind_Save_WMMXD@@LIBC_DEPRECATED
97:   FUNC GLOBAL DEFAULT 17 ___Unwind_Resume@@LIBC_DEPRECATED
98:   FUNC GLOBAL DEFAULT 17 tgamma@@LIBC
99:   FUNC GLOBAL DEFAULT 17 cosf@@LIBC
100:   FUNC GLOBAL DEFAULT 17 log10@@LIBC
101:   FUNC GLOBAL DEFAULT 17 cargf@@LIBC
102:   FUNC WEAK DEFAULT 17 cbrtl@@LIBC
103:   FUNC GLOBAL DEFAULT 17 csqrtf@@LIBC
104:   FUNC GLOBAL DEFAULT 17 llrintf@@LIBC
105:   FUNC GLOBAL DEFAULT 17 __gnu_Unwind_ForcedUnwind@@LIBC_DEPRECATED
106:   FUNC GLOBAL DEFAULT 17 y1f@@LIBC
107:   FUNC GLOBAL DEFAULT 17 ccos@@LIBC
108:   FUNC GLOBAL DEFAULT 17 fdim@@LIBC
109:   FUNC GLOBAL DEFAULT 17 _Unwind_VRS_Pop@@LIBC_DEPRECATED
110:   FUNC GLOBAL DEFAULT 17 cosh@@LIBC
111:   FUNC GLOBAL DEFAULT 17 csin@@LIBC
112:   FUNC GLOBAL DEFAULT 17 _Unwind_VRS_Set@@LIBC_DEPRECATED
113:   FUNC GLOBAL DEFAULT 17 ___Unwind_Backtrace@@LIBC_DEPRECATED
114:   FUNC GLOBAL DEFAULT 17 lgammaf_r@@LIBC
115:   FUNC GLOBAL DEFAULT 17 erfcf@@LIBC
116:   FUNC GLOBAL DEFAULT 17 ctanl@@LIBC_O
117:   FUNC GLOBAL DEFAULT 17 fegetexceptflag@@LIBC
118:   FUNC GLOBAL DEFAULT 17 sqrtl@@LIBC
119:   FUNC GLOBAL DEFAULT 17 log2f@@LIBC
120:   FUNC GLOBAL DEFAULT 17 __restore_core_regs@@LIBC_DEPRECATED
121:   FUNC GLOBAL DEFAULT 17 fegetround@@LIBC
122:   FUNC GLOBAL DEFAULT 17 remquof@@LIBC
123:   FUNC GLOBAL DEFAULT 17 nearbyintl@@LIBC
124:   FUNC GLOBAL DEFAULT 17 log2@@LIBC
125:   FUNC GLOBAL DEFAULT 17 catanhf@@LIBC
126:   FUNC GLOBAL DEFAULT 17 cargl@@LIBC
127:   FUNC WEAK DEFAULT 17 cosl@@LIBC
128:   FUNC WEAK DEFAULT 17 csqrtl@@LIBC
129:   FUNC GLOBAL DEFAULT 17 llrintl@@LIBC
130:   FUNC GLOBAL DEFAULT 17 __fixunssfdi@@LIBC_DEPRECATED
131:   FUNC GLOBAL DEFAULT 17 __gnu_Unwind_Restore_VFP_@@LIBC_DEPRECATED
132:   FUNC GLOBAL DEFAULT 17 _Unwind_GetRegionStart@@LIBC_DEPRECATED
133:   FUNC GLOBAL DEFAULT 17 conj@@LIBC
134:   FUNC GLOBAL DEFAULT 17 fesetround@@LIBC
135:   FUNC GLOBAL DEFAULT 17 ilogbf@@LIBC
136:   FUNC GLOBAL DEFAULT 17 atan2f@@LIBC
137:   FUNC GLOBAL DEFAULT 17 fmodf@@LIBC
138:   FUNC WEAK DEFAULT 17 erfcl@@LIBC
139:   FUNC GLOBAL DEFAULT 17 log2l@@LIBC
140:   FUNC GLOBAL DEFAULT 17 carg@@LIBC
141:   FUNC WEAK DEFAULT 17 remquol@@LIBC
142:   FUNC GLOBAL DEFAULT 17 atan2@@LIBC
143:   FUNC GLOBAL DEFAULT 17 gammaf_r@@LIBC
144:   FUNC GLOBAL DEFAULT 17 __aeabi_unwind_cpp_pr0@@LIBC_DEPRECATED
145:   FUNC WEAK DEFAULT 17 catanhl@@LIBC_O
146:   FUNC GLOBAL DEFAULT 17 expf@@LIBC
147:   FUNC GLOBAL DEFAULT 17 cimagf@@LIBC
148:   FUNC GLOBAL DEFAULT 17 clogf@@LIBC_O
149:   FUNC GLOBAL DEFAULT 17 creal@@LIBC
150:   FUNC GLOBAL DEFAULT 17 tan@@LIBC
151:   FUNC GLOBAL DEFAULT 17 _Unwind_GetDataRelBase@@LIBC_DEPRECATED
152:   FUNC WEAK DEFAULT 17 __aeabi_unwind_cpp_pr1@@LIBC_DEPRECATED
153:   FUNC GLOBAL DEFAULT 17 j0f@@LIBC
154:   FUNC GLOBAL DEFAULT 17 _Unwind_Complete@@LIBC_DEPRECATED
155:   FUNC GLOBAL DEFAULT 17 lrint@@LIBC
156:   FUNC GLOBAL DEFAULT 17 __aeabi_l2d@@LIBC_DEPRECATED
157:   FUNC GLOBAL DEFAULT 17 ilogbl@@LIBC
158:   FUNC WEAK DEFAULT 17 __aeabi_unwind_cpp_pr2@@LIBC_DEPRECATED
159:   FUNC WEAK DEFAULT 17 atan2l@@LIBC
160:   FUNC GLOBAL DEFAULT 17 fmodl@@LIBC
161:   FUNC GLOBAL DEFAULT 17 __aeabi_f2ulz@@LIBC_DEPRECATED
162:   FUNC GLOBAL DEFAULT 17 _Unwind_RaiseException@@LIBC_DEPRECATED
163:   FUNC GLOBAL DEFAULT 17 atan@@LIBC
164:   FUNC GLOBAL DEFAULT 17 fma@@LIBC
165:   FUNC WEAK DEFAULT 17 nexttoward@@LIBC
166:   FUNC GLOBAL DEFAULT 17 cimagl@@LIBC
167:   FUNC WEAK DEFAULT 17 clogl@@LIBC_O
168:   FUNC GLOBAL DEFAULT 17 expl@@LIBC
169:   FUNC GLOBAL DEFAULT 17 _Unwind_GetCFA@@LIBC_DEPRECATED
170:   FUNC GLOBAL DEFAULT 17 __gnu_Unwind_Save_VFP@@LIBC_DEPRECATED
171:   FUNC GLOBAL DEFAULT 17 cbrt@@LIBC
172:   FUNC GLOBAL DEFAULT 17 lrintf@@LIBC
173:   FUNC GLOBAL DEFAULT 17 acosf@@LIBC
174:   FUNC GLOBAL DEFAULT 17 powf@@LIBC
175:   FUNC GLOBAL DEFAULT 17 fminf@@LIBC
176:   FUNC GLOBAL DEFAULT 17 _Unwind_Resume@@LIBC_DEPRECATED
177:   FUNC GLOBAL DEFAULT 17 erf@@LIBC
178:   FUNC GLOBAL DEFAULT 17 __aeabi_f2lz@@LIBC_DEPRECATED
179:   FUNC GLOBAL DEFAULT 17 sincosf@@LIBC
180:   FUNC GLOBAL DEFAULT 17 acosh@@LIBC
181:   FUNC GLOBAL DEFAULT 17 __gnu_Unwind_Restore_WMMX@@LIBC_DEPRECATED
182:   FUNC GLOBAL DEFAULT 17 __gnu_unwind_execute@@LIBC_DEPRECATED
183:   FUNC GLOBAL DEFAULT 17 cacosf@@LIBC
184:   FUNC GLOBAL DEFAULT 17 cabsf@@LIBC
185:   FUNC GLOBAL DEFAULT 17 feholdexcept@@LIBC
186:   FUNC GLOBAL DEFAULT 17 __floatdidf@@LIBC_DEPRECATED
187:   FUNC GLOBAL DEFAULT 17 __gnu_Unwind_Restore_WMMX@@LIBC_DEPRECATED
188:   FUNC GLOBAL DEFAULT 17 lgamma_r@@LIBC
189:   FUNC GLOBAL DEFAULT 17 llround@@LIBC
190:   FUNC GLOBAL DEFAULT 17 drem@@LIBC
191:   FUNC GLOBAL DEFAULT 17 fedisableexcept@@LIBC
192:   FUNC GLOBAL DEFAULT 17 cos@@LIBC
193:   FUNC GLOBAL DEFAULT 17 cacosh@@LIBC
194:   FUNC GLOBAL DEFAULT 17 csqrt@@LIBC
195:   FUNC GLOBAL DEFAULT 17 scalblnf@@LIBC
196:   FUNC GLOBAL DEFAULT 17 lrintl@@LIBC
197:   FUNC GLOBAL DEFAULT 17 sin@@LIBC
198:   FUNC GLOBAL DEFAULT 17 atanhf@@LIBC
199:   FUNC WEAK DEFAULT 17 acosl@@LIBC
200:   FUNC GLOBAL DEFAULT 17 fminl@@LIBC
201:   FUNC GLOBAL DEFAULT 17 modf@@LIBC
202:   FUNC GLOBAL DEFAULT 17 powl@@LIBC
203:   FUNC GLOBAL DEFAULT 17 sincosl@@LIBC
204:   FUNC GLOBAL DEFAULT 17 feenableexcept@@LIBC
205:   FUNC WEAK DEFAULT 17 cacosl@@LIBC_O
206:   FUNC GLOBAL DEFAULT 17 lgammaf@@LIBC
207:   FUNC GLOBAL DEFAULT 17 cabsl@@LIBC
208:   FUNC GLOBAL DEFAULT 17 nan@@LIBC
209:   FUNC GLOBAL DEFAULT 17 tanhf@@LIBC
210:   FUNC GLOBAL DEFAULT 17 exp2f@@LIBC
211:   FUNC GLOBAL DEFAULT 17 acos@@LIBC
212:   FUNC GLOBAL DEFAULT 17 copysignf@@LIBC
213:   FUNC GLOBAL DEFAULT 17 asin@@LIBC
214:   FUNC GLOBAL DEFAULT 17 finite@@LIBC
215:   FUNC GLOBAL DEFAULT 17 feupdateenv@@LIBC
216:   FUNC GLOBAL DEFAULT 17 scalblnl@@LIBC
217:   FUNC GLOBAL DEFAULT 17 significand@@LIBC
218:   FUNC GLOBAL DEFAULT 17 _Unwind_Backtrace@@LIBC_DEPRECATED
219:   FUNC GLOBAL DEFAULT 17 _Unwind_GetLanguageSpecif@@LIBC_DEPRECATED
220:   FUNC WEAK DEFAULT 17 atanhl@@LIBC
221:   FUNC GLOBAL DEFAULT 17 sinf@@LIBC
222:   FUNC GLOBAL DEFAULT 17 copysign@@LIBC
223:   FUNC GLOBAL DEFAULT 17 ctanhf@@LIBC
224:   FUNC GLOBAL DEFAULT 17 erfc@@LIBC
225:   FUNC GLOBAL DEFAULT 17 fegetenv@@LIBC
226:   FUNC GLOBAL DEFAULT 17 trunc@@LIBC
227:   FUNC GLOBAL DEFAULT 17 fegetexcept@@LIBC
228:   FUNC GLOBAL DEFAULT 17 __gnu_Unwind_Restore_VFP_@@LIBC_DEPRECATED
229:   FUNC GLOBAL DEFAULT 17 cimag@@LIBC
230:   FUNC GLOBAL DEFAULT 17 _Unwind_DeleteException@@LIBC_DEPRECATED
231:   FUNC GLOBAL DEFAULT 17 sinh@@LIBC
232:   FUNC GLOBAL DEFAULT 17 yn@@LIBC
233:   FUNC WEAK DEFAULT 17 lgammal@@LIBC
234:   FUNC GLOBAL DEFAULT 17 erff@@LIBC
235:   FUNC GLOBAL DEFAULT 17 rintf@@LIBC
236:   FUNC WEAK DEFAULT 17 tanhl@@LIBC
237:   FUNC GLOBAL DEFAULT 17 exp2l@@LIBC
238:   FUNC GLOBAL DEFAULT 17 cexp@@LIBC
239:   FUNC GLOBAL DEFAULT 17 copysignl@@LIBC
240:   FUNC GLOBAL DEFAULT 17 fabs@@LIBC
241:   FUNC GLOBAL DEFAULT 17 restore_core_regs@@LIBC_DEPRECATED
242:   FUNC GLOBAL DEFAULT 17 _Unwind_VRS_Get@@LIBC_DEPRECATED
243:   FUNC GLOBAL DEFAULT 17 ccosf@@LIBC
244:   FUNC GLOBAL DEFAULT 17 fdimf@@LIBC
245:   FUNC GLOBAL DEFAULT 17 fmaf@@LIBC
246:   FUNC GLOBAL DEFAULT 17 fmaxf@@LIBC
247:   FUNC GLOBAL DEFAULT 17 lroundf@@LIBC
248:   FUNC WEAK DEFAULT 17 sinl@@LIBC
249:   FUNC GLOBAL DEFAULT 17 ctanhl@@LIBC_O
250:   FUNC GLOBAL DEFAULT 17 _Unwind_Resume_or_Rethrow@@LIBC_DEPRECATED
251:   FUNC GLOBAL DEFAULT 17 nextafterf@@LIBC
252:   FUNC GLOBAL DEFAULT 17 __gnu_Unwind_Backtrace@@LIBC_DEPRECATED
253:   FUNC GLOBAL DEFAULT 17 ccosh@@LIBC
254:   FUNC GLOBAL DEFAULT 17 ceil@@LIBC
255:   FUNC GLOBAL DEFAULT 17 crealf@@LIBC
256:   FUNC GLOBAL DEFAULT 17 tanf@@LIBC
257:   FUNC WEAK DEFAULT 17 erfl@@LIBC
258:   FUNC WEAK DEFAULT 17 rintl@@LIBC
259:   FUNC GLOBAL DEFAULT 17 jnf@@LIBC
260:   FUNC GLOBAL DEFAULT 17 cproj@@LIBC
261:   FUNC GLOBAL DEFAULT 17 __gnu_Unwind_RaiseExcepti@@LIBC_DEPRECATED
262:   FUNC GLOBAL DEFAULT 17 ldexpf@@LIBC
263:   FUNC GLOBAL DEFAULT 17 tanh@@LIBC
264:   FUNC GLOBAL DEFAULT 17 exp2@@LIBC
265:   FUNC GLOBAL DEFAULT 17 casinhf@@LIBC
266:   FUNC GLOBAL DEFAULT 17 jn@@LIBC
267:   FUNC GLOBAL DEFAULT 17 fdiml@@LIBC
268:   FUNC GLOBAL DEFAULT 17 floorf@@LIBC
269:   FUNC WEAK DEFAULT 17 fmal@@LIBC
270:   FUNC GLOBAL DEFAULT 17 fmaxl@@LIBC
271:   FUNC GLOBAL DEFAULT 17 lround@@LIBC
272:   FUNC GLOBAL DEFAULT 17 ccosl@@LIBC_O
273:   FUNC GLOBAL DEFAULT 17 lroundl@@LIBC
274:   FUNC GLOBAL DEFAULT 17 __signbitf@@LIBC
275:   FUNC GLOBAL DEFAULT 17 __fixdfdi@@LIBC_DEPRECATED
276:   FUNC GLOBAL DEFAULT 17 j1f@@LIBC
277:   FUNC GLOBAL DEFAULT 17 scalbnf@@LIBC
278:   FUNC GLOBAL DEFAULT 17 clog@@LIBC_O
279:   FUNC GLOBAL DEFAULT 17 frexp@@LIBC
280:   FUNC WEAK DEFAULT 17 nextafterl@@LIBC
281:   FUNC GLOBAL DEFAULT 17 hypotf@@LIBC
282:   FUNC GLOBAL DEFAULT 17 nexttowardf@@LIBC
283:   FUNC GLOBAL DEFAULT 17 cacoshf@@LIBC
284:   FUNC GLOBAL DEFAULT 17 ceilf@@LIBC
285:   FUNC GLOBAL DEFAULT 17 creall@@LIBC
286:   FUNC GLOBAL DEFAULT 17 nanf@@LIBC
287:   FUNC WEAK DEFAULT 17 tanl@@LIBC
288:   FUNC GLOBAL DEFAULT 17 ___Unwind_Resume_or_Rethr@@LIBC_DEPRECATED
289:   FUNC GLOBAL DEFAULT 17 cpow@@LIBC_O
290:   FUNC WEAK DEFAULT 17 ldexpl@@LIBC
291:   FUNC WEAK DEFAULT 17 casinhl@@LIBC_O
292:   FUNC GLOBAL DEFAULT 17 cexpf@@LIBC
293:   FUNC GLOBAL DEFAULT 17 fabsf@@LIBC
294:   FUNC GLOBAL DEFAULT 17 __signbitl@@LIBC
295:   FUNC GLOBAL DEFAULT 17 floorl@@LIBC
296:   FUNC GLOBAL DEFAULT 17 __gnu_unwind_frame@@LIBC_DEPRECATED
297:   FUNC GLOBAL DEFAULT 17 y0f@@LIBC
298:   FUNC GLOBAL DEFAULT 17 __aeabi_d2lz@@LIBC_DEPRECATED
299:   FUNC GLOBAL DEFAULT 17 feclearexcept@@LIBC
300:   FUNC WEAK DEFAULT 17 scalbnl@@LIBC
301:   FUNC GLOBAL DEFAULT 17 logb@@LIBC
302:   FUNC GLOBAL DEFAULT 17 hypot@@LIBC
303:   FUNC WEAK DEFAULT 17 hypotl@@LIBC
304:   FUNC GLOBAL DEFAULT 17 fetestexcept@@LIBC
305:   FUNC WEAK DEFAULT 17 nexttowardl@@LIBC
306:   FUNC WEAK DEFAULT 17 cacoshl@@LIBC_O
307:   FUNC GLOBAL DEFAULT 17 asinf@@LIBC
308:   FUNC GLOBAL DEFAULT 17 expm1f@@LIBC
309:   FUNC GLOBAL DEFAULT 17 gammaf@@LIBC
310:   FUNC WEAK DEFAULT 17 ceill@@LIBC
311:   FUNC GLOBAL DEFAULT 17 nextafter@@LIBC
312:   FUNC WEAK DEFAULT 17 nanl@@LIBC
313:   FUNC GLOBAL DEFAULT 17 catan@@LIBC
314:   FUNC GLOBAL DEFAULT 17 remainder@@LIBC
315:   FUNC GLOBAL DEFAULT 17 asinh@@LIBC
316:   FUNC GLOBAL DEFAULT 17 casinf@@LIBC
317:   FUNC GLOBAL DEFAULT 17 logf@@LIBC
318:   FUNC GLOBAL DEFAULT 17 cprojf@@LIBC
319:   FUNC GLOBAL DEFAULT 17 feraiseexcept@@LIBC
320:   FUNC GLOBAL DEFAULT 17 fmax@@LIBC
321:   FUNC GLOBAL DEFAULT 17 modff@@LIBC
322:   FUNC GLOBAL DEFAULT 17 cexpl@@LIBC_O
323:   FUNC GLOBAL DEFAULT 17 fabsl@@LIBC
324:   FUNC GLOBAL DEFAULT 17 y0@@LIBC
325:   FUNC GLOBAL DEFAULT 17 tgammaf@@LIBC
326:   FUNC GLOBAL DEFAULT 17 casinh@@LIBC
327:   FUNC GLOBAL DEFAULT 17 y1@@LIBC
328:   FUNC GLOBAL DEFAULT 17 fmin@@LIBC
329:   FUNC GLOBAL DEFAULT 17 roundf@@LIBC
330:   FUNC GLOBAL DEFAULT 17 truncf@@LIBC
331:   FUNC GLOBAL DEFAULT 17 _Unwind_GetTextRelBase@@LIBC_DEPRECATED
332:   FUNC WEAK DEFAULT 17 asinl@@LIBC
333:   FUNC GLOBAL DEFAULT 17 lgamma@@LIBC
334:   FUNC GLOBAL DEFAULT 17 cpowf@@LIBC_O
335:   FUNC WEAK DEFAULT 17 expm1l@@LIBC
336:   FUNC GLOBAL DEFAULT 17 sincos@@LIBC
337:   FUNC GLOBAL DEFAULT 17 round@@LIBC
338:   FUNC GLOBAL DEFAULT 17 exp@@LIBC
339:   FUNC GLOBAL DEFAULT 17 log10f@@LIBC
340:   FUNC GLOBAL DEFAULT 17 remainderf@@LIBC
341:   FUNC GLOBAL DEFAULT 17 ilogb@@LIBC
342:   FUNC GLOBAL DEFAULT 17 remquo@@LIBC
343:   FUNC GLOBAL DEFAULT 17 rint@@LIBC
344:   FUNC WEAK DEFAULT 17 casinl@@LIBC_O
345:   FUNC GLOBAL DEFAULT 17 atanf@@LIBC
346:   FUNC GLOBAL DEFAULT 17 cprojl@@LIBC
347:   FUNC GLOBAL DEFAULT 17 logl@@LIBC
348:   FUNC GLOBAL DEFAULT 17 modfl@@LIBC
349:   FUNC GLOBAL DEFAULT 17 floor@@LIBC
350:   FUNC GLOBAL DEFAULT 17 __fixunsdfdi@@LIBC_DEPRECATED
