 0x000000000000000e (SONAME)             Library soname: [android.hardware.nfc@1.0.so]
  
Symbol   contains 311 entries:
Num:   Type Bind Vis Ndx Name
0:   NOTYPE LOCAL DEFAULT UND
1:   FUNC GLOBAL DEFAULT UND __cxa_finalize@LIBC (2)
2:   FUNC GLOBAL DEFAULT UND _ZN7android8hardware7deta
3:   FUNC GLOBAL DEFAULT UND _ZN7android8hardware7deta
4:   FUNC GLOBAL DEFAULT UND _ZN7android8hardware11hid
5:   FUNC GLOBAL DEFAULT UND _ZN7android8hardware11hid
6:   FUNC GLOBAL DEFAULT UND _ZN7android21report_syspr
7:   FUNC GLOBAL DEFAULT UND _ZN7android8hardware7deta
8:   FUNC GLOBAL DEFAULT UND _ZN7android7RefBaseC2Ev
9:   FUNC GLOBAL DEFAULT UND __cfi_slowpath@LIBC_OMR1 (3)
10:   FUNC GLOBAL DEFAULT UND _ZN7android8hardware6Parc
11:   FUNC GLOBAL DEFAULT UND _ZN7android8hardware6Parc
12:   FUNC GLOBAL DEFAULT UND _ZN7android8hardware6Parc
13:   FUNC GLOBAL DEFAULT UND _ZN7android8hardware23get
14:   FUNC GLOBAL DEFAULT UND _ZN7android8hardware12Pro
15:   FUNC GLOBAL DEFAULT UND _ZN7android8hardware12Pro
16:   FUNC GLOBAL DEFAULT UND _ZN7android8hardware10IIn
17:   FUNC GLOBAL DEFAULT UND _ZN7android8hardware14rea
18:   FUNC GLOBAL DEFAULT UND _ZNK7android8hardware6Par
19:   FUNC GLOBAL DEFAULT UND _ZN7android8hardware6Stat
20:   FUNC GLOBAL DEFAULT UND _ZN7android8hardware6Parc
21:   FUNC GLOBAL DEFAULT UND _ZN7android8hardware6Parc
22:   FUNC GLOBAL DEFAULT UND _ZN7android8hardware7deta
23:   FUNC GLOBAL DEFAULT UND _ZN7android4hidl4base4V1_
24:   FUNC GLOBAL DEFAULT UND _ZN7android4hidl4base4V1_
25:   FUNC GLOBAL DEFAULT UND _ZN7android4hidl4base4V1_
26:   FUNC GLOBAL DEFAULT UND _ZN7android4hidl4base4V1_
27:   FUNC GLOBAL DEFAULT UND _ZN7android4hidl4base4V1_
28:   FUNC GLOBAL DEFAULT UND _Znwm
29:   FUNC GLOBAL DEFAULT UND _ZN7android8hardware27hid
30:   FUNC GLOBAL DEFAULT UND _ZN7android4hidl4base4V1_
31:   FUNC GLOBAL DEFAULT UND _ZN7android4hidl4base4V1_
32:   FUNC GLOBAL DEFAULT UND _ZN7android4hidl4base4V1_
33:   FUNC GLOBAL DEFAULT UND _ZN7android8hardware27hid
34:   FUNC GLOBAL DEFAULT UND _ZN7android4hidl4base4V1_
35:   FUNC GLOBAL DEFAULT UND _ZN7android8hardware9BHwB
36:   FUNC GLOBAL DEFAULT UND _ZN7android4hidl4base4V1_
37:   FUNC GLOBAL DEFAULT UND _ZN7android7RefBaseD2Ev
38:   FUNC GLOBAL DEFAULT UND _ZdlPv
39:   FUNC GLOBAL DEFAULT UND _ZNK7android8hardware6Par
40:   FUNC GLOBAL DEFAULT UND _ZNK7android8hardware6Par
41:   FUNC GLOBAL DEFAULT UND _ZN7android8hardware13wri
42:   FUNC GLOBAL DEFAULT UND _ZN7android8hardware6Stat
43:   FUNC GLOBAL DEFAULT UND _ZN7android8hardware6Parc
44:   FUNC GLOBAL DEFAULT UND _ZNK7android8hardware6Par
45:   FUNC GLOBAL DEFAULT UND _ZN7android8hardware7deta
46:   FUNC GLOBAL DEFAULT UND _ZN7android8hardware7deta
47:   FUNC GLOBAL DEFAULT UND _ZN7android4hidl4base4V1_
48:   FUNC GLOBAL DEFAULT UND _ZN7android8hardware6Stat
49:   FUNC GLOBAL DEFAULT UND _ZN7android8hardware7deta
50:   FUNC GLOBAL DEFAULT UND _ZN7android8hardware7deta
51:   FUNC GLOBAL DEFAULT UND _ZN7android8hardware7deta
52:   FUNC GLOBAL DEFAULT UND _ZN7android8hardware6Stat
53:   FUNC GLOBAL DEFAULT UND _ZN7android8hardware7deta
54:   FUNC GLOBAL DEFAULT UND _ZN7android8hardware21def
55:   FUNC GLOBAL DEFAULT UND _ZN7android8hardware11hid
56:   FUNC GLOBAL DEFAULT UND _ZN7android4hidl4base4V1_
57:   FUNC GLOBAL DEFAULT UND _ZN7android4hidl4base4V1_
58:   FUNC GLOBAL DEFAULT UND _ZN7android4hidl4base4V1_
59:   FUNC GLOBAL DEFAULT UND _ZN7android4hidl4base4V1_
60:   FUNC GLOBAL DEFAULT UND _ZN7android4hidl4base4V1_
61:   FUNC GLOBAL DEFAULT UND _ZN7android4hidl4base4V1_
62:   FUNC GLOBAL DEFAULT UND _ZN7android4hidl4base4V1_
63:   FUNC GLOBAL DEFAULT UND _ZN7android4hidl4base4V1_
64:   FUNC GLOBAL DEFAULT UND _ZN7android4hidl4base4V1_
65:   FUNC GLOBAL DEFAULT UND _ZN7android4hidl4base4V1_
66:   FUNC GLOBAL DEFAULT UND _ZN7android7RefBase10onFi
67:   FUNC GLOBAL DEFAULT UND _ZN7android7RefBase15onLa
68:   FUNC GLOBAL DEFAULT UND _ZN7android7RefBase20onIn
69:   FUNC GLOBAL DEFAULT UND _ZN7android7RefBase13onLa
70:   FUNC GLOBAL DEFAULT UND __cxa_pure_virtual
71:   FUNC GLOBAL DEFAULT UND _ZN7android8hardware11BpH
72:   FUNC GLOBAL DEFAULT UND _ZN7android8hardware11BpH
73:   FUNC GLOBAL DEFAULT UND _ZN7android8hardware11BpH
74:   FUNC GLOBAL DEFAULT UND _ZTv0_n32_N7android8hardw
75:   FUNC GLOBAL DEFAULT UND _ZTv0_n40_N7android8hardw
76:   FUNC GLOBAL DEFAULT UND _ZTv0_n48_N7android8hardw
77:   FUNC GLOBAL DEFAULT UND _ZN7android8hardware10IIn
78:   FUNC GLOBAL DEFAULT UND _ZN7android8hardware10IIn
79:   FUNC GLOBAL DEFAULT UND _ZTv0_n24_N7android8hardw
80:   FUNC GLOBAL DEFAULT UND _ZTv0_n24_N7android8hardw
81:   FUNC GLOBAL DEFAULT UND _ZN7android8hardware11BpH
82:   FUNC GLOBAL DEFAULT UND _ZN7android8hardware11BpH
83:   FUNC GLOBAL DEFAULT UND _ZTv0_n24_N7android8hardw
84:   FUNC GLOBAL DEFAULT UND _ZTv0_n24_N7android8hardw
85:   FUNC GLOBAL DEFAULT UND _ZN7android8hardware9BHwB
86:   FUNC GLOBAL DEFAULT UND _ZN7android8hardware9BHwB
87:   FUNC GLOBAL DEFAULT UND _ZN7android8hardware9BHwB
88:   FUNC GLOBAL DEFAULT UND _ZNK7android8hardware7IBi
89:   FUNC GLOBAL DEFAULT UND _ZN7android8hardware9BHwB
90:   FUNC GLOBAL DEFAULT UND _ZNK7android8hardware9BHw
91:   FUNC GLOBAL DEFAULT UND _ZN7android8hardware9BHwB
92:   FUNC GLOBAL DEFAULT UND _ZN7android8hardware9BHwB
93:   FUNC GLOBAL DEFAULT UND _ZN7android8hardware7IBin
94:   FUNC GLOBAL DEFAULT UND _ZN7android4hidl4base4V1_
95:   FUNC GLOBAL DEFAULT UND _ZN7android4hidl4base4V1_
96:   FUNC GLOBAL DEFAULT UND _ZTv0_n24_N7android4hidl4
97:   FUNC GLOBAL DEFAULT UND _ZTv0_n24_N7android4hidl4
98:   FUNC GLOBAL DEFAULT UND _ZN7android8hardware9BHwB
99:   FUNC GLOBAL DEFAULT UND _ZN7android8hardware9BHwB
100:   FUNC GLOBAL DEFAULT UND _ZN7android8hardware9BHwB
101:   FUNC GLOBAL DEFAULT UND _ZTv0_n24_N7android8hardw
102:   FUNC GLOBAL DEFAULT UND _ZTv0_n24_N7android8hardw
103:   FUNC GLOBAL DEFAULT UND _ZN7android8hardware7IBin
104:   FUNC GLOBAL DEFAULT UND _ZN7android8hardware7IBin
105:   FUNC GLOBAL DEFAULT UND _ZN7android8hardware7IBin
106:   FUNC GLOBAL DEFAULT UND _ZTv0_n24_N7android8hardw
107:   FUNC GLOBAL DEFAULT UND _ZTv0_n24_N7android8hardw
108:   FUNC GLOBAL DEFAULT UND _ZNSt3__112basic_stringIc
109:   FUNC GLOBAL DEFAULT UND atrace_begin_body
110:   FUNC GLOBAL DEFAULT UND atrace_setup
111:   FUNC GLOBAL DEFAULT UND atrace_end_body
112:   FUNC GLOBAL DEFAULT UND _ZNSt3__15mutexD1Ev
113:   FUNC GLOBAL DEFAULT UND _ZN7android8hardware7deta
114:   FUNC GLOBAL DEFAULT UND _ZN7android8hardware11BpH
115:   FUNC GLOBAL DEFAULT UND _ZN7android8hardware10IIn
116:   FUNC GLOBAL DEFAULT UND _ZNKSt3__121__basic_strin
117:   FUNC GLOBAL DEFAULT UND abort@LIBC (2)
118:   FUNC GLOBAL DEFAULT UND strlen@LIBC (2)
119:   FUNC GLOBAL DEFAULT UND _ZNK7android7RefBase9incS
120:   FUNC GLOBAL DEFAULT UND _ZNK7android7RefBase9decS
121:   FUNC GLOBAL DEFAULT UND _ZNKSt3__120__vector_base
122:   FUNC GLOBAL DEFAULT UND _ZN7android14sp_report_ra
123:   FUNC GLOBAL DEFAULT UND _ZNK7android8hardware7det
124:   FUNC GLOBAL DEFAULT UND memcmp@LIBC (2)
125:   FUNC GLOBAL DEFAULT UND _ZN7android8hardware7deta
126:   FUNC GLOBAL DEFAULT UND _ZdaPv
127:   FUNC GLOBAL DEFAULT UND _Znam
128:   FUNC GLOBAL DEFAULT UND _ZN7android8hardware11hid
129:   FUNC GLOBAL DEFAULT UND _ZN7android8hardware11hid
130:   FUNC GLOBAL DEFAULT UND _ZN7android8hardware7deta
131:   FUNC GLOBAL DEFAULT UND _ZN7android8hardware10IIn
132:   FUNC GLOBAL DEFAULT UND _ZN7android8hardware11BpH
133:   FUNC GLOBAL DEFAULT UND _ZN7android8hardware6Parc
134:   FUNC GLOBAL DEFAULT UND _ZNSt3__15mutex4lockEv
135:   FUNC GLOBAL DEFAULT UND _ZNSt3__15mutex6unlockEv
136:   FUNC GLOBAL DEFAULT UND _ZN7android7RefBase12weak
137:   FUNC GLOBAL DEFAULT UND _ZNK7android7RefBase11get
138:   FUNC GLOBAL DEFAULT UND _ZNK7android7RefBase10cre
139:   FUNC GLOBAL DEFAULT UND _ZNK7android8hardware6Par
140:   FUNC GLOBAL DEFAULT UND _ZN7android8hardware7deta
141:   FUNC GLOBAL DEFAULT UND _ZN7android8hardware7deta
142:   FUNC GLOBAL DEFAULT UND _ZN7android8hardware7deta
143:   FUNC GLOBAL DEFAULT UND _ZN7android8hardware7deta
144:   FUNC GLOBAL DEFAULT UND _ZN7android8hardware7deta
145:   OBJECT GLOBAL DEFAULT UND _ZN7android4hidl4base4V1_
146:   OBJECT GLOBAL DEFAULT UND _ZN7android8hardware7deta
147:   OBJECT GLOBAL DEFAULT UND _ZN7android8hardware7deta
148:   OBJECT GLOBAL DEFAULT UND _ZN7android8hardware7deta
149:   OBJECT GLOBAL DEFAULT UND atrace_enabled_tags
150:   OBJECT GLOBAL DEFAULT UND atrace_is_ready
151:   FUNC GLOBAL DEFAULT UND memset@LIBC (2)
152:   FUNC GLOBAL DEFAULT UND memcpy@LIBC (2)
153:   FUNC GLOBAL DEFAULT UND __stack_chk_fail@LIBC (2)
154:   FUNC GLOBAL DEFAULT 14 _ZN7android8hardware3nfc4
155:   FUNC GLOBAL DEFAULT 14 _ZN7android8hardware3nfc4
156:   FUNC GLOBAL DEFAULT 14 _ZN7android8hardware3nfc4
157:   FUNC GLOBAL DEFAULT 14 _ZN7android8hardware3nfc4
158:   FUNC WEAK DEFAULT 14 _ZNSt3__16__treeINS_12__v
159:   OBJECT GLOBAL DEFAULT 19 _ZTCN7android8hardware3nf
160:   FUNC GLOBAL DEFAULT 14 _ZN7android8hardware3nfc4
161:   OBJECT GLOBAL DEFAULT 19 _ZTCN7android8hardware3nf
162:   FUNC GLOBAL DEFAULT 14 _ZN7android8hardware3nfc4
163:   OBJECT GLOBAL DEFAULT 19 _ZTCN7android8hardware3nf
164:   FUNC GLOBAL DEFAULT 14 _ZN7android8hardware3nfc4
165:   FUNC GLOBAL DEFAULT 14 _ZN7android8hardware3nfc4
166:   OBJECT GLOBAL DEFAULT 19 _ZTVN7android8hardware3nf
167:   FUNC GLOBAL DEFAULT 14 _ZN7android8hardware3nfc4
168:   FUNC GLOBAL DEFAULT 14 _ZN7android8hardware3nfc4
169:   FUNC GLOBAL DEFAULT 14 _ZThn32_N7android8hardwar
170:   FUNC GLOBAL DEFAULT 14 _ZN7android8hardware3nfc4
171:   FUNC GLOBAL DEFAULT 14 _ZN7android8hardware3nfc4
172:   FUNC GLOBAL DEFAULT 14 _ZN7android8hardware3nfc4
173:   FUNC GLOBAL DEFAULT 14 _ZN7android8hardware3nfc4
174:   FUNC GLOBAL DEFAULT 14 _ZN7android8hardware3nfc4
175:   FUNC WEAK DEFAULT 14 _ZNSt3__113__tree_removeI
176:   FUNC GLOBAL DEFAULT 14 _ZN7android8hardware3nfc4
177:   OBJECT GLOBAL DEFAULT 19 _ZTTN7android8hardware3nf
178:   FUNC GLOBAL DEFAULT 14 _ZN7android8hardware3nfc4
179:   FUNC GLOBAL DEFAULT 14 _ZN7android8hardware3nfc4
180:   FUNC GLOBAL DEFAULT 14 _ZN7android8hardware3nfc4
181:   FUNC GLOBAL DEFAULT 14 _ZN7android8hardware3nfc4
182:   FUNC GLOBAL DEFAULT 14 _ZN7android8hardware3nfc4
183:   FUNC GLOBAL DEFAULT 14 _ZN7android8hardware3nfc4
184:   FUNC GLOBAL DEFAULT 14 _ZThn32_N7android8hardwar
185:   FUNC GLOBAL DEFAULT 14 _ZN7android8hardware3nfc4
186:   OBJECT GLOBAL DEFAULT 19 _ZTTN7android8hardware3nf
187:   FUNC GLOBAL DEFAULT 14 _ZN7android8hardware3nfc4
188:   FUNC GLOBAL DEFAULT 14 _ZN7android8hardware3nfc4
189:   FUNC GLOBAL DEFAULT 14 _ZN7android8hardware3nfc4
190:   OBJECT GLOBAL DEFAULT 19 _ZTVN7android8hardware3nf
191:   FUNC GLOBAL DEFAULT 14 _ZN7android8hardware3nfc4
192:   FUNC GLOBAL DEFAULT 14 _ZN7android8hardware3nfc4
193:   FUNC GLOBAL DEFAULT 14 _ZN7android8hardware3nfc4
194:   FUNC GLOBAL DEFAULT 14 _ZN7android8hardware3nfc4
195:   OBJECT GLOBAL DEFAULT 19 _ZTCN7android8hardware3nf
196:   FUNC GLOBAL DEFAULT 14 _ZN7android8hardware3nfc4
197:   OBJECT GLOBAL DEFAULT 19 _ZTVN7android8hardware3nf
198:   FUNC GLOBAL DEFAULT 14 _ZN7android8hardware3nfc4
199:   FUNC GLOBAL DEFAULT 14 _ZThn32_N7android8hardwar
200:   OBJECT GLOBAL DEFAULT 19 _ZTCN7android8hardware3nf
201:   FUNC GLOBAL DEFAULT 14 _ZN7android8hardware3nfc4
202:   FUNC GLOBAL DEFAULT 14 _ZN7android8hardware3nfc4
203:   FUNC GLOBAL DEFAULT 14 _ZN7android8hardware3nfc4
204:   FUNC GLOBAL DEFAULT 14 _ZN7android8hardware3nfc4
205:   FUNC GLOBAL DEFAULT 14 _ZN7android8hardware3nfc4
206:   FUNC GLOBAL DEFAULT 14 _ZN7android8hardware3nfc4
207:   FUNC GLOBAL DEFAULT 14 _ZN7android8hardware3nfc4
208:   FUNC GLOBAL DEFAULT 14 _ZThn32_N7android8hardwar
209:   FUNC GLOBAL DEFAULT 14 _ZN7android8hardware3nfc4
210:   FUNC GLOBAL DEFAULT 14 _ZN7android8hardware3nfc4
211:   OBJECT GLOBAL DEFAULT 19 _ZTTN7android8hardware3nf
212:   FUNC GLOBAL DEFAULT 14 _ZN7android8hardware3nfc4
213:   FUNC GLOBAL DEFAULT 14 _ZN7android8hardware3nfc4
214:   FUNC GLOBAL DEFAULT 14 _ZN7android8hardware3nfc4
215:   FUNC GLOBAL DEFAULT 14 _ZN7android8hardware3nfc4
216:   FUNC GLOBAL DEFAULT 14 _ZN7android8hardware3nfc4
217:   OBJECT GLOBAL DEFAULT 16 _ZN7android8hardware3nfc4
218:   FUNC GLOBAL DEFAULT 14 _ZN7android8hardware3nfc4
219:   FUNC GLOBAL DEFAULT 14 _ZN7android8hardware3nfc4
220:   OBJECT GLOBAL DEFAULT 19 _ZTCN7android8hardware3nf
221:   OBJECT GLOBAL DEFAULT 16 _ZN7android8hardware3nfc4
222:   FUNC GLOBAL DEFAULT 14 _ZN7android8hardware3nfc4
223:   FUNC GLOBAL DEFAULT 14 _ZN7android8hardware3nfc4
224:   FUNC GLOBAL DEFAULT 14 _ZN7android8hardware3nfc4
225:   FUNC GLOBAL DEFAULT 14 _ZN7android8hardware3nfc4
226:   FUNC GLOBAL DEFAULT 14 _ZN7android8hardware3nfc4
227:   FUNC GLOBAL DEFAULT 14 _ZN7android8hardware3nfc4
228:   FUNC GLOBAL DEFAULT 14 _ZN7android8hardware3nfc4
229:   FUNC WEAK DEFAULT 14 _ZNSt3__16vectorIN7androi
230:   FUNC GLOBAL DEFAULT 14 _ZN7android8hardware3nfc4
231:   FUNC GLOBAL DEFAULT 14 _ZN7android8hardware3nfc4
232:   FUNC GLOBAL DEFAULT 14 _ZN7android8hardware3nfc4
233:   OBJECT GLOBAL DEFAULT 19 _ZTVN7android8hardware3nf
234:   OBJECT GLOBAL DEFAULT 19 _ZTCN7android8hardware3nf
235:   FUNC GLOBAL DEFAULT 14 _ZN7android8hardware3nfc4
236:   FUNC GLOBAL DEFAULT 14 _ZN7android8hardware3nfc4
237:   OBJECT GLOBAL DEFAULT 19 _ZTTN7android8hardware3nf
238:   FUNC GLOBAL DEFAULT 14 _ZN7android8hardware3nfc4
239:   FUNC GLOBAL DEFAULT 14 _ZTv0_n24_N7android8hardw
240:   FUNC GLOBAL DEFAULT 14 _ZTv0_n24_N7android8hardw
241:   FUNC GLOBAL DEFAULT 14 _ZN7android8hardware3nfc4
242:   FUNC GLOBAL DEFAULT 14 _ZN7android8hardware3nfc4
243:   FUNC GLOBAL DEFAULT 14 _ZN7android8hardware3nfc4
244:   FUNC GLOBAL DEFAULT 14 _ZN7android8hardware3nfc4
245:   OBJECT GLOBAL DEFAULT 19 _ZTTN7android8hardware3nf
246:   FUNC GLOBAL DEFAULT 14 _ZN7android8hardware3nfc4
247:   FUNC GLOBAL DEFAULT 14 _ZN7android8hardware3nfc4
248:   FUNC GLOBAL DEFAULT 14 _ZN7android8hardware3nfc4
249:   FUNC GLOBAL DEFAULT 14 _ZN7android8hardware3nfc4
250:   FUNC GLOBAL DEFAULT 14 _ZN7android8hardware3nfc4
251:   FUNC GLOBAL DEFAULT 14 _ZN7android8hardware3nfc4
252:   FUNC GLOBAL DEFAULT 14 _ZTv0_n24_N7android8hardw
253:   OBJECT GLOBAL DEFAULT 19 _ZTCN7android8hardware3nf
254:   FUNC GLOBAL DEFAULT 14 _ZTv0_n24_N7android8hardw
255:   OBJECT GLOBAL DEFAULT 19 _ZTCN7android8hardware3nf
256:   FUNC GLOBAL DEFAULT 14 _ZN7android8hardware3nfc4
257:   FUNC GLOBAL DEFAULT 14 __cfi_check
258:   FUNC GLOBAL DEFAULT 14 _ZN7android8hardware3nfc4
259:   FUNC GLOBAL DEFAULT 14 _ZN7android8hardware3nfc4
260:   FUNC GLOBAL DEFAULT 14 _ZN7android8hardware3nfc4
261:   FUNC WEAK DEFAULT 14 _ZNSt3__16__treeINS_12__v
262:   FUNC GLOBAL DEFAULT 14 _ZN7android8hardware3nfc4
263:   FUNC GLOBAL DEFAULT 14 _ZN7android8hardware3nfc4
264:   FUNC WEAK DEFAULT 14 _ZNSt3__16__treeINS_12__v
265:   FUNC WEAK DEFAULT 14 _ZNSt3__16__treeINS_12__v
266:   OBJECT GLOBAL DEFAULT 19 _ZTCN7android8hardware3nf
267:   OBJECT GLOBAL DEFAULT 19 _ZTCN7android8hardware3nf
268:   FUNC GLOBAL DEFAULT 14 _ZN7android8hardware3nfc4
269:   FUNC GLOBAL DEFAULT 14 _ZN7android8hardware3nfc4
270:   FUNC WEAK DEFAULT 14 _ZNSt3__127__tree_balance
271:   OBJECT GLOBAL DEFAULT 19 _ZTCN7android8hardware3nf
272:   OBJECT GLOBAL DEFAULT 19 _ZTCN7android8hardware3nf
273:   FUNC GLOBAL DEFAULT 14 _ZN7android8hardware3nfc4
274:   FUNC GLOBAL DEFAULT 14 _ZN7android8hardware3nfc4
275:   FUNC GLOBAL DEFAULT 14 _ZN7android8hardware3nfc4
276:   FUNC GLOBAL DEFAULT 14 _ZN7android8hardware3nfc4
277:   FUNC GLOBAL DEFAULT 14 _ZN7android8hardware3nfc4
278:   FUNC GLOBAL DEFAULT 14 _ZN7android8hardware3nfc4
279:   FUNC GLOBAL DEFAULT 14 _ZN7android8hardware3nfc4
280:   OBJECT GLOBAL DEFAULT 19 _ZTCN7android8hardware3nf
281:   FUNC GLOBAL DEFAULT 14 _ZN7android8hardware3nfc4
282:   OBJECT GLOBAL DEFAULT 19 _ZTVN7android8hardware3nf
283:   FUNC GLOBAL DEFAULT 14 _ZN7android8hardware3nfc4
284:   FUNC GLOBAL DEFAULT 14 _ZN7android8hardware3nfc4
285:   FUNC GLOBAL DEFAULT 14 _ZN7android8hardware3nfc4
286:   OBJECT GLOBAL DEFAULT 19 _ZTCN7android8hardware3nf
287:   OBJECT GLOBAL DEFAULT 19 _ZTCN7android8hardware3nf
288:   FUNC GLOBAL DEFAULT 14 _ZN7android8hardware3nfc4
289:   FUNC WEAK DEFAULT 14 _ZNSt3__16vectorINS_8func
290:   OBJECT GLOBAL DEFAULT 19 _ZTVN7android8hardware3nf
291:   FUNC GLOBAL DEFAULT 14 _ZN7android8hardware3nfc4
292:   OBJECT GLOBAL DEFAULT 19 _ZTTN7android8hardware3nf
293:   FUNC WEAK DEFAULT 14 _ZNSt3__16__treeINS_12__v
294:   OBJECT GLOBAL DEFAULT 19 _ZTCN7android8hardware3nf
295:   FUNC GLOBAL DEFAULT 14 _ZN7android8hardware3nfc4
296:   FUNC GLOBAL DEFAULT 14 _ZN7android8hardware3nfc4
297:   FUNC GLOBAL DEFAULT 14 _ZN7android8hardware3nfc4
298:   FUNC GLOBAL DEFAULT 14 _ZN7android8hardware3nfc4
299:   FUNC GLOBAL DEFAULT 14 _ZN7android8hardware3nfc4
300:   FUNC GLOBAL DEFAULT 14 _ZN7android8hardware3nfc4
301:   FUNC GLOBAL DEFAULT 14 _ZN7android8hardware3nfc4
302:   FUNC GLOBAL DEFAULT 14 _ZN7android8hardware3nfc4
303:   FUNC WEAK DEFAULT 14 _ZNSt3__16vectorIPvNS_9al
304:   OBJECT GLOBAL DEFAULT 19 _ZTCN7android8hardware3nf
305:   FUNC GLOBAL DEFAULT 14 _ZN7android8hardware3nfc4
306:   FUNC GLOBAL DEFAULT 14 _ZN7android8hardware3nfc4
307:   FUNC GLOBAL DEFAULT 14 _ZN7android8hardware3nfc4
308:   FUNC GLOBAL DEFAULT 14 _ZN7android8hardware3nfc4
309:   FUNC WEAK DEFAULT 14 _ZNSt3__16__treeINS_12__v
310:   FUNC GLOBAL DEFAULT 14 _ZN7android8hardware3nfc4
