 0x000000000000000e (SONAME)             Library soname: [liblpdump.so]
  
Symbol   contains 359 entries:
Num:   Type Bind Vis Ndx Name
0:   NOTYPE LOCAL DEFAULT UND
1:   NOTYPE WEAK DEFAULT UND __gmon_start__
2:   NOTYPE WEAK DEFAULT UND _ITM_deregisterTMCloneTab
3:   NOTYPE WEAK DEFAULT UND _ITM_registerTMCloneTable
4:   FUNC WEAK DEFAULT UND __cxa_finalize@GLIBC_2.2.5 (2)
5:   NOTYPE WEAK DEFAULT UND _Jv_RegisterClasses
6:   FUNC GLOBAL DEFAULT UND _ZN6google8protobuf5Arena
7:   FUNC GLOBAL DEFAULT UND _ZN6google8protobuf5Arena
8:   OBJECT GLOBAL DEFAULT UND _ZN6google8protobuf8inter
9:   FUNC GLOBAL DEFAULT UND _ZN6google8protobuf8inter
10:   FUNC GLOBAL DEFAULT UND _ZN7android4base10LogMess
11:   FUNC GLOBAL DEFAULT UND _ZN7android4base10LogMess
12:   FUNC GLOBAL DEFAULT UND _ZN7android4base10LogMess
13:   FUNC GLOBAL DEFAULT UND _ZN7android4base11GetProp
14:   FUNC GLOBAL DEFAULT UND _ZN7android4base15GetBool
15:   FUNC GLOBAL DEFAULT UND _ZN7android4base8EndsWith
16:   FUNC GLOBAL DEFAULT UND _ZN7android6fs_mgr12ReadM
17:   FUNC GLOBAL DEFAULT UND _ZN7android6fs_mgr15Metad
18:   FUNC GLOBAL DEFAULT UND _ZN7android6fs_mgr15Metad
19:   FUNC GLOBAL DEFAULT UND _ZN7android6fs_mgr15Metad
20:   FUNC GLOBAL DEFAULT UND _ZN7android6fs_mgr16GetPa
21:   FUNC GLOBAL DEFAULT UND _ZN7android6fs_mgr17ReadF
22:   FUNC GLOBAL DEFAULT UND _ZN7android6fs_mgr21GetPa
23:   FUNC GLOBAL DEFAULT UND _ZN7android6fs_mgr23SlotN
24:   FUNC GLOBAL DEFAULT UND _ZN7android6fs_mgr27GetBl
25:   FUNC GLOBAL DEFAULT UND _ZNK7android6fs_mgr15Meta
26:   FUNC GLOBAL DEFAULT UND _ZNK7android6fs_mgr15Meta
27:   FUNC GLOBAL DEFAULT UND _ZNK7android6fs_mgr15Part
28:   FUNC GLOBAL DEFAULT UND _ZNK7android6fs_mgr15Part
29:   FUNC GLOBAL DEFAULT UND _ZNKSt3__120__vector_base
30:   FUNC GLOBAL DEFAULT UND _ZNKSt3__121__basic_strin
31:   FUNC GLOBAL DEFAULT UND _ZNKSt3__16locale9use_fac
32:   FUNC GLOBAL DEFAULT UND _ZNKSt3__18ios_base6getlo
33:   FUNC GLOBAL DEFAULT UND _ZNSt3__112basic_stringIc
34:   FUNC GLOBAL DEFAULT UND _ZNSt3__112basic_stringIc
35:   FUNC GLOBAL DEFAULT UND _ZNSt3__112basic_stringIc
36:   FUNC GLOBAL DEFAULT UND _ZNSt3__112basic_stringIc
37:   FUNC GLOBAL DEFAULT UND _ZNSt3__112basic_stringIc
38:   FUNC GLOBAL DEFAULT UND _ZNSt3__113basic_ostreamI
39:   FUNC GLOBAL DEFAULT UND _ZNSt3__113basic_ostreamI
40:   FUNC GLOBAL DEFAULT UND _ZNSt3__113basic_ostreamI
41:   FUNC GLOBAL DEFAULT UND _ZNSt3__113basic_ostreamI
42:   FUNC GLOBAL DEFAULT UND _ZNSt3__113basic_ostreamI
43:   FUNC GLOBAL DEFAULT UND _ZNSt3__113basic_ostreamI
44:   FUNC GLOBAL DEFAULT UND _ZNSt3__113basic_ostreamI
45:   FUNC GLOBAL DEFAULT UND _ZNSt3__113basic_ostreamI
46:   FUNC GLOBAL DEFAULT UND _ZNSt3__115basic_streambu
47:   FUNC GLOBAL DEFAULT UND _ZNSt3__115basic_streambu
48:   FUNC GLOBAL DEFAULT UND _ZNSt3__115basic_streambu
49:   FUNC GLOBAL DEFAULT UND _ZNSt3__115basic_streambu
50:   FUNC GLOBAL DEFAULT UND _ZNSt3__115basic_streambu
51:   FUNC GLOBAL DEFAULT UND _ZNSt3__115basic_streambu
52:   FUNC GLOBAL DEFAULT UND _ZNSt3__115basic_streambu
53:   FUNC GLOBAL DEFAULT UND _ZNSt3__115basic_streambu
54:   FUNC GLOBAL DEFAULT UND _ZNSt3__115basic_streambu
55:   OBJECT GLOBAL DEFAULT UND _ZNSt3__14cerrE
56:   OBJECT GLOBAL DEFAULT UND _ZNSt3__14coutE
57:   OBJECT GLOBAL DEFAULT UND _ZNSt3__15ctypeIcE2idE
58:   FUNC GLOBAL DEFAULT UND _ZNSt3__16localeD1Ev
59:   FUNC GLOBAL DEFAULT UND _ZNSt3__18ios_base4initEP
60:   FUNC GLOBAL DEFAULT UND _ZNSt3__18ios_base5clearE
61:   FUNC GLOBAL DEFAULT UND _ZNSt3__19basic_iosIcNS_1
62:   OBJECT GLOBAL DEFAULT UND _ZTIN7android6fs_mgr15Par
63:   OBJECT GLOBAL DEFAULT UND _ZTINSt3__113basic_ostrea
64:   OBJECT GLOBAL DEFAULT UND _ZTINSt3__115basic_stream
65:   OBJECT GLOBAL DEFAULT UND _ZTVN10__cxxabiv120__si_c
66:   FUNC GLOBAL DEFAULT UND _ZTv0_n24_NSt3__113basic_
67:   FUNC GLOBAL DEFAULT UND _ZTv0_n24_NSt3__113basic_
68:   FUNC GLOBAL DEFAULT UND _ZdlPv
69:   FUNC GLOBAL DEFAULT UND _Znwm
70:   FUNC GLOBAL DEFAULT UND __ctype_b_loc@GLIBC_2.3 (3)
71:   FUNC GLOBAL DEFAULT UND __ctype_tolower_loc@GLIBC_2.3 (3)
72:   FUNC GLOBAL DEFAULT UND __errno_location@GLIBC_2.2.5 (4)
73:   FUNC GLOBAL DEFAULT UND __stack_chk_fail@GLIBC_2.4 (5)
74:   FUNC GLOBAL DEFAULT UND __xstat@GLIBC_2.2.5 (2)
75:   FUNC GLOBAL DEFAULT UND close@GLIBC_2.2.5 (4)
76:   FUNC GLOBAL DEFAULT UND getopt_long_only@GLIBC_2.2.5 (2)
77:   FUNC GLOBAL DEFAULT UND memchr@GLIBC_2.2.5 (2)
78:   FUNC GLOBAL DEFAULT UND memcpy@GLIBC_2.14 (6)
79:   FUNC GLOBAL DEFAULT UND memset@GLIBC_2.2.5 (2)
80:   FUNC GLOBAL DEFAULT UND open@GLIBC_2.2.5 (4)
81:   OBJECT GLOBAL DEFAULT UND optarg@GLIBC_2.2.5 (2)
82:   OBJECT GLOBAL DEFAULT UND optind@GLIBC_2.2.5 (2)
83:   FUNC GLOBAL DEFAULT UND strlen@GLIBC_2.2.5 (2)
84:   FUNC GLOBAL DEFAULT UND strtoull@GLIBC_2.2.5 (2)
85:   FUNC GLOBAL DEFAULT UND _ZN6google8protobuf14Desc
86:   FUNC GLOBAL DEFAULT UND _ZN6google8protobuf14Desc
87:   FUNC GLOBAL DEFAULT UND _ZN6google8protobuf14Mess
88:   FUNC GLOBAL DEFAULT UND _ZN6google8protobuf14Mess
89:   FUNC GLOBAL DEFAULT UND _ZN6google8protobuf15Unkn
90:   FUNC GLOBAL DEFAULT UND _ZN6google8protobuf15Unkn
91:   FUNC GLOBAL DEFAULT UND _ZN6google8protobuf18Goog
92:   FUNC GLOBAL DEFAULT UND _ZN6google8protobuf2io16C
93:   FUNC GLOBAL DEFAULT UND _ZN6google8protobuf2io16C
94:   FUNC GLOBAL DEFAULT UND _ZN6google8protobuf2io16C
95:   FUNC GLOBAL DEFAULT UND _ZN6google8protobuf2io16C
96:   FUNC GLOBAL DEFAULT UND _ZN6google8protobuf2io17C
97:   FUNC GLOBAL DEFAULT UND _ZN6google8protobuf2io17C
98:   FUNC GLOBAL DEFAULT UND _ZN6google8protobuf2io17C
99:   FUNC GLOBAL DEFAULT UND _ZN6google8protobuf2io17C
100:   FUNC GLOBAL DEFAULT UND _ZN6google8protobuf7Messa
101:   FUNC GLOBAL DEFAULT UND _ZN6google8protobuf7Messa
102:   FUNC GLOBAL DEFAULT UND _ZN6google8protobuf7Messa
103:   FUNC GLOBAL DEFAULT UND _ZN6google8protobuf8inter
104:   FUNC GLOBAL DEFAULT UND _ZN6google8protobuf8inter
105:   FUNC GLOBAL DEFAULT UND _ZN6google8protobuf8inter
106:   FUNC GLOBAL DEFAULT UND _ZN6google8protobuf8inter
107:   FUNC GLOBAL DEFAULT UND _ZN6google8protobuf8inter
108:   FUNC GLOBAL DEFAULT UND _ZN6google8protobuf8inter
109:   FUNC GLOBAL DEFAULT UND _ZN6google8protobuf8inter
110:   FUNC GLOBAL DEFAULT UND _ZN6google8protobuf8inter
111:   FUNC GLOBAL DEFAULT UND _ZN6google8protobuf8inter
112:   FUNC GLOBAL DEFAULT UND _ZN6google8protobuf8inter
113:   FUNC GLOBAL DEFAULT UND _ZN6google8protobuf8inter
114:   FUNC GLOBAL DEFAULT UND _ZN6google8protobuf8inter
115:   FUNC GLOBAL DEFAULT UND _ZN6google8protobuf8inter
116:   FUNC GLOBAL DEFAULT UND _ZN6google8protobuf8inter
117:   FUNC GLOBAL DEFAULT UND _ZN6google8protobuf8inter
118:   FUNC GLOBAL DEFAULT UND _ZN6google8protobuf8inter
119:   FUNC GLOBAL DEFAULT UND _ZN6google8protobuf8inter
120:   FUNC GLOBAL DEFAULT UND _ZN6google8protobuf8inter
121:   FUNC GLOBAL DEFAULT UND _ZN6google8protobuf8inter
122:   OBJECT GLOBAL DEFAULT UND _ZN6google8protobuf8inter
123:   FUNC GLOBAL DEFAULT UND _ZN6google8protobuf8inter
124:   FUNC GLOBAL DEFAULT UND _ZNK6google8protobuf14Des
125:   FUNC GLOBAL DEFAULT UND _ZNK6google8protobuf7Mess
126:   FUNC GLOBAL DEFAULT UND _ZNK6google8protobuf7Mess
127:   FUNC GLOBAL DEFAULT UND _ZNK6google8protobuf7Mess
128:   OBJECT GLOBAL DEFAULT UND _ZTIN6google8protobuf7Mes
129:   OBJECT GLOBAL DEFAULT UND _ZTVN6google8protobuf8int
130:   FUNC GLOBAL DEFAULT UND _ZdaPv
131:   FUNC GLOBAL DEFAULT UND _ZN6google8protobuf11Mess
132:   FUNC GLOBAL DEFAULT UND _ZN6google8protobuf11Stri
133:   FUNC GLOBAL DEFAULT UND _ZN6google8protobuf4util1
134:   FUNC GLOBAL DEFAULT UND _ZN6google8protobuf4util1
135:   FUNC GLOBAL DEFAULT UND _ZN6google8protobuf4util3
136:   FUNC GLOBAL DEFAULT UND _ZNK6google8protobuf11Mes
137:   FUNC GLOBAL DEFAULT UND _ZNSt3__112basic_stringIc
138:   FUNC GLOBAL DEFAULT UND _ZNSt3__112basic_stringIc
139:   FUNC WEAK DEFAULT 12 _ZN6google8protobuf8inter
140:   FUNC WEAK DEFAULT 12 _ZN6google8protobuf8inter
141:   OBJECT GLOBAL DEFAULT 9 _ZN7android42DynamicParti
142:   FUNC GLOBAL DEFAULT 12 _ZN7android42DynamicParti
143:   FUNC GLOBAL DEFAULT 12 _ZN7android32DynamicParti
144:   FUNC GLOBAL DEFAULT 12 _ZN7android38DynamicParti
145:   OBJECT GLOBAL DEFAULT 9 _ZN7android42DynamicParti
146:   FUNC GLOBAL DEFAULT 12 _ZN7android44DynamicParti
147:   FUNC GLOBAL DEFAULT 12 _ZNK7android32DynamicPart
148:   FUNC GLOBAL DEFAULT 12 _ZNK7android44DynamicPart
149:   FUNC WEAK DEFAULT 12 _ZN7android6fs_mgr15Metad
150:   FUNC WEAK DEFAULT 12 _ZNSt3__16vectorINS_12bas
151:   FUNC GLOBAL DEFAULT 12 _ZNK7android38DynamicPart
152:   FUNC WEAK DEFAULT 12 _ZNSt3__115basic_stringbu
153:   FUNC GLOBAL DEFAULT 12 _ZN7android44DynamicParti
154:   FUNC WEAK DEFAULT 12 _ZN6google8protobuf8inter
155:   FUNC WEAK DEFAULT 12 _ZN6google8protobuf8inter
156:   FUNC GLOBAL DEFAULT 12 _ZN7android32DynamicParti
157:   FUNC GLOBAL DEFAULT 12 _ZN7android38DynamicParti
158:   FUNC WEAK DEFAULT 12 _ZN6google8protobuf8inter
159:   OBJECT GLOBAL DEFAULT 9 _ZN7android32DynamicParti
160:   FUNC GLOBAL DEFAULT 12 _ZN7android32DynamicParti
161:   FUNC GLOBAL DEFAULT 12 _ZN7android44DynamicParti
162:   FUNC GLOBAL DEFAULT 12 _ZNK7android42DynamicPart
163:   FUNC GLOBAL DEFAULT 12 _ZN7android38DynamicParti
164:   FUNC GLOBAL DEFAULT 12 _ZN7android32DynamicParti
165:   FUNC GLOBAL DEFAULT 12 _ZN7android44DynamicParti
166:   FUNC GLOBAL DEFAULT 12 _ZN7android44DynamicParti
167:   FUNC GLOBAL DEFAULT 14 _fini
168:   FUNC WEAK DEFAULT 12 _ZNK23FileOrBlockDeviceOp
169:   OBJECT WEAK DEFAULT 9 _ZTSNSt3__115basic_string
170:   FUNC WEAK DEFAULT 12 _ZN6google8protobuf8inter
171:   OBJECT GLOBAL DEFAULT 21 _ZTIN7android42DynamicPar
172:   FUNC GLOBAL DEFAULT 12 _Z10LpdumpMainiPPcRNSt3__
173:   FUNC WEAK DEFAULT 12 _ZN6google8protobuf5Arena
174:   OBJECT GLOBAL DEFAULT 9 _ZN7android32DynamicParti
175:   FUNC GLOBAL DEFAULT 12 _ZN7android38DynamicParti
176:   FUNC GLOBAL DEFAULT 12 _ZN7android38DynamicParti
177:   OBJECT GLOBAL DEFAULT 26 _ZN7android42DynamicParti
178:   OBJECT GLOBAL DEFAULT 9 _ZN7android44DynamicParti
179:   OBJECT GLOBAL DEFAULT 21 _ZTVN7android44DynamicPar
180:   FUNC WEAK DEFAULT 12 _ZNKSt3__115basic_stringb
181:   FUNC WEAK DEFAULT 12 _ZN6google8protobuf8inter
182:   FUNC WEAK DEFAULT 12 _ZN6google8protobuf8inter
183:   FUNC GLOBAL DEFAULT 12 _ZN7android32DynamicParti
184:   FUNC GLOBAL DEFAULT 12 _ZN7android42DynamicParti
185:   OBJECT GLOBAL DEFAULT 9 _ZTSN7android44DynamicPar
186:   FUNC WEAK DEFAULT 12 _ZTv0_n24_NSt3__119basic_
187:   FUNC GLOBAL DEFAULT 12 _ZN7android102protobuf_As
188:   OBJECT GLOBAL DEFAULT 26 _ZN7android113static_desc
189:   FUNC WEAK DEFAULT 12 _ZNSt3__115basic_stringbu
190:   OBJECT WEAK DEFAULT 9 _ZTSNSt3__119basic_ostrin
191:   FUNC WEAK DEFAULT 12 _ZN6google8protobuf5Arena
192:   FUNC GLOBAL DEFAULT 12 _ZN7android32DynamicParti
193:   OBJECT GLOBAL DEFAULT 9 _ZN7android38DynamicParti
194:   FUNC WEAK DEFAULT 12 _ZN6google8protobuf8inter
195:   FUNC WEAK DEFAULT 12 _ZN6google8protobuf5Arena
196:   FUNC GLOBAL DEFAULT 12 _ZN7android44DynamicParti
197:   FUNC WEAK DEFAULT 12 _ZNK6google8protobuf7Mess
198:   FUNC GLOBAL DEFAULT 12 _ZNK7android42DynamicPart
199:   FUNC GLOBAL DEFAULT 12 _ZNK7android42DynamicPart
200:   FUNC GLOBAL DEFAULT 12 _ZNK7android42DynamicPart
201:   FUNC GLOBAL DEFAULT 12 _ZN7android104protobuf_Sh
202:   FUNC GLOBAL DEFAULT 12 _ZN7android42DynamicParti
203:   FUNC WEAK DEFAULT 12 _ZN7android6fs_mgr16IPart
204:   FUNC GLOBAL DEFAULT 12 _ZN7android32DynamicParti
205:   FUNC GLOBAL DEFAULT 12 _ZN7android42DynamicParti
206:   OBJECT GLOBAL DEFAULT 9 _ZN7android44DynamicParti
207:   FUNC GLOBAL DEFAULT 12 _ZN7android44DynamicParti
208:   FUNC WEAK DEFAULT 12 _ZNK7android38DynamicPart
209:   FUNC WEAK DEFAULT 12 _ZNK7android42DynamicPart
210:   OBJECT GLOBAL DEFAULT 9 _ZTSN7android38DynamicPar
211:   FUNC GLOBAL DEFAULT 12 _ZN7android38DynamicParti
212:   FUNC WEAK DEFAULT 12 _ZNK6google8protobuf11Mes
213:   FUNC GLOBAL DEFAULT 12 _ZNK7android42DynamicPart
214:   FUNC GLOBAL DEFAULT 12 _ZN7android32DynamicParti
215:   FUNC GLOBAL DEFAULT 12 _ZN7android38DynamicParti
216:   FUNC GLOBAL DEFAULT 12 _ZN7android38DynamicParti
217:   FUNC GLOBAL DEFAULT 12 _ZNK7android42DynamicPart
218:   FUNC GLOBAL DEFAULT 12 _ZNK7android44DynamicPart
219:   OBJECT GLOBAL DEFAULT 9 _ZN7android44DynamicParti
220:   FUNC GLOBAL DEFAULT 12 _ZNK7android32DynamicPart
221:   FUNC GLOBAL DEFAULT 12 _ZN7android42DynamicParti
222:   FUNC WEAK DEFAULT 12 _ZN7android4base4JoinINSt
223:   OBJECT WEAK DEFAULT 21 _ZTINSt3__119basic_ostrin
224:   OBJECT WEAK DEFAULT 21 _ZTVNSt3__115basic_string
225:   FUNC GLOBAL DEFAULT 12 _ZN7android44DynamicParti
226:   FUNC WEAK DEFAULT 12 _ZNK7android42DynamicPart
227:   OBJECT GLOBAL DEFAULT 21 _ZTVN7android38DynamicPar
228:   FUNC GLOBAL DEFAULT 12 _ZN7android42DynamicParti
229:   FUNC GLOBAL DEFAULT 12 _ZN7android42DynamicParti
230:   FUNC GLOBAL DEFAULT 12 _ZN7android6jsonpb19Messa
231:   FUNC WEAK DEFAULT 12 _ZNSt3__115basic_stringbu
232:   FUNC WEAK DEFAULT 12 _ZTv0_n24_NSt3__119basic_
233:   FUNC GLOBAL DEFAULT 12 _ZN7android38DynamicParti
234:   FUNC GLOBAL DEFAULT 12 _ZN7android44DynamicParti
235:   FUNC WEAK DEFAULT 12 _ZN6google8protobuf8inter
236:   FUNC GLOBAL DEFAULT 12 _ZN7android42DynamicParti
237:   FUNC GLOBAL DEFAULT 12 _ZN7android42DynamicParti
238:   FUNC GLOBAL DEFAULT 12 _ZNK7android38DynamicPart
239:   OBJECT GLOBAL DEFAULT 21 _ZTIN7android32DynamicPar
240:   OBJECT GLOBAL DEFAULT 9 _ZN7android32DynamicParti
241:   FUNC GLOBAL DEFAULT 12 _ZN7android44DynamicParti
242:   OBJECT WEAK DEFAULT 21 _ZTVNSt3__119basic_ostrin
243:   FUNC GLOBAL DEFAULT 12 _ZN7android38DynamicParti
244:   FUNC GLOBAL DEFAULT 12 _ZN7android44DynamicParti
245:   FUNC GLOBAL DEFAULT 12 _Z10LpdumpMainiPPc
246:   FUNC WEAK DEFAULT 12 _ZNSt3__115basic_stringbu
247:   OBJECT WEAK DEFAULT 21 _ZTTNSt3__119basic_ostrin
248:   FUNC GLOBAL DEFAULT 12 _ZN7android32DynamicParti
249:   FUNC GLOBAL DEFAULT 12 _ZN7android42DynamicParti
250:   FUNC GLOBAL DEFAULT 12 _ZNK7android32DynamicPart
251:   FUNC GLOBAL DEFAULT 12 _ZN7android32DynamicParti
252:   OBJECT GLOBAL DEFAULT 9 _ZN7android32DynamicParti
253:   FUNC GLOBAL DEFAULT 12 _ZN7android99protobuf_Add
254:   FUNC GLOBAL DEFAULT 12 _ZN7android32DynamicParti
255:   FUNC WEAK DEFAULT 12 _ZNSt3__119basic_ostrings
256:   FUNC GLOBAL DEFAULT 12 _ZN7android32DynamicParti
257:   FUNC GLOBAL DEFAULT 12 _ZN7android38DynamicParti
258:   FUNC GLOBAL DEFAULT 12 _ZN7android38DynamicParti
259:   FUNC GLOBAL DEFAULT 12 _ZN7android42DynamicParti
260:   FUNC GLOBAL DEFAULT 13 _init
261:   OBJECT WEAK DEFAULT 21 _ZTCNSt3__119basic_ostrin
262:   FUNC WEAK DEFAULT 12 _ZN6google8protobuf8inter
263:   FUNC GLOBAL DEFAULT 12 _ZN7android32DynamicParti
264:   OBJECT GLOBAL DEFAULT 9 _ZN7android44DynamicParti
265:   FUNC GLOBAL DEFAULT 12 _ZN7android32DynamicParti
266:   FUNC GLOBAL DEFAULT 12 _ZNK7android32DynamicPart
267:   FUNC WEAK DEFAULT 12 _ZN6google8protobuf8inter
268:   OBJECT GLOBAL DEFAULT 9 _ZN7android42DynamicParti
269:   FUNC GLOBAL DEFAULT 12 _ZN7android44DynamicParti
270:   FUNC GLOBAL DEFAULT 12 _ZNK7android44DynamicPart
271:   FUNC GLOBAL DEFAULT 12 _ZN7android42DynamicParti
272:   FUNC GLOBAL DEFAULT 12 _ZN7android42DynamicParti
273:   OBJECT GLOBAL DEFAULT 9 _ZTSN7android32DynamicPar
274:   FUNC WEAK DEFAULT 12 _ZN7android4base9ParseUin
275:   FUNC GLOBAL DEFAULT 12 _ZN7android42DynamicParti
276:   FUNC GLOBAL DEFAULT 12 _ZN7android42DynamicParti
277:   FUNC WEAK DEFAULT 12 _ZNSt3__115basic_stringbu
278:   FUNC WEAK DEFAULT 12 _ZN6google8protobuf8inter
279:   OBJECT GLOBAL DEFAULT 26 _ZN7android44DynamicParti
280:   FUNC WEAK DEFAULT 12 _ZNK7android32DynamicPart
281:   FUNC GLOBAL DEFAULT 12 _ZN7android44DynamicParti
282:   FUNC GLOBAL DEFAULT 12 _ZN7android42DynamicParti
283:   OBJECT GLOBAL DEFAULT 21 _ZTVN7android32DynamicPar
284:   FUNC WEAK DEFAULT 12 _ZNSt3__124__put_characte
285:   FUNC WEAK DEFAULT 12 _ZN6google8protobuf8inter
286:   FUNC GLOBAL DEFAULT 12 _ZN7android32DynamicParti
287:   FUNC GLOBAL DEFAULT 12 _ZN7android38DynamicParti
288:   FUNC GLOBAL DEFAULT 12 _ZNK7android38DynamicPart
289:   OBJECT WEAK DEFAULT 21 _ZTINSt3__115basic_string
290:   OBJECT WEAK DEFAULT 21 _ZTV23FileOrBlockDeviceOp
291:   FUNC WEAK DEFAULT 12 _ZN6google8protobuf5Arena
292:   FUNC GLOBAL DEFAULT 12 _ZN7android42DynamicParti
293:   FUNC GLOBAL DEFAULT 12 _ZNK7android32DynamicPart
294:   FUNC GLOBAL DEFAULT 12 _ZNK7android44DynamicPart
295:   OBJECT GLOBAL DEFAULT 21 _ZTIN7android38DynamicPar
296:   FUNC GLOBAL DEFAULT 12 _ZN7android44DynamicParti
297:   FUNC GLOBAL DEFAULT 12 _ZN7android44DynamicParti
298:   FUNC WEAK DEFAULT 12 _ZNK7android44DynamicPart
299:   FUNC WEAK DEFAULT 12 _ZN6google8protobuf8inter
300:   FUNC WEAK DEFAULT 12 _ZNK7android6jsonpb7Error
301:   FUNC WEAK DEFAULT 12 _ZNSt3__115basic_stringbu
302:   FUNC WEAK DEFAULT 12 _ZNSt3__119basic_ostrings
303:   FUNC GLOBAL DEFAULT 12 _ZN7android32DynamicParti
304:   FUNC GLOBAL DEFAULT 12 _ZN7android38DynamicParti
305:   FUNC GLOBAL DEFAULT 12 _ZN7android38DynamicParti
306:   FUNC GLOBAL DEFAULT 12 _ZN7android44DynamicParti
307:   FUNC GLOBAL DEFAULT 12 _ZNK7android38DynamicPart
308:   FUNC WEAK DEFAULT 12 _ZN23FileOrBlockDeviceOpe
309:   FUNC WEAK DEFAULT 12 _ZNK6google8protobuf11Mes
310:   FUNC GLOBAL DEFAULT 12 _ZNK7android32DynamicPart
311:   OBJECT GLOBAL DEFAULT 9 _ZN7android32DynamicParti
312:   OBJECT GLOBAL DEFAULT 26 _ZN7android38DynamicParti
313:   OBJECT GLOBAL DEFAULT 9 _ZN7android38DynamicParti
314:   OBJECT GLOBAL DEFAULT 9 _ZN7android42DynamicParti
315:   FUNC GLOBAL DEFAULT 12 _ZNK7android42DynamicPart
316:   FUNC WEAK DEFAULT 12 _ZNSt3__16vectorINS_12bas
317:   FUNC GLOBAL DEFAULT 12 _ZN7android42DynamicParti
318:   FUNC WEAK DEFAULT 12 _ZNK7android38DynamicPart
319:   FUNC GLOBAL DEFAULT 12 _ZNK7android38DynamicPart
320:   FUNC WEAK DEFAULT 12 _ZN6google8protobuf8inter
321:   FUNC WEAK DEFAULT 12 _ZNK7android32DynamicPart
322:   OBJECT WEAK DEFAULT 21 _ZTI23FileOrBlockDeviceOp
323:   FUNC GLOBAL DEFAULT 12 _ZN7android42DynamicParti
324:   FUNC GLOBAL DEFAULT 12 _ZNK7android44DynamicPart
325:   FUNC WEAK DEFAULT 12 _ZN6google8protobuf8inter
326:   FUNC WEAK DEFAULT 12 _ZN7android6jsonpb7ErrorO
327:   FUNC GLOBAL DEFAULT 12 _ZN7android38DynamicParti
328:   FUNC GLOBAL DEFAULT 12 _ZN7android44DynamicParti
329:   FUNC GLOBAL DEFAULT 12 _ZN7android44DynamicParti
330:   FUNC GLOBAL DEFAULT 12 _ZN7android6jsonpb10GetTy
331:   FUNC GLOBAL DEFAULT 12 _ZN7android32DynamicParti
332:   OBJECT GLOBAL DEFAULT 9 _ZN7android42DynamicParti
333:   FUNC GLOBAL DEFAULT 12 _ZNK7android38DynamicPart
334:   OBJECT GLOBAL DEFAULT 21 _ZTIN7android44DynamicPar
335:   FUNC GLOBAL DEFAULT 12 _ZN7android6jsonpb8intern
336:   FUNC WEAK DEFAULT 12 _ZN6google8protobuf8inter
337:   OBJECT WEAK DEFAULT 9 _ZTS23FileOrBlockDeviceOp
338:   FUNC WEAK DEFAULT 12 _ZN6google8protobuf8inter
339:   FUNC GLOBAL DEFAULT 12 _ZN7android32DynamicParti
340:   FUNC GLOBAL DEFAULT 12 _ZN7android32DynamicParti
341:   FUNC GLOBAL DEFAULT 12 _ZN7android44DynamicParti
342:   FUNC GLOBAL DEFAULT 12 _ZN7android44DynamicParti
343:   FUNC GLOBAL DEFAULT 12 _ZNK7android44DynamicPart
344:   OBJECT GLOBAL DEFAULT 9 _ZTSN7android42DynamicPar
345:   FUNC GLOBAL DEFAULT 12 _ZN7android32DynamicParti
346:   FUNC GLOBAL DEFAULT 12 _ZN7android38DynamicParti
347:   FUNC GLOBAL DEFAULT 12 _ZN7android38DynamicParti
348:   OBJECT GLOBAL DEFAULT 9 _ZN7android42DynamicParti
349:   OBJECT GLOBAL DEFAULT 21 _ZTVN7android42DynamicPar
350:   FUNC GLOBAL DEFAULT 12 _ZNK7android32DynamicPart
351:   FUNC GLOBAL DEFAULT 12 _ZNK7android44DynamicPart
352:   OBJECT GLOBAL DEFAULT 26 _ZN7android32DynamicParti
353:   FUNC GLOBAL DEFAULT 12 _ZN7android38DynamicParti
354:   FUNC GLOBAL DEFAULT 12 _ZN7android42DynamicParti
355:   FUNC GLOBAL DEFAULT 12 _ZNK7android38DynamicPart
356:   FUNC WEAK DEFAULT 12 _ZNK7android44DynamicPart
357:   FUNC GLOBAL DEFAULT 12 _ZN7android38DynamicParti
358:   OBJECT GLOBAL DEFAULT 9 _ZN7android44DynamicParti
