 0x000000000000000e (SONAME)             Library soname: [libmedialogservice.so]
  
Symbol   contains 184 entries:
Num:   Type Bind Vis Ndx Name
0:   NOTYPE LOCAL DEFAULT UND
1:   FUNC GLOBAL DEFAULT UND __cxa_finalize@LIBC (2)
2:   FUNC GLOBAL DEFAULT UND __cxa_atexit@LIBC (2)
3:   FUNC GLOBAL DEFAULT UND _ZN7android8String16C1EPK
4:   FUNC GLOBAL DEFAULT UND _ZN7android8String16D1Ev
5:   FUNC GLOBAL DEFAULT UND __cfi_slowpath@LIBC_OMR1 (3)
6:   FUNC GLOBAL DEFAULT UND _Znwm
7:   FUNC GLOBAL DEFAULT UND _ZN7android10IInterfaceC2
8:   FUNC GLOBAL DEFAULT UND _ZN7android10IInterfaceD2
9:   FUNC GLOBAL DEFAULT UND _ZNK7android6Parcel14chec
10:   FUNC GLOBAL DEFAULT UND _ZNK7android6Parcel16read
11:   FUNC GLOBAL DEFAULT UND _ZNK7android6Parcel9readI
12:   FUNC GLOBAL DEFAULT UND _ZNK7android6Parcel11read
13:   FUNC GLOBAL DEFAULT UND _ZN7android7BBinder10onTr
14:   FUNC GLOBAL DEFAULT UND _ZN7android10IInterfaceD1
15:   FUNC GLOBAL DEFAULT UND _ZN7android10IInterfaceD0
16:   FUNC GLOBAL DEFAULT UND __cxa_pure_virtual
17:   FUNC GLOBAL DEFAULT UND _ZTv0_n24_N7android10IInt
18:   FUNC GLOBAL DEFAULT UND _ZTv0_n24_N7android10IInt
19:   FUNC GLOBAL DEFAULT UND _ZN7android7RefBase10onFi
20:   FUNC GLOBAL DEFAULT UND _ZN7android7RefBase15onLa
21:   FUNC GLOBAL DEFAULT UND _ZN7android7RefBase20onIn
22:   FUNC GLOBAL DEFAULT UND _ZN7android7RefBase13onLa
23:   FUNC GLOBAL DEFAULT UND _ZNK7android7BBinder13isB
24:   FUNC GLOBAL DEFAULT UND _ZN7android7BBinder10ping
25:   FUNC GLOBAL DEFAULT UND _ZN7android7BBinder4dumpE
26:   FUNC GLOBAL DEFAULT UND _ZN7android7BBinder8trans
27:   FUNC GLOBAL DEFAULT UND _ZN7android7BBinder11link
28:   FUNC GLOBAL DEFAULT UND _ZN7android7BBinder13unli
29:   FUNC GLOBAL DEFAULT UND _ZNK7android7IBinder13che
30:   FUNC GLOBAL DEFAULT UND _ZN7android7BBinder12atta
31:   FUNC GLOBAL DEFAULT UND _ZNK7android7BBinder10fin
32:   FUNC GLOBAL DEFAULT UND _ZN7android7BBinder12deta
33:   FUNC GLOBAL DEFAULT UND _ZN7android7BBinder11loca
34:   FUNC GLOBAL DEFAULT UND _ZN7android7IBinder12remo
35:   FUNC GLOBAL DEFAULT UND _ZN7android7IBinder19quer
36:   FUNC GLOBAL DEFAULT UND _ZNK7android7BBinder22get
37:   FUNC GLOBAL DEFAULT UND _ZN7android7BBinderD1Ev
38:   FUNC GLOBAL DEFAULT UND _ZN7android7BBinderD0Ev
39:   FUNC GLOBAL DEFAULT UND _ZTv0_n24_N7android7BBind
40:   FUNC GLOBAL DEFAULT UND _ZTv0_n24_N7android7BBind
41:   FUNC GLOBAL DEFAULT UND _ZN7android7IBinder11loca
42:   FUNC GLOBAL DEFAULT UND _ZN7android7IBinderD1Ev
43:   FUNC GLOBAL DEFAULT UND _ZN7android7IBinderD0Ev
44:   FUNC GLOBAL DEFAULT UND _ZTv0_n24_N7android7IBind
45:   FUNC GLOBAL DEFAULT UND _ZTv0_n24_N7android7IBind
46:   FUNC GLOBAL DEFAULT UND _ZN7android7RefBaseC2Ev
47:   FUNC GLOBAL DEFAULT UND _ZN7android9BpRefBase10on
48:   FUNC GLOBAL DEFAULT UND _ZN7android9BpRefBase15on
49:   FUNC GLOBAL DEFAULT UND _ZN7android9BpRefBase20on
50:   FUNC GLOBAL DEFAULT UND _ZTv0_n32_N7android9BpRef
51:   FUNC GLOBAL DEFAULT UND _ZTv0_n40_N7android9BpRef
52:   FUNC GLOBAL DEFAULT UND _ZTv0_n48_N7android9BpRef
53:   FUNC GLOBAL DEFAULT UND _ZN7android9BpRefBaseD1Ev
54:   FUNC GLOBAL DEFAULT UND _ZN7android9BpRefBaseD0Ev
55:   FUNC GLOBAL DEFAULT UND _ZTv0_n24_N7android9BpRef
56:   FUNC GLOBAL DEFAULT UND _ZTv0_n24_N7android9BpRef
57:   FUNC GLOBAL DEFAULT UND _ZN7android9BpRefBaseC2ER
58:   FUNC GLOBAL DEFAULT UND _ZN7android7RefBaseD2Ev
59:   FUNC GLOBAL DEFAULT UND _ZN7android9BpRefBaseD2Ev
60:   FUNC GLOBAL DEFAULT UND _ZdlPv
61:   FUNC GLOBAL DEFAULT UND _ZN7android6ParcelC1Ev
62:   FUNC GLOBAL DEFAULT UND _ZN7android6Parcel19write
63:   FUNC GLOBAL DEFAULT UND _ZN7android6Parcel17write
64:   FUNC GLOBAL DEFAULT UND _ZN7android10IInterface8a
65:   FUNC GLOBAL DEFAULT UND _ZN7android6Parcel10write
66:   FUNC GLOBAL DEFAULT UND _ZN7android6Parcel12write
67:   FUNC GLOBAL DEFAULT UND _ZN7android6ParcelD1Ev
68:   FUNC GLOBAL DEFAULT UND _ZNK7android7RefBase9incS
69:   FUNC GLOBAL DEFAULT UND _ZNK7android7RefBase9decS
70:   FUNC GLOBAL DEFAULT UND _ZN7android14sp_report_ra
71:   FUNC GLOBAL DEFAULT UND _ZN7android7IMemory11asIn
72:   FUNC GLOBAL DEFAULT UND strzcmp16
73:   FUNC GLOBAL DEFAULT UND _ZNK7android8String164siz
74:   FUNC GLOBAL DEFAULT UND malloc@LIBC (2)
75:   FUNC GLOBAL DEFAULT UND _ZN7android5NBLog8Timelin
76:   FUNC GLOBAL DEFAULT UND _ZN7android5NBLog6MergerC
77:   FUNC GLOBAL DEFAULT UND _ZN7android5NBLog11MergeR
78:   FUNC GLOBAL DEFAULT UND _ZN7android5NBLog11MergeT
79:   FUNC GLOBAL DEFAULT UND _ZN7android5NBLog11MergeT
80:   FUNC GLOBAL DEFAULT UND _ZN7android6Thread4joinEv
81:   FUNC GLOBAL DEFAULT UND free@LIBC (2)
82:   FUNC GLOBAL DEFAULT UND _ZN7android14IPCThreadSta
83:   FUNC GLOBAL DEFAULT UND _ZNK7android14IPCThreadSt
84:   FUNC GLOBAL DEFAULT UND _ZNK7android7IMemory4size
85:   FUNC GLOBAL DEFAULT UND _ZN7android5NBLog6ReaderC
86:   FUNC GLOBAL DEFAULT UND _ZN7android5NBLog6Merger9
87:   FUNC GLOBAL DEFAULT UND _ZNK7android5NBLog6Reader
88:   FUNC GLOBAL DEFAULT UND usleep@LIBC (2)
89:   FUNC GLOBAL DEFAULT UND _ZN7android11dumpAllowedE
90:   FUNC GLOBAL DEFAULT UND dprintf@LIBC (2)
91:   FUNC GLOBAL DEFAULT UND _ZNK7android14IPCThreadSt
92:   FUNC GLOBAL DEFAULT UND _ZN7android7String8C1ERKN
93:   FUNC GLOBAL DEFAULT UND strcmp@LIBC (2)
94:   FUNC GLOBAL DEFAULT UND _ZN7android7String8C1EPKc
95:   FUNC GLOBAL DEFAULT UND __android_log_print@LIBLOG (4)
96:   FUNC GLOBAL DEFAULT UND _ZN7android7String8D1Ev
97:   FUNC GLOBAL DEFAULT UND _ZN7android5NBLog10DumpRe
98:   FUNC GLOBAL DEFAULT UND _ZN7android5NBLog11MergeR
99:   FUNC GLOBAL DEFAULT UND _ZN7android5NBLog11MergeT
100:   FUNC GLOBAL DEFAULT UND _ZN7android7BBinderC2Ev
101:   FUNC GLOBAL DEFAULT UND pthread_mutex_init@LIBC (2)
102:   FUNC GLOBAL DEFAULT UND _ZN16audio_utils_fifoD1Ev
103:   FUNC GLOBAL DEFAULT UND pthread_mutex_destroy@LIBC (2)
104:   FUNC GLOBAL DEFAULT UND _ZN7android7BBinderD2Ev
105:   FUNC GLOBAL DEFAULT UND _ZN7android5NBLog6ReaderC
106:   FUNC GLOBAL DEFAULT UND _ZN7android5NBLog6ReaderD
107:   FUNC GLOBAL DEFAULT UND pthread_mutex_lock@LIBC (2)
108:   FUNC GLOBAL DEFAULT UND pthread_mutex_trylock@LIBC (2)
109:   FUNC GLOBAL DEFAULT UND write@LIBC (2)
110:   FUNC GLOBAL DEFAULT UND _ZNK7android7String86leng
111:   FUNC GLOBAL DEFAULT UND pthread_mutex_unlock@LIBC (2)
112:   FUNC GLOBAL DEFAULT UND _ZNKSt3__121__basic_strin
113:   FUNC GLOBAL DEFAULT UND strlen@LIBC (2)
114:   FUNC GLOBAL DEFAULT UND _ZN7android10VectorImplC2
115:   FUNC GLOBAL DEFAULT UND _ZN7android7RefBase10rena
116:   FUNC GLOBAL DEFAULT UND _ZN7android7RefBase11rena
117:   FUNC GLOBAL DEFAULT UND _ZN7android10VectorImpl13
118:   FUNC GLOBAL DEFAULT UND _ZN7android10VectorImplD2
119:   FUNC GLOBAL DEFAULT UND _ZN7android10VectorImpl3a
120:   FUNC GLOBAL DEFAULT UND _ZN7android10VectorImpl13
121:   FUNC GLOBAL DEFAULT UND _ZN7android10VectorImpl13
122:   FUNC GLOBAL DEFAULT UND memset@LIBC (2)
123:   FUNC GLOBAL DEFAULT UND memcpy@LIBC (2)
124:   FUNC GLOBAL DEFAULT UND memmove@LIBC (2)
125:   FUNC GLOBAL DEFAULT UND abort@LIBC (2)
126:   FUNC GLOBAL DEFAULT UND __stack_chk_fail@LIBC (2)
127:   FUNC GLOBAL DEFAULT 14 _ZN7android16IMediaLogSer
128:   FUNC GLOBAL DEFAULT 14 _ZTv0_n24_N7android16IMed
129:   OBJECT GLOBAL DEFAULT 19 _ZTTN7android16IMediaLogS
130:   OBJECT GLOBAL DEFAULT 19 _ZTCN7android16IMediaLogS
131:   FUNC GLOBAL DEFAULT 14 _ZThn8_N7android15MediaLo
132:   FUNC GLOBAL DEFAULT 14 _ZN7android16IMediaLogSer
133:   FUNC GLOBAL DEFAULT 14 _ZThn8_N7android17BnMedia
134:   FUNC GLOBAL DEFAULT 14 _ZN7android17BnMediaLogSe
135:   OBJECT GLOBAL DEFAULT 23 _ZN7android16IMediaLogSer
136:   OBJECT GLOBAL DEFAULT 19 _ZTCN7android17BnMediaLog
137:   FUNC GLOBAL DEFAULT 14 _ZN7android15MediaLogServ
138:   FUNC GLOBAL DEFAULT 14 _ZThn8_N7android15MediaLo
139:   OBJECT GLOBAL DEFAULT 19 _ZTCN7android15MediaLogSe
140:   FUNC GLOBAL DEFAULT 14 _ZN7android15MediaLogServ
141:   FUNC GLOBAL DEFAULT 14 _ZN7android15MediaLogServ
142:   FUNC GLOBAL DEFAULT 14 _ZN7android15MediaLogServ
143:   OBJECT GLOBAL DEFAULT 19 _ZTTN7android17BnMediaLog
144:   OBJECT GLOBAL DEFAULT 19 _ZTCN7android17BnMediaLog
145:   FUNC WEAK DEFAULT 14 _ZNSt3__16__treeINS_12__v
146:   OBJECT GLOBAL DEFAULT 19 _ZTCN7android15MediaLogSe
147:   FUNC GLOBAL DEFAULT 14 _ZN7android15MediaLogServ
148:   FUNC GLOBAL DEFAULT 14 _ZTv0_n24_N7android15Medi
149:   FUNC GLOBAL DEFAULT 14 _ZThn8_N7android15MediaLo
150:   FUNC GLOBAL DEFAULT 14 _ZN7android15MediaLogServ
151:   OBJECT GLOBAL DEFAULT 19 _ZTCN7android15MediaLogSe
152:   OBJECT GLOBAL DEFAULT 19 _ZTCN7android17BnMediaLog
153:   FUNC GLOBAL DEFAULT 14 _ZN7android15MediaLogServ
154:   OBJECT GLOBAL DEFAULT 19 _ZTTN7android15MediaLogSe
155:   OBJECT GLOBAL DEFAULT 19 _ZTCN7android15MediaLogSe
156:   FUNC GLOBAL DEFAULT 14 _ZN7android16IMediaLogSer
157:   FUNC GLOBAL DEFAULT 14 _ZN7android15MediaLogServ
158:   OBJECT WEAK DEFAULT 19 _ZTVN7android5NBLog11Merg
159:   FUNC GLOBAL DEFAULT 14 _ZN7android16IMediaLogSer
160:   OBJECT GLOBAL DEFAULT 19 _ZTVN7android17BnMediaLog
161:   FUNC GLOBAL DEFAULT 14 _ZN7android15MediaLogServ
162:   FUNC GLOBAL DEFAULT 14 _ZTv0_n24_N7android15Medi
163:   FUNC GLOBAL DEFAULT 14 _ZN7android15MediaLogServ
164:   FUNC WEAK DEFAULT 14 _ZNSt3__16__treeINS_12__v
165:   FUNC WEAK DEFAULT 14 _ZNSt3__112__deque_baseIN
166:   OBJECT GLOBAL DEFAULT 19 _ZTVN7android15MediaLogSe
167:   FUNC GLOBAL DEFAULT 14 _ZN7android16IMediaLogSer
168:   OBJECT GLOBAL DEFAULT 23 _ZN7android16IMediaLogSer
169:   FUNC GLOBAL DEFAULT 14 _ZN7android16IMediaLogSer
170:   FUNC GLOBAL DEFAULT 14 __cfi_check
171:   OBJECT GLOBAL DEFAULT 19 _ZTVN7android16IMediaLogS
172:   OBJECT GLOBAL DEFAULT 19 _ZTCN7android15MediaLogSe
173:   FUNC GLOBAL DEFAULT 14 _ZN7android16IMediaLogSer
174:   FUNC GLOBAL DEFAULT 14 _ZTv0_n24_N7android16IMed
175:   FUNC GLOBAL DEFAULT 14 _ZN7android15MediaLogServ
176:   FUNC WEAK DEFAULT 14 _ZNSt3__16__treeINS_12__v
177:   OBJECT GLOBAL DEFAULT 19 _ZTCN7android17BnMediaLog
178:   FUNC WEAK DEFAULT 14 _ZNSt3__16__treeINS_12__v
179:   OBJECT GLOBAL DEFAULT 19 _ZTCN7android15MediaLogSe
180:   OBJECT WEAK DEFAULT 19 _ZTVN7android5NBLog6Merge
181:   FUNC GLOBAL DEFAULT 14 _ZNK7android16IMediaLogSe
182:   OBJECT GLOBAL DEFAULT 19 _ZTCN7android17BnMediaLog
183:   FUNC GLOBAL DEFAULT 14 _ZThn8_N7android15MediaLo
