 0x0000000e (SONAME)                     Library soname: [android.hardware.radio@1.2.so]
  
Symbol   contains 1645 entries:
Num:   Type Bind Vis Ndx Name
0:   NOTYPE LOCAL DEFAULT UND
1:   FUNC GLOBAL DEFAULT UND __cxa_finalize@LIBC (2)
2:   FUNC GLOBAL DEFAULT UND _ZN7android14sp_report_ra
3:   FUNC GLOBAL DEFAULT UND _ZN7android21report_syspr
4:   OBJECT GLOBAL DEFAULT UND _ZN7android4hidl4base4V1_
5:   FUNC GLOBAL DEFAULT UND _ZN7android4hidl4base4V1_
6:   FUNC GLOBAL DEFAULT UND _ZN7android4hidl4base4V1_
7:   FUNC GLOBAL DEFAULT UND _ZN7android4hidl4base4V1_
8:   FUNC GLOBAL DEFAULT UND _ZN7android4hidl4base4V1_
9:   FUNC GLOBAL DEFAULT UND _ZN7android4hidl4base4V1_
10:   FUNC GLOBAL DEFAULT UND _ZN7android4hidl4base4V1_
11:   FUNC GLOBAL DEFAULT UND _ZN7android4hidl4base4V1_
12:   FUNC GLOBAL DEFAULT UND _ZN7android4hidl4base4V1_
13:   FUNC GLOBAL DEFAULT UND _ZN7android4hidl4base4V1_
14:   FUNC GLOBAL DEFAULT UND _ZN7android4hidl4base4V1_
15:   FUNC GLOBAL DEFAULT UND _ZN7android4hidl4base4V1_
16:   FUNC GLOBAL DEFAULT UND _ZN7android4hidl4base4V1_
17:   FUNC GLOBAL DEFAULT UND _ZN7android4hidl4base4V1_
18:   FUNC GLOBAL DEFAULT UND _ZN7android4hidl4base4V1_
19:   FUNC GLOBAL DEFAULT UND _ZN7android4hidl4base4V1_
20:   FUNC GLOBAL DEFAULT UND _ZN7android4hidl4base4V1_
21:   FUNC GLOBAL DEFAULT UND _ZN7android4hidl4base4V1_
22:   FUNC GLOBAL DEFAULT UND _ZN7android4hidl4base4V1_
23:   FUNC GLOBAL DEFAULT UND _ZN7android4hidl4base4V1_
24:   FUNC GLOBAL DEFAULT UND _ZN7android4hidl4base4V1_
25:   FUNC GLOBAL DEFAULT UND _ZN7android4hidl4base4V1_
26:   FUNC GLOBAL DEFAULT UND _ZN7android4hidl4base4V1_
27:   FUNC GLOBAL DEFAULT UND _ZN7android4hidl4base4V1_
28:   FUNC GLOBAL DEFAULT UND _ZN7android7RefBase10onFi
29:   FUNC GLOBAL DEFAULT UND _ZN7android7RefBase12weak
30:   FUNC GLOBAL DEFAULT UND _ZN7android7RefBase13onLa
31:   FUNC GLOBAL DEFAULT UND _ZN7android7RefBase15onLa
32:   FUNC GLOBAL DEFAULT UND _ZN7android7RefBase20onIn
33:   FUNC GLOBAL DEFAULT UND _ZN7android7RefBaseC2Ev
34:   FUNC GLOBAL DEFAULT UND _ZN7android7RefBaseD2Ev
35:   FUNC GLOBAL DEFAULT UND _ZN7android8hardware10IIn
36:   FUNC GLOBAL DEFAULT UND _ZN7android8hardware10IIn
37:   FUNC GLOBAL DEFAULT UND _ZN7android8hardware10IIn
38:   FUNC GLOBAL DEFAULT UND _ZN7android8hardware10IIn
39:   FUNC GLOBAL DEFAULT UND _ZN7android8hardware10IIn
40:   FUNC GLOBAL DEFAULT UND _ZN7android8hardware11BpH
41:   FUNC GLOBAL DEFAULT UND _ZN7android8hardware11BpH
42:   FUNC GLOBAL DEFAULT UND _ZN7android8hardware11BpH
43:   FUNC GLOBAL DEFAULT UND _ZN7android8hardware11BpH
44:   FUNC GLOBAL DEFAULT UND _ZN7android8hardware11BpH
45:   FUNC GLOBAL DEFAULT UND _ZN7android8hardware11BpH
46:   FUNC GLOBAL DEFAULT UND _ZN7android8hardware11BpH
47:   FUNC GLOBAL DEFAULT UND _ZN7android8hardware11hid
48:   FUNC GLOBAL DEFAULT UND _ZN7android8hardware11hid
49:   FUNC GLOBAL DEFAULT UND _ZN7android8hardware11hid
50:   FUNC GLOBAL DEFAULT UND _ZN7android8hardware11hid
51:   FUNC GLOBAL DEFAULT UND _ZN7android8hardware11hid
52:   FUNC GLOBAL DEFAULT UND _ZN7android8hardware11hid
53:   FUNC GLOBAL DEFAULT UND _ZN7android8hardware12Pro
54:   FUNC GLOBAL DEFAULT UND _ZN7android8hardware12Pro
55:   FUNC GLOBAL DEFAULT UND _ZN7android8hardware13wri
56:   FUNC GLOBAL DEFAULT UND _ZN7android8hardware21def
57:   FUNC GLOBAL DEFAULT UND _ZN7android8hardware21wri
58:   FUNC GLOBAL DEFAULT UND _ZN7android8hardware22rea
59:   FUNC GLOBAL DEFAULT UND _ZN7android8hardware23get
60:   FUNC GLOBAL DEFAULT UND _ZN7android8hardware27hid
61:   FUNC GLOBAL DEFAULT UND _ZN7android8hardware27hid
62:   FUNC GLOBAL DEFAULT UND _ZN7android8hardware5radi
63:   FUNC GLOBAL DEFAULT UND _ZN7android8hardware5radi
64:   OBJECT GLOBAL DEFAULT UND _ZN7android8hardware5radi
65:   FUNC GLOBAL DEFAULT UND _ZN7android8hardware5radi
66:   FUNC GLOBAL DEFAULT UND _ZN7android8hardware5radi
67:   FUNC GLOBAL DEFAULT UND _ZN7android8hardware5radi
68:   FUNC GLOBAL DEFAULT UND _ZN7android8hardware5radi
69:   FUNC GLOBAL DEFAULT UND _ZN7android8hardware5radi
70:   FUNC GLOBAL DEFAULT UND _ZN7android8hardware5radi
71:   FUNC GLOBAL DEFAULT UND _ZN7android8hardware5radi
72:   FUNC GLOBAL DEFAULT UND _ZN7android8hardware5radi
73:   FUNC GLOBAL DEFAULT UND _ZN7android8hardware5radi
74:   FUNC GLOBAL DEFAULT UND _ZN7android8hardware5radi
75:   FUNC GLOBAL DEFAULT UND _ZN7android8hardware5radi
76:   FUNC GLOBAL DEFAULT UND _ZN7android8hardware5radi
77:   FUNC GLOBAL DEFAULT UND _ZN7android8hardware5radi
78:   FUNC GLOBAL DEFAULT UND _ZN7android8hardware5radi
79:   FUNC GLOBAL DEFAULT UND _ZN7android8hardware5radi
80:   FUNC GLOBAL DEFAULT UND _ZN7android8hardware5radi
81:   FUNC GLOBAL DEFAULT UND _ZN7android8hardware5radi
82:   FUNC GLOBAL DEFAULT UND _ZN7android8hardware5radi
83:   FUNC GLOBAL DEFAULT UND _ZN7android8hardware5radi
84:   FUNC GLOBAL DEFAULT UND _ZN7android8hardware5radi
85:   FUNC GLOBAL DEFAULT UND _ZN7android8hardware5radi
86:   FUNC GLOBAL DEFAULT UND _ZN7android8hardware5radi
87:   FUNC GLOBAL DEFAULT UND _ZN7android8hardware5radi
88:   FUNC GLOBAL DEFAULT UND _ZN7android8hardware5radi
89:   FUNC GLOBAL DEFAULT UND _ZN7android8hardware5radi
90:   FUNC GLOBAL DEFAULT UND _ZN7android8hardware5radi
91:   FUNC GLOBAL DEFAULT UND _ZN7android8hardware5radi
92:   FUNC GLOBAL DEFAULT UND _ZN7android8hardware5radi
93:   FUNC GLOBAL DEFAULT UND _ZN7android8hardware5radi
94:   FUNC GLOBAL DEFAULT UND _ZN7android8hardware5radi
95:   FUNC GLOBAL DEFAULT UND _ZN7android8hardware5radi
96:   FUNC GLOBAL DEFAULT UND _ZN7android8hardware5radi
97:   FUNC GLOBAL DEFAULT UND _ZN7android8hardware5radi
98:   FUNC GLOBAL DEFAULT UND _ZN7android8hardware5radi
99:   FUNC GLOBAL DEFAULT UND _ZN7android8hardware5radi
100:   FUNC GLOBAL DEFAULT UND _ZN7android8hardware5radi
101:   FUNC GLOBAL DEFAULT UND _ZN7android8hardware5radi
102:   FUNC GLOBAL DEFAULT UND _ZN7android8hardware5radi
103:   FUNC GLOBAL DEFAULT UND _ZN7android8hardware5radi
104:   FUNC GLOBAL DEFAULT UND _ZN7android8hardware5radi
105:   FUNC GLOBAL DEFAULT UND _ZN7android8hardware5radi
106:   FUNC GLOBAL DEFAULT UND _ZN7android8hardware5radi
107:   FUNC GLOBAL DEFAULT UND _ZN7android8hardware5radi
108:   FUNC GLOBAL DEFAULT UND _ZN7android8hardware5radi
109:   FUNC GLOBAL DEFAULT UND _ZN7android8hardware5radi
110:   FUNC GLOBAL DEFAULT UND _ZN7android8hardware5radi
111:   FUNC GLOBAL DEFAULT UND _ZN7android8hardware5radi
112:   FUNC GLOBAL DEFAULT UND _ZN7android8hardware5radi
113:   FUNC GLOBAL DEFAULT UND _ZN7android8hardware5radi
114:   FUNC GLOBAL DEFAULT UND _ZN7android8hardware5radi
115:   FUNC GLOBAL DEFAULT UND _ZN7android8hardware5radi
116:   FUNC GLOBAL DEFAULT UND _ZN7android8hardware5radi
117:   FUNC GLOBAL DEFAULT UND _ZN7android8hardware5radi
118:   FUNC GLOBAL DEFAULT UND _ZN7android8hardware5radi
119:   FUNC GLOBAL DEFAULT UND _ZN7android8hardware5radi
120:   FUNC GLOBAL DEFAULT UND _ZN7android8hardware5radi
121:   FUNC GLOBAL DEFAULT UND _ZN7android8hardware5radi
122:   FUNC GLOBAL DEFAULT UND _ZN7android8hardware5radi
123:   FUNC GLOBAL DEFAULT UND _ZN7android8hardware5radi
124:   FUNC GLOBAL DEFAULT UND _ZN7android8hardware5radi
125:   FUNC GLOBAL DEFAULT UND _ZN7android8hardware5radi
126:   FUNC GLOBAL DEFAULT UND _ZN7android8hardware5radi
127:   FUNC GLOBAL DEFAULT UND _ZN7android8hardware5radi
128:   FUNC GLOBAL DEFAULT UND _ZN7android8hardware5radi
129:   FUNC GLOBAL DEFAULT UND _ZN7android8hardware5radi
130:   FUNC GLOBAL DEFAULT UND _ZN7android8hardware5radi
131:   FUNC GLOBAL DEFAULT UND _ZN7android8hardware5radi
132:   FUNC GLOBAL DEFAULT UND _ZN7android8hardware5radi
133:   FUNC GLOBAL DEFAULT UND _ZN7android8hardware5radi
134:   FUNC GLOBAL DEFAULT UND _ZN7android8hardware5radi
135:   FUNC GLOBAL DEFAULT UND _ZN7android8hardware5radi
136:   FUNC GLOBAL DEFAULT UND _ZN7android8hardware5radi
137:   FUNC GLOBAL DEFAULT UND _ZN7android8hardware5radi
138:   FUNC GLOBAL DEFAULT UND _ZN7android8hardware5radi
139:   FUNC GLOBAL DEFAULT UND _ZN7android8hardware5radi
140:   FUNC GLOBAL DEFAULT UND _ZN7android8hardware5radi
141:   FUNC GLOBAL DEFAULT UND _ZN7android8hardware5radi
142:   FUNC GLOBAL DEFAULT UND _ZN7android8hardware5radi
143:   FUNC GLOBAL DEFAULT UND _ZN7android8hardware5radi
144:   FUNC GLOBAL DEFAULT UND _ZN7android8hardware5radi
145:   FUNC GLOBAL DEFAULT UND _ZN7android8hardware5radi
146:   FUNC GLOBAL DEFAULT UND _ZN7android8hardware5radi
147:   FUNC GLOBAL DEFAULT UND _ZN7android8hardware5radi
148:   FUNC GLOBAL DEFAULT UND _ZN7android8hardware5radi
149:   FUNC GLOBAL DEFAULT UND _ZN7android8hardware5radi
150:   FUNC GLOBAL DEFAULT UND _ZN7android8hardware5radi
151:   FUNC GLOBAL DEFAULT UND _ZN7android8hardware5radi
152:   FUNC GLOBAL DEFAULT UND _ZN7android8hardware5radi
153:   FUNC GLOBAL DEFAULT UND _ZN7android8hardware5radi
154:   FUNC GLOBAL DEFAULT UND _ZN7android8hardware5radi
155:   FUNC GLOBAL DEFAULT UND _ZN7android8hardware5radi
156:   FUNC GLOBAL DEFAULT UND _ZN7android8hardware5radi
157:   FUNC GLOBAL DEFAULT UND _ZN7android8hardware5radi
158:   FUNC GLOBAL DEFAULT UND _ZN7android8hardware5radi
159:   FUNC GLOBAL DEFAULT UND _ZN7android8hardware5radi
160:   FUNC GLOBAL DEFAULT UND _ZN7android8hardware5radi
161:   FUNC GLOBAL DEFAULT UND _ZN7android8hardware5radi
162:   FUNC GLOBAL DEFAULT UND _ZN7android8hardware5radi
163:   FUNC GLOBAL DEFAULT UND _ZN7android8hardware5radi
164:   FUNC GLOBAL DEFAULT UND _ZN7android8hardware5radi
165:   FUNC GLOBAL DEFAULT UND _ZN7android8hardware5radi
166:   FUNC GLOBAL DEFAULT UND _ZN7android8hardware5radi
167:   FUNC GLOBAL DEFAULT UND _ZN7android8hardware5radi
168:   FUNC GLOBAL DEFAULT UND _ZN7android8hardware5radi
169:   FUNC GLOBAL DEFAULT UND _ZN7android8hardware5radi
170:   FUNC GLOBAL DEFAULT UND _ZN7android8hardware5radi
171:   FUNC GLOBAL DEFAULT UND _ZN7android8hardware5radi
172:   FUNC GLOBAL DEFAULT UND _ZN7android8hardware5radi
173:   FUNC GLOBAL DEFAULT UND _ZN7android8hardware5radi
174:   FUNC GLOBAL DEFAULT UND _ZN7android8hardware5radi
175:   FUNC GLOBAL DEFAULT UND _ZN7android8hardware5radi
176:   FUNC GLOBAL DEFAULT UND _ZN7android8hardware5radi
177:   FUNC GLOBAL DEFAULT UND _ZN7android8hardware5radi
178:   FUNC GLOBAL DEFAULT UND _ZN7android8hardware5radi
179:   FUNC GLOBAL DEFAULT UND _ZN7android8hardware5radi
180:   FUNC GLOBAL DEFAULT UND _ZN7android8hardware5radi
181:   FUNC GLOBAL DEFAULT UND _ZN7android8hardware5radi
182:   FUNC GLOBAL DEFAULT UND _ZN7android8hardware5radi
183:   FUNC GLOBAL DEFAULT UND _ZN7android8hardware5radi
184:   FUNC GLOBAL DEFAULT UND _ZN7android8hardware5radi
185:   FUNC GLOBAL DEFAULT UND _ZN7android8hardware5radi
186:   FUNC GLOBAL DEFAULT UND _ZN7android8hardware5radi
187:   FUNC GLOBAL DEFAULT UND _ZN7android8hardware5radi
188:   FUNC GLOBAL DEFAULT UND _ZN7android8hardware5radi
189:   FUNC GLOBAL DEFAULT UND _ZN7android8hardware5radi
190:   FUNC GLOBAL DEFAULT UND _ZN7android8hardware5radi
191:   FUNC GLOBAL DEFAULT UND _ZN7android8hardware5radi
192:   FUNC GLOBAL DEFAULT UND _ZN7android8hardware5radi
193:   FUNC GLOBAL DEFAULT UND _ZN7android8hardware5radi
194:   FUNC GLOBAL DEFAULT UND _ZN7android8hardware5radi
195:   FUNC GLOBAL DEFAULT UND _ZN7android8hardware5radi
196:   FUNC GLOBAL DEFAULT UND _ZN7android8hardware5radi
197:   FUNC GLOBAL DEFAULT UND _ZN7android8hardware5radi
198:   FUNC GLOBAL DEFAULT UND _ZN7android8hardware5radi
199:   FUNC GLOBAL DEFAULT UND _ZN7android8hardware5radi
200:   FUNC GLOBAL DEFAULT UND _ZN7android8hardware5radi
201:   FUNC GLOBAL DEFAULT UND _ZN7android8hardware5radi
202:   FUNC GLOBAL DEFAULT UND _ZN7android8hardware5radi
203:   FUNC GLOBAL DEFAULT UND _ZN7android8hardware5radi
204:   FUNC GLOBAL DEFAULT UND _ZN7android8hardware5radi
205:   FUNC GLOBAL DEFAULT UND _ZN7android8hardware5radi
206:   FUNC GLOBAL DEFAULT UND _ZN7android8hardware5radi
207:   FUNC GLOBAL DEFAULT UND _ZN7android8hardware5radi
208:   FUNC GLOBAL DEFAULT UND _ZN7android8hardware5radi
209:   FUNC GLOBAL DEFAULT UND _ZN7android8hardware5radi
210:   FUNC GLOBAL DEFAULT UND _ZN7android8hardware5radi
211:   FUNC GLOBAL DEFAULT UND _ZN7android8hardware5radi
212:   FUNC GLOBAL DEFAULT UND _ZN7android8hardware5radi
213:   FUNC GLOBAL DEFAULT UND _ZN7android8hardware5radi
214:   FUNC GLOBAL DEFAULT UND _ZN7android8hardware5radi
215:   FUNC GLOBAL DEFAULT UND _ZN7android8hardware5radi
216:   FUNC GLOBAL DEFAULT UND _ZN7android8hardware5radi
217:   FUNC GLOBAL DEFAULT UND _ZN7android8hardware5radi
218:   FUNC GLOBAL DEFAULT UND _ZN7android8hardware5radi
219:   FUNC GLOBAL DEFAULT UND _ZN7android8hardware5radi
220:   FUNC GLOBAL DEFAULT UND _ZN7android8hardware5radi
221:   FUNC GLOBAL DEFAULT UND _ZN7android8hardware5radi
222:   FUNC GLOBAL DEFAULT UND _ZN7android8hardware5radi
223:   FUNC GLOBAL DEFAULT UND _ZN7android8hardware5radi
224:   FUNC GLOBAL DEFAULT UND _ZN7android8hardware5radi
225:   FUNC GLOBAL DEFAULT UND _ZN7android8hardware5radi
226:   FUNC GLOBAL DEFAULT UND _ZN7android8hardware5radi
227:   FUNC GLOBAL DEFAULT UND _ZN7android8hardware5radi
228:   FUNC GLOBAL DEFAULT UND _ZN7android8hardware5radi
229:   FUNC GLOBAL DEFAULT UND _ZN7android8hardware5radi
230:   FUNC GLOBAL DEFAULT UND _ZN7android8hardware5radi
231:   FUNC GLOBAL DEFAULT UND _ZN7android8hardware5radi
232:   FUNC GLOBAL DEFAULT UND _ZN7android8hardware5radi
233:   FUNC GLOBAL DEFAULT UND _ZN7android8hardware5radi
234:   FUNC GLOBAL DEFAULT UND _ZN7android8hardware5radi
235:   FUNC GLOBAL DEFAULT UND _ZN7android8hardware5radi
236:   FUNC GLOBAL DEFAULT UND _ZN7android8hardware5radi
237:   FUNC GLOBAL DEFAULT UND _ZN7android8hardware5radi
238:   FUNC GLOBAL DEFAULT UND _ZN7android8hardware5radi
239:   FUNC GLOBAL DEFAULT UND _ZN7android8hardware5radi
240:   FUNC GLOBAL DEFAULT UND _ZN7android8hardware5radi
241:   FUNC GLOBAL DEFAULT UND _ZN7android8hardware5radi
242:   FUNC GLOBAL DEFAULT UND _ZN7android8hardware5radi
243:   FUNC GLOBAL DEFAULT UND _ZN7android8hardware5radi
244:   FUNC GLOBAL DEFAULT UND _ZN7android8hardware5radi
245:   FUNC GLOBAL DEFAULT UND _ZN7android8hardware5radi
246:   FUNC GLOBAL DEFAULT UND _ZN7android8hardware5radi
247:   FUNC GLOBAL DEFAULT UND _ZN7android8hardware5radi
248:   FUNC GLOBAL DEFAULT UND _ZN7android8hardware5radi
249:   FUNC GLOBAL DEFAULT UND _ZN7android8hardware5radi
250:   FUNC GLOBAL DEFAULT UND _ZN7android8hardware5radi
251:   FUNC GLOBAL DEFAULT UND _ZN7android8hardware5radi
252:   FUNC GLOBAL DEFAULT UND _ZN7android8hardware5radi
253:   FUNC GLOBAL DEFAULT UND _ZN7android8hardware5radi
254:   FUNC GLOBAL DEFAULT UND _ZN7android8hardware5radi
255:   FUNC GLOBAL DEFAULT UND _ZN7android8hardware5radi
256:   FUNC GLOBAL DEFAULT UND _ZN7android8hardware5radi
257:   FUNC GLOBAL DEFAULT UND _ZN7android8hardware5radi
258:   FUNC GLOBAL DEFAULT UND _ZN7android8hardware5radi
259:   FUNC GLOBAL DEFAULT UND _ZN7android8hardware5radi
260:   FUNC GLOBAL DEFAULT UND _ZN7android8hardware5radi
261:   FUNC GLOBAL DEFAULT UND _ZN7android8hardware5radi
262:   FUNC GLOBAL DEFAULT UND _ZN7android8hardware5radi
263:   FUNC GLOBAL DEFAULT UND _ZN7android8hardware5radi
264:   FUNC GLOBAL DEFAULT UND _ZN7android8hardware5radi
265:   FUNC GLOBAL DEFAULT UND _ZN7android8hardware5radi
266:   FUNC GLOBAL DEFAULT UND _ZN7android8hardware5radi
267:   FUNC GLOBAL DEFAULT UND _ZN7android8hardware5radi
268:   FUNC GLOBAL DEFAULT UND _ZN7android8hardware5radi
269:   FUNC GLOBAL DEFAULT UND _ZN7android8hardware5radi
270:   FUNC GLOBAL DEFAULT UND _ZN7android8hardware5radi
271:   FUNC GLOBAL DEFAULT UND _ZN7android8hardware5radi
272:   FUNC GLOBAL DEFAULT UND _ZN7android8hardware5radi
273:   FUNC GLOBAL DEFAULT UND _ZN7android8hardware5radi
274:   FUNC GLOBAL DEFAULT UND _ZN7android8hardware5radi
275:   FUNC GLOBAL DEFAULT UND _ZN7android8hardware5radi
276:   FUNC GLOBAL DEFAULT UND _ZN7android8hardware5radi
277:   FUNC GLOBAL DEFAULT UND _ZN7android8hardware5radi
278:   FUNC GLOBAL DEFAULT UND _ZN7android8hardware5radi
279:   FUNC GLOBAL DEFAULT UND _ZN7android8hardware5radi
280:   FUNC GLOBAL DEFAULT UND _ZN7android8hardware5radi
281:   FUNC GLOBAL DEFAULT UND _ZN7android8hardware5radi
282:   FUNC GLOBAL DEFAULT UND _ZN7android8hardware5radi
283:   FUNC GLOBAL DEFAULT UND _ZN7android8hardware5radi
284:   FUNC GLOBAL DEFAULT UND _ZN7android8hardware5radi
285:   FUNC GLOBAL DEFAULT UND _ZN7android8hardware5radi
286:   FUNC GLOBAL DEFAULT UND _ZN7android8hardware5radi
287:   FUNC GLOBAL DEFAULT UND _ZN7android8hardware5radi
288:   FUNC GLOBAL DEFAULT UND _ZN7android8hardware5radi
289:   FUNC GLOBAL DEFAULT UND _ZN7android8hardware5radi
290:   FUNC GLOBAL DEFAULT UND _ZN7android8hardware5radi
291:   FUNC GLOBAL DEFAULT UND _ZN7android8hardware5radi
292:   FUNC GLOBAL DEFAULT UND _ZN7android8hardware5radi
293:   FUNC GLOBAL DEFAULT UND _ZN7android8hardware5radi
294:   FUNC GLOBAL DEFAULT UND _ZN7android8hardware5radi
295:   FUNC GLOBAL DEFAULT UND _ZN7android8hardware5radi
296:   FUNC GLOBAL DEFAULT UND _ZN7android8hardware5radi
297:   FUNC GLOBAL DEFAULT UND _ZN7android8hardware5radi
298:   FUNC GLOBAL DEFAULT UND _ZN7android8hardware5radi
299:   FUNC GLOBAL DEFAULT UND _ZN7android8hardware5radi
300:   FUNC GLOBAL DEFAULT UND _ZN7android8hardware5radi
301:   FUNC GLOBAL DEFAULT UND _ZN7android8hardware5radi
302:   FUNC GLOBAL DEFAULT UND _ZN7android8hardware5radi
303:   FUNC GLOBAL DEFAULT UND _ZN7android8hardware5radi
304:   FUNC GLOBAL DEFAULT UND _ZN7android8hardware5radi
305:   FUNC GLOBAL DEFAULT UND _ZN7android8hardware5radi
306:   FUNC GLOBAL DEFAULT UND _ZN7android8hardware5radi
307:   FUNC GLOBAL DEFAULT UND _ZN7android8hardware5radi
308:   FUNC GLOBAL DEFAULT UND _ZN7android8hardware5radi
309:   FUNC GLOBAL DEFAULT UND _ZN7android8hardware5radi
310:   FUNC GLOBAL DEFAULT UND _ZN7android8hardware5radi
311:   FUNC GLOBAL DEFAULT UND _ZN7android8hardware5radi
312:   FUNC GLOBAL DEFAULT UND _ZN7android8hardware5radi
313:   FUNC GLOBAL DEFAULT UND _ZN7android8hardware5radi
314:   FUNC GLOBAL DEFAULT UND _ZN7android8hardware5radi
315:   FUNC GLOBAL DEFAULT UND _ZN7android8hardware5radi
316:   FUNC GLOBAL DEFAULT UND _ZN7android8hardware5radi
317:   FUNC GLOBAL DEFAULT UND _ZN7android8hardware5radi
318:   FUNC GLOBAL DEFAULT UND _ZN7android8hardware5radi
319:   FUNC GLOBAL DEFAULT UND _ZN7android8hardware5radi
320:   FUNC GLOBAL DEFAULT UND _ZN7android8hardware5radi
321:   FUNC GLOBAL DEFAULT UND _ZN7android8hardware5radi
322:   FUNC GLOBAL DEFAULT UND _ZN7android8hardware5radi
323:   FUNC GLOBAL DEFAULT UND _ZN7android8hardware5radi
324:   FUNC GLOBAL DEFAULT UND _ZN7android8hardware5radi
325:   FUNC GLOBAL DEFAULT UND _ZN7android8hardware5radi
326:   FUNC GLOBAL DEFAULT UND _ZN7android8hardware5radi
327:   FUNC GLOBAL DEFAULT UND _ZN7android8hardware5radi
328:   FUNC GLOBAL DEFAULT UND _ZN7android8hardware5radi
329:   FUNC GLOBAL DEFAULT UND _ZN7android8hardware5radi
330:   FUNC GLOBAL DEFAULT UND _ZN7android8hardware5radi
331:   FUNC GLOBAL DEFAULT UND _ZN7android8hardware5radi
332:   FUNC GLOBAL DEFAULT UND _ZN7android8hardware5radi
333:   FUNC GLOBAL DEFAULT UND _ZN7android8hardware5radi
334:   FUNC GLOBAL DEFAULT UND _ZN7android8hardware5radi
335:   OBJECT GLOBAL DEFAULT UND _ZN7android8hardware5radi
336:   FUNC GLOBAL DEFAULT UND _ZN7android8hardware5radi
337:   FUNC GLOBAL DEFAULT UND _ZN7android8hardware5radi
338:   FUNC GLOBAL DEFAULT UND _ZN7android8hardware5radi
339:   FUNC GLOBAL DEFAULT UND _ZN7android8hardware5radi
340:   FUNC GLOBAL DEFAULT UND _ZN7android8hardware5radi
341:   FUNC GLOBAL DEFAULT UND _ZN7android8hardware5radi
342:   FUNC GLOBAL DEFAULT UND _ZN7android8hardware5radi
343:   FUNC GLOBAL DEFAULT UND _ZN7android8hardware5radi
344:   FUNC GLOBAL DEFAULT UND _ZN7android8hardware5radi
345:   FUNC GLOBAL DEFAULT UND _ZN7android8hardware5radi
346:   FUNC GLOBAL DEFAULT UND _ZN7android8hardware5radi
347:   FUNC GLOBAL DEFAULT UND _ZN7android8hardware5radi
348:   FUNC GLOBAL DEFAULT UND _ZN7android8hardware5radi
349:   FUNC GLOBAL DEFAULT UND _ZN7android8hardware5radi
350:   FUNC GLOBAL DEFAULT UND _ZN7android8hardware5radi
351:   FUNC GLOBAL DEFAULT UND _ZN7android8hardware5radi
352:   FUNC GLOBAL DEFAULT UND _ZN7android8hardware5radi
353:   FUNC GLOBAL DEFAULT UND _ZN7android8hardware5radi
354:   FUNC GLOBAL DEFAULT UND _ZN7android8hardware5radi
355:   FUNC GLOBAL DEFAULT UND _ZN7android8hardware5radi
356:   FUNC GLOBAL DEFAULT UND _ZN7android8hardware5radi
357:   FUNC GLOBAL DEFAULT UND _ZN7android8hardware5radi
358:   FUNC GLOBAL DEFAULT UND _ZN7android8hardware6Parc
359:   FUNC GLOBAL DEFAULT UND _ZN7android8hardware6Parc
360:   FUNC GLOBAL DEFAULT UND _ZN7android8hardware6Parc
361:   FUNC GLOBAL DEFAULT UND _ZN7android8hardware6Parc
362:   FUNC GLOBAL DEFAULT UND _ZN7android8hardware6Parc
363:   FUNC GLOBAL DEFAULT UND _ZN7android8hardware6Parc
364:   FUNC GLOBAL DEFAULT UND _ZN7android8hardware6Parc
365:   FUNC GLOBAL DEFAULT UND _ZN7android8hardware6Stat
366:   FUNC GLOBAL DEFAULT UND _ZN7android8hardware6Stat
367:   FUNC GLOBAL DEFAULT UND _ZN7android8hardware6Stat
368:   FUNC GLOBAL DEFAULT UND _ZN7android8hardware6Stat
369:   FUNC GLOBAL DEFAULT UND _ZN7android8hardware7IBin
370:   FUNC GLOBAL DEFAULT UND _ZN7android8hardware7IBin
371:   FUNC GLOBAL DEFAULT UND _ZN7android8hardware7IBin
372:   FUNC GLOBAL DEFAULT UND _ZN7android8hardware7IBin
373:   FUNC GLOBAL DEFAULT UND _ZN7android8hardware7deta
374:   FUNC GLOBAL DEFAULT UND _ZN7android8hardware7deta
375:   FUNC GLOBAL DEFAULT UND _ZN7android8hardware7deta
376:   FUNC GLOBAL DEFAULT UND _ZN7android8hardware7deta
377:   FUNC GLOBAL DEFAULT UND _ZN7android8hardware7deta
378:   FUNC GLOBAL DEFAULT UND _ZN7android8hardware7deta
379:   FUNC GLOBAL DEFAULT UND _ZN7android8hardware7deta
380:   OBJECT GLOBAL DEFAULT UND _ZN7android8hardware7deta
381:   OBJECT GLOBAL DEFAULT UND _ZN7android8hardware7deta
382:   FUNC GLOBAL DEFAULT UND _ZN7android8hardware7deta
383:   FUNC GLOBAL DEFAULT UND _ZN7android8hardware7deta
384:   FUNC GLOBAL DEFAULT UND _ZN7android8hardware7deta
385:   FUNC GLOBAL DEFAULT UND _ZN7android8hardware7deta
386:   FUNC GLOBAL DEFAULT UND _ZN7android8hardware7deta
387:   FUNC GLOBAL DEFAULT UND _ZN7android8hardware7deta
388:   FUNC GLOBAL DEFAULT UND _ZN7android8hardware7deta
389:   FUNC GLOBAL DEFAULT UND _ZN7android8hardware7deta
390:   FUNC GLOBAL DEFAULT UND _ZN7android8hardware7deta
391:   FUNC GLOBAL DEFAULT UND _ZN7android8hardware7deta
392:   OBJECT GLOBAL DEFAULT UND _ZN7android8hardware7deta
393:   FUNC GLOBAL DEFAULT UND _ZN7android8hardware9BHwB
394:   FUNC GLOBAL DEFAULT UND _ZN7android8hardware9BHwB
395:   FUNC GLOBAL DEFAULT UND _ZN7android8hardware9BHwB
396:   FUNC GLOBAL DEFAULT UND _ZN7android8hardware9BHwB
397:   FUNC GLOBAL DEFAULT UND _ZN7android8hardware9BHwB
398:   FUNC GLOBAL DEFAULT UND _ZN7android8hardware9BHwB
399:   FUNC GLOBAL DEFAULT UND _ZN7android8hardware9BHwB
400:   FUNC GLOBAL DEFAULT UND _ZN7android8hardware9BHwB
401:   FUNC GLOBAL DEFAULT UND _ZN7android8hardware9BHwB
402:   FUNC GLOBAL DEFAULT UND _ZN7android8hardware9BHwB
403:   FUNC GLOBAL DEFAULT UND _ZNK7android7RefBase10cre
404:   FUNC GLOBAL DEFAULT UND _ZNK7android7RefBase11get
405:   FUNC GLOBAL DEFAULT UND _ZNK7android7RefBase9decS
406:   FUNC GLOBAL DEFAULT UND _ZNK7android7RefBase9incS
407:   FUNC GLOBAL DEFAULT UND _ZNK7android8hardware6Par
408:   FUNC GLOBAL DEFAULT UND _ZNK7android8hardware6Par
409:   FUNC GLOBAL DEFAULT UND _ZNK7android8hardware6Par
410:   FUNC GLOBAL DEFAULT UND _ZNK7android8hardware6Par
411:   FUNC GLOBAL DEFAULT UND _ZNK7android8hardware6Par
412:   FUNC GLOBAL DEFAULT UND _ZNK7android8hardware7IBi
413:   FUNC GLOBAL DEFAULT UND _ZNK7android8hardware7det
414:   FUNC GLOBAL DEFAULT UND _ZNK7android8hardware9BHw
415:   FUNC GLOBAL DEFAULT UND _ZNKSt3__120__vector_base
416:   FUNC GLOBAL DEFAULT UND _ZNKSt3__121__basic_strin
417:   FUNC GLOBAL DEFAULT UND _ZNSt3__112basic_stringIc
418:   FUNC GLOBAL DEFAULT UND _ZNSt3__15mutex4lockEv
419:   FUNC GLOBAL DEFAULT UND _ZNSt3__15mutex6unlockEv
420:   FUNC GLOBAL DEFAULT UND _ZNSt3__15mutexD1Ev
421:   FUNC GLOBAL DEFAULT UND _ZTv0_n12_N7android4hidl4
422:   FUNC GLOBAL DEFAULT UND _ZTv0_n12_N7android4hidl4
423:   FUNC GLOBAL DEFAULT UND _ZTv0_n12_N7android8hardw
424:   FUNC GLOBAL DEFAULT UND _ZTv0_n12_N7android8hardw
425:   FUNC GLOBAL DEFAULT UND _ZTv0_n12_N7android8hardw
426:   FUNC GLOBAL DEFAULT UND _ZTv0_n12_N7android8hardw
427:   FUNC GLOBAL DEFAULT UND _ZTv0_n12_N7android8hardw
428:   FUNC GLOBAL DEFAULT UND _ZTv0_n12_N7android8hardw
429:   FUNC GLOBAL DEFAULT UND _ZTv0_n12_N7android8hardw
430:   FUNC GLOBAL DEFAULT UND _ZTv0_n12_N7android8hardw
431:   FUNC GLOBAL DEFAULT UND _ZTv0_n16_N7android8hardw
432:   FUNC GLOBAL DEFAULT UND _ZTv0_n20_N7android8hardw
433:   FUNC GLOBAL DEFAULT UND _ZTv0_n24_N7android8hardw
434:   FUNC GLOBAL DEFAULT UND _ZdaPv
435:   FUNC GLOBAL DEFAULT UND _ZdlPv
436:   FUNC GLOBAL DEFAULT UND _Znaj
437:   FUNC GLOBAL DEFAULT UND _Znwj
438:   FUNC GLOBAL DEFAULT UND __cxa_pure_virtual
439:   FUNC GLOBAL DEFAULT UND __stack_chk_fail@LIBC (2)
440:   OBJECT GLOBAL DEFAULT UND __stack_chk_guard@LIBC (2)
441:   FUNC GLOBAL DEFAULT UND abort@LIBC (2)
442:   FUNC GLOBAL DEFAULT UND atrace_begin_body
443:   OBJECT GLOBAL DEFAULT UND atrace_enabled_tags
444:   FUNC GLOBAL DEFAULT UND atrace_end_body
445:   OBJECT GLOBAL DEFAULT UND atrace_is_ready
446:   FUNC GLOBAL DEFAULT UND atrace_setup
447:   FUNC GLOBAL DEFAULT UND memcmp@LIBC (2)
448:   FUNC GLOBAL DEFAULT UND strlen@LIBC (2)
449:   OBJECT GLOBAL DEFAULT UND _ZN7android8hardware5radi
450:   FUNC GLOBAL DEFAULT UND _ZN7android8hardware5radi
451:   FUNC GLOBAL DEFAULT UND _ZN7android8hardware5radi
452:   FUNC GLOBAL DEFAULT UND _ZN7android8hardware5radi
453:   FUNC GLOBAL DEFAULT UND _ZN7android8hardware5radi
454:   FUNC GLOBAL DEFAULT UND _ZN7android8hardware5radi
455:   FUNC GLOBAL DEFAULT UND _ZN7android8hardware5radi
456:   FUNC GLOBAL DEFAULT UND _ZN7android8hardware5radi
457:   FUNC GLOBAL DEFAULT UND _ZN7android8hardware5radi
458:   FUNC GLOBAL DEFAULT UND _ZN7android8hardware5radi
459:   FUNC GLOBAL DEFAULT UND _ZN7android8hardware5radi
460:   FUNC GLOBAL DEFAULT UND _ZN7android8hardware5radi
461:   FUNC GLOBAL DEFAULT UND _ZN7android8hardware5radi
462:   FUNC GLOBAL DEFAULT UND _ZN7android8hardware5radi
463:   FUNC GLOBAL DEFAULT UND _ZN7android8hardware5radi
464:   FUNC GLOBAL DEFAULT UND _ZN7android8hardware5radi
465:   FUNC GLOBAL DEFAULT UND _ZN7android8hardware5radi
466:   FUNC GLOBAL DEFAULT UND _ZN7android8hardware5radi
467:   FUNC GLOBAL DEFAULT UND _ZN7android8hardware5radi
468:   FUNC GLOBAL DEFAULT UND _ZN7android8hardware5radi
469:   FUNC GLOBAL DEFAULT UND _ZN7android8hardware5radi
470:   FUNC GLOBAL DEFAULT UND _ZN7android8hardware5radi
471:   FUNC GLOBAL DEFAULT UND _ZN7android8hardware5radi
472:   FUNC GLOBAL DEFAULT UND _ZN7android8hardware5radi
473:   FUNC GLOBAL DEFAULT UND _ZN7android8hardware5radi
474:   FUNC GLOBAL DEFAULT UND _ZN7android8hardware5radi
475:   FUNC GLOBAL DEFAULT UND _ZN7android8hardware5radi
476:   FUNC GLOBAL DEFAULT UND _ZN7android8hardware5radi
477:   FUNC GLOBAL DEFAULT UND _ZN7android8hardware5radi
478:   FUNC GLOBAL DEFAULT UND _ZN7android8hardware5radi
479:   FUNC GLOBAL DEFAULT UND _ZN7android8hardware5radi
480:   FUNC GLOBAL DEFAULT UND _ZN7android8hardware5radi
481:   FUNC GLOBAL DEFAULT UND _ZN7android8hardware5radi
482:   FUNC GLOBAL DEFAULT UND _ZN7android8hardware5radi
483:   FUNC GLOBAL DEFAULT UND _ZN7android8hardware5radi
484:   FUNC GLOBAL DEFAULT UND _ZN7android8hardware5radi
485:   FUNC GLOBAL DEFAULT UND _ZN7android8hardware5radi
486:   FUNC GLOBAL DEFAULT UND _ZN7android8hardware5radi
487:   FUNC GLOBAL DEFAULT UND _ZN7android8hardware5radi
488:   FUNC GLOBAL DEFAULT UND _ZN7android8hardware5radi
489:   FUNC GLOBAL DEFAULT UND _ZN7android8hardware5radi
490:   FUNC GLOBAL DEFAULT UND _ZN7android8hardware5radi
491:   FUNC GLOBAL DEFAULT UND _ZN7android8hardware5radi
492:   FUNC GLOBAL DEFAULT UND _ZN7android8hardware5radi
493:   FUNC GLOBAL DEFAULT UND _ZN7android8hardware5radi
494:   FUNC GLOBAL DEFAULT UND _ZN7android8hardware5radi
495:   FUNC GLOBAL DEFAULT UND _ZN7android8hardware5radi
496:   FUNC GLOBAL DEFAULT UND _ZN7android8hardware5radi
497:   FUNC GLOBAL DEFAULT UND _ZN7android8hardware5radi
498:   FUNC GLOBAL DEFAULT UND _ZN7android8hardware5radi
499:   FUNC GLOBAL DEFAULT UND _ZN7android8hardware5radi
500:   FUNC GLOBAL DEFAULT UND _ZN7android8hardware5radi
501:   FUNC GLOBAL DEFAULT UND _ZN7android8hardware5radi
502:   FUNC GLOBAL DEFAULT UND _ZN7android8hardware5radi
503:   FUNC GLOBAL DEFAULT UND _ZN7android8hardware5radi
504:   FUNC GLOBAL DEFAULT UND _ZN7android8hardware5radi
505:   FUNC GLOBAL DEFAULT UND _ZN7android8hardware5radi
506:   FUNC GLOBAL DEFAULT UND _ZN7android8hardware5radi
507:   FUNC GLOBAL DEFAULT UND _ZN7android8hardware5radi
508:   FUNC GLOBAL DEFAULT UND _ZN7android8hardware5radi
509:   FUNC GLOBAL DEFAULT UND _ZN7android8hardware5radi
510:   FUNC GLOBAL DEFAULT UND _ZN7android8hardware5radi
511:   FUNC GLOBAL DEFAULT UND _ZN7android8hardware5radi
512:   FUNC GLOBAL DEFAULT UND _ZN7android8hardware5radi
513:   FUNC GLOBAL DEFAULT UND _ZN7android8hardware5radi
514:   FUNC GLOBAL DEFAULT UND _ZN7android8hardware5radi
515:   FUNC GLOBAL DEFAULT UND _ZN7android8hardware5radi
516:   FUNC GLOBAL DEFAULT UND _ZN7android8hardware5radi
517:   FUNC GLOBAL DEFAULT UND _ZN7android8hardware5radi
518:   FUNC GLOBAL DEFAULT UND _ZN7android8hardware5radi
519:   FUNC GLOBAL DEFAULT UND _ZN7android8hardware5radi
520:   FUNC GLOBAL DEFAULT UND _ZN7android8hardware5radi
521:   FUNC GLOBAL DEFAULT UND _ZN7android8hardware5radi
522:   FUNC GLOBAL DEFAULT UND _ZN7android8hardware5radi
523:   FUNC GLOBAL DEFAULT UND _ZN7android8hardware5radi
524:   FUNC GLOBAL DEFAULT UND _ZN7android8hardware5radi
525:   FUNC GLOBAL DEFAULT UND _ZN7android8hardware5radi
526:   FUNC GLOBAL DEFAULT UND _ZN7android8hardware5radi
527:   FUNC GLOBAL DEFAULT UND _ZN7android8hardware5radi
528:   FUNC GLOBAL DEFAULT UND _ZN7android8hardware5radi
529:   FUNC GLOBAL DEFAULT UND _ZN7android8hardware5radi
530:   FUNC GLOBAL DEFAULT UND _ZN7android8hardware5radi
531:   FUNC GLOBAL DEFAULT UND _ZN7android8hardware5radi
532:   FUNC GLOBAL DEFAULT UND _ZN7android8hardware5radi
533:   FUNC GLOBAL DEFAULT UND _ZN7android8hardware5radi
534:   FUNC GLOBAL DEFAULT UND _ZN7android8hardware5radi
535:   FUNC GLOBAL DEFAULT UND _ZN7android8hardware5radi
536:   FUNC GLOBAL DEFAULT UND _ZN7android8hardware5radi
537:   FUNC GLOBAL DEFAULT UND _ZN7android8hardware5radi
538:   FUNC GLOBAL DEFAULT UND _ZN7android8hardware5radi
539:   FUNC GLOBAL DEFAULT UND _ZN7android8hardware5radi
540:   FUNC GLOBAL DEFAULT UND _ZN7android8hardware5radi
541:   FUNC GLOBAL DEFAULT UND _ZN7android8hardware5radi
542:   FUNC GLOBAL DEFAULT UND _ZN7android8hardware5radi
543:   FUNC GLOBAL DEFAULT UND _ZN7android8hardware5radi
544:   FUNC GLOBAL DEFAULT UND _ZN7android8hardware5radi
545:   FUNC GLOBAL DEFAULT UND _ZN7android8hardware5radi
546:   FUNC GLOBAL DEFAULT UND _ZN7android8hardware5radi
547:   FUNC GLOBAL DEFAULT UND _ZN7android8hardware5radi
548:   FUNC GLOBAL DEFAULT UND _ZN7android8hardware5radi
549:   FUNC GLOBAL DEFAULT UND _ZN7android8hardware5radi
550:   OBJECT GLOBAL DEFAULT UND _ZN7android8hardware5radi
551:   FUNC GLOBAL DEFAULT UND _ZN7android8hardware5radi
552:   FUNC GLOBAL DEFAULT UND _ZN7android8hardware5radi
553:   FUNC GLOBAL DEFAULT UND _ZN7android8hardware5radi
554:   FUNC GLOBAL DEFAULT UND _ZN7android8hardware5radi
555:   FUNC GLOBAL DEFAULT UND _ZN7android8hardware5radi
556:   FUNC GLOBAL DEFAULT UND _ZN7android8hardware5radi
557:   FUNC GLOBAL DEFAULT UND _ZN7android8hardware5radi
558:   FUNC GLOBAL DEFAULT UND _ZN7android8hardware5radi
559:   FUNC GLOBAL DEFAULT UND _ZN7android8hardware5radi
560:   FUNC GLOBAL DEFAULT UND _ZN7android8hardware5radi
561:   FUNC GLOBAL DEFAULT UND _ZN7android8hardware5radi
562:   FUNC GLOBAL DEFAULT UND _ZN7android8hardware5radi
563:   FUNC GLOBAL DEFAULT UND _ZN7android8hardware5radi
564:   FUNC GLOBAL DEFAULT UND _ZN7android8hardware5radi
565:   FUNC GLOBAL DEFAULT UND _ZN7android8hardware5radi
566:   FUNC GLOBAL DEFAULT UND _ZN7android8hardware5radi
567:   OBJECT GLOBAL DEFAULT UND _ZN7android8hardware5radi
568:   FUNC GLOBAL DEFAULT UND _ZN7android8hardware5radi
569:   FUNC GLOBAL DEFAULT UND _ZN7android8hardware5radi
570:   FUNC GLOBAL DEFAULT UND _ZN7android8hardware5radi
571:   FUNC GLOBAL DEFAULT UND _ZN7android8hardware5radi
572:   FUNC GLOBAL DEFAULT UND _ZN7android8hardware5radi
573:   FUNC GLOBAL DEFAULT UND _ZN7android8hardware5radi
574:   FUNC GLOBAL DEFAULT UND _ZN7android8hardware5radi
575:   FUNC GLOBAL DEFAULT UND _ZN7android8hardware5radi
576:   FUNC GLOBAL DEFAULT UND _ZN7android8hardware5radi
577:   FUNC GLOBAL DEFAULT UND _ZN7android8hardware5radi
578:   FUNC GLOBAL DEFAULT UND _ZN7android8hardware5radi
579:   FUNC GLOBAL DEFAULT UND _ZN7android8hardware5radi
580:   FUNC GLOBAL DEFAULT UND _ZN7android8hardware5radi
581:   FUNC GLOBAL DEFAULT UND _ZN7android8hardware5radi
582:   FUNC GLOBAL DEFAULT UND _ZN7android8hardware5radi
583:   FUNC GLOBAL DEFAULT UND _ZN7android8hardware5radi
584:   FUNC GLOBAL DEFAULT UND _ZN7android8hardware5radi
585:   FUNC GLOBAL DEFAULT UND _ZN7android8hardware5radi
586:   FUNC GLOBAL DEFAULT UND _ZN7android8hardware5radi
587:   FUNC GLOBAL DEFAULT UND _ZN7android8hardware5radi
588:   FUNC GLOBAL DEFAULT UND _ZN7android8hardware5radi
589:   FUNC GLOBAL DEFAULT UND _ZN7android8hardware5radi
590:   FUNC GLOBAL DEFAULT UND _ZN7android8hardware5radi
591:   FUNC GLOBAL DEFAULT UND _ZN7android8hardware5radi
592:   FUNC GLOBAL DEFAULT UND _ZN7android8hardware5radi
593:   FUNC GLOBAL DEFAULT UND _ZN7android8hardware5radi
594:   FUNC GLOBAL DEFAULT UND _ZN7android8hardware5radi
595:   FUNC GLOBAL DEFAULT UND _ZN7android8hardware5radi
596:   FUNC GLOBAL DEFAULT UND _ZN7android8hardware5radi
597:   FUNC GLOBAL DEFAULT UND _ZN7android8hardware5radi
598:   FUNC GLOBAL DEFAULT UND _ZN7android8hardware5radi
599:   FUNC GLOBAL DEFAULT UND _ZN7android8hardware5radi
600:   FUNC GLOBAL DEFAULT UND _ZN7android8hardware5radi
601:   FUNC GLOBAL DEFAULT UND _ZN7android8hardware5radi
602:   FUNC GLOBAL DEFAULT UND _ZN7android8hardware5radi
603:   FUNC GLOBAL DEFAULT UND _ZN7android8hardware5radi
604:   FUNC GLOBAL DEFAULT UND _ZN7android8hardware5radi
605:   FUNC GLOBAL DEFAULT UND _ZN7android8hardware5radi
606:   FUNC GLOBAL DEFAULT UND _ZN7android8hardware5radi
607:   FUNC GLOBAL DEFAULT UND _ZN7android8hardware5radi
608:   FUNC GLOBAL DEFAULT UND _ZN7android8hardware5radi
609:   FUNC GLOBAL DEFAULT UND _ZN7android8hardware5radi
610:   FUNC GLOBAL DEFAULT UND _ZN7android8hardware5radi
611:   FUNC GLOBAL DEFAULT UND _ZN7android8hardware5radi
612:   FUNC GLOBAL DEFAULT UND _ZN7android8hardware5radi
613:   FUNC GLOBAL DEFAULT UND _ZN7android8hardware5radi
614:   FUNC GLOBAL DEFAULT UND _ZN7android8hardware5radi
615:   FUNC GLOBAL DEFAULT UND _ZN7android8hardware5radi
616:   FUNC GLOBAL DEFAULT UND _ZN7android8hardware5radi
617:   FUNC GLOBAL DEFAULT UND _ZN7android8hardware5radi
618:   FUNC GLOBAL DEFAULT UND _ZN7android8hardware5radi
619:   FUNC GLOBAL DEFAULT UND _ZN7android8hardware5radi
620:   FUNC GLOBAL DEFAULT UND _ZN7android8hardware5radi
621:   FUNC GLOBAL DEFAULT UND _ZN7android8hardware5radi
622:   FUNC GLOBAL DEFAULT UND _ZN7android8hardware5radi
623:   FUNC GLOBAL DEFAULT UND _ZN7android8hardware5radi
624:   FUNC GLOBAL DEFAULT UND _ZN7android8hardware5radi
625:   FUNC GLOBAL DEFAULT UND _ZN7android8hardware5radi
626:   FUNC GLOBAL DEFAULT UND _ZN7android8hardware5radi
627:   FUNC GLOBAL DEFAULT UND _ZN7android8hardware5radi
628:   FUNC GLOBAL DEFAULT UND _ZN7android8hardware5radi
629:   FUNC GLOBAL DEFAULT UND _ZN7android8hardware5radi
630:   FUNC GLOBAL DEFAULT UND _ZN7android8hardware5radi
631:   FUNC GLOBAL DEFAULT UND _ZN7android8hardware5radi
632:   FUNC GLOBAL DEFAULT UND _ZN7android8hardware5radi
633:   FUNC GLOBAL DEFAULT UND _ZN7android8hardware5radi
634:   FUNC GLOBAL DEFAULT UND _ZN7android8hardware5radi
635:   FUNC GLOBAL DEFAULT UND _ZN7android8hardware5radi
636:   FUNC GLOBAL DEFAULT UND _ZN7android8hardware5radi
637:   FUNC GLOBAL DEFAULT UND _ZN7android8hardware5radi
638:   FUNC GLOBAL DEFAULT UND _ZN7android8hardware5radi
639:   FUNC GLOBAL DEFAULT UND _ZN7android8hardware5radi
640:   FUNC GLOBAL DEFAULT UND _ZN7android8hardware5radi
641:   FUNC GLOBAL DEFAULT UND _ZN7android8hardware5radi
642:   FUNC GLOBAL DEFAULT UND _ZN7android8hardware5radi
643:   FUNC GLOBAL DEFAULT UND _ZN7android8hardware5radi
644:   FUNC GLOBAL DEFAULT UND _ZN7android8hardware5radi
645:   FUNC GLOBAL DEFAULT UND _ZN7android8hardware5radi
646:   FUNC GLOBAL DEFAULT UND _ZN7android8hardware5radi
647:   FUNC GLOBAL DEFAULT UND _ZN7android8hardware5radi
648:   FUNC GLOBAL DEFAULT UND _ZN7android8hardware5radi
649:   FUNC GLOBAL DEFAULT UND _ZN7android8hardware5radi
650:   FUNC GLOBAL DEFAULT UND _ZN7android8hardware5radi
651:   FUNC GLOBAL DEFAULT UND _ZN7android8hardware5radi
652:   FUNC GLOBAL DEFAULT UND _ZN7android8hardware5radi
653:   FUNC GLOBAL DEFAULT UND _ZN7android8hardware5radi
654:   FUNC GLOBAL DEFAULT UND _ZN7android8hardware5radi
655:   FUNC GLOBAL DEFAULT UND _ZN7android8hardware5radi
656:   FUNC GLOBAL DEFAULT UND _ZN7android8hardware5radi
657:   FUNC GLOBAL DEFAULT UND _ZN7android8hardware5radi
658:   FUNC GLOBAL DEFAULT UND _ZN7android8hardware5radi
659:   FUNC GLOBAL DEFAULT UND _ZN7android8hardware5radi
660:   FUNC GLOBAL DEFAULT UND _ZN7android8hardware5radi
661:   FUNC GLOBAL DEFAULT UND _ZN7android8hardware5radi
662:   FUNC GLOBAL DEFAULT UND _ZN7android8hardware5radi
663:   FUNC GLOBAL DEFAULT UND _ZN7android8hardware5radi
664:   FUNC GLOBAL DEFAULT UND _ZN7android8hardware5radi
665:   FUNC GLOBAL DEFAULT UND _ZN7android8hardware5radi
666:   FUNC GLOBAL DEFAULT UND _ZN7android8hardware5radi
667:   FUNC GLOBAL DEFAULT UND _ZN7android8hardware5radi
668:   FUNC GLOBAL DEFAULT UND _ZN7android8hardware5radi
669:   FUNC GLOBAL DEFAULT UND _ZN7android8hardware5radi
670:   FUNC GLOBAL DEFAULT UND _ZN7android8hardware5radi
671:   FUNC GLOBAL DEFAULT UND _ZN7android8hardware5radi
672:   FUNC GLOBAL DEFAULT UND _ZN7android8hardware5radi
673:   FUNC GLOBAL DEFAULT UND _ZN7android8hardware5radi
674:   FUNC GLOBAL DEFAULT UND _ZN7android8hardware5radi
675:   FUNC GLOBAL DEFAULT UND _ZN7android8hardware5radi
676:   FUNC GLOBAL DEFAULT UND _ZN7android8hardware5radi
677:   FUNC GLOBAL DEFAULT UND _ZN7android8hardware5radi
678:   FUNC GLOBAL DEFAULT UND _ZN7android8hardware5radi
679:   FUNC GLOBAL DEFAULT UND _ZN7android8hardware5radi
680:   FUNC GLOBAL DEFAULT UND _ZN7android8hardware5radi
681:   FUNC GLOBAL DEFAULT UND _ZN7android8hardware5radi
682:   FUNC GLOBAL DEFAULT UND _ZN7android8hardware5radi
683:   FUNC GLOBAL DEFAULT UND _ZN7android8hardware5radi
684:   FUNC GLOBAL DEFAULT UND _ZN7android8hardware5radi
685:   FUNC GLOBAL DEFAULT UND _ZN7android8hardware5radi
686:   FUNC GLOBAL DEFAULT UND _ZN7android8hardware5radi
687:   FUNC GLOBAL DEFAULT UND _ZN7android8hardware5radi
688:   FUNC GLOBAL DEFAULT UND _ZN7android8hardware5radi
689:   FUNC GLOBAL DEFAULT UND _ZN7android8hardware5radi
690:   FUNC GLOBAL DEFAULT UND _ZN7android8hardware5radi
691:   FUNC GLOBAL DEFAULT UND _ZN7android8hardware5radi
692:   FUNC GLOBAL DEFAULT UND _ZN7android8hardware5radi
693:   FUNC GLOBAL DEFAULT UND _ZN7android8hardware5radi
694:   FUNC GLOBAL DEFAULT UND _ZN7android8hardware5radi
695:   FUNC GLOBAL DEFAULT UND _ZN7android8hardware5radi
696:   FUNC GLOBAL DEFAULT UND _ZN7android8hardware5radi
697:   FUNC GLOBAL DEFAULT UND _ZN7android8hardware5radi
698:   FUNC GLOBAL DEFAULT UND _ZN7android8hardware5radi
699:   FUNC GLOBAL DEFAULT UND _ZN7android8hardware5radi
700:   FUNC GLOBAL DEFAULT UND _ZN7android8hardware5radi
701:   FUNC GLOBAL DEFAULT UND _ZN7android8hardware5radi
702:   FUNC GLOBAL DEFAULT UND _ZN7android8hardware5radi
703:   FUNC GLOBAL DEFAULT UND _ZN7android8hardware5radi
704:   FUNC GLOBAL DEFAULT UND _ZN7android8hardware5radi
705:   FUNC GLOBAL DEFAULT UND _ZN7android8hardware5radi
706:   FUNC GLOBAL DEFAULT UND _ZN7android8hardware5radi
707:   FUNC GLOBAL DEFAULT UND _ZN7android8hardware5radi
708:   FUNC GLOBAL DEFAULT UND _ZN7android8hardware5radi
709:   FUNC GLOBAL DEFAULT UND _ZN7android8hardware5radi
710:   FUNC GLOBAL DEFAULT UND _ZN7android8hardware5radi
711:   FUNC GLOBAL DEFAULT UND _ZN7android8hardware5radi
712:   FUNC GLOBAL DEFAULT UND _ZN7android8hardware5radi
713:   FUNC GLOBAL DEFAULT UND _ZN7android8hardware5radi
714:   FUNC GLOBAL DEFAULT UND _ZN7android8hardware5radi
715:   FUNC GLOBAL DEFAULT UND _ZN7android8hardware5radi
716:   FUNC GLOBAL DEFAULT UND _ZN7android8hardware5radi
717:   FUNC GLOBAL DEFAULT UND _ZN7android8hardware5radi
718:   FUNC GLOBAL DEFAULT UND _ZN7android8hardware5radi
719:   FUNC GLOBAL DEFAULT UND _ZN7android8hardware5radi
720:   FUNC GLOBAL DEFAULT UND _ZN7android8hardware5radi
721:   FUNC GLOBAL DEFAULT UND _ZN7android8hardware5radi
722:   FUNC GLOBAL DEFAULT UND _ZN7android8hardware5radi
723:   FUNC GLOBAL DEFAULT UND _ZN7android8hardware5radi
724:   FUNC GLOBAL DEFAULT UND _ZN7android8hardware5radi
725:   FUNC GLOBAL DEFAULT UND _ZN7android8hardware5radi
726:   FUNC GLOBAL DEFAULT UND _ZN7android8hardware5radi
727:   FUNC GLOBAL DEFAULT UND _ZN7android8hardware5radi
728:   FUNC GLOBAL DEFAULT UND _ZN7android8hardware5radi
729:   FUNC GLOBAL DEFAULT UND _ZN7android8hardware5radi
730:   FUNC GLOBAL DEFAULT UND _ZN7android8hardware5radi
731:   FUNC GLOBAL DEFAULT UND _ZN7android8hardware5radi
732:   FUNC GLOBAL DEFAULT UND _ZN7android8hardware5radi
733:   FUNC GLOBAL DEFAULT UND _ZN7android8hardware5radi
734:   FUNC GLOBAL DEFAULT UND _ZN7android8hardware5radi
735:   FUNC GLOBAL DEFAULT UND _ZN7android8hardware5radi
736:   FUNC GLOBAL DEFAULT UND _ZN7android8hardware5radi
737:   FUNC GLOBAL DEFAULT UND _ZN7android8hardware5radi
738:   FUNC GLOBAL DEFAULT UND _ZN7android8hardware5radi
739:   FUNC GLOBAL DEFAULT UND _ZN7android8hardware5radi
740:   FUNC GLOBAL DEFAULT UND _ZN7android8hardware5radi
741:   FUNC GLOBAL DEFAULT UND _ZN7android8hardware5radi
742:   FUNC GLOBAL DEFAULT UND _ZN7android8hardware5radi
743:   FUNC GLOBAL DEFAULT UND _ZN7android8hardware5radi
744:   FUNC GLOBAL DEFAULT UND _ZN7android8hardware5radi
745:   FUNC GLOBAL DEFAULT UND _ZN7android8hardware5radi
746:   FUNC GLOBAL DEFAULT UND _ZN7android8hardware5radi
747:   FUNC GLOBAL DEFAULT UND _ZN7android8hardware5radi
748:   FUNC GLOBAL DEFAULT UND _ZN7android8hardware5radi
749:   FUNC GLOBAL DEFAULT UND _ZN7android8hardware5radi
750:   FUNC GLOBAL DEFAULT UND _ZN7android8hardware5radi
751:   FUNC GLOBAL DEFAULT UND _ZN7android8hardware5radi
752:   FUNC GLOBAL DEFAULT UND _ZN7android8hardware5radi
753:   FUNC GLOBAL DEFAULT UND _ZN7android8hardware5radi
754:   FUNC GLOBAL DEFAULT UND _ZN7android8hardware5radi
755:   FUNC GLOBAL DEFAULT UND _ZN7android8hardware5radi
756:   FUNC GLOBAL DEFAULT UND _ZN7android8hardware5radi
757:   FUNC GLOBAL DEFAULT UND _ZN7android8hardware5radi
758:   FUNC GLOBAL DEFAULT UND _ZN7android8hardware5radi
759:   FUNC GLOBAL DEFAULT UND _ZN7android8hardware5radi
760:   FUNC GLOBAL DEFAULT UND _ZN7android8hardware5radi
761:   FUNC GLOBAL DEFAULT UND _ZN7android8hardware5radi
762:   FUNC GLOBAL DEFAULT UND _ZN7android8hardware5radi
763:   FUNC GLOBAL DEFAULT UND _ZN7android8hardware5radi
764:   FUNC GLOBAL DEFAULT UND _ZN7android8hardware5radi
765:   FUNC GLOBAL DEFAULT UND _ZN7android8hardware5radi
766:   FUNC GLOBAL DEFAULT UND _ZN7android8hardware5radi
767:   FUNC GLOBAL DEFAULT UND _ZN7android8hardware5radi
768:   FUNC GLOBAL DEFAULT UND _ZN7android8hardware5radi
769:   FUNC GLOBAL DEFAULT UND _ZN7android8hardware5radi
770:   FUNC GLOBAL DEFAULT UND _ZN7android8hardware5radi
771:   FUNC GLOBAL DEFAULT UND _ZN7android8hardware5radi
772:   FUNC GLOBAL DEFAULT UND _ZN7android8hardware5radi
773:   FUNC GLOBAL DEFAULT UND _ZN7android8hardware5radi
774:   FUNC GLOBAL DEFAULT UND _ZN7android8hardware5radi
775:   FUNC GLOBAL DEFAULT UND _ZN7android8hardware5radi
776:   FUNC GLOBAL DEFAULT UND _ZN7android8hardware5radi
777:   FUNC GLOBAL DEFAULT UND _ZN7android8hardware5radi
778:   FUNC GLOBAL DEFAULT UND _ZN7android8hardware5radi
779:   FUNC GLOBAL DEFAULT UND _ZN7android8hardware5radi
780:   FUNC GLOBAL DEFAULT UND _ZN7android8hardware5radi
781:   FUNC GLOBAL DEFAULT UND _ZN7android8hardware5radi
782:   FUNC GLOBAL DEFAULT UND _ZN7android8hardware5radi
783:   FUNC GLOBAL DEFAULT UND _ZN7android8hardware5radi
784:   FUNC GLOBAL DEFAULT UND _ZN7android8hardware5radi
785:   FUNC GLOBAL DEFAULT UND _ZN7android8hardware5radi
786:   FUNC GLOBAL DEFAULT UND _ZN7android8hardware5radi
787:   FUNC GLOBAL DEFAULT UND _ZN7android8hardware5radi
788:   FUNC GLOBAL DEFAULT UND _ZN7android8hardware5radi
789:   FUNC GLOBAL DEFAULT UND _ZN7android8hardware5radi
790:   FUNC GLOBAL DEFAULT UND _ZN7android8hardware5radi
791:   FUNC GLOBAL DEFAULT UND _ZN7android8hardware5radi
792:   FUNC GLOBAL DEFAULT UND _ZN7android8hardware5radi
793:   FUNC GLOBAL DEFAULT UND _ZN7android8hardware5radi
794:   FUNC GLOBAL DEFAULT UND _ZN7android8hardware5radi
795:   FUNC GLOBAL DEFAULT UND _ZN7android8hardware5radi
796:   FUNC GLOBAL DEFAULT UND _ZN7android8hardware5radi
797:   FUNC GLOBAL DEFAULT UND _ZN7android8hardware5radi
798:   FUNC GLOBAL DEFAULT UND _ZN7android8hardware5radi
799:   FUNC GLOBAL DEFAULT UND _ZN7android8hardware5radi
800:   FUNC GLOBAL DEFAULT UND _ZN7android8hardware5radi
801:   FUNC GLOBAL DEFAULT UND _ZN7android8hardware5radi
802:   FUNC GLOBAL DEFAULT UND _ZN7android8hardware5radi
803:   FUNC GLOBAL DEFAULT UND _ZN7android8hardware5radi
804:   FUNC GLOBAL DEFAULT UND _ZN7android8hardware5radi
805:   FUNC GLOBAL DEFAULT UND _ZN7android8hardware5radi
806:   FUNC GLOBAL DEFAULT UND _ZN7android8hardware5radi
807:   FUNC GLOBAL DEFAULT UND _ZN7android8hardware5radi
808:   FUNC GLOBAL DEFAULT UND _ZN7android8hardware5radi
809:   FUNC GLOBAL DEFAULT UND _ZN7android8hardware5radi
810:   FUNC GLOBAL DEFAULT UND _ZN7android8hardware5radi
811:   FUNC GLOBAL DEFAULT UND _ZN7android8hardware5radi
812:   FUNC GLOBAL DEFAULT UND _ZN7android8hardware5radi
813:   FUNC GLOBAL DEFAULT UND _ZN7android8hardware5radi
814:   FUNC GLOBAL DEFAULT UND _ZN7android8hardware5radi
815:   FUNC GLOBAL DEFAULT UND _ZN7android8hardware5radi
816:   FUNC GLOBAL DEFAULT UND _ZN7android8hardware5radi
817:   FUNC GLOBAL DEFAULT UND _ZN7android8hardware5radi
818:   FUNC GLOBAL DEFAULT UND _ZN7android8hardware5radi
819:   FUNC GLOBAL DEFAULT UND _ZN7android8hardware5radi
820:   FUNC GLOBAL DEFAULT UND _ZN7android8hardware5radi
821:   FUNC GLOBAL DEFAULT UND _ZN7android8hardware5radi
822:   FUNC GLOBAL DEFAULT UND _ZN7android8hardware5radi
823:   FUNC GLOBAL DEFAULT UND _ZN7android8hardware5radi
824:   FUNC GLOBAL DEFAULT UND _ZN7android8hardware5radi
825:   FUNC GLOBAL DEFAULT UND _ZN7android8hardware5radi
826:   FUNC GLOBAL DEFAULT UND _ZN7android8hardware5radi
827:   FUNC GLOBAL DEFAULT UND _ZN7android8hardware5radi
828:   FUNC GLOBAL DEFAULT UND _ZN7android8hardware5radi
829:   FUNC GLOBAL DEFAULT UND _ZN7android8hardware5radi
830:   FUNC GLOBAL DEFAULT UND _ZN7android8hardware5radi
831:   FUNC GLOBAL DEFAULT UND _ZN7android8hardware5radi
832:   FUNC GLOBAL DEFAULT UND _ZN7android8hardware5radi
833:   FUNC GLOBAL DEFAULT UND _ZN7android8hardware5radi
834:   FUNC GLOBAL DEFAULT UND _ZN7android8hardware5radi
835:   FUNC GLOBAL DEFAULT UND _ZN7android8hardware5radi
836:   OBJECT GLOBAL DEFAULT UND _ZN7android8hardware5radi
837:   FUNC GLOBAL DEFAULT UND _ZN7android8hardware5radi
838:   FUNC GLOBAL DEFAULT UND _ZN7android8hardware5radi
839:   FUNC GLOBAL DEFAULT UND _ZN7android8hardware5radi
840:   FUNC GLOBAL DEFAULT UND _ZN7android8hardware5radi
841:   FUNC GLOBAL DEFAULT UND _ZN7android8hardware5radi
842:   FUNC GLOBAL DEFAULT UND _ZN7android8hardware5radi
843:   FUNC GLOBAL DEFAULT UND _ZN7android8hardware5radi
844:   FUNC GLOBAL DEFAULT UND _ZN7android8hardware5radi
845:   FUNC GLOBAL DEFAULT UND _ZN7android8hardware5radi
846:   FUNC GLOBAL DEFAULT UND _ZN7android8hardware5radi
847:   FUNC GLOBAL DEFAULT UND _ZN7android8hardware5radi
848:   FUNC GLOBAL DEFAULT UND _ZN7android8hardware5radi
849:   FUNC GLOBAL DEFAULT UND _ZN7android8hardware5radi
850:   FUNC GLOBAL DEFAULT UND _ZN7android8hardware5radi
851:   FUNC GLOBAL DEFAULT UND _ZN7android8hardware5radi
852:   FUNC GLOBAL DEFAULT UND _ZN7android8hardware5radi
853:   FUNC GLOBAL DEFAULT UND _ZN7android8hardware5radi
854:   FUNC GLOBAL DEFAULT UND _ZN7android8hardware5radi
855:   FUNC GLOBAL DEFAULT UND _ZN7android8hardware5radi
856:   FUNC GLOBAL DEFAULT UND _ZN7android8hardware5radi
857:   FUNC GLOBAL DEFAULT UND _ZN7android8hardware5radi
858:   FUNC GLOBAL DEFAULT UND _ZN7android8hardware5radi
859:   OBJECT GLOBAL DEFAULT UND _ZN7android8hardware5radi
860:   FUNC GLOBAL DEFAULT UND _ZN7android8hardware5radi
861:   FUNC GLOBAL DEFAULT UND _ZN7android8hardware5radi
862:   FUNC GLOBAL DEFAULT UND _ZN7android8hardware5radi
863:   FUNC GLOBAL DEFAULT UND _ZN7android8hardware5radi
864:   FUNC GLOBAL DEFAULT UND _ZN7android8hardware5radi
865:   FUNC GLOBAL DEFAULT UND _ZN7android8hardware5radi
866:   FUNC GLOBAL DEFAULT UND _ZN7android8hardware5radi
867:   FUNC GLOBAL DEFAULT UND _ZN7android8hardware5radi
868:   FUNC GLOBAL DEFAULT UND _ZN7android8hardware5radi
869:   FUNC GLOBAL DEFAULT UND _ZN7android8hardware5radi
870:   FUNC GLOBAL DEFAULT UND _ZN7android8hardware5radi
871:   FUNC GLOBAL DEFAULT UND _ZN7android8hardware5radi
872:   FUNC GLOBAL DEFAULT UND _ZN7android8hardware5radi
873:   FUNC GLOBAL DEFAULT UND _ZN7android8hardware5radi
874:   FUNC GLOBAL DEFAULT UND _ZN7android8hardware5radi
875:   FUNC GLOBAL DEFAULT UND _ZN7android8hardware5radi
876:   FUNC GLOBAL DEFAULT UND _ZN7android8hardware5radi
877:   FUNC GLOBAL DEFAULT UND _ZN7android8hardware5radi
878:   FUNC GLOBAL DEFAULT UND _ZN7android8hardware5radi
879:   FUNC GLOBAL DEFAULT UND _ZN7android8hardware5radi
880:   FUNC GLOBAL DEFAULT UND _ZN7android8hardware5radi
881:   FUNC GLOBAL DEFAULT UND _ZN7android8hardware5radi
882:   FUNC GLOBAL DEFAULT UND _ZN7android8hardware5radi
883:   FUNC GLOBAL DEFAULT UND _ZN7android8hardware5radi
884:   FUNC GLOBAL DEFAULT UND _ZN7android8hardware5radi
885:   FUNC GLOBAL DEFAULT UND _ZN7android8hardware5radi
886:   FUNC GLOBAL DEFAULT UND _ZN7android8hardware5radi
887:   FUNC GLOBAL DEFAULT UND _ZN7android8hardware5radi
888:   OBJECT GLOBAL DEFAULT UND _ZN7android8hardware5radi
889:   FUNC GLOBAL DEFAULT UND _ZN7android8hardware5radi
890:   FUNC GLOBAL DEFAULT UND _ZN7android8hardware5radi
891:   FUNC GLOBAL DEFAULT UND _ZN7android8hardware5radi
892:   FUNC GLOBAL DEFAULT UND _ZN7android8hardware5radi
893:   FUNC GLOBAL DEFAULT UND _ZN7android8hardware5radi
894:   FUNC GLOBAL DEFAULT UND _ZN7android8hardware5radi
895:   FUNC GLOBAL DEFAULT UND _ZN7android8hardware5radi
896:   FUNC GLOBAL DEFAULT UND _ZN7android8hardware5radi
897:   FUNC GLOBAL DEFAULT UND _ZN7android8hardware5radi
898:   FUNC GLOBAL DEFAULT UND _ZN7android8hardware5radi
899:   FUNC GLOBAL DEFAULT UND _ZN7android8hardware5radi
900:   FUNC GLOBAL DEFAULT UND _ZN7android8hardware5radi
901:   FUNC GLOBAL DEFAULT UND _ZN7android8hardware5radi
902:   FUNC GLOBAL DEFAULT UND _ZN7android8hardware5radi
903:   FUNC GLOBAL DEFAULT UND _ZN7android8hardware5radi
904:   FUNC GLOBAL DEFAULT UND _ZN7android8hardware5radi
905:   FUNC GLOBAL DEFAULT UND _ZN7android8hardware5radi
906:   FUNC GLOBAL DEFAULT UND _ZN7android8hardware5radi
907:   FUNC GLOBAL DEFAULT UND _ZN7android8hardware5radi
908:   FUNC GLOBAL DEFAULT UND _ZN7android8hardware5radi
909:   FUNC GLOBAL DEFAULT UND _ZN7android8hardware5radi
910:   FUNC GLOBAL DEFAULT UND _ZN7android8hardware5radi
911:   FUNC GLOBAL DEFAULT UND _ZN7android8hardware5radi
912:   FUNC GLOBAL DEFAULT UND _ZN7android8hardware5radi
913:   FUNC GLOBAL DEFAULT UND memcpy@LIBC (2)
914:   FUNC GLOBAL DEFAULT UND memset@LIBC (2)
915:   FUNC GLOBAL DEFAULT 14 _ZN7android8hardware5radi
916:   FUNC GLOBAL DEFAULT 14 _ZN7android8hardware5radi
917:   FUNC GLOBAL DEFAULT 14 _ZN7android8hardware5radi
918:   OBJECT GLOBAL DEFAULT 18 _ZTCN7android8hardware5ra
919:   FUNC GLOBAL DEFAULT 14 _ZN7android8hardware5radi
920:   FUNC GLOBAL DEFAULT 14 _ZN7android8hardware5radi
921:   FUNC GLOBAL DEFAULT 14 _ZN7android8hardware5radi
922:   FUNC GLOBAL DEFAULT 14 _ZN7android8hardware5radi
923:   FUNC WEAK DEFAULT 14 _ZNSt3__127__tree_balance
924:   FUNC GLOBAL DEFAULT 14 _ZN7android8hardware5radi
925:   FUNC GLOBAL DEFAULT 14 _ZN7android8hardware5radi
926:   FUNC GLOBAL DEFAULT 14 _ZN7android8hardware5radi
927:   FUNC GLOBAL DEFAULT 14 _ZN7android8hardware5radi
928:   FUNC GLOBAL DEFAULT 14 _ZN7android8hardware5radi
929:   OBJECT GLOBAL DEFAULT 18 _ZTVN7android8hardware5ra
930:   FUNC GLOBAL DEFAULT 14 _ZN7android8hardware5radi
931:   FUNC GLOBAL DEFAULT 14 _ZN7android8hardware5radi
932:   FUNC GLOBAL DEFAULT 14 _ZN7android8hardware5radi
933:   OBJECT GLOBAL DEFAULT 18 _ZTTN7android8hardware5ra
934:   FUNC GLOBAL DEFAULT 14 _ZN7android8hardware5radi
935:   FUNC GLOBAL DEFAULT 14 _ZN7android8hardware5radi
936:   FUNC GLOBAL DEFAULT 14 _ZN7android8hardware5radi
937:   FUNC GLOBAL DEFAULT 14 _ZN7android8hardware5radi
938:   FUNC GLOBAL DEFAULT 14 _ZN7android8hardware5radi
939:   OBJECT GLOBAL DEFAULT 18 _ZTCN7android8hardware5ra
940:   FUNC GLOBAL DEFAULT 14 _ZN7android8hardware5radi
941:   FUNC GLOBAL DEFAULT 14 _ZN7android8hardware5radi
942:   FUNC GLOBAL DEFAULT 14 _ZN7android8hardware5radi
943:   FUNC GLOBAL DEFAULT 14 _ZN7android8hardware5radi
944:   FUNC GLOBAL DEFAULT 14 _ZN7android8hardware5radi
945:   FUNC WEAK DEFAULT 14 _ZN7android8hardware7deta
946:   OBJECT GLOBAL DEFAULT 16 _ZN7android8hardware5radi
947:   FUNC GLOBAL DEFAULT 14 _ZN7android8hardware5radi
948:   FUNC GLOBAL DEFAULT 14 _ZN7android8hardware5radi
949:   FUNC GLOBAL DEFAULT 14 _ZN7android8hardware5radi
950:   OBJECT GLOBAL DEFAULT 18 _ZTCN7android8hardware5ra
951:   FUNC GLOBAL DEFAULT 14 _ZN7android8hardware5radi
952:   FUNC GLOBAL DEFAULT 14 _ZN7android8hardware5radi
953:   FUNC GLOBAL DEFAULT 14 _ZN7android8hardware5radi
954:   FUNC GLOBAL DEFAULT 14 _ZN7android8hardware5radi
955:   FUNC GLOBAL DEFAULT 14 _ZN7android8hardware5radi
956:   FUNC GLOBAL DEFAULT 14 _ZN7android8hardware5radi
957:   FUNC GLOBAL DEFAULT 14 _ZN7android8hardware5radi
958:   FUNC WEAK DEFAULT 14 _ZN7android8hardware7deta
959:   FUNC GLOBAL DEFAULT 14 _ZN7android8hardware5radi
960:   FUNC GLOBAL DEFAULT 14 _ZThn20_N7android8hardwar
961:   FUNC GLOBAL DEFAULT 14 _ZN7android8hardware5radi
962:   FUNC GLOBAL DEFAULT 14 _ZN7android8hardware5radi
963:   FUNC GLOBAL DEFAULT 14 _ZN7android8hardware5radi
964:   OBJECT GLOBAL DEFAULT 18 _ZTCN7android8hardware5ra
965:   FUNC GLOBAL DEFAULT 14 _ZN7android8hardware5radi
966:   FUNC GLOBAL DEFAULT 14 _ZN7android8hardware5radi
967:   FUNC WEAK DEFAULT 14 _ZN7android8hardware7deta
968:   FUNC GLOBAL DEFAULT 14 _ZN7android8hardware5radi
969:   OBJECT GLOBAL DEFAULT 18 _ZTCN7android8hardware5ra
970:   FUNC GLOBAL DEFAULT 14 _ZN7android8hardware5radi
971:   FUNC GLOBAL DEFAULT 14 _ZN7android8hardware5radi
972:   FUNC GLOBAL DEFAULT 14 _ZThn20_N7android8hardwar
973:   FUNC GLOBAL DEFAULT 14 _ZN7android8hardware5radi
974:   FUNC GLOBAL DEFAULT 14 _ZN7android8hardware5radi
975:   FUNC GLOBAL DEFAULT 14 _ZN7android8hardware5radi
976:   OBJECT GLOBAL DEFAULT 18 _ZTCN7android8hardware5ra
977:   OBJECT GLOBAL DEFAULT 18 _ZTCN7android8hardware5ra
978:   FUNC GLOBAL DEFAULT 14 _ZN7android8hardware5radi
979:   FUNC GLOBAL DEFAULT 14 _ZN7android8hardware5radi
980:   FUNC WEAK DEFAULT 14 _ZN7android8hardware7deta
981:   FUNC GLOBAL DEFAULT 14 _ZN7android8hardware5radi
982:   FUNC GLOBAL DEFAULT 14 _ZN7android8hardware5radi
983:   FUNC GLOBAL DEFAULT 14 _ZN7android8hardware5radi
984:   FUNC GLOBAL DEFAULT 14 _ZN7android8hardware5radi
985:   FUNC GLOBAL DEFAULT 14 _ZN7android8hardware5radi
986:   FUNC GLOBAL DEFAULT 14 _ZN7android8hardware5radi
987:   FUNC GLOBAL DEFAULT 14 _ZN7android8hardware5radi
988:   FUNC GLOBAL DEFAULT 14 _ZN7android8hardware5radi
989:   FUNC GLOBAL DEFAULT 14 _ZN7android8hardware5radi
990:   FUNC GLOBAL DEFAULT 14 _ZN7android8hardware5radi
991:   FUNC WEAK DEFAULT 14 _ZNSt3__113__tree_removeI
992:   FUNC GLOBAL DEFAULT 14 _ZN7android8hardware5radi
993:   FUNC GLOBAL DEFAULT 14 _ZN7android8hardware5radi
994:   FUNC GLOBAL DEFAULT 14 _ZN7android8hardware5radi
995:   OBJECT GLOBAL DEFAULT 18 _ZTCN7android8hardware5ra
996:   FUNC GLOBAL DEFAULT 14 _ZN7android8hardware5radi
997:   FUNC GLOBAL DEFAULT 14 _ZN7android8hardware5radi
998:   FUNC GLOBAL DEFAULT 14 _ZN7android8hardware5radi
999:   FUNC GLOBAL DEFAULT 14 _ZN7android8hardware5radi
1000:   FUNC GLOBAL DEFAULT 14 _ZN7android8hardware5radi
1001:   FUNC GLOBAL DEFAULT 14 _ZN7android8hardware5radi
1002:   FUNC GLOBAL DEFAULT 14 _ZN7android8hardware5radi
1003:   FUNC GLOBAL DEFAULT 14 _ZN7android8hardware5radi
1004:   FUNC GLOBAL DEFAULT 14 _ZN7android8hardware5radi
1005:   FUNC GLOBAL DEFAULT 14 _ZN7android8hardware5radi
1006:   FUNC GLOBAL DEFAULT 14 _ZN7android8hardware5radi
1007:   FUNC GLOBAL DEFAULT 14 _ZN7android8hardware5radi
1008:   FUNC GLOBAL DEFAULT 14 _ZN7android8hardware5radi
1009:   OBJECT GLOBAL DEFAULT 18 _ZTTN7android8hardware5ra
1010:   FUNC GLOBAL DEFAULT 14 _ZN7android8hardware5radi
1011:   FUNC GLOBAL DEFAULT 14 _ZN7android8hardware5radi
1012:   FUNC WEAK DEFAULT 14 _ZNSt3__16__treeINS_12__v
1013:   FUNC GLOBAL DEFAULT 14 _ZN7android8hardware5radi
1014:   FUNC GLOBAL DEFAULT 14 _ZN7android8hardware5radi
1015:   FUNC GLOBAL DEFAULT 14 _ZN7android8hardware5radi
1016:   OBJECT GLOBAL DEFAULT 18 _ZTCN7android8hardware5ra
1017:   FUNC GLOBAL DEFAULT 14 _ZN7android8hardware5radi
1018:   FUNC GLOBAL DEFAULT 14 _ZN7android8hardware5radi
1019:   FUNC GLOBAL DEFAULT 14 _ZN7android8hardware5radi
1020:   FUNC GLOBAL DEFAULT 14 _ZN7android8hardware5radi
1021:   FUNC GLOBAL DEFAULT 14 _ZN7android8hardware5radi
1022:   FUNC GLOBAL DEFAULT 14 _ZN7android8hardware5radi
1023:   FUNC GLOBAL DEFAULT 14 _ZN7android8hardware5radi
1024:   FUNC GLOBAL DEFAULT 14 _ZN7android8hardware5radi
1025:   FUNC GLOBAL DEFAULT 14 _ZN7android8hardware5radi
1026:   FUNC GLOBAL DEFAULT 14 _ZN7android8hardware5radi
1027:   FUNC GLOBAL DEFAULT 14 _ZN7android8hardware5radi
1028:   FUNC WEAK DEFAULT 14 _ZNSt3__16__treeINS_12__v
1029:   OBJECT GLOBAL DEFAULT 18 _ZTCN7android8hardware5ra
1030:   FUNC GLOBAL DEFAULT 14 _ZN7android8hardware5radi
1031:   FUNC GLOBAL DEFAULT 14 _ZN7android8hardware5radi
1032:   OBJECT GLOBAL DEFAULT 18 _ZTCN7android8hardware5ra
1033:   FUNC GLOBAL DEFAULT 14 _ZN7android8hardware5radi
1034:   FUNC GLOBAL DEFAULT 14 _ZN7android8hardware5radi
1035:   OBJECT GLOBAL DEFAULT 18 _ZTCN7android8hardware5ra
1036:   FUNC GLOBAL DEFAULT 14 _ZN7android8hardware5radi
1037:   FUNC GLOBAL DEFAULT 14 _ZN7android8hardware5radi
1038:   FUNC GLOBAL DEFAULT 14 _ZN7android8hardware5radi
1039:   FUNC GLOBAL DEFAULT 14 _ZN7android8hardware5radi
1040:   FUNC GLOBAL DEFAULT 14 _ZN7android8hardware5radi
1041:   FUNC GLOBAL DEFAULT 14 _ZN7android8hardware5radi
1042:   FUNC GLOBAL DEFAULT 14 _ZN7android8hardware5radi
1043:   FUNC GLOBAL DEFAULT 14 _ZN7android8hardware5radi
1044:   FUNC GLOBAL DEFAULT 14 _ZN7android8hardware5radi
1045:   FUNC GLOBAL DEFAULT 14 _ZN7android8hardware5radi
1046:   FUNC GLOBAL DEFAULT 14 _ZN7android8hardware5radi
1047:   OBJECT WEAK DEFAULT 18 _ZTCN7android8hardware5ra
1048:   FUNC GLOBAL DEFAULT 14 _ZN7android8hardware5radi
1049:   FUNC WEAK DEFAULT 14 _ZN7android8hardware7deta
1050:   FUNC GLOBAL DEFAULT 14 _ZN7android8hardware5radi
1051:   FUNC GLOBAL DEFAULT 14 _ZN7android8hardware5radi
1052:   FUNC GLOBAL DEFAULT 14 _ZN7android8hardware5radi
1053:   FUNC GLOBAL DEFAULT 14 _ZN7android8hardware5radi
1054:   FUNC GLOBAL DEFAULT 14 _ZN7android8hardware5radi
1055:   FUNC GLOBAL DEFAULT 14 _ZN7android8hardware5radi
1056:   FUNC GLOBAL DEFAULT 14 _ZN7android8hardware5radi
1057:   FUNC GLOBAL DEFAULT 14 _ZN7android8hardware5radi
1058:   OBJECT GLOBAL DEFAULT 18 _ZTCN7android8hardware5ra
1059:   FUNC GLOBAL DEFAULT 14 _ZThn20_N7android8hardwar
1060:   FUNC GLOBAL DEFAULT 14 _ZN7android8hardware5radi
1061:   FUNC GLOBAL DEFAULT 14 _ZN7android8hardware5radi
1062:   FUNC GLOBAL DEFAULT 14 _ZN7android8hardware5radi
1063:   FUNC GLOBAL DEFAULT 14 _ZN7android8hardware5radi
1064:   FUNC GLOBAL DEFAULT 14 _ZN7android8hardware5radi
1065:   FUNC GLOBAL DEFAULT 14 _ZN7android8hardware5radi
1066:   FUNC GLOBAL DEFAULT 14 _ZN7android8hardware5radi
1067:   FUNC GLOBAL DEFAULT 14 _ZN7android8hardware5radi
1068:   FUNC WEAK DEFAULT 14 _ZN7android8hardware7deta
1069:   FUNC GLOBAL DEFAULT 14 _ZThn20_N7android8hardwar
1070:   FUNC GLOBAL DEFAULT 14 _ZN7android8hardware5radi
1071:   FUNC GLOBAL DEFAULT 14 _ZN7android8hardware5radi
1072:   OBJECT GLOBAL DEFAULT 18 _ZTCN7android8hardware5ra
1073:   FUNC GLOBAL DEFAULT 14 _ZN7android8hardware5radi
1074:   FUNC GLOBAL DEFAULT 14 _ZN7android8hardware5radi
1075:   OBJECT GLOBAL DEFAULT 18 _ZTCN7android8hardware5ra
1076:   FUNC GLOBAL DEFAULT 14 _ZN7android8hardware5radi
1077:   FUNC GLOBAL DEFAULT 14 _ZN7android8hardware5radi
1078:   FUNC GLOBAL DEFAULT 14 _ZN7android8hardware5radi
1079:   FUNC GLOBAL DEFAULT 14 _ZN7android8hardware5radi
1080:   FUNC WEAK DEFAULT 14 _ZN7android8hardware7deta
1081:   FUNC WEAK DEFAULT 14 _ZN7android8hardware7deta
1082:   OBJECT GLOBAL DEFAULT 18 _ZTCN7android8hardware5ra
1083:   FUNC GLOBAL DEFAULT 14 _ZN7android8hardware5radi
1084:   FUNC GLOBAL DEFAULT 14 _ZN7android8hardware5radi
1085:   FUNC GLOBAL DEFAULT 14 _ZN7android8hardware5radi
1086:   FUNC GLOBAL DEFAULT 14 _ZN7android8hardware5radi
1087:   FUNC GLOBAL DEFAULT 14 _ZN7android8hardware5radi
1088:   FUNC GLOBAL DEFAULT 14 _ZN7android8hardware5radi
1089:   FUNC GLOBAL DEFAULT 14 _ZN7android8hardware5radi
1090:   FUNC WEAK DEFAULT 14 _ZNSt3__16vectorINS_8func
1091:   FUNC GLOBAL DEFAULT 14 _ZN7android8hardware5radi
1092:   FUNC GLOBAL DEFAULT 14 _ZN7android8hardware5radi
1093:   OBJECT GLOBAL DEFAULT 18 _ZTTN7android8hardware5ra
1094:   OBJECT GLOBAL DEFAULT 18 _ZTVN7android8hardware5ra
1095:   FUNC GLOBAL DEFAULT 14 _ZN7android8hardware5radi
1096:   OBJECT GLOBAL DEFAULT 18 _ZTCN7android8hardware5ra
1097:   OBJECT GLOBAL DEFAULT 16 _ZN7android8hardware5radi
1098:   FUNC GLOBAL DEFAULT 14 _ZN7android8hardware5radi
1099:   FUNC GLOBAL DEFAULT 14 _ZN7android8hardware5radi
1100:   FUNC GLOBAL DEFAULT 14 _ZN7android8hardware5radi
1101:   OBJECT GLOBAL DEFAULT 18 _ZTCN7android8hardware5ra
1102:   FUNC GLOBAL DEFAULT 14 _ZN7android8hardware5radi
1103:   FUNC GLOBAL DEFAULT 14 _ZN7android8hardware5radi
1104:   FUNC GLOBAL DEFAULT 14 _ZN7android8hardware5radi
1105:   FUNC GLOBAL DEFAULT 14 _ZN7android8hardware5radi
1106:   FUNC GLOBAL DEFAULT 14 _ZN7android8hardware5radi
1107:   FUNC GLOBAL DEFAULT 14 _ZN7android8hardware5radi
1108:   FUNC GLOBAL DEFAULT 14 _ZN7android8hardware5radi
1109:   FUNC GLOBAL DEFAULT 14 _ZN7android8hardware5radi
1110:   FUNC WEAK DEFAULT 14 _ZN7android8hardware7deta
1111:   FUNC GLOBAL DEFAULT 14 _ZN7android8hardware5radi
1112:   FUNC GLOBAL DEFAULT 14 _ZN7android8hardware5radi
1113:   OBJECT GLOBAL DEFAULT 18 _ZTTN7android8hardware5ra
1114:   OBJECT GLOBAL DEFAULT 18 _ZTCN7android8hardware5ra
1115:   FUNC GLOBAL DEFAULT 14 _ZN7android8hardware5radi
1116:   OBJECT GLOBAL DEFAULT 18 _ZTVN7android8hardware5ra
1117:   FUNC GLOBAL DEFAULT 14 _ZN7android8hardware5radi
1118:   FUNC GLOBAL DEFAULT 14 _ZN7android8hardware5radi
1119:   FUNC GLOBAL DEFAULT 14 _ZN7android8hardware5radi
1120:   FUNC GLOBAL DEFAULT 14 _ZN7android8hardware5radi
1121:   FUNC GLOBAL DEFAULT 14 _ZN7android8hardware5radi
1122:   FUNC GLOBAL DEFAULT 14 _ZN7android8hardware5radi
1123:   FUNC GLOBAL DEFAULT 14 _ZN7android8hardware5radi
1124:   FUNC GLOBAL DEFAULT 14 _ZN7android8hardware5radi
1125:   FUNC GLOBAL DEFAULT 14 _ZN7android8hardware5radi
1126:   FUNC GLOBAL DEFAULT 14 _ZN7android8hardware5radi
1127:   FUNC GLOBAL DEFAULT 14 _ZN7android8hardware5radi
1128:   FUNC GLOBAL DEFAULT 14 _ZN7android8hardware5radi
1129:   FUNC GLOBAL DEFAULT 14 _ZN7android8hardware5radi
1130:   FUNC GLOBAL DEFAULT 14 _ZN7android8hardware5radi
1131:   OBJECT GLOBAL DEFAULT 18 _ZTCN7android8hardware5ra
1132:   FUNC GLOBAL DEFAULT 14 _ZN7android8hardware5radi
1133:   FUNC GLOBAL DEFAULT 14 _ZN7android8hardware5radi
1134:   FUNC GLOBAL DEFAULT 14 _ZN7android8hardware5radi
1135:   OBJECT GLOBAL DEFAULT 18 _ZTVN7android8hardware5ra
1136:   FUNC GLOBAL DEFAULT 14 _ZN7android8hardware5radi
1137:   FUNC GLOBAL DEFAULT 14 _ZN7android8hardware5radi
1138:   FUNC GLOBAL DEFAULT 14 _ZN7android8hardware5radi
1139:   FUNC GLOBAL DEFAULT 14 _ZN7android8hardware5radi
1140:   FUNC WEAK DEFAULT 14 _ZN7android8hardware7deta
1141:   OBJECT GLOBAL DEFAULT 18 _ZTVN7android8hardware5ra
1142:   FUNC GLOBAL DEFAULT 14 _ZN7android8hardware5radi
1143:   FUNC GLOBAL DEFAULT 14 _ZN7android8hardware5radi
1144:   FUNC WEAK DEFAULT 14 _ZN7android8hardware7deta
1145:   OBJECT GLOBAL DEFAULT 18 _ZTVN7android8hardware5ra
1146:   FUNC GLOBAL DEFAULT 14 _ZN7android8hardware5radi
1147:   FUNC GLOBAL DEFAULT 14 _ZN7android8hardware5radi
1148:   FUNC GLOBAL DEFAULT 14 _ZN7android8hardware5radi
1149:   FUNC GLOBAL DEFAULT 14 _ZN7android8hardware5radi
1150:   FUNC GLOBAL DEFAULT 14 _ZN7android8hardware5radi
1151:   FUNC GLOBAL DEFAULT 14 _ZN7android8hardware5radi
1152:   OBJECT GLOBAL DEFAULT 18 _ZTCN7android8hardware5ra
1153:   FUNC GLOBAL DEFAULT 14 _ZN7android8hardware5radi
1154:   FUNC GLOBAL DEFAULT 14 _ZN7android8hardware5radi
1155:   FUNC GLOBAL DEFAULT 14 _ZN7android8hardware5radi
1156:   FUNC GLOBAL DEFAULT 14 _ZN7android8hardware5radi
1157:   FUNC GLOBAL DEFAULT 14 _ZN7android8hardware5radi
1158:   FUNC GLOBAL DEFAULT 14 _ZN7android8hardware5radi
1159:   FUNC GLOBAL DEFAULT 14 _ZN7android8hardware5radi
1160:   OBJECT GLOBAL DEFAULT 18 _ZTCN7android8hardware5ra
1161:   FUNC GLOBAL DEFAULT 14 _ZN7android8hardware5radi
1162:   OBJECT GLOBAL DEFAULT 16 _ZN7android8hardware5radi
1163:   FUNC GLOBAL DEFAULT 14 _ZN7android8hardware5radi
1164:   FUNC GLOBAL DEFAULT 14 __aeabi_memset4
1165:   FUNC GLOBAL DEFAULT 14 _ZN7android8hardware5radi
1166:   FUNC GLOBAL DEFAULT 14 _ZN7android8hardware5radi
1167:   FUNC GLOBAL DEFAULT 14 _ZN7android8hardware5radi
1168:   FUNC GLOBAL DEFAULT 14 _ZN7android8hardware5radi
1169:   FUNC GLOBAL DEFAULT 14 _ZN7android8hardware5radi
1170:   FUNC GLOBAL DEFAULT 14 _ZN7android8hardware5radi
1171:   FUNC GLOBAL DEFAULT 14 _ZN7android8hardware5radi
1172:   FUNC GLOBAL DEFAULT 14 _ZN7android8hardware5radi
1173:   FUNC GLOBAL DEFAULT 14 __aeabi_memset8
1174:   FUNC GLOBAL DEFAULT 14 _ZN7android8hardware5radi
1175:   FUNC GLOBAL DEFAULT 14 _ZN7android8hardware5radi
1176:   FUNC GLOBAL DEFAULT 14 _ZN7android8hardware5radi
1177:   FUNC GLOBAL DEFAULT 14 _ZN7android8hardware5radi
1178:   FUNC GLOBAL DEFAULT 14 _ZN7android8hardware5radi
1179:   FUNC GLOBAL DEFAULT 14 _ZN7android8hardware5radi
1180:   FUNC GLOBAL DEFAULT 14 _ZN7android8hardware5radi
1181:   OBJECT GLOBAL DEFAULT 18 _ZTCN7android8hardware5ra
1182:   FUNC GLOBAL DEFAULT 14 _ZN7android8hardware5radi
1183:   FUNC GLOBAL DEFAULT 14 _ZN7android8hardware5radi
1184:   FUNC GLOBAL DEFAULT 14 _ZN7android8hardware5radi
1185:   FUNC GLOBAL DEFAULT 14 _ZN7android8hardware5radi
1186:   FUNC GLOBAL DEFAULT 14 _ZN7android8hardware5radi
1187:   FUNC GLOBAL DEFAULT 14 _ZN7android8hardware5radi
1188:   OBJECT GLOBAL DEFAULT 18 _ZTVN7android8hardware5ra
1189:   FUNC GLOBAL DEFAULT 14 _ZN7android8hardware5radi
1190:   FUNC GLOBAL DEFAULT 14 _ZN7android8hardware5radi
1191:   FUNC GLOBAL DEFAULT 14 _ZN7android8hardware5radi
1192:   FUNC GLOBAL DEFAULT 14 _ZN7android8hardware5radi
1193:   OBJECT GLOBAL DEFAULT 18 _ZTCN7android8hardware5ra
1194:   FUNC GLOBAL DEFAULT 14 _ZTv0_n12_N7android8hardw
1195:   FUNC GLOBAL DEFAULT 14 _ZN7android8hardware5radi
1196:   FUNC GLOBAL DEFAULT 14 _ZN7android8hardware5radi
1197:   FUNC GLOBAL DEFAULT 14 _ZN7android8hardware5radi
1198:   FUNC GLOBAL DEFAULT 14 _ZThn20_N7android8hardwar
1199:   FUNC GLOBAL DEFAULT 14 _ZN7android8hardware5radi
1200:   FUNC GLOBAL DEFAULT 14 _ZN7android8hardware5radi
1201:   FUNC GLOBAL DEFAULT 14 _ZN7android8hardware5radi
1202:   FUNC GLOBAL DEFAULT 14 _ZN7android8hardware5radi
1203:   OBJECT GLOBAL DEFAULT 18 _ZTVN7android8hardware5ra
1204:   OBJECT GLOBAL DEFAULT 18 _ZTCN7android8hardware5ra
1205:   FUNC GLOBAL DEFAULT 14 _ZTv0_n12_N7android8hardw
1206:   FUNC GLOBAL DEFAULT 14 _ZN7android8hardware5radi
1207:   FUNC GLOBAL DEFAULT 14 _ZN7android8hardware5radi
1208:   FUNC WEAK DEFAULT 14 _ZN7android8hardware7deta
1209:   FUNC GLOBAL DEFAULT 14 _ZN7android8hardware5radi
1210:   FUNC WEAK DEFAULT 14 _ZN7android8hardware7deta
1211:   FUNC GLOBAL DEFAULT 14 _ZN7android8hardware5radi
1212:   FUNC GLOBAL DEFAULT 14 _ZThn20_N7android8hardwar
1213:   FUNC GLOBAL DEFAULT 14 _ZN7android8hardware5radi
1214:   FUNC GLOBAL DEFAULT 14 _ZN7android8hardware5radi
1215:   FUNC GLOBAL DEFAULT 14 _ZN7android8hardware5radi
1216:   FUNC GLOBAL DEFAULT 14 _ZN7android8hardware5radi
1217:   OBJECT WEAK DEFAULT 18 _ZTVN7android8hardware5ra
1218:   FUNC GLOBAL DEFAULT 14 __aeabi_memset
1219:   FUNC GLOBAL DEFAULT 14 _ZN7android8hardware5radi
1220:   FUNC GLOBAL DEFAULT 14 _ZN7android8hardware5radi
1221:   OBJECT WEAK DEFAULT 18 _ZTVN7android8hardware5ra
1222:   FUNC GLOBAL DEFAULT 14 _ZN7android8hardware5radi
1223:   FUNC GLOBAL DEFAULT 14 _ZN7android8hardware5radi
1224:   OBJECT GLOBAL DEFAULT 18 _ZTCN7android8hardware5ra
1225:   FUNC GLOBAL DEFAULT 14 _ZN7android8hardware5radi
1226:   FUNC GLOBAL DEFAULT 14 _ZN7android8hardware5radi
1227:   FUNC GLOBAL DEFAULT 14 _ZN7android8hardware5radi
1228:   OBJECT WEAK DEFAULT 18 _ZTCN7android8hardware5ra
1229:   FUNC GLOBAL DEFAULT 14 _ZN7android8hardware5radi
1230:   FUNC WEAK DEFAULT 14 _ZN7android8hardware7deta
1231:   OBJECT GLOBAL DEFAULT 18 _ZTVN7android8hardware5ra
1232:   FUNC GLOBAL DEFAULT 14 _ZN7android8hardware5radi
1233:   FUNC GLOBAL DEFAULT 14 _ZN7android8hardware5radi
1234:   FUNC GLOBAL DEFAULT 14 _ZTv0_n12_N7android8hardw
1235:   FUNC GLOBAL DEFAULT 14 _ZN7android8hardware5radi
1236:   FUNC GLOBAL DEFAULT 14 _ZN7android8hardware5radi
1237:   OBJECT GLOBAL DEFAULT 18 _ZTTN7android8hardware5ra
1238:   FUNC GLOBAL DEFAULT 14 _ZN7android8hardware5radi
1239:   FUNC GLOBAL DEFAULT 14 _ZN7android8hardware5radi
1240:   FUNC GLOBAL DEFAULT 14 _ZN7android8hardware5radi
1241:   FUNC GLOBAL DEFAULT 14 _ZN7android8hardware5radi
1242:   FUNC GLOBAL DEFAULT 14 _ZN7android8hardware5radi
1243:   OBJECT GLOBAL DEFAULT 18 _ZTCN7android8hardware5ra
1244:   FUNC GLOBAL DEFAULT 14 _ZN7android8hardware5radi
1245:   FUNC GLOBAL DEFAULT 14 _ZN7android8hardware5radi
1246:   FUNC GLOBAL DEFAULT 14 _ZTv0_n12_N7android8hardw
1247:   FUNC GLOBAL DEFAULT 14 _ZN7android8hardware5radi
1248:   FUNC GLOBAL DEFAULT 14 _ZN7android8hardware5radi
1249:   FUNC GLOBAL DEFAULT 14 _ZN7android8hardware5radi
1250:   FUNC GLOBAL DEFAULT 14 _ZN7android8hardware5radi
1251:   FUNC GLOBAL DEFAULT 14 _ZN7android8hardware5radi
1252:   FUNC GLOBAL DEFAULT 14 _ZN7android8hardware5radi
1253:   OBJECT GLOBAL DEFAULT 18 _ZTCN7android8hardware5ra
1254:   FUNC GLOBAL DEFAULT 14 _ZN7android8hardware5radi
1255:   FUNC GLOBAL DEFAULT 14 _ZN7android8hardware5radi
1256:   FUNC GLOBAL DEFAULT 14 _ZN7android8hardware5radi
1257:   FUNC GLOBAL DEFAULT 14 _ZN7android8hardware5radi
1258:   FUNC GLOBAL DEFAULT 14 _ZN7android8hardware5radi
1259:   FUNC GLOBAL DEFAULT 14 _ZN7android8hardware5radi
1260:   FUNC GLOBAL DEFAULT 14 _ZN7android8hardware5radi
1261:   FUNC GLOBAL DEFAULT 14 _ZN7android8hardware5radi
1262:   FUNC GLOBAL DEFAULT 14 _ZN7android8hardware5radi
1263:   FUNC GLOBAL DEFAULT 14 _ZN7android8hardware5radi
1264:   FUNC GLOBAL DEFAULT 14 _ZN7android8hardware5radi
1265:   FUNC GLOBAL DEFAULT 14 _ZN7android8hardware5radi
1266:   FUNC GLOBAL DEFAULT 14 _ZN7android8hardware5radi
1267:   FUNC GLOBAL DEFAULT 14 _ZN7android8hardware5radi
1268:   FUNC GLOBAL DEFAULT 14 _ZN7android8hardware5radi
1269:   FUNC GLOBAL DEFAULT 14 _ZN7android8hardware5radi
1270:   FUNC GLOBAL DEFAULT 14 _ZN7android8hardware5radi
1271:   FUNC GLOBAL DEFAULT 14 _ZN7android8hardware5radi
1272:   FUNC GLOBAL DEFAULT 14 _ZN7android8hardware5radi
1273:   OBJECT GLOBAL DEFAULT 18 _ZTCN7android8hardware5ra
1274:   FUNC GLOBAL DEFAULT 14 _ZN7android8hardware5radi
1275:   FUNC GLOBAL DEFAULT 14 _ZN7android8hardware5radi
1276:   FUNC GLOBAL DEFAULT 14 _ZN7android8hardware5radi
1277:   FUNC GLOBAL DEFAULT 14 _ZN7android8hardware5radi
1278:   FUNC GLOBAL DEFAULT 14 _ZN7android8hardware5radi
1279:   FUNC GLOBAL DEFAULT 14 _ZN7android8hardware5radi
1280:   FUNC GLOBAL DEFAULT 14 _ZN7android8hardware5radi
1281:   FUNC GLOBAL DEFAULT 14 _ZN7android8hardware5radi
1282:   FUNC GLOBAL DEFAULT 14 _ZN7android8hardware5radi
1283:   FUNC GLOBAL DEFAULT 14 _ZN7android8hardware5radi
1284:   FUNC GLOBAL DEFAULT 14 _ZN7android8hardware5radi
1285:   FUNC GLOBAL DEFAULT 14 _ZN7android8hardware5radi
1286:   FUNC GLOBAL DEFAULT 14 _ZN7android8hardware5radi
1287:   OBJECT GLOBAL DEFAULT 18 _ZTTN7android8hardware5ra
1288:   FUNC GLOBAL DEFAULT 14 _ZN7android8hardware5radi
1289:   FUNC GLOBAL DEFAULT 14 _ZN7android8hardware5radi
1290:   FUNC GLOBAL DEFAULT 14 _ZN7android8hardware5radi
1291:   FUNC GLOBAL DEFAULT 14 _ZN7android8hardware5radi
1292:   FUNC GLOBAL DEFAULT 14 _ZN7android8hardware5radi
1293:   FUNC GLOBAL DEFAULT 14 _ZN7android8hardware5radi
1294:   FUNC GLOBAL DEFAULT 14 _ZN7android8hardware5radi
1295:   FUNC GLOBAL DEFAULT 14 _ZN7android8hardware5radi
1296:   FUNC GLOBAL DEFAULT 14 _ZN7android8hardware5radi
1297:   FUNC GLOBAL DEFAULT 14 _ZThn20_N7android8hardwar
1298:   FUNC GLOBAL DEFAULT 14 _ZN7android8hardware5radi
1299:   FUNC GLOBAL DEFAULT 14 _ZN7android8hardware5radi
1300:   FUNC GLOBAL DEFAULT 14 _ZN7android8hardware5radi
1301:   FUNC GLOBAL DEFAULT 14 _ZN7android8hardware5radi
1302:   FUNC GLOBAL DEFAULT 14 _ZN7android8hardware5radi
1303:   FUNC GLOBAL DEFAULT 14 _ZN7android8hardware5radi
1304:   FUNC GLOBAL DEFAULT 14 _ZN7android8hardware5radi
1305:   OBJECT GLOBAL DEFAULT 18 _ZTCN7android8hardware5ra
1306:   FUNC GLOBAL DEFAULT 14 _ZN7android8hardware5radi
1307:   FUNC GLOBAL DEFAULT 14 _ZN7android8hardware5radi
1308:   OBJECT WEAK DEFAULT 18 _ZTVN7android8hardware5ra
1309:   FUNC WEAK DEFAULT 14 _ZNSt3__16__treeINS_12__v
1310:   FUNC GLOBAL DEFAULT 14 _ZN7android8hardware5radi
1311:   FUNC GLOBAL DEFAULT 14 _ZN7android8hardware5radi
1312:   FUNC GLOBAL DEFAULT 14 _ZThn20_N7android8hardwar
1313:   FUNC GLOBAL DEFAULT 14 _ZN7android8hardware5radi
1314:   FUNC GLOBAL DEFAULT 14 _ZN7android8hardware5radi
1315:   FUNC GLOBAL DEFAULT 14 _ZN7android8hardware5radi
1316:   FUNC GLOBAL DEFAULT 14 _ZN7android8hardware5radi
1317:   FUNC GLOBAL DEFAULT 14 _ZN7android8hardware5radi
1318:   FUNC GLOBAL DEFAULT 14 _ZN7android8hardware5radi
1319:   FUNC GLOBAL DEFAULT 14 _ZN7android8hardware5radi
1320:   FUNC GLOBAL DEFAULT 14 _ZN7android8hardware5radi
1321:   FUNC GLOBAL DEFAULT 14 _ZN7android8hardware5radi
1322:   FUNC GLOBAL DEFAULT 14 _ZN7android8hardware5radi
1323:   FUNC GLOBAL DEFAULT 14 _ZN7android8hardware5radi
1324:   FUNC GLOBAL DEFAULT 14 _ZTv0_n12_N7android8hardw
1325:   FUNC GLOBAL DEFAULT 14 _ZN7android8hardware5radi
1326:   FUNC GLOBAL DEFAULT 14 _ZN7android8hardware5radi
1327:   FUNC GLOBAL DEFAULT 14 _ZN7android8hardware5radi
1328:   FUNC GLOBAL DEFAULT 14 _ZN7android8hardware5radi
1329:   FUNC GLOBAL DEFAULT 14 _ZN7android8hardware5radi
1330:   FUNC GLOBAL DEFAULT 14 _ZN7android8hardware5radi
1331:   FUNC GLOBAL DEFAULT 14 _ZN7android8hardware5radi
1332:   FUNC GLOBAL DEFAULT 14 _ZN7android8hardware5radi
1333:   FUNC GLOBAL DEFAULT 14 _ZN7android8hardware5radi
1334:   FUNC GLOBAL DEFAULT 14 _ZN7android8hardware5radi
1335:   OBJECT GLOBAL DEFAULT 18 _ZTCN7android8hardware5ra
1336:   FUNC GLOBAL DEFAULT 14 _ZTv0_n12_N7android8hardw
1337:   FUNC GLOBAL DEFAULT 14 _ZN7android8hardware5radi
1338:   FUNC GLOBAL DEFAULT 14 __aeabi_memclr4
1339:   FUNC GLOBAL DEFAULT 14 _ZN7android8hardware5radi
1340:   FUNC GLOBAL DEFAULT 14 _ZN7android8hardware5radi
1341:   FUNC GLOBAL DEFAULT 14 _ZN7android8hardware5radi
1342:   FUNC GLOBAL DEFAULT 14 _ZN7android8hardware5radi
1343:   FUNC GLOBAL DEFAULT 14 _ZN7android8hardware5radi
1344:   FUNC GLOBAL DEFAULT 14 _ZN7android8hardware5radi
1345:   FUNC GLOBAL DEFAULT 14 _ZN7android8hardware5radi
1346:   FUNC GLOBAL DEFAULT 14 _ZN7android8hardware5radi
1347:   OBJECT GLOBAL DEFAULT 18 _ZTCN7android8hardware5ra
1348:   FUNC GLOBAL DEFAULT 14 _ZN7android8hardware5radi
1349:   FUNC GLOBAL DEFAULT 14 _ZN7android8hardware5radi
1350:   FUNC GLOBAL DEFAULT 14 _ZN7android8hardware5radi
1351:   FUNC GLOBAL DEFAULT 14 _ZN7android8hardware5radi
1352:   FUNC GLOBAL DEFAULT 14 _ZN7android8hardware5radi
1353:   FUNC GLOBAL DEFAULT 14 _ZN7android8hardware5radi
1354:   FUNC GLOBAL DEFAULT 14 _ZN7android8hardware5radi
1355:   FUNC GLOBAL DEFAULT 14 _ZN7android8hardware5radi
1356:   FUNC GLOBAL DEFAULT 14 _ZN7android8hardware5radi
1357:   FUNC GLOBAL DEFAULT 14 _ZN7android8hardware5radi
1358:   FUNC GLOBAL DEFAULT 14 _ZN7android8hardware5radi
1359:   FUNC GLOBAL DEFAULT 14 __aeabi_memclr8
1360:   FUNC GLOBAL DEFAULT 14 _ZN7android8hardware5radi
1361:   FUNC GLOBAL DEFAULT 14 _ZN7android8hardware5radi
1362:   FUNC GLOBAL DEFAULT 14 _ZN7android8hardware5radi
1363:   FUNC GLOBAL DEFAULT 14 _ZN7android8hardware5radi
1364:   OBJECT GLOBAL DEFAULT 18 _ZTCN7android8hardware5ra
1365:   FUNC GLOBAL DEFAULT 14 _ZN7android8hardware5radi
1366:   FUNC GLOBAL DEFAULT 14 _ZN7android8hardware5radi
1367:   FUNC GLOBAL DEFAULT 14 _ZN7android8hardware5radi
1368:   FUNC GLOBAL DEFAULT 14 _ZN7android8hardware5radi
1369:   OBJECT GLOBAL DEFAULT 18 _ZTCN7android8hardware5ra
1370:   FUNC GLOBAL DEFAULT 14 _ZN7android8hardware5radi
1371:   FUNC GLOBAL DEFAULT 14 _ZN7android8hardware5radi
1372:   FUNC GLOBAL DEFAULT 14 _ZN7android8hardware5radi
1373:   FUNC GLOBAL DEFAULT 14 _ZN7android8hardware5radi
1374:   FUNC GLOBAL DEFAULT 14 _ZN7android8hardware5radi
1375:   FUNC GLOBAL DEFAULT 14 _ZN7android8hardware5radi
1376:   FUNC GLOBAL DEFAULT 14 _ZN7android8hardware5radi
1377:   FUNC WEAK DEFAULT 14 _ZN7android8hardware7deta
1378:   FUNC WEAK DEFAULT 14 _ZN7android8hardware7deta
1379:   FUNC GLOBAL DEFAULT 14 _ZN7android8hardware5radi
1380:   OBJECT GLOBAL DEFAULT 18 _ZTVN7android8hardware5ra
1381:   FUNC GLOBAL DEFAULT 14 _ZN7android8hardware5radi
1382:   FUNC GLOBAL DEFAULT 14 _ZN7android8hardware5radi
1383:   FUNC GLOBAL DEFAULT 14 _ZN7android8hardware5radi
1384:   FUNC GLOBAL DEFAULT 14 _ZN7android8hardware5radi
1385:   FUNC GLOBAL DEFAULT 14 _ZN7android8hardware5radi
1386:   FUNC GLOBAL DEFAULT 14 _ZN7android8hardware5radi
1387:   FUNC GLOBAL DEFAULT 14 _ZN7android8hardware5radi
1388:   FUNC GLOBAL DEFAULT 14 _ZN7android8hardware5radi
1389:   FUNC GLOBAL DEFAULT 14 _ZN7android8hardware5radi
1390:   FUNC WEAK DEFAULT 14 _ZN7android8hardware7deta
1391:   FUNC GLOBAL DEFAULT 14 _ZN7android8hardware5radi
1392:   FUNC GLOBAL DEFAULT 14 _ZN7android8hardware5radi
1393:   OBJECT GLOBAL DEFAULT 18 _ZTTN7android8hardware5ra
1394:   OBJECT GLOBAL DEFAULT 18 _ZTCN7android8hardware5ra
1395:   FUNC GLOBAL DEFAULT 14 _ZN7android8hardware5radi
1396:   FUNC GLOBAL DEFAULT 14 _ZN7android8hardware5radi
1397:   FUNC GLOBAL DEFAULT 14 _ZN7android8hardware5radi
1398:   FUNC GLOBAL DEFAULT 14 _ZN7android8hardware5radi
1399:   FUNC GLOBAL DEFAULT 14 _ZN7android8hardware5radi
1400:   FUNC GLOBAL DEFAULT 14 _ZN7android8hardware5radi
1401:   FUNC GLOBAL DEFAULT 14 _ZN7android8hardware5radi
1402:   FUNC GLOBAL DEFAULT 14 _ZN7android8hardware5radi
1403:   FUNC GLOBAL DEFAULT 14 _ZN7android8hardware5radi
1404:   FUNC GLOBAL DEFAULT 14 _ZN7android8hardware5radi
1405:   FUNC GLOBAL DEFAULT 14 _ZN7android8hardware5radi
1406:   FUNC GLOBAL DEFAULT 14 _ZN7android8hardware5radi
1407:   FUNC GLOBAL DEFAULT 14 _ZN7android8hardware5radi
1408:   OBJECT GLOBAL DEFAULT 18 _ZTCN7android8hardware5ra
1409:   FUNC GLOBAL DEFAULT 14 _ZN7android8hardware5radi
1410:   FUNC GLOBAL DEFAULT 14 _ZN7android8hardware5radi
1411:   OBJECT GLOBAL DEFAULT 16 _ZN7android8hardware5radi
1412:   FUNC GLOBAL DEFAULT 14 _ZN7android8hardware5radi
1413:   FUNC GLOBAL DEFAULT 14 _ZN7android8hardware5radi
1414:   FUNC GLOBAL DEFAULT 14 _ZN7android8hardware5radi
1415:   FUNC GLOBAL DEFAULT 14 _ZN7android8hardware5radi
1416:   FUNC GLOBAL DEFAULT 14 _ZN7android8hardware5radi
1417:   FUNC GLOBAL DEFAULT 14 _ZN7android8hardware5radi
1418:   FUNC GLOBAL DEFAULT 14 _ZN7android8hardware5radi
1419:   FUNC GLOBAL DEFAULT 14 _ZN7android8hardware5radi
1420:   FUNC GLOBAL DEFAULT 14 _ZN7android8hardware5radi
1421:   FUNC GLOBAL DEFAULT 14 _ZN7android8hardware5radi
1422:   FUNC WEAK DEFAULT 14 _ZN7android8hardware7deta
1423:   FUNC GLOBAL DEFAULT 14 _ZN7android8hardware5radi
1424:   FUNC GLOBAL DEFAULT 14 _ZN7android8hardware5radi
1425:   FUNC GLOBAL DEFAULT 14 _ZN7android8hardware5radi
1426:   FUNC GLOBAL DEFAULT 14 _ZN7android8hardware5radi
1427:   FUNC GLOBAL DEFAULT 14 _ZN7android8hardware5radi
1428:   FUNC GLOBAL DEFAULT 14 _ZN7android8hardware5radi
1429:   FUNC GLOBAL DEFAULT 14 _ZN7android8hardware5radi
1430:   FUNC GLOBAL DEFAULT 14 _ZN7android8hardware5radi
1431:   FUNC GLOBAL DEFAULT 14 _ZN7android8hardware5radi
1432:   FUNC GLOBAL DEFAULT 14 _ZN7android8hardware5radi
1433:   FUNC GLOBAL DEFAULT 14 _ZN7android8hardware5radi
1434:   FUNC GLOBAL DEFAULT 14 _ZN7android8hardware5radi
1435:   FUNC GLOBAL DEFAULT 14 _ZN7android8hardware5radi
1436:   FUNC GLOBAL DEFAULT 14 _ZN7android8hardware5radi
1437:   FUNC GLOBAL DEFAULT 14 _ZN7android8hardware5radi
1438:   FUNC GLOBAL DEFAULT 14 _ZN7android8hardware5radi
1439:   FUNC GLOBAL DEFAULT 14 __aeabi_memcpy
1440:   FUNC GLOBAL DEFAULT 14 _ZN7android8hardware5radi
1441:   OBJECT GLOBAL DEFAULT 18 _ZTCN7android8hardware5ra
1442:   FUNC GLOBAL DEFAULT 14 _ZN7android8hardware5radi
1443:   FUNC GLOBAL DEFAULT 14 _ZN7android8hardware5radi
1444:   FUNC GLOBAL DEFAULT 14 _ZN7android8hardware5radi
1445:   FUNC GLOBAL DEFAULT 14 _ZN7android8hardware5radi
1446:   FUNC GLOBAL DEFAULT 14 _ZN7android8hardware5radi
1447:   FUNC GLOBAL DEFAULT 14 _ZN7android8hardware5radi
1448:   FUNC GLOBAL DEFAULT 14 _ZN7android8hardware5radi
1449:   FUNC GLOBAL DEFAULT 14 _ZN7android8hardware5radi
1450:   FUNC GLOBAL DEFAULT 14 _ZN7android8hardware5radi
1451:   FUNC GLOBAL DEFAULT 14 _ZN7android8hardware5radi
1452:   FUNC GLOBAL DEFAULT 14 _ZN7android8hardware5radi
1453:   FUNC GLOBAL DEFAULT 14 _ZN7android8hardware5radi
1454:   FUNC GLOBAL DEFAULT 14 _ZN7android8hardware5radi
1455:   FUNC GLOBAL DEFAULT 14 _ZN7android8hardware5radi
1456:   FUNC GLOBAL DEFAULT 14 _ZN7android8hardware5radi
1457:   FUNC GLOBAL DEFAULT 14 _ZN7android8hardware5radi
1458:   OBJECT GLOBAL DEFAULT 18 _ZTCN7android8hardware5ra
1459:   FUNC GLOBAL DEFAULT 14 _ZN7android8hardware5radi
1460:   FUNC GLOBAL DEFAULT 14 _ZN7android8hardware5radi
1461:   FUNC GLOBAL DEFAULT 14 _ZN7android8hardware5radi
1462:   FUNC GLOBAL DEFAULT 14 _ZN7android8hardware5radi
1463:   OBJECT GLOBAL DEFAULT 18 _ZTCN7android8hardware5ra
1464:   FUNC GLOBAL DEFAULT 14 _ZN7android8hardware5radi
1465:   FUNC GLOBAL DEFAULT 14 _ZN7android8hardware5radi
1466:   FUNC GLOBAL DEFAULT 14 _ZN7android8hardware5radi
1467:   FUNC GLOBAL DEFAULT 14 _ZN7android8hardware5radi
1468:   FUNC GLOBAL DEFAULT 14 _ZN7android8hardware5radi
1469:   FUNC GLOBAL DEFAULT 14 _ZN7android8hardware5radi
1470:   FUNC GLOBAL DEFAULT 14 _ZN7android8hardware5radi
1471:   FUNC GLOBAL DEFAULT 14 _ZN7android8hardware5radi
1472:   FUNC GLOBAL DEFAULT 14 _ZN7android8hardware5radi
1473:   FUNC GLOBAL DEFAULT 14 _ZN7android8hardware5radi
1474:   OBJECT GLOBAL DEFAULT 18 _ZTCN7android8hardware5ra
1475:   FUNC GLOBAL DEFAULT 14 _ZN7android8hardware5radi
1476:   FUNC GLOBAL DEFAULT 14 _ZN7android8hardware5radi
1477:   FUNC GLOBAL DEFAULT 14 _ZN7android8hardware5radi
1478:   FUNC GLOBAL DEFAULT 14 _ZN7android8hardware5radi
1479:   FUNC GLOBAL DEFAULT 14 _ZN7android8hardware5radi
1480:   OBJECT GLOBAL DEFAULT 18 _ZTCN7android8hardware5ra
1481:   FUNC GLOBAL DEFAULT 14 _ZN7android8hardware5radi
1482:   FUNC GLOBAL DEFAULT 14 _ZN7android8hardware5radi
1483:   FUNC GLOBAL DEFAULT 14 _ZN7android8hardware5radi
1484:   FUNC GLOBAL DEFAULT 14 _ZN7android8hardware5radi
1485:   FUNC GLOBAL DEFAULT 14 _ZN7android8hardware5radi
1486:   FUNC GLOBAL DEFAULT 14 _ZN7android8hardware5radi
1487:   FUNC WEAK DEFAULT 14 _ZNSt3__16vectorIPvNS_9al
1488:   OBJECT GLOBAL DEFAULT 18 _ZTVN7android8hardware5ra
1489:   FUNC GLOBAL DEFAULT 14 _ZN7android8hardware5radi
1490:   FUNC GLOBAL DEFAULT 14 _ZN7android8hardware5radi
1491:   FUNC GLOBAL DEFAULT 14 _ZN7android8hardware5radi
1492:   FUNC GLOBAL DEFAULT 14 _ZN7android8hardware5radi
1493:   FUNC GLOBAL DEFAULT 14 _ZN7android8hardware5radi
1494:   FUNC WEAK DEFAULT 14 _ZNSt3__16__treeINS_12__v
1495:   FUNC GLOBAL DEFAULT 14 _ZN7android8hardware5radi
1496:   FUNC GLOBAL DEFAULT 14 _ZN7android8hardware5radi
1497:   FUNC GLOBAL DEFAULT 14 __aeabi_memcpy4
1498:   FUNC GLOBAL DEFAULT 14 _ZN7android8hardware5radi
1499:   FUNC WEAK DEFAULT 14 _ZNSt3__16__treeINS_12__v
1500:   FUNC GLOBAL DEFAULT 14 _ZN7android8hardware5radi
1501:   FUNC GLOBAL DEFAULT 14 _ZN7android8hardware5radi
1502:   FUNC GLOBAL DEFAULT 14 _ZN7android8hardware5radi
1503:   FUNC GLOBAL DEFAULT 14 _ZN7android8hardware5radi
1504:   FUNC GLOBAL DEFAULT 14 _ZN7android8hardware5radi
1505:   FUNC GLOBAL DEFAULT 14 _ZN7android8hardware5radi
1506:   FUNC GLOBAL DEFAULT 14 _ZN7android8hardware5radi
1507:   FUNC GLOBAL DEFAULT 14 _ZN7android8hardware5radi
1508:   FUNC GLOBAL DEFAULT 14 _ZN7android8hardware5radi
1509:   FUNC GLOBAL DEFAULT 14 __aeabi_memcpy8
1510:   FUNC GLOBAL DEFAULT 14 _ZN7android8hardware5radi
1511:   FUNC GLOBAL DEFAULT 14 _ZN7android8hardware5radi
1512:   FUNC GLOBAL DEFAULT 14 _ZN7android8hardware5radi
1513:   FUNC GLOBAL DEFAULT 14 _ZN7android8hardware5radi
1514:   OBJECT GLOBAL DEFAULT 18 _ZTCN7android8hardware5ra
1515:   OBJECT GLOBAL DEFAULT 18 _ZTTN7android8hardware5ra
1516:   FUNC GLOBAL DEFAULT 14 _ZN7android8hardware5radi
1517:   FUNC GLOBAL DEFAULT 14 _ZN7android8hardware5radi
1518:   FUNC GLOBAL DEFAULT 14 _ZN7android8hardware5radi
1519:   FUNC GLOBAL DEFAULT 14 _ZN7android8hardware5radi
1520:   OBJECT GLOBAL DEFAULT 18 _ZTTN7android8hardware5ra
1521:   FUNC GLOBAL DEFAULT 14 _ZN7android8hardware5radi
1522:   FUNC GLOBAL DEFAULT 14 _ZN7android8hardware5radi
1523:   FUNC GLOBAL DEFAULT 14 _ZN7android8hardware5radi
1524:   FUNC GLOBAL DEFAULT 14 _ZN7android8hardware5radi
1525:   OBJECT GLOBAL DEFAULT 18 _ZTVN7android8hardware5ra
1526:   FUNC GLOBAL DEFAULT 14 _ZN7android8hardware5radi
1527:   FUNC GLOBAL DEFAULT 14 _ZN7android8hardware5radi
1528:   FUNC GLOBAL DEFAULT 14 _ZN7android8hardware5radi
1529:   FUNC GLOBAL DEFAULT 14 _ZN7android8hardware5radi
1530:   FUNC WEAK DEFAULT 14 _ZN7android8hardware7deta
1531:   OBJECT GLOBAL DEFAULT 18 _ZTCN7android8hardware5ra
1532:   FUNC GLOBAL DEFAULT 14 _ZN7android8hardware5radi
1533:   FUNC GLOBAL DEFAULT 14 _ZN7android8hardware5radi
1534:   FUNC GLOBAL DEFAULT 14 _ZN7android8hardware5radi
1535:   FUNC GLOBAL DEFAULT 14 _ZN7android8hardware5radi
1536:   FUNC GLOBAL DEFAULT 14 _ZN7android8hardware5radi
1537:   FUNC GLOBAL DEFAULT 14 _ZN7android8hardware5radi
1538:   FUNC GLOBAL DEFAULT 14 _ZN7android8hardware5radi
1539:   FUNC GLOBAL DEFAULT 14 _ZN7android8hardware5radi
1540:   OBJECT GLOBAL DEFAULT 18 _ZTCN7android8hardware5ra
1541:   FUNC GLOBAL DEFAULT 14 _ZN7android8hardware5radi
1542:   OBJECT GLOBAL DEFAULT 18 _ZTTN7android8hardware5ra
1543:   FUNC GLOBAL DEFAULT 14 _ZN7android8hardware5radi
1544:   FUNC GLOBAL DEFAULT 14 _ZN7android8hardware5radi
1545:   FUNC GLOBAL DEFAULT 14 _ZN7android8hardware5radi
1546:   FUNC GLOBAL DEFAULT 14 _ZN7android8hardware5radi
1547:   FUNC GLOBAL DEFAULT 14 _ZN7android8hardware5radi
1548:   FUNC GLOBAL DEFAULT 14 _ZN7android8hardware5radi
1549:   FUNC GLOBAL DEFAULT 14 _ZN7android8hardware5radi
1550:   FUNC GLOBAL DEFAULT 14 _ZN7android8hardware5radi
1551:   FUNC GLOBAL DEFAULT 14 _ZN7android8hardware5radi
1552:   FUNC GLOBAL DEFAULT 14 _ZN7android8hardware5radi
1553:   FUNC GLOBAL DEFAULT 14 _ZN7android8hardware5radi
1554:   FUNC GLOBAL DEFAULT 14 _ZN7android8hardware5radi
1555:   FUNC GLOBAL DEFAULT 14 _ZN7android8hardware5radi
1556:   FUNC GLOBAL DEFAULT 14 _ZN7android8hardware5radi
1557:   FUNC GLOBAL DEFAULT 14 _ZN7android8hardware5radi
1558:   FUNC GLOBAL DEFAULT 14 _ZN7android8hardware5radi
1559:   FUNC GLOBAL DEFAULT 14 _ZN7android8hardware5radi
1560:   FUNC GLOBAL DEFAULT 14 _ZN7android8hardware5radi
1561:   FUNC GLOBAL DEFAULT 14 _ZN7android8hardware5radi
1562:   FUNC GLOBAL DEFAULT 14 _ZN7android8hardware5radi
1563:   FUNC GLOBAL DEFAULT 14 _ZN7android8hardware5radi
1564:   FUNC GLOBAL DEFAULT 14 _ZN7android8hardware5radi
1565:   FUNC GLOBAL DEFAULT 14 _ZN7android8hardware5radi
1566:   FUNC GLOBAL DEFAULT 14 _ZN7android8hardware5radi
1567:   FUNC GLOBAL DEFAULT 14 _ZN7android8hardware5radi
1568:   FUNC GLOBAL DEFAULT 14 _ZN7android8hardware5radi
1569:   FUNC GLOBAL DEFAULT 14 _ZN7android8hardware5radi
1570:   FUNC GLOBAL DEFAULT 14 _ZN7android8hardware5radi
1571:   FUNC GLOBAL DEFAULT 14 _ZN7android8hardware5radi
1572:   OBJECT GLOBAL DEFAULT 18 _ZTTN7android8hardware5ra
1573:   FUNC GLOBAL DEFAULT 14 _ZN7android8hardware5radi
1574:   FUNC GLOBAL DEFAULT 14 _ZN7android8hardware5radi
1575:   FUNC GLOBAL DEFAULT 14 _ZN7android8hardware5radi
1576:   FUNC GLOBAL DEFAULT 14 _ZN7android8hardware5radi
1577:   OBJECT WEAK DEFAULT 18 _ZTCN7android8hardware5ra
1578:   OBJECT GLOBAL DEFAULT 18 _ZTCN7android8hardware5ra
1579:   FUNC GLOBAL DEFAULT 14 _ZN7android8hardware5radi
1580:   FUNC GLOBAL DEFAULT 14 _ZN7android8hardware5radi
1581:   OBJECT WEAK DEFAULT 18 _ZTVN7android8hardware5ra
1582:   FUNC GLOBAL DEFAULT 14 _ZN7android8hardware5radi
1583:   FUNC GLOBAL DEFAULT 14 _ZN7android8hardware5radi
1584:   FUNC GLOBAL DEFAULT 14 _ZN7android8hardware5radi
1585:   FUNC GLOBAL DEFAULT 14 _ZN7android8hardware5radi
1586:   OBJECT WEAK DEFAULT 18 _ZTCN7android8hardware5ra
1587:   FUNC GLOBAL DEFAULT 14 _ZN7android8hardware5radi
1588:   OBJECT GLOBAL DEFAULT 18 _ZTCN7android8hardware5ra
1589:   FUNC GLOBAL DEFAULT 14 _ZN7android8hardware5radi
1590:   FUNC GLOBAL DEFAULT 14 _ZN7android8hardware5radi
1591:   FUNC GLOBAL DEFAULT 14 _ZN7android8hardware5radi
1592:   FUNC GLOBAL DEFAULT 14 _ZN7android8hardware5radi
1593:   OBJECT GLOBAL DEFAULT 18 _ZTCN7android8hardware5ra
1594:   FUNC GLOBAL DEFAULT 14 _ZN7android8hardware5radi
1595:   FUNC GLOBAL DEFAULT 14 _ZN7android8hardware5radi
1596:   FUNC GLOBAL DEFAULT 14 _ZN7android8hardware5radi
1597:   FUNC GLOBAL DEFAULT 14 _ZN7android8hardware5radi
1598:   FUNC GLOBAL DEFAULT 14 _ZN7android8hardware5radi
1599:   FUNC GLOBAL DEFAULT 14 _ZN7android8hardware5radi
1600:   FUNC GLOBAL DEFAULT 14 _ZN7android8hardware5radi
1601:   OBJECT GLOBAL DEFAULT 18 _ZTTN7android8hardware5ra
1602:   OBJECT GLOBAL DEFAULT 18 _ZTCN7android8hardware5ra
1603:   FUNC GLOBAL DEFAULT 14 _ZN7android8hardware5radi
1604:   FUNC GLOBAL DEFAULT 14 _ZN7android8hardware5radi
1605:   FUNC GLOBAL DEFAULT 14 _ZN7android8hardware5radi
1606:   FUNC GLOBAL DEFAULT 14 _ZN7android8hardware5radi
1607:   FUNC GLOBAL DEFAULT 14 _ZN7android8hardware5radi
1608:   FUNC GLOBAL DEFAULT 14 _ZN7android8hardware5radi
1609:   FUNC GLOBAL DEFAULT 14 _ZN7android8hardware5radi
1610:   FUNC WEAK DEFAULT 14 _ZNSt3__16vectorIN7androi
1611:   FUNC GLOBAL DEFAULT 14 _ZN7android8hardware5radi
1612:   FUNC GLOBAL DEFAULT 14 __aeabi_memclr
1613:   FUNC GLOBAL DEFAULT 14 _ZN7android8hardware5radi
1614:   FUNC GLOBAL DEFAULT 14 _ZN7android8hardware5radi
1615:   FUNC GLOBAL DEFAULT 14 _ZN7android8hardware5radi
1616:   FUNC GLOBAL DEFAULT 14 _ZN7android8hardware5radi
1617:   FUNC GLOBAL DEFAULT 14 _ZN7android8hardware5radi
1618:   FUNC GLOBAL DEFAULT 14 _ZN7android8hardware5radi
1619:   FUNC GLOBAL DEFAULT 14 _ZN7android8hardware5radi
1620:   FUNC GLOBAL DEFAULT 14 _ZN7android8hardware5radi
1621:   FUNC GLOBAL DEFAULT 14 _ZN7android8hardware5radi
1622:   OBJECT GLOBAL DEFAULT 18 _ZTCN7android8hardware5ra
1623:   FUNC GLOBAL DEFAULT 14 _ZN7android8hardware5radi
1624:   FUNC WEAK DEFAULT 14 _ZNSt3__16__treeINS_12__v
1625:   OBJECT GLOBAL DEFAULT 18 _ZTCN7android8hardware5ra
1626:   FUNC GLOBAL DEFAULT 14 _ZN7android8hardware5radi
1627:   FUNC GLOBAL DEFAULT 14 _ZN7android8hardware5radi
1628:   FUNC GLOBAL DEFAULT 14 _ZN7android8hardware5radi
1629:   FUNC GLOBAL DEFAULT 14 _ZN7android8hardware5radi
1630:   FUNC GLOBAL DEFAULT 14 _ZN7android8hardware5radi
1631:   OBJECT GLOBAL DEFAULT 18 _ZTCN7android8hardware5ra
1632:   FUNC GLOBAL DEFAULT 14 _ZTv0_n12_N7android8hardw
1633:   FUNC GLOBAL DEFAULT 14 _ZN7android8hardware5radi
1634:   FUNC GLOBAL DEFAULT 14 _ZN7android8hardware5radi
1635:   FUNC GLOBAL DEFAULT 14 _ZN7android8hardware5radi
1636:   OBJECT GLOBAL DEFAULT 18 _ZTCN7android8hardware5ra
1637:   FUNC GLOBAL DEFAULT 14 _ZN7android8hardware5radi
1638:   FUNC GLOBAL DEFAULT 14 _ZN7android8hardware5radi
1639:   FUNC GLOBAL DEFAULT 14 _ZN7android8hardware5radi
1640:   FUNC GLOBAL DEFAULT 14 _ZN7android8hardware5radi
1641:   FUNC GLOBAL DEFAULT 14 _ZN7android8hardware5radi
1642:   FUNC GLOBAL DEFAULT 14 _ZTv0_n12_N7android8hardw
1643:   FUNC GLOBAL DEFAULT 14 _ZN7android8hardware5radi
1644:   FUNC GLOBAL DEFAULT 14 _ZN7android8hardware5radi
