 0x000000000000000e (SONAME)             Library soname: [libartd-dexlayout.so]
  
Symbol   contains 443 entries:
Num:   Type Bind Vis Ndx Name
0:   NOTYPE LOCAL DEFAULT UND
1:   FUNC GLOBAL DEFAULT UND __cxa_finalize@LIBC (2)
2:   FUNC GLOBAL DEFAULT UND __cxa_atexit@LIBC (2)
3:   OBJECT GLOBAL DEFAULT UND _ZN3art11Instruction23kIn
4:   OBJECT GLOBAL DEFAULT UND _ZN3art13gLogVerbosityE
5:   FUNC GLOBAL DEFAULT UND _ZN3art14CompactDexFile10
6:   FUNC GLOBAL DEFAULT UND _ZN3art14CompactDexFile17
7:   FUNC GLOBAL DEFAULT UND _ZN3art14CompactDexFile19
8:   FUNC GLOBAL DEFAULT UND _ZN3art18CompactOffsetTab
9:   FUNC GLOBAL DEFAULT UND _ZN3art18CompactOffsetTab
10:   FUNC GLOBAL DEFAULT UND _ZN3art22CountModifiedUtf
11:   FUNC GLOBAL DEFAULT UND _ZN3art8NanoTimeEv
12:   FUNC GLOBAL DEFAULT UND _ZN7android4base10LogMess
13:   FUNC GLOBAL DEFAULT UND _ZN7android4base10LogMess
14:   FUNC GLOBAL DEFAULT UND _ZN7android4base10LogMess
15:   FUNC GLOBAL DEFAULT UND _ZN7android4base12StringP
16:   FUNC GLOBAL DEFAULT UND _ZN7android4base21GetMini
17:   FUNC GLOBAL DEFAULT UND _ZNK3art11Instruction28Si
18:   FUNC GLOBAL DEFAULT UND _ZNK3art11Instruction39Co
19:   FUNC GLOBAL DEFAULT UND _ZNK3art18CompactOffsetTa
20:   FUNC GLOBAL DEFAULT UND _ZNKSt3__120__vector_base
21:   FUNC GLOBAL DEFAULT UND _ZNKSt3__16locale9use_fac
22:   FUNC GLOBAL DEFAULT UND _ZNKSt3__18ios_base6getlo
23:   FUNC GLOBAL DEFAULT UND _ZNSt3__112__next_primeEm
24:   FUNC GLOBAL DEFAULT UND _ZNSt3__113basic_ostreamI
25:   FUNC GLOBAL DEFAULT UND _ZNSt3__113basic_ostreamI
26:   FUNC GLOBAL DEFAULT UND _ZNSt3__113basic_ostreamI
27:   FUNC GLOBAL DEFAULT UND _ZNSt3__113basic_ostreamI
28:   FUNC GLOBAL DEFAULT UND _ZNSt3__113basic_ostreamI
29:   FUNC GLOBAL DEFAULT UND _ZNSt3__113basic_ostreamI
30:   OBJECT GLOBAL DEFAULT UND _ZNSt3__15ctypeIcE2idE
31:   FUNC GLOBAL DEFAULT UND _ZNSt3__16localeD1Ev
32:   FUNC GLOBAL DEFAULT UND _ZNSt3__18ios_base5clearE
33:   FUNC GLOBAL DEFAULT UND _ZdlPv
34:   FUNC GLOBAL DEFAULT UND _Znwm
35:   FUNC GLOBAL DEFAULT UND __errno@LIBC (2)
36:   FUNC GLOBAL DEFAULT UND __stack_chk_fail@LIBC (2)
37:   FUNC GLOBAL DEFAULT UND abort@LIBC (2)
38:   FUNC GLOBAL DEFAULT UND memcpy@LIBC (2)
39:   FUNC GLOBAL DEFAULT UND memset@LIBC (2)
40:   FUNC GLOBAL DEFAULT UND strlen@LIBC (2)
41:   OBJECT GLOBAL DEFAULT UND _ZN3art11Instruction17kIn
42:   FUNC GLOBAL DEFAULT UND _ZN3art15DescriptorToDotE
43:   FUNC GLOBAL DEFAULT UND _ZN3art2OS15CreateEmptyFi
44:   FUNC GLOBAL DEFAULT UND _ZN3artlsERNSt3__113basic
45:   FUNC GLOBAL DEFAULT UND _ZN9unix_file6FdFile10Wri
46:   FUNC GLOBAL DEFAULT UND _ZN9unix_file6FdFile17Flu
47:   FUNC GLOBAL DEFAULT UND _ZN9unix_file6FdFile5Eras
48:   FUNC GLOBAL DEFAULT UND _ZNK3art13DexFileLoader19
49:   FUNC GLOBAL DEFAULT UND _ZNK3art16ArtDexFileLoade
50:   FUNC GLOBAL DEFAULT UND _ZNK3art22ProfileCompilat
51:   FUNC GLOBAL DEFAULT UND _ZNK3art22ProfileCompilat
52:   FUNC GLOBAL DEFAULT UND _ZNKSt3__112basic_stringI
53:   FUNC GLOBAL DEFAULT UND _ZNKSt3__121__basic_strin
54:   FUNC GLOBAL DEFAULT UND _ZNSt3__112basic_stringIc
55:   FUNC GLOBAL DEFAULT UND _ZNSt3__112basic_stringIc
56:   FUNC GLOBAL DEFAULT UND _ZNSt3__112basic_stringIc
57:   FUNC GLOBAL DEFAULT UND _ZNSt3__112basic_stringIc
58:   FUNC GLOBAL DEFAULT UND _ZNSt3__112basic_stringIc
59:   FUNC GLOBAL DEFAULT UND _ZNSt3__112basic_stringIc
60:   FUNC GLOBAL DEFAULT UND _ZNSt3__113basic_istreamI
61:   FUNC GLOBAL DEFAULT UND _ZNSt3__113basic_istreamI
62:   FUNC GLOBAL DEFAULT UND _ZNSt3__113basic_ostreamI
63:   FUNC GLOBAL DEFAULT UND _ZNSt3__113basic_ostreamI
64:   FUNC GLOBAL DEFAULT UND _ZNSt3__113basic_ostreamI
65:   FUNC GLOBAL DEFAULT UND _ZNSt3__114basic_iostream
66:   FUNC GLOBAL DEFAULT UND _ZNSt3__114basic_iostream
67:   FUNC GLOBAL DEFAULT UND _ZNSt3__114basic_iostream
68:   FUNC GLOBAL DEFAULT UND _ZNSt3__115basic_streambu
69:   FUNC GLOBAL DEFAULT UND _ZNSt3__115basic_streambu
70:   FUNC GLOBAL DEFAULT UND _ZNSt3__115basic_streambu
71:   FUNC GLOBAL DEFAULT UND _ZNSt3__115basic_streambu
72:   FUNC GLOBAL DEFAULT UND _ZNSt3__115basic_streambu
73:   FUNC GLOBAL DEFAULT UND _ZNSt3__115basic_streambu
74:   FUNC GLOBAL DEFAULT UND _ZNSt3__115basic_streambu
75:   FUNC GLOBAL DEFAULT UND _ZNSt3__115basic_streambu
76:   FUNC GLOBAL DEFAULT UND _ZNSt3__115basic_streambu
77:   FUNC GLOBAL DEFAULT UND _ZNSt3__18ios_base4initEP
78:   FUNC GLOBAL DEFAULT UND _ZNSt3__19basic_iosIcNS_1
79:   OBJECT GLOBAL DEFAULT UND _ZSt7nothrow
80:   OBJECT GLOBAL DEFAULT UND _ZTVN3art16ArtDexFileLoad
81:   FUNC GLOBAL DEFAULT UND _ZThn16_NSt3__114basic_io
82:   FUNC GLOBAL DEFAULT UND _ZThn16_NSt3__114basic_io
83:   FUNC GLOBAL DEFAULT UND _ZTv0_n24_NSt3__113basic_
84:   FUNC GLOBAL DEFAULT UND _ZTv0_n24_NSt3__113basic_
85:   FUNC GLOBAL DEFAULT UND _ZTv0_n24_NSt3__113basic_
86:   FUNC GLOBAL DEFAULT UND _ZTv0_n24_NSt3__113basic_
87:   FUNC GLOBAL DEFAULT UND _ZTv0_n24_NSt3__114basic_
88:   FUNC GLOBAL DEFAULT UND _ZTv0_n24_NSt3__114basic_
89:   FUNC GLOBAL DEFAULT UND _ZdaPv
90:   FUNC GLOBAL DEFAULT UND _Znam
91:   FUNC GLOBAL DEFAULT UND _ZnwmRKSt9nothrow_t
92:   FUNC GLOBAL DEFAULT UND __strchr_chk@LIBC (2)
93:   FUNC GLOBAL DEFAULT UND __vsnprintf_chk@LIBC (2)
94:   FUNC GLOBAL DEFAULT UND exit@LIBC (2)
95:   FUNC GLOBAL DEFAULT UND fprintf@LIBC (2)
96:   FUNC GLOBAL DEFAULT UND fputc@LIBC (2)
97:   FUNC GLOBAL DEFAULT UND fputs@LIBC (2)
98:   FUNC GLOBAL DEFAULT UND free@LIBC (2)
99:   FUNC GLOBAL DEFAULT UND fwrite@LIBC (2)
100:   FUNC GLOBAL DEFAULT UND malloc@LIBC (2)
101:   FUNC GLOBAL DEFAULT UND memcmp@LIBC (2)
102:   FUNC GLOBAL DEFAULT UND putc@LIBC (2)
103:   FUNC GLOBAL DEFAULT UND strcmp@LIBC (2)
104:   FUNC GLOBAL DEFAULT UND strdup@LIBC (2)
105:   FUNC GLOBAL DEFAULT UND strrchr@LIBC (2)
106:   FUNC GLOBAL DEFAULT UND toupper@LIBC (2)
107:   FUNC GLOBAL DEFAULT UND _ZNSt3__112basic_stringIc
108:   FUNC GLOBAL DEFAULT UND _ZN3art20CatchHandlerIter
109:   FUNC GLOBAL DEFAULT UND _ZN3art20CatchHandlerIter
110:   FUNC GLOBAL DEFAULT UND _ZNSt3__112basic_stringIc
111:   FUNC GLOBAL DEFAULT UND _ZNSt3__112basic_stringIc
112:   FUNC GLOBAL DEFAULT UND _ZNSt3__19to_stringEm
113:   FUNC GLOBAL DEFAULT UND fclose@LIBC (2)
114:   FUNC GLOBAL DEFAULT UND fopen@LIBC (2)
115:   OBJECT GLOBAL DEFAULT UND stdout@LIBC (2)
116:   FUNC GLOBAL DEFAULT UND _ZN3art14CompactDexFile12
117:   FUNC GLOBAL DEFAULT UND _ZN3art15StandardDexFile1
118:   FUNC GLOBAL DEFAULT UND _ZN3art15StandardDexFile1
119:   FUNC GLOBAL DEFAULT UND _ZN3art7DexFile17Calculat
120:   FUNC WEAK PROTECTED 14 _ZNSt3__16vectorINS_10uni
121:   FUNC WEAK PROTECTED 14 _ZNSt3__16vectorINS_10uni
122:   FUNC WEAK PROTECTED 14 _ZNSt3__16vectorINS_10uni
123:   FUNC WEAK PROTECTED 14 _ZN3art9VerifyIdsINS_6dex
124:   FUNC GLOBAL PROTECTED 14 _ZN3art9DexLayout16Layout
125:   FUNC GLOBAL PROTECTED 14 _ZN3art9DexLayout16Layout
126:   FUNC WEAK PROTECTED 14 _ZNSt3__112__hash_tableIP
127:   FUNC WEAK PROTECTED 14 _ZNSt3__16__treeINS_12__v
128:   FUNC WEAK PROTECTED 14 _ZNSt3__16vectorIPKN3art6
129:   FUNC GLOBAL PROTECTED 14 _ZN3art6dex_ir11BuilderMa
130:   FUNC WEAK PROTECTED 14 _ZNSt3__16vectorINS_10uni
131:   FUNC WEAK PROTECTED 14 _ZNSt3__16vectorINS_10uni
132:   FUNC WEAK PROTECTED 14 _ZNSt3__16__treeINS_12__v
133:   FUNC WEAK PROTECTED 14 _ZNSt3__16vectorINS_10uni
134:   OBJECT WEAK PROTECTED 18 _ZTVN3art6dex_ir23Indexed
135:   FUNC GLOBAL PROTECTED 14 _ZN3art9DexWriter15WriteS
136:   FUNC GLOBAL PROTECTED 14 _ZN3art16CompactDexWriter
137:   FUNC WEAK PROTECTED 14 _ZNSt3__112__hash_tableIN
138:   OBJECT WEAK PROTECTED 18 _ZTVN3art6dex_ir17Annotat
139:   OBJECT WEAK PROTECTED 18 _ZTVN3art6dex_ir23Indexed
140:   FUNC GLOBAL PROTECTED 14 _ZN3art9DexLayout10DumpMe
141:   OBJECT WEAK PROTECTED 18 _ZTVN3art6dex_ir23Indexed
142:   FUNC GLOBAL PROTECTED 14 _ZN3art23VerifyEncodedAnn
143:   FUNC GLOBAL PROTECTED 14 _ZN3art8VerifyIdEPNS_6dex
144:   FUNC GLOBAL PROTECTED 14 _ZN3art9DexLayout13DumpBy
145:   OBJECT WEAK PROTECTED 18 _ZTVN3art6dex_ir16Collect
146:   FUNC WEAK PROTECTED 14 _ZNSt3__115basic_stringbu
147:   FUNC WEAK PROTECTED 14 _ZNSt3__16vectorINS_10uni
148:   FUNC WEAK PROTECTED 14 _ZNSt3__16vectorIPN3art6d
149:   FUNC GLOBAL PROTECTED 14 _ZN3art9DexWriter19WriteA
150:   OBJECT WEAK PROTECTED 18 _ZTVN3art6dex_ir10StringD
151:   FUNC WEAK PROTECTED 14 _ZNSt3__16__treeINS_12__v
152:   FUNC GLOBAL PROTECTED 14 _ZN3art16CompactDexWriter
153:   FUNC WEAK PROTECTED 14 _ZNSt3__112__hash_tableIP
154:   FUNC GLOBAL PROTECTED 14 _ZN3art6dex_ir11BuilderMa
155:   OBJECT WEAK PROTECTED 18 _ZTVN3art6dex_ir13Collect
156:   FUNC GLOBAL PROTECTED 14 _ZN3art16CompactDexWriter
157:   FUNC WEAK PROTECTED 14 _ZNSt3__112__hash_tableIN
158:   OBJECT WEAK PROTECTED 18 _ZTVN3art6dex_ir23Indexed
159:   OBJECT WEAK DEFAULT 18 _ZTCNSt3__118basic_string
160:   OBJECT WEAK PROTECTED 18 _ZTVN3art6dex_ir16Collect
161:   FUNC GLOBAL PROTECTED 14 _ZN3art12VerifyFieldsEPNS
162:   OBJECT WEAK DEFAULT 18 _ZTTNSt3__118basic_string
163:   FUNC WEAK PROTECTED 14 _ZNSt3__16vectorINS_10uni
164:   OBJECT WEAK PROTECTED 18 _ZTVN3art6dex_ir13Collect
165:   OBJECT WEAK PROTECTED 18 _ZTVN3art6dex_ir16Collect
166:   FUNC GLOBAL PROTECTED 14 _ZN3art9DexWriter13WriteP
167:   FUNC GLOBAL PROTECTED 14 _ZN3art18VisualizeDexLayo
168:   FUNC WEAK PROTECTED 14 _ZNSt3__16vectorIN3art6de
169:   OBJECT WEAK PROTECTED 18 _ZTVN3art6dex_ir13Collect
170:   OBJECT WEAK PROTECTED 18 _ZTVN3art6dex_ir16Collect
171:   OBJECT WEAK PROTECTED 18 _ZTVN3art6dex_ir24Annotat
172:   FUNC GLOBAL PROTECTED 14 _ZN3art13VerifyMethodsEPN
173:   FUNC GLOBAL PROTECTED 14 _ZN3art26VerifyAnnotation
174:   FUNC GLOBAL PROTECTED 14 _ZN3art8VerifyIdEPNS_6dex
175:   FUNC GLOBAL PROTECTED 14 _ZN3art16CompactDexWriter
176:   FUNC GLOBAL PROTECTED 14 _ZN3art9DexWriter16WriteS
177:   FUNC GLOBAL PROTECTED 14 _ZN3art6dex_ir11BuilderMa
178:   FUNC WEAK PROTECTED 14 _ZN3art9VerifyIdsINS_6dex
179:   FUNC GLOBAL PROTECTED 14 _ZN3art9DexWriter11WriteH
180:   FUNC GLOBAL PROTECTED 14 _ZN3art9DexWriter23WriteE
181:   FUNC WEAK PROTECTED 14 _ZNSt3__16vectorINS_10uni
182:   OBJECT WEAK PROTECTED 18 _ZTVN3art6dex_ir23Indexed
183:   FUNC GLOBAL PROTECTED 14 _ZNK3art16CompactDexWrite
184:   FUNC WEAK PROTECTED 14 _ZNKSt3__16__treeINS_12ba
185:   FUNC WEAK PROTECTED 14 _ZNSt3__16vectorINS_10uni
186:   OBJECT WEAK PROTECTED 18 _ZTVN3art6dex_ir16Collect
187:   FUNC GLOBAL PROTECTED 14 _ZN3art8VerifyIdEPNS_6dex
188:   FUNC GLOBAL PROTECTED 14 _ZN3art9DexLayout11DumpDe
189:   FUNC GLOBAL PROTECTED 14 _ZN3art9DexLayout11Proces
190:   OBJECT WEAK PROTECTED 18 _ZTVN3art6dex_ir8StringId
191:   FUNC GLOBAL PROTECTED 14 _ZN3art13VerifyHandlerEPK
192:   FUNC WEAK PROTECTED 14 _ZN3art9VerifyIdsINS_6dex
193:   FUNC WEAK PROTECTED 14 _ZNKSt3__110__function6__
194:   FUNC GLOBAL PROTECTED 14 _ZN3art23VerifyMethodAnno
195:   FUNC GLOBAL PROTECTED 14 _ZN3art16CompactDexWriter
196:   FUNC GLOBAL PROTECTED 14 _ZN3art24ShowDexSectionSt
197:   OBJECT WEAK PROTECTED 18 _ZTVN3art6dex_ir13Collect
198:   OBJECT WEAK PROTECTED 18 _ZTVN3art6dex_ir14Annotat
199:   OBJECT WEAK PROTECTED 18 _ZTVN3art6dex_ir16Collect
200:   FUNC GLOBAL PROTECTED 14 _ZN3art18VerifyEncodedArr
201:   FUNC GLOBAL PROTECTED 14 _ZN3art9DexWriter13Proces
202:   FUNC WEAK PROTECTED 14 _ZNSt3__127__tree_balance
203:   OBJECT WEAK PROTECTED 18 _ZTVNSt3__110__function6_
204:   OBJECT WEAK PROTECTED 18 _ZTVN3art6dex_ir23Indexed
205:   FUNC GLOBAL PROTECTED 14 _ZN3art9DexWriter19WriteE
206:   OBJECT WEAK PROTECTED 18 _ZTVN3art6dex_ir16Collect
207:   OBJECT WEAK PROTECTED 18 _ZTVN3art6dex_ir16Collect
208:   FUNC GLOBAL PROTECTED 14 _ZN3art9DexWriter24Genera
209:   OBJECT WEAK PROTECTED 18 _ZTVN3art12DexContainer13
210:   FUNC GLOBAL PROTECTED 14 _ZN3art9DexLayout20DumpCl
211:   FUNC WEAK PROTECTED 14 _ZNSt3__16__treeINS_12__v
212:   FUNC GLOBAL PROTECTED 14 _ZN3art9DexWriter5WriteEP
213:   FUNC GLOBAL PROTECTED 14 _ZNK3art16CompactDexWrite
214:   FUNC GLOBAL PROTECTED 14 _ZN3art9DexWriter17WriteE
215:   FUNC GLOBAL PROTECTED 14 _ZN3art9DexWriter14WriteM
216:   FUNC GLOBAL PROTECTED 14 _ZN3art26VerifyParameterA
217:   FUNC WEAK PROTECTED 14 _ZNSt3__16__treeINS_12__v
218:   FUNC GLOBAL PROTECTED 14 _ZN3art6dex_ir11BuilderMa
219:   FUNC GLOBAL PROTECTED 14 _ZN3art9DexWriter13WriteF
220:   OBJECT GLOBAL PROTECTED 18 _ZTVN3art9DexWriterE
221:   FUNC GLOBAL PROTECTED 14 _ZN3art16CompactDexWriter
222:   FUNC GLOBAL PROTECTED 14 _ZN3art9DexWriter18WriteM
223:   FUNC WEAK PROTECTED 14 _ZNSt3__16__treeINS_12__v
224:   FUNC WEAK PROTECTED 14 _ZNSt3__16__treeINS_12__v
225:   FUNC WEAK PROTECTED 14 _ZNSt3__16vectorINS_10uni
226:   OBJECT WEAK PROTECTED 18 _ZTVN3art6dex_ir13Collect
227:   FUNC GLOBAL PROTECTED 14 _ZN3art9DexLayout10DumpIF
228:   OBJECT WEAK DEFAULT 18 _ZTCNSt3__118basic_string
229:   FUNC GLOBAL PROTECTED 14 _ZN3art6dex_ir11BuilderMa
230:   OBJECT WEAK PROTECTED 18 _ZTVN3art6dex_ir7ProtoIdE
231:   FUNC WEAK PROTECTED 14 _ZNKSt3__115basic_stringb
232:   FUNC WEAK PROTECTED 14 _ZNSt3__112__hash_tableIN
233:   FUNC GLOBAL PROTECTED 14 _ZN3art6dex_ir11BuilderMa
234:   FUNC WEAK PROTECTED 14 _ZNSt3__16vectorINS_10uni
235:   FUNC GLOBAL PROTECTED 14 _ZNK3art16CompactDexWrite
236:   FUNC GLOBAL PROTECTED 14 _ZN3art9DexLayout10DumpSF
237:   FUNC GLOBAL PROTECTED 14 _ZN3art6dex_ir11BuilderMa
238:   FUNC GLOBAL PROTECTED 14 _ZN3art15VerifyClassDefsE
239:   FUNC GLOBAL PROTECTED 14 _ZN3art9DexWriter22WriteE
240:   FUNC GLOBAL PROTECTED 14 _ZN3art9DexWriter18WriteE
241:   OBJECT GLOBAL PROTECTED 18 _ZTVN3art16CompactDexWrit
242:   FUNC WEAK PROTECTED 14 _ZNSt3__112__hash_tableIP
243:   FUNC WEAK PROTECTED 14 _ZNSt3__115basic_stringbu
244:   FUNC GLOBAL PROTECTED 14 _ZN3art6dex_ir11BuilderMa
245:   FUNC WEAK PROTECTED 14 _ZNSt3__16__treeINS_12__v
246:   FUNC GLOBAL PROTECTED 14 _ZN3art8VerifyIdEPNS_6dex
247:   FUNC GLOBAL PROTECTED 14 _ZN3art16CompactDexWriter
248:   FUNC GLOBAL PROTECTED 14 _ZN3art16CompactDexWriter
249:   FUNC GLOBAL PROTECTED 14 _ZN3art9DexWriter14WriteS
250:   FUNC GLOBAL PROTECTED 14 _ZN3art6dex_ir24GetSorted
251:   FUNC WEAK PROTECTED 14 _ZNSt3__16vectorINS_10uni
252:   FUNC GLOBAL PROTECTED 14 _ZN3art12MapItemQueue13Ad
253:   FUNC GLOBAL PROTECTED 14 _ZN3art9DexWriter13WriteM
254:   FUNC GLOBAL PROTECTED 14 _ZN3art6dex_ir12DexIrBuil
255:   FUNC GLOBAL PROTECTED 14 _ZN3art6dex_ir11BuilderMa
256:   FUNC GLOBAL PROTECTED 14 _ZN3art6dex_ir11BuilderMa
257:   FUNC GLOBAL PROTECTED 14 _ZN3art6dex_ir11BuilderMa
258:   OBJECT WEAK PROTECTED 18 _ZTVN3art6dex_ir8ClassDef
259:   FUNC GLOBAL PROTECTED 14 _ZN3art15VerifyDebugInfoE
260:   FUNC GLOBAL PROTECTED 14 _ZN3art9DexWriter18WriteE
261:   FUNC GLOBAL PROTECTED 14 _ZN3art9DexLayout9DumpCla
262:   OBJECT WEAK PROTECTED 18 _ZN3art9hiddenapi7ApiList
263:   FUNC GLOBAL PROTECTED 14 _ZN3art6dex_ir11BuilderMa
264:   FUNC GLOBAL PROTECTED 14 _ZN3art6dex_ir11BuilderMa
265:   OBJECT WEAK PROTECTED 18 _ZTVN3art6dex_ir10CallSit
266:   FUNC GLOBAL PROTECTED 14 _ZN3art16VerifyAnnotation
267:   OBJECT WEAK PROTECTED 18 _ZTVN3art6dex_ir13Collect
268:   OBJECT WEAK PROTECTED 18 _ZTVN3art6dex_ir23Indexed
269:   OBJECT WEAK PROTECTED 18 _ZTVN3art6dex_ir23Indexed
270:   FUNC WEAK PROTECTED 14 _ZN3art9VerifyIdsINS_6dex
271:   FUNC WEAK PROTECTED 14 _ZNSt3__16__treeINS_12__v
272:   FUNC GLOBAL PROTECTED 14 _ZN3art16CompactDexWriter
273:   FUNC WEAK PROTECTED 14 _ZNSt3__16vectorINS_10uni
274:   OBJECT WEAK PROTECTED 18 _ZTVN3art6dex_ir10MethodI
275:   OBJECT WEAK PROTECTED 18 _ZTVN3art6dex_ir16Collect
276:   FUNC GLOBAL PROTECTED 14 _ZN3art16CompactDexWriter
277:   FUNC GLOBAL PROTECTED 14 _ZN3art9DexWriter27WriteA
278:   FUNC WEAK PROTECTED 14 _ZNSt3__16vectorIN3art6de
279:   FUNC GLOBAL PROTECTED 14 _ZN3art6dex_ir11BuilderMa
280:   OBJECT WEAK PROTECTED 18 _ZTVN3art6dex_ir16Collect
281:   OBJECT WEAK PROTECTED 18 _ZTVN3art6dex_ir8CodeItem
282:   FUNC GLOBAL PROTECTED 14 _ZN3art16CompactDexWriter
283:   FUNC GLOBAL PROTECTED 14 _ZN3art16CompactDexWriter
284:   FUNC GLOBAL PROTECTED 14 _ZN3art9DexWriter16WriteA
285:   FUNC WEAK PROTECTED 14 _ZNSt3__16vectorINS_10uni
286:   OBJECT WEAK PROTECTED 18 _ZTVN3art6dex_ir16MethodH
287:   FUNC WEAK PROTECTED 14 _ZNSt3__124__put_characte
288:   FUNC GLOBAL PROTECTED 14 _ZN3art9DexLayout12DumpCl
289:   FUNC GLOBAL PROTECTED 14 _ZN3art9DexWriter6OutputE
290:   FUNC GLOBAL PROTECTED 14 _ZN3art6dex_ir11BuilderMa
291:   FUNC GLOBAL PROTECTED 14 _ZN3art11VerifyTriesEPNSt
292:   FUNC GLOBAL PROTECTED 14 _ZNK3art16CompactDexWrite
293:   FUNC GLOBAL PROTECTED 14 _ZN3art6dex_ir11BuilderMa
294:   FUNC WEAK PROTECTED 14 _ZNSt3__16vectorIPN3art6d
295:   OBJECT WEAK PROTECTED 18 _ZTVN3art6dex_ir23Indexed
296:   FUNC WEAK PROTECTED 14 _ZNSt3__16vectorINS_10uni
297:   FUNC WEAK PROTECTED 14 _ZNSt3__16vectorINS_10uni
298:   OBJECT WEAK PROTECTED 18 _ZTVN3art6dex_ir16Collect
299:   OBJECT WEAK PROTECTED 18 _ZTVN3art6dex_ir23Indexed
300:   OBJECT WEAK PROTECTED 18 _ZTVN3art6dex_ir8TypeList
301:   FUNC GLOBAL PROTECTED 14 _ZN3art9DexWriter15WriteC
302:   FUNC WEAK PROTECTED 14 _ZNSt3__16vectorINS_10uni
303:   FUNC WEAK PROTECTED 14 _ZNSt3__16vectorIPN3art6d
304:   OBJECT WEAK PROTECTED 18 _ZTVN3art6dex_ir23Indexed
305:   OBJECT WEAK PROTECTED 18 _ZTVN3art6dex_ir23Indexed
306:   OBJECT WEAK PROTECTED 18 _ZTVN3art6dex_ir23Indexed
307:   FUNC GLOBAL PROTECTED 14 _ZN3art9DexWriter16WriteC
308:   OBJECT WEAK PROTECTED 18 _ZTVN3art6dex_ir16Collect
309:   OBJECT WEAK PROTECTED 18 _ZTVN3art6dex_ir7FieldIdE
310:   OBJECT WEAK PROTECTED 11 _ZN3art9DexWriter21kDataS
311:   FUNC GLOBAL PROTECTED 14 _ZN3art9DexWriter23WriteH
312:   FUNC WEAK PROTECTED 14 _ZNSt3__16vectorINS_10uni
313:   OBJECT WEAK PROTECTED 18 _ZTVN3art6dex_ir23Indexed
314:   OBJECT WEAK PROTECTED 18 _ZTVN3art6dex_ir16Collect
315:   OBJECT WEAK PROTECTED 18 _ZTVN3art6dex_ir16Collect
316:   OBJECT WEAK PROTECTED 18 _ZTVN3art6dex_ir23Indexed
317:   FUNC WEAK PROTECTED 14 _ZNSt3__110__function6__f
318:   FUNC WEAK PROTECTED 14 _ZNSt3__16vectorINS_10uni
319:   OBJECT WEAK PROTECTED 18 _ZTVN3art6dex_ir16Collect
320:   FUNC GLOBAL PROTECTED 14 _ZN3art16CompactDexWriter
321:   FUNC GLOBAL PROTECTED 14 _ZN3art9DexWriter14WriteC
322:   FUNC WEAK PROTECTED 14 _ZNKSt3__110__function6__
323:   FUNC WEAK PROTECTED 14 _ZNSt3__110__function6__f
324:   FUNC GLOBAL PROTECTED 14 _ZN3art6dex_ir11BuilderMa
325:   FUNC WEAK PROTECTED 14 _ZNSt3__112__hash_tableIN
326:   FUNC GLOBAL PROTECTED 14 _ZN3art6dex_ir11BuilderMa
327:   FUNC WEAK PROTECTED 14 _ZNSt3__16__treeINS_12__v
328:   FUNC WEAK PROTECTED 14 _ZNSt3__16vectorINS_10uni
329:   OBJECT WEAK PROTECTED 18 _ZTVN3art6dex_ir23Indexed
330:   FUNC GLOBAL PROTECTED 14 _ZNK3art9DexWriter18Creat
331:   FUNC GLOBAL PROTECTED 14 _ZN3art16CompactDexWriter
332:   FUNC GLOBAL PROTECTED 14 _ZN3art6dex_ir11BuilderMa
333:   FUNC WEAK PROTECTED 14 _ZNSt3__16vectorIPN3art6d
334:   OBJECT WEAK PROTECTED 18 _ZTVN3art6dex_ir16Collect
335:   OBJECT WEAK PROTECTED 18 _ZTVN3art6dex_ir18Hiddena
336:   OBJECT WEAK PROTECTED 18 _ZTVN3art6dex_ir6HeaderE
337:   FUNC GLOBAL PROTECTED 14 _ZN3art23VerifyAnnotation
338:   FUNC GLOBAL PROTECTED 14 _ZN3art9DexLayout15DumpIn
339:   FUNC WEAK PROTECTED 14 _ZNSt3__16__treeINS_12__v
340:   FUNC WEAK PROTECTED 14 _ZNSt3__16vectorINS_10uni
341:   FUNC GLOBAL PROTECTED 14 _ZN3art14VerifyHandlersEP
342:   FUNC WEAK PROTECTED 14 _ZNSt3__115basic_stringbu
343:   FUNC GLOBAL PROTECTED 14 _ZN3art6dex_ir11BuilderMa
344:   FUNC WEAK PROTECTED 14 _ZNSt3__16vectorINS_10uni
345:   FUNC WEAK PROTECTED 14 _ZNSt3__16__treeIPN3art6d
346:   FUNC GLOBAL PROTECTED 14 _ZN3art9DexWriter14WriteC
347:   FUNC WEAK PROTECTED 14 _ZNSt3__112__hash_tableIP
348:   FUNC GLOBAL PROTECTED 14 _ZN3art6dex_ir11BuilderMa
349:   OBJECT WEAK PROTECTED 18 _ZTVN3art9DexWriter9Conta
350:   FUNC GLOBAL PROTECTED 14 _ZN3art9DexWriter12WriteT
351:   FUNC WEAK PROTECTED 14 _ZNSt3__16__treeINS_12__v
352:   FUNC WEAK PROTECTED 14 _ZNSt3__16vectorINS_10uni
353:   FUNC WEAK PROTECTED 14 _ZNSt3__16vectorINS_10uni
354:   OBJECT WEAK PROTECTED 18 _ZTVN3art6dex_ir13Collect
355:   FUNC GLOBAL PROTECTED 14 _ZN3art9DexLayout13Output
356:   FUNC GLOBAL PROTECTED 14 _ZN3art16CompactDexWriter
357:   FUNC WEAK PROTECTED 14 _ZNSt3__16vectorIPN3art6d
358:   OBJECT WEAK PROTECTED 18 _ZTVN3art6dex_ir7TryItemE
359:   FUNC WEAK PROTECTED 14 _ZNSt3__16vectorIN3art7Ma
360:   FUNC GLOBAL PROTECTED 14 _ZN3art9DexWriter13Proces
361:   FUNC GLOBAL PROTECTED 14 _ZN3art9DexLayout14Proces
362:   FUNC WEAK PROTECTED 14 _ZNSt3__16vectorIPN3art6d
363:   FUNC GLOBAL PROTECTED 14 _ZN3art6dex_ir11BuilderMa
364:   FUNC WEAK PROTECTED 14 _ZNSt3__16vectorINS_10uni
365:   FUNC WEAK PROTECTED 14 _ZNSt3__16vectorINS_10uni
366:   OBJECT WEAK PROTECTED 18 _ZTVN3art6dex_ir8MethodId
367:   FUNC GLOBAL PROTECTED 14 _ZN3art9DexWriter13WriteC
368:   OBJECT WEAK PROTECTED 18 _ZTVN3art16CompactDexWrit
369:   FUNC GLOBAL PROTECTED 14 _ZN3art9DexLayout14DumpFi
370:   FUNC GLOBAL PROTECTED 14 _ZN3art9DexLayout27Layout
371:   FUNC WEAK PROTECTED 14 _ZNSt3__112__hash_tableIN
372:   FUNC WEAK PROTECTED 14 _ZNSt3__112__hash_tableIP
373:   FUNC WEAK PROTECTED 14 _ZNSt3__16vectorINS_10uni
374:   FUNC WEAK PROTECTED 14 _ZNKSt3__112__hash_tableI
375:   FUNC WEAK PROTECTED 14 _ZNSt3__16vectorIhNS_9all
376:   OBJECT WEAK DEFAULT 18 _ZTCNSt3__118basic_string
377:   OBJECT WEAK DEFAULT 18 _ZTVNSt3__118basic_string
378:   FUNC WEAK PROTECTED 14 _ZNSt3__110__function6__f
379:   FUNC WEAK PROTECTED 14 _ZNSt3__16vectorIN3art6de
380:   OBJECT WEAK PROTECTED 18 _ZTVN3art6dex_ir16Collect
381:   FUNC GLOBAL PROTECTED 14 _ZN3art9DexWriter32WriteC
382:   FUNC GLOBAL PROTECTED 14 _ZN3art6dex_ir11BuilderMa
383:   FUNC WEAK PROTECTED 14 _ZNSt3__16vectorINS_10uni
384:   FUNC GLOBAL PROTECTED 14 _ZN3art14VerifyTypeListEP
385:   FUNC WEAK PROTECTED 14 _ZNSt3__112__hash_tableIN
386:   FUNC WEAK PROTECTED 14 _ZNSt3__112__hash_tableIN
387:   FUNC WEAK PROTECTED 14 _ZNSt3__16vectorINS_10uni
388:   OBJECT WEAK PROTECTED 18 _ZTVN3art6dex_ir13Collect
389:   FUNC GLOBAL PROTECTED 14 _ZN3art16CompactDexWriter
390:   FUNC GLOBAL PROTECTED 14 _ZN3art6dex_ir11BuilderMa
391:   FUNC GLOBAL PROTECTED 14 _ZN3art9DexLayout16DumpEn
392:   FUNC WEAK PROTECTED 14 _ZNSt3__16__treeINS_12__v
393:   FUNC WEAK PROTECTED 14 _ZNSt3__16vectorINS_10uni
394:   OBJECT WEAK PROTECTED 18 _ZTVN3art6dex_ir9FieldIte
395:   FUNC GLOBAL PROTECTED 14 _ZN3art10VerifyCodeEPNS_6
396:   FUNC WEAK PROTECTED 14 _ZN3art9VerifyIdsINS_6dex
397:   FUNC GLOBAL PROTECTED 14 _ZN3art9DexWriter19WriteD
398:   FUNC WEAK PROTECTED 14 _ZNSt3__16vectorIbNS_9all
399:   FUNC GLOBAL PROTECTED 14 _ZN3art6dex_ir11BuilderMa
400:   FUNC GLOBAL PROTECTED 14 _ZN3art15VerifyClassDataE
401:   FUNC GLOBAL PROTECTED 14 _ZN3art19VerifyAnnotation
402:   FUNC GLOBAL PROTECTED 14 _ZN3art9DexWriter17WriteE
403:   FUNC GLOBAL PROTECTED 14 _ZN3art9DexLayout21DumpEn
404:   FUNC GLOBAL PROTECTED 14 _ZN3art9DexLayout8DumpCod
405:   FUNC GLOBAL PROTECTED 14 _ZN3art6dex_ir11BuilderMa
406:   FUNC WEAK PROTECTED 14 _ZNSt3__16vectorIPN3art6d
407:   OBJECT WEAK PROTECTED 18 _ZTVN3art6dex_ir16Collect
408:   OBJECT WEAK PROTECTED 18 _ZTVN3art6dex_ir16Collect
409:   FUNC GLOBAL PROTECTED 14 _ZN3art9DexWriterC1EPNS_9
410:   FUNC GLOBAL PROTECTED 14 _ZN3art16CompactDexWriter
411:   FUNC GLOBAL PROTECTED 14 _ZN3art9DexWriterC2EPNS_9
412:   FUNC GLOBAL PROTECTED 14 _ZN3art9DexLayout21DumpAn
413:   FUNC WEAK PROTECTED 14 _ZNSt3__16vectorINS_10uni
414:   FUNC GLOBAL PROTECTED 14 _ZN3art26VerifyAnnotation
415:   FUNC GLOBAL PROTECTED 14 _ZN3art16CompactDexWriter
416:   FUNC GLOBAL PROTECTED 14 _ZN3art16CompactDexWriter
417:   FUNC WEAK PROTECTED 14 _ZNSt3__112__hash_tableIP
418:   FUNC WEAK PROTECTED 14 _ZNSt3__16vectorINS_10uni
419:   OBJECT WEAK PROTECTED 18 _ZTVN3art6dex_ir20Annotat
420:   FUNC GLOBAL PROTECTED 14 _ZN3art18VerifyEncodedVal
421:   FUNC GLOBAL PROTECTED 14 _ZN3art22VerifyFieldAnnot
422:   FUNC GLOBAL PROTECTED 14 _ZN3art9DexLayout11DumpCa
423:   OBJECT WEAK PROTECTED 18 _ZTVN3art6dex_ir4ItemE
424:   FUNC GLOBAL PROTECTED 14 _ZN3art9DexWriter14WriteT
425:   FUNC WEAK PROTECTED 14 _ZNSt3__16__treeINS_12__v
426:   FUNC WEAK PROTECTED 14 _ZNSt3__16vectorIPKcNS_9a
427:   OBJECT WEAK PROTECTED 18 _ZTVN3art6dex_ir6TypeIdE
428:   FUNC GLOBAL PROTECTED 14 _ZN3art14VerifyClassDefEP
429:   FUNC GLOBAL PROTECTED 14 _ZN3art9DexWriter18WriteD
430:   FUNC GLOBAL PROTECTED 14 _ZNK3art9DexWriter13GetHe
431:   FUNC GLOBAL PROTECTED 14 _ZN3art9DexLayout15Layout
432:   OBJECT WEAK DEFAULT 18 _ZTVNSt3__115basic_string
433:   OBJECT WEAK PROTECTED 18 _ZTVN3art6dex_ir13DebugIn
434:   FUNC GLOBAL PROTECTED 14 _ZN3art9DexLayout13DumpIn
435:   FUNC GLOBAL PROTECTED 14 _ZN3art6dex_ir11BuilderMa
436:   OBJECT WEAK PROTECTED 18 _ZTVN3art6dex_ir16Encoded
437:   FUNC WEAK PROTECTED 14 _ZNSt3__115basic_stringbu
438:   FUNC GLOBAL PROTECTED 14 _ZN3art9DexWriter22WriteA
439:   FUNC GLOBAL PROTECTED 14 _ZN3art19VerifyOutputDexF
440:   OBJECT WEAK PROTECTED 18 _ZTVN3art6dex_ir13Collect
441:   OBJECT WEAK PROTECTED 18 _ZTVN3art6dex_ir9ClassDat
442:   FUNC GLOBAL PROTECTED 14 _ZN3art8VerifyIdEPNS_6dex
