 0x000000000000000e (SONAME)             Library soname: [libbcc.so]
  
Symbol   contains 461 entries:
Num:   Type Bind Vis Ndx Name
0:   NOTYPE LOCAL DEFAULT UND
1:   FUNC GLOBAL DEFAULT UND __cxa_finalize@LIBC (2)
2:   FUNC GLOBAL DEFAULT UND __cxa_atexit@LIBC (2)
3:   FUNC GLOBAL DEFAULT UND _ZN4llvm11LLVMContextC1Ev
4:   FUNC GLOBAL DEFAULT UND _ZN4llvm19SmallPtrSetImpl
5:   FUNC GLOBAL DEFAULT UND _ZN4llvm19SmallPtrSetImpl
6:   OBJECT GLOBAL DEFAULT UND _ZSt7nothrow
7:   FUNC GLOBAL DEFAULT UND _ZdlPv
8:   FUNC GLOBAL DEFAULT UND _Znwm
9:   FUNC GLOBAL DEFAULT UND _ZnwmRKSt9nothrow_t
10:   FUNC GLOBAL DEFAULT UND __android_log_print@LIBLOG (3)
11:   FUNC GLOBAL DEFAULT UND _ZN4llvm11LLVMContextD1Ev
12:   FUNC GLOBAL DEFAULT UND _ZNKSt3__120__vector_base
13:   FUNC GLOBAL DEFAULT UND __stack_chk_fail@LIBC (2)
14:   FUNC GLOBAL DEFAULT UND free@LIBC (2)
15:   FUNC GLOBAL DEFAULT UND _ZN4llvm10DataLayout5clea
16:   FUNC GLOBAL DEFAULT UND _ZN4llvm10DataLayoutD1Ev
17:   FUNC GLOBAL DEFAULT UND _ZN4llvm15SmallVectorBase
18:   OBJECT GLOBAL DEFAULT UND _ZN4llvm16RegisterRegAllo
19:   FUNC GLOBAL DEFAULT UND _ZN4llvm18PassManagerBuil
20:   FUNC GLOBAL DEFAULT UND _ZN4llvm18PassManagerBuil
21:   FUNC GLOBAL DEFAULT UND _ZN4llvm18PassManagerBuil
22:   FUNC GLOBAL DEFAULT UND _ZN4llvm21createInternali
23:   FUNC GLOBAL DEFAULT UND _ZN4llvm23createConstantM
24:   FUNC GLOBAL DEFAULT UND _ZN4llvm25createGlobalOpt
25:   FUNC GLOBAL DEFAULT UND _ZN4llvm26createFunctionI
26:   FUNC GLOBAL DEFAULT UND _ZN4llvm27createFastRegis
27:   FUNC GLOBAL DEFAULT UND _ZN4llvm29createGreedyReg
28:   FUNC GLOBAL DEFAULT UND _ZN4llvm36createTargetTra
29:   FUNC GLOBAL DEFAULT UND _ZN4llvm6Module13setDataL
30:   FUNC GLOBAL DEFAULT UND _ZN4llvm6Module14material
31:   FUNC GLOBAL DEFAULT UND _ZN4llvm6TripleC1ERKNS_5T
32:   FUNC GLOBAL DEFAULT UND _ZN4llvm6legacy11PassMana
33:   FUNC GLOBAL DEFAULT UND _ZN4llvm6legacy11PassMana
34:   FUNC GLOBAL DEFAULT UND _ZN4llvm6legacy11PassMana
35:   FUNC GLOBAL DEFAULT UND _ZN4llvm6legacy11PassMana
36:   FUNC GLOBAL DEFAULT UND _ZN6bcinfo17MetadataExtra@libbcinfo (4)
37:   FUNC GLOBAL DEFAULT UND _ZN6bcinfo17MetadataExtra@libbcinfo (4)
38:   FUNC GLOBAL DEFAULT UND _ZN6bcinfo17MetadataExtra@libbcinfo (4)
39:   FUNC GLOBAL DEFAULT UND _ZNK4llvm10DataLayout14ge
40:   FUNC GLOBAL DEFAULT UND _ZNK4llvm10DataLayout15ge
41:   FUNC GLOBAL DEFAULT UND _ZNK4llvm10DataLayouteqER
42:   FUNC GLOBAL DEFAULT UND _ZNK4llvm11NamedMDNode10g
43:   FUNC GLOBAL DEFAULT UND _ZNK4llvm11NamedMDNode14g
44:   FUNC GLOBAL DEFAULT UND _ZNK4llvm13TargetMachine1
45:   FUNC GLOBAL DEFAULT UND _ZNK4llvm5Value7getNameEv
46:   FUNC GLOBAL DEFAULT UND _ZNK4llvm6Module13getData
47:   FUNC GLOBAL DEFAULT UND _ZNK4llvm6Module13getType
48:   FUNC GLOBAL DEFAULT UND _ZNK4llvm6Module16getName
49:   FUNC GLOBAL DEFAULT UND _ZNK4llvm6Module5printERN
50:   FUNC GLOBAL DEFAULT UND _ZNK4llvm6Triple11isArch6
51:   FUNC GLOBAL DEFAULT UND _ZNK4llvm8MDString9getStr
52:   FUNC GLOBAL DEFAULT UND _ZNKSt3__110error_code7me
53:   FUNC GLOBAL DEFAULT UND _ZNKSt3__112basic_stringI
54:   FUNC GLOBAL DEFAULT UND _ZNKSt3__112basic_stringI
55:   FUNC GLOBAL DEFAULT UND _ZNKSt3__121__basic_strin
56:   FUNC GLOBAL DEFAULT UND _ZNSt3__112basic_stringIc
57:   FUNC GLOBAL DEFAULT UND _ZNSt3__112basic_stringIc
58:   FUNC GLOBAL DEFAULT UND _ZNSt3__112basic_stringIc
59:   FUNC GLOBAL DEFAULT UND _ZNSt3__112basic_stringIc
60:   FUNC GLOBAL DEFAULT UND __strlen_chk@LIBC (2)
61:   FUNC GLOBAL DEFAULT UND abort@LIBC (2)
62:   FUNC GLOBAL DEFAULT UND memcmp@LIBC (2)
63:   FUNC GLOBAL DEFAULT UND memcpy@LIBC (2)
64:   FUNC GLOBAL DEFAULT UND memmove@LIBC (2)
65:   FUNC GLOBAL DEFAULT UND strlen@LIBC (2)
66:   FUNC GLOBAL DEFAULT UND _ZN4llvm11TargetRecipC1Ev
67:   FUNC GLOBAL DEFAULT UND _ZN4llvm13StringMapImpl11
68:   FUNC GLOBAL DEFAULT UND _ZN4llvm13StringMapImpl15
69:   FUNC GLOBAL DEFAULT UND _ZN4llvm14TargetRegistry1
70:   FUNC GLOBAL DEFAULT UND _ZN4llvm15MCTargetOptions
71:   FUNC GLOBAL DEFAULT UND _ZN4llvm17SubtargetFeatur
72:   FUNC GLOBAL DEFAULT UND _ZN4llvm17SubtargetFeatur
73:   FUNC GLOBAL DEFAULT UND _ZN4llvm3sys14getHostCPUN
74:   FUNC GLOBAL DEFAULT UND _ZN4llvm3sys18getHostCPUF
75:   FUNC GLOBAL DEFAULT UND _ZN4llvm6Triple22getArchT
76:   FUNC GLOBAL DEFAULT UND _ZNK4llvm13StringMapImpl7
77:   FUNC GLOBAL DEFAULT UND _ZNK4llvm17SubtargetFeatu
78:   FUNC GLOBAL DEFAULT UND __memcpy_chk@LIBC (2)
79:   FUNC GLOBAL DEFAULT UND __system_property_get@LIBC (2)
80:   FUNC GLOBAL DEFAULT UND atoi@LIBC (2)
81:   FUNC GLOBAL DEFAULT UND malloc@LIBC (2)
82:   FUNC GLOBAL DEFAULT UND _ZNSt3__115system_categor
83:   FUNC GLOBAL DEFAULT UND _ZNSt3__116generic_catego
84:   FUNC GLOBAL DEFAULT UND __errno@LIBC (2)
85:   FUNC GLOBAL DEFAULT UND close@LIBC (2)
86:   FUNC GLOBAL DEFAULT UND flock@LIBC (2)
87:   FUNC GLOBAL DEFAULT UND fstat@LIBC (2)
88:   FUNC GLOBAL DEFAULT UND open@LIBC (2)
89:   FUNC GLOBAL DEFAULT UND remove@LIBC (2)
90:   FUNC GLOBAL DEFAULT UND stat@LIBC (2)
91:   FUNC GLOBAL DEFAULT UND strerror@LIBC (2)
92:   FUNC GLOBAL DEFAULT UND usleep@LIBC (2)
93:   FUNC GLOBAL DEFAULT UND LLVMInitializeAArch64AsmP
94:   FUNC GLOBAL DEFAULT UND LLVMInitializeAArch64Targ
95:   FUNC GLOBAL DEFAULT UND LLVMInitializeAArch64Targ
96:   FUNC GLOBAL DEFAULT UND LLVMInitializeAArch64Targ
97:   FUNC GLOBAL DEFAULT UND LLVMInitializeARMAsmPrint
98:   FUNC GLOBAL DEFAULT UND LLVMInitializeARMTarget
99:   FUNC GLOBAL DEFAULT UND LLVMInitializeARMTargetIn
100:   FUNC GLOBAL DEFAULT UND LLVMInitializeARMTargetMC
101:   FUNC GLOBAL DEFAULT UND _ZN4llvm12PassRegistry15g
102:   FUNC GLOBAL DEFAULT UND _ZN4llvm13initializeIPOER
103:   FUNC GLOBAL DEFAULT UND _ZN4llvm14initializeCoreE
104:   FUNC GLOBAL DEFAULT UND _ZN4llvm16initializeTarge
105:   FUNC GLOBAL DEFAULT UND _ZN4llvm18initializeAnaly
106:   FUNC GLOBAL DEFAULT UND _ZN4llvm20initializeScala
107:   FUNC GLOBAL DEFAULT UND _ZN4llvm21initializeInstC
108:   FUNC GLOBAL DEFAULT UND _ZN4llvm23initializeVecto
109:   FUNC GLOBAL DEFAULT UND _ZN4llvm24initializeTrans
110:   FUNC GLOBAL DEFAULT UND _ZN4llvm25initializeInstr
111:   FUNC GLOBAL DEFAULT UND _ZN4llvm26initializeAtomi
112:   FUNC GLOBAL DEFAULT UND _ZN4llvm26remove_fatal_er
113:   FUNC GLOBAL DEFAULT UND _ZN4llvm27install_fatal_e
114:   FUNC GLOBAL DEFAULT UND _ZN4llvm28initializeCodeG
115:   FUNC GLOBAL DEFAULT UND _ZN4llvm28initializeRewri
116:   FUNC GLOBAL DEFAULT UND exit@LIBC (2)
117:   FUNC GLOBAL DEFAULT UND _ZN4llvm10AllocaInstC1EPN
118:   FUNC GLOBAL DEFAULT UND _ZN4llvm10ModulePass17ass
119:   FUNC GLOBAL DEFAULT UND _ZN4llvm10ModulePassD2Ev
120:   FUNC GLOBAL DEFAULT UND _ZN4llvm11Instruction10mo
121:   FUNC GLOBAL DEFAULT UND _ZN4llvm11NamedMDNode10ad
122:   FUNC GLOBAL DEFAULT UND _ZN4llvm11NamedMDNode15er
123:   FUNC GLOBAL DEFAULT UND _ZN4llvm12PassRegistry12r
124:   FUNC GLOBAL DEFAULT UND _ZN4llvm16MetadataTrackin
125:   FUNC GLOBAL DEFAULT UND _ZN4llvm16MetadataTrackin
126:   FUNC GLOBAL DEFAULT UND _ZN4llvm16MetadataTrackin
127:   FUNC GLOBAL DEFAULT UND _ZN4llvm21SymbolTableList
128:   FUNC GLOBAL DEFAULT UND _ZN4llvm4Pass13releaseMem
129:   FUNC GLOBAL DEFAULT UND _ZN4llvm4Pass17dumpPassSt
130:   FUNC GLOBAL DEFAULT UND _ZN4llvm4Pass18getAsImmut
131:   FUNC GLOBAL DEFAULT UND _ZN4llvm4Pass18getAsPMDat
132:   FUNC GLOBAL DEFAULT UND _ZN4llvm4Pass18preparePas
133:   FUNC GLOBAL DEFAULT UND _ZN4llvm4Pass26getAdjuste
134:   FUNC GLOBAL DEFAULT UND _ZN4llvm4UsernwEmj
135:   FUNC GLOBAL DEFAULT UND _ZN4llvm5Value7setNameERK
136:   FUNC GLOBAL DEFAULT UND _ZN4llvm6Module24getOrIns
137:   FUNC GLOBAL DEFAULT UND _ZN4llvm7MDTuple7getImplE
138:   FUNC GLOBAL DEFAULT UND _ZN4llvm8DebugLoc3getEjjP
139:   FUNC GLOBAL DEFAULT UND _ZN4llvm8Function13setSub
140:   FUNC GLOBAL DEFAULT UND _ZN4llvm8LoadInstC2EPNS_4
141:   FUNC GLOBAL DEFAULT UND _ZN4llvm9DIBuilder10creat
142:   FUNC GLOBAL DEFAULT UND _ZN4llvm9DIBuilder13inser
143:   FUNC GLOBAL DEFAULT UND _ZN4llvm9DIBuilder14creat
144:   FUNC GLOBAL DEFAULT UND _ZN4llvm9DIBuilder15creat
145:   FUNC GLOBAL DEFAULT UND _ZN4llvm9DIBuilder16creat
146:   FUNC GLOBAL DEFAULT UND _ZN4llvm9DIBuilder17creat
147:   FUNC GLOBAL DEFAULT UND _ZN4llvm9DIBuilder18creat
148:   FUNC GLOBAL DEFAULT UND _ZN4llvm9DIBuilder20creat
149:   FUNC GLOBAL DEFAULT UND _ZN4llvm9DIBuilder23creat
150:   FUNC GLOBAL DEFAULT UND _ZN4llvm9DIBuilder8finali
151:   FUNC GLOBAL DEFAULT UND _ZN4llvm9DIBuilderC1ERNS_
152:   FUNC GLOBAL DEFAULT UND _ZN4llvm9StoreInstC1EPNS_
153:   FUNC GLOBAL DEFAULT UND _ZNK4llvm10ModulePass17cr
154:   FUNC GLOBAL DEFAULT UND _ZNK4llvm10ModulePass27ge
155:   FUNC GLOBAL DEFAULT UND _ZNK4llvm3Use7getUserEv
156:   FUNC GLOBAL DEFAULT UND _ZNK4llvm4Pass11getPassNa
157:   FUNC GLOBAL DEFAULT UND _ZNK4llvm4Pass14verifyAna
158:   FUNC GLOBAL DEFAULT UND _ZNK4llvm4Pass16getAnalys
159:   FUNC GLOBAL DEFAULT UND _ZNK4llvm4Pass5printERNS_
160:   FUNC GLOBAL DEFAULT UND _ZNK4llvm5Value10getConte
161:   FUNC GLOBAL DEFAULT UND _ZNK4llvm5Value26assertMo
162:   FUNC GLOBAL DEFAULT UND _ZNK4llvm6Module11getFunc
163:   FUNC GLOBAL DEFAULT UND _ZNK4llvm8DebugLoc3getEv
164:   FUNC GLOBAL DEFAULT UND _ZNK4llvm8Function18Build
165:   OBJECT GLOBAL DEFAULT UND EnableGlobalMerge
166:   FUNC GLOBAL DEFAULT UND _ZN4llvm14raw_fd_ostreamC
167:   FUNC GLOBAL DEFAULT UND _ZN4llvm14raw_fd_ostreamD
168:   FUNC GLOBAL DEFAULT UND _ZN4llvm3sys4path17replac
169:   FUNC GLOBAL DEFAULT UND _ZN4llvm3sys4path6appendE
170:   FUNC GLOBAL DEFAULT UND _ZN4llvm6Linker12linkInMo
171:   FUNC GLOBAL DEFAULT UND _ZN4llvm6LinkerC1ERNS_6Mo
172:   FUNC GLOBAL DEFAULT UND _ZN4llvm6Module18eraseNam
173:   FUNC GLOBAL DEFAULT UND _ZN4llvm6ModuleC1ENS_9Str
174:   FUNC GLOBAL DEFAULT UND _ZN4llvm6ModuleD1Ev
175:   FUNC GLOBAL DEFAULT UND _ZN4llvm7IRMover17StructT
176:   FUNC GLOBAL DEFAULT UND _ZN4llvm7IRMover17StructT
177:   FUNC GLOBAL DEFAULT UND _ZN4llvm7IRMover17StructT
178:   FUNC GLOBAL DEFAULT UND _ZN6bcinfo14BitcodeWrappe@libbcinfo (4)
179:   FUNC GLOBAL DEFAULT UND _ZN6bcinfo14BitcodeWrappe@libbcinfo (4)
180:   OBJECT GLOBAL DEFAULT UND _ZN6bcinfo17MetadataExtra@libbcinfo (4)
181:   FUNC GLOBAL DEFAULT UND _ZNSt3__112basic_stringIc
182:   FUNC GLOBAL DEFAULT UND _ZN4llvm11raw_ostream14fl
183:   FUNC GLOBAL DEFAULT UND _ZN4llvm11raw_ostream5wri
184:   FUNC GLOBAL DEFAULT UND _ZN4llvm11raw_ostreamlsEm
185:   FUNC GLOBAL DEFAULT UND _ZN4llvm14GlobalVariableC
186:   FUNC GLOBAL DEFAULT UND _ZN4llvm17ConstantDataArr
187:   FUNC GLOBAL DEFAULT UND _ZN4llvm18raw_string_ostr
188:   OBJECT GLOBAL DEFAULT UND _ZTVN4llvm18raw_string_os
189:   FUNC GLOBAL DEFAULT UND _ZN4llvm11ConstantInt3get
190:   FUNC GLOBAL DEFAULT UND _ZN4llvm12ConstantExpr10g
191:   FUNC GLOBAL DEFAULT UND _ZN4llvm13ConstantArray3g
192:   FUNC GLOBAL DEFAULT UND _ZN4llvm14GlobalVariable1
193:   FUNC GLOBAL DEFAULT UND _ZN4llvm17ConstantDataArr
194:   FUNC GLOBAL DEFAULT UND _ZN4llvm17ConstantDataArr
195:   FUNC GLOBAL DEFAULT UND _ZN4llvm4Type10getInt32Ty
196:   FUNC GLOBAL DEFAULT UND _ZN4llvm4Type12getInt8Ptr
197:   FUNC GLOBAL DEFAULT UND _ZN4llvm4Type9getIntNTyER
198:   FUNC GLOBAL DEFAULT UND _ZN4llvm6Module17getOrIns
199:   FUNC GLOBAL DEFAULT UND _ZN4llvm9ArrayType3getEPN
200:   FUNC GLOBAL DEFAULT UND _ZNK4llvm10DataLayout19ge
201:   FUNC GLOBAL DEFAULT UND _ZNK4llvm10StructType7get
202:   FUNC GLOBAL DEFAULT UND _ZNK4llvm4Type13getScalar
203:   FUNC GLOBAL DEFAULT UND _ZNKSt3__16locale9use_fac
204:   FUNC GLOBAL DEFAULT UND _ZNKSt3__18ios_base6getlo
205:   FUNC GLOBAL DEFAULT UND _ZNSt3__112basic_stringIc
206:   FUNC GLOBAL DEFAULT UND _ZNSt3__112basic_stringIc
207:   FUNC GLOBAL DEFAULT UND _ZNSt3__113basic_istreamI
208:   FUNC GLOBAL DEFAULT UND _ZNSt3__113basic_istreamI
209:   FUNC GLOBAL DEFAULT UND _ZNSt3__113basic_ostreamI
210:   FUNC GLOBAL DEFAULT UND _ZNSt3__113basic_ostreamI
211:   FUNC GLOBAL DEFAULT UND _ZNSt3__113basic_ostreamI
212:   FUNC GLOBAL DEFAULT UND _ZNSt3__113basic_ostreamI
213:   FUNC GLOBAL DEFAULT UND _ZNSt3__113basic_ostreamI
214:   FUNC GLOBAL DEFAULT UND _ZNSt3__114basic_iostream
215:   FUNC GLOBAL DEFAULT UND _ZNSt3__114basic_iostream
216:   FUNC GLOBAL DEFAULT UND _ZNSt3__114basic_iostream
217:   FUNC GLOBAL DEFAULT UND _ZNSt3__115basic_streambu
218:   FUNC GLOBAL DEFAULT UND _ZNSt3__115basic_streambu
219:   FUNC GLOBAL DEFAULT UND _ZNSt3__115basic_streambu
220:   FUNC GLOBAL DEFAULT UND _ZNSt3__115basic_streambu
221:   FUNC GLOBAL DEFAULT UND _ZNSt3__115basic_streambu
222:   FUNC GLOBAL DEFAULT UND _ZNSt3__115basic_streambu
223:   FUNC GLOBAL DEFAULT UND _ZNSt3__115basic_streambu
224:   FUNC GLOBAL DEFAULT UND _ZNSt3__115basic_streambu
225:   FUNC GLOBAL DEFAULT UND _ZNSt3__115basic_streambu
226:   OBJECT GLOBAL DEFAULT UND _ZNSt3__15ctypeIcE2idE
227:   FUNC GLOBAL DEFAULT UND _ZNSt3__16localeD1Ev
228:   FUNC GLOBAL DEFAULT UND _ZNSt3__18ios_base4initEP
229:   FUNC GLOBAL DEFAULT UND _ZNSt3__18ios_base5clearE
230:   FUNC GLOBAL DEFAULT UND _ZNSt3__19basic_iosIcNS_1
231:   FUNC GLOBAL DEFAULT UND _ZThn16_NSt3__114basic_io
232:   FUNC GLOBAL DEFAULT UND _ZThn16_NSt3__114basic_io
233:   FUNC GLOBAL DEFAULT UND _ZTv0_n24_NSt3__113basic_
234:   FUNC GLOBAL DEFAULT UND _ZTv0_n24_NSt3__113basic_
235:   FUNC GLOBAL DEFAULT UND _ZTv0_n24_NSt3__113basic_
236:   FUNC GLOBAL DEFAULT UND _ZTv0_n24_NSt3__113basic_
237:   FUNC GLOBAL DEFAULT UND _ZTv0_n24_NSt3__114basic_
238:   FUNC GLOBAL DEFAULT UND _ZTv0_n24_NSt3__114basic_
239:   FUNC GLOBAL DEFAULT UND memset@LIBC (2)
240:   FUNC GLOBAL DEFAULT UND _ZN4llvm11Instruction11se
241:   FUNC GLOBAL DEFAULT UND _ZN4llvm12FunctionPass17a
242:   FUNC GLOBAL DEFAULT UND _ZN4llvm4PassD2Ev
243:   FUNC GLOBAL DEFAULT UND _ZNK4llvm12FunctionPass17
244:   FUNC GLOBAL DEFAULT UND _ZNK4llvm12FunctionPass27
245:   FUNC GLOBAL DEFAULT UND _ZN4llvm10StructType6crea
246:   FUNC GLOBAL DEFAULT UND _ZN4llvm11InstructionC2EP
247:   FUNC GLOBAL DEFAULT UND _ZN4llvm12FunctionType3ge
248:   FUNC GLOBAL DEFAULT UND _ZN4llvm4Type13getInt64Pt
249:   FUNC GLOBAL DEFAULT UND _ZN4llvm4Type9getVoidTyER
250:   FUNC GLOBAL DEFAULT UND _ZN4llvm4User13getDescrip
251:   FUNC GLOBAL DEFAULT UND _ZN4llvm4UsernwEmjj
252:   FUNC GLOBAL DEFAULT UND _ZN4llvm6Module19getOrIns
253:   FUNC GLOBAL DEFAULT UND _ZN4llvm8CallInst4initEPN
254:   FUNC GLOBAL DEFAULT UND _ZN4llvm8CastInst17Create
255:   FUNC GLOBAL DEFAULT UND _ZNK4llvm4Type12getPointe
256:   OBJECT GLOBAL DEFAULT UND _ZTVN4llvm8CallInstE
257:   FUNC GLOBAL DEFAULT UND _ZN4llvm8MDString3getERNS
258:   FUNC GLOBAL DEFAULT UND _ZN4llvm10BasicBlock13get
259:   FUNC GLOBAL DEFAULT UND _ZN4llvm10BasicBlockC1ERN
260:   FUNC GLOBAL DEFAULT UND _ZN4llvm10BranchInstC1EPN
261:   FUNC GLOBAL DEFAULT UND _ZN4llvm10DataLayout5rese
262:   FUNC GLOBAL DEFAULT UND _ZN4llvm10DataLayoutC1EPK
263:   FUNC GLOBAL DEFAULT UND _ZN4llvm10ReturnInstC1ERN
264:   FUNC GLOBAL DEFAULT UND _ZN4llvm10SplitBlockEPNS_
265:   FUNC GLOBAL DEFAULT UND _ZN4llvm10VectorType3getE
266:   FUNC GLOBAL DEFAULT UND _ZN4llvm11ConstantInt3get
267:   FUNC GLOBAL DEFAULT UND _ZN4llvm11Instruction11se
268:   FUNC GLOBAL DEFAULT UND _ZN4llvm11Instruction15er
269:   FUNC GLOBAL DEFAULT UND _ZN4llvm11Instruction16se
270:   FUNC GLOBAL DEFAULT UND _ZN4llvm11Instruction18se
271:   FUNC GLOBAL DEFAULT UND _ZN4llvm11Instruction20se
272:   FUNC GLOBAL DEFAULT UND _ZN4llvm11PointerType3get
273:   FUNC GLOBAL DEFAULT UND _ZN4llvm12AttributeSet3ge
274:   FUNC GLOBAL DEFAULT UND _ZN4llvm12ConstantExpr10g
275:   FUNC GLOBAL DEFAULT UND _ZN4llvm12ConstantExpr14g
276:   FUNC GLOBAL DEFAULT UND _ZN4llvm12ConstantExpr16g
277:   FUNC GLOBAL DEFAULT UND _ZN4llvm12ConstantExpr6ge
278:   FUNC GLOBAL DEFAULT UND _ZN4llvm12ConstantExpr6ge
279:   FUNC GLOBAL DEFAULT UND _ZN4llvm12ConstantExpr6ge
280:   FUNC GLOBAL DEFAULT UND _ZN4llvm14BinaryOperator6
281:   FUNC GLOBAL DEFAULT UND _ZN4llvm17GetElementPtrIn
282:   FUNC GLOBAL DEFAULT UND _ZN4llvm17GetElementPtrIn
283:   FUNC GLOBAL DEFAULT UND _ZN4llvm17GetElementPtrIn
284:   FUNC GLOBAL DEFAULT UND _ZN4llvm20getAsUnsignedIn
285:   FUNC GLOBAL DEFAULT UND _ZN4llvm4Type10getInt64Ty
286:   FUNC GLOBAL DEFAULT UND _ZN4llvm4Type9getInt1TyER
287:   FUNC GLOBAL DEFAULT UND _ZN4llvm4Type9getInt8TyER
288:   FUNC GLOBAL DEFAULT UND _ZN4llvm4UsernwEm
289:   FUNC GLOBAL DEFAULT UND _ZN4llvm6MDNode18replaceO
290:   FUNC GLOBAL DEFAULT UND _ZN4llvm7CmpInstC2EPNS_4T
291:   FUNC GLOBAL DEFAULT UND _ZN4llvm8Argument7addAttr
292:   FUNC GLOBAL DEFAULT UND _ZN4llvm8FunctionC1EPNS_1
293:   FUNC GLOBAL DEFAULT UND _ZN4llvm9MDBuilder14creat
294:   FUNC GLOBAL DEFAULT UND _ZN4llvm9MDBuilder14creat
295:   FUNC GLOBAL DEFAULT UND _ZN4llvm9MDBuilder23creat
296:   FUNC GLOBAL DEFAULT UND _ZN4llvm9MDBuilder24creat
297:   FUNC GLOBAL DEFAULT UND _ZNK4llvm10BasicBlock10ge
298:   FUNC GLOBAL DEFAULT UND _ZNK4llvm4Type22getPrimit
299:   FUNC GLOBAL DEFAULT UND _ZNK4llvm5Value10getNumUs
300:   FUNC GLOBAL DEFAULT UND _ZNK4llvm8Argument8getArg
301:   FUNC GLOBAL DEFAULT UND _ZNK4llvm8Function13getRe
302:   FUNC GLOBAL DEFAULT UND _ZNK4llvm8Function15getFu
303:   FUNC GLOBAL DEFAULT UND _ZNK4llvm8Function8arg_si
304:   FUNC GLOBAL DEFAULT UND _ZNK4llvm9StringRef4findE
305:   FUNC GLOBAL DEFAULT UND _ZNSt3__112__next_primeEm
306:   OBJECT GLOBAL DEFAULT UND _ZTVN4llvm17GetElementPtr
307:   OBJECT GLOBAL DEFAULT UND _ZTVN4llvm8ICmpInstE
308:   FUNC GLOBAL DEFAULT UND __cxa_guard_acquire
309:   FUNC GLOBAL DEFAULT UND __cxa_guard_release
310:   FUNC GLOBAL DEFAULT UND _ZN4llvm18report_fatal_er
311:   FUNC GLOBAL DEFAULT UND _ZN4llvm11IntegerType3get
312:   FUNC GLOBAL DEFAULT UND _ZN4llvm6Module11material
313:   FUNC GLOBAL DEFAULT UND _ZNK4llvm4Type5printERNS_
314:   FUNC GLOBAL DEFAULT UND _ZN4llvm5Value18replaceAl
315:   FUNC GLOBAL DEFAULT UND _ZN4llvm5Value8takeNameEP
316:   FUNC GLOBAL DEFAULT UND _ZN4llvm8CallInst12addAtt
317:   FUNC GLOBAL DEFAULT UND _ZN4llvm8Function12addAtt
318:   FUNC GLOBAL DEFAULT UND _ZNK4llvm8Argument16hasSt
319:   FUNC GLOBAL DEFAULT UND _ZN4llvm13AnalysisUsage15
320:   FUNC GLOBAL DEFAULT UND _ZNK4llvm11GEPOperator20g
321:   FUNC GLOBAL DEFAULT UND _ZNK4llvm13CompositeType1
322:   FUNC GLOBAL DEFAULT UND _ZNK4llvm17GetElementPtrI
323:   FUNC GLOBAL DEFAULT UND _ZN4llvm12MemoryBuffer12g
324:   FUNC GLOBAL DEFAULT UND _ZN4llvm12MemoryBuffer7ge
325:   FUNC GLOBAL DEFAULT UND _ZN4llvm12verifyModuleERK
326:   FUNC GLOBAL DEFAULT UND _ZN4llvm20getLazyBitcodeM
327:   FUNC GLOBAL DEFAULT UND _ZN4llvm6Linker11linkModu
328:   FUNC GLOBAL DEFAULT 14 _ZN3bcc10BCCContext20Dest
329:   FUNC WEAK DEFAULT 14 _ZNKSt3__115basic_stringb
330:   FUNC WEAK DEFAULT 14 _ZNSt3__118__insertion_so
331:   FUNC WEAK DEFAULT 14 _ZNSt3__16vectorIPN4llvm8
332:   FUNC GLOBAL DEFAULT 14 _ZN3bcc24createRSKernelEx
333:   FUNC WEAK DEFAULT 14 _ZN4llvm15SmallVectorImpl
334:   FUNC GLOBAL DEFAULT 14 _ZN3bcc6Source15extractMe
335:   FUNC GLOBAL DEFAULT 14 _ZN3bcc10BCCContextC1Ev
336:   FUNC GLOBAL DEFAULT 14 _ZN3bcc10BCCContextC2Ev
337:   FUNC GLOBAL DEFAULT 14 _ZN3bcc10BCCContextD1Ev
338:   FUNC GLOBAL DEFAULT 14 _ZN3bcc10BCCContextD2Ev
339:   FUNC GLOBAL DEFAULT 14 _ZN3bcc22createRSGlobalIn
340:   FUNC GLOBAL DEFAULT 14 _ZN3bcc8FileBase11detectE
341:   FUNC GLOBAL DEFAULT 14 _ZN3bcc16RSCompilerDriver
342:   FUNC WEAK DEFAULT 14 _ZNSt3__16vectorIPN4llvm4
343:   FUNC WEAK DEFAULT 14 _ZNSt3__16__treeINS_12bas
344:   FUNC WEAK DEFAULT 14 _ZNSt3__16__treeINS_12__v
345:   FUNC GLOBAL DEFAULT 14 _ZN3bcc8Compiler13transla
346:   FUNC GLOBAL DEFAULT 14 _ZN3bcc8FileBase4openEv
347:   FUNC GLOBAL DEFAULT 14 _ZN3bcc6ScriptC2EPNS_6Sou
348:   FUNC GLOBAL DEFAULT 14 _ZN3bcc10BCCContext12remo
349:   FUNC GLOBAL DEFAULT 14 _ZN3bcc8Compiler25addInte
350:   FUNC GLOBAL DEFAULT 14 _ZN3bcc8FileBaseC2ERKNSt3
351:   FUNC WEAK DEFAULT 14 _ZNSt3__16vectorIiNS_9all
352:   FUNC WEAK DEFAULT 14 _ZNSt3__115basic_stringbu
353:   FUNC WEAK DEFAULT 14 _ZNSt3__17__sort4IRNS_6__
354:   FUNC GLOBAL DEFAULT 14 _ZN3bcc6SourceC2EPKcRNS_1
355:   FUNC GLOBAL DEFAULT 14 _ZN3bcc6Source9setModuleE
356:   FUNC GLOBAL DEFAULT 14 _ZN3bcc8Compiler19addInvo
357:   FUNC WEAK DEFAULT 14 _ZNSt3__127__tree_balance
358:   FUNC WEAK DEFAULT 14 _ZNSt3__16vectorIPN3bcc6S
359:   FUNC WEAK DEFAULT 14 _ZNSt3__127__insertion_so
360:   FUNC WEAK DEFAULT 14 _ZNKSt3__16__treeINS_12ba
361:   FUNC GLOBAL DEFAULT 14 _ZN3bcc8FileBase4lockENS0
362:   OBJECT WEAK DEFAULT 18 _ZTVNSt3__118basic_string
363:   FUNC GLOBAL DEFAULT 14 _ZN3bcc8Compiler16addInva
364:   FUNC GLOBAL DEFAULT 14 _ZN3bcc8CompilerC2ERKNS_1
365:   OBJECT WEAK DEFAULT 18 _ZTTNSt3__118basic_string
366:   FUNC WEAK DEFAULT 14 _ZNSt3__112__hash_tableIP
367:   FUNC GLOBAL DEFAULT 14 _ZN3bcc10BCCContext24GetO
368:   FUNC GLOBAL DEFAULT 14 _ZN3bcc24createRSAddDebug
369:   FUNC GLOBAL DEFAULT 14 _ZN3bcc8CompilerC1ERKNS_1
370:   FUNC GLOBAL DEFAULT 14 _ZNK3bcc6Source18getCompi
371:   FUNC GLOBAL DEFAULT 14 _ZN3bcc14CompilerConfig16
372:   OBJECT WEAK DEFAULT 18 _ZTVNSt3__115basic_string
373:   FUNC GLOBAL DEFAULT 14 _ZN3bcc8Compiler6configER
374:   FUNC GLOBAL DEFAULT 14 _ZN3bcc16RSCompilerDriver
375:   FUNC GLOBAL DEFAULT 14 _ZN3bcc27createRSX86Trans
376:   FUNC GLOBAL DEFAULT 14 _ZNK3bcc6Source19getDebug
377:   FUNC GLOBAL DEFAULT 14 _ZN3bcc14CompilerConfig16
378:   FUNC GLOBAL DEFAULT 14 _ZN3bcc16RSCompilerDriver
379:   FUNC WEAK DEFAULT 14 _ZNSt3__115basic_stringbu
380:   FUNC WEAK DEFAULT 14 _ZNSt3__112__hash_tableIP
381:   FUNC GLOBAL DEFAULT 14 _ZNK3bcc10BCCContext14get
382:   FUNC GLOBAL DEFAULT 14 _ZN3bcc8Compiler7compileE
383:   FUNC GLOBAL DEFAULT 14 _ZN3bcc6Source14CreateFro
384:   FUNC WEAK DEFAULT 14 _ZN4llvm15SmallVectorImpl
385:   FUNC GLOBAL DEFAULT 14 _ZN3bcc14CompilerConfig14
386:   FUNC WEAK DEFAULT 14 _ZNSt3__16vectorIPN4llvm5
387:   FUNC GLOBAL DEFAULT 14 _ZN3bcc14BCCContextImplD1
388:   FUNC GLOBAL DEFAULT 14 _ZN3bcc14BCCContextImplD2
389:   FUNC GLOBAL DEFAULT 14 _ZN3bcc8Compiler19addExpa
390:   FUNC GLOBAL DEFAULT 14 _ZN3bcc6ScriptC1EPNS_6Sou
391:   FUNC GLOBAL DEFAULT 14 _ZN3bcc6Source16CreateFro
392:   FUNC WEAK DEFAULT 14 _ZNSt3__124__put_characte
393:   FUNC WEAK DEFAULT 14 _ZNSt3__16vectorIPN4llvm8
394:   FUNC GLOBAL DEFAULT 14 _ZN3bcc8Compiler14GetErro
395:   FUNC GLOBAL DEFAULT 14 _ZN3bcc12renameInvokeERNS
396:   FUNC GLOBAL DEFAULT 14 _ZNK3bcc6Source24addBuild
397:   OBJECT WEAK DEFAULT 18 _ZTCNSt3__118basic_string
398:   OBJECT WEAK DEFAULT 18 _ZTCNSt3__118basic_string
399:   FUNC GLOBAL DEFAULT 14 _ZN3bcc8Compiler16addDebu
400:   FUNC GLOBAL DEFAULT 14 _ZN3bcc21createRSEmbedInf
401:   FUNC GLOBAL DEFAULT 14 _ZN3bcc24createRSInvokeHe
402:   FUNC WEAK DEFAULT 14 _ZNSt3__16vectorINS_12bas
403:   FUNC GLOBAL DEFAULT 14 _ZN3bcc8FileBaseD0Ev
404:   FUNC GLOBAL DEFAULT 14 _ZN3bcc8FileBaseD1Ev
405:   FUNC GLOBAL DEFAULT 14 _ZN3bcc8FileBaseD2Ev
406:   FUNC GLOBAL DEFAULT 14 _ZN3bcc11fuseKernelsERNS_
407:   FUNC GLOBAL DEFAULT 14 _ZN3bcc6SourceD1Ev
408:   FUNC GLOBAL DEFAULT 14 _ZN3bcc8Compiler17addGlob
409:   FUNC GLOBAL DEFAULT 14 _ZN3bcc16RSCompilerDriver
410:   FUNC GLOBAL DEFAULT 14 _ZN3bcc16RSCompilerDriver
411:   FUNC GLOBAL DEFAULT 14 _ZN3bcc6SourceD2Ev
412:   FUNC GLOBAL DEFAULT 14 _ZN3bcc6Source5mergeERS0_
413:   FUNC WEAK DEFAULT 14 _ZNSt3__16vectorIPN3bcc6S
414:   FUNC GLOBAL DEFAULT 14 _ZN3bcc14CompilerConfigC2
415:   FUNC GLOBAL DEFAULT 14 _ZNK3bcc6Source21getWrapp
416:   FUNC WEAK DEFAULT 14 _ZNSt3__16vectorImNS_9all
417:   FUNC GLOBAL DEFAULT 14 _ZNK3bcc6Source13getIdent
418:   FUNC GLOBAL DEFAULT 14 _ZN3bcc8CompilerC1Ev
419:   FUNC GLOBAL DEFAULT 14 _ZN3bcc8CompilerC2Ev
420:   FUNC GLOBAL DEFAULT 14 _ZN3bcc8CompilerD1Ev
421:   FUNC GLOBAL DEFAULT 14 _ZN3bcc8CompilerD2Ev
422:   FUNC WEAK DEFAULT 14 _ZN4llvm15SmallVectorImpl
423:   FUNC WEAK DEFAULT 14 _ZNSt3__16vectorINS_12bas
424:   OBJECT GLOBAL DEFAULT 18 _ZTVN3bcc8FileBaseE
425:   FUNC GLOBAL DEFAULT 14 _ZN3bcc21createRSInvarian
426:   FUNC GLOBAL DEFAULT 14 _ZN3bcc10BCCContext14getL
427:   FUNC GLOBAL DEFAULT 14 _ZN3bcc26createRSX86_64Ca
428:   OBJECT WEAK DEFAULT 18 _ZTCNSt3__118basic_string
429:   FUNC GLOBAL DEFAULT 14 _ZN3bcc10BCCContext9addSo
430:   FUNC GLOBAL DEFAULT 14 _ZN3bcc8FileBase5closeEv
431:   FUNC WEAK DEFAULT 14 _ZNSt3__115basic_stringbu
432:   FUNC GLOBAL DEFAULT 14 _ZN3bcc4init10InitializeE
433:   FUNC GLOBAL DEFAULT 14 _ZN3bcc6Script11mergeSour
434:   FUNC GLOBAL DEFAULT 14 _ZN3bcc24createRSIsThread
435:   FUNC GLOBAL DEFAULT 14 _ZN3bcc8Compiler9runPasse
436:   FUNC GLOBAL DEFAULT 14 _ZN3bcc8FileBase6unlockEv
437:   OBJECT GLOBAL DEFAULT 11 _ZN3bcc18BCC_INDEX_VAR_NA
438:   FUNC WEAK DEFAULT 14 _ZNSt3__16vectorIjNS_9all
439:   FUNC WEAK DEFAULT 14 _ZNSt3__112__hash_tableIP
440:   FUNC GLOBAL DEFAULT 14 _ZN3bcc8Compiler21screenG
441:   OBJECT WEAK DEFAULT 18 _ZTVN3bcc14CompilerConfig
442:   FUNC GLOBAL DEFAULT 14 _ZN3bcc8FileBase18checkFi
443:   FUNC GLOBAL DEFAULT 14 _ZN3bcc6Source16CreateFro
444:   FUNC WEAK DEFAULT 14 _ZNSt3__17__sort3IRNS_6__
445:   OBJECT GLOBAL DEFAULT 23 stubList
446:   FUNC GLOBAL DEFAULT 14 _ZN3bcc27createRSScreenFu
447:   FUNC WEAK DEFAULT 14 _ZNSt3__16__treeINS_12bas
448:   FUNC GLOBAL DEFAULT 14 _ZN3bcc14CompilerConfigC1
449:   FUNC GLOBAL DEFAULT 14 _ZN3bcc16RSCompilerDriver
450:   FUNC GLOBAL DEFAULT 14 _ZN3bcc16RSCompilerDriver
451:   FUNC GLOBAL DEFAULT 14 _ZN3bcc16RSCompilerDriver
452:   FUNC GLOBAL DEFAULT 14 _ZN3bcc16RSCompilerDriver
453:   FUNC GLOBAL DEFAULT 14 _ZN3bcc6Script11LinkRunti
454:   OBJECT WEAK DEFAULT 18 _ZTVN3bcc9FileMutexE
455:   FUNC WEAK DEFAULT 14 _ZNSt3__115basic_stringbu
456:   FUNC WEAK DEFAULT 14 _ZNSt3__16vectorIPN4llvm1
457:   FUNC WEAK DEFAULT 14 _ZNSt3__16__treeINS_12bas
458:   FUNC WEAK DEFAULT 14 _ZNSt3__16__sortIRNS_6__l
459:   FUNC GLOBAL DEFAULT 14 _ZN3bcc8FileBaseC1ERKNSt3
460:   FUNC GLOBAL DEFAULT 14 _ZN3bcc6SourceC1EPKcRNS_1
