 0x000000000000000e (SONAME)             Library soname: [liblog.so]
  
Symbol   contains 30 entries:
Num:   Type Bind Vis Ndx Name
0:   NOTYPE LOCAL DEFAULT UND
1:   FUNC GLOBAL DEFAULT 7 __android_log_bswrite@@LIBLOG_Q
2:   FUNC GLOBAL DEFAULT 7 __android_log_security@@LIBLOG_Q
3:   FUNC GLOBAL DEFAULT 7 android_log_write_int32@@LIBLOG_M
4:   FUNC GLOBAL DEFAULT 7 android_log_write_list_be@@LIBLOG_M
5:   FUNC GLOBAL DEFAULT 7 android_logger_list_read@@LIBLOG_L
6:   FUNC GLOBAL DEFAULT 7 __android_log_bwrite@@LIBLOG_Q
7:   FUNC GLOBAL DEFAULT 7 __android_log_close@@LIBLOG_Q
8:   FUNC GLOBAL DEFAULT 7 __android_log_error_write@@LIBLOG_M
9:   FUNC GLOBAL DEFAULT 7 __android_log_print@@LIBLOG
10:   FUNC GLOBAL DEFAULT 7 android_log_destroy@@LIBLOG_M
11:   FUNC GLOBAL DEFAULT 7 android_log_write_list_en@@LIBLOG_M
12:   FUNC GLOBAL DEFAULT 7 android_log_write_string8@@LIBLOG_M
13:   FUNC GLOBAL DEFAULT 7 android_logger_list_alloc@@LIBLOG_L
14:   FUNC GLOBAL DEFAULT 7 android_logger_list_free@@LIBLOG_L
15:   FUNC GLOBAL DEFAULT 7 __android_log_buf_print@@LIBLOG
16:   FUNC GLOBAL DEFAULT 7 __android_log_write@@LIBLOG
17:   FUNC GLOBAL DEFAULT 7 __android_log_btwrite@@LIBLOG_Q
18:   FUNC GLOBAL DEFAULT 7 __android_log_buf_write@@LIBLOG
19:   FUNC GLOBAL DEFAULT 7 android_log_write_int64@@LIBLOG_M
20:   FUNC GLOBAL DEFAULT 7 android_logger_list_alloc@@LIBLOG_L
21:   FUNC GLOBAL DEFAULT 7 create_android_logger@@LIBLOG_M
22:   FUNC GLOBAL DEFAULT 7 __android_log_is_loggable@@LIBLOG_O
23:   FUNC GLOBAL DEFAULT 7 __android_log_vprint@@LIBLOG
24:   FUNC GLOBAL DEFAULT 7 android_logger_open@@LIBLOG_L
25:   FUNC GLOBAL DEFAULT 7 __android_log_is_loggable@@LIBLOG_M
26:   FUNC GLOBAL DEFAULT 7 android_log_write_list@@LIBLOG_M
27:   FUNC GLOBAL DEFAULT 7 android_log_write_string8@@LIBLOG_M
28:   FUNC GLOBAL DEFAULT 7 __android_log_assert@@LIBLOG
29:   FUNC GLOBAL DEFAULT 7 android_log_write_float32@@LIBLOG_M
