 0x000000000000000e (SONAME)             Library soname: [android.hardware.secure_element@1.0.so]
  
Symbol   contains 321 entries:
Num:   Type Bind Vis Ndx Name
0:   NOTYPE LOCAL DEFAULT UND
1:   FUNC GLOBAL DEFAULT UND __cxa_finalize@LIBC (2)
2:   FUNC GLOBAL DEFAULT UND _ZN7android14sp_report_ra
3:   FUNC GLOBAL DEFAULT UND _ZN7android21report_syspr
4:   OBJECT GLOBAL DEFAULT UND _ZN7android4hidl4base4V1_
5:   FUNC GLOBAL DEFAULT UND _ZN7android4hidl4base4V1_
6:   FUNC GLOBAL DEFAULT UND _ZN7android4hidl4base4V1_
7:   FUNC GLOBAL DEFAULT UND _ZN7android4hidl4base4V1_
8:   FUNC GLOBAL DEFAULT UND _ZN7android4hidl4base4V1_
9:   FUNC GLOBAL DEFAULT UND _ZN7android4hidl4base4V1_
10:   FUNC GLOBAL DEFAULT UND _ZN7android4hidl4base4V1_
11:   FUNC GLOBAL DEFAULT UND _ZN7android4hidl4base4V1_
12:   FUNC GLOBAL DEFAULT UND _ZN7android4hidl4base4V1_
13:   FUNC GLOBAL DEFAULT UND _ZN7android4hidl4base4V1_
14:   FUNC GLOBAL DEFAULT UND _ZN7android4hidl4base4V1_
15:   FUNC GLOBAL DEFAULT UND _ZN7android4hidl4base4V1_
16:   FUNC GLOBAL DEFAULT UND _ZN7android4hidl4base4V1_
17:   FUNC GLOBAL DEFAULT UND _ZN7android4hidl4base4V1_
18:   FUNC GLOBAL DEFAULT UND _ZN7android4hidl4base4V1_
19:   FUNC GLOBAL DEFAULT UND _ZN7android4hidl4base4V1_
20:   FUNC GLOBAL DEFAULT UND _ZN7android4hidl4base4V1_
21:   FUNC GLOBAL DEFAULT UND _ZN7android4hidl4base4V1_
22:   FUNC GLOBAL DEFAULT UND _ZN7android4hidl4base4V1_
23:   FUNC GLOBAL DEFAULT UND _ZN7android4hidl4base4V1_
24:   FUNC GLOBAL DEFAULT UND _ZN7android4hidl4base4V1_
25:   FUNC GLOBAL DEFAULT UND _ZN7android4hidl4base4V1_
26:   FUNC GLOBAL DEFAULT UND _ZN7android4hidl4base4V1_
27:   FUNC GLOBAL DEFAULT UND _ZN7android4hidl4base4V1_
28:   FUNC GLOBAL DEFAULT UND _ZN7android7RefBase10onFi
29:   FUNC GLOBAL DEFAULT UND _ZN7android7RefBase12weak
30:   FUNC GLOBAL DEFAULT UND _ZN7android7RefBase13onLa
31:   FUNC GLOBAL DEFAULT UND _ZN7android7RefBase15onLa
32:   FUNC GLOBAL DEFAULT UND _ZN7android7RefBase20onIn
33:   FUNC GLOBAL DEFAULT UND _ZN7android7RefBaseC2Ev
34:   FUNC GLOBAL DEFAULT UND _ZN7android7RefBaseD2Ev
35:   FUNC GLOBAL DEFAULT UND _ZN7android8hardware10IIn
36:   FUNC GLOBAL DEFAULT UND _ZN7android8hardware10IIn
37:   FUNC GLOBAL DEFAULT UND _ZN7android8hardware10IIn
38:   FUNC GLOBAL DEFAULT UND _ZN7android8hardware10IIn
39:   FUNC GLOBAL DEFAULT UND _ZN7android8hardware10IIn
40:   FUNC GLOBAL DEFAULT UND _ZN7android8hardware11BpH
41:   FUNC GLOBAL DEFAULT UND _ZN7android8hardware11BpH
42:   FUNC GLOBAL DEFAULT UND _ZN7android8hardware11BpH
43:   FUNC GLOBAL DEFAULT UND _ZN7android8hardware11BpH
44:   FUNC GLOBAL DEFAULT UND _ZN7android8hardware11BpH
45:   FUNC GLOBAL DEFAULT UND _ZN7android8hardware11BpH
46:   FUNC GLOBAL DEFAULT UND _ZN7android8hardware11BpH
47:   FUNC GLOBAL DEFAULT UND _ZN7android8hardware11hid
48:   FUNC GLOBAL DEFAULT UND _ZN7android8hardware11hid
49:   FUNC GLOBAL DEFAULT UND _ZN7android8hardware11hid
50:   FUNC GLOBAL DEFAULT UND _ZN7android8hardware11hid
51:   FUNC GLOBAL DEFAULT UND _ZN7android8hardware11hid
52:   FUNC GLOBAL DEFAULT UND _ZN7android8hardware12Pro
53:   FUNC GLOBAL DEFAULT UND _ZN7android8hardware12Pro
54:   FUNC GLOBAL DEFAULT UND _ZN7android8hardware13wri
55:   FUNC GLOBAL DEFAULT UND _ZN7android8hardware14rea
56:   FUNC GLOBAL DEFAULT UND _ZN7android8hardware21def
57:   FUNC GLOBAL DEFAULT UND _ZN7android8hardware23get
58:   FUNC GLOBAL DEFAULT UND _ZN7android8hardware27hid
59:   FUNC GLOBAL DEFAULT UND _ZN7android8hardware27hid
60:   FUNC GLOBAL DEFAULT UND _ZN7android8hardware6Parc
61:   FUNC GLOBAL DEFAULT UND _ZN7android8hardware6Parc
62:   FUNC GLOBAL DEFAULT UND _ZN7android8hardware6Parc
63:   FUNC GLOBAL DEFAULT UND _ZN7android8hardware6Parc
64:   FUNC GLOBAL DEFAULT UND _ZN7android8hardware6Parc
65:   FUNC GLOBAL DEFAULT UND _ZN7android8hardware6Parc
66:   FUNC GLOBAL DEFAULT UND _ZN7android8hardware6Parc
67:   FUNC GLOBAL DEFAULT UND _ZN7android8hardware6Parc
68:   FUNC GLOBAL DEFAULT UND _ZN7android8hardware6Stat
69:   FUNC GLOBAL DEFAULT UND _ZN7android8hardware6Stat
70:   FUNC GLOBAL DEFAULT UND _ZN7android8hardware6Stat
71:   FUNC GLOBAL DEFAULT UND _ZN7android8hardware6Stat
72:   FUNC GLOBAL DEFAULT UND _ZN7android8hardware7IBin
73:   FUNC GLOBAL DEFAULT UND _ZN7android8hardware7IBin
74:   FUNC GLOBAL DEFAULT UND _ZN7android8hardware7IBin
75:   FUNC GLOBAL DEFAULT UND _ZN7android8hardware7IBin
76:   FUNC GLOBAL DEFAULT UND _ZN7android8hardware7deta
77:   FUNC GLOBAL DEFAULT UND _ZN7android8hardware7deta
78:   FUNC GLOBAL DEFAULT UND _ZN7android8hardware7deta
79:   FUNC GLOBAL DEFAULT UND _ZN7android8hardware7deta
80:   FUNC GLOBAL DEFAULT UND _ZN7android8hardware7deta
81:   FUNC GLOBAL DEFAULT UND _ZN7android8hardware7deta
82:   FUNC GLOBAL DEFAULT UND _ZN7android8hardware7deta
83:   OBJECT GLOBAL DEFAULT UND _ZN7android8hardware7deta
84:   FUNC GLOBAL DEFAULT UND _ZN7android8hardware7deta
85:   OBJECT GLOBAL DEFAULT UND _ZN7android8hardware7deta
86:   FUNC GLOBAL DEFAULT UND _ZN7android8hardware7deta
87:   FUNC GLOBAL DEFAULT UND _ZN7android8hardware7deta
88:   FUNC GLOBAL DEFAULT UND _ZN7android8hardware7deta
89:   FUNC GLOBAL DEFAULT UND _ZN7android8hardware7deta
90:   FUNC GLOBAL DEFAULT UND _ZN7android8hardware7deta
91:   FUNC GLOBAL DEFAULT UND _ZN7android8hardware7deta
92:   FUNC GLOBAL DEFAULT UND _ZN7android8hardware7deta
93:   FUNC GLOBAL DEFAULT UND _ZN7android8hardware7deta
94:   FUNC GLOBAL DEFAULT UND _ZN7android8hardware7deta
95:   FUNC GLOBAL DEFAULT UND _ZN7android8hardware7deta
96:   OBJECT GLOBAL DEFAULT UND _ZN7android8hardware7deta
97:   FUNC GLOBAL DEFAULT UND _ZN7android8hardware9BHwB
98:   FUNC GLOBAL DEFAULT UND _ZN7android8hardware9BHwB
99:   FUNC GLOBAL DEFAULT UND _ZN7android8hardware9BHwB
100:   FUNC GLOBAL DEFAULT UND _ZN7android8hardware9BHwB
101:   FUNC GLOBAL DEFAULT UND _ZN7android8hardware9BHwB
102:   FUNC GLOBAL DEFAULT UND _ZN7android8hardware9BHwB
103:   FUNC GLOBAL DEFAULT UND _ZN7android8hardware9BHwB
104:   FUNC GLOBAL DEFAULT UND _ZN7android8hardware9BHwB
105:   FUNC GLOBAL DEFAULT UND _ZN7android8hardware9BHwB
106:   FUNC GLOBAL DEFAULT UND _ZN7android8hardware9BHwB
107:   FUNC GLOBAL DEFAULT UND _ZNK7android7RefBase10cre
108:   FUNC GLOBAL DEFAULT UND _ZNK7android7RefBase11get
109:   FUNC GLOBAL DEFAULT UND _ZNK7android7RefBase9decS
110:   FUNC GLOBAL DEFAULT UND _ZNK7android7RefBase9incS
111:   FUNC GLOBAL DEFAULT UND _ZNK7android8hardware6Par
112:   FUNC GLOBAL DEFAULT UND _ZNK7android8hardware6Par
113:   FUNC GLOBAL DEFAULT UND _ZNK7android8hardware6Par
114:   FUNC GLOBAL DEFAULT UND _ZNK7android8hardware6Par
115:   FUNC GLOBAL DEFAULT UND _ZNK7android8hardware6Par
116:   FUNC GLOBAL DEFAULT UND _ZNK7android8hardware6Par
117:   FUNC GLOBAL DEFAULT UND _ZNK7android8hardware7IBi
118:   FUNC GLOBAL DEFAULT UND _ZNK7android8hardware7det
119:   FUNC GLOBAL DEFAULT UND _ZNK7android8hardware9BHw
120:   FUNC GLOBAL DEFAULT UND _ZNKSt3__120__vector_base
121:   FUNC GLOBAL DEFAULT UND _ZNKSt3__121__basic_strin
122:   FUNC GLOBAL DEFAULT UND _ZNSt3__112basic_stringIc
123:   FUNC GLOBAL DEFAULT UND _ZNSt3__15mutex4lockEv
124:   FUNC GLOBAL DEFAULT UND _ZNSt3__15mutex6unlockEv
125:   FUNC GLOBAL DEFAULT UND _ZNSt3__15mutexD1Ev
126:   FUNC GLOBAL DEFAULT UND _ZTv0_n24_N7android4hidl4
127:   FUNC GLOBAL DEFAULT UND _ZTv0_n24_N7android4hidl4
128:   FUNC GLOBAL DEFAULT UND _ZTv0_n24_N7android8hardw
129:   FUNC GLOBAL DEFAULT UND _ZTv0_n24_N7android8hardw
130:   FUNC GLOBAL DEFAULT UND _ZTv0_n24_N7android8hardw
131:   FUNC GLOBAL DEFAULT UND _ZTv0_n24_N7android8hardw
132:   FUNC GLOBAL DEFAULT UND _ZTv0_n24_N7android8hardw
133:   FUNC GLOBAL DEFAULT UND _ZTv0_n24_N7android8hardw
134:   FUNC GLOBAL DEFAULT UND _ZTv0_n24_N7android8hardw
135:   FUNC GLOBAL DEFAULT UND _ZTv0_n24_N7android8hardw
136:   FUNC GLOBAL DEFAULT UND _ZTv0_n32_N7android8hardw
137:   FUNC GLOBAL DEFAULT UND _ZTv0_n40_N7android8hardw
138:   FUNC GLOBAL DEFAULT UND _ZTv0_n48_N7android8hardw
139:   FUNC GLOBAL DEFAULT UND _ZdaPv
140:   FUNC GLOBAL DEFAULT UND _ZdlPv
141:   FUNC GLOBAL DEFAULT UND _Znam
142:   FUNC GLOBAL DEFAULT UND _Znwm
143:   FUNC GLOBAL DEFAULT UND __android_log_assert@LIBLOG (3)
144:   FUNC GLOBAL DEFAULT UND __cxa_pure_virtual
145:   FUNC GLOBAL DEFAULT UND __stack_chk_fail@LIBC (2)
146:   FUNC GLOBAL DEFAULT UND abort@LIBC (2)
147:   FUNC GLOBAL DEFAULT UND atrace_begin_body
148:   OBJECT GLOBAL DEFAULT UND atrace_enabled_tags
149:   FUNC GLOBAL DEFAULT UND atrace_end_body
150:   OBJECT GLOBAL DEFAULT UND atrace_is_ready
151:   FUNC GLOBAL DEFAULT UND atrace_setup
152:   FUNC GLOBAL DEFAULT UND memcmp@LIBC (2)
153:   FUNC GLOBAL DEFAULT UND memcpy@LIBC (2)
154:   FUNC GLOBAL DEFAULT UND memset@LIBC (2)
155:   FUNC GLOBAL DEFAULT UND strlen@LIBC (2)
156:   FUNC GLOBAL DEFAULT 14 _ZN7android8hardware14sec
157:   FUNC GLOBAL DEFAULT 14 _ZN7android8hardware14sec
158:   FUNC GLOBAL DEFAULT 14 _ZN7android8hardware14sec
159:   FUNC GLOBAL DEFAULT 14 _ZN7android8hardware14sec
160:   FUNC GLOBAL DEFAULT 14 _ZN7android8hardware14sec
161:   FUNC GLOBAL DEFAULT 14 _ZN7android8hardware14sec
162:   FUNC GLOBAL DEFAULT 14 _ZN7android8hardware14sec
163:   FUNC GLOBAL DEFAULT 14 _ZN7android8hardware14sec
164:   FUNC GLOBAL DEFAULT 14 _ZN7android8hardware14sec
165:   FUNC GLOBAL DEFAULT 14 _ZN7android8hardware14sec
166:   OBJECT GLOBAL DEFAULT 18 _ZTTN7android8hardware14s
167:   FUNC GLOBAL DEFAULT 14 _ZN7android8hardware14sec
168:   FUNC GLOBAL DEFAULT 14 _ZN7android8hardware14sec
169:   FUNC GLOBAL DEFAULT 14 _ZN7android8hardware14sec
170:   FUNC GLOBAL DEFAULT 14 _ZN7android8hardware14sec
171:   OBJECT GLOBAL DEFAULT 18 _ZTCN7android8hardware14s
172:   OBJECT GLOBAL DEFAULT 18 _ZTCN7android8hardware14s
173:   FUNC GLOBAL DEFAULT 14 _ZN7android8hardware14sec
174:   FUNC GLOBAL DEFAULT 14 _ZN7android8hardware14sec
175:   FUNC GLOBAL DEFAULT 14 _ZN7android8hardware14sec
176:   FUNC WEAK DEFAULT 14 _ZNSt3__16__treeINS_12__v
177:   OBJECT GLOBAL DEFAULT 18 _ZTCN7android8hardware14s
178:   FUNC GLOBAL DEFAULT 14 _ZN7android8hardware14sec
179:   FUNC GLOBAL DEFAULT 14 _ZN7android8hardware14sec
180:   FUNC GLOBAL DEFAULT 14 _ZN7android8hardware14sec
181:   OBJECT GLOBAL DEFAULT 18 _ZTVN7android8hardware14s
182:   FUNC GLOBAL DEFAULT 14 _ZN7android8hardware14sec
183:   OBJECT GLOBAL DEFAULT 18 _ZTTN7android8hardware14s
184:   OBJECT GLOBAL DEFAULT 16 _ZN7android8hardware14sec
185:   FUNC GLOBAL DEFAULT 14 _ZN7android8hardware14sec
186:   FUNC WEAK DEFAULT 14 _ZNSt3__16vectorIPvNS_9al
187:   OBJECT WEAK DEFAULT 18 _ZTCN7android8hardware14s
188:   FUNC WEAK DEFAULT 14 _ZN7android8hardware7deta
189:   OBJECT GLOBAL DEFAULT 18 _ZTCN7android8hardware14s
190:   OBJECT GLOBAL DEFAULT 18 _ZTCN7android8hardware14s
191:   FUNC GLOBAL DEFAULT 14 _ZN7android8hardware14sec
192:   FUNC GLOBAL DEFAULT 14 _ZN7android8hardware14sec
193:   OBJECT GLOBAL DEFAULT 18 _ZTCN7android8hardware14s
194:   OBJECT GLOBAL DEFAULT 18 _ZTCN7android8hardware14s
195:   FUNC GLOBAL DEFAULT 14 _ZTv0_n24_N7android8hardw
196:   FUNC GLOBAL DEFAULT 14 _ZN7android8hardware14sec
197:   FUNC WEAK DEFAULT 14 _ZN7android8hardware7deta
198:   OBJECT GLOBAL DEFAULT 18 _ZTVN7android8hardware14s
199:   FUNC GLOBAL DEFAULT 14 _ZN7android8hardware14sec
200:   OBJECT GLOBAL DEFAULT 18 _ZTVN7android8hardware14s
201:   FUNC GLOBAL DEFAULT 14 _ZN7android8hardware14sec
202:   FUNC GLOBAL DEFAULT 14 _ZN7android8hardware14sec
203:   FUNC GLOBAL DEFAULT 14 _ZN7android8hardware14sec
204:   FUNC GLOBAL DEFAULT 14 _ZN7android8hardware14sec
205:   FUNC GLOBAL DEFAULT 14 _ZN7android8hardware14sec
206:   FUNC GLOBAL DEFAULT 14 _ZN7android8hardware14sec
207:   FUNC WEAK DEFAULT 14 _ZNSt3__113__tree_removeI
208:   FUNC GLOBAL DEFAULT 14 _ZN7android8hardware14sec
209:   FUNC GLOBAL DEFAULT 14 _ZN7android8hardware14sec
210:   FUNC GLOBAL DEFAULT 14 _ZN7android8hardware14sec
211:   FUNC GLOBAL DEFAULT 14 _ZN7android8hardware14sec
212:   FUNC WEAK DEFAULT 14 _ZNSt3__16__treeINS_12__v
213:   FUNC GLOBAL DEFAULT 14 _ZN7android8hardware14sec
214:   FUNC GLOBAL DEFAULT 14 _ZN7android8hardware14sec
215:   FUNC GLOBAL DEFAULT 14 _ZN7android8hardware14sec
216:   FUNC WEAK DEFAULT 14 _ZNSt3__16__treeINS_12__v
217:   FUNC GLOBAL DEFAULT 14 _ZN7android8hardware14sec
218:   OBJECT GLOBAL DEFAULT 18 _ZTCN7android8hardware14s
219:   FUNC GLOBAL DEFAULT 14 _ZN7android8hardware14sec
220:   FUNC GLOBAL DEFAULT 14 _ZN7android8hardware14sec
221:   FUNC GLOBAL DEFAULT 14 _ZN7android8hardware14sec
222:   FUNC GLOBAL DEFAULT 14 _ZN7android8hardware14sec
223:   FUNC GLOBAL DEFAULT 14 _ZN7android8hardware14sec
224:   FUNC WEAK DEFAULT 14 _ZNSt3__127__tree_balance
225:   FUNC WEAK DEFAULT 14 _ZNSt3__16__treeINS_12__v
226:   OBJECT GLOBAL DEFAULT 18 _ZTCN7android8hardware14s
227:   OBJECT GLOBAL DEFAULT 18 _ZTTN7android8hardware14s
228:   FUNC GLOBAL DEFAULT 14 _ZN7android8hardware14sec
229:   FUNC GLOBAL DEFAULT 14 _ZN7android8hardware14sec
230:   OBJECT GLOBAL DEFAULT 16 _ZN7android8hardware14sec
231:   FUNC GLOBAL DEFAULT 14 _ZThn32_N7android8hardwar
232:   FUNC GLOBAL DEFAULT 14 _ZN7android8hardware14sec
233:   FUNC GLOBAL DEFAULT 14 _ZThn32_N7android8hardwar
234:   FUNC GLOBAL DEFAULT 14 _ZN7android8hardware14sec
235:   FUNC GLOBAL DEFAULT 14 _ZN7android8hardware14sec
236:   FUNC WEAK DEFAULT 14 _ZN7android8hardware7deta
237:   FUNC WEAK DEFAULT 14 _ZN7android8hardware7deta
238:   OBJECT GLOBAL DEFAULT 18 _ZTVN7android8hardware14s
239:   FUNC GLOBAL DEFAULT 14 _ZTv0_n24_N7android8hardw
240:   FUNC GLOBAL DEFAULT 14 _ZN7android8hardware14sec
241:   OBJECT GLOBAL DEFAULT 18 _ZTTN7android8hardware14s
242:   OBJECT GLOBAL DEFAULT 18 _ZTVN7android8hardware14s
243:   OBJECT WEAK DEFAULT 18 _ZTVN7android8hardware14s
244:   FUNC GLOBAL DEFAULT 14 _ZN7android8hardware14sec
245:   FUNC GLOBAL DEFAULT 14 _ZN7android8hardware14sec
246:   OBJECT GLOBAL DEFAULT 18 _ZTTN7android8hardware14s
247:   FUNC GLOBAL DEFAULT 14 _ZN7android8hardware14sec
248:   FUNC GLOBAL DEFAULT 14 _ZN7android8hardware14sec
249:   FUNC GLOBAL DEFAULT 14 _ZN7android8hardware14sec
250:   FUNC GLOBAL DEFAULT 14 _ZN7android8hardware14sec
251:   OBJECT GLOBAL DEFAULT 18 _ZTCN7android8hardware14s
252:   FUNC GLOBAL DEFAULT 14 _ZN7android8hardware14sec
253:   FUNC GLOBAL DEFAULT 14 _ZN7android8hardware14sec
254:   FUNC GLOBAL DEFAULT 14 _ZN7android8hardware14sec
255:   FUNC WEAK DEFAULT 14 _ZNSt3__16vectorINS_8func
256:   OBJECT WEAK DEFAULT 18 _ZTCN7android8hardware14s
257:   FUNC GLOBAL DEFAULT 14 _ZN7android8hardware14sec
258:   FUNC GLOBAL DEFAULT 14 _ZN7android8hardware14sec
259:   OBJECT GLOBAL DEFAULT 18 _ZTVN7android8hardware14s
260:   FUNC GLOBAL DEFAULT 14 _ZN7android8hardware14sec
261:   FUNC GLOBAL DEFAULT 14 _ZN7android8hardware14sec
262:   FUNC GLOBAL DEFAULT 14 _ZN7android8hardware14sec
263:   FUNC GLOBAL DEFAULT 14 _ZN7android8hardware14sec
264:   FUNC GLOBAL DEFAULT 14 _ZTv0_n24_N7android8hardw
265:   FUNC GLOBAL DEFAULT 14 _ZN7android8hardware14sec
266:   FUNC GLOBAL DEFAULT 14 _ZN7android8hardware14sec
267:   FUNC WEAK DEFAULT 14 _ZNSt3__16__treeINS_12__v
268:   FUNC GLOBAL DEFAULT 14 _ZN7android8hardware14sec
269:   FUNC GLOBAL DEFAULT 14 _ZN7android8hardware14sec
270:   FUNC GLOBAL DEFAULT 14 _ZN7android8hardware14sec
271:   FUNC GLOBAL DEFAULT 14 _ZN7android8hardware14sec
272:   OBJECT GLOBAL DEFAULT 18 _ZTCN7android8hardware14s
273:   FUNC GLOBAL DEFAULT 14 _ZN7android8hardware14sec
274:   FUNC GLOBAL DEFAULT 14 _ZN7android8hardware14sec
275:   FUNC GLOBAL DEFAULT 14 _ZN7android8hardware14sec
276:   FUNC GLOBAL DEFAULT 14 _ZN7android8hardware14sec
277:   FUNC GLOBAL DEFAULT 14 _ZN7android8hardware14sec
278:   FUNC GLOBAL DEFAULT 14 _ZN7android8hardware14sec
279:   FUNC GLOBAL DEFAULT 14 _ZN7android8hardware14sec
280:   FUNC GLOBAL DEFAULT 14 _ZN7android8hardware14sec
281:   OBJECT GLOBAL DEFAULT 18 _ZTCN7android8hardware14s
282:   OBJECT GLOBAL DEFAULT 18 _ZTCN7android8hardware14s
283:   OBJECT GLOBAL DEFAULT 18 _ZTCN7android8hardware14s
284:   FUNC GLOBAL DEFAULT 14 _ZN7android8hardware14sec
285:   FUNC GLOBAL DEFAULT 14 _ZN7android8hardware14sec
286:   FUNC GLOBAL DEFAULT 14 _ZN7android8hardware14sec
287:   FUNC GLOBAL DEFAULT 14 _ZN7android8hardware14sec
288:   FUNC GLOBAL DEFAULT 14 _ZN7android8hardware14sec
289:   FUNC GLOBAL DEFAULT 14 _ZN7android8hardware14sec
290:   FUNC WEAK DEFAULT 14 _ZN7android8hardware7deta
291:   OBJECT GLOBAL DEFAULT 18 _ZTCN7android8hardware14s
292:   FUNC GLOBAL DEFAULT 14 _ZN7android8hardware14sec
293:   FUNC GLOBAL DEFAULT 14 _ZN7android8hardware14sec
294:   OBJECT GLOBAL DEFAULT 18 _ZTCN7android8hardware14s
295:   OBJECT GLOBAL DEFAULT 18 _ZTTN7android8hardware14s
296:   FUNC GLOBAL DEFAULT 14 _ZN7android8hardware14sec
297:   FUNC WEAK DEFAULT 14 _ZNSt3__16vectorIN7androi
298:   FUNC GLOBAL DEFAULT 14 _ZN7android8hardware14sec
299:   OBJECT GLOBAL DEFAULT 18 _ZTCN7android8hardware14s
300:   FUNC WEAK DEFAULT 14 _ZN7android8hardware10fro
301:   FUNC GLOBAL DEFAULT 14 _ZN7android8hardware14sec
302:   FUNC GLOBAL DEFAULT 14 _ZN7android8hardware14sec
303:   FUNC GLOBAL DEFAULT 14 _ZN7android8hardware14sec
304:   FUNC GLOBAL DEFAULT 14 _ZN7android8hardware14sec
305:   FUNC GLOBAL DEFAULT 14 _ZN7android8hardware14sec
306:   FUNC GLOBAL DEFAULT 14 _ZN7android8hardware14sec
307:   FUNC GLOBAL DEFAULT 14 _ZN7android8hardware14sec
308:   FUNC GLOBAL DEFAULT 14 _ZN7android8hardware14sec
309:   FUNC GLOBAL DEFAULT 14 _ZN7android8hardware14sec
310:   FUNC GLOBAL DEFAULT 14 _ZN7android8hardware14sec
311:   FUNC GLOBAL DEFAULT 14 _ZN7android8hardware14sec
312:   FUNC GLOBAL DEFAULT 14 _ZN7android8hardware14sec
313:   FUNC GLOBAL DEFAULT 14 _ZThn32_N7android8hardwar
314:   FUNC GLOBAL DEFAULT 14 _ZN7android8hardware14sec
315:   OBJECT GLOBAL DEFAULT 18 _ZTCN7android8hardware14s
316:   FUNC GLOBAL DEFAULT 14 _ZThn32_N7android8hardwar
317:   FUNC GLOBAL DEFAULT 14 _ZN7android8hardware14sec
318:   FUNC WEAK DEFAULT 14 _ZNSt3__16__treeINS_12__v
319:   FUNC GLOBAL DEFAULT 14 _ZTv0_n24_N7android8hardw
320:   OBJECT WEAK DEFAULT 18 _ZTVN7android8hardware14s
