 0x0000000e (SONAME)                     Library soname: [android.hardware.secure_element@1.0.so]
  
Symbol   contains 330 entries:
Num:   Type Bind Vis Ndx Name
0:   NOTYPE LOCAL DEFAULT UND
1:   FUNC GLOBAL DEFAULT UND __cxa_finalize@LIBC (2)
2:   FUNC GLOBAL DEFAULT UND _ZN7android14sp_report_ra
3:   FUNC GLOBAL DEFAULT UND _ZN7android21report_syspr
4:   OBJECT GLOBAL DEFAULT UND _ZN7android4hidl4base4V1_
5:   FUNC GLOBAL DEFAULT UND _ZN7android4hidl4base4V1_
6:   FUNC GLOBAL DEFAULT UND _ZN7android4hidl4base4V1_
7:   FUNC GLOBAL DEFAULT UND _ZN7android4hidl4base4V1_
8:   FUNC GLOBAL DEFAULT UND _ZN7android4hidl4base4V1_
9:   FUNC GLOBAL DEFAULT UND _ZN7android4hidl4base4V1_
10:   FUNC GLOBAL DEFAULT UND _ZN7android4hidl4base4V1_
11:   FUNC GLOBAL DEFAULT UND _ZN7android4hidl4base4V1_
12:   FUNC GLOBAL DEFAULT UND _ZN7android4hidl4base4V1_
13:   FUNC GLOBAL DEFAULT UND _ZN7android4hidl4base4V1_
14:   FUNC GLOBAL DEFAULT UND _ZN7android4hidl4base4V1_
15:   FUNC GLOBAL DEFAULT UND _ZN7android4hidl4base4V1_
16:   FUNC GLOBAL DEFAULT UND _ZN7android4hidl4base4V1_
17:   FUNC GLOBAL DEFAULT UND _ZN7android4hidl4base4V1_
18:   FUNC GLOBAL DEFAULT UND _ZN7android4hidl4base4V1_
19:   FUNC GLOBAL DEFAULT UND _ZN7android4hidl4base4V1_
20:   FUNC GLOBAL DEFAULT UND _ZN7android4hidl4base4V1_
21:   FUNC GLOBAL DEFAULT UND _ZN7android4hidl4base4V1_
22:   FUNC GLOBAL DEFAULT UND _ZN7android4hidl4base4V1_
23:   FUNC GLOBAL DEFAULT UND _ZN7android4hidl4base4V1_
24:   FUNC GLOBAL DEFAULT UND _ZN7android4hidl4base4V1_
25:   FUNC GLOBAL DEFAULT UND _ZN7android4hidl4base4V1_
26:   FUNC GLOBAL DEFAULT UND _ZN7android4hidl4base4V1_
27:   FUNC GLOBAL DEFAULT UND _ZN7android4hidl4base4V1_
28:   FUNC GLOBAL DEFAULT UND _ZN7android7RefBase10onFi
29:   FUNC GLOBAL DEFAULT UND _ZN7android7RefBase12weak
30:   FUNC GLOBAL DEFAULT UND _ZN7android7RefBase13onLa
31:   FUNC GLOBAL DEFAULT UND _ZN7android7RefBase15onLa
32:   FUNC GLOBAL DEFAULT UND _ZN7android7RefBase20onIn
33:   FUNC GLOBAL DEFAULT UND _ZN7android7RefBaseC2Ev
34:   FUNC GLOBAL DEFAULT UND _ZN7android7RefBaseD2Ev
35:   FUNC GLOBAL DEFAULT UND _ZN7android8hardware10IIn
36:   FUNC GLOBAL DEFAULT UND _ZN7android8hardware10IIn
37:   FUNC GLOBAL DEFAULT UND _ZN7android8hardware10IIn
38:   FUNC GLOBAL DEFAULT UND _ZN7android8hardware10IIn
39:   FUNC GLOBAL DEFAULT UND _ZN7android8hardware10IIn
40:   FUNC GLOBAL DEFAULT UND _ZN7android8hardware11BpH
41:   FUNC GLOBAL DEFAULT UND _ZN7android8hardware11BpH
42:   FUNC GLOBAL DEFAULT UND _ZN7android8hardware11BpH
43:   FUNC GLOBAL DEFAULT UND _ZN7android8hardware11BpH
44:   FUNC GLOBAL DEFAULT UND _ZN7android8hardware11BpH
45:   FUNC GLOBAL DEFAULT UND _ZN7android8hardware11BpH
46:   FUNC GLOBAL DEFAULT UND _ZN7android8hardware11BpH
47:   FUNC GLOBAL DEFAULT UND _ZN7android8hardware11hid
48:   FUNC GLOBAL DEFAULT UND _ZN7android8hardware11hid
49:   FUNC GLOBAL DEFAULT UND _ZN7android8hardware11hid
50:   FUNC GLOBAL DEFAULT UND _ZN7android8hardware11hid
51:   FUNC GLOBAL DEFAULT UND _ZN7android8hardware11hid
52:   FUNC GLOBAL DEFAULT UND _ZN7android8hardware12Pro
53:   FUNC GLOBAL DEFAULT UND _ZN7android8hardware12Pro
54:   FUNC GLOBAL DEFAULT UND _ZN7android8hardware13wri
55:   FUNC GLOBAL DEFAULT UND _ZN7android8hardware14rea
56:   FUNC GLOBAL DEFAULT UND _ZN7android8hardware21def
57:   FUNC GLOBAL DEFAULT UND _ZN7android8hardware23get
58:   FUNC GLOBAL DEFAULT UND _ZN7android8hardware27hid
59:   FUNC GLOBAL DEFAULT UND _ZN7android8hardware27hid
60:   FUNC GLOBAL DEFAULT UND _ZN7android8hardware6Parc
61:   FUNC GLOBAL DEFAULT UND _ZN7android8hardware6Parc
62:   FUNC GLOBAL DEFAULT UND _ZN7android8hardware6Parc
63:   FUNC GLOBAL DEFAULT UND _ZN7android8hardware6Parc
64:   FUNC GLOBAL DEFAULT UND _ZN7android8hardware6Parc
65:   FUNC GLOBAL DEFAULT UND _ZN7android8hardware6Parc
66:   FUNC GLOBAL DEFAULT UND _ZN7android8hardware6Parc
67:   FUNC GLOBAL DEFAULT UND _ZN7android8hardware6Parc
68:   FUNC GLOBAL DEFAULT UND _ZN7android8hardware6Stat
69:   FUNC GLOBAL DEFAULT UND _ZN7android8hardware6Stat
70:   FUNC GLOBAL DEFAULT UND _ZN7android8hardware6Stat
71:   FUNC GLOBAL DEFAULT UND _ZN7android8hardware6Stat
72:   FUNC GLOBAL DEFAULT UND _ZN7android8hardware7IBin
73:   FUNC GLOBAL DEFAULT UND _ZN7android8hardware7IBin
74:   FUNC GLOBAL DEFAULT UND _ZN7android8hardware7IBin
75:   FUNC GLOBAL DEFAULT UND _ZN7android8hardware7IBin
76:   FUNC GLOBAL DEFAULT UND _ZN7android8hardware7deta
77:   FUNC GLOBAL DEFAULT UND _ZN7android8hardware7deta
78:   FUNC GLOBAL DEFAULT UND _ZN7android8hardware7deta
79:   FUNC GLOBAL DEFAULT UND _ZN7android8hardware7deta
80:   FUNC GLOBAL DEFAULT UND _ZN7android8hardware7deta
81:   FUNC GLOBAL DEFAULT UND _ZN7android8hardware7deta
82:   FUNC GLOBAL DEFAULT UND _ZN7android8hardware7deta
83:   OBJECT GLOBAL DEFAULT UND _ZN7android8hardware7deta
84:   OBJECT GLOBAL DEFAULT UND _ZN7android8hardware7deta
85:   FUNC GLOBAL DEFAULT UND _ZN7android8hardware7deta
86:   FUNC GLOBAL DEFAULT UND _ZN7android8hardware7deta
87:   FUNC GLOBAL DEFAULT UND _ZN7android8hardware7deta
88:   FUNC GLOBAL DEFAULT UND _ZN7android8hardware7deta
89:   FUNC GLOBAL DEFAULT UND _ZN7android8hardware7deta
90:   FUNC GLOBAL DEFAULT UND _ZN7android8hardware7deta
91:   FUNC GLOBAL DEFAULT UND _ZN7android8hardware7deta
92:   FUNC GLOBAL DEFAULT UND _ZN7android8hardware7deta
93:   FUNC GLOBAL DEFAULT UND _ZN7android8hardware7deta
94:   FUNC GLOBAL DEFAULT UND _ZN7android8hardware7deta
95:   OBJECT GLOBAL DEFAULT UND _ZN7android8hardware7deta
96:   FUNC GLOBAL DEFAULT UND _ZN7android8hardware9BHwB
97:   FUNC GLOBAL DEFAULT UND _ZN7android8hardware9BHwB
98:   FUNC GLOBAL DEFAULT UND _ZN7android8hardware9BHwB
99:   FUNC GLOBAL DEFAULT UND _ZN7android8hardware9BHwB
100:   FUNC GLOBAL DEFAULT UND _ZN7android8hardware9BHwB
101:   FUNC GLOBAL DEFAULT UND _ZN7android8hardware9BHwB
102:   FUNC GLOBAL DEFAULT UND _ZN7android8hardware9BHwB
103:   FUNC GLOBAL DEFAULT UND _ZN7android8hardware9BHwB
104:   FUNC GLOBAL DEFAULT UND _ZN7android8hardware9BHwB
105:   FUNC GLOBAL DEFAULT UND _ZN7android8hardware9BHwB
106:   FUNC GLOBAL DEFAULT UND _ZNK7android7RefBase10cre
107:   FUNC GLOBAL DEFAULT UND _ZNK7android7RefBase11get
108:   FUNC GLOBAL DEFAULT UND _ZNK7android7RefBase9decS
109:   FUNC GLOBAL DEFAULT UND _ZNK7android7RefBase9incS
110:   FUNC GLOBAL DEFAULT UND _ZNK7android8hardware6Par
111:   FUNC GLOBAL DEFAULT UND _ZNK7android8hardware6Par
112:   FUNC GLOBAL DEFAULT UND _ZNK7android8hardware6Par
113:   FUNC GLOBAL DEFAULT UND _ZNK7android8hardware6Par
114:   FUNC GLOBAL DEFAULT UND _ZNK7android8hardware6Par
115:   FUNC GLOBAL DEFAULT UND _ZNK7android8hardware6Par
116:   FUNC GLOBAL DEFAULT UND _ZNK7android8hardware7IBi
117:   FUNC GLOBAL DEFAULT UND _ZNK7android8hardware7det
118:   FUNC GLOBAL DEFAULT UND _ZNK7android8hardware9BHw
119:   FUNC GLOBAL DEFAULT UND _ZNKSt3__120__vector_base
120:   FUNC GLOBAL DEFAULT UND _ZNKSt3__121__basic_strin
121:   FUNC GLOBAL DEFAULT UND _ZNSt3__112basic_stringIc
122:   FUNC GLOBAL DEFAULT UND _ZNSt3__15mutex4lockEv
123:   FUNC GLOBAL DEFAULT UND _ZNSt3__15mutex6unlockEv
124:   FUNC GLOBAL DEFAULT UND _ZNSt3__15mutexD1Ev
125:   FUNC GLOBAL DEFAULT UND _ZTv0_n12_N7android4hidl4
126:   FUNC GLOBAL DEFAULT UND _ZTv0_n12_N7android4hidl4
127:   FUNC GLOBAL DEFAULT UND _ZTv0_n12_N7android8hardw
128:   FUNC GLOBAL DEFAULT UND _ZTv0_n12_N7android8hardw
129:   FUNC GLOBAL DEFAULT UND _ZTv0_n12_N7android8hardw
130:   FUNC GLOBAL DEFAULT UND _ZTv0_n12_N7android8hardw
131:   FUNC GLOBAL DEFAULT UND _ZTv0_n12_N7android8hardw
132:   FUNC GLOBAL DEFAULT UND _ZTv0_n12_N7android8hardw
133:   FUNC GLOBAL DEFAULT UND _ZTv0_n12_N7android8hardw
134:   FUNC GLOBAL DEFAULT UND _ZTv0_n12_N7android8hardw
135:   FUNC GLOBAL DEFAULT UND _ZTv0_n16_N7android8hardw
136:   FUNC GLOBAL DEFAULT UND _ZTv0_n20_N7android8hardw
137:   FUNC GLOBAL DEFAULT UND _ZTv0_n24_N7android8hardw
138:   FUNC GLOBAL DEFAULT UND _ZdaPv
139:   FUNC GLOBAL DEFAULT UND _ZdlPv
140:   FUNC GLOBAL DEFAULT UND _Znaj
141:   FUNC GLOBAL DEFAULT UND _Znwj
142:   FUNC GLOBAL DEFAULT UND __android_log_assert@LIBLOG (3)
143:   FUNC GLOBAL DEFAULT UND __cxa_pure_virtual
144:   FUNC GLOBAL DEFAULT UND __stack_chk_fail@LIBC (2)
145:   OBJECT GLOBAL DEFAULT UND __stack_chk_guard@LIBC (2)
146:   FUNC GLOBAL DEFAULT UND abort@LIBC (2)
147:   FUNC GLOBAL DEFAULT UND atrace_begin_body
148:   OBJECT GLOBAL DEFAULT UND atrace_enabled_tags
149:   FUNC GLOBAL DEFAULT UND atrace_end_body
150:   OBJECT GLOBAL DEFAULT UND atrace_is_ready
151:   FUNC GLOBAL DEFAULT UND atrace_setup
152:   FUNC GLOBAL DEFAULT UND memcmp@LIBC (2)
153:   FUNC GLOBAL DEFAULT UND strlen@LIBC (2)
154:   FUNC GLOBAL DEFAULT UND memcpy@LIBC (2)
155:   FUNC GLOBAL DEFAULT UND memset@LIBC (2)
156:   FUNC GLOBAL DEFAULT 14 _ZN7android8hardware14sec
157:   FUNC GLOBAL DEFAULT 14 _ZN7android8hardware14sec
158:   FUNC GLOBAL DEFAULT 14 _ZN7android8hardware14sec
159:   OBJECT GLOBAL DEFAULT 18 _ZTCN7android8hardware14s
160:   FUNC WEAK DEFAULT 14 _ZNSt3__16vectorIN7androi
161:   OBJECT GLOBAL DEFAULT 18 _ZTTN7android8hardware14s
162:   FUNC GLOBAL DEFAULT 14 _ZN7android8hardware14sec
163:   FUNC GLOBAL DEFAULT 14 _ZN7android8hardware14sec
164:   FUNC GLOBAL DEFAULT 14 _ZN7android8hardware14sec
165:   FUNC GLOBAL DEFAULT 14 _ZN7android8hardware14sec
166:   OBJECT GLOBAL DEFAULT 18 _ZTTN7android8hardware14s
167:   FUNC GLOBAL DEFAULT 14 _ZN7android8hardware14sec
168:   FUNC GLOBAL DEFAULT 14 _ZN7android8hardware14sec
169:   OBJECT GLOBAL DEFAULT 18 _ZTVN7android8hardware14s
170:   FUNC GLOBAL DEFAULT 14 _ZN7android8hardware14sec
171:   FUNC GLOBAL DEFAULT 14 _ZN7android8hardware14sec
172:   FUNC GLOBAL DEFAULT 14 _ZN7android8hardware14sec
173:   OBJECT GLOBAL DEFAULT 18 _ZTCN7android8hardware14s
174:   FUNC GLOBAL DEFAULT 14 _ZN7android8hardware14sec
175:   FUNC GLOBAL DEFAULT 14 _ZN7android8hardware14sec
176:   FUNC GLOBAL DEFAULT 14 _ZN7android8hardware14sec
177:   OBJECT GLOBAL DEFAULT 18 _ZTCN7android8hardware14s
178:   OBJECT GLOBAL DEFAULT 18 _ZTCN7android8hardware14s
179:   OBJECT GLOBAL DEFAULT 16 _ZN7android8hardware14sec
180:   FUNC GLOBAL DEFAULT 14 _ZN7android8hardware14sec
181:   FUNC GLOBAL DEFAULT 14 _ZN7android8hardware14sec
182:   OBJECT GLOBAL DEFAULT 18 _ZTCN7android8hardware14s
183:   FUNC GLOBAL DEFAULT 14 _ZN7android8hardware14sec
184:   FUNC GLOBAL DEFAULT 14 _ZN7android8hardware14sec
185:   OBJECT WEAK DEFAULT 18 _ZTVN7android8hardware14s
186:   FUNC GLOBAL DEFAULT 14 _ZN7android8hardware14sec
187:   FUNC GLOBAL DEFAULT 14 _ZN7android8hardware14sec
188:   FUNC GLOBAL DEFAULT 14 _ZN7android8hardware14sec
189:   OBJECT GLOBAL DEFAULT 18 _ZTCN7android8hardware14s
190:   FUNC WEAK DEFAULT 14 _ZNSt3__16__treeINS_12__v
191:   FUNC GLOBAL DEFAULT 14 _ZTv0_n12_N7android8hardw
192:   FUNC GLOBAL DEFAULT 14 _ZN7android8hardware14sec
193:   FUNC GLOBAL DEFAULT 14 _ZN7android8hardware14sec
194:   FUNC GLOBAL DEFAULT 14 _ZN7android8hardware14sec
195:   OBJECT WEAK DEFAULT 18 _ZTCN7android8hardware14s
196:   FUNC GLOBAL DEFAULT 14 _ZN7android8hardware14sec
197:   FUNC GLOBAL DEFAULT 14 _ZN7android8hardware14sec
198:   FUNC GLOBAL DEFAULT 14 _ZN7android8hardware14sec
199:   FUNC WEAK DEFAULT 14 _ZNSt3__16__treeINS_12__v
200:   FUNC GLOBAL DEFAULT 14 _ZN7android8hardware14sec
201:   OBJECT GLOBAL DEFAULT 18 _ZTCN7android8hardware14s
202:   FUNC GLOBAL DEFAULT 14 _ZThn20_N7android8hardwar
203:   FUNC GLOBAL DEFAULT 14 _ZN7android8hardware14sec
204:   FUNC WEAK DEFAULT 14 _ZN7android8hardware7deta
205:   FUNC GLOBAL DEFAULT 14 _ZN7android8hardware14sec
206:   FUNC GLOBAL DEFAULT 14 _ZN7android8hardware14sec
207:   FUNC GLOBAL DEFAULT 14 _ZN7android8hardware14sec
208:   FUNC GLOBAL DEFAULT 14 _ZN7android8hardware14sec
209:   FUNC GLOBAL DEFAULT 14 _ZN7android8hardware14sec
210:   FUNC GLOBAL DEFAULT 14 _ZN7android8hardware14sec
211:   FUNC GLOBAL DEFAULT 14 _ZN7android8hardware14sec
212:   FUNC GLOBAL DEFAULT 14 _ZN7android8hardware14sec
213:   FUNC GLOBAL DEFAULT 14 _ZN7android8hardware14sec
214:   OBJECT WEAK DEFAULT 18 _ZTVN7android8hardware14s
215:   OBJECT GLOBAL DEFAULT 18 _ZTCN7android8hardware14s
216:   FUNC GLOBAL DEFAULT 14 _ZTv0_n12_N7android8hardw
217:   FUNC GLOBAL DEFAULT 14 __aeabi_memcpy4
218:   FUNC WEAK DEFAULT 14 _ZNSt3__16__treeINS_12__v
219:   OBJECT GLOBAL DEFAULT 18 _ZTTN7android8hardware14s
220:   FUNC GLOBAL DEFAULT 14 _ZN7android8hardware14sec
221:   FUNC GLOBAL DEFAULT 14 _ZN7android8hardware14sec
222:   FUNC GLOBAL DEFAULT 14 _ZN7android8hardware14sec
223:   FUNC WEAK DEFAULT 14 _ZNSt3__113__tree_removeI
224:   FUNC WEAK DEFAULT 14 _ZNSt3__16__treeINS_12__v
225:   FUNC GLOBAL DEFAULT 14 _ZThn20_N7android8hardwar
226:   FUNC GLOBAL DEFAULT 14 _ZN7android8hardware14sec
227:   FUNC GLOBAL DEFAULT 14 _ZN7android8hardware14sec
228:   FUNC GLOBAL DEFAULT 14 _ZN7android8hardware14sec
229:   FUNC GLOBAL DEFAULT 14 _ZN7android8hardware14sec
230:   FUNC WEAK DEFAULT 14 _ZNSt3__16vectorINS_8func
231:   FUNC GLOBAL DEFAULT 14 _ZN7android8hardware14sec
232:   FUNC GLOBAL DEFAULT 14 _ZN7android8hardware14sec
233:   FUNC GLOBAL DEFAULT 14 _ZN7android8hardware14sec
234:   FUNC GLOBAL DEFAULT 14 _ZN7android8hardware14sec
235:   FUNC GLOBAL DEFAULT 14 _ZN7android8hardware14sec
236:   FUNC GLOBAL DEFAULT 14 __aeabi_memcpy8
237:   FUNC GLOBAL DEFAULT 14 _ZN7android8hardware14sec
238:   FUNC GLOBAL DEFAULT 14 _ZTv0_n12_N7android8hardw
239:   FUNC GLOBAL DEFAULT 14 _ZN7android8hardware14sec
240:   FUNC GLOBAL DEFAULT 14 _ZN7android8hardware14sec
241:   FUNC GLOBAL DEFAULT 14 _ZN7android8hardware14sec
242:   FUNC WEAK DEFAULT 14 _ZNSt3__127__tree_balance
243:   OBJECT GLOBAL DEFAULT 18 _ZTVN7android8hardware14s
244:   OBJECT GLOBAL DEFAULT 18 _ZTVN7android8hardware14s
245:   FUNC GLOBAL DEFAULT 14 _ZN7android8hardware14sec
246:   FUNC GLOBAL DEFAULT 14 __aeabi_memset
247:   FUNC GLOBAL DEFAULT 14 _ZN7android8hardware14sec
248:   FUNC GLOBAL DEFAULT 14 _ZN7android8hardware14sec
249:   FUNC GLOBAL DEFAULT 14 _ZN7android8hardware14sec
250:   FUNC GLOBAL DEFAULT 14 _ZN7android8hardware14sec
251:   OBJECT GLOBAL DEFAULT 18 _ZTCN7android8hardware14s
252:   OBJECT GLOBAL DEFAULT 18 _ZTCN7android8hardware14s
253:   FUNC GLOBAL DEFAULT 14 _ZN7android8hardware14sec
254:   FUNC GLOBAL DEFAULT 14 _ZN7android8hardware14sec
255:   FUNC GLOBAL DEFAULT 14 _ZN7android8hardware14sec
256:   FUNC GLOBAL DEFAULT 14 _ZN7android8hardware14sec
257:   OBJECT GLOBAL DEFAULT 18 _ZTCN7android8hardware14s
258:   FUNC GLOBAL DEFAULT 14 _ZN7android8hardware14sec
259:   FUNC GLOBAL DEFAULT 14 _ZThn20_N7android8hardwar
260:   FUNC GLOBAL DEFAULT 14 _ZN7android8hardware14sec
261:   FUNC GLOBAL DEFAULT 14 _ZN7android8hardware14sec
262:   FUNC WEAK DEFAULT 14 _ZN7android8hardware7deta
263:   OBJECT GLOBAL DEFAULT 18 _ZTVN7android8hardware14s
264:   FUNC GLOBAL DEFAULT 14 __aeabi_memclr
265:   FUNC GLOBAL DEFAULT 14 _ZN7android8hardware14sec
266:   FUNC GLOBAL DEFAULT 14 _ZN7android8hardware14sec
267:   FUNC GLOBAL DEFAULT 14 _ZN7android8hardware14sec
268:   FUNC GLOBAL DEFAULT 14 _ZN7android8hardware14sec
269:   FUNC GLOBAL DEFAULT 14 _ZN7android8hardware14sec
270:   FUNC GLOBAL DEFAULT 14 _ZN7android8hardware14sec
271:   FUNC GLOBAL DEFAULT 14 _ZN7android8hardware14sec
272:   FUNC WEAK DEFAULT 14 _ZN7android8hardware7deta
273:   FUNC GLOBAL DEFAULT 14 _ZTv0_n12_N7android8hardw
274:   FUNC GLOBAL DEFAULT 14 __aeabi_memclr4
275:   FUNC GLOBAL DEFAULT 14 _ZN7android8hardware14sec
276:   OBJECT GLOBAL DEFAULT 18 _ZTTN7android8hardware14s
277:   FUNC GLOBAL DEFAULT 14 _ZN7android8hardware14sec
278:   FUNC GLOBAL DEFAULT 14 _ZN7android8hardware14sec
279:   FUNC GLOBAL DEFAULT 14 _ZN7android8hardware14sec
280:   FUNC GLOBAL DEFAULT 14 _ZN7android8hardware14sec
281:   OBJECT GLOBAL DEFAULT 18 _ZTCN7android8hardware14s
282:   FUNC GLOBAL DEFAULT 14 _ZN7android8hardware14sec
283:   FUNC GLOBAL DEFAULT 14 _ZThn20_N7android8hardwar
284:   FUNC GLOBAL DEFAULT 14 _ZN7android8hardware14sec
285:   FUNC GLOBAL DEFAULT 14 _ZN7android8hardware14sec
286:   FUNC GLOBAL DEFAULT 14 _ZN7android8hardware14sec
287:   OBJECT GLOBAL DEFAULT 18 _ZTCN7android8hardware14s
288:   FUNC GLOBAL DEFAULT 14 __aeabi_memclr8
289:   FUNC GLOBAL DEFAULT 14 _ZN7android8hardware14sec
290:   FUNC WEAK DEFAULT 14 _ZNSt3__16__treeINS_12__v
291:   OBJECT GLOBAL DEFAULT 18 _ZTVN7android8hardware14s
292:   FUNC GLOBAL DEFAULT 14 _ZN7android8hardware14sec
293:   OBJECT WEAK DEFAULT 18 _ZTCN7android8hardware14s
294:   FUNC WEAK DEFAULT 14 _ZN7android8hardware10fro
295:   FUNC GLOBAL DEFAULT 14 _ZN7android8hardware14sec
296:   FUNC WEAK DEFAULT 14 _ZNSt3__16vectorIPvNS_9al
297:   FUNC GLOBAL DEFAULT 14 _ZN7android8hardware14sec
298:   FUNC GLOBAL DEFAULT 14 _ZN7android8hardware14sec
299:   FUNC GLOBAL DEFAULT 14 _ZN7android8hardware14sec
300:   FUNC GLOBAL DEFAULT 14 _ZN7android8hardware14sec
301:   FUNC GLOBAL DEFAULT 14 __aeabi_memcpy
302:   FUNC GLOBAL DEFAULT 14 _ZN7android8hardware14sec
303:   FUNC GLOBAL DEFAULT 14 _ZN7android8hardware14sec
304:   OBJECT GLOBAL DEFAULT 18 _ZTCN7android8hardware14s
305:   FUNC GLOBAL DEFAULT 14 __aeabi_memset4
306:   FUNC GLOBAL DEFAULT 14 _ZN7android8hardware14sec
307:   FUNC GLOBAL DEFAULT 14 _ZN7android8hardware14sec
308:   OBJECT GLOBAL DEFAULT 18 _ZTCN7android8hardware14s
309:   FUNC WEAK DEFAULT 14 _ZN7android8hardware7deta
310:   OBJECT GLOBAL DEFAULT 18 _ZTTN7android8hardware14s
311:   FUNC GLOBAL DEFAULT 14 _ZN7android8hardware14sec
312:   FUNC GLOBAL DEFAULT 14 _ZN7android8hardware14sec
313:   FUNC WEAK DEFAULT 14 _ZNSt3__16__treeINS_12__v
314:   OBJECT GLOBAL DEFAULT 18 _ZTCN7android8hardware14s
315:   OBJECT GLOBAL DEFAULT 18 _ZTTN7android8hardware14s
316:   FUNC GLOBAL DEFAULT 14 _ZN7android8hardware14sec
317:   FUNC GLOBAL DEFAULT 14 _ZN7android8hardware14sec
318:   FUNC GLOBAL DEFAULT 14 _ZN7android8hardware14sec
319:   FUNC WEAK DEFAULT 14 _ZN7android8hardware7deta
320:   OBJECT GLOBAL DEFAULT 18 _ZTCN7android8hardware14s
321:   OBJECT GLOBAL DEFAULT 18 _ZTCN7android8hardware14s
322:   FUNC GLOBAL DEFAULT 14 _ZN7android8hardware14sec
323:   OBJECT GLOBAL DEFAULT 18 _ZTVN7android8hardware14s
324:   FUNC GLOBAL DEFAULT 14 _ZN7android8hardware14sec
325:   FUNC GLOBAL DEFAULT 14 _ZN7android8hardware14sec
326:   FUNC GLOBAL DEFAULT 14 _ZN7android8hardware14sec
327:   FUNC GLOBAL DEFAULT 14 _ZN7android8hardware14sec
328:   OBJECT GLOBAL DEFAULT 16 _ZN7android8hardware14sec
329:   FUNC GLOBAL DEFAULT 14 __aeabi_memset8
