 0x0000000e (SONAME)                     Library soname: [libschedulerservicehidl.so]
  
Symbol   contains 48 entries:
Num:   Type Bind Vis Ndx Name
0:   NOTYPE LOCAL DEFAULT UND
1:   FUNC GLOBAL DEFAULT UND __cxa_finalize@LIBC (2)
2:   FUNC GLOBAL DEFAULT UND _ZN7android10frameworks16
3:   FUNC GLOBAL DEFAULT UND _ZN7android10frameworks16
4:   FUNC GLOBAL DEFAULT UND _ZN7android10frameworks16
5:   FUNC GLOBAL DEFAULT UND _ZN7android10frameworks16
6:   FUNC GLOBAL DEFAULT UND _ZN7android10frameworks16
7:   FUNC GLOBAL DEFAULT UND _ZN7android10frameworks16
8:   FUNC GLOBAL DEFAULT UND _ZN7android10frameworks16
9:   FUNC GLOBAL DEFAULT UND _ZN7android10frameworks16
10:   FUNC GLOBAL DEFAULT UND _ZN7android10frameworks16
11:   FUNC GLOBAL DEFAULT UND _ZN7android10frameworks16
12:   FUNC GLOBAL DEFAULT UND _ZN7android15requestPrior
13:   FUNC GLOBAL DEFAULT UND _ZN7android4hidl4base4V1_
14:   FUNC GLOBAL DEFAULT UND _ZN7android4hidl4base4V1_
15:   FUNC GLOBAL DEFAULT UND _ZN7android4hidl4base4V1_
16:   FUNC GLOBAL DEFAULT UND _ZN7android4hidl4base4V1_
17:   FUNC GLOBAL DEFAULT UND _ZN7android4hidl4base4V1_
18:   FUNC GLOBAL DEFAULT UND _ZN7android4hidl4base4V1_
19:   FUNC GLOBAL DEFAULT UND _ZN7android4hidl4base4V1_
20:   FUNC GLOBAL DEFAULT UND _ZN7android4hidl4base4V1_
21:   FUNC GLOBAL DEFAULT UND _ZN7android4hidl4base4V1_
22:   FUNC GLOBAL DEFAULT UND _ZN7android4hidl4base4V1_
23:   FUNC GLOBAL DEFAULT UND _ZN7android7RefBase10onFi
24:   FUNC GLOBAL DEFAULT UND _ZN7android7RefBase13onLa
25:   FUNC GLOBAL DEFAULT UND _ZN7android7RefBase15onLa
26:   FUNC GLOBAL DEFAULT UND _ZN7android7RefBase20onIn
27:   FUNC GLOBAL DEFAULT UND _ZN7android7RefBaseD2Ev
28:   FUNC GLOBAL DEFAULT UND _ZN7android8hardware14IPC
29:   FUNC GLOBAL DEFAULT UND _ZNK7android8hardware14IP
30:   FUNC GLOBAL DEFAULT UND _ZdlPv
31:   FUNC GLOBAL DEFAULT UND __cxa_pure_virtual
32:   FUNC GLOBAL DEFAULT UND __stack_chk_fail@LIBC (2)
33:   OBJECT GLOBAL DEFAULT UND __stack_chk_guard@LIBC (2)
34:   FUNC GLOBAL DEFAULT UND memset@LIBC (2)
35:   FUNC GLOBAL DEFAULT 12 _ZN7android10frameworks16
36:   FUNC GLOBAL DEFAULT 12 _ZN7android10frameworks16
37:   OBJECT GLOBAL DEFAULT 16 _ZTCN7android10frameworks
38:   OBJECT GLOBAL DEFAULT 16 _ZTCN7android10frameworks
39:   OBJECT GLOBAL DEFAULT 16 _ZTVN7android10frameworks
40:   FUNC GLOBAL DEFAULT 12 __aeabi_memclr8
41:   FUNC GLOBAL DEFAULT 12 __aeabi_memset8
42:   FUNC GLOBAL DEFAULT 12 _ZN7android10frameworks16
43:   FUNC GLOBAL DEFAULT 12 __aeabi_memset
44:   OBJECT GLOBAL DEFAULT 16 _ZTTN7android10frameworks
45:   FUNC GLOBAL DEFAULT 12 __aeabi_memclr
46:   FUNC GLOBAL DEFAULT 12 __aeabi_memclr4
47:   FUNC GLOBAL DEFAULT 12 __aeabi_memset4
