 0x000000000000000e (SONAME)             Library soname: [libcodec2_vndk.so]
  
Symbol   contains 1406 entries:
Num:   Type Bind Vis Ndx Name
0:   NOTYPE LOCAL DEFAULT UND
1:   FUNC GLOBAL DEFAULT UND __cxa_finalize@LIBC (2)
2:   FUNC GLOBAL DEFAULT UND __cxa_atexit@LIBC (2)
3:   FUNC GLOBAL DEFAULT UND memcmp@LIBC (2)
4:   FUNC GLOBAL DEFAULT UND ion_is_legacy
5:   FUNC GLOBAL DEFAULT UND ion_import
6:   FUNC GLOBAL DEFAULT UND _Znwm
7:   FUNC GLOBAL DEFAULT UND ion_alloc
8:   FUNC GLOBAL DEFAULT UND ion_share
9:   FUNC GLOBAL DEFAULT UND ion_free
10:   FUNC GLOBAL DEFAULT UND ion_alloc_fd
11:   FUNC GLOBAL DEFAULT UND __cfi_slowpath@LIBC_OMR1 (3)
12:   FUNC GLOBAL DEFAULT UND _ZdlPv
13:   FUNC GLOBAL DEFAULT UND ion_open
14:   FUNC GLOBAL DEFAULT UND __errno@LIBC (2)
15:   FUNC GLOBAL DEFAULT UND getpagesize@LIBC (2)
16:   FUNC GLOBAL DEFAULT UND ion_close
17:   FUNC GLOBAL DEFAULT UND _ZNSt3__15mutexD1Ev
18:   FUNC GLOBAL DEFAULT UND _ZNSt3__112basic_stringIc
19:   FUNC GLOBAL DEFAULT UND dup@LIBC (2)
20:   FUNC GLOBAL DEFAULT UND native_handle_delete
21:   FUNC GLOBAL DEFAULT UND close@LIBC (2)
22:   FUNC GLOBAL DEFAULT UND __android_log_print@LIBLOG (4)
23:   FUNC GLOBAL DEFAULT UND munmap@LIBC (2)
24:   FUNC GLOBAL DEFAULT UND native_handle_close
25:   FUNC GLOBAL DEFAULT UND ion_map
26:   FUNC GLOBAL DEFAULT UND mmap@LIBC (2)
27:   FUNC GLOBAL DEFAULT UND abort@LIBC (2)
28:   FUNC GLOBAL DEFAULT UND _ZNSt3__119__shared_weak_
29:   FUNC GLOBAL DEFAULT UND _ZNKSt3__119__shared_weak
30:   FUNC GLOBAL DEFAULT UND _ZNSt3__119__shared_weak_
31:   FUNC GLOBAL DEFAULT UND _ZNSt3__15mutex4lockEv
32:   FUNC GLOBAL DEFAULT UND _ZNSt3__15mutex6unlockEv
33:   FUNC GLOBAL DEFAULT UND _ZNSt3__112__next_primeEm
34:   FUNC GLOBAL DEFAULT UND _ZN7android8hardware7deta
35:   FUNC GLOBAL DEFAULT UND _ZN7android8hardware11hid
36:   FUNC GLOBAL DEFAULT UND _ZN7android8hardware11hid
37:   FUNC GLOBAL DEFAULT UND _ZN7android8hardware8grap
38:   FUNC GLOBAL DEFAULT UND _ZN7android8hardware8grap
39:   FUNC GLOBAL DEFAULT UND _ZN7android8hardware8grap
40:   FUNC GLOBAL DEFAULT UND _ZN7android8hardware8grap
41:   FUNC GLOBAL DEFAULT UND _ZNK7android8hardware11hi
42:   FUNC GLOBAL DEFAULT UND _ZN7android8hardware11hid
43:   FUNC GLOBAL DEFAULT UND native_handle_create
44:   FUNC GLOBAL DEFAULT UND __memcpy_chk@LIBC (2)
45:   FUNC GLOBAL DEFAULT UND native_handle_clone
46:   FUNC GLOBAL DEFAULT UND _ZN7android8hardware11hid
47:   FUNC GLOBAL DEFAULT UND _ZNK7android7RefBase9incS
48:   FUNC GLOBAL DEFAULT UND _ZNK7android7RefBase9decS
49:   FUNC GLOBAL DEFAULT UND _ZN7android14sp_report_ra
50:   FUNC GLOBAL DEFAULT UND _ZdaPv
51:   FUNC GLOBAL DEFAULT UND _Znam
52:   FUNC GLOBAL DEFAULT UND _ZN7android8hardware11hid
53:   FUNC GLOBAL DEFAULT UND __cxa_guard_acquire
54:   FUNC GLOBAL DEFAULT UND __cxa_guard_release
55:   FUNC GLOBAL DEFAULT UND _ZN7android8hardware5medi
56:   FUNC GLOBAL DEFAULT UND _ZN7android8hardware5medi
57:   FUNC GLOBAL DEFAULT UND _ZN7android8hardware5medi
58:   FUNC GLOBAL DEFAULT UND _ZNSt3__119__shared_weak_
59:   FUNC GLOBAL DEFAULT UND _ZNKSt3__120__vector_base
60:   FUNC GLOBAL DEFAULT UND _ZN7android8hardware5medi
61:   FUNC GLOBAL DEFAULT UND _ZNKSt3__121__basic_strin
62:   FUNC GLOBAL DEFAULT UND strlen@LIBC (2)
63:   FUNC GLOBAL DEFAULT UND dlopen@LIBC (5)
64:   FUNC GLOBAL DEFAULT UND dlerror@LIBC (5)
65:   FUNC GLOBAL DEFAULT UND dlsym@LIBC (5)
66:   FUNC GLOBAL DEFAULT UND dlclose@LIBC (5)
67:   FUNC GLOBAL DEFAULT UND pthread_mutex_init@LIBC (2)
68:   FUNC GLOBAL DEFAULT UND pthread_mutex_destroy@LIBC (2)
69:   FUNC GLOBAL DEFAULT UND pthread_mutex_lock@LIBC (2)
70:   FUNC GLOBAL DEFAULT UND pthread_mutex_unlock@LIBC (2)
71:   FUNC GLOBAL DEFAULT UND __android_log_assert@LIBLOG (4)
72:   FUNC GLOBAL DEFAULT UND _ZnwmRKSt9nothrow_t
73:   FUNC GLOBAL DEFAULT UND strnlen@LIBC (2)
74:   FUNC GLOBAL DEFAULT UND strncmp@LIBC (2)
75:   FUNC GLOBAL DEFAULT UND strndup@LIBC (2)
76:   FUNC GLOBAL DEFAULT UND strtok_r@LIBC (2)
77:   FUNC GLOBAL DEFAULT UND free@LIBC (2)
78:   FUNC GLOBAL DEFAULT UND _ZNSt3__115recursive_mute
79:   FUNC GLOBAL DEFAULT UND _ZNSt3__115recursive_mute
80:   FUNC GLOBAL DEFAULT UND memchr@LIBC (2)
81:   FUNC GLOBAL DEFAULT UND _ZNSt3__115recursive_mute
82:   FUNC GLOBAL DEFAULT UND _ZNSt3__115recursive_mute
83:   OBJECT GLOBAL DEFAULT UND _ZSt7nothrow
84:   FUNC GLOBAL DEFAULT UND usleep@LIBC (2)
85:   FUNC GLOBAL DEFAULT UND clock_gettime@LIBC (2)
86:   FUNC GLOBAL DEFAULT UND _ZN7android5Fence4waitEi
87:   FUNC GLOBAL DEFAULT UND _ZNK7android5Fence13getSi
88:   FUNC GLOBAL DEFAULT UND _ZN7android13GraphicBuffe
89:   FUNC GLOBAL DEFAULT UND _ZNK7android8hardware11hi
90:   FUNC WEAK DEFAULT UND android_fdsan_close_with_@LIBC_Q (6)
91:   FUNC WEAK DEFAULT UND android_fdsan_create_owne@LIBC_Q (6)
92:   FUNC GLOBAL DEFAULT UND _ZNK7android8hardware7det
93:   FUNC GLOBAL DEFAULT UND _ZN7android8hardware7deta
94:   FUNC GLOBAL DEFAULT UND _ZN7android8hardware11hid
95:   FUNC GLOBAL DEFAULT UND _ZN7android5FenceC1Ei
96:   FUNC GLOBAL DEFAULT UND _ZNK7android6Region8getAr
97:   FUNC GLOBAL DEFAULT UND _ZN7android6Region3setERK
98:   FUNC GLOBAL DEFAULT UND _ZN7android6Region16addRe
99:   FUNC GLOBAL DEFAULT UND _ZN7android6Region5clearE
100:   FUNC GLOBAL DEFAULT UND _ZN7android13GraphicBuffe
101:   FUNC GLOBAL DEFAULT UND AHardwareBuffer_getNative
102:   FUNC GLOBAL DEFAULT UND AHardwareBuffer_describe
103:   FUNC GLOBAL DEFAULT UND AHardwareBuffer_createFro
104:   FUNC GLOBAL DEFAULT UND _ZN7android13GraphicBuffe
105:   FUNC GLOBAL DEFAULT UND AHardwareBuffer_release
106:   FUNC GLOBAL DEFAULT UND _ZN7android8hardware7deta
107:   OBJECT GLOBAL DEFAULT UND _ZN7android4Rect12INVALID
108:   FUNC GLOBAL DEFAULT UND _ZN7android4base12StringP
109:   FUNC GLOBAL DEFAULT UND isprint@LIBC (2)
110:   FUNC GLOBAL DEFAULT UND _ZNSt3__113basic_ostreamI
111:   FUNC GLOBAL DEFAULT UND _ZNSt3__113basic_ostreamI
112:   FUNC GLOBAL DEFAULT UND _ZNSt3__113basic_ostreamI
113:   FUNC GLOBAL DEFAULT UND _ZNSt3__113basic_ostreamI
114:   FUNC GLOBAL DEFAULT UND _ZNSt3__113basic_ostreamI
115:   FUNC GLOBAL DEFAULT UND _ZNSt3__112basic_stringIc
116:   FUNC GLOBAL DEFAULT UND _ZNSt3__112basic_stringIc
117:   FUNC GLOBAL DEFAULT UND _ZNSt3__112basic_stringIc
118:   FUNC GLOBAL DEFAULT UND _ZNSt3__113basic_ostreamI
119:   FUNC GLOBAL DEFAULT UND _ZNSt3__113basic_ostreamI
120:   FUNC GLOBAL DEFAULT UND _ZNKSt3__18ios_base6getlo
121:   FUNC GLOBAL DEFAULT UND _ZNSt3__16localeD1Ev
122:   FUNC GLOBAL DEFAULT UND _ZNKSt3__16locale9use_fac
123:   FUNC GLOBAL DEFAULT UND _ZNSt3__18ios_base5clearE
124:   OBJECT GLOBAL DEFAULT UND _ZNSt3__15ctypeIcE2idE
125:   FUNC GLOBAL DEFAULT UND _ZN7android4base21GetMini
126:   FUNC GLOBAL DEFAULT UND _ZN7android4base10LogMess
127:   FUNC GLOBAL DEFAULT UND _ZN7android4base10LogMess
128:   FUNC GLOBAL DEFAULT UND _ZN7android4base10LogMess
129:   FUNC GLOBAL DEFAULT UND _ZNSt3__113basic_ostreamI
130:   FUNC GLOBAL DEFAULT UND fprintf@LIBC (2)
131:   OBJECT GLOBAL DEFAULT UND stderr@LIBC (2)
132:   FUNC GLOBAL DEFAULT UND llround@LIBC (7)
133:   FUNC GLOBAL DEFAULT UND nextafterf@LIBC (7)
134:   FUNC GLOBAL DEFAULT UND _ZNSt3__112basic_stringIc
135:   FUNC GLOBAL DEFAULT UND isupper@LIBC (2)
136:   FUNC GLOBAL DEFAULT UND _ZNSt3__112basic_stringIc
137:   FUNC GLOBAL DEFAULT UND tolower@LIBC (2)
138:   FUNC GLOBAL DEFAULT UND islower@LIBC (2)
139:   FUNC GLOBAL DEFAULT UND _ZNSt3__112basic_stringIc
140:   FUNC GLOBAL DEFAULT UND _ZNSt3__112basic_stringIc
141:   FUNC GLOBAL DEFAULT UND _ZNSt3__112basic_stringIc
142:   FUNC GLOBAL DEFAULT UND memmove@LIBC (2)
143:   FUNC GLOBAL DEFAULT UND memcpy@LIBC (2)
144:   FUNC GLOBAL DEFAULT UND memset@LIBC (2)
145:   FUNC GLOBAL DEFAULT UND __stack_chk_fail@LIBC (2)
146:   FUNC GLOBAL DEFAULT UND log2@LIBC (7)
147:   FUNC GLOBAL DEFAULT UND pow@LIBC (7)
148:   FUNC GLOBAL DEFAULT UND fmodf@LIBC (7)
149:   FUNC GLOBAL DEFAULT UND log2f@LIBC (7)
150:   FUNC WEAK DEFAULT 14 _ZNK16C2SupportedRangeIiE
151:   FUNC WEAK DEFAULT 14 _ZNK16C2SupportedRangeIlE
152:   FUNC WEAK DEFAULT 14 _ZN25C2ParamFieldValuesBu
153:   FUNC WEAK DEFAULT 14 _ZNK17C2InterfaceHelper5F
154:   FUNC WEAK DEFAULT 14 _ZN16C2SupportedRangeIiE7
155:   OBJECT WEAK DEFAULT 11 _ZN16C2SupportedRangeIhE8
156:   FUNC GLOBAL DEFAULT 14 _ZN22_C2BufferPoolAllocat
157:   FUNC GLOBAL DEFAULT 14 _ZN12C2BufferDataC2ERKNSt
158:   FUNC WEAK DEFAULT 14 _ZNK16C2SupportedFlagsIiE
159:   FUNC GLOBAL DEFAULT 14 _ZN7android15C2Allocation
160:   OBJECT GLOBAL DEFAULT 23 _ZN19C2WorkOrdinalStruct1
161:   FUNC WEAK DEFAULT 14 _ZN25C2ParamFieldValuesBu
162:   FUNC WEAK DEFAULT 14 _ZN19C2SupportedValueSetI
163:   FUNC WEAK DEFAULT 14 _ZN19C2SupportedValueSetI
164:   FUNC GLOBAL DEFAULT 14 _ZN22C2BufferQueueBlockPo
165:   FUNC WEAK DEFAULT 14 _ZN25C2ParamFieldValuesBu
166:   FUNC WEAK DEFAULT 14 _ZN25C2ParamFieldValuesBu
167:   FUNC WEAK DEFAULT 14 _ZN25C2ParamFieldValuesBu
168:   FUNC WEAK DEFAULT 14 _ZNK16C2SupportedRangeIcE
169:   FUNC WEAK DEFAULT 14 _ZN25C2ParamFieldValuesBu
170:   FUNC GLOBAL DEFAULT 14 _ZN12_C2EnumUtils17camelC
171:   FUNC WEAK DEFAULT 14 _ZN25C2ParamFieldValuesBu
172:   FUNC GLOBAL DEFAULT 14 _ZNK12C2FieldUtils4List5b
173:   FUNC WEAK DEFAULT 14 _ZNK16C2SupportedRangeIhE
174:   FUNC WEAK DEFAULT 14 _ZNK16C2SupportedRangeImE
175:   FUNC WEAK DEFAULT 14 _ZNK16C2SupportedFlagsIcE
176:   FUNC GLOBAL DEFAULT 14 _ZNK7android18C2Allocator
177:   FUNC GLOBAL DEFAULT 14 _ZN12C2BufferDataC1ERKNSt
178:   FUNC GLOBAL DEFAULT 14 _ZN26C2BufferQueueBlockPo
179:   FUNC WEAK DEFAULT 14 _ZN19C2SupportedValueSetI
180:   FUNC WEAK DEFAULT 14 _ZN25C2ParamFieldValuesBu
181:   FUNC WEAK DEFAULT 14 _ZN19C2SupportedValueSetI
182:   FUNC GLOBAL DEFAULT 14 _ZN17C2FieldDescriptor14n
183:   FUNC WEAK DEFAULT 14 _ZN25C2ParamFieldValuesBu
184:   FUNC WEAK DEFAULT 14 _ZN25C2ParamFieldValuesBu
185:   FUNC GLOBAL DEFAULT 14 _ZN17C2FieldDescriptor14n
186:   FUNC GLOBAL DEFAULT 14 _ZN7android28C2PlatformAl
187:   FUNC WEAK DEFAULT 14 _ZN16C2SupportedRangeIlE1
188:   FUNC WEAK DEFAULT 14 _ZN16C2SupportedFlagsIiE5
189:   FUNC WEAK DEFAULT 14 _ZNK19C2SupportedValueSet
190:   FUNC WEAK DEFAULT 14 _ZNK25C2ParamFieldValuesB
191:   FUNC WEAK DEFAULT 14 _ZN25C2ParamFieldValuesBu
192:   FUNC WEAK DEFAULT 14 _ZNK16C2SupportedFlagsIiE
193:   FUNC WEAK DEFAULT 14 _ZNK28C2FieldSupportedVal
194:   FUNC WEAK DEFAULT 14 _ZN25C2ParamFieldValuesBu
195:   FUNC WEAK DEFAULT 14 _ZN25C2ParamFieldValuesBu
196:   FUNC WEAK DEFAULT 14 _ZN25C2ParamFieldValuesBu
197:   FUNC WEAK DEFAULT 14 _ZN25C2ParamFieldValuesBu
198:   OBJECT GLOBAL DEFAULT 19 _ZTVN7android24C2Platform
199:   FUNC WEAK DEFAULT 14 _ZN16C2SupportedFlagsIhE5
200:   FUNC WEAK DEFAULT 14 _ZN25C2ParamFieldValuesBu
201:   FUNC WEAK DEFAULT 14 _ZlsIjERNSt3__113basic_os
202:   FUNC WEAK DEFAULT 14 _ZN16C2SupportedFlagsIcE5
203:   FUNC WEAK DEFAULT 14 _ZN28C2FieldSupportedValu
204:   OBJECT WEAK DEFAULT 11 _ZN16C2SupportedRangeIfE9
205:   FUNC WEAK DEFAULT 14 _ZN16C2SupportedFlagsIiEC
206:   FUNC GLOBAL DEFAULT 14 _ZN17C2InterfaceHelper11P
207:   FUNC WEAK DEFAULT 14 _ZN17C2InterfaceHelper5Fi
208:   FUNC WEAK DEFAULT 14 _ZN17C2InterfaceHelper5Fi
209:   FUNC WEAK DEFAULT 14 _ZN19C2SupportedValueSetI
210:   FUNC WEAK DEFAULT 14 _ZN25C2ParamFieldValuesBu
211:   FUNC GLOBAL DEFAULT 14 _ZN7android8hardware8grap
212:   FUNC WEAK DEFAULT 14 _ZNK16C2SupportedFlagsIhE
213:   FUNC WEAK DEFAULT 14 _ZN17C2InterfaceHelper5Fi
214:   FUNC WEAK DEFAULT 14 _ZN16C2SupportedRangeIcE2
215:   FUNC WEAK DEFAULT 14 _ZN25C2ParamFieldValuesBu
216:   FUNC WEAK DEFAULT 14 _ZN16C2SupportedFlagsIiEC
217:   FUNC GLOBAL DEFAULT 14 _ZN17C2InterfaceHelper11P
218:   FUNC WEAK DEFAULT 14 _ZNK19C2SupportedValueSet
219:   FUNC GLOBAL DEFAULT 14 _ZN22C2SettingResultBuild
220:   FUNC WEAK DEFAULT 14 _ZN25C2ParamFieldValuesBu
221:   FUNC WEAK DEFAULT 14 _ZN19C2SupportedValueSetI
222:   FUNC GLOBAL DEFAULT 14 _ZN17C2InterfaceHelper6co
223:   FUNC WEAK DEFAULT 14 _ZNK19C2SupportedValueSet
224:   FUNC WEAK DEFAULT 14 _ZNK17C2InterfaceHelper5F
225:   FUNC GLOBAL DEFAULT 14 _ZN25C2SettingConflictsBu
226:   FUNC WEAK DEFAULT 14 _ZN28C2FieldSupportedValu
227:   FUNC WEAK DEFAULT 14 _ZN25C2ParamFieldValuesBu
228:   FUNC WEAK DEFAULT 14 _ZN19C2SupportedValueSetI
229:   FUNC WEAK DEFAULT 14 _ZNK19C2SupportedValueSet
230:   FUNC WEAK DEFAULT 14 _ZNK25C2ParamFieldValuesB
231:   FUNC WEAK DEFAULT 14 _ZN25C2ParamFieldValuesBu
232:   FUNC WEAK DEFAULT 14 _ZN19C2SupportedValueSetI
233:   FUNC GLOBAL DEFAULT 14 _ZN13C2LinearBlockC1ENSt3
234:   FUNC GLOBAL DEFAULT 14 _ZN16C2RotationStruct9Fie
235:   FUNC GLOBAL DEFAULT 14 _ZN7android8hardware8grap
236:   FUNC WEAK DEFAULT 14 _ZNK28C2FieldSupportedVal
237:   FUNC WEAK DEFAULT 14 _ZN25C2ParamFieldValuesBu
238:   FUNC GLOBAL DEFAULT 14 _ZN12C2ParamUtils10ParseF
239:   FUNC WEAK DEFAULT 14 _ZN17C2InterfaceHelper5Fi
240:   FUNC WEAK DEFAULT 14 _ZN28C2FieldSupportedValu
241:   FUNC WEAK DEFAULT 14 _ZN25C2ParamFieldValuesBu
242:   FUNC WEAK DEFAULT 14 _ZN16C2SupportedFlagsIcEC
243:   FUNC WEAK DEFAULT 14 _ZN16C2SupportedFlagsIlEC
244:   FUNC WEAK DEFAULT 14 _ZN17C2InterfaceHelper5Fi
245:   FUNC WEAK DEFAULT 14 _ZN16C2SupportedRangeIiE2
246:   FUNC WEAK DEFAULT 14 _ZN19C2SupportedValueSetI
247:   FUNC WEAK DEFAULT 14 _ZN25C2ParamFieldValuesBu
248:   FUNC WEAK DEFAULT 14 _ZN25C2ParamFieldValuesBu
249:   FUNC GLOBAL DEFAULT 14 _ZN12C2FieldUtils8Iterato
250:   OBJECT WEAK DEFAULT 11 _ZN16C2SupportedRangeIlE9
251:   FUNC GLOBAL DEFAULT 14 _ZN12C2FieldUtils15enumer
252:   FUNC WEAK DEFAULT 14 _ZN16C2SupportedRangeIiE3
253:   FUNC WEAK DEFAULT 14 _ZN19C2SupportedValueSetI
254:   FUNC WEAK DEFAULT 14 _ZN19C2SupportedValueSetI
255:   FUNC GLOBAL DEFAULT 14 _ZN15_C2BlockFactory26Beg
256:   FUNC GLOBAL DEFAULT 14 _ZNK12C2FieldUtils4Info15
257:   OBJECT GLOBAL DEFAULT 19 _ZTVN7android15C2Allocati
258:   FUNC GLOBAL DEFAULT 14 _ZN7android28C2PlatformAl
259:   FUNC WEAK DEFAULT 14 _ZN16C2SupportedRangeIjE7
260:   FUNC WEAK DEFAULT 14 _ZNK19C2SupportedValueSet
261:   FUNC WEAK DEFAULT 14 _ZN19C2SupportedValueSetI
262:   FUNC WEAK DEFAULT 14 _ZN25C2ParamFieldValuesBu
263:   FUNC WEAK DEFAULT 14 _ZNK25C2ParamFieldValuesB
264:   FUNC GLOBAL DEFAULT 14 _ZN15_C2BlockFactory17Cre
265:   FUNC GLOBAL DEFAULT 14 _ZN22_C2BufferPoolAllocat
266:   FUNC GLOBAL DEFAULT 14 _ZN17C2InterfaceHelper11P
267:   FUNC WEAK DEFAULT 14 _ZNK17C2InterfaceHelper5F
268:   FUNC WEAK DEFAULT 14 _ZN19C2SupportedValueSetI
269:   FUNC WEAK DEFAULT 14 _ZN19C2SupportedValueSetI
270:   FUNC WEAK DEFAULT 14 _ZN28C2FieldSupportedValu
271:   FUNC WEAK DEFAULT 14 _ZN25C2ParamFieldValuesBu
272:   FUNC WEAK DEFAULT 14 _ZN25C2ParamFieldValuesBu
273:   FUNC GLOBAL DEFAULT 14 _ZN7android11C2HandleIon7
274:   FUNC GLOBAL DEFAULT 14 _ZN7android18C2AllocatorG
275:   FUNC GLOBAL DEFAULT 14 _ZN17C2FieldDescriptor14n
276:   FUNC GLOBAL DEFAULT 14 _ZN7android28C2PlatformAl
277:   FUNC GLOBAL DEFAULT 14 _ZNK7android24C2PlatformC
278:   FUNC WEAK DEFAULT 14 _ZN16C2SupportedRangeIhE1
279:   FUNC WEAK DEFAULT 14 _ZN28C2FieldSupportedValu
280:   FUNC GLOBAL DEFAULT 14 _ZN18C2TileLayoutStruct9F
281:   FUNC WEAK DEFAULT 14 _ZN25C2ParamFieldValuesBu
282:   FUNC WEAK DEFAULT 14 _ZN16C2SupportedRangeIiE8
283:   FUNC WEAK DEFAULT 14 _ZN16C2SupportedFlagsIcEC
284:   FUNC GLOBAL DEFAULT 14 _ZN11C2WriteViewC2E11c2_s
285:   FUNC GLOBAL DEFAULT 14 _ZNK7android24C2PlatformC
286:   FUNC WEAK DEFAULT 14 _ZlsIfERNSt3__113basic_os
287:   FUNC WEAK DEFAULT 14 _ZN16C2SupportedRangeIfE7
288:   FUNC WEAK DEFAULT 14 _ZN19C2SupportedValueSetI
289:   FUNC WEAK DEFAULT 14 _ZN25C2ParamFieldValuesBu
290:   FUNC WEAK DEFAULT 14 _ZN19C2SupportedValueSetI
291:   FUNC GLOBAL DEFAULT 14 _ZN7android18C2AllocatorG
292:   FUNC GLOBAL DEFAULT 14 _ZN15_C2BlockFactory17Get
293:   FUNC WEAK DEFAULT 14 _ZN16C2SupportedRangeIhE1
294:   FUNC WEAK DEFAULT 14 _ZN28C2FieldSupportedValu
295:   FUNC WEAK DEFAULT 14 _ZN16C2SupportedRangeIcEC
296:   FUNC WEAK DEFAULT 14 _ZN25C2ParamFieldValuesBu
297:   FUNC GLOBAL DEFAULT 14 _ZNK12C2FieldUtils4Info4n
298:   FUNC WEAK DEFAULT 14 _ZN16C2SupportedFlagsIlEC
299:   FUNC WEAK DEFAULT 14 _ZN19C2SupportedValueSetI
300:   FUNC WEAK DEFAULT 14 _ZN25C2ParamFieldValuesBu
301:   FUNC WEAK DEFAULT 14 _ZN25C2ParamFieldValuesBu
302:   FUNC GLOBAL DEFAULT 14 _ZN12C2FieldUtils11locate
303:   FUNC GLOBAL DEFAULT 14 _ZN7android8hardware8grap
304:   FUNC WEAK DEFAULT 14 _ZNK19C2SupportedValueSet
305:   FUNC WEAK DEFAULT 14 _ZNK16C2SupportedRangeIjE
306:   FUNC WEAK DEFAULT 14 _ZN16C2SupportedFlagsImE5
307:   FUNC WEAK DEFAULT 14 _ZN28C2FieldSupportedValu
308:   FUNC WEAK DEFAULT 14 _ZN25C2ParamFieldValuesBu
309:   FUNC WEAK DEFAULT 14 _ZN16C2SupportedRangeIcE1
310:   FUNC WEAK DEFAULT 14 _ZN16C2SupportedRangeIiE1
311:   FUNC WEAK DEFAULT 14 _ZN16C2SupportedRangeIfE1
312:   FUNC WEAK DEFAULT 14 _ZlsIfERNSt3__113basic_os
313:   FUNC WEAK DEFAULT 14 _ZN16C2SupportedRangeImEC
314:   FUNC WEAK DEFAULT 14 _ZN25C2ParamFieldValuesBu
315:   FUNC GLOBAL DEFAULT 14 _ZN17C2FieldDescriptor14n
316:   FUNC WEAK DEFAULT 14 _ZlsImERNSt3__113basic_os
317:   FUNC WEAK DEFAULT 14 _ZN16C2SupportedFlagsIjEC
318:   FUNC WEAK DEFAULT 14 _ZN16C2SupportedRangeIfEC
319:   FUNC GLOBAL DEFAULT 14 _ZN7android14C2AllocatorI
320:   FUNC GLOBAL DEFAULT 14 _ZN17C2PooledBlockPool17f
321:   FUNC WEAK DEFAULT 14 _ZN16C2SupportedFlagsIjE4
322:   FUNC WEAK DEFAULT 14 _ZN28C2FieldSupportedValu
323:   FUNC GLOBAL DEFAULT 14 _ZN7android15C2Allocation
324:   OBJECT GLOBAL DEFAULT 23 _ZN19C2OutOfMemoryStruct1
325:   FUNC WEAK DEFAULT 14 _ZN16C2SupportedFlagsIiE4
326:   FUNC WEAK DEFAULT 14 _ZN25C2ParamFieldValuesBu
327:   FUNC GLOBAL DEFAULT 14 _ZNK12C2FieldUtils4List3e
328:   FUNC GLOBAL DEFAULT 14 _ZN7android15C2Allocation
329:   FUNC GLOBAL DEFAULT 14 _ZN18C2ConstLinearBlockC1
330:   FUNC GLOBAL DEFAULT 14 _ZN26C2BufferQueueBlockPo
331:   FUNC WEAK DEFAULT 14 _ZN28C2FieldSupportedValu
332:   FUNC WEAK DEFAULT 14 _ZNK16C2SupportedRangeIlE
333:   FUNC WEAK DEFAULT 14 _ZNK16C2SupportedRangeIfE
334:   FUNC GLOBAL DEFAULT 14 _ZN12_C2EnumUtils22saniti
335:   FUNC WEAK DEFAULT 14 _ZN16C2SupportedRangeImE1
336:   FUNC WEAK DEFAULT 14 _ZNK16C2SupportedFlagsIiE
337:   FUNC WEAK DEFAULT 14 _ZN28C2FieldSupportedValu
338:   FUNC WEAK DEFAULT 14 _ZN19C2SupportedValueSetI
339:   FUNC GLOBAL DEFAULT 14 _ZN8C2Buffer7setInfoERKNS
340:   FUNC GLOBAL DEFAULT 14 _ZN22C2BufferQueueBlockPo
341:   FUNC WEAK DEFAULT 14 _ZNK19C2SupportedValueSet
342:   FUNC GLOBAL DEFAULT 14 _ZNK16C2SupportedFlagsIfE
343:   FUNC WEAK DEFAULT 14 _ZN28C2FieldSupportedValu
344:   FUNC WEAK DEFAULT 14 _ZN25C2ParamFieldValuesBu
345:   FUNC WEAK DEFAULT 14 _ZNK25C2ParamFieldValuesB
346:   FUNC WEAK DEFAULT 14 _ZlsIhERNSt3__113basic_os
347:   FUNC WEAK DEFAULT 14 _ZN19C2SupportedValueSetI
348:   FUNC WEAK DEFAULT 14 _ZN25C2ParamFieldValuesBu
349:   FUNC WEAK DEFAULT 14 _ZN25C2ParamFieldValuesBu
350:   FUNC GLOBAL DEFAULT 14 _ZN17C2FieldDescriptor14n
351:   FUNC GLOBAL DEFAULT 14 _ZNK12C2FieldUtils4Info4t
352:   FUNC WEAK DEFAULT 14 _ZN25C2ParamFieldValuesBu
353:   FUNC WEAK DEFAULT 14 _ZN16C2SupportedFlagsIjE5
354:   FUNC WEAK DEFAULT 14 _ZN25C2ParamFieldValuesBu
355:   FUNC GLOBAL DEFAULT 14 _ZN17C2ReflectorHelper20a
356:   FUNC WEAK DEFAULT 14 _ZN28C2FieldSupportedValu
357:   FUNC GLOBAL DEFAULT 14 _ZN17C2PooledBlockPool16f
358:   FUNC GLOBAL DEFAULT 14 _ZN22C2BufferQueueBlockPo
359:   FUNC WEAK DEFAULT 14 _ZNK19C2SupportedValueSet
360:   FUNC WEAK DEFAULT 14 _ZN25C2ParamFieldValuesBu
361:   FUNC WEAK DEFAULT 14 _ZN25C2ParamFieldValuesBu
362:   FUNC WEAK DEFAULT 14 _ZN25C2ParamFieldValuesBu
363:   FUNC GLOBAL DEFAULT 14 _ZN17C2PooledBlockPool15g
364:   FUNC GLOBAL DEFAULT 14 _ZN8C2BufferC2ERKNSt3__16
365:   FUNC WEAK DEFAULT 14 _ZNK28C2FieldSupportedVal
366:   FUNC WEAK DEFAULT 14 _ZN16C2SupportedRangeIlE1
367:   FUNC WEAK DEFAULT 14 _ZN16C2SupportedRangeIfE2
368:   FUNC WEAK DEFAULT 14 _ZNK19C2SupportedValueSet
369:   FUNC WEAK DEFAULT 14 _ZN28C2FieldSupportedValu
370:   FUNC GLOBAL DEFAULT 14 _ZN17C2FieldDescriptor14n
371:   FUNC WEAK DEFAULT 14 _ZNK19C2SupportedValueSet
372:   FUNC WEAK DEFAULT 14 _ZNK19C2SupportedValueSet
373:   FUNC WEAK DEFAULT 14 _ZN19C2SupportedValueSetI
374:   FUNC WEAK DEFAULT 14 _ZN25C2ParamFieldValuesBu
375:   FUNC WEAK DEFAULT 14 _ZNK25C2ParamFieldValuesB
376:   FUNC WEAK DEFAULT 14 _ZN25C2ParamFieldValuesBu
377:   FUNC GLOBAL DEFAULT 14 _ZN18C2ConstLinearBlockC2
378:   FUNC WEAK DEFAULT 14 _ZN16C2SupportedRangeImE4
379:   FUNC WEAK DEFAULT 14 _ZN19C2SupportedValueSetI
380:   FUNC GLOBAL DEFAULT 14 _ZN12C2FieldUtils4InfoC2E
381:   FUNC GLOBAL DEFAULT 14 _ZNK9C2Block2D14getAlloca
382:   FUNC GLOBAL DEFAULT 14 _ZN7android24C2PlatformCo
383:   FUNC GLOBAL DEFAULT 14 _ZN17C2InterfaceHelper11P
384:   FUNC GLOBAL DEFAULT 14 _ZN7android15C2Allocation
385:   FUNC WEAK DEFAULT 14 _ZN17C2InterfaceHelper5Fi
386:   FUNC GLOBAL DEFAULT 14 _ZN7android24C2PlatformCo
387:   FUNC GLOBAL DEFAULT 14 _ZN26C2BufferQueueBlockPo
388:   FUNC WEAK DEFAULT 14 _ZN25C2ParamFieldValuesBu
389:   FUNC GLOBAL DEFAULT 14 _ZN14C2GraphicBlock5share
390:   FUNC WEAK DEFAULT 14 _ZN16C2SupportedRangeIcE4
391:   FUNC GLOBAL DEFAULT 14 _ZN17C2InterfaceHelper11P
392:   FUNC WEAK DEFAULT 14 _ZN16C2SupportedFlagsIjE5
393:   FUNC WEAK DEFAULT 14 _ZNK16C2SupportedFlagsImE
394:   FUNC WEAK DEFAULT 14 _ZN25C2ParamFieldValuesBu
395:   FUNC GLOBAL DEFAULT 14 _ZN7android32GetPreferred
396:   FUNC GLOBAL DEFAULT 14 _ZN7android8hardware8grap
397:   FUNC GLOBAL DEFAULT 14 _ZNK17C2InterfaceHelper11
398:   FUNC WEAK DEFAULT 14 _ZNK17C2InterfaceHelper5F
399:   FUNC WEAK DEFAULT 14 _ZNK17C2InterfaceHelper5F
400:   FUNC WEAK DEFAULT 14 _ZNK17C2InterfaceHelper5F
401:   FUNC WEAK DEFAULT 14 _ZN16C2SupportedRangeIlE2
402:   FUNC WEAK DEFAULT 14 _ZNK19C2SupportedValueSet
403:   FUNC WEAK DEFAULT 14 _ZN19C2SupportedValueSetI
404:   FUNC GLOBAL DEFAULT 14 _ZN15_C2BlockFactory17Cre
405:   FUNC GLOBAL DEFAULT 14 _ZNK17C2InterfaceHelper11
406:   FUNC WEAK DEFAULT 14 _ZN16C2SupportedRangeIhE7
407:   OBJECT GLOBAL DEFAULT 19 _ZTV17C2PooledBlockPool
408:   FUNC WEAK DEFAULT 14 _ZN19C2SupportedValueSetI
409:   FUNC GLOBAL DEFAULT 14 _ZN8C2BufferC1ERKNSt3__16
410:   FUNC GLOBAL DEFAULT 14 _ZN17C2FieldDescriptor14n
411:   FUNC GLOBAL DEFAULT 14 _ZN17C2FieldDescriptor14n
412:   FUNC GLOBAL DEFAULT 14 _ZN26C2BufferQueueBlockPo
413:   FUNC WEAK DEFAULT 14 _ZlsIjERNSt3__113basic_os
414:   FUNC WEAK DEFAULT 14 _ZNK25C2ParamFieldValuesB
415:   FUNC WEAK DEFAULT 14 _ZNK19C2SupportedValueSet
416:   FUNC WEAK DEFAULT 14 _ZN25C2ParamFieldValuesBu
417:   FUNC WEAK DEFAULT 14 _ZN16C2SupportedRangeIfEC
418:   FUNC GLOBAL DEFAULT 14 _ZN7android32MigrateNativ
419:   FUNC GLOBAL DEFAULT 14 _ZNK9C2Block1D14getAlloca
420:   FUNC WEAK DEFAULT 14 _ZN16C2SupportedFlagsIhEC
421:   FUNC WEAK DEFAULT 14 _ZN16C2SupportedFlagsIlEC
422:   FUNC WEAK DEFAULT 14 _ZNK19C2SupportedValueSet
423:   FUNC WEAK DEFAULT 14 _ZN25C2ParamFieldValuesBu
424:   FUNC WEAK DEFAULT 14 _ZN25C2ParamFieldValuesBu
425:   OBJECT GLOBAL DEFAULT 19 _ZTVN7android19C2Allocati
426:   FUNC GLOBAL DEFAULT 14 _ZNK12C2BufferData12linea
427:   FUNC GLOBAL DEFAULT 14 _ZN7android8hardware8grap
428:   FUNC WEAK DEFAULT 14 _ZN16C2SupportedRangeIjE8
429:   FUNC WEAK DEFAULT 14 _ZN25C2ParamFieldValuesBu
430:   FUNC WEAK DEFAULT 14 _ZN16C2SupportedFlagsImEC
431:   FUNC GLOBAL DEFAULT 14 _ZN20C2IntraRefreshStruct
432:   FUNC GLOBAL DEFAULT 14 _ZNK7android24C2PlatformC
433:   FUNC GLOBAL DEFAULT 14 _ZN7android24C2PlatformCo
434:   FUNC GLOBAL DEFAULT 14 _ZNK17C2InterfaceHelper11
435:   FUNC WEAK DEFAULT 14 _ZN25C2ParamFieldValuesBu
436:   FUNC WEAK DEFAULT 14 _ZN19C2SupportedValueSetI
437:   OBJECT WEAK DEFAULT 11 _ZN16C2SupportedRangeIjE9
438:   FUNC WEAK DEFAULT 14 _ZNK19C2SupportedValueSet
439:   FUNC WEAK DEFAULT 14 _ZNK16C2SupportedFlagsIiE
440:   FUNC WEAK DEFAULT 14 _ZN25C2ParamFieldValuesBu
441:   OBJECT WEAK DEFAULT 11 _ZN16C2SupportedRangeImE8
442:   FUNC GLOBAL DEFAULT 14 _ZN17C2InterfaceHelper11F
443:   FUNC WEAK DEFAULT 14 _ZNK28C2FieldSupportedVal
444:   FUNC GLOBAL DEFAULT 14 _ZN8C2Buffer23registerOnD
445:   FUNC WEAK DEFAULT 14 _ZNK16C2SupportedRangeImE
446:   FUNC WEAK DEFAULT 14 _ZNK19C2SupportedValueSet
447:   FUNC WEAK DEFAULT 14 _ZN19C2SupportedValueSetI
448:   FUNC WEAK DEFAULT 14 _ZN19C2SupportedValueSetI
449:   FUNC WEAK DEFAULT 14 _ZN25C2ParamFieldValuesBu
450:   FUNC GLOBAL DEFAULT 14 _ZN23C2BasicGraphicBlockP
451:   FUNC GLOBAL DEFAULT 14 _ZN11C2WriteViewC1E11c2_s
452:   FUNC GLOBAL DEFAULT 14 _ZN7android24C2PlatformCo
453:   FUNC GLOBAL DEFAULT 14 _ZN17C2InterfaceHelper13G
454:   FUNC WEAK DEFAULT 14 _ZNK16C2SupportedFlagsIlE
455:   FUNC WEAK DEFAULT 14 _ZN25C2ParamFieldValuesBu
456:   FUNC WEAK DEFAULT 14 _ZN16C2SupportedRangeIiEC
457:   FUNC GLOBAL DEFAULT 14 _ZN22C2BufferQueueBlockPo
458:   FUNC WEAK DEFAULT 14 _ZNK17C2InterfaceHelper5F
459:   FUNC WEAK DEFAULT 14 _ZN25C2ParamFieldValuesBu
460:   FUNC GLOBAL DEFAULT 14 _ZN12C2FieldUtils4InfoC1E
461:   FUNC GLOBAL DEFAULT 14 _ZN17C2FieldDescriptor14n
462:   FUNC WEAK DEFAULT 14 _ZN16C2SupportedFlagsImEC
463:   FUNC WEAK DEFAULT 14 _ZN25C2ParamFieldValuesBu
464:   OBJECT GLOBAL DEFAULT 23 _ZN16C2RotationStruct11_F
465:   FUNC GLOBAL DEFAULT 14 _ZN17C2InterfaceHelper11P
466:   FUNC WEAK DEFAULT 14 _ZN19C2SupportedValueSetI
467:   FUNC WEAK DEFAULT 14 _ZN25C2ParamFieldValuesBu
468:   FUNC GLOBAL DEFAULT 14 _ZN22_C2BufferPoolAllocat
469:   FUNC WEAK DEFAULT 14 _ZN25C2ParamFieldValuesBu
470:   FUNC WEAK DEFAULT 14 _ZN25C2ParamFieldValuesBu
471:   FUNC WEAK DEFAULT 14 _ZNSt3__16__treeINS_12__v
472:   FUNC WEAK DEFAULT 14 _ZN16C2SupportedFlagsIjEC
473:   FUNC WEAK DEFAULT 14 _ZN25C2ParamFieldValuesBu
474:   OBJECT WEAK DEFAULT 19 _ZTV25C2ParamFieldValuesB
475:   FUNC GLOBAL DEFAULT 14 _ZNK13C2GraphicView5error
476:   FUNC GLOBAL DEFAULT 14 _ZN7android8hardware8grap
477:   FUNC WEAK DEFAULT 14 _ZNK17C2InterfaceHelper5F
478:   FUNC WEAK DEFAULT 14 _ZN19C2SupportedValueSetI
479:   FUNC WEAK DEFAULT 14 _ZN25C2ParamFieldValuesBu
480:   FUNC WEAK DEFAULT 14 _ZN19C2SupportedValueSetI
481:   FUNC GLOBAL DEFAULT 14 _ZNK16C2SupportedFlagsIfE
482:   FUNC WEAK DEFAULT 14 _ZN25C2ParamFieldValuesBu
483:   FUNC WEAK DEFAULT 14 _ZN25C2ParamFieldValuesBu
484:   FUNC GLOBAL DEFAULT 14 _ZN17C2InterfaceHelper11P
485:   FUNC WEAK DEFAULT 14 _ZN16C2SupportedRangeIjE7
486:   FUNC WEAK DEFAULT 14 _ZNK19C2SupportedValueSet
487:   FUNC GLOBAL DEFAULT 14 _ZN24C2SupplementalDataSt
488:   FUNC GLOBAL DEFAULT 14 _ZN7android28C2PlatformAl
489:   FUNC WEAK DEFAULT 14 _ZN25C2ParamFieldValuesBu
490:   FUNC WEAK DEFAULT 14 _ZlsIhERNSt3__113basic_os
491:   FUNC WEAK DEFAULT 14 _ZN25C2ParamFieldValuesBu
492:   FUNC WEAK DEFAULT 14 _ZN25C2ParamFieldValuesBu
493:   FUNC WEAK DEFAULT 14 _ZN16C2SupportedRangeIlE1
494:   FUNC WEAK DEFAULT 14 _ZN25C2ParamFieldValuesBu
495:   FUNC WEAK DEFAULT 14 _ZN25C2ParamFieldValuesBu
496:   FUNC WEAK DEFAULT 14 _ZN25C2ParamFieldValuesBu
497:   FUNC WEAK DEFAULT 14 _ZN25C2ParamFieldValuesBu
498:   FUNC WEAK DEFAULT 14 _ZN16C2SupportedRangeIhE1
499:   FUNC GLOBAL DEFAULT 14 _ZNK17C2InterfaceHelper11
500:   FUNC WEAK DEFAULT 14 _ZNK16C2SupportedRangeIcE
501:   FUNC WEAK DEFAULT 14 _ZN25C2ParamFieldValuesBu
502:   FUNC WEAK DEFAULT 14 _ZN25C2ParamFieldValuesBu
503:   FUNC WEAK DEFAULT 14 _ZN25C2ParamFieldValuesBu
504:   FUNC GLOBAL DEFAULT 14 _ZN17C2PooledBlockPoolD1E
505:   FUNC WEAK DEFAULT 14 _ZN19C2SupportedValueSetI
506:   FUNC WEAK DEFAULT 14 _ZN25C2ParamFieldValuesBu
507:   FUNC WEAK DEFAULT 14 _ZN25C2ParamFieldValuesBu
508:   FUNC WEAK DEFAULT 14 _ZN25C2ParamFieldValuesBu
509:   OBJECT WEAK DEFAULT 11 _ZN16C2SupportedRangeImE9
510:   FUNC GLOBAL DEFAULT 14 _ZN7android34_UnwrapNativ
511:   FUNC GLOBAL DEFAULT 14 _ZN7android19C2Allocation
512:   FUNC GLOBAL DEFAULT 14 _ZN14C2GraphicBlockC1ENSt
513:   FUNC GLOBAL DEFAULT 14 _ZN7android28C2PlatformAl
514:   FUNC WEAK DEFAULT 14 _ZNK16C2SupportedFlagsImE
515:   FUNC WEAK DEFAULT 14 _ZN16C2SupportedFlagsImEC
516:   FUNC WEAK DEFAULT 14 _ZN25C2ParamFieldValuesBu
517:   FUNC WEAK DEFAULT 14 _ZN28C2FieldSupportedValu
518:   FUNC GLOBAL DEFAULT 14 _ZN7android14C2AllocatorI
519:   FUNC GLOBAL DEFAULT 14 _ZN15_C2BlockFactory17Cre
520:   FUNC GLOBAL DEFAULT 14 _ZN8C2Buffer10removeInfoE
521:   FUNC GLOBAL DEFAULT 14 _ZN17C2FieldDescriptor14n
522:   FUNC GLOBAL DEFAULT 14 _ZN12C2FieldUtils4ListC2E
523:   FUNC WEAK DEFAULT 14 _ZN16C2SupportedFlagsIhEC
524:   FUNC WEAK DEFAULT 14 _ZNK19C2SupportedValueSet
525:   FUNC WEAK DEFAULT 14 _ZN19C2SupportedValueSetI
526:   OBJECT GLOBAL DEFAULT 23 _ZN21C2StoreIonUsageStruc
527:   OBJECT GLOBAL DEFAULT 23 _ZN27C2PlatformStorePlugi
528:   FUNC WEAK DEFAULT 14 _ZNK16C2SupportedFlagsIcE
529:   FUNC WEAK DEFAULT 14 _ZNK17C2InterfaceHelper5F
530:   FUNC WEAK DEFAULT 14 _ZN28C2FieldSupportedValu
531:   FUNC WEAK DEFAULT 14 _ZN25C2ParamFieldValuesBu
532:   FUNC GLOBAL DEFAULT 14 _ZN27C2PlatformStorePlugi
533:   FUNC WEAK DEFAULT 14 _ZN16C2SupportedFlagsIcEC
534:   FUNC WEAK DEFAULT 14 _ZN25C2ParamFieldValuesBu
535:   FUNC WEAK DEFAULT 14 _ZN19C2SupportedValueSetI
536:   FUNC GLOBAL DEFAULT 14 _ZN7android15C2Allocation
537:   FUNC GLOBAL DEFAULT 14 _ZNK8C2Buffer7hasInfoEN7C
538:   FUNC WEAK DEFAULT 14 _ZNSt3__113__tree_removeI
539:   FUNC WEAK DEFAULT 14 _ZN28C2FieldSupportedValu
540:   FUNC GLOBAL DEFAULT 14 _ZN22C2BasicLinearBlockPo
541:   FUNC GLOBAL DEFAULT 14 _ZN17C2FieldDescriptor14n
542:   FUNC WEAK DEFAULT 14 _ZN25C2ParamFieldValuesBu
543:   FUNC WEAK DEFAULT 14 _ZN16C2SupportedRangeIiE1
544:   FUNC WEAK DEFAULT 14 _ZN16C2SupportedRangeIlE1
545:   FUNC WEAK DEFAULT 14 _ZN16C2SupportedRangeIfE1
546:   FUNC WEAK DEFAULT 14 _ZN16C2SupportedRangeIfE1
547:   FUNC WEAK DEFAULT 14 _ZN28C2FieldSupportedValu
548:   FUNC WEAK DEFAULT 14 _ZN25C2ParamFieldValuesBu
549:   OBJECT GLOBAL DEFAULT 23 _ZN20C2ChromaOffsetStruct
550:   FUNC WEAK DEFAULT 14 _ZNK17C2InterfaceHelper5F
551:   FUNC WEAK DEFAULT 14 _ZN17C2InterfaceHelper5Fi
552:   FUNC WEAK DEFAULT 14 _ZN16C2SupportedRangeIjE8
553:   FUNC WEAK DEFAULT 14 _ZNK19C2SupportedValueSet
554:   FUNC GLOBAL DEFAULT 14 _ZN26C2BufferQueueBlockPo
555:   FUNC GLOBAL DEFAULT 14 _ZN7android8hardware8grap
556:   FUNC GLOBAL DEFAULT 14 _ZN7android8hardware8grap
557:   FUNC GLOBAL DEFAULT 14 _ZN7android20C2AndroidMem
558:   FUNC WEAK DEFAULT 14 _ZN25C2ParamFieldValuesBu
559:   FUNC WEAK DEFAULT 14 _ZN16C2SupportedFlagsIhEC
560:   FUNC GLOBAL DEFAULT 14 _ZNK17C2InterfaceHelper4l
561:   FUNC WEAK DEFAULT 14 _ZN16C2SupportedRangeIjE1
562:   FUNC WEAK DEFAULT 14 _ZN16C2SupportedRangeImE1
563:   FUNC WEAK DEFAULT 14 _ZNK16C2SupportedFlagsIjE
564:   FUNC WEAK DEFAULT 14 _ZN19C2SupportedValueSetI
565:   FUNC WEAK DEFAULT 14 _ZN25C2ParamFieldValuesBu
566:   FUNC WEAK DEFAULT 14 _ZN16C2SupportedRangeImE1
567:   FUNC WEAK DEFAULT 14 _ZN28C2FieldSupportedValu
568:   FUNC WEAK DEFAULT 14 _ZNSt3__16vectorIhNS_9all
569:   FUNC WEAK DEFAULT 14 _ZlsIhERNSt3__113basic_os
570:   FUNC WEAK DEFAULT 14 _ZNK17C2InterfaceHelper5F
571:   FUNC GLOBAL DEFAULT 14 _ZN9C2Block1DC1ENSt3__110
572:   FUNC GLOBAL DEFAULT 14 _ZN17C2InterfaceHelper11F
573:   FUNC GLOBAL DEFAULT 14 _ZN23C2SettingResultsBuil
574:   FUNC WEAK DEFAULT 14 _ZN16C2SupportedFlagsIcE5
575:   FUNC WEAK DEFAULT 14 _ZN16C2SupportedFlagsIlE4
576:   FUNC WEAK DEFAULT 14 _ZN19C2SupportedValueSetI
577:   FUNC GLOBAL DEFAULT 14 _ZN35C2MasteringDisplayCo
578:   FUNC GLOBAL DEFAULT 14 _ZN7android8hardware8grap
579:   FUNC GLOBAL DEFAULT 14 _ZlsRNSt3__113basic_ostre
580:   FUNC WEAK DEFAULT 14 _ZN16C2SupportedRangeIhE8
581:   FUNC WEAK DEFAULT 14 _ZN25C2ParamFieldValuesBu
582:   FUNC WEAK DEFAULT 14 _ZN25C2ParamFieldValuesBu
583:   FUNC WEAK DEFAULT 14 _ZN25C2ParamFieldValuesBu
584:   FUNC WEAK DEFAULT 14 _ZN19C2SupportedValueSetI
585:   FUNC GLOBAL DEFAULT 14 _ZN12C2FieldUtils8Iterato
586:   FUNC GLOBAL DEFAULT 14 _ZN12C2FieldUtils4ListC1E
587:   FUNC GLOBAL DEFAULT 14 _ZN7android18C2AllocatorG
588:   FUNC GLOBAL DEFAULT 14 _ZN14C2GraphicBlock3mapEv
589:   FUNC GLOBAL DEFAULT 14 _ZN21C2StoreIonUsageStruc
590:   FUNC WEAK DEFAULT 14 _ZN16C2SupportedRangeIlE7
591:   FUNC WEAK DEFAULT 14 _ZN19C2SupportedValueSetI
592:   FUNC WEAK DEFAULT 14 _ZN28C2FieldSupportedValu
593:   FUNC GLOBAL DEFAULT 14 _ZN17C2InterfaceHelper11P
594:   FUNC GLOBAL DEFAULT 14 _ZN22C2BufferQueueBlockPo
595:   OBJECT WEAK DEFAULT 11 _ZN16C2SupportedRangeIhE9
596:   FUNC GLOBAL DEFAULT 14 _ZN23C2SettingResultsBuil
597:   FUNC WEAK DEFAULT 14 _ZN19C2SupportedValueSetI
598:   FUNC WEAK DEFAULT 14 _ZN25C2ParamFieldValuesBu
599:   OBJECT WEAK DEFAULT 11 _ZN16C2SupportedRangeIcE9
600:   FUNC GLOBAL DEFAULT 14 _ZNK7android24C2PlatformC
601:   FUNC WEAK DEFAULT 14 _ZN16C2SupportedFlagsIjEC
602:   FUNC WEAK DEFAULT 14 _ZN25C2ParamFieldValuesBu
603:   FUNC WEAK DEFAULT 14 _ZN25C2ParamFieldValuesBu
604:   FUNC WEAK DEFAULT 14 _ZlsIlERNSt3__113basic_os
605:   FUNC WEAK DEFAULT 14 _ZN25C2ParamFieldValuesBu
606:   FUNC WEAK DEFAULT 14 _ZN16C2SupportedRangeIiEC
607:   FUNC WEAK DEFAULT 14 _ZNK16C2SupportedFlagsIcE
608:   FUNC WEAK DEFAULT 14 _ZN25C2ParamFieldValuesBu
609:   FUNC WEAK DEFAULT 14 _ZN25C2ParamFieldValuesBu
610:   FUNC GLOBAL DEFAULT 14 _ZN7android14C2AllocatorI
611:   FUNC WEAK DEFAULT 14 _ZNK28C2FieldSupportedVal
612:   FUNC GLOBAL DEFAULT 14 _ZN7android18C2AllocatorG
613:   FUNC GLOBAL DEFAULT 14 _ZN13C2LinearBlockC2ENSt3
614:   FUNC GLOBAL DEFAULT 14 _ZN23C2BasicGraphicBlockP
615:   FUNC GLOBAL DEFAULT 14 _Z8asString11c2_status_tP
616:   FUNC GLOBAL DEFAULT 14 _ZlsRNSt3__113basic_ostre
617:   FUNC WEAK DEFAULT 14 _ZNK17C2InterfaceHelper5F
618:   FUNC WEAK DEFAULT 14 _ZN19C2SupportedValueSetI
619:   FUNC WEAK DEFAULT 14 _ZN25C2ParamFieldValuesBu
620:   FUNC WEAK DEFAULT 14 _ZN25C2ParamFieldValuesBu
621:   FUNC WEAK DEFAULT 14 _ZN25C2ParamFieldValuesBu
622:   FUNC GLOBAL DEFAULT 14 _ZN17C2FieldDescriptor14n
623:   FUNC GLOBAL DEFAULT 14 _ZNK17C2InterfaceHelper11
624:   FUNC WEAK DEFAULT 14 _ZN16C2SupportedFlagsIiEC
625:   FUNC WEAK DEFAULT 14 _ZN19C2SupportedValueSetI
626:   OBJECT GLOBAL DEFAULT 23 _ZN12C2RectStruct11_FIELD
627:   OBJECT GLOBAL DEFAULT 23 _ZN17C2ColorInfoStruct11_
628:   FUNC WEAK DEFAULT 14 _ZNK16C2SupportedFlagsIlE
629:   FUNC WEAK DEFAULT 14 _ZN19C2SupportedValueSetI
630:   FUNC WEAK DEFAULT 14 _ZNK19C2SupportedValueSet
631:   OBJECT GLOBAL DEFAULT 23 _ZN37C2FlexiblePixelForma
632:   FUNC WEAK DEFAULT 14 _ZN28C2FieldSupportedValu
633:   FUNC WEAK DEFAULT 14 _ZN16C2SupportedRangeIiE8
634:   FUNC WEAK DEFAULT 14 _ZNK19C2SupportedValueSet
635:   FUNC WEAK DEFAULT 14 _ZN28C2FieldSupportedValu
636:   FUNC GLOBAL DEFAULT 14 _ZN7android14C2AllocatorI
637:   FUNC GLOBAL DEFAULT 14 _ZN7android18C2AllocatorG
638:   FUNC WEAK DEFAULT 14 _ZNK17C2InterfaceHelper5F
639:   FUNC WEAK DEFAULT 14 _ZN16C2SupportedRangeIlEC
640:   FUNC WEAK DEFAULT 14 _ZN25C2ParamFieldValuesBu
641:   FUNC GLOBAL DEFAULT 14 _ZN23C2SettingResultsBuil
642:   FUNC WEAK DEFAULT 14 _ZlsIhERNSt3__113basic_os
643:   FUNC WEAK DEFAULT 14 _ZN16C2SupportedRangeIiE1
644:   FUNC WEAK DEFAULT 14 _ZN16C2SupportedRangeIfE4
645:   FUNC WEAK DEFAULT 14 _ZN25C2ParamFieldValuesBu
646:   OBJECT WEAK DEFAULT 11 _ZN16C2SupportedRangeIiE9
647:   FUNC GLOBAL DEFAULT 14 _ZN11C2WriteViewC2ENSt3__
648:   FUNC WEAK DEFAULT 14 _ZlsIiERNSt3__113basic_os
649:   FUNC WEAK DEFAULT 14 _ZNK16C2SupportedFlagsIcE
650:   FUNC WEAK DEFAULT 14 _ZNK19C2SupportedValueSet
651:   FUNC WEAK DEFAULT 14 _ZN16C2SupportedRangeImE7
652:   FUNC WEAK DEFAULT 14 _ZNK19C2SupportedValueSet
653:   FUNC WEAK DEFAULT 14 _ZN25C2ParamFieldValuesBu
654:   FUNC WEAK DEFAULT 14 _ZN25C2ParamFieldValuesBu
655:   FUNC GLOBAL DEFAULT 14 _ZN14C2GraphicBlockC2ENSt
656:   FUNC GLOBAL DEFAULT 14 _ZN7android24C2PlatformCo
657:   FUNC WEAK DEFAULT 14 _ZNK16C2SupportedRangeIcE
658:   FUNC GLOBAL DEFAULT 14 _ZN17C2FieldDescriptor14n
659:   OBJECT GLOBAL DEFAULT 23 _ZN25C2HdrStaticMetadataS
660:   FUNC GLOBAL DEFAULT 14 _ZNK17C2InterfaceHelper20
661:   FUNC GLOBAL DEFAULT 14 _ZN15_C2BlockFactory24End
662:   FUNC WEAK DEFAULT 14 _ZNK17C2InterfaceHelper5F
663:   FUNC WEAK DEFAULT 14 _ZNK17C2InterfaceHelper5F
664:   FUNC WEAK DEFAULT 14 _ZNK17C2InterfaceHelper5F
665:   FUNC WEAK DEFAULT 14 _ZN16C2SupportedFlagsIlE5
666:   FUNC GLOBAL DEFAULT 14 _ZN25C2SettingConflictsBu
667:   FUNC GLOBAL DEFAULT 14 _ZN8C2Buffer18CreateLinea
668:   FUNC WEAK DEFAULT 14 _ZNK16C2SupportedRangeIhE
669:   FUNC WEAK DEFAULT 14 _ZN25C2ParamFieldValuesBu
670:   FUNC GLOBAL DEFAULT 14 _ZN7android24C2PlatformCo
671:   FUNC GLOBAL DEFAULT 14 _ZN15_C2BlockFactory18Get
672:   FUNC WEAK DEFAULT 14 _ZN28C2FieldSupportedValu
673:   FUNC WEAK DEFAULT 14 _ZNK17C2InterfaceHelper5F
674:   FUNC GLOBAL DEFAULT 14 _ZN17C2InterfaceHelper11P
675:   FUNC WEAK DEFAULT 14 _ZNK17C2InterfaceHelper5F
676:   FUNC WEAK DEFAULT 14 _ZN16C2SupportedFlagsIlEC
677:   FUNC WEAK DEFAULT 14 _ZN19C2SupportedValueSetI
678:   FUNC WEAK DEFAULT 14 _ZN25C2ParamFieldValuesBu
679:   FUNC WEAK DEFAULT 14 _ZN25C2ParamFieldValuesBu
680:   FUNC WEAK DEFAULT 14 _ZN16C2SupportedFlagsIjEC
681:   OBJECT GLOBAL DEFAULT 19 _ZTVN7android24C2Platform
682:   FUNC WEAK DEFAULT 14 _ZNK16C2SupportedFlagsIhE
683:   FUNC WEAK DEFAULT 14 _ZNK25C2ParamFieldValuesB
684:   FUNC WEAK DEFAULT 14 _ZN25C2ParamFieldValuesBu
685:   FUNC WEAK DEFAULT 14 _ZlsIiERNSt3__113basic_os
686:   FUNC WEAK DEFAULT 14 _ZN16C2SupportedRangeIlE3
687:   FUNC WEAK DEFAULT 14 _ZN25C2ParamFieldValuesBu
688:   FUNC WEAK DEFAULT 14 _ZN28C2FieldSupportedValu
689:   FUNC GLOBAL DEFAULT 14 _ZN7android19C2Allocation
690:   FUNC WEAK DEFAULT 14 _ZlsIjERNSt3__113basic_os
691:   FUNC WEAK DEFAULT 14 _ZN25C2ParamFieldValuesBu
692:   FUNC WEAK DEFAULT 14 _ZN25C2ParamFieldValuesBu
693:   FUNC WEAK DEFAULT 14 _ZN25C2ParamFieldValuesBu
694:   FUNC GLOBAL DEFAULT 14 _ZNK10C2ReadView4dataEv
695:   FUNC WEAK DEFAULT 14 _ZNK28C2FieldSupportedVal
696:   FUNC WEAK DEFAULT 14 _ZN28C2FieldSupportedValu
697:   FUNC GLOBAL DEFAULT 14 _ZN10C2ReadViewC1E11c2_st
698:   FUNC GLOBAL DEFAULT 14 _ZN17C2FieldDescriptor14n
699:   FUNC GLOBAL DEFAULT 14 _ZN19C2PictureSizeStruct9
700:   FUNC WEAK DEFAULT 14 _ZN19C2SupportedValueSetI
701:   FUNC WEAK DEFAULT 14 _ZN16C2SupportedRangeImE7
702:   FUNC WEAK DEFAULT 14 _ZNK16C2SupportedFlagsIjE
703:   FUNC WEAK DEFAULT 14 _ZN25C2ParamFieldValuesBu
704:   FUNC WEAK DEFAULT 14 _ZN25C2ParamFieldValuesBu
705:   FUNC GLOBAL DEFAULT 14 _ZNK7android15C2Allocatio
706:   FUNC WEAK DEFAULT 14 _ZNSt3__16__treeINS_12__v
707:   FUNC WEAK DEFAULT 14 _ZNK16C2SupportedRangeIiE
708:   FUNC WEAK DEFAULT 14 _ZN19C2SupportedValueSetI
709:   FUNC WEAK DEFAULT 14 _ZN25C2ParamFieldValuesBu
710:   FUNC GLOBAL DEFAULT 14 _ZN25C2SettingConflictsBu
711:   OBJECT GLOBAL DEFAULT 19 _ZTV22C2BufferQueueBlockP
712:   FUNC GLOBAL DEFAULT 14 _ZNK7android8hardware8gra
713:   FUNC WEAK DEFAULT 14 _ZNK19C2SupportedValueSet
714:   FUNC WEAK DEFAULT 14 _ZN19C2SupportedValueSetI
715:   FUNC GLOBAL DEFAULT 14 _ZN7android18C2AllocatorG
716:   FUNC GLOBAL DEFAULT 14 _ZN17C2PooledBlockPoolC2E
717:   FUNC GLOBAL DEFAULT 14 _ZN22C2BasicLinearBlockPo
718:   FUNC GLOBAL DEFAULT 14 _ZN17C2FieldDescriptor14n
719:   FUNC GLOBAL DEFAULT 14 _ZNK17C2InterfaceHelper20
720:   FUNC GLOBAL DEFAULT 14 _ZN7android15C2Allocation
721:   FUNC GLOBAL DEFAULT 14 _ZNK17C2InterfaceHelper11
722:   FUNC WEAK DEFAULT 14 _ZN16C2SupportedRangeIhE2
723:   FUNC WEAK DEFAULT 14 _ZNK16C2SupportedRangeImE
724:   FUNC WEAK DEFAULT 14 _ZN16C2SupportedFlagsIhEC
725:   FUNC WEAK DEFAULT 14 _ZN25C2ParamFieldValuesBu
726:   FUNC WEAK DEFAULT 14 _ZN25C2ParamFieldValuesBu
727:   OBJECT WEAK DEFAULT 11 _ZN16C2SupportedRangeIlE9
728:   FUNC GLOBAL DEFAULT 14 _ZN20C2ColorAspectsStruct
729:   OBJECT WEAK DEFAULT 11 _ZN16C2SupportedRangeIiE8
730:   FUNC WEAK DEFAULT 14 _ZNK17C2InterfaceHelper5F
731:   FUNC GLOBAL DEFAULT 14 _ZN15C2ColorXyStruct9Fiel
732:   FUNC WEAK DEFAULT 14 _ZNK16C2SupportedRangeIiE
733:   OBJECT WEAK DEFAULT 19 _ZTV25C2ParamFieldValuesB
734:   FUNC WEAK DEFAULT 14 _ZN16C2SupportedRangeIlEC
735:   FUNC GLOBAL DEFAULT 14 _ZN12C2BufferDataC1ERKNSt
736:   FUNC GLOBAL DEFAULT 14 _ZN17C2FieldDescriptor14n
737:   OBJECT GLOBAL DEFAULT 19 _ZTV26C2BufferQueueBlockP
738:   OBJECT WEAK DEFAULT 16 _ZZN22C2BufferQueueBlockP
739:   FUNC WEAK DEFAULT 14 _ZN16C2SupportedRangeIhE1
740:   FUNC WEAK DEFAULT 14 _ZN16C2SupportedRangeImE1
741:   FUNC WEAK DEFAULT 14 _ZNK19C2SupportedValueSet
742:   FUNC WEAK DEFAULT 14 _ZN25C2ParamFieldValuesBu
743:   FUNC WEAK DEFAULT 14 _ZNK25C2ParamFieldValuesB
744:   FUNC WEAK DEFAULT 14 _ZNK28C2FieldSupportedVal
745:   FUNC WEAK DEFAULT 14 _ZN16C2SupportedRangeIiE1
746:   FUNC WEAK DEFAULT 14 _ZN19C2SupportedValueSetI
747:   FUNC WEAK DEFAULT 14 _ZNK19C2SupportedValueSet
748:   FUNC WEAK DEFAULT 14 _ZN16C2SupportedFlagsImEC
749:   FUNC GLOBAL DEFAULT 14 _ZN17C2InterfaceHelperC2E
750:   FUNC WEAK DEFAULT 14 _ZNSt3__124__put_characte
751:   FUNC GLOBAL DEFAULT 14 _ZN17C2InterfaceHelper11P
752:   FUNC WEAK DEFAULT 14 _ZNK16C2SupportedRangeIlE
753:   FUNC WEAK DEFAULT 14 _ZN25C2ParamFieldValuesBu
754:   FUNC WEAK DEFAULT 14 _ZNK16C2SupportedRangeIjE
755:   FUNC WEAK DEFAULT 14 _ZN19C2SupportedValueSetI
756:   FUNC WEAK DEFAULT 14 _ZN28C2FieldSupportedValu
757:   FUNC GLOBAL DEFAULT 14 _ZN23C2SettingResultsBuil
758:   FUNC GLOBAL DEFAULT 14 _ZN17C2InterfaceHelperC1E
759:   FUNC GLOBAL DEFAULT 14 _ZN7android15C2Allocation
760:   FUNC GLOBAL DEFAULT 14 _ZN15_C2BlockFactory23Get
761:   FUNC WEAK DEFAULT 14 _ZN16C2SupportedRangeIfE8
762:   FUNC WEAK DEFAULT 14 _ZNK19C2SupportedValueSet
763:   FUNC WEAK DEFAULT 14 _ZNK25C2ParamFieldValuesB
764:   FUNC GLOBAL DEFAULT 14 _ZN9C2Block2DC2ENSt3__110
765:   FUNC WEAK DEFAULT 14 _ZN25C2ParamFieldValuesBu
766:   FUNC GLOBAL DEFAULT 14 _ZN11C2WriteView4dataEv
767:   FUNC WEAK DEFAULT 14 _ZNK16C2SupportedFlagsIjE
768:   FUNC WEAK DEFAULT 14 _ZN19C2SupportedValueSetI
769:   FUNC WEAK DEFAULT 14 _ZN25C2ParamFieldValuesBu
770:   FUNC WEAK DEFAULT 14 _ZN16C2SupportedRangeIhEC
771:   FUNC WEAK DEFAULT 14 _ZN19C2SupportedValueSetI
772:   FUNC GLOBAL DEFAULT 14 _ZNK12C2FieldUtils4Info10
773:   FUNC GLOBAL DEFAULT 14 _ZN17C2FieldDescriptor14n
774:   FUNC GLOBAL DEFAULT 14 _ZN7android8hardware8grap
775:   FUNC WEAK DEFAULT 14 _ZN19C2SupportedValueSetI
776:   FUNC GLOBAL DEFAULT 14 _ZN17C2FieldDescriptor14n
777:   FUNC GLOBAL DEFAULT 14 _ZN7android31GetCodec2Pla
778:   FUNC GLOBAL DEFAULT 14 _ZN17C2InterfaceHelper11F
779:   FUNC GLOBAL DEFAULT 14 _ZNK16C2SupportedFlagsIfE
780:   FUNC WEAK DEFAULT 14 _ZNK16C2SupportedFlagsImE
781:   FUNC WEAK DEFAULT 14 _ZN19C2SupportedValueSetI
782:   FUNC WEAK DEFAULT 14 _ZN19C2SupportedValueSetI
783:   FUNC WEAK DEFAULT 14 _ZN25C2ParamFieldValuesBu
784:   FUNC WEAK DEFAULT 14 _ZN16C2SupportedRangeImE1
785:   FUNC WEAK DEFAULT 14 _ZNK19C2SupportedValueSet
786:   FUNC WEAK DEFAULT 14 _ZNK28C2FieldSupportedVal
787:   FUNC GLOBAL DEFAULT 14 _ZN7android18C2AllocatorG
788:   FUNC GLOBAL DEFAULT 14 _ZN10C2ReadViewC2E11c2_st
789:   FUNC WEAK DEFAULT 14 _ZNK17C2InterfaceHelper5F
790:   OBJECT GLOBAL DEFAULT 19 _ZTV22_C2BufferPoolAlloca
791:   FUNC GLOBAL DEFAULT 14 _ZNK17C2InterfaceHelper11
792:   FUNC WEAK DEFAULT 14 _ZN16C2SupportedRangeIcE1
793:   FUNC WEAK DEFAULT 14 _ZN28C2FieldSupportedValu
794:   FUNC WEAK DEFAULT 14 _ZNK28C2FieldSupportedVal
795:   FUNC GLOBAL DEFAULT 14 _ZN17C2FieldDescriptor14n
796:   FUNC WEAK DEFAULT 14 _ZN16C2SupportedFlagsImE5
797:   FUNC WEAK DEFAULT 14 _ZN19C2SupportedValueSetI
798:   FUNC WEAK DEFAULT 14 _ZNK19C2SupportedValueSet
799:   FUNC WEAK DEFAULT 14 _ZN25C2ParamFieldValuesBu
800:   FUNC WEAK DEFAULT 14 _ZN17C2InterfaceHelper5Fi
801:   FUNC WEAK DEFAULT 14 _ZN19C2SupportedValueSetI
802:   OBJECT GLOBAL DEFAULT 23 _ZN24C2TemporalLayeringSt
803:   FUNC GLOBAL DEFAULT 14 _ZN22_C2BufferPoolAllocat
804:   FUNC GLOBAL DEFAULT 14 _ZNK8C2Buffer4infoEv
805:   FUNC WEAK DEFAULT 14 _ZN25C2ParamFieldValuesBu
806:   FUNC GLOBAL DEFAULT 14 _ZN17C2InterfaceHelper11P
807:   FUNC GLOBAL DEFAULT 14 _ZN23C2SettingResultsBuil
808:   FUNC WEAK DEFAULT 14 _ZN16C2SupportedRangeIjE3
809:   OBJECT GLOBAL DEFAULT 19 _ZTV17C2InterfaceHelper
810:   FUNC WEAK DEFAULT 14 _ZlsIcERNSt3__113basic_os
811:   FUNC GLOBAL DEFAULT 14 _ZN17C2InterfaceHelper11P
812:   FUNC WEAK DEFAULT 14 _ZNK16C2SupportedRangeIlE
813:   FUNC WEAK DEFAULT 14 _ZN25C2ParamFieldValuesBu
814:   FUNC WEAK DEFAULT 14 _ZN25C2ParamFieldValuesBu
815:   FUNC WEAK DEFAULT 14 _ZN25C2ParamFieldValuesBu
816:   FUNC WEAK DEFAULT 14 _ZNK17C2InterfaceHelper5F
817:   FUNC WEAK DEFAULT 14 _ZN16C2SupportedRangeIcE7
818:   FUNC WEAK DEFAULT 14 _ZNK16C2SupportedRangeIfE
819:   FUNC WEAK DEFAULT 14 _ZN16C2SupportedFlagsImE4
820:   FUNC WEAK DEFAULT 14 _ZN25C2ParamFieldValuesBu
821:   FUNC GLOBAL DEFAULT 14 __cfi_check
822:   FUNC GLOBAL DEFAULT 14 _ZN17C2FieldDescriptor14n
823:   FUNC WEAK DEFAULT 14 _ZN25C2ParamFieldValuesBu
824:   FUNC WEAK DEFAULT 14 _ZN25C2ParamFieldValuesBu
825:   FUNC GLOBAL DEFAULT 14 _ZN12C2FieldUtils11locate
826:   FUNC WEAK DEFAULT 14 _ZN19C2SupportedValueSetI
827:   FUNC GLOBAL DEFAULT 14 _ZNK7android18C2Allocator
828:   FUNC GLOBAL DEFAULT 14 _ZNK10C2ReadView7subViewE
829:   FUNC GLOBAL DEFAULT 14 _Z8asStringN17C2FieldDesc
830:   FUNC WEAK DEFAULT 14 _ZNK19C2SupportedValueSet
831:   FUNC WEAK DEFAULT 14 _ZN17C2InterfaceHelper5Fi
832:   FUNC WEAK DEFAULT 14 _ZN25C2ParamFieldValuesBu
833:   FUNC WEAK DEFAULT 14 _ZN17C2InterfaceHelper5Fi
834:   FUNC WEAK DEFAULT 14 _ZN25C2ParamFieldValuesBu
835:   FUNC GLOBAL DEFAULT 14 _ZN7android15C2Allocation
836:   FUNC GLOBAL DEFAULT 14 _ZN8C2BufferC1ERKNSt3__16
837:   FUNC GLOBAL DEFAULT 14 _ZN27C2PlatformStorePlugi
838:   FUNC GLOBAL DEFAULT 14 _ZN7android31GetCodec2Pla
839:   FUNC GLOBAL DEFAULT 14 _ZNK12C2FieldUtils4Info4s
840:   FUNC WEAK DEFAULT 14 _ZNK16C2SupportedFlagsIcE
841:   FUNC WEAK DEFAULT 14 _ZN16C2SupportedFlagsIlE5
842:   FUNC WEAK DEFAULT 14 _ZN28C2FieldSupportedValu
843:   FUNC WEAK DEFAULT 14 _ZN25C2ParamFieldValuesBu
844:   FUNC WEAK DEFAULT 14 _ZN16C2SupportedFlagsIhEC
845:   FUNC GLOBAL DEFAULT 14 _ZN7android18C2AllocatorG
846:   FUNC WEAK DEFAULT 14 _ZN16C2SupportedFlagsIcE4
847:   FUNC GLOBAL DEFAULT 14 _ZN22C2SettingResultBuild
848:   FUNC WEAK DEFAULT 14 _ZN28C2FieldSupportedValu
849:   FUNC WEAK DEFAULT 14 _ZN28C2FieldSupportedValu
850:   FUNC WEAK DEFAULT 14 _ZN25C2ParamFieldValuesBu
851:   FUNC GLOBAL DEFAULT 14 _ZNK19C2ConstGraphicBlock
852:   FUNC GLOBAL DEFAULT 14 _ZN20C2TimedControlStruct
853:   FUNC GLOBAL DEFAULT 14 _ZN30C2TimestampGapAdjust
854:   FUNC GLOBAL DEFAULT 14 _ZN23C2SettingResultsBuil
855:   FUNC WEAK DEFAULT 14 _ZNK16C2SupportedRangeIjE
856:   FUNC WEAK DEFAULT 14 _ZN19C2SupportedValueSetI
857:   OBJECT WEAK DEFAULT 19 _ZTV25C2ParamFieldValuesB
858:   FUNC WEAK DEFAULT 14 _ZN19C2SupportedValueSetI
859:   FUNC WEAK DEFAULT 14 _ZN16C2SupportedFlagsIiEC
860:   FUNC WEAK DEFAULT 14 _ZN25C2ParamFieldValuesBu
861:   FUNC WEAK DEFAULT 14 _ZN25C2ParamFieldValuesBu
862:   FUNC GLOBAL DEFAULT 14 _ZN7android14C2AllocatorI
863:   FUNC GLOBAL DEFAULT 14 _ZNK9C2Block2D6handleEv
864:   FUNC GLOBAL DEFAULT 14 _ZNK8C2Buffer4dataEv
865:   FUNC WEAK DEFAULT 14 _ZN16C2SupportedFlagsIhEC
866:   FUNC WEAK DEFAULT 14 _ZN16C2SupportedFlagsIlEC
867:   FUNC GLOBAL DEFAULT 14 _ZN7android18GetCodec2Blo
868:   FUNC WEAK DEFAULT 14 _ZN25C2ParamFieldValuesBu
869:   FUNC WEAK DEFAULT 14 _ZNK17C2InterfaceHelper5F
870:   FUNC WEAK DEFAULT 14 _ZN25C2ParamFieldValuesBu
871:   FUNC WEAK DEFAULT 14 _ZN25C2ParamFieldValuesBu
872:   FUNC WEAK DEFAULT 14 _ZN25C2ParamFieldValuesBu
873:   FUNC GLOBAL DEFAULT 14 _ZN22C2BufferQueueBlockPo
874:   FUNC WEAK DEFAULT 14 _ZN16C2SupportedFlagsImE5
875:   FUNC GLOBAL DEFAULT 14 _ZN15_C2BlockFactory29Beg
876:   FUNC GLOBAL DEFAULT 14 _ZNK7android15C2Allocatio
877:   OBJECT GLOBAL DEFAULT 19 _ZTV22C2BasicLinearBlockP
878:   FUNC WEAK DEFAULT 14 _ZNK25C2ParamFieldValuesB
879:   FUNC WEAK DEFAULT 14 _ZlsIcERNSt3__113basic_os
880:   FUNC WEAK DEFAULT 14 _ZN25C2ParamFieldValuesBu
881:   OBJECT WEAK DEFAULT 11 _ZN16C2SupportedRangeIjE9
882:   FUNC WEAK DEFAULT 14 _ZN19C2SupportedValueSetI
883:   FUNC WEAK DEFAULT 14 _ZN28C2FieldSupportedValu
884:   FUNC WEAK DEFAULT 14 _ZN16C2SupportedRangeIhE4
885:   FUNC WEAK DEFAULT 14 _ZNK19C2SupportedValueSet
886:   FUNC WEAK DEFAULT 14 _ZN25C2ParamFieldValuesBu
887:   FUNC GLOBAL DEFAULT 14 _ZNK12C2FieldUtils4Info5i
888:   FUNC WEAK DEFAULT 14 _ZN19C2SupportedValueSetI
889:   FUNC WEAK DEFAULT 14 _ZNK28C2FieldSupportedVal
890:   FUNC WEAK DEFAULT 14 _ZN25C2ParamFieldValuesBu
891:   FUNC GLOBAL DEFAULT 14 _ZN22C2BufferQueueBlockPo
892:   OBJECT WEAK DEFAULT 11 _ZN16C2SupportedRangeIcE8
893:   FUNC WEAK DEFAULT 14 _ZNK19C2SupportedValueSet
894:   FUNC GLOBAL DEFAULT 14 _ZN7android31UnwrapNative
895:   FUNC GLOBAL DEFAULT 14 _ZNK8C2Buffer7getInfoEN7C
896:   FUNC GLOBAL DEFAULT 14 _ZN25C2HdrStaticMetadataS
897:   FUNC GLOBAL DEFAULT 14 _ZNK17C2ReflectorHelper8d
898:   FUNC WEAK DEFAULT 14 _ZN25C2ParamFieldValuesBu
899:   FUNC GLOBAL DEFAULT 14 _ZN15_C2BlockFactory18Cre
900:   FUNC WEAK DEFAULT 14 _ZN25C2ParamFieldValuesBu
901:   FUNC WEAK DEFAULT 14 _ZN19C2SupportedValueSetI
902:   FUNC GLOBAL DEFAULT 14 _ZN25C2SettingConflictsBu
903:   FUNC GLOBAL DEFAULT 14 _ZNK12C2BufferData13graph
904:   FUNC WEAK DEFAULT 14 _ZNK16C2SupportedFlagsIhE
905:   FUNC WEAK DEFAULT 14 _ZN25C2ParamFieldValuesBu
906:   FUNC WEAK DEFAULT 14 _ZNK16C2SupportedRangeIhE
907:   FUNC WEAK DEFAULT 14 _ZN25C2ParamFieldValuesBu
908:   OBJECT GLOBAL DEFAULT 23 _ZN30C2TimestampGapAdjust
909:   FUNC WEAK DEFAULT 14 _ZlsIcERNSt3__113basic_os
910:   FUNC WEAK DEFAULT 14 _ZN25C2ParamFieldValuesBu
911:   FUNC GLOBAL DEFAULT 14 _ZN9C2Block2DC1ENSt3__110
912:   FUNC GLOBAL DEFAULT 14 _ZN17C2FieldDescriptor14n
913:   FUNC GLOBAL DEFAULT 14 _ZNK7android8hardware8gra
914:   FUNC WEAK DEFAULT 14 _ZN17C2InterfaceHelper5Fi
915:   FUNC WEAK DEFAULT 14 _ZN25C2ParamFieldValuesBu
916:   FUNC WEAK DEFAULT 14 _ZlsIfERNSt3__113basic_os
917:   FUNC WEAK DEFAULT 14 _ZN28C2FieldSupportedValu
918:   FUNC WEAK DEFAULT 14 _ZNK16C2SupportedRangeIcE
919:   FUNC WEAK DEFAULT 14 _ZN16C2SupportedFlagsIjEC
920:   FUNC GLOBAL DEFAULT 14 _ZNK7android20C2AndroidMe
921:   FUNC WEAK DEFAULT 14 _ZNK19C2SupportedValueSet
922:   FUNC WEAK DEFAULT 14 _ZN25C2ParamFieldValuesBu
923:   FUNC WEAK DEFAULT 14 _ZN16C2SupportedRangeIhEC
924:   FUNC WEAK DEFAULT 14 _ZNK19C2SupportedValueSet
925:   FUNC WEAK DEFAULT 14 _ZN25C2ParamFieldValuesBu
926:   FUNC GLOBAL DEFAULT 14 _ZNK7android19C2Allocatio
927:   FUNC WEAK DEFAULT 14 _ZN16C2SupportedFlagsIiE5
928:   FUNC WEAK DEFAULT 14 _ZN16C2SupportedFlagsIlE5
929:   FUNC WEAK DEFAULT 14 _ZN25C2ParamFieldValuesBu
930:   FUNC WEAK DEFAULT 14 _ZN25C2ParamFieldValuesBu
931:   OBJECT GLOBAL DEFAULT 23 _ZN20C2ColorAspectsStruct
932:   FUNC WEAK DEFAULT 14 _ZN16C2SupportedFlagsIlEC
933:   FUNC WEAK DEFAULT 14 _ZN25C2ParamFieldValuesBu
934:   FUNC WEAK DEFAULT 14 _ZN25C2ParamFieldValuesBu
935:   FUNC GLOBAL DEFAULT 14 _ZN37C2FlexiblePixelForma
936:   FUNC GLOBAL DEFAULT 14 _ZN17C2FieldDescriptor14n
937:   FUNC GLOBAL DEFAULT 14 _ZlsRNSt3__113basic_ostre
938:   FUNC WEAK DEFAULT 14 _ZlsIiERNSt3__113basic_os
939:   FUNC WEAK DEFAULT 14 _ZN28C2FieldSupportedValu
940:   FUNC WEAK DEFAULT 14 _ZNK19C2SupportedValueSet
941:   FUNC WEAK DEFAULT 14 _ZN25C2ParamFieldValuesBu
942:   OBJECT GLOBAL DEFAULT 19 _ZTVN7android18C2Allocato
943:   FUNC WEAK DEFAULT 14 _ZN16C2SupportedRangeIcE3
944:   FUNC WEAK DEFAULT 14 _ZN19C2SupportedValueSetI
945:   FUNC WEAK DEFAULT 14 _ZN16C2SupportedRangeIiE1
946:   FUNC WEAK DEFAULT 14 _ZN28C2FieldSupportedValu
947:   FUNC WEAK DEFAULT 14 _ZN25C2ParamFieldValuesBu
948:   FUNC WEAK DEFAULT 14 _ZN25C2ParamFieldValuesBu
949:   FUNC WEAK DEFAULT 14 _ZN19C2SupportedValueSetI
950:   OBJECT GLOBAL DEFAULT 23 _ZN16C2GopLayerStruct11_F
951:   FUNC WEAK DEFAULT 14 _ZNK28C2FieldSupportedVal
952:   FUNC WEAK DEFAULT 14 _ZlsIjERNSt3__113basic_os
953:   FUNC WEAK DEFAULT 14 _ZN16C2SupportedRangeIiE7
954:   FUNC WEAK DEFAULT 14 _ZN16C2SupportedFlagsIcEC
955:   FUNC WEAK DEFAULT 14 _ZN16C2SupportedFlagsImEC
956:   OBJECT GLOBAL DEFAULT 23 _ZN20C2TimedControlStruct
957:   FUNC WEAK DEFAULT 14 _ZN28C2FieldSupportedValu
958:   FUNC WEAK DEFAULT 14 _ZNK16C2SupportedRangeIhE
959:   FUNC WEAK DEFAULT 14 _ZNK16C2SupportedFlagsIcE
960:   FUNC WEAK DEFAULT 14 _ZNK28C2FieldSupportedVal
961:   FUNC WEAK DEFAULT 14 _ZN25C2ParamFieldValuesBu
962:   FUNC GLOBAL DEFAULT 14 _ZN7android18C2AllocatorG
963:   FUNC GLOBAL DEFAULT 14 _ZNK18C2ConstLinearBlock3
964:   FUNC GLOBAL DEFAULT 14 _ZN7android8hardware8grap
965:   FUNC WEAK DEFAULT 14 _ZN25C2ParamFieldValuesBu
966:   FUNC WEAK DEFAULT 14 _ZN25C2ParamFieldValuesBu
967:   FUNC GLOBAL DEFAULT 14 _ZN17C2ColorInfoStruct9Fi
968:   FUNC WEAK DEFAULT 14 _ZN25C2ParamFieldValuesBu
969:   FUNC WEAK DEFAULT 14 _ZN16C2SupportedFlagsIhEC
970:   FUNC WEAK DEFAULT 14 _ZN28C2FieldSupportedValu
971:   FUNC WEAK DEFAULT 14 _ZN17C2InterfaceHelper5Fi
972:   FUNC WEAK DEFAULT 14 _ZN19C2SupportedValueSetI
973:   FUNC WEAK DEFAULT 14 _ZN25C2ParamFieldValuesBu
974:   FUNC GLOBAL DEFAULT 14 _ZN17C2FieldDescriptor14n
975:   FUNC WEAK DEFAULT 14 _ZN16C2SupportedRangeIjE1
976:   FUNC WEAK DEFAULT 14 _ZN19C2SupportedValueSetI
977:   FUNC GLOBAL DEFAULT 14 _ZN7android19C2Allocation
978:   FUNC GLOBAL DEFAULT 14 _ZN7android32SetPreferred
979:   FUNC GLOBAL DEFAULT 14 _ZN17C2InterfaceHelper11P
980:   FUNC WEAK DEFAULT 14 _ZNK16C2SupportedFlagsIlE
981:   FUNC GLOBAL DEFAULT 14 _ZN22C2SettingResultBuild
982:   OBJECT WEAK DEFAULT 19 _ZTV25C2ParamFieldValuesB
983:   FUNC WEAK DEFAULT 14 _ZN16C2SupportedFlagsIcEC
984:   FUNC WEAK DEFAULT 14 _ZNK17C2InterfaceHelper5F
985:   FUNC WEAK DEFAULT 14 _ZN28C2FieldSupportedValu
986:   FUNC WEAK DEFAULT 14 _ZN16C2SupportedRangeIfE1
987:   FUNC WEAK DEFAULT 14 _ZN25C2ParamFieldValuesBu
988:   FUNC GLOBAL DEFAULT 14 _ZN25C2SettingConflictsBu
989:   FUNC GLOBAL DEFAULT 14 _ZNK10C2ReadView5errorEv
990:   OBJECT GLOBAL DEFAULT 23 _ZN18C2TileLayoutStruct11
991:   FUNC GLOBAL DEFAULT 14 _ZN7android8hardware8grap
992:   FUNC WEAK DEFAULT 14 _ZN16C2SupportedRangeIjE1
993:   FUNC WEAK DEFAULT 14 _ZN16C2SupportedRangeIfE8
994:   FUNC WEAK DEFAULT 14 _ZNK19C2SupportedValueSet
995:   FUNC WEAK DEFAULT 14 _ZN25C2ParamFieldValuesBu
996:   FUNC GLOBAL DEFAULT 14 _ZN8C2Buffer25unregisterO
997:   FUNC GLOBAL DEFAULT 14 _ZN26C2BufferQueueBlockPo
998:   FUNC WEAK DEFAULT 14 _ZNK16C2SupportedRangeIiE
999:   FUNC WEAK DEFAULT 14 _ZN25C2ParamFieldValuesBu
1000:   FUNC GLOBAL DEFAULT 14 _ZN23C2BasicGraphicBlockP
1001:   FUNC GLOBAL DEFAULT 14 _ZN10C2ReadViewC1ENSt3__1
1002:   FUNC WEAK DEFAULT 14 _ZNK25C2ParamFieldValuesB
1003:   FUNC WEAK DEFAULT 14 _ZlsIlERNSt3__113basic_os
1004:   FUNC WEAK DEFAULT 14 _ZN28C2FieldSupportedValu
1005:   FUNC WEAK DEFAULT 14 _ZN25C2ParamFieldValuesBu
1006:   FUNC GLOBAL DEFAULT 14 _ZN25C2SettingConflictsBu
1007:   FUNC GLOBAL DEFAULT 14 _ZN17C2InterfaceHelper12a
1008:   FUNC WEAK DEFAULT 14 _ZNK16C2SupportedRangeIiE
1009:   FUNC WEAK DEFAULT 14 _ZN28C2FieldSupportedValu
1010:   FUNC WEAK DEFAULT 14 _ZN25C2ParamFieldValuesBu
1011:   OBJECT GLOBAL DEFAULT 23 _ZN19C2PictureSizeStruct1
1012:   FUNC GLOBAL DEFAULT 14 _ZNK17C2InterfaceHelper11
1013:   FUNC WEAK DEFAULT 14 _ZNK17C2InterfaceHelper5F
1014:   FUNC WEAK DEFAULT 14 _ZN19C2SupportedValueSetI
1015:   OBJECT WEAK DEFAULT 11 _ZN16C2SupportedRangeIfE9
1016:   FUNC GLOBAL DEFAULT 14 _ZN7android28C2PlatformAl
1017:   FUNC GLOBAL DEFAULT 14 _ZN15_C2BlockFactory24Hol
1018:   FUNC GLOBAL DEFAULT 14 _ZN7android8hardware8grap
1019:   FUNC WEAK DEFAULT 14 _ZlsIiERNSt3__113basic_os
1020:   FUNC WEAK DEFAULT 14 _ZNK25C2ParamFieldValuesB
1021:   FUNC WEAK DEFAULT 14 _ZN25C2ParamFieldValuesBu
1022:   FUNC GLOBAL DEFAULT 14 _ZN15_C2BlockFactory18Cre
1023:   FUNC GLOBAL DEFAULT 14 _ZN7android8hardware8grap
1024:   FUNC GLOBAL DEFAULT 14 _ZNK17C2InterfaceHelper20
1025:   FUNC WEAK DEFAULT 14 _ZN19C2SupportedValueSetI
1026:   FUNC WEAK DEFAULT 14 _ZN25C2ParamFieldValuesBu
1027:   FUNC GLOBAL DEFAULT 14 _ZNK18C2ConstLinearBlock8
1028:   FUNC WEAK DEFAULT 14 _ZN16C2SupportedFlagsIhEC
1029:   FUNC GLOBAL DEFAULT 14 _ZN22C2BufferQueueBlockPo
1030:   FUNC WEAK DEFAULT 14 _ZN25C2ParamFieldValuesBu
1031:   FUNC WEAK DEFAULT 14 _ZN25C2ParamFieldValuesBu
1032:   FUNC WEAK DEFAULT 14 _ZNK17C2InterfaceHelper5F
1033:   FUNC WEAK DEFAULT 14 _ZN19C2SupportedValueSetI
1034:   FUNC WEAK DEFAULT 14 _ZN25C2ParamFieldValuesBu
1035:   FUNC GLOBAL DEFAULT 14 _ZN13C2GraphicView7subVie
1036:   FUNC GLOBAL DEFAULT 14 _ZN15_C2BlockFactory27End
1037:   FUNC GLOBAL DEFAULT 14 _ZlsRNSt3__113basic_ostre
1038:   FUNC WEAK DEFAULT 14 _ZlsImERNSt3__113basic_os
1039:   FUNC WEAK DEFAULT 14 _ZN25C2ParamFieldValuesBu
1040:   FUNC WEAK DEFAULT 14 _ZN16C2SupportedRangeIjE1
1041:   FUNC GLOBAL DEFAULT 14 _ZNK19C2ConstGraphicBlock
1042:   FUNC WEAK DEFAULT 14 _ZN17C2InterfaceHelper5Fi
1043:   FUNC WEAK DEFAULT 14 _ZN19C2SupportedValueSetI
1044:   FUNC WEAK DEFAULT 14 _ZN25C2ParamFieldValuesBu
1045:   FUNC WEAK DEFAULT 14 _ZN25C2ParamFieldValuesBu
1046:   FUNC GLOBAL DEFAULT 14 _ZN7android24C2PlatformCo
1047:   FUNC WEAK DEFAULT 14 _ZNK28C2FieldSupportedVal
1048:   FUNC GLOBAL DEFAULT 14 _ZN7android14C2AllocatorI
1049:   FUNC GLOBAL DEFAULT 14 _ZNK16C2SupportedFlagsIfE
1050:   FUNC GLOBAL DEFAULT 14 _ZNK12C2FieldUtils4Info6o
1051:   FUNC WEAK DEFAULT 14 _ZN16C2SupportedFlagsIjE5
1052:   FUNC WEAK DEFAULT 14 _ZNK19C2SupportedValueSet
1053:   FUNC WEAK DEFAULT 14 _ZN16C2SupportedRangeIhE1
1054:   FUNC WEAK DEFAULT 14 _ZN16C2SupportedRangeIjE2
1055:   FUNC WEAK DEFAULT 14 _ZN25C2ParamFieldValuesBu
1056:   FUNC GLOBAL DEFAULT 14 _ZN7android24C2PlatformCo
1057:   FUNC GLOBAL DEFAULT 14 _ZlsRNSt3__113basic_ostre
1058:   FUNC WEAK DEFAULT 14 _ZNK17C2InterfaceHelper5F
1059:   FUNC WEAK DEFAULT 14 _ZN16C2SupportedRangeIlE8
1060:   FUNC WEAK DEFAULT 14 _ZN25C2ParamFieldValuesBu
1061:   FUNC WEAK DEFAULT 14 _ZN25C2ParamFieldValuesBu
1062:   FUNC GLOBAL DEFAULT 14 _ZN15_C2BlockFactory22Get
1063:   FUNC GLOBAL DEFAULT 14 _ZN27C2PlatformStorePlugi
1064:   FUNC WEAK DEFAULT 14 _ZN25C2ParamFieldValuesBu
1065:   FUNC GLOBAL DEFAULT 14 _ZN17C2InterfaceHelper11P
1066:   FUNC WEAK DEFAULT 14 _ZN16C2SupportedFlagsIjEC
1067:   FUNC GLOBAL DEFAULT 14 _ZN7android24C2PlatformCo
1068:   FUNC WEAK DEFAULT 14 _ZN25C2ParamFieldValuesBu
1069:   FUNC WEAK DEFAULT 14 _ZN16C2SupportedRangeIfE1
1070:   FUNC WEAK DEFAULT 14 _ZNK16C2SupportedRangeIfE
1071:   FUNC WEAK DEFAULT 14 _ZN25C2ParamFieldValuesBu
1072:   FUNC GLOBAL DEFAULT 14 _ZN17C2InterfaceHelper11P
1073:   FUNC WEAK DEFAULT 14 _ZlsImERNSt3__113basic_os
1074:   FUNC WEAK DEFAULT 14 _ZN19C2SupportedValueSetI
1075:   FUNC WEAK DEFAULT 14 _ZN25C2ParamFieldValuesBu
1076:   FUNC WEAK DEFAULT 14 _ZN25C2ParamFieldValuesBu
1077:   FUNC WEAK DEFAULT 14 _ZN16C2SupportedFlagsIiEC
1078:   FUNC GLOBAL DEFAULT 14 _ZNK7android18C2Allocator
1079:   FUNC WEAK DEFAULT 14 _ZNK17C2InterfaceHelper5F
1080:   FUNC GLOBAL DEFAULT 14 _ZN17C2PooledBlockPoolD2E
1081:   FUNC GLOBAL DEFAULT 14 _ZN11C2WriteViewC1ENSt3__
1082:   FUNC GLOBAL DEFAULT 14 _ZN17C2FieldDescriptor14n
1083:   FUNC WEAK DEFAULT 14 _ZNK19C2SupportedValueSet
1084:   FUNC WEAK DEFAULT 14 _ZN25C2ParamFieldValuesBu
1085:   FUNC WEAK DEFAULT 14 _ZN25C2ParamFieldValuesBu
1086:   FUNC GLOBAL DEFAULT 14 _ZN7android15C2Allocation
1087:   FUNC GLOBAL DEFAULT 14 _ZN20C2ChromaOffsetStruct
1088:   FUNC WEAK DEFAULT 14 _ZNK17C2InterfaceHelper5F
1089:   FUNC WEAK DEFAULT 14 _ZN25C2ParamFieldValuesBu
1090:   FUNC GLOBAL DEFAULT 14 _ZN7android19C2Allocation
1091:   OBJECT GLOBAL DEFAULT 23 _ZN35C2MasteringDisplayCo
1092:   OBJECT WEAK DEFAULT 11 _ZN16C2SupportedRangeIiE9
1093:   FUNC GLOBAL DEFAULT 14 _ZN17C2FieldDescriptor14n
1094:   FUNC WEAK DEFAULT 14 _ZNK16C2SupportedFlagsIlE
1095:   FUNC GLOBAL DEFAULT 14 _ZN7android15C2Allocation
1096:   FUNC GLOBAL DEFAULT 14 _ZN26C2BufferQueueBlockPo
1097:   FUNC WEAK DEFAULT 14 _ZN25C2ParamFieldValuesBu
1098:   FUNC WEAK DEFAULT 14 _ZN25C2ParamFieldValuesBu
1099:   FUNC WEAK DEFAULT 14 _ZN25C2ParamFieldValuesBu
1100:   FUNC GLOBAL DEFAULT 14 _ZN8C2BufferC2ERKNSt3__16
1101:   FUNC WEAK DEFAULT 14 _ZNK19C2SupportedValueSet
1102:   FUNC WEAK DEFAULT 14 _ZN25C2ParamFieldValuesBu
1103:   FUNC GLOBAL DEFAULT 14 _ZNK11C2WriteView5errorEv
1104:   FUNC WEAK DEFAULT 14 _ZNSt3__127__tree_balance
1105:   FUNC GLOBAL DEFAULT 14 _ZN16C2GopLayerStruct9Fie
1106:   FUNC WEAK DEFAULT 14 _ZN17C2InterfaceHelper5Fi
1107:   FUNC WEAK DEFAULT 14 _ZNK16C2SupportedFlagsIiE
1108:   FUNC GLOBAL DEFAULT 14 _ZN7android24C2PlatformCo
1109:   FUNC WEAK DEFAULT 14 _ZN25C2ParamFieldValuesBu
1110:   FUNC WEAK DEFAULT 14 _ZN16C2SupportedFlagsIiE5
1111:   FUNC WEAK DEFAULT 14 _ZN16C2SupportedRangeIcE7
1112:   FUNC WEAK DEFAULT 14 _ZN25C2ParamFieldValuesBu
1113:   FUNC WEAK DEFAULT 14 _ZN25C2ParamFieldValuesBu
1114:   FUNC WEAK DEFAULT 14 _ZN25C2ParamFieldValuesBu
1115:   FUNC WEAK DEFAULT 14 _ZlsIlERNSt3__113basic_os
1116:   FUNC WEAK DEFAULT 14 _ZN17C2InterfaceHelper5Fi
1117:   FUNC WEAK DEFAULT 14 _ZN16C2SupportedRangeIcE1
1118:   FUNC WEAK DEFAULT 14 _ZN25C2ParamFieldValuesBu
1119:   FUNC WEAK DEFAULT 14 _ZN25C2ParamFieldValuesBu
1120:   FUNC GLOBAL DEFAULT 14 _ZNK7android24C2PlatformC
1121:   FUNC GLOBAL DEFAULT 14 _ZN17C2InterfaceHelper11P
1122:   FUNC WEAK DEFAULT 14 _ZN25C2ParamFieldValuesBu
1123:   FUNC WEAK DEFAULT 14 _ZN17C2InterfaceHelper5Fi
1124:   FUNC WEAK DEFAULT 14 _ZN16C2SupportedFlagsIcE5
1125:   FUNC WEAK DEFAULT 14 _ZN25C2ParamFieldValuesBu
1126:   FUNC GLOBAL DEFAULT 14 _ZN17C2FieldDescriptor14n
1127:   OBJECT GLOBAL DEFAULT 19 _ZTVN7android28C2Platform
1128:   FUNC GLOBAL DEFAULT 14 _ZN7android8hardware8grap
1129:   FUNC WEAK DEFAULT 14 _ZNK16C2SupportedFlagsIhE
1130:   FUNC WEAK DEFAULT 14 _ZNK25C2ParamFieldValuesB
1131:   OBJECT WEAK DEFAULT 11 _ZN16C2SupportedRangeIlE8
1132:   FUNC WEAK DEFAULT 14 _ZN19C2SupportedValueSetI
1133:   FUNC GLOBAL DEFAULT 14 _ZN17C2FieldDescriptor14n
1134:   FUNC GLOBAL DEFAULT 14 _ZN7android8hardware8grap
1135:   FUNC WEAK DEFAULT 14 _ZNK17C2InterfaceHelper5F
1136:   FUNC GLOBAL DEFAULT 14 _ZNK12C2FieldUtils8Iterat
1137:   FUNC WEAK DEFAULT 14 _ZN16C2SupportedRangeIjE4
1138:   FUNC WEAK DEFAULT 14 _ZN16C2SupportedRangeIiE4
1139:   FUNC WEAK DEFAULT 14 _ZNK16C2SupportedRangeIlE
1140:   FUNC WEAK DEFAULT 14 _ZN25C2ParamFieldValuesBu
1141:   FUNC WEAK DEFAULT 14 _ZN25C2ParamFieldValuesBu
1142:   FUNC GLOBAL DEFAULT 14 _ZNK12C2FieldUtils4Info5d
1143:   FUNC WEAK DEFAULT 14 _ZNK16C2SupportedFlagsImE
1144:   FUNC WEAK DEFAULT 14 _ZNK19C2SupportedValueSet
1145:   FUNC GLOBAL DEFAULT 14 _ZN7android28C2PlatformAl
1146:   FUNC WEAK DEFAULT 14 _ZN28C2FieldSupportedValu
1147:   FUNC WEAK DEFAULT 14 _ZN25C2ParamFieldValuesBu
1148:   FUNC WEAK DEFAULT 14 _ZN25C2ParamFieldValuesBu
1149:   FUNC GLOBAL DEFAULT 14 _ZNK13C2GraphicView4dataE
1150:   FUNC WEAK DEFAULT 14 _ZNK16C2SupportedFlagsIjE
1151:   FUNC WEAK DEFAULT 14 _ZN28C2FieldSupportedValu
1152:   FUNC GLOBAL DEFAULT 14 _ZN10C2ReadViewC2ENSt3__1
1153:   FUNC WEAK DEFAULT 14 _ZNK17C2InterfaceHelper5F
1154:   FUNC WEAK DEFAULT 14 _ZN17C2InterfaceHelper5Fi
1155:   FUNC WEAK DEFAULT 14 _ZN17C2InterfaceHelper5Fi
1156:   FUNC WEAK DEFAULT 14 _ZN25C2ParamFieldValuesBu
1157:   FUNC WEAK DEFAULT 14 _ZN25C2ParamFieldValuesBu
1158:   FUNC GLOBAL DEFAULT 14 _ZN12C2FieldUtils16enumer
1159:   FUNC GLOBAL DEFAULT 14 _ZN26C2BufferQueueBlockPo
1160:   FUNC WEAK DEFAULT 14 _ZN17C2InterfaceHelper5Fi
1161:   FUNC WEAK DEFAULT 14 _ZN25C2ParamFieldValuesBu
1162:   FUNC WEAK DEFAULT 14 _ZN25C2ParamFieldValuesBu
1163:   FUNC WEAK DEFAULT 14 _ZN16C2SupportedFlagsIjEC
1164:   FUNC GLOBAL DEFAULT 14 _ZNK7android14C2Allocator
1165:   OBJECT GLOBAL DEFAULT 23 _ZN27C2PlatformStorePlugi
1166:   FUNC WEAK DEFAULT 14 _ZN25C2ParamFieldValuesBu
1167:   FUNC GLOBAL DEFAULT 14 _ZN17C2PooledBlockPoolD0E
1168:   FUNC GLOBAL DEFAULT 14 _ZN7android24C2PlatformCo
1169:   FUNC GLOBAL DEFAULT 14 _ZN7android8hardware8grap
1170:   OBJECT GLOBAL DEFAULT 19 _ZTVN12C2FieldUtils4ListE
1171:   FUNC GLOBAL DEFAULT 14 _ZN7android8hardware8grap
1172:   FUNC WEAK DEFAULT 14 _ZNK16C2SupportedRangeIhE
1173:   FUNC WEAK DEFAULT 14 _ZN25C2ParamFieldValuesBu
1174:   FUNC WEAK DEFAULT 14 _ZN16C2SupportedFlagsIcEC
1175:   FUNC GLOBAL DEFAULT 14 _ZN7android19C2Allocation
1176:   FUNC GLOBAL DEFAULT 14 _ZN19C2ConstGraphicBlockC
1177:   FUNC GLOBAL DEFAULT 14 _ZN7android24C2PlatformCo
1178:   FUNC WEAK DEFAULT 14 _ZN16C2SupportedFlagsIhE5
1179:   FUNC GLOBAL DEFAULT 14 _ZN7android18C2AllocatorG
1180:   FUNC WEAK DEFAULT 14 _ZNK16C2SupportedFlagsImE
1181:   FUNC WEAK DEFAULT 14 _ZN16C2SupportedRangeIjE1
1182:   FUNC WEAK DEFAULT 14 _ZNK16C2SupportedRangeImE
1183:   FUNC WEAK DEFAULT 14 _ZNK16C2SupportedFlagsImE
1184:   FUNC GLOBAL DEFAULT 14 _ZNK17C2InterfaceHelper11
1185:   FUNC WEAK DEFAULT 14 _ZNK19C2SupportedValueSet
1186:   FUNC WEAK DEFAULT 14 _ZN25C2ParamFieldValuesBu
1187:   FUNC GLOBAL DEFAULT 14 _ZNK7android15C2Allocatio
1188:   FUNC GLOBAL DEFAULT 14 _ZN9C2Block1DC2ENSt3__110
1189:   OBJECT GLOBAL DEFAULT 23 _ZN24C2SupplementalDataSt
1190:   FUNC WEAK DEFAULT 14 _ZNK19C2SupportedValueSet
1191:   FUNC WEAK DEFAULT 14 _ZN25C2ParamFieldValuesBu
1192:   FUNC WEAK DEFAULT 14 _ZN16C2SupportedFlagsImEC
1193:   OBJECT GLOBAL DEFAULT 19 _ZTVN7android14C2Allocato
1194:   FUNC GLOBAL DEFAULT 14 _ZN13C2GraphicViewC2ENSt3
1195:   FUNC WEAK DEFAULT 14 _ZN17C2InterfaceHelper5Fi
1196:   FUNC WEAK DEFAULT 14 _ZN19C2SupportedValueSetI
1197:   FUNC WEAK DEFAULT 14 _ZN25C2ParamFieldValuesBu
1198:   FUNC WEAK DEFAULT 14 _ZN25C2ParamFieldValuesBu
1199:   FUNC WEAK DEFAULT 14 _ZN25C2ParamFieldValuesBu
1200:   FUNC WEAK DEFAULT 14 _ZN25C2ParamFieldValuesBu
1201:   FUNC WEAK DEFAULT 14 _ZN25C2ParamFieldValuesBu
1202:   FUNC WEAK DEFAULT 14 _ZN25C2ParamFieldValuesBu
1203:   FUNC WEAK DEFAULT 14 _ZN25C2ParamFieldValuesBu
1204:   FUNC GLOBAL DEFAULT 14 _ZN27C2PlatformStorePlugi
1205:   FUNC WEAK DEFAULT 14 _ZNK16C2SupportedRangeIfE
1206:   FUNC WEAK DEFAULT 14 _ZlsIcERNSt3__113basic_os
1207:   FUNC WEAK DEFAULT 14 _ZNK25C2ParamFieldValuesB
1208:   FUNC WEAK DEFAULT 14 _ZN16C2SupportedRangeImE2
1209:   FUNC WEAK DEFAULT 14 _ZN25C2ParamFieldValuesBu
1210:   FUNC GLOBAL DEFAULT 14 _ZNK12C2FieldUtils4Info11
1211:   FUNC WEAK DEFAULT 14 _ZN25C2ParamFieldValuesBu
1212:   FUNC WEAK DEFAULT 14 _ZN16C2SupportedFlagsIiEC
1213:   FUNC WEAK DEFAULT 14 _ZN19C2SupportedValueSetI
1214:   FUNC GLOBAL DEFAULT 14 _ZN8C2Buffer19CreateGraph
1215:   FUNC WEAK DEFAULT 14 _ZNK19C2SupportedValueSet
1216:   FUNC WEAK DEFAULT 14 _ZN25C2ParamFieldValuesBu
1217:   FUNC GLOBAL DEFAULT 14 _ZNK7android14C2Allocator
1218:   FUNC GLOBAL DEFAULT 14 _ZN27C2PlatformStorePlugi
1219:   FUNC WEAK DEFAULT 14 _ZNK19C2SupportedValueSet
1220:   FUNC WEAK DEFAULT 14 _ZN16C2SupportedRangeIhE3
1221:   FUNC WEAK DEFAULT 14 _ZN19C2SupportedValueSetI
1222:   FUNC WEAK DEFAULT 14 _ZN25C2ParamFieldValuesBu
1223:   FUNC WEAK DEFAULT 14 _ZN25C2ParamFieldValuesBu
1224:   FUNC GLOBAL DEFAULT 14 _ZN7android14C2AllocatorI
1225:   FUNC GLOBAL DEFAULT 14 _ZN22_C2BufferPoolAllocat
1226:   FUNC WEAK DEFAULT 14 _ZNK17C2InterfaceHelper5F
1227:   FUNC GLOBAL DEFAULT 14 _ZN20C2ProfileLevelStruct
1228:   FUNC WEAK DEFAULT 14 _ZN19C2SupportedValueSetI
1229:   FUNC GLOBAL DEFAULT 14 _ZN22C2BasicLinearBlockPo
1230:   FUNC GLOBAL DEFAULT 14 _ZN17C2ReflectorHelper19a
1231:   FUNC WEAK DEFAULT 14 _ZN16C2SupportedRangeImE3
1232:   FUNC GLOBAL DEFAULT 14 _ZN13C2GraphicView4dataEv
1233:   OBJECT GLOBAL DEFAULT 19 _ZTV23C2BasicGraphicBlock
1234:   FUNC WEAK DEFAULT 14 _ZN16C2SupportedRangeIcE8
1235:   FUNC WEAK DEFAULT 14 _ZN16C2SupportedFlagsIiEC
1236:   FUNC GLOBAL DEFAULT 14 _ZNK13C2GraphicView6layou
1237:   FUNC GLOBAL DEFAULT 14 _ZN12C2BufferDataC2ERKNSt
1238:   FUNC WEAK DEFAULT 14 _ZNK16C2SupportedFlagsIhE
1239:   FUNC GLOBAL DEFAULT 14 _ZNK12C2FieldUtils8Iterat
1240:   FUNC GLOBAL DEFAULT 14 _ZN17C2PooledBlockPoolC1E
1241:   FUNC WEAK DEFAULT 14 _ZNK16C2SupportedFlagsIlE
1242:   FUNC WEAK DEFAULT 14 _ZNK16C2SupportedFlagsIjE
1243:   FUNC WEAK DEFAULT 14 _ZN25C2ParamFieldValuesBu
1244:   FUNC WEAK DEFAULT 14 _ZN25C2ParamFieldValuesBu
1245:   FUNC GLOBAL DEFAULT 14 _ZN7android24C2PlatformCo
1246:   FUNC WEAK DEFAULT 14 _ZN16C2SupportedRangeIcE1
1247:   FUNC WEAK DEFAULT 14 _ZN19C2SupportedValueSetI
1248:   FUNC WEAK DEFAULT 14 _ZN25C2ParamFieldValuesBu
1249:   OBJECT GLOBAL DEFAULT 19 _ZTV17C2ReflectorHelper
1250:   FUNC WEAK DEFAULT 14 _ZN16C2SupportedRangeIcE1
1251:   FUNC WEAK DEFAULT 14 _ZN16C2SupportedRangeIfE7
1252:   FUNC GLOBAL DEFAULT 14 _ZNK12C2FieldUtils4Info6p
1253:   FUNC GLOBAL DEFAULT 14 _ZN27C2PlatformStorePlugi
1254:   FUNC WEAK DEFAULT 14 _ZN25C2ParamFieldValuesBu
1255:   FUNC GLOBAL DEFAULT 14 _ZN12C2FieldUtils8Iterato
1256:   OBJECT WEAK DEFAULT 19 _ZTV25C2ParamFieldValuesB
1257:   FUNC WEAK DEFAULT 14 _ZN19C2SupportedValueSetI
1258:   FUNC WEAK DEFAULT 14 _ZNK28C2FieldSupportedVal
1259:   FUNC WEAK DEFAULT 14 _ZN25C2ParamFieldValuesBu
1260:   FUNC WEAK DEFAULT 14 _ZN16C2SupportedRangeIlE8
1261:   OBJECT GLOBAL DEFAULT 23 _ZN15C2ColorXyStruct11_FI
1262:   FUNC WEAK DEFAULT 14 _ZN25C2ParamFieldValuesBu
1263:   FUNC WEAK DEFAULT 14 _ZN25C2ParamFieldValuesBu
1264:   FUNC GLOBAL DEFAULT 14 _ZN7android15C2Allocation
1265:   FUNC GLOBAL DEFAULT 14 _ZNK12C2BufferData4typeEv
1266:   OBJECT GLOBAL DEFAULT 19 _ZTVN12C2FieldUtils8Itera
1267:   FUNC WEAK DEFAULT 14 _ZN19C2SupportedValueSetI
1268:   FUNC WEAK DEFAULT 14 _ZN25C2ParamFieldValuesBu
1269:   FUNC GLOBAL DEFAULT 14 _ZNK7android14C2Allocator
1270:   FUNC GLOBAL DEFAULT 14 _ZN11C2WriteView4baseEv
1271:   FUNC WEAK DEFAULT 14 _ZNK17C2InterfaceHelper5F
1272:   FUNC WEAK DEFAULT 14 _ZNK19C2SupportedValueSet
1273:   OBJECT WEAK DEFAULT 11 _ZN16C2SupportedRangeIjE8
1274:   FUNC GLOBAL DEFAULT 14 _ZN7android14C2AllocatorI
1275:   FUNC GLOBAL DEFAULT 14 _ZN7android24C2PlatformCo
1276:   FUNC WEAK DEFAULT 14 _ZlsIfERNSt3__113basic_os
1277:   FUNC WEAK DEFAULT 14 _ZN25C2ParamFieldValuesBu
1278:   FUNC WEAK DEFAULT 14 _ZN16C2SupportedRangeIhE8
1279:   FUNC WEAK DEFAULT 14 _ZN25C2ParamFieldValuesBu
1280:   FUNC WEAK DEFAULT 14 _ZN25C2ParamFieldValuesBu
1281:   FUNC GLOBAL DEFAULT 14 _ZN17C2InterfaceHelper11P
1282:   FUNC GLOBAL DEFAULT 14 _ZNK17C2InterfaceHelper11
1283:   FUNC WEAK DEFAULT 14 _ZN16C2SupportedRangeIjEC
1284:   FUNC WEAK DEFAULT 14 _ZNK16C2SupportedRangeIjE
1285:   FUNC WEAK DEFAULT 14 _ZN19C2SupportedValueSetI
1286:   FUNC WEAK DEFAULT 14 _ZN25C2ParamFieldValuesBu
1287:   FUNC WEAK DEFAULT 14 _ZN25C2ParamFieldValuesBu
1288:   FUNC WEAK DEFAULT 14 _ZN25C2ParamFieldValuesBu
1289:   FUNC GLOBAL DEFAULT 14 _ZN19C2ConstGraphicBlockC
1290:   FUNC WEAK DEFAULT 14 _ZNK25C2ParamFieldValuesB
1291:   FUNC GLOBAL DEFAULT 14 _ZNK12C2FieldUtils4Info6e
1292:   FUNC GLOBAL DEFAULT 14 _ZN19C2OutOfMemoryStruct9
1293:   FUNC WEAK DEFAULT 14 _ZlsIlERNSt3__113basic_os
1294:   FUNC WEAK DEFAULT 14 _ZNK19C2SupportedValueSet
1295:   FUNC WEAK DEFAULT 14 _ZN25C2ParamFieldValuesBu
1296:   FUNC GLOBAL DEFAULT 14 _ZN17C2InterfaceHelper11P
1297:   FUNC GLOBAL DEFAULT 14 _ZNK17C2InterfaceHelper11
1298:   FUNC GLOBAL DEFAULT 14 _ZN7android14C2AllocatorI
1299:   FUNC GLOBAL DEFAULT 14 _ZN19C2WorkOrdinalStruct9
1300:   OBJECT GLOBAL DEFAULT 23 _ZN20C2IntraRefreshStruct
1301:   OBJECT WEAK DEFAULT 11 _ZN16C2SupportedRangeImE9
1302:   FUNC WEAK DEFAULT 14 _ZN19C2SupportedValueSetI
1303:   FUNC GLOBAL DEFAULT 14 _ZN7android24C2PlatformCo
1304:   FUNC GLOBAL DEFAULT 14 _ZlsRNSt3__113basic_ostre
1305:   FUNC WEAK DEFAULT 14 _ZN16C2SupportedRangeIlE1
1306:   FUNC WEAK DEFAULT 14 _ZN16C2SupportedFlagsIjEC
1307:   FUNC WEAK DEFAULT 14 _ZN25C2ParamFieldValuesBu
1308:   FUNC WEAK DEFAULT 14 _ZNK25C2ParamFieldValuesB
1309:   OBJECT WEAK DEFAULT 11 _ZN16C2SupportedRangeIhE9
1310:   OBJECT WEAK DEFAULT 11 _ZN16C2SupportedRangeIfE8
1311:   FUNC GLOBAL DEFAULT 14 _ZN7android29WrapNativeCo
1312:   FUNC GLOBAL DEFAULT 14 _ZNK13C2GraphicView7subVi
1313:   FUNC GLOBAL DEFAULT 14 _ZN17C2FieldDescriptor14n
1314:   FUNC WEAK DEFAULT 14 _ZN16C2SupportedRangeImE8
1315:   FUNC WEAK DEFAULT 14 _ZNK16C2SupportedFlagsIhE
1316:   FUNC WEAK DEFAULT 14 _ZNK19C2SupportedValueSet
1317:   FUNC WEAK DEFAULT 14 _ZN16C2SupportedFlagsIlEC
1318:   FUNC WEAK DEFAULT 14 _ZNK16C2SupportedRangeIfE
1319:   FUNC WEAK DEFAULT 14 _ZN16C2SupportedFlagsIhE5
1320:   FUNC WEAK DEFAULT 14 _ZN28C2FieldSupportedValu
1321:   FUNC WEAK DEFAULT 14 _ZN19C2SupportedValueSetI
1322:   FUNC WEAK DEFAULT 14 _ZNK25C2ParamFieldValuesB
1323:   FUNC GLOBAL DEFAULT 14 _ZN13C2LinearBlock3mapEv
1324:   FUNC WEAK DEFAULT 14 _ZN17C2InterfaceHelper5Fi
1325:   FUNC WEAK DEFAULT 14 _ZN16C2SupportedRangeImE8
1326:   FUNC WEAK DEFAULT 14 _ZN19C2SupportedValueSetI
1327:   FUNC WEAK DEFAULT 14 _ZN25C2ParamFieldValuesBu
1328:   OBJECT WEAK DEFAULT 19 _ZTV25C2ParamFieldValuesB
1329:   FUNC WEAK DEFAULT 14 _ZN16C2SupportedFlagsIcEC
1330:   FUNC GLOBAL DEFAULT 14 _ZNK7android15C2Allocatio
1331:   FUNC GLOBAL DEFAULT 14 _ZN7android18C2AllocatorG
1332:   FUNC GLOBAL DEFAULT 14 _ZN7android24C2PlatformCo
1333:   FUNC WEAK DEFAULT 14 _ZNK19C2SupportedValueSet
1334:   FUNC WEAK DEFAULT 14 _ZN25C2ParamFieldValuesBu
1335:   FUNC GLOBAL DEFAULT 14 _ZN24C2TemporalLayeringSt
1336:   FUNC WEAK DEFAULT 14 _ZlsImERNSt3__113basic_os
1337:   FUNC GLOBAL DEFAULT 14 _ZNK9C2Block1D6handleEv
1338:   FUNC WEAK DEFAULT 14 _ZNK25C2ParamFieldValuesB
1339:   FUNC WEAK DEFAULT 14 _ZN16C2SupportedFlagsIhE4
1340:   FUNC WEAK DEFAULT 14 _ZN16C2SupportedFlagsIcEC
1341:   FUNC WEAK DEFAULT 14 _ZN19C2SupportedValueSetI
1342:   FUNC WEAK DEFAULT 14 _ZN19C2SupportedValueSetI
1343:   FUNC WEAK DEFAULT 14 _ZN16C2SupportedFlagsIlEC
1344:   FUNC WEAK DEFAULT 14 _ZNK25C2ParamFieldValuesB
1345:   FUNC GLOBAL DEFAULT 14 _ZN17C2FieldDescriptor14n
1346:   FUNC WEAK DEFAULT 14 _ZNK25C2ParamFieldValuesB
1347:   FUNC WEAK DEFAULT 14 _ZN25C2ParamFieldValuesBu
1348:   FUNC GLOBAL DEFAULT 14 _ZNK12C2FieldUtils4Info9a
1349:   FUNC GLOBAL DEFAULT 14 _ZN13C2GraphicViewC1ENSt3
1350:   FUNC GLOBAL DEFAULT 14 _ZN12C2RectStruct9FieldLi
1351:   FUNC WEAK DEFAULT 14 _ZN25C2ParamFieldValuesBu
1352:   OBJECT GLOBAL DEFAULT 23 _ZN20C2ProfileLevelStruct
1353:   FUNC WEAK DEFAULT 14 _ZNSt3__16vectorINS_12bas
1354:   FUNC WEAK DEFAULT 14 _ZN16C2SupportedFlagsImEC
1355:   FUNC WEAK DEFAULT 14 _ZN25C2ParamFieldValuesBu
1356:   FUNC GLOBAL DEFAULT 14 _ZN22_C2BufferPoolAllocat
1357:   FUNC WEAK DEFAULT 14 _ZN25C2ParamFieldValuesBu
1358:   FUNC WEAK DEFAULT 14 _ZNK16C2SupportedFlagsIiE
1359:   FUNC WEAK DEFAULT 14 _ZN25C2ParamFieldValuesBu
1360:   FUNC WEAK DEFAULT 14 _ZN25C2ParamFieldValuesBu
1361:   FUNC WEAK DEFAULT 14 _ZNK16C2SupportedFlagsIjE
1362:   FUNC WEAK DEFAULT 14 _ZN16C2SupportedRangeIhE7
1363:   FUNC WEAK DEFAULT 14 _ZN16C2SupportedRangeIfE3
1364:   FUNC WEAK DEFAULT 14 _ZNK19C2SupportedValueSet
1365:   FUNC WEAK DEFAULT 14 _ZN25C2ParamFieldValuesBu
1366:   FUNC GLOBAL DEFAULT 14 _ZNK12C2FieldUtils4Info12
1367:   FUNC WEAK DEFAULT 14 _ZN16C2SupportedRangeIcE8
1368:   FUNC WEAK DEFAULT 14 _ZNK16C2SupportedRangeIjE
1369:   FUNC WEAK DEFAULT 14 _ZN28C2FieldSupportedValu
1370:   FUNC GLOBAL DEFAULT 14 _ZNK12C2FieldUtils4Info11
1371:   FUNC WEAK DEFAULT 14 _ZN16C2SupportedRangeIjEC
1372:   OBJECT GLOBAL DEFAULT 11 _ZN7android11C2HandleIon7
1373:   FUNC GLOBAL DEFAULT 14 _ZN7android18C2AllocatorG
1374:   FUNC GLOBAL DEFAULT 14 _ZN7android21CreateCodec2
1375:   FUNC WEAK DEFAULT 14 _ZN16C2SupportedRangeIlE4
1376:   FUNC WEAK DEFAULT 14 _ZNK16C2SupportedRangeImE
1377:   FUNC WEAK DEFAULT 14 _ZN16C2SupportedFlagsImEC
1378:   FUNC WEAK DEFAULT 14 _ZN25C2ParamFieldValuesBu
1379:   FUNC WEAK DEFAULT 14 _ZNK16C2SupportedRangeIcE
1380:   OBJECT WEAK DEFAULT 19 _ZTV25C2ParamFieldValuesB
1381:   FUNC WEAK DEFAULT 14 _ZN16C2SupportedRangeIcEC
1382:   FUNC GLOBAL DEFAULT 14 _ZN7android14C2AllocatorI
1383:   FUNC GLOBAL DEFAULT 14 _ZN15_C2BlockFactory18Cre
1384:   FUNC GLOBAL DEFAULT 14 _ZNK17C2InterfaceHelper5q
1385:   FUNC WEAK DEFAULT 14 _ZN25C2ParamFieldValuesBu
1386:   FUNC WEAK DEFAULT 14 _ZN16C2SupportedRangeIlE7
1387:   FUNC WEAK DEFAULT 14 _ZN16C2SupportedFlagsIiEC
1388:   FUNC GLOBAL DEFAULT 14 _ZNK7android18C2Allocator
1389:   FUNC WEAK DEFAULT 14 _ZNK17C2InterfaceHelper5F
1390:   FUNC WEAK DEFAULT 14 _ZN19C2SupportedValueSetI
1391:   FUNC WEAK DEFAULT 14 _ZN25C2ParamFieldValuesBu
1392:   FUNC WEAK DEFAULT 14 _ZN25C2ParamFieldValuesBu
1393:   OBJECT WEAK DEFAULT 11 _ZN16C2SupportedRangeIcE9
1394:   FUNC GLOBAL DEFAULT 14 _ZNK7android14C2Allocator
1395:   FUNC GLOBAL DEFAULT 14 _ZN13C2LinearBlock5shareE
1396:   FUNC WEAK DEFAULT 14 _ZNK17C2InterfaceHelper5F
1397:   FUNC WEAK DEFAULT 14 _ZNK17C2InterfaceHelper5F
1398:   FUNC WEAK DEFAULT 14 _ZN25C2ParamFieldValuesBu
1399:   FUNC WEAK DEFAULT 14 _ZN16C2SupportedRangeImEC
1400:   FUNC GLOBAL DEFAULT 14 _ZN17C2FieldDescriptor14n
1401:   FUNC GLOBAL DEFAULT 14 _ZN27C2PlatformStorePlugi
1402:   FUNC GLOBAL DEFAULT 14 _ZN15_C2BlockFactory25Dis
1403:   FUNC WEAK DEFAULT 14 _ZNK16C2SupportedFlagsIlE
1404:   FUNC WEAK DEFAULT 14 _ZN19C2SupportedValueSetI
1405:   FUNC WEAK DEFAULT 14 _ZNK25C2ParamFieldValuesB
