 0x000000000000000e (SONAME)             Library soname: [android.hardware.gnss@1.1.so]
  
Symbol   contains 726 entries:
Num:   Type Bind Vis Ndx Name
0:   NOTYPE LOCAL DEFAULT UND
1:   FUNC GLOBAL DEFAULT UND __cxa_finalize@LIBC (2)
2:   FUNC GLOBAL DEFAULT UND _ZN7android14sp_report_ra
3:   FUNC GLOBAL DEFAULT UND _ZN7android21report_syspr
4:   OBJECT GLOBAL DEFAULT UND _ZN7android4hidl4base4V1_
5:   FUNC GLOBAL DEFAULT UND _ZN7android4hidl4base4V1_
6:   FUNC GLOBAL DEFAULT UND _ZN7android4hidl4base4V1_
7:   FUNC GLOBAL DEFAULT UND _ZN7android4hidl4base4V1_
8:   FUNC GLOBAL DEFAULT UND _ZN7android4hidl4base4V1_
9:   FUNC GLOBAL DEFAULT UND _ZN7android4hidl4base4V1_
10:   FUNC GLOBAL DEFAULT UND _ZN7android4hidl4base4V1_
11:   FUNC GLOBAL DEFAULT UND _ZN7android4hidl4base4V1_
12:   FUNC GLOBAL DEFAULT UND _ZN7android4hidl4base4V1_
13:   FUNC GLOBAL DEFAULT UND _ZN7android4hidl4base4V1_
14:   FUNC GLOBAL DEFAULT UND _ZN7android4hidl4base4V1_
15:   FUNC GLOBAL DEFAULT UND _ZN7android4hidl4base4V1_
16:   FUNC GLOBAL DEFAULT UND _ZN7android4hidl4base4V1_
17:   FUNC GLOBAL DEFAULT UND _ZN7android4hidl4base4V1_
18:   FUNC GLOBAL DEFAULT UND _ZN7android4hidl4base4V1_
19:   FUNC GLOBAL DEFAULT UND _ZN7android4hidl4base4V1_
20:   FUNC GLOBAL DEFAULT UND _ZN7android4hidl4base4V1_
21:   FUNC GLOBAL DEFAULT UND _ZN7android4hidl4base4V1_
22:   FUNC GLOBAL DEFAULT UND _ZN7android4hidl4base4V1_
23:   FUNC GLOBAL DEFAULT UND _ZN7android4hidl4base4V1_
24:   FUNC GLOBAL DEFAULT UND _ZN7android4hidl4base4V1_
25:   FUNC GLOBAL DEFAULT UND _ZN7android4hidl4base4V1_
26:   FUNC GLOBAL DEFAULT UND _ZN7android4hidl4base4V1_
27:   FUNC GLOBAL DEFAULT UND _ZN7android4hidl4base4V1_
28:   FUNC GLOBAL DEFAULT UND _ZN7android7RefBase10onFi
29:   FUNC GLOBAL DEFAULT UND _ZN7android7RefBase12weak
30:   FUNC GLOBAL DEFAULT UND _ZN7android7RefBase13onLa
31:   FUNC GLOBAL DEFAULT UND _ZN7android7RefBase15onLa
32:   FUNC GLOBAL DEFAULT UND _ZN7android7RefBase20onIn
33:   FUNC GLOBAL DEFAULT UND _ZN7android7RefBaseC2Ev
34:   FUNC GLOBAL DEFAULT UND _ZN7android7RefBaseD2Ev
35:   FUNC GLOBAL DEFAULT UND _ZN7android8hardware10IIn
36:   FUNC GLOBAL DEFAULT UND _ZN7android8hardware10IIn
37:   FUNC GLOBAL DEFAULT UND _ZN7android8hardware10IIn
38:   FUNC GLOBAL DEFAULT UND _ZN7android8hardware10IIn
39:   FUNC GLOBAL DEFAULT UND _ZN7android8hardware10IIn
40:   FUNC GLOBAL DEFAULT UND _ZN7android8hardware11BpH
41:   FUNC GLOBAL DEFAULT UND _ZN7android8hardware11BpH
42:   FUNC GLOBAL DEFAULT UND _ZN7android8hardware11BpH
43:   FUNC GLOBAL DEFAULT UND _ZN7android8hardware11BpH
44:   FUNC GLOBAL DEFAULT UND _ZN7android8hardware11BpH
45:   FUNC GLOBAL DEFAULT UND _ZN7android8hardware11BpH
46:   FUNC GLOBAL DEFAULT UND _ZN7android8hardware11BpH
47:   FUNC GLOBAL DEFAULT UND _ZN7android8hardware11hid
48:   FUNC GLOBAL DEFAULT UND _ZN7android8hardware11hid
49:   FUNC GLOBAL DEFAULT UND _ZN7android8hardware11hid
50:   FUNC GLOBAL DEFAULT UND _ZN7android8hardware11hid
51:   FUNC GLOBAL DEFAULT UND _ZN7android8hardware11hid
52:   FUNC GLOBAL DEFAULT UND _ZN7android8hardware12Pro
53:   FUNC GLOBAL DEFAULT UND _ZN7android8hardware12Pro
54:   FUNC GLOBAL DEFAULT UND _ZN7android8hardware13wri
55:   FUNC GLOBAL DEFAULT UND _ZN7android8hardware14rea
56:   FUNC GLOBAL DEFAULT UND _ZN7android8hardware21def
57:   FUNC GLOBAL DEFAULT UND _ZN7android8hardware23get
58:   FUNC GLOBAL DEFAULT UND _ZN7android8hardware27hid
59:   FUNC GLOBAL DEFAULT UND _ZN7android8hardware27hid
60:   OBJECT GLOBAL DEFAULT UND _ZN7android8hardware4gnss
61:   FUNC GLOBAL DEFAULT UND _ZN7android8hardware4gnss
62:   FUNC GLOBAL DEFAULT UND _ZN7android8hardware4gnss
63:   FUNC GLOBAL DEFAULT UND _ZN7android8hardware4gnss
64:   FUNC GLOBAL DEFAULT UND _ZN7android8hardware4gnss
65:   FUNC GLOBAL DEFAULT UND _ZN7android8hardware4gnss
66:   FUNC GLOBAL DEFAULT UND _ZN7android8hardware4gnss
67:   FUNC GLOBAL DEFAULT UND _ZN7android8hardware4gnss
68:   FUNC GLOBAL DEFAULT UND _ZN7android8hardware4gnss
69:   FUNC GLOBAL DEFAULT UND _ZN7android8hardware4gnss
70:   FUNC GLOBAL DEFAULT UND _ZN7android8hardware4gnss
71:   FUNC GLOBAL DEFAULT UND _ZN7android8hardware4gnss
72:   FUNC GLOBAL DEFAULT UND _ZN7android8hardware4gnss
73:   FUNC GLOBAL DEFAULT UND _ZN7android8hardware4gnss
74:   FUNC GLOBAL DEFAULT UND _ZN7android8hardware4gnss
75:   FUNC GLOBAL DEFAULT UND _ZN7android8hardware4gnss
76:   FUNC GLOBAL DEFAULT UND _ZN7android8hardware4gnss
77:   FUNC GLOBAL DEFAULT UND _ZN7android8hardware4gnss
78:   FUNC GLOBAL DEFAULT UND _ZN7android8hardware4gnss
79:   FUNC GLOBAL DEFAULT UND _ZN7android8hardware4gnss
80:   FUNC GLOBAL DEFAULT UND _ZN7android8hardware4gnss
81:   FUNC GLOBAL DEFAULT UND _ZN7android8hardware4gnss
82:   FUNC GLOBAL DEFAULT UND _ZN7android8hardware4gnss
83:   FUNC GLOBAL DEFAULT UND _ZN7android8hardware4gnss
84:   FUNC GLOBAL DEFAULT UND _ZN7android8hardware4gnss
85:   FUNC GLOBAL DEFAULT UND _ZN7android8hardware4gnss
86:   FUNC GLOBAL DEFAULT UND _ZN7android8hardware4gnss
87:   FUNC GLOBAL DEFAULT UND _ZN7android8hardware4gnss
88:   FUNC GLOBAL DEFAULT UND _ZN7android8hardware4gnss
89:   FUNC GLOBAL DEFAULT UND _ZN7android8hardware4gnss
90:   FUNC GLOBAL DEFAULT UND _ZN7android8hardware4gnss
91:   FUNC GLOBAL DEFAULT UND _ZN7android8hardware4gnss
92:   FUNC GLOBAL DEFAULT UND _ZN7android8hardware4gnss
93:   FUNC GLOBAL DEFAULT UND _ZN7android8hardware4gnss
94:   FUNC GLOBAL DEFAULT UND _ZN7android8hardware4gnss
95:   FUNC GLOBAL DEFAULT UND _ZN7android8hardware4gnss
96:   FUNC GLOBAL DEFAULT UND _ZN7android8hardware4gnss
97:   FUNC GLOBAL DEFAULT UND _ZN7android8hardware4gnss
98:   FUNC GLOBAL DEFAULT UND _ZN7android8hardware4gnss
99:   FUNC GLOBAL DEFAULT UND _ZN7android8hardware4gnss
100:   FUNC GLOBAL DEFAULT UND _ZN7android8hardware4gnss
101:   FUNC GLOBAL DEFAULT UND _ZN7android8hardware4gnss
102:   FUNC GLOBAL DEFAULT UND _ZN7android8hardware4gnss
103:   FUNC GLOBAL DEFAULT UND _ZN7android8hardware4gnss
104:   FUNC GLOBAL DEFAULT UND _ZN7android8hardware4gnss
105:   FUNC GLOBAL DEFAULT UND _ZN7android8hardware4gnss
106:   FUNC GLOBAL DEFAULT UND _ZN7android8hardware4gnss
107:   FUNC GLOBAL DEFAULT UND _ZN7android8hardware6Parc
108:   FUNC GLOBAL DEFAULT UND _ZN7android8hardware6Parc
109:   FUNC GLOBAL DEFAULT UND _ZN7android8hardware6Parc
110:   FUNC GLOBAL DEFAULT UND _ZN7android8hardware6Parc
111:   FUNC GLOBAL DEFAULT UND _ZN7android8hardware6Parc
112:   FUNC GLOBAL DEFAULT UND _ZN7android8hardware6Parc
113:   FUNC GLOBAL DEFAULT UND _ZN7android8hardware6Parc
114:   FUNC GLOBAL DEFAULT UND _ZN7android8hardware6Parc
115:   FUNC GLOBAL DEFAULT UND _ZN7android8hardware6Stat
116:   FUNC GLOBAL DEFAULT UND _ZN7android8hardware6Stat
117:   FUNC GLOBAL DEFAULT UND _ZN7android8hardware6Stat
118:   FUNC GLOBAL DEFAULT UND _ZN7android8hardware6Stat
119:   FUNC GLOBAL DEFAULT UND _ZN7android8hardware7IBin
120:   FUNC GLOBAL DEFAULT UND _ZN7android8hardware7IBin
121:   FUNC GLOBAL DEFAULT UND _ZN7android8hardware7IBin
122:   FUNC GLOBAL DEFAULT UND _ZN7android8hardware7IBin
123:   FUNC GLOBAL DEFAULT UND _ZN7android8hardware7deta
124:   FUNC GLOBAL DEFAULT UND _ZN7android8hardware7deta
125:   FUNC GLOBAL DEFAULT UND _ZN7android8hardware7deta
126:   FUNC GLOBAL DEFAULT UND _ZN7android8hardware7deta
127:   FUNC GLOBAL DEFAULT UND _ZN7android8hardware7deta
128:   FUNC GLOBAL DEFAULT UND _ZN7android8hardware7deta
129:   FUNC GLOBAL DEFAULT UND _ZN7android8hardware7deta
130:   OBJECT GLOBAL DEFAULT UND _ZN7android8hardware7deta
131:   FUNC GLOBAL DEFAULT UND _ZN7android8hardware7deta
132:   OBJECT GLOBAL DEFAULT UND _ZN7android8hardware7deta
133:   FUNC GLOBAL DEFAULT UND _ZN7android8hardware7deta
134:   FUNC GLOBAL DEFAULT UND _ZN7android8hardware7deta
135:   FUNC GLOBAL DEFAULT UND _ZN7android8hardware7deta
136:   FUNC GLOBAL DEFAULT UND _ZN7android8hardware7deta
137:   FUNC GLOBAL DEFAULT UND _ZN7android8hardware7deta
138:   FUNC GLOBAL DEFAULT UND _ZN7android8hardware7deta
139:   FUNC GLOBAL DEFAULT UND _ZN7android8hardware7deta
140:   FUNC GLOBAL DEFAULT UND _ZN7android8hardware7deta
141:   FUNC GLOBAL DEFAULT UND _ZN7android8hardware7deta
142:   FUNC GLOBAL DEFAULT UND _ZN7android8hardware7deta
143:   OBJECT GLOBAL DEFAULT UND _ZN7android8hardware7deta
144:   FUNC GLOBAL DEFAULT UND _ZN7android8hardware9BHwB
145:   FUNC GLOBAL DEFAULT UND _ZN7android8hardware9BHwB
146:   FUNC GLOBAL DEFAULT UND _ZN7android8hardware9BHwB
147:   FUNC GLOBAL DEFAULT UND _ZN7android8hardware9BHwB
148:   FUNC GLOBAL DEFAULT UND _ZN7android8hardware9BHwB
149:   FUNC GLOBAL DEFAULT UND _ZN7android8hardware9BHwB
150:   FUNC GLOBAL DEFAULT UND _ZN7android8hardware9BHwB
151:   FUNC GLOBAL DEFAULT UND _ZN7android8hardware9BHwB
152:   FUNC GLOBAL DEFAULT UND _ZN7android8hardware9BHwB
153:   FUNC GLOBAL DEFAULT UND _ZN7android8hardware9BHwB
154:   FUNC GLOBAL DEFAULT UND _ZNK7android7RefBase10cre
155:   FUNC GLOBAL DEFAULT UND _ZNK7android7RefBase11get
156:   FUNC GLOBAL DEFAULT UND _ZNK7android7RefBase9decS
157:   FUNC GLOBAL DEFAULT UND _ZNK7android7RefBase9incS
158:   FUNC GLOBAL DEFAULT UND _ZNK7android8hardware6Par
159:   FUNC GLOBAL DEFAULT UND _ZNK7android8hardware6Par
160:   FUNC GLOBAL DEFAULT UND _ZNK7android8hardware6Par
161:   FUNC GLOBAL DEFAULT UND _ZNK7android8hardware6Par
162:   FUNC GLOBAL DEFAULT UND _ZNK7android8hardware6Par
163:   FUNC GLOBAL DEFAULT UND _ZNK7android8hardware6Par
164:   FUNC GLOBAL DEFAULT UND _ZNK7android8hardware7IBi
165:   FUNC GLOBAL DEFAULT UND _ZNK7android8hardware7det
166:   FUNC GLOBAL DEFAULT UND _ZNK7android8hardware9BHw
167:   FUNC GLOBAL DEFAULT UND _ZNKSt3__120__vector_base
168:   FUNC GLOBAL DEFAULT UND _ZNKSt3__121__basic_strin
169:   FUNC GLOBAL DEFAULT UND _ZNSt3__112basic_stringIc
170:   FUNC GLOBAL DEFAULT UND _ZNSt3__112basic_stringIc
171:   FUNC GLOBAL DEFAULT UND _ZNSt3__15mutex4lockEv
172:   FUNC GLOBAL DEFAULT UND _ZNSt3__15mutex6unlockEv
173:   FUNC GLOBAL DEFAULT UND _ZNSt3__15mutexD1Ev
174:   FUNC GLOBAL DEFAULT UND _ZTv0_n24_N7android4hidl4
175:   FUNC GLOBAL DEFAULT UND _ZTv0_n24_N7android4hidl4
176:   FUNC GLOBAL DEFAULT UND _ZTv0_n24_N7android8hardw
177:   FUNC GLOBAL DEFAULT UND _ZTv0_n24_N7android8hardw
178:   FUNC GLOBAL DEFAULT UND _ZTv0_n24_N7android8hardw
179:   FUNC GLOBAL DEFAULT UND _ZTv0_n24_N7android8hardw
180:   FUNC GLOBAL DEFAULT UND _ZTv0_n24_N7android8hardw
181:   FUNC GLOBAL DEFAULT UND _ZTv0_n24_N7android8hardw
182:   FUNC GLOBAL DEFAULT UND _ZTv0_n24_N7android8hardw
183:   FUNC GLOBAL DEFAULT UND _ZTv0_n24_N7android8hardw
184:   FUNC GLOBAL DEFAULT UND _ZTv0_n32_N7android8hardw
185:   FUNC GLOBAL DEFAULT UND _ZTv0_n40_N7android8hardw
186:   FUNC GLOBAL DEFAULT UND _ZTv0_n48_N7android8hardw
187:   FUNC GLOBAL DEFAULT UND _ZdaPv
188:   FUNC GLOBAL DEFAULT UND _ZdlPv
189:   FUNC GLOBAL DEFAULT UND _Znam
190:   FUNC GLOBAL DEFAULT UND _Znwm
191:   FUNC GLOBAL DEFAULT UND __cxa_pure_virtual
192:   FUNC GLOBAL DEFAULT UND __stack_chk_fail@LIBC (2)
193:   FUNC GLOBAL DEFAULT UND abort@LIBC (2)
194:   FUNC GLOBAL DEFAULT UND atrace_begin_body
195:   OBJECT GLOBAL DEFAULT UND atrace_enabled_tags
196:   FUNC GLOBAL DEFAULT UND atrace_end_body
197:   OBJECT GLOBAL DEFAULT UND atrace_is_ready
198:   FUNC GLOBAL DEFAULT UND atrace_setup
199:   FUNC GLOBAL DEFAULT UND memcmp@LIBC (2)
200:   FUNC GLOBAL DEFAULT UND memcpy@LIBC (2)
201:   FUNC GLOBAL DEFAULT UND memset@LIBC (2)
202:   FUNC GLOBAL DEFAULT UND strlen@LIBC (2)
203:   FUNC GLOBAL DEFAULT UND _ZN7android8hardware21wri
204:   FUNC GLOBAL DEFAULT UND _ZN7android8hardware22rea
205:   OBJECT GLOBAL DEFAULT UND _ZN7android8hardware4gnss
206:   FUNC GLOBAL DEFAULT UND _ZN7android8hardware4gnss
207:   FUNC GLOBAL DEFAULT UND _ZN7android8hardware4gnss
208:   FUNC GLOBAL DEFAULT UND _ZN7android8hardware4gnss
209:   FUNC GLOBAL DEFAULT UND _ZN7android8hardware4gnss
210:   FUNC GLOBAL DEFAULT UND _ZN7android8hardware4gnss
211:   FUNC GLOBAL DEFAULT UND _ZN7android8hardware4gnss
212:   FUNC GLOBAL DEFAULT UND _ZN7android8hardware4gnss
213:   FUNC GLOBAL DEFAULT UND _ZN7android8hardware4gnss
214:   FUNC GLOBAL DEFAULT UND _ZN7android8hardware4gnss
215:   FUNC GLOBAL DEFAULT UND _ZN7android8hardware4gnss
216:   FUNC GLOBAL DEFAULT UND _ZN7android8hardware4gnss
217:   FUNC GLOBAL DEFAULT UND _ZN7android8hardware4gnss
218:   FUNC GLOBAL DEFAULT UND _ZN7android8hardware4gnss
219:   FUNC GLOBAL DEFAULT UND _ZN7android8hardware4gnss
220:   FUNC GLOBAL DEFAULT UND _ZN7android8hardware4gnss
221:   FUNC GLOBAL DEFAULT UND _ZN7android8hardware4gnss
222:   FUNC GLOBAL DEFAULT UND _ZN7android8hardware4gnss
223:   FUNC GLOBAL DEFAULT UND _ZN7android8hardware4gnss
224:   FUNC GLOBAL DEFAULT UND _ZN7android8hardware4gnss
225:   FUNC GLOBAL DEFAULT UND _ZN7android8hardware4gnss
226:   FUNC GLOBAL DEFAULT UND _ZN7android8hardware4gnss
227:   FUNC GLOBAL DEFAULT UND _ZN7android8hardware4gnss
228:   FUNC GLOBAL DEFAULT UND _ZN7android8hardware4gnss
229:   FUNC GLOBAL DEFAULT UND _ZN7android8hardware4gnss
230:   FUNC GLOBAL DEFAULT UND _ZN7android8hardware4gnss
231:   FUNC GLOBAL DEFAULT UND _ZN7android8hardware4gnss
232:   FUNC GLOBAL DEFAULT UND _ZN7android8hardware4gnss
233:   FUNC GLOBAL DEFAULT UND _ZN7android8hardware4gnss
234:   OBJECT GLOBAL DEFAULT UND _ZN7android8hardware4gnss
235:   FUNC GLOBAL DEFAULT UND _ZN7android8hardware4gnss
236:   FUNC GLOBAL DEFAULT UND _ZN7android8hardware4gnss
237:   FUNC GLOBAL DEFAULT UND _ZN7android8hardware4gnss
238:   FUNC GLOBAL DEFAULT UND _ZN7android8hardware4gnss
239:   FUNC GLOBAL DEFAULT UND _ZN7android8hardware4gnss
240:   FUNC GLOBAL DEFAULT UND _ZN7android8hardware4gnss
241:   FUNC GLOBAL DEFAULT UND _ZN7android8hardware4gnss
242:   FUNC GLOBAL DEFAULT UND _ZN7android8hardware4gnss
243:   FUNC GLOBAL DEFAULT UND _ZN7android8hardware4gnss
244:   FUNC GLOBAL DEFAULT UND _ZN7android8hardware4gnss
245:   FUNC GLOBAL DEFAULT UND _ZN7android8hardware4gnss
246:   FUNC GLOBAL DEFAULT UND _ZN7android8hardware4gnss
247:   FUNC GLOBAL DEFAULT UND _ZN7android8hardware4gnss
248:   FUNC GLOBAL DEFAULT UND _ZN7android8hardware4gnss
249:   FUNC GLOBAL DEFAULT UND _ZN7android8hardware4gnss
250:   FUNC GLOBAL DEFAULT UND _ZN7android8hardware4gnss
251:   FUNC GLOBAL DEFAULT UND _ZN7android8hardware4gnss
252:   FUNC GLOBAL DEFAULT UND _ZN7android8hardware4gnss
253:   FUNC GLOBAL DEFAULT UND _ZN7android8hardware4gnss
254:   FUNC GLOBAL DEFAULT UND _ZN7android8hardware4gnss
255:   FUNC GLOBAL DEFAULT UND _ZN7android8hardware4gnss
256:   FUNC GLOBAL DEFAULT UND _ZN7android8hardware4gnss
257:   FUNC GLOBAL DEFAULT UND _ZN7android8hardware4gnss
258:   FUNC GLOBAL DEFAULT UND _ZN7android8hardware4gnss
259:   FUNC GLOBAL DEFAULT UND _ZN7android8hardware6Parc
260:   FUNC GLOBAL DEFAULT UND _ZNK7android8hardware6Par
261:   OBJECT GLOBAL DEFAULT UND _ZN7android8hardware4gnss
262:   FUNC GLOBAL DEFAULT UND _ZN7android8hardware4gnss
263:   FUNC GLOBAL DEFAULT UND _ZN7android8hardware4gnss
264:   FUNC GLOBAL DEFAULT UND _ZN7android8hardware4gnss
265:   FUNC GLOBAL DEFAULT UND _ZN7android8hardware4gnss
266:   FUNC GLOBAL DEFAULT UND _ZN7android8hardware4gnss
267:   FUNC GLOBAL DEFAULT UND _ZN7android8hardware4gnss
268:   FUNC GLOBAL DEFAULT UND _ZN7android8hardware4gnss
269:   FUNC GLOBAL DEFAULT UND _ZN7android8hardware4gnss
270:   FUNC GLOBAL DEFAULT UND _ZN7android8hardware4gnss
271:   FUNC GLOBAL DEFAULT UND _ZN7android8hardware4gnss
272:   FUNC GLOBAL DEFAULT UND _ZN7android8hardware4gnss
273:   FUNC GLOBAL DEFAULT UND _ZN7android8hardware4gnss
274:   FUNC GLOBAL DEFAULT UND _ZN7android8hardware4gnss
275:   FUNC GLOBAL DEFAULT UND _ZN7android8hardware4gnss
276:   FUNC GLOBAL DEFAULT UND _ZN7android8hardware6Parc
277:   FUNC GLOBAL DEFAULT UND _ZNK7android8hardware6Par
278:   OBJECT GLOBAL DEFAULT UND _ZN7android8hardware4gnss
279:   FUNC GLOBAL DEFAULT UND _ZN7android8hardware4gnss
280:   FUNC GLOBAL DEFAULT UND _ZN7android8hardware4gnss
281:   FUNC GLOBAL DEFAULT UND _ZN7android8hardware4gnss
282:   FUNC GLOBAL DEFAULT UND _ZN7android8hardware4gnss
283:   FUNC GLOBAL DEFAULT UND _ZN7android8hardware4gnss
284:   FUNC GLOBAL DEFAULT UND _ZN7android8hardware4gnss
285:   FUNC GLOBAL DEFAULT UND _ZN7android8hardware4gnss
286:   FUNC GLOBAL DEFAULT UND _ZN7android8hardware4gnss
287:   FUNC GLOBAL DEFAULT UND _ZN7android8hardware4gnss
288:   FUNC GLOBAL DEFAULT UND _ZN7android8hardware4gnss
289:   FUNC GLOBAL DEFAULT UND _ZN7android8hardware4gnss
290:   FUNC GLOBAL DEFAULT UND _ZN7android8hardware4gnss
291:   FUNC GLOBAL DEFAULT 14 _ZN7android8hardware4gnss
292:   FUNC WEAK DEFAULT 14 _ZN7android8hardware7deta
293:   FUNC GLOBAL DEFAULT 14 _ZN7android8hardware4gnss
294:   FUNC WEAK DEFAULT 14 _ZN7android8hardware7deta
295:   OBJECT WEAK DEFAULT 18 _ZTVN7android8hardware4gn
296:   FUNC GLOBAL DEFAULT 14 _ZN7android8hardware4gnss
297:   FUNC GLOBAL DEFAULT 14 _ZN7android8hardware4gnss
298:   FUNC GLOBAL DEFAULT 14 _ZN7android8hardware4gnss
299:   FUNC GLOBAL DEFAULT 14 _ZN7android8hardware4gnss
300:   FUNC GLOBAL DEFAULT 14 _ZN7android8hardware4gnss
301:   OBJECT GLOBAL DEFAULT 18 _ZTCN7android8hardware4gn
302:   FUNC GLOBAL DEFAULT 14 _ZN7android8hardware4gnss
303:   OBJECT GLOBAL DEFAULT 18 _ZTTN7android8hardware4gn
304:   OBJECT GLOBAL DEFAULT 18 _ZTCN7android8hardware4gn
305:   FUNC GLOBAL DEFAULT 14 _ZN7android8hardware4gnss
306:   OBJECT GLOBAL DEFAULT 18 _ZTCN7android8hardware4gn
307:   FUNC GLOBAL DEFAULT 14 _ZN7android8hardware4gnss
308:   FUNC GLOBAL DEFAULT 14 _ZN7android8hardware4gnss
309:   FUNC GLOBAL DEFAULT 14 _ZN7android8hardware4gnss
310:   FUNC GLOBAL DEFAULT 14 _ZN7android8hardware4gnss
311:   OBJECT GLOBAL DEFAULT 18 _ZTCN7android8hardware4gn
312:   FUNC WEAK DEFAULT 14 _ZN7android8hardware7deta
313:   OBJECT GLOBAL DEFAULT 18 _ZTCN7android8hardware4gn
314:   FUNC GLOBAL DEFAULT 14 _ZN7android8hardware4gnss
315:   FUNC WEAK DEFAULT 14 _ZNSt3__16vectorIN7androi
316:   OBJECT WEAK DEFAULT 18 _ZTVN7android8hardware4gn
317:   FUNC GLOBAL DEFAULT 14 _ZN7android8hardware4gnss
318:   FUNC GLOBAL DEFAULT 14 _ZN7android8hardware4gnss
319:   FUNC GLOBAL DEFAULT 14 _ZN7android8hardware4gnss
320:   FUNC GLOBAL DEFAULT 14 _ZN7android8hardware4gnss
321:   FUNC GLOBAL DEFAULT 14 _ZN7android8hardware4gnss
322:   FUNC GLOBAL DEFAULT 14 _ZN7android8hardware4gnss
323:   FUNC GLOBAL DEFAULT 14 _ZN7android8hardware4gnss
324:   FUNC WEAK DEFAULT 14 _ZN7android8hardware7deta
325:   FUNC WEAK DEFAULT 14 _ZN7android8hardware7deta
326:   FUNC GLOBAL DEFAULT 14 _ZN7android8hardware4gnss
327:   FUNC WEAK DEFAULT 14 _ZN7android8hardware7deta
328:   FUNC WEAK DEFAULT 14 _ZN7android8hardware10fro
329:   OBJECT WEAK DEFAULT 18 _ZTCN7android8hardware4gn
330:   FUNC GLOBAL DEFAULT 14 _ZN7android8hardware4gnss
331:   FUNC GLOBAL DEFAULT 14 _ZN7android8hardware4gnss
332:   FUNC GLOBAL DEFAULT 14 _ZN7android8hardware4gnss
333:   FUNC WEAK DEFAULT 14 _ZNSt3__127__tree_balance
334:   FUNC GLOBAL DEFAULT 14 _ZN7android8hardware4gnss
335:   FUNC WEAK DEFAULT 14 _ZN7android8hardware10fro
336:   FUNC WEAK DEFAULT 14 _ZN7android8hardware10fro
337:   FUNC GLOBAL DEFAULT 14 _ZN7android8hardware4gnss
338:   FUNC WEAK DEFAULT 14 _ZN7android8hardware7deta
339:   OBJECT GLOBAL DEFAULT 18 _ZTCN7android8hardware4gn
340:   FUNC GLOBAL DEFAULT 14 _ZN7android8hardware4gnss
341:   FUNC GLOBAL DEFAULT 14 _ZN7android8hardware4gnss
342:   FUNC WEAK DEFAULT 14 _ZN7android8hardware7deta
343:   FUNC WEAK DEFAULT 14 _ZNSt3__16vectorINS_8func
344:   FUNC WEAK DEFAULT 14 _ZN7android8hardware7deta
345:   FUNC GLOBAL DEFAULT 14 _ZN7android8hardware4gnss
346:   FUNC GLOBAL DEFAULT 14 _ZN7android8hardware4gnss
347:   FUNC GLOBAL DEFAULT 14 _ZN7android8hardware4gnss
348:   FUNC GLOBAL DEFAULT 14 _ZN7android8hardware4gnss
349:   FUNC GLOBAL DEFAULT 14 _ZN7android8hardware4gnss
350:   OBJECT GLOBAL DEFAULT 18 _ZTCN7android8hardware4gn
351:   OBJECT GLOBAL DEFAULT 18 _ZTCN7android8hardware4gn
352:   FUNC GLOBAL DEFAULT 14 _ZN7android8hardware4gnss
353:   OBJECT GLOBAL DEFAULT 18 _ZTVN7android8hardware4gn
354:   FUNC GLOBAL DEFAULT 14 _ZN7android8hardware4gnss
355:   FUNC GLOBAL DEFAULT 14 _ZN7android8hardware4gnss
356:   FUNC GLOBAL DEFAULT 14 _ZN7android8hardware4gnss
357:   FUNC GLOBAL DEFAULT 14 _ZN7android8hardware4gnss
358:   FUNC GLOBAL DEFAULT 14 _ZN7android8hardware4gnss
359:   FUNC GLOBAL DEFAULT 14 _ZN7android8hardware4gnss
360:   OBJECT GLOBAL DEFAULT 18 _ZTCN7android8hardware4gn
361:   FUNC GLOBAL DEFAULT 14 _ZN7android8hardware4gnss
362:   FUNC GLOBAL DEFAULT 14 _ZN7android8hardware4gnss
363:   FUNC GLOBAL DEFAULT 14 _ZN7android8hardware4gnss
364:   OBJECT GLOBAL DEFAULT 18 _ZTCN7android8hardware4gn
365:   FUNC GLOBAL DEFAULT 14 _ZN7android8hardware4gnss
366:   FUNC GLOBAL DEFAULT 14 _ZN7android8hardware4gnss
367:   FUNC GLOBAL DEFAULT 14 _ZTv0_n24_N7android8hardw
368:   FUNC GLOBAL DEFAULT 14 _ZN7android8hardware4gnss
369:   OBJECT GLOBAL DEFAULT 18 _ZTTN7android8hardware4gn
370:   OBJECT GLOBAL DEFAULT 18 _ZTCN7android8hardware4gn
371:   FUNC GLOBAL DEFAULT 14 _ZN7android8hardware4gnss
372:   OBJECT GLOBAL DEFAULT 18 _ZTCN7android8hardware4gn
373:   FUNC GLOBAL DEFAULT 14 _ZN7android8hardware4gnss
374:   OBJECT GLOBAL DEFAULT 18 _ZTCN7android8hardware4gn
375:   FUNC GLOBAL DEFAULT 14 _ZN7android8hardware4gnss
376:   OBJECT GLOBAL DEFAULT 18 _ZTCN7android8hardware4gn
377:   FUNC GLOBAL DEFAULT 14 _ZN7android8hardware4gnss
378:   FUNC GLOBAL DEFAULT 14 _ZN7android8hardware4gnss
379:   FUNC GLOBAL DEFAULT 14 _ZN7android8hardware4gnss
380:   FUNC GLOBAL DEFAULT 14 _ZN7android8hardware4gnss
381:   FUNC GLOBAL DEFAULT 14 _ZTv0_n24_N7android8hardw
382:   OBJECT GLOBAL DEFAULT 18 _ZTCN7android8hardware4gn
383:   OBJECT GLOBAL DEFAULT 18 _ZTCN7android8hardware4gn
384:   OBJECT GLOBAL DEFAULT 18 _ZTVN7android8hardware4gn
385:   OBJECT GLOBAL DEFAULT 16 _ZN7android8hardware4gnss
386:   FUNC GLOBAL DEFAULT 14 _ZN7android8hardware4gnss
387:   OBJECT GLOBAL DEFAULT 18 _ZTCN7android8hardware4gn
388:   OBJECT GLOBAL DEFAULT 18 _ZTTN7android8hardware4gn
389:   FUNC GLOBAL DEFAULT 14 _ZN7android8hardware4gnss
390:   OBJECT GLOBAL DEFAULT 18 _ZTVN7android8hardware4gn
391:   FUNC GLOBAL DEFAULT 14 _ZN7android8hardware4gnss
392:   FUNC GLOBAL DEFAULT 14 _ZN7android8hardware4gnss
393:   OBJECT GLOBAL DEFAULT 18 _ZTVN7android8hardware4gn
394:   FUNC GLOBAL DEFAULT 14 _ZN7android8hardware4gnss
395:   FUNC GLOBAL DEFAULT 14 _ZTv0_n24_N7android8hardw
396:   FUNC GLOBAL DEFAULT 14 _ZN7android8hardware4gnss
397:   OBJECT WEAK DEFAULT 18 _ZTCN7android8hardware4gn
398:   FUNC GLOBAL DEFAULT 14 _ZN7android8hardware4gnss
399:   OBJECT GLOBAL DEFAULT 18 _ZTCN7android8hardware4gn
400:   FUNC GLOBAL DEFAULT 14 _ZN7android8hardware4gnss
401:   FUNC WEAK DEFAULT 14 _ZN7android8hardware7deta
402:   FUNC GLOBAL DEFAULT 14 _ZTv0_n24_N7android8hardw
403:   FUNC GLOBAL DEFAULT 14 _ZN7android8hardware4gnss
404:   FUNC GLOBAL DEFAULT 14 _ZN7android8hardware4gnss
405:   FUNC GLOBAL DEFAULT 14 _ZThn32_N7android8hardwar
406:   FUNC GLOBAL DEFAULT 14 _ZN7android8hardware4gnss
407:   FUNC GLOBAL DEFAULT 14 _ZN7android8hardware4gnss
408:   FUNC GLOBAL DEFAULT 14 _ZN7android8hardware4gnss
409:   OBJECT GLOBAL DEFAULT 18 _ZTCN7android8hardware4gn
410:   FUNC GLOBAL DEFAULT 14 _ZN7android8hardware4gnss
411:   FUNC GLOBAL DEFAULT 14 _ZN7android8hardware4gnss
412:   FUNC GLOBAL DEFAULT 14 _ZN7android8hardware4gnss
413:   FUNC GLOBAL DEFAULT 14 _ZN7android8hardware4gnss
414:   FUNC GLOBAL DEFAULT 14 _ZN7android8hardware4gnss
415:   OBJECT WEAK DEFAULT 18 _ZTCN7android8hardware4gn
416:   FUNC WEAK DEFAULT 14 _ZN7android8hardware7deta
417:   FUNC WEAK DEFAULT 14 _ZN7android8hardware7deta
418:   OBJECT GLOBAL DEFAULT 18 _ZTCN7android8hardware4gn
419:   FUNC GLOBAL DEFAULT 14 _ZTv0_n24_N7android8hardw
420:   FUNC GLOBAL DEFAULT 14 _ZN7android8hardware4gnss
421:   OBJECT GLOBAL DEFAULT 18 _ZTCN7android8hardware4gn
422:   FUNC GLOBAL DEFAULT 14 _ZTv0_n24_N7android8hardw
423:   FUNC GLOBAL DEFAULT 14 _ZN7android8hardware4gnss
424:   FUNC GLOBAL DEFAULT 14 _ZN7android8hardware4gnss
425:   FUNC GLOBAL DEFAULT 14 _ZN7android8hardware4gnss
426:   OBJECT GLOBAL DEFAULT 18 _ZTTN7android8hardware4gn
427:   OBJECT GLOBAL DEFAULT 18 _ZTCN7android8hardware4gn
428:   FUNC GLOBAL DEFAULT 14 _ZN7android8hardware4gnss
429:   FUNC GLOBAL DEFAULT 14 _ZN7android8hardware4gnss
430:   FUNC GLOBAL DEFAULT 14 _ZN7android8hardware4gnss
431:   FUNC GLOBAL DEFAULT 14 _ZN7android8hardware4gnss
432:   FUNC WEAK DEFAULT 14 _ZN7android8hardware7deta
433:   OBJECT GLOBAL DEFAULT 18 _ZTVN7android8hardware4gn
434:   FUNC GLOBAL DEFAULT 14 _ZN7android8hardware4gnss
435:   FUNC GLOBAL DEFAULT 14 _ZN7android8hardware4gnss
436:   FUNC GLOBAL DEFAULT 14 _ZN7android8hardware4gnss
437:   FUNC WEAK DEFAULT 14 _ZN7android8hardware7deta
438:   FUNC WEAK DEFAULT 14 _ZN7android8hardware7deta
439:   FUNC WEAK DEFAULT 14 _ZNSt3__16__treeINS_12__v
440:   FUNC GLOBAL DEFAULT 14 _ZN7android8hardware4gnss
441:   FUNC GLOBAL DEFAULT 14 _ZTv0_n24_N7android8hardw
442:   OBJECT GLOBAL DEFAULT 18 _ZTCN7android8hardware4gn
443:   FUNC GLOBAL DEFAULT 14 _ZN7android8hardware4gnss
444:   FUNC GLOBAL DEFAULT 14 _ZN7android8hardware4gnss
445:   OBJECT GLOBAL DEFAULT 18 _ZTCN7android8hardware4gn
446:   FUNC GLOBAL DEFAULT 14 _ZN7android8hardware4gnss
447:   FUNC GLOBAL DEFAULT 14 _ZN7android8hardware4gnss
448:   FUNC GLOBAL DEFAULT 14 _ZThn32_N7android8hardwar
449:   FUNC GLOBAL DEFAULT 14 _ZThn32_N7android8hardwar
450:   FUNC GLOBAL DEFAULT 14 _ZN7android8hardware4gnss
451:   FUNC GLOBAL DEFAULT 14 _ZN7android8hardware4gnss
452:   FUNC GLOBAL DEFAULT 14 _ZN7android8hardware4gnss
453:   FUNC WEAK DEFAULT 14 _ZNSt3__16vectorIPvNS_9al
454:   FUNC GLOBAL DEFAULT 14 _ZN7android8hardware4gnss
455:   FUNC GLOBAL DEFAULT 14 _ZN7android8hardware4gnss
456:   FUNC GLOBAL DEFAULT 14 _ZN7android8hardware4gnss
457:   OBJECT GLOBAL DEFAULT 18 _ZTCN7android8hardware4gn
458:   FUNC GLOBAL DEFAULT 14 _ZN7android8hardware4gnss
459:   FUNC GLOBAL DEFAULT 14 _ZN7android8hardware4gnss
460:   FUNC GLOBAL DEFAULT 14 _ZTv0_n24_N7android8hardw
461:   OBJECT GLOBAL DEFAULT 18 _ZTTN7android8hardware4gn
462:   FUNC GLOBAL DEFAULT 14 _ZN7android8hardware4gnss
463:   FUNC GLOBAL DEFAULT 14 _ZN7android8hardware4gnss
464:   FUNC GLOBAL DEFAULT 14 _ZN7android8hardware4gnss
465:   OBJECT GLOBAL DEFAULT 18 _ZTCN7android8hardware4gn
466:   OBJECT GLOBAL DEFAULT 18 _ZTTN7android8hardware4gn
467:   OBJECT GLOBAL DEFAULT 18 _ZTCN7android8hardware4gn
468:   FUNC GLOBAL DEFAULT 14 _ZN7android8hardware4gnss
469:   FUNC GLOBAL DEFAULT 14 _ZN7android8hardware4gnss
470:   FUNC GLOBAL DEFAULT 14 _ZN7android8hardware4gnss
471:   FUNC GLOBAL DEFAULT 14 _ZN7android8hardware4gnss
472:   FUNC WEAK DEFAULT 14 _ZNSt3__16__treeINS_12__v
473:   OBJECT GLOBAL DEFAULT 18 _ZTTN7android8hardware4gn
474:   FUNC GLOBAL DEFAULT 14 _ZN7android8hardware4gnss
475:   FUNC GLOBAL DEFAULT 14 _ZN7android8hardware4gnss
476:   FUNC GLOBAL DEFAULT 14 _ZN7android8hardware4gnss
477:   OBJECT GLOBAL DEFAULT 18 _ZTCN7android8hardware4gn
478:   FUNC GLOBAL DEFAULT 14 _ZN7android8hardware4gnss
479:   OBJECT GLOBAL DEFAULT 18 _ZTCN7android8hardware4gn
480:   FUNC GLOBAL DEFAULT 14 _ZN7android8hardware4gnss
481:   FUNC GLOBAL DEFAULT 14 _ZN7android8hardware4gnss
482:   FUNC GLOBAL DEFAULT 14 _ZN7android8hardware4gnss
483:   FUNC GLOBAL DEFAULT 14 _ZN7android8hardware4gnss
484:   FUNC GLOBAL DEFAULT 14 _ZN7android8hardware4gnss
485:   FUNC WEAK DEFAULT 14 _ZN7android8hardware7deta
486:   OBJECT GLOBAL DEFAULT 18 _ZTVN7android8hardware4gn
487:   FUNC GLOBAL DEFAULT 14 _ZN7android8hardware4gnss
488:   FUNC GLOBAL DEFAULT 14 _ZThn32_N7android8hardwar
489:   FUNC GLOBAL DEFAULT 14 _ZN7android8hardware4gnss
490:   FUNC GLOBAL DEFAULT 14 _ZN7android8hardware4gnss
491:   FUNC GLOBAL DEFAULT 14 _ZN7android8hardware4gnss
492:   FUNC GLOBAL DEFAULT 14 _ZN7android8hardware4gnss
493:   FUNC GLOBAL DEFAULT 14 _ZN7android8hardware4gnss
494:   FUNC GLOBAL DEFAULT 14 _ZN7android8hardware4gnss
495:   FUNC GLOBAL DEFAULT 14 _ZN7android8hardware4gnss
496:   FUNC GLOBAL DEFAULT 14 _ZN7android8hardware4gnss
497:   FUNC GLOBAL DEFAULT 14 _ZN7android8hardware4gnss
498:   FUNC WEAK DEFAULT 14 _ZN7android8hardware7deta
499:   FUNC GLOBAL DEFAULT 14 _ZN7android8hardware4gnss
500:   FUNC GLOBAL DEFAULT 14 _ZN7android8hardware4gnss
501:   FUNC GLOBAL DEFAULT 14 _ZN7android8hardware4gnss
502:   FUNC GLOBAL DEFAULT 14 _ZN7android8hardware4gnss
503:   FUNC GLOBAL DEFAULT 14 _ZN7android8hardware4gnss
504:   FUNC GLOBAL DEFAULT 14 _ZN7android8hardware4gnss
505:   FUNC GLOBAL DEFAULT 14 _ZN7android8hardware4gnss
506:   FUNC WEAK DEFAULT 14 _ZN7android8hardware7deta
507:   OBJECT GLOBAL DEFAULT 18 _ZTVN7android8hardware4gn
508:   FUNC GLOBAL DEFAULT 14 _ZN7android8hardware4gnss
509:   FUNC GLOBAL DEFAULT 14 _ZN7android8hardware4gnss
510:   FUNC GLOBAL DEFAULT 14 _ZThn32_N7android8hardwar
511:   FUNC GLOBAL DEFAULT 14 _ZN7android8hardware4gnss
512:   OBJECT GLOBAL DEFAULT 18 _ZTCN7android8hardware4gn
513:   FUNC GLOBAL DEFAULT 14 _ZN7android8hardware4gnss
514:   OBJECT GLOBAL DEFAULT 18 _ZTTN7android8hardware4gn
515:   FUNC GLOBAL DEFAULT 14 _ZN7android8hardware4gnss
516:   FUNC GLOBAL DEFAULT 14 _ZN7android8hardware4gnss
517:   FUNC GLOBAL DEFAULT 14 _ZN7android8hardware4gnss
518:   OBJECT GLOBAL DEFAULT 18 _ZTCN7android8hardware4gn
519:   OBJECT GLOBAL DEFAULT 16 _ZN7android8hardware4gnss
520:   FUNC GLOBAL DEFAULT 14 _ZN7android8hardware4gnss
521:   FUNC GLOBAL DEFAULT 14 _ZN7android8hardware4gnss
522:   FUNC GLOBAL DEFAULT 14 _ZN7android8hardware4gnss
523:   OBJECT GLOBAL DEFAULT 18 _ZTCN7android8hardware4gn
524:   FUNC GLOBAL DEFAULT 14 _ZN7android8hardware4gnss
525:   FUNC GLOBAL DEFAULT 14 _ZN7android8hardware4gnss
526:   FUNC GLOBAL DEFAULT 14 _ZN7android8hardware4gnss
527:   FUNC GLOBAL DEFAULT 14 _ZN7android8hardware4gnss
528:   FUNC GLOBAL DEFAULT 14 _ZN7android8hardware4gnss
529:   FUNC WEAK DEFAULT 14 _ZN7android8hardware7deta
530:   FUNC WEAK DEFAULT 14 _ZNSt3__16__treeINS_12__v
531:   OBJECT GLOBAL DEFAULT 18 _ZTCN7android8hardware4gn
532:   FUNC GLOBAL DEFAULT 14 _ZN7android8hardware4gnss
533:   FUNC GLOBAL DEFAULT 14 _ZN7android8hardware4gnss
534:   FUNC WEAK DEFAULT 14 _ZN7android8hardware7deta
535:   FUNC GLOBAL DEFAULT 14 _ZN7android8hardware4gnss
536:   FUNC GLOBAL DEFAULT 14 _ZN7android8hardware4gnss
537:   OBJECT GLOBAL DEFAULT 18 _ZTTN7android8hardware4gn
538:   OBJECT GLOBAL DEFAULT 18 _ZTCN7android8hardware4gn
539:   OBJECT GLOBAL DEFAULT 18 _ZTTN7android8hardware4gn
540:   OBJECT GLOBAL DEFAULT 18 _ZTTN7android8hardware4gn
541:   FUNC GLOBAL DEFAULT 14 _ZN7android8hardware4gnss
542:   OBJECT GLOBAL DEFAULT 18 _ZTCN7android8hardware4gn
543:   FUNC GLOBAL DEFAULT 14 _ZN7android8hardware4gnss
544:   FUNC GLOBAL DEFAULT 14 _ZN7android8hardware4gnss
545:   FUNC GLOBAL DEFAULT 14 _ZN7android8hardware4gnss
546:   FUNC GLOBAL DEFAULT 14 _ZN7android8hardware4gnss
547:   FUNC GLOBAL DEFAULT 14 _ZN7android8hardware4gnss
548:   FUNC GLOBAL DEFAULT 14 _ZN7android8hardware4gnss
549:   FUNC GLOBAL DEFAULT 14 _ZN7android8hardware4gnss
550:   FUNC GLOBAL DEFAULT 14 _ZThn32_N7android8hardwar
551:   FUNC GLOBAL DEFAULT 14 _ZN7android8hardware4gnss
552:   FUNC GLOBAL DEFAULT 14 _ZN7android8hardware4gnss
553:   OBJECT GLOBAL DEFAULT 18 _ZTCN7android8hardware4gn
554:   FUNC GLOBAL DEFAULT 14 _ZN7android8hardware4gnss
555:   OBJECT GLOBAL DEFAULT 18 _ZTTN7android8hardware4gn
556:   FUNC GLOBAL DEFAULT 14 _ZN7android8hardware4gnss
557:   FUNC GLOBAL DEFAULT 14 _ZN7android8hardware4gnss
558:   FUNC GLOBAL DEFAULT 14 _ZN7android8hardware4gnss
559:   OBJECT GLOBAL DEFAULT 18 _ZTCN7android8hardware4gn
560:   FUNC GLOBAL DEFAULT 14 _ZThn32_N7android8hardwar
561:   FUNC GLOBAL DEFAULT 14 _ZN7android8hardware4gnss
562:   FUNC GLOBAL DEFAULT 14 _ZN7android8hardware4gnss
563:   FUNC WEAK DEFAULT 14 _ZNSt3__16__treeINS_12__v
564:   FUNC GLOBAL DEFAULT 14 _ZN7android8hardware4gnss
565:   OBJECT GLOBAL DEFAULT 18 _ZTCN7android8hardware4gn
566:   FUNC GLOBAL DEFAULT 14 _ZN7android8hardware4gnss
567:   OBJECT GLOBAL DEFAULT 18 _ZTVN7android8hardware4gn
568:   FUNC GLOBAL DEFAULT 14 _ZN7android8hardware4gnss
569:   FUNC GLOBAL DEFAULT 14 _ZN7android8hardware4gnss
570:   FUNC GLOBAL DEFAULT 14 _ZN7android8hardware4gnss
571:   FUNC GLOBAL DEFAULT 14 _ZN7android8hardware4gnss
572:   FUNC GLOBAL DEFAULT 14 _ZN7android8hardware4gnss
573:   FUNC GLOBAL DEFAULT 14 _ZN7android8hardware4gnss
574:   FUNC GLOBAL DEFAULT 14 _ZN7android8hardware4gnss
575:   FUNC WEAK DEFAULT 14 _ZNSt3__113__tree_removeI
576:   FUNC GLOBAL DEFAULT 14 _ZN7android8hardware4gnss
577:   FUNC GLOBAL DEFAULT 14 _ZN7android8hardware4gnss
578:   OBJECT GLOBAL DEFAULT 18 _ZTCN7android8hardware4gn
579:   FUNC GLOBAL DEFAULT 14 _ZN7android8hardware4gnss
580:   FUNC GLOBAL DEFAULT 14 _ZN7android8hardware4gnss
581:   OBJECT WEAK DEFAULT 18 _ZTVN7android8hardware4gn
582:   OBJECT WEAK DEFAULT 18 _ZTCN7android8hardware4gn
583:   FUNC GLOBAL DEFAULT 14 _ZN7android8hardware4gnss
584:   FUNC GLOBAL DEFAULT 14 _ZN7android8hardware4gnss
585:   FUNC GLOBAL DEFAULT 14 _ZN7android8hardware4gnss
586:   FUNC GLOBAL DEFAULT 14 _ZN7android8hardware4gnss
587:   FUNC WEAK DEFAULT 14 _ZN7android8hardware7deta
588:   OBJECT GLOBAL DEFAULT 18 _ZTVN7android8hardware4gn
589:   FUNC GLOBAL DEFAULT 14 _ZN7android8hardware4gnss
590:   OBJECT GLOBAL DEFAULT 18 _ZTCN7android8hardware4gn
591:   FUNC GLOBAL DEFAULT 14 _ZN7android8hardware4gnss
592:   FUNC GLOBAL DEFAULT 14 _ZThn32_N7android8hardwar
593:   FUNC GLOBAL DEFAULT 14 _ZN7android8hardware4gnss
594:   FUNC GLOBAL DEFAULT 14 _ZN7android8hardware4gnss
595:   FUNC GLOBAL DEFAULT 14 _ZN7android8hardware4gnss
596:   FUNC WEAK DEFAULT 14 _ZN7android8hardware7deta
597:   FUNC GLOBAL DEFAULT 14 _ZN7android8hardware4gnss
598:   FUNC GLOBAL DEFAULT 14 _ZN7android8hardware4gnss
599:   FUNC GLOBAL DEFAULT 14 _ZN7android8hardware4gnss
600:   OBJECT GLOBAL DEFAULT 18 _ZTTN7android8hardware4gn
601:   OBJECT GLOBAL DEFAULT 16 _ZN7android8hardware4gnss
602:   FUNC GLOBAL DEFAULT 14 _ZN7android8hardware4gnss
603:   OBJECT GLOBAL DEFAULT 18 _ZTCN7android8hardware4gn
604:   FUNC GLOBAL DEFAULT 14 _ZN7android8hardware4gnss
605:   FUNC GLOBAL DEFAULT 14 _ZN7android8hardware4gnss
606:   FUNC GLOBAL DEFAULT 14 _ZN7android8hardware4gnss
607:   FUNC GLOBAL DEFAULT 14 _ZN7android8hardware4gnss
608:   OBJECT GLOBAL DEFAULT 18 _ZTCN7android8hardware4gn
609:   FUNC GLOBAL DEFAULT 14 _ZN7android8hardware4gnss
610:   FUNC GLOBAL DEFAULT 14 _ZN7android8hardware4gnss
611:   FUNC GLOBAL DEFAULT 14 _ZN7android8hardware4gnss
612:   OBJECT GLOBAL DEFAULT 18 _ZTTN7android8hardware4gn
613:   OBJECT GLOBAL DEFAULT 18 _ZTVN7android8hardware4gn
614:   FUNC GLOBAL DEFAULT 14 _ZN7android8hardware4gnss
615:   FUNC GLOBAL DEFAULT 14 _ZN7android8hardware4gnss
616:   FUNC GLOBAL DEFAULT 14 _ZN7android8hardware4gnss
617:   OBJECT GLOBAL DEFAULT 16 _ZN7android8hardware4gnss
618:   FUNC GLOBAL DEFAULT 14 _ZN7android8hardware4gnss
619:   FUNC GLOBAL DEFAULT 14 _ZN7android8hardware4gnss
620:   OBJECT GLOBAL DEFAULT 18 _ZTVN7android8hardware4gn
621:   FUNC GLOBAL DEFAULT 14 _ZN7android8hardware4gnss
622:   OBJECT GLOBAL DEFAULT 18 _ZTCN7android8hardware4gn
623:   FUNC GLOBAL DEFAULT 14 _ZN7android8hardware4gnss
624:   OBJECT GLOBAL DEFAULT 18 _ZTTN7android8hardware4gn
625:   FUNC GLOBAL DEFAULT 14 _ZN7android8hardware4gnss
626:   FUNC GLOBAL DEFAULT 14 _ZN7android8hardware4gnss
627:   FUNC GLOBAL DEFAULT 14 _ZN7android8hardware4gnss
628:   FUNC GLOBAL DEFAULT 14 _ZN7android8hardware4gnss
629:   FUNC GLOBAL DEFAULT 14 _ZN7android8hardware4gnss
630:   FUNC WEAK DEFAULT 14 _ZN7android8hardware7deta
631:   OBJECT GLOBAL DEFAULT 18 _ZTCN7android8hardware4gn
632:   FUNC GLOBAL DEFAULT 14 _ZN7android8hardware4gnss
633:   FUNC GLOBAL DEFAULT 14 _ZN7android8hardware4gnss
634:   FUNC GLOBAL DEFAULT 14 _ZN7android8hardware4gnss
635:   OBJECT GLOBAL DEFAULT 18 _ZTCN7android8hardware4gn
636:   FUNC GLOBAL DEFAULT 14 _ZN7android8hardware4gnss
637:   OBJECT WEAK DEFAULT 18 _ZTVN7android8hardware4gn
638:   FUNC GLOBAL DEFAULT 14 _ZN7android8hardware4gnss
639:   FUNC GLOBAL DEFAULT 14 _ZN7android8hardware4gnss
640:   OBJECT GLOBAL DEFAULT 16 _ZN7android8hardware4gnss
641:   OBJECT GLOBAL DEFAULT 18 _ZTCN7android8hardware4gn
642:   FUNC GLOBAL DEFAULT 14 _ZN7android8hardware4gnss
643:   FUNC GLOBAL DEFAULT 14 _ZN7android8hardware4gnss
644:   FUNC GLOBAL DEFAULT 14 _ZN7android8hardware4gnss
645:   OBJECT GLOBAL DEFAULT 18 _ZTVN7android8hardware4gn
646:   FUNC GLOBAL DEFAULT 14 _ZN7android8hardware4gnss
647:   FUNC WEAK DEFAULT 14 _ZNSt3__16__treeINS_12__v
648:   FUNC GLOBAL DEFAULT 14 _ZN7android8hardware4gnss
649:   FUNC GLOBAL DEFAULT 14 _ZN7android8hardware4gnss
650:   FUNC WEAK DEFAULT 14 _ZN7android8hardware7deta
651:   FUNC GLOBAL DEFAULT 14 _ZN7android8hardware4gnss
652:   FUNC GLOBAL DEFAULT 14 _ZN7android8hardware4gnss
653:   FUNC GLOBAL DEFAULT 14 _ZN7android8hardware4gnss
654:   FUNC GLOBAL DEFAULT 14 _ZN7android8hardware4gnss
655:   FUNC GLOBAL DEFAULT 14 _ZN7android8hardware4gnss
656:   FUNC GLOBAL DEFAULT 14 _ZN7android8hardware4gnss
657:   FUNC GLOBAL DEFAULT 14 _ZN7android8hardware4gnss
658:   OBJECT GLOBAL DEFAULT 18 _ZTCN7android8hardware4gn
659:   OBJECT GLOBAL DEFAULT 18 _ZTCN7android8hardware4gn
660:   FUNC GLOBAL DEFAULT 14 _ZN7android8hardware4gnss
661:   FUNC GLOBAL DEFAULT 14 _ZN7android8hardware4gnss
662:   FUNC WEAK DEFAULT 14 _ZN7android8hardware7deta
663:   OBJECT GLOBAL DEFAULT 18 _ZTCN7android8hardware4gn
664:   FUNC GLOBAL DEFAULT 14 _ZN7android8hardware4gnss
665:   FUNC WEAK DEFAULT 14 _ZN7android8hardware7deta
666:   FUNC GLOBAL DEFAULT 14 _ZN7android8hardware4gnss
667:   FUNC GLOBAL DEFAULT 14 _ZN7android8hardware4gnss
668:   FUNC GLOBAL DEFAULT 14 _ZN7android8hardware4gnss
669:   FUNC GLOBAL DEFAULT 14 _ZN7android8hardware4gnss
670:   FUNC GLOBAL DEFAULT 14 _ZN7android8hardware4gnss
671:   FUNC GLOBAL DEFAULT 14 _ZN7android8hardware4gnss
672:   FUNC WEAK DEFAULT 14 _ZN7android8hardware10fro
673:   FUNC GLOBAL DEFAULT 14 _ZN7android8hardware4gnss
674:   OBJECT GLOBAL DEFAULT 18 _ZTCN7android8hardware4gn
675:   FUNC GLOBAL DEFAULT 14 _ZN7android8hardware4gnss
676:   FUNC GLOBAL DEFAULT 14 _ZN7android8hardware4gnss
677:   FUNC GLOBAL DEFAULT 14 _ZN7android8hardware4gnss
678:   FUNC WEAK DEFAULT 14 _ZN7android8hardware7deta
679:   FUNC GLOBAL DEFAULT 14 _ZTv0_n24_N7android8hardw
680:   OBJECT GLOBAL DEFAULT 18 _ZTCN7android8hardware4gn
681:   FUNC GLOBAL DEFAULT 14 _ZN7android8hardware4gnss
682:   FUNC GLOBAL DEFAULT 14 _ZN7android8hardware4gnss
683:   OBJECT GLOBAL DEFAULT 18 _ZTCN7android8hardware4gn
684:   FUNC GLOBAL DEFAULT 14 _ZN7android8hardware4gnss
685:   FUNC GLOBAL DEFAULT 14 _ZN7android8hardware4gnss
686:   FUNC GLOBAL DEFAULT 14 _ZN7android8hardware4gnss
687:   FUNC GLOBAL DEFAULT 14 _ZN7android8hardware4gnss
688:   FUNC GLOBAL DEFAULT 14 _ZN7android8hardware4gnss
689:   FUNC GLOBAL DEFAULT 14 _ZN7android8hardware4gnss
690:   OBJECT GLOBAL DEFAULT 18 _ZTVN7android8hardware4gn
691:   FUNC WEAK DEFAULT 14 _ZN7android8hardware7deta
692:   FUNC GLOBAL DEFAULT 14 _ZThn32_N7android8hardwar
693:   OBJECT GLOBAL DEFAULT 18 _ZTCN7android8hardware4gn
694:   FUNC GLOBAL DEFAULT 14 _ZN7android8hardware4gnss
695:   OBJECT GLOBAL DEFAULT 18 _ZTCN7android8hardware4gn
696:   FUNC GLOBAL DEFAULT 14 _ZN7android8hardware4gnss
697:   FUNC GLOBAL DEFAULT 14 _ZN7android8hardware4gnss
698:   FUNC GLOBAL DEFAULT 14 _ZN7android8hardware4gnss
699:   FUNC GLOBAL DEFAULT 14 _ZN7android8hardware4gnss
700:   FUNC WEAK DEFAULT 14 _ZNSt3__16__treeINS_12__v
701:   FUNC GLOBAL DEFAULT 14 _ZN7android8hardware4gnss
702:   OBJECT WEAK DEFAULT 18 _ZTCN7android8hardware4gn
703:   FUNC GLOBAL DEFAULT 14 _ZN7android8hardware4gnss
704:   FUNC GLOBAL DEFAULT 14 _ZN7android8hardware4gnss
705:   FUNC GLOBAL DEFAULT 14 _ZN7android8hardware4gnss
706:   FUNC GLOBAL DEFAULT 14 _ZN7android8hardware4gnss
707:   FUNC GLOBAL DEFAULT 14 _ZTv0_n24_N7android8hardw
708:   OBJECT WEAK DEFAULT 18 _ZTVN7android8hardware4gn
709:   FUNC GLOBAL DEFAULT 14 _ZN7android8hardware4gnss
710:   OBJECT GLOBAL DEFAULT 18 _ZTCN7android8hardware4gn
711:   FUNC GLOBAL DEFAULT 14 _ZN7android8hardware4gnss
712:   FUNC GLOBAL DEFAULT 14 _ZN7android8hardware4gnss
713:   OBJECT GLOBAL DEFAULT 18 _ZTVN7android8hardware4gn
714:   FUNC WEAK DEFAULT 14 _ZN7android8hardware7deta
715:   FUNC GLOBAL DEFAULT 14 _ZThn32_N7android8hardwar
716:   OBJECT GLOBAL DEFAULT 18 _ZTVN7android8hardware4gn
717:   FUNC GLOBAL DEFAULT 14 _ZN7android8hardware4gnss
718:   FUNC WEAK DEFAULT 14 _ZN7android8hardware7deta
719:   FUNC GLOBAL DEFAULT 14 _ZN7android8hardware4gnss
720:   FUNC GLOBAL DEFAULT 14 _ZN7android8hardware4gnss
721:   FUNC GLOBAL DEFAULT 14 _ZN7android8hardware4gnss
722:   FUNC GLOBAL DEFAULT 14 _ZN7android8hardware4gnss
723:   FUNC GLOBAL DEFAULT 14 _ZN7android8hardware4gnss
724:   FUNC GLOBAL DEFAULT 14 _ZN7android8hardware4gnss
725:   FUNC WEAK DEFAULT 14 _ZN7android8hardware7deta
