 0x000000000000000e (SONAME)             Library soname: [libnativebridge.so]
  
Symbol   contains 44 entries:
Num:   Type Bind Vis Ndx Name
0:   NOTYPE LOCAL DEFAULT UND
1:   NOTYPE WEAK DEFAULT UND __gmon_start__
2:   NOTYPE WEAK DEFAULT UND _ITM_deregisterTMCloneTab
3:   NOTYPE WEAK DEFAULT UND _ITM_registerTMCloneTable
4:   FUNC WEAK DEFAULT UND __cxa_finalize@GLIBC_2.2.5 (3)
5:   NOTYPE WEAK DEFAULT UND _Jv_RegisterClasses
6:   FUNC GLOBAL DEFAULT UND _ZdaPv
7:   FUNC GLOBAL DEFAULT UND _Znam
8:   FUNC GLOBAL DEFAULT UND __android_log_print
9:   FUNC GLOBAL DEFAULT UND __errno_location@GLIBC_2.2.5 (4)
10:   FUNC GLOBAL DEFAULT UND __stack_chk_fail@GLIBC_2.4 (5)
11:   FUNC GLOBAL DEFAULT UND __xstat@GLIBC_2.2.5 (3)
12:   FUNC GLOBAL DEFAULT UND dlclose@GLIBC_2.2.5 (6)
13:   FUNC GLOBAL DEFAULT UND dlopen@GLIBC_2.2.5 (6)
14:   FUNC GLOBAL DEFAULT UND dlsym@GLIBC_2.2.5 (6)
15:   FUNC GLOBAL DEFAULT UND mkdir@GLIBC_2.2.5 (3)
16:   FUNC GLOBAL DEFAULT UND mount@GLIBC_2.2.5 (3)
17:   FUNC GLOBAL DEFAULT UND snprintf@GLIBC_2.2.5 (3)
18:   FUNC GLOBAL DEFAULT UND strcmp@GLIBC_2.2.5 (3)
19:   FUNC GLOBAL DEFAULT UND strerror@GLIBC_2.2.5 (3)
20:   FUNC GLOBAL DEFAULT UND strlen@GLIBC_2.2.5 (3)
21:   FUNC GLOBAL DEFAULT UND strncmp@GLIBC_2.2.5 (3)
22:   FUNC GLOBAL PROTECTED 13 NativeBridgeGetSignalHand@@LIBNATIVEBRIDGE_1
23:   FUNC GLOBAL PROTECTED 13 NativeBridgeGetVersion@@LIBNATIVEBRIDGE_1
24:   FUNC GLOBAL PROTECTED 13 NativeBridgeIsSupported@@LIBNATIVEBRIDGE_1
25:   FUNC GLOBAL PROTECTED 13 NativeBridgeLinkNamespace@@LIBNATIVEBRIDGE_1
26:   FUNC GLOBAL PROTECTED 13 NativeBridgeLoadLibrary@@LIBNATIVEBRIDGE_1
27:   FUNC GLOBAL PROTECTED 13 NativeBridgeLoadLibraryEx@@LIBNATIVEBRIDGE_1
28:   FUNC GLOBAL PROTECTED 13 NeedsNativeBridge@@LIBNATIVEBRIDGE_1
29:   FUNC GLOBAL PROTECTED 13 PreInitializeNativeBridge@@LIBNATIVEBRIDGE_1
30:   FUNC GLOBAL PROTECTED 13 InitializeNativeBridge@@LIBNATIVEBRIDGE_1
31:   FUNC GLOBAL PROTECTED 13 NativeBridgeInitAnonymous@@LIBNATIVEBRIDGE_1
32:   FUNC GLOBAL PROTECTED 13 NativeBridgeIsPathSupport@@LIBNATIVEBRIDGE_1
33:   FUNC GLOBAL PROTECTED 13 NativeBridgeAvailable@@LIBNATIVEBRIDGE_1
34:   FUNC GLOBAL PROTECTED 13 NativeBridgeError@@LIBNATIVEBRIDGE_1
35:   FUNC GLOBAL PROTECTED 13 NativeBridgeGetError@@LIBNATIVEBRIDGE_1
36:   FUNC GLOBAL PROTECTED 13 NativeBridgeUnloadLibrary@@LIBNATIVEBRIDGE_1
37:   FUNC GLOBAL PROTECTED 13 LoadNativeBridge@@LIBNATIVEBRIDGE_1
38:   FUNC GLOBAL PROTECTED 13 NativeBridgeCreateNamespa@@LIBNATIVEBRIDGE_1
39:   FUNC GLOBAL PROTECTED 13 NativeBridgeGetExportedNa@@LIBNATIVEBRIDGE_1
40:   FUNC GLOBAL PROTECTED 13 NativeBridgeInitialized@@LIBNATIVEBRIDGE_1
41:   FUNC GLOBAL PROTECTED 13 NativeBridgeNameAcceptabl@@LIBNATIVEBRIDGE_1
42:   FUNC GLOBAL PROTECTED 13 NativeBridgeGetTrampoline@@LIBNATIVEBRIDGE_1
43:   FUNC GLOBAL PROTECTED 13 UnloadNativeBridge@@LIBNATIVEBRIDGE_1
