 0x0000000e (SONAME)                     Library soname: [libcodec2_client.so]
  
Symbol   contains 275 entries:
Num:   Type Bind Vis Ndx Name
0:   NOTYPE LOCAL DEFAULT UND
1:   FUNC GLOBAL DEFAULT UND __cxa_atexit@LIBC (2)
2:   FUNC GLOBAL DEFAULT UND __cxa_finalize@LIBC (2)
3:   FUNC GLOBAL DEFAULT UND _Z8asString11c2_status_tP
4:   FUNC GLOBAL DEFAULT UND _ZN7android14sp_report_ra
5:   FUNC GLOBAL DEFAULT UND _ZN7android22IGraphicBuff
6:   FUNC GLOBAL DEFAULT UND _ZN7android4base10LogMess
7:   FUNC GLOBAL DEFAULT UND _ZN7android4base10LogMess
8:   FUNC GLOBAL DEFAULT UND _ZN7android4base10LogMess
9:   FUNC GLOBAL DEFAULT UND _ZN7android4base14GetIntP
10:   FUNC GLOBAL DEFAULT UND _ZN7android4base21GetMini
11:   FUNC GLOBAL DEFAULT UND _ZN7android4hidl7manager4
12:   FUNC GLOBAL DEFAULT UND _ZN7android7BBinderC2Ev
13:   FUNC GLOBAL DEFAULT UND _ZN7android7RefBase10onFi
14:   FUNC GLOBAL DEFAULT UND _ZN7android7RefBase13onLa
15:   FUNC GLOBAL DEFAULT UND _ZN7android7RefBase15onLa
16:   FUNC GLOBAL DEFAULT UND _ZN7android7RefBase20onIn
17:   FUNC GLOBAL DEFAULT UND _ZN7android7RefBaseC2Ev
18:   FUNC GLOBAL DEFAULT UND _ZN7android7RefBaseD2Ev
19:   FUNC GLOBAL DEFAULT UND _ZN7android8hardware11hid
20:   FUNC GLOBAL DEFAULT UND _ZN7android8hardware11hid
21:   FUNC GLOBAL DEFAULT UND _ZN7android8hardware11hid
22:   FUNC GLOBAL DEFAULT UND _ZN7android8hardware11hid
23:   FUNC GLOBAL DEFAULT UND _ZN7android8hardware5medi
24:   OBJECT GLOBAL DEFAULT UND _ZN7android8hardware5medi
25:   FUNC GLOBAL DEFAULT UND _ZN7android8hardware5medi
26:   FUNC GLOBAL DEFAULT UND _ZN7android8hardware5medi
27:   FUNC GLOBAL DEFAULT UND _ZN7android8hardware5medi
28:   FUNC GLOBAL DEFAULT UND _ZN7android8hardware5medi
29:   FUNC GLOBAL DEFAULT UND _ZN7android8hardware5medi
30:   FUNC GLOBAL DEFAULT UND _ZN7android8hardware5medi
31:   FUNC GLOBAL DEFAULT UND _ZN7android8hardware5medi
32:   FUNC GLOBAL DEFAULT UND _ZN7android8hardware5medi
33:   FUNC GLOBAL DEFAULT UND _ZN7android8hardware5medi
34:   FUNC GLOBAL DEFAULT UND _ZN7android8hardware5medi
35:   FUNC GLOBAL DEFAULT UND _ZN7android8hardware5medi
36:   FUNC GLOBAL DEFAULT UND _ZN7android8hardware5medi
37:   FUNC GLOBAL DEFAULT UND _ZN7android8hardware5medi
38:   FUNC GLOBAL DEFAULT UND _ZN7android8hardware5medi
39:   FUNC GLOBAL DEFAULT UND _ZN7android8hardware5medi
40:   FUNC GLOBAL DEFAULT UND _ZN7android8hardware5medi
41:   FUNC GLOBAL DEFAULT UND _ZN7android8hardware5medi
42:   FUNC GLOBAL DEFAULT UND _ZN7android8hardware5medi
43:   FUNC GLOBAL DEFAULT UND _ZN7android8hardware5medi
44:   FUNC GLOBAL DEFAULT UND _ZN7android8hardware5medi
45:   FUNC GLOBAL DEFAULT UND _ZN7android8hardware5medi
46:   FUNC GLOBAL DEFAULT UND _ZN7android8hardware5medi
47:   FUNC GLOBAL DEFAULT UND _ZN7android8hardware5medi
48:   FUNC GLOBAL DEFAULT UND _ZN7android8hardware5medi
49:   FUNC GLOBAL DEFAULT UND _ZN7android8hardware5medi
50:   FUNC GLOBAL DEFAULT UND _ZN7android8hardware5medi
51:   FUNC GLOBAL DEFAULT UND _ZN7android8hardware5medi
52:   FUNC GLOBAL DEFAULT UND _ZN7android8hardware5medi
53:   FUNC GLOBAL DEFAULT UND _ZN7android8hardware5medi
54:   FUNC GLOBAL DEFAULT UND _ZN7android8hardware5medi
55:   FUNC GLOBAL DEFAULT UND _ZN7android8hardware5medi
56:   FUNC GLOBAL DEFAULT UND _ZN7android8hardware5medi
57:   FUNC GLOBAL DEFAULT UND _ZN7android8hardware5medi
58:   FUNC GLOBAL DEFAULT UND _ZN7android8hardware5medi
59:   FUNC GLOBAL DEFAULT UND _ZN7android8hardware7deta
60:   FUNC GLOBAL DEFAULT UND _ZN7android8hardware7deta
61:   FUNC GLOBAL DEFAULT UND _ZN7android8hardware8grap
62:   FUNC GLOBAL DEFAULT UND _ZNK7android7RefBase9decS
63:   FUNC GLOBAL DEFAULT UND _ZNK7android7RefBase9incS
64:   FUNC GLOBAL DEFAULT UND _ZNK7android8hardware11hi
65:   FUNC GLOBAL DEFAULT UND _ZNK7android8hardware7det
66:   FUNC GLOBAL DEFAULT UND _ZNKSt3__112basic_stringI
67:   FUNC GLOBAL DEFAULT UND _ZNKSt3__119__shared_weak
68:   FUNC GLOBAL DEFAULT UND _ZNKSt3__120__vector_base
69:   FUNC GLOBAL DEFAULT UND _ZNKSt3__121__basic_strin
70:   FUNC GLOBAL DEFAULT UND _ZNKSt3__16locale9use_fac
71:   FUNC GLOBAL DEFAULT UND _ZNKSt3__18ios_base6getlo
72:   FUNC GLOBAL DEFAULT UND _ZNSt3__111__call_onceERV
73:   FUNC GLOBAL DEFAULT UND _ZNSt3__111this_thread9sl
74:   FUNC GLOBAL DEFAULT UND _ZNSt3__112basic_stringIc
75:   FUNC GLOBAL DEFAULT UND _ZNSt3__112basic_stringIc
76:   FUNC GLOBAL DEFAULT UND _ZNSt3__112basic_stringIc
77:   FUNC GLOBAL DEFAULT UND _ZNSt3__112basic_stringIc
78:   FUNC GLOBAL DEFAULT UND _ZNSt3__112basic_stringIc
79:   FUNC GLOBAL DEFAULT UND _ZNSt3__112basic_stringIc
80:   FUNC GLOBAL DEFAULT UND _ZNSt3__113basic_istreamI
81:   FUNC GLOBAL DEFAULT UND _ZNSt3__113basic_istreamI
82:   FUNC GLOBAL DEFAULT UND _ZNSt3__113basic_ostreamI
83:   FUNC GLOBAL DEFAULT UND _ZNSt3__113basic_ostreamI
84:   FUNC GLOBAL DEFAULT UND _ZNSt3__113basic_ostreamI
85:   FUNC GLOBAL DEFAULT UND _ZNSt3__113basic_ostreamI
86:   FUNC GLOBAL DEFAULT UND _ZNSt3__113basic_ostreamI
87:   FUNC GLOBAL DEFAULT UND _ZNSt3__113basic_ostreamI
88:   FUNC GLOBAL DEFAULT UND _ZNSt3__114basic_iostream
89:   FUNC GLOBAL DEFAULT UND _ZNSt3__114basic_iostream
90:   FUNC GLOBAL DEFAULT UND _ZNSt3__114basic_iostream
91:   FUNC GLOBAL DEFAULT UND _ZNSt3__115basic_streambu
92:   FUNC GLOBAL DEFAULT UND _ZNSt3__115basic_streambu
93:   FUNC GLOBAL DEFAULT UND _ZNSt3__115basic_streambu
94:   FUNC GLOBAL DEFAULT UND _ZNSt3__115basic_streambu
95:   FUNC GLOBAL DEFAULT UND _ZNSt3__115basic_streambu
96:   FUNC GLOBAL DEFAULT UND _ZNSt3__115basic_streambu
97:   FUNC GLOBAL DEFAULT UND _ZNSt3__115basic_streambu
98:   FUNC GLOBAL DEFAULT UND _ZNSt3__115basic_streambu
99:   FUNC GLOBAL DEFAULT UND _ZNSt3__115basic_streambu
100:   FUNC GLOBAL DEFAULT UND _ZNSt3__119__shared_weak_
101:   FUNC GLOBAL DEFAULT UND _ZNSt3__119__shared_weak_
102:   FUNC GLOBAL DEFAULT UND _ZNSt3__119__shared_weak_
103:   OBJECT GLOBAL DEFAULT UND _ZNSt3__15ctypeIcE2idE
104:   FUNC GLOBAL DEFAULT UND _ZNSt3__15mutex4lockEv
105:   FUNC GLOBAL DEFAULT UND _ZNSt3__15mutex6unlockEv
106:   FUNC GLOBAL DEFAULT UND _ZNSt3__15mutexD1Ev
107:   FUNC GLOBAL DEFAULT UND _ZNSt3__16localeD1Ev
108:   FUNC GLOBAL DEFAULT UND _ZNSt3__18ios_base4initEP
109:   FUNC GLOBAL DEFAULT UND _ZNSt3__18ios_base5clearE
110:   FUNC GLOBAL DEFAULT UND _ZNSt3__19basic_iosIcNS_1
111:   OBJECT GLOBAL DEFAULT UND _ZTTN7android8hardware8gr
112:   OBJECT GLOBAL DEFAULT UND _ZTVN7android8hardware5me
113:   OBJECT GLOBAL DEFAULT UND _ZTVN7android8hardware8gr
114:   FUNC GLOBAL DEFAULT UND _ZThn8_NSt3__114basic_ios
115:   FUNC GLOBAL DEFAULT UND _ZThn8_NSt3__114basic_ios
116:   FUNC GLOBAL DEFAULT UND _ZTv0_n12_NSt3__113basic_
117:   FUNC GLOBAL DEFAULT UND _ZTv0_n12_NSt3__113basic_
118:   FUNC GLOBAL DEFAULT UND _ZTv0_n12_NSt3__113basic_
119:   FUNC GLOBAL DEFAULT UND _ZTv0_n12_NSt3__113basic_
120:   FUNC GLOBAL DEFAULT UND _ZTv0_n12_NSt3__114basic_
121:   FUNC GLOBAL DEFAULT UND _ZTv0_n12_NSt3__114basic_
122:   FUNC GLOBAL DEFAULT UND _ZdaPv
123:   FUNC GLOBAL DEFAULT UND _ZdlPv
124:   FUNC GLOBAL DEFAULT UND _Znaj
125:   FUNC GLOBAL DEFAULT UND _Znwj
126:   FUNC GLOBAL DEFAULT UND __android_log_print@LIBLOG (3)
127:   FUNC GLOBAL DEFAULT UND __cxa_guard_acquire
128:   FUNC GLOBAL DEFAULT UND __cxa_guard_release
129:   FUNC GLOBAL DEFAULT UND __cxa_pure_virtual
130:   FUNC GLOBAL DEFAULT UND __errno@LIBC (2)
131:   FUNC GLOBAL DEFAULT UND __stack_chk_fail@LIBC (2)
132:   OBJECT GLOBAL DEFAULT UND __stack_chk_guard@LIBC (2)
133:   FUNC GLOBAL DEFAULT UND abort@LIBC (2)
134:   FUNC GLOBAL DEFAULT UND memcmp@LIBC (2)
135:   FUNC GLOBAL DEFAULT UND strlen@LIBC (2)
136:   FUNC GLOBAL DEFAULT UND strncmp@LIBC (2)
137:   FUNC GLOBAL DEFAULT UND memcpy@LIBC (2)
138:   FUNC GLOBAL DEFAULT UND memmove@LIBC (2)
139:   FUNC GLOBAL DEFAULT UND memset@LIBC (2)
140:   OBJECT WEAK DEFAULT 22 _ZGVZN7android12Codec2Cli
141:   FUNC GLOBAL DEFAULT 14 _ZN7android12Codec2Client
142:   FUNC GLOBAL DEFAULT 14 _ZN7android12Codec2Client
143:   FUNC GLOBAL DEFAULT 14 _ZNK7android12Codec2Clien
144:   FUNC GLOBAL DEFAULT 14 _ZNK7android24Codec2Confi
145:   FUNC WEAK DEFAULT 14 _ZNKSt3__115basic_stringb
146:   FUNC WEAK DEFAULT 14 _ZNSt3__118__insertion_so
147:   FUNC WEAK DEFAULT 14 _ZNSt3__16__treeINS_12__v
148:   FUNC WEAK DEFAULT 14 _ZNSt3__120__shared_ptr_e
149:   FUNC GLOBAL DEFAULT 14 _ZN7android12Codec2Client
150:   FUNC WEAK DEFAULT 14 _ZNSt3__16vectorINS_12bas
151:   OBJECT WEAK DEFAULT 18 _ZTVNSt3__120__shared_ptr
152:   OBJECT WEAK DEFAULT 18 _ZTVNSt3__120__shared_ptr
153:   FUNC GLOBAL DEFAULT 14 _ZN7android12Codec2Client
154:   FUNC GLOBAL DEFAULT 14 _ZNK7android12Codec2Clien
155:   FUNC GLOBAL DEFAULT 14 __aeabi_memmove
156:   FUNC GLOBAL DEFAULT 14 _ZNK7android24Codec2Confi
157:   FUNC WEAK DEFAULT 14 _ZNSt3__16vectorINS_10uni
158:   FUNC WEAK DEFAULT 14 _ZNSt3__16vectorIyNS_9all
159:   FUNC GLOBAL DEFAULT 14 _ZN7android12Codec2Client
160:   FUNC GLOBAL DEFAULT 14 _ZN7android12Codec2Client
161:   FUNC GLOBAL DEFAULT 14 _ZN7android12Codec2Client
162:   FUNC GLOBAL DEFAULT 14 _ZN7android12Codec2Client
163:   FUNC WEAK DEFAULT 14 _ZNSt3__115basic_stringbu
164:   FUNC WEAK DEFAULT 14 _ZNSt3__17__sort4IRNS_6__
165:   OBJECT WEAK DEFAULT 18 _ZTCNSt3__118basic_string
166:   OBJECT WEAK DEFAULT 18 _ZTVNSt3__120__shared_ptr
167:   FUNC GLOBAL DEFAULT 14 _ZN7android12Codec2Client
168:   FUNC GLOBAL DEFAULT 14 _ZN7android12Codec2Client
169:   FUNC GLOBAL DEFAULT 14 _ZN7android24Codec2Config
170:   FUNC WEAK DEFAULT 14 _ZNSt3__120__shared_ptr_e
171:   FUNC GLOBAL DEFAULT 14 _ZN7android12Codec2Client
172:   FUNC GLOBAL DEFAULT 14 _ZNK7android12Codec2Clien
173:   FUNC WEAK DEFAULT 14 _ZNSt3__127__insertion_so
174:   FUNC WEAK DEFAULT 14 _ZNSt3__127__tree_balance
175:   FUNC GLOBAL DEFAULT 14 _ZN7android12Codec2Client
176:   OBJECT GLOBAL DEFAULT 18 _ZTVN7android12Codec2Clie
177:   OBJECT WEAK DEFAULT 18 _ZTVNSt3__118basic_string
178:   OBJECT WEAK DEFAULT 18 _ZTVNSt3__120__shared_ptr
179:   FUNC WEAK DEFAULT 14 _ZNSt3__120__shared_ptr_e
180:   OBJECT WEAK DEFAULT 18 _ZTTNSt3__118basic_string
181:   FUNC GLOBAL DEFAULT 14 _ZN7android12Codec2Client
182:   FUNC WEAK DEFAULT 14 _ZNSt3__114__split_buffer
183:   OBJECT WEAK DEFAULT 18 _ZTVNSt3__115basic_string
184:   FUNC GLOBAL DEFAULT 14 __aeabi_memmove4
185:   FUNC GLOBAL DEFAULT 14 _ZN7android12Codec2Client
186:   FUNC WEAK DEFAULT 14 _ZNSt3__120__shared_ptr_e
187:   FUNC WEAK DEFAULT 14 _ZNSt3__115basic_stringbu
188:   FUNC WEAK DEFAULT 14 _ZNSt3__124__put_characte
189:   FUNC GLOBAL DEFAULT 14 _ZN7android12Codec2Client
190:   FUNC WEAK DEFAULT 14 _ZNSt3__16__treeINS_12__v
191:   FUNC WEAK DEFAULT 14 _ZNSt3__16vectorIN11C2Com
192:   FUNC GLOBAL DEFAULT 14 _ZN7android12Codec2Client
193:   FUNC GLOBAL DEFAULT 14 _ZN7android12Codec2Client
194:   FUNC WEAK DEFAULT 14 _ZNSt3__120__shared_ptr_e
195:   FUNC WEAK DEFAULT 14 _ZNSt3__120__shared_ptr_e
196:   FUNC WEAK DEFAULT 14 _ZNSt3__15dequeIjNS_9allo
197:   OBJECT WEAK DEFAULT 18 _ZTVNSt3__120__shared_ptr
198:   OBJECT WEAK DEFAULT 18 _ZTVNSt3__120__shared_ptr
199:   FUNC GLOBAL DEFAULT 14 __aeabi_memmove8
200:   FUNC GLOBAL DEFAULT 14 _ZN7android12Codec2Client
201:   FUNC GLOBAL DEFAULT 14 _ZN7android12Codec2Client
202:   FUNC GLOBAL DEFAULT 14 _ZN7android12Codec2Client
203:   FUNC GLOBAL DEFAULT 14 _ZN7android12Codec2Client
204:   FUNC WEAK DEFAULT 14 _ZNSt3__113__vector_baseI
205:   FUNC WEAK DEFAULT 14 _ZNSt3__120__shared_ptr_e
206:   FUNC WEAK DEFAULT 14 _ZNSt3__16vectorINS_12bas
207:   FUNC WEAK DEFAULT 14 _ZNSt3__120__shared_ptr_p
208:   OBJECT WEAK DEFAULT 18 _ZTCNSt3__118basic_string
209:   OBJECT WEAK DEFAULT 18 _ZTCNSt3__118basic_string
210:   FUNC GLOBAL DEFAULT 14 _ZN7android12Codec2Client
211:   FUNC GLOBAL DEFAULT 14 _ZN7android12Codec2Client
212:   FUNC GLOBAL DEFAULT 14 _ZNK7android24Codec2Confi
213:   FUNC WEAK DEFAULT 14 _ZNSt3__120__shared_ptr_e
214:   FUNC GLOBAL DEFAULT 14 _ZN7android12Codec2Client
215:   FUNC GLOBAL DEFAULT 14 _ZN7android12Codec2Client
216:   FUNC GLOBAL DEFAULT 14 _ZN7android12Codec2Client
217:   OBJECT WEAK DEFAULT 22 _ZZN7android12Codec2Clien
218:   FUNC GLOBAL DEFAULT 14 _ZN7android12Codec2Client
219:   FUNC WEAK DEFAULT 14 _ZNSt3__114__split_buffer
220:   FUNC WEAK DEFAULT 14 _ZNSt3__16vectorINS_10uni
221:   FUNC WEAK DEFAULT 14 _ZNSt3__16vectorINS_12bas
222:   FUNC GLOBAL DEFAULT 14 __aeabi_memclr
223:   FUNC GLOBAL DEFAULT 14 __aeabi_memclr4
224:   FUNC GLOBAL DEFAULT 14 __aeabi_memcpy4
225:   FUNC GLOBAL DEFAULT 14 __aeabi_memset4
226:   FUNC GLOBAL DEFAULT 14 _ZN7android12Codec2Client
227:   FUNC WEAK DEFAULT 14 _ZNSt3__120__shared_ptr_e
228:   FUNC WEAK DEFAULT 14 _ZNSt3__120__shared_ptr_e
229:   FUNC GLOBAL DEFAULT 14 _ZN7android12Codec2Client
230:   FUNC GLOBAL DEFAULT 14 _ZNK7android24Codec2Confi
231:   OBJECT WEAK DEFAULT 18 _ZTVN7android12Codec2Clie
232:   FUNC GLOBAL DEFAULT 14 __aeabi_memset
233:   FUNC GLOBAL DEFAULT 14 _ZN7android12Codec2Client
234:   FUNC GLOBAL DEFAULT 14 _ZN7android12Codec2Client
235:   FUNC GLOBAL DEFAULT 14 _ZN7android12Codec2Client
236:   FUNC GLOBAL DEFAULT 14 _ZN7android12Codec2Client
237:   FUNC WEAK DEFAULT 14 _ZNSt3__16vectorIN11C2Com
238:   FUNC GLOBAL DEFAULT 14 _ZN7android12Codec2Client
239:   FUNC GLOBAL DEFAULT 14 _ZN7android12Codec2Client
240:   FUNC GLOBAL DEFAULT 14 _ZN7android12Codec2Client
241:   FUNC GLOBAL DEFAULT 14 _ZNK7android12Codec2Clien
242:   FUNC GLOBAL DEFAULT 14 __aeabi_memclr8
243:   FUNC GLOBAL DEFAULT 14 __aeabi_memcpy8
244:   FUNC GLOBAL DEFAULT 14 __aeabi_memset8
245:   FUNC GLOBAL DEFAULT 14 _ZN7android12Codec2Client
246:   FUNC GLOBAL DEFAULT 14 _ZN7android12Codec2Client
247:   FUNC GLOBAL DEFAULT 14 _ZN7android12Codec2Client
248:   FUNC WEAK DEFAULT 14 _ZNSt3__115basic_stringbu
249:   FUNC WEAK DEFAULT 14 _ZNSt3__120__shared_ptr_e
250:   FUNC GLOBAL DEFAULT 14 _ZN7android12Codec2Client
251:   FUNC GLOBAL DEFAULT 14 _ZN7android12Codec2Client
252:   FUNC GLOBAL DEFAULT 14 _ZN7android12Codec2Client
253:   FUNC GLOBAL DEFAULT 14 _ZNK7android12Codec2Clien
254:   FUNC WEAK DEFAULT 14 _ZNSt3__114__split_buffer
255:   FUNC GLOBAL DEFAULT 14 _ZN7android24Codec2Config
256:   FUNC GLOBAL DEFAULT 14 _ZN7android24Codec2Config
257:   FUNC WEAK DEFAULT 14 _ZNSt3__16vectorIN11C2Com
258:   FUNC GLOBAL DEFAULT 14 __aeabi_memcpy
259:   FUNC WEAK DEFAULT 14 _ZNSt3__17__sort3IRNS_6__
260:   FUNC GLOBAL DEFAULT 14 _ZN7android12Codec2Client
261:   FUNC GLOBAL DEFAULT 14 _ZN7android12Codec2Client
262:   FUNC WEAK DEFAULT 14 _ZNSt3__114__split_buffer
263:   FUNC WEAK DEFAULT 14 _ZNSt3__115basic_stringbu
264:   FUNC WEAK DEFAULT 14 _ZNSt3__16vectorINS_10uni
265:   FUNC WEAK DEFAULT 14 _ZNSt3__16vectorINS_12bas
266:   FUNC WEAK DEFAULT 14 _ZNSt3__16__sortIRNS_6__l
267:   FUNC GLOBAL DEFAULT 14 _ZN7android12Codec2Client
268:   FUNC WEAK DEFAULT 14 _ZNSt3__120__shared_ptr_e
269:   FUNC WEAK DEFAULT 14 _ZNSt3__16__treeINS_12__v
270:   FUNC WEAK DEFAULT 14 _ZNSt3__16vectorINS_10sha
271:   OBJECT WEAK DEFAULT 18 _ZTVNSt3__120__shared_ptr
272:   FUNC GLOBAL DEFAULT 14 _ZN7android12Codec2Client
273:   FUNC GLOBAL DEFAULT 14 _ZNK7android12Codec2Clien
274:   FUNC WEAK DEFAULT 14 _ZNSt3__120__shared_ptr_p
