 0x000000000000000e (SONAME)             Library soname: [android.hardware.camera.device@3.4.so]
  
Symbol   contains 394 entries:
Num:   Type Bind Vis Ndx Name
0:   NOTYPE LOCAL DEFAULT UND
1:   FUNC GLOBAL DEFAULT UND __cxa_finalize@LIBC (2)
2:   FUNC GLOBAL DEFAULT UND _ZN7android14sp_report_ra
3:   FUNC GLOBAL DEFAULT UND _ZN7android21report_syspr
4:   OBJECT GLOBAL DEFAULT UND _ZN7android4hidl4base4V1_
5:   FUNC GLOBAL DEFAULT UND _ZN7android4hidl4base4V1_
6:   FUNC GLOBAL DEFAULT UND _ZN7android4hidl4base4V1_
7:   FUNC GLOBAL DEFAULT UND _ZN7android4hidl4base4V1_
8:   FUNC GLOBAL DEFAULT UND _ZN7android4hidl4base4V1_
9:   FUNC GLOBAL DEFAULT UND _ZN7android4hidl4base4V1_
10:   FUNC GLOBAL DEFAULT UND _ZN7android4hidl4base4V1_
11:   FUNC GLOBAL DEFAULT UND _ZN7android4hidl4base4V1_
12:   FUNC GLOBAL DEFAULT UND _ZN7android4hidl4base4V1_
13:   FUNC GLOBAL DEFAULT UND _ZN7android4hidl4base4V1_
14:   FUNC GLOBAL DEFAULT UND _ZN7android4hidl4base4V1_
15:   FUNC GLOBAL DEFAULT UND _ZN7android4hidl4base4V1_
16:   FUNC GLOBAL DEFAULT UND _ZN7android4hidl4base4V1_
17:   FUNC GLOBAL DEFAULT UND _ZN7android4hidl4base4V1_
18:   FUNC GLOBAL DEFAULT UND _ZN7android4hidl4base4V1_
19:   FUNC GLOBAL DEFAULT UND _ZN7android4hidl4base4V1_
20:   FUNC GLOBAL DEFAULT UND _ZN7android4hidl4base4V1_
21:   FUNC GLOBAL DEFAULT UND _ZN7android4hidl4base4V1_
22:   FUNC GLOBAL DEFAULT UND _ZN7android4hidl4base4V1_
23:   FUNC GLOBAL DEFAULT UND _ZN7android4hidl4base4V1_
24:   FUNC GLOBAL DEFAULT UND _ZN7android4hidl4base4V1_
25:   FUNC GLOBAL DEFAULT UND _ZN7android4hidl4base4V1_
26:   FUNC GLOBAL DEFAULT UND _ZN7android4hidl4base4V1_
27:   FUNC GLOBAL DEFAULT UND _ZN7android4hidl4base4V1_
28:   FUNC GLOBAL DEFAULT UND _ZN7android7RefBase10onFi
29:   FUNC GLOBAL DEFAULT UND _ZN7android7RefBase12weak
30:   FUNC GLOBAL DEFAULT UND _ZN7android7RefBase13onLa
31:   FUNC GLOBAL DEFAULT UND _ZN7android7RefBase15onLa
32:   FUNC GLOBAL DEFAULT UND _ZN7android7RefBase20onIn
33:   FUNC GLOBAL DEFAULT UND _ZN7android7RefBaseC2Ev
34:   FUNC GLOBAL DEFAULT UND _ZN7android7RefBaseD2Ev
35:   FUNC GLOBAL DEFAULT UND _ZN7android8hardware10IIn
36:   FUNC GLOBAL DEFAULT UND _ZN7android8hardware10IIn
37:   FUNC GLOBAL DEFAULT UND _ZN7android8hardware10IIn
38:   FUNC GLOBAL DEFAULT UND _ZN7android8hardware10IIn
39:   FUNC GLOBAL DEFAULT UND _ZN7android8hardware10IIn
40:   FUNC GLOBAL DEFAULT UND _ZN7android8hardware11BpH
41:   FUNC GLOBAL DEFAULT UND _ZN7android8hardware11BpH
42:   FUNC GLOBAL DEFAULT UND _ZN7android8hardware11BpH
43:   FUNC GLOBAL DEFAULT UND _ZN7android8hardware11BpH
44:   FUNC GLOBAL DEFAULT UND _ZN7android8hardware11BpH
45:   FUNC GLOBAL DEFAULT UND _ZN7android8hardware11BpH
46:   FUNC GLOBAL DEFAULT UND _ZN7android8hardware11BpH
47:   FUNC GLOBAL DEFAULT UND _ZN7android8hardware11hid
48:   FUNC GLOBAL DEFAULT UND _ZN7android8hardware11hid
49:   FUNC GLOBAL DEFAULT UND _ZN7android8hardware11hid
50:   FUNC GLOBAL DEFAULT UND _ZN7android8hardware11hid
51:   FUNC GLOBAL DEFAULT UND _ZN7android8hardware11hid
52:   FUNC GLOBAL DEFAULT UND _ZN7android8hardware12Pro
53:   FUNC GLOBAL DEFAULT UND _ZN7android8hardware12Pro
54:   FUNC GLOBAL DEFAULT UND _ZN7android8hardware13wri
55:   FUNC GLOBAL DEFAULT UND _ZN7android8hardware14rea
56:   FUNC GLOBAL DEFAULT UND _ZN7android8hardware21def
57:   FUNC GLOBAL DEFAULT UND _ZN7android8hardware23get
58:   FUNC GLOBAL DEFAULT UND _ZN7android8hardware27hid
59:   FUNC GLOBAL DEFAULT UND _ZN7android8hardware27hid
60:   FUNC GLOBAL DEFAULT UND _ZN7android8hardware6Parc
61:   FUNC GLOBAL DEFAULT UND _ZN7android8hardware6Parc
62:   FUNC GLOBAL DEFAULT UND _ZN7android8hardware6Parc
63:   FUNC GLOBAL DEFAULT UND _ZN7android8hardware6Parc
64:   FUNC GLOBAL DEFAULT UND _ZN7android8hardware6Parc
65:   FUNC GLOBAL DEFAULT UND _ZN7android8hardware6Stat
66:   FUNC GLOBAL DEFAULT UND _ZN7android8hardware6Stat
67:   FUNC GLOBAL DEFAULT UND _ZN7android8hardware6Stat
68:   FUNC GLOBAL DEFAULT UND _ZN7android8hardware6Stat
69:   OBJECT GLOBAL DEFAULT UND _ZN7android8hardware6came
70:   FUNC GLOBAL DEFAULT UND _ZN7android8hardware6came
71:   FUNC GLOBAL DEFAULT UND _ZN7android8hardware6came
72:   FUNC GLOBAL DEFAULT UND _ZN7android8hardware6came
73:   FUNC GLOBAL DEFAULT UND _ZN7android8hardware6came
74:   FUNC GLOBAL DEFAULT UND _ZN7android8hardware6came
75:   FUNC GLOBAL DEFAULT UND _ZN7android8hardware6came
76:   FUNC GLOBAL DEFAULT UND _ZN7android8hardware6came
77:   FUNC GLOBAL DEFAULT UND _ZN7android8hardware6came
78:   FUNC GLOBAL DEFAULT UND _ZN7android8hardware6came
79:   FUNC GLOBAL DEFAULT UND _ZN7android8hardware6came
80:   FUNC GLOBAL DEFAULT UND _ZN7android8hardware6came
81:   FUNC GLOBAL DEFAULT UND _ZN7android8hardware6came
82:   FUNC GLOBAL DEFAULT UND _ZN7android8hardware6came
83:   FUNC GLOBAL DEFAULT UND _ZN7android8hardware6came
84:   FUNC GLOBAL DEFAULT UND _ZN7android8hardware7IBin
85:   FUNC GLOBAL DEFAULT UND _ZN7android8hardware7IBin
86:   FUNC GLOBAL DEFAULT UND _ZN7android8hardware7IBin
87:   FUNC GLOBAL DEFAULT UND _ZN7android8hardware7IBin
88:   FUNC GLOBAL DEFAULT UND _ZN7android8hardware7deta
89:   FUNC GLOBAL DEFAULT UND _ZN7android8hardware7deta
90:   FUNC GLOBAL DEFAULT UND _ZN7android8hardware7deta
91:   FUNC GLOBAL DEFAULT UND _ZN7android8hardware7deta
92:   FUNC GLOBAL DEFAULT UND _ZN7android8hardware7deta
93:   FUNC GLOBAL DEFAULT UND _ZN7android8hardware7deta
94:   FUNC GLOBAL DEFAULT UND _ZN7android8hardware7deta
95:   OBJECT GLOBAL DEFAULT UND _ZN7android8hardware7deta
96:   FUNC GLOBAL DEFAULT UND _ZN7android8hardware7deta
97:   OBJECT GLOBAL DEFAULT UND _ZN7android8hardware7deta
98:   FUNC GLOBAL DEFAULT UND _ZN7android8hardware7deta
99:   FUNC GLOBAL DEFAULT UND _ZN7android8hardware7deta
100:   FUNC GLOBAL DEFAULT UND _ZN7android8hardware7deta
101:   FUNC GLOBAL DEFAULT UND _ZN7android8hardware7deta
102:   FUNC GLOBAL DEFAULT UND _ZN7android8hardware7deta
103:   FUNC GLOBAL DEFAULT UND _ZN7android8hardware7deta
104:   FUNC GLOBAL DEFAULT UND _ZN7android8hardware7deta
105:   FUNC GLOBAL DEFAULT UND _ZN7android8hardware7deta
106:   FUNC GLOBAL DEFAULT UND _ZN7android8hardware7deta
107:   OBJECT GLOBAL DEFAULT UND _ZN7android8hardware7deta
108:   FUNC GLOBAL DEFAULT UND _ZN7android8hardware9BHwB
109:   FUNC GLOBAL DEFAULT UND _ZN7android8hardware9BHwB
110:   FUNC GLOBAL DEFAULT UND _ZN7android8hardware9BHwB
111:   FUNC GLOBAL DEFAULT UND _ZN7android8hardware9BHwB
112:   FUNC GLOBAL DEFAULT UND _ZN7android8hardware9BHwB
113:   FUNC GLOBAL DEFAULT UND _ZN7android8hardware9BHwB
114:   FUNC GLOBAL DEFAULT UND _ZN7android8hardware9BHwB
115:   FUNC GLOBAL DEFAULT UND _ZN7android8hardware9BHwB
116:   FUNC GLOBAL DEFAULT UND _ZN7android8hardware9BHwB
117:   FUNC GLOBAL DEFAULT UND _ZN7android8hardware9BHwB
118:   FUNC GLOBAL DEFAULT UND _ZNK7android7RefBase10cre
119:   FUNC GLOBAL DEFAULT UND _ZNK7android7RefBase11get
120:   FUNC GLOBAL DEFAULT UND _ZNK7android7RefBase9decS
121:   FUNC GLOBAL DEFAULT UND _ZNK7android7RefBase9incS
122:   FUNC GLOBAL DEFAULT UND _ZNK7android8hardware6Par
123:   FUNC GLOBAL DEFAULT UND _ZNK7android8hardware6Par
124:   FUNC GLOBAL DEFAULT UND _ZNK7android8hardware6Par
125:   FUNC GLOBAL DEFAULT UND _ZNK7android8hardware7IBi
126:   FUNC GLOBAL DEFAULT UND _ZNK7android8hardware7det
127:   FUNC GLOBAL DEFAULT UND _ZNK7android8hardware9BHw
128:   FUNC GLOBAL DEFAULT UND _ZNKSt3__120__vector_base
129:   FUNC GLOBAL DEFAULT UND _ZNKSt3__121__basic_strin
130:   FUNC GLOBAL DEFAULT UND _ZNSt3__112basic_stringIc
131:   FUNC GLOBAL DEFAULT UND _ZNSt3__15mutex4lockEv
132:   FUNC GLOBAL DEFAULT UND _ZNSt3__15mutex6unlockEv
133:   FUNC GLOBAL DEFAULT UND _ZNSt3__15mutexD1Ev
134:   FUNC GLOBAL DEFAULT UND _ZTv0_n24_N7android4hidl4
135:   FUNC GLOBAL DEFAULT UND _ZTv0_n24_N7android4hidl4
136:   FUNC GLOBAL DEFAULT UND _ZTv0_n24_N7android8hardw
137:   FUNC GLOBAL DEFAULT UND _ZTv0_n24_N7android8hardw
138:   FUNC GLOBAL DEFAULT UND _ZTv0_n24_N7android8hardw
139:   FUNC GLOBAL DEFAULT UND _ZTv0_n24_N7android8hardw
140:   FUNC GLOBAL DEFAULT UND _ZTv0_n24_N7android8hardw
141:   FUNC GLOBAL DEFAULT UND _ZTv0_n24_N7android8hardw
142:   FUNC GLOBAL DEFAULT UND _ZTv0_n24_N7android8hardw
143:   FUNC GLOBAL DEFAULT UND _ZTv0_n24_N7android8hardw
144:   FUNC GLOBAL DEFAULT UND _ZTv0_n32_N7android8hardw
145:   FUNC GLOBAL DEFAULT UND _ZTv0_n40_N7android8hardw
146:   FUNC GLOBAL DEFAULT UND _ZTv0_n48_N7android8hardw
147:   FUNC GLOBAL DEFAULT UND _ZdaPv
148:   FUNC GLOBAL DEFAULT UND _ZdlPv
149:   FUNC GLOBAL DEFAULT UND _Znam
150:   FUNC GLOBAL DEFAULT UND _Znwm
151:   FUNC GLOBAL DEFAULT UND __cxa_pure_virtual
152:   FUNC GLOBAL DEFAULT UND __stack_chk_fail@LIBC (2)
153:   FUNC GLOBAL DEFAULT UND abort@LIBC (2)
154:   FUNC GLOBAL DEFAULT UND atrace_begin_body
155:   OBJECT GLOBAL DEFAULT UND atrace_enabled_tags
156:   FUNC GLOBAL DEFAULT UND atrace_end_body
157:   OBJECT GLOBAL DEFAULT UND atrace_is_ready
158:   FUNC GLOBAL DEFAULT UND atrace_setup
159:   FUNC GLOBAL DEFAULT UND memcmp@LIBC (2)
160:   FUNC GLOBAL DEFAULT UND memcpy@LIBC (2)
161:   FUNC GLOBAL DEFAULT UND memset@LIBC (2)
162:   FUNC GLOBAL DEFAULT UND strlen@LIBC (2)
163:   FUNC GLOBAL DEFAULT UND _ZN7android8hardware6Parc
164:   OBJECT GLOBAL DEFAULT UND _ZN7android8hardware6came
165:   FUNC GLOBAL DEFAULT UND _ZN7android8hardware6came
166:   FUNC GLOBAL DEFAULT UND _ZN7android8hardware6came
167:   FUNC GLOBAL DEFAULT UND _ZN7android8hardware6came
168:   FUNC GLOBAL DEFAULT UND _ZN7android8hardware6came
169:   FUNC GLOBAL DEFAULT UND _ZN7android8hardware6came
170:   FUNC GLOBAL DEFAULT UND _ZN7android8hardware6came
171:   FUNC GLOBAL DEFAULT UND _ZN7android8hardware6came
172:   FUNC GLOBAL DEFAULT UND _ZN7android8hardware6came
173:   FUNC GLOBAL DEFAULT UND _ZN7android8hardware6came
174:   FUNC GLOBAL DEFAULT UND _ZN7android8hardware6came
175:   FUNC GLOBAL DEFAULT UND _ZN7android8hardware6came
176:   FUNC GLOBAL DEFAULT UND _ZN7android8hardware6came
177:   FUNC GLOBAL DEFAULT UND _ZN7android8hardware6came
178:   FUNC GLOBAL DEFAULT UND _ZN7android8hardware6came
179:   FUNC GLOBAL DEFAULT UND _ZN7android8hardware6came
180:   FUNC GLOBAL DEFAULT UND _ZN7android8hardware6came
181:   FUNC GLOBAL DEFAULT UND _ZN7android8hardware6came
182:   FUNC GLOBAL DEFAULT UND _ZN7android8hardware6came
183:   FUNC GLOBAL DEFAULT UND _ZN7android8hardware6came
184:   FUNC GLOBAL DEFAULT UND _ZN7android8hardware6came
185:   FUNC GLOBAL DEFAULT UND _ZN7android8hardware6came
186:   FUNC GLOBAL DEFAULT UND _ZN7android8hardware6came
187:   FUNC GLOBAL DEFAULT UND _ZN7android8hardware6came
188:   FUNC GLOBAL DEFAULT UND _ZN7android8hardware6came
189:   OBJECT GLOBAL DEFAULT UND _ZN7android8hardware6came
190:   FUNC GLOBAL DEFAULT UND _ZN7android8hardware6came
191:   FUNC GLOBAL DEFAULT UND _ZN7android8hardware6came
192:   FUNC GLOBAL DEFAULT UND _ZN7android8hardware6came
193:   FUNC GLOBAL DEFAULT UND _ZN7android8hardware6came
194:   FUNC GLOBAL DEFAULT UND _ZN7android8hardware6came
195:   FUNC GLOBAL DEFAULT UND _ZN7android8hardware6came
196:   FUNC GLOBAL DEFAULT UND _ZN7android8hardware6came
197:   FUNC GLOBAL DEFAULT UND _ZN7android8hardware6came
198:   FUNC GLOBAL DEFAULT UND _ZN7android8hardware6came
199:   FUNC GLOBAL DEFAULT UND _ZN7android8hardware6came
200:   FUNC GLOBAL DEFAULT UND _ZN7android8hardware6came
201:   FUNC GLOBAL DEFAULT UND _ZN7android8hardware6came
202:   FUNC GLOBAL DEFAULT UND _ZNK7android8hardware6Par
203:   FUNC GLOBAL DEFAULT UND __android_log_assert@LIBLOG (3)
204:   FUNC GLOBAL DEFAULT UND _ZN7android8hardware21wri
205:   FUNC GLOBAL DEFAULT UND _ZN7android8hardware22rea
206:   FUNC GLOBAL DEFAULT UND _ZN7android8hardware6came
207:   FUNC GLOBAL DEFAULT UND _ZN7android8hardware6came
208:   FUNC GLOBAL DEFAULT UND _ZN7android8hardware6came
209:   FUNC GLOBAL DEFAULT UND _ZN7android8hardware6came
210:   FUNC GLOBAL DEFAULT 14 _ZN7android8hardware6came
211:   FUNC GLOBAL DEFAULT 14 _ZN7android8hardware6came
212:   OBJECT GLOBAL DEFAULT 18 _ZTVN7android8hardware6ca
213:   FUNC GLOBAL DEFAULT 14 _ZN7android8hardware6came
214:   FUNC GLOBAL DEFAULT 14 _ZN7android8hardware6came
215:   OBJECT GLOBAL DEFAULT 18 _ZTCN7android8hardware6ca
216:   OBJECT GLOBAL DEFAULT 18 _ZTCN7android8hardware6ca
217:   FUNC GLOBAL DEFAULT 14 _ZN7android8hardware6came
218:   OBJECT GLOBAL DEFAULT 18 _ZTCN7android8hardware6ca
219:   OBJECT GLOBAL DEFAULT 18 _ZTCN7android8hardware6ca
220:   FUNC GLOBAL DEFAULT 14 _ZThn32_N7android8hardwar
221:   FUNC GLOBAL DEFAULT 14 _ZN7android8hardware6came
222:   OBJECT GLOBAL DEFAULT 18 _ZTTN7android8hardware6ca
223:   FUNC GLOBAL DEFAULT 14 _ZN7android8hardware6came
224:   FUNC GLOBAL DEFAULT 14 _ZN7android8hardware6came
225:   FUNC GLOBAL DEFAULT 14 _ZN7android8hardware6came
226:   FUNC WEAK DEFAULT 14 _ZN7android8hardware7deta
227:   FUNC GLOBAL DEFAULT 14 _ZN7android8hardware6came
228:   FUNC GLOBAL DEFAULT 14 _ZN7android8hardware6came
229:   FUNC GLOBAL DEFAULT 14 _ZN7android8hardware6came
230:   FUNC WEAK DEFAULT 14 _ZNSt3__16__treeINS_12__v
231:   FUNC GLOBAL DEFAULT 14 _ZN7android8hardware6came
232:   OBJECT WEAK DEFAULT 18 _ZTVN7android8hardware6ca
233:   FUNC GLOBAL DEFAULT 14 _ZN7android8hardware6came
234:   FUNC GLOBAL DEFAULT 14 _ZN7android8hardware6came
235:   OBJECT GLOBAL DEFAULT 18 _ZTCN7android8hardware6ca
236:   FUNC GLOBAL DEFAULT 14 _ZN7android8hardware6came
237:   FUNC GLOBAL DEFAULT 14 _ZN7android8hardware6came
238:   FUNC GLOBAL DEFAULT 14 _ZN7android8hardware6came
239:   FUNC GLOBAL DEFAULT 14 _ZN7android8hardware6came
240:   FUNC GLOBAL DEFAULT 14 _ZN7android8hardware6came
241:   FUNC GLOBAL DEFAULT 14 _ZN7android8hardware6came
242:   OBJECT GLOBAL DEFAULT 18 _ZTCN7android8hardware6ca
243:   OBJECT GLOBAL DEFAULT 18 _ZTTN7android8hardware6ca
244:   OBJECT GLOBAL DEFAULT 18 _ZTCN7android8hardware6ca
245:   OBJECT GLOBAL DEFAULT 18 _ZTTN7android8hardware6ca
246:   FUNC GLOBAL DEFAULT 14 _ZN7android8hardware6came
247:   FUNC GLOBAL DEFAULT 14 _ZN7android8hardware6came
248:   OBJECT GLOBAL DEFAULT 16 _ZN7android8hardware6came
249:   FUNC GLOBAL DEFAULT 14 _ZN7android8hardware6came
250:   FUNC GLOBAL DEFAULT 14 _ZN7android8hardware6came
251:   FUNC GLOBAL DEFAULT 14 _ZN7android8hardware6came
252:   FUNC GLOBAL DEFAULT 14 _ZN7android8hardware6came
253:   FUNC GLOBAL DEFAULT 14 _ZN7android8hardware6came
254:   FUNC GLOBAL DEFAULT 14 _ZN7android8hardware6came
255:   FUNC GLOBAL DEFAULT 14 _ZThn32_N7android8hardwar
256:   FUNC GLOBAL DEFAULT 14 _ZN7android8hardware6came
257:   OBJECT GLOBAL DEFAULT 18 _ZTCN7android8hardware6ca
258:   FUNC GLOBAL DEFAULT 14 _ZN7android8hardware6came
259:   FUNC GLOBAL DEFAULT 14 _ZN7android8hardware6came
260:   FUNC WEAK DEFAULT 14 _ZNSt3__16vectorIPvNS_9al
261:   FUNC GLOBAL DEFAULT 14 _ZN7android8hardware6came
262:   OBJECT GLOBAL DEFAULT 18 _ZTCN7android8hardware6ca
263:   FUNC GLOBAL DEFAULT 14 _ZN7android8hardware6came
264:   FUNC GLOBAL DEFAULT 14 _ZN7android8hardware6came
265:   FUNC GLOBAL DEFAULT 14 _ZN7android8hardware6came
266:   FUNC GLOBAL DEFAULT 14 _ZN7android8hardware6came
267:   FUNC GLOBAL DEFAULT 14 _ZN7android8hardware6came
268:   FUNC GLOBAL DEFAULT 14 _ZN7android8hardware6came
269:   FUNC GLOBAL DEFAULT 14 _ZN7android8hardware6came
270:   FUNC GLOBAL DEFAULT 14 _ZN7android8hardware6came
271:   OBJECT GLOBAL DEFAULT 18 _ZTCN7android8hardware6ca
272:   OBJECT GLOBAL DEFAULT 18 _ZTCN7android8hardware6ca
273:   FUNC GLOBAL DEFAULT 14 _ZThn32_N7android8hardwar
274:   FUNC GLOBAL DEFAULT 14 _ZN7android8hardware6came
275:   FUNC GLOBAL DEFAULT 14 _ZN7android8hardware6came
276:   FUNC WEAK DEFAULT 14 _ZNSt3__113__tree_removeI
277:   FUNC GLOBAL DEFAULT 14 _ZN7android8hardware6came
278:   FUNC GLOBAL DEFAULT 14 _ZN7android8hardware6came
279:   FUNC GLOBAL DEFAULT 14 _ZN7android8hardware6came
280:   FUNC GLOBAL DEFAULT 14 _ZN7android8hardware6came
281:   FUNC GLOBAL DEFAULT 14 _ZTv0_n24_N7android8hardw
282:   FUNC GLOBAL DEFAULT 14 _ZN7android8hardware6came
283:   FUNC GLOBAL DEFAULT 14 _ZN7android8hardware6came
284:   FUNC GLOBAL DEFAULT 14 _ZN7android8hardware6came
285:   OBJECT GLOBAL DEFAULT 18 _ZTCN7android8hardware6ca
286:   OBJECT WEAK DEFAULT 18 _ZTVN7android8hardware6ca
287:   FUNC GLOBAL DEFAULT 14 _ZN7android8hardware6came
288:   FUNC GLOBAL DEFAULT 14 _ZN7android8hardware6came
289:   FUNC GLOBAL DEFAULT 14 _ZN7android8hardware6came
290:   FUNC GLOBAL DEFAULT 14 _ZN7android8hardware6came
291:   FUNC WEAK DEFAULT 14 _ZN7android8hardware7deta
292:   OBJECT GLOBAL DEFAULT 18 _ZTCN7android8hardware6ca
293:   FUNC WEAK DEFAULT 14 _ZNSt3__16vectorIN7androi
294:   FUNC GLOBAL DEFAULT 14 _ZN7android8hardware6came
295:   FUNC GLOBAL DEFAULT 14 _ZN7android8hardware6came
296:   FUNC GLOBAL DEFAULT 14 _ZN7android8hardware6came
297:   OBJECT GLOBAL DEFAULT 18 _ZTCN7android8hardware6ca
298:   FUNC GLOBAL DEFAULT 14 _ZN7android8hardware6came
299:   FUNC WEAK DEFAULT 14 _ZN7android8hardware7deta
300:   OBJECT GLOBAL DEFAULT 18 _ZTCN7android8hardware6ca
301:   FUNC GLOBAL DEFAULT 14 _ZN7android8hardware6came
302:   FUNC GLOBAL DEFAULT 14 _ZN7android8hardware6came
303:   FUNC GLOBAL DEFAULT 14 _ZN7android8hardware6came
304:   FUNC GLOBAL DEFAULT 14 _ZN7android8hardware6came
305:   FUNC WEAK DEFAULT 14 _ZN7android8hardware7deta
306:   FUNC GLOBAL DEFAULT 14 _ZTv0_n24_N7android8hardw
307:   FUNC GLOBAL DEFAULT 14 _ZN7android8hardware6came
308:   FUNC GLOBAL DEFAULT 14 _ZN7android8hardware6came
309:   FUNC GLOBAL DEFAULT 14 _ZN7android8hardware6came
310:   OBJECT GLOBAL DEFAULT 18 _ZTCN7android8hardware6ca
311:   FUNC GLOBAL DEFAULT 14 _ZN7android8hardware6came
312:   OBJECT GLOBAL DEFAULT 18 _ZTVN7android8hardware6ca
313:   FUNC GLOBAL DEFAULT 14 _ZN7android8hardware6came
314:   FUNC GLOBAL DEFAULT 14 _ZN7android8hardware6came
315:   FUNC WEAK DEFAULT 14 _ZNSt3__16__treeINS_12__v
316:   FUNC GLOBAL DEFAULT 14 _ZN7android8hardware6came
317:   FUNC WEAK DEFAULT 14 _ZN7android8hardware7deta
318:   FUNC WEAK DEFAULT 14 _ZNSt3__16vectorINS_8func
319:   OBJECT GLOBAL DEFAULT 18 _ZTVN7android8hardware6ca
320:   OBJECT GLOBAL DEFAULT 18 _ZTCN7android8hardware6ca
321:   FUNC GLOBAL DEFAULT 14 _ZN7android8hardware6came
322:   FUNC GLOBAL DEFAULT 14 _ZN7android8hardware6came
323:   FUNC GLOBAL DEFAULT 14 _ZN7android8hardware6came
324:   OBJECT GLOBAL DEFAULT 18 _ZTCN7android8hardware6ca
325:   FUNC GLOBAL DEFAULT 14 _ZN7android8hardware6came
326:   FUNC WEAK DEFAULT 14 _ZNSt3__16__treeINS_12__v
327:   OBJECT GLOBAL DEFAULT 18 _ZTVN7android8hardware6ca
328:   FUNC GLOBAL DEFAULT 14 _ZN7android8hardware6came
329:   FUNC GLOBAL DEFAULT 14 _ZN7android8hardware6came
330:   FUNC GLOBAL DEFAULT 14 _ZN7android8hardware6came
331:   FUNC GLOBAL DEFAULT 14 _ZN7android8hardware6came
332:   FUNC GLOBAL DEFAULT 14 _ZN7android8hardware6came
333:   FUNC WEAK DEFAULT 14 _ZNSt3__16__treeINS_12__v
334:   OBJECT GLOBAL DEFAULT 18 _ZTTN7android8hardware6ca
335:   OBJECT GLOBAL DEFAULT 16 _ZN7android8hardware6came
336:   OBJECT GLOBAL DEFAULT 18 _ZTCN7android8hardware6ca
337:   FUNC GLOBAL DEFAULT 14 _ZN7android8hardware6came
338:   FUNC GLOBAL DEFAULT 14 _ZN7android8hardware6came
339:   OBJECT WEAK DEFAULT 18 _ZTCN7android8hardware6ca
340:   FUNC GLOBAL DEFAULT 14 _ZN7android8hardware6came
341:   FUNC GLOBAL DEFAULT 14 _ZN7android8hardware6came
342:   FUNC GLOBAL DEFAULT 14 _ZN7android8hardware6came
343:   OBJECT GLOBAL DEFAULT 18 _ZTCN7android8hardware6ca
344:   FUNC GLOBAL DEFAULT 14 _ZTv0_n24_N7android8hardw
345:   FUNC GLOBAL DEFAULT 14 _ZN7android8hardware6came
346:   FUNC GLOBAL DEFAULT 14 _ZN7android8hardware6came
347:   FUNC GLOBAL DEFAULT 14 _ZN7android8hardware6came
348:   FUNC WEAK DEFAULT 14 _ZNSt3__16__treeINS_12__v
349:   OBJECT GLOBAL DEFAULT 18 _ZTCN7android8hardware6ca
350:   FUNC GLOBAL DEFAULT 14 _ZN7android8hardware6came
351:   FUNC GLOBAL DEFAULT 14 _ZN7android8hardware6came
352:   OBJECT GLOBAL DEFAULT 18 _ZTVN7android8hardware6ca
353:   FUNC GLOBAL DEFAULT 14 _ZN7android8hardware6came
354:   FUNC GLOBAL DEFAULT 14 _ZN7android8hardware6came
355:   FUNC WEAK DEFAULT 14 _ZNSt3__16__treeINS_12__v
356:   OBJECT GLOBAL DEFAULT 18 _ZTVN7android8hardware6ca
357:   FUNC GLOBAL DEFAULT 14 _ZN7android8hardware6came
358:   FUNC GLOBAL DEFAULT 14 _ZN7android8hardware6came
359:   FUNC GLOBAL DEFAULT 14 _ZN7android8hardware6came
360:   FUNC WEAK DEFAULT 14 _ZN7android8hardware7deta
361:   OBJECT GLOBAL DEFAULT 18 _ZTCN7android8hardware6ca
362:   FUNC GLOBAL DEFAULT 14 _ZTv0_n24_N7android8hardw
363:   FUNC GLOBAL DEFAULT 14 _ZN7android8hardware6came
364:   FUNC GLOBAL DEFAULT 14 _ZN7android8hardware6came
365:   FUNC GLOBAL DEFAULT 14 _ZN7android8hardware6came
366:   FUNC GLOBAL DEFAULT 14 _ZN7android8hardware6came
367:   FUNC GLOBAL DEFAULT 14 _ZN7android8hardware6came
368:   FUNC GLOBAL DEFAULT 14 _ZN7android8hardware6came
369:   FUNC GLOBAL DEFAULT 14 _ZN7android8hardware6came
370:   FUNC GLOBAL DEFAULT 14 _ZN7android8hardware6came
371:   OBJECT WEAK DEFAULT 18 _ZTCN7android8hardware6ca
372:   FUNC GLOBAL DEFAULT 14 _ZN7android8hardware6came
373:   FUNC GLOBAL DEFAULT 14 _ZN7android8hardware6came
374:   FUNC WEAK DEFAULT 14 _ZNSt3__127__tree_balance
375:   OBJECT GLOBAL DEFAULT 18 _ZTCN7android8hardware6ca
376:   FUNC GLOBAL DEFAULT 14 _ZN7android8hardware6came
377:   FUNC GLOBAL DEFAULT 14 _ZN7android8hardware6came
378:   FUNC GLOBAL DEFAULT 14 _ZN7android8hardware6came
379:   FUNC GLOBAL DEFAULT 14 _ZN7android8hardware6came
380:   FUNC GLOBAL DEFAULT 14 _ZN7android8hardware6came
381:   FUNC GLOBAL DEFAULT 14 _ZN7android8hardware6came
382:   FUNC GLOBAL DEFAULT 14 _ZN7android8hardware6came
383:   FUNC WEAK DEFAULT 14 _ZN7android8hardware7deta
384:   OBJECT GLOBAL DEFAULT 18 _ZTTN7android8hardware6ca
385:   OBJECT GLOBAL DEFAULT 18 _ZTCN7android8hardware6ca
386:   FUNC GLOBAL DEFAULT 14 _ZThn32_N7android8hardwar
387:   FUNC GLOBAL DEFAULT 14 _ZN7android8hardware6came
388:   FUNC GLOBAL DEFAULT 14 _ZN7android8hardware6came
389:   FUNC GLOBAL DEFAULT 14 _ZN7android8hardware6came
390:   FUNC GLOBAL DEFAULT 14 _ZN7android8hardware6came
391:   OBJECT GLOBAL DEFAULT 18 _ZTTN7android8hardware6ca
392:   FUNC GLOBAL DEFAULT 14 _ZN7android8hardware6came
393:   FUNC GLOBAL DEFAULT 14 _ZN7android8hardware6came
