 0x0000000e (SONAME)                     Library soname: [libmediametrics.so]
  
Symbol   contains 252 entries:
Num:   Type Bind Vis Ndx Name
0:   NOTYPE LOCAL DEFAULT UND
1:   FUNC GLOBAL DEFAULT UND __cxa_atexit@LIBC (2)
2:   FUNC GLOBAL DEFAULT UND __cxa_finalize@LIBC (2)
3:   FUNC GLOBAL DEFAULT UND _ZN7android10IInterfaceC2
4:   FUNC GLOBAL DEFAULT UND _ZN7android10IInterfaceD0
5:   FUNC GLOBAL DEFAULT UND _ZN7android10IInterfaceD1
6:   FUNC GLOBAL DEFAULT UND _ZN7android10IInterfaceD2
7:   FUNC GLOBAL DEFAULT UND _ZN7android14IPCThreadSta
8:   FUNC GLOBAL DEFAULT UND _ZN7android14sp_report_ra
9:   FUNC GLOBAL DEFAULT UND _ZN7android6Parcel10write
10:   FUNC GLOBAL DEFAULT UND _ZN7android6Parcel19write
11:   FUNC GLOBAL DEFAULT UND _ZN7android6Parcel9writeB
12:   FUNC GLOBAL DEFAULT UND _ZN7android6ParcelC1Ev
13:   FUNC GLOBAL DEFAULT UND _ZN7android6ParcelD1Ev
14:   FUNC GLOBAL DEFAULT UND _ZN7android7BBinder10onTr
15:   FUNC GLOBAL DEFAULT UND _ZN7android7BBinder10ping
16:   FUNC GLOBAL DEFAULT UND _ZN7android7BBinder11link
17:   FUNC GLOBAL DEFAULT UND _ZN7android7BBinder11loca
18:   FUNC GLOBAL DEFAULT UND _ZN7android7BBinder12atta
19:   FUNC GLOBAL DEFAULT UND _ZN7android7BBinder12deta
20:   FUNC GLOBAL DEFAULT UND _ZN7android7BBinder13unli
21:   FUNC GLOBAL DEFAULT UND _ZN7android7BBinder4dumpE
22:   FUNC GLOBAL DEFAULT UND _ZN7android7BBinder8trans
23:   FUNC GLOBAL DEFAULT UND _ZN7android7BBinderD0Ev
24:   FUNC GLOBAL DEFAULT UND _ZN7android7BBinderD1Ev
25:   FUNC GLOBAL DEFAULT UND _ZN7android7IBinder11loca
26:   FUNC GLOBAL DEFAULT UND _ZN7android7IBinder12remo
27:   FUNC GLOBAL DEFAULT UND _ZN7android7IBinder19quer
28:   FUNC GLOBAL DEFAULT UND _ZN7android7IBinderD0Ev
29:   FUNC GLOBAL DEFAULT UND _ZN7android7IBinderD1Ev
30:   FUNC GLOBAL DEFAULT UND _ZN7android7RefBase10onFi
31:   FUNC GLOBAL DEFAULT UND _ZN7android7RefBase13onLa
32:   FUNC GLOBAL DEFAULT UND _ZN7android7RefBase15onLa
33:   FUNC GLOBAL DEFAULT UND _ZN7android7RefBase20onIn
34:   FUNC GLOBAL DEFAULT UND _ZN7android7RefBaseC2Ev
35:   FUNC GLOBAL DEFAULT UND _ZN7android7RefBaseD2Ev
36:   FUNC GLOBAL DEFAULT UND _ZN7android8String16C1EPK
37:   FUNC GLOBAL DEFAULT UND _ZN7android8String16D1Ev
38:   FUNC GLOBAL DEFAULT UND _ZN7android9BpRefBase10on
39:   FUNC GLOBAL DEFAULT UND _ZN7android9BpRefBase15on
40:   FUNC GLOBAL DEFAULT UND _ZN7android9BpRefBase20on
41:   FUNC GLOBAL DEFAULT UND _ZN7android9BpRefBaseC2ER
42:   FUNC GLOBAL DEFAULT UND _ZN7android9BpRefBaseD0Ev
43:   FUNC GLOBAL DEFAULT UND _ZN7android9BpRefBaseD1Ev
44:   FUNC GLOBAL DEFAULT UND _ZN7android9BpRefBaseD2Ev
45:   FUNC GLOBAL DEFAULT UND _ZNK7android14IPCThreadSt
46:   FUNC GLOBAL DEFAULT UND _ZNK7android6Parcel14chec
47:   FUNC GLOBAL DEFAULT UND _ZNK7android6Parcel8readB
48:   FUNC GLOBAL DEFAULT UND _ZNK7android6Parcel9readI
49:   FUNC GLOBAL DEFAULT UND _ZNK7android7BBinder10fin
50:   FUNC GLOBAL DEFAULT UND _ZNK7android7BBinder13isB
51:   FUNC GLOBAL DEFAULT UND _ZNK7android7BBinder22get
52:   FUNC GLOBAL DEFAULT UND _ZNK7android7IBinder13che
53:   FUNC GLOBAL DEFAULT UND _ZNK7android7RefBase9decS
54:   FUNC GLOBAL DEFAULT UND _ZNK7android7RefBase9incS
55:   FUNC GLOBAL DEFAULT UND _ZNK7android8String164siz
56:   FUNC GLOBAL DEFAULT UND _ZTv0_n12_N7android10IInt
57:   FUNC GLOBAL DEFAULT UND _ZTv0_n12_N7android10IInt
58:   FUNC GLOBAL DEFAULT UND _ZTv0_n12_N7android7BBind
59:   FUNC GLOBAL DEFAULT UND _ZTv0_n12_N7android7BBind
60:   FUNC GLOBAL DEFAULT UND _ZTv0_n12_N7android7IBind
61:   FUNC GLOBAL DEFAULT UND _ZTv0_n12_N7android7IBind
62:   FUNC GLOBAL DEFAULT UND _ZTv0_n12_N7android9BpRef
63:   FUNC GLOBAL DEFAULT UND _ZTv0_n12_N7android9BpRef
64:   FUNC GLOBAL DEFAULT UND _ZTv0_n16_N7android9BpRef
65:   FUNC GLOBAL DEFAULT UND _ZTv0_n20_N7android9BpRef
66:   FUNC GLOBAL DEFAULT UND _ZTv0_n24_N7android9BpRef
67:   FUNC GLOBAL DEFAULT UND _ZdlPv
68:   FUNC GLOBAL DEFAULT UND _Znwj
69:   FUNC GLOBAL DEFAULT UND __android_log_print@LIBLOG (3)
70:   FUNC GLOBAL DEFAULT UND __cxa_pure_virtual
71:   FUNC GLOBAL DEFAULT UND __stack_chk_fail@LIBC (2)
72:   OBJECT GLOBAL DEFAULT UND __stack_chk_guard@LIBC (2)
73:   FUNC GLOBAL DEFAULT UND abort@LIBC (2)
74:   FUNC GLOBAL DEFAULT UND strzcmp16
75:   FUNC GLOBAL DEFAULT UND _ZN7android21defaultServi
76:   FUNC GLOBAL DEFAULT UND _ZN7android6Parcel10write
77:   FUNC GLOBAL DEFAULT UND _ZN7android6Parcel11write
78:   FUNC GLOBAL DEFAULT UND _ZN7android6Parcel12write
79:   FUNC GLOBAL DEFAULT UND _ZNK7android6Parcel10read
80:   FUNC GLOBAL DEFAULT UND _ZNK7android6Parcel11read
81:   FUNC GLOBAL DEFAULT UND _ZNK7android6Parcel9readI
82:   FUNC GLOBAL DEFAULT UND _ZNKSt3__121__basic_strin
83:   FUNC GLOBAL DEFAULT UND _ZNSt3__112basic_stringIc
84:   FUNC GLOBAL DEFAULT UND _ZNSt3__112basic_stringIc
85:   FUNC GLOBAL DEFAULT UND _ZNSt3__112basic_stringIc
86:   FUNC GLOBAL DEFAULT UND _ZNSt3__112basic_stringIc
87:   FUNC GLOBAL DEFAULT UND _ZNSt3__112basic_stringIc
88:   FUNC GLOBAL DEFAULT UND _ZNSt3__112basic_stringIc
89:   FUNC GLOBAL DEFAULT UND __android_log_assert@LIBLOG (3)
90:   FUNC GLOBAL DEFAULT UND __vsnprintf_chk@LIBC (2)
91:   FUNC GLOBAL DEFAULT UND free@LIBC (2)
92:   FUNC GLOBAL DEFAULT UND getuid@LIBC (2)
93:   FUNC GLOBAL DEFAULT UND malloc@LIBC (2)
94:   FUNC GLOBAL DEFAULT UND memcmp@LIBC (2)
95:   FUNC GLOBAL DEFAULT UND property_get_int32
96:   FUNC GLOBAL DEFAULT UND pthread_mutex_destroy@LIBC (2)
97:   FUNC GLOBAL DEFAULT UND pthread_mutex_init@LIBC (2)
98:   FUNC GLOBAL DEFAULT UND pthread_mutex_lock@LIBC (2)
99:   FUNC GLOBAL DEFAULT UND pthread_mutex_unlock@LIBC (2)
100:   FUNC GLOBAL DEFAULT UND realloc@LIBC (2)
101:   FUNC GLOBAL DEFAULT UND strcmp@LIBC (2)
102:   FUNC GLOBAL DEFAULT UND strdup@LIBC (2)
103:   FUNC GLOBAL DEFAULT UND strlen@LIBC (2)
104:   FUNC WEAK DEFAULT UND android_set_abort_message@LIBC (2)
105:   FUNC GLOBAL DEFAULT UND write@LIBC (2)
106:   FUNC GLOBAL DEFAULT UND memcpy@LIBC (2)
107:   FUNC GLOBAL DEFAULT UND memset@LIBC (2)
108:   FUNC GLOBAL DEFAULT 14 _ZN7android18MediaAnalyti
109:   FUNC GLOBAL DEFAULT 14 mediametrics_getInt64
110:   FUNC GLOBAL DEFAULT 14 __aeabi_memclr8
111:   FUNC WEAK DEFAULT 14 _ZN7android11BnInterfaceI
112:   OBJECT GLOBAL DEFAULT 23 _ZN7android18MediaAnalyti
113:   FUNC GLOBAL DEFAULT 14 _ZN7android18MediaAnalyti
114:   FUNC GLOBAL DEFAULT 14 _ZN7android18MediaAnalyti
115:   OBJECT GLOBAL DEFAULT 18 _ZTCN7android23BnMediaAna
116:   OBJECT WEAK DEFAULT 18 _ZTCN7android23BpMediaAna
117:   OBJECT WEAK DEFAULT 18 _ZTVN7android23BpMediaAna
118:   FUNC GLOBAL DEFAULT 14 _ZN7android18MediaAnalyti
119:   FUNC GLOBAL DEFAULT 14 mediametrics_getRate
120:   FUNC GLOBAL DEFAULT 14 __aeabi_memset8
121:   FUNC GLOBAL DEFAULT 14 _ZN7android18MediaAnalyti
122:   FUNC GLOBAL DEFAULT 14 _ZN7android18MediaAnalyti
123:   FUNC GLOBAL DEFAULT 14 _ZN7android18MediaAnalyti
124:   FUNC GLOBAL DEFAULT 14 _ZN7android18MediaAnalyti
125:   FUNC GLOBAL DEFAULT 14 mediametrics_addInt32
126:   FUNC GLOBAL DEFAULT 14 mediametrics_selfRecord
127:   OBJECT GLOBAL DEFAULT 18 _ZTVN7android22IMediaAnal
128:   OBJECT GLOBAL DEFAULT 18 _ZTVN7android23BnMediaAna
129:   FUNC GLOBAL DEFAULT 14 _ZN7android18MediaAnalyti
130:   FUNC GLOBAL DEFAULT 14 _ZN7android22IMediaAnalyt
131:   FUNC GLOBAL DEFAULT 14 _ZN7android22IMediaAnalyt
132:   FUNC GLOBAL DEFAULT 14 _ZN7android22IMediaAnalyt
133:   OBJECT GLOBAL DEFAULT 18 _ZTCN7android23BnMediaAna
134:   OBJECT GLOBAL DEFAULT 18 _ZTCN7android23BnMediaAna
135:   FUNC GLOBAL DEFAULT 14 _ZN7android18MediaAnalyti
136:   OBJECT GLOBAL DEFAULT 23 _ZN7android22IMediaAnalyt
137:   OBJECT WEAK DEFAULT 18 _ZTCN7android23BpMediaAna
138:   FUNC GLOBAL DEFAULT 14 mediametrics_getInt32
139:   OBJECT GLOBAL DEFAULT 23 _ZN7android22IMediaAnalyt
140:   FUNC GLOBAL DEFAULT 14 _ZN7android18MediaAnalyti
141:   FUNC GLOBAL DEFAULT 14 _ZN7android18MediaAnalyti
142:   OBJECT GLOBAL DEFAULT 12 _ZN7android18MediaAnalyti
143:   FUNC GLOBAL DEFAULT 14 __aeabi_l2d
144:   FUNC GLOBAL DEFAULT 14 __aeabi_memcpy4
145:   FUNC GLOBAL DEFAULT 14 _ZNK7android22IMediaAnaly
146:   FUNC GLOBAL DEFAULT 14 _ZN7android18MediaAnalyti
147:   FUNC GLOBAL DEFAULT 14 _ZN7android18MediaAnalyti
148:   FUNC GLOBAL DEFAULT 14 _ZN7android18MediaAnalyti
149:   OBJECT GLOBAL DEFAULT 23 _ZN7android18MediaAnalyti
150:   FUNC GLOBAL DEFAULT 14 _ZN7android18MediaAnalyti
151:   FUNC GLOBAL DEFAULT 14 _ZN7android22IMediaAnalyt
152:   OBJECT GLOBAL DEFAULT 18 _ZTCN7android22IMediaAnal
153:   FUNC GLOBAL DEFAULT 14 _ZN7android18MediaAnalyti
154:   FUNC GLOBAL DEFAULT 14 _ZN7android18MediaAnalyti
155:   OBJECT GLOBAL DEFAULT 23 _ZN7android18MediaAnalyti
156:   FUNC GLOBAL DEFAULT 14 _ZN7android18MediaAnalyti
157:   FUNC GLOBAL DEFAULT 14 mediametrics_setUid
158:   FUNC GLOBAL DEFAULT 14 _ZTv0_n12_N7android22IMed
159:   FUNC GLOBAL DEFAULT 14 _ZN7android18MediaAnalyti
160:   FUNC GLOBAL DEFAULT 14 _ZN7android18MediaAnalyti
161:   FUNC GLOBAL DEFAULT 14 mediametrics_getAttribute
162:   FUNC GLOBAL DEFAULT 14 mediametrics_isEnabled
163:   FUNC GLOBAL DEFAULT 14 _ZN7android22IMediaAnalyt
164:   FUNC GLOBAL DEFAULT 14 _ZN7android23BnMediaAnaly
165:   OBJECT GLOBAL DEFAULT 18 _ZN7android18MediaAnalyti
166:   FUNC GLOBAL DEFAULT 14 _ZN7android18MediaAnalyti
167:   FUNC GLOBAL DEFAULT 14 __aeabi_memcpy8
168:   FUNC GLOBAL DEFAULT 14 _ZN7android18MediaAnalyti
169:   FUNC GLOBAL DEFAULT 14 _ZN7android18MediaAnalyti
170:   FUNC GLOBAL DEFAULT 14 _ZNK7android18MediaAnalyt
171:   FUNC GLOBAL DEFAULT 14 mediametrics_count
172:   FUNC GLOBAL DEFAULT 14 _ZN7android18MediaAnalyti
173:   FUNC GLOBAL DEFAULT 14 _ZN7android18MediaAnalyti
174:   FUNC WEAK DEFAULT 14 _ZN7android2spINS_25Media
175:   FUNC GLOBAL DEFAULT 14 _ZNK7android18MediaAnalyt
176:   FUNC GLOBAL DEFAULT 14 _ZNK7android18MediaAnalyt
177:   FUNC GLOBAL DEFAULT 14 mediametrics_getCString
178:   FUNC GLOBAL DEFAULT 14 mediametrics_setCString
179:   FUNC GLOBAL DEFAULT 14 _ZN7android18MediaAnalyti
180:   FUNC GLOBAL DEFAULT 14 _ZN7android18MediaAnalyti
181:   FUNC GLOBAL DEFAULT 14 _ZN7android18MediaAnalyti
182:   FUNC GLOBAL DEFAULT 14 _ZNK7android18MediaAnalyt
183:   FUNC GLOBAL DEFAULT 14 mediametrics_getDouble
184:   FUNC GLOBAL DEFAULT 14 _ZN7android18MediaAnalyti
185:   FUNC GLOBAL DEFAULT 14 _ZN7android18MediaAnalyti
186:   FUNC GLOBAL DEFAULT 14 __aeabi_memset
187:   FUNC GLOBAL DEFAULT 14 _ZN7android18MediaAnalyti
188:   FUNC GLOBAL DEFAULT 14 _ZN7android18MediaAnalyti
189:   FUNC GLOBAL DEFAULT 14 _ZN7android18MediaAnalyti
190:   FUNC GLOBAL DEFAULT 14 _ZN7android18MediaAnalyti
191:   FUNC GLOBAL DEFAULT 14 _ZN7android18MediaAnalyti
192:   FUNC GLOBAL DEFAULT 14 mediametrics_addRate
193:   FUNC GLOBAL DEFAULT 14 __floatdidf
194:   FUNC GLOBAL DEFAULT 14 _ZN7android18MediaAnalyti
195:   FUNC GLOBAL DEFAULT 14 _ZN7android18MediaAnalyti
196:   FUNC GLOBAL DEFAULT 14 _ZN7android18MediaAnalyti
197:   FUNC GLOBAL DEFAULT 14 _ZTv0_n12_N7android22IMed
198:   FUNC GLOBAL DEFAULT 14 _ZN7android18MediaAnalyti
199:   FUNC GLOBAL DEFAULT 14 mediametrics_addDouble
200:   FUNC GLOBAL DEFAULT 14 mediametrics_freeCString
201:   FUNC GLOBAL DEFAULT 14 _ZN7android18MediaAnalyti
202:   FUNC GLOBAL DEFAULT 14 _ZN7android22IMediaAnalyt
203:   FUNC GLOBAL DEFAULT 14 _ZN7android18MediaAnalyti
204:   FUNC GLOBAL DEFAULT 14 _ZN7android18MediaAnalyti
205:   OBJECT WEAK DEFAULT 18 _ZTTN7android23BpMediaAna
206:   FUNC GLOBAL DEFAULT 14 _ZN7android18MediaAnalyti
207:   FUNC GLOBAL DEFAULT 14 _ZN7android18MediaAnalyti
208:   FUNC GLOBAL DEFAULT 14 _ZNK7android18MediaAnalyt
209:   FUNC GLOBAL DEFAULT 14 mediametrics_delete
210:   OBJECT GLOBAL DEFAULT 18 _ZTTN7android23BnMediaAna
211:   FUNC GLOBAL DEFAULT 14 _ZN7android18MediaAnalyti
212:   FUNC GLOBAL DEFAULT 14 _ZN7android18MediaAnalyti
213:   FUNC GLOBAL DEFAULT 14 __aeabi_memcpy
214:   FUNC GLOBAL DEFAULT 14 mediametrics_readable
215:   FUNC GLOBAL DEFAULT 14 mediametrics_setRate
216:   OBJECT GLOBAL DEFAULT 18 _ZTCN7android23BnMediaAna
217:   FUNC GLOBAL DEFAULT 14 _ZN7android18MediaAnalyti
218:   FUNC GLOBAL DEFAULT 14 _ZN7android18MediaAnalyti
219:   FUNC GLOBAL DEFAULT 14 _ZN7android18MediaAnalyti
220:   FUNC GLOBAL DEFAULT 14 _ZN7android18MediaAnalyti
221:   FUNC GLOBAL DEFAULT 14 mediametrics_getKey
222:   FUNC GLOBAL DEFAULT 14 mediametrics_setInt64
223:   FUNC GLOBAL DEFAULT 14 _ZN7android18MediaAnalyti
224:   OBJECT WEAK DEFAULT 18 _ZTCN7android23BpMediaAna
225:   OBJECT WEAK DEFAULT 18 _ZTCN7android23BpMediaAna
226:   FUNC GLOBAL DEFAULT 14 mediametrics_setDouble
227:   FUNC GLOBAL DEFAULT 14 _ZN7android18MediaAnalyti
228:   OBJECT GLOBAL DEFAULT 18 _ZN7android18MediaAnalyti
229:   FUNC GLOBAL DEFAULT 14 _ZN7android18MediaAnalyti
230:   FUNC GLOBAL DEFAULT 14 _ZN7android18MediaAnalyti
231:   FUNC GLOBAL DEFAULT 14 _ZN7android18MediaAnalyti
232:   FUNC GLOBAL DEFAULT 14 _ZN7android18MediaAnalyti
233:   FUNC GLOBAL DEFAULT 14 _ZThn4_N7android23BnMedia
234:   FUNC GLOBAL DEFAULT 14 _ZN7android18MediaAnalyti
235:   FUNC GLOBAL DEFAULT 14 __aeabi_memclr
236:   FUNC GLOBAL DEFAULT 14 __aeabi_memclr4
237:   FUNC GLOBAL DEFAULT 14 _ZN7android18MediaAnalyti
238:   FUNC GLOBAL DEFAULT 14 _ZN7android22IMediaAnalyt
239:   OBJECT GLOBAL DEFAULT 18 _ZTCN7android23BnMediaAna
240:   FUNC GLOBAL DEFAULT 14 _ZN7android18MediaAnalyti
241:   FUNC GLOBAL DEFAULT 14 _ZNK7android18MediaAnalyt
242:   FUNC GLOBAL DEFAULT 14 mediametrics_addInt64
243:   FUNC GLOBAL DEFAULT 14 _ZN7android18MediaAnalyti
244:   OBJECT GLOBAL DEFAULT 18 _ZTTN7android22IMediaAnal
245:   FUNC GLOBAL DEFAULT 14 _ZN7android18MediaAnalyti
246:   FUNC GLOBAL DEFAULT 14 _ZN7android18MediaAnalyti
247:   FUNC WEAK DEFAULT 14 _ZN7android2spINS_22IMedi
248:   OBJECT WEAK DEFAULT 18 _ZTVN7android25MediaMetri
249:   FUNC GLOBAL DEFAULT 14 mediametrics_create
250:   FUNC GLOBAL DEFAULT 14 mediametrics_setInt32
251:   FUNC GLOBAL DEFAULT 14 __aeabi_memset4
