 0x000000000000000e (SONAME)             Library soname: [android.frameworks.displayservice@1.0.so]
  
Symbol   contains 381 entries:
Num:   Type Bind Vis Ndx Name
0:   NOTYPE LOCAL DEFAULT UND
1:   FUNC GLOBAL DEFAULT UND __cxa_finalize@LIBC (2)
2:   FUNC GLOBAL DEFAULT UND _ZN7android14sp_report_ra
3:   FUNC GLOBAL DEFAULT UND _ZN7android21report_syspr
4:   OBJECT GLOBAL DEFAULT UND _ZN7android4hidl4base4V1_
5:   FUNC GLOBAL DEFAULT UND _ZN7android4hidl4base4V1_
6:   FUNC GLOBAL DEFAULT UND _ZN7android4hidl4base4V1_
7:   FUNC GLOBAL DEFAULT UND _ZN7android4hidl4base4V1_
8:   FUNC GLOBAL DEFAULT UND _ZN7android4hidl4base4V1_
9:   FUNC GLOBAL DEFAULT UND _ZN7android4hidl4base4V1_
10:   FUNC GLOBAL DEFAULT UND _ZN7android4hidl4base4V1_
11:   FUNC GLOBAL DEFAULT UND _ZN7android4hidl4base4V1_
12:   FUNC GLOBAL DEFAULT UND _ZN7android4hidl4base4V1_
13:   FUNC GLOBAL DEFAULT UND _ZN7android4hidl4base4V1_
14:   FUNC GLOBAL DEFAULT UND _ZN7android4hidl4base4V1_
15:   FUNC GLOBAL DEFAULT UND _ZN7android4hidl4base4V1_
16:   FUNC GLOBAL DEFAULT UND _ZN7android4hidl4base4V1_
17:   FUNC GLOBAL DEFAULT UND _ZN7android4hidl4base4V1_
18:   FUNC GLOBAL DEFAULT UND _ZN7android4hidl4base4V1_
19:   FUNC GLOBAL DEFAULT UND _ZN7android4hidl4base4V1_
20:   FUNC GLOBAL DEFAULT UND _ZN7android4hidl4base4V1_
21:   FUNC GLOBAL DEFAULT UND _ZN7android4hidl4base4V1_
22:   FUNC GLOBAL DEFAULT UND _ZN7android4hidl4base4V1_
23:   FUNC GLOBAL DEFAULT UND _ZN7android4hidl4base4V1_
24:   FUNC GLOBAL DEFAULT UND _ZN7android4hidl4base4V1_
25:   FUNC GLOBAL DEFAULT UND _ZN7android4hidl4base4V1_
26:   FUNC GLOBAL DEFAULT UND _ZN7android4hidl4base4V1_
27:   FUNC GLOBAL DEFAULT UND _ZN7android4hidl4base4V1_
28:   FUNC GLOBAL DEFAULT UND _ZN7android7RefBase10onFi
29:   FUNC GLOBAL DEFAULT UND _ZN7android7RefBase12weak
30:   FUNC GLOBAL DEFAULT UND _ZN7android7RefBase13onLa
31:   FUNC GLOBAL DEFAULT UND _ZN7android7RefBase15onLa
32:   FUNC GLOBAL DEFAULT UND _ZN7android7RefBase20onIn
33:   FUNC GLOBAL DEFAULT UND _ZN7android7RefBaseC2Ev
34:   FUNC GLOBAL DEFAULT UND _ZN7android7RefBaseD2Ev
35:   FUNC GLOBAL DEFAULT UND _ZN7android8hardware10IIn
36:   FUNC GLOBAL DEFAULT UND _ZN7android8hardware10IIn
37:   FUNC GLOBAL DEFAULT UND _ZN7android8hardware10IIn
38:   FUNC GLOBAL DEFAULT UND _ZN7android8hardware10IIn
39:   FUNC GLOBAL DEFAULT UND _ZN7android8hardware10IIn
40:   FUNC GLOBAL DEFAULT UND _ZN7android8hardware11BpH
41:   FUNC GLOBAL DEFAULT UND _ZN7android8hardware11BpH
42:   FUNC GLOBAL DEFAULT UND _ZN7android8hardware11BpH
43:   FUNC GLOBAL DEFAULT UND _ZN7android8hardware11BpH
44:   FUNC GLOBAL DEFAULT UND _ZN7android8hardware11BpH
45:   FUNC GLOBAL DEFAULT UND _ZN7android8hardware11BpH
46:   FUNC GLOBAL DEFAULT UND _ZN7android8hardware11BpH
47:   FUNC GLOBAL DEFAULT UND _ZN7android8hardware11hid
48:   FUNC GLOBAL DEFAULT UND _ZN7android8hardware11hid
49:   FUNC GLOBAL DEFAULT UND _ZN7android8hardware11hid
50:   FUNC GLOBAL DEFAULT UND _ZN7android8hardware11hid
51:   FUNC GLOBAL DEFAULT UND _ZN7android8hardware11hid
52:   FUNC GLOBAL DEFAULT UND _ZN7android8hardware12Pro
53:   FUNC GLOBAL DEFAULT UND _ZN7android8hardware12Pro
54:   FUNC GLOBAL DEFAULT UND _ZN7android8hardware13wri
55:   FUNC GLOBAL DEFAULT UND _ZN7android8hardware14rea
56:   FUNC GLOBAL DEFAULT UND _ZN7android8hardware21def
57:   FUNC GLOBAL DEFAULT UND _ZN7android8hardware23get
58:   FUNC GLOBAL DEFAULT UND _ZN7android8hardware27hid
59:   FUNC GLOBAL DEFAULT UND _ZN7android8hardware27hid
60:   FUNC GLOBAL DEFAULT UND _ZN7android8hardware6Parc
61:   FUNC GLOBAL DEFAULT UND _ZN7android8hardware6Parc
62:   FUNC GLOBAL DEFAULT UND _ZN7android8hardware6Parc
63:   FUNC GLOBAL DEFAULT UND _ZN7android8hardware6Parc
64:   FUNC GLOBAL DEFAULT UND _ZN7android8hardware6Parc
65:   FUNC GLOBAL DEFAULT UND _ZN7android8hardware6Parc
66:   FUNC GLOBAL DEFAULT UND _ZN7android8hardware6Stat
67:   FUNC GLOBAL DEFAULT UND _ZN7android8hardware6Stat
68:   FUNC GLOBAL DEFAULT UND _ZN7android8hardware6Stat
69:   FUNC GLOBAL DEFAULT UND _ZN7android8hardware6Stat
70:   FUNC GLOBAL DEFAULT UND _ZN7android8hardware7IBin
71:   FUNC GLOBAL DEFAULT UND _ZN7android8hardware7IBin
72:   FUNC GLOBAL DEFAULT UND _ZN7android8hardware7IBin
73:   FUNC GLOBAL DEFAULT UND _ZN7android8hardware7IBin
74:   FUNC GLOBAL DEFAULT UND _ZN7android8hardware7deta
75:   FUNC GLOBAL DEFAULT UND _ZN7android8hardware7deta
76:   FUNC GLOBAL DEFAULT UND _ZN7android8hardware7deta
77:   FUNC GLOBAL DEFAULT UND _ZN7android8hardware7deta
78:   FUNC GLOBAL DEFAULT UND _ZN7android8hardware7deta
79:   FUNC GLOBAL DEFAULT UND _ZN7android8hardware7deta
80:   FUNC GLOBAL DEFAULT UND _ZN7android8hardware7deta
81:   OBJECT GLOBAL DEFAULT UND _ZN7android8hardware7deta
82:   FUNC GLOBAL DEFAULT UND _ZN7android8hardware7deta
83:   OBJECT GLOBAL DEFAULT UND _ZN7android8hardware7deta
84:   FUNC GLOBAL DEFAULT UND _ZN7android8hardware7deta
85:   FUNC GLOBAL DEFAULT UND _ZN7android8hardware7deta
86:   FUNC GLOBAL DEFAULT UND _ZN7android8hardware7deta
87:   FUNC GLOBAL DEFAULT UND _ZN7android8hardware7deta
88:   FUNC GLOBAL DEFAULT UND _ZN7android8hardware7deta
89:   FUNC GLOBAL DEFAULT UND _ZN7android8hardware7deta
90:   FUNC GLOBAL DEFAULT UND _ZN7android8hardware7deta
91:   FUNC GLOBAL DEFAULT UND _ZN7android8hardware7deta
92:   FUNC GLOBAL DEFAULT UND _ZN7android8hardware7deta
93:   FUNC GLOBAL DEFAULT UND _ZN7android8hardware7deta
94:   OBJECT GLOBAL DEFAULT UND _ZN7android8hardware7deta
95:   FUNC GLOBAL DEFAULT UND _ZN7android8hardware9BHwB
96:   FUNC GLOBAL DEFAULT UND _ZN7android8hardware9BHwB
97:   FUNC GLOBAL DEFAULT UND _ZN7android8hardware9BHwB
98:   FUNC GLOBAL DEFAULT UND _ZN7android8hardware9BHwB
99:   FUNC GLOBAL DEFAULT UND _ZN7android8hardware9BHwB
100:   FUNC GLOBAL DEFAULT UND _ZN7android8hardware9BHwB
101:   FUNC GLOBAL DEFAULT UND _ZN7android8hardware9BHwB
102:   FUNC GLOBAL DEFAULT UND _ZN7android8hardware9BHwB
103:   FUNC GLOBAL DEFAULT UND _ZN7android8hardware9BHwB
104:   FUNC GLOBAL DEFAULT UND _ZN7android8hardware9BHwB
105:   FUNC GLOBAL DEFAULT UND _ZNK7android7RefBase10cre
106:   FUNC GLOBAL DEFAULT UND _ZNK7android7RefBase11get
107:   FUNC GLOBAL DEFAULT UND _ZNK7android7RefBase9decS
108:   FUNC GLOBAL DEFAULT UND _ZNK7android7RefBase9incS
109:   FUNC GLOBAL DEFAULT UND _ZNK7android8hardware6Par
110:   FUNC GLOBAL DEFAULT UND _ZNK7android8hardware6Par
111:   FUNC GLOBAL DEFAULT UND _ZNK7android8hardware6Par
112:   FUNC GLOBAL DEFAULT UND _ZNK7android8hardware6Par
113:   FUNC GLOBAL DEFAULT UND _ZNK7android8hardware7IBi
114:   FUNC GLOBAL DEFAULT UND _ZNK7android8hardware7det
115:   FUNC GLOBAL DEFAULT UND _ZNK7android8hardware9BHw
116:   FUNC GLOBAL DEFAULT UND _ZNKSt3__120__vector_base
117:   FUNC GLOBAL DEFAULT UND _ZNKSt3__121__basic_strin
118:   FUNC GLOBAL DEFAULT UND _ZNSt3__112basic_stringIc
119:   FUNC GLOBAL DEFAULT UND _ZNSt3__15mutex4lockEv
120:   FUNC GLOBAL DEFAULT UND _ZNSt3__15mutex6unlockEv
121:   FUNC GLOBAL DEFAULT UND _ZNSt3__15mutexD1Ev
122:   FUNC GLOBAL DEFAULT UND _ZTv0_n24_N7android4hidl4
123:   FUNC GLOBAL DEFAULT UND _ZTv0_n24_N7android4hidl4
124:   FUNC GLOBAL DEFAULT UND _ZTv0_n24_N7android8hardw
125:   FUNC GLOBAL DEFAULT UND _ZTv0_n24_N7android8hardw
126:   FUNC GLOBAL DEFAULT UND _ZTv0_n24_N7android8hardw
127:   FUNC GLOBAL DEFAULT UND _ZTv0_n24_N7android8hardw
128:   FUNC GLOBAL DEFAULT UND _ZTv0_n24_N7android8hardw
129:   FUNC GLOBAL DEFAULT UND _ZTv0_n24_N7android8hardw
130:   FUNC GLOBAL DEFAULT UND _ZTv0_n24_N7android8hardw
131:   FUNC GLOBAL DEFAULT UND _ZTv0_n24_N7android8hardw
132:   FUNC GLOBAL DEFAULT UND _ZTv0_n32_N7android8hardw
133:   FUNC GLOBAL DEFAULT UND _ZTv0_n40_N7android8hardw
134:   FUNC GLOBAL DEFAULT UND _ZTv0_n48_N7android8hardw
135:   FUNC GLOBAL DEFAULT UND _ZdaPv
136:   FUNC GLOBAL DEFAULT UND _ZdlPv
137:   FUNC GLOBAL DEFAULT UND _Znam
138:   FUNC GLOBAL DEFAULT UND _Znwm
139:   FUNC GLOBAL DEFAULT UND __cxa_pure_virtual
140:   FUNC GLOBAL DEFAULT UND __stack_chk_fail@LIBC (2)
141:   FUNC GLOBAL DEFAULT UND abort@LIBC (2)
142:   FUNC GLOBAL DEFAULT UND atrace_begin_body
143:   OBJECT GLOBAL DEFAULT UND atrace_enabled_tags
144:   FUNC GLOBAL DEFAULT UND atrace_end_body
145:   OBJECT GLOBAL DEFAULT UND atrace_is_ready
146:   FUNC GLOBAL DEFAULT UND atrace_setup
147:   FUNC GLOBAL DEFAULT UND memcmp@LIBC (2)
148:   FUNC GLOBAL DEFAULT UND memcpy@LIBC (2)
149:   FUNC GLOBAL DEFAULT UND memset@LIBC (2)
150:   FUNC GLOBAL DEFAULT UND strlen@LIBC (2)
151:   FUNC GLOBAL DEFAULT UND _ZNSt3__112basic_stringIc
152:   FUNC GLOBAL DEFAULT UND _ZN7android8hardware6Parc
153:   FUNC GLOBAL DEFAULT UND _ZN7android8hardware6Parc
154:   FUNC GLOBAL DEFAULT UND _ZNK7android8hardware6Par
155:   FUNC GLOBAL DEFAULT UND _ZNK7android8hardware6Par
156:   OBJECT GLOBAL DEFAULT 18 _ZTCN7android10frameworks
157:   FUNC WEAK DEFAULT 14 _ZN7android8hardware10fro
158:   OBJECT GLOBAL DEFAULT 18 _ZTTN7android10frameworks
159:   FUNC GLOBAL DEFAULT 14 _ZN7android10frameworks14
160:   FUNC GLOBAL DEFAULT 14 _ZThn32_N7android10framew
161:   FUNC GLOBAL DEFAULT 14 _ZN7android10frameworks14
162:   FUNC GLOBAL DEFAULT 14 _ZN7android10frameworks14
163:   FUNC WEAK DEFAULT 14 _ZNSt3__16vectorIPvNS_9al
164:   OBJECT WEAK DEFAULT 18 _ZTVN7android10frameworks
165:   FUNC GLOBAL DEFAULT 14 _ZN7android10frameworks14
166:   FUNC GLOBAL DEFAULT 14 _ZN7android10frameworks14
167:   FUNC GLOBAL DEFAULT 14 _ZN7android10frameworks14
168:   OBJECT GLOBAL DEFAULT 18 _ZTCN7android10frameworks
169:   FUNC GLOBAL DEFAULT 14 _ZN7android10frameworks14
170:   FUNC GLOBAL DEFAULT 14 _ZN7android10frameworks14
171:   OBJECT GLOBAL DEFAULT 18 _ZTCN7android10frameworks
172:   FUNC GLOBAL DEFAULT 14 _ZN7android10frameworks14
173:   FUNC GLOBAL DEFAULT 14 _ZN7android10frameworks14
174:   FUNC WEAK DEFAULT 14 _ZNSt3__113__tree_removeI
175:   FUNC GLOBAL DEFAULT 14 _ZN7android10frameworks14
176:   FUNC GLOBAL DEFAULT 14 _ZN7android10frameworks14
177:   FUNC GLOBAL DEFAULT 14 _ZN7android10frameworks14
178:   FUNC GLOBAL DEFAULT 14 _ZN7android10frameworks14
179:   FUNC GLOBAL DEFAULT 14 _ZN7android10frameworks14
180:   OBJECT GLOBAL DEFAULT 18 _ZTCN7android10frameworks
181:   FUNC WEAK DEFAULT 14 _ZN7android8hardware7deta
182:   OBJECT GLOBAL DEFAULT 18 _ZTCN7android10frameworks
183:   OBJECT GLOBAL DEFAULT 18 _ZTCN7android10frameworks
184:   FUNC GLOBAL DEFAULT 14 _ZN7android10frameworks14
185:   FUNC GLOBAL DEFAULT 14 _ZN7android10frameworks14
186:   FUNC GLOBAL DEFAULT 14 _ZTv0_n24_N7android10fram
187:   OBJECT GLOBAL DEFAULT 18 _ZTVN7android10frameworks
188:   FUNC GLOBAL DEFAULT 14 _ZThn32_N7android10framew
189:   FUNC GLOBAL DEFAULT 14 _ZN7android10frameworks14
190:   FUNC GLOBAL DEFAULT 14 _ZN7android10frameworks14
191:   OBJECT GLOBAL DEFAULT 18 _ZTCN7android10frameworks
192:   FUNC GLOBAL DEFAULT 14 _ZN7android10frameworks14
193:   FUNC GLOBAL DEFAULT 14 _ZN7android10frameworks14
194:   FUNC GLOBAL DEFAULT 14 _ZN7android10frameworks14
195:   FUNC GLOBAL DEFAULT 14 _ZN7android10frameworks14
196:   FUNC GLOBAL DEFAULT 14 _ZN7android10frameworks14
197:   FUNC GLOBAL DEFAULT 14 _ZN7android10frameworks14
198:   FUNC GLOBAL DEFAULT 14 _ZN7android10frameworks14
199:   OBJECT GLOBAL DEFAULT 18 _ZTCN7android10frameworks
200:   FUNC GLOBAL DEFAULT 14 _ZN7android10frameworks14
201:   FUNC WEAK DEFAULT 14 _ZNSt3__16__treeINS_12__v
202:   OBJECT WEAK DEFAULT 18 _ZTCN7android10frameworks
203:   OBJECT GLOBAL DEFAULT 18 _ZTTN7android10frameworks
204:   FUNC GLOBAL DEFAULT 14 _ZN7android10frameworks14
205:   OBJECT GLOBAL DEFAULT 18 _ZTCN7android10frameworks
206:   FUNC GLOBAL DEFAULT 14 _ZN7android10frameworks14
207:   FUNC GLOBAL DEFAULT 14 _ZN7android10frameworks14
208:   FUNC GLOBAL DEFAULT 14 _ZN7android10frameworks14
209:   FUNC GLOBAL DEFAULT 14 _ZN7android10frameworks14
210:   FUNC GLOBAL DEFAULT 14 _ZN7android10frameworks14
211:   FUNC GLOBAL DEFAULT 14 _ZN7android10frameworks14
212:   FUNC GLOBAL DEFAULT 14 _ZN7android10frameworks14
213:   FUNC GLOBAL DEFAULT 14 _ZTv0_n24_N7android10fram
214:   FUNC GLOBAL DEFAULT 14 _ZN7android10frameworks14
215:   FUNC GLOBAL DEFAULT 14 _ZN7android10frameworks14
216:   OBJECT GLOBAL DEFAULT 16 _ZN7android10frameworks14
217:   FUNC GLOBAL DEFAULT 14 _ZN7android10frameworks14
218:   FUNC GLOBAL DEFAULT 14 _ZTv0_n24_N7android10fram
219:   FUNC GLOBAL DEFAULT 14 _ZN7android10frameworks14
220:   FUNC GLOBAL DEFAULT 14 _ZN7android10frameworks14
221:   OBJECT GLOBAL DEFAULT 18 _ZTTN7android10frameworks
222:   FUNC GLOBAL DEFAULT 14 _ZN7android10frameworks14
223:   FUNC WEAK DEFAULT 14 _ZN7android8hardware7deta
224:   FUNC WEAK DEFAULT 14 _ZNSt3__16__treeINS_12__v
225:   OBJECT GLOBAL DEFAULT 18 _ZTCN7android10frameworks
226:   FUNC GLOBAL DEFAULT 14 _ZN7android10frameworks14
227:   FUNC GLOBAL DEFAULT 14 _ZN7android10frameworks14
228:   FUNC GLOBAL DEFAULT 14 _ZN7android10frameworks14
229:   OBJECT GLOBAL DEFAULT 18 _ZTCN7android10frameworks
230:   OBJECT GLOBAL DEFAULT 18 _ZTCN7android10frameworks
231:   FUNC GLOBAL DEFAULT 14 _ZN7android10frameworks14
232:   FUNC GLOBAL DEFAULT 14 _ZN7android10frameworks14
233:   FUNC GLOBAL DEFAULT 14 _ZN7android10frameworks14
234:   FUNC GLOBAL DEFAULT 14 _ZN7android10frameworks14
235:   FUNC GLOBAL DEFAULT 14 _ZN7android10frameworks14
236:   OBJECT GLOBAL DEFAULT 18 _ZTTN7android10frameworks
237:   FUNC GLOBAL DEFAULT 14 _ZN7android10frameworks14
238:   FUNC GLOBAL DEFAULT 14 _ZN7android10frameworks14
239:   FUNC GLOBAL DEFAULT 14 _ZN7android10frameworks14
240:   FUNC GLOBAL DEFAULT 14 _ZN7android10frameworks14
241:   FUNC WEAK DEFAULT 14 _ZN7android8hardware10fro
242:   FUNC WEAK DEFAULT 14 _ZNSt3__16__treeINS_12__v
243:   OBJECT GLOBAL DEFAULT 18 _ZTVN7android10frameworks
244:   FUNC GLOBAL DEFAULT 14 _ZN7android10frameworks14
245:   OBJECT GLOBAL DEFAULT 18 _ZTCN7android10frameworks
246:   FUNC GLOBAL DEFAULT 14 _ZN7android10frameworks14
247:   FUNC GLOBAL DEFAULT 14 _ZN7android10frameworks14
248:   FUNC GLOBAL DEFAULT 14 _ZN7android10frameworks14
249:   FUNC GLOBAL DEFAULT 14 _ZN7android10frameworks14
250:   OBJECT WEAK DEFAULT 18 _ZTCN7android10frameworks
251:   FUNC GLOBAL DEFAULT 14 _ZN7android10frameworks14
252:   FUNC GLOBAL DEFAULT 14 _ZN7android10frameworks14
253:   OBJECT GLOBAL DEFAULT 18 _ZTCN7android10frameworks
254:   FUNC WEAK DEFAULT 14 _ZN7android8hardware7deta
255:   FUNC GLOBAL DEFAULT 14 _ZN7android10frameworks14
256:   FUNC GLOBAL DEFAULT 14 _ZN7android10frameworks14
257:   FUNC GLOBAL DEFAULT 14 _ZN7android10frameworks14
258:   FUNC GLOBAL DEFAULT 14 _ZN7android10frameworks14
259:   FUNC GLOBAL DEFAULT 14 _ZN7android10frameworks14
260:   FUNC GLOBAL DEFAULT 14 _ZN7android10frameworks14
261:   OBJECT GLOBAL DEFAULT 18 _ZTTN7android10frameworks
262:   FUNC WEAK DEFAULT 14 _ZNSt3__16__treeINS_12__v
263:   OBJECT GLOBAL DEFAULT 18 _ZTTN7android10frameworks
264:   FUNC GLOBAL DEFAULT 14 _ZThn32_N7android10framew
265:   OBJECT GLOBAL DEFAULT 18 _ZTCN7android10frameworks
266:   OBJECT GLOBAL DEFAULT 18 _ZTCN7android10frameworks
267:   FUNC GLOBAL DEFAULT 14 _ZN7android10frameworks14
268:   FUNC GLOBAL DEFAULT 14 _ZN7android10frameworks14
269:   FUNC GLOBAL DEFAULT 14 _ZN7android10frameworks14
270:   OBJECT GLOBAL DEFAULT 18 _ZTVN7android10frameworks
271:   FUNC GLOBAL DEFAULT 14 _ZN7android10frameworks14
272:   FUNC WEAK DEFAULT 14 _ZNSt3__127__tree_balance
273:   FUNC GLOBAL DEFAULT 14 _ZN7android10frameworks14
274:   OBJECT GLOBAL DEFAULT 18 _ZTCN7android10frameworks
275:   OBJECT WEAK DEFAULT 18 _ZTVN7android10frameworks
276:   FUNC GLOBAL DEFAULT 14 _ZN7android10frameworks14
277:   FUNC GLOBAL DEFAULT 14 _ZThn32_N7android10framew
278:   FUNC WEAK DEFAULT 14 _ZNSt3__16vectorINS_8func
279:   FUNC GLOBAL DEFAULT 14 _ZN7android10frameworks14
280:   FUNC GLOBAL DEFAULT 14 _ZN7android10frameworks14
281:   FUNC GLOBAL DEFAULT 14 _ZN7android10frameworks14
282:   FUNC GLOBAL DEFAULT 14 _ZN7android10frameworks14
283:   FUNC WEAK DEFAULT 14 _ZNSt3__16vectorIN7androi
284:   FUNC GLOBAL DEFAULT 14 _ZN7android10frameworks14
285:   OBJECT GLOBAL DEFAULT 18 _ZTCN7android10frameworks
286:   FUNC GLOBAL DEFAULT 14 _ZN7android10frameworks14
287:   FUNC GLOBAL DEFAULT 14 _ZN7android10frameworks14
288:   FUNC GLOBAL DEFAULT 14 _ZN7android10frameworks14
289:   FUNC GLOBAL DEFAULT 14 _ZN7android10frameworks14
290:   OBJECT GLOBAL DEFAULT 16 _ZN7android10frameworks14
291:   OBJECT GLOBAL DEFAULT 18 _ZTCN7android10frameworks
292:   FUNC GLOBAL DEFAULT 14 _ZTv0_n24_N7android10fram
293:   FUNC WEAK DEFAULT 14 _ZN7android8hardware7deta
294:   FUNC GLOBAL DEFAULT 14 _ZN7android10frameworks14
295:   FUNC GLOBAL DEFAULT 14 _ZN7android10frameworks14
296:   FUNC GLOBAL DEFAULT 14 _ZN7android10frameworks14
297:   FUNC GLOBAL DEFAULT 14 _ZN7android10frameworks14
298:   FUNC GLOBAL DEFAULT 14 _ZN7android10frameworks14
299:   FUNC GLOBAL DEFAULT 14 _ZN7android10frameworks14
300:   OBJECT GLOBAL DEFAULT 18 _ZTCN7android10frameworks
301:   OBJECT GLOBAL DEFAULT 18 _ZTVN7android10frameworks
302:   FUNC GLOBAL DEFAULT 14 _ZN7android10frameworks14
303:   FUNC GLOBAL DEFAULT 14 _ZN7android10frameworks14
304:   FUNC GLOBAL DEFAULT 14 _ZN7android10frameworks14
305:   FUNC GLOBAL DEFAULT 14 _ZN7android10frameworks14
306:   FUNC WEAK DEFAULT 14 _ZN7android8hardware7deta
307:   FUNC GLOBAL DEFAULT 14 _ZN7android10frameworks14
308:   OBJECT GLOBAL DEFAULT 18 _ZTCN7android10frameworks
309:   FUNC GLOBAL DEFAULT 14 _ZN7android10frameworks14
310:   OBJECT GLOBAL DEFAULT 18 _ZTCN7android10frameworks
311:   OBJECT WEAK DEFAULT 18 _ZTVN7android10frameworks
312:   FUNC GLOBAL DEFAULT 14 _ZN7android10frameworks14
313:   FUNC GLOBAL DEFAULT 14 _ZN7android10frameworks14
314:   FUNC GLOBAL DEFAULT 14 _ZN7android10frameworks14
315:   FUNC GLOBAL DEFAULT 14 _ZN7android10frameworks14
316:   OBJECT GLOBAL DEFAULT 18 _ZTTN7android10frameworks
317:   FUNC GLOBAL DEFAULT 14 _ZN7android10frameworks14
318:   FUNC GLOBAL DEFAULT 14 _ZN7android10frameworks14
319:   FUNC GLOBAL DEFAULT 14 _ZN7android10frameworks14
320:   OBJECT WEAK DEFAULT 18 _ZTCN7android10frameworks
321:   FUNC GLOBAL DEFAULT 14 _ZN7android10frameworks14
322:   FUNC GLOBAL DEFAULT 14 _ZN7android10frameworks14
323:   FUNC GLOBAL DEFAULT 14 _ZN7android10frameworks14
324:   FUNC GLOBAL DEFAULT 14 _ZN7android10frameworks14
325:   FUNC WEAK DEFAULT 14 _ZN7android8hardware7deta
326:   FUNC GLOBAL DEFAULT 14 _ZThn32_N7android10framew
327:   FUNC WEAK DEFAULT 14 _ZN7android8hardware7deta
328:   OBJECT GLOBAL DEFAULT 18 _ZTVN7android10frameworks
329:   OBJECT GLOBAL DEFAULT 18 _ZTCN7android10frameworks
330:   FUNC GLOBAL DEFAULT 14 _ZN7android10frameworks14
331:   FUNC GLOBAL DEFAULT 14 _ZN7android10frameworks14
332:   OBJECT GLOBAL DEFAULT 18 _ZTTN7android10frameworks
333:   OBJECT GLOBAL DEFAULT 18 _ZTVN7android10frameworks
334:   FUNC GLOBAL DEFAULT 14 _ZN7android10frameworks14
335:   FUNC GLOBAL DEFAULT 14 _ZN7android10frameworks14
336:   OBJECT GLOBAL DEFAULT 18 _ZTVN7android10frameworks
337:   FUNC GLOBAL DEFAULT 14 _ZN7android10frameworks14
338:   FUNC GLOBAL DEFAULT 14 _ZN7android10frameworks14
339:   FUNC GLOBAL DEFAULT 14 _ZN7android10frameworks14
340:   OBJECT GLOBAL DEFAULT 18 _ZTCN7android10frameworks
341:   FUNC GLOBAL DEFAULT 14 _ZN7android10frameworks14
342:   OBJECT GLOBAL DEFAULT 18 _ZTVN7android10frameworks
343:   FUNC GLOBAL DEFAULT 14 _ZN7android10frameworks14
344:   FUNC GLOBAL DEFAULT 14 _ZN7android10frameworks14
345:   FUNC GLOBAL DEFAULT 14 _ZN7android10frameworks14
346:   FUNC WEAK DEFAULT 14 _ZN7android8hardware7deta
347:   FUNC GLOBAL DEFAULT 14 _ZN7android10frameworks14
348:   FUNC GLOBAL DEFAULT 14 _ZTv0_n24_N7android10fram
349:   FUNC GLOBAL DEFAULT 14 _ZN7android10frameworks14
350:   FUNC GLOBAL DEFAULT 14 _ZN7android10frameworks14
351:   FUNC WEAK DEFAULT 14 _ZNSt3__16__treeINS_12__v
352:   FUNC GLOBAL DEFAULT 14 _ZTv0_n24_N7android10fram
353:   FUNC GLOBAL DEFAULT 14 _ZN7android10frameworks14
354:   OBJECT GLOBAL DEFAULT 18 _ZTVN7android10frameworks
355:   OBJECT GLOBAL DEFAULT 18 _ZTTN7android10frameworks
356:   FUNC GLOBAL DEFAULT 14 _ZN7android10frameworks14
357:   FUNC GLOBAL DEFAULT 14 _ZN7android10frameworks14
358:   FUNC GLOBAL DEFAULT 14 _ZN7android10frameworks14
359:   FUNC WEAK DEFAULT 14 _ZNSt3__16__treeINS_12__v
360:   OBJECT GLOBAL DEFAULT 18 _ZTCN7android10frameworks
361:   FUNC GLOBAL DEFAULT 14 _ZN7android10frameworks14
362:   FUNC GLOBAL DEFAULT 14 _ZN7android10frameworks14
363:   FUNC GLOBAL DEFAULT 14 _ZN7android10frameworks14
364:   FUNC GLOBAL DEFAULT 14 _ZN7android10frameworks14
365:   FUNC GLOBAL DEFAULT 14 _ZN7android10frameworks14
366:   FUNC GLOBAL DEFAULT 14 _ZN7android10frameworks14
367:   FUNC GLOBAL DEFAULT 14 _ZN7android10frameworks14
368:   FUNC GLOBAL DEFAULT 14 _ZThn32_N7android10framew
369:   OBJECT GLOBAL DEFAULT 18 _ZTCN7android10frameworks
370:   FUNC GLOBAL DEFAULT 14 _ZN7android10frameworks14
371:   FUNC GLOBAL DEFAULT 14 _ZN7android10frameworks14
372:   FUNC GLOBAL DEFAULT 14 _ZN7android10frameworks14
373:   OBJECT GLOBAL DEFAULT 16 _ZN7android10frameworks14
374:   OBJECT GLOBAL DEFAULT 18 _ZTCN7android10frameworks
375:   FUNC GLOBAL DEFAULT 14 _ZN7android10frameworks14
376:   FUNC GLOBAL DEFAULT 14 _ZN7android10frameworks14
377:   FUNC GLOBAL DEFAULT 14 _ZN7android10frameworks14
378:   FUNC GLOBAL DEFAULT 14 _ZN7android10frameworks14
379:   FUNC GLOBAL DEFAULT 14 _ZN7android10frameworks14
380:   FUNC GLOBAL DEFAULT 14 _ZN7android10frameworks14
