 0x0000000e (SONAME)                     Library soname: [libcamera_metadata.so]
  
Symbol   contains 74 entries:
Num:   Type Bind Vis Ndx Name
0:   NOTYPE LOCAL DEFAULT UND
1:   FUNC GLOBAL DEFAULT UND __cxa_finalize@LIBC (2)
2:   FUNC GLOBAL DEFAULT UND __android_log_error_write@LIBLOG_M (3)
3:   FUNC GLOBAL DEFAULT UND __android_log_print@LIBLOG (4)
4:   FUNC GLOBAL DEFAULT UND __stack_chk_fail@LIBC (2)
5:   OBJECT GLOBAL DEFAULT UND __stack_chk_guard@LIBC (2)
6:   FUNC GLOBAL DEFAULT UND bsearch@LIBC (2)
7:   FUNC GLOBAL DEFAULT UND calloc@LIBC (2)
8:   FUNC GLOBAL DEFAULT UND dprintf@LIBC (2)
9:   FUNC GLOBAL DEFAULT UND free@LIBC (2)
10:   FUNC GLOBAL DEFAULT UND qsort@LIBC (2)
11:   FUNC GLOBAL DEFAULT UND strncpy@LIBC (2)
12:   FUNC GLOBAL DEFAULT UND memcpy@LIBC (2)
13:   FUNC GLOBAL DEFAULT UND memmove@LIBC (2)
14:   FUNC GLOBAL DEFAULT UND memset@LIBC (2)
15:   FUNC GLOBAL DEFAULT 13 get_camera_metadata_entry
16:   FUNC GLOBAL DEFAULT 13 get_local_camera_metadata
17:   FUNC GLOBAL DEFAULT 13 __aeabi_memmove8
18:   FUNC GLOBAL DEFAULT 13 calculate_camera_metadata
19:   FUNC GLOBAL DEFAULT 13 dump_indented_camera_meta
20:   FUNC GLOBAL DEFAULT 13 get_camera_metadata_data_
21:   FUNC GLOBAL DEFAULT 13 get_local_camera_metadata
22:   FUNC GLOBAL DEFAULT 13 __aeabi_memmove
23:   FUNC GLOBAL DEFAULT 13 copy_camera_metadata
24:   FUNC GLOBAL DEFAULT 13 get_camera_metadata_vendo
25:   FUNC GLOBAL DEFAULT 13 get_local_camera_metadata
26:   FUNC GLOBAL DEFAULT 13 get_local_camera_metadata
27:   FUNC GLOBAL DEFAULT 13 set_camera_metadata_vendo
28:   FUNC GLOBAL DEFAULT 13 append_camera_metadata
29:   OBJECT GLOBAL DEFAULT 15 camera_metadata_section_n
30:   FUNC GLOBAL DEFAULT 13 get_camera_metadata_align
31:   FUNC GLOBAL DEFAULT 13 get_camera_metadata_compa
32:   FUNC GLOBAL DEFAULT 13 get_camera_metadata_entry
33:   FUNC GLOBAL DEFAULT 13 sort_camera_metadata
34:   FUNC GLOBAL DEFAULT 13 __aeabi_memcpy4
35:   OBJECT GLOBAL DEFAULT 15 camera_metadata_type_name
36:   FUNC GLOBAL DEFAULT 13 clone_camera_metadata
37:   FUNC GLOBAL DEFAULT 13 get_camera_metadata_entry
38:   FUNC GLOBAL DEFAULT 13 set_camera_metadata_vendo
39:   FUNC GLOBAL DEFAULT 13 __aeabi_memcpy
40:   FUNC GLOBAL DEFAULT 13 calculate_camera_metadata
41:   FUNC GLOBAL DEFAULT 13 camera_metadata_enum_snpr
42:   FUNC GLOBAL DEFAULT 13 find_camera_metadata_entr
43:   FUNC GLOBAL DEFAULT 13 find_camera_metadata_ro_e
44:   FUNC GLOBAL DEFAULT 13 free_camera_metadata
45:   FUNC GLOBAL DEFAULT 13 get_camera_metadata_secti
46:   FUNC GLOBAL DEFAULT 13 get_camera_metadata_tag_n
47:   FUNC GLOBAL DEFAULT 13 __aeabi_memclr
48:   OBJECT GLOBAL DEFAULT 12 camera_metadata_type_size
49:   FUNC GLOBAL DEFAULT 13 delete_camera_metadata_en
50:   FUNC GLOBAL DEFAULT 13 validate_camera_metadata_
51:   FUNC GLOBAL DEFAULT 13 __aeabi_memcpy8
52:   FUNC GLOBAL DEFAULT 13 get_camera_metadata_ro_en
53:   FUNC GLOBAL DEFAULT 13 set_camera_metadata_vendo
54:   FUNC GLOBAL DEFAULT 13 __aeabi_memclr4
55:   FUNC GLOBAL DEFAULT 13 get_local_camera_metadata
56:   FUNC GLOBAL DEFAULT 13 get_local_camera_metadata
57:   FUNC GLOBAL DEFAULT 13 update_camera_metadata_en
58:   FUNC GLOBAL DEFAULT 13 __aeabi_memset
59:   FUNC GLOBAL DEFAULT 13 __aeabi_memset4
60:   FUNC GLOBAL DEFAULT 13 __aeabi_memmove4
61:   FUNC GLOBAL DEFAULT 13 add_camera_metadata_entry
62:   FUNC GLOBAL DEFAULT 13 get_camera_metadata_permi
63:   FUNC GLOBAL DEFAULT 13 allocate_camera_metadata
64:   FUNC GLOBAL DEFAULT 13 allocate_copy_camera_meta
65:   OBJECT GLOBAL DEFAULT 15 camera_metadata_section_b
66:   FUNC GLOBAL DEFAULT 13 get_camera_metadata_data_
67:   FUNC GLOBAL DEFAULT 13 place_camera_metadata
68:   FUNC GLOBAL DEFAULT 13 __aeabi_memclr8
69:   FUNC GLOBAL DEFAULT 13 dump_camera_metadata
70:   FUNC GLOBAL DEFAULT 13 get_camera_metadata_size
71:   FUNC GLOBAL DEFAULT 13 get_camera_metadata_tag_t
72:   FUNC GLOBAL DEFAULT 13 set_camera_metadata_vendo
73:   FUNC GLOBAL DEFAULT 13 __aeabi_memset8
